1871
-0.427854, 1, 97, 319, 352
-0.498568, 1, 225, 319, 480
-0.571396, 1, 1, 319, 480
-0.587849, 1, 1, 319, 256
-0.600629, 1, 1, 256, 480
-0.66552, 1, 161, 256, 416
-0.738684, 65, 65, 319, 320
-0.857729, 33, 129, 160, 384
-0.878923, 1, 177, 319, 304
-0.884231, 97, 193, 224, 448
-0.893172, 161, 129, 288, 384
-0.906875, 1, 337, 319, 464
-0.90716, 1, 225, 319, 352
-0.907241, 1, 129, 319, 256
-0.907302, 81, 65, 208, 320
-0.912996, 33, 225, 160, 480
-0.913856, 145, 1, 272, 480
-0.91619, 145, 225, 272, 480
-0.917606, 193, 225, 319, 480
-0.918447, 17, 1, 144, 480
-0.920041, 1, 177, 256, 304
-0.924659, 33, 33, 160, 288
-0.927515, 97, 1, 224, 480
-0.928546, 161, 33, 288, 288
-0.931199, 1, 225, 256, 352
-0.932573, 193, 1, 319, 480
-0.936967, 1, 129, 256, 256
-0.93783, 33, 161, 160, 288
-0.940792, 1, 353, 256, 480
-0.945837, 33, 161, 96, 288
-0.948289, 1, 289, 319, 416
-0.950554, 57, 129, 120, 256
-0.950821, 33, 353, 160, 480
-0.951677, 97, 193, 224, 320
-0.953102, 97, 177, 160, 304
-0.953298, 9, 177, 72, 304
-0.953858, 65, 137, 128, 200
-0.954025, 1, 305, 256, 432
-0.954152, 177, 161, 304, 288
-0.954242, 249, 225, 312, 352
-0.955269, 121, 177, 184, 304
-0.95738, 57, 337, 120, 464
-0.958304, 1, 81, 319, 208
-0.959653, 81, 145, 208, 272
-0.96058, 113, 241, 240, 368
-0.96088, 17, 113, 144, 240
-0.961127, 49, 161, 112, 224
-0.961652, 49, 209, 176, 336
-0.961868, 145, 209, 208, 336
-0.962652, 169, 177, 232, 304
-0.9631, 105, 225, 168, 352
-0.963347, 9, 129, 72, 256
-0.963389, 1, 1, 319, 128
-0.963914, 225, 241, 288, 368
-0.96403, 25, 185, 88, 248
-0.965031, 97, 353, 160, 480
-0.966314, 193, 393, 256, 456
-0.966458, 33, 81, 288, 208
-0.966575, 193, 241, 319, 368
-0.96676, 81, 129, 144, 256
-0.967678, 161, 353, 288, 480
-0.967721, 129, 401, 192, 464
-0.967845, 17, 337, 80, 464
-0.968336, 217, 409, 280, 472
-0.968621, 73, 161, 136, 224
-0.969118, 1, 209, 128, 336
-0.969139, 81, 353, 208, 480
-0.969476, 33, 161, 160, 224
-0.969494, 1, 225, 64, 352
-0.969797, 129, 129, 192, 256
-0.969875, 177, 417, 240, 480
-0.970284, 241, 249, 304, 312
-0.970321, 1, 225, 64, 288
-0.970896, 129, 185, 192, 248
-0.971369, 105, 233, 168, 296
-0.971449, 81, 409, 144, 472
-0.971934, 169, 393, 232, 456
-0.972107, 25, 161, 88, 224
-0.972181, 241, 417, 304, 480
-0.972188, 241, 177, 304, 304
-0.972344, 129, 145, 256, 272
-0.97237, 201, 241, 264, 368
-0.972803, 113, 97, 240, 224
-0.972821, 73, 97, 136, 352
-0.973152, 41, 177, 72, 304
-0.973187, 137, 233, 200, 296
-0.973319, 1, 305, 128, 432
-0.973429, 137, 337, 200, 464
-0.973499, 169, 257, 232, 384
-0.973695, 33, 209, 96, 336
-0.97425, 33, 113, 96, 240
-0.974315, 89, 185, 152, 248
-0.974485, 177, 417, 304, 480
-0.974494, 241, 393, 304, 456
-0.974711, 1, 393, 64, 456
-0.974773, 49, 393, 112, 456
-0.974776, 201, 265, 264, 328
-0.974836, 97, 401, 224, 464
-0.974869, 257, 217, 319, 280
-0.974878, 81, 305, 144, 432
-0.975034, 241, 353, 304, 480
-0.975179, 217, 337, 280, 464
-0.975604, 169, 257, 232, 320
-0.975697, 25, 209, 88, 272
-0.976005, 41, 137, 104, 200
-0.976015, 49, 129, 112, 384
-0.976023, 73, 177, 136, 304
-0.97614, 97, 161, 160, 224
-0.976148, 129, 161, 192, 224
-0.976174, 33, 393, 160, 456
-0.976622, 129, 209, 192, 272
-0.976627, 105, 129, 168, 256
-0.976681, 49, 305, 176, 432
-0.976943, 49, 137, 176, 200
-0.9772, 105, 393, 168, 456
-0.977687, 1, 193, 64, 256
-0.977716, 213, 257, 244, 320
-0.977743, 285, 209, 316, 272
-0.977883, 117, 177, 148, 304
-0.977929, 193, 113, 319, 240
-0.978039, 17, 257, 144, 384
-0.978207, 117, 169, 148, 232
-0.978285, 25, 393, 88, 456
-0.978327, 33, 177, 64, 240
-0.978354, 17, 185, 144, 248
-0.978393, 33, 417, 96, 480
-0.978408, 9, 137, 72, 200
-0.978611, 53, 145, 84, 272
-0.978717, 113, 305, 240, 432
-0.978876, 105, 225, 168, 480
-0.978878, 161, 233, 224, 296
-0.978881, 81, 177, 208, 240
-0.978888, 65, 257, 192, 384
-0.978999, 25, 233, 88, 296
-0.979211, 33, 417, 160, 480
-0.979291, 81, 225, 144, 352
-0.97932, 57, 145, 88, 208
-0.979403, 93, 145, 124, 208
-0.979481, 57, 417, 120, 480
-0.979599, 81, 233, 208, 296
-0.979693, 41, 257, 104, 384
-0.979753, 177, 353, 240, 480
-0.98, 169, 369, 232, 432
-0.98021, 33, 369, 96, 432
-0.980249, 5, 209, 36, 336
-0.980259, 217, 385, 280, 448
-0.980287, 21, 193, 52, 320
-0.980345, 121, 257, 184, 320
-0.980396, 209, 241, 272, 304
-0.980426, 1, 193, 64, 448
-0.980595, 145, 257, 208, 320
-0.980668, 249, 113, 312, 240
-0.980696, 45, 161, 76, 224
-0.980699, 81, 377, 144, 440
-0.980752, 225, 305, 288, 368
-0.980771, 97, 153, 224, 216
-0.980962, 105, 305, 168, 432
-0.980976, 161, 393, 288, 456
-0.980986, 105, 145, 136, 272
-0.981037, 169, 201, 232, 264
-0.98107, 1, 209, 128, 272
-0.981191, 81, 129, 112, 192
-0.981327, 57, 305, 120, 368
-0.981354, 113, 137, 176, 200
-0.981356, 201, 129, 264, 256
-0.98141, 201, 129, 264, 384
-0.981481, 89, 137, 152, 200
-0.981506, 105, 417, 168, 480
-0.981549, 1, 369, 64, 432
-0.981555, 97, 129, 160, 384
-0.981863, 201, 265, 232, 328
-0.981904, 145, 257, 208, 384
-0.981949, 21, 193, 52, 256
-0.982192, 105, 209, 168, 272
-0.982273, 73, 81, 136, 208
-0.982289, 41, 129, 72, 256
-0.982321, 193, 369, 256, 432
-0.982409, 249, 185, 312, 248
-0.982421, 233, 361, 296, 424
-0.982424, 129, 177, 160, 304
-0.982527, 65, 217, 128, 280
-0.982551, 65, 209, 192, 272
-0.982581, 181, 401, 212, 464
-0.982585, 33, 241, 160, 304
-0.982604, 161, 305, 288, 432
-0.982704, 233, 289, 296, 416
-0.982747, 1, 225, 32, 288
-0.982971, 121, 361, 184, 424
-0.983127, 129, 249, 256, 312
-0.983247, 201, 153, 264, 216
-0.983347, 201, 409, 232, 472
-0.983348, 229, 265, 260, 328
-0.983383, 69, 129, 100, 192
-0.983399, 65, 97, 192, 224
-0.983449, 65, 1, 319, 128
-0.983701, 49, 193, 112, 256
-0.983716, 25, 193, 88, 448
-0.983716, 145, 369, 208, 432
-0.983725, 209, 241, 240, 368
-0.983902, 129, 233, 160, 296
-0.983986, 93, 129, 124, 256
-0.984026, 245, 249, 276, 312
-0.984039, 177, 129, 240, 384
-0.984069, 153, 417, 216, 480
-0.984239, 105, 169, 136, 232
-0.984271, 241, 225, 304, 480
-0.984292, 237, 401, 268, 464
-0.984358, 245, 241, 276, 368
-0.984669, 25, 265, 88, 328
-0.984694, 177, 185, 304, 248
-0.984695, 161, 401, 192, 464
-0.984714, 65, 129, 96, 256
-0.984777, 21, 337, 52, 464
-0.984787, 257, 145, 319, 208
-0.984855, 81, 305, 144, 368
-0.984947, 249, 305, 312, 368
-0.984996, 1, 137, 128, 200
-0.985041, 225, 409, 256, 472
-0.985101, 253, 393, 284, 456
-0.985179, 169, 177, 232, 240
-0.985198, 233, 121, 296, 184
-0.985223, 25, 129, 56, 256
-0.985226, 241, 329, 304, 392
-0.985306, 121, 97, 184, 352
-0.985329, 117, 129, 148, 256
-0.985379, 193, 249, 319, 312
-0.985469, 201, 225, 264, 480
-0.985501, 201, 289, 264, 352
-0.985548, 225, 113, 288, 240
-0.985569, 161, 113, 224, 240
-0.985606, 193, 273, 319, 336
-0.985627, 9, 97, 72, 352
-0.985655, 169, 305, 232, 432
-0.985664, 229, 257, 260, 384
-0.985814, 273, 209, 304, 272
-0.98585, 25, 337, 88, 400
-0.98589, 129, 185, 160, 248
-0.985891, 201, 193, 264, 320
-0.985893, 129, 1, 256, 128
-0.985901, 145, 225, 208, 480
-0.985905, 81, 353, 144, 416
-0.985997, 177, 161, 304, 224
-0.986038, 257, 289, 319, 416
-0.986061, 169, 225, 232, 480
-0.986119, 153, 145, 216, 208
-0.986208, 73, 257, 136, 320
-0.98624, 65, 369, 192, 432
-0.986362, 277, 209, 308, 336
-0.986438, 225, 129, 288, 384
-0.98645, 153, 313, 216, 376
-0.986518, 185, 377, 216, 440
-0.986525, 61, 393, 92, 456
-0.986555, 241, 273, 304, 336
-0.986606, 45, 393, 76, 456
-0.986632, 105, 409, 136, 472
-0.986644, 289, 177, 319, 304
-0.986728, 153, 193, 184, 320
-0.986792, 197, 241, 228, 368
-0.986792, 45, 337, 76, 464
-0.986934, 49, 113, 112, 176
-0.986957, 57, 337, 120, 400
-0.986958, 153, 217, 184, 280
-0.987023, 149, 337, 180, 464
-0.987068, 177, 281, 240, 344
-0.98709, 9, 417, 72, 480
-0.987121, 117, 145, 148, 208
-0.987164, 105, 321, 168, 384
-0.98718, 129, 193, 256, 256
-0.987231, 145, 97, 208, 352
-0.987257, 65, 281, 128, 344
-0.987258, 193, 1, 319, 128
-0.98726, 17, 289, 80, 416
-0.987297, 201, 329, 264, 392
-0.987331, 121, 209, 152, 272
-0.987347, 25, 225, 56, 288
-0.987398, 201, 81, 264, 208
-0.987466, 257, 369, 319, 432
-0.987485, 1, 337, 32, 464
-0.987498, 85, 409, 116, 472
-0.987526, 113, 81, 176, 208
-0.987593, 33, 297, 96, 360
-0.987602, 285, 185, 316, 248
-0.98766, 97, 129, 224, 192
-0.987702, 129, 225, 160, 352
-0.987762, 9, 201, 40, 264
-0.987884, 237, 329, 268, 392
-0.987927, 177, 193, 208, 320
-0.987965, 73, 393, 104, 456
-0.987977, 57, 169, 88, 232
-0.987989, 265, 417, 296, 480
-0.988011, 193, 129, 319, 192
-0.988104, 117, 409, 148, 472
-0.988123, 137, 401, 168, 464
-0.988128, 201, 289, 264, 416
-0.988196, 201, 129, 264, 192
-0.988203, 253, 417, 284, 480
-0.988301, 1, 265, 128, 328
-0.988348, 273, 393, 304, 456
-0.988361, 89, 113, 152, 176
-0.988416, 17, 369, 144, 432
-0.988417, 277, 233, 308, 296
-0.988443, 145, 225, 272, 288
-0.988446, 173, 201, 204, 264
-0.988573, 105, 145, 136, 208
-0.988609, 113, 377, 240, 440
-0.988632, 33, 201, 64, 264
-0.988713, 33, 393, 64, 456
-0.988769, 1, 249, 32, 312
-0.988814, 57, 141, 120, 172
-0.988864, 161, 377, 192, 440
-0.988929, 261, 241, 292, 368
-0.98896, 49, 33, 112, 288
-0.988965, 185, 257, 216, 384
-0.988972, 13, 225, 44, 288
-0.988991, 13, 145, 44, 272
-0.98903, 65, 417, 96, 480
-0.989059, 61, 337, 92, 464
-0.989102, 89, 321, 120, 448
-0.989104, 213, 393, 244, 456
-0.989114, 161, 369, 288, 432
-0.989121, 241, 337, 272, 464
-0.989123, 53, 193, 84, 320
-0.989143, 49, 241, 112, 304
-0.989143, 1, 249, 64, 312
-0.98923, 117, 225, 148, 352
-0.989232, 161, 337, 224, 400
-0.989243, 225, 377, 256, 440
-0.989293, 65, 417, 319, 480
-0.989351, 1, 169, 64, 232
-0.989401, 57, 369, 120, 432
-0.989417, 73, 305, 104, 368
-0.98942, 61, 241, 92, 304
-0.989431, 193, 217, 319, 280
-0.989448, 73, 249, 104, 312
-0.989518, 161, 329, 288, 392
-0.989544, 265, 249, 296, 312
-0.989547, 233, 209, 296, 272
-0.989564, 185, 1, 248, 256
-0.98957, 73, 161, 136, 192
-0.989581, 237, 369, 268, 432
-0.989585, 121, 281, 184, 344
-0.989585, 81, 257, 208, 320
-0.989617, 265, 193, 296, 320
-0.989625, 49, 165, 112, 196
-0.989652, 141, 233, 172, 296
-0.989683, 33, 337, 64, 464
-0.989708, 257, 129, 319, 384
-0.989726, 169, 337, 200, 464
-0.98977, 77, 129, 108, 256
-0.989834, 173, 377, 204, 440
-0.989835, 145, 273, 272, 336
-0.989878, 1, 313, 64, 376
-0.989913, 145, 297, 272, 360
-0.989916, 65, 313, 192, 376
-0.989949, 177, 145, 240, 208
-0.990007, 121, 353, 152, 480
-0.990033, 1, 289, 128, 352
-0.990056, 21, 393, 52, 456
-0.990097, 45, 201, 76, 264
-0.990124, 145, 49, 272, 176
-0.990133, 189, 177, 220, 304
-0.990144, 81, 401, 144, 432
-0.990231, 137, 257, 168, 320
-0.990235, 177, 421, 240, 452
-0.990251, 281, 337, 312, 464
-0.990269, 105, 193, 136, 320
-0.99028, 33, 185, 96, 216
-0.990289, 101, 353, 132, 480
-0.990297, 113, 345, 240, 408
-0.9903, 105, 241, 136, 304
-0.990316, 253, 177, 284, 304
-0.990329, 1, 377, 32, 440
-0.990345, 153, 281, 216, 344
-0.990432, 37, 137, 68, 200
-0.990453, 285, 401, 316, 464
-0.990503, 133, 129, 164, 256
-0.990545, 57, 401, 120, 432
-0.990561, 25, 65, 88, 192
-0.990561, 137, 153, 168, 216
-0.990574, 165, 225, 196, 352
-0.990584, 185, 1, 248, 128
-0.990611, 97, 33, 160, 288
-0.990621, 213, 281, 244, 344
-0.990653, 81, 289, 208, 352
-0.990696, 213, 417, 244, 480
-0.990715, 1, 229, 64, 260
-0.990732, 233, 421, 296, 452
-0.990743, 221, 233, 252, 296
-0.990747, 249, 405, 312, 436
-0.990765, 121, 401, 184, 432
-0.990778, 1, 401, 319, 464
-0.990783, 221, 353, 252, 480
-0.990791, 197, 241, 228, 304
-0.990809, 141, 193, 172, 320
-0.990809, 105, 241, 136, 368
-0.990809, 201, 261, 264, 292
-0.990836, 97, 181, 160, 212
-0.990837, 1, 145, 32, 272
-0.990839, 217, 405, 280, 436
-0.990852, 177, 305, 240, 368
-0.99086, 73, 153, 104, 216
-0.990868, 49, 153, 112, 184
-0.99087, 161, 401, 224, 432
-0.990887, 177, 257, 208, 320
-0.990896, 89, 281, 152, 344
-0.990919, 193, 405, 256, 436
-0.990942, 105, 233, 168, 264
-0.991014, 85, 385, 116, 448
-0.991026, 81, 413, 144, 444
-0.991031, 97, 257, 160, 320
-0.991059, 129, 225, 192, 256
-0.991062, 73, 449, 136, 480
-0.991066, 141, 241, 172, 368
-0.991079, 241, 257, 304, 288
-0.991111, 17, 201, 80, 232
-0.991181, 161, 241, 192, 304
-0.991182, 241, 433, 304, 464
-0.991183, 185, 305, 216, 368
-0.991212, 93, 217, 124, 280
-0.991219, 1, 401, 64, 432
-0.991227, 257, 221, 319, 252
-0.991257, 129, 189, 192, 220
-0.991281, 241, 449, 304, 480
-0.991288, 81, 329, 144, 392
-0.991291, 193, 137, 224, 200
-0.991303, 149, 393, 180, 456
-0.991318, 177, 437, 240, 468
-0.991331, 9, 185, 72, 216
-0.991338, 105, 245, 168, 276
-0.991343, 129, 237, 192, 268
-0.991365, 177, 1, 240, 480
-0.991367, 201, 417, 264, 448
-0.991375, 17, 65, 144, 192
-0.991398, 9, 217, 72, 248
-0.991401, 185, 277, 248, 308
-0.991406, 17, 329, 144, 392
-0.99146, 25, 401, 88, 432
-0.991472, 81, 145, 144, 176
-0.991476, 189, 353, 220, 480
-0.99149, 81, 385, 144, 416
-0.991494, 217, 449, 280, 480
-0.991544, 25, 161, 88, 192
-0.991549, 169, 261, 232, 292
-0.991551, 113, 149, 176, 180
-0.991554, 265, 185, 296, 248
-0.991591, 225, 145, 288, 208
-0.991603, 41, 385, 104, 416
-0.991605, 41, 421, 104, 452
-0.991612, 121, 273, 152, 336
-0.991638, 89, 437, 152, 468
-0.99167, 1, 1, 128, 128
-0.991677, 197, 385, 228, 448
-0.9917, 25, 145, 88, 176
-0.991708, 1, 393, 256, 456
-0.991715, 105, 169, 168, 200
-0.991715, 9, 173, 72, 204
-0.991718, 177, 449, 240, 480
-0.991727, 129, 337, 192, 400
-0.991746, 129, 213, 192, 244
-0.991754, 81, 225, 144, 480
-0.991759, 209, 1, 272, 256
-0.991779, 105, 97, 136, 224
-0.991779, 45, 369, 76, 432
-0.991791, 73, 317, 136, 348
-0.991796, 137, 417, 200, 448
-0.991804, 113, 321, 240, 384
-0.991815, 101, 305, 132, 368
-0.991824, 209, 437, 272, 468
-0.991827, 89, 305, 120, 368
-0.991842, 97, 193, 160, 224
-0.991843, 137, 353, 168, 480
-0.991858, 121, 389, 184, 420
-0.991861, 257, 417, 319, 448
-0.991873, 117, 233, 148, 296
-0.991892, 145, 257, 208, 288
-0.99191, 177, 301, 240, 332
-0.991912, 9, 353, 40, 416
-0.991912, 201, 249, 264, 280
-0.991916, 65, 369, 96, 432
-0.991923, 81, 137, 112, 168
-0.991933, 1, 241, 64, 272
-0.991952, 101, 305, 132, 432
-0.991955, 201, 153, 264, 184
-0.991967, 65, 217, 319, 280
-0.991987, 25, 245, 88, 276
-0.991988, 193, 297, 319, 360
-0.992005, 145, 137, 272, 200
-0.992028, 61, 305, 92, 368
-0.992038, 33, 221, 96, 252
-0.992051, 129, 169, 192, 200
-0.992071, 89, 281, 120, 344
-0.992078, 81, 133, 144, 164
-0.992079, 73, 173, 136, 204
-0.992124, 33, 337, 96, 368
-0.992129, 249, 205, 312, 236
-0.992138, 241, 393, 304, 424
-0.99214, 53, 97, 84, 224
-0.992143, 49, 325, 112, 356
-0.992146, 33, 233, 96, 264
-0.992148, 225, 317, 288, 348
-0.99215, 73, 337, 136, 368
-0.99216, 49, 445, 112, 476
-0.992169, 73, 1, 136, 480
-0.992183, 105, 137, 168, 168
-0.992184, 193, 321, 256, 352
-0.992189, 113, 445, 176, 476
-0.992194, 125, 385, 156, 448
-0.992195, 9, 421, 72, 452
-0.992197, 129, 201, 192, 232
-0.992203, 145, 269, 208, 300
-0.992204, 65, 149, 96, 180
-0.992218, 201, 389, 264, 420
-0.992226, 153, 289, 216, 320
-0.992246, 69, 217, 100, 280
-0.992246, 17, 389, 80, 420
-0.992248, 97, 425, 160, 456
-0.992253, 257, 121, 319, 184
-0.992267, 153, 385, 216, 416
-0.99227, 73, 225, 136, 256
-0.992277, 93, 209, 124, 336
-0.992279, 1, 257, 64, 288
-0.992304, 1, 373, 64, 404
-0.992306, 9, 361, 72, 392
-0.992327, 73, 237, 136, 268
-0.992331, 285, 217, 316, 248
-0.992342, 233, 241, 264, 304
-0.992345, 257, 245, 319, 276
-0.992347, 213, 261, 244, 292
-0.99236, 49, 1, 112, 480
-0.992366, 225, 289, 256, 352
-0.992382, 105, 201, 136, 264
-0.992383, 25, 433, 88, 464
-0.992385, 265, 145, 296, 208
-0.992394, 133, 289, 164, 416
-0.992408, 201, 1, 264, 480
-0.992413, 97, 385, 128, 448
-0.992424, 93, 149, 124, 180
-0.992444, 201, 297, 264, 328
-0.992447, 177, 289, 240, 320
-0.992463, 1, 337, 64, 400
-0.99247, 201, 1, 264, 64
-0.992478, 25, 113, 88, 176
-0.992478, 169, 317, 232, 348
-0.992499, 57, 129, 120, 160
-0.992499, 41, 257, 72, 384
-0.992512, 173, 145, 204, 272
-0.992517, 1, 345, 64, 376
-0.992523, 137, 445, 200, 476
-0.992525, 89, 81, 120, 208
-0.992525, 233, 345, 296, 376
-0.992525, 1, 177, 256, 240
-0.992535, 209, 277, 272, 308
-0.992536, 161, 357, 224, 388
-0.992544, 217, 329, 280, 360
-0.992546, 137, 429, 200, 460
-0.992549, 257, 345, 319, 376
-0.992555, 257, 129, 319, 160
-0.992557, 97, 365, 160, 396
-0.992564, 185, 353, 248, 384
-0.992569, 65, 305, 128, 336
-0.992572, 105, 413, 168, 444
-0.992578, 269, 353, 300, 480
-0.99258, 217, 365, 280, 396
-0.992583, 197, 297, 228, 360
-0.9926, 149, 257, 180, 320
-0.992601, 233, 281, 296, 312
-0.992603, 81, 349, 144, 380
-0.992603, 105, 301, 168, 332
-0.992614, 113, 261, 176, 292
-0.99262, 41, 181, 72, 212
-0.992629, 49, 197, 112, 228
-0.99263, 257, 165, 319, 196
-0.992632, 249, 113, 280, 240
-0.992639, 105, 313, 168, 344
-0.992653, 193, 369, 256, 400
-0.992674, 161, 153, 224, 184
-0.992674, 113, 341, 176, 372
-0.992676, 201, 309, 264, 340
-0.992684, 113, 273, 176, 304
-0.992686, 245, 257, 276, 288
-0.992689, 153, 305, 216, 336
-0.992694, 193, 341, 256, 372
-0.992699, 57, 185, 120, 216
-0.992701, 177, 389, 240, 420
-0.992711, 241, 381, 304, 412
-0.992712, 249, 333, 312, 364
-0.992718, 161, 213, 224, 244
-0.992719, 53, 153, 84, 184
-0.992722, 81, 241, 112, 368
-0.992727, 77, 353, 108, 480
-0.992736, 201, 261, 232, 292
-0.992749, 137, 369, 200, 400
-0.992759, 65, 401, 96, 432
-0.992764, 225, 257, 256, 288
-0.992766, 73, 273, 104, 336
-0.992769, 117, 177, 148, 208
-0.992797, 105, 397, 136, 428
-0.992832, 245, 421, 276, 452
-0.992832, 273, 313, 304, 376
-0.992843, 77, 149, 108, 180
-0.992848, 53, 165, 84, 196
-0.992849, 121, 321, 152, 384
-0.992852, 25, 1, 88, 480
-0.99288, 13, 401, 44, 432
-0.992888, 261, 417, 292, 448
-0.992894, 141, 297, 172, 360
-0.992896, 181, 401, 212, 432
-0.9929, 69, 137, 100, 168
-0.992903, 81, 393, 112, 424
-0.992907, 13, 221, 44, 252
-0.99292, 193, 401, 224, 432
-0.992923, 33, 369, 64, 432
-0.992942, 229, 269, 260, 300
-0.992944, 33, 113, 160, 176
-0.992954, 273, 405, 304, 436
-0.992957, 225, 405, 256, 436
-0.992957, 13, 209, 44, 240
-0.992962, 289, 129, 319, 256
-0.992967, 125, 229, 156, 260
-0.992983, 185, 417, 216, 448
-0.992983, 261, 401, 292, 432
-0.992984, 153, 401, 184, 432
-0.992998, 245, 273, 276, 336
-0.992999, 245, 405, 276, 436
-0.993, 21, 273, 52, 336
-0.993002, 25, 221, 56, 252
-0.993003, 1, 145, 256, 208
-0.993018, 125, 393, 156, 424
-0.993019, 5, 233, 36, 264
-0.993024, 25, 201, 56, 232
-0.993029, 197, 421, 228, 452
-0.993029, 41, 169, 72, 200
-0.993042, 73, 161, 104, 192
-0.993055, 37, 193, 68, 224
-0.993055, 105, 161, 136, 192
-0.993055, 109, 409, 140, 440
-0.993066, 233, 421, 264, 452
-0.993074, 25, 401, 56, 432
-0.993075, 273, 217, 304, 248
-0.993076, 1, 401, 32, 432
-0.993081, 137, 377, 168, 440
-0.993081, 121, 189, 152, 220
-0.993082, 101, 441, 132, 472
-0.993083, 201, 273, 232, 304
-0.993085, 285, 205, 316, 236
-0.993091, 93, 397, 124, 428
-0.993097, 213, 273, 244, 304
-0.993102, 205, 405, 236, 436
-0.993107, 65, 345, 192, 408
-0.993124, 89, 241, 120, 304
-0.993131, 81, 405, 112, 436
-0.993143, 289, 393, 319, 424
-0.993144, 65, 49, 192, 176
-0.993147, 193, 161, 224, 224
-0.993148, 1, 245, 32, 276
-0.993151, 213, 421, 244, 452
-0.993152, 125, 405, 156, 436
-0.993153, 93, 137, 124, 168
-0.993154, 165, 401, 196, 432
-0.993156, 101, 385, 132, 416
-0.993168, 193, 437, 224, 468
-0.99317, 225, 321, 256, 384
-0.99317, 193, 161, 224, 192
-0.993171, 141, 369, 172, 400
-0.993182, 213, 393, 244, 424
-0.993185, 281, 229, 312, 260
-0.993188, 17, 389, 48, 420
-0.993189, 113, 145, 144, 176
-0.993193, 225, 389, 256, 420
-0.993202, 37, 145, 68, 176
-0.993203, 53, 137, 84, 168
-0.993205, 137, 401, 168, 432
-0.993211, 29, 389, 60, 420
-0.993211, 181, 429, 212, 460
-0.993217, 149, 385, 180, 416
-0.993217, 269, 433, 300, 464
-0.993227, 93, 409, 124, 440
-0.99323, 113, 369, 144, 432
-0.993237, 53, 401, 84, 432
-0.993238, 133, 245, 164, 276
-0.993242, 133, 257, 164, 288
-0.993243, 193, 297, 224, 328
-0.993243, 121, 381, 152, 412
-0.993245, 81, 381, 112, 412
-0.993248, 237, 389, 268, 420
-0.993249, 253, 313, 284, 376
-0.993253, 81, 313, 112, 344
-0.993256, 93, 309, 124, 340
-0.993261, 241, 33, 304, 288
-0.993261, 69, 385, 100, 416
-0.993262, 205, 437, 236, 468
-0.993267, 149, 225, 180, 256
-0.993267, 153, 121, 216, 184
-0.993268, 85, 161, 116, 192
-0.993271, 269, 445, 300, 476
-0.993272, 261, 253, 292, 284
-0.993272, 177, 177, 208, 208
-0.993273, 129, 305, 192, 368
-0.993275, 125, 157, 156, 188
-0.993277, 105, 173, 136, 204
-0.993279, 273, 245, 304, 276
-0.993281, 105, 237, 136, 268
-0.993283, 285, 405, 316, 436
-0.993284, 113, 297, 144, 360
-0.993297, 57, 445, 88, 476
-0.993297, 25, 189, 56, 220
-0.993299, 257, 433, 288, 464
-0.9933, 117, 437, 148, 468
-0.993303, 273, 417, 304, 448
-0.993303, 193, 449, 224, 480
-0.993304, 157, 237, 188, 268
-0.993307, 1, 241, 256, 304
-0.993307, 57, 385, 88, 416
-0.993307, 1, 389, 32, 420
-0.993309, 89, 437, 120, 468
-0.993309, 137, 177, 168, 208
-0.993314, 173, 385, 204, 416
-0.993316, 213, 249, 244, 280
-0.993316, 193, 389, 224, 420
-0.993317, 41, 401, 72, 432
-0.993318, 137, 189, 168, 220
-0.993322, 53, 177, 84, 208
-0.993323, 177, 1, 240, 64
-0.993324, 81, 241, 112, 272
-0.993325, 153, 365, 184, 396
-0.993326, 225, 377, 256, 408
-0.993326, 29, 421, 60, 452
-0.993327, 57, 325, 88, 356
-0.993328, 1, 221, 32, 252
-0.993334, 1, 261, 32, 292
-0.993334, 73, 445, 104, 476
-0.993335, 149, 361, 180, 424
-0.993348, 81, 417, 112, 448
-0.99335, 45, 381, 76, 412
-0.993351, 93, 245, 124, 276
-0.993356, 77, 345, 108, 376
-0.993365, 177, 445, 208, 476
-0.993366, 29, 165, 60, 196
-0.993366, 141, 177, 172, 240
-0.993368, 81, 361, 112, 392
-0.993441, 193, 49, 319, 176
-0.993455, 257, 1, 319, 480
-0.993461, 253, 337, 284, 464
-0.993564, 33, 417, 64, 480
-0.99357, 1, 273, 64, 336
-0.993572, 53, 417, 84, 480
-0.993579, 153, 1, 216, 480
-0.993626, 233, 1, 296, 480
-0.993629, 73, 1, 136, 256
-0.993673, 177, 417, 304, 448
-0.993701, 49, 225, 112, 480
-0.993729, 81, 337, 112, 400
-0.993743, 61, 241, 92, 368
-0.993749, 145, 145, 176, 272
-0.993826, 33, 417, 160, 448
-0.993913, 1, 193, 319, 256
-0.993918, 121, 305, 152, 432
-0.993953, 97, 121, 128, 184
-0.993976, 273, 113, 304, 240
-0.993979, 33, 169, 160, 200
-0.994021, 273, 281, 304, 344
-0.994036, 97, 329, 128, 392
-0.994062, 233, 209, 264, 336
-0.994103, 161, 289, 192, 352
-0.994119, 69, 81, 100, 208
-0.994132, 129, 1, 192, 480
-0.994137, 249, 369, 280, 432
-0.994192, 33, 141, 160, 172
-0.994235, 189, 265, 220, 328
-0.994237, 289, 281, 319, 344
-0.994256, 285, 137, 316, 200
-0.994278, 277, 161, 308, 224
-0.994282, 97, 361, 128, 424
-0.994308, 177, 449, 304, 480
-0.994372, 97, 401, 224, 432
-0.994397, 113, 429, 240, 460
-0.994422, 177, 1, 304, 64
-0.994444, 277, 161, 308, 288
-0.994493, 1, 137, 319, 200
-0.994496, 241, 65, 304, 192
-0.994526, 33, 153, 160, 184
-0.994587, 13, 257, 44, 384
-0.99465, 1, 161, 319, 224
-0.994718, 41, 177, 56, 240
-0.994751, 225, 177, 288, 240
-0.994798, 47, 177, 62, 240
-0.994799, 1, 1, 64, 480
-0.994812, 221, 193, 252, 320
-0.994823, 17, 185, 144, 216
-0.994843, 285, 209, 300, 272
-0.994855, 219, 257, 234, 320
-0.994876, 153, 241, 184, 368
-0.994917, 33, 437, 160, 468
-0.994928, 33, 449, 160, 480
-0.994951, 193, 41, 319, 104
-0.994967, 209, 129, 240, 256
-0.994982, 197, 305, 228, 432
-0.99499, 97, 441, 224, 472
-0.994999, 63, 145, 78, 208
-0.99507, 209, 289, 240, 416
-0.995137, 81, 241, 208, 272
-0.995145, 25, 1, 88, 256
-0.995145, 113, 417, 240, 448
-0.995175, 193, 177, 256, 240
-0.995195, 53, 161, 68, 224
-0.995226, 29, 241, 60, 368
-0.995246, 193, 405, 319, 436
-0.995259, 209, 1, 272, 128
-0.995269, 241, 289, 272, 416
-0.995286, 1, 257, 32, 384
-0.995288, 121, 169, 136, 232
-0.995299, 129, 177, 144, 240
-0.995299, 295, 209, 310, 272
-0.995303, 229, 305, 260, 432
-0.995326, 89, 129, 104, 192
-0.995333, 153, 17, 216, 80
-0.995334, 129, 17, 256, 80
-0.995346, 177, 433, 304, 464
-0.995377, 265, 305, 296, 432
-0.995392, 1, 217, 319, 280
-0.995393, 17, 197, 144, 228
-0.995396, 97, 1, 160, 480
-0.995421, 97, 185, 224, 216
-0.995422, 157, 145, 188, 272
-0.99543, 33, 193, 48, 256
-0.99547, 207, 401, 222, 464
-0.995486, 145, 113, 272, 176
-0.995515, 111, 153, 126, 216
-0.995551, 225, 81, 256, 208
-0.995572, 181, 305, 212, 432
-0.995604, 77, 137, 92, 200
-0.99562, 9, 1, 72, 128
-0.995626, 81, 193, 112, 320
-0.995665, 65, 121, 319, 184
-0.995676, 1, 397, 128, 428
-0.995676, 233, 1, 296, 128
-0.995728, 145, 401, 272, 432
-0.995767, 99, 137, 114, 200
-0.995828, 247, 249, 262, 312
-0.995842, 65, 229, 192, 260
-0.99587, 301, 201, 316, 264
-0.995884, 33, 265, 288, 328
-0.995921, 97, 105, 224, 168
-0.995922, 5, 233, 20, 296
-0.995924, 33, 353, 288, 416
-0.995924, 213, 249, 228, 312
-0.99594, 229, 409, 244, 472
-0.995991, 69, 193, 100, 320
-0.995991, 225, 249, 240, 312
-0.99604, 289, 273, 319, 400
-0.996042, 171, 401, 186, 464
-0.996051, 37, 393, 52, 456
-0.99607, 201, 401, 216, 464
-0.996076, 249, 401, 264, 464
-0.996099, 27, 201, 42, 264
-0.996101, 231, 257, 246, 320
-0.996104, 81, 1, 208, 128
-0.996111, 241, 393, 256, 456
-0.996111, 69, 145, 84, 208
-0.996123, 105, 145, 120, 208
-0.996145, 77, 393, 92, 456
-0.996222, 113, 165, 240, 196
-0.996225, 169, 49, 232, 176
-0.996232, 83, 129, 98, 192
-0.996237, 1, 249, 319, 312
-0.99624, 135, 185, 150, 248
-0.996283, 61, 289, 92, 416
-0.996311, 257, 393, 272, 456
-0.996317, 143, 233, 158, 296
-0.996329, 213, 385, 228, 448
-0.996356, 65, 389, 192, 420
-0.996383, 177, 121, 240, 184
-0.996401, 209, 193, 240, 320
-0.996414, 111, 409, 126, 472
-0.996432, 113, 153, 240, 184
-0.996457, 49, 401, 176, 432
-0.996458, 129, 257, 256, 288
-0.996471, 1, 1, 128, 64
-0.996474, 207, 257, 222, 320
-0.99651, 33, 329, 288, 392
-0.996562, 1, 233, 128, 264
-0.996565, 113, 49, 240, 112
-0.996569, 119, 409, 134, 472
-0.996591, 137, 1, 200, 128
-0.996599, 213, 417, 228, 480
-0.996604, 77, 305, 108, 432
-0.996607, 13, 225, 28, 288
-0.996609, 47, 393, 62, 456
-0.996646, 65, 253, 192, 284
-0.996653, 223, 409, 238, 472
-0.996654, 5, 369, 20, 432
-0.996662, 193, 105, 319, 168
-0.996666, 267, 393, 282, 456
-0.99669, 93, 257, 124, 384
-0.99669, 19, 201, 34, 264
-0.9967, 177, 377, 192, 440
-0.996702, 91, 393, 106, 456
-0.996709, 29, 225, 44, 288
-0.996712, 59, 393, 74, 456
-0.996718, 1, 377, 319, 440
-0.996727, 183, 401, 198, 464
-0.996752, 235, 409, 250, 472
-0.996755, 129, 385, 256, 416
-0.99676, 53, 393, 68, 456
-0.996787, 275, 401, 290, 464
-0.996793, 213, 81, 244, 208
-0.996797, 1, 289, 256, 352
-0.996814, 241, 417, 256, 480
-0.996822, 117, 161, 148, 416
-0.996823, 83, 401, 98, 464
-0.996835, 97, 197, 224, 228
-0.996841, 237, 321, 252, 384
-0.996857, 237, 113, 268, 240
-0.99686, 127, 145, 142, 208
-0.996866, 137, 225, 152, 288
-0.996884, 121, 137, 136, 200
-0.996887, 129, 1, 192, 256
-0.996891, 291, 185, 306, 248
-0.996901, 245, 273, 260, 336
-0.996909, 1, 245, 128, 276
-0.996917, 189, 113, 220, 240
-0.996922, 51, 137, 66, 200
-0.996942, 253, 289, 284, 416
-0.996948, 177, 389, 304, 420
-0.99695, 213, 273, 228, 336
-0.996959, 235, 385, 250, 448
-0.996974, 177, 177, 304, 208
-0.99698, 71, 377, 86, 440
-0.996983, 23, 225, 38, 288
-0.996984, 131, 225, 146, 288
-0.996997, 37, 217, 52, 280
-0.997029, 177, 401, 192, 464
-0.997031, 29, 289, 60, 416
-0.99707, 287, 401, 302, 464
-0.997074, 65, 213, 192, 244
-0.997076, 65, 393, 80, 456
-0.997084, 81, 133, 208, 164
-0.997089, 69, 145, 84, 176
-0.997094, 253, 249, 268, 312
-0.997094, 195, 385, 210, 448
-0.997106, 1, 393, 16, 456
-0.997129, 175, 201, 190, 264
-0.997129, 77, 141, 92, 172
-0.997132, 17, 385, 144, 416
-0.997152, 177, 261, 304, 292
-0.997158, 305, 213, 319, 244
-0.997167, 235, 281, 250, 344
-0.99717, 75, 297, 90, 360
-0.997187, 113, 269, 240, 300
-0.997201, 133, 393, 148, 456
-0.997215, 215, 261, 230, 292
-0.997217, 269, 417, 284, 480
-0.997224, 7, 209, 22, 272
-0.997225, 9, 1, 72, 64
-0.997239, 149, 401, 164, 464
-0.997241, 255, 417, 270, 480
-0.99725, 145, 245, 272, 276
-0.99725, 171, 233, 186, 296
-0.997256, 149, 257, 164, 320
-0.997257, 141, 401, 156, 464
-0.997259, 241, 249, 256, 312
-0.997264, 161, 401, 176, 464
-0.997265, 57, 137, 72, 200
-0.997265, 145, 49, 208, 176
-0.997265, 263, 249, 278, 312
-0.997284, 1, 209, 128, 240
-0.997285, 247, 257, 262, 288
-0.997285, 47, 369, 62, 432
-0.997287, 171, 377, 186, 440
-0.997292, 1, 337, 128, 368
-0.997307, 223, 385, 238, 448
-0.997308, 195, 417, 210, 480
-0.99731, 103, 145, 118, 176
-0.997318, 301, 225, 316, 288
-0.997318, 299, 401, 314, 464
-0.997331, 65, 377, 192, 408
-0.997341, 71, 241, 86, 304
-0.997353, 247, 329, 262, 392
-0.997358, 83, 369, 98, 432
-0.997361, 45, 145, 60, 208
-0.997369, 57, 129, 88, 384
-0.997379, 29, 369, 44, 432
-0.997385, 121, 25, 184, 88
-0.997391, 165, 361, 180, 424
-0.997392, 37, 161, 68, 416
-0.997399, 53, 193, 68, 256
-0.997408, 299, 213, 314, 244
-0.997414, 65, 265, 192, 296
-0.997414, 127, 369, 142, 432
-0.997415, 287, 217, 302, 248
-0.997416, 279, 209, 294, 272
-0.99742, 135, 161, 150, 224
-0.997421, 159, 377, 174, 440
-0.997432, 155, 233, 170, 296
-0.997438, 11, 369, 26, 432
-0.997439, 113, 229, 240, 260
-0.997444, 105, 409, 120, 472
-0.997449, 249, 377, 264, 440
-0.997449, 225, 129, 256, 384
-0.997473, 221, 261, 236, 292
-0.997476, 229, 385, 244, 448
-0.997479, 27, 177, 42, 240
-0.997482, 145, 377, 160, 440
-0.997485, 213, 225, 244, 480
-0.997498, 95, 141, 110, 172
-0.997499, 193, 217, 319, 248
-0.997503, 85, 137, 100, 168
-0.997509, 115, 129, 130, 192
-0.997513, 189, 409, 204, 472
-0.997514, 59, 169, 74, 232
-0.997521, 185, 233, 248, 296
-0.997526, 89, 305, 104, 368
-0.997528, 49, 313, 176, 344
-0.99753, 141, 161, 156, 224
-0.99753, 193, 277, 319, 308
-0.997536, 1, 325, 128, 356
-0.997546, 193, 161, 319, 192
-0.99755, 135, 265, 150, 328
-0.997552, 247, 297, 262, 360
-0.997564, 209, 337, 240, 464
-0.997566, 1, 225, 32, 480
-0.997574, 73, 273, 88, 336
-0.997579, 77, 97, 108, 352
-0.997581, 91, 241, 106, 304
-0.997582, 201, 377, 216, 440
-0.997585, 293, 401, 308, 464
-0.997585, 177, 189, 304, 220
-0.997587, 197, 265, 212, 328
-0.997588, 17, 257, 144, 288
-0.997595, 77, 417, 92, 480
-0.997596, 1, 257, 16, 320
-0.997599, 285, 185, 300, 248
-0.997605, 65, 169, 80, 232
-0.99761, 81, 333, 208, 364
-0.997616, 43, 185, 58, 216
-0.997618, 49, 177, 64, 208
-0.997637, 57, 157, 72, 188
-0.997659, 49, 65, 112, 192
-0.997664, 177, 41, 240, 104
-0.997667, 241, 17, 304, 80
-0.997674, 101, 129, 132, 384
-0.997674, 161, 337, 288, 368
-0.997683, 1, 309, 128, 340
-0.997686, 81, 1, 208, 64
-0.997698, 17, 221, 144, 252
-0.997732, 33, 1, 96, 64
-0.997732, 77, 153, 92, 184
-0.997748, 123, 173, 138, 204
-0.997748, 177, 301, 304, 332
-0.997751, 97, 305, 224, 336
-0.997757, 293, 213, 308, 244
-0.99776, 197, 129, 228, 384
-0.997764, 177, 325, 304, 356
-0.997767, 81, 25, 208, 88
-0.997775, 193, 205, 319, 236
-0.997809, 129, 181, 144, 212
-0.99784, 145, 313, 272, 344
-0.997879, 89, 97, 120, 352
-0.997893, 15, 401, 30, 432
-0.997894, 63, 149, 78, 180
-0.997903, 109, 153, 124, 184
-0.997913, 81, 349, 208, 380
-0.997922, 1, 357, 128, 388
-0.99796, 17, 213, 32, 244
-0.997961, 195, 401, 210, 432
-0.997964, 201, 417, 216, 448
-0.99797, 227, 261, 242, 292
-0.99798, 273, 257, 304, 384
-0.997986, 27, 221, 42, 252
-0.997996, 91, 397, 106, 428
-0.998001, 123, 401, 138, 432
-0.998001, 205, 401, 220, 432
-0.998008, 85, 397, 100, 428
-0.998009, 1, 237, 16, 268
-0.998014, 221, 273, 236, 304
-0.998018, 55, 169, 70, 200
-0.998024, 49, 365, 176, 396
-0.998028, 133, 225, 164, 480
-0.998033, 1, 305, 319, 368
-0.998055, 95, 153, 110, 184
-0.998065, 37, 81, 68, 208
-0.998072, 97, 321, 224, 352
-0.998074, 159, 401, 174, 432
-0.998078, 27, 401, 42, 432
-0.998093, 207, 257, 222, 288
-0.998102, 35, 401, 50, 432
-0.998104, 115, 161, 130, 192
-0.998111, 261, 113, 292, 240
-0.998115, 117, 393, 132, 424
-0.998116, 229, 225, 260, 480
-0.998118, 193, 249, 319, 280
-0.998124, 201, 41, 264, 104
-0.998125, 29, 205, 44, 236
-0.998127, 11, 225, 26, 256
-0.998136, 121, 81, 152, 208
-0.998143, 87, 157, 102, 188
-0.998144, 129, 373, 256, 404
-0.998151, 81, 89, 144, 152
-0.998168, 201, 225, 232, 480
-0.998172, 251, 421, 266, 452
-0.998172, 269, 417, 284, 448
-0.998178, 23, 209, 38, 240
-0.998179, 215, 273, 230, 304
-0.998179, 49, 89, 176, 152
-0.998179, 161, 1, 224, 128
-0.998184, 37, 193, 52, 224
-0.998188, 213, 129, 244, 384
-0.998192, 259, 405, 274, 436
-0.998193, 237, 405, 252, 436
-0.998198, 177, 377, 304, 408
-0.9982, 79, 401, 94, 432
-0.998212, 161, 233, 288, 264
-0.998215, 7, 237, 22, 268
-0.998222, 101, 133, 116, 164
-0.998225, 17, 273, 144, 304
-0.998233, 147, 401, 162, 432
-0.998238, 245, 161, 276, 416
-0.998241, 283, 405, 298, 436
-0.998245, 277, 401, 292, 432
-0.998248, 165, 401, 180, 432
-0.998256, 229, 401, 244, 432
-0.998257, 99, 401, 114, 432
-0.998257, 9, 401, 24, 432
-0.998261, 21, 401, 36, 432
-0.998263, 73, 401, 88, 432
-0.998263, 153, 365, 168, 396
-0.998264, 271, 401, 286, 432
-0.998268, 207, 433, 222, 464
-0.998269, 65, 49, 192, 112
-0.998269, 257, 421, 272, 452
-0.99827, 105, 401, 120, 432
-0.998284, 253, 257, 268, 288
-0.998285, 1, 369, 128, 400
-0.998286, 215, 417, 230, 448
-0.998301, 65, 401, 80, 432
-0.998303, 1, 273, 319, 336
-0.998303, 185, 401, 200, 432
-0.99831, 305, 225, 319, 256
-0.998325, 253, 405, 268, 436
-0.998327, 133, 229, 148, 260
-0.998333, 249, 421, 280, 436
-0.998333, 229, 273, 244, 304
-0.998334, 173, 225, 204, 480
-0.998334, 269, 445, 300, 460
-0.998334, 229, 463, 260, 478
-0.998335, 109, 415, 140, 430
-0.998335, 281, 217, 296, 248
-0.998335, 217, 281, 248, 296
-0.998335, 37, 167, 68, 182
-0.998335, 281, 211, 312, 226
-0.998335, 281, 461, 312, 476
-0.998337, 257, 257, 288, 272
-0.998338, 207, 269, 222, 300
-0.998338, 213, 451, 244, 466
-0.998339, 137, 185, 168, 200
-0.99834, 209, 419, 240, 434
-0.99834, 25, 193, 56, 448
-0.99834, 85, 163, 116, 178
-0.998341, 77, 377, 108, 392
-0.998341, 285, 415, 316, 430
-0.998342, 241, 415, 272, 430
-0.998342, 217, 413, 248, 428
-0.998343, 107, 441, 122, 472
-0.998344, 73, 165, 104, 180
-0.998344, 277, 433, 292, 464
-0.998345, 45, 413, 76, 428
-0.998345, 173, 395, 204, 410
-0.998349, 189, 397, 220, 412
-0.998349, 105, 245, 136, 260
-0.99835, 69, 139, 100, 154
-0.99835, 197, 163, 228, 178
-0.998351, 269, 433, 300, 448
-0.998351, 129, 361, 256, 392
-0.998352, 121, 193, 152, 208
-0.998353, 209, 397, 240, 412
-0.998353, 233, 257, 264, 272
-0.998353, 261, 417, 292, 432
-0.998353, 85, 249, 116, 264
-0.998353, 237, 405, 268, 420
-0.998354, 193, 149, 319, 180
-0.998354, 225, 407, 256, 422
-0.998354, 193, 459, 224, 474
-0.998355, 145, 217, 272, 248
-0.998355, 41, 421, 72, 436
-0.998357, 229, 331, 260, 346
-0.998357, 233, 399, 264, 414
-0.998358, 89, 443, 120, 458
-0.998359, 289, 403, 319, 418
-0.998359, 41, 399, 72, 414
-0.998361, 177, 449, 208, 464
-0.998362, 189, 403, 220, 418
-0.998362, 205, 463, 236, 478
-0.998362, 93, 415, 124, 430
-0.998363, 177, 427, 208, 442
-0.998363, 105, 453, 136, 468
-0.998364, 185, 439, 216, 454
-0.998364, 25, 403, 56, 418
-0.998365, 261, 399, 292, 414
-0.998365, 225, 391, 256, 406
-0.998365, 211, 401, 226, 432
-0.998366, 25, 227, 56, 242
-0.998367, 141, 405, 172, 420
-0.998367, 193, 301, 224, 316
-0.998368, 125, 399, 156, 414
-0.998368, 197, 259, 228, 274
-0.998369, 269, 451, 300, 466
-0.99837, 93, 311, 124, 326
-0.99837, 13, 399, 44, 414
-0.998371, 57, 403, 88, 418
-0.998371, 209, 257, 240, 272
-0.998372, 241, 421, 256, 452
-0.998376, 213, 275, 244, 290
-0.998377, 25, 415, 56, 430
-0.998377, 1, 399, 32, 414
-0.998377, 285, 409, 316, 424
-0.998378, 1, 239, 32, 254
-0.998378, 201, 277, 232, 292
-0.998378, 153, 397, 184, 412
-0.99838, 101, 447, 132, 462
-0.99838, 281, 229, 312, 244
-0.99838, 73, 159, 104, 174
-0.99838, 113, 399, 144, 414
-0.998382, 269, 461, 300, 476
-0.998385, 13, 217, 44, 232
-0.998386, 81, 417, 112, 432
-0.998386, 155, 389, 170, 420
-0.998387, 91, 129, 106, 160
-0.998387, 121, 405, 152, 420
-0.998388, 85, 397, 116, 412
-0.998388, 299, 225, 314, 256
-0.998389, 273, 219, 304, 234
-0.998389, 209, 1, 240, 128
-0.998389, 285, 229, 300, 260
-0.998389, 181, 433, 212, 448
-0.998389, 193, 465, 224, 480
-0.99839, 1, 249, 16, 280
-0.998391, 177, 401, 208, 416
-0.998392, 61, 397, 92, 412
-0.998392, 101, 167, 132, 182
-0.998392, 17, 209, 48, 224
-0.998394, 53, 155, 84, 170
-0.998396, 209, 421, 224, 452
-0.998396, 33, 203, 64, 218
-0.998401, 263, 421, 278, 452
-0.998401, 175, 405, 190, 436
-0.998403, 105, 409, 136, 424
-0.998404, 125, 231, 156, 246
-0.998405, 153, 401, 168, 432
-0.998405, 101, 145, 132, 160
-0.998406, 181, 455, 212, 470
-0.998406, 229, 417, 260, 432
-0.998408, 113, 113, 176, 176
-0.998408, 101, 399, 132, 414
-0.998409, 9, 231, 40, 246
-0.99841, 117, 187, 148, 202
-0.998411, 229, 275, 260, 290
-0.998411, 21, 389, 36, 420
-0.998416, 197, 453, 228, 468
-0.998419, 223, 405, 238, 436
-0.998419, 49, 175, 80, 190
-0.99842, 275, 417, 290, 448
-0.998423, 35, 217, 50, 248
-0.998423, 69, 407, 100, 422
-0.998424, 239, 389, 254, 420
-0.998426, 189, 421, 220, 436
-0.998427, 201, 271, 232, 286
-0.998427, 13, 225, 44, 240
-0.998427, 161, 403, 192, 418
-0.998428, 81, 407, 112, 422
-0.998432, 105, 441, 136, 456
-0.998434, 247, 405, 262, 436
-0.998434, 225, 269, 256, 284
-0.998435, 221, 257, 252, 272
-0.998436, 273, 405, 304, 420
-0.998438, 131, 393, 146, 424
-0.998439, 273, 415, 304, 430
-0.998439, 111, 397, 126, 428
-0.998439, 109, 175, 140, 190
-0.998441, 53, 169, 84, 184
-0.998442, 221, 421, 236, 452
-0.998445, 195, 417, 210, 448
-0.998445, 37, 193, 68, 208
-0.998446, 57, 151, 120, 166
-0.998447, 225, 263, 256, 278
-0.998448, 123, 381, 138, 412
-0.998449, 265, 401, 280, 432
-0.99845, 127, 229, 142, 260
-0.998451, 129, 349, 256, 380
-0.998452, 245, 261, 276, 276
-0.998452, 57, 163, 88, 178
-0.998452, 45, 401, 60, 432
-0.998459, 41, 187, 72, 202
-0.99846, 117, 181, 148, 196
-0.998462, 165, 389, 180, 420
-0.998468, 85, 145, 116, 160
-0.99847, 237, 261, 252, 292
-0.998472, 57, 141, 120, 156
-0.998473, 81, 153, 112, 168
-0.998475, 201, 437, 216, 468
-0.998475, 1, 129, 128, 160
-0.998476, 11, 389, 26, 420
-0.998477, 73, 401, 104, 416
-0.998478, 45, 181, 76, 196
-0.99848, 93, 157, 124, 172
-0.998481, 195, 297, 210, 328
-0.998485, 61, 147, 92, 162
-0.998485, 1, 297, 128, 328
-0.99849, 3, 401, 18, 432
-0.99849, 93, 405, 124, 420
-0.998491, 113, 437, 128, 468
-0.998492, 193, 129, 319, 160
-0.998493, 201, 265, 232, 280
-0.998499, 49, 165, 112, 180
-0.998507, 285, 223, 316, 238
-0.998512, 261, 257, 276, 288
-0.998515, 93, 151, 124, 166
-0.998522, 73, 165, 136, 180
-0.998523, 93, 409, 108, 440
-0.998525, 201, 267, 264, 282
-0.998526, 227, 421, 242, 452
-0.998529, 97, 293, 224, 324
-0.998531, 287, 205, 302, 236
-0.998531, 289, 401, 304, 432
-0.998532, 213, 269, 244, 284
-0.998532, 49, 159, 112, 174
-0.998533, 117, 173, 132, 204
-0.998534, 177, 289, 304, 320
-0.998534, 187, 173, 202, 204
-0.998535, 85, 413, 100, 444
-0.998535, 281, 449, 296, 480
-0.998536, 235, 425, 250, 456
-0.99854, 145, 205, 272, 236
-0.998544, 185, 389, 200, 420
-0.998545, 73, 145, 104, 160
-0.998546, 229, 389, 244, 420
-0.998549, 33, 189, 96, 204
-0.998551, 35, 385, 50, 416
-0.998551, 291, 345, 306, 376
-0.998552, 73, 157, 136, 172
-0.998556, 133, 193, 148, 224
-0.998557, 65, 153, 96, 168
-0.998558, 81, 415, 144, 430
-0.998559, 177, 453, 240, 468
-0.998561, 305, 393, 319, 424
-0.998561, 135, 217, 150, 248
-0.998563, 257, 219, 319, 234
-0.998564, 129, 129, 160, 384
-0.998564, 107, 245, 122, 276
-0.998564, 295, 405, 310, 436
-0.998569, 41, 181, 104, 196
-0.998576, 89, 183, 152, 198
-0.998577, 161, 225, 192, 480
-0.998577, 177, 439, 240, 454
-0.998578, 201, 273, 264, 288
-0.998582, 201, 257, 264, 272
-0.998582, 81, 407, 144, 422
-0.998583, 233, 421, 296, 436
-0.998584, 33, 25, 160, 88
-0.998587, 25, 195, 88, 210
-0.998587, 185, 421, 248, 436
-0.998589, 213, 263, 244, 278
-0.998591, 49, 171, 112, 186
-0.998592, 129, 227, 192, 242
-0.998593, 33, 409, 96, 424
-0.998594, 9, 415, 72, 430
-0.998595, 105, 237, 168, 252
-0.998596, 97, 145, 160, 160
-0.998596, 169, 403, 232, 418
-0.998597, 57, 415, 120, 430
-0.998604, 57, 401, 120, 416
-0.998605, 201, 415, 264, 430
-0.998606, 241, 451, 304, 466
-0.998607, 217, 449, 280, 464
-0.998608, 25, 201, 88, 216
-0.998608, 89, 173, 152, 188
-0.998608, 81, 139, 112, 154
-0.99861, 121, 405, 184, 420
-0.998613, 1, 229, 64, 244
-0.998614, 105, 155, 168, 170
-0.998615, 97, 189, 160, 204
-0.998616, 137, 421, 200, 436
-0.998617, 185, 461, 248, 476
-0.998618, 233, 465, 296, 480
-0.99862, 25, 161, 88, 176
-0.99862, 97, 441, 160, 456
-0.998621, 33, 147, 96, 162
-0.998621, 121, 397, 184, 412
-0.998622, 241, 437, 304, 452
-0.998623, 241, 259, 304, 274
-0.998623, 9, 207, 72, 222
-0.998623, 177, 277, 240, 292
-0.998626, 161, 421, 224, 436
-0.998627, 257, 225, 319, 240
-0.998627, 129, 189, 192, 204
-0.998628, 17, 183, 80, 198
-0.998628, 249, 415, 312, 430
-0.998628, 65, 311, 128, 326
-0.99863, 249, 407, 312, 422
-0.998632, 17, 219, 80, 234
-0.998632, 57, 407, 120, 422
-0.998633, 17, 403, 80, 418
-0.998633, 9, 189, 72, 204
-0.998634, 81, 455, 144, 470
-0.998634, 289, 225, 319, 352
-0.998636, 73, 447, 136, 462
-0.998636, 97, 399, 160, 414
-0.998638, 193, 405, 256, 420
-0.998638, 177, 447, 240, 462
-0.99864, 177, 429, 240, 444
-0.99864, 185, 161, 216, 416
-0.998641, 129, 181, 192, 196
-0.998642, 241, 445, 304, 460
-0.998642, 97, 195, 160, 210
-0.998642, 201, 279, 264, 294
-0.998643, 145, 257, 208, 272
-0.998644, 285, 217, 316, 232
-0.998646, 201, 455, 264, 470
-0.998647, 177, 267, 240, 282
-0.998647, 145, 429, 208, 444
-0.998647, 121, 411, 184, 426
-0.998648, 225, 399, 288, 414
-0.998648, 145, 225, 176, 480
-0.998649, 41, 421, 104, 436
-0.998651, 17, 397, 80, 412
-0.998651, 25, 167, 88, 182
-0.998651, 121, 175, 184, 190
-0.998652, 105, 231, 168, 246
-0.998652, 161, 397, 224, 412
-0.998653, 137, 237, 200, 252
-0.998653, 97, 389, 160, 404
-0.998653, 249, 459, 312, 474
-0.998653, 145, 403, 208, 418
-0.998654, 97, 435, 160, 450
-0.998654, 17, 177, 80, 192
-0.998655, 9, 235, 72, 250
-0.998658, 33, 245, 96, 260
-0.998658, 17, 155, 80, 170
-0.998659, 161, 411, 224, 426
-0.998659, 33, 337, 96, 352
-0.99866, 73, 461, 136, 476
-0.998661, 81, 139, 144, 154
-0.998661, 33, 455, 96, 470
-0.998662, 57, 135, 120, 150
-0.998662, 177, 261, 240, 276
-0.998662, 9, 213, 72, 228
-0.998662, 209, 461, 272, 476
-0.998663, 225, 317, 288, 332
-0.998663, 217, 443, 280, 458
-0.998664, 41, 357, 104, 372
-0.998664, 1, 243, 64, 258
-0.998666, 129, 243, 192, 258
-0.998666, 113, 169, 176, 184
-0.998666, 17, 371, 80, 386
-0.998667, 113, 261, 176, 276
-0.998667, 177, 365, 304, 396
-0.998668, 105, 417, 168, 432
-0.998668, 201, 329, 264, 344
-0.998668, 33, 225, 96, 240
-0.998668, 97, 461, 160, 476
-0.998669, 129, 207, 192, 222
-0.998669, 161, 459, 224, 474
-0.998669, 209, 323, 272, 338
-0.998669, 1, 379, 64, 394
-0.998669, 185, 323, 248, 338
-0.998669, 193, 397, 256, 412
-0.998669, 241, 431, 304, 446
-0.99867, 105, 245, 168, 260
-0.998671, 57, 453, 120, 468
-0.998671, 73, 339, 136, 354
-0.998671, 97, 363, 160, 378
-0.998672, 89, 425, 152, 440
-0.998672, 185, 297, 248, 312
-0.998672, 257, 161, 288, 416
-0.998672, 49, 465, 112, 480
-0.998672, 89, 317, 152, 332
-0.998673, 137, 199, 200, 214
-0.998674, 1, 201, 64, 216
-0.998674, 241, 351, 304, 366
-0.998689, 209, 105, 272, 168
-0.998731, 65, 277, 192, 308
-0.998735, 13, 225, 44, 480
-0.998747, 269, 225, 300, 480
-0.99875, 145, 141, 272, 172
-0.998755, 129, 73, 256, 136
-0.998793, 257, 1, 319, 128
-0.998804, 245, 65, 276, 320
-0.998817, 51, 161, 66, 288
-0.998823, 213, 1, 244, 256
-0.998829, 117, 33, 148, 288
-0.998838, 137, 49, 200, 112
-0.998856, 41, 177, 56, 304
-0.998863, 145, 97, 176, 352
-0.998873, 37, 33, 68, 288
-0.998881, 13, 97, 44, 352
-0.998883, 193, 313, 319, 344
-0.998909, 113, 281, 240, 312
-0.998913, 81, 1, 112, 256
-0.998919, 1, 1, 256, 64
-0.998926, 173, 97, 204, 352
-0.998926, 57, 161, 72, 288
-0.998931, 49, 301, 176, 332
-0.998931, 57, 1, 88, 256
-0.99897, 65, 129, 80, 256
-0.998978, 193, 73, 319, 136
-0.998979, 131, 177, 146, 304
-0.998979, 197, 1, 228, 128
-0.998979, 101, 33, 132, 288
-0.999036, 233, 97, 296, 160
-0.999039, 119, 161, 134, 288
-0.999042, 17, 193, 32, 320
-0.999049, 145, 125, 272, 156
-0.999057, 125, 161, 140, 288
-0.99906, 17, 57, 144, 120
-0.999068, 1, 345, 319, 408
-0.999068, 111, 145, 126, 272
-0.999071, 43, 129, 58, 256
-0.999071, 177, 353, 304, 384
-0.999088, 247, 241, 262, 368
-0.999102, 1, 1, 64, 256
-0.999122, 17, 285, 144, 316
-0.99914, 35, 177, 50, 304
-0.999163, 71, 129, 86, 256
-0.999164, 97, 225, 128, 480
-0.999171, 193, 1, 319, 32
-0.999173, 213, 241, 228, 368
-0.999186, 177, 13, 304, 44
-0.999187, 7, 209, 22, 336
-0.999194, 229, 257, 244, 384
-0.999195, 141, 193, 156, 320
-0.999203, 49, 225, 80, 480
-0.999221, 255, 241, 270, 368
-0.999228, 27, 177, 42, 304
-0.999228, 81, 121, 208, 152
-0.999246, 57, 113, 72, 240
-0.999252, 169, 289, 200, 416
-0.999259, 13, 337, 28, 464
-0.999267, 1, 337, 16, 464
-0.999268, 105, 129, 120, 256
-0.999272, 261, 65, 292, 320
-0.999276, 23, 337, 38, 464
-0.999288, 261, 241, 276, 368
-0.999291, 207, 241, 222, 368
-0.999292, 219, 241, 234, 368
-0.999299, 29, 337, 44, 464
-0.999303, 65, 33, 319, 96
-0.999312, 161, 321, 176, 448
-0.999313, 37, 337, 52, 464
-0.999314, 129, 29, 256, 60
-0.999315, 33, 129, 48, 256
-0.999325, 77, 225, 108, 480
-0.999326, 119, 113, 134, 240
-0.999328, 51, 113, 66, 240
-0.999329, 145, 241, 160, 368
-0.999331, 285, 209, 300, 336
-0.999333, 173, 193, 188, 320
-0.999334, 289, 225, 319, 480
-0.999339, 139, 321, 154, 448
-0.999341, 269, 241, 284, 368
-0.999342, 305, 193, 319, 320
-0.999349, 129, 5, 256, 36
-0.99935, 237, 49, 268, 176
-0.999353, 15, 145, 30, 272
-0.999357, 133, 33, 164, 288
-0.999358, 57, 353, 72, 480
-0.999363, 85, 145, 100, 272
-0.999365, 7, 337, 22, 464
-0.99937, 151, 337, 166, 464
-0.999375, 1, 225, 16, 352
-0.999379, 153, 241, 168, 368
-0.999382, 157, 97, 188, 224
-0.999397, 171, 321, 186, 448
-0.999408, 93, 321, 108, 448
-0.999418, 305, 353, 319, 480
-0.999419, 191, 257, 206, 384
-0.999419, 105, 337, 120, 464
-0.99942, 271, 193, 286, 320
-0.999426, 291, 209, 306, 336
-0.999427, 177, 337, 192, 464
-0.999427, 83, 321, 98, 448
-0.999428, 183, 193, 198, 320
-0.999433, 125, 241, 140, 368
-0.999435, 145, 353, 160, 480
-0.999436, 75, 321, 90, 448
-0.999436, 135, 225, 150, 352
-0.999436, 51, 337, 66, 464
-0.99944, 131, 129, 146, 256
-0.999441, 65, 177, 80, 304
-0.999443, 201, 257, 216, 384
-0.999444, 155, 193, 170, 320
-0.99945, 123, 321, 138, 448
-0.999453, 257, 337, 272, 464
-0.999455, 119, 209, 134, 336
-0.999456, 157, 97, 188, 352
-0.999456, 63, 337, 78, 464
-0.999456, 191, 353, 206, 480
-0.999456, 45, 337, 60, 464
-0.999457, 77, 113, 92, 240
-0.999463, 113, 257, 128, 384
-0.999466, 285, 161, 300, 288
-0.999469, 279, 209, 294, 336
-0.99947, 115, 321, 130, 448
-0.999483, 183, 353, 198, 480
-0.999484, 189, 193, 204, 320
-0.999489, 293, 161, 308, 288
-0.99949, 201, 1, 232, 256
-0.999491, 265, 305, 280, 432
-0.999494, 133, 305, 148, 432
-0.999498, 221, 193, 236, 320
-0.999499, 143, 145, 158, 272
-0.9995, 145, 305, 160, 432
-0.999501, 125, 113, 140, 240
-0.999505, 7, 161, 22, 288
-0.999506, 179, 241, 194, 368
-0.999506, 129, 1, 192, 64
-0.999509, 291, 353, 306, 480
-0.99951, 147, 193, 162, 320
-0.999512, 167, 209, 182, 336
-0.999513, 247, 337, 262, 464
-0.999517, 281, 337, 296, 464
-0.999517, 225, 129, 256, 256
-0.999523, 199, 177, 214, 304
-0.999523, 99, 129, 114, 256
-0.999523, 47, 209, 62, 336
-0.999525, 1, 9, 128, 40
-0.999525, 27, 129, 42, 256
-0.99953, 153, 1, 216, 256
-0.999536, 133, 353, 148, 480
-0.999536, 91, 241, 106, 368
-0.999537, 69, 353, 84, 480
-0.999539, 113, 97, 128, 224
-0.999544, 241, 415, 256, 430
-0.999544, 21, 145, 36, 272
-0.999544, 237, 267, 252, 282
-0.999544, 131, 193, 146, 208
-0.999544, 121, 399, 136, 414
-0.999545, 25, 397, 40, 412
-0.999545, 203, 399, 218, 414
-0.999545, 81, 145, 96, 160
-0.999546, 11, 377, 26, 392
-0.999546, 241, 241, 256, 368
-0.999546, 53, 209, 68, 336
-0.999546, 231, 279, 246, 294
-0.999547, 127, 405, 142, 420
-0.999547, 239, 391, 254, 406
-0.999547, 39, 199, 54, 214
-0.999547, 211, 455, 226, 470
-0.999548, 41, 419, 56, 434
-0.999548, 97, 415, 112, 430
-0.999549, 133, 399, 148, 414
-0.999549, 41, 241, 56, 368
-0.999549, 199, 465, 214, 480
-0.999549, 287, 403, 302, 418
-0.99955, 155, 397, 170, 412
-0.99955, 201, 431, 216, 446
-0.99955, 29, 403, 44, 418
-0.999551, 81, 151, 96, 166
-0.999551, 33, 97, 288, 160
-0.999551, 275, 405, 290, 420
-0.999552, 127, 229, 142, 244
-0.999552, 207, 265, 222, 280
-0.999553, 61, 401, 76, 416
-0.999553, 253, 399, 268, 414
-0.999553, 183, 401, 198, 416
-0.999553, 209, 407, 224, 422
-0.999553, 211, 421, 226, 436
-0.999553, 259, 315, 274, 330
-0.999553, 87, 157, 102, 172
-0.999554, 71, 401, 86, 416
-0.999554, 87, 399, 102, 414
-0.999554, 285, 225, 300, 240
-0.999554, 127, 399, 142, 414
-0.999554, 199, 301, 214, 316
-0.999554, 221, 397, 236, 412
-0.999554, 227, 337, 242, 464
-0.999555, 297, 353, 312, 480
-0.999557, 13, 393, 28, 408
-0.999557, 231, 261, 246, 276
-0.999558, 217, 413, 232, 428
-0.999559, 137, 129, 152, 256
-0.999559, 173, 241, 188, 368
-0.999559, 281, 129, 312, 384
-0.99956, 233, 407, 248, 422
-0.99956, 103, 415, 118, 430
-0.99956, 61, 155, 76, 170
-0.99956, 109, 403, 124, 418
-0.99956, 101, 241, 116, 368
-0.999561, 83, 163, 98, 178
-0.999562, 275, 461, 290, 476
-0.999563, 209, 415, 224, 430
-0.999563, 31, 219, 46, 234
-0.999565, 9, 235, 24, 250
-0.999565, 115, 399, 130, 414
-0.999566, 207, 463, 222, 478
-0.999567, 281, 407, 296, 422
-0.999567, 203, 337, 218, 464
-0.999568, 41, 185, 56, 200
-0.999568, 85, 417, 100, 432
-0.999568, 113, 441, 128, 456
-0.999569, 235, 273, 250, 400
-0.999569, 109, 159, 124, 174
-0.999569, 267, 399, 282, 414
-0.99957, 257, 289, 272, 416
-0.99957, 91, 193, 106, 320
-0.999571, 303, 145, 318, 272
-0.999571, 25, 97, 56, 352
-0.999571, 285, 415, 300, 430
-0.999571, 157, 403, 172, 418
-0.999572, 149, 405, 164, 420
-0.999573, 133, 229, 148, 244
-0.999574, 167, 161, 182, 288
-0.999576, 19, 397, 34, 412
-0.999576, 77, 193, 92, 320
-0.999577, 25, 219, 40, 234
-0.999577, 91, 113, 106, 240
-0.999578, 35, 225, 50, 352
-0.999579, 13, 225, 28, 240
-0.999581, 93, 399, 108, 414
-0.999581, 103, 405, 118, 420
-0.999583, 87, 147, 102, 162
-0.999583, 279, 161, 294, 288
-0.999583, 283, 461, 298, 476
-0.999583, 297, 223, 312, 238
-0.999583, 99, 305, 114, 432
-0.999584, 233, 1, 264, 256
-0.999585, 1, 245, 16, 260
-0.999586, 197, 455, 212, 470
-0.999587, 91, 411, 106, 426
-0.999588, 101, 443, 116, 458
-0.999589, 3, 239, 18, 254
-0.99959, 107, 443, 122, 458
-0.99959, 207, 271, 222, 286
-0.99959, 21, 403, 36, 418
-0.999593, 73, 409, 88, 424
-0.999594, 265, 353, 280, 480
-0.999595, 297, 407, 312, 422
-0.999596, 177, 401, 192, 416
-0.999596, 29, 229, 44, 244
-0.999597, 161, 193, 176, 320
-0.999598, 151, 145, 166, 272
-0.9996, 89, 137, 104, 152
-0.999601, 83, 257, 98, 384
-0.999602, 41, 191, 56, 206
-0.999603, 203, 453, 218, 468
-0.999603, 167, 401, 182, 416
-0.999604, 113, 165, 128, 180
-0.999604, 63, 81, 78, 208
-0.999604, 199, 421, 214, 436
-0.999605, 293, 113, 308, 240
-0.999605, 53, 177, 68, 192
-0.999605, 59, 161, 74, 176
-0.999605, 95, 153, 110, 168
-0.999607, 131, 187, 146, 202
-0.999607, 235, 415, 250, 430
-0.999607, 233, 321, 248, 448
-0.999608, 265, 177, 280, 304
-0.99961, 129, 17, 256, 48
-0.999611, 95, 405, 110, 420
-0.999612, 119, 257, 134, 384
-0.999613, 115, 409, 130, 424
-0.999615, 89, 163, 104, 178
-0.999615, 125, 179, 140, 194
-0.999615, 57, 169, 72, 184
-0.999616, 25, 209, 40, 224
-0.999618, 209, 259, 224, 274
-0.999619, 59, 209, 74, 336
-0.999622, 225, 257, 240, 272
-0.999625, 101, 141, 116, 156
-0.999626, 289, 81, 319, 208
-0.999627, 215, 273, 230, 288
-0.999628, 193, 117, 319, 148
-0.999628, 19, 217, 34, 232
-0.999628, 121, 405, 136, 420
-0.999634, 19, 223, 34, 238
-0.999634, 105, 153, 120, 168
-0.999637, 287, 409, 302, 424
-0.999637, 79, 157, 94, 172
-0.999637, 119, 173, 134, 188
-0.99964, 81, 139, 96, 154
-0.999642, 81, 403, 96, 418
-0.999644, 221, 275, 236, 290
-0.999645, 95, 141, 110, 156
-0.99965, 303, 223, 318, 238
-0.999655, 193, 53, 319, 84
-0.999663, 47, 181, 62, 196
-0.999667, 95, 147, 110, 162
-0.999676, 225, 269, 240, 284
-0.999692, 75, 149, 90, 164
-0.999697, 69, 145, 84, 160
-0.999698, 185, 65, 216, 320
-0.999698, 225, 263, 240, 278
-0.9997, 287, 219, 302, 234
-0.999701, 69, 1, 100, 256
-0.999704, 295, 217, 310, 232
-0.999704, 247, 259, 262, 274
-0.999705, 217, 267, 232, 282
-0.999709, 303, 215, 318, 230
-0.999713, 225, 41, 288, 104
-0.999725, 113, 53, 240, 84
-0.999735, 75, 143, 90, 158
-0.999744, 65, 53, 192, 84
-0.999753, 67, 151, 82, 166
-0.999755, 103, 147, 118, 162
-0.999765, 61, 225, 92, 480
-0.999776, 215, 261, 230, 276
-0.999795, 81, 29, 208, 60
-0.999811, 129, 41, 256, 72
-0.999826, 49, 41, 176, 72
-0.999858, 177, 37, 304, 68
-0.999859, 49, 93, 176, 124
-0.999864, 149, 289, 180, 416
-0.999865, 97, 65, 224, 96
-0.999865, 149, 49, 180, 176
-0.999874, 17, 77, 144, 108
-0.999886, 1, 65, 256, 128
-0.999896, 177, 25, 304, 56
-0.999902, 145, 113, 272, 144
-0.999924, 105, 65, 168, 128
-0.999935, 129, 77, 256, 108
-0.999936, 1, 129, 32, 384
-0.999941, 49, 17, 176, 48
-0.999951, 49, 65, 176, 96
-0.999978, 277, 33, 308, 288
-1, 161, 65, 288, 96
-1.00003, 249, 1, 280, 128
-1.00003, 177, 77, 304, 108
-1.00005, 1, 65, 128, 96
-1.00006, 17, 1, 48, 128
-1.00008, 289, 33, 319, 288
-1.00009, 17, 117, 144, 148
-1.00009, 165, 1, 196, 128
-1.0001, 1, 1, 319, 64
-1.00011, 81, 1, 208, 32
-1.00012, 97, 25, 160, 88
-1.00014, 33, 29, 160, 60
-1.00015, 1, 49, 128, 80
-1.00015, 65, 81, 192, 112
-1.00021, 97, 93, 224, 124
-1.00024, 1, 113, 319, 176
-1.00025, 1, 89, 128, 120
-1.00031, 17, 1, 48, 256
-1.00032, 169, 97, 200, 224
-1.00036, 145, 1, 176, 256
-1.00037, 201, 81, 232, 208
-1.00037, 145, 89, 272, 120
-1.00041, 173, 1, 204, 256
-1.00041, 17, 105, 144, 136
-1.00041, 221, 1, 252, 128
-1.00044, 65, 105, 192, 136
-1.00044, 1, 81, 128, 144
-1.00045, 5, 1, 36, 256
-1.00046, 193, 105, 319, 136
-1.00048, 5, 1, 36, 128
-1.00051, 161, 1, 192, 256
-1.00051, 49, 49, 80, 176
-1.00052, 185, 49, 216, 176
-1.00055, 193, 89, 319, 120
-1.00062, 261, 1, 292, 128
-1.00075, 145, 101, 272, 132
-1.00075, 249, 49, 280, 176
-1.00085, 133, 81, 164, 208
-1.00086, 233, 1, 264, 128
-1.00093, 1, 33, 319, 96
-1.00103, 177, 1, 208, 128
-1.00113, 37, 1, 68, 128
-1.00114, 49, 1, 112, 128
-1.00132, 145, 1, 176, 128
-1.00133, 89, 1, 152, 128
-1.00159, 113, 1, 176, 128
-1.00162, 1, 81, 64, 208
-1.00167, 1, 89, 319, 152
-1.00174, 1, 57, 319, 120
