1953
-0.468605, 1, 129, 500, 375
-0.506388, 1, 1, 500, 375
-0.555486, 1, 33, 500, 288
-0.59738, 257, 1, 500, 375
-0.601103, 129, 1, 384, 375
-0.614983, 193, 97, 448, 352
-0.648066, 97, 65, 352, 320
-0.665237, 33, 1, 288, 375
-0.673688, 1, 129, 256, 375
-0.768501, 257, 1, 500, 256
-0.806628, 1, 33, 256, 288
-0.862088, 257, 65, 384, 320
-0.865003, 49, 65, 176, 320
-0.865965, 177, 97, 304, 352
-0.866763, 97, 129, 224, 375
-0.88432, 97, 33, 224, 288
-0.886568, 1, 129, 500, 256
-0.889352, 49, 1, 176, 375
-0.891893, 369, 65, 496, 320
-0.896366, 177, 1, 304, 375
-0.896525, 321, 129, 448, 375
-0.8986, 129, 129, 384, 256
-0.901607, 129, 1, 256, 375
-0.904242, 241, 1, 368, 375
-0.90585, 289, 1, 416, 375
-0.908756, 369, 1, 496, 375
-0.909455, 33, 161, 288, 288
-0.909535, 193, 209, 448, 336
-0.910667, 1, 241, 500, 368
-0.911506, 177, 1, 304, 256
-0.912759, 241, 129, 368, 256
-0.91484, 321, 33, 448, 288
-0.916276, 1, 177, 500, 304
-0.91678, 225, 113, 480, 240
-0.919114, 177, 161, 304, 288
-0.920616, 1, 1, 128, 375
-0.920703, 1, 33, 500, 160
-0.923185, 225, 161, 480, 288
-0.924906, 1, 33, 128, 288
-0.926978, 1, 81, 500, 208
-0.927297, 297, 97, 360, 224
-0.927297, 249, 113, 312, 240
-0.928472, 97, 241, 352, 368
-0.930359, 225, 177, 352, 304
-0.930859, 233, 161, 296, 288
-0.931654, 265, 177, 328, 304
-0.931733, 97, 81, 352, 208
-0.931885, 1, 129, 128, 375
-0.931943, 193, 225, 320, 352
-0.936178, 193, 209, 256, 336
-0.936735, 193, 113, 320, 240
-0.937204, 113, 209, 240, 336
-0.938093, 273, 177, 400, 304
-0.938216, 153, 177, 216, 304
-0.938274, 257, 241, 384, 368
-0.93906, 97, 161, 224, 288
-0.939646, 289, 161, 352, 288
-0.940734, 121, 145, 184, 272
-0.941642, 233, 185, 296, 248
-0.942618, 273, 97, 336, 224
-0.943421, 97, 145, 160, 272
-0.944007, 129, 145, 192, 208
-0.94418, 241, 81, 368, 208
-0.944306, 193, 209, 256, 272
-0.944387, 233, 225, 296, 352
-0.944827, 249, 129, 312, 192
-0.944898, 257, 65, 500, 192
-0.945074, 289, 113, 416, 240
-0.945297, 153, 193, 216, 256
-0.945621, 81, 113, 208, 240
-0.945705, 265, 225, 328, 352
-0.945982, 185, 129, 248, 256
-0.94619, 169, 225, 232, 352
-0.947494, 233, 161, 296, 224
-0.947797, 289, 105, 352, 168
-0.948278, 209, 161, 272, 288
-0.9486, 289, 225, 352, 352
-0.948694, 257, 161, 320, 224
-0.949726, 121, 97, 184, 224
-0.9499, 113, 185, 176, 248
-0.949913, 193, 233, 256, 296
-0.950153, 321, 241, 448, 368
-0.950218, 97, 153, 160, 216
-0.950514, 145, 113, 272, 240
-0.951481, 73, 161, 136, 288
-0.951535, 257, 209, 320, 272
-0.951544, 49, 161, 176, 288
-0.952315, 1, 113, 256, 240
-0.952401, 1, 225, 256, 352
-0.952866, 169, 225, 232, 288
-0.953911, 353, 241, 416, 368
-0.954098, 321, 97, 384, 224
-0.954253, 321, 193, 448, 320
-0.955344, 273, 185, 336, 248
-0.955764, 17, 209, 144, 336
-0.956099, 73, 113, 136, 240
-0.956246, 145, 129, 208, 256
-0.956726, 121, 121, 184, 184
-0.956766, 217, 209, 280, 272
-0.956969, 225, 113, 288, 240
-0.957104, 217, 233, 280, 296
-0.957697, 145, 225, 208, 352
-0.958157, 289, 65, 416, 192
-0.958684, 241, 297, 304, 360
-0.959017, 97, 33, 352, 160
-0.959314, 153, 169, 216, 232
-0.95951, 337, 65, 464, 192
-0.959533, 257, 105, 320, 168
-0.960021, 337, 161, 400, 288
-0.960078, 209, 257, 272, 320
-0.960133, 273, 129, 336, 192
-0.960272, 289, 161, 352, 224
-0.960375, 81, 217, 144, 280
-0.960635, 1, 65, 256, 192
-0.96087, 289, 49, 352, 176
-0.960994, 345, 89, 408, 152
-0.961054, 9, 177, 72, 304
-0.961056, 369, 145, 496, 272
-0.961154, 33, 193, 96, 320
-0.961388, 97, 97, 160, 224
-0.961532, 97, 65, 224, 192
-0.961831, 265, 233, 328, 296
-0.961862, 9, 201, 72, 264
-0.962013, 145, 225, 208, 288
-0.962032, 369, 241, 496, 368
-0.963163, 97, 129, 160, 192
-0.963331, 1, 161, 128, 288
-0.963995, 289, 289, 352, 352
-0.964196, 377, 193, 440, 320
-0.964295, 329, 193, 392, 256
-0.964675, 33, 113, 160, 240
-0.964784, 81, 209, 144, 336
-0.96481, 193, 185, 256, 248
-0.964923, 313, 105, 376, 168
-0.964966, 41, 177, 104, 240
-0.965231, 337, 169, 400, 232
-0.965259, 177, 153, 240, 216
-0.965277, 209, 145, 272, 208
-0.965428, 313, 145, 376, 272
-0.965471, 113, 225, 176, 288
-0.965604, 249, 161, 280, 224
-0.965687, 293, 113, 324, 240
-0.965859, 109, 137, 140, 200
-0.965955, 377, 241, 440, 368
-0.96597, 65, 209, 192, 336
-0.965976, 305, 209, 368, 272
-0.966016, 73, 145, 136, 208
-0.96602, 113, 193, 176, 320
-0.966248, 121, 97, 184, 160
-0.966273, 305, 81, 368, 144
-0.966529, 313, 241, 376, 368
-0.966672, 377, 209, 440, 272
-0.966891, 257, 129, 320, 375
-0.966989, 281, 129, 312, 256
-0.967038, 313, 313, 376, 375
-0.967081, 165, 161, 196, 224
-0.967114, 169, 185, 200, 248
-0.967117, 345, 81, 408, 208
-0.967183, 301, 201, 332, 264
-0.967216, 181, 193, 212, 256
-0.96728, 265, 305, 328, 368
-0.967767, 337, 297, 400, 360
-0.968252, 245, 161, 276, 288
-0.968273, 297, 113, 328, 176
-0.968274, 217, 297, 280, 360
-0.968346, 293, 161, 324, 288
-0.968357, 161, 121, 224, 184
-0.968519, 65, 65, 128, 192
-0.968834, 193, 193, 320, 256
-0.968917, 297, 185, 360, 248
-0.969009, 81, 193, 144, 256
-0.969436, 329, 217, 392, 280
-0.969584, 113, 209, 240, 272
-0.969609, 313, 217, 344, 280
-0.96961, 369, 233, 432, 296
-0.969769, 157, 201, 188, 264
-0.969832, 105, 49, 168, 176
-0.969967, 33, 145, 96, 272
-0.969986, 217, 121, 280, 184
-0.969996, 297, 129, 360, 192
-0.970203, 233, 257, 296, 320
-0.970207, 257, 121, 384, 184
-0.970211, 281, 209, 344, 272
-0.970471, 221, 217, 252, 280
-0.970485, 213, 209, 244, 336
-0.970486, 193, 65, 320, 192
-0.970545, 169, 161, 200, 288
-0.970555, 281, 137, 312, 200
-0.970589, 17, 49, 144, 176
-0.97066, 81, 129, 208, 192
-0.970732, 261, 161, 292, 288
-0.970979, 257, 145, 384, 208
-0.971226, 121, 161, 152, 224
-0.97123, 289, 241, 352, 304
-0.971236, 209, 129, 336, 192
-0.971293, 249, 65, 312, 192
-0.97134, 85, 193, 116, 256
-0.971369, 313, 193, 376, 320
-0.971434, 369, 257, 432, 320
-0.971444, 193, 1, 448, 128
-0.971522, 137, 145, 168, 208
-0.971594, 241, 193, 272, 256
-0.971652, 181, 177, 212, 304
-0.97169, 289, 169, 320, 232
-0.971799, 193, 297, 256, 360
-0.971987, 169, 249, 232, 312
-0.972037, 153, 137, 184, 200
-0.972158, 145, 161, 272, 224
-0.972279, 181, 217, 212, 280
-0.972328, 261, 129, 292, 192
-0.972373, 81, 241, 144, 304
-0.97239, 277, 161, 308, 224
-0.972401, 241, 193, 368, 256
-0.972417, 353, 201, 416, 264
-0.972564, 273, 81, 336, 144
-0.972611, 241, 233, 368, 296
-0.972784, 265, 113, 296, 240
-0.972795, 233, 177, 264, 304
-0.972831, 33, 201, 96, 264
-0.972924, 97, 169, 224, 232
-0.973, 193, 233, 320, 296
-0.973093, 373, 185, 404, 248
-0.973196, 269, 193, 300, 256
-0.973267, 265, 257, 328, 320
-0.973271, 57, 225, 120, 352
-0.973275, 73, 169, 136, 232
-0.973291, 153, 113, 184, 240
-0.97347, 305, 265, 368, 328
-0.97351, 329, 241, 392, 304
-0.973598, 201, 217, 232, 280
-0.973673, 333, 97, 364, 160
-0.973721, 433, 113, 496, 240
-0.97374, 57, 217, 120, 280
-0.973918, 233, 129, 296, 375
-0.974115, 65, 193, 192, 256
-0.974178, 137, 177, 168, 240
-0.974306, 177, 305, 304, 368
-0.974308, 253, 113, 284, 240
-0.974314, 313, 161, 376, 224
-0.97454, 341, 97, 372, 224
-0.974632, 273, 177, 304, 304
-0.974699, 1, 1, 256, 128
-0.974699, 113, 1, 176, 256
-0.974791, 261, 169, 292, 232
-0.97484, 253, 233, 284, 296
-0.974857, 153, 145, 216, 208
-0.975033, 289, 217, 416, 280
-0.975048, 321, 17, 448, 144
-0.975062, 369, 193, 496, 320
-0.975064, 145, 185, 272, 248
-0.975173, 289, 65, 352, 320
-0.97521, 105, 129, 136, 256
-0.975352, 289, 177, 416, 240
-0.97536, 305, 129, 336, 256
-0.975414, 241, 305, 368, 368
-0.975684, 105, 73, 168, 136
-0.975786, 281, 97, 312, 160
-0.975803, 305, 193, 336, 320
-0.975823, 329, 265, 392, 328
-0.975841, 289, 193, 320, 256
-0.975848, 313, 289, 376, 352
-0.97586, 73, 121, 136, 184
-0.975872, 329, 113, 360, 240
-0.975879, 121, 241, 184, 368
-0.975901, 49, 169, 176, 232
-0.975902, 241, 97, 368, 160
-0.975948, 333, 129, 364, 192
-0.975976, 137, 161, 168, 288
-0.975981, 241, 233, 304, 296
-0.976067, 65, 217, 192, 280
-0.976147, 193, 161, 320, 224
-0.976256, 241, 265, 368, 328
-0.976288, 297, 233, 328, 296
-0.976425, 65, 209, 96, 272
-0.976425, 169, 209, 200, 272
-0.976448, 353, 65, 416, 128
-0.976578, 157, 177, 188, 304
-0.976593, 81, 97, 144, 352
-0.976599, 369, 17, 496, 144
-0.976636, 313, 105, 344, 168
-0.97668, 65, 97, 128, 160
-0.976788, 309, 241, 340, 304
-0.976934, 193, 209, 224, 336
-0.976966, 201, 145, 232, 272
-0.977101, 321, 129, 384, 192
-0.977148, 241, 169, 368, 232
-0.977231, 73, 169, 104, 232
-0.977241, 313, 49, 376, 176
-0.977349, 105, 97, 168, 352
-0.977365, 145, 129, 208, 375
-0.977413, 229, 249, 260, 312
-0.977459, 373, 177, 404, 304
-0.977466, 309, 241, 340, 368
-0.977589, 225, 241, 256, 368
-0.977602, 385, 145, 448, 272
-0.977621, 277, 81, 308, 208
-0.977636, 237, 217, 268, 280
-0.977703, 433, 65, 496, 192
-0.977769, 109, 161, 140, 224
-0.977884, 293, 225, 324, 352
-0.977997, 125, 137, 156, 200
-0.978004, 161, 81, 224, 208
-0.978026, 97, 241, 224, 304
-0.978105, 149, 177, 180, 240
-0.978149, 77, 217, 108, 280
-0.978231, 253, 225, 284, 352
-0.978257, 289, 313, 352, 375
-0.978327, 293, 137, 324, 200
-0.978488, 121, 241, 152, 368
-0.97852, 121, 265, 184, 328
-0.978599, 381, 209, 412, 272
-0.978602, 361, 169, 392, 232
-0.978607, 349, 177, 380, 240
-0.978627, 161, 137, 288, 200
-0.97863, 1, 225, 64, 288
-0.978751, 233, 97, 296, 160
-0.978772, 265, 281, 328, 344
-0.97886, 33, 225, 96, 288
-0.978949, 97, 1, 224, 128
-0.979044, 305, 81, 336, 208
-0.97906, 221, 193, 252, 256
-0.979088, 145, 233, 272, 296
-0.979133, 317, 113, 348, 240
-0.97916, 81, 57, 144, 120
-0.979172, 149, 113, 180, 176
-0.979324, 289, 89, 416, 152
-0.979351, 189, 241, 220, 304
-0.979357, 269, 297, 300, 360
-0.979388, 9, 217, 40, 280
-0.979444, 285, 217, 316, 280
-0.979512, 237, 241, 268, 368
-0.979548, 257, 33, 320, 288
-0.979579, 117, 161, 148, 288
-0.979616, 265, 225, 296, 352
-0.979641, 117, 225, 148, 288
-0.979821, 97, 145, 128, 208
-0.979823, 241, 241, 272, 304
-0.979843, 433, 129, 496, 192
-0.979905, 337, 33, 400, 160
-0.979905, 417, 241, 480, 368
-0.979919, 281, 241, 312, 368
-0.97992, 205, 257, 236, 320
-0.979946, 81, 177, 112, 304
-0.979972, 241, 33, 368, 160
-0.980043, 217, 241, 248, 304
-0.980099, 145, 65, 272, 192
-0.980117, 309, 265, 340, 328
-0.980147, 117, 113, 148, 240
-0.980149, 249, 137, 280, 200
-0.980174, 317, 161, 348, 288
-0.980214, 181, 129, 212, 256
-0.980264, 1, 201, 128, 264
-0.980413, 305, 153, 336, 216
-0.980479, 1, 241, 64, 368
-0.980494, 61, 161, 92, 288
-0.980547, 377, 169, 440, 232
-0.980569, 265, 217, 296, 280
-0.980583, 309, 81, 340, 144
-0.980636, 369, 177, 496, 240
-0.980647, 369, 265, 400, 328
-0.980647, 293, 89, 324, 152
-0.98071, 333, 193, 364, 256
-0.980773, 409, 65, 472, 192
-0.980777, 289, 305, 416, 368
-0.980804, 17, 177, 80, 240
-0.980853, 57, 313, 120, 375
-0.980894, 417, 161, 480, 288
-0.980937, 209, 297, 240, 360
-0.980942, 97, 201, 128, 264
-0.981003, 281, 305, 312, 368
-0.981059, 377, 65, 440, 128
-0.981074, 105, 289, 168, 352
-0.981109, 193, 129, 256, 375
-0.981174, 369, 209, 400, 272
-0.981176, 41, 249, 104, 312
-0.981319, 325, 225, 356, 352
-0.98138, 161, 257, 288, 320
-0.981411, 73, 1, 136, 256
-0.98147, 181, 153, 212, 216
-0.981586, 93, 169, 124, 232
-0.981632, 329, 65, 392, 128
-0.981638, 321, 177, 352, 240
-0.981639, 353, 113, 384, 240
-0.981682, 193, 105, 320, 168
-0.981725, 237, 153, 268, 216
-0.981753, 349, 297, 380, 360
-0.981772, 249, 297, 280, 360
-0.981851, 381, 241, 412, 368
-0.981866, 61, 177, 92, 240
-0.981876, 193, 281, 320, 344
-0.981891, 17, 1, 144, 128
-0.981894, 93, 145, 124, 272
-0.981953, 197, 193, 228, 256
-0.981974, 145, 105, 272, 168
-0.982014, 325, 241, 356, 304
-0.982019, 81, 105, 208, 168
-0.982043, 345, 105, 376, 168
-0.98218, 361, 241, 392, 368
-0.982181, 257, 193, 288, 256
-0.982182, 97, 97, 160, 160
-0.982245, 401, 49, 464, 112
-0.982296, 337, 305, 368, 368
-0.982408, 105, 113, 136, 176
-0.982499, 37, 201, 68, 264
-0.98253, 169, 209, 200, 336
-0.982565, 181, 225, 212, 352
-0.982728, 137, 225, 168, 288
-0.982789, 381, 241, 412, 304
-0.982805, 433, 153, 496, 216
-0.982812, 289, 257, 416, 320
-0.982817, 333, 161, 364, 288
-0.982821, 201, 81, 264, 208
-0.982821, 361, 193, 392, 320
-0.98284, 417, 313, 480, 375
-0.982865, 293, 65, 324, 192
-0.982926, 97, 281, 224, 344
-0.98296, 289, 281, 416, 344
-0.98297, 221, 161, 252, 288
-0.982976, 337, 297, 464, 360
-0.98301, 265, 265, 296, 328
-0.983074, 169, 129, 232, 375
-0.98308, 177, 273, 240, 336
-0.983098, 57, 57, 120, 120
-0.983105, 385, 81, 448, 208
-0.983223, 329, 129, 392, 375
-0.983391, 305, 129, 432, 192
-0.983411, 385, 193, 416, 320
-0.983448, 33, 241, 96, 368
-0.983634, 245, 273, 276, 336
-0.983702, 337, 73, 464, 136
-0.983822, 65, 81, 192, 144
-0.983871, 301, 177, 332, 240
-0.983884, 409, 1, 472, 128
-0.984106, 117, 201, 148, 264
-0.984116, 165, 137, 196, 200
-0.984145, 369, 201, 496, 264
-0.984189, 81, 313, 144, 375
-0.984283, 369, 89, 432, 152
-0.984357, 97, 81, 128, 208
-0.984445, 65, 233, 96, 296
-0.984446, 165, 113, 196, 240
-0.984448, 289, 281, 320, 344
-0.984493, 321, 281, 352, 344
-0.984551, 165, 113, 196, 176
-0.984576, 309, 305, 340, 368
-0.984587, 337, 161, 368, 224
-0.984591, 33, 241, 160, 304
-0.9846, 337, 105, 464, 168
-0.984601, 141, 97, 172, 224
-0.984633, 425, 193, 488, 256
-0.984773, 325, 217, 356, 280
-0.984774, 49, 153, 112, 216
-0.984784, 117, 65, 148, 192
-0.984845, 33, 305, 96, 368
-0.984851, 145, 73, 208, 136
-0.985133, 433, 73, 496, 136
-0.985147, 377, 33, 440, 160
-0.985186, 149, 225, 180, 288
-0.98524, 361, 289, 392, 352
-0.985255, 33, 129, 160, 192
-0.985359, 41, 97, 104, 224
-0.985395, 337, 153, 464, 216
-0.9854, 281, 1, 344, 375
-0.985563, 313, 129, 344, 192
-0.985613, 21, 193, 52, 256
-0.985686, 333, 73, 364, 136
-0.985701, 1, 305, 64, 368
-0.985733, 89, 265, 152, 328
-0.985755, 337, 241, 368, 368
-0.985759, 321, 65, 352, 192
-0.985767, 225, 49, 288, 176
-0.985776, 345, 113, 408, 176
-0.985785, 353, 201, 384, 264
-0.985853, 33, 105, 160, 168
-0.985872, 169, 305, 232, 368
-0.985912, 65, 265, 128, 328
-0.985915, 241, 113, 272, 240
-0.985916, 77, 241, 108, 304
-0.985916, 81, 17, 144, 144
-0.985943, 69, 225, 100, 352
-0.985946, 141, 89, 172, 152
-0.985963, 365, 233, 396, 296
-0.986014, 297, 305, 328, 368
-0.986031, 49, 1, 112, 128
-0.986074, 9, 209, 40, 336
-0.98619, 1, 273, 64, 336
-0.986225, 233, 305, 264, 368
-0.986241, 17, 313, 144, 375
-0.986276, 349, 161, 380, 288
-0.986338, 193, 113, 256, 176
-0.986386, 49, 177, 80, 240
-0.986442, 321, 305, 352, 368
-0.986471, 65, 305, 192, 368
-0.986475, 197, 145, 228, 208
-0.986508, 289, 65, 416, 128
-0.986531, 109, 209, 140, 336
-0.986612, 137, 49, 200, 176
-0.986621, 145, 1, 208, 64
-0.986747, 113, 249, 144, 312
-0.986767, 45, 177, 76, 304
-0.986822, 41, 65, 104, 320
-0.98686, 353, 81, 384, 144
-0.986864, 297, 257, 328, 320
-0.986922, 137, 201, 168, 264
-0.986928, 209, 193, 240, 256
-0.986929, 361, 281, 424, 344
-0.986935, 145, 281, 272, 344
-0.986947, 181, 129, 212, 192
-0.987083, 433, 105, 496, 168
-0.9871, 33, 57, 160, 120
-0.987152, 129, 305, 256, 368
-0.987162, 433, 33, 496, 288
-0.987239, 9, 129, 72, 256
-0.987282, 393, 233, 456, 296
-0.987298, 121, 1, 184, 375
-0.9873, 9, 249, 72, 312
-0.987317, 261, 105, 292, 168
-0.987349, 137, 209, 168, 336
-0.987357, 225, 281, 256, 344
-0.987362, 345, 33, 408, 288
-0.987451, 305, 1, 368, 375
-0.987454, 73, 289, 136, 352
-0.987477, 1, 153, 128, 216
-0.98748, 89, 105, 120, 168
-0.987628, 109, 89, 140, 152
-0.98768, 349, 153, 380, 216
-0.987718, 393, 89, 456, 152
-0.987769, 237, 129, 268, 192
-0.987793, 193, 1, 256, 375
-0.987888, 433, 1, 496, 375
-0.987916, 117, 113, 148, 176
-0.987942, 161, 97, 224, 160
-0.987958, 33, 265, 160, 328
-0.987976, 169, 221, 232, 252
-0.987979, 281, 105, 344, 136
-0.987982, 137, 133, 200, 164
-0.988015, 249, 1, 312, 375
-0.988098, 113, 141, 176, 172
-0.988138, 113, 81, 240, 144
-0.988159, 153, 193, 216, 224
-0.988161, 97, 81, 128, 144
-0.988213, 137, 33, 200, 288
-0.988229, 161, 1, 288, 128
-0.988245, 121, 273, 152, 336
-0.988248, 193, 225, 448, 288
-0.988276, 249, 73, 312, 136
-0.988287, 281, 197, 344, 228
-0.988296, 305, 105, 368, 136
-0.98832, 217, 33, 280, 288
-0.988323, 257, 205, 320, 236
-0.988339, 257, 157, 320, 188
-0.988361, 225, 201, 288, 232
-0.988415, 377, 65, 408, 128
-0.988456, 341, 49, 372, 176
-0.988481, 193, 233, 256, 264
-0.988507, 137, 145, 200, 176
-0.988537, 133, 249, 164, 312
-0.988548, 257, 169, 320, 200
-0.988575, 337, 49, 464, 112
-0.988579, 17, 81, 144, 144
-0.988579, 345, 145, 408, 208
-0.988633, 1, 177, 128, 240
-0.988651, 353, 41, 416, 104
-0.98871, 241, 253, 304, 284
-0.988718, 233, 185, 296, 216
-0.9888, 145, 177, 208, 208
-0.98883, 281, 117, 344, 148
-0.988886, 161, 1, 224, 128
-0.98889, 281, 213, 344, 244
-0.988967, 393, 305, 456, 368
-0.988982, 273, 253, 336, 284
-0.989008, 9, 129, 72, 375
-0.989013, 233, 169, 296, 200
-0.989013, 289, 233, 352, 264
-0.989042, 241, 141, 304, 172
-0.989055, 129, 113, 160, 176
-0.989087, 73, 1, 136, 375
-0.989093, 249, 305, 312, 336
-0.989101, 137, 205, 200, 236
-0.989116, 393, 241, 424, 368
-0.989131, 161, 145, 224, 176
-0.989134, 193, 221, 256, 252
-0.989152, 89, 157, 152, 188
-0.989163, 217, 157, 280, 188
-0.989166, 345, 129, 376, 192
-0.989199, 281, 149, 344, 180
-0.989202, 73, 209, 136, 240
-0.989229, 369, 145, 432, 208
-0.98927, 185, 209, 248, 240
-0.989293, 257, 181, 320, 212
-0.989307, 129, 97, 160, 224
-0.989319, 161, 233, 224, 264
-0.989337, 137, 233, 200, 264
-0.989378, 257, 109, 320, 140
-0.989457, 297, 185, 360, 216
-0.989478, 65, 193, 128, 224
-0.989488, 121, 193, 184, 224
-0.989497, 353, 49, 384, 176
-0.989512, 209, 73, 336, 136
-0.98952, 353, 225, 480, 288
-0.989541, 257, 193, 320, 224
-0.989544, 89, 173, 152, 204
-0.989559, 193, 245, 256, 276
-0.989562, 217, 241, 280, 272
-0.989569, 353, 265, 480, 328
-0.989579, 129, 153, 384, 216
-0.989597, 161, 205, 224, 236
-0.989638, 273, 265, 336, 296
-0.989647, 77, 97, 108, 224
-0.989689, 29, 177, 60, 304
-0.989697, 321, 197, 384, 228
-0.989697, 217, 213, 280, 244
-0.989698, 225, 1, 288, 375
-0.989706, 81, 221, 144, 252
-0.989712, 81, 233, 144, 264
-0.989715, 121, 161, 184, 192
-0.989735, 281, 169, 344, 200
-0.989745, 353, 197, 416, 228
-0.989753, 169, 245, 232, 276
-0.989753, 157, 241, 188, 368
-0.98976, 33, 197, 96, 228
-0.989761, 97, 129, 352, 192
-0.989772, 321, 209, 384, 240
-0.989807, 329, 173, 392, 204
-0.989831, 25, 1, 88, 128
-0.989867, 145, 221, 208, 252
-0.989868, 121, 181, 184, 212
-0.989896, 193, 197, 256, 228
-0.989904, 225, 113, 256, 240
-0.989938, 249, 121, 312, 152
-0.989959, 305, 165, 368, 196
-0.989965, 257, 217, 320, 248
-0.989977, 49, 181, 112, 212
-0.990021, 353, 213, 416, 244
-0.990048, 361, 129, 424, 256
-0.990049, 209, 145, 272, 176
-0.990067, 305, 93, 368, 124
-0.990069, 349, 241, 380, 368
-0.990097, 137, 313, 200, 375
-0.990129, 337, 185, 400, 216
-0.990147, 265, 229, 328, 260
-0.990155, 225, 121, 288, 152
-0.990161, 105, 225, 168, 256
-0.990171, 353, 129, 480, 192
-0.990176, 241, 293, 304, 324
-0.990188, 185, 149, 248, 180
-0.990227, 169, 1, 232, 375
-0.990236, 201, 261, 264, 292
-0.990241, 305, 117, 368, 148
-0.990244, 105, 129, 168, 160
-0.990288, 217, 305, 280, 336
-0.9903, 433, 17, 496, 144
-0.990311, 97, 193, 352, 256
-0.990348, 265, 241, 328, 272
-0.990377, 289, 1, 352, 128
-0.990415, 217, 229, 280, 260
-0.990433, 273, 309, 336, 340
-0.990449, 329, 225, 392, 256
-0.990477, 113, 57, 240, 120
-0.990488, 409, 169, 472, 232
-0.99049, 369, 65, 432, 320
-0.990507, 161, 121, 224, 152
-0.990509, 105, 1, 168, 128
-0.990513, 89, 145, 152, 176
-0.990535, 89, 197, 152, 228
-0.990542, 265, 17, 328, 144
-0.990552, 9, 201, 72, 232
-0.99057, 297, 313, 360, 344
-0.990591, 265, 137, 328, 168
-0.990592, 249, 269, 312, 300
-0.9906, 145, 157, 208, 188
-0.990665, 57, 165, 120, 196
-0.99071, 409, 113, 472, 240
-0.990723, 305, 249, 368, 280
-0.990744, 193, 305, 256, 336
-0.990772, 97, 225, 352, 288
-0.990821, 313, 33, 376, 288
-0.990828, 281, 93, 344, 124
-0.990862, 305, 149, 368, 180
-0.990873, 193, 113, 448, 176
-0.990875, 89, 185, 152, 216
-0.990888, 345, 245, 408, 276
-0.990972, 217, 289, 280, 320
-0.990977, 369, 245, 432, 276
-0.99098, 433, 341, 496, 372
-0.990984, 353, 1, 416, 375
-0.990992, 57, 225, 120, 256
-0.990992, 129, 1, 192, 128
-0.991009, 129, 121, 192, 152
-0.99101, 145, 249, 208, 312
-0.991044, 209, 317, 272, 348
-0.991055, 113, 205, 176, 236
-0.991057, 137, 49, 168, 176
-0.991072, 273, 281, 336, 312
-0.991089, 49, 209, 112, 240
-0.991092, 25, 185, 88, 216
-0.991093, 209, 109, 272, 140
-0.991097, 161, 133, 224, 164
-0.9911, 329, 105, 392, 136
-0.99111, 233, 109, 296, 140
-0.991132, 313, 237, 376, 268
-0.991138, 337, 305, 400, 336
-0.99114, 145, 109, 208, 140
-0.991146, 185, 185, 248, 216
-0.991179, 289, 41, 416, 104
-0.99118, 373, 129, 404, 256
-0.991187, 9, 213, 72, 244
-0.991213, 369, 73, 432, 104
-0.991219, 257, 97, 320, 128
-0.991222, 305, 325, 368, 356
-0.991237, 193, 133, 256, 164
-0.991246, 313, 293, 376, 324
-0.991289, 93, 33, 124, 160
-0.991314, 193, 201, 448, 264
-0.991332, 233, 317, 296, 348
-0.99137, 113, 97, 176, 128
-0.991373, 281, 293, 344, 324
-0.991395, 369, 265, 432, 296
-0.991414, 353, 285, 416, 316
-0.991438, 289, 129, 352, 160
-0.991439, 121, 245, 184, 276
-0.991467, 377, 209, 440, 240
-0.991468, 385, 233, 448, 264
-0.991481, 217, 133, 280, 164
-0.991495, 305, 221, 368, 252
-0.991506, 193, 177, 448, 240
-0.991523, 353, 225, 416, 256
-0.991557, 313, 1, 376, 128
-0.991632, 97, 1, 160, 375
-0.991659, 157, 65, 188, 192
-0.991771, 329, 1, 392, 375
-0.991783, 205, 225, 236, 256
-0.99186, 257, 173, 288, 204
-0.991888, 177, 169, 192, 232
-0.991927, 193, 241, 224, 272
-0.991929, 65, 297, 320, 360
-0.991983, 177, 193, 208, 224
-0.991998, 133, 185, 164, 216
-0.992009, 181, 229, 212, 260
-0.992015, 245, 181, 276, 212
-0.992038, 169, 205, 200, 236
-0.992053, 257, 153, 272, 216
-0.992055, 365, 181, 396, 212
-0.992064, 97, 33, 224, 96
-0.992075, 369, 25, 496, 88
-0.992102, 285, 157, 316, 188
-0.992103, 301, 253, 332, 284
-0.992119, 25, 129, 56, 256
-0.99212, 269, 189, 300, 220
-0.992135, 169, 65, 200, 192
-0.992138, 293, 105, 324, 136
-0.992149, 221, 213, 252, 244
-0.992167, 301, 197, 332, 228
-0.992168, 169, 1, 232, 256
-0.992175, 221, 241, 252, 272
-0.992181, 313, 101, 344, 132
-0.992187, 129, 165, 160, 196
-0.992205, 181, 217, 212, 248
-0.99221, 173, 145, 204, 176
-0.99222, 305, 213, 336, 244
-0.992229, 293, 145, 324, 176
-0.992238, 333, 109, 364, 140
-0.992242, 265, 65, 296, 192
-0.992248, 181, 205, 212, 236
-0.99225, 249, 157, 280, 188
-0.992252, 129, 137, 160, 168
-0.992261, 285, 169, 316, 200
-0.992267, 113, 229, 144, 260
-0.992275, 157, 133, 188, 164
-0.992275, 153, 189, 184, 220
-0.992292, 273, 161, 304, 192
-0.992295, 273, 205, 304, 236
-0.992311, 105, 149, 136, 180
-0.992318, 341, 125, 372, 156
-0.992325, 345, 189, 376, 220
-0.992349, 273, 129, 304, 160
-0.992352, 321, 113, 352, 144
-0.992354, 233, 197, 264, 228
-0.992355, 165, 181, 196, 212
-0.992356, 305, 229, 336, 260
-0.992359, 289, 193, 320, 224
-0.99237, 183, 185, 198, 248
-0.992374, 153, 145, 184, 176
-0.992375, 181, 81, 212, 208
-0.992377, 165, 193, 196, 224
-0.992397, 369, 193, 400, 224
-0.992403, 381, 49, 412, 176
-0.992405, 169, 221, 200, 252
-0.992406, 317, 237, 348, 268
-0.992408, 301, 241, 332, 272
-0.992411, 225, 225, 256, 256
-0.992414, 245, 169, 276, 200
-0.992416, 145, 177, 176, 208
-0.992426, 237, 241, 268, 272
-0.992428, 313, 197, 344, 228
-0.992429, 97, 249, 352, 312
-0.992433, 33, 1, 96, 375
-0.992448, 261, 261, 292, 292
-0.992449, 377, 213, 408, 244
-0.992481, 281, 181, 312, 212
-0.992483, 209, 237, 240, 268
-0.992487, 293, 117, 324, 148
-0.992489, 289, 205, 320, 236
-0.992489, 357, 197, 388, 228
-0.992493, 113, 1, 240, 64
-0.992498, 257, 185, 288, 216
-0.992502, 305, 273, 336, 304
-0.992509, 301, 185, 332, 216
-0.992511, 113, 125, 144, 156
-0.992512, 213, 253, 244, 284
-0.992514, 285, 257, 316, 288
-0.992516, 253, 249, 284, 280
-0.99252, 257, 305, 500, 368
-0.992526, 261, 161, 292, 192
-0.992528, 309, 113, 340, 144
-0.992534, 221, 201, 252, 232
-0.992537, 193, 33, 256, 288
-0.992544, 269, 177, 300, 208
-0.992547, 89, 193, 120, 224
-0.992548, 193, 229, 224, 260
-0.992548, 89, 205, 120, 236
-0.99256, 285, 217, 316, 248
-0.992561, 237, 157, 268, 188
-0.992563, 261, 201, 292, 232
-0.992564, 233, 253, 264, 284
-0.99257, 269, 141, 300, 172
-0.992571, 345, 201, 376, 232
-0.992577, 317, 249, 348, 280
-0.992578, 49, 33, 176, 96
-0.992582, 141, 125, 172, 156
-0.992598, 381, 77, 412, 108
-0.992601, 177, 181, 208, 212
-0.992602, 117, 141, 148, 172
-0.992607, 273, 253, 304, 284
-0.99261, 381, 225, 412, 256
-0.992612, 305, 165, 336, 196
-0.992617, 393, 129, 456, 375
-0.992622, 153, 205, 184, 236
-0.992622, 281, 141, 312, 172
-0.992626, 225, 153, 256, 184
-0.992635, 117, 169, 148, 200
-0.992644, 109, 217, 140, 248
-0.992647, 121, 153, 152, 184
-0.992649, 73, 193, 104, 224
-0.992654, 261, 293, 292, 324
-0.992654, 193, 213, 224, 244
-0.992655, 317, 217, 348, 248
-0.992655, 329, 97, 360, 128
-0.992657, 281, 117, 312, 148
-0.992658, 225, 149, 352, 180
-0.992664, 261, 305, 292, 336
-0.992669, 205, 213, 236, 244
-0.992675, 165, 169, 196, 200
-0.99268, 65, 233, 96, 264
-0.99268, 353, 173, 384, 204
-0.992684, 33, 201, 64, 232
-0.992685, 53, 197, 84, 228
-0.992687, 277, 305, 308, 336
-0.99269, 245, 193, 276, 224
-0.992692, 317, 261, 348, 292
-0.992695, 317, 149, 348, 180
-0.992697, 85, 221, 116, 252
-0.9927, 65, 113, 96, 240
-0.992701, 325, 309, 356, 340
-0.992706, 185, 149, 216, 180
-0.992712, 381, 241, 412, 272
-0.992714, 285, 229, 316, 260
-0.992715, 85, 161, 116, 192
-0.992716, 137, 153, 168, 184
-0.992717, 249, 305, 280, 336
-0.992717, 97, 161, 128, 192
-0.992717, 241, 229, 272, 260
-0.99272, 257, 121, 288, 152
-0.99272, 241, 113, 368, 144
-0.992722, 325, 201, 356, 232
-0.992733, 321, 185, 352, 216
-0.992741, 237, 145, 268, 176
-0.992741, 361, 209, 392, 240
-0.992741, 169, 129, 200, 160
-0.992744, 181, 241, 212, 272
-0.992757, 257, 233, 288, 264
-0.992763, 161, 157, 192, 188
-0.992771, 73, 181, 104, 212
-0.992772, 1, 193, 256, 256
-0.992814, 161, 305, 416, 368
-0.992817, 113, 129, 128, 192
-0.99283, 145, 1, 208, 375
-0.992873, 225, 257, 480, 320
-0.9929, 377, 1, 440, 375
-0.992949, 261, 225, 276, 288
-0.992988, 417, 241, 448, 368
-0.993029, 253, 65, 284, 192
-0.993056, 241, 41, 368, 104
-0.993093, 1, 33, 128, 96
-0.993131, 1, 161, 256, 224
-0.993149, 433, 241, 464, 368
-0.993164, 365, 81, 396, 208
-0.993167, 209, 137, 336, 168
-0.993176, 97, 225, 128, 352
-0.993191, 147, 153, 162, 216
-0.993209, 257, 193, 384, 224
-0.993213, 113, 145, 240, 176
-0.993218, 161, 81, 288, 144
-0.993234, 281, 33, 312, 160
-0.993263, 293, 137, 308, 200
-0.993308, 121, 129, 136, 192
-0.993338, 177, 205, 304, 236
-0.993405, 209, 189, 336, 220
-0.99341, 311, 201, 326, 264
-0.993413, 163, 193, 178, 256
-0.993424, 183, 209, 198, 272
-0.993427, 81, 165, 208, 196
-0.993431, 409, 1, 472, 375
-0.993445, 57, 241, 88, 368
-0.993486, 389, 201, 404, 264
-0.993486, 113, 233, 240, 264
-0.993494, 133, 161, 148, 224
-0.993494, 257, 125, 384, 156
-0.993537, 81, 133, 208, 164
-0.993564, 177, 253, 304, 284
-0.993572, 1, 177, 500, 240
-0.993584, 105, 33, 136, 160
-0.993598, 97, 213, 224, 244
-0.993617, 161, 229, 288, 260
-0.993634, 81, 225, 96, 288
-0.99364, 301, 185, 316, 248
-0.993665, 453, 241, 484, 368
-0.993668, 251, 153, 266, 216
-0.993683, 241, 245, 368, 276
-0.993683, 193, 193, 208, 256
-0.993728, 139, 161, 154, 224
-0.993761, 173, 201, 188, 264
-0.993776, 305, 33, 336, 160
-0.993784, 1, 145, 500, 208
-0.993791, 125, 153, 140, 216
-0.993795, 457, 1, 488, 128
-0.993806, 213, 113, 244, 240
-0.99381, 273, 177, 288, 240
-0.993824, 97, 105, 352, 168
-0.993826, 235, 225, 250, 288
-0.993832, 267, 169, 282, 232
-0.993839, 369, 1, 496, 64
-0.993877, 161, 153, 288, 184
-0.993906, 257, 205, 384, 236
-0.993909, 177, 125, 304, 156
-0.993924, 257, 89, 500, 152
-0.993951, 283, 169, 298, 232
-0.993953, 241, 193, 256, 256
-0.993984, 241, 305, 368, 336
-0.993988, 1, 225, 256, 288
-0.994, 441, 33, 472, 160
-0.994029, 157, 185, 172, 248
-0.99403, 33, 273, 288, 336
-0.994032, 301, 121, 316, 184
-0.994034, 177, 217, 304, 248
-0.994044, 417, 129, 480, 375
-0.994046, 171, 153, 186, 216
-0.994079, 73, 33, 104, 160
-0.994085, 97, 193, 224, 224
-0.994098, 161, 113, 176, 176
-0.99411, 219, 233, 234, 296
-0.994129, 9, 161, 40, 288
-0.994131, 207, 225, 222, 288
-0.994151, 295, 113, 310, 176
-0.994162, 49, 181, 176, 212
-0.994171, 289, 181, 416, 212
-0.994192, 293, 193, 308, 256
-0.994199, 269, 217, 284, 280
-0.994217, 153, 145, 168, 208
-0.994228, 199, 217, 214, 280
-0.994249, 81, 201, 96, 264
-0.994252, 307, 105, 322, 168
-0.994252, 161, 241, 288, 272
-0.994255, 393, 1, 456, 256
-0.994279, 149, 177, 164, 240
-0.994279, 229, 217, 244, 280
-0.994281, 385, 1, 416, 128
-0.994284, 349, 113, 364, 176
-0.994285, 113, 181, 240, 212
-0.994287, 191, 217, 206, 280
-0.994289, 301, 145, 316, 208
-0.994303, 193, 25, 320, 88
-0.994307, 131, 241, 146, 304
-0.994313, 397, 193, 428, 320
-0.994321, 257, 169, 384, 200
-0.994326, 309, 161, 324, 224
-0.994335, 379, 233, 394, 296
-0.994344, 247, 177, 262, 240
-0.994359, 317, 209, 332, 272
-0.99436, 257, 137, 384, 168
-0.994363, 335, 105, 350, 168
-0.994365, 305, 17, 432, 80
-0.994389, 129, 81, 384, 144
-0.994395, 241, 265, 368, 296
-0.99441, 305, 205, 432, 236
-0.994411, 129, 125, 256, 156
-0.994413, 309, 233, 324, 296
-0.994444, 303, 225, 318, 288
-0.994456, 177, 313, 304, 344
-0.994487, 161, 1, 288, 64
-0.994515, 199, 241, 214, 304
-0.994517, 261, 281, 276, 344
-0.994517, 87, 201, 102, 264
-0.994524, 123, 201, 138, 264
-0.994534, 383, 193, 398, 256
-0.994564, 319, 249, 334, 312
-0.994576, 193, 281, 448, 344
-0.994593, 225, 233, 352, 264
-0.994639, 1, 201, 128, 232
-0.994671, 461, 113, 492, 240
-0.99468, 155, 105, 170, 168
-0.99469, 401, 65, 432, 192
-0.994721, 81, 225, 112, 352
-0.994739, 301, 97, 316, 160
-0.994753, 381, 257, 396, 320
-0.994756, 327, 217, 342, 280
-0.994759, 217, 257, 232, 320
-0.994786, 329, 241, 344, 304
-0.994796, 257, 221, 384, 252
-0.994799, 231, 257, 246, 320
-0.994812, 211, 249, 226, 312
-0.994814, 293, 161, 308, 224
-0.994827, 177, 165, 304, 196
-0.994827, 255, 273, 270, 336
-0.994832, 261, 177, 276, 240
-0.994836, 1, 305, 500, 368
-0.994838, 145, 193, 272, 224
-0.994842, 341, 105, 356, 168
-0.994848, 241, 101, 368, 132
-0.994875, 267, 193, 282, 256
-0.994878, 81, 177, 96, 240
-0.994884, 161, 17, 192, 144
-0.994892, 235, 201, 250, 264
-0.994896, 65, 1, 192, 64
-0.994897, 387, 233, 402, 296
-0.994907, 119, 161, 134, 224
-0.994924, 49, 233, 176, 264
-0.994939, 263, 145, 278, 208
-0.994956, 99, 177, 114, 240
-0.994967, 397, 145, 428, 272
-0.994971, 319, 177, 334, 240
-0.994976, 129, 193, 144, 256
-0.994985, 225, 137, 480, 200
-0.995009, 113, 245, 240, 276
-0.995012, 405, 241, 436, 368
-0.995023, 223, 209, 238, 272
-0.995053, 285, 121, 300, 184
-0.995059, 105, 161, 120, 224
-0.99507, 253, 249, 268, 312
-0.995079, 273, 157, 400, 188
-0.995079, 243, 249, 258, 312
-0.995101, 167, 129, 182, 192
-0.995105, 253, 129, 268, 192
-0.995116, 269, 137, 284, 200
-0.995121, 287, 297, 302, 360
-0.995128, 369, 33, 400, 160
-0.995129, 1, 121, 256, 184
-0.995145, 329, 97, 344, 160
-0.995148, 193, 109, 320, 140
-0.99515, 265, 249, 280, 312
-0.995156, 1, 289, 128, 352
-0.995157, 377, 201, 392, 264
-0.995187, 177, 145, 192, 208
-0.995189, 117, 105, 132, 168
-0.995196, 289, 241, 416, 272
-0.9952, 11, 217, 26, 280
-0.995213, 297, 217, 312, 280
-0.995226, 93, 185, 108, 248
-0.995226, 33, 81, 288, 144
-0.99523, 245, 153, 260, 216
-0.995238, 145, 33, 272, 96
-0.995239, 49, 129, 80, 256
-0.99525, 285, 193, 300, 256
-0.995256, 269, 289, 284, 352
-0.995264, 183, 161, 198, 224
-0.995271, 49, 193, 176, 224
-0.995271, 129, 129, 144, 192
-0.995293, 275, 129, 290, 192
-0.995302, 177, 301, 304, 332
-0.995339, 277, 153, 292, 216
-0.995341, 259, 201, 274, 264
-0.995344, 165, 153, 180, 216
-0.99536, 377, 177, 392, 240
-0.995372, 1, 201, 500, 264
-0.995389, 305, 141, 432, 172
-0.995393, 305, 221, 432, 252
-0.995417, 1, 257, 500, 320
-0.995417, 353, 169, 368, 232
-0.995422, 223, 297, 238, 360
-0.995431, 337, 181, 464, 212
-0.99544, 135, 185, 150, 248
-0.995468, 259, 249, 274, 312
-0.995472, 47, 193, 62, 256
-0.995473, 321, 193, 448, 224
-0.995484, 157, 209, 172, 272
-0.9955, 229, 193, 244, 256
-0.995511, 185, 1, 248, 128
-0.995547, 469, 177, 500, 304
-0.995555, 169, 177, 184, 240
-0.995559, 241, 9, 368, 72
-0.995575, 321, 89, 448, 120
-0.995575, 111, 193, 126, 256
-0.995577, 437, 113, 468, 240
-0.995586, 213, 217, 228, 280
-0.995612, 289, 105, 416, 136
-0.995613, 129, 169, 256, 200
-0.995622, 175, 225, 190, 288
-0.995627, 373, 273, 388, 336
-0.995637, 257, 281, 384, 312
-0.995646, 113, 161, 128, 224
-0.99566, 287, 145, 302, 208
-0.995669, 465, 241, 496, 368
-0.995688, 75, 233, 90, 296
-0.99569, 401, 1, 432, 128
-0.995701, 351, 297, 366, 360
-0.995712, 209, 177, 336, 208
-0.995714, 1, 217, 128, 248
-0.995714, 279, 193, 294, 256
-0.99573, 191, 169, 206, 232
-0.995742, 361, 297, 376, 360
-0.99576, 371, 177, 386, 240
-0.995765, 325, 193, 340, 256
-0.995778, 33, 161, 160, 192
-0.995798, 33, 49, 96, 176
-0.995799, 161, 181, 288, 212
-0.9958, 111, 105, 126, 168
-0.995803, 193, 269, 320, 300
-0.995807, 115, 217, 130, 280
-0.99581, 193, 241, 208, 304
-0.99582, 65, 149, 192, 180
-0.995821, 181, 1, 212, 128
-0.995835, 335, 193, 350, 256
-0.995896, 241, 325, 368, 356
-0.995918, 1, 1, 64, 375
-0.995931, 81, 121, 208, 152
-0.995936, 161, 57, 288, 120
-0.995961, 297, 65, 328, 320
-0.996, 241, 293, 368, 324
-0.996051, 145, 113, 272, 144
-0.996057, 253, 129, 284, 375
-0.996059, 1, 233, 500, 296
-0.99607, 469, 65, 500, 192
-0.996098, 49, 217, 176, 248
-0.9961, 1, 249, 256, 312
-0.996151, 369, 205, 496, 236
-0.996169, 369, 193, 496, 224
-0.996265, 129, 265, 256, 296
-0.99628, 117, 97, 148, 352
-0.996311, 305, 77, 432, 108
-0.996314, 289, 261, 416, 292
-0.996351, 1, 233, 128, 264
-0.996353, 161, 137, 288, 168
-0.996368, 33, 129, 160, 160
-0.996382, 253, 169, 268, 200
-0.996384, 337, 129, 464, 160
-0.996389, 277, 65, 308, 320
-0.996416, 357, 1, 388, 128
-0.996486, 227, 213, 242, 244
-0.996502, 425, 177, 456, 304
-0.996517, 353, 73, 480, 104
-0.996535, 33, 241, 64, 368
-0.996554, 265, 169, 280, 200
-0.996561, 1, 181, 128, 212
-0.99658, 197, 237, 212, 268
-0.996614, 1, 121, 500, 184
-0.996625, 255, 153, 270, 184
-0.996625, 81, 93, 208, 124
-0.996626, 81, 109, 208, 140
-0.996661, 171, 193, 186, 224
-0.996672, 145, 329, 272, 360
-0.996681, 21, 241, 52, 368
-0.996681, 369, 89, 496, 120
-0.996688, 81, 341, 208, 372
-0.99669, 17, 9, 144, 72
-0.996704, 193, 97, 224, 224
-0.99671, 233, 205, 248, 236
-0.996712, 119, 221, 134, 252
-0.99672, 1, 49, 500, 112
-0.996748, 165, 129, 196, 375
-0.996751, 281, 205, 296, 236
-0.996774, 49, 205, 176, 236
-0.996778, 341, 129, 372, 375
-0.99678, 241, 129, 272, 375
-0.996795, 111, 145, 126, 176
-0.996796, 307, 245, 322, 276
-0.996802, 319, 253, 334, 284
-0.996812, 193, 325, 320, 356
-0.99682, 177, 281, 304, 312
-0.996821, 279, 165, 294, 196
-0.996825, 293, 201, 308, 232
-0.996829, 187, 229, 202, 260
-0.996838, 225, 65, 480, 128
-0.996848, 385, 145, 416, 272
-0.99685, 177, 209, 192, 240
-0.996854, 247, 177, 262, 208
-0.996854, 275, 181, 290, 212
-0.996858, 143, 177, 158, 208
-0.996861, 153, 189, 168, 220
-0.996864, 287, 189, 302, 220
-0.996868, 137, 65, 168, 320
-0.996886, 95, 193, 110, 224
-0.996894, 97, 297, 224, 328
-0.996897, 337, 293, 464, 324
-0.996899, 259, 241, 274, 272
-0.996901, 261, 181, 276, 212
-0.996919, 179, 197, 194, 228
-0.99692, 125, 157, 140, 188
-0.99693, 271, 169, 286, 200
-0.996936, 161, 133, 176, 164
-0.996946, 49, 249, 176, 280
-0.996956, 187, 217, 202, 248
-0.99696, 353, 129, 384, 375
-0.996964, 163, 197, 178, 228
-0.996965, 285, 157, 300, 188
-0.99697, 137, 173, 152, 204
-0.996971, 347, 109, 362, 140
-0.996971, 259, 165, 274, 196
-0.99699, 33, 85, 160, 116
-0.996993, 129, 1, 160, 128
-0.997004, 131, 161, 146, 192
-0.997006, 33, 57, 288, 120
-0.997013, 291, 153, 306, 184
-0.997015, 1, 245, 128, 276
-0.997022, 163, 185, 178, 216
-0.997028, 161, 117, 176, 148
-0.997033, 117, 1, 148, 256
-0.997039, 155, 177, 170, 208
-0.997042, 169, 205, 184, 236
-0.997049, 181, 185, 196, 216
-0.997055, 305, 225, 320, 256
-0.997058, 119, 153, 134, 184
-0.99706, 309, 205, 324, 236
-0.997061, 305, 117, 432, 148
-0.997066, 237, 257, 252, 288
-0.997075, 345, 121, 360, 152
-0.997083, 305, 169, 432, 200
-0.99709, 33, 117, 160, 148
-0.997093, 313, 65, 344, 320
-0.997109, 129, 57, 384, 120
-0.99711, 81, 233, 96, 264
-0.997117, 205, 237, 220, 268
-0.997127, 175, 141, 190, 172
-0.997136, 421, 49, 452, 176
-0.997157, 295, 133, 310, 164
-0.997157, 145, 165, 160, 196
-0.997164, 387, 221, 402, 252
-0.997169, 365, 293, 380, 324
-0.997172, 233, 225, 248, 256
-0.997183, 381, 269, 396, 300
-0.997183, 373, 285, 388, 316
-0.997183, 303, 101, 318, 132
-0.997195, 203, 225, 218, 256
-0.997196, 305, 181, 320, 212
-0.997203, 269, 293, 284, 324
-0.997208, 263, 229, 278, 260
-0.99721, 301, 153, 316, 184
-0.99721, 301, 165, 316, 196
-0.997218, 381, 189, 396, 220
-0.997229, 195, 213, 210, 244
-0.997242, 87, 209, 102, 240
-0.997242, 191, 189, 206, 220
-0.997246, 87, 225, 102, 256
-0.997251, 377, 229, 392, 260
-0.997257, 77, 245, 92, 276
-0.997258, 269, 181, 284, 212
-0.997262, 391, 205, 406, 236
-0.997264, 281, 181, 296, 212
-0.997276, 181, 145, 196, 176
-0.997276, 181, 225, 196, 256
-0.997283, 195, 225, 210, 256
-0.997283, 129, 277, 256, 308
-0.997299, 359, 193, 374, 224
-0.9973, 265, 129, 296, 375
-0.997303, 11, 229, 26, 260
-0.997305, 303, 193, 318, 224
-0.997307, 335, 105, 350, 136
-0.997308, 317, 101, 332, 132
-0.997314, 185, 201, 200, 232
-0.997319, 149, 141, 164, 172
-0.99732, 321, 265, 336, 296
-0.997321, 169, 217, 184, 248
-0.997321, 329, 241, 344, 272
-0.997321, 281, 193, 296, 224
-0.997329, 37, 129, 68, 256
-0.99733, 257, 253, 272, 284
-0.997331, 139, 157, 154, 188
-0.997331, 327, 261, 342, 292
-0.997333, 341, 101, 356, 132
-0.997335, 327, 109, 342, 140
-0.997338, 313, 253, 328, 284
-0.997346, 369, 201, 384, 232
-0.997347, 177, 173, 192, 204
-0.99736, 265, 201, 280, 232
-0.997364, 247, 189, 262, 220
-0.997366, 149, 177, 164, 208
-0.99737, 153, 97, 184, 352
-0.997371, 315, 237, 330, 268
-0.997374, 109, 157, 124, 188
-0.997375, 271, 193, 286, 224
-0.997377, 287, 205, 302, 236
-0.997377, 211, 249, 226, 280
-0.997383, 261, 281, 276, 312
-0.997388, 109, 209, 124, 240
-0.997391, 177, 129, 208, 375
-0.997411, 255, 181, 270, 212
-0.997425, 237, 193, 252, 224
-0.997427, 337, 105, 464, 136
-0.997429, 113, 81, 240, 112
-0.997433, 293, 173, 308, 204
-0.997434, 343, 185, 358, 216
-0.997435, 371, 213, 386, 244
-0.997439, 369, 333, 496, 364
-0.997448, 65, 65, 192, 96
-0.997449, 309, 109, 324, 140
-0.99745, 381, 213, 396, 244
-0.997451, 217, 225, 232, 256
-0.997451, 245, 153, 260, 184
-0.997453, 97, 65, 128, 320
-0.997454, 359, 297, 374, 328
-0.997456, 353, 301, 368, 332
-0.997457, 353, 225, 480, 256
-0.997461, 353, 189, 368, 220
-0.997461, 1, 1, 64, 128
-0.997465, 101, 157, 116, 188
-0.997468, 369, 161, 496, 192
-0.997473, 113, 133, 128, 164
-0.997475, 373, 65, 404, 320
-0.997476, 265, 261, 280, 292
-0.997477, 97, 309, 224, 340
-0.997478, 9, 33, 72, 288
-0.997489, 1, 97, 500, 160
-0.997492, 285, 169, 300, 200
-0.997496, 311, 185, 326, 216
-0.997499, 257, 9, 500, 72
-0.997504, 351, 121, 366, 152
-0.997504, 291, 261, 306, 292
-0.997507, 375, 201, 390, 232
-0.997508, 387, 257, 402, 288
-0.997509, 119, 141, 134, 172
-0.99751, 321, 305, 448, 336
-0.997511, 331, 93, 346, 124
-0.997512, 187, 241, 202, 272
-0.99752, 151, 153, 166, 184
-0.997524, 321, 321, 448, 352
-0.997536, 413, 193, 444, 320
-0.997541, 273, 89, 400, 120
-0.997544, 1, 73, 500, 136
-0.997562, 189, 129, 220, 375
-0.997581, 33, 105, 160, 136
-0.99761, 33, 25, 288, 88
-0.997613, 337, 281, 464, 312
-0.997621, 329, 129, 360, 375
-0.997623, 17, 149, 144, 180
-0.997669, 145, 341, 272, 372
-0.997702, 65, 1, 320, 64
-0.997716, 425, 129, 456, 256
-0.997742, 193, 97, 320, 128
-0.997818, 333, 33, 364, 288
-0.997848, 353, 57, 480, 88
-0.997878, 33, 305, 160, 336
-0.997897, 233, 65, 264, 192
-0.997965, 253, 33, 284, 288
-0.998009, 257, 33, 500, 96
-0.998028, 1, 281, 500, 344
-0.998034, 449, 161, 480, 288
-0.998061, 289, 333, 416, 364
-0.998064, 345, 33, 376, 288
-0.998068, 353, 141, 480, 172
-0.998095, 157, 1, 188, 256
-0.998109, 289, 293, 416, 324
-0.998116, 65, 321, 192, 352
-0.99812, 17, 73, 144, 104
-0.998138, 265, 33, 296, 288
-0.998165, 33, 337, 160, 368
-0.998196, 353, 265, 480, 296
-0.998213, 369, 245, 496, 276
-0.998247, 17, 269, 144, 300
-0.998258, 61, 65, 92, 320
-0.998293, 353, 117, 480, 148
-0.998296, 257, 77, 384, 108
-0.998346, 85, 33, 116, 288
-0.998361, 177, 235, 240, 250
-0.998361, 113, 69, 240, 100
-0.998362, 289, 111, 352, 126
-0.998363, 305, 165, 368, 180
-0.998368, 265, 167, 328, 182
-0.998385, 265, 175, 328, 190
-0.998387, 113, 143, 176, 158
-0.998388, 297, 199, 360, 214
-0.998389, 145, 195, 208, 210
-0.998392, 193, 241, 256, 256
-0.998394, 241, 209, 304, 224
-0.998403, 145, 101, 272, 132
-0.998404, 281, 217, 344, 232
-0.998405, 145, 229, 208, 244
-0.998405, 249, 161, 312, 176
-0.998407, 137, 147, 200, 162
-0.998408, 389, 97, 420, 224
-0.998408, 289, 117, 352, 132
-0.998416, 273, 161, 336, 176
-0.998416, 145, 189, 208, 204
-0.998418, 145, 183, 208, 198
-0.998419, 295, 129, 310, 256
-0.99842, 241, 155, 304, 170
-0.998422, 137, 237, 200, 252
-0.998423, 281, 209, 344, 224
-0.998424, 241, 33, 272, 288
-0.998425, 161, 151, 224, 166
-0.998426, 217, 241, 280, 256
-0.998427, 305, 177, 320, 304
-0.998432, 453, 49, 484, 176
-0.998432, 265, 199, 328, 214
-0.998433, 121, 193, 184, 208
-0.998435, 249, 183, 312, 198
-0.998435, 241, 195, 304, 210
-0.998437, 257, 221, 320, 236
-0.998439, 297, 187, 360, 202
-0.99844, 305, 105, 368, 120
-0.998441, 33, 201, 96, 216
-0.998443, 129, 201, 192, 216
-0.998443, 201, 247, 264, 262
-0.998446, 313, 115, 376, 130
-0.998447, 113, 227, 176, 242
-0.998447, 169, 221, 232, 236
-0.998447, 113, 135, 176, 150
-0.998449, 169, 247, 232, 262
-0.998449, 193, 257, 256, 272
-0.998452, 289, 223, 352, 238
-0.998453, 161, 215, 224, 230
-0.998453, 273, 255, 336, 270
-0.998453, 185, 213, 248, 228
-0.998454, 233, 247, 296, 262
-0.998457, 241, 203, 304, 218
-0.998457, 225, 253, 288, 268
-0.998457, 217, 151, 280, 166
-0.998457, 357, 33, 388, 288
-0.998458, 169, 227, 232, 242
-0.998459, 257, 309, 320, 324
-0.99846, 129, 175, 192, 190
-0.99846, 153, 207, 216, 222
-0.998461, 145, 223, 208, 238
-0.998461, 153, 129, 216, 144
-0.998462, 137, 135, 200, 150
-0.998462, 73, 225, 136, 240
-0.998463, 281, 103, 344, 118
-0.998464, 233, 175, 296, 190
-0.998465, 105, 165, 168, 180
-0.998466, 289, 239, 352, 254
-0.998467, 233, 169, 296, 184
-0.998467, 241, 259, 304, 274
-0.99847, 153, 201, 216, 216
-0.998474, 217, 211, 280, 226
-0.998475, 281, 271, 344, 286
-0.998478, 169, 253, 232, 268
-0.998479, 273, 263, 336, 278
-0.998481, 137, 157, 200, 172
-0.998482, 257, 215, 320, 230
-0.998482, 281, 153, 344, 168
-0.998485, 81, 163, 144, 178
-0.998486, 265, 111, 328, 126
-0.998487, 289, 249, 352, 264
-0.998487, 97, 177, 160, 192
-0.998489, 265, 119, 328, 134
-0.998489, 265, 193, 328, 208
-0.99849, 273, 181, 336, 196
-0.998491, 257, 137, 320, 152
-0.998492, 313, 207, 376, 222
-0.998492, 33, 281, 160, 312
-0.998493, 161, 241, 224, 256
-0.998493, 257, 245, 320, 260
-0.998494, 217, 161, 280, 176
-0.998494, 73, 1, 104, 256
-0.998494, 329, 195, 392, 210
-0.998496, 241, 149, 304, 164
-0.998497, 193, 205, 256, 220
-0.998498, 161, 123, 224, 138
-0.998499, 121, 183, 184, 198
-0.998499, 289, 229, 352, 244
-0.9985, 89, 183, 152, 198
-0.998503, 113, 149, 176, 164
-0.998504, 73, 211, 136, 226
-0.998505, 265, 229, 328, 244
-0.998505, 305, 311, 368, 326
-0.998506, 233, 189, 296, 204
-0.998506, 129, 169, 192, 184
-0.998507, 329, 181, 392, 196
-0.998507, 201, 235, 264, 250
-0.99851, 193, 157, 256, 172
-0.99851, 241, 273, 304, 288
-0.998513, 179, 145, 194, 272
-0.998514, 137, 141, 200, 156
-0.998514, 329, 189, 392, 204
-0.998515, 217, 127, 280, 142
-0.998516, 233, 265, 296, 280
-0.998517, 353, 199, 416, 214
-0.998519, 281, 145, 344, 160
-0.998519, 257, 143, 320, 158
-0.99852, 321, 219, 384, 234
-0.99852, 1, 293, 128, 324
-0.99852, 113, 129, 176, 144
-0.998521, 221, 225, 252, 240
-0.998521, 81, 157, 144, 172
-0.998521, 293, 217, 324, 232
-0.998521, 65, 193, 128, 208
-0.998522, 141, 135, 172, 150
-0.998522, 205, 231, 236, 246
-0.998523, 41, 199, 72, 214
-0.998523, 173, 237, 204, 252
-0.998523, 201, 309, 264, 324
-0.998523, 241, 303, 304, 318
-0.998523, 313, 101, 344, 116
-0.998526, 345, 197, 376, 212
-0.998527, 225, 257, 256, 272
-0.998527, 105, 171, 168, 186
-0.998527, 325, 163, 356, 178
-0.998528, 149, 229, 180, 244
-0.998528, 105, 201, 168, 216
-0.998529, 129, 227, 160, 242
-0.998529, 193, 255, 224, 270
-0.99853, 73, 231, 136, 246
-0.998531, 209, 259, 240, 274
-0.998531, 305, 123, 368, 138
-0.998531, 209, 263, 272, 278
-0.998531, 121, 221, 184, 236
-0.998531, 249, 125, 312, 140
-0.998531, 193, 223, 256, 238
-0.998532, 221, 153, 252, 168
-0.998533, 353, 299, 384, 314
-0.998533, 157, 137, 188, 152
-0.998533, 257, 263, 288, 278
-0.998534, 257, 239, 320, 254
-0.998535, 121, 207, 184, 222
-0.998536, 185, 151, 248, 166
-0.998536, 341, 119, 372, 134
-0.998536, 249, 253, 312, 268
-0.998536, 369, 193, 400, 208
-0.998538, 105, 159, 168, 174
-0.998538, 177, 145, 240, 160
-0.998539, 317, 197, 348, 212
-0.998539, 297, 225, 328, 240
-0.998539, 353, 205, 416, 220
-0.998539, 277, 199, 308, 214
-0.998539, 193, 229, 256, 244
-0.998539, 105, 149, 136, 164
-0.99854, 257, 103, 320, 118
-0.99854, 281, 137, 312, 152
-0.99854, 269, 131, 300, 146
-0.99854, 89, 189, 152, 204
-0.99854, 73, 217, 136, 232
-0.998541, 241, 157, 272, 172
-0.998541, 313, 163, 344, 178
-0.998542, 369, 209, 400, 224
-0.998542, 249, 187, 280, 202
-0.998543, 161, 123, 192, 138
-0.998543, 281, 255, 312, 270
-0.998543, 53, 199, 84, 214
-0.998544, 309, 277, 340, 292
-0.998544, 377, 221, 408, 236
-0.998545, 313, 227, 344, 242
-0.998545, 313, 243, 344, 258
-0.998545, 203, 209, 218, 336
-0.998546, 169, 129, 200, 144
-0.998547, 281, 193, 312, 208
-0.998547, 105, 169, 136, 184
-0.998547, 213, 249, 244, 264
-0.998547, 165, 175, 196, 190
-0.998549, 325, 107, 356, 122
-0.99855, 253, 145, 268, 272
-0.99855, 247, 161, 262, 288
-0.998551, 149, 203, 180, 218
-0.998551, 93, 159, 124, 174
-0.998551, 337, 191, 368, 206
-0.998552, 317, 187, 348, 202
-0.998554, 77, 205, 108, 220
-0.998554, 321, 153, 448, 184
-0.998555, 217, 129, 248, 375
-0.998555, 221, 213, 252, 228
-0.998556, 329, 119, 360, 134
-0.998556, 237, 199, 268, 214
-0.998556, 273, 177, 304, 192
-0.998559, 233, 263, 264, 278
-0.998561, 293, 203, 324, 218
-0.998561, 265, 193, 296, 208
-0.998562, 263, 145, 278, 272
-0.998563, 341, 127, 372, 142
-0.998563, 181, 209, 212, 224
-0.998564, 121, 139, 152, 154
-0.998564, 181, 193, 212, 208
-0.998565, 301, 255, 332, 270
-0.998565, 289, 145, 304, 272
-0.998565, 281, 307, 312, 322
-0.998566, 241, 249, 272, 264
-0.998567, 265, 301, 296, 316
-0.998569, 245, 261, 276, 276
-0.998569, 189, 243, 220, 258
-0.99857, 273, 183, 304, 198
-0.99857, 289, 169, 320, 184
-0.99857, 305, 113, 320, 240
-0.998572, 169, 181, 200, 196
-0.998573, 301, 211, 332, 226
-0.998573, 89, 207, 120, 222
-0.998574, 113, 131, 144, 146
-0.998576, 239, 177, 254, 304
-0.998576, 185, 225, 216, 240
-0.998577, 313, 259, 344, 274
-0.998578, 289, 153, 320, 168
-0.99858, 189, 231, 220, 246
-0.99858, 301, 185, 332, 200
-0.998582, 261, 163, 292, 178
-0.998582, 317, 249, 348, 264
-0.998583, 333, 199, 364, 214
-0.998585, 129, 193, 160, 208
-0.998586, 157, 151, 188, 166
-0.998586, 109, 139, 140, 154
-0.998586, 149, 145, 180, 160
-0.998588, 273, 169, 304, 184
-0.99859, 177, 219, 208, 234
-0.998591, 165, 189, 196, 204
-0.998591, 341, 205, 372, 220
-0.998592, 265, 203, 296, 218
-0.998593, 129, 165, 160, 180
-0.998593, 229, 129, 260, 375
-0.998595, 297, 115, 328, 130
-0.998597, 289, 175, 320, 190
-0.998598, 17, 317, 144, 348
-0.998598, 241, 255, 272, 270
-0.9986, 337, 113, 368, 128
-0.998602, 193, 249, 224, 264
-0.998606, 333, 309, 364, 324
-0.998607, 301, 249, 332, 264
-0.998609, 165, 205, 196, 220
-0.99861, 113, 113, 128, 240
-0.99861, 297, 163, 328, 178
-0.998611, 165, 197, 196, 212
-0.998612, 109, 225, 140, 240
-0.998613, 177, 203, 208, 218
-0.998616, 33, 205, 64, 220
-0.998619, 313, 109, 344, 124
-0.99862, 261, 183, 292, 198
-0.998623, 225, 1, 288, 128
-0.998624, 205, 239, 236, 254
-0.998626, 305, 217, 336, 232
-0.99863, 165, 143, 196, 158
-0.99863, 141, 177, 172, 192
-0.998632, 129, 181, 160, 196
-0.998633, 153, 193, 184, 208
-0.998634, 177, 149, 208, 164
-0.998637, 185, 161, 200, 288
-0.998638, 117, 161, 148, 176
-0.998639, 221, 219, 252, 234
-0.99864, 297, 107, 328, 122
-0.998643, 253, 171, 284, 186
-0.998645, 49, 53, 176, 84
-0.998647, 357, 201, 388, 216
-0.998648, 345, 305, 376, 320
-0.99865, 273, 215, 304, 230
-0.998655, 169, 211, 200, 226
-0.998656, 281, 161, 312, 176
-0.998657, 165, 229, 196, 244
-0.998657, 259, 193, 274, 320
-0.998658, 105, 155, 136, 170
-0.99866, 281, 207, 312, 222
-0.998661, 177, 33, 208, 288
-0.998663, 173, 129, 188, 256
-0.998666, 305, 65, 432, 96
-0.998667, 295, 81, 310, 208
-0.998671, 177, 231, 208, 246
-0.998671, 369, 321, 496, 352
-0.998677, 145, 183, 176, 198
-0.998684, 267, 225, 282, 352
-0.998687, 311, 145, 326, 272
-0.998694, 317, 115, 348, 130
-0.998694, 253, 177, 284, 192
-0.998694, 129, 171, 160, 186
-0.998696, 161, 33, 416, 96
-0.998705, 273, 161, 288, 288
-0.998711, 185, 237, 216, 252
-0.998718, 317, 225, 332, 352
-0.998725, 225, 209, 240, 336
-0.998725, 369, 25, 496, 56
-0.998738, 97, 49, 224, 80
-0.998744, 133, 187, 164, 202
-0.998747, 387, 177, 402, 304
-0.998761, 381, 225, 396, 352
-0.998769, 331, 225, 346, 352
-0.998783, 137, 161, 152, 288
-0.998794, 159, 97, 174, 224
-0.998798, 317, 161, 332, 288
-0.998798, 233, 193, 248, 320
-0.998823, 339, 129, 354, 256
-0.998824, 77, 129, 108, 375
-0.998833, 201, 129, 232, 375
-0.998833, 377, 161, 392, 288
-0.998835, 85, 177, 100, 304
-0.998838, 195, 161, 210, 288
-0.998838, 121, 145, 136, 272
-0.99884, 167, 113, 182, 240
-0.998851, 311, 225, 326, 352
-0.998853, 193, 225, 208, 352
-0.99886, 209, 225, 224, 352
-0.998879, 275, 113, 290, 240
-0.998881, 215, 209, 230, 336
-0.998888, 343, 81, 358, 208
-0.99889, 165, 177, 180, 304
-0.998906, 351, 113, 366, 240
-0.998912, 279, 161, 294, 288
-0.998915, 329, 177, 344, 304
-0.998921, 295, 193, 310, 320
-0.99893, 333, 81, 348, 208
-0.998933, 173, 193, 188, 320
-0.998933, 233, 241, 248, 368
-0.998934, 1, 1, 500, 64
-0.998945, 369, 193, 384, 320
-0.998948, 301, 65, 316, 192
-0.99896, 323, 177, 338, 304
-0.998963, 253, 225, 268, 352
-0.998966, 79, 225, 94, 352
-0.998968, 311, 97, 326, 224
-0.998969, 147, 129, 162, 256
-0.998971, 131, 161, 146, 288
-0.998972, 261, 241, 276, 368
-0.998975, 287, 193, 302, 320
-0.998979, 133, 241, 148, 368
-0.998982, 185, 209, 200, 336
-0.998983, 267, 97, 282, 224
-0.998992, 257, 97, 272, 224
-0.998996, 337, 225, 352, 352
-0.999001, 283, 113, 298, 240
-0.999002, 33, 129, 64, 375
-0.999005, 297, 241, 312, 368
-0.999012, 239, 241, 254, 368
-0.999013, 317, 113, 332, 240
-0.99905, 305, 225, 320, 352
-0.999051, 115, 161, 130, 288
-0.999068, 357, 113, 372, 240
-0.999079, 205, 161, 220, 288
-0.999082, 291, 241, 306, 368
-0.999082, 11, 209, 26, 336
-0.999089, 119, 97, 134, 224
-0.999096, 385, 97, 416, 352
-0.999104, 289, 97, 304, 224
-0.999104, 153, 81, 168, 208
-0.999106, 325, 241, 340, 368
-0.999116, 227, 161, 242, 288
-0.999129, 337, 177, 352, 304
-0.99913, 111, 65, 126, 192
-0.999133, 91, 177, 106, 304
-0.999136, 333, 129, 348, 256
-0.999139, 273, 225, 288, 352
-0.999143, 453, 1, 484, 256
-0.999145, 343, 177, 358, 304
-0.999152, 79, 177, 94, 304
-0.999165, 179, 193, 194, 320
-0.999165, 393, 209, 408, 336
-0.999175, 143, 177, 158, 304
-0.99918, 61, 177, 76, 304
-0.999186, 159, 161, 174, 288
-0.999186, 369, 241, 384, 368
-0.999186, 437, 65, 468, 320
-0.999192, 127, 113, 142, 240
-0.999199, 115, 209, 130, 336
-0.999205, 107, 129, 122, 256
-0.999205, 125, 193, 140, 320
-0.999208, 375, 241, 390, 368
-0.999209, 245, 225, 260, 352
-0.999219, 283, 241, 298, 368
-0.99924, 149, 177, 164, 304
-0.999248, 215, 161, 230, 288
-0.999249, 345, 129, 360, 256
-0.99926, 139, 97, 154, 224
-0.99927, 161, 1, 416, 64
-0.999272, 153, 129, 168, 256
-0.999279, 85, 129, 100, 256
-0.999281, 387, 241, 402, 368
-0.999282, 21, 193, 36, 320
-0.999292, 125, 241, 140, 368
-0.999308, 51, 161, 66, 288
-0.99931, 191, 113, 206, 240
-0.999322, 73, 161, 88, 288
-0.999327, 49, 129, 80, 375
-0.999331, 237, 129, 252, 256
-0.999332, 139, 241, 154, 368
-0.999337, 351, 241, 366, 368
-0.999339, 359, 65, 374, 192
-0.999348, 327, 113, 342, 240
-0.999362, 359, 241, 374, 368
-0.999364, 205, 113, 220, 240
-0.999365, 133, 113, 148, 240
-0.999381, 243, 113, 258, 240
-0.999381, 45, 177, 60, 304
-0.999384, 5, 241, 20, 368
-0.999386, 105, 81, 120, 208
-0.999392, 117, 49, 132, 176
-0.999392, 309, 49, 324, 176
-0.999393, 351, 65, 366, 192
-0.999393, 85, 225, 100, 352
-0.999398, 97, 161, 112, 288
-0.999408, 173, 81, 188, 208
-0.99941, 73, 241, 88, 368
-0.999437, 343, 33, 358, 160
-0.999452, 125, 65, 140, 192
-0.999484, 385, 1, 416, 256
-0.999518, 425, 129, 456, 375
-0.999549, 189, 33, 220, 288
-0.999616, 225, 33, 256, 288
-0.999681, 469, 1, 500, 256
-0.999713, 163, 135, 178, 150
-0.999713, 135, 137, 150, 152
-0.999714, 197, 221, 212, 236
-0.999714, 143, 143, 158, 158
-0.999715, 363, 213, 378, 228
-0.999715, 315, 257, 330, 272
-0.999715, 269, 177, 284, 192
-0.999715, 109, 215, 124, 230
-0.999716, 353, 193, 368, 208
-0.999716, 149, 143, 164, 158
-0.999716, 181, 205, 196, 220
-0.999716, 141, 157, 156, 172
-0.999717, 307, 199, 322, 214
-0.999717, 331, 115, 346, 130
-0.999717, 305, 183, 320, 198
-0.999717, 277, 169, 292, 184
-0.999718, 357, 209, 372, 224
-0.999718, 389, 209, 404, 224
-0.999718, 347, 201, 362, 216
-0.999719, 189, 147, 204, 162
-0.999719, 177, 231, 192, 246
-0.999719, 251, 153, 266, 168
-0.99972, 173, 147, 188, 162
-0.99972, 327, 277, 342, 292
-0.99972, 119, 137, 134, 152
-0.99972, 79, 243, 94, 258
-0.99972, 341, 119, 356, 134
-0.999721, 369, 219, 384, 234
-0.999721, 397, 33, 428, 288
-0.999721, 377, 269, 392, 284
-0.999722, 115, 225, 130, 240
-0.999722, 169, 141, 184, 156
-0.999723, 139, 191, 154, 206
-0.999723, 259, 241, 274, 256
-0.999723, 187, 189, 202, 204
-0.999724, 257, 253, 272, 268
-0.999724, 273, 299, 288, 314
-0.999725, 295, 149, 310, 164
-0.999726, 315, 263, 330, 278
-0.999726, 183, 241, 198, 256
-0.999727, 179, 197, 194, 212
-0.999727, 111, 149, 126, 164
-0.999727, 143, 163, 158, 178
-0.999731, 323, 113, 338, 128
-0.999731, 309, 161, 324, 176
-0.999731, 173, 201, 188, 216
-0.999732, 121, 295, 136, 310
-0.999732, 347, 125, 362, 140
-0.999732, 227, 229, 242, 244
-0.999733, 323, 217, 338, 232
-0.999733, 283, 163, 298, 178
-0.999734, 159, 145, 174, 160
-0.999734, 99, 163, 114, 178
-0.999735, 267, 295, 282, 310
-0.999735, 239, 263, 254, 278
-0.999736, 143, 175, 158, 190
-0.999736, 235, 203, 250, 218
-0.999736, 191, 225, 206, 240
-0.999736, 243, 191, 258, 206
-0.999737, 143, 169, 158, 184
-0.999737, 257, 177, 272, 192
-0.999737, 305, 247, 320, 262
-0.999738, 189, 213, 204, 228
-0.99974, 301, 201, 316, 216
-0.99974, 375, 287, 390, 302
-0.99974, 203, 235, 218, 250
-0.999741, 171, 193, 186, 208
-0.999741, 81, 235, 96, 250
-0.999741, 149, 175, 164, 190
-0.999742, 293, 205, 308, 220
-0.999744, 295, 217, 310, 232
-0.999744, 251, 179, 266, 194
-0.999744, 163, 129, 178, 144
-0.999744, 321, 257, 336, 272
-0.999745, 181, 215, 196, 230
-0.999745, 159, 181, 174, 196
-0.999747, 113, 165, 128, 180
-0.999749, 349, 305, 364, 320
-0.999749, 165, 189, 180, 204
-0.999749, 365, 297, 380, 312
-0.999749, 119, 157, 134, 172
-0.99975, 293, 211, 308, 226
-0.999752, 277, 175, 292, 190
-0.999752, 339, 199, 354, 214
-0.999752, 185, 231, 200, 246
-0.999753, 163, 123, 178, 138
-0.999754, 359, 301, 374, 316
-0.999755, 301, 167, 316, 182
-0.999755, 273, 189, 288, 204
-0.999755, 369, 205, 384, 220
-0.999756, 315, 109, 330, 124
-0.999756, 197, 235, 212, 250
-0.999762, 283, 207, 298, 222
-0.999762, 263, 183, 278, 198
-0.999762, 187, 247, 202, 262
-0.999764, 137, 179, 152, 194
-0.999765, 191, 239, 206, 254
-0.999766, 379, 215, 394, 230
-0.999766, 179, 147, 194, 162
-0.999768, 199, 241, 214, 256
-0.999769, 279, 213, 294, 228
-0.99977, 235, 243, 250, 258
-0.99977, 303, 107, 318, 122
-0.999772, 397, 129, 428, 375
-0.999773, 267, 171, 282, 186
-0.999775, 185, 221, 200, 236
-0.999775, 175, 209, 190, 224
-0.999777, 253, 159, 268, 174
-0.999779, 289, 157, 304, 172
-0.999783, 109, 157, 124, 172
-0.999784, 301, 227, 316, 242
-0.999785, 191, 233, 206, 248
-0.999785, 93, 201, 108, 216
-0.999787, 127, 165, 142, 180
-0.999788, 253, 171, 268, 186
-0.99979, 225, 217, 240, 232
-0.99979, 277, 181, 292, 196
-0.999794, 137, 185, 152, 200
-0.999794, 115, 131, 130, 146
-0.999796, 137, 165, 152, 180
-0.999798, 115, 219, 130, 234
-0.999801, 121, 227, 136, 242
-0.999804, 375, 209, 390, 224
-0.999806, 169, 207, 184, 222
-0.999809, 161, 199, 176, 214
-0.999811, 249, 185, 264, 200
-0.999818, 9, 129, 40, 375
-0.999819, 233, 209, 248, 224
-0.999823, 133, 173, 148, 188
-0.999825, 167, 201, 182, 216
-0.999826, 155, 193, 170, 208
-0.999843, 149, 187, 164, 202
-0.999887, 49, 33, 80, 288
-0.999892, 409, 1, 440, 256
-0.999901, 143, 181, 158, 196
-0.999927, 21, 129, 52, 375
-0.999953, 457, 97, 488, 352
-1.00005, 469, 129, 500, 375
-1.00005, 205, 33, 236, 288
-1.00009, 1, 25, 500, 88
-1.00019, 425, 1, 456, 256
-1.00026, 413, 97, 444, 352
-1.00028, 25, 33, 56, 288
-1.00031, 1, 1, 32, 256
-1.00043, 37, 1, 68, 256
-1.00073, 13, 1, 44, 256
-1.00145, 1, 49, 64, 176
