1956
-0.193286, 1, 1, 366, 500
-0.238599, 1, 65, 366, 320
-0.297054, 1, 161, 366, 416
-0.361821, 1, 257, 366, 500
-0.368613, 1, 1, 256, 500
-0.443411, 97, 1, 352, 500
-0.453988, 33, 1, 288, 256
-0.49053, 65, 225, 320, 480
-0.531347, 1, 97, 256, 352
-0.550227, 97, 97, 352, 352
-0.811704, 1, 225, 128, 480
-0.812881, 49, 1, 176, 256
-0.8215, 129, 1, 256, 500
-0.824134, 17, 97, 144, 352
-0.825157, 161, 1, 288, 256
-0.830605, 113, 1, 240, 256
-0.832021, 241, 1, 366, 256
-0.832159, 1, 65, 366, 192
-0.832664, 177, 1, 304, 500
-0.834145, 65, 1, 192, 500
-0.837959, 1, 1, 128, 256
-0.838029, 49, 193, 176, 448
-0.838276, 97, 97, 224, 352
-0.84304, 209, 97, 336, 352
-0.84651, 241, 1, 366, 500
-0.846841, 1, 1, 128, 500
-0.848788, 193, 193, 320, 448
-0.851068, 97, 257, 224, 500
-0.852153, 1, 177, 366, 304
-0.853472, 241, 225, 366, 480
-0.856927, 145, 97, 272, 352
-0.857435, 1, 113, 366, 240
-0.874473, 1, 17, 366, 144
-0.875612, 145, 225, 272, 480
-0.877473, 1, 225, 366, 352
-0.885046, 1, 305, 366, 432
-0.885107, 33, 273, 288, 400
-0.887736, 1, 1, 256, 128
-0.896851, 97, 193, 352, 320
-0.899103, 33, 65, 288, 192
-0.90111, 1, 129, 256, 256
-0.906056, 1, 369, 366, 496
-0.908573, 1, 209, 256, 336
-0.914068, 97, 1, 352, 128
-0.914515, 97, 145, 352, 272
-0.915351, 49, 193, 176, 320
-0.915996, 17, 97, 144, 224
-0.917758, 17, 129, 80, 256
-0.91788, 17, 17, 80, 144
-0.917987, 65, 337, 320, 464
-0.918535, 105, 1, 168, 128
-0.920434, 1, 145, 128, 272
-0.920655, 129, 65, 192, 192
-0.921241, 49, 1, 176, 128
-0.922247, 65, 33, 128, 160
-0.922466, 145, 1, 208, 128
-0.922666, 81, 113, 144, 240
-0.923432, 33, 289, 96, 416
-0.923676, 49, 337, 176, 464
-0.923998, 1, 1, 128, 128
-0.924704, 161, 49, 288, 176
-0.925011, 73, 177, 136, 304
-0.925259, 49, 273, 176, 400
-0.925583, 1, 305, 128, 432
-0.925792, 105, 81, 168, 208
-0.926186, 1, 193, 128, 320
-0.926726, 209, 81, 336, 208
-0.926958, 209, 193, 336, 320
-0.92779, 97, 1, 224, 128
-0.928323, 57, 81, 120, 208
-0.928473, 65, 337, 128, 464
-0.928804, 17, 225, 80, 352
-0.929912, 57, 257, 120, 384
-0.93001, 137, 225, 200, 352
-0.930279, 113, 65, 240, 192
-0.930643, 161, 1, 288, 128
-0.930892, 1, 49, 128, 176
-0.931181, 265, 225, 328, 352
-0.931234, 97, 129, 224, 256
-0.931342, 225, 193, 288, 320
-0.93147, 41, 177, 104, 304
-0.932464, 81, 225, 144, 352
-0.932653, 113, 273, 240, 400
-0.932942, 209, 1, 336, 128
-0.932954, 145, 113, 272, 240
-0.93451, 41, 369, 104, 496
-0.93461, 113, 225, 176, 352
-0.935023, 217, 129, 280, 256
-0.935128, 153, 49, 216, 176
-0.935615, 233, 1, 296, 128
-0.935987, 1, 353, 128, 480
-0.936129, 81, 289, 144, 416
-0.93674, 225, 145, 352, 272
-0.937174, 249, 177, 312, 304
-0.937385, 65, 49, 192, 176
-0.937843, 105, 161, 168, 288
-0.937895, 17, 177, 80, 304
-0.937931, 161, 209, 288, 336
-0.937965, 41, 1, 104, 128
-0.938276, 1, 241, 128, 368
-0.938282, 97, 89, 160, 152
-0.938387, 297, 1, 360, 128
-0.938979, 289, 65, 352, 192
-0.939243, 153, 273, 216, 400
-0.939354, 25, 265, 88, 328
-0.939858, 1, 281, 64, 344
-0.939903, 97, 353, 160, 480
-0.93995, 169, 97, 232, 224
-0.939975, 17, 337, 80, 464
-0.940025, 145, 65, 208, 128
-0.940146, 177, 49, 240, 176
-0.940229, 65, 97, 128, 160
-0.940343, 121, 81, 184, 144
-0.940521, 97, 177, 224, 304
-0.940603, 33, 81, 96, 208
-0.940673, 193, 1, 256, 128
-0.940981, 217, 1, 280, 64
-0.941029, 49, 369, 112, 432
-0.941186, 57, 129, 120, 256
-0.941611, 57, 57, 120, 120
-0.942397, 177, 225, 240, 352
-0.942412, 193, 25, 256, 88
-0.942501, 97, 225, 224, 352
-0.943085, 257, 33, 320, 160
-0.943908, 233, 289, 296, 416
-0.944144, 121, 105, 184, 168
-0.944151, 217, 49, 280, 176
-0.944195, 193, 145, 256, 272
-0.944288, 73, 345, 136, 408
-0.944338, 169, 1, 232, 128
-0.944394, 65, 185, 128, 248
-0.944795, 281, 113, 344, 240
-0.944865, 105, 273, 168, 400
-0.945322, 257, 81, 320, 208
-0.945483, 145, 113, 208, 240
-0.945582, 145, 105, 208, 168
-0.945901, 1, 273, 64, 400
-0.945912, 9, 49, 72, 112
-0.945968, 225, 257, 352, 384
-0.946045, 49, 145, 176, 272
-0.946218, 57, 401, 120, 464
-0.946606, 177, 257, 304, 384
-0.946634, 225, 305, 352, 432
-0.946768, 25, 193, 88, 256
-0.946883, 49, 33, 112, 96
-0.946954, 161, 41, 224, 104
-0.947126, 249, 17, 312, 80
-0.947347, 129, 1, 192, 64
-0.947358, 49, 233, 112, 296
-0.947908, 33, 113, 96, 176
-0.948265, 121, 33, 184, 96
-0.948437, 281, 17, 344, 80
-0.948444, 169, 89, 232, 152
-0.94856, 289, 209, 352, 336
-0.948629, 89, 25, 152, 88
-0.948632, 49, 257, 112, 320
-0.9487, 161, 161, 224, 288
-0.948818, 65, 121, 128, 184
-0.948868, 17, 145, 80, 208
-0.948947, 25, 297, 88, 360
-0.949022, 281, 217, 344, 280
-0.949339, 305, 113, 366, 240
-0.94953, 257, 129, 320, 256
-0.949651, 81, 257, 144, 320
-0.94986, 153, 1, 216, 64
-0.949906, 305, 161, 366, 288
-0.94993, 89, 225, 152, 288
-0.950146, 161, 161, 288, 288
-0.950389, 201, 193, 264, 320
-0.950405, 193, 97, 256, 224
-0.950718, 185, 1, 248, 64
-0.950818, 57, 145, 120, 208
-0.951088, 105, 289, 168, 352
-0.951254, 81, 65, 144, 128
-0.951603, 25, 241, 88, 304
-0.951606, 281, 113, 344, 176
-0.951703, 65, 209, 128, 272
-0.951968, 241, 353, 366, 480
-0.951998, 281, 161, 344, 288
-0.952039, 217, 129, 280, 192
-0.952263, 105, 1, 168, 64
-0.952611, 97, 321, 224, 448
-0.952617, 1, 81, 64, 208
-0.952639, 201, 49, 264, 112
-0.952813, 185, 121, 248, 184
-0.953093, 225, 25, 288, 88
-0.953103, 241, 105, 304, 168
-0.953189, 1, 345, 64, 408
-0.953263, 1, 305, 64, 368
-0.95351, 105, 57, 168, 120
-0.953638, 217, 97, 280, 160
-0.953678, 265, 41, 328, 104
-0.9541, 73, 369, 136, 432
-0.954157, 177, 337, 304, 464
-0.954576, 201, 257, 264, 384
-0.954673, 9, 9, 72, 72
-0.954702, 241, 241, 304, 368
-0.954877, 9, 385, 72, 448
-0.955144, 113, 177, 176, 240
-0.955245, 89, 169, 152, 232
-0.955273, 241, 161, 304, 224
-0.955425, 129, 289, 192, 416
-0.955828, 33, 337, 96, 400
-0.955851, 297, 81, 360, 144
-0.955903, 129, 177, 192, 304
-0.956116, 193, 89, 256, 152
-0.956148, 57, 281, 120, 344
-0.956297, 41, 89, 104, 152
-0.956405, 265, 305, 328, 432
-0.956478, 265, 249, 328, 312
-0.956547, 305, 17, 366, 80
-0.956854, 33, 409, 96, 472
-0.956865, 249, 129, 312, 192
-0.957112, 89, 113, 152, 176
-0.957215, 49, 1, 112, 64
-0.957354, 225, 49, 288, 112
-0.958194, 249, 369, 312, 496
-0.958287, 25, 169, 88, 232
-0.95832, 1, 257, 64, 320
-0.95834, 81, 289, 144, 352
-0.958386, 177, 65, 240, 128
-0.958396, 121, 129, 184, 192
-0.958593, 129, 265, 192, 328
-0.958674, 1, 1, 64, 256
-0.958839, 209, 177, 272, 240
-0.958921, 17, 81, 80, 144
-0.958928, 153, 217, 216, 280
-0.959067, 1, 225, 64, 480
-0.959079, 81, 313, 144, 376
-0.959244, 73, 337, 104, 464
-0.959389, 177, 241, 240, 304
-0.959518, 241, 209, 304, 272
-0.959643, 41, 97, 104, 352
-0.959766, 145, 129, 208, 192
-0.959818, 225, 337, 288, 464
-0.959861, 65, 65, 128, 320
-0.959922, 1, 225, 64, 288
-0.959947, 25, 225, 88, 480
-0.959997, 25, 361, 88, 424
-0.96, 97, 337, 160, 400
-0.960163, 297, 305, 360, 432
-0.960535, 217, 153, 280, 216
-0.960732, 81, 25, 112, 88
-0.960753, 177, 273, 240, 400
-0.96098, 241, 97, 304, 352
-0.961089, 241, 73, 304, 136
-0.961289, 89, 193, 152, 256
-0.961296, 257, 225, 320, 480
-0.961338, 57, 225, 120, 480
-0.961474, 109, 89, 140, 152
-0.961493, 305, 105, 366, 168
-0.961515, 65, 361, 96, 424
-0.96168, 129, 289, 192, 352
-0.961923, 65, 49, 96, 176
-0.962106, 289, 57, 352, 120
-0.962112, 77, 17, 108, 144
-0.962115, 161, 17, 288, 80
-0.962264, 89, 65, 152, 320
-0.962341, 305, 137, 366, 200
-0.962367, 305, 353, 366, 480
-0.962613, 249, 185, 312, 248
-0.962621, 81, 1, 144, 64
-0.962764, 57, 305, 120, 368
-0.962908, 81, 81, 208, 144
-0.963011, 121, 241, 184, 304
-0.963077, 113, 201, 176, 264
-0.963108, 233, 1, 296, 256
-0.963189, 113, 33, 176, 288
-0.9632, 185, 353, 248, 480
-0.963314, 133, 1, 164, 64
-0.963473, 181, 1, 212, 128
-0.963498, 81, 417, 144, 480
-0.963519, 1, 185, 64, 248
-0.963579, 153, 1, 216, 256
-0.963635, 273, 81, 336, 144
-0.963657, 201, 305, 264, 432
-0.963704, 89, 161, 152, 416
-0.963824, 9, 409, 72, 472
-0.964171, 49, 57, 176, 120
-0.964171, 49, 113, 176, 176
-0.964202, 81, 393, 144, 456
-0.964316, 281, 137, 344, 200
-0.964357, 25, 1, 88, 256
-0.964377, 217, 1, 248, 128
-0.964402, 25, 217, 88, 280
-0.964458, 53, 257, 84, 320
-0.964558, 181, 33, 212, 96
-0.964747, 1, 129, 64, 384
-0.964784, 273, 353, 336, 480
-0.964956, 105, 265, 168, 328
-0.965005, 1, 145, 32, 272
-0.96501, 53, 241, 84, 368
-0.965014, 129, 57, 256, 120
-0.965284, 169, 177, 232, 240
-0.965324, 1, 121, 64, 184
-0.96537, 97, 369, 160, 432
-0.965391, 1, 161, 32, 224
-0.965413, 153, 105, 184, 168
-0.965483, 73, 185, 104, 248
-0.965497, 1, 305, 128, 368
-0.96563, 49, 17, 176, 80
-0.965633, 217, 201, 280, 264
-0.965648, 1, 433, 64, 496
-0.965683, 9, 297, 40, 360
-0.965693, 25, 225, 56, 352
-0.9657, 133, 1, 164, 128
-0.965738, 81, 145, 144, 208
-0.965809, 49, 281, 176, 344
-0.965877, 89, 177, 120, 304
-0.965922, 97, 1, 224, 64
-0.965965, 89, 65, 120, 192
-0.965996, 217, 97, 280, 352
-0.966032, 209, 1, 336, 64
-0.966102, 17, 193, 144, 256
-0.96614, 17, 1, 48, 128
-0.966205, 145, 241, 208, 304
-0.966243, 305, 225, 366, 288
-0.966296, 77, 337, 108, 400
-0.9663, 105, 1, 136, 128
-0.966392, 49, 241, 176, 304
-0.966472, 169, 145, 232, 208
-0.966499, 65, 273, 96, 400
-0.966599, 73, 177, 104, 304
-0.966665, 69, 57, 100, 120
-0.966676, 137, 369, 200, 496
-0.966686, 185, 1, 216, 64
-0.966689, 1, 57, 128, 120
-0.966796, 289, 1, 352, 256
-0.966871, 177, 209, 240, 272
-0.966937, 21, 113, 52, 240
-0.967059, 1, 81, 128, 144
-0.967137, 137, 97, 200, 352
-0.967166, 57, 65, 88, 128
-0.967168, 153, 289, 216, 352
-0.967178, 49, 217, 176, 280
-0.967189, 173, 49, 204, 176
-0.96723, 73, 225, 104, 352
-0.967291, 77, 393, 108, 456
-0.967364, 37, 225, 68, 352
-0.967498, 281, 129, 344, 384
-0.967535, 93, 105, 124, 168
-0.967557, 85, 65, 116, 128
-0.967562, 173, 97, 204, 160
-0.967564, 57, 337, 88, 464
-0.967564, 21, 281, 52, 344
-0.967574, 197, 17, 228, 80
-0.967581, 297, 33, 328, 160
-0.96762, 209, 1, 272, 256
-0.967664, 117, 281, 148, 344
-0.967711, 105, 313, 168, 376
-0.967755, 217, 25, 248, 88
-0.967873, 93, 161, 124, 224
-0.967894, 69, 97, 100, 160
-0.967976, 281, 193, 344, 256
-0.968007, 125, 81, 156, 144
-0.968036, 165, 57, 196, 120
-0.968084, 177, 65, 240, 320
-0.96809, 1, 273, 128, 336
-0.968095, 49, 177, 80, 304
-0.968099, 145, 41, 176, 104
-0.968135, 241, 281, 304, 344
-0.968279, 237, 1, 268, 64
-0.968348, 333, 97, 364, 224
-0.968385, 297, 161, 360, 224
-0.968534, 21, 289, 52, 416
-0.96854, 241, 25, 366, 88
-0.968561, 233, 345, 296, 408
-0.968581, 97, 73, 128, 136
-0.968584, 129, 97, 256, 160
-0.968668, 33, 129, 64, 256
-0.968675, 97, 33, 224, 96
-0.968683, 329, 113, 360, 176
-0.968685, 153, 49, 184, 176
-0.968749, 113, 225, 176, 480
-0.9688, 197, 49, 228, 176
-0.968854, 217, 73, 280, 136
-0.968903, 41, 249, 72, 312
-0.968939, 1, 1, 32, 128
-0.968963, 45, 305, 76, 432
-0.96902, 89, 17, 120, 144
-0.969031, 65, 97, 96, 224
-0.969078, 53, 377, 84, 440
-0.969109, 229, 113, 260, 240
-0.969112, 293, 9, 324, 72
-0.969128, 9, 97, 40, 224
-0.96916, 33, 169, 160, 232
-0.969166, 109, 145, 140, 272
-0.969232, 101, 233, 132, 296
-0.969273, 81, 361, 112, 424
-0.969317, 209, 201, 336, 264
-0.969342, 57, 121, 88, 184
-0.969385, 193, 49, 320, 112
-0.969431, 145, 121, 272, 184
-0.969467, 85, 321, 116, 448
-0.969471, 277, 17, 308, 80
-0.969609, 109, 161, 140, 224
-0.969622, 1, 1, 128, 64
-0.969628, 209, 273, 272, 336
-0.969654, 93, 353, 124, 416
-0.969674, 241, 241, 304, 304
-0.969712, 65, 1, 96, 128
-0.969725, 133, 49, 164, 112
-0.969787, 153, 65, 184, 128
-0.969796, 113, 369, 240, 496
-0.969821, 125, 257, 156, 320
-0.969863, 1, 369, 128, 432
-0.969873, 273, 81, 304, 208
-0.969888, 161, 1, 192, 128
-0.969916, 9, 1, 40, 64
-0.969925, 217, 249, 280, 312
-0.969965, 117, 225, 148, 352
-0.96997, 285, 225, 316, 288
-0.970022, 225, 1, 256, 64
-0.970107, 193, 145, 256, 208
-0.97015, 105, 289, 136, 352
-0.970157, 257, 1, 320, 256
-0.970173, 229, 33, 260, 96
-0.970185, 249, 401, 312, 464
-0.970268, 65, 249, 96, 312
-0.970289, 281, 225, 344, 480
-0.970299, 193, 321, 256, 384
-0.970316, 337, 89, 366, 152
-0.970368, 225, 105, 352, 168
-0.970375, 73, 217, 104, 280
-0.970435, 77, 273, 108, 400
-0.970495, 21, 177, 52, 304
-0.970665, 97, 233, 224, 296
-0.970747, 81, 265, 112, 328
-0.970752, 33, 1, 64, 128
-0.970942, 25, 129, 56, 192
-0.970952, 281, 209, 312, 336
-0.971004, 277, 97, 308, 160
-0.971037, 57, 41, 88, 104
-0.971037, 89, 193, 120, 256
-0.971051, 233, 49, 264, 176
-0.97106, 85, 225, 116, 288
-0.971081, 97, 193, 224, 256
-0.971109, 217, 113, 248, 240
-0.971124, 109, 193, 140, 256
-0.971283, 13, 169, 44, 232
-0.971299, 289, 257, 352, 384
-0.971311, 189, 65, 220, 128
-0.971386, 117, 273, 148, 400
-0.971473, 209, 153, 336, 216
-0.971522, 249, 41, 280, 104
-0.97154, 61, 177, 92, 304
-0.971542, 1, 121, 128, 184
-0.971548, 97, 121, 224, 184
-0.97157, 101, 209, 132, 336
-0.971576, 77, 65, 108, 192
-0.971586, 65, 161, 96, 224
-0.971623, 53, 113, 84, 240
-0.971637, 81, 89, 112, 152
-0.971675, 1, 393, 128, 456
-0.971756, 141, 241, 172, 368
-0.971826, 153, 193, 216, 448
-0.971872, 1, 273, 32, 336
-0.971912, 113, 1, 144, 64
-0.971919, 177, 73, 304, 136
-0.971922, 173, 9, 204, 72
-0.972006, 113, 257, 144, 320
-0.972045, 161, 209, 192, 272
-0.972052, 1, 249, 128, 312
-0.972077, 9, 289, 40, 416
-0.97211, 61, 281, 92, 344
-0.972154, 285, 81, 316, 208
-0.972175, 93, 305, 124, 368
-0.972192, 193, 161, 256, 416
-0.972238, 65, 337, 96, 400
-0.972249, 13, 321, 44, 384
-0.972272, 325, 9, 356, 72
-0.972274, 97, 289, 224, 352
-0.972275, 17, 145, 144, 208
-0.972276, 109, 137, 140, 200
-0.972383, 1, 33, 128, 96
-0.972391, 121, 1, 152, 128
-0.972398, 105, 353, 136, 480
-0.972469, 29, 241, 60, 304
-0.972499, 257, 81, 288, 208
-0.972519, 293, 225, 324, 352
-0.972522, 9, 209, 40, 336
-0.972553, 225, 177, 256, 304
-0.97263, 157, 33, 188, 96
-0.972637, 145, 241, 176, 304
-0.972649, 137, 273, 168, 336
-0.972654, 1, 217, 128, 280
-0.97267, 309, 113, 340, 176
-0.972673, 133, 25, 164, 88
-0.972685, 297, 33, 328, 96
-0.972708, 305, 97, 366, 352
-0.972726, 33, 305, 64, 432
-0.972798, 209, 129, 336, 192
-0.9728, 17, 329, 144, 392
-0.972923, 133, 49, 164, 176
-0.973024, 113, 145, 240, 208
-0.973063, 93, 377, 124, 440
-0.973121, 237, 1, 268, 128
-0.973142, 137, 89, 168, 152
-0.973213, 289, 81, 320, 144
-0.973283, 241, 81, 366, 144
-0.973289, 161, 321, 224, 448
-0.973296, 297, 217, 328, 280
-0.973312, 121, 233, 152, 296
-0.973337, 169, 129, 200, 192
-0.973352, 85, 225, 116, 352
-0.973368, 241, 129, 272, 256
-0.973383, 61, 401, 92, 464
-0.973451, 21, 9, 52, 72
-0.973451, 233, 193, 296, 448
-0.973494, 169, 97, 200, 224
-0.973551, 41, 281, 72, 344
-0.973555, 261, 129, 292, 256
-0.973605, 145, 241, 272, 304
-0.973615, 217, 49, 248, 176
-0.97366, 257, 1, 288, 128
-0.973667, 177, 97, 304, 160
-0.973679, 261, 257, 292, 384
-0.973702, 213, 57, 244, 120
-0.973733, 213, 1, 244, 64
-0.973734, 89, 113, 120, 240
-0.973768, 149, 1, 180, 128
-0.973801, 253, 1, 284, 64
-0.973891, 97, 305, 128, 432
-0.973975, 77, 297, 108, 360
-0.974034, 325, 1, 356, 128
-0.974049, 5, 433, 36, 496
-0.974051, 157, 225, 188, 352
-0.974171, 105, 113, 136, 176
-0.974178, 157, 1, 188, 64
-0.974199, 65, 305, 96, 368
-0.974201, 49, 1, 80, 128
-0.974295, 113, 169, 240, 232
-0.974307, 233, 65, 264, 128
-0.974377, 161, 201, 288, 264
-0.974464, 49, 305, 176, 368
-0.974496, 45, 129, 76, 192
-0.974512, 193, 1, 224, 128
-0.974548, 273, 241, 304, 304
-0.974572, 269, 209, 300, 336
-0.974603, 249, 169, 280, 232
-0.974636, 5, 49, 36, 176
-0.974658, 293, 177, 324, 304
-0.974661, 285, 49, 316, 112
-0.974737, 97, 329, 128, 392
-0.974757, 89, 257, 152, 500
-0.974791, 249, 209, 280, 336
-0.974815, 89, 401, 120, 464
-0.974824, 49, 385, 176, 448
-0.974953, 13, 113, 44, 176
-0.975061, 5, 409, 36, 472
-0.975078, 1, 33, 32, 96
-0.975096, 81, 1, 112, 64
-0.975167, 317, 113, 348, 240
-0.97519, 33, 33, 64, 96
-0.975204, 13, 345, 44, 408
-0.975285, 73, 1, 136, 500
-0.975304, 337, 9, 366, 72
-0.975371, 177, 1, 240, 500
-0.975378, 193, 345, 320, 408
-0.975422, 25, 321, 56, 384
-0.975484, 109, 97, 140, 224
-0.97549, 49, 49, 80, 176
-0.975527, 273, 49, 304, 112
-0.975551, 121, 105, 152, 168
-0.975619, 313, 1, 344, 128
-0.975673, 301, 81, 332, 208
-0.975715, 269, 33, 300, 160
-0.975802, 1, 57, 32, 120
-0.975828, 321, 89, 352, 152
-0.97584, 113, 129, 176, 384
-0.975893, 25, 353, 56, 480
-0.975915, 333, 137, 364, 200
-0.976037, 261, 137, 292, 200
-0.976143, 177, 177, 304, 240
-0.976185, 193, 121, 224, 184
-0.976216, 37, 353, 68, 480
-0.976278, 113, 265, 240, 328
-0.976294, 309, 25, 340, 88
-0.976384, 229, 137, 260, 200
-0.976396, 269, 73, 300, 136
-0.976399, 193, 41, 224, 104
-0.976435, 193, 225, 320, 288
-0.976489, 317, 65, 348, 192
-0.976561, 1, 321, 32, 384
-0.976589, 93, 1, 124, 64
-0.976633, 169, 33, 200, 96
-0.976672, 101, 257, 132, 320
-0.976749, 1, 81, 32, 144
-0.976793, 245, 49, 276, 176
-0.976808, 113, 25, 144, 88
-0.976894, 241, 57, 366, 120
-0.976895, 217, 169, 248, 232
-0.976953, 141, 97, 172, 224
-0.976984, 21, 65, 52, 192
-0.97701, 129, 241, 160, 368
-0.977103, 161, 145, 288, 208
-0.977196, 205, 97, 236, 224
-0.977267, 105, 1, 168, 500
-0.977303, 33, 417, 160, 480
-0.97734, 281, 257, 312, 384
-0.977393, 185, 49, 216, 176
-0.977409, 317, 177, 348, 304
-0.977473, 65, 337, 192, 400
-0.97748, 97, 385, 224, 448
-0.977487, 101, 257, 132, 384
-0.977585, 33, 49, 64, 176
-0.977618, 241, 177, 366, 240
-0.977632, 49, 361, 176, 424
-0.977661, 33, 1, 96, 500
-0.977716, 185, 97, 216, 224
-0.977765, 333, 145, 364, 272
-0.977794, 65, 145, 192, 208
-0.977865, 241, 225, 366, 288
-0.977869, 77, 129, 108, 256
-0.978076, 221, 241, 252, 368
-0.978135, 201, 145, 232, 272
-0.978201, 205, 193, 236, 320
-0.978225, 161, 369, 224, 496
-0.978229, 97, 313, 224, 376
-0.978279, 305, 129, 336, 256
-0.978334, 169, 225, 200, 352
-0.978387, 237, 193, 268, 320
-0.978391, 285, 33, 316, 160
-0.978442, 281, 161, 312, 288
-0.978561, 209, 257, 272, 500
-0.978563, 113, 49, 144, 176
-0.978579, 1, 337, 32, 464
-0.978644, 137, 289, 168, 416
-0.978719, 129, 1, 192, 500
-0.978731, 129, 177, 160, 304
-0.978775, 333, 49, 364, 176
-0.978786, 209, 1, 272, 500
-0.978791, 85, 369, 116, 496
-0.978805, 193, 369, 320, 432
-0.979031, 1, 1, 64, 500
-0.979046, 177, 273, 208, 400
-0.979272, 225, 313, 352, 376
-0.979436, 145, 289, 272, 352
-0.979761, 193, 265, 320, 328
-0.979863, 125, 321, 156, 448
-0.979927, 305, 209, 336, 336
-0.979992, 113, 345, 240, 408
-0.98011, 321, 305, 352, 432
-0.980151, 113, 425, 240, 488
-0.980172, 193, 401, 320, 464
-0.980203, 149, 145, 180, 272
-0.980221, 153, 1, 216, 500
-0.980231, 121, 97, 152, 224
-0.980553, 273, 305, 304, 432
-0.980576, 233, 305, 264, 432
-0.980656, 205, 1, 236, 128
-0.980724, 189, 209, 220, 336
-0.980896, 241, 353, 366, 416
-0.981404, 129, 369, 160, 496
-0.981488, 337, 305, 366, 432
-0.981505, 165, 273, 196, 400
-0.981928, 249, 273, 280, 400
-0.981936, 241, 281, 366, 344
-0.982021, 241, 249, 366, 312
-0.982189, 233, 1, 296, 500
-0.982515, 193, 289, 320, 352
-0.982747, 193, 425, 320, 488
-0.983059, 145, 313, 272, 376
-0.983242, 305, 193, 366, 448
-0.983551, 185, 257, 248, 500
-0.984097, 241, 433, 366, 496
-0.984199, 241, 401, 366, 464
-0.984601, 145, 401, 272, 464
-0.985037, 297, 1, 360, 500
-0.985365, 241, 377, 366, 440
-0.986283, 265, 1, 328, 500
-0.986752, 65, 1, 320, 64
-0.986831, 1, 57, 256, 120
-0.987074, 1, 121, 256, 184
-0.987087, 65, 73, 128, 104
-0.987234, 1, 285, 64, 316
-0.987245, 81, 93, 144, 124
-0.987397, 65, 121, 128, 152
-0.987414, 33, 273, 288, 336
-0.98742, 145, 73, 208, 104
-0.987443, 81, 105, 144, 136
-0.987483, 41, 389, 104, 420
-0.987637, 145, 369, 272, 432
-0.987647, 273, 21, 336, 52
-0.987667, 25, 133, 88, 164
-0.987679, 65, 409, 128, 440
-0.987691, 105, 129, 168, 160
-0.987695, 57, 369, 120, 400
-0.98771, 65, 185, 128, 216
-0.987737, 97, 209, 352, 272
-0.987761, 169, 97, 232, 128
-0.987771, 25, 281, 88, 312
-0.987773, 137, 113, 200, 144
-0.987819, 241, 41, 304, 72
-0.987832, 145, 61, 208, 92
-0.987877, 105, 61, 168, 92
-0.987886, 105, 85, 168, 116
-0.987935, 25, 357, 88, 388
-0.987983, 17, 149, 80, 180
-0.987987, 105, 105, 168, 136
-0.987987, 225, 9, 288, 40
-0.988058, 65, 61, 128, 92
-0.988106, 25, 293, 88, 324
-0.988133, 65, 293, 128, 324
-0.988142, 1, 13, 64, 44
-0.988156, 153, 37, 216, 68
-0.988202, 81, 173, 144, 204
-0.988203, 297, 9, 360, 40
-0.988209, 1, 297, 64, 328
-0.988222, 121, 5, 184, 36
-0.988254, 41, 405, 104, 436
-0.988266, 57, 133, 120, 164
-0.988271, 273, 233, 336, 264
-0.98831, 73, 29, 136, 60
-0.988313, 41, 345, 104, 376
-0.988313, 193, 33, 256, 64
-0.988345, 193, 1, 256, 32
-0.988351, 169, 129, 232, 160
-0.988408, 297, 25, 360, 56
-0.988413, 65, 197, 128, 228
-0.988415, 281, 221, 344, 252
-0.988417, 81, 133, 144, 164
-0.988463, 65, 89, 320, 152
-0.988466, 97, 41, 352, 104
-0.988469, 73, 357, 136, 388
-0.988489, 33, 37, 96, 68
-0.988503, 49, 261, 112, 292
-0.988504, 9, 53, 72, 84
-0.98851, 41, 145, 104, 176
-0.988518, 1, 1, 64, 32
-0.988521, 297, 117, 360, 148
-0.988528, 1, 25, 366, 88
-0.988547, 105, 73, 168, 104
-0.988572, 121, 49, 184, 80
-0.988582, 65, 381, 128, 412
-0.988594, 1, 161, 64, 192
-0.9886, 105, 117, 168, 148
-0.988603, 193, 17, 256, 48
-0.988605, 57, 101, 120, 132
-0.988615, 33, 369, 96, 400
-0.988619, 177, 49, 240, 80
-0.988622, 129, 29, 192, 60
-0.988654, 209, 57, 272, 88
-0.988658, 169, 117, 232, 148
-0.988661, 169, 21, 232, 52
-0.988664, 17, 401, 80, 432
-0.988673, 17, 269, 80, 300
-0.988686, 25, 197, 88, 228
-0.98874, 129, 85, 192, 116
-0.988743, 25, 329, 88, 360
-0.988755, 1, 65, 366, 128
-0.988763, 113, 237, 176, 268
-0.98877, 65, 337, 128, 368
-0.988785, 145, 101, 208, 132
-0.988787, 217, 29, 280, 60
-0.988884, 105, 297, 168, 328
-0.988926, 89, 425, 152, 456
-0.98894, 145, 49, 208, 80
-0.988977, 289, 37, 352, 68
-0.988978, 73, 397, 136, 428
-0.988983, 49, 49, 112, 80
-0.988987, 241, 81, 304, 112
-0.989005, 145, 129, 208, 160
-0.989014, 81, 233, 144, 264
-0.989033, 1, 337, 64, 368
-0.989042, 105, 21, 168, 52
-0.98905, 49, 249, 112, 280
-0.989057, 217, 205, 280, 236
-0.98906, 25, 177, 88, 208
-0.989062, 25, 21, 88, 52
-0.989064, 97, 65, 352, 128
-0.989082, 25, 109, 88, 140
-0.989085, 1, 129, 366, 192
-0.989094, 25, 1, 88, 32
-0.989097, 249, 29, 312, 60
-0.989102, 105, 281, 168, 312
-0.989104, 25, 305, 88, 336
-0.989123, 73, 321, 136, 352
-0.98914, 25, 209, 88, 240
-0.989147, 233, 161, 296, 192
-0.989157, 57, 161, 120, 192
-0.989164, 81, 369, 144, 400
-0.989187, 145, 5, 208, 36
-0.989215, 185, 85, 248, 116
-0.989227, 25, 253, 88, 284
-0.989263, 41, 121, 104, 152
-0.989283, 305, 153, 366, 184
-0.989313, 49, 237, 112, 268
-0.989317, 233, 97, 296, 128
-0.989322, 1, 321, 64, 352
-0.989334, 97, 1, 160, 32
-0.989341, 41, 81, 104, 112
-0.989364, 65, 209, 128, 240
-0.989387, 97, 309, 160, 340
-0.989405, 33, 241, 288, 304
-0.98941, 225, 149, 288, 180
-0.989416, 153, 141, 216, 172
-0.989443, 49, 273, 112, 304
-0.989448, 65, 305, 128, 336
-0.989468, 1, 197, 64, 228
-0.989473, 105, 33, 168, 64
-0.989478, 81, 277, 144, 308
-0.989484, 81, 17, 144, 48
-0.989489, 225, 129, 288, 160
-0.989491, 1, 309, 64, 340
-0.989509, 1, 369, 256, 432
-0.989521, 57, 173, 120, 204
-0.989529, 289, 77, 352, 108
-0.989549, 57, 421, 120, 452
-0.989555, 81, 257, 144, 288
-0.989563, 153, 233, 216, 264
-0.989573, 9, 469, 72, 500
-0.989574, 113, 189, 176, 220
-0.989581, 169, 9, 232, 40
-0.989585, 297, 105, 360, 136
-0.989784, 1, 89, 366, 152
-0.989789, 1, 33, 256, 96
-0.989926, 65, 185, 320, 248
-0.989996, 1, 177, 366, 240
-0.990074, 65, 345, 320, 408
-0.990181, 1, 209, 366, 272
-0.990408, 1, 1, 366, 64
-0.990413, 1, 425, 256, 488
-0.990615, 1, 217, 256, 280
-0.990632, 65, 393, 320, 456
-0.990691, 97, 113, 224, 144
-0.990722, 65, 145, 320, 208
-0.990867, 97, 113, 352, 176
-0.991004, 1, 297, 256, 360
-0.9911, 1, 233, 366, 296
-0.991214, 177, 33, 304, 64
-0.991251, 1, 153, 366, 216
-0.991439, 49, 109, 176, 140
-0.991468, 81, 65, 208, 96
-0.991617, 157, 45, 188, 76
-0.99165, 241, 29, 366, 60
-0.991718, 77, 405, 108, 436
-0.991738, 97, 93, 224, 124
-0.991757, 105, 93, 136, 124
-0.991775, 205, 17, 236, 48
-0.991801, 97, 117, 128, 148
-0.991813, 145, 61, 176, 92
-0.991815, 115, 97, 130, 160
-0.99183, 65, 369, 96, 400
-0.991831, 1, 57, 128, 88
-0.991835, 313, 29, 344, 60
-0.991857, 1, 205, 128, 236
-0.991863, 77, 361, 108, 392
-0.99187, 217, 1, 248, 32
-0.991875, 109, 113, 140, 144
-0.9919, 1, 321, 256, 384
-0.991906, 329, 17, 360, 48
-0.991908, 209, 13, 336, 44
-0.99191, 309, 13, 340, 44
-0.991925, 1, 177, 32, 208
-0.991925, 45, 141, 76, 172
-0.991926, 1, 161, 32, 192
-0.991926, 81, 77, 208, 108
-0.991927, 73, 189, 104, 220
-0.991929, 29, 289, 60, 320
-0.991932, 197, 1, 228, 32
-0.991949, 93, 413, 124, 444
-0.991951, 57, 293, 88, 324
-0.991956, 1, 189, 32, 220
-0.991958, 133, 81, 164, 112
-0.99197, 57, 133, 88, 164
-0.991978, 169, 57, 200, 88
-0.991984, 33, 1, 160, 32
-0.991988, 13, 201, 44, 232
-0.99199, 57, 65, 88, 96
-0.991998, 57, 77, 88, 108
-0.992011, 93, 177, 124, 208
-0.992013, 9, 289, 40, 320
-0.992017, 65, 385, 96, 416
-0.99202, 237, 1, 268, 32
-0.99202, 61, 405, 92, 436
-0.992023, 217, 17, 248, 48
-0.992028, 69, 73, 100, 104
-0.992032, 53, 385, 84, 416
-0.992034, 29, 1, 60, 32
-0.99204, 77, 29, 108, 60
-0.992054, 65, 93, 96, 124
-0.992056, 65, 261, 96, 292
-0.992062, 57, 41, 88, 72
-0.992067, 81, 245, 112, 276
-0.992074, 85, 201, 116, 232
-0.992078, 97, 21, 224, 52
-0.992079, 41, 293, 72, 324
-0.99208, 77, 417, 108, 448
-0.992083, 333, 101, 364, 132
-0.992092, 9, 25, 40, 56
-0.992093, 181, 9, 212, 40
-0.992099, 73, 201, 104, 232
-0.992103, 269, 85, 300, 116
-0.992106, 75, 49, 90, 112
-0.992108, 157, 65, 188, 96
-0.992122, 97, 105, 128, 136
-0.992128, 81, 105, 112, 136
-0.992136, 77, 301, 108, 332
-0.992137, 129, 93, 160, 124
-0.992139, 193, 17, 224, 48
-0.992143, 181, 53, 212, 84
-0.992149, 149, 117, 180, 148
-0.992154, 193, 9, 208, 72
-0.992154, 17, 225, 144, 256
-0.992155, 301, 33, 332, 64
-0.992157, 105, 197, 136, 228
-0.992158, 65, 377, 80, 440
-0.99216, 65, 177, 96, 208
-0.992162, 125, 277, 156, 308
-0.992163, 89, 89, 120, 120
-0.992163, 9, 13, 40, 44
-0.992174, 145, 49, 272, 80
-0.992177, 25, 301, 56, 332
-0.992177, 97, 357, 128, 388
-0.992178, 25, 153, 56, 184
-0.992185, 229, 53, 260, 84
-0.992201, 53, 277, 84, 308
-0.992201, 1, 185, 128, 216
-0.992213, 229, 1, 244, 64
-0.992216, 113, 17, 144, 48
-0.992219, 109, 69, 140, 100
-0.992222, 109, 169, 140, 200
-0.992222, 145, 73, 176, 104
-0.992225, 133, 9, 164, 40
-0.99223, 33, 141, 64, 172
-0.992233, 101, 225, 132, 256
-0.992237, 9, 305, 40, 336
-0.992238, 69, 113, 100, 144
-0.99224, 29, 13, 60, 44
-0.992245, 77, 329, 108, 360
-0.992251, 49, 405, 80, 436
-0.992254, 93, 61, 124, 92
-0.992255, 89, 73, 120, 104
-0.992255, 13, 189, 44, 220
-0.992256, 165, 133, 196, 164
-0.992259, 129, 113, 160, 144
-0.992263, 93, 425, 124, 456
-0.992264, 149, 33, 180, 64
-0.992266, 53, 261, 84, 292
-0.992267, 81, 373, 112, 404
-0.992269, 69, 61, 100, 92
-0.992271, 177, 97, 208, 128
-0.992272, 37, 269, 68, 300
-0.992273, 65, 357, 96, 388
-0.992279, 173, 29, 204, 60
-0.992282, 193, 37, 224, 68
-0.992285, 73, 213, 104, 244
-0.99229, 117, 97, 148, 128
-0.992295, 109, 305, 140, 336
-0.992296, 333, 5, 364, 36
-0.992298, 69, 241, 100, 272
-0.9923, 181, 121, 212, 152
-0.992302, 97, 373, 128, 404
-0.992307, 13, 221, 44, 252
-0.992308, 149, 1, 180, 32
-0.992311, 321, 5, 352, 36
-0.992313, 17, 1, 48, 32
-0.992316, 111, 169, 126, 232
-0.992319, 277, 249, 308, 280
-0.992319, 109, 293, 140, 324
-0.992322, 85, 229, 116, 260
-0.992323, 297, 17, 328, 48
-0.992325, 53, 153, 84, 184
-0.992327, 257, 29, 288, 60
-0.99233, 13, 321, 44, 352
-0.992337, 333, 29, 364, 60
-0.992338, 245, 37, 276, 68
-0.992339, 137, 29, 168, 60
-0.992345, 109, 185, 140, 216
-0.992352, 301, 117, 332, 148
-0.992355, 97, 301, 128, 332
-0.992356, 337, 89, 366, 120
-0.992356, 93, 385, 124, 416
-0.992357, 25, 29, 56, 60
-0.992359, 257, 145, 288, 176
-0.992359, 81, 57, 112, 88
-0.99236, 113, 129, 144, 160
-0.992361, 253, 109, 284, 140
-0.992362, 249, 125, 280, 156
-0.992363, 93, 325, 124, 356
-0.992363, 13, 37, 44, 68
-0.992399, 43, 265, 58, 328
-0.992448, 1, 345, 366, 408
-0.992454, 87, 177, 102, 240
-0.992475, 241, 41, 366, 72
-0.992493, 181, 49, 196, 112
-0.992509, 73, 369, 88, 432
-0.992519, 1, 281, 366, 344
-0.992522, 107, 73, 122, 136
-0.992523, 17, 97, 144, 128
-0.992524, 93, 393, 108, 456
-0.992538, 71, 113, 86, 176
-0.992542, 51, 249, 66, 312
-0.992554, 17, 285, 144, 316
-0.992595, 129, 61, 256, 92
-0.992604, 129, 1, 256, 32
-0.992604, 7, 281, 22, 344
-0.992605, 83, 345, 98, 408
-0.992632, 185, 25, 200, 88
-0.992697, 75, 345, 90, 408
-0.992707, 49, 125, 176, 156
-0.992729, 21, 297, 36, 360
-0.99274, 145, 133, 272, 164
-0.992795, 31, 273, 46, 336
-0.992843, 237, 25, 252, 88
-0.992855, 1, 117, 128, 148
-0.992859, 103, 97, 118, 160
-0.992865, 129, 77, 256, 108
-0.992865, 1, 305, 128, 336
-0.992897, 35, 121, 50, 184
-0.992902, 183, 89, 198, 152
-0.992905, 83, 369, 98, 432
-0.992909, 49, 201, 176, 232
-0.992929, 121, 89, 136, 152
-0.992933, 13, 281, 28, 344
-0.992961, 177, 1, 304, 32
-0.992971, 159, 41, 174, 104
-0.992999, 33, 85, 160, 116
-0.99302, 41, 241, 56, 304
-0.993035, 107, 361, 122, 424
-0.993038, 161, 101, 288, 132
-0.993046, 161, 13, 288, 44
-0.993056, 177, 81, 304, 112
-0.993066, 81, 1, 208, 32
-0.993076, 49, 273, 176, 304
-0.993116, 249, 1, 264, 64
-0.993119, 81, 89, 96, 152
-0.99319, 1, 17, 128, 48
-0.993192, 105, 385, 120, 448
-0.993203, 81, 221, 208, 252
-0.993223, 11, 161, 26, 224
-0.993223, 57, 249, 72, 312
-0.993261, 5, 153, 20, 216
-0.993268, 1, 297, 16, 360
-0.993271, 65, 33, 192, 64
-0.99328, 243, 1, 258, 64
-0.993287, 191, 41, 206, 104
-0.993305, 1, 409, 128, 440
-0.99331, 57, 57, 72, 120
-0.99331, 137, 249, 152, 312
-0.993311, 129, 1, 144, 64
-0.993314, 89, 353, 104, 416
-0.993321, 149, 89, 164, 152
-0.993324, 33, 377, 160, 408
-0.993329, 187, 1, 202, 64
-0.993337, 33, 353, 160, 384
-0.993379, 87, 217, 102, 280
-0.993398, 51, 281, 66, 344
-0.9934, 71, 281, 86, 344
-0.993402, 241, 97, 366, 128
-0.993418, 147, 41, 162, 104
-0.993443, 81, 241, 208, 272
-0.993457, 141, 1, 156, 64
-0.993479, 209, 57, 336, 88
-0.993481, 113, 337, 128, 400
-0.993484, 1, 369, 366, 432
-0.993488, 33, 421, 160, 452
-0.993489, 1, 425, 366, 488
-0.99349, 197, 33, 212, 96
-0.993507, 83, 25, 98, 88
-0.993509, 1, 25, 16, 88
-0.993515, 33, 241, 160, 272
-0.993532, 311, 33, 326, 96
-0.993539, 97, 297, 352, 360
-0.993554, 65, 53, 192, 84
-0.993561, 25, 273, 40, 336
-0.993564, 11, 305, 26, 368
-0.993565, 65, 81, 80, 144
-0.993568, 97, 425, 352, 488
-0.993589, 237, 1, 252, 64
-0.993592, 1, 365, 128, 396
-0.993601, 65, 257, 80, 320
-0.993602, 177, 209, 304, 240
-0.993607, 17, 149, 144, 180
-0.993611, 173, 113, 188, 176
-0.993658, 99, 393, 114, 456
-0.993687, 1, 325, 128, 356
-0.993702, 209, 113, 336, 144
-0.993704, 29, 113, 44, 176
-0.993712, 279, 233, 294, 296
-0.993725, 291, 49, 306, 112
-0.993729, 81, 137, 208, 168
-0.993747, 87, 393, 102, 456
-0.993757, 97, 125, 224, 156
-0.993759, 33, 69, 160, 100
-0.993785, 73, 73, 88, 136
-0.993788, 99, 369, 114, 432
-0.993806, 1, 273, 16, 336
-0.993813, 1, 257, 366, 320
-0.993814, 85, 57, 100, 120
-0.993816, 59, 377, 74, 440
-0.993818, 63, 41, 78, 104
-0.993822, 23, 153, 38, 216
-0.993855, 149, 1, 164, 64
-0.993869, 127, 81, 142, 144
-0.993873, 11, 65, 26, 128
-0.993879, 111, 193, 126, 256
-0.993887, 161, 105, 176, 168
-0.993894, 65, 113, 80, 176
-0.993894, 111, 129, 126, 192
-0.9939, 77, 153, 92, 216
-0.993905, 129, 281, 144, 344
-0.993909, 327, 105, 342, 168
-0.993917, 243, 33, 258, 96
-0.993928, 75, 25, 90, 88
-0.993942, 43, 129, 58, 192
-0.993946, 61, 289, 76, 352
-0.993973, 33, 137, 160, 168
-0.993976, 327, 1, 342, 64
-0.993976, 17, 33, 144, 64
-0.993979, 33, 173, 160, 204
-0.993985, 17, 81, 32, 144
-0.993985, 97, 97, 112, 160
-0.993993, 67, 1, 82, 64
-0.993994, 49, 129, 64, 192
-0.993996, 105, 153, 120, 216
-0.994003, 49, 189, 176, 220
-0.994021, 89, 25, 104, 88
-0.994032, 223, 25, 238, 88
-0.994037, 103, 193, 118, 256
-0.994038, 27, 9, 42, 72
-0.994049, 81, 113, 96, 176
-0.99406, 241, 81, 366, 112
-0.994062, 33, 17, 48, 80
-0.994079, 95, 25, 110, 88
-0.994081, 337, 97, 352, 160
-0.994085, 305, 9, 320, 72
-0.99409, 65, 305, 192, 336
-0.9941, 175, 25, 190, 88
-0.994101, 241, 1, 366, 32
-0.994101, 85, 225, 116, 480
-0.994126, 149, 113, 164, 176
-0.994136, 83, 321, 98, 384
-0.994158, 261, 129, 276, 192
-0.994166, 9, 41, 24, 104
-0.994172, 1, 253, 128, 284
-0.994174, 1, 393, 366, 456
-0.994176, 45, 9, 60, 72
-0.994181, 137, 273, 152, 336
-0.994195, 11, 433, 26, 496
-0.994197, 5, 425, 20, 488
-0.994204, 23, 97, 38, 160
-0.994212, 3, 321, 18, 384
-0.99422, 321, 25, 336, 88
-0.994221, 117, 193, 132, 256
-0.994228, 109, 289, 124, 352
-0.994228, 37, 281, 52, 344
-0.994228, 15, 33, 30, 96
-0.994229, 105, 409, 120, 472
-0.994238, 33, 161, 160, 192
-0.994248, 163, 209, 178, 272
-0.994254, 49, 341, 176, 372
-0.994257, 167, 129, 182, 192
-0.99426, 295, 9, 310, 72
-0.99426, 69, 97, 100, 352
-0.994265, 17, 57, 32, 120
-0.994273, 203, 17, 218, 80
-0.994278, 113, 1, 144, 256
-0.994278, 19, 337, 34, 400
-0.994286, 119, 257, 134, 320
-0.994286, 35, 353, 50, 416
-0.994289, 49, 257, 176, 288
-0.994297, 97, 369, 352, 432
-0.9943, 93, 225, 108, 288
-0.994301, 297, 217, 312, 280
-0.994302, 339, 9, 354, 72
-0.994304, 49, 17, 176, 48
-0.994361, 97, 193, 224, 224
-0.994384, 129, 249, 256, 280
-0.99439, 37, 33, 68, 288
-0.994399, 65, 257, 96, 500
-0.994449, 113, 149, 240, 180
-0.99447, 161, 117, 288, 148
-0.994473, 33, 389, 160, 420
-0.99448, 129, 209, 256, 240
-0.994483, 193, 141, 320, 172
-0.994505, 193, 245, 320, 276
-0.994545, 129, 265, 256, 296
-0.994562, 5, 257, 36, 500
-0.994565, 81, 293, 208, 324
-0.994598, 69, 1, 100, 256
-0.9946, 101, 193, 132, 448
-0.99465, 241, 181, 366, 212
-0.994725, 49, 161, 80, 416
-0.99474, 113, 37, 240, 68
-0.994787, 237, 1, 268, 256
-0.994799, 17, 193, 48, 448
-0.99487, 193, 169, 320, 200
-0.99488, 81, 1, 112, 256
-0.994889, 1, 33, 32, 288
-0.994928, 1, 45, 128, 76
-0.994962, 241, 157, 366, 188
-0.994979, 193, 197, 320, 228
-0.995015, 193, 45, 320, 76
-0.99502, 97, 181, 224, 212
-0.995022, 65, 149, 192, 180
-0.995024, 129, 237, 256, 268
-0.995037, 97, 97, 128, 352
-0.995079, 241, 221, 366, 252
-0.995096, 97, 1, 128, 256
-0.995107, 57, 1, 88, 256
-0.995126, 177, 181, 304, 212
-0.995131, 1, 337, 128, 368
-0.995153, 313, 1, 344, 256
-0.995189, 65, 409, 192, 440
-0.995206, 49, 325, 176, 356
-0.995241, 1, 313, 366, 376
-0.995241, 241, 129, 366, 160
-0.995268, 65, 365, 192, 396
-0.995332, 129, 221, 256, 252
-0.995342, 177, 225, 304, 256
-0.995351, 273, 129, 304, 384
-0.995376, 177, 69, 304, 100
-0.995454, 113, 97, 144, 352
-0.995468, 173, 33, 204, 288
-0.99547, 193, 353, 320, 384
-0.995478, 229, 97, 260, 352
-0.995488, 193, 397, 320, 428
-0.995524, 97, 281, 224, 312
-0.99553, 225, 233, 352, 264
-0.995542, 241, 141, 366, 172
-0.995554, 185, 1, 216, 256
-0.995555, 285, 225, 316, 480
-0.995567, 1, 269, 128, 300
-0.99557, 113, 345, 240, 376
-0.995579, 25, 97, 56, 352
-0.995583, 337, 65, 366, 320
-0.995602, 13, 1, 44, 256
-0.995632, 249, 97, 280, 352
-0.995634, 97, 321, 352, 384
-0.995634, 85, 97, 116, 352
-0.995643, 49, 433, 176, 464
-0.995643, 325, 1, 356, 256
-0.995662, 5, 129, 36, 384
-0.995674, 249, 1, 280, 256
-0.995689, 225, 1, 256, 256
-0.995722, 113, 161, 240, 192
-0.995732, 29, 225, 60, 480
-0.995732, 241, 201, 366, 232
-0.995747, 289, 1, 320, 256
-0.995784, 113, 361, 240, 392
-0.995799, 161, 281, 288, 312
-0.995812, 241, 69, 366, 100
-0.995856, 113, 329, 240, 360
-0.995857, 241, 245, 366, 276
-0.995869, 241, 361, 366, 392
-0.995886, 241, 413, 366, 444
-0.995901, 113, 429, 240, 460
-0.995901, 269, 225, 300, 480
-0.995924, 113, 225, 144, 480
-0.99596, 37, 129, 68, 384
-0.995973, 53, 257, 84, 500
-0.996069, 177, 153, 304, 184
-0.996085, 209, 261, 336, 292
-0.996102, 145, 193, 272, 224
-0.996109, 153, 57, 168, 88
-0.996123, 177, 385, 304, 416
-0.996124, 209, 313, 336, 344
-0.996128, 113, 409, 240, 440
-0.996147, 141, 1, 172, 256
-0.996159, 285, 129, 316, 384
-0.996177, 79, 405, 94, 436
-0.99618, 149, 69, 164, 100
-0.99618, 97, 389, 224, 420
-0.9962, 241, 169, 366, 200
-0.996203, 249, 257, 280, 500
-0.99622, 193, 129, 320, 160
-0.996235, 161, 293, 288, 324
-0.996247, 161, 33, 192, 288
-0.996247, 97, 317, 224, 348
-0.99626, 265, 1, 296, 256
-0.996263, 125, 1, 156, 256
-0.99627, 197, 1, 212, 32
-0.99633, 241, 449, 366, 480
-0.996331, 79, 357, 94, 388
-0.996361, 97, 409, 112, 440
-0.996362, 149, 97, 180, 352
-0.996363, 119, 113, 134, 144
-0.996367, 189, 17, 204, 48
-0.996407, 81, 29, 96, 60
-0.996434, 197, 33, 228, 288
-0.996447, 241, 469, 366, 500
-0.996459, 65, 369, 80, 400
-0.996465, 193, 413, 320, 444
-0.99647, 103, 105, 118, 136
-0.996485, 297, 97, 328, 352
-0.996488, 177, 365, 304, 396
-0.99649, 193, 433, 320, 464
-0.99649, 125, 225, 156, 480
-0.996505, 49, 289, 64, 320
-0.996516, 57, 273, 72, 304
-0.996522, 219, 17, 234, 48
-0.996522, 1, 437, 128, 468
-0.996533, 71, 65, 86, 96
-0.99654, 261, 97, 292, 352
-0.996562, 109, 93, 124, 124
-0.996566, 175, 53, 190, 84
-0.996568, 321, 29, 336, 60
-0.996581, 85, 397, 100, 428
-0.996582, 105, 169, 120, 200
-0.996588, 71, 369, 86, 400
-0.996591, 41, 257, 72, 500
-0.996594, 173, 129, 204, 384
-0.996606, 313, 129, 344, 384
-0.996608, 3, 161, 18, 192
-0.996608, 79, 89, 94, 120
-0.996623, 37, 281, 52, 312
-0.996643, 159, 57, 174, 88
-0.996646, 41, 269, 56, 300
-0.996647, 271, 77, 286, 108
-0.996652, 65, 293, 80, 324
-0.996655, 41, 1, 56, 32
-0.996656, 25, 1, 56, 256
-0.996669, 109, 197, 124, 228
-0.996699, 325, 97, 356, 352
-0.996708, 331, 1, 346, 32
-0.99671, 217, 97, 248, 352
-0.996711, 125, 117, 140, 148
-0.996717, 85, 185, 100, 216
-0.996727, 27, 289, 42, 320
-0.996735, 337, 13, 352, 44
-0.996744, 329, 13, 344, 44
-0.996751, 143, 73, 158, 104
-0.996754, 63, 65, 78, 96
-0.996754, 189, 57, 204, 88
-0.996756, 229, 193, 260, 448
-0.996759, 311, 13, 326, 44
-0.996765, 51, 393, 66, 424
-0.996766, 73, 293, 88, 324
-0.996768, 91, 401, 106, 432
-0.996776, 329, 25, 344, 56
-0.996781, 9, 161, 24, 192
-0.996788, 99, 53, 114, 84
-0.996795, 239, 53, 254, 84
-0.996802, 65, 405, 80, 436
-0.996806, 3, 181, 18, 212
-0.996806, 83, 333, 98, 364
-0.996807, 79, 73, 94, 104
-0.996809, 117, 185, 132, 216
-0.99681, 59, 373, 74, 404
-0.996811, 19, 189, 34, 220
-0.996813, 89, 197, 104, 228
-0.996814, 109, 377, 124, 408
-0.996822, 197, 37, 212, 68
-0.996822, 113, 113, 128, 144
-0.996825, 71, 77, 86, 108
-0.996831, 57, 133, 72, 164
-0.996832, 85, 365, 100, 396
-0.996832, 225, 21, 240, 52
-0.996851, 57, 401, 72, 432
-0.996871, 301, 1, 332, 256
-0.996875, 125, 17, 140, 48
-0.996876, 35, 9, 50, 40
-0.996876, 165, 137, 180, 168
-0.996876, 105, 57, 120, 88
-0.99688, 1, 321, 16, 352
-0.996888, 129, 1, 144, 32
-0.996888, 161, 129, 192, 384
-0.996894, 71, 409, 86, 440
-0.996894, 83, 385, 98, 416
-0.996905, 47, 269, 62, 300
-0.996907, 87, 345, 102, 376
-0.996907, 119, 93, 134, 124
-0.996909, 225, 1, 240, 32
-0.99691, 65, 281, 80, 312
-0.996915, 147, 57, 162, 88
-0.996915, 87, 77, 102, 108
-0.996915, 11, 21, 26, 52
-0.996916, 29, 273, 44, 304
-0.996918, 21, 201, 36, 232
-0.996921, 219, 1, 234, 32
-0.996926, 315, 29, 330, 60
-0.996926, 181, 53, 196, 84
-0.996927, 95, 241, 110, 272
-0.996938, 99, 421, 114, 452
-0.996939, 59, 289, 74, 320
-0.996949, 77, 61, 92, 92
-0.99695, 231, 17, 246, 48
-0.996952, 15, 289, 30, 320
-0.996965, 83, 101, 98, 132
-0.996971, 125, 89, 140, 120
-0.996978, 27, 205, 42, 236
-0.996978, 105, 361, 120, 392
-0.996979, 29, 37, 44, 68
-0.996979, 7, 305, 22, 336
-0.996979, 113, 125, 128, 156
-0.996981, 15, 201, 30, 232
-0.996992, 169, 49, 184, 80
-0.996992, 65, 77, 80, 108
-0.996993, 25, 1, 40, 32
-0.996997, 57, 389, 72, 420
-0.996998, 71, 93, 86, 124
-0.997007, 15, 309, 30, 340
-0.997011, 39, 297, 54, 328
-0.997021, 199, 17, 214, 48
-0.997025, 133, 97, 164, 352
-0.997029, 87, 249, 102, 280
-0.997029, 107, 181, 122, 212
-0.997034, 155, 69, 170, 100
-0.997034, 47, 257, 62, 288
-0.997043, 115, 173, 130, 204
-0.997048, 21, 37, 36, 68
-0.997048, 279, 241, 294, 272
-0.997052, 107, 417, 122, 448
-0.997053, 237, 1, 252, 32
-0.997059, 89, 97, 104, 128
-0.997061, 21, 13, 36, 44
-0.997063, 59, 261, 74, 292
-0.997067, 93, 425, 108, 456
-0.997068, 153, 137, 168, 168
-0.997075, 153, 85, 168, 116
-0.997076, 165, 65, 180, 96
-0.997077, 151, 29, 166, 60
-0.997078, 73, 113, 88, 144
-0.997079, 159, 141, 174, 172
-0.997079, 153, 45, 168, 76
-0.997083, 91, 365, 106, 396
-0.997089, 185, 5, 200, 36
-0.997089, 77, 337, 92, 368
-0.997094, 179, 97, 194, 128
-0.99721, 297, 193, 328, 448
-0.99722, 213, 1, 244, 256
-0.997251, 337, 161, 366, 416
-0.997391, 165, 225, 196, 480
-0.997422, 321, 225, 352, 480
-0.99744, 189, 129, 220, 384
-0.997539, 141, 225, 172, 480
-0.997592, 181, 257, 212, 500
-0.997659, 277, 33, 308, 288
-0.997663, 201, 129, 232, 384
-0.997681, 153, 225, 184, 480
-0.997787, 217, 193, 248, 448
-0.997819, 201, 225, 232, 480
-0.998062, 309, 225, 340, 480
-0.998214, 81, 17, 96, 144
-0.998218, 87, 17, 102, 144
-0.998268, 79, 337, 94, 464
-0.998303, 57, 409, 120, 424
-0.998304, 111, 129, 126, 256
-0.998307, 37, 273, 52, 400
-0.99832, 69, 353, 84, 480
-0.998321, 65, 121, 128, 136
-0.998322, 65, 415, 128, 430
-0.998329, 87, 353, 102, 480
-0.998339, 121, 69, 184, 84
-0.998341, 65, 383, 128, 398
-0.998342, 1, 285, 64, 300
-0.998349, 41, 395, 104, 410
-0.99835, 1, 301, 64, 316
-0.998358, 65, 89, 128, 104
-0.99836, 81, 95, 144, 110
-0.998366, 121, 111, 184, 126
-0.998368, 81, 111, 144, 126
-0.998369, 105, 85, 168, 100
-0.99837, 145, 59, 208, 74
-0.998377, 25, 303, 88, 318
-0.998377, 145, 119, 208, 134
-0.998379, 57, 115, 120, 130
-0.99838, 33, 145, 96, 160
-0.998381, 105, 129, 168, 144
-0.998381, 145, 73, 208, 88
-0.998384, 25, 135, 88, 150
-0.998384, 43, 225, 58, 352
-0.998385, 73, 365, 136, 380
-0.998387, 57, 389, 120, 404
-0.998387, 1, 3, 64, 18
-0.998387, 73, 73, 136, 88
-0.998388, 65, 191, 128, 206
-0.998388, 129, 5, 192, 20
-0.998389, 25, 151, 88, 166
-0.998391, 105, 91, 168, 106
-0.998392, 105, 79, 168, 94
-0.998394, 153, 47, 216, 62
-0.998396, 193, 3, 256, 18
-0.998397, 41, 47, 104, 62
-0.998398, 177, 23, 240, 38
-0.998399, 41, 263, 104, 278
-0.998399, 17, 293, 80, 308
-0.998399, 305, 29, 366, 44
-0.9984, 257, 41, 320, 56
-0.998401, 9, 169, 72, 184
-0.998401, 105, 117, 168, 132
-0.998402, 217, 35, 280, 50
-0.998404, 57, 371, 120, 386
-0.998406, 17, 275, 80, 290
-0.998406, 49, 403, 112, 418
-0.998408, 41, 359, 104, 374
-0.998408, 65, 127, 128, 142
-0.998408, 57, 147, 120, 162
-0.998409, 273, 35, 336, 50
-0.998409, 153, 41, 216, 56
-0.998411, 9, 55, 72, 70
-0.998411, 41, 415, 104, 430
-0.998412, 105, 57, 168, 72
-0.998412, 249, 31, 312, 46
-0.998412, 97, 1, 160, 16
-0.998414, 305, 13, 366, 28
-0.998414, 49, 55, 112, 70
-0.998418, 297, 115, 360, 130
-0.99842, 25, 287, 88, 302
-0.99842, 233, 11, 296, 26
-0.998421, 273, 237, 336, 252
-0.998421, 273, 21, 336, 36
-0.998421, 105, 103, 168, 118
-0.998422, 241, 165, 304, 180
-0.998422, 65, 339, 128, 354
-0.998423, 73, 61, 136, 76
-0.998424, 9, 175, 72, 190
-0.998425, 169, 57, 232, 72
-0.998425, 169, 131, 232, 146
-0.998425, 57, 377, 120, 392
-0.998425, 65, 199, 128, 214
-0.998426, 17, 9, 80, 24
-0.998427, 25, 17, 40, 144
-0.998428, 145, 113, 208, 128
-0.998428, 145, 53, 208, 68
-0.998428, 145, 65, 208, 80
-0.998429, 51, 273, 66, 400
-0.99843, 281, 41, 344, 56
-0.99843, 105, 135, 168, 150
-0.99843, 41, 293, 104, 308
-0.998431, 9, 159, 72, 174
-0.998431, 57, 101, 120, 116
-0.998431, 49, 299, 112, 314
-0.998432, 17, 61, 80, 76
-0.998432, 121, 63, 184, 78
-0.998433, 225, 23, 288, 38
-0.998433, 27, 97, 42, 224
-0.998433, 89, 123, 152, 138
-0.998433, 49, 77, 112, 92
-0.998434, 217, 3, 280, 18
-0.998434, 33, 17, 96, 32
-0.998434, 25, 229, 88, 244
-0.998434, 73, 33, 136, 48
-0.998435, 105, 25, 168, 40
-0.998435, 201, 55, 264, 70
-0.998435, 73, 305, 136, 320
-0.998436, 297, 35, 360, 50
-0.998436, 169, 101, 232, 116
-0.998439, 177, 31, 240, 46
-0.998439, 81, 103, 144, 118
-0.998441, 9, 351, 72, 366
-0.998442, 65, 157, 128, 172
-0.998442, 145, 137, 208, 152
-0.998443, 63, 177, 78, 304
-0.998443, 65, 421, 128, 436
-0.998443, 65, 67, 128, 82
-0.998444, 25, 197, 88, 212
-0.998444, 185, 121, 248, 136
-0.998446, 145, 107, 208, 122
-0.998446, 153, 27, 216, 42
-0.998446, 89, 419, 152, 434
-0.998447, 191, 1, 206, 128
-0.998447, 209, 61, 272, 76
-0.998448, 65, 223, 128, 238
-0.998448, 81, 233, 144, 248
-0.998449, 25, 125, 88, 140
-0.99845, 33, 331, 96, 346
-0.99845, 49, 253, 112, 268
-0.998452, 25, 339, 88, 354
-0.998452, 177, 51, 240, 66
-0.998453, 181, 1, 196, 128
-0.998453, 19, 17, 34, 144
-0.998453, 111, 177, 126, 304
-0.998453, 25, 203, 88, 218
-0.998453, 25, 281, 88, 296
-0.998454, 225, 155, 288, 170
-0.998455, 57, 185, 120, 200
-0.998455, 121, 31, 184, 46
-0.998456, 89, 173, 152, 188
-0.998457, 25, 371, 88, 386
-0.998457, 25, 119, 88, 134
-0.998458, 11, 145, 26, 272
-0.998458, 57, 133, 120, 148
-0.998458, 105, 97, 168, 112
-0.998459, 65, 215, 128, 230
-0.998459, 169, 65, 232, 80
-0.99846, 9, 403, 72, 418
-0.99846, 217, 29, 280, 44
-0.998463, 1, 365, 64, 380
-0.998463, 81, 185, 144, 200
-0.998473, 87, 177, 102, 304
-0.998482, 53, 225, 68, 352
-0.998483, 5, 145, 20, 272
-0.998485, 29, 225, 44, 352
-0.99849, 35, 225, 50, 352
-0.998497, 77, 273, 92, 400
-0.9985, 69, 97, 84, 224
-0.998509, 75, 17, 90, 144
-0.99851, 141, 1, 156, 128
-0.998511, 3, 1, 18, 128
-0.998517, 333, 257, 364, 500
-0.99852, 11, 97, 26, 224
-0.998524, 151, 33, 166, 160
-0.998525, 45, 289, 60, 416
-0.998526, 109, 1, 124, 128
-0.998535, 173, 1, 188, 128
-0.998551, 117, 113, 132, 240
-0.998553, 67, 49, 82, 176
-0.998561, 93, 337, 108, 464
-0.998566, 175, 49, 190, 176
-0.998567, 69, 241, 84, 368
-0.998572, 9, 17, 24, 144
-0.998581, 305, 1, 320, 128
-0.998583, 59, 241, 74, 368
-0.998585, 43, 1, 58, 128
-0.998592, 69, 1, 84, 128
-0.998594, 85, 233, 116, 248
-0.998594, 33, 303, 64, 318
-0.998595, 61, 257, 92, 272
-0.998596, 109, 211, 140, 226
-0.998596, 73, 217, 104, 232
-0.998597, 269, 95, 300, 110
-0.998597, 77, 143, 108, 158
-0.998598, 89, 363, 120, 378
-0.998598, 65, 295, 96, 310
-0.998598, 157, 139, 188, 154
-0.998598, 333, 111, 364, 126
-0.998599, 85, 245, 116, 260
-0.9986, 149, 111, 180, 126
-0.9986, 217, 57, 248, 72
-0.998601, 129, 89, 160, 104
-0.998601, 147, 241, 162, 368
-0.998602, 113, 73, 144, 88
-0.998602, 77, 65, 92, 192
-0.998603, 65, 177, 96, 192
-0.998603, 117, 91, 148, 106
-0.998603, 165, 67, 196, 82
-0.998603, 109, 83, 140, 98
-0.998604, 257, 159, 288, 174
-0.998604, 69, 243, 100, 258
-0.998605, 221, 33, 252, 48
-0.998605, 19, 257, 34, 384
-0.998607, 61, 303, 92, 318
-0.998608, 129, 117, 160, 132
-0.998608, 93, 121, 124, 136
-0.998608, 93, 427, 124, 442
-0.998609, 53, 263, 84, 278
-0.998611, 65, 267, 96, 282
-0.998612, 93, 341, 124, 356
-0.998613, 149, 3, 180, 18
-0.998614, 117, 373, 148, 388
-0.998615, 69, 305, 84, 432
-0.998615, 17, 285, 48, 300
-0.998616, 301, 39, 332, 54
-0.998616, 105, 167, 136, 182
-0.998616, 61, 105, 92, 120
-0.998616, 133, 97, 164, 112
-0.998616, 49, 157, 80, 172
-0.998617, 77, 45, 108, 60
-0.998617, 93, 65, 124, 80
-0.998617, 35, 113, 50, 240
-0.998618, 19, 81, 34, 208
-0.998619, 329, 7, 360, 22
-0.998619, 77, 371, 108, 386
-0.99862, 13, 17, 44, 32
-0.998621, 177, 57, 208, 72
-0.998621, 1, 25, 32, 40
-0.998621, 77, 33, 108, 48
-0.998621, 89, 89, 120, 104
-0.998622, 145, 61, 176, 76
-0.998622, 87, 65, 102, 192
-0.998622, 69, 93, 100, 108
-0.998622, 81, 65, 112, 80
-0.998622, 101, 361, 132, 376
-0.998623, 101, 383, 132, 398
-0.998624, 25, 1, 56, 16
-0.998624, 215, 17, 230, 144
-0.998624, 333, 97, 348, 224
-0.998625, 53, 417, 84, 432
-0.998626, 93, 33, 108, 160
-0.998626, 217, 1, 248, 16
-0.998626, 69, 191, 100, 206
-0.998629, 81, 387, 112, 402
-0.998629, 125, 107, 156, 122
-0.99863, 185, 33, 216, 48
-0.998631, 77, 73, 108, 88
-0.998632, 81, 257, 112, 272
-0.998632, 73, 377, 104, 392
-0.998632, 33, 9, 64, 24
-0.998634, 45, 289, 76, 304
-0.998636, 1, 85, 32, 100
-0.998638, 63, 1, 78, 128
-0.998639, 73, 249, 104, 264
-0.998639, 65, 183, 96, 198
-0.99864, 157, 45, 188, 60
-0.99864, 97, 375, 128, 390
-0.998641, 105, 199, 136, 214
-0.998642, 37, 147, 68, 162
-0.998642, 231, 97, 246, 224
-0.998642, 295, 33, 310, 160
-0.998643, 13, 367, 44, 382
-0.998643, 61, 67, 92, 82
-0.998644, 309, 33, 340, 48
-0.998645, 193, 121, 224, 136
-0.998646, 333, 31, 364, 46
-0.998646, 13, 35, 44, 50
-0.998647, 253, 33, 284, 48
-0.998649, 157, 57, 188, 72
-0.998651, 89, 71, 120, 86
-0.998652, 109, 125, 140, 140
-0.998653, 1, 179, 32, 194
-0.998653, 99, 1, 114, 128
-0.998653, 33, 51, 64, 66
-0.998655, 245, 161, 276, 176
-0.998656, 61, 381, 92, 396
-0.998656, 37, 139, 68, 154
-0.998656, 181, 19, 212, 34
-0.998659, 109, 173, 140, 188
-0.998659, 9, 185, 40, 200
-0.99866, 177, 13, 208, 28
-0.99866, 157, 51, 188, 66
-0.998662, 29, 15, 60, 30
-0.998662, 77, 145, 92, 272
-0.998662, 89, 205, 120, 220
-0.998662, 61, 305, 76, 432
-0.998663, 93, 369, 124, 384
-0.998664, 73, 337, 104, 352
-0.998665, 29, 297, 60, 312
-0.998665, 197, 19, 228, 34
-0.998666, 287, 65, 302, 192
-0.998669, 25, 291, 56, 306
-0.998669, 229, 55, 260, 70
-0.998669, 9, 191, 40, 206
-0.998671, 13, 207, 44, 222
-0.998671, 57, 77, 88, 92
-0.998673, 77, 417, 108, 432
-0.998675, 201, 35, 232, 50
-0.998677, 153, 69, 184, 84
-0.998677, 217, 15, 248, 30
-0.998677, 31, 289, 46, 416
-0.998679, 321, 27, 352, 42
-0.998681, 299, 209, 314, 336
-0.998681, 105, 81, 120, 208
-0.998682, 125, 1, 140, 128
-0.998682, 25, 155, 56, 170
-0.998685, 81, 109, 112, 124
-0.998686, 161, 113, 192, 128
-0.998687, 73, 201, 104, 216
-0.998687, 65, 99, 96, 114
-0.998688, 61, 149, 92, 164
-0.99869, 337, 105, 366, 120
-0.99869, 63, 353, 78, 480
-0.998691, 61, 87, 92, 102
-0.998691, 131, 1, 146, 128
-0.998693, 117, 177, 132, 304
-0.998694, 73, 363, 104, 378
-0.998695, 109, 113, 140, 128
-0.998701, 333, 25, 364, 40
-0.998701, 89, 199, 120, 214
-0.998703, 227, 1, 242, 128
-0.998703, 65, 417, 96, 432
-0.998704, 61, 49, 76, 176
-0.998706, 163, 65, 178, 192
-0.998708, 89, 115, 120, 130
-0.998708, 181, 49, 196, 176
-0.998711, 167, 1, 182, 128
-0.998713, 17, 161, 32, 288
-0.998715, 109, 337, 124, 464
-0.998715, 87, 113, 102, 240
-0.998717, 81, 405, 112, 420
-0.998719, 93, 417, 124, 432
-0.99872, 73, 411, 104, 426
-0.998721, 53, 409, 84, 424
-0.998721, 65, 369, 96, 384
-0.998721, 269, 193, 284, 320
-0.998726, 105, 177, 120, 304
-0.998731, 99, 353, 114, 480
-0.998731, 225, 113, 240, 240
-0.998732, 83, 257, 98, 384
-0.998734, 97, 107, 128, 122
-0.998736, 57, 143, 88, 158
-0.998737, 295, 81, 310, 208
-0.998743, 245, 113, 260, 240
-0.998744, 93, 193, 108, 320
-0.998744, 35, 1, 50, 128
-0.998745, 197, 17, 212, 144
-0.998748, 85, 411, 116, 426
-0.998749, 141, 241, 156, 368
-0.998753, 57, 113, 72, 240
-0.998756, 41, 113, 56, 240
-0.99876, 285, 225, 300, 352
-0.998762, 25, 177, 40, 304
-0.998763, 153, 241, 168, 368
-0.998765, 47, 129, 62, 256
-0.998765, 1, 163, 32, 178
-0.998766, 99, 49, 114, 176
-0.998767, 221, 1, 236, 128
-0.998767, 9, 257, 24, 384
-0.998769, 293, 225, 308, 352
-0.99877, 111, 225, 126, 352
-0.99877, 339, 81, 354, 208
-0.99877, 123, 129, 138, 256
-0.998771, 169, 49, 184, 176
-0.998783, 117, 1, 132, 128
-0.998785, 15, 209, 30, 336
-0.998788, 335, 1, 350, 128
-0.998794, 161, 209, 176, 336
-0.998797, 265, 81, 280, 208
-0.9988, 141, 289, 156, 416
-0.9988, 269, 1, 284, 128
-0.998806, 345, 97, 360, 224
-0.998808, 325, 1, 340, 128
-0.998815, 183, 225, 198, 352
-0.998816, 261, 129, 276, 256
-0.998819, 57, 353, 72, 480
-0.998821, 263, 209, 278, 336
-0.998821, 305, 209, 320, 336
-0.998823, 221, 65, 236, 192
-0.998829, 3, 337, 18, 464
-0.99883, 169, 225, 184, 352
-0.998833, 235, 177, 250, 304
-0.998838, 103, 305, 118, 432
-0.998839, 293, 177, 308, 304
-0.998842, 301, 65, 316, 192
-0.998842, 113, 65, 128, 192
-0.998844, 109, 289, 124, 416
-0.998846, 247, 1, 262, 128
-0.99885, 25, 305, 40, 432
-0.998852, 135, 273, 150, 400
-0.998856, 239, 1, 254, 128
-0.998857, 145, 49, 160, 176
-0.998859, 351, 1, 366, 128
-0.998862, 255, 145, 270, 272
-0.998862, 125, 177, 140, 304
-0.999747, 61, 377, 76, 392
-0.999747, 9, 179, 24, 194
-0.999748, 33, 225, 48, 240
-0.999749, 71, 117, 86, 132
-0.999749, 75, 305, 90, 320
-0.999749, 83, 389, 98, 404
-0.999749, 351, 29, 366, 44
-0.99975, 251, 1, 266, 16
-0.99975, 123, 123, 138, 138
-0.99975, 263, 89, 278, 104
-0.999751, 191, 121, 206, 136
-0.999753, 29, 277, 44, 292
-0.999753, 79, 359, 94, 374
-0.999753, 63, 283, 78, 298
-0.999753, 79, 417, 94, 432
-0.999754, 185, 123, 200, 138
-0.999754, 97, 385, 112, 400
-0.999754, 25, 35, 40, 50
-0.999754, 19, 191, 34, 206
-0.999755, 259, 147, 274, 162
-0.999755, 27, 221, 42, 236
-0.999755, 81, 77, 96, 92
-0.999757, 93, 435, 108, 450
-0.999757, 319, 35, 334, 50
-0.999758, 31, 285, 46, 300
-0.999758, 79, 63, 94, 78
-0.999758, 251, 163, 266, 178
-0.999758, 305, 17, 320, 32
-0.999759, 103, 115, 118, 130
-0.999759, 189, 21, 204, 36
-0.999759, 83, 71, 98, 86
-0.999759, 87, 191, 102, 206
-0.99976, 47, 395, 62, 410
-0.99976, 67, 143, 82, 158
-0.99976, 1, 189, 16, 204
-0.999761, 157, 143, 172, 158
-0.999761, 83, 371, 98, 386
-0.999762, 227, 1, 242, 16
-0.999762, 67, 3, 82, 18
-0.999762, 77, 95, 92, 110
-0.999762, 237, 53, 252, 68
-0.999763, 101, 321, 116, 336
-0.999765, 67, 99, 82, 114
-0.999765, 69, 93, 84, 108
-0.999765, 35, 299, 50, 314
-0.999765, 85, 337, 100, 352
-0.999765, 101, 361, 116, 376
-0.999765, 39, 281, 54, 296
-0.999766, 105, 73, 120, 88
-0.999766, 121, 173, 136, 188
-0.999767, 23, 17, 38, 32
-0.999767, 65, 407, 80, 422
-0.999767, 53, 281, 68, 296
-0.999767, 333, 25, 348, 40
-0.999768, 71, 67, 86, 82
-0.999769, 83, 101, 98, 116
-0.999769, 69, 285, 84, 300
-0.999769, 61, 419, 76, 434
-0.99977, 59, 77, 74, 92
-0.999771, 79, 89, 94, 104
-0.999771, 85, 359, 100, 374
-0.999772, 167, 109, 182, 124
-0.999772, 185, 13, 200, 28
-0.999773, 65, 87, 80, 102
-0.999773, 345, 27, 360, 42
-0.999773, 15, 181, 30, 196
-0.999774, 99, 55, 114, 70
-0.999775, 347, 105, 362, 120
-0.999776, 155, 61, 170, 76
-0.999777, 157, 1, 172, 16
-0.999777, 155, 71, 170, 86
-0.999777, 79, 145, 94, 160
-0.999777, 29, 13, 44, 28
-0.99978, 149, 77, 164, 92
-0.99978, 69, 149, 84, 164
-0.999781, 85, 185, 100, 200
-0.999781, 113, 181, 128, 196
-0.999781, 37, 289, 52, 304
-0.999782, 35, 13, 50, 28
-0.999782, 117, 115, 132, 130
-0.999782, 45, 305, 60, 320
-0.999782, 115, 127, 130, 142
-0.999783, 219, 17, 234, 32
-0.999783, 195, 39, 210, 54
-0.999787, 105, 429, 120, 444
-0.999788, 109, 107, 124, 122
-0.999789, 89, 207, 104, 222
-0.999789, 107, 423, 122, 438
-0.99979, 99, 433, 114, 448
-0.99979, 197, 17, 212, 32
-0.99979, 83, 111, 98, 126
-0.999791, 89, 201, 104, 216
-0.999791, 47, 287, 62, 302
-0.999791, 19, 35, 34, 50
-0.999793, 51, 293, 66, 308
-0.999794, 149, 137, 164, 152
-0.999795, 87, 401, 102, 416
-0.999801, 113, 167, 128, 182
-0.999805, 55, 273, 70, 288
-0.999806, 171, 65, 186, 80
-0.999808, 109, 383, 124, 398
-0.999808, 101, 107, 116, 122
-0.99981, 1, 85, 16, 100
-0.999811, 71, 291, 86, 306
-0.999811, 73, 81, 88, 96
-0.999813, 321, 27, 336, 42
-0.999814, 93, 365, 108, 380
-0.999815, 39, 5, 54, 20
-0.999816, 55, 287, 70, 302
-0.999816, 71, 411, 86, 426
-0.999817, 331, 5, 346, 20
-0.999818, 97, 409, 112, 424
-0.999818, 45, 297, 60, 312
-0.99982, 105, 171, 120, 186
-0.999822, 109, 199, 124, 214
-0.999824, 73, 143, 88, 158
-0.999824, 97, 415, 112, 430
-0.999825, 55, 405, 70, 420
-0.999826, 61, 291, 76, 306
-0.999828, 149, 55, 164, 70
-0.999828, 115, 175, 130, 190
-0.999828, 77, 365, 92, 380
-0.999832, 77, 411, 92, 426
-0.999839, 67, 369, 82, 384
-0.999841, 193, 31, 208, 46
-0.999845, 57, 143, 72, 158
-0.999853, 3, 163, 18, 178
-0.999865, 57, 411, 72, 426
-0.999871, 65, 413, 80, 428
-0.999877, 87, 407, 102, 422
