1391
-0.35837, 1, 1, 212, 320
-0.596665, 1, 33, 212, 288
-0.824738, 49, 1, 176, 320
-0.829097, 33, 65, 160, 320
-0.842046, 1, 1, 128, 320
-0.854267, 81, 65, 208, 320
-0.899682, 1, 65, 212, 192
-0.908478, 1, 129, 212, 256
-0.92019, 33, 65, 160, 192
-0.927089, 137, 145, 200, 272
-0.927854, 49, 161, 176, 288
-0.928372, 49, 49, 112, 176
-0.930204, 49, 113, 176, 240
-0.93074, 73, 1, 136, 128
-0.931383, 1, 193, 212, 320
-0.934249, 1, 17, 212, 144
-0.935952, 17, 17, 144, 144
-0.936073, 105, 81, 168, 208
-0.936215, 129, 193, 192, 320
-0.938447, 81, 49, 208, 176
-0.940099, 49, 193, 112, 320
-0.941417, 113, 129, 176, 256
-0.941697, 105, 177, 168, 304
-0.941709, 89, 129, 152, 256
-0.942128, 73, 225, 136, 288
-0.942231, 73, 49, 136, 176
-0.942623, 65, 1, 192, 128
-0.944001, 41, 73, 104, 136
-0.944165, 129, 65, 192, 192
-0.945245, 57, 97, 120, 224
-0.945615, 49, 257, 112, 320
-0.945653, 17, 81, 80, 208
-0.946806, 97, 33, 160, 160
-0.948225, 105, 121, 168, 184
-0.948415, 81, 49, 144, 112
-0.948429, 73, 193, 136, 320
-0.950087, 17, 81, 80, 144
-0.950498, 49, 233, 112, 296
-0.95185, 89, 257, 152, 320
-0.952967, 121, 73, 184, 136
-0.953424, 89, 89, 152, 152
-0.954002, 1, 33, 64, 160
-0.956116, 49, 145, 112, 272
-0.956454, 137, 113, 200, 176
-0.956458, 57, 97, 120, 160
-0.956543, 49, 1, 112, 128
-0.958141, 97, 225, 160, 288
-0.958171, 1, 193, 128, 320
-0.958539, 145, 145, 208, 208
-0.958593, 81, 25, 144, 88
-0.958859, 41, 49, 104, 112
-0.959061, 81, 1, 144, 64
-0.959558, 1, 57, 64, 120
-0.960143, 113, 257, 176, 320
-0.960535, 49, 209, 112, 272
-0.960809, 121, 1, 184, 128
-0.961228, 121, 145, 184, 208
-0.961765, 113, 97, 176, 160
-0.962472, 25, 193, 88, 320
-0.962956, 121, 9, 184, 72
-0.963226, 105, 201, 168, 264
-0.964162, 121, 225, 184, 288
-0.965108, 145, 217, 208, 280
-0.965171, 49, 185, 112, 248
-0.965302, 65, 73, 128, 136
-0.965698, 129, 185, 192, 248
-0.965756, 49, 49, 176, 112
-0.965976, 25, 33, 88, 160
-0.966231, 49, 73, 176, 136
-0.96628, 129, 49, 192, 112
-0.966637, 49, 257, 176, 320
-0.966939, 149, 129, 180, 256
-0.967204, 81, 113, 144, 176
-0.967869, 137, 257, 200, 320
-0.967882, 97, 145, 160, 208
-0.96794, 49, 233, 176, 296
-0.967986, 145, 89, 208, 152
-0.968255, 117, 33, 148, 160
-0.968382, 17, 137, 80, 200
-0.968431, 33, 137, 160, 200
-0.968557, 129, 73, 160, 136
-0.968563, 125, 233, 156, 296
-0.968647, 1, 113, 128, 240
-0.968743, 57, 129, 120, 192
-0.968799, 173, 145, 204, 272
-0.96905, 25, 209, 88, 272
-0.969191, 69, 73, 100, 136
-0.969615, 17, 129, 80, 256
-0.970177, 125, 193, 156, 320
-0.970181, 125, 113, 156, 176
-0.970188, 1, 105, 64, 168
-0.970225, 49, 97, 176, 160
-0.970291, 49, 81, 80, 144
-0.970609, 121, 97, 152, 224
-0.970759, 77, 33, 108, 160
-0.970779, 97, 225, 128, 288
-0.97097, 105, 49, 168, 112
-0.971964, 49, 33, 112, 288
-0.972046, 65, 225, 96, 288
-0.972094, 1, 73, 128, 136
-0.97227, 113, 65, 176, 320
-0.972498, 117, 49, 148, 112
-0.972567, 81, 201, 144, 264
-0.972794, 149, 113, 180, 176
-0.973001, 137, 193, 168, 320
-0.973325, 133, 137, 164, 200
-0.973417, 117, 89, 148, 152
-0.973452, 49, 161, 112, 224
-0.973538, 65, 33, 96, 160
-0.973656, 89, 33, 120, 160
-0.973757, 41, 25, 104, 88
-0.973863, 69, 49, 100, 112
-0.973899, 137, 145, 168, 272
-0.973915, 109, 81, 140, 208
-0.973938, 25, 233, 88, 296
-0.974173, 5, 65, 36, 128
-0.974457, 105, 129, 136, 192
-0.974528, 49, 177, 176, 240
-0.974714, 81, 121, 208, 184
-0.974769, 65, 249, 96, 312
-0.974885, 33, 89, 64, 152
-0.975277, 81, 81, 112, 208
-0.975284, 81, 209, 208, 272
-0.975296, 137, 65, 200, 320
-0.975369, 33, 105, 96, 168
-0.97579, 161, 129, 192, 256
-0.975824, 117, 145, 148, 272
-0.975997, 121, 257, 152, 320
-0.976043, 173, 97, 204, 224
-0.976191, 17, 33, 80, 96
-0.976264, 133, 209, 164, 272
-0.976268, 61, 193, 92, 320
-0.976278, 49, 65, 80, 192
-0.97638, 9, 65, 72, 320
-0.97658, 161, 73, 192, 136
-0.976981, 161, 201, 192, 264
-0.977003, 81, 249, 112, 312
-0.97701, 133, 65, 164, 192
-0.9772, 1, 49, 128, 112
-0.977351, 57, 1, 120, 64
-0.977351, 141, 73, 172, 136
-0.977357, 21, 81, 52, 144
-0.977411, 89, 1, 152, 256
-0.977511, 173, 153, 204, 216
-0.977538, 1, 97, 128, 160
-0.977631, 81, 49, 112, 112
-0.977722, 89, 1, 120, 64
-0.977772, 97, 81, 128, 208
-0.977908, 77, 217, 108, 280
-0.977931, 161, 113, 192, 176
-0.977968, 105, 129, 136, 256
-0.978025, 77, 193, 108, 320
-0.978125, 81, 145, 208, 208
-0.978136, 17, 161, 80, 224
-0.978286, 161, 177, 192, 304
-0.978557, 137, 97, 168, 160
-0.978563, 101, 193, 132, 320
-0.978704, 1, 241, 128, 304
-0.978819, 25, 257, 88, 320
-0.978822, 105, 17, 136, 144
-0.97886, 81, 97, 112, 160
-0.978921, 17, 185, 80, 248
-0.979205, 121, 209, 152, 272
-0.979342, 157, 65, 188, 192
-0.979387, 53, 257, 84, 320
-0.979398, 97, 105, 128, 168
-0.979518, 57, 57, 88, 120
-0.979635, 69, 81, 100, 208
-0.97972, 33, 201, 160, 264
-0.979741, 65, 1, 128, 320
-0.979763, 157, 137, 188, 200
-0.979779, 105, 81, 136, 144
-0.97989, 49, 9, 176, 72
-0.979966, 125, 17, 156, 80
-0.98014, 141, 233, 172, 296
-0.980144, 49, 161, 80, 288
-0.980447, 49, 121, 80, 184
-0.98057, 29, 97, 60, 224
-0.980632, 9, 49, 40, 176
-0.980677, 129, 49, 160, 112
-0.980727, 177, 113, 208, 176
-0.980803, 89, 25, 120, 88
-0.980817, 73, 153, 136, 216
-0.981035, 141, 177, 172, 240
-0.981154, 9, 1, 72, 320
-0.98151, 141, 257, 172, 320
-0.981548, 93, 81, 124, 144
-0.981599, 25, 33, 56, 160
-0.981661, 33, 65, 64, 128
-0.981845, 109, 1, 140, 64
-0.981938, 129, 1, 160, 128
-0.982212, 37, 113, 68, 176
-0.982432, 89, 1, 152, 320
-0.982597, 145, 65, 176, 192
-0.982732, 49, 193, 80, 256
-0.982744, 113, 25, 144, 88
-0.98288, 113, 1, 176, 320
-0.98299, 5, 89, 36, 152
-0.982995, 121, 137, 152, 200
-0.983013, 21, 57, 52, 120
-0.983251, 49, 217, 80, 280
-0.983625, 1, 25, 128, 88
-0.983629, 173, 81, 204, 144
-0.983635, 45, 57, 76, 120
-0.983834, 97, 169, 160, 232
-0.983913, 53, 17, 84, 144
-0.984062, 41, 1, 104, 320
-0.984098, 61, 145, 92, 272
-0.984173, 65, 201, 96, 264
-0.984224, 93, 57, 124, 120
-0.984229, 41, 17, 72, 144
-0.984235, 149, 193, 180, 320
-0.984292, 57, 161, 88, 224
-0.984525, 81, 73, 112, 136
-0.98502, 125, 169, 156, 232
-0.98512, 41, 145, 72, 208
-0.985401, 177, 177, 208, 240
-0.985436, 153, 161, 184, 224
-0.985465, 77, 25, 108, 88
-0.985647, 141, 49, 172, 112
-0.985692, 109, 153, 140, 216
-0.985807, 145, 201, 176, 264
-0.985812, 109, 233, 140, 296
-0.98584, 113, 193, 144, 320
-0.986065, 109, 201, 140, 264
-0.986296, 57, 33, 88, 96
-0.986355, 61, 105, 92, 168
-0.986513, 137, 1, 200, 320
-0.986696, 141, 1, 172, 128
-0.98674, 93, 201, 124, 264
-0.986753, 89, 145, 120, 272
-0.986927, 105, 49, 136, 112
-0.987014, 173, 217, 204, 280
-0.987218, 9, 97, 40, 224
-0.98732, 33, 41, 64, 104
-0.987367, 41, 113, 72, 240
-0.987449, 169, 49, 200, 176
-0.987454, 97, 249, 128, 312
-0.987754, 73, 289, 136, 320
-0.987783, 1, 73, 212, 136
-0.987822, 145, 9, 208, 72
-0.987844, 137, 25, 168, 88
-0.987901, 49, 233, 112, 264
-0.98803, 73, 229, 136, 260
-0.988047, 161, 49, 192, 112
-0.988088, 49, 277, 112, 308
-0.988135, 89, 85, 152, 116
-0.988161, 145, 137, 176, 200
-0.988324, 25, 113, 56, 176
-0.988377, 41, 85, 104, 116
-0.988423, 181, 193, 212, 320
-0.988544, 49, 257, 112, 288
-0.988588, 89, 273, 152, 304
-0.988663, 93, 129, 124, 192
-0.988665, 105, 133, 168, 164
-0.988724, 1, 161, 128, 224
-0.988809, 17, 89, 80, 120
-0.988847, 105, 221, 168, 252
-0.988885, 49, 221, 112, 252
-0.988907, 113, 145, 176, 176
-0.988933, 49, 245, 112, 276
-0.988973, 129, 85, 192, 116
-0.988976, 145, 165, 208, 196
-0.988999, 89, 245, 152, 276
-0.989047, 97, 285, 160, 316
-0.989068, 89, 261, 152, 292
-0.989079, 81, 37, 144, 68
-0.98908, 145, 17, 208, 144
-0.989127, 89, 49, 152, 80
-0.989142, 153, 225, 184, 288
-0.989242, 49, 69, 112, 100
-0.989312, 137, 149, 200, 180
-0.989365, 49, 289, 112, 320
-0.989425, 77, 1, 108, 64
-0.989427, 57, 101, 120, 132
-0.989555, 81, 5, 144, 36
-0.989581, 121, 73, 184, 104
-0.989614, 113, 273, 176, 304
-0.989711, 89, 109, 152, 140
-0.989712, 137, 213, 200, 244
-0.989751, 61, 129, 92, 192
-0.98979, 153, 9, 184, 72
-0.989808, 1, 129, 212, 192
-0.989824, 129, 117, 192, 148
-0.989884, 113, 257, 176, 288
-0.989899, 77, 193, 108, 256
-0.989914, 105, 121, 168, 152
-0.989916, 57, 117, 120, 148
-0.989969, 17, 77, 80, 108
-0.990019, 137, 137, 200, 168
-0.990032, 17, 101, 80, 132
-0.990039, 73, 73, 136, 104
-0.990043, 1, 49, 212, 112
-0.990073, 129, 97, 192, 128
-0.990117, 5, 41, 36, 104
-0.990128, 49, 49, 112, 80
-0.99016, 165, 177, 196, 240
-0.990179, 89, 193, 120, 320
-0.990205, 113, 157, 176, 188
-0.990213, 21, 33, 52, 96
-0.990213, 113, 245, 176, 276
-0.990265, 105, 233, 168, 264
-0.990415, 129, 201, 192, 232
-0.99042, 1, 97, 212, 160
-0.990432, 45, 169, 76, 232
-0.990497, 121, 13, 184, 44
-0.990571, 65, 85, 128, 116
-0.990601, 1, 65, 64, 96
-0.990614, 9, 113, 72, 144
-0.990627, 41, 133, 104, 164
-0.990679, 37, 161, 68, 288
-0.99069, 145, 225, 208, 256
-0.990699, 49, 189, 112, 220
-0.990733, 49, 37, 112, 68
-0.990768, 129, 189, 192, 220
-0.990769, 129, 285, 192, 316
-0.990783, 25, 65, 88, 96
-0.990787, 101, 25, 132, 88
-0.990795, 73, 129, 136, 160
-0.990797, 81, 25, 144, 56
-0.990832, 105, 97, 168, 128
-0.990833, 81, 213, 144, 244
-0.99086, 81, 153, 144, 184
-0.990925, 25, 241, 88, 272
-0.990958, 17, 205, 80, 236
-0.991014, 65, 9, 96, 72
-0.991025, 73, 141, 136, 172
-0.991025, 25, 285, 88, 316
-0.991036, 113, 49, 176, 80
-0.991077, 41, 201, 104, 232
-0.991179, 49, 157, 112, 188
-0.991245, 25, 265, 88, 296
-0.991266, 49, 81, 176, 112
-0.991269, 145, 177, 208, 208
-0.991296, 137, 261, 200, 292
-0.991309, 121, 169, 184, 200
-0.991318, 81, 97, 144, 128
-0.991324, 1, 257, 212, 320
-0.991351, 129, 61, 192, 92
-0.991385, 17, 169, 80, 200
-0.991432, 17, 145, 80, 176
-0.99144, 105, 29, 168, 60
-0.991441, 25, 221, 88, 252
-0.991449, 9, 53, 72, 84
-0.991501, 81, 61, 144, 92
-0.991607, 37, 257, 68, 320
-0.99161, 49, 145, 112, 176
-0.991628, 25, 253, 88, 284
-0.991686, 37, 201, 68, 264
-0.991695, 49, 173, 112, 204
-0.991705, 17, 157, 80, 188
-0.991766, 97, 73, 160, 104
-0.991831, 105, 197, 168, 228
-0.991862, 33, 113, 96, 144
-0.991869, 105, 209, 168, 240
-0.991925, 25, 37, 88, 68
-0.991985, 137, 249, 200, 280
-0.991986, 73, 89, 104, 120
-0.992, 133, 221, 164, 252
-0.992009, 57, 21, 120, 52
-0.992017, 129, 37, 192, 68
-0.992017, 1, 241, 64, 304
-0.992037, 137, 273, 200, 304
-0.992044, 17, 125, 80, 156
-0.992052, 145, 237, 208, 268
-0.992067, 177, 257, 208, 320
-0.992071, 9, 181, 72, 212
-0.992102, 97, 229, 128, 260
-0.992107, 81, 121, 112, 184
-0.992111, 125, 77, 156, 108
-0.992127, 57, 1, 120, 32
-0.99214, 89, 165, 152, 196
-0.992148, 105, 61, 168, 92
-0.992173, 69, 73, 100, 104
-0.992236, 65, 237, 96, 268
-0.992238, 129, 241, 160, 272
-0.992241, 121, 281, 152, 312
-0.992244, 125, 133, 156, 164
-0.992246, 49, 85, 80, 116
-0.992258, 81, 273, 112, 304
-0.992276, 1, 217, 212, 280
-0.992285, 9, 193, 72, 224
-0.992301, 89, 181, 152, 212
-0.992306, 25, 89, 56, 120
-0.992311, 81, 221, 112, 252
-0.992316, 137, 85, 168, 116
-0.992342, 53, 285, 84, 316
-0.99235, 121, 1, 184, 32
-0.99236, 49, 245, 176, 276
-0.992363, 1, 153, 212, 216
-0.992363, 101, 137, 132, 168
-0.992383, 1, 85, 32, 116
-0.992385, 157, 145, 188, 176
-0.992402, 161, 209, 192, 240
-0.99241, 69, 285, 100, 316
-0.992415, 125, 265, 156, 296
-0.992425, 77, 261, 108, 292
-0.992431, 33, 137, 160, 168
-0.99244, 5, 97, 36, 128
-0.992444, 49, 53, 176, 84
-0.992449, 77, 145, 108, 272
-0.992453, 145, 9, 208, 40
-0.992484, 121, 49, 152, 80
-0.992491, 89, 1, 120, 32
-0.992492, 161, 85, 192, 116
-0.992493, 125, 121, 156, 152
-0.992495, 101, 289, 132, 320
-0.992501, 57, 65, 88, 96
-0.992502, 65, 253, 96, 284
-0.99251, 1, 193, 212, 256
-0.992522, 113, 81, 144, 112
-0.992544, 77, 49, 108, 80
-0.992549, 65, 273, 96, 304
-0.992558, 133, 145, 164, 176
-0.99257, 145, 73, 208, 104
-0.992577, 117, 225, 148, 256
-0.992585, 149, 85, 180, 116
-0.99259, 13, 85, 44, 116
-0.992596, 49, 133, 80, 164
-0.992603, 33, 73, 64, 104
-0.992607, 89, 37, 120, 68
-0.992607, 33, 101, 64, 132
-0.992618, 109, 257, 140, 320
-0.992618, 81, 285, 112, 316
-0.992621, 81, 241, 112, 272
-0.992623, 65, 225, 96, 256
-0.992635, 169, 153, 200, 184
-0.99264, 85, 97, 116, 128
-0.992647, 141, 121, 172, 152
-0.992654, 113, 133, 144, 164
-0.992656, 37, 85, 68, 116
-0.992658, 5, 73, 36, 104
-0.992672, 133, 97, 164, 128
-0.992678, 149, 133, 180, 164
-0.992683, 109, 33, 140, 64
-0.992684, 117, 93, 148, 124
-0.992688, 45, 205, 76, 236
-0.992714, 101, 89, 132, 120
-0.992716, 81, 77, 112, 108
-0.992717, 177, 165, 208, 196
-0.992723, 97, 277, 128, 308
-0.99273, 105, 149, 136, 180
-0.992738, 61, 85, 92, 116
-0.992739, 53, 257, 84, 288
-0.992756, 141, 205, 172, 236
-0.99278, 145, 221, 176, 252
-0.992782, 41, 113, 72, 144
-0.992782, 57, 189, 88, 220
-0.992785, 145, 65, 176, 96
-0.992793, 73, 61, 104, 92
-0.992797, 113, 121, 144, 152
-0.992808, 49, 265, 176, 296
-0.992831, 49, 285, 176, 316
-0.992835, 21, 73, 52, 104
-0.992837, 101, 125, 132, 156
-0.992854, 109, 45, 140, 76
-0.992858, 137, 281, 168, 312
-0.992885, 141, 233, 172, 264
-0.992898, 121, 253, 152, 284
-0.9929, 57, 45, 88, 76
-0.992906, 21, 101, 52, 132
-0.992908, 117, 109, 148, 140
-0.992912, 61, 117, 92, 148
-0.992923, 161, 221, 192, 252
-0.992929, 129, 197, 160, 228
-0.992932, 1, 289, 64, 320
-0.992938, 125, 13, 156, 44
-0.99294, 137, 257, 168, 288
-0.992941, 137, 133, 168, 164
-0.992952, 157, 73, 188, 104
-0.992953, 33, 25, 96, 56
-0.992954, 141, 193, 172, 224
-0.992957, 37, 141, 68, 172
-0.992961, 65, 213, 96, 244
-0.992961, 53, 221, 84, 252
-0.992964, 157, 157, 188, 188
-0.992975, 41, 153, 72, 184
-0.992976, 173, 113, 204, 144
-0.992978, 69, 37, 100, 68
-0.992979, 79, 49, 94, 112
-0.992982, 129, 25, 192, 56
-0.992986, 57, 165, 88, 196
-0.99299, 45, 101, 76, 132
-0.992995, 53, 273, 84, 304
-0.992996, 173, 85, 204, 116
-0.992996, 45, 73, 76, 104
-0.993, 153, 97, 184, 128
-0.993017, 57, 101, 88, 132
-0.993017, 93, 217, 124, 248
-0.993027, 97, 241, 128, 272
-0.993028, 113, 209, 144, 240
-0.993035, 53, 241, 84, 272
-0.993038, 117, 153, 148, 184
-0.993046, 141, 269, 172, 300
-0.993055, 81, 201, 144, 232
-0.99306, 97, 265, 128, 296
-0.993063, 137, 49, 200, 80
-0.993066, 129, 29, 160, 60
-0.993069, 9, 109, 40, 140
-0.99307, 133, 65, 164, 96
-0.993073, 169, 141, 200, 172
-0.993077, 9, 57, 40, 88
-0.993079, 97, 101, 128, 132
-0.99308, 153, 197, 184, 228
-0.993083, 149, 9, 180, 40
-0.99309, 157, 117, 188, 148
-0.993093, 93, 77, 124, 108
-0.993093, 181, 209, 212, 240
-0.993093, 93, 253, 124, 284
-0.9931, 89, 49, 120, 80
-0.993101, 29, 113, 60, 144
-0.993103, 113, 9, 144, 40
-0.993108, 145, 145, 176, 176
-0.993122, 177, 177, 208, 208
-0.993142, 169, 97, 200, 128
-0.993147, 49, 233, 176, 264
-0.993154, 113, 237, 144, 268
-0.993155, 109, 253, 140, 284
-0.993155, 121, 181, 152, 212
-0.993159, 1, 277, 64, 308
-0.993162, 105, 21, 136, 52
-0.993164, 89, 25, 120, 56
-0.993302, 1, 241, 64, 272
-0.99337, 1, 41, 64, 72
-0.993398, 139, 73, 154, 136
-0.993422, 1, 77, 128, 108
-0.993459, 33, 13, 96, 44
-0.993513, 131, 73, 146, 136
-0.993527, 45, 33, 76, 96
-0.993531, 17, 93, 144, 124
-0.993553, 33, 1, 96, 32
-0.993615, 1, 229, 64, 260
-0.993623, 131, 49, 146, 112
-0.99366, 9, 25, 72, 56
-0.993678, 1, 253, 64, 284
-0.993704, 49, 149, 176, 180
-0.993799, 117, 129, 132, 192
-0.993835, 49, 113, 176, 144
-0.993888, 1, 265, 64, 296
-0.994039, 87, 217, 102, 280
-0.994092, 143, 257, 158, 320
-0.994108, 49, 125, 176, 156
-0.994139, 125, 33, 140, 96
-0.994142, 47, 73, 62, 136
-0.994152, 1, 217, 64, 248
-0.994156, 85, 49, 100, 112
-0.994171, 75, 225, 90, 288
-0.994187, 85, 73, 100, 136
-0.994221, 153, 17, 184, 144
-0.994226, 61, 161, 76, 224
-0.994261, 49, 161, 176, 192
-0.994269, 147, 113, 162, 176
-0.99428, 137, 49, 152, 112
-0.994283, 141, 217, 156, 280
-0.994313, 49, 69, 176, 100
-0.994341, 137, 193, 152, 256
-0.9944, 1, 13, 64, 44
-0.994406, 119, 241, 134, 304
-0.99443, 1, 1, 128, 64
-0.994434, 131, 233, 146, 296
-0.994441, 141, 113, 156, 176
-0.994471, 33, 197, 160, 228
-0.994497, 181, 49, 212, 176
-0.994507, 57, 73, 72, 136
-0.994553, 73, 57, 88, 120
-0.994554, 1, 1, 64, 32
-0.99457, 119, 97, 134, 160
-0.994572, 99, 225, 114, 288
-0.99459, 169, 73, 184, 136
-0.994603, 7, 65, 22, 128
-0.994614, 37, 81, 52, 144
-0.994694, 113, 177, 144, 240
-0.994732, 91, 1, 106, 64
-0.994742, 51, 113, 66, 176
-0.994749, 165, 9, 196, 72
-0.994751, 161, 73, 176, 136
-0.994751, 111, 121, 126, 184
-0.994778, 61, 217, 76, 280
-0.994819, 141, 137, 156, 200
-0.994838, 125, 113, 140, 176
-0.994866, 175, 73, 190, 136
-0.994912, 1, 65, 128, 96
-0.994922, 155, 113, 170, 176
-0.994944, 1, 53, 128, 84
-0.994945, 79, 73, 94, 136
-0.994947, 163, 113, 178, 176
-0.995037, 177, 113, 192, 176
-0.995048, 145, 73, 160, 136
-0.995054, 81, 97, 208, 128
-0.995057, 33, 221, 160, 252
-0.995064, 155, 73, 170, 136
-0.995082, 63, 65, 78, 128
-0.99512, 81, 137, 208, 168
-0.995121, 135, 105, 150, 168
-0.995125, 29, 89, 44, 152
-0.995129, 87, 241, 102, 304
-0.995158, 165, 201, 180, 264
-0.995178, 1, 17, 212, 80
-0.995224, 69, 33, 84, 96
-0.995227, 181, 145, 196, 208
-0.995274, 131, 9, 146, 72
-0.995289, 13, 1, 44, 128
-0.995291, 33, 41, 160, 72
-0.99533, 17, 73, 32, 136
-0.995398, 105, 121, 120, 184
-0.995402, 113, 89, 128, 152
-0.995418, 49, 181, 176, 212
-0.995419, 147, 201, 162, 264
-0.995444, 91, 105, 106, 168
-0.995445, 81, 213, 208, 244
-0.995468, 51, 137, 66, 200
-0.995473, 59, 257, 74, 320
-0.995475, 57, 129, 72, 192
-0.995503, 125, 9, 140, 72
-0.995506, 169, 97, 184, 160
-0.995519, 181, 89, 196, 152
-0.995545, 13, 113, 44, 176
-0.995556, 69, 233, 84, 296
-0.995563, 37, 233, 68, 296
-0.995603, 119, 41, 134, 104
-0.995604, 1, 73, 16, 136
-0.995628, 119, 73, 134, 136
-0.995661, 83, 25, 98, 88
-0.995683, 57, 193, 72, 256
-0.995743, 197, 185, 212, 248
-0.995769, 1, 237, 128, 268
-0.995774, 129, 153, 144, 216
-0.995782, 111, 1, 126, 64
-0.995804, 125, 65, 140, 128
-0.995836, 171, 137, 186, 200
-0.995837, 137, 241, 152, 304
-0.99584, 69, 81, 84, 144
-0.995861, 165, 1, 196, 128
-0.995878, 33, 1, 96, 64
-0.995889, 65, 9, 192, 40
-0.995892, 125, 201, 140, 264
-0.995903, 19, 97, 34, 160
-0.995914, 149, 137, 164, 200
-0.995928, 91, 41, 106, 104
-0.995941, 107, 225, 122, 288
-0.995958, 1, 117, 128, 148
-0.995977, 173, 49, 204, 112
-0.996042, 41, 105, 56, 168
-0.996054, 155, 225, 170, 288
-0.99606, 81, 225, 96, 288
-0.996079, 63, 97, 78, 160
-0.996145, 141, 1, 172, 64
-0.996147, 5, 97, 20, 160
-0.996172, 143, 177, 158, 240
-0.996195, 23, 73, 38, 136
-0.996201, 125, 89, 140, 152
-0.996204, 127, 257, 142, 320
-0.996215, 85, 97, 100, 160
-0.996227, 187, 113, 202, 176
-0.99623, 177, 217, 192, 280
-0.99624, 1, 281, 128, 312
-0.996246, 91, 65, 106, 128
-0.996257, 135, 129, 150, 192
-0.996263, 41, 65, 72, 320
-0.996274, 191, 161, 206, 224
-0.996288, 117, 65, 148, 320
-0.996291, 41, 57, 56, 120
-0.996306, 137, 9, 152, 72
-0.996314, 123, 153, 138, 216
-0.996321, 35, 57, 50, 120
-0.996327, 17, 49, 32, 112
-0.996337, 1, 177, 64, 304
-0.996341, 67, 209, 82, 272
-0.996341, 13, 97, 28, 160
-0.996359, 189, 217, 204, 280
-0.996418, 137, 65, 168, 320
-0.996454, 105, 97, 120, 160
-0.996478, 75, 257, 90, 320
-0.996516, 119, 17, 134, 80
-0.996518, 197, 217, 212, 280
-0.996569, 177, 185, 192, 248
-0.996571, 77, 201, 92, 264
-0.996578, 171, 185, 186, 248
-0.996582, 99, 105, 114, 168
-0.996594, 47, 49, 62, 112
-0.996616, 1, 249, 128, 280
-0.996638, 181, 65, 212, 320
-0.996642, 81, 193, 208, 224
-0.996645, 17, 209, 144, 240
-0.996663, 73, 177, 136, 240
-0.996665, 147, 225, 162, 288
-0.99667, 85, 1, 100, 64
-0.996694, 155, 137, 170, 200
-0.996721, 81, 33, 112, 288
-0.996772, 183, 217, 198, 280
-0.99679, 1, 105, 128, 136
-0.996796, 197, 145, 212, 208
-0.996798, 81, 41, 208, 72
-0.996813, 143, 49, 158, 112
-0.996813, 33, 29, 160, 60
-0.996816, 65, 257, 80, 320
-0.996826, 97, 249, 112, 312
-0.996838, 129, 177, 144, 240
-0.996848, 135, 161, 150, 224
-0.99686, 1, 265, 128, 296
-0.996866, 51, 185, 66, 248
-0.996867, 59, 41, 74, 104
-0.996876, 161, 65, 192, 320
-0.996884, 165, 257, 196, 320
-0.99691, 101, 201, 116, 264
-0.996928, 135, 221, 150, 252
-0.996976, 69, 185, 84, 248
-0.996988, 149, 257, 164, 320
-0.996995, 29, 65, 44, 128
-0.996996, 163, 145, 178, 208
-0.997002, 137, 77, 152, 108
-0.997006, 63, 121, 78, 184
-0.997009, 93, 209, 108, 272
-0.997026, 165, 49, 180, 112
-0.997034, 127, 81, 142, 112
-0.997123, 87, 225, 102, 256
-0.997142, 65, 1, 96, 256
-0.997151, 33, 97, 48, 128
-0.997177, 35, 85, 50, 116
-0.997183, 113, 129, 128, 160
-0.997199, 85, 77, 100, 108
-0.99721, 95, 97, 110, 128
-0.99721, 167, 205, 182, 236
-0.997215, 77, 229, 92, 260
-0.997217, 127, 45, 142, 76
-0.997221, 5, 85, 20, 116
-0.997244, 83, 49, 98, 80
-0.997255, 105, 65, 136, 320
-0.997287, 19, 97, 34, 128
-0.997299, 139, 129, 154, 160
-0.997317, 115, 141, 130, 172
-0.997345, 27, 93, 42, 124
-0.997356, 121, 81, 136, 112
-0.99736, 13, 85, 28, 116
-0.997361, 159, 85, 174, 116
-0.997368, 115, 289, 130, 320
-0.99738, 61, 233, 76, 264
-0.997393, 147, 85, 162, 116
-0.997394, 153, 85, 168, 116
-0.997395, 75, 77, 90, 108
-0.997399, 39, 97, 54, 128
-0.997402, 85, 89, 100, 120
-0.997427, 173, 85, 188, 116
-0.997427, 53, 137, 68, 168
-0.997454, 121, 133, 136, 164
-0.997457, 179, 149, 194, 180
-0.997502, 165, 85, 180, 116
-0.997531, 45, 81, 60, 112
-0.997535, 7, 97, 22, 128
-0.99754, 63, 165, 78, 196
-0.99755, 69, 169, 100, 232
-0.997576, 61, 81, 76, 112
-0.997588, 61, 249, 76, 280
-0.99759, 87, 245, 102, 276
-0.997596, 55, 85, 70, 116
-0.997602, 13, 97, 28, 128
-0.997604, 17, 17, 144, 48
-0.997614, 91, 85, 106, 116
-0.997619, 125, 33, 140, 64
-0.99763, 145, 229, 160, 260
-0.997633, 121, 149, 136, 180
-0.99765, 81, 21, 208, 52
-0.997658, 27, 77, 42, 108
-0.997662, 133, 49, 148, 80
-0.997669, 149, 33, 180, 288
-0.997673, 131, 113, 146, 144
-0.997681, 139, 201, 154, 232
-0.997685, 107, 125, 122, 156
-0.997692, 67, 221, 82, 252
-0.997697, 71, 237, 86, 268
-0.997698, 45, 93, 60, 124
-0.997701, 53, 117, 68, 148
-0.99773, 9, 9, 72, 72
-0.997741, 1, 173, 128, 204
-0.997749, 51, 201, 66, 232
-0.99775, 101, 97, 116, 128
-0.997767, 141, 265, 156, 296
-0.997767, 107, 225, 122, 256
-0.99778, 61, 277, 76, 308
-0.997787, 51, 153, 66, 184
-0.997788, 139, 117, 154, 148
-0.997795, 121, 277, 136, 308
-0.997797, 53, 1, 84, 256
-0.997799, 19, 85, 34, 116
-0.997808, 1, 209, 64, 272
-0.997808, 127, 137, 142, 168
-0.997816, 119, 249, 134, 280
-0.997819, 179, 85, 194, 116
-0.997823, 143, 141, 158, 172
-0.997829, 59, 209, 74, 240
-0.997841, 57, 65, 72, 96
-0.997851, 97, 233, 112, 264
-0.997859, 167, 141, 182, 172
-0.997862, 143, 189, 158, 220
-0.997874, 83, 65, 98, 96
-0.997875, 63, 289, 78, 320
-0.997882, 129, 241, 144, 272
-0.997884, 91, 1, 106, 32
-0.997888, 59, 133, 74, 164
-0.997897, 141, 277, 156, 308
-0.997898, 1, 65, 32, 320
-0.997905, 29, 33, 60, 288
-0.997905, 93, 217, 108, 248
-0.997908, 71, 65, 86, 96
-0.997912, 1, 97, 16, 128
-0.997912, 145, 117, 160, 148
-0.997912, 101, 129, 116, 160
-0.997914, 135, 97, 150, 128
-0.99792, 129, 161, 144, 192
-0.997924, 73, 277, 88, 308
-0.997925, 119, 33, 134, 64
-0.997933, 129, 93, 144, 124
-0.997936, 121, 289, 136, 320
-0.997937, 85, 257, 100, 288
-0.997938, 127, 265, 142, 296
-0.997946, 7, 73, 22, 104
-0.997965, 57, 193, 72, 224
-0.99797, 133, 125, 148, 156
-0.997978, 87, 37, 102, 68
-0.997995, 149, 149, 164, 180
-0.997995, 105, 1, 120, 32
-0.998001, 67, 85, 82, 116
-0.998005, 97, 281, 112, 312
-0.998008, 77, 89, 92, 120
-0.998014, 51, 73, 66, 104
-0.998023, 173, 141, 188, 172
-0.998033, 77, 53, 92, 84
-0.998052, 39, 73, 54, 104
-0.998059, 121, 45, 136, 76
-0.998066, 141, 241, 156, 272
-0.998066, 147, 257, 162, 288
-0.998067, 91, 277, 106, 308
-0.998069, 93, 37, 108, 68
-0.998072, 141, 97, 156, 128
-0.998072, 161, 145, 176, 176
-0.998089, 59, 261, 74, 292
-0.998097, 61, 121, 76, 152
-0.9981, 115, 81, 130, 112
-0.998104, 89, 101, 104, 132
-0.998104, 149, 217, 164, 248
-0.998112, 157, 73, 172, 104
-0.998112, 169, 73, 184, 104
-0.998114, 147, 97, 162, 128
-0.998115, 173, 209, 188, 240
-0.99812, 19, 73, 34, 104
-0.998122, 1, 157, 128, 188
-0.998126, 41, 113, 56, 144
-0.998143, 57, 149, 72, 180
-0.998144, 173, 113, 188, 144
-0.998148, 127, 149, 142, 180
-0.99815, 69, 49, 84, 80
-0.998162, 137, 65, 152, 96
-0.998166, 133, 289, 148, 320
-0.998167, 143, 65, 158, 96
-0.998168, 17, 5, 144, 36
-0.998175, 129, 9, 144, 40
-0.998214, 17, 1, 48, 256
-0.998272, 1, 185, 128, 216
-0.998338, 129, 87, 192, 102
-0.998369, 29, 137, 60, 200
-0.998371, 49, 281, 112, 296
-0.998372, 65, 235, 128, 250
-0.998386, 89, 85, 152, 100
-0.998395, 49, 287, 112, 302
-0.998397, 93, 65, 124, 320
-0.998402, 49, 263, 112, 278
-0.998409, 89, 265, 152, 280
-0.998411, 73, 295, 136, 310
-0.998412, 73, 283, 136, 298
-0.998415, 73, 289, 136, 304
-0.998417, 89, 273, 152, 288
-0.998421, 105, 141, 168, 156
-0.998421, 129, 295, 160, 310
-0.998423, 61, 89, 92, 104
-0.998425, 57, 65, 88, 80
-0.998425, 89, 93, 152, 108
-0.998425, 101, 277, 132, 292
-0.998426, 57, 229, 120, 244
-0.998426, 105, 85, 136, 100
-0.998427, 145, 165, 208, 180
-0.998428, 49, 255, 112, 270
-0.998429, 5, 97, 36, 112
-0.998429, 177, 169, 208, 184
-0.99843, 109, 47, 140, 62
-0.998431, 117, 147, 148, 162
-0.998431, 141, 303, 172, 318
-0.998432, 169, 117, 200, 132
-0.998432, 133, 199, 164, 214
-0.998432, 105, 229, 168, 244
-0.998433, 157, 159, 188, 174
-0.998433, 109, 157, 140, 172
-0.998434, 137, 97, 168, 112
-0.998434, 69, 303, 100, 318
-0.998434, 49, 293, 112, 308
-0.998436, 173, 157, 204, 172
-0.998437, 181, 299, 212, 314
-0.998438, 69, 101, 100, 116
-0.998439, 129, 151, 160, 166
-0.998439, 33, 17, 64, 80
-0.998439, 41, 123, 72, 138
-0.99844, 49, 241, 112, 256
-0.998441, 57, 135, 88, 150
-0.998443, 41, 95, 72, 110
-0.998444, 37, 83, 68, 98
-0.998444, 81, 81, 112, 96
-0.998446, 73, 59, 104, 74
-0.998446, 73, 245, 136, 260
-0.998447, 1, 89, 64, 104
-0.998448, 105, 147, 168, 162
-0.998448, 41, 109, 72, 124
-0.99845, 49, 247, 112, 262
-0.998451, 49, 89, 80, 104
-0.998453, 41, 93, 104, 108
-0.998453, 161, 209, 192, 224
-0.998454, 49, 83, 112, 98
-0.998454, 49, 273, 112, 288
-0.998456, 37, 89, 68, 104
-0.998456, 81, 289, 112, 304
-0.998457, 73, 51, 136, 66
-0.998457, 81, 251, 112, 266
-0.998458, 145, 223, 176, 238
-0.998459, 81, 303, 112, 318
-0.998459, 45, 203, 76, 218
-0.99846, 65, 303, 128, 318
-0.99846, 57, 223, 120, 238
-0.99846, 81, 227, 144, 242
-0.998463, 25, 95, 56, 110
-0.998465, 49, 253, 80, 268
-0.998466, 57, 73, 88, 88
-0.998467, 145, 229, 176, 244
-0.998467, 137, 119, 168, 134
-0.998468, 105, 135, 168, 150
-0.998468, 81, 45, 144, 60
-0.998469, 149, 89, 180, 104
-0.998469, 81, 297, 112, 312
-0.998471, 97, 285, 160, 300
-0.998471, 93, 83, 124, 98
-0.998471, 97, 283, 128, 298
-0.998472, 129, 261, 160, 276
-0.998473, 69, 221, 100, 236
-0.998474, 45, 211, 76, 226
-0.998474, 173, 163, 204, 178
-0.998477, 57, 101, 120, 116
-0.998479, 105, 41, 136, 56
-0.998479, 73, 67, 104, 82
-0.998479, 105, 235, 168, 250
-0.99848, 141, 215, 172, 230
-0.99848, 73, 259, 136, 274
-0.998481, 97, 289, 128, 304
-0.998481, 113, 301, 176, 316
-0.998482, 97, 291, 160, 306
-0.998482, 1, 99, 64, 114
-0.998483, 129, 121, 192, 136
-0.998483, 101, 131, 132, 146
-0.998484, 137, 149, 200, 164
-0.998484, 113, 81, 176, 96
-0.998484, 65, 279, 96, 294
-0.998484, 133, 135, 164, 150
-0.998486, 53, 281, 84, 296
-0.998486, 121, 55, 152, 70
-0.998487, 153, 145, 184, 160
-0.998489, 85, 91, 116, 106
-0.99849, 57, 261, 88, 276
-0.998491, 129, 143, 160, 158
-0.998491, 89, 153, 120, 216
-0.998492, 97, 279, 160, 294
-0.998492, 73, 253, 136, 268
-0.998495, 165, 151, 196, 166
-0.998496, 113, 231, 144, 246
-0.998496, 65, 243, 96, 258
-0.998497, 81, 257, 112, 272
-0.998497, 49, 77, 112, 92
-0.998498, 65, 89, 128, 104
-0.998498, 41, 299, 104, 314
-0.998499, 129, 217, 192, 232
-0.998501, 161, 215, 192, 230
-0.998501, 133, 223, 164, 238
-0.998501, 113, 265, 176, 280
-0.998503, 69, 291, 100, 306
-0.998503, 105, 153, 168, 168
-0.998505, 85, 235, 116, 250
-0.998506, 125, 255, 156, 270
-0.998506, 89, 79, 152, 94
-0.998506, 77, 51, 108, 66
-0.998506, 121, 131, 152, 146
-0.998507, 129, 247, 160, 262
-0.998507, 61, 237, 92, 252
-0.998508, 137, 223, 200, 238
-0.998509, 105, 151, 136, 166
-0.998509, 81, 271, 112, 286
-0.99851, 69, 297, 100, 312
-0.998511, 113, 225, 144, 240
-0.998512, 61, 231, 92, 246
-0.998512, 117, 123, 148, 138
-0.998515, 81, 245, 112, 260
-0.998515, 145, 159, 208, 174
-0.998516, 85, 33, 100, 160
-0.998517, 89, 43, 120, 58
-0.998518, 41, 305, 104, 320
-0.998518, 137, 143, 200, 158
-0.998519, 89, 101, 120, 116
-0.998519, 93, 3, 124, 18
-0.99852, 97, 129, 160, 144
-0.998521, 65, 271, 96, 286
-0.998521, 113, 271, 176, 286
-0.998522, 25, 87, 88, 102
-0.998523, 117, 293, 148, 308
-0.998523, 45, 139, 76, 154
-0.998524, 13, 89, 44, 104
-0.998524, 113, 161, 176, 176
-0.998524, 113, 251, 176, 266
-0.998525, 81, 7, 144, 22
-0.998525, 125, 267, 156, 282
-0.998526, 57, 297, 88, 312
-0.998527, 161, 221, 192, 236
-0.998528, 105, 139, 136, 154
-0.998531, 17, 105, 80, 120
-0.998531, 113, 257, 176, 272
-0.998532, 105, 241, 168, 256
-0.998532, 57, 107, 120, 122
-0.998534, 81, 283, 112, 298
-0.998536, 85, 223, 116, 238
-0.998536, 65, 285, 96, 300
-0.998537, 153, 151, 184, 166
-0.998538, 65, 249, 96, 264
-0.998538, 113, 223, 176, 238
-0.998542, 81, 39, 144, 54
-0.998543, 33, 69, 96, 84
-0.998544, 121, 237, 152, 252
-0.998545, 121, 301, 152, 316
-0.998546, 149, 139, 180, 154
-0.998546, 137, 293, 200, 308
-0.998548, 97, 53, 160, 68
-0.998548, 49, 201, 112, 216
-0.998548, 97, 123, 160, 138
-0.99855, 153, 257, 184, 320
-0.99855, 117, 93, 148, 108
-0.99855, 101, 145, 132, 160
-0.998553, 41, 141, 104, 156
-0.998554, 53, 291, 84, 306
-0.998555, 49, 63, 112, 78
-0.998558, 53, 303, 84, 318
-0.998559, 57, 131, 120, 146
-0.99856, 33, 233, 96, 248
-0.998561, 133, 239, 164, 254
-0.998561, 121, 13, 184, 28
-0.998562, 129, 199, 192, 214
-0.998564, 81, 221, 144, 236
-0.998565, 65, 255, 96, 270
-0.998565, 129, 137, 192, 152
-0.998566, 105, 299, 136, 314
-0.998566, 129, 187, 192, 202
-0.998567, 145, 229, 208, 244
-0.998567, 33, 99, 96, 114
-0.998568, 65, 95, 128, 110
-0.998568, 49, 83, 80, 98
-0.998569, 129, 97, 192, 112
-0.99857, 17, 115, 80, 130
-0.99857, 121, 285, 152, 300
-0.99857, 165, 87, 196, 102
-0.998571, 89, 99, 152, 114
-0.998573, 73, 237, 104, 252
-0.998573, 121, 49, 152, 64
-0.998573, 129, 211, 192, 226
-0.998574, 57, 125, 120, 140
-0.998577, 25, 289, 88, 304
-0.998578, 137, 303, 200, 318
-0.99858, 49, 57, 112, 72
-0.998581, 77, 263, 108, 278
-0.998581, 121, 167, 184, 182
-0.998586, 49, 51, 112, 66
-0.998586, 145, 171, 208, 186
-0.998587, 129, 81, 160, 96
-0.998587, 25, 81, 88, 96
-0.998588, 73, 137, 136, 152
-0.998588, 1, 67, 64, 82
-0.998588, 81, 277, 112, 292
-0.998589, 25, 89, 56, 104
-0.998589, 129, 131, 192, 146
-0.998591, 69, 83, 100, 98
-0.998591, 57, 41, 120, 56
-0.998592, 81, 155, 144, 170
-0.998592, 25, 253, 88, 268
-0.998593, 97, 231, 128, 246
-0.998596, 81, 25, 144, 40
-0.998596, 57, 161, 120, 176
-0.998596, 81, 229, 112, 244
-0.998597, 81, 33, 144, 48
-0.998598, 133, 231, 164, 246
-0.9986, 121, 279, 152, 294
-0.998601, 145, 177, 208, 192
-0.998602, 97, 237, 128, 252
-0.998602, 89, 115, 152, 130
-0.998602, 129, 193, 192, 208
-0.998602, 25, 241, 88, 256
-0.998603, 17, 177, 80, 192
-0.998603, 9, 303, 72, 318
-0.998604, 129, 115, 192, 130
-0.998606, 105, 19, 168, 34
-0.998606, 129, 205, 192, 220
-0.998607, 81, 145, 144, 160
-0.998607, 1, 83, 64, 98
-0.998607, 17, 209, 80, 224
-0.998608, 57, 167, 120, 182
-0.998608, 137, 89, 168, 104
-0.998608, 113, 47, 176, 62
-0.998608, 181, 145, 196, 272
-0.998609, 137, 271, 200, 286
-0.99861, 129, 277, 192, 292
-0.998611, 57, 217, 120, 232
-0.998611, 121, 273, 152, 288
-0.998612, 129, 65, 192, 80
-0.998613, 73, 13, 136, 28
-0.998613, 17, 297, 80, 312
-0.998614, 25, 273, 88, 288
-0.998614, 73, 95, 104, 110
-0.998616, 81, 105, 144, 120
-0.998618, 49, 153, 112, 168
-0.998619, 57, 117, 120, 132
-0.99862, 1, 61, 64, 76
-0.998623, 1, 87, 32, 102
-0.998623, 117, 83, 148, 98
-0.998637, 117, 137, 148, 152
-0.998639, 115, 81, 130, 208
-0.998639, 69, 77, 100, 92
-0.998673, 141, 193, 156, 320
-0.99868, 73, 89, 104, 104
-0.998715, 167, 129, 182, 256
-0.998721, 91, 33, 106, 160
-0.998732, 123, 17, 138, 144
-0.998741, 61, 161, 76, 288
-0.998759, 125, 81, 140, 208
-0.998778, 79, 33, 94, 160
-0.99879, 151, 129, 166, 256
-0.9988, 87, 193, 102, 320
-0.998809, 195, 161, 210, 288
-0.998811, 133, 193, 148, 320
-0.998817, 173, 129, 188, 256
-0.998829, 189, 161, 204, 288
-0.99884, 157, 113, 172, 240
-0.998848, 141, 113, 156, 240
-0.998863, 95, 81, 110, 208
-0.998881, 133, 49, 148, 176
-0.998887, 147, 177, 162, 304
-0.998929, 127, 193, 142, 320
-0.998939, 53, 81, 68, 208
-0.998949, 131, 97, 146, 224
-0.998967, 117, 129, 132, 256
-0.998968, 171, 65, 186, 192
-0.998972, 189, 97, 204, 224
-0.998984, 131, 1, 146, 128
-0.998985, 73, 33, 88, 160
-0.999002, 111, 1, 126, 128
-0.999019, 181, 97, 196, 224
-0.999028, 21, 9, 52, 72
-0.999029, 139, 65, 154, 192
-0.999047, 59, 49, 74, 176
-0.99906, 15, 33, 30, 160
-0.99906, 159, 65, 174, 192
-0.999064, 165, 65, 180, 192
-0.999068, 55, 161, 70, 288
-0.999085, 123, 145, 138, 272
-0.999096, 29, 177, 60, 240
-0.999097, 85, 81, 100, 208
-0.999097, 109, 81, 124, 208
-0.9991, 41, 97, 56, 224
-0.999125, 67, 161, 82, 288
-0.999136, 129, 145, 144, 272
-0.999136, 195, 97, 210, 224
-0.999151, 27, 33, 42, 160
-0.999153, 9, 33, 24, 160
-0.999155, 61, 97, 76, 224
-0.999165, 103, 49, 118, 176
-0.999169, 21, 49, 36, 176
-0.999178, 135, 145, 150, 272
-0.999178, 75, 193, 90, 320
-0.999179, 103, 161, 118, 288
-0.999202, 47, 33, 62, 160
-0.999208, 47, 81, 62, 208
-0.999212, 97, 33, 112, 160
-0.999215, 3, 65, 18, 192
-0.99922, 117, 17, 132, 144
-0.999223, 137, 1, 152, 128
-0.999223, 35, 33, 50, 160
-0.99923, 145, 65, 160, 192
-0.999231, 79, 81, 94, 208
-0.999232, 173, 177, 188, 304
-0.999237, 167, 193, 182, 320
-0.999238, 151, 65, 166, 192
-0.999246, 53, 33, 68, 160
-0.999248, 67, 65, 82, 192
-0.999251, 111, 193, 126, 320
-0.999253, 67, 17, 82, 144
-0.999268, 161, 193, 176, 320
-0.999284, 27, 97, 42, 224
-0.999302, 105, 1, 120, 128
-0.999314, 11, 81, 26, 208
-0.99932, 111, 145, 126, 272
-0.999325, 21, 97, 36, 224
-0.999327, 35, 81, 50, 208
-0.999332, 103, 97, 118, 224
-0.999335, 143, 1, 158, 128
-0.999335, 117, 193, 132, 320
-0.999346, 41, 33, 56, 160
-0.999359, 97, 193, 112, 320
-0.999364, 177, 49, 192, 176
-0.999414, 179, 193, 194, 320
-0.999423, 49, 145, 64, 272
-0.999434, 155, 193, 170, 320
-0.999468, 61, 1, 76, 128
-0.999487, 97, 145, 112, 272
-0.999495, 75, 145, 90, 272
-0.999515, 183, 49, 198, 176
-0.999541, 81, 193, 96, 320
-0.999574, 189, 49, 204, 176
-0.999589, 1, 17, 16, 144
-0.999599, 91, 279, 106, 294
-0.999599, 61, 279, 76, 294
-0.9996, 123, 147, 138, 162
-0.9996, 59, 139, 74, 154
-0.9996, 127, 129, 142, 144
-0.9996, 69, 73, 84, 88
-0.9996, 49, 89, 64, 104
-0.999602, 141, 199, 156, 214
-0.999602, 61, 159, 76, 174
-0.999604, 57, 201, 72, 216
-0.999604, 53, 155, 68, 170
-0.999604, 115, 45, 130, 60
-0.999605, 69, 67, 84, 82
-0.999605, 63, 223, 78, 238
-0.999605, 103, 1, 118, 16
-0.999606, 149, 1, 164, 128
-0.999606, 79, 53, 94, 68
-0.999606, 61, 239, 76, 254
-0.999606, 67, 95, 82, 110
-0.999606, 121, 261, 136, 276
-0.999609, 53, 123, 68, 138
-0.999609, 135, 55, 150, 70
-0.99961, 141, 275, 156, 290
-0.99961, 157, 151, 172, 166
-0.99961, 119, 93, 134, 108
-0.999611, 165, 1, 180, 128
-0.999611, 97, 271, 112, 286
-0.999612, 119, 251, 134, 266
-0.999613, 139, 97, 154, 112
-0.999613, 105, 297, 120, 312
-0.999614, 151, 141, 166, 156
-0.999614, 143, 193, 158, 208
-0.999614, 87, 251, 102, 266
-0.999615, 103, 303, 118, 318
-0.999615, 101, 141, 116, 156
-0.999616, 91, 5, 106, 20
-0.999616, 69, 113, 84, 240
-0.999618, 79, 59, 94, 74
-0.999618, 133, 263, 148, 278
-0.999618, 43, 81, 58, 96
-0.999618, 125, 135, 140, 150
-0.999619, 125, 41, 140, 56
-0.999619, 133, 297, 148, 312
-0.99962, 151, 153, 166, 168
-0.99962, 49, 135, 64, 150
-0.999621, 99, 105, 114, 120
-0.999621, 97, 1, 112, 16
-0.999621, 123, 305, 138, 320
-0.999627, 79, 95, 94, 110
-0.999627, 131, 269, 146, 284
-0.999627, 121, 33, 136, 48
-0.999627, 79, 65, 94, 80
-0.999628, 57, 209, 72, 224
-0.99963, 81, 145, 96, 272
-0.999632, 43, 93, 58, 108
-0.999633, 71, 229, 86, 244
-0.999634, 123, 159, 138, 174
-0.999634, 83, 73, 98, 88
-0.999635, 93, 43, 108, 58
-0.999637, 77, 239, 92, 254
-0.999638, 95, 297, 110, 312
-0.999639, 161, 89, 176, 104
-0.99964, 61, 289, 76, 304
-0.999641, 35, 99, 50, 114
-0.999642, 179, 153, 194, 168
-0.999643, 101, 99, 116, 114
-0.999644, 129, 163, 144, 178
-0.999645, 75, 83, 90, 98
-0.999647, 105, 133, 120, 148
-0.999647, 61, 81, 76, 96
-0.999648, 167, 87, 182, 102
-0.999649, 101, 233, 116, 248
-0.999649, 155, 89, 170, 104
-0.99965, 139, 81, 154, 96
-0.999651, 81, 299, 96, 314
-0.999651, 59, 259, 74, 274
-0.999653, 73, 285, 88, 300
-0.999653, 135, 231, 150, 246
-0.999653, 111, 303, 126, 318
-0.999654, 141, 119, 156, 134
-0.999655, 121, 141, 136, 156
-0.999657, 9, 89, 24, 104
-0.999658, 175, 147, 190, 162
-0.999658, 51, 83, 66, 98
-0.999659, 149, 89, 164, 104
-0.999659, 75, 77, 90, 92
-0.999661, 145, 239, 160, 254
-0.999662, 87, 237, 102, 252
-0.999664, 113, 129, 128, 144
-0.999666, 123, 153, 138, 168
-0.999668, 61, 165, 76, 180
-0.999668, 51, 203, 66, 218
-0.999669, 53, 117, 68, 132
-0.99967, 75, 305, 90, 320
-0.999671, 141, 141, 156, 156
-0.999671, 147, 229, 162, 244
-0.999673, 113, 87, 128, 102
-0.999673, 49, 193, 64, 320
-0.999676, 87, 225, 102, 240
-0.999678, 51, 141, 66, 156
-0.999682, 171, 17, 186, 144
-0.999683, 159, 17, 174, 144
-0.999686, 59, 253, 74, 268
-0.999687, 109, 139, 124, 154
-0.999687, 91, 93, 106, 108
-0.999687, 91, 145, 106, 272
-0.999687, 87, 99, 102, 114
-0.999691, 139, 217, 154, 232
-0.999693, 125, 83, 140, 98
-0.999695, 195, 33, 210, 160
-0.9997, 117, 299, 132, 314
-0.9997, 137, 133, 152, 148
-0.999702, 27, 91, 42, 106
-0.999705, 139, 89, 154, 104
-0.999705, 167, 207, 182, 222
-0.999706, 177, 87, 192, 102
-0.999706, 77, 89, 92, 104
-0.999708, 133, 81, 148, 96
-0.999708, 131, 123, 146, 138
-0.999708, 115, 147, 130, 162
-0.999708, 87, 245, 102, 260
-0.99971, 131, 49, 146, 64
-0.99971, 119, 135, 134, 150
-0.999715, 73, 299, 88, 314
-0.999715, 19, 89, 34, 104
-0.999716, 129, 91, 144, 106
-0.999718, 83, 79, 98, 94
-0.999721, 85, 91, 100, 106
-0.999725, 107, 229, 122, 244
-0.99973, 85, 85, 100, 100
-0.999731, 125, 47, 140, 62
-0.999731, 3, 89, 18, 104
-0.999736, 65, 233, 80, 248
-0.999736, 115, 141, 130, 156
-0.999738, 85, 49, 100, 64
-0.999749, 79, 233, 94, 248
-0.999754, 35, 89, 50, 104
-0.999754, 119, 85, 134, 100
-0.999783, 95, 99, 110, 114
-0.999786, 5, 113, 20, 240
-0.999804, 179, 1, 194, 128
-0.999875, 21, 1, 36, 128
-0.999897, 43, 145, 58, 272
-0.999924, 19, 193, 34, 320
-0.999928, 7, 177, 22, 304
-0.999992, 185, 1, 200, 128
-1.00004, 19, 145, 34, 272
-1.00005, 25, 177, 40, 304
-1.00007, 33, 177, 48, 304
-1.00008, 33, 129, 48, 256
-1.00008, 1, 161, 16, 288
-1.0001, 13, 145, 28, 272
-1.00016, 39, 193, 54, 320
-1.00017, 45, 9, 76, 72
-1.00018, 13, 193, 28, 320
-1.00063, 97, 177, 128, 240
-1.00065, 177, 25, 208, 88
-1.00077, 1, 1, 32, 128
-1.00134, 1, 241, 32, 304
-1.0016, 17, 153, 48, 216
-1.00165, 21, 233, 52, 296
-1.00181, 77, 145, 108, 208
-1.0019, 1, 17, 32, 80
-1.00192, 5, 161, 36, 224
-1.00224, 1, 113, 32, 176
-1.00225, 25, 201, 56, 264
-1.00231, 5, 209, 36, 272
-1.00243, 13, 257, 44, 320
-1.00263, 177, 1, 208, 128
-1.00333, 1, 137, 32, 200
-1.00333, 9, 185, 40, 248
-1.00357, 21, 177, 52, 304
-1.0039, 181, 1, 212, 64
-1.00424, 25, 257, 56, 320
-1.0043, 1, 161, 32, 288
