1841
-0.453057, 1, 161, 327, 416
-0.465962, 1, 65, 327, 320
-0.549524, 1, 1, 327, 435
-0.600437, 65, 1, 320, 435
-0.611108, 65, 161, 320, 416
-0.758524, 1, 65, 256, 320
-0.877359, 17, 161, 144, 416
-0.880153, 1, 1, 128, 435
-0.881125, 1, 177, 327, 304
-0.888016, 81, 1, 208, 435
-0.893777, 65, 193, 192, 435
-0.900237, 65, 193, 320, 320
-0.901638, 1, 65, 128, 320
-0.904223, 161, 193, 288, 435
-0.904452, 81, 97, 208, 352
-0.915235, 129, 1, 256, 435
-0.918509, 1, 225, 327, 352
-0.920996, 1, 129, 327, 256
-0.925347, 89, 177, 152, 304
-0.926238, 65, 145, 320, 272
-0.929031, 113, 193, 240, 435
-0.932336, 1, 257, 256, 384
-0.932414, 129, 97, 256, 352
-0.932471, 177, 1, 304, 435
-0.933353, 65, 193, 128, 320
-0.933773, 177, 97, 304, 352
-0.936737, 33, 193, 160, 320
-0.939394, 89, 225, 152, 352
-0.940628, 1, 81, 327, 208
-0.94245, 121, 257, 184, 384
-0.942684, 81, 145, 208, 272
-0.944286, 1, 145, 128, 272
-0.944798, 1, 273, 327, 400
-0.946284, 81, 257, 208, 384
-0.946421, 1, 305, 256, 432
-0.948499, 265, 209, 327, 336
-0.949005, 65, 241, 128, 368
-0.949117, 1, 97, 64, 224
-0.94992, 81, 193, 208, 320
-0.949951, 1, 1, 64, 64
-0.950655, 1, 161, 64, 288
-0.951786, 113, 209, 176, 336
-0.952138, 1, 209, 64, 336
-0.952185, 73, 185, 136, 248
-0.952304, 1, 305, 64, 432
-0.953008, 137, 177, 200, 304
-0.953326, 1, 241, 128, 368
-0.953883, 41, 161, 104, 224
-0.953941, 25, 161, 88, 288
-0.954396, 65, 145, 128, 272
-0.954418, 265, 1, 327, 64
-0.955261, 97, 169, 160, 232
-0.956729, 265, 225, 327, 288
-0.957089, 113, 257, 176, 320
-0.957143, 177, 145, 304, 272
-0.957286, 105, 193, 168, 256
-0.957679, 81, 241, 144, 304
-0.958651, 249, 161, 312, 288
-0.959538, 1, 257, 64, 384
-0.96015, 129, 209, 256, 336
-0.960297, 1, 137, 64, 200
-0.960324, 193, 193, 320, 320
-0.961549, 97, 217, 160, 280
-0.961852, 137, 185, 200, 248
-0.962517, 41, 225, 104, 352
-0.962939, 161, 193, 224, 320
-0.963856, 33, 81, 288, 208
-0.963921, 97, 129, 160, 256
-0.964715, 1, 201, 64, 264
-0.965484, 1, 161, 64, 224
-0.965595, 137, 161, 200, 224
-0.965632, 297, 193, 327, 320
-0.966059, 81, 305, 208, 432
-0.966552, 193, 161, 256, 288
-0.966587, 1, 97, 128, 224
-0.966909, 81, 1, 208, 256
-0.967024, 297, 193, 327, 256
-0.967184, 73, 161, 136, 224
-0.967254, 241, 193, 304, 256
-0.967734, 129, 1, 256, 256
-0.967887, 65, 209, 128, 272
-0.967938, 265, 113, 327, 240
-0.968094, 97, 273, 160, 400
-0.968213, 265, 273, 327, 400
-0.968243, 109, 177, 140, 304
-0.968664, 57, 249, 120, 312
-0.968936, 129, 281, 192, 344
-0.969035, 161, 169, 224, 232
-0.969221, 1, 1, 32, 64
-0.969578, 1, 281, 64, 344
-0.969665, 1, 233, 64, 296
-0.969797, 1, 113, 64, 176
-0.969936, 1, 369, 64, 432
-0.970032, 1, 313, 64, 376
-0.970594, 81, 177, 112, 304
-0.970952, 81, 265, 144, 328
-0.971082, 193, 1, 320, 256
-0.971267, 129, 161, 256, 288
-0.971363, 145, 289, 272, 416
-0.971574, 85, 185, 116, 248
-0.971632, 297, 217, 327, 280
-0.971668, 1, 161, 64, 416
-0.97181, 41, 273, 104, 400
-0.971826, 97, 161, 128, 288
-0.971829, 297, 1, 327, 64
-0.971853, 265, 137, 327, 200
-0.971866, 109, 193, 140, 256
-0.971913, 41, 113, 104, 240
-0.972172, 161, 145, 224, 272
-0.972204, 81, 161, 144, 416
-0.972569, 1, 33, 327, 160
-0.972577, 249, 169, 312, 232
-0.972605, 1, 337, 64, 400
-0.972678, 25, 1, 88, 64
-0.972871, 265, 249, 327, 312
-0.972914, 1, 49, 64, 176
-0.972932, 49, 1, 112, 64
-0.972932, 97, 1, 160, 64
-0.972932, 121, 1, 184, 64
-0.972978, 145, 1, 208, 64
-0.972978, 169, 1, 232, 64
-0.972978, 193, 1, 256, 64
-0.973046, 233, 1, 296, 64
-0.973192, 1, 257, 64, 320
-0.973205, 137, 129, 200, 256
-0.973228, 105, 225, 136, 288
-0.973232, 73, 1, 136, 64
-0.973265, 1, 193, 32, 320
-0.973271, 105, 169, 136, 232
-0.97382, 1, 129, 32, 256
-0.973857, 285, 201, 316, 264
-0.973963, 1, 1, 64, 128
-0.974145, 1, 89, 64, 152
-0.974185, 265, 193, 327, 435
-0.974402, 193, 185, 256, 248
-0.974686, 105, 161, 168, 416
-0.974799, 49, 137, 112, 200
-0.974803, 125, 177, 156, 304
-0.975047, 1, 137, 32, 200
-0.975063, 1, 185, 32, 248
-0.975107, 97, 225, 128, 352
-0.975227, 41, 201, 104, 264
-0.975497, 33, 241, 96, 304
-0.975508, 265, 281, 327, 344
-0.975683, 161, 305, 224, 432
-0.975761, 97, 177, 224, 240
-0.975789, 17, 233, 144, 296
-0.975929, 57, 161, 120, 416
-0.975994, 145, 217, 208, 280
-0.976126, 265, 193, 327, 256
-0.976137, 137, 161, 200, 416
-0.976345, 297, 145, 327, 272
-0.976373, 133, 257, 164, 320
-0.976622, 285, 177, 316, 304
-0.97695, 105, 281, 168, 344
-0.977131, 265, 65, 327, 192
-0.977293, 93, 161, 124, 224
-0.977298, 117, 225, 148, 352
-0.97734, 153, 209, 184, 336
-0.977361, 1, 257, 32, 384
-0.977374, 17, 185, 144, 248
-0.977382, 1, 217, 32, 280
-0.977674, 1, 241, 32, 304
-0.977956, 97, 145, 160, 208
-0.978174, 129, 169, 160, 232
-0.978206, 49, 257, 176, 320
-0.978389, 193, 209, 320, 272
-0.978409, 1, 161, 32, 224
-0.97853, 137, 193, 168, 320
-0.978628, 81, 97, 208, 224
-0.978884, 285, 225, 316, 352
-0.978888, 161, 193, 224, 256
-0.978913, 169, 241, 232, 368
-0.978934, 153, 273, 184, 400
-0.978953, 81, 201, 208, 264
-0.979162, 105, 265, 136, 328
-0.979204, 89, 249, 120, 312
-0.979308, 145, 249, 208, 312
-0.979405, 1, 161, 128, 224
-0.979411, 25, 129, 88, 384
-0.979423, 297, 241, 327, 304
-0.979483, 1, 265, 32, 328
-0.979544, 81, 225, 208, 288
-0.979578, 161, 289, 192, 352
-0.979664, 81, 297, 208, 360
-0.979677, 137, 305, 200, 368
-0.979748, 265, 369, 327, 432
-0.979782, 117, 169, 148, 232
-0.979974, 149, 161, 180, 288
-0.98004, 193, 241, 320, 368
-0.98004, 157, 161, 188, 224
-0.980131, 265, 1, 327, 128
-0.980421, 1, 65, 64, 320
-0.980446, 81, 153, 208, 216
-0.980588, 129, 305, 192, 432
-0.980646, 1, 65, 64, 128
-0.98075, 297, 169, 327, 232
-0.980774, 121, 249, 152, 312
-0.980901, 277, 225, 308, 288
-0.981157, 137, 257, 168, 384
-0.981451, 233, 209, 296, 336
-0.981488, 69, 193, 100, 320
-0.981602, 33, 305, 160, 432
-0.981623, 1, 113, 32, 176
-0.981655, 149, 185, 180, 248
-0.98166, 49, 65, 112, 320
-0.981766, 169, 329, 232, 392
-0.981803, 161, 1, 288, 64
-0.981856, 33, 1, 160, 64
-0.981877, 185, 209, 248, 272
-0.982081, 81, 1, 208, 64
-0.9821, 1, 337, 32, 400
-0.982212, 177, 177, 208, 240
-0.982325, 297, 241, 327, 368
-0.982488, 273, 177, 304, 304
-0.982519, 97, 193, 128, 256
-0.982525, 65, 97, 128, 224
-0.982755, 57, 273, 120, 336
-0.982893, 265, 113, 327, 176
-0.9829, 121, 217, 184, 280
-0.983009, 17, 209, 144, 272
-0.983039, 81, 161, 112, 224
-0.983064, 265, 313, 327, 376
-0.983111, 169, 193, 232, 435
-0.983166, 1, 41, 64, 104
-0.983202, 61, 241, 92, 368
-0.983319, 1, 129, 128, 192
-0.983536, 1, 289, 32, 352
-0.983619, 25, 297, 88, 360
-0.98363, 249, 97, 312, 352
-0.983742, 125, 201, 156, 264
-0.983813, 193, 185, 320, 248
-0.983824, 73, 289, 136, 416
-0.983877, 241, 217, 304, 280
-0.983887, 41, 161, 72, 224
-0.983932, 1, 313, 32, 376
-0.983976, 169, 273, 232, 336
-0.984233, 145, 169, 272, 232
-0.984399, 265, 337, 327, 400
-0.984423, 97, 1, 160, 435
-0.98449, 57, 177, 88, 304
-0.984613, 265, 57, 327, 120
-0.984659, 13, 161, 44, 288
-0.984684, 1, 1, 64, 435
-0.984746, 165, 193, 196, 320
-0.984779, 29, 1, 60, 64
-0.984792, 169, 145, 232, 208
-0.984808, 201, 209, 264, 336
-0.984839, 1, 265, 128, 328
-0.984845, 201, 161, 264, 224
-0.984933, 97, 265, 224, 328
-0.984955, 85, 209, 116, 272
-0.984981, 145, 265, 176, 328
-0.984997, 285, 177, 316, 240
-0.985016, 1, 305, 32, 432
-0.985055, 129, 233, 256, 296
-0.985181, 221, 1, 252, 64
-0.985212, 13, 1, 44, 64
-0.985215, 137, 193, 168, 256
-0.985243, 201, 1, 232, 64
-0.985243, 249, 1, 280, 64
-0.985243, 277, 1, 308, 64
-0.985274, 57, 1, 88, 64
-0.985274, 69, 1, 100, 64
-0.985274, 81, 1, 112, 64
-0.985274, 93, 1, 124, 64
-0.985274, 105, 1, 136, 64
-0.985274, 117, 1, 148, 64
-0.985274, 129, 1, 160, 64
-0.985274, 141, 1, 172, 64
-0.985274, 153, 1, 184, 64
-0.985274, 165, 1, 196, 64
-0.985274, 177, 1, 208, 64
-0.985274, 189, 1, 220, 64
-0.985331, 273, 201, 304, 264
-0.985384, 1, 81, 32, 208
-0.985413, 45, 1, 76, 64
-0.985413, 265, 1, 296, 64
-0.985552, 233, 1, 264, 64
-0.985569, 57, 233, 88, 296
-0.985674, 1, 369, 32, 432
-0.985736, 137, 329, 200, 392
-0.98591, 1, 321, 128, 384
-0.98595, 273, 177, 304, 240
-0.985971, 161, 305, 224, 368
-0.986099, 117, 129, 148, 256
-0.986176, 129, 225, 160, 288
-0.986182, 225, 145, 288, 272
-0.986182, 145, 241, 208, 368
-0.986226, 121, 1, 184, 435
-0.986303, 13, 209, 44, 336
-0.986307, 65, 1, 128, 435
-0.986376, 1, 49, 128, 176
-0.986389, 81, 321, 208, 384
-0.986404, 49, 297, 112, 360
-0.986442, 145, 321, 272, 384
-0.98645, 61, 169, 92, 232
-0.986456, 297, 129, 327, 192
-0.986457, 285, 129, 316, 256
-0.98649, 41, 161, 72, 288
-0.986546, 145, 257, 272, 320
-0.986619, 169, 145, 200, 272
-0.986746, 109, 273, 140, 400
-0.986817, 297, 289, 327, 352
-0.986874, 177, 145, 304, 208
-0.986989, 1, 105, 128, 168
-0.98701, 21, 193, 52, 256
-0.98703, 265, 81, 327, 144
-0.98726, 81, 289, 144, 352
-0.987273, 77, 257, 108, 384
-0.987295, 137, 369, 200, 432
-0.987333, 265, 33, 327, 96
-0.987343, 69, 249, 100, 312
-0.98736, 165, 305, 196, 432
-0.98746, 181, 161, 212, 288
-0.987494, 117, 225, 148, 288
-0.987529, 233, 145, 296, 208
-0.987582, 25, 329, 88, 392
-0.987706, 73, 65, 136, 320
-0.987725, 297, 289, 327, 416
-0.987783, 73, 193, 104, 256
-0.987789, 93, 113, 124, 240
-0.98783, 137, 137, 200, 200
-0.987841, 81, 193, 144, 224
-0.987884, 121, 273, 152, 336
-0.987902, 297, 97, 327, 224
-0.987916, 97, 273, 128, 400
-0.988008, 25, 273, 88, 336
-0.98809, 57, 129, 88, 256
-0.988116, 89, 273, 120, 336
-0.988139, 109, 289, 140, 352
-0.988164, 1, 297, 128, 360
-0.988166, 189, 161, 220, 224
-0.98818, 257, 193, 288, 256
-0.988301, 1, 89, 32, 152
-0.988443, 57, 265, 88, 328
-0.988477, 45, 241, 76, 304
-0.988492, 141, 233, 172, 296
-0.988552, 105, 113, 136, 240
-0.988574, 129, 65, 192, 320
-0.988585, 57, 289, 88, 416
-0.988654, 273, 225, 304, 352
-0.988661, 177, 97, 304, 224
-0.98874, 165, 201, 196, 264
-0.988757, 137, 145, 168, 272
-0.988809, 57, 289, 88, 352
-0.988848, 73, 129, 136, 192
-0.988877, 209, 209, 272, 272
-0.988939, 1, 1, 64, 32
-0.988978, 89, 261, 152, 292
-0.989004, 81, 249, 144, 280
-0.989027, 145, 281, 272, 344
-0.989032, 169, 353, 232, 416
-0.989047, 89, 177, 152, 208
-0.989114, 1, 17, 32, 144
-0.989149, 33, 33, 288, 160
-0.989174, 265, 1, 327, 32
-0.989346, 113, 281, 176, 312
-0.989359, 233, 193, 296, 435
-0.989364, 65, 177, 320, 240
-0.989426, 297, 369, 327, 432
-0.989426, 129, 405, 192, 435
-0.989456, 297, 265, 327, 328
-0.989474, 49, 225, 80, 352
-0.989566, 69, 217, 100, 280
-0.98958, 65, 177, 128, 208
-0.989595, 41, 1, 104, 435
-0.989607, 265, 405, 327, 435
-0.98964, 77, 129, 108, 256
-0.989657, 265, 229, 327, 260
-0.989726, 153, 217, 184, 280
-0.989791, 273, 129, 304, 256
-0.989813, 129, 113, 256, 240
-0.989817, 145, 209, 272, 272
-0.989843, 41, 173, 104, 204
-0.989873, 1, 157, 64, 188
-0.989873, 145, 161, 176, 224
-0.989902, 65, 201, 320, 264
-0.989943, 201, 113, 264, 240
-0.990018, 65, 225, 320, 288
-0.99004, 1, 169, 64, 200
-0.990057, 157, 265, 188, 328
-0.990077, 145, 369, 272, 432
-0.990116, 121, 189, 184, 220
-0.99012, 113, 269, 176, 300
-0.990135, 1, 201, 64, 232
-0.990143, 257, 177, 288, 304
-0.990169, 57, 257, 120, 288
-0.990232, 249, 217, 312, 248
-0.990248, 1, 349, 64, 380
-0.990252, 41, 161, 104, 192
-0.990263, 241, 205, 304, 236
-0.990276, 73, 237, 136, 268
-0.990295, 1, 145, 64, 176
-0.990297, 145, 177, 208, 208
-0.990326, 97, 229, 160, 260
-0.990354, 169, 97, 232, 352
-0.990378, 1, 317, 64, 348
-0.990409, 109, 145, 140, 208
-0.990429, 241, 193, 272, 256
-0.990475, 65, 225, 128, 256
-0.990521, 1, 189, 64, 220
-0.990573, 33, 193, 96, 224
-0.99058, 25, 177, 56, 304
-0.99059, 105, 245, 168, 276
-0.990632, 1, 405, 64, 435
-0.990634, 169, 177, 232, 208
-0.990652, 37, 273, 68, 336
-0.990653, 105, 209, 168, 240
-0.990656, 153, 405, 216, 435
-0.990662, 177, 153, 208, 216
-0.99071, 165, 361, 196, 424
-0.990721, 33, 329, 64, 392
-0.99073, 37, 225, 68, 352
-0.990753, 137, 293, 200, 324
-0.990757, 121, 177, 184, 208
-0.990762, 1, 361, 64, 392
-0.990766, 25, 353, 88, 416
-0.990768, 265, 241, 327, 272
-0.990769, 1, 281, 64, 312
-0.99078, 65, 209, 128, 240
-0.990848, 81, 273, 144, 304
-0.990865, 145, 193, 208, 224
-0.990867, 1, 337, 64, 368
-0.990903, 249, 193, 312, 224
-0.990909, 1, 65, 32, 128
-0.990932, 21, 169, 52, 232
-0.990949, 57, 189, 120, 220
-0.990963, 25, 1, 88, 32
-0.990979, 1, 377, 64, 408
-0.991004, 1, 125, 64, 156
-0.991013, 57, 1, 120, 32
-0.991013, 185, 1, 248, 32
-0.991018, 97, 65, 160, 320
-0.991042, 89, 1, 152, 32
-0.991042, 113, 1, 176, 32
-0.991042, 137, 1, 200, 32
-0.991042, 161, 1, 224, 32
-0.991042, 241, 1, 304, 32
-0.991063, 1, 109, 64, 140
-0.991064, 1, 225, 64, 256
-0.991088, 77, 273, 108, 336
-0.991099, 217, 1, 280, 32
-0.991112, 1, 297, 64, 328
-0.991137, 57, 269, 120, 300
-0.991148, 33, 245, 96, 276
-0.991175, 265, 1, 327, 256
-0.991187, 161, 165, 224, 196
-0.991198, 265, 173, 327, 204
-0.991204, 1, 269, 64, 300
-0.991212, 1, 257, 64, 288
-0.991222, 265, 253, 327, 284
-0.991241, 1, 241, 64, 272
-0.991263, 61, 145, 92, 208
-0.991263, 241, 405, 304, 435
-0.991264, 265, 1, 327, 435
-0.991303, 157, 337, 188, 400
-0.991307, 137, 165, 200, 196
-0.991316, 121, 257, 184, 288
-0.991373, 265, 285, 327, 316
-0.99138, 137, 309, 200, 340
-0.991385, 145, 221, 208, 252
-0.991393, 265, 153, 327, 184
-0.991404, 89, 165, 152, 196
-0.99142, 169, 329, 200, 392
-0.991432, 177, 213, 240, 244
-0.991446, 41, 205, 104, 236
-0.991458, 217, 405, 280, 435
-0.991479, 297, 105, 327, 168
-0.991486, 89, 289, 152, 320
-0.991524, 1, 93, 64, 124
-0.991555, 129, 145, 160, 208
-0.991569, 65, 289, 128, 320
-0.991578, 97, 81, 160, 208
-0.991596, 265, 141, 327, 172
-0.99161, 1, 213, 64, 244
-0.991617, 193, 405, 256, 435
-0.991638, 177, 197, 240, 228
-0.991659, 217, 185, 280, 248
-0.991664, 149, 289, 180, 352
-0.991682, 161, 1, 224, 435
-0.991688, 13, 241, 44, 304
-0.991707, 137, 385, 200, 416
-0.991731, 201, 217, 264, 248
-0.991737, 265, 265, 327, 296
-0.991754, 169, 289, 232, 320
-0.991757, 241, 229, 304, 260
-0.991801, 1, 81, 64, 112
-0.991803, 137, 205, 200, 236
-0.991808, 233, 257, 296, 320
-0.991823, 217, 205, 280, 236
-0.991829, 1, 389, 64, 420
-0.991836, 1, 193, 327, 256
-0.991854, 105, 405, 168, 435
-0.991883, 137, 321, 200, 352
-0.991884, 237, 193, 268, 320
-0.991903, 145, 261, 208, 292
-0.992011, 21, 329, 52, 392
-0.992012, 297, 229, 327, 260
-0.992015, 113, 293, 176, 324
-0.992029, 57, 209, 88, 272
-0.992059, 201, 193, 264, 224
-0.992068, 265, 129, 327, 160
-0.992068, 65, 165, 128, 196
-0.992086, 233, 165, 296, 196
-0.992094, 41, 233, 104, 264
-0.992106, 201, 173, 264, 204
-0.992107, 169, 341, 232, 372
-0.992116, 289, 217, 320, 248
-0.992137, 93, 177, 124, 208
-0.992149, 129, 245, 192, 276
-0.992153, 145, 273, 208, 304
-0.992169, 169, 301, 232, 332
-0.992184, 25, 357, 88, 388
-0.992185, 145, 345, 272, 408
-0.992186, 97, 329, 160, 360
-0.992187, 129, 361, 192, 392
-0.992187, 265, 385, 327, 416
-0.992209, 1, 65, 64, 96
-0.992221, 33, 261, 96, 292
-0.992234, 153, 113, 184, 240
-0.992246, 265, 369, 327, 400
-0.992255, 169, 369, 232, 400
-0.992258, 129, 349, 192, 380
-0.992277, 137, 273, 168, 304
-0.992281, 121, 229, 184, 260
-0.992281, 1, 1, 32, 32
-0.992284, 265, 341, 327, 372
-0.992289, 73, 341, 136, 372
-0.992304, 17, 273, 48, 336
-0.992312, 177, 225, 240, 256
-0.992323, 297, 1, 327, 32
-0.992332, 145, 405, 176, 435
-0.992341, 297, 205, 327, 236
-0.992346, 1, 137, 32, 168
-0.992351, 145, 233, 208, 264
-0.992367, 25, 137, 88, 200
-0.992368, 13, 217, 44, 280
-0.992383, 265, 69, 327, 100
-0.992384, 81, 129, 208, 192
-0.992397, 65, 345, 192, 408
-0.9924, 101, 241, 132, 272
-0.992403, 41, 113, 104, 176
-0.99242, 265, 297, 327, 328
-0.992424, 1, 193, 32, 224
-0.992425, 73, 321, 136, 352
-0.992444, 265, 353, 327, 384
-0.992462, 85, 193, 116, 224
-0.99247, 185, 161, 248, 192
-0.992475, 1, 53, 64, 84
-0.992479, 157, 289, 188, 320
-0.992481, 157, 405, 188, 435
-0.992492, 265, 117, 327, 148
-0.992509, 209, 137, 272, 200
-0.992512, 297, 241, 327, 272
-0.992523, 105, 193, 136, 224
-0.992529, 297, 345, 327, 408
-0.992537, 157, 241, 188, 304
-0.992541, 1, 213, 32, 244
-0.992555, 129, 181, 160, 212
-0.992576, 117, 189, 148, 220
-0.992576, 277, 229, 308, 260
-0.992577, 105, 177, 136, 208
-0.992586, 177, 201, 208, 264
-0.992592, 1, 225, 32, 256
-0.99261, 1, 269, 32, 300
-0.99262, 1, 237, 32, 268
-0.992624, 105, 229, 136, 260
-0.992629, 161, 313, 192, 344
-0.99263, 1, 317, 32, 348
-0.992645, 1, 249, 32, 280
-0.992673, 61, 265, 92, 296
-0.992674, 13, 113, 44, 176
-0.992677, 105, 281, 136, 312
-0.992688, 81, 177, 112, 208
-0.992689, 105, 209, 136, 240
-0.992695, 1, 165, 32, 196
-0.992707, 113, 261, 144, 292
-0.992713, 117, 177, 148, 208
-0.992715, 1, 337, 32, 368
-0.992717, 89, 265, 120, 296
-0.992719, 297, 193, 327, 224
-0.992723, 1, 177, 32, 208
-0.992725, 185, 405, 216, 435
-0.992725, 297, 49, 327, 176
-0.992752, 125, 261, 156, 292
-0.992757, 133, 405, 164, 435
-0.992758, 1, 285, 32, 316
-0.992762, 169, 405, 200, 435
-0.992772, 177, 173, 208, 204
-0.99278, 149, 393, 180, 424
-0.992787, 1, 149, 32, 180
-0.992797, 261, 161, 292, 224
-0.9928, 1, 361, 32, 392
-0.992801, 301, 193, 316, 256
-0.992801, 81, 253, 112, 284
-0.992804, 165, 393, 196, 424
-0.992808, 1, 121, 32, 152
-0.992848, 285, 201, 316, 232
-0.992848, 1, 349, 32, 380
-0.99286, 241, 205, 272, 236
-0.992875, 281, 129, 312, 192
-0.992876, 297, 405, 327, 435
-0.992886, 161, 301, 192, 332
-0.992887, 153, 277, 184, 308
-0.992903, 161, 97, 224, 224
-0.992905, 193, 129, 256, 384
-0.992911, 157, 169, 188, 200
-0.992913, 261, 405, 292, 435
-0.992921, 277, 217, 308, 248
-0.992921, 41, 161, 72, 192
-0.992929, 121, 281, 152, 312
-0.992932, 57, 301, 88, 332
-0.992939, 1, 301, 32, 332
-0.992939, 241, 405, 272, 435
-0.992941, 297, 177, 327, 208
-0.992951, 297, 293, 327, 324
-0.992953, 53, 1, 84, 32
-0.992955, 213, 1, 244, 32
-0.992955, 261, 1, 292, 32
-0.992955, 53, 169, 84, 200
-0.992957, 25, 1, 56, 32
-0.992964, 69, 1, 100, 32
-0.992964, 81, 1, 112, 32
-0.992964, 93, 1, 124, 32
-0.992964, 105, 1, 136, 32
-0.992964, 117, 1, 148, 32
-0.992964, 129, 1, 160, 32
-0.992964, 141, 1, 172, 32
-0.992964, 153, 1, 184, 32
-0.992964, 165, 1, 196, 32
-0.992964, 177, 1, 208, 32
-0.992964, 189, 1, 220, 32
-0.992964, 201, 1, 232, 32
-0.992964, 273, 1, 304, 32
-0.992964, 285, 1, 316, 32
-0.99297, 37, 1, 68, 32
-0.992971, 117, 201, 148, 232
-0.992973, 249, 1, 280, 32
-0.992975, 45, 313, 76, 376
-0.992976, 33, 153, 288, 216
-0.992978, 89, 221, 120, 252
-0.992983, 225, 1, 256, 32
-0.992984, 13, 1, 44, 32
-0.992986, 297, 1, 327, 128
-0.992987, 1, 405, 32, 435
-0.992988, 137, 201, 168, 232
-0.992994, 137, 393, 168, 424
-0.992995, 157, 201, 188, 232
-0.993, 117, 221, 148, 252
-0.993004, 153, 189, 184, 220
-0.993006, 85, 277, 116, 308
-0.993011, 257, 209, 288, 240
-0.993011, 237, 1, 268, 32
-0.993011, 1, 109, 32, 140
-0.993012, 161, 377, 192, 408
-0.99302, 129, 169, 160, 200
-0.993026, 145, 289, 176, 320
-0.993029, 281, 405, 312, 435
-0.993029, 149, 213, 180, 244
-0.993036, 77, 205, 108, 236
-0.993036, 297, 125, 327, 156
-0.993038, 141, 177, 172, 208
-0.993043, 53, 313, 84, 344
-0.993045, 21, 197, 52, 228
-0.99305, 177, 201, 208, 232
-0.993062, 189, 173, 220, 204
-0.993069, 273, 181, 304, 212
-0.99307, 61, 185, 92, 216
-0.993078, 177, 185, 208, 216
-0.993085, 29, 129, 60, 256
-0.99309, 77, 225, 108, 256
-0.993091, 1, 25, 32, 88
-0.993096, 57, 253, 88, 284
-0.993097, 129, 225, 160, 256
-0.993114, 201, 405, 232, 435
-0.993116, 297, 161, 327, 192
-0.993118, 249, 221, 280, 252
-0.993123, 157, 365, 188, 396
-0.993126, 97, 369, 224, 432
-0.993128, 41, 173, 72, 204
-0.993137, 169, 333, 200, 364
-0.993141, 57, 237, 88, 268
-0.993142, 73, 269, 104, 300
-0.993143, 297, 253, 327, 284
-0.993144, 189, 161, 220, 192
-0.993147, 101, 313, 132, 376
-0.993168, 169, 241, 200, 368
-0.993182, 193, 265, 320, 328
-0.993241, 311, 217, 326, 280
-0.993323, 169, 233, 232, 296
-0.993375, 169, 265, 200, 328
-0.993378, 107, 169, 122, 232
-0.993383, 3, 1, 18, 64
-0.993441, 1, 169, 327, 232
-0.993488, 297, 313, 327, 376
-0.993506, 33, 1, 288, 64
-0.993567, 297, 57, 327, 120
-0.99363, 37, 273, 68, 400
-0.993734, 173, 305, 204, 368
-0.993753, 33, 249, 288, 312
-0.993799, 311, 1, 326, 64
-0.993847, 41, 137, 72, 200
-0.993901, 193, 241, 320, 304
-0.993939, 295, 209, 310, 272
-0.993945, 197, 193, 228, 320
-0.994058, 3, 121, 18, 184
-0.994065, 105, 305, 168, 368
-0.994138, 17, 257, 48, 384
-0.99417, 101, 185, 116, 248
-0.994205, 93, 137, 124, 200
-0.994211, 311, 193, 326, 256
-0.994273, 233, 145, 264, 272
-0.994293, 97, 177, 224, 208
-0.994322, 73, 329, 136, 392
-0.994367, 303, 217, 318, 280
-0.994372, 1, 81, 128, 144
-0.994401, 115, 185, 130, 248
-0.994407, 101, 241, 116, 304
-0.994432, 113, 321, 144, 384
-0.994452, 257, 217, 288, 280
-0.99448, 109, 193, 124, 256
-0.994496, 107, 217, 122, 280
-0.994505, 13, 353, 44, 416
-0.994519, 233, 217, 264, 280
-0.994534, 193, 405, 320, 435
-0.994615, 49, 321, 112, 384
-0.994654, 179, 169, 194, 232
-0.994662, 41, 113, 72, 240
-0.994662, 1, 1, 327, 64
-0.994678, 77, 305, 108, 432
-0.994679, 129, 405, 256, 435
-0.994687, 193, 217, 320, 248
-0.994779, 81, 329, 208, 360
-0.994795, 1, 225, 327, 288
-0.994808, 169, 161, 184, 224
-0.99481, 17, 193, 144, 224
-0.994856, 163, 169, 178, 232
-0.994866, 95, 169, 110, 232
-0.994867, 233, 257, 296, 384
-0.99487, 17, 241, 144, 272
-0.994888, 173, 297, 188, 360
-0.994926, 193, 361, 320, 424
-0.994944, 261, 225, 292, 352
-0.99497, 137, 81, 200, 208
-0.994981, 123, 257, 138, 320
-0.995035, 17, 181, 144, 212
-0.995037, 3, 241, 18, 304
-0.99505, 1, 273, 256, 336
-0.995114, 3, 289, 18, 352
-0.995119, 87, 177, 102, 240
-0.995156, 81, 225, 208, 256
-0.995164, 3, 265, 18, 328
-0.995225, 1, 297, 256, 360
-0.995231, 3, 153, 18, 216
-0.995237, 3, 201, 18, 264
-0.995259, 137, 241, 152, 304
-0.99527, 49, 257, 176, 288
-0.995299, 121, 193, 136, 256
-0.995314, 55, 153, 70, 216
-0.995321, 3, 97, 18, 160
-0.995359, 3, 313, 18, 376
-0.99536, 1, 345, 128, 408
-0.995368, 129, 249, 144, 312
-0.995389, 101, 161, 116, 224
-0.995401, 3, 177, 18, 240
-0.995449, 1, 329, 256, 392
-0.995497, 143, 257, 158, 320
-0.9955, 145, 169, 160, 232
-0.995514, 127, 177, 142, 240
-0.995551, 107, 241, 122, 304
-0.995552, 297, 193, 327, 435
-0.995589, 289, 209, 304, 272
-0.995624, 17, 229, 144, 260
-0.995645, 17, 305, 48, 432
-0.995658, 129, 145, 256, 208
-0.995659, 65, 281, 192, 312
-0.99569, 81, 237, 208, 268
-0.99569, 109, 273, 124, 336
-0.995696, 193, 205, 320, 236
-0.995705, 121, 273, 152, 400
-0.995733, 1, 1, 128, 32
-0.995736, 1, 165, 128, 196
-0.995752, 17, 273, 144, 304
-0.995753, 151, 265, 166, 328
-0.995757, 105, 161, 136, 416
-0.99576, 65, 169, 80, 232
-0.995793, 193, 233, 256, 296
-0.995798, 95, 249, 110, 312
-0.995803, 171, 185, 186, 248
-0.995824, 3, 353, 18, 416
-0.995845, 41, 65, 104, 192
-0.995846, 311, 169, 326, 232
-0.995873, 161, 281, 176, 344
-0.995892, 119, 161, 134, 224
-0.995902, 295, 185, 310, 248
-0.995918, 49, 1, 176, 32
-0.995918, 129, 1, 256, 32
-0.995919, 225, 209, 256, 336
-0.995934, 153, 177, 168, 240
-0.995935, 21, 81, 52, 208
-0.995938, 1, 249, 327, 312
-0.995955, 97, 189, 224, 220
-0.995963, 125, 289, 140, 352
-0.995975, 193, 1, 320, 32
-0.995978, 55, 177, 70, 240
-0.995982, 217, 233, 280, 296
-0.995983, 167, 273, 182, 336
-0.995991, 311, 241, 326, 304
-0.996002, 103, 265, 118, 328
-0.996053, 143, 233, 158, 296
-0.9961, 1, 193, 32, 435
-0.996123, 117, 257, 132, 320
-0.996132, 179, 321, 194, 384
-0.996134, 201, 145, 232, 272
-0.996138, 225, 1, 288, 435
-0.996138, 145, 173, 272, 204
-0.996139, 1, 129, 128, 160
-0.99615, 81, 209, 208, 240
-0.996162, 311, 289, 326, 352
-0.996163, 61, 297, 76, 360
-0.996168, 35, 1, 50, 64
-0.996171, 1, 333, 128, 364
-0.996174, 203, 177, 218, 240
-0.996186, 1, 261, 128, 292
-0.996186, 27, 1, 42, 64
-0.996192, 21, 1, 36, 64
-0.996192, 143, 193, 158, 256
-0.996193, 291, 233, 306, 296
-0.996221, 1, 217, 128, 248
-0.996225, 41, 1, 56, 64
-0.996225, 229, 1, 244, 64
-0.996232, 219, 1, 234, 64
-0.996232, 255, 1, 270, 64
-0.996234, 201, 1, 264, 435
-0.996238, 9, 1, 24, 64
-0.996241, 179, 193, 194, 256
-0.996244, 15, 1, 30, 64
-0.996244, 49, 1, 64, 64
-0.996244, 55, 1, 70, 64
-0.996244, 61, 1, 76, 64
-0.996244, 67, 1, 82, 64
-0.996244, 73, 1, 88, 64
-0.996244, 79, 1, 94, 64
-0.996244, 85, 1, 100, 64
-0.996244, 91, 1, 106, 64
-0.996244, 97, 1, 112, 64
-0.996244, 103, 1, 118, 64
-0.996244, 109, 1, 124, 64
-0.996244, 115, 1, 130, 64
-0.996244, 121, 1, 136, 64
-0.996244, 127, 1, 142, 64
-0.996244, 133, 1, 148, 64
-0.996244, 139, 1, 154, 64
-0.996244, 145, 1, 160, 64
-0.996244, 151, 1, 166, 64
-0.996244, 157, 1, 172, 64
-0.996244, 163, 1, 178, 64
-0.996244, 169, 1, 184, 64
-0.996244, 175, 1, 190, 64
-0.996244, 181, 1, 196, 64
-0.996244, 187, 1, 202, 64
-0.996244, 193, 1, 208, 64
-0.996244, 199, 1, 214, 64
-0.996244, 205, 1, 220, 64
-0.996244, 211, 1, 226, 64
-0.996244, 269, 1, 284, 64
-0.996244, 275, 1, 290, 64
-0.996244, 281, 1, 296, 64
-0.996244, 287, 1, 302, 64
-0.996244, 293, 1, 308, 64
-0.996265, 239, 1, 254, 64
-0.996265, 245, 1, 260, 64
-0.996265, 303, 1, 318, 64
-0.996265, 281, 209, 296, 272
-0.996271, 261, 1, 276, 64
-0.996273, 101, 209, 116, 272
-0.996274, 81, 185, 96, 248
-0.996278, 297, 233, 312, 296
-0.996285, 33, 129, 288, 192
-0.996288, 97, 165, 224, 196
-0.996299, 115, 281, 130, 344
-0.996303, 257, 129, 288, 256
-0.996343, 49, 153, 64, 216
-0.996357, 311, 225, 326, 256
-0.996422, 17, 321, 144, 352
-0.996428, 311, 121, 326, 184
-0.996475, 81, 405, 208, 435
-0.996483, 137, 169, 152, 232
-0.996508, 65, 273, 80, 336
-0.99652, 311, 369, 326, 432
-0.996528, 153, 161, 184, 416
-0.996537, 65, 269, 192, 300
-0.996541, 161, 121, 288, 184
-0.996547, 233, 121, 296, 184
-0.996561, 81, 305, 208, 336
-0.99657, 177, 305, 208, 432
-0.996577, 115, 209, 130, 272
-0.996578, 83, 249, 98, 312
-0.996582, 1, 145, 327, 208
-0.996598, 163, 193, 178, 256
-0.99663, 49, 169, 176, 200
-0.996635, 81, 341, 208, 372
-0.996646, 89, 249, 104, 312
-0.996653, 85, 161, 116, 416
-0.99666, 73, 177, 88, 240
-0.996668, 285, 193, 316, 435
-0.99667, 193, 229, 320, 260
-0.99668, 177, 97, 304, 160
-0.996691, 113, 161, 128, 224
-0.996694, 185, 169, 200, 232
-0.996721, 59, 233, 74, 296
-0.996721, 251, 193, 266, 256
-0.996722, 173, 329, 188, 392
-0.996722, 33, 205, 160, 236
-0.996741, 1, 145, 128, 176
-0.996761, 125, 161, 156, 416
-0.99685, 129, 225, 256, 256
-0.99689, 81, 317, 208, 348
-0.996893, 181, 113, 212, 240
-0.996904, 49, 49, 176, 176
-0.996912, 297, 97, 327, 352
-0.996945, 177, 161, 304, 192
-0.996958, 169, 289, 184, 320
-0.996973, 1, 97, 32, 352
-0.996991, 303, 229, 318, 260
-0.997039, 233, 329, 296, 392
-0.997047, 145, 185, 272, 216
-0.99707, 129, 261, 144, 292
-0.997081, 159, 405, 174, 435
-0.997125, 137, 193, 168, 435
-0.99714, 129, 257, 256, 288
-0.997153, 107, 177, 122, 208
-0.997154, 105, 237, 120, 268
-0.997154, 145, 213, 272, 244
-0.997155, 1, 281, 327, 344
-0.997158, 193, 337, 320, 400
-0.99716, 3, 5, 18, 36
-0.99719, 81, 293, 208, 324
-0.997246, 241, 281, 304, 344
-0.997258, 129, 269, 256, 300
-0.997272, 311, 405, 326, 435
-0.997282, 311, 1, 326, 32
-0.997283, 41, 89, 104, 152
-0.99729, 145, 293, 272, 324
-0.997308, 95, 177, 110, 208
-0.997319, 311, 237, 326, 268
-0.997333, 277, 273, 308, 400
-0.997342, 173, 301, 188, 332
-0.997349, 303, 205, 318, 236
-0.997364, 145, 393, 272, 424
-0.997419, 107, 225, 122, 256
-0.99742, 193, 305, 320, 432
-0.997428, 251, 201, 266, 232
-0.997433, 179, 173, 194, 204
-0.997434, 193, 177, 320, 208
-0.997443, 3, 353, 18, 384
-0.997447, 217, 305, 280, 432
-0.997458, 151, 405, 166, 435
-0.997464, 109, 197, 124, 228
-0.997468, 5, 133, 20, 164
-0.997477, 117, 193, 132, 224
-0.997487, 141, 265, 156, 296
-0.997497, 311, 213, 326, 244
-0.997513, 165, 405, 180, 435
-0.997524, 161, 325, 288, 356
-0.997528, 145, 405, 160, 435
-0.997528, 55, 161, 70, 192
-0.99753, 65, 389, 192, 420
-0.997548, 123, 265, 138, 296
-0.997554, 33, 105, 288, 168
-0.997555, 99, 257, 114, 288
-0.997562, 297, 193, 312, 224
-0.997585, 3, 337, 18, 368
-0.997602, 297, 217, 312, 248
-0.997603, 165, 161, 196, 416
-0.997607, 3, 325, 18, 356
-0.997618, 277, 97, 308, 352
-0.997624, 17, 285, 144, 316
-0.997625, 57, 97, 88, 352
-0.997631, 301, 405, 316, 435
-0.997632, 3, 149, 18, 180
-0.997632, 175, 317, 190, 348
-0.997639, 97, 329, 160, 392
-0.997645, 151, 273, 166, 304
-0.997651, 145, 201, 272, 232
-0.997656, 159, 289, 174, 320
-0.997665, 101, 177, 116, 208
-0.997676, 183, 405, 198, 435
-0.997684, 161, 337, 288, 368
-0.997691, 1, 353, 256, 416
-0.997697, 129, 189, 144, 220
-0.9977, 145, 281, 272, 312
-0.997715, 55, 177, 70, 208
-0.99772, 165, 393, 180, 424
-0.997723, 3, 273, 18, 304
-0.997725, 3, 257, 18, 288
-0.997732, 1, 369, 128, 432
-0.997733, 297, 233, 312, 264
-0.997733, 87, 181, 102, 212
-0.997736, 1, 117, 128, 148
-0.997743, 185, 297, 248, 360
-0.997751, 3, 293, 18, 324
-0.997751, 3, 313, 18, 344
-0.997753, 251, 213, 266, 244
-0.997755, 115, 273, 130, 304
-0.997757, 73, 253, 88, 284
-0.997769, 63, 173, 78, 204
-0.997769, 109, 281, 124, 312
-0.997774, 133, 277, 148, 308
-0.997774, 179, 185, 194, 216
-0.99779, 137, 405, 152, 435
-0.997793, 85, 257, 100, 288
-0.997795, 311, 201, 326, 232
-0.997799, 303, 217, 318, 248
-0.997801, 121, 277, 136, 308
-0.997813, 99, 193, 114, 224
-0.997815, 163, 173, 178, 204
-0.997816, 3, 245, 18, 276
-0.997819, 79, 257, 94, 288
-0.997827, 73, 161, 104, 416
-0.997829, 169, 165, 184, 196
-0.997829, 171, 189, 186, 220
-0.997837, 245, 145, 276, 272
-0.99784, 61, 305, 76, 336
-0.997849, 145, 309, 272, 340
-0.997856, 289, 405, 304, 435
-0.997868, 113, 229, 128, 260
-0.99787, 3, 205, 18, 236
-0.997871, 201, 257, 264, 320
-0.997872, 101, 277, 116, 308
-0.997876, 291, 237, 306, 268
-0.997883, 171, 405, 186, 435
-0.997884, 145, 381, 272, 412
-0.997886, 3, 233, 18, 264
-0.997886, 171, 201, 186, 232
-0.997888, 3, 217, 18, 248
-0.997907, 159, 393, 174, 424
-0.997909, 145, 177, 160, 208
-0.997912, 251, 405, 266, 435
-0.997916, 201, 405, 216, 435
-0.997918, 99, 245, 114, 276
-0.997921, 49, 193, 80, 435
-0.997923, 91, 257, 106, 288
-0.997926, 245, 209, 260, 240
-0.997932, 123, 197, 138, 228
-0.997933, 261, 405, 276, 435
-0.997933, 291, 209, 306, 240
-0.997941, 159, 277, 174, 308
-0.997956, 3, 193, 18, 224
-0.997964, 229, 405, 244, 435
-0.997967, 103, 213, 118, 244
-0.997972, 221, 161, 252, 288
-0.997973, 175, 289, 190, 320
-0.997976, 295, 405, 310, 435
-0.997979, 115, 285, 130, 316
-0.997988, 17, 345, 144, 376
-0.997992, 191, 405, 206, 435
-0.997995, 185, 173, 200, 204
-0.997999, 13, 161, 44, 416
-0.998003, 81, 89, 208, 152
-0.998019, 311, 393, 326, 424
-0.998023, 175, 333, 190, 364
-0.998025, 283, 405, 298, 435
-0.998029, 193, 305, 320, 368
-0.998031, 97, 65, 128, 320
-0.998031, 9, 1, 24, 32
-0.998036, 311, 189, 326, 220
-0.998038, 285, 229, 300, 260
-0.998042, 129, 249, 144, 280
-0.998045, 155, 381, 170, 412
-0.998048, 3, 365, 18, 396
-0.998052, 135, 265, 150, 296
-0.998057, 3, 161, 18, 192
-0.998061, 35, 1, 50, 32
-0.998063, 37, 129, 68, 384
-0.998073, 55, 1, 70, 32
-0.998073, 163, 205, 178, 236
-0.998075, 229, 1, 244, 32
-0.998075, 265, 1, 280, 32
-0.998079, 311, 297, 326, 328
-0.998083, 3, 405, 18, 435
-0.998087, 305, 1, 320, 32
-0.99809, 169, 1, 184, 32
-0.99809, 175, 1, 190, 32
-0.99809, 181, 1, 196, 32
-0.99809, 187, 1, 202, 32
-0.99809, 193, 1, 208, 32
-0.99809, 199, 1, 214, 32
-0.99809, 205, 1, 220, 32
-0.99809, 211, 1, 226, 32
-0.99809, 217, 1, 232, 32
-0.99809, 223, 1, 238, 32
-0.99809, 275, 1, 290, 32
-0.99809, 281, 1, 296, 32
-0.99809, 287, 1, 302, 32
-0.99809, 293, 1, 308, 32
-0.99809, 299, 1, 314, 32
-0.998108, 145, 369, 272, 400
-0.998179, 169, 1, 232, 256
-0.998188, 17, 405, 144, 435
-0.998189, 1, 121, 327, 184
-0.99824, 129, 245, 256, 276
-0.998281, 1, 305, 327, 368
-0.998292, 273, 193, 304, 435
-0.998315, 141, 97, 172, 352
-0.998326, 133, 97, 164, 224
-0.99834, 193, 281, 320, 312
-0.998355, 1, 1, 32, 256
-0.998359, 145, 349, 272, 380
-0.998386, 1, 105, 128, 136
-0.998403, 253, 203, 284, 218
-0.998403, 33, 363, 64, 378
-0.998404, 157, 357, 188, 372
-0.998405, 193, 193, 320, 224
-0.998406, 145, 421, 176, 435
-0.998408, 101, 221, 132, 236
-0.99841, 157, 211, 188, 226
-0.99841, 17, 421, 48, 435
-0.998411, 89, 179, 152, 194
-0.998412, 141, 287, 172, 302
-0.998412, 149, 403, 180, 418
-0.998413, 297, 129, 327, 144
-0.998413, 157, 387, 188, 402
-0.998413, 1, 347, 32, 362
-0.998414, 89, 187, 152, 202
-0.998415, 269, 223, 300, 238
-0.998415, 57, 243, 88, 258
-0.998416, 81, 197, 144, 212
-0.998416, 65, 259, 128, 274
-0.99842, 157, 363, 188, 378
-0.998421, 185, 407, 216, 422
-0.998421, 281, 203, 312, 218
-0.998421, 1, 293, 32, 308
-0.998422, 81, 247, 112, 262
-0.998423, 297, 175, 327, 190
-0.998424, 1, 281, 32, 296
-0.998426, 161, 331, 192, 346
-0.998427, 1, 153, 32, 168
-0.998428, 193, 33, 256, 288
-0.998429, 181, 419, 212, 434
-0.998429, 273, 229, 304, 244
-0.99843, 1, 341, 32, 356
-0.99843, 297, 193, 327, 208
-0.99843, 137, 409, 200, 424
-0.998432, 281, 209, 312, 224
-0.998432, 1, 5, 64, 20
-0.998433, 297, 411, 327, 426
-0.998435, 125, 207, 156, 222
-0.998435, 261, 409, 292, 424
-0.998435, 81, 195, 112, 210
-0.998436, 41, 167, 72, 182
-0.998436, 157, 379, 188, 394
-0.998437, 297, 419, 327, 434
-0.998437, 161, 313, 192, 328
-0.998438, 1, 355, 32, 370
-0.998438, 297, 247, 327, 262
-0.998439, 125, 413, 156, 428
-0.99844, 1, 367, 32, 382
-0.998441, 121, 283, 152, 298
-0.998442, 197, 411, 228, 426
-0.998442, 1, 329, 327, 392
-0.998443, 93, 227, 124, 242
-0.998444, 1, 361, 32, 376
-0.998445, 1, 145, 32, 160
-0.998446, 1, 299, 32, 314
-0.998447, 1, 287, 32, 302
-0.998448, 81, 263, 112, 278
-0.998449, 137, 281, 168, 296
-0.998452, 177, 181, 208, 196
-0.998453, 1, 335, 32, 350
-0.998453, 105, 291, 136, 306
-0.998454, 1, 159, 32, 174
-0.998456, 105, 273, 168, 288
-0.998458, 1, 129, 32, 144
-0.998458, 1, 165, 32, 180
-0.998459, 1, 327, 32, 342
-0.998459, 265, 5, 327, 20
-0.998462, 1, 171, 32, 186
-0.998462, 109, 273, 140, 288
-0.998463, 157, 287, 188, 302
-0.998466, 1, 177, 32, 192
-0.998469, 133, 179, 164, 194
-0.998469, 177, 175, 208, 190
-0.99847, 117, 175, 148, 190
-0.998471, 129, 189, 160, 204
-0.998471, 241, 411, 272, 426
-0.998473, 41, 175, 104, 190
-0.998474, 1, 115, 32, 130
-0.998475, 241, 207, 272, 222
-0.99848, 189, 177, 220, 192
-0.99848, 157, 419, 188, 434
-0.998481, 81, 189, 112, 204
-0.998482, 125, 275, 156, 290
-0.998483, 97, 265, 160, 280
-0.998484, 1, 269, 32, 284
-0.998488, 113, 283, 176, 298
-0.998488, 1, 421, 32, 435
-0.998488, 117, 193, 148, 208
-0.998488, 277, 237, 308, 252
-0.998488, 169, 419, 200, 434
-0.99849, 1, 263, 32, 278
-0.99849, 1, 183, 32, 198
-0.998492, 1, 319, 32, 334
-0.998493, 1, 197, 32, 212
-0.998493, 77, 183, 108, 198
-0.998495, 1, 123, 32, 138
-0.998495, 161, 305, 192, 320
-0.998496, 65, 179, 128, 194
-0.998496, 89, 245, 152, 260
-0.998496, 65, 189, 128, 204
-0.998497, 1, 309, 32, 324
-0.998497, 105, 195, 136, 210
-0.998499, 1, 167, 64, 182
-0.998499, 1, 257, 32, 272
-0.9985, 1, 251, 32, 266
-0.998503, 1, 245, 32, 260
-0.998503, 109, 213, 140, 228
-0.998503, 93, 195, 124, 210
-0.998503, 297, 199, 327, 214
-0.998508, 121, 289, 184, 304
-0.998508, 1, 275, 32, 290
-0.998508, 1, 157, 64, 172
-0.998509, 125, 265, 156, 280
-0.99851, 1, 239, 32, 254
-0.99851, 145, 175, 208, 190
-0.998511, 61, 265, 92, 280
-0.998512, 1, 139, 32, 154
-0.998513, 81, 257, 112, 272
-0.998513, 137, 273, 168, 288
-0.998518, 89, 279, 120, 294
-0.998518, 1, 189, 32, 204
-0.998519, 1, 173, 64, 188
-0.99852, 1, 203, 32, 218
-0.998521, 65, 253, 128, 268
-0.998522, 1, 233, 32, 248
-0.998523, 1, 225, 32, 240
-0.998525, 249, 203, 312, 218
-0.998525, 289, 215, 320, 230
-0.998526, 265, 237, 327, 252
-0.998527, 1, 357, 64, 372
-0.998528, 1, 205, 64, 220
-0.998529, 249, 225, 312, 240
-0.99853, 133, 419, 164, 434
-0.998531, 81, 203, 144, 218
-0.998532, 1, 211, 32, 226
-0.998534, 1, 363, 64, 378
-0.998535, 97, 183, 128, 198
-0.998535, 265, 417, 327, 432
-0.998535, 1, 197, 64, 212
-0.998536, 101, 239, 132, 254
-0.998536, 121, 195, 184, 210
-0.998538, 1, 219, 32, 234
-0.99854, 249, 409, 312, 424
-0.99854, 97, 253, 160, 268
-0.99854, 169, 177, 232, 192
-0.99854, 105, 173, 168, 188
-0.998542, 81, 275, 144, 290
-0.998544, 97, 239, 160, 254
-0.998545, 165, 411, 196, 426
-0.998546, 57, 311, 88, 326
-0.998547, 109, 285, 140, 300
-0.998548, 1, 185, 64, 200
-0.99855, 69, 257, 100, 272
-0.99855, 1, 421, 64, 435
-0.998551, 185, 413, 216, 428
-0.998551, 285, 231, 316, 246
-0.998553, 73, 215, 136, 230
-0.998553, 265, 231, 327, 246
-0.998553, 149, 411, 180, 426
-0.998554, 177, 411, 240, 426
-0.998554, 1, 179, 64, 194
-0.998554, 129, 419, 192, 434
-0.998554, 1, 371, 64, 386
-0.998555, 145, 181, 208, 196
-0.998555, 97, 211, 160, 226
-0.998555, 41, 181, 104, 196
-0.998556, 265, 179, 327, 194
-0.998556, 65, 235, 128, 250
-0.998556, 65, 227, 128, 242
-0.998558, 113, 181, 176, 196
-0.998558, 249, 217, 312, 232
-0.998558, 1, 283, 64, 298
-0.998561, 145, 187, 208, 202
-0.998562, 1, 329, 64, 344
-0.998563, 41, 167, 104, 182
-0.998563, 105, 231, 168, 246
-0.998564, 57, 241, 120, 256
-0.998564, 89, 281, 152, 296
-0.998566, 121, 189, 184, 204
-0.998567, 311, 209, 326, 336
-0.998567, 177, 419, 240, 434
-0.998567, 97, 259, 160, 274
-0.998569, 145, 193, 208, 208
-0.99857, 65, 265, 128, 280
-0.99857, 117, 187, 148, 202
-0.99857, 297, 205, 327, 220
-0.99857, 109, 279, 140, 294
-0.99857, 121, 267, 184, 282
-0.998572, 297, 241, 327, 256
-0.998574, 1, 141, 64, 156
-0.998574, 73, 209, 136, 224
-0.998577, 297, 5, 327, 20
-0.998577, 1, 295, 64, 310
-0.998581, 117, 181, 148, 196
-0.998581, 65, 247, 128, 262
-0.998582, 41, 207, 104, 222
-0.998582, 1, 323, 64, 338
-0.998583, 105, 419, 168, 434
-0.998583, 33, 309, 160, 340
-0.998584, 265, 247, 327, 262
-0.998585, 145, 227, 208, 242
-0.998585, 1, 191, 64, 206
-0.998586, 201, 409, 264, 424
-0.998589, 81, 171, 144, 186
-0.998589, 1, 237, 64, 252
-0.99859, 265, 185, 327, 200
-0.99859, 129, 305, 192, 320
-0.998591, 1, 311, 64, 326
-0.998591, 1, 305, 64, 320
-0.998591, 97, 217, 160, 232
-0.998591, 1, 151, 64, 166
-0.998591, 41, 191, 104, 206
-0.998592, 201, 177, 264, 192
-0.998592, 1, 273, 64, 288
-0.998593, 169, 183, 232, 198
-0.998593, 129, 295, 192, 310
-0.998593, 1, 243, 64, 258
-0.998593, 193, 241, 320, 272
-0.998594, 89, 289, 152, 304
-0.998594, 1, 119, 64, 134
-0.998595, 1, 377, 64, 392
-0.998595, 101, 245, 132, 260
-0.998596, 81, 365, 208, 396
-0.998597, 105, 225, 168, 240
-0.998597, 41, 197, 104, 212
-0.998598, 153, 421, 216, 435
-0.998601, 177, 225, 240, 240
-0.998601, 1, 135, 64, 150
-0.998602, 137, 221, 200, 236
-0.998603, 121, 203, 184, 218
-0.998603, 289, 225, 320, 240
-0.998603, 249, 209, 312, 224
-0.998603, 137, 319, 200, 334
-0.998604, 41, 5, 104, 20
-0.998604, 169, 5, 232, 20
-0.998604, 193, 5, 256, 20
-0.998604, 217, 5, 280, 20
-0.998604, 241, 5, 304, 20
-0.998604, 137, 5, 200, 20
-0.998605, 41, 161, 104, 176
-0.998605, 97, 5, 160, 20
-0.998605, 1, 109, 64, 124
-0.998605, 93, 177, 124, 192
-0.998605, 1, 335, 64, 350
-0.998605, 41, 259, 104, 274
-0.998605, 225, 207, 288, 222
-0.998606, 73, 5, 136, 20
-0.998607, 1, 411, 64, 426
-0.998607, 107, 177, 122, 304
-0.998608, 57, 299, 120, 314
-0.998609, 97, 189, 128, 204
-0.998609, 1, 5, 32, 20
-0.99861, 1, 129, 64, 144
-0.99861, 41, 267, 104, 282
-0.99861, 1, 349, 64, 364
-0.99861, 201, 221, 264, 236
-0.99861, 265, 253, 327, 268
-0.998611, 33, 361, 96, 376
-0.998611, 265, 197, 327, 212
-0.998612, 153, 293, 184, 308
-0.998612, 1, 317, 64, 332
-0.998613, 161, 293, 224, 308
-0.998615, 177, 219, 240, 234
-0.998616, 1, 383, 64, 398
-0.998616, 265, 259, 327, 274
-0.998617, 177, 191, 240, 206
-0.998623, 33, 57, 160, 120
-0.99863, 93, 177, 108, 304
-0.99865, 137, 409, 168, 424
-0.998654, 297, 177, 312, 304
-0.998663, 297, 231, 327, 246
-0.998706, 99, 177, 114, 304
-0.998719, 49, 157, 176, 188
-0.998729, 81, 353, 208, 384
-0.998732, 257, 129, 288, 384
-0.998739, 113, 193, 128, 320
-0.998752, 3, 177, 18, 304
-0.998754, 61, 193, 92, 435
-0.998761, 303, 193, 318, 320
-0.998766, 73, 193, 88, 320
-0.998786, 121, 193, 136, 320
-0.998787, 153, 65, 184, 320
-0.99879, 1, 297, 128, 328
-0.99879, 85, 65, 116, 320
-0.998794, 127, 177, 142, 304
-0.99881, 105, 257, 120, 384
-0.998817, 311, 161, 326, 288
-0.998842, 25, 161, 56, 416
-0.998872, 97, 153, 224, 184
-0.998879, 3, 241, 18, 368
-0.998881, 121, 241, 136, 368
-0.998885, 55, 161, 70, 288
-0.998889, 165, 273, 180, 400
-0.998889, 297, 1, 327, 256
-0.998895, 3, 129, 18, 256
-0.998906, 113, 353, 176, 416
-0.998909, 117, 65, 148, 320
-0.99891, 143, 193, 158, 320
-0.998911, 81, 193, 96, 320
-0.998913, 173, 65, 204, 320
-0.998976, 177, 161, 208, 416
-0.998985, 111, 257, 126, 384
-0.998988, 291, 177, 306, 304
-0.99899, 99, 225, 114, 352
-0.998991, 169, 145, 184, 272
-0.998998, 137, 177, 152, 304
-0.999012, 133, 225, 148, 352
-0.999012, 289, 225, 304, 352
-0.999012, 163, 161, 178, 288
-0.999021, 177, 265, 304, 296
-0.999024, 119, 145, 134, 272
-0.999026, 297, 225, 312, 352
-0.999027, 177, 49, 304, 176
-0.999028, 167, 209, 182, 336
-0.999036, 157, 209, 172, 336
-0.999037, 17, 357, 144, 388
-0.999049, 61, 177, 76, 304
-0.999056, 279, 145, 294, 272
-0.999064, 3, 289, 18, 416
-0.999068, 193, 393, 320, 424
-0.999076, 129, 33, 256, 160
-0.999079, 143, 241, 158, 368
-0.999083, 69, 65, 100, 320
-0.999092, 127, 225, 142, 352
-0.999094, 105, 121, 168, 184
-0.999104, 303, 145, 318, 272
-0.999113, 113, 145, 128, 272
-0.999117, 149, 193, 164, 320
-0.99912, 81, 241, 96, 368
-0.999135, 177, 253, 304, 284
-0.999145, 281, 193, 296, 320
-0.999145, 61, 225, 76, 352
-0.999149, 179, 161, 194, 288
-0.999174, 87, 177, 102, 304
-0.999183, 81, 377, 208, 408
-0.999184, 149, 257, 164, 384
-0.999186, 107, 129, 122, 256
-0.999187, 63, 129, 78, 256
-0.999193, 311, 289, 326, 416
-0.999194, 311, 113, 326, 240
-0.999195, 175, 305, 190, 432
-0.999204, 3, 1, 18, 128
-0.999216, 55, 209, 70, 336
-0.99922, 159, 273, 174, 400
-0.999228, 99, 129, 114, 256
-0.99923, 49, 145, 64, 272
-0.999244, 3, 65, 18, 192
-0.999252, 15, 161, 30, 288
-0.999269, 203, 161, 218, 288
-0.999285, 145, 57, 272, 120
-0.999288, 173, 193, 188, 320
-0.9993, 15, 209, 30, 336
-0.999305, 75, 145, 90, 272
-0.999314, 23, 209, 38, 336
-0.999316, 73, 257, 88, 384
-0.999319, 241, 193, 272, 435
-0.99935, 67, 193, 82, 320
-0.99935, 81, 145, 96, 272
-0.999355, 311, 65, 326, 192
-0.999365, 171, 257, 186, 384
-0.999389, 81, 65, 208, 128
-0.999389, 193, 73, 320, 136
-0.99939, 291, 129, 306, 256
-0.999391, 9, 209, 24, 336
-0.999408, 119, 289, 134, 416
-0.99941, 13, 273, 28, 400
-0.999411, 157, 145, 172, 272
-0.999419, 49, 225, 64, 352
-0.99942, 177, 149, 304, 180
-0.999427, 25, 161, 40, 288
-0.999429, 91, 113, 106, 240
-0.99943, 93, 225, 108, 352
-0.999431, 67, 241, 82, 368
-0.999435, 17, 369, 144, 400
-0.999437, 311, 1, 326, 128
-0.999441, 193, 161, 208, 288
-0.999442, 79, 289, 94, 416
-0.999442, 69, 145, 84, 272
-0.999455, 21, 257, 36, 384
-0.999459, 147, 145, 162, 272
-0.999466, 285, 145, 300, 272
-0.999475, 235, 145, 250, 272
-0.999477, 129, 129, 144, 256
-0.999477, 303, 241, 318, 368
-0.99949, 275, 225, 290, 352
-0.999495, 177, 137, 304, 168
-0.999496, 25, 33, 88, 288
-0.999497, 113, 305, 128, 432
-0.999506, 33, 65, 96, 128
-0.99952, 25, 65, 56, 320
-0.999525, 245, 193, 260, 320
-0.999527, 15, 113, 30, 240
-0.999529, 163, 113, 178, 240
-0.999531, 237, 193, 252, 320
-0.999533, 39, 209, 54, 336
-0.99954, 91, 273, 106, 400
-0.999545, 127, 273, 142, 400
-0.999547, 297, 129, 312, 256
-0.999553, 33, 81, 288, 144
-0.999559, 55, 273, 70, 400
-0.999564, 273, 145, 288, 272
-0.999567, 33, 161, 48, 288
-0.999567, 225, 161, 256, 416
-0.999574, 57, 113, 72, 240
-0.999574, 137, 129, 152, 256
-0.999577, 251, 193, 266, 320
-0.999577, 49, 369, 176, 432
-0.999585, 43, 257, 58, 384
-0.999587, 37, 257, 52, 384
-0.999594, 9, 97, 24, 224
-0.999595, 49, 145, 176, 176
-0.999603, 179, 113, 194, 240
-0.999607, 65, 133, 192, 164
-0.999608, 177, 241, 192, 368
-0.999619, 185, 161, 200, 288
-0.99962, 61, 289, 76, 416
-0.999621, 27, 113, 42, 240
-0.999623, 3, 215, 18, 230
-0.999623, 3, 275, 18, 290
-0.999623, 287, 231, 302, 246
-0.999623, 115, 233, 130, 248
-0.999624, 63, 189, 78, 204
-0.999624, 5, 133, 20, 148
-0.999624, 123, 273, 138, 288
-0.999624, 157, 419, 172, 434
-0.999624, 109, 179, 124, 194
-0.999624, 297, 201, 312, 216
-0.999625, 27, 289, 42, 416
-0.999625, 247, 409, 262, 424
-0.999625, 311, 201, 326, 216
-0.999626, 123, 187, 138, 202
-0.999626, 107, 211, 122, 226
-0.999627, 3, 237, 18, 252
-0.999627, 303, 211, 318, 226
-0.999628, 171, 205, 186, 220
-0.999628, 179, 191, 194, 206
-0.999629, 193, 369, 320, 400
-0.99963, 293, 239, 308, 254
-0.99963, 55, 185, 70, 200
-0.99963, 163, 173, 178, 188
-0.99963, 171, 191, 186, 206
-0.99963, 3, 327, 18, 342
-0.999632, 161, 287, 176, 302
-0.999632, 301, 241, 316, 256
-0.999632, 99, 273, 114, 400
-0.999632, 285, 413, 300, 428
-0.999632, 177, 331, 192, 346
-0.999633, 109, 305, 124, 320
-0.999635, 3, 243, 18, 258
-0.999636, 3, 161, 18, 176
-0.999636, 133, 411, 148, 426
-0.999637, 3, 251, 18, 266
-0.999637, 185, 175, 200, 190
-0.999637, 153, 175, 168, 190
-0.999638, 103, 197, 118, 212
-0.999638, 253, 221, 268, 236
-0.999638, 259, 409, 274, 424
-0.999638, 243, 145, 258, 272
-0.999639, 115, 305, 130, 320
-0.999639, 175, 411, 190, 426
-0.99964, 233, 409, 248, 424
-0.99964, 179, 197, 194, 212
-0.99964, 291, 209, 306, 224
-0.999641, 159, 409, 174, 424
-0.999642, 167, 305, 182, 320
-0.999642, 55, 169, 70, 184
-0.999642, 179, 421, 194, 435
-0.999642, 105, 245, 120, 260
-0.999643, 3, 257, 18, 272
-0.999643, 3, 335, 18, 350
-0.999643, 181, 257, 212, 384
-0.999644, 311, 419, 326, 434
-0.999644, 171, 199, 186, 214
-0.999646, 227, 409, 242, 424
-0.999646, 139, 275, 154, 290
-0.999646, 107, 285, 122, 300
-0.999647, 3, 359, 18, 374
-0.999648, 3, 115, 18, 130
-0.999648, 3, 267, 18, 282
-0.999648, 43, 305, 58, 432
-0.999648, 203, 113, 218, 240
-0.999648, 247, 205, 262, 220
-0.999649, 165, 411, 180, 426
-0.999649, 173, 311, 188, 326
-0.999649, 49, 273, 64, 400
-0.999649, 175, 317, 190, 332
-0.999651, 311, 219, 326, 234
-0.999651, 147, 271, 162, 286
-0.999652, 75, 267, 90, 282
-0.999652, 297, 195, 312, 210
-0.999652, 133, 279, 148, 294
-0.999652, 201, 177, 216, 192
-0.999653, 3, 299, 18, 314
-0.999655, 95, 195, 110, 210
-0.999656, 143, 421, 158, 435
-0.999657, 109, 189, 124, 204
-0.999658, 3, 419, 18, 434
-0.999659, 199, 209, 214, 336
-0.999659, 179, 183, 194, 198
-0.99966, 33, 209, 48, 336
-0.999661, 97, 177, 112, 192
-0.999662, 3, 317, 18, 332
-0.999664, 3, 365, 18, 380
-0.999664, 5, 139, 20, 154
-0.999665, 159, 391, 174, 406
-0.99967, 167, 335, 182, 350
-0.999672, 193, 411, 208, 426
-0.999672, 299, 233, 314, 248
-0.999673, 221, 411, 236, 426
-0.999673, 3, 345, 18, 360
-0.999674, 103, 279, 118, 294
-0.999675, 269, 193, 284, 320
-0.99968, 113, 283, 128, 298
-0.999682, 251, 145, 266, 272
-0.999682, 3, 155, 18, 170
-0.999682, 109, 233, 124, 248
-0.999684, 129, 273, 144, 288
-0.999684, 175, 339, 190, 354
-0.999685, 311, 237, 326, 252
-0.999687, 3, 351, 18, 366
-0.99969, 117, 97, 132, 224
-0.999691, 105, 225, 120, 240
-0.999692, 145, 409, 160, 424
-0.999692, 149, 419, 164, 434
-0.999692, 171, 299, 186, 314
-0.999693, 285, 407, 300, 422
-0.999694, 117, 181, 132, 196
-0.999694, 133, 265, 148, 280
-0.999695, 229, 161, 244, 288
-0.999701, 179, 173, 194, 188
-0.999702, 311, 407, 326, 422
-0.999703, 311, 245, 326, 260
-0.999704, 55, 163, 70, 178
-0.999705, 113, 275, 128, 290
-0.999708, 159, 293, 174, 308
-0.999708, 141, 269, 156, 284
-0.999709, 3, 149, 18, 164
-0.999711, 75, 257, 90, 272
-0.999712, 311, 413, 326, 428
-0.999712, 85, 289, 100, 416
-0.999713, 85, 259, 100, 274
-0.999713, 291, 409, 306, 424
-0.999714, 199, 409, 214, 424
-0.999716, 167, 291, 182, 306
-0.999717, 183, 409, 198, 424
-0.999717, 117, 191, 132, 206
-0.999717, 311, 5, 326, 20
-0.999718, 303, 205, 318, 220
-0.999721, 9, 145, 24, 272
-0.999722, 253, 203, 268, 218
-0.999722, 97, 189, 112, 204
-0.999723, 205, 209, 220, 336
-0.999724, 43, 113, 58, 240
-0.999725, 91, 185, 106, 200
-0.999725, 123, 279, 138, 294
-0.999725, 209, 161, 224, 288
-0.999732, 139, 411, 154, 426
-0.999736, 59, 311, 74, 326
-0.999736, 301, 409, 316, 424
-0.999737, 95, 257, 110, 272
-0.99974, 3, 5, 18, 20
-0.999741, 173, 305, 188, 320
-0.999741, 153, 409, 168, 424
-0.999742, 67, 289, 82, 416
-0.999765, 129, 65, 160, 320
-0.999769, 107, 239, 122, 254
-0.999769, 193, 293, 320, 324
-0.999773, 13, 65, 44, 320
-0.999774, 309, 225, 324, 240
-0.999815, 311, 231, 326, 246
-0.999816, 1, 93, 128, 124
-0.999839, 17, 73, 144, 104
-0.999844, 237, 97, 268, 352
-0.999852, 177, 121, 304, 152
-0.999887, 189, 161, 220, 416
-0.999906, 37, 33, 68, 288
-0.999936, 1, 97, 327, 160
-0.99996, 129, 141, 256, 172
-0.999985, 225, 97, 288, 224
-0.999989, 193, 313, 320, 344
-1.00002, 65, 121, 192, 152
-1.00002, 193, 357, 320, 388
-1.00004, 161, 65, 192, 192
-1.00008, 225, 97, 288, 352
-1.00009, 185, 209, 216, 336
-1.00009, 209, 97, 240, 352
-1.00009, 177, 109, 304, 140
-1.00013, 201, 193, 232, 435
-1.00014, 257, 33, 288, 288
-1.00014, 129, 97, 256, 160
-1.00017, 65, 97, 128, 160
-1.00017, 129, 129, 256, 160
-1.0002, 189, 33, 220, 288
-1.00024, 193, 97, 320, 128
-1.00027, 33, 57, 288, 120
-1.00031, 1, 381, 128, 412
-1.00033, 161, 65, 288, 96
-1.00034, 193, 41, 320, 104
-1.00036, 65, 81, 192, 112
-1.00036, 81, 109, 208, 140
-1.00038, 129, 77, 256, 108
-1.0004, 129, 117, 256, 148
-1.00041, 57, 1, 88, 256
-1.00041, 49, 93, 176, 124
-1.00041, 209, 321, 272, 384
-1.00043, 141, 1, 172, 256
-1.00044, 193, 53, 320, 84
-1.00045, 49, 353, 112, 416
-1.00046, 81, 69, 208, 100
-1.00049, 97, 97, 224, 128
-1.00051, 53, 81, 84, 208
-1.00051, 17, 61, 144, 92
-1.00053, 1, 393, 128, 424
-1.00057, 1, 369, 327, 432
-1.00057, 161, 49, 224, 176
-1.00061, 193, 85, 320, 116
-1.00064, 221, 65, 252, 320
-1.00064, 145, 89, 272, 120
-1.00067, 81, 57, 208, 88
-1.00069, 193, 41, 320, 72
-1.00071, 277, 1, 308, 256
-1.00074, 65, 33, 320, 96
-1.00077, 193, 381, 320, 412
-1.00078, 241, 1, 272, 256
-1.00086, 17, 33, 144, 96
-1.00086, 209, 1, 240, 256
-1.00088, 245, 305, 276, 432
-1.0009, 17, 49, 144, 80
-1.00094, 169, 121, 232, 184
-1.00096, 145, 49, 272, 80
-1.00097, 177, 29, 304, 60
-1.00097, 241, 353, 304, 416
-1.001, 81, 45, 208, 76
-1.00102, 17, 37, 144, 68
-1.00103, 1, 17, 128, 48
-1.00104, 193, 13, 320, 44
-1.00106, 145, 17, 272, 48
-1.00106, 129, 37, 256, 68
-1.00107, 81, 1, 208, 128
-1.00107, 81, 41, 208, 104
-1.00107, 49, 21, 176, 52
-1.00107, 97, 21, 224, 52
-1.00107, 81, 33, 208, 64
-1.00108, 141, 305, 172, 432
-1.00109, 213, 193, 244, 435
-1.00127, 193, 1, 320, 128
-1.0015, 81, 81, 112, 208
-1.00154, 1, 57, 327, 120
-1.0016, 69, 81, 100, 208
-1.00162, 209, 193, 240, 320
-1.00175, 241, 305, 304, 432
-1.00175, 121, 81, 152, 208
-1.00185, 193, 353, 256, 416
-1.00193, 281, 65, 312, 192
-1.00202, 265, 273, 296, 400
-1.00203, 41, 65, 72, 192
-1.0021, 241, 257, 272, 384
-1.00224, 145, 33, 272, 96
-1.00225, 213, 113, 244, 240
-1.00228, 197, 97, 228, 224
-1.00232, 89, 89, 152, 152
-1.00237, 33, 1, 160, 128
-1.00239, 217, 369, 280, 432
-1.00248, 1, 33, 327, 96
-1.0026, 93, 65, 124, 192
-1.00284, 109, 65, 140, 192
-1.00285, 81, 65, 144, 128
-1.00288, 209, 297, 272, 360
-1.00292, 169, 1, 232, 128
-1.00294, 265, 81, 296, 208
-1.00301, 177, 65, 208, 192
-1.00306, 233, 1, 296, 256
-1.00312, 193, 305, 256, 432
-1.00315, 217, 305, 248, 432
-1.00319, 233, 97, 296, 160
-1.0032, 169, 65, 232, 128
-1.00324, 137, 73, 200, 136
-1.00336, 193, 105, 256, 168
-1.00364, 237, 97, 268, 224
-1.00367, 209, 257, 272, 384
-1.00368, 149, 65, 180, 192
-1.00369, 97, 33, 160, 160
-1.00392, 201, 65, 264, 192
-1.00396, 241, 73, 304, 136
-1.00399, 229, 305, 260, 432
-1.00401, 157, 1, 188, 128
-1.00411, 169, 17, 200, 144
-1.00426, 197, 241, 228, 368
-1.00441, 89, 369, 152, 432
-1.00443, 229, 257, 260, 384
-1.00453, 57, 65, 120, 128
-1.00455, 21, 33, 52, 160
-1.0046, 113, 65, 176, 128
-1.00464, 129, 1, 192, 128
-1.00475, 253, 81, 284, 208
-1.00486, 229, 1, 260, 128
-1.00488, 233, 49, 296, 112
-1.0049, 113, 89, 176, 152
-1.00501, 213, 65, 244, 192
-1.00508, 185, 1, 216, 128
-1.00509, 209, 81, 272, 144
-1.00513, 245, 1, 276, 128
-1.00519, 145, 17, 176, 144
-1.00523, 225, 1, 288, 128
-1.00524, 65, 49, 128, 176
-1.00527, 137, 97, 200, 160
-1.00531, 205, 1, 236, 128
-1.00535, 81, 33, 112, 160
-1.00535, 213, 241, 244, 368
-1.00536, 225, 97, 256, 224
-1.00539, 241, 305, 304, 368
-1.00548, 37, 17, 68, 144
-1.00548, 217, 1, 248, 128
-1.00572, 201, 305, 232, 432
-1.00575, 133, 49, 164, 176
-1.00576, 209, 57, 272, 120
-1.00588, 121, 33, 152, 160
-1.00588, 269, 1, 300, 128
-1.00597, 225, 49, 256, 176
-1.00604, 257, 1, 288, 128
-1.00612, 241, 49, 304, 176
-1.00627, 201, 1, 264, 128
-1.00628, 189, 305, 220, 432
-1.00634, 93, 1, 124, 128
-1.0064, 237, 49, 268, 176
-1.00647, 281, 1, 312, 128
-1.00656, 189, 49, 220, 176
-1.00672, 65, 33, 96, 160
-1.0074, 33, 17, 96, 144
-1.00987, 65, 1, 128, 128
