1958
-0.359885, 1, 1, 500, 386
-0.459206, 1, 97, 500, 352
-0.511486, 1, 1, 500, 256
-0.525674, 193, 1, 448, 386
-0.552681, 97, 1, 352, 386
-0.595735, 1, 1, 256, 386
-0.605551, 257, 97, 500, 352
-0.631492, 161, 97, 416, 352
-0.672086, 65, 33, 320, 288
-0.689748, 193, 1, 448, 256
-0.785538, 65, 129, 320, 384
-0.846988, 337, 97, 464, 352
-0.851312, 49, 1, 176, 386
-0.865981, 161, 1, 288, 386
-0.868366, 1, 1, 128, 386
-0.870335, 209, 1, 336, 386
-0.870773, 177, 65, 304, 320
-0.870857, 33, 33, 160, 288
-0.877054, 241, 97, 368, 352
-0.88339, 1, 65, 500, 192
-0.88424, 257, 1, 384, 256
-0.885173, 97, 1, 224, 386
-0.889369, 353, 1, 480, 386
-0.893318, 289, 97, 416, 352
-0.898528, 81, 65, 208, 320
-0.903533, 257, 1, 384, 386
-0.907646, 129, 33, 256, 288
-0.908535, 305, 1, 432, 386
-0.910652, 1, 1, 500, 128
-0.911591, 1, 209, 500, 336
-0.91458, 305, 1, 432, 256
-0.917024, 33, 129, 160, 384
-0.920476, 129, 193, 384, 320
-0.922014, 33, 65, 288, 192
-0.930412, 1, 113, 500, 240
-0.930561, 369, 1, 496, 256
-0.930991, 1, 257, 500, 384
-0.932204, 1, 161, 500, 288
-0.936168, 129, 129, 256, 384
-0.936872, 193, 113, 448, 240
-0.937255, 161, 33, 416, 160
-0.937806, 41, 33, 104, 160
-0.938063, 17, 33, 144, 160
-0.938228, 65, 33, 128, 160
-0.938769, 65, 1, 320, 128
-0.93921, 145, 193, 272, 320
-0.940697, 225, 209, 352, 336
-0.942315, 257, 161, 500, 288
-0.945027, 97, 33, 224, 160
-0.945391, 225, 257, 352, 384
-0.946777, 193, 241, 448, 368
-0.947167, 193, 193, 256, 320
-0.947391, 169, 209, 232, 336
-0.948166, 137, 193, 200, 320
-0.948364, 33, 209, 288, 336
-0.948457, 297, 209, 360, 336
-0.949444, 9, 33, 72, 160
-0.94991, 137, 33, 200, 160
-0.950242, 233, 241, 296, 368
-0.95038, 17, 81, 144, 208
-0.950662, 177, 49, 304, 176
-0.951308, 217, 65, 280, 192
-0.951378, 89, 81, 152, 208
-0.951595, 161, 49, 224, 176
-0.952469, 305, 113, 368, 240
-0.953032, 265, 129, 328, 256
-0.953758, 257, 65, 500, 192
-0.955285, 169, 161, 232, 288
-0.955556, 105, 33, 168, 160
-0.956306, 209, 113, 336, 240
-0.956771, 185, 65, 248, 192
-0.957007, 81, 193, 208, 320
-0.95741, 65, 81, 128, 208
-0.95765, 65, 145, 320, 272
-0.957872, 217, 1, 280, 128
-0.958084, 177, 1, 240, 128
-0.958114, 209, 161, 336, 288
-0.958476, 249, 49, 312, 176
-0.958574, 289, 161, 416, 288
-0.958762, 161, 97, 288, 224
-0.95878, 145, 241, 272, 368
-0.959165, 97, 81, 224, 208
-0.959231, 161, 217, 224, 280
-0.95936, 385, 81, 448, 208
-0.959426, 297, 161, 360, 288
-0.959682, 273, 193, 336, 320
-0.959691, 321, 225, 448, 352
-0.95974, 97, 257, 352, 384
-0.959747, 161, 1, 288, 128
-0.959992, 417, 129, 480, 256
-0.960009, 17, 81, 80, 208
-0.960019, 353, 113, 480, 240
-0.96007, 345, 81, 408, 208
-0.960234, 153, 89, 216, 152
-0.960338, 305, 113, 432, 240
-0.960496, 241, 113, 304, 240
-0.960618, 113, 81, 176, 208
-0.960709, 81, 81, 144, 144
-0.960716, 169, 65, 232, 128
-0.961411, 321, 161, 384, 288
-0.961836, 217, 113, 280, 240
-0.961849, 217, 193, 280, 320
-0.962156, 193, 201, 256, 264
-0.962241, 145, 145, 208, 272
-0.962722, 265, 209, 328, 272
-0.96278, 273, 209, 400, 336
-0.962808, 81, 1, 144, 64
-0.962833, 217, 281, 280, 344
-0.96303, 41, 97, 104, 224
-0.964066, 113, 161, 176, 288
-0.964417, 257, 113, 384, 240
-0.964623, 409, 105, 472, 168
-0.964687, 41, 41, 104, 104
-0.964802, 41, 17, 104, 80
-0.965037, 65, 25, 128, 88
-0.965274, 161, 97, 224, 224
-0.965547, 273, 185, 336, 248
-0.965557, 177, 89, 240, 152
-0.965822, 241, 281, 304, 344
-0.965944, 129, 145, 256, 272
-0.966262, 257, 17, 500, 144
-0.966329, 233, 201, 296, 264
-0.966454, 249, 193, 312, 320
-0.966497, 289, 297, 352, 360
-0.966625, 137, 81, 200, 208
-0.966712, 201, 73, 264, 136
-0.966911, 81, 57, 144, 120
-0.966969, 113, 49, 176, 112
-0.967154, 193, 113, 256, 240
-0.967455, 337, 65, 464, 192
-0.967457, 321, 225, 384, 352
-0.967489, 305, 225, 368, 288
-0.967903, 313, 121, 376, 184
-0.968005, 281, 257, 344, 384
-0.968055, 337, 177, 464, 304
-0.968283, 425, 129, 488, 192
-0.968654, 241, 33, 368, 160
-0.968658, 17, 129, 144, 256
-0.968704, 153, 193, 216, 256
-0.968886, 105, 89, 168, 152
-0.969245, 9, 49, 72, 112
-0.969517, 401, 193, 464, 320
-0.969529, 249, 1, 312, 128
-0.969819, 273, 257, 400, 384
-0.970016, 193, 257, 256, 384
-0.970425, 89, 33, 152, 96
-0.970614, 1, 81, 64, 144
-0.970672, 197, 65, 228, 128
-0.970921, 113, 209, 176, 336
-0.970935, 137, 17, 200, 80
-0.971035, 41, 81, 104, 144
-0.971081, 49, 113, 112, 176
-0.971166, 145, 241, 208, 368
-0.971174, 177, 113, 240, 176
-0.971424, 137, 225, 200, 288
-0.971471, 193, 257, 256, 320
-0.97156, 209, 97, 272, 160
-0.971606, 105, 9, 168, 72
-0.971652, 273, 81, 336, 208
-0.971783, 81, 145, 208, 272
-0.971941, 369, 201, 432, 264
-0.971994, 113, 73, 240, 136
-0.972175, 1, 177, 128, 304
-0.972213, 297, 177, 360, 240
-0.972327, 17, 1, 80, 64
-0.97268, 193, 209, 320, 272
-0.972766, 289, 121, 352, 184
-0.972766, 329, 193, 392, 256
-0.972841, 377, 161, 440, 288
-0.972862, 97, 241, 224, 368
-0.97298, 353, 89, 416, 152
-0.973007, 257, 241, 320, 368
-0.97318, 265, 137, 328, 200
-0.973285, 1, 25, 64, 88
-0.97332, 209, 177, 272, 240
-0.973558, 9, 121, 72, 184
-0.97357, 241, 177, 304, 240
-0.973838, 201, 49, 264, 112
-0.973845, 145, 49, 208, 112
-0.973895, 177, 49, 208, 176
-0.973966, 337, 113, 400, 176
-0.974224, 169, 41, 232, 104
-0.974255, 109, 41, 140, 104
-0.974535, 57, 33, 120, 288
-0.974721, 345, 193, 408, 320
-0.974797, 377, 121, 440, 184
-0.974801, 345, 217, 408, 280
-0.974841, 169, 9, 232, 72
-0.974896, 289, 65, 416, 192
-0.97503, 257, 65, 320, 320
-0.975044, 129, 193, 192, 256
-0.975048, 1, 257, 256, 384
-0.975069, 321, 65, 384, 192
-0.975127, 177, 169, 240, 232
-0.975295, 97, 33, 128, 160
-0.975306, 273, 161, 336, 224
-0.975309, 289, 97, 352, 352
-0.975343, 145, 209, 272, 272
-0.975357, 109, 1, 140, 128
-0.975369, 113, 1, 176, 256
-0.975379, 177, 281, 240, 344
-0.975475, 313, 97, 376, 160
-0.975641, 81, 209, 144, 336
-0.975689, 409, 217, 472, 280
-0.975734, 273, 33, 336, 160
-0.975744, 81, 113, 144, 176
-0.975953, 409, 49, 472, 176
-0.975988, 157, 193, 188, 320
-0.976007, 33, 41, 160, 104
-0.976009, 345, 145, 408, 272
-0.976147, 161, 81, 288, 144
-0.976235, 33, 73, 160, 136
-0.976269, 241, 25, 304, 88
-0.976398, 177, 217, 208, 280
-0.976458, 249, 113, 312, 176
-0.976498, 401, 97, 464, 352
-0.976515, 209, 289, 336, 352
-0.976579, 209, 1, 272, 256
-0.976669, 81, 49, 112, 176
-0.976846, 225, 185, 352, 248
-0.976863, 89, 129, 152, 256
-0.97694, 185, 137, 248, 200
-0.977004, 289, 273, 352, 336
-0.977032, 49, 33, 80, 160
-0.977098, 169, 1, 232, 256
-0.977101, 169, 209, 200, 336
-0.977154, 233, 305, 296, 368
-0.977171, 297, 49, 360, 176
-0.977228, 265, 305, 328, 368
-0.977243, 297, 201, 360, 264
-0.977269, 209, 81, 240, 144
-0.97728, 81, 33, 144, 288
-0.977378, 289, 113, 416, 176
-0.977395, 89, 49, 120, 112
-0.97742, 61, 25, 92, 88
-0.977457, 321, 297, 384, 360
-0.977457, 237, 289, 268, 352
-0.977462, 129, 73, 192, 136
-0.977464, 205, 49, 236, 176
-0.977511, 77, 1, 108, 128
-0.977518, 225, 121, 288, 184
-0.977533, 153, 169, 216, 232
-0.977546, 177, 57, 304, 120
-0.977556, 65, 33, 96, 160
-0.977612, 245, 193, 276, 320
-0.977623, 305, 153, 368, 216
-0.977629, 33, 225, 160, 352
-0.977672, 217, 25, 280, 88
-0.97772, 337, 113, 464, 176
-0.977738, 185, 193, 216, 320
-0.97774, 249, 257, 312, 320
-0.977753, 105, 113, 168, 176
-0.977762, 193, 25, 256, 88
-0.977781, 145, 249, 208, 312
-0.977873, 33, 97, 160, 160
-0.977878, 425, 177, 488, 304
-0.97806, 65, 129, 128, 256
-0.978197, 193, 81, 224, 208
-0.978224, 33, 33, 96, 288
-0.9783, 329, 161, 392, 224
-0.978311, 369, 225, 496, 352
-0.978411, 433, 105, 496, 168
-0.978437, 145, 1, 208, 256
-0.978522, 25, 209, 88, 336
-0.978532, 217, 257, 280, 320
-0.97864, 265, 201, 296, 264
-0.978646, 369, 177, 432, 240
-0.978668, 377, 97, 440, 160
-0.978741, 201, 97, 264, 352
-0.978783, 177, 81, 208, 144
-0.978789, 97, 97, 224, 160
-0.978803, 93, 25, 124, 88
-0.978816, 329, 113, 360, 240
-0.978928, 265, 1, 328, 64
-0.978974, 241, 1, 304, 64
-0.979028, 313, 97, 376, 352
-0.979042, 233, 89, 296, 152
-0.979129, 245, 241, 276, 368
-0.979135, 17, 1, 144, 64
-0.97916, 393, 161, 456, 224
-0.979186, 241, 209, 368, 272
-0.979186, 361, 33, 424, 160
-0.979458, 433, 97, 496, 352
-0.97951, 81, 49, 208, 112
-0.979516, 61, 1, 92, 64
-0.979579, 281, 209, 312, 272
-0.979606, 169, 257, 232, 384
-0.979617, 433, 201, 496, 264
-0.97962, 97, 73, 128, 136
-0.979632, 361, 153, 424, 216
-0.979649, 265, 41, 328, 104
-0.979649, 189, 105, 220, 168
-0.979718, 177, 185, 304, 248
-0.979733, 309, 113, 340, 240
-0.97979, 337, 65, 400, 320
-0.979805, 5, 65, 36, 192
-0.979811, 237, 201, 268, 264
-0.979861, 225, 65, 288, 128
-0.979862, 233, 33, 296, 288
-0.97987, 81, 17, 112, 80
-0.979968, 57, 225, 120, 352
-0.980016, 305, 201, 432, 264
-0.980019, 1, 209, 64, 336
-0.980116, 1, 33, 64, 288
-0.980198, 49, 1, 80, 64
-0.9803, 21, 33, 52, 160
-0.980577, 297, 321, 360, 384
-0.980602, 337, 121, 368, 184
-0.980629, 177, 97, 240, 352
-0.980658, 433, 65, 496, 192
-0.980739, 241, 145, 304, 208
-0.980801, 241, 313, 368, 376
-0.980853, 265, 281, 328, 344
-0.98087, 73, 49, 104, 112
-0.980904, 185, 1, 216, 128
-0.980918, 321, 225, 352, 288
-0.981004, 225, 289, 256, 352
-0.981069, 305, 193, 336, 256
-0.981212, 201, 177, 232, 304
-0.981218, 377, 65, 440, 320
-0.981284, 209, 201, 240, 264
-0.981329, 229, 209, 260, 336
-0.981421, 433, 225, 496, 352
-0.981429, 209, 57, 240, 120
-0.981485, 257, 289, 384, 352
-0.981511, 233, 257, 264, 384
-0.981518, 349, 121, 380, 184
-0.981581, 129, 97, 192, 352
-0.981625, 105, 81, 136, 208
-0.981753, 73, 113, 104, 176
-0.981802, 93, 81, 124, 208
-0.981832, 457, 129, 488, 256
-0.981842, 321, 113, 352, 176
-0.981842, 177, 113, 304, 176
-0.981891, 37, 33, 68, 160
-0.98197, 273, 177, 400, 240
-0.981982, 185, 233, 248, 296
-0.982005, 165, 217, 196, 280
-0.98201, 217, 1, 280, 64
-0.982048, 193, 305, 256, 368
-0.982153, 221, 185, 252, 248
-0.98218, 325, 209, 356, 336
-0.98218, 169, 1, 232, 386
-0.982244, 169, 145, 200, 272
-0.982272, 225, 113, 352, 176
-0.98231, 249, 65, 312, 128
-0.982354, 345, 97, 376, 160
-0.982359, 393, 193, 456, 256
-0.982422, 261, 49, 292, 176
-0.982422, 49, 1, 112, 386
-0.982605, 217, 193, 248, 320
-0.98261, 249, 201, 280, 264
-0.982653, 309, 161, 340, 288
-0.982673, 161, 281, 288, 344
-0.982703, 305, 1, 368, 256
-0.982753, 253, 113, 284, 240
-0.98277, 425, 153, 488, 216
-0.982776, 249, 281, 280, 344
-0.982793, 257, 89, 384, 152
-0.982818, 325, 297, 356, 360
-0.982903, 129, 49, 160, 176
-0.983004, 441, 129, 472, 192
-0.983027, 109, 1, 140, 64
-0.983042, 105, 1, 168, 386
-0.983165, 233, 161, 264, 288
-0.983173, 281, 1, 344, 256
-0.983199, 221, 57, 252, 120
-0.983204, 93, 1, 124, 64
-0.983206, 85, 73, 116, 136
-0.983238, 129, 105, 192, 168
-0.983244, 445, 113, 476, 240
-0.983251, 297, 129, 328, 256
-0.983318, 17, 129, 80, 256
-0.98334, 61, 81, 92, 144
-0.983395, 209, 81, 336, 144
-0.983446, 225, 161, 352, 224
-0.983537, 81, 1, 208, 64
-0.983555, 161, 9, 288, 72
-0.983562, 309, 217, 340, 280
-0.983588, 109, 89, 140, 152
-0.983658, 213, 113, 244, 240
-0.98367, 329, 273, 392, 336
-0.983712, 265, 113, 296, 240
-0.983729, 45, 49, 76, 112
-0.983743, 241, 265, 368, 328
-0.983751, 1, 209, 64, 272
-0.983761, 281, 209, 312, 336
-0.983809, 113, 217, 176, 280
-0.983862, 197, 209, 228, 272
-0.983877, 401, 129, 464, 192
-0.983921, 337, 89, 464, 152
-0.983922, 145, 193, 176, 320
-0.983942, 193, 1, 256, 64
-0.983976, 273, 97, 336, 160
-0.983992, 97, 225, 224, 288
-0.984005, 225, 1, 256, 128
-0.984006, 273, 137, 400, 200
-0.984043, 145, 209, 176, 272
-0.984045, 165, 241, 196, 304
-0.984065, 81, 97, 112, 224
-0.984073, 145, 145, 208, 208
-0.984079, 309, 121, 340, 184
-0.984089, 161, 193, 192, 256
-0.984152, 433, 177, 496, 240
-0.984163, 153, 97, 216, 352
-0.984168, 29, 113, 60, 240
-0.984215, 193, 33, 320, 96
-0.984233, 369, 225, 432, 288
-0.98424, 73, 225, 136, 288
-0.984321, 293, 201, 324, 264
-0.984336, 41, 81, 72, 208
-0.984356, 69, 97, 100, 224
-0.984369, 273, 233, 336, 296
-0.984453, 197, 41, 228, 104
-0.984455, 137, 1, 200, 386
-0.984546, 241, 233, 368, 296
-0.984558, 37, 81, 68, 144
-0.984562, 225, 129, 288, 384
-0.984609, 385, 73, 448, 136
-0.984624, 225, 209, 256, 272
-0.98464, 73, 1, 136, 386
-0.984654, 41, 145, 104, 272
-0.98467, 25, 1, 88, 386
-0.984683, 113, 185, 240, 248
-0.984723, 129, 41, 160, 104
-0.984724, 369, 209, 496, 272
-0.984725, 89, 201, 152, 264
-0.984794, 201, 105, 232, 168
-0.984828, 257, 209, 288, 336
-0.984854, 13, 41, 44, 104
-0.984919, 233, 49, 264, 176
-0.984931, 253, 57, 284, 120
-0.984941, 221, 65, 252, 192
-0.984977, 17, 121, 144, 184
-0.984986, 277, 113, 308, 240
-0.985015, 177, 57, 208, 120
-0.985093, 321, 161, 352, 288
-0.985151, 73, 129, 136, 384
-0.985208, 345, 97, 376, 224
-0.985244, 113, 25, 240, 88
-0.985275, 1, 1, 32, 64
-0.985283, 177, 193, 208, 256
-0.985322, 161, 241, 288, 304
-0.985391, 241, 177, 272, 240
-0.985398, 129, 49, 256, 112
-0.985499, 369, 137, 496, 200
-0.985562, 153, 113, 216, 176
-0.985579, 321, 169, 352, 232
-0.985597, 153, 273, 216, 336
-0.985613, 21, 113, 52, 176
-0.985716, 217, 145, 280, 208
-0.985738, 57, 81, 88, 208
-0.985758, 17, 113, 48, 240
-0.98576, 5, 121, 36, 184
-0.985804, 241, 65, 272, 128
-0.985832, 125, 1, 156, 128
-0.985869, 225, 225, 288, 288
-0.985967, 5, 113, 36, 240
-0.98599, 329, 241, 392, 304
-0.98599, 241, 49, 368, 112
-0.985998, 329, 201, 360, 264
-0.98601, 361, 113, 392, 176
-0.986024, 357, 113, 388, 240
-0.986034, 265, 121, 296, 184
-0.98619, 261, 169, 292, 232
-0.986203, 17, 129, 80, 384
-0.98621, 269, 225, 300, 352
-0.986219, 157, 17, 188, 144
-0.986232, 197, 1, 228, 128
-0.986313, 293, 193, 324, 320
-0.986316, 277, 305, 308, 368
-0.986321, 321, 137, 448, 200
-0.986345, 213, 1, 244, 128
-0.986371, 237, 257, 268, 320
-0.98639, 385, 209, 416, 272
-0.986409, 201, 129, 232, 256
-0.986417, 201, 1, 264, 386
-0.986455, 89, 121, 120, 184
-0.986482, 277, 169, 308, 232
-0.9865, 65, 201, 128, 264
-0.986517, 57, 121, 88, 184
-0.986565, 385, 33, 448, 160
-0.986573, 189, 129, 220, 256
-0.986582, 249, 65, 280, 192
-0.98662, 61, 49, 92, 112
-0.986666, 265, 161, 296, 288
-0.986671, 209, 33, 240, 96
-0.98673, 117, 81, 148, 208
-0.986734, 193, 313, 320, 376
-0.986814, 453, 129, 484, 192
-0.986821, 33, 113, 64, 176
-0.986847, 41, 129, 104, 384
-0.986895, 21, 1, 52, 64
-0.986951, 185, 33, 216, 96
-0.986964, 273, 41, 304, 104
-0.986999, 265, 289, 296, 352
-0.986999, 337, 225, 368, 352
-0.98701, 33, 209, 96, 272
-0.987022, 317, 193, 348, 256
-0.987032, 5, 81, 36, 144
-0.987068, 389, 113, 420, 240
-0.987075, 253, 17, 284, 80
-0.987075, 41, 25, 72, 88
-0.98709, 81, 121, 208, 184
-0.987108, 417, 81, 480, 144
-0.987111, 1, 1, 64, 386
-0.987119, 369, 169, 496, 232
-0.987138, 29, 41, 60, 104
-0.987144, 393, 121, 424, 184
-0.987158, 337, 137, 400, 200
-0.987163, 429, 129, 460, 192
-0.987256, 217, 241, 248, 368
-0.987293, 369, 209, 432, 336
-0.9873, 253, 121, 284, 184
-0.987319, 469, 113, 500, 240
-0.987337, 165, 65, 196, 192
-0.98736, 225, 1, 256, 64
-0.987414, 309, 209, 340, 336
-0.98743, 49, 81, 80, 144
-0.987434, 305, 313, 432, 376
-0.987438, 1, 41, 32, 104
-0.987467, 193, 1, 224, 64
-0.987527, 205, 1, 236, 64
-0.987527, 289, 177, 320, 240
-0.987548, 333, 233, 364, 296
-0.987571, 193, 185, 224, 248
-0.987637, 105, 177, 168, 240
-0.987637, 257, 89, 288, 152
-0.987692, 289, 225, 416, 288
-0.987747, 65, 201, 192, 264
-0.987766, 365, 201, 396, 264
-0.987769, 313, 73, 376, 136
-0.987774, 129, 65, 160, 128
-0.98796, 297, 289, 328, 352
-0.987968, 321, 321, 384, 384
-0.987984, 225, 1, 288, 386
-0.987992, 109, 113, 140, 176
-0.988053, 1, 225, 128, 288
-0.988137, 233, 113, 264, 240
-0.988166, 241, 25, 368, 88
-0.988188, 221, 81, 252, 144
-0.988257, 181, 1, 212, 64
-0.98827, 105, 129, 136, 256
-0.988309, 257, 257, 288, 384
-0.988331, 401, 185, 432, 248
-0.988341, 273, 65, 304, 192
-0.988344, 417, 97, 448, 160
-0.988367, 433, 225, 496, 288
-0.988371, 141, 145, 172, 272
-0.988374, 393, 241, 456, 304
-0.988482, 409, 1, 472, 256
-0.988491, 177, 241, 208, 304
-0.988501, 225, 257, 256, 320
-0.98852, 277, 281, 308, 344
-0.98859, 345, 241, 408, 368
-0.98859, 189, 233, 220, 296
-0.988613, 333, 97, 364, 160
-0.988627, 281, 161, 312, 288
-0.988666, 321, 177, 448, 240
-0.988673, 121, 17, 152, 80
-0.988673, 245, 89, 276, 152
-0.988676, 133, 89, 164, 152
-0.988676, 153, 233, 184, 296
-0.988706, 305, 281, 432, 344
-0.988751, 341, 161, 372, 288
-0.988773, 373, 65, 404, 192
-0.988777, 341, 193, 372, 256
-0.988798, 457, 201, 488, 264
-0.988825, 345, 1, 408, 386
-0.988855, 121, 89, 152, 152
-0.988862, 165, 81, 196, 144
-0.988893, 105, 97, 168, 352
-0.988902, 337, 241, 464, 304
-0.988918, 469, 145, 500, 208
-0.988937, 285, 121, 316, 184
-0.988949, 193, 209, 256, 240
-0.98897, 73, 137, 136, 200
-0.989114, 433, 113, 464, 240
-0.989145, 357, 81, 388, 144
-0.989199, 177, 93, 240, 124
-0.989231, 269, 1, 300, 64
-0.989245, 33, 233, 96, 296
-0.989267, 461, 193, 492, 320
-0.989287, 321, 17, 448, 144
-0.989326, 221, 313, 252, 376
-0.989415, 253, 1, 284, 128
-0.989422, 245, 321, 276, 384
-0.989454, 17, 201, 144, 264
-0.989461, 349, 153, 380, 216
-0.9895, 289, 1, 352, 386
-0.989501, 169, 1, 200, 128
-0.989514, 417, 1, 480, 386
-0.989523, 233, 25, 264, 88
-0.989525, 265, 313, 296, 376
-0.989536, 145, 1, 176, 128
-0.989576, 241, 1, 272, 128
-0.989581, 17, 81, 48, 144
-0.989595, 405, 81, 436, 208
-0.989637, 57, 45, 120, 76
-0.98966, 169, 217, 232, 248
-0.989662, 141, 49, 172, 176
-0.989663, 113, 281, 240, 344
-0.989667, 157, 145, 188, 272
-0.989677, 161, 81, 224, 112
-0.989683, 257, 1, 320, 386
-0.989684, 393, 1, 456, 386
-0.989726, 137, 101, 200, 132
-0.989753, 209, 137, 336, 200
-0.989772, 113, 101, 176, 132
-0.989782, 345, 217, 376, 280
-0.989796, 97, 249, 224, 312
-0.989852, 97, 33, 160, 64
-0.989893, 97, 177, 128, 304
-0.989926, 65, 77, 128, 108
-0.989933, 417, 113, 448, 240
-0.989936, 153, 205, 216, 236
-0.989943, 177, 109, 240, 140
-0.989999, 161, 229, 224, 260
-0.990013, 121, 81, 184, 112
-0.990017, 297, 1, 360, 128
-0.990025, 65, 81, 320, 144
-0.990086, 129, 121, 256, 184
-0.990111, 81, 101, 144, 132
-0.990111, 225, 1, 352, 64
-0.990138, 217, 289, 280, 320
-0.990185, 145, 161, 272, 224
-0.990215, 25, 1, 88, 32
-0.990235, 145, 321, 272, 384
-0.990253, 393, 241, 456, 368
-0.990324, 273, 217, 336, 248
-0.990331, 161, 209, 416, 272
-0.990343, 49, 9, 112, 40
-0.990344, 97, 45, 160, 76
-0.990352, 233, 197, 296, 228
-0.990357, 81, 113, 144, 144
-0.990371, 33, 41, 96, 72
-0.990384, 81, 17, 144, 48
-0.990436, 169, 257, 200, 384
-0.990455, 49, 225, 176, 288
-0.990459, 425, 161, 456, 288
-0.990487, 305, 225, 368, 256
-0.990511, 49, 29, 112, 60
-0.990521, 153, 113, 216, 144
-0.99054, 129, 217, 192, 248
-0.990543, 177, 69, 240, 100
-0.990543, 313, 121, 376, 152
-0.990589, 209, 89, 272, 120
-0.990601, 353, 113, 416, 144
-0.990671, 113, 209, 144, 336
-0.990691, 25, 121, 88, 152
-0.990692, 265, 201, 328, 232
-0.990694, 81, 5, 144, 36
-0.990699, 25, 21, 88, 52
-0.990743, 205, 225, 236, 352
-0.990761, 249, 213, 312, 244
-0.990772, 465, 65, 496, 192
-0.990776, 345, 225, 408, 256
-0.990798, 113, 113, 176, 144
-0.990799, 17, 177, 48, 304
-0.990801, 33, 61, 96, 92
-0.990823, 49, 113, 112, 144
-0.99083, 289, 165, 352, 196
-0.990849, 289, 121, 352, 152
-0.990856, 445, 161, 476, 288
-0.99088, 137, 229, 200, 260
-0.990905, 389, 65, 420, 192
-0.990928, 97, 89, 160, 120
-0.990935, 93, 129, 124, 256
-0.990939, 281, 313, 344, 344
-0.990984, 273, 145, 336, 176
-0.991005, 265, 173, 328, 204
-0.991022, 209, 197, 272, 228
-0.991068, 121, 69, 184, 100
-0.991081, 325, 257, 356, 384
-0.991103, 201, 61, 264, 92
-0.991109, 217, 301, 280, 332
-0.99111, 89, 125, 152, 156
-0.991112, 65, 57, 128, 88
-0.991115, 193, 241, 224, 368
-0.991121, 9, 1, 40, 128
-0.99113, 285, 65, 316, 192
-0.991131, 265, 185, 328, 216
-0.991134, 321, 157, 384, 188
-0.991142, 289, 257, 416, 320
-0.991144, 169, 13, 232, 44
-0.991148, 193, 121, 256, 152
-0.991149, 65, 89, 128, 120
-0.991151, 193, 221, 256, 252
-0.99117, 105, 1, 168, 32
-0.991174, 409, 117, 472, 148
-0.991181, 185, 81, 248, 112
-0.991184, 177, 281, 240, 312
-0.991187, 309, 65, 340, 192
-0.991211, 137, 13, 200, 44
-0.991228, 137, 45, 200, 76
-0.991232, 393, 129, 456, 160
-0.991233, 225, 213, 288, 244
-0.991233, 1, 1, 64, 32
-0.991233, 185, 193, 248, 224
-0.991248, 289, 301, 352, 332
-0.991269, 217, 105, 280, 136
-0.991269, 297, 145, 360, 176
-0.991271, 33, 77, 96, 108
-0.991272, 305, 181, 368, 212
-0.991284, 313, 205, 376, 236
-0.991288, 289, 277, 352, 308
-0.991306, 249, 285, 312, 316
-0.991318, 133, 193, 164, 320
-0.991327, 385, 209, 448, 240
-0.991373, 209, 277, 272, 308
-0.991412, 1, 21, 64, 52
-0.991426, 9, 37, 72, 68
-0.991431, 385, 105, 448, 136
-0.991446, 89, 77, 152, 108
-0.991448, 97, 145, 224, 208
-0.991468, 357, 161, 388, 288
-0.991476, 265, 125, 328, 156
-0.991481, 105, 17, 168, 48
-0.991491, 73, 33, 136, 64
-0.991515, 425, 201, 488, 232
-0.991545, 233, 313, 296, 344
-0.991554, 209, 73, 272, 104
-0.991556, 297, 133, 360, 164
-0.991562, 161, 245, 224, 276
-0.991564, 289, 289, 352, 320
-0.991566, 157, 241, 188, 368
-0.991567, 289, 205, 352, 236
-0.991592, 121, 29, 184, 60
-0.991611, 257, 161, 320, 192
-0.991616, 241, 173, 304, 204
-0.991645, 233, 1, 296, 32
-0.991658, 433, 133, 496, 164
-0.99166, 241, 121, 304, 152
-0.991663, 177, 41, 240, 72
-0.991664, 313, 105, 376, 136
-0.991666, 329, 169, 392, 200
-0.991679, 161, 269, 224, 300
-0.991685, 145, 1, 208, 32
-0.991693, 169, 25, 232, 56
-0.991708, 25, 109, 88, 140
-0.99171, 385, 117, 448, 148
-0.991715, 329, 65, 360, 192
-0.991719, 161, 193, 224, 224
-0.991725, 153, 69, 216, 100
-0.991726, 405, 193, 436, 320
-0.991739, 445, 209, 476, 336
-0.991747, 105, 57, 168, 88
-0.991763, 17, 217, 80, 248
-0.991774, 369, 17, 496, 144
-0.991778, 9, 65, 72, 96
-0.991778, 177, 153, 240, 184
-0.991784, 9, 81, 72, 112
-0.991794, 217, 29, 280, 60
-0.991804, 249, 69, 312, 100
-0.991818, 289, 193, 352, 224
-0.991842, 393, 229, 456, 260
-0.991848, 329, 237, 392, 268
-0.991849, 193, 313, 256, 344
-0.99185, 433, 209, 464, 336
-0.991853, 209, 1, 272, 32
-0.991858, 369, 225, 432, 256
-0.991874, 217, 325, 280, 356
-0.991884, 9, 49, 72, 80
-0.991886, 145, 33, 208, 64
-0.991887, 1, 121, 64, 152
-0.99189, 225, 145, 288, 176
-0.99189, 321, 309, 384, 340
-0.99189, 193, 293, 256, 324
-0.991891, 201, 265, 264, 296
-0.991902, 321, 1, 384, 386
-0.992006, 433, 65, 464, 192
-0.9921, 57, 129, 88, 256
-0.992115, 377, 113, 408, 240
-0.992207, 201, 77, 232, 108
-0.992213, 141, 97, 172, 224
-0.992241, 181, 241, 212, 368
-0.992305, 177, 77, 208, 108
-0.992306, 321, 17, 384, 144
-0.992346, 85, 41, 116, 72
-0.992356, 357, 65, 388, 192
-0.992361, 65, 49, 320, 112
-0.992372, 189, 89, 220, 120
-0.992379, 177, 225, 208, 256
-0.992418, 165, 221, 196, 252
-0.992481, 113, 85, 144, 116
-0.992504, 377, 209, 408, 336
-0.992538, 81, 225, 112, 352
-0.99255, 369, 1, 432, 386
-0.992559, 201, 97, 232, 128
-0.992572, 401, 33, 432, 160
-0.992574, 121, 145, 152, 272
-0.992602, 237, 197, 268, 228
-0.992616, 209, 209, 240, 240
-0.992622, 77, 113, 108, 144
-0.992628, 97, 41, 128, 72
-0.99263, 189, 101, 220, 132
-0.992657, 157, 209, 188, 240
-0.992658, 73, 33, 104, 64
-0.992659, 317, 225, 348, 256
-0.992665, 165, 233, 196, 264
-0.992669, 237, 289, 268, 320
-0.992676, 225, 297, 256, 328
-0.992691, 77, 13, 108, 44
-0.992705, 1, 209, 500, 272
-0.992718, 97, 53, 128, 84
-0.992744, 185, 65, 216, 96
-0.992748, 33, 121, 64, 152
-0.99276, 105, 73, 136, 104
-0.992763, 293, 217, 324, 248
-0.992768, 73, 49, 104, 80
-0.992768, 57, 33, 88, 64
-0.992771, 273, 1, 304, 128
-0.992771, 329, 125, 360, 156
-0.992773, 85, 29, 116, 60
-0.992779, 177, 89, 208, 120
-0.992786, 205, 113, 236, 144
-0.992787, 129, 105, 160, 136
-0.992787, 145, 217, 176, 248
-0.992787, 213, 89, 244, 120
-0.992797, 109, 41, 140, 72
-0.992797, 305, 217, 336, 248
-0.992803, 193, 113, 224, 144
-0.992806, 181, 209, 212, 240
-0.992807, 329, 229, 360, 260
-0.992814, 61, 45, 92, 76
-0.992817, 297, 205, 328, 236
-0.992824, 113, 101, 144, 132
-0.99284, 89, 77, 120, 108
-0.992848, 229, 213, 260, 244
-0.992851, 241, 213, 272, 244
-0.992854, 441, 133, 472, 164
-0.992864, 345, 109, 376, 140
-0.992869, 201, 65, 232, 96
-0.992882, 197, 213, 228, 244
-0.992887, 157, 85, 188, 116
-0.992892, 225, 285, 256, 316
-0.992898, 253, 61, 284, 92
-0.992905, 325, 305, 356, 336
-0.992912, 173, 101, 204, 132
-0.992914, 133, 89, 164, 120
-0.992919, 345, 221, 376, 252
-0.992925, 349, 121, 380, 152
-0.992926, 257, 197, 288, 228
-0.992928, 89, 121, 120, 152
-0.992929, 445, 65, 476, 192
-0.99293, 273, 313, 304, 344
-0.992931, 317, 177, 348, 208
-0.992932, 325, 317, 356, 348
-0.992934, 65, 113, 96, 144
-0.99294, 261, 209, 292, 240
-0.992944, 189, 77, 220, 108
-0.992953, 273, 213, 304, 244
-0.992954, 309, 205, 340, 236
-0.992962, 25, 65, 56, 96
-0.992963, 105, 29, 136, 60
-0.992965, 225, 309, 256, 340
-0.992972, 317, 121, 348, 152
-0.992977, 181, 113, 212, 144
-0.992978, 273, 1, 400, 64
-0.992979, 57, 13, 88, 44
-0.992979, 257, 113, 500, 176
-0.992981, 129, 77, 160, 108
-0.992984, 61, 77, 92, 108
-0.993005, 433, 1, 496, 256
-0.993008, 373, 209, 404, 240
-0.993008, 165, 61, 196, 92
-0.993009, 9, 65, 40, 96
-0.99301, 217, 77, 248, 108
-0.993012, 241, 317, 272, 348
-0.993012, 101, 121, 132, 152
-0.99302, 249, 285, 280, 316
-0.993022, 37, 65, 68, 96
-0.993027, 273, 197, 304, 228
-0.993027, 209, 197, 240, 228
-0.99303, 29, 209, 60, 336
-0.99303, 109, 1, 140, 32
-0.993031, 393, 121, 424, 152
-0.993031, 85, 53, 116, 84
-0.993035, 225, 197, 256, 228
-0.993042, 109, 53, 140, 84
-0.993046, 121, 45, 152, 76
-0.993049, 45, 1, 76, 32
-0.993052, 297, 305, 328, 336
-0.993053, 153, 229, 184, 260
-0.993053, 73, 1, 104, 32
-0.99306, 285, 205, 316, 236
-0.99306, 233, 81, 264, 112
-0.993061, 397, 205, 428, 236
-0.993061, 9, 129, 40, 160
-0.993061, 65, 105, 320, 168
-0.993063, 37, 25, 68, 56
-0.993066, 361, 221, 392, 252
-0.99307, 305, 149, 336, 180
-0.993071, 89, 1, 120, 32
-0.993076, 213, 101, 244, 132
-0.993076, 57, 125, 88, 156
-0.993083, 185, 49, 216, 80
-0.993087, 101, 105, 132, 136
-0.993088, 129, 33, 160, 64
-0.993095, 21, 33, 52, 64
-0.993096, 37, 49, 68, 80
-0.993102, 297, 189, 328, 220
-0.993107, 45, 81, 76, 112
-0.993107, 85, 65, 116, 96
-0.993108, 113, 117, 144, 148
-0.993117, 169, 245, 200, 276
-0.993117, 301, 125, 332, 156
-0.993124, 221, 57, 252, 88
-0.993125, 149, 109, 180, 140
-0.993127, 205, 53, 236, 84
-0.993127, 365, 101, 396, 132
-0.993131, 397, 101, 428, 132
-0.993132, 461, 197, 492, 228
-0.993132, 337, 177, 368, 208
-0.993134, 305, 173, 336, 204
-0.993135, 133, 117, 164, 148
-0.993136, 405, 113, 436, 144
-0.993136, 277, 121, 308, 152
-0.993136, 377, 173, 408, 204
-0.993137, 213, 289, 244, 320
-0.993138, 333, 217, 364, 248
-0.993192, 1, 113, 500, 176
-0.993228, 421, 65, 452, 192
-0.993253, 225, 89, 480, 152
-0.99329, 33, 1, 288, 64
-0.993299, 369, 161, 400, 288
-0.993361, 281, 257, 312, 384
-0.993548, 297, 49, 328, 176
-0.993557, 257, 201, 500, 264
-0.993568, 125, 81, 140, 144
-0.993576, 113, 89, 240, 120
-0.993623, 193, 213, 320, 244
-0.993642, 153, 65, 184, 192
-0.99372, 225, 65, 480, 128
-0.99374, 65, 25, 320, 88
-0.993794, 129, 185, 384, 248
-0.9938, 145, 213, 272, 244
-0.993811, 337, 57, 464, 120
-0.993845, 335, 297, 350, 360
-0.993853, 17, 145, 144, 208
-0.993874, 65, 209, 320, 272
-0.993945, 353, 305, 480, 368
-0.993995, 257, 177, 500, 240
-0.994146, 17, 297, 144, 360
-0.99425, 289, 49, 416, 112
-0.994274, 221, 81, 236, 144
-0.99429, 197, 73, 212, 136
-0.994326, 105, 49, 120, 112
-0.994329, 161, 89, 288, 120
-0.994371, 65, 305, 192, 368
-0.994412, 33, 81, 160, 112
-0.994517, 215, 81, 230, 144
-0.994526, 95, 33, 110, 96
-0.994527, 191, 81, 206, 144
-0.994556, 119, 49, 134, 112
-0.994591, 239, 185, 254, 248
-0.994672, 129, 281, 384, 344
-0.99469, 241, 281, 256, 344
-0.994725, 97, 77, 224, 108
-0.994748, 203, 73, 218, 136
-0.994751, 17, 273, 144, 336
-0.994761, 223, 185, 238, 248
-0.994786, 177, 217, 192, 280
-0.994792, 161, 113, 416, 176
-0.994819, 193, 105, 208, 168
-0.994873, 17, 33, 144, 64
-0.994876, 49, 117, 176, 148
-0.994877, 73, 1, 88, 64
-0.994886, 33, 185, 288, 248
-0.994894, 291, 209, 306, 272
-0.994925, 113, 57, 128, 120
-0.994973, 1, 89, 500, 152
-0.995025, 187, 49, 202, 112
-0.995052, 171, 225, 186, 288
-0.995066, 113, 101, 240, 132
-0.995069, 251, 209, 266, 272
-0.99507, 321, 1, 448, 64
-0.995143, 95, 1, 110, 64
-0.995152, 177, 77, 304, 108
-0.995168, 115, 89, 130, 152
-0.995189, 257, 317, 384, 348
-0.995259, 161, 233, 416, 296
-0.995274, 97, 57, 112, 120
-0.995281, 217, 201, 232, 264
-0.995297, 285, 209, 300, 272
-0.995307, 17, 49, 144, 80
-0.995312, 33, 177, 160, 240
-0.995331, 409, 1, 472, 128
-0.995348, 233, 169, 248, 232
-0.995354, 241, 217, 368, 248
-0.995357, 193, 293, 320, 324
-0.99537, 321, 217, 336, 280
-0.995388, 79, 105, 94, 168
-0.99539, 247, 289, 262, 352
-0.995426, 193, 201, 320, 232
-0.995427, 129, 161, 384, 224
-0.995433, 185, 73, 200, 136
-0.995435, 77, 33, 92, 96
-0.995469, 159, 209, 174, 272
-0.995481, 1, 281, 500, 344
-0.995487, 239, 209, 254, 272
-0.995489, 277, 201, 292, 264
-0.995501, 85, 33, 100, 96
-0.995538, 267, 201, 282, 264
-0.995539, 231, 297, 246, 360
-0.995555, 1, 61, 128, 92
-0.995562, 109, 81, 124, 144
-0.995563, 187, 201, 202, 264
-0.995565, 9, 1, 24, 64
-0.995587, 179, 81, 194, 144
-0.995609, 161, 41, 416, 104
-0.995613, 207, 209, 222, 272
-0.995641, 123, 17, 138, 80
-0.995654, 101, 17, 116, 80
-0.995666, 247, 49, 262, 112
-0.995669, 51, 1, 66, 64
-0.995676, 207, 49, 222, 112
-0.995686, 321, 113, 448, 144
-0.995693, 335, 121, 350, 184
-0.995695, 209, 305, 336, 336
-0.995707, 65, 25, 80, 88
-0.995719, 45, 81, 60, 144
-0.995722, 33, 289, 288, 352
-0.995747, 165, 233, 180, 296
-0.995764, 231, 201, 246, 264
-0.995774, 327, 217, 342, 280
-0.995785, 203, 97, 218, 160
-0.995789, 177, 105, 304, 136
-0.995791, 341, 121, 356, 184
-0.995793, 55, 49, 70, 112
-0.995808, 249, 185, 264, 248
-0.995819, 183, 225, 198, 288
-0.995825, 145, 225, 272, 256
-0.995847, 327, 113, 342, 176
-0.995859, 273, 197, 400, 228
-0.995865, 299, 209, 314, 272
-0.995869, 81, 221, 208, 252
-0.995873, 317, 121, 332, 184
-0.995886, 257, 229, 384, 260
-0.995899, 71, 81, 86, 144
-0.995903, 1, 33, 500, 96
-0.995913, 17, 21, 144, 52
-0.995917, 245, 209, 260, 272
-0.995918, 305, 125, 432, 156
-0.995919, 255, 297, 270, 360
-0.99592, 125, 41, 140, 104
-0.995924, 173, 81, 188, 144
-0.995925, 197, 225, 212, 288
-0.995926, 195, 41, 210, 104
-0.995946, 259, 185, 274, 248
-0.995954, 229, 65, 244, 128
-0.995962, 219, 57, 234, 120
-0.995971, 331, 321, 346, 384
-0.995971, 241, 121, 368, 152
-0.995994, 161, 65, 288, 96
-0.996005, 113, 17, 128, 80
-0.996017, 313, 193, 328, 256
-0.996034, 61, 49, 76, 112
-0.996037, 97, 113, 224, 144
-0.99604, 361, 121, 376, 184
-0.99605, 57, 1, 72, 64
-0.996054, 253, 81, 268, 144
-0.99607, 359, 97, 374, 160
-0.996082, 289, 181, 416, 212
-0.996094, 213, 105, 228, 168
-0.996108, 247, 257, 262, 320
-0.996109, 55, 25, 70, 88
-0.996127, 187, 105, 202, 168
-0.996138, 305, 213, 432, 244
-0.996149, 61, 81, 76, 144
-0.996149, 65, 49, 192, 80
-0.996153, 97, 65, 224, 96
-0.996156, 351, 121, 366, 184
-0.996172, 327, 193, 342, 256
-0.996174, 33, 101, 160, 132
-0.996175, 13, 121, 28, 184
-0.996176, 47, 41, 62, 104
-0.996189, 477, 145, 492, 208
-0.996198, 165, 201, 180, 264
-0.996206, 1, 9, 128, 40
-0.996209, 85, 9, 100, 72
-0.996216, 237, 305, 252, 368
-0.996217, 345, 97, 376, 352
-0.996219, 181, 1, 196, 64
-0.99622, 103, 73, 118, 136
-0.996223, 147, 33, 162, 96
-0.996233, 13, 57, 28, 120
-0.996236, 305, 209, 320, 272
-0.996238, 161, 29, 288, 60
-0.99624, 225, 289, 480, 352
-0.996244, 337, 321, 352, 384
-0.996246, 339, 225, 354, 288
-0.996247, 305, 225, 432, 256
-0.996254, 261, 57, 276, 120
-0.996254, 257, 209, 272, 272
-0.996257, 209, 317, 336, 348
-0.996258, 83, 73, 98, 136
-0.996262, 1, 233, 256, 296
-0.996274, 215, 177, 230, 240
-0.996279, 71, 121, 86, 184
-0.996286, 465, 137, 480, 200
-0.996289, 41, 17, 56, 80
-0.99629, 225, 329, 352, 360
-0.996291, 1, 113, 128, 144
-0.996295, 283, 185, 298, 248
-0.996296, 1, 57, 500, 120
-0.996305, 319, 193, 334, 256
-0.996311, 241, 181, 368, 212
-0.996323, 121, 105, 136, 168
-0.996335, 225, 289, 240, 352
-0.996337, 79, 9, 94, 72
-0.996338, 333, 217, 348, 280
-0.996348, 277, 97, 308, 352
-0.996349, 71, 57, 86, 120
-0.996356, 111, 113, 126, 176
-0.996357, 447, 129, 462, 192
-0.99637, 179, 49, 194, 112
-0.996379, 289, 169, 416, 200
-0.996384, 147, 81, 162, 144
-0.996385, 37, 113, 52, 176
-0.99639, 455, 129, 470, 192
-0.996418, 87, 113, 102, 176
-0.996423, 209, 81, 224, 144
-0.996432, 265, 289, 280, 352
-0.996432, 113, 201, 240, 232
-0.996448, 161, 257, 416, 320
-0.99645, 37, 41, 52, 104
-0.996451, 347, 97, 362, 160
-0.996456, 145, 9, 160, 72
-0.996456, 289, 185, 304, 248
-0.996458, 129, 305, 384, 368
-0.996459, 267, 169, 282, 232
-0.996459, 19, 41, 34, 104
-0.996459, 367, 121, 382, 184
-0.99649, 129, 281, 256, 312
-0.996518, 289, 25, 416, 88
-0.996525, 1, 233, 500, 296
-0.996543, 241, 281, 368, 312
-0.996551, 353, 185, 480, 216
-0.996561, 257, 233, 500, 296
-0.996569, 97, 33, 224, 64
-0.996571, 305, 241, 432, 272
-0.996576, 193, 121, 320, 152
-0.996577, 241, 169, 368, 200
-0.996592, 145, 121, 272, 152
-0.996599, 129, 1, 384, 64
-0.996639, 353, 133, 480, 164
-0.996654, 65, 209, 192, 240
-0.996685, 281, 1, 312, 256
-0.996687, 257, 137, 500, 200
-0.996691, 113, 33, 144, 288
-0.996733, 369, 201, 496, 232
-0.996755, 81, 1, 208, 32
-0.996758, 257, 101, 384, 132
-0.996763, 125, 85, 140, 116
-0.996767, 337, 101, 464, 132
-0.996799, 353, 169, 480, 200
-0.99684, 261, 33, 292, 288
-0.996843, 193, 45, 320, 76
-0.996853, 1, 125, 128, 156
-0.996868, 433, 97, 464, 352
-0.996869, 209, 17, 336, 48
-0.996897, 177, 277, 304, 308
-0.996926, 225, 73, 352, 104
-0.996929, 85, 33, 116, 288
-0.996965, 257, 241, 384, 272
-0.996972, 405, 97, 436, 352
-0.997, 161, 313, 288, 344
-0.997007, 369, 229, 496, 260
-0.997008, 179, 221, 194, 252
-0.997038, 65, 281, 192, 344
-0.997039, 121, 257, 184, 384
-0.997046, 181, 93, 196, 124
-0.997046, 297, 97, 328, 352
-0.997056, 241, 1, 272, 256
-0.997064, 213, 33, 244, 288
-0.99708, 189, 101, 204, 132
-0.997083, 81, 233, 208, 264
-0.997118, 449, 97, 480, 352
-0.997129, 1, 305, 500, 368
-0.997129, 289, 153, 416, 184
-0.997129, 241, 293, 368, 324
-0.997138, 257, 25, 500, 88
-0.997139, 221, 81, 236, 112
-0.997151, 65, 257, 320, 320
-0.997156, 353, 25, 480, 88
-0.997157, 289, 305, 416, 336
-0.997159, 177, 189, 304, 220
-0.997165, 191, 89, 206, 120
-0.997181, 17, 249, 144, 312
-0.997182, 125, 105, 140, 136
-0.99719, 81, 17, 208, 48
-0.997196, 101, 33, 132, 288
-0.997203, 45, 97, 76, 352
-0.997212, 177, 265, 304, 296
-0.997218, 193, 1, 224, 256
-0.997221, 317, 97, 348, 352
-0.997242, 209, 29, 336, 60
-0.997243, 177, 329, 304, 360
-0.997247, 65, 65, 96, 320
-0.997257, 161, 17, 288, 48
-0.997258, 161, 137, 416, 200
-0.997264, 145, 237, 272, 268
-0.99728, 117, 53, 132, 84
-0.997284, 17, 97, 48, 352
-0.997288, 213, 85, 228, 116
-0.997297, 115, 73, 130, 104
-0.997302, 357, 65, 388, 320
-0.99731, 241, 269, 368, 300
-0.997312, 161, 1, 288, 32
-0.997316, 171, 225, 186, 256
-0.997323, 389, 65, 420, 320
-0.997328, 99, 41, 114, 72
-0.997335, 369, 149, 496, 180
-0.997339, 257, 313, 500, 376
-0.99734, 33, 97, 64, 352
-0.997351, 241, 157, 368, 188
-0.997361, 229, 1, 260, 256
-0.997365, 337, 89, 464, 120
-0.997365, 97, 133, 224, 164
-0.997393, 1, 321, 128, 384
-0.997398, 273, 329, 400, 360
-0.997402, 209, 61, 336, 92
-0.99741, 145, 293, 272, 324
-0.99742, 1, 1, 500, 64
-0.99744, 227, 81, 242, 112
-0.997449, 241, 285, 256, 316
-0.997454, 1, 185, 500, 248
-0.997459, 369, 281, 496, 344
-0.997472, 249, 97, 280, 352
-0.997472, 93, 41, 108, 72
-0.997487, 197, 225, 212, 256
-0.997505, 207, 73, 222, 104
-0.997521, 257, 265, 500, 328
-0.997521, 257, 1, 500, 64
-0.997523, 1, 97, 32, 352
-0.997539, 113, 189, 240, 220
-0.99754, 193, 177, 320, 208
-0.997541, 53, 1, 84, 256
-0.997541, 77, 37, 92, 68
-0.997542, 305, 317, 432, 348
-0.997549, 85, 41, 100, 72
-0.997564, 197, 81, 212, 112
-0.997564, 217, 97, 232, 128
-0.997569, 211, 209, 226, 240
-0.997597, 207, 105, 222, 136
-0.997603, 159, 213, 174, 244
-0.997603, 107, 41, 122, 72
-0.997609, 201, 93, 216, 124
-0.997612, 205, 209, 220, 240
-0.997615, 33, 161, 288, 224
-0.997619, 209, 89, 336, 120
-0.99762, 179, 81, 194, 112
-0.997623, 201, 69, 216, 100
-0.997636, 115, 93, 130, 124
-0.997636, 193, 141, 320, 172
-0.99764, 247, 193, 262, 224
-0.99764, 377, 65, 408, 320
-0.997655, 145, 177, 272, 208
-0.99766, 69, 29, 84, 60
-0.997667, 221, 69, 236, 100
-0.997678, 179, 233, 194, 264
-0.997679, 197, 105, 212, 136
-0.997683, 417, 97, 448, 352
-0.997696, 17, 1, 48, 256
-0.997697, 103, 53, 118, 84
-0.997704, 133, 33, 164, 288
-0.997706, 313, 213, 328, 244
-0.997716, 183, 105, 198, 136
-0.997718, 61, 45, 76, 76
-0.997719, 193, 229, 320, 260
-0.997721, 329, 129, 360, 384
-0.997726, 237, 201, 252, 232
-0.997732, 191, 113, 206, 144
-0.997734, 273, 137, 400, 168
-0.997735, 289, 273, 416, 304
-0.997736, 69, 45, 84, 76
-0.997738, 33, 313, 288, 376
-0.997745, 335, 305, 350, 336
-0.997746, 173, 73, 188, 104
-0.997749, 319, 221, 334, 252
-0.997752, 171, 237, 186, 268
-0.99776, 1, 257, 500, 320
-0.997763, 65, 137, 320, 200
-0.997765, 303, 217, 318, 248
-0.997767, 49, 177, 176, 208
-0.997775, 231, 209, 246, 240
-0.997776, 219, 209, 234, 240
-0.997777, 119, 9, 134, 40
-0.997785, 229, 301, 244, 332
-0.997785, 257, 49, 384, 80
-0.997786, 1, 193, 128, 224
-0.997788, 309, 201, 324, 232
-0.997789, 109, 73, 124, 104
-0.99779, 95, 57, 110, 88
-0.997791, 97, 29, 112, 60
-0.997796, 125, 73, 140, 104
-0.997801, 119, 105, 134, 136
-0.997805, 187, 229, 202, 260
-0.997813, 147, 41, 162, 72
-0.997816, 79, 113, 94, 144
-0.997817, 341, 233, 356, 264
-0.997824, 173, 1, 204, 256
-0.997827, 49, 61, 176, 92
-0.997829, 231, 193, 246, 224
-0.997831, 125, 117, 140, 148
-0.997834, 253, 213, 268, 244
-0.997837, 365, 113, 380, 144
-0.997839, 289, 313, 304, 344
-0.99784, 209, 1, 336, 32
-0.997841, 479, 197, 494, 228
-0.997845, 233, 313, 248, 344
-0.997847, 175, 97, 190, 128
-0.997853, 215, 73, 230, 104
-0.997856, 123, 41, 138, 72
-0.997859, 207, 85, 222, 116
-0.997863, 335, 121, 350, 152
-0.997864, 369, 213, 496, 244
-0.997875, 287, 213, 302, 244
-0.997879, 131, 89, 146, 120
-0.99788, 461, 97, 492, 352
-0.997886, 101, 73, 116, 104
-0.997896, 369, 1, 496, 64
-0.997901, 337, 329, 352, 360
-0.997905, 55, 37, 70, 68
-0.997915, 333, 225, 348, 256
-0.997924, 297, 201, 312, 232
-0.997928, 71, 93, 86, 124
-0.997928, 207, 61, 222, 92
-0.997931, 247, 213, 262, 244
-0.997935, 165, 213, 180, 244
-0.997936, 297, 217, 312, 248
-0.997939, 415, 125, 430, 156
-0.99794, 37, 117, 52, 148
-0.997944, 131, 109, 146, 140
-0.997948, 369, 121, 496, 152
-0.997952, 113, 1, 128, 32
-0.997952, 197, 121, 212, 152
-0.997958, 161, 253, 288, 284
-0.99796, 301, 1, 332, 256
-0.997973, 177, 97, 208, 352
-0.997979, 233, 97, 264, 352
-0.99798, 89, 53, 104, 84
-0.997981, 273, 193, 288, 224
-0.997983, 239, 213, 254, 244
-0.997987, 145, 141, 272, 172
-0.997992, 187, 213, 202, 244
-0.997992, 113, 269, 240, 300
-0.997993, 71, 121, 86, 152
-0.997995, 259, 193, 274, 224
-0.997999, 347, 225, 362, 256
-0.997999, 255, 317, 270, 348
-0.998, 225, 209, 240, 240
-0.998001, 171, 213, 186, 244
-0.998005, 123, 29, 138, 60
-0.998012, 45, 21, 60, 52
-0.998013, 253, 197, 268, 228
-0.998016, 203, 221, 218, 252
-0.99802, 317, 169, 332, 200
-0.998021, 277, 205, 292, 236
-0.998028, 327, 225, 342, 256
-0.998035, 97, 17, 112, 48
-0.998036, 329, 121, 344, 152
-0.998037, 113, 41, 128, 72
-0.998038, 81, 25, 96, 56
-0.998041, 123, 57, 138, 88
-0.998042, 289, 325, 304, 356
-0.99805, 99, 125, 114, 156
-0.99805, 93, 1, 108, 32
-0.998052, 25, 1, 40, 32
-0.998054, 359, 109, 374, 140
-0.998057, 355, 121, 370, 152
-0.998061, 59, 21, 74, 52
-0.99807, 77, 49, 92, 80
-0.998071, 1, 153, 500, 216
-0.998073, 87, 117, 102, 148
-0.998075, 225, 193, 240, 224
-0.998081, 257, 61, 384, 92
-0.998082, 79, 101, 94, 132
-0.998082, 1, 113, 16, 144
-0.998084, 223, 97, 238, 128
-0.998084, 241, 253, 368, 284
-0.998086, 199, 209, 214, 240
-0.998087, 345, 125, 360, 156
-0.998088, 331, 321, 346, 352
-0.99809, 49, 129, 176, 160
-0.998091, 97, 153, 224, 184
-0.998093, 481, 209, 496, 240
-0.998094, 69, 81, 84, 112
-0.998099, 265, 129, 296, 384
-0.998106, 145, 49, 272, 80
-0.998121, 17, 225, 144, 256
-0.998121, 197, 97, 228, 352
-0.99814, 29, 1, 60, 256
-0.998144, 5, 1, 36, 256
-0.998145, 369, 257, 432, 384
-0.998149, 321, 293, 448, 324
-0.998175, 101, 129, 132, 384
-0.9982, 273, 85, 400, 116
-0.99824, 321, 201, 448, 232
-0.99824, 313, 1, 344, 256
-0.998295, 49, 189, 176, 220
-0.998299, 145, 65, 176, 320
-0.998305, 337, 329, 464, 360
-0.998314, 1, 137, 128, 168
-0.99833, 321, 257, 448, 288
-0.998337, 369, 245, 496, 276
-0.998338, 213, 129, 244, 384
-0.998346, 49, 141, 176, 172
-0.998384, 17, 213, 144, 244
-0.998384, 77, 59, 108, 74
-0.998385, 113, 37, 144, 52
-0.998386, 197, 285, 228, 300
-0.998386, 93, 11, 124, 26
-0.998388, 317, 215, 348, 230
-0.998388, 133, 47, 164, 62
-0.998389, 313, 123, 344, 138
-0.998389, 37, 35, 68, 50
-0.998389, 73, 11, 104, 26
-0.99839, 325, 177, 356, 192
-0.99839, 169, 209, 200, 224
-0.998391, 445, 133, 476, 148
-0.998391, 357, 121, 388, 136
-0.998394, 177, 153, 304, 184
-0.998394, 165, 245, 196, 260
-0.998394, 53, 83, 84, 98
-0.998397, 241, 201, 272, 216
-0.998397, 85, 3, 116, 18
-0.998397, 53, 31, 84, 46
-0.998397, 325, 233, 356, 248
-0.998397, 57, 117, 88, 132
-0.998398, 301, 217, 332, 232
-0.998398, 225, 89, 256, 104
-0.998398, 129, 41, 160, 56
-0.998398, 65, 1, 96, 16
-0.998399, 181, 11, 212, 26
-0.998399, 325, 309, 356, 324
-0.998399, 173, 95, 204, 110
-0.9984, 301, 223, 332, 238
-0.998401, 61, 9, 92, 24
-0.998403, 77, 123, 108, 138
-0.998404, 297, 211, 328, 226
-0.998406, 341, 229, 372, 244
-0.998406, 325, 323, 356, 338
-0.998406, 213, 109, 244, 124
-0.998407, 189, 123, 220, 138
-0.998407, 257, 1, 384, 32
-0.998407, 257, 293, 288, 308
-0.998409, 109, 57, 140, 72
-0.998409, 53, 17, 84, 32
-0.99841, 41, 5, 72, 20
-0.99841, 273, 209, 304, 224
-0.99841, 237, 323, 268, 338
-0.99841, 205, 65, 236, 80
-0.998411, 305, 187, 336, 202
-0.998411, 73, 21, 104, 36
-0.998411, 133, 53, 164, 68
-0.998412, 185, 71, 216, 86
-0.998413, 105, 1, 136, 16
-0.998413, 145, 215, 176, 230
-0.998414, 389, 125, 420, 140
-0.998414, 157, 87, 188, 102
-0.998415, 117, 119, 148, 134
-0.998417, 461, 199, 492, 214
-0.998417, 225, 299, 256, 314
-0.998418, 129, 111, 160, 126
-0.998419, 169, 111, 200, 126
-0.998421, 225, 317, 256, 332
-0.998421, 113, 305, 240, 336
-0.998422, 217, 291, 248, 306
-0.998422, 53, 47, 84, 62
-0.998423, 345, 125, 376, 140
-0.998425, 209, 77, 240, 92
-0.998426, 205, 213, 236, 228
-0.998427, 189, 95, 220, 110
-0.998429, 249, 207, 280, 222
-0.998429, 309, 201, 340, 216
-0.99843, 89, 79, 120, 94
-0.998431, 157, 211, 188, 226
-0.998431, 185, 103, 216, 118
-0.998432, 325, 317, 356, 332
-0.998432, 213, 103, 244, 118
-0.998435, 209, 89, 240, 104
-0.998436, 205, 115, 236, 130
-0.998437, 241, 85, 272, 100
-0.998438, 181, 109, 212, 124
-0.998439, 229, 79, 260, 94
-0.99844, 117, 97, 148, 112
-0.998441, 77, 27, 108, 42
-0.998442, 49, 11, 80, 26
-0.998444, 177, 233, 208, 248
-0.998446, 89, 57, 120, 72
-0.998448, 237, 209, 268, 224
-0.99845, 209, 71, 240, 86
-0.998451, 193, 211, 256, 226
-0.998451, 277, 215, 308, 230
-0.998452, 97, 39, 128, 54
-0.998455, 61, 55, 92, 70
-0.998455, 65, 41, 96, 56
-0.998456, 53, 1, 84, 16
-0.998458, 73, 117, 104, 132
-0.99846, 165, 239, 196, 254
-0.99846, 217, 211, 248, 226
-0.998464, 321, 183, 352, 198
-0.998464, 257, 29, 384, 60
-0.998465, 185, 77, 216, 92
-0.998467, 105, 75, 136, 90
-0.998467, 237, 297, 268, 312
-0.998467, 57, 127, 88, 142
-0.998467, 105, 45, 136, 60
-0.998467, 165, 231, 196, 246
-0.998467, 65, 31, 96, 46
-0.99847, 181, 117, 212, 132
-0.99847, 213, 95, 244, 110
-0.998472, 261, 211, 292, 226
-0.998473, 217, 291, 280, 306
-0.998474, 121, 47, 152, 62
-0.998475, 317, 227, 348, 242
-0.998476, 229, 291, 260, 306
-0.998476, 69, 47, 100, 62
-0.998479, 189, 223, 220, 238
-0.99848, 201, 95, 232, 110
-0.99848, 325, 123, 356, 138
-0.998484, 57, 41, 120, 56
-0.998486, 49, 25, 80, 40
-0.998491, 161, 209, 224, 224
-0.998492, 153, 217, 216, 232
-0.998492, 153, 229, 216, 244
-0.998495, 197, 103, 228, 118
-0.998495, 97, 51, 160, 66
-0.998495, 65, 57, 128, 72
-0.998497, 105, 51, 136, 66
-0.998499, 165, 225, 196, 240
-0.998501, 185, 85, 248, 100
-0.998502, 185, 217, 216, 232
-0.998503, 81, 33, 144, 48
-0.998503, 33, 123, 64, 138
-0.998505, 49, 35, 112, 50
-0.998509, 137, 101, 200, 116
-0.998509, 81, 117, 144, 132
-0.99851, 85, 37, 116, 52
-0.998512, 73, 53, 104, 68
-0.998513, 177, 227, 208, 242
-0.998514, 65, 79, 128, 94
-0.998515, 113, 87, 144, 102
-0.998515, 89, 129, 120, 384
-0.998518, 181, 83, 212, 98
-0.998521, 217, 83, 248, 98
-0.998524, 65, 123, 128, 138
-0.998526, 161, 81, 224, 96
-0.998526, 41, 29, 104, 44
-0.998528, 337, 305, 464, 336
-0.998529, 57, 49, 120, 64
-0.99853, 197, 81, 228, 96
-0.99853, 177, 95, 240, 110
-0.998532, 97, 257, 160, 384
-0.998533, 105, 79, 168, 94
-0.998536, 233, 211, 296, 226
-0.998537, 181, 89, 212, 104
-0.998537, 193, 113, 224, 128
-0.998538, 413, 1, 444, 256
-0.998538, 169, 223, 232, 238
-0.998539, 145, 89, 208, 104
-0.998539, 197, 75, 228, 90
-0.99854, 93, 45, 124, 60
-0.998542, 201, 91, 264, 106
-0.998543, 273, 207, 336, 222
-0.998545, 25, 125, 88, 140
-0.998546, 113, 109, 176, 124
-0.99855, 209, 81, 272, 96
-0.998552, 73, 87, 136, 102
-0.998552, 41, 15, 104, 30
-0.998553, 85, 51, 116, 66
-0.998554, 81, 45, 112, 60
-0.998554, 157, 217, 188, 232
-0.998555, 209, 97, 272, 112
-0.998555, 33, 45, 96, 60
-0.998556, 153, 235, 216, 250
-0.998556, 209, 73, 272, 88
-0.998559, 273, 221, 336, 236
-0.998559, 153, 117, 216, 132
-0.998559, 245, 291, 276, 306
-0.998563, 177, 111, 240, 126
-0.998563, 177, 121, 240, 136
-0.998563, 185, 103, 248, 118
-0.998565, 113, 85, 176, 100
-0.998566, 137, 51, 200, 66
-0.998568, 241, 291, 304, 306
-0.998569, 81, 111, 144, 126
-0.99857, 153, 111, 216, 126
-0.998571, 41, 115, 104, 130
-0.998574, 121, 91, 184, 106
-0.998578, 109, 81, 140, 96
-0.998579, 17, 33, 80, 48
-0.998579, 81, 43, 144, 58
-0.998579, 81, 9, 144, 24
-0.99858, 217, 297, 280, 312
-0.99858, 177, 75, 240, 90
-0.99858, 289, 165, 352, 180
-0.998581, 201, 217, 264, 232
-0.998582, 169, 19, 232, 34
-0.998582, 185, 205, 248, 220
-0.998583, 121, 119, 184, 134
-0.998583, 305, 183, 368, 198
-0.998583, 105, 209, 168, 224
-0.998584, 305, 237, 368, 252
-0.998584, 313, 125, 376, 140
-0.998584, 321, 161, 384, 176
-0.998584, 193, 225, 256, 240
-0.998585, 329, 225, 392, 240
-0.998585, 129, 217, 192, 232
-0.998586, 129, 233, 192, 248
-0.998586, 289, 213, 352, 228
-0.998586, 121, 39, 184, 54
-0.998586, 17, 17, 80, 32
-0.998587, 297, 231, 360, 246
-0.998587, 49, 9, 112, 24
-0.998588, 113, 103, 176, 118
-0.998588, 225, 205, 288, 220
-0.998589, 137, 83, 200, 98
-0.998589, 49, 23, 112, 38
-0.99859, 289, 173, 352, 188
-0.998592, 105, 5, 168, 20
-0.998593, 105, 31, 168, 46
-0.998594, 193, 291, 256, 306
-0.998594, 289, 125, 352, 140
-0.998598, 177, 231, 240, 246
-0.998598, 225, 341, 352, 372
-0.998599, 281, 317, 344, 332
-0.998599, 9, 5, 72, 20
-0.998599, 81, 103, 144, 118
-0.998601, 393, 119, 456, 134
-0.998602, 201, 67, 264, 82
-0.998602, 1, 121, 64, 136
-0.998603, 41, 1, 104, 16
-0.998604, 73, 3, 136, 18
-0.998604, 41, 57, 104, 72
-0.998606, 97, 173, 224, 204
-0.998606, 265, 183, 328, 198
-0.998607, 105, 57, 168, 72
-0.998607, 153, 95, 216, 110
-0.998608, 313, 217, 376, 232
-0.998608, 49, 63, 112, 78
-0.998608, 353, 121, 416, 136
-0.998608, 137, 11, 200, 26
-0.998609, 185, 157, 248, 172
-0.998609, 217, 307, 280, 322
-0.998609, 217, 313, 280, 328
-0.99861, 249, 205, 312, 220
-0.99861, 33, 81, 96, 96
-0.998612, 217, 111, 280, 126
-0.998612, 265, 177, 328, 192
-0.998612, 289, 323, 352, 338
-0.998613, 17, 27, 80, 42
-0.998613, 193, 183, 256, 198
-0.998614, 25, 39, 88, 54
-0.998616, 81, 19, 144, 34
-0.998616, 161, 101, 224, 116
-0.998617, 129, 223, 192, 238
-0.998617, 289, 307, 352, 322
-0.998617, 297, 189, 360, 204
-0.998618, 97, 97, 160, 112
-0.998618, 265, 215, 328, 230
-0.998619, 145, 35, 208, 50
-0.99862, 193, 191, 256, 206
-0.99862, 209, 59, 272, 74
-0.998621, 393, 129, 456, 144
-0.998621, 129, 77, 192, 92
-0.998622, 281, 331, 344, 346
-0.998623, 249, 171, 312, 186
-0.998624, 105, 45, 168, 60
-0.998625, 177, 165, 304, 196
-0.998625, 33, 51, 96, 66
-0.998626, 417, 201, 480, 216
-0.998626, 153, 241, 216, 256
-0.998627, 177, 67, 240, 82
-0.998627, 273, 341, 400, 372
-0.998627, 81, 27, 144, 42
-0.998628, 185, 61, 248, 76
-0.998628, 257, 159, 320, 174
-0.998628, 345, 235, 408, 250
-0.998633, 197, 87, 228, 102
-0.99864, 105, 33, 120, 160
-0.99869, 133, 129, 164, 384
-0.998708, 157, 129, 188, 384
-0.998718, 81, 249, 208, 280
-0.998745, 325, 1, 356, 256
-0.998757, 41, 1, 72, 256
-0.998819, 453, 1, 484, 256
-0.998821, 111, 49, 126, 176
-0.998834, 115, 1, 130, 128
-0.99884, 81, 33, 96, 160
-0.998845, 91, 33, 106, 160
-0.998855, 75, 33, 90, 160
-0.998873, 121, 49, 136, 176
-0.998879, 239, 257, 254, 384
-0.998879, 77, 129, 108, 384
-0.998893, 97, 1, 112, 128
-0.998916, 49, 33, 64, 160
-0.998916, 469, 1, 500, 256
-0.998918, 69, 49, 84, 176
-0.998929, 329, 113, 344, 240
-0.998938, 97, 49, 112, 176
-0.998946, 161, 1, 192, 256
-0.998961, 189, 33, 204, 160
-0.998973, 161, 193, 176, 320
-0.998984, 39, 65, 54, 192
-0.998984, 433, 1, 464, 256
-0.998995, 59, 65, 74, 192
-0.998999, 205, 193, 220, 320
-0.999008, 179, 209, 194, 336
-0.999011, 247, 241, 262, 368
-0.999012, 261, 49, 276, 176
-0.999014, 219, 65, 234, 192
-0.99902, 321, 113, 336, 240
-0.999022, 313, 161, 328, 288
-0.999027, 105, 81, 120, 208
-0.999032, 121, 1, 136, 128
-0.999034, 339, 113, 354, 240
-0.999034, 171, 193, 186, 320
-0.999046, 11, 65, 26, 192
-0.999051, 181, 17, 196, 144
-0.999051, 265, 113, 280, 240
-0.999052, 241, 161, 256, 288
-0.999053, 331, 161, 346, 288
-0.999059, 53, 81, 68, 208
-0.999059, 201, 49, 216, 176
-0.999062, 307, 113, 322, 240
-0.999065, 199, 193, 214, 320
-0.999067, 213, 49, 228, 176
-0.999074, 233, 193, 248, 320
-0.999076, 333, 209, 348, 336
-0.999082, 215, 1, 230, 128
-0.999088, 307, 193, 322, 320
-0.999088, 195, 17, 210, 144
-0.999089, 31, 33, 46, 160
-0.999089, 195, 97, 210, 224
-0.999093, 249, 193, 264, 320
-0.999104, 61, 1, 76, 128
-0.999105, 5, 33, 20, 160
-0.999108, 83, 81, 98, 208
-0.99911, 259, 193, 274, 320
-0.999111, 19, 65, 34, 192
-0.999115, 465, 129, 480, 256
-0.999117, 145, 49, 160, 176
-0.999121, 181, 65, 196, 192
-0.999122, 269, 49, 284, 176
-0.999126, 255, 65, 270, 192
-0.999129, 323, 161, 338, 288
-0.999129, 275, 113, 290, 240
-0.999132, 479, 129, 494, 256
-0.999134, 359, 81, 374, 208
-0.999142, 239, 209, 254, 336
-0.999144, 209, 97, 224, 224
-0.99915, 245, 17, 260, 144
-0.99915, 113, 129, 144, 384
-0.99915, 25, 33, 40, 160
-0.999151, 231, 145, 246, 272
-0.999152, 273, 193, 288, 320
-0.999154, 215, 177, 230, 304
-0.999155, 267, 193, 282, 320
-0.999155, 315, 113, 330, 240
-0.999158, 225, 65, 240, 192
-0.999159, 19, 113, 34, 240
-0.999162, 115, 97, 130, 224
-0.999167, 295, 113, 310, 240
-0.999167, 227, 1, 242, 128
-0.99917, 339, 225, 354, 352
-0.999174, 31, 113, 46, 240
-0.99918, 349, 113, 364, 240
-0.999185, 99, 113, 114, 240
-0.999187, 459, 113, 474, 240
-0.999192, 281, 257, 296, 384
-0.999194, 185, 209, 200, 336
-0.999194, 361, 129, 376, 256
-0.999201, 453, 113, 468, 240
-0.999202, 227, 193, 242, 320
-0.999205, 147, 1, 162, 128
-0.999205, 123, 97, 138, 224
-0.99921, 337, 1, 368, 256
-0.999212, 367, 129, 382, 256
-0.999212, 401, 1, 432, 256
-0.999215, 225, 113, 240, 240
-0.999216, 243, 65, 258, 192
-0.999219, 345, 241, 360, 368
-0.999222, 215, 113, 230, 240
-0.999224, 77, 97, 92, 224
-0.999226, 237, 49, 252, 176
-0.999228, 429, 129, 444, 256
-0.999228, 443, 129, 458, 256
-0.999233, 67, 1, 82, 128
-0.999235, 191, 193, 206, 320
-0.999236, 433, 1, 496, 128
-0.999237, 367, 81, 382, 208
-0.999238, 339, 161, 354, 288
-0.999241, 471, 145, 486, 272
-0.999244, 205, 1, 220, 128
-0.999245, 295, 209, 310, 336
-0.999251, 395, 97, 410, 224
-0.999256, 1, 81, 16, 208
-0.999256, 247, 129, 262, 256
-0.99926, 25, 113, 40, 240
-0.999268, 301, 129, 316, 256
-0.999269, 435, 129, 450, 256
-0.99927, 289, 113, 304, 240
-0.99927, 189, 113, 204, 240
-0.999276, 155, 177, 170, 304
-0.999277, 229, 241, 244, 368
-0.999284, 59, 113, 74, 240
-0.999284, 231, 49, 246, 176
-0.999284, 289, 225, 304, 352
-0.999285, 281, 193, 296, 320
-0.999286, 171, 145, 186, 272
-0.999287, 315, 209, 330, 336
-0.999292, 221, 177, 236, 304
-0.999293, 37, 113, 52, 240
-0.999295, 47, 81, 62, 208
-0.999299, 105, 129, 120, 256
-0.999302, 253, 241, 268, 368
-0.999302, 11, 113, 26, 240
-0.999304, 205, 145, 220, 272
-0.999305, 261, 1, 276, 128
-0.999307, 129, 65, 144, 192
-0.999308, 333, 257, 348, 384
-0.999318, 275, 241, 290, 368
-0.999319, 263, 241, 278, 368
-0.999568, 1, 257, 64, 384
-0.999605, 323, 219, 338, 234
-0.999605, 169, 217, 184, 232
-0.999606, 331, 327, 346, 342
-0.999607, 345, 127, 360, 142
-0.999608, 65, 1, 80, 16
-0.999608, 111, 5, 126, 20
-0.999608, 219, 107, 234, 122
-0.999608, 91, 59, 106, 74
-0.999609, 233, 299, 248, 314
-0.999609, 479, 209, 494, 224
-0.999611, 117, 45, 132, 60
-0.999611, 189, 73, 204, 88
-0.999612, 337, 329, 352, 344
-0.999613, 199, 71, 214, 86
-0.999613, 83, 55, 98, 70
-0.999614, 127, 117, 142, 132
-0.999614, 293, 211, 308, 226
-0.999615, 319, 181, 334, 196
-0.999615, 329, 229, 344, 244
-0.999615, 147, 51, 162, 66
-0.999615, 213, 81, 228, 96
-0.999616, 181, 233, 196, 248
-0.999617, 335, 307, 350, 322
-0.999617, 369, 113, 384, 128
-0.999617, 243, 207, 258, 222
-0.999618, 123, 17, 138, 32
-0.999618, 51, 23, 66, 38
-0.999618, 109, 39, 124, 54
-0.999619, 125, 95, 140, 110
-0.999619, 331, 333, 346, 348
-0.99962, 227, 89, 242, 104
-0.999621, 45, 23, 60, 38
-0.999622, 203, 121, 218, 136
-0.999623, 211, 75, 226, 90
-0.999623, 123, 7, 138, 22
-0.999623, 335, 231, 350, 246
-0.999624, 117, 13, 132, 28
-0.999624, 105, 71, 120, 86
-0.999624, 251, 209, 266, 224
-0.999624, 119, 1, 134, 16
-0.999625, 227, 307, 242, 322
-0.999626, 367, 119, 382, 134
-0.999626, 165, 209, 180, 224
-0.999627, 197, 113, 212, 128
-0.999627, 81, 115, 96, 130
-0.999629, 65, 47, 80, 62
-0.999629, 207, 213, 222, 228
-0.999629, 45, 29, 60, 44
-0.99963, 325, 123, 340, 138
-0.99963, 283, 211, 298, 226
-0.99963, 207, 83, 222, 98
-0.99963, 181, 239, 196, 254
-0.999631, 113, 83, 128, 98
-0.999631, 231, 209, 246, 224
-0.999631, 179, 87, 194, 102
-0.999632, 75, 51, 90, 66
-0.999634, 237, 209, 252, 224
-0.999634, 233, 83, 248, 98
-0.999634, 181, 105, 196, 120
-0.999636, 261, 209, 276, 224
-0.999636, 259, 291, 274, 306
-0.999637, 197, 89, 212, 104
-0.999637, 219, 75, 234, 90
-0.999638, 215, 93, 230, 108
-0.999639, 113, 93, 128, 108
-0.999639, 249, 291, 264, 306
-0.99964, 53, 35, 68, 50
-0.999641, 207, 89, 222, 104
-0.999642, 313, 215, 328, 230
-0.999644, 103, 47, 118, 62
-0.999646, 211, 115, 226, 130
-0.999647, 169, 239, 184, 254
-0.999648, 325, 181, 340, 196
-0.999649, 201, 103, 216, 118
-0.99965, 189, 99, 204, 114
-0.99965, 97, 55, 112, 70
-0.99965, 225, 101, 240, 116
-0.99965, 195, 123, 210, 138
-0.999652, 225, 77, 240, 92
-0.999652, 123, 45, 138, 60
-0.999652, 273, 209, 288, 224
-0.999654, 185, 117, 200, 132
-0.999655, 125, 55, 140, 70
-0.999655, 121, 101, 136, 116
-0.999655, 119, 79, 134, 94
-0.999657, 99, 37, 114, 52
-0.999657, 201, 217, 216, 232
-0.999658, 121, 119, 136, 134
-0.99966, 129, 107, 144, 122
-0.999661, 335, 125, 350, 140
-0.999661, 483, 215, 498, 230
-0.999665, 119, 85, 134, 100
-0.999667, 119, 57, 134, 72
-0.999668, 213, 99, 228, 114
-0.999668, 187, 233, 202, 248
-0.999668, 179, 99, 194, 114
-0.99967, 37, 121, 52, 136
-0.99967, 171, 229, 186, 244
-0.999675, 201, 77, 216, 92
-0.999675, 191, 111, 206, 126
-0.999676, 177, 93, 192, 108
-0.999681, 209, 109, 224, 124
-0.999682, 69, 127, 84, 142
-0.999682, 213, 87, 228, 102
-0.999685, 83, 35, 98, 50
-0.999686, 91, 53, 106, 68
-0.99969, 185, 111, 200, 126
-0.99969, 89, 37, 104, 52
-0.999691, 103, 55, 118, 70
-0.999691, 109, 45, 124, 60
-0.999691, 111, 77, 126, 92
-0.999693, 189, 105, 204, 120
-0.999694, 79, 41, 94, 56
-0.999696, 97, 47, 112, 62
-0.999711, 159, 215, 174, 230
-0.999712, 179, 223, 194, 238
-0.999712, 197, 225, 212, 240
-0.999714, 191, 117, 206, 132
-0.999716, 203, 115, 218, 130
-0.999716, 227, 83, 242, 98
-0.999717, 119, 51, 134, 66
-0.999719, 113, 53, 128, 68
-0.999722, 91, 43, 106, 58
-0.999724, 125, 89, 140, 104
-0.999725, 197, 83, 212, 98
-0.999727, 241, 291, 256, 306
-0.999741, 175, 235, 190, 250
-0.999744, 85, 49, 100, 64
-0.999764, 221, 91, 236, 106
-0.99979, 219, 81, 234, 96
-1.00207, 33, 257, 96, 384
