1875
-0.0412679, 1, 1, 500, 333
-0.29495, 225, 1, 480, 333
-0.321286, 1, 33, 500, 288
-0.372179, 129, 1, 384, 333
-0.486174, 129, 1, 384, 256
-0.519276, 33, 1, 288, 333
-0.586512, 225, 1, 480, 256
-0.600636, 1, 1, 256, 256
-0.818029, 225, 1, 352, 256
-0.822879, 305, 1, 432, 333
-0.836496, 225, 1, 352, 333
-0.838885, 145, 1, 272, 256
-0.844271, 305, 33, 432, 288
-0.847553, 353, 1, 480, 256
-0.853226, 177, 1, 304, 333
-0.855136, 49, 1, 176, 333
-0.862222, 369, 1, 496, 333
-0.862343, 33, 1, 160, 256
-0.868744, 1, 177, 500, 304
-0.873042, 1, 97, 500, 224
-0.873565, 129, 145, 384, 272
-0.875885, 81, 1, 208, 256
-0.878481, 1, 1, 128, 333
-0.879341, 1, 1, 500, 128
-0.88149, 129, 1, 256, 333
-0.895008, 1, 49, 500, 176
-0.89974, 225, 193, 480, 320
-0.902131, 225, 145, 480, 272
-0.906253, 1, 145, 256, 272
-0.916621, 97, 193, 352, 320
-0.917911, 1, 97, 256, 224
-0.921084, 161, 129, 288, 256
-0.921671, 33, 1, 288, 128
-0.922891, 193, 97, 448, 224
-0.92392, 321, 161, 448, 288
-0.924914, 129, 33, 384, 160
-0.926228, 1, 209, 256, 333
-0.926935, 153, 113, 216, 240
-0.928879, 273, 161, 400, 288
-0.932373, 201, 129, 264, 256
-0.932709, 153, 161, 216, 288
-0.933731, 345, 145, 408, 272
-0.933756, 161, 177, 288, 304
-0.934645, 65, 1, 128, 128
-0.934779, 209, 97, 336, 224
-0.936005, 321, 209, 448, 333
-0.936903, 289, 161, 352, 288
-0.937148, 97, 97, 352, 224
-0.937227, 169, 209, 232, 333
-0.937601, 97, 1, 160, 128
-0.938236, 209, 145, 336, 272
-0.938604, 129, 161, 192, 288
-0.938962, 225, 49, 480, 176
-0.939411, 65, 1, 192, 128
-0.93973, 81, 113, 208, 240
-0.940028, 17, 1, 144, 128
-0.94131, 385, 177, 448, 304
-0.941762, 209, 209, 336, 333
-0.942341, 185, 129, 248, 192
-0.942415, 257, 209, 320, 333
-0.942485, 153, 1, 216, 128
-0.942593, 193, 177, 256, 304
-0.942891, 33, 49, 288, 176
-0.942968, 321, 177, 384, 304
-0.94385, 97, 209, 224, 333
-0.944669, 337, 169, 400, 232
-0.944974, 361, 193, 424, 320
-0.945044, 113, 161, 240, 288
-0.94556, 305, 113, 432, 240
-0.945998, 225, 129, 288, 256
-0.946428, 25, 1, 88, 128
-0.946948, 129, 1, 256, 128
-0.947144, 433, 1, 496, 128
-0.947289, 257, 113, 384, 240
-0.947363, 225, 153, 288, 216
-0.948193, 353, 145, 416, 208
-0.948208, 137, 121, 200, 184
-0.948222, 17, 81, 144, 208
-0.94883, 369, 129, 432, 256
-0.948842, 177, 129, 240, 256
-0.949257, 1, 145, 64, 272
-0.949736, 225, 193, 288, 320
-0.949986, 369, 177, 496, 304
-0.950139, 49, 193, 176, 320
-0.950225, 121, 1, 184, 128
-0.950247, 129, 81, 256, 208
-0.950293, 369, 1, 496, 128
-0.95096, 377, 185, 440, 248
-0.951469, 305, 113, 368, 240
-0.952057, 1, 1, 64, 128
-0.952234, 193, 177, 256, 240
-0.952432, 409, 1, 472, 128
-0.952468, 225, 33, 352, 160
-0.952562, 321, 137, 384, 200
-0.952713, 161, 161, 224, 224
-0.953013, 257, 161, 320, 288
-0.953477, 313, 161, 376, 224
-0.95358, 1, 209, 128, 333
-0.953755, 177, 1, 240, 128
-0.953802, 145, 209, 208, 333
-0.953955, 321, 33, 448, 160
-0.953955, 257, 209, 384, 333
-0.954061, 177, 17, 304, 144
-0.954179, 137, 65, 200, 192
-0.954466, 185, 81, 248, 208
-0.954662, 65, 73, 128, 136
-0.954924, 225, 81, 288, 208
-0.955026, 97, 73, 160, 136
-0.955527, 353, 113, 480, 240
-0.956074, 105, 49, 168, 176
-0.956345, 273, 33, 400, 160
-0.956766, 345, 193, 408, 256
-0.956771, 225, 217, 288, 280
-0.956958, 49, 209, 112, 333
-0.957344, 289, 161, 352, 224
-0.957601, 81, 65, 208, 192
-0.957784, 113, 97, 176, 224
-0.958622, 1, 177, 64, 240
-0.95888, 297, 209, 360, 333
-0.959155, 9, 193, 72, 320
-0.959559, 137, 1, 200, 64
-0.960149, 65, 81, 128, 208
-0.960151, 377, 153, 440, 216
-0.960471, 169, 201, 232, 264
-0.960492, 97, 97, 160, 160
-0.960663, 297, 185, 360, 248
-0.960823, 313, 49, 376, 176
-0.960919, 369, 33, 432, 160
-0.961024, 137, 97, 200, 160
-0.961206, 241, 121, 304, 184
-0.96129, 25, 113, 88, 240
-0.961433, 345, 217, 408, 280
-0.961658, 345, 33, 408, 160
-0.96167, 249, 153, 312, 216
-0.961755, 33, 129, 160, 256
-0.962101, 281, 113, 344, 240
-0.962104, 177, 9, 240, 72
-0.962195, 265, 33, 328, 160
-0.962356, 193, 217, 256, 280
-0.962834, 161, 137, 288, 200
-0.963284, 201, 153, 264, 216
-0.963577, 153, 121, 184, 184
-0.963739, 201, 17, 264, 144
-0.963761, 281, 1, 344, 256
-0.963794, 137, 145, 200, 208
-0.963841, 1, 9, 64, 72
-0.963894, 385, 217, 448, 280
-0.963897, 409, 17, 472, 80
-0.9639, 121, 209, 184, 333
-0.963957, 161, 129, 224, 192
-0.96399, 369, 33, 432, 96
-0.964079, 185, 257, 248, 320
-0.964318, 361, 1, 424, 256
-0.964418, 401, 129, 464, 256
-0.964558, 321, 201, 384, 264
-0.964583, 289, 33, 352, 160
-0.964702, 297, 137, 360, 200
-0.964952, 249, 97, 312, 224
-0.965126, 249, 201, 312, 264
-0.965176, 225, 33, 288, 160
-0.965272, 1, 201, 64, 264
-0.965343, 217, 241, 280, 304
-0.965363, 241, 1, 304, 256
-0.965463, 41, 49, 104, 176
-0.965498, 241, 177, 304, 240
-0.965574, 217, 113, 280, 176
-0.965599, 321, 161, 448, 224
-0.96644, 369, 121, 432, 184
-0.966565, 257, 1, 500, 128
-0.966625, 321, 33, 384, 288
-0.966733, 169, 145, 200, 208
-0.966858, 209, 153, 336, 216
-0.96696, 129, 177, 192, 240
-0.96696, 129, 233, 192, 296
-0.966987, 73, 49, 136, 112
-0.967006, 201, 1, 264, 256
-0.967047, 73, 9, 136, 72
-0.96705, 113, 9, 176, 72
-0.967115, 273, 201, 336, 264
-0.967458, 273, 137, 336, 200
-0.967466, 145, 201, 208, 264
-0.967492, 65, 97, 128, 160
-0.967592, 209, 25, 272, 88
-0.967661, 113, 49, 176, 112
-0.967918, 113, 129, 176, 192
-0.968008, 217, 177, 280, 240
-0.9682, 41, 73, 104, 136
-0.968344, 345, 121, 408, 184
-0.968376, 25, 1, 88, 256
-0.968688, 129, 177, 256, 240
-0.968839, 349, 137, 380, 200
-0.968849, 161, 241, 224, 304
-0.968969, 329, 97, 392, 224
-0.968991, 153, 113, 184, 240
-0.969205, 281, 41, 344, 104
-0.969728, 393, 145, 424, 272
-0.96978, 209, 265, 272, 328
-0.96982, 41, 17, 104, 80
-0.969924, 273, 185, 400, 248
-0.970117, 201, 193, 232, 320
-0.970208, 233, 145, 264, 208
-0.970219, 361, 81, 424, 208
-0.97027, 149, 161, 180, 288
-0.970312, 321, 49, 384, 112
-0.97053, 409, 177, 472, 304
-0.970818, 81, 113, 208, 176
-0.970826, 81, 209, 144, 333
-0.970985, 113, 153, 176, 216
-0.971035, 249, 225, 312, 288
-0.971304, 105, 145, 168, 272
-0.971454, 161, 105, 224, 168
-0.971521, 97, 1, 128, 128
-0.97163, 333, 161, 364, 224
-0.97164, 113, 1, 240, 64
-0.971705, 105, 81, 136, 144
-0.971708, 149, 97, 180, 160
-0.971728, 49, 1, 112, 256
-0.971731, 41, 161, 104, 288
-0.971954, 233, 113, 264, 240
-0.971971, 161, 217, 288, 280
-0.972052, 169, 121, 200, 184
-0.972108, 89, 1, 152, 256
-0.972114, 321, 193, 448, 256
-0.972131, 161, 161, 192, 288
-0.972174, 177, 177, 304, 240
-0.972179, 169, 113, 200, 240
-0.972282, 245, 161, 276, 288
-0.972366, 253, 153, 284, 216
-0.972391, 217, 161, 248, 288
-0.972435, 401, 193, 464, 256
-0.9726, 81, 1, 112, 128
-0.972734, 157, 145, 188, 208
-0.97278, 129, 113, 256, 176
-0.973009, 161, 49, 224, 176
-0.973017, 257, 145, 384, 208
-0.973064, 185, 161, 216, 288
-0.973066, 265, 177, 328, 240
-0.973076, 313, 113, 376, 176
-0.973301, 285, 161, 316, 288
-0.973595, 433, 9, 496, 72
-0.973598, 17, 169, 48, 232
-0.973625, 225, 201, 352, 264
-0.973655, 169, 1, 232, 256
-0.973815, 401, 249, 464, 312
-0.97388, 377, 201, 408, 264
-0.973969, 153, 169, 184, 232
-0.97398, 321, 161, 352, 288
-0.974105, 25, 201, 88, 264
-0.974137, 345, 161, 376, 224
-0.974223, 401, 129, 464, 192
-0.974229, 113, 209, 176, 272
-0.974284, 113, 1, 176, 256
-0.974326, 217, 177, 248, 240
-0.974465, 233, 201, 264, 264
-0.97447, 49, 89, 176, 152
-0.974622, 137, 65, 200, 128
-0.974658, 125, 1, 156, 128
-0.974822, 345, 41, 408, 104
-0.974859, 349, 145, 380, 272
-0.974923, 197, 113, 228, 240
-0.974948, 365, 137, 396, 200
-0.974953, 385, 1, 448, 256
-0.975018, 337, 137, 368, 200
-0.97516, 321, 137, 448, 200
-0.975235, 393, 153, 424, 216
-0.975266, 113, 153, 240, 216
-0.975283, 245, 177, 276, 240
-0.975438, 393, 209, 424, 333
-0.975454, 241, 33, 304, 96
-0.975525, 153, 193, 184, 256
-0.975534, 369, 65, 496, 192
-0.975586, 285, 201, 316, 264
-0.975616, 273, 233, 336, 296
-0.975727, 69, 73, 100, 136
-0.975751, 301, 177, 332, 304
-0.975762, 389, 129, 420, 192
-0.975874, 141, 1, 172, 64
-0.975876, 297, 233, 360, 296
-0.975891, 149, 65, 180, 192
-0.975919, 165, 1, 196, 64
-0.97599, 209, 121, 336, 184
-0.976037, 377, 145, 408, 208
-0.976158, 49, 265, 112, 328
-0.976176, 33, 1, 64, 128
-0.976343, 1, 97, 64, 224
-0.976389, 405, 161, 436, 288
-0.976397, 1, 1, 64, 256
-0.976425, 153, 1, 184, 128
-0.97656, 65, 9, 192, 72
-0.9766, 257, 265, 320, 328
-0.976657, 1, 153, 64, 216
-0.976789, 361, 241, 424, 304
-0.976833, 409, 1, 472, 256
-0.976853, 181, 121, 212, 184
-0.976854, 89, 265, 152, 328
-0.976862, 357, 161, 388, 224
-0.976912, 201, 185, 232, 248
-0.97697, 421, 209, 452, 333
-0.976993, 33, 9, 64, 72
-0.976996, 113, 201, 240, 264
-0.976997, 417, 201, 448, 264
-0.977148, 381, 177, 412, 304
-0.977157, 297, 209, 360, 272
-0.977229, 5, 161, 36, 224
-0.977237, 181, 161, 212, 224
-0.977289, 349, 185, 380, 248
-0.977319, 333, 113, 364, 240
-0.977404, 9, 145, 40, 272
-0.977425, 385, 9, 448, 72
-0.977462, 181, 113, 212, 240
-0.977496, 425, 9, 456, 72
-0.977542, 77, 97, 108, 160
-0.977572, 425, 1, 456, 128
-0.977664, 137, 33, 200, 96
-0.977737, 33, 161, 96, 224
-0.97774, 17, 9, 144, 72
-0.977804, 105, 65, 136, 192
-0.977828, 201, 9, 232, 72
-0.977973, 425, 129, 488, 256
-0.977989, 433, 265, 496, 328
-0.97803, 297, 1, 360, 333
-0.978046, 201, 1, 232, 128
-0.978069, 353, 233, 480, 296
-0.978116, 401, 201, 432, 264
-0.978191, 81, 65, 112, 128
-0.978241, 397, 177, 428, 240
-0.978261, 189, 209, 220, 333
-0.978289, 69, 1, 100, 128
-0.97835, 313, 265, 376, 328
-0.978382, 337, 33, 464, 96
-0.978411, 25, 41, 88, 104
-0.978483, 433, 1, 496, 256
-0.978593, 97, 241, 224, 304
-0.978597, 233, 209, 264, 333
-0.978638, 25, 273, 88, 333
-0.978679, 233, 113, 264, 176
-0.978694, 241, 1, 304, 333
-0.978755, 145, 1, 208, 256
-0.978769, 17, 49, 80, 176
-0.978851, 49, 65, 176, 128
-0.978868, 29, 185, 60, 248
-0.978988, 57, 33, 88, 160
-0.978995, 209, 265, 336, 328
-0.979023, 273, 113, 336, 176
-0.979068, 345, 1, 408, 333
-0.979117, 81, 177, 208, 240
-0.979119, 93, 89, 124, 152
-0.979135, 369, 201, 496, 264
-0.979157, 281, 273, 344, 333
-0.979188, 113, 1, 144, 128
-0.979267, 217, 129, 248, 192
-0.979305, 137, 73, 168, 136
-0.979357, 321, 225, 384, 288
-0.979392, 401, 81, 464, 208
-0.979458, 193, 105, 256, 168
-0.979474, 221, 113, 252, 240
-0.979506, 201, 225, 232, 288
-0.979574, 225, 41, 352, 104
-0.979609, 161, 265, 224, 328
-0.979631, 173, 161, 204, 288
-0.979652, 289, 217, 416, 280
-0.979682, 153, 209, 184, 333
-0.979728, 81, 161, 144, 288
-0.979734, 185, 1, 216, 128
-0.979765, 401, 153, 464, 216
-0.9798, 437, 1, 468, 128
-0.979803, 33, 105, 96, 168
-0.979873, 49, 217, 176, 280
-0.979896, 369, 153, 496, 216
-0.979964, 365, 193, 396, 256
-0.980072, 465, 1, 496, 128
-0.980103, 165, 209, 196, 333
-0.980105, 257, 201, 288, 264
-0.980119, 137, 97, 168, 160
-0.980124, 285, 161, 316, 224
-0.98014, 257, 121, 384, 184
-0.980167, 161, 17, 288, 80
-0.980287, 137, 1, 168, 128
-0.980296, 145, 249, 272, 312
-0.980349, 321, 161, 352, 224
-0.980375, 17, 273, 144, 333
-0.980425, 369, 129, 496, 192
-0.980431, 393, 41, 456, 104
-0.980528, 225, 225, 352, 288
-0.980537, 401, 273, 464, 333
-0.980542, 305, 161, 336, 224
-0.980547, 333, 161, 364, 288
-0.980553, 89, 97, 152, 224
-0.980605, 361, 145, 392, 272
-0.980623, 213, 257, 244, 320
-0.980739, 333, 209, 364, 333
-0.980741, 193, 129, 224, 192
-0.980756, 389, 201, 420, 264
-0.98082, 17, 81, 80, 144
-0.980851, 57, 73, 88, 136
-0.980881, 265, 209, 296, 333
-0.980882, 409, 209, 440, 333
-0.980957, 321, 1, 384, 333
-0.980986, 45, 1, 76, 128
-0.981122, 325, 137, 356, 200
-0.981171, 245, 113, 276, 240
-0.981185, 321, 1, 384, 128
-0.981202, 453, 1, 484, 128
-0.981222, 269, 137, 300, 200
-0.981224, 329, 201, 360, 264
-0.98124, 93, 49, 124, 176
-0.981248, 225, 177, 352, 240
-0.981296, 213, 217, 244, 280
-0.981368, 29, 177, 60, 304
-0.981389, 369, 1, 432, 333
-0.981403, 1, 81, 128, 144
-0.98145, 269, 201, 300, 264
-0.981494, 325, 33, 356, 160
-0.981497, 181, 209, 212, 272
-0.981566, 189, 249, 220, 312
-0.981592, 1, 193, 32, 320
-0.981603, 265, 161, 296, 288
-0.981613, 373, 113, 404, 240
-0.981626, 65, 137, 192, 200
-0.981676, 9, 201, 40, 264
-0.981682, 209, 1, 272, 333
-0.981709, 113, 1, 176, 333
-0.981738, 233, 241, 264, 304
-0.981779, 165, 233, 196, 296
-0.981786, 229, 25, 260, 88
-0.981872, 233, 177, 264, 240
-0.981898, 137, 161, 168, 288
-0.981936, 17, 137, 144, 200
-0.981949, 397, 225, 428, 288
-0.981952, 433, 57, 496, 120
-0.981988, 49, 217, 112, 280
-0.981988, 113, 257, 176, 320
-0.981993, 377, 121, 408, 184
-0.982035, 17, 177, 144, 240
-0.982071, 289, 137, 320, 200
-0.9821, 101, 9, 132, 72
-0.9821, 421, 249, 452, 312
-0.982147, 349, 217, 380, 280
-0.982165, 301, 137, 332, 200
-0.98217, 381, 177, 412, 240
-0.982272, 81, 9, 112, 72
-0.982332, 177, 1, 208, 64
-0.98236, 289, 41, 416, 104
-0.982373, 89, 217, 152, 280
-0.982469, 277, 209, 308, 333
-0.982476, 17, 1, 80, 333
-0.982483, 49, 41, 176, 104
-0.9825, 245, 201, 276, 264
-0.982536, 365, 217, 396, 280
-0.982542, 329, 17, 392, 80
-0.98258, 361, 33, 392, 160
-0.982652, 141, 209, 172, 272
-0.982656, 233, 161, 264, 288
-0.982726, 249, 129, 280, 192
-0.982737, 145, 145, 176, 208
-0.982772, 129, 81, 256, 144
-0.982812, 357, 49, 388, 112
-0.98287, 233, 265, 296, 328
-0.982919, 221, 153, 252, 216
-0.982979, 341, 49, 372, 176
-0.983034, 273, 1, 336, 333
-0.983037, 269, 161, 300, 224
-0.983069, 449, 17, 480, 80
-0.983105, 153, 1, 184, 64
-0.983135, 57, 1, 120, 333
-0.983267, 401, 1, 464, 333
-0.983284, 133, 129, 164, 192
-0.983334, 325, 49, 356, 112
-0.983359, 377, 33, 408, 96
-0.983387, 137, 81, 168, 208
-0.983492, 9, 17, 40, 144
-0.983507, 321, 113, 352, 240
-0.983535, 265, 113, 296, 240
-0.983541, 377, 265, 440, 328
-0.983555, 421, 225, 452, 288
-0.983558, 321, 113, 448, 176
-0.983619, 337, 273, 400, 333
-0.983635, 217, 209, 248, 333
-0.983668, 21, 1, 52, 128
-0.983681, 273, 273, 400, 333
-0.983812, 49, 185, 112, 248
-0.983815, 33, 249, 160, 312
-0.983817, 421, 145, 452, 272
-0.983827, 437, 17, 468, 80
-0.983851, 177, 209, 208, 333
-0.983859, 209, 1, 272, 64
-0.983887, 165, 1, 196, 128
-0.983975, 209, 113, 240, 240
-0.984026, 21, 129, 52, 256
-0.984077, 165, 177, 196, 240
-0.984093, 217, 25, 248, 88
-0.984144, 373, 33, 404, 160
-0.984178, 313, 33, 344, 160
-0.984218, 345, 209, 376, 333
-0.984257, 13, 209, 44, 333
-0.984297, 149, 73, 180, 136
-0.984328, 121, 9, 152, 72
-0.984426, 409, 25, 440, 88
-0.98443, 141, 209, 172, 333
-0.984433, 77, 65, 108, 192
-0.984462, 225, 17, 256, 144
-0.984491, 257, 177, 288, 240
-0.984514, 165, 97, 196, 160
-0.984527, 53, 209, 84, 333
-0.984545, 289, 209, 320, 333
-0.984616, 305, 241, 432, 304
-0.984622, 169, 209, 200, 272
-0.984623, 9, 225, 72, 288
-0.98474, 313, 137, 344, 200
-0.984745, 353, 257, 480, 320
-0.984767, 217, 89, 280, 152
-0.98477, 1, 201, 128, 264
-0.98479, 249, 9, 312, 72
-0.984796, 369, 193, 400, 320
-0.984834, 81, 1, 144, 333
-0.984861, 185, 1, 248, 333
-0.984926, 245, 33, 276, 160
-0.984955, 433, 81, 496, 208
-0.985044, 177, 97, 304, 160
-0.985082, 41, 193, 72, 320
-0.985087, 81, 121, 144, 184
-0.985103, 313, 209, 344, 333
-0.985111, 1, 105, 128, 168
-0.985169, 49, 49, 112, 112
-0.985173, 93, 49, 124, 112
-0.985411, 297, 97, 328, 224
-0.985423, 49, 241, 112, 304
-0.985431, 189, 9, 220, 72
-0.985453, 241, 97, 304, 160
-0.985484, 393, 33, 424, 160
-0.985644, 241, 25, 272, 88
-0.985676, 409, 225, 472, 288
-0.985693, 273, 33, 304, 160
-0.985712, 205, 129, 236, 192
-0.985714, 97, 265, 224, 328
-0.985721, 309, 113, 340, 240
-0.985745, 117, 65, 148, 128
-0.985856, 293, 33, 324, 160
-0.985869, 305, 25, 368, 88
-0.985896, 209, 17, 336, 80
-0.985929, 141, 169, 172, 232
-0.985934, 381, 225, 412, 288
-0.98599, 313, 41, 344, 104
-0.986014, 353, 113, 384, 176
-0.986043, 97, 33, 224, 96
-0.986045, 161, 49, 192, 176
-0.986075, 265, 225, 296, 288
-0.986086, 213, 1, 244, 128
-0.986096, 345, 49, 376, 112
-0.986118, 37, 209, 68, 272
-0.98616, 369, 9, 496, 72
-0.986195, 69, 9, 100, 72
-0.986243, 393, 97, 424, 224
-0.98625, 369, 177, 496, 240
-0.986311, 277, 113, 308, 240
-0.986356, 9, 129, 72, 192
-0.986377, 369, 169, 400, 232
-0.986411, 257, 249, 384, 312
-0.986433, 461, 9, 492, 72
-0.986435, 433, 1, 496, 333
-0.986452, 345, 97, 408, 160
-0.986479, 65, 97, 96, 160
-0.986493, 185, 33, 248, 96
-0.986552, 405, 33, 436, 160
-0.986579, 1, 33, 64, 96
-0.986583, 273, 17, 336, 80
-0.986611, 137, 273, 200, 333
-0.986634, 97, 209, 128, 333
-0.986634, 405, 129, 436, 192
-0.986668, 45, 17, 76, 80
-0.98671, 129, 145, 384, 208
-0.986753, 393, 41, 424, 104
-0.986773, 345, 97, 376, 224
-0.986852, 297, 185, 328, 248
-0.986892, 201, 265, 232, 328
-0.986916, 21, 17, 52, 80
-0.986929, 433, 233, 496, 296
-0.98693, 409, 153, 440, 216
-0.986972, 57, 25, 88, 88
-0.987158, 105, 185, 168, 248
-0.987179, 1, 105, 64, 168
-0.987187, 145, 1, 208, 333
-0.987204, 177, 249, 208, 312
-0.987224, 29, 161, 60, 224
-0.987254, 245, 241, 276, 304
-0.987293, 409, 113, 440, 240
-0.987351, 257, 97, 384, 160
-0.987486, 357, 193, 388, 320
-0.987739, 1, 225, 128, 288
-0.987766, 225, 209, 480, 272
-0.987791, 177, 41, 304, 104
-0.98789, 253, 209, 284, 333
-0.987902, 145, 121, 208, 152
-0.987944, 353, 149, 416, 180
-0.987961, 145, 153, 208, 184
-0.988133, 161, 273, 288, 333
-0.988199, 97, 57, 224, 120
-0.988243, 257, 33, 288, 160
-0.988255, 1, 49, 128, 112
-0.988286, 345, 205, 408, 236
-0.988326, 329, 137, 392, 168
-0.988328, 273, 17, 400, 80
-0.988352, 33, 129, 64, 256
-0.988374, 1, 197, 64, 228
-0.988432, 161, 169, 416, 232
-0.98845, 129, 209, 160, 333
-0.988455, 377, 189, 440, 220
-0.98849, 217, 153, 280, 184
-0.988539, 313, 185, 376, 216
-0.988609, 345, 161, 408, 192
-0.988665, 153, 165, 216, 196
-0.988724, 117, 49, 148, 176
-0.988736, 185, 133, 248, 164
-0.988862, 65, 81, 96, 208
-0.988893, 145, 141, 208, 172
-0.989086, 225, 173, 288, 204
-0.989168, 241, 153, 304, 184
-0.989209, 313, 149, 376, 180
-0.989217, 193, 177, 256, 208
-0.989274, 305, 173, 368, 204
-0.989284, 193, 165, 256, 196
-0.989369, 225, 213, 288, 244
-0.989429, 97, 93, 160, 124
-0.989429, 433, 193, 496, 320
-0.989453, 385, 201, 448, 232
-0.989516, 109, 209, 140, 333
-0.989531, 353, 221, 416, 252
-0.989531, 377, 153, 440, 184
-0.989555, 65, 77, 128, 108
-0.989555, 353, 173, 416, 204
-0.989619, 121, 125, 184, 156
-0.989621, 225, 145, 480, 208
-0.989647, 85, 209, 116, 333
-0.989673, 193, 189, 256, 220
-0.989689, 421, 97, 452, 224
-0.989716, 97, 77, 160, 108
-0.989719, 17, 81, 48, 208
-0.989737, 289, 157, 352, 188
-0.989785, 305, 65, 432, 128
-0.989807, 345, 193, 408, 224
-0.989868, 169, 177, 232, 208
-0.989872, 361, 97, 392, 224
-0.989885, 265, 153, 328, 184
-0.9899, 329, 173, 392, 204
-0.989901, 45, 49, 76, 176
-0.989909, 161, 121, 416, 184
-0.989912, 193, 217, 256, 248
-0.989916, 1, 145, 256, 208
-0.989958, 249, 173, 312, 204
-0.990039, 353, 137, 416, 168
-0.990058, 113, 105, 176, 136
-0.990062, 193, 153, 256, 184
-0.990072, 289, 145, 352, 176
-0.990089, 1, 181, 64, 212
-0.990104, 65, 209, 96, 333
-0.990115, 369, 41, 432, 72
-0.990135, 97, 201, 352, 264
-0.990137, 217, 141, 280, 172
-0.990174, 113, 61, 176, 92
-0.990188, 1, 153, 500, 216
-0.990204, 289, 185, 352, 216
-0.990217, 121, 137, 184, 168
-0.990255, 377, 177, 440, 208
-0.990256, 385, 233, 448, 264
-0.990262, 121, 153, 184, 184
-0.990296, 185, 121, 248, 152
-0.990297, 209, 113, 272, 144
-0.99032, 377, 217, 440, 248
-0.990335, 137, 9, 200, 40
-0.990344, 17, 209, 80, 240
-0.990442, 137, 109, 200, 140
-0.990449, 321, 9, 448, 72
-0.990465, 225, 65, 352, 128
-0.990505, 169, 13, 232, 44
-0.990508, 313, 161, 376, 192
-0.990524, 249, 137, 312, 168
-0.990525, 33, 9, 288, 72
-0.990526, 193, 201, 256, 232
-0.990533, 233, 201, 296, 232
-0.990539, 73, 13, 136, 44
-0.990547, 153, 205, 216, 236
-0.990558, 73, 93, 136, 124
-0.990561, 129, 237, 192, 268
-0.990582, 241, 225, 304, 256
-0.990617, 1, 169, 64, 200
-0.990626, 129, 165, 192, 196
-0.990647, 409, 33, 472, 64
-0.99066, 169, 145, 232, 176
-0.990665, 193, 261, 256, 292
-0.990703, 97, 17, 160, 48
-0.990715, 409, 17, 472, 48
-0.990723, 153, 193, 216, 224
-0.990771, 65, 105, 128, 136
-0.990776, 217, 29, 280, 60
-0.990777, 265, 193, 328, 224
-0.990791, 369, 105, 496, 168
-0.990797, 1, 17, 64, 48
-0.990804, 185, 233, 248, 264
-0.990839, 53, 161, 84, 288
-0.990842, 25, 189, 88, 220
-0.990865, 281, 41, 344, 72
-0.990867, 369, 125, 432, 156
-0.99088, 169, 217, 232, 248
-0.990882, 305, 133, 368, 164
-0.990905, 137, 97, 200, 128
-0.990958, 281, 169, 344, 200
-0.990966, 25, 13, 88, 44
-0.99102, 257, 281, 320, 312
-0.991041, 313, 197, 376, 228
-0.99106, 65, 177, 320, 240
-0.991066, 25, 177, 88, 208
-0.991075, 241, 189, 304, 220
-0.991082, 385, 29, 448, 60
-0.991103, 329, 221, 392, 252
-0.991142, 97, 117, 160, 148
-0.991154, 225, 125, 288, 156
-0.991158, 49, 17, 112, 48
-0.991175, 377, 137, 440, 168
-0.991212, 229, 65, 260, 192
-0.991239, 329, 125, 392, 156
-0.99124, 209, 229, 272, 260
-0.991256, 93, 97, 124, 224
-0.991289, 169, 253, 232, 284
-0.99131, 225, 233, 480, 296
-0.991318, 401, 189, 464, 220
-0.991323, 73, 65, 136, 96
-0.991354, 385, 165, 448, 196
-0.991372, 257, 37, 320, 68
-0.991406, 129, 177, 192, 208
-0.991418, 217, 185, 280, 216
-0.991451, 433, 21, 496, 52
-0.991456, 361, 237, 424, 268
-0.991474, 129, 197, 192, 228
-0.991508, 193, 25, 256, 56
-0.991508, 329, 273, 392, 304
-0.991522, 281, 205, 344, 236
-0.991522, 169, 269, 232, 300
-0.991534, 305, 45, 368, 76
-0.991545, 41, 73, 104, 104
-0.991546, 329, 49, 392, 80
-0.991555, 161, 109, 224, 140
-0.991567, 265, 221, 328, 252
-0.991574, 417, 5, 480, 36
-0.991588, 41, 97, 104, 128
-0.99159, 137, 61, 200, 92
-0.991604, 1, 9, 500, 72
-0.991607, 1, 113, 256, 176
-0.991612, 233, 281, 296, 312
-0.991617, 49, 205, 112, 236
-0.991618, 153, 229, 216, 260
-0.991625, 25, 161, 88, 192
-0.991628, 401, 249, 464, 280
-0.991645, 49, 257, 112, 288
-0.991659, 181, 65, 212, 192
-0.991675, 1, 177, 500, 240
-0.991711, 137, 81, 200, 112
-0.991719, 1, 157, 64, 188
-0.991722, 401, 145, 464, 176
-0.991731, 153, 241, 216, 272
-0.991777, 257, 185, 500, 248
-0.991817, 1, 201, 256, 264
-0.991843, 165, 129, 196, 160
-0.991875, 433, 209, 464, 333
-0.99192, 161, 137, 288, 168
-0.991923, 153, 145, 184, 176
-0.991964, 129, 169, 256, 200
-0.992073, 237, 153, 268, 184
-0.992078, 353, 141, 384, 172
-0.992111, 101, 85, 132, 116
-0.992116, 153, 121, 184, 152
-0.992129, 169, 141, 200, 172
-0.992159, 125, 113, 156, 240
-0.992187, 341, 145, 372, 176
-0.992192, 169, 157, 200, 188
-0.9922, 397, 193, 428, 224
-0.992229, 353, 153, 384, 184
-0.992238, 1, 225, 500, 288
-0.992271, 333, 169, 364, 200
-0.992288, 377, 205, 408, 236
-0.99229, 269, 153, 300, 184
-0.992329, 409, 189, 440, 220
-0.992331, 273, 149, 400, 180
-0.992331, 1, 129, 500, 192
-0.992335, 229, 177, 260, 208
-0.992336, 249, 173, 280, 204
-0.992338, 385, 149, 416, 180
-0.992344, 177, 129, 208, 160
-0.992368, 373, 149, 404, 180
-0.992379, 189, 121, 220, 152
-0.992391, 229, 141, 260, 172
-0.992407, 329, 149, 360, 180
-0.992409, 193, 65, 224, 192
-0.992419, 365, 137, 396, 168
-0.992423, 17, 189, 48, 220
-0.992437, 253, 157, 284, 188
-0.992438, 163, 169, 178, 232
-0.99244, 201, 185, 232, 216
-0.992485, 153, 133, 184, 164
-0.992489, 129, 233, 384, 296
-0.992501, 393, 165, 424, 196
-0.992504, 149, 169, 180, 200
-0.992533, 233, 217, 264, 248
-0.992534, 145, 109, 176, 140
-0.992538, 353, 205, 384, 236
-0.992543, 1, 89, 256, 152
-0.99255, 217, 181, 248, 212
-0.992556, 369, 193, 400, 224
-0.992559, 29, 197, 60, 228
-0.992565, 321, 181, 352, 212
-0.992567, 309, 185, 340, 216
-0.992569, 161, 149, 288, 180
-0.992578, 241, 193, 272, 224
-0.99258, 381, 217, 412, 248
-0.992585, 213, 221, 244, 252
-0.992592, 33, 13, 64, 44
-0.992592, 13, 169, 44, 200
-0.992594, 341, 185, 372, 216
-0.992604, 161, 33, 416, 96
-0.992604, 101, 97, 132, 128
-0.992607, 181, 141, 212, 172
-0.992608, 153, 201, 184, 232
-0.992609, 175, 137, 190, 200
-0.992615, 141, 93, 172, 124
-0.992622, 115, 73, 130, 136
-0.992629, 85, 93, 116, 124
-0.99264, 9, 201, 40, 232
-0.99264, 425, 13, 456, 44
-0.99265, 397, 233, 428, 264
-0.992651, 169, 117, 200, 148
-0.992653, 297, 145, 328, 176
-0.992655, 341, 157, 372, 188
-0.992666, 157, 181, 188, 212
-0.992669, 397, 177, 428, 208
-0.992674, 365, 205, 396, 236
-0.99268, 217, 65, 248, 192
-0.992682, 421, 193, 452, 224
-0.992697, 353, 193, 384, 224
-0.992702, 313, 145, 344, 176
-0.992704, 129, 181, 256, 212
-0.992713, 101, 73, 132, 104
-0.992714, 33, 181, 64, 212
-0.992724, 205, 129, 236, 160
-0.992724, 249, 141, 280, 172
-0.992725, 233, 117, 264, 148
-0.992726, 237, 165, 268, 196
-0.99273, 181, 161, 212, 192
-0.992736, 77, 81, 108, 112
-0.992738, 385, 185, 416, 216
-0.992744, 217, 133, 248, 164
-0.992753, 197, 13, 228, 44
-0.992762, 137, 81, 168, 112
-0.992763, 69, 97, 100, 128
-0.992765, 337, 133, 368, 164
-0.992767, 237, 105, 268, 136
-0.99277, 5, 189, 36, 220
-0.992773, 225, 25, 256, 56
-0.992778, 361, 137, 376, 200
-0.992795, 1, 153, 32, 184
-0.992795, 225, 165, 256, 196
-0.9928, 233, 229, 264, 260
-0.992801, 345, 173, 376, 204
-0.992803, 369, 81, 496, 144
-0.992808, 265, 225, 296, 256
-0.992812, 393, 221, 424, 252
-0.992819, 389, 137, 420, 168
-0.992821, 161, 237, 192, 268
-0.992824, 401, 205, 432, 236
-0.992835, 305, 181, 432, 212
-0.992841, 449, 21, 480, 52
-0.992845, 221, 201, 252, 232
-0.992849, 161, 129, 176, 192
-0.992852, 149, 69, 180, 100
-0.992867, 281, 145, 312, 176
-0.992867, 65, 73, 96, 104
-0.992867, 297, 193, 328, 224
-0.992871, 381, 37, 412, 68
-0.992875, 357, 49, 388, 80
-0.992876, 237, 205, 268, 236
-0.992877, 265, 209, 296, 240
-0.99289, 141, 9, 172, 40
-0.992891, 421, 249, 452, 280
-0.9929, 325, 133, 356, 164
-0.992912, 1, 21, 32, 52
-0.992917, 373, 161, 404, 192
-0.99292, 137, 157, 168, 188
-0.992927, 81, 13, 112, 44
-0.992927, 201, 169, 232, 200
-0.992929, 181, 253, 212, 284
-0.992931, 185, 173, 216, 204
-0.992932, 237, 25, 268, 56
-0.992938, 201, 197, 232, 228
-0.99294, 313, 41, 344, 72
-0.992945, 285, 189, 316, 220
-0.992948, 113, 77, 144, 108
-0.992953, 409, 153, 440, 184
-0.992955, 165, 5, 196, 36
-0.992955, 285, 173, 316, 204
-0.992958, 413, 233, 444, 264
-0.992968, 309, 173, 340, 204
-0.992969, 141, 121, 172, 152
-0.99297, 89, 81, 120, 112
-0.992971, 369, 225, 400, 256
-0.992972, 69, 109, 100, 140
-0.992981, 397, 153, 428, 184
-0.992982, 97, 13, 128, 44
-0.992983, 129, 101, 160, 132
-0.992984, 421, 25, 452, 56
-0.992986, 201, 217, 232, 248
-0.992986, 77, 69, 108, 100
-0.992986, 161, 169, 192, 200
-0.992986, 389, 205, 420, 236
-0.992992, 149, 81, 180, 112
-0.993018, 349, 153, 364, 216
-0.993023, 45, 113, 76, 240
-0.993033, 393, 145, 408, 208
-0.993044, 155, 97, 170, 160
-0.993117, 1, 241, 256, 304
-0.993146, 225, 157, 352, 188
-0.993242, 129, 125, 256, 156
-0.993369, 209, 145, 336, 176
-0.993402, 81, 73, 96, 136
-0.993441, 151, 73, 166, 136
-0.99347, 321, 145, 448, 176
-0.993482, 417, 49, 448, 176
-0.993487, 433, 65, 464, 192
-0.993519, 177, 173, 304, 204
-0.993558, 169, 153, 184, 216
-0.993561, 305, 169, 432, 200
-0.993599, 401, 161, 416, 224
-0.993614, 369, 57, 496, 120
-0.993623, 177, 161, 304, 192
-0.993651, 1, 105, 500, 168
-0.993656, 321, 89, 448, 152
-0.993662, 181, 137, 196, 200
-0.993713, 1, 65, 500, 128
-0.993714, 113, 9, 240, 40
-0.993726, 391, 201, 406, 264
-0.993741, 39, 1, 54, 64
-0.993776, 337, 197, 464, 228
-0.993778, 469, 65, 500, 192
-0.993816, 231, 137, 246, 200
-0.993845, 5, 97, 36, 224
-0.993864, 257, 193, 384, 224
-0.993875, 129, 193, 256, 224
-0.993914, 251, 145, 266, 208
-0.993946, 29, 65, 60, 192
-0.99396, 1, 201, 500, 264
-0.993968, 337, 1, 368, 128
-0.993968, 349, 1, 380, 128
-0.994016, 391, 177, 406, 240
-0.994017, 415, 185, 430, 248
-0.994024, 237, 145, 252, 208
-0.994043, 253, 177, 268, 240
-0.994053, 1, 41, 500, 104
-0.994055, 355, 137, 370, 200
-0.994062, 257, 25, 500, 88
-0.994076, 189, 129, 204, 192
-0.994086, 31, 177, 46, 240
-0.994132, 235, 209, 250, 272
-0.994155, 225, 169, 352, 200
-0.994191, 339, 161, 354, 224
-0.994241, 261, 161, 276, 224
-0.994258, 81, 125, 208, 156
-0.994298, 225, 257, 480, 320
-0.994302, 273, 205, 400, 236
-0.994326, 257, 121, 500, 184
-0.994354, 367, 137, 382, 200
-0.994356, 101, 89, 116, 152
-0.994367, 161, 205, 288, 236
-0.994394, 21, 169, 36, 232
-0.994409, 287, 201, 302, 264
-0.994412, 163, 193, 178, 256
-0.994421, 155, 145, 170, 208
-0.994427, 151, 1, 166, 64
-0.994465, 109, 65, 124, 128
-0.994469, 169, 129, 184, 192
-0.994484, 205, 185, 220, 248
-0.99452, 351, 177, 366, 240
-0.994556, 241, 201, 256, 264
-0.994574, 1, 273, 256, 333
-0.99459, 349, 129, 364, 192
-0.994596, 247, 177, 262, 240
-0.994608, 397, 217, 412, 280
-0.994641, 65, 13, 192, 44
-0.994662, 49, 97, 176, 128
-0.994694, 97, 157, 224, 188
-0.994697, 391, 121, 406, 184
-0.994734, 155, 169, 170, 232
-0.994745, 421, 185, 436, 248
-0.994796, 171, 1, 186, 64
-0.994808, 401, 185, 416, 248
-0.99483, 293, 161, 308, 224
-0.994849, 409, 153, 424, 216
-0.994864, 243, 145, 258, 208
-0.99487, 161, 221, 288, 252
-0.994885, 229, 217, 244, 280
-0.994894, 361, 161, 376, 224
-0.994908, 227, 177, 242, 240
-0.994963, 193, 1, 448, 64
-0.994999, 155, 121, 170, 184
-0.995004, 149, 129, 164, 192
-0.995018, 129, 265, 384, 328
-0.995032, 383, 153, 398, 216
-0.995061, 257, 137, 384, 168
-0.995075, 213, 9, 228, 72
-0.995082, 359, 113, 374, 176
-0.995107, 177, 1, 192, 64
-0.995112, 177, 233, 304, 264
-0.995115, 321, 133, 448, 164
-0.99512, 183, 113, 198, 176
-0.995134, 209, 193, 336, 224
-0.995142, 353, 41, 480, 72
-0.995145, 385, 193, 400, 256
-0.995197, 107, 89, 122, 152
-0.995214, 145, 105, 160, 168
-0.995217, 157, 1, 172, 64
-0.995223, 197, 169, 212, 232
-0.995225, 81, 137, 208, 168
-0.995226, 65, 33, 320, 96
-0.995228, 259, 201, 274, 264
-0.995236, 321, 217, 448, 248
-0.995241, 299, 161, 314, 224
-0.995265, 253, 121, 268, 184
-0.995267, 431, 193, 446, 256
-0.995274, 217, 1, 248, 256
-0.995275, 293, 201, 308, 264
-0.995318, 379, 193, 394, 256
-0.99533, 257, 181, 384, 212
-0.995346, 75, 65, 90, 128
-0.995355, 437, 233, 452, 296
-0.99536, 369, 153, 496, 184
-0.995364, 345, 177, 360, 240
-0.995367, 251, 201, 266, 264
-0.995385, 221, 249, 236, 312
-0.995391, 81, 169, 208, 200
-0.995395, 37, 177, 52, 240
-0.995397, 229, 1, 260, 256
-0.9954, 193, 117, 320, 148
-0.995401, 279, 217, 294, 280
-0.995402, 177, 73, 304, 136
-0.995412, 45, 9, 60, 72
-0.995425, 333, 161, 348, 224
-0.995445, 161, 29, 288, 60
-0.995461, 235, 113, 250, 176
-0.995467, 313, 1, 344, 256
-0.995469, 109, 9, 124, 72
-0.995469, 197, 121, 212, 184
-0.995478, 177, 113, 192, 176
-0.995482, 97, 237, 224, 268
-0.995487, 241, 221, 368, 252
-0.995507, 241, 41, 368, 72
-0.995509, 225, 129, 240, 192
-0.995514, 343, 201, 358, 264
-0.995517, 221, 25, 236, 88
-0.995519, 113, 209, 240, 240
-0.99552, 221, 185, 236, 248
-0.995539, 431, 1, 446, 64
-0.995544, 167, 105, 182, 168
-0.995547, 401, 129, 416, 192
-0.995554, 235, 241, 250, 304
-0.995572, 97, 81, 352, 144
-0.995584, 325, 161, 340, 224
-0.99559, 97, 109, 224, 140
-0.995605, 267, 145, 282, 208
-0.995608, 337, 33, 368, 288
-0.995615, 373, 1, 404, 256
-0.995615, 369, 201, 384, 264
-0.99562, 83, 9, 98, 72
-0.995622, 17, 173, 144, 204
-0.995634, 195, 9, 210, 72
-0.99564, 337, 137, 352, 200
-0.995643, 249, 1, 280, 256
-0.995645, 261, 137, 276, 200
-0.995651, 351, 217, 366, 280
-0.995655, 343, 137, 358, 200
-0.995659, 9, 161, 24, 224
-0.995668, 191, 161, 206, 224
-0.995682, 319, 161, 334, 224
-0.995704, 201, 9, 216, 72
-0.995705, 183, 1, 198, 64
-0.995714, 69, 73, 84, 136
-0.995733, 367, 161, 382, 224
-0.995742, 245, 121, 260, 184
-0.995776, 265, 217, 280, 280
-0.995794, 303, 137, 318, 200
-0.995798, 47, 201, 62, 264
-0.995804, 75, 89, 90, 152
-0.995806, 233, 177, 248, 240
-0.995806, 209, 205, 336, 236
-0.995811, 137, 9, 152, 72
-0.995813, 199, 249, 214, 312
-0.995831, 449, 17, 464, 80
-0.995833, 349, 33, 380, 288
-0.995846, 385, 1, 416, 256
-0.995852, 211, 217, 226, 280
-0.995854, 353, 233, 480, 264
-0.995857, 305, 161, 320, 224
-0.995861, 317, 137, 332, 200
-0.995862, 103, 9, 118, 72
-0.995869, 203, 129, 218, 192
-0.995883, 33, 117, 160, 148
-0.995884, 329, 137, 344, 200
-0.995886, 383, 129, 398, 192
-0.995889, 191, 249, 206, 312
-0.995891, 273, 201, 288, 264
-0.995896, 155, 209, 170, 272
-0.9959, 171, 201, 186, 264
-0.995905, 325, 41, 340, 104
-0.995908, 267, 177, 282, 240
-0.995916, 321, 157, 448, 188
-0.995942, 209, 133, 336, 164
-0.995947, 361, 33, 392, 288
-0.995967, 225, 289, 352, 320
-0.995976, 49, 69, 176, 100
-0.995978, 49, 197, 176, 228
-0.996004, 401, 1, 432, 256
-0.996035, 53, 1, 84, 256
-0.996086, 1, 25, 128, 56
-0.996115, 145, 65, 176, 320
-0.996139, 17, 13, 144, 44
-0.996146, 49, 85, 176, 116
-0.996175, 1, 205, 128, 236
-0.996176, 353, 185, 480, 216
-0.996181, 365, 137, 380, 168
-0.996203, 13, 1, 44, 256
-0.996203, 81, 181, 208, 212
-0.996249, 145, 113, 272, 144
-0.996253, 117, 1, 148, 256
-0.996257, 77, 1, 108, 256
-0.996274, 1, 273, 500, 333
-0.996286, 289, 45, 416, 76
-0.99636, 1, 65, 256, 128
-0.996395, 325, 33, 356, 288
-0.996419, 293, 1, 324, 256
-0.996427, 49, 209, 176, 240
-0.996434, 129, 97, 256, 128
-0.99647, 89, 1, 120, 256
-0.996474, 1, 81, 128, 112
-0.996488, 183, 125, 198, 156
-0.99651, 397, 161, 412, 192
-0.996533, 269, 1, 300, 256
-0.996544, 391, 149, 406, 180
-0.99655, 289, 277, 416, 308
-0.996584, 33, 253, 160, 284
-0.996591, 173, 145, 188, 176
-0.996619, 65, 1, 96, 256
-0.996629, 49, 157, 176, 188
-0.996649, 209, 29, 336, 60
-0.996657, 205, 1, 236, 256
-0.996657, 163, 177, 178, 208
-0.996659, 1, 193, 128, 224
-0.996698, 225, 237, 352, 268
-0.996703, 349, 165, 364, 196
-0.996708, 151, 89, 166, 120
-0.996711, 169, 133, 184, 164
-0.996711, 407, 173, 422, 204
-0.996714, 253, 173, 268, 204
-0.996715, 1, 1, 32, 256
-0.99673, 105, 81, 120, 112
-0.996735, 257, 57, 500, 120
-0.996754, 281, 1, 312, 256
-0.996779, 405, 157, 420, 188
-0.996805, 113, 77, 128, 108
-0.996807, 177, 269, 304, 300
-0.996835, 305, 237, 432, 268
-0.996847, 1, 297, 128, 328
-0.996848, 391, 205, 406, 236
-0.996865, 359, 153, 374, 184
-0.996873, 353, 261, 480, 292
-0.996875, 161, 17, 288, 48
-0.996898, 175, 129, 190, 160
-0.996916, 259, 157, 274, 188
-0.996923, 257, 125, 384, 156
-0.99693, 235, 141, 250, 172
-0.996932, 369, 209, 496, 240
-0.996938, 241, 145, 256, 176
-0.996948, 33, 277, 160, 308
-0.996961, 193, 41, 320, 72
-0.996968, 145, 245, 272, 276
-0.996973, 181, 141, 196, 172
-0.996991, 369, 141, 496, 172
-0.996997, 169, 1, 200, 256
-0.996999, 163, 165, 178, 196
-0.997002, 49, 221, 176, 252
-0.997009, 401, 177, 416, 208
-0.997013, 193, 97, 448, 160
-0.997018, 41, 1, 72, 256
-0.997028, 101, 1, 132, 256
-0.997031, 353, 29, 480, 60
-0.997038, 241, 269, 368, 300
-0.99705, 1, 105, 128, 136
-0.997069, 345, 145, 360, 176
-0.99709, 249, 153, 264, 184
-0.997096, 437, 1, 468, 256
-0.99714, 157, 1, 188, 256
-0.99715, 113, 89, 128, 120
-0.997163, 305, 33, 432, 64
-0.997167, 155, 117, 170, 148
-0.997183, 413, 181, 428, 212
-0.997188, 155, 169, 170, 200
-0.99719, 31, 189, 46, 220
-0.997206, 359, 141, 374, 172
-0.997218, 33, 241, 160, 272
-0.997247, 129, 1, 160, 256
-0.997252, 97, 293, 224, 324
-0.997274, 65, 25, 192, 56
-0.997278, 339, 145, 354, 176
-0.997285, 399, 189, 414, 220
-0.99729, 49, 265, 176, 296
-0.997294, 159, 145, 174, 176
-0.997294, 393, 217, 408, 248
-0.997297, 259, 169, 274, 200
-0.997306, 387, 193, 402, 224
-0.997313, 241, 177, 256, 208
-0.997315, 1, 249, 500, 312
-0.997317, 351, 141, 366, 172
-0.997337, 97, 253, 224, 284
-0.99734, 351, 185, 366, 216
-0.997344, 421, 65, 452, 320
-0.997354, 1, 93, 128, 124
-0.997365, 189, 129, 204, 160
-0.997385, 29, 1, 60, 256
-0.997389, 113, 25, 240, 56
-0.997391, 235, 217, 250, 248
-0.997402, 177, 289, 304, 320
-0.997411, 337, 177, 352, 208
-0.997431, 157, 105, 172, 136
-0.997437, 269, 153, 284, 184
-0.997439, 245, 189, 260, 220
-0.997445, 385, 157, 400, 188
-0.997451, 247, 173, 262, 204
-0.997458, 177, 257, 304, 288
-0.997463, 397, 149, 412, 180
-0.997469, 1, 265, 128, 296
-0.99747, 169, 117, 184, 148
-0.997473, 79, 93, 94, 124
-0.997473, 163, 193, 178, 224
-0.997477, 371, 145, 386, 176
-0.997486, 421, 185, 436, 216
-0.997488, 333, 145, 348, 176
-0.997492, 239, 193, 254, 224
-0.997496, 381, 145, 396, 176
-0.997496, 243, 157, 258, 188
-0.997498, 97, 85, 224, 116
-0.997501, 17, 129, 144, 160
-0.997503, 391, 177, 406, 208
-0.997526, 185, 1, 216, 256
-0.99754, 391, 165, 406, 196
-0.997542, 77, 73, 92, 104
-0.99755, 241, 105, 368, 136
-0.997558, 3, 197, 18, 228
-0.997563, 27, 173, 42, 204
-0.997566, 325, 145, 340, 176
-0.997572, 229, 137, 244, 168
-0.997583, 359, 193, 374, 224
-0.997584, 353, 173, 480, 204
-0.997587, 169, 157, 184, 188
-0.997588, 339, 133, 354, 164
-0.997589, 1, 153, 128, 184
-0.997598, 235, 157, 250, 188
-0.997601, 151, 65, 166, 96
-0.997607, 367, 193, 382, 224
-0.997611, 353, 153, 368, 184
-0.997612, 241, 105, 256, 136
-0.997621, 1, 217, 128, 248
-0.997629, 219, 181, 234, 212
-0.997639, 369, 221, 496, 252
-0.997643, 81, 37, 208, 68
-0.997646, 365, 153, 380, 184
-0.997653, 187, 141, 202, 172
-0.997656, 161, 133, 176, 164
-0.99766, 41, 201, 56, 232
-0.99766, 151, 77, 166, 108
-0.997667, 311, 185, 326, 216
-0.997669, 207, 185, 222, 216
-0.997672, 289, 57, 416, 88
-0.997698, 305, 121, 432, 152
-0.997698, 379, 205, 394, 236
-0.9977, 129, 41, 256, 72
-0.997702, 9, 197, 24, 228
-0.997709, 431, 193, 446, 224
-0.997712, 305, 185, 320, 216
-0.997713, 325, 185, 340, 216
-0.997714, 165, 145, 180, 176
-0.997717, 195, 121, 210, 152
-0.997723, 111, 65, 126, 96
-0.997729, 229, 221, 244, 252
-0.997732, 41, 9, 56, 40
-0.997734, 299, 145, 314, 176
-0.997745, 191, 161, 206, 192
-0.997745, 193, 105, 320, 136
-0.997748, 239, 205, 254, 236
-0.99776, 289, 73, 416, 104
-0.997763, 97, 73, 224, 104
-0.997765, 1, 141, 128, 172
-0.997766, 343, 169, 358, 200
-0.997771, 25, 193, 40, 224
-0.997773, 471, 13, 486, 44
-0.997773, 377, 193, 392, 224
-0.997774, 47, 201, 62, 232
-0.99778, 289, 297, 416, 328
-0.997786, 147, 109, 162, 140
-0.997786, 277, 225, 292, 256
-0.997795, 393, 193, 408, 224
-0.997795, 163, 205, 178, 236
-0.997799, 453, 1, 484, 256
-0.997805, 33, 37, 160, 68
-0.997805, 149, 133, 164, 164
-0.997808, 33, 177, 48, 208
-0.997813, 385, 205, 400, 236
-0.997813, 331, 181, 346, 212
-0.997816, 359, 205, 374, 236
-0.997821, 353, 245, 480, 276
-0.997822, 315, 145, 330, 176
-0.997826, 399, 221, 414, 252
-0.997829, 257, 257, 384, 288
-0.997831, 369, 125, 496, 156
-0.997833, 235, 229, 250, 260
-0.997834, 247, 141, 262, 172
-0.997848, 251, 185, 266, 216
-0.99785, 239, 25, 254, 56
-0.997851, 413, 233, 428, 264
-0.997855, 353, 205, 368, 236
-0.997865, 103, 97, 118, 128
-0.997867, 283, 145, 298, 176
-0.997867, 317, 185, 332, 216
-0.997869, 387, 225, 402, 256
-0.997874, 17, 189, 32, 220
-0.997876, 421, 201, 436, 232
-0.997881, 15, 165, 30, 196
-0.997881, 97, 265, 224, 296
-0.997884, 83, 13, 98, 44
-0.997886, 453, 17, 468, 48
-0.997895, 309, 145, 324, 176
-0.997896, 49, 57, 176, 88
-0.997897, 81, 277, 208, 308
-0.997901, 235, 181, 250, 212
-0.997905, 145, 85, 272, 116
-0.997911, 3, 21, 18, 52
-0.997912, 369, 205, 384, 236
-0.997919, 345, 189, 360, 220
-0.997979, 209, 89, 336, 120
-0.998023, 465, 1, 496, 256
-0.998061, 49, 297, 176, 328
-0.998084, 353, 301, 480, 332
-0.998098, 113, 225, 240, 256
-0.998174, 369, 53, 496, 84
-0.998177, 129, 281, 256, 312
-0.998239, 49, 1, 176, 32
-0.998257, 337, 65, 464, 96
-0.998279, 289, 89, 416, 120
-0.998279, 399, 161, 414, 288
-0.99831, 289, 109, 416, 140
-0.99831, 369, 113, 496, 144
-0.998315, 257, 29, 384, 60
-0.998318, 145, 131, 208, 146
-0.998324, 165, 145, 180, 272
-0.998331, 145, 125, 208, 140
-0.998368, 145, 161, 208, 176
-0.99838, 337, 145, 400, 160
-0.998389, 193, 171, 256, 186
-0.998393, 137, 155, 200, 170
-0.998395, 385, 195, 448, 210
-0.998397, 225, 153, 288, 168
-0.998397, 201, 181, 264, 196
-0.998398, 337, 171, 400, 186
-0.998407, 185, 135, 248, 150
-0.998415, 151, 65, 166, 192
-0.998417, 353, 163, 416, 178
-0.998419, 361, 151, 424, 166
-0.998424, 159, 97, 174, 224
-0.998429, 265, 153, 328, 168
-0.998431, 1, 201, 64, 216
-0.998435, 305, 189, 368, 204
-0.998435, 225, 159, 288, 174
-0.998438, 385, 189, 448, 204
-0.998442, 345, 201, 408, 216
-0.998444, 345, 207, 408, 222
-0.998446, 201, 177, 232, 192
-0.998447, 297, 149, 360, 164
-0.998447, 277, 165, 308, 180
-0.998448, 293, 279, 324, 294
-0.998448, 157, 195, 188, 210
-0.998449, 321, 193, 352, 208
-0.998449, 141, 121, 172, 136
-0.99845, 349, 169, 380, 184
-0.99845, 221, 213, 252, 228
-0.998451, 305, 181, 368, 196
-0.998451, 17, 183, 48, 198
-0.998452, 449, 23, 480, 38
-0.998453, 397, 157, 428, 172
-0.998454, 65, 77, 96, 92
-0.998454, 425, 21, 456, 36
-0.998454, 225, 199, 256, 214
-0.998455, 381, 167, 412, 182
-0.998456, 237, 207, 268, 222
-0.998456, 325, 169, 356, 184
-0.998457, 209, 231, 240, 246
-0.998457, 333, 199, 364, 214
-0.998458, 225, 27, 256, 42
-0.998458, 137, 163, 168, 178
-0.998458, 145, 169, 176, 184
-0.99846, 69, 113, 100, 128
-0.998462, 381, 41, 412, 56
-0.998463, 189, 123, 220, 138
-0.998463, 261, 203, 292, 218
-0.998464, 149, 105, 180, 120
-0.998465, 17, 173, 48, 188
-0.998466, 385, 193, 416, 208
-0.998467, 345, 193, 376, 208
-0.998467, 233, 185, 264, 200
-0.998469, 153, 169, 216, 184
-0.998469, 97, 95, 160, 110
-0.99847, 17, 195, 48, 210
-0.998471, 369, 143, 400, 158
-0.998471, 165, 119, 196, 134
-0.998472, 425, 27, 456, 42
-0.998472, 225, 177, 288, 192
-0.998472, 201, 187, 264, 202
-0.998473, 345, 217, 408, 232
-0.998474, 161, 57, 416, 120
-0.998474, 169, 183, 232, 198
-0.998474, 145, 143, 176, 158
-0.998475, 313, 169, 376, 184
-0.998476, 185, 163, 248, 178
-0.998476, 385, 201, 448, 216
-0.998476, 341, 177, 372, 192
-0.998477, 157, 189, 188, 204
-0.998477, 233, 229, 264, 244
-0.998478, 381, 209, 412, 224
-0.998479, 233, 203, 296, 218
-0.998479, 229, 173, 260, 188
-0.99848, 353, 157, 416, 172
-0.998481, 169, 127, 232, 142
-0.998482, 89, 99, 120, 114
-0.998483, 33, 17, 64, 32
-0.998483, 101, 101, 132, 116
-0.998485, 165, 163, 196, 178
-0.998486, 241, 161, 272, 176
-0.998486, 353, 199, 384, 214
-0.998487, 69, 107, 100, 122
-0.998488, 65, 79, 128, 94
-0.998489, 237, 195, 268, 210
-0.99849, 101, 77, 132, 92
-0.99849, 233, 209, 296, 224
-0.99849, 225, 165, 288, 180
-0.998492, 177, 163, 208, 178
-0.998492, 157, 169, 188, 184
-0.998493, 333, 153, 364, 168
-0.998493, 373, 161, 404, 176
-0.998493, 353, 161, 384, 176
-0.998493, 281, 191, 344, 206
-0.998493, 249, 167, 312, 182
-0.998493, 329, 155, 392, 170
-0.998494, 233, 219, 264, 234
-0.998496, 353, 177, 416, 192
-0.998496, 85, 93, 116, 108
-0.9985, 313, 187, 344, 202
-0.998502, 113, 133, 176, 148
-0.998502, 225, 219, 288, 234
-0.998502, 17, 207, 48, 222
-0.998503, 361, 191, 424, 206
-0.998504, 249, 203, 280, 218
-0.998505, 97, 137, 128, 152
-0.998506, 233, 147, 296, 162
-0.998506, 77, 99, 108, 114
-0.998507, 225, 171, 288, 186
-0.998509, 381, 219, 412, 234
-0.998509, 153, 207, 184, 222
-0.99851, 97, 75, 160, 90
-0.99851, 201, 187, 232, 202
-0.99851, 9, 207, 72, 222
-0.998511, 361, 139, 424, 154
-0.998512, 1, 193, 64, 208
-0.998512, 357, 273, 388, 288
-0.998513, 361, 145, 424, 160
-0.998514, 145, 139, 208, 154
-0.998515, 121, 121, 184, 136
-0.998515, 153, 175, 216, 190
-0.998515, 145, 99, 176, 114
-0.998515, 229, 159, 260, 174
-0.998516, 113, 89, 176, 104
-0.998516, 209, 133, 240, 148
-0.998516, 241, 171, 272, 186
-0.998518, 193, 157, 256, 172
-0.998519, 313, 163, 376, 178
-0.99852, 145, 115, 176, 130
-0.998521, 353, 155, 384, 170
-0.998521, 161, 237, 192, 252
-0.998522, 157, 179, 188, 194
-0.998522, 33, 185, 64, 200
-0.998522, 97, 101, 160, 116
-0.998524, 145, 149, 208, 164
-0.998524, 385, 223, 448, 238
-0.998524, 113, 113, 176, 128
-0.998525, 113, 83, 176, 98
-0.998525, 153, 137, 184, 152
-0.998527, 317, 149, 348, 164
-0.998527, 121, 161, 184, 176
-0.99853, 249, 197, 312, 212
-0.99853, 145, 119, 208, 134
-0.998531, 245, 187, 276, 202
-0.998531, 101, 89, 132, 104
-0.998532, 321, 199, 384, 214
-0.998533, 353, 149, 384, 164
-0.998533, 193, 141, 256, 156
-0.998533, 301, 191, 332, 206
-0.998533, 329, 147, 360, 162
-0.998533, 397, 179, 428, 194
-0.998534, 113, 69, 176, 84
-0.998534, 321, 273, 384, 288
-0.998536, 321, 139, 384, 154
-0.998538, 33, 203, 64, 218
-0.998538, 181, 137, 212, 152
-0.998538, 193, 263, 256, 278
-0.998539, 369, 155, 400, 170
-0.998539, 137, 11, 200, 26
-0.99854, 397, 193, 428, 208
-0.99854, 65, 73, 128, 88
-0.998542, 409, 197, 440, 212
-0.998542, 369, 41, 432, 56
-0.998542, 257, 167, 288, 182
-0.998543, 193, 207, 256, 222
-0.998544, 57, 107, 120, 122
-0.998544, 333, 191, 364, 206
-0.998545, 249, 159, 312, 174
-0.998546, 105, 139, 168, 154
-0.998546, 9, 201, 40, 216
-0.998547, 101, 83, 132, 98
-0.998547, 73, 17, 136, 32
-0.998548, 361, 227, 424, 242
-0.998548, 245, 149, 276, 164
-0.998549, 337, 161, 368, 176
-0.99855, 241, 187, 304, 202
-0.99855, 385, 235, 448, 250
-0.998551, 305, 175, 368, 190
-0.998551, 293, 149, 324, 164
-0.998552, 385, 155, 448, 170
-0.998554, 25, 189, 88, 204
-0.998554, 213, 223, 244, 238
-0.998554, 385, 159, 416, 174
-0.998554, 257, 285, 320, 300
-0.998555, 121, 127, 184, 142
-0.998555, 65, 87, 128, 102
-0.998556, 1, 181, 64, 196
-0.998558, 201, 213, 264, 228
-0.998559, 381, 153, 412, 168
-0.99856, 129, 241, 192, 256
-0.99856, 329, 181, 392, 196
-0.998561, 169, 213, 232, 228
-0.998562, 417, 17, 480, 32
-0.998562, 109, 1, 124, 128
-0.998562, 253, 157, 284, 172
-0.998563, 433, 11, 496, 26
-0.998563, 1, 15, 64, 30
-0.998566, 1, 187, 64, 202
-0.998566, 233, 149, 264, 164
-0.998566, 169, 141, 232, 156
-0.998566, 273, 147, 336, 162
-0.998567, 57, 113, 120, 128
-0.998568, 329, 191, 392, 206
-0.998569, 177, 235, 240, 250
-0.99857, 217, 183, 248, 198
-0.99857, 305, 155, 368, 170
-0.99857, 337, 171, 368, 186
-0.99857, 397, 185, 428, 200
-0.998571, 393, 169, 424, 184
-0.998572, 169, 149, 232, 164
-0.998573, 265, 155, 296, 170
-0.998573, 193, 219, 256, 234
-0.998573, 65, 101, 128, 116
-0.998573, 281, 45, 344, 60
-0.998574, 25, 17, 88, 32
-0.998574, 369, 47, 432, 62
-0.998575, 369, 183, 432, 198
-0.998575, 161, 155, 224, 170
-0.998575, 377, 169, 440, 184
-0.998575, 121, 167, 184, 182
-0.998576, 237, 201, 268, 216
-0.998576, 169, 267, 232, 282
-0.998576, 201, 149, 264, 164
-0.998576, 393, 199, 424, 214
-0.998577, 409, 33, 472, 48
-0.99858, 225, 229, 288, 244
-0.99858, 277, 151, 308, 166
-0.99858, 113, 107, 176, 122
-0.998581, 257, 173, 320, 188
-0.998581, 177, 177, 240, 192
-0.998582, 121, 101, 184, 116
-0.998582, 153, 207, 216, 222
-0.998583, 169, 189, 232, 204
-0.998583, 233, 135, 296, 150
-0.998583, 289, 167, 352, 182
-0.998584, 373, 201, 404, 216
-0.998585, 225, 117, 288, 132
-0.998586, 73, 137, 136, 152
-0.998586, 185, 121, 248, 136
-0.998586, 193, 225, 256, 240
-0.998587, 393, 145, 408, 272
-0.998587, 1, 171, 64, 186
-0.998587, 305, 149, 336, 164
-0.998592, 329, 181, 360, 196
-0.998595, 169, 145, 200, 160
-0.998599, 149, 157, 180, 172
-0.998599, 249, 177, 280, 192
-0.9986, 189, 129, 220, 144
-0.998606, 341, 145, 372, 160
-0.998606, 169, 157, 200, 172
-0.998613, 365, 149, 396, 164
-0.998623, 241, 155, 272, 170
-0.998628, 101, 95, 132, 110
-0.998631, 157, 145, 188, 160
-0.998636, 229, 179, 260, 194
-0.998644, 353, 143, 384, 158
-0.99865, 153, 123, 184, 138
-0.998656, 149, 129, 180, 144
-0.998657, 165, 139, 196, 154
-0.998659, 173, 125, 204, 140
-0.998661, 157, 1, 172, 128
-0.998664, 417, 191, 448, 206
-0.998665, 153, 151, 184, 166
-0.998666, 413, 161, 428, 288
-0.998692, 195, 161, 210, 288
-0.998698, 387, 145, 402, 272
-0.998716, 169, 131, 200, 146
-0.998725, 241, 129, 256, 256
-0.998732, 405, 161, 420, 288
-0.998748, 173, 129, 188, 256
-0.998755, 391, 193, 406, 320
-0.998755, 331, 161, 346, 288
-0.998764, 153, 161, 168, 288
-0.998787, 203, 177, 218, 304
-0.998798, 159, 161, 174, 288
-0.998802, 101, 1, 116, 128
-0.998806, 189, 113, 204, 240
-0.99881, 325, 177, 340, 304
-0.998814, 203, 129, 218, 256
-0.998818, 289, 145, 304, 272
-0.998819, 197, 113, 212, 240
-0.998821, 355, 161, 370, 288
-0.998825, 213, 177, 228, 304
-0.998828, 117, 17, 132, 144
-0.998832, 341, 161, 356, 288
-0.998837, 309, 177, 324, 304
-0.998838, 143, 1, 158, 128
-0.99884, 111, 65, 126, 192
-0.99886, 319, 177, 334, 304
-0.998862, 49, 1, 64, 128
-0.998868, 83, 1, 98, 128
-0.998874, 241, 177, 256, 304
-0.998877, 101, 81, 116, 208
-0.998882, 179, 113, 194, 240
-0.998886, 95, 1, 110, 128
-0.998887, 151, 1, 166, 128
-0.998888, 453, 1, 468, 128
-0.998899, 231, 161, 246, 288
-0.998906, 15, 145, 30, 272
-0.998908, 211, 1, 226, 128
-0.998926, 303, 177, 318, 304
-0.998926, 235, 113, 250, 240
-0.998927, 359, 113, 374, 240
-0.99893, 259, 145, 274, 272
-0.998936, 409, 209, 424, 333
-0.998938, 65, 33, 80, 160
-0.998944, 249, 113, 264, 240
-0.998956, 247, 161, 262, 288
-0.998958, 169, 81, 184, 208
-0.998959, 77, 1, 92, 128
-0.998961, 297, 161, 312, 288
-0.998963, 349, 113, 364, 240
-0.998969, 205, 1, 220, 128
-0.998977, 401, 113, 416, 240
-0.998979, 417, 209, 432, 333
-0.998982, 117, 65, 132, 192
-0.998986, 223, 129, 238, 256
-0.998986, 221, 177, 236, 304
-0.998987, 125, 1, 140, 128
-0.998997, 195, 1, 210, 128
-0.999008, 471, 1, 486, 128
-0.999016, 229, 113, 244, 240
-0.999017, 217, 1, 232, 128
-0.999022, 327, 33, 342, 160
-0.999028, 163, 1, 178, 128
-0.999031, 189, 193, 204, 320
-0.999033, 33, 1, 48, 128
-0.999037, 397, 209, 412, 333
-0.99904, 165, 209, 180, 333
-0.999041, 71, 17, 86, 144
-0.999042, 343, 209, 358, 333
-0.999047, 209, 129, 224, 256
-0.999052, 363, 33, 378, 160
-0.999053, 335, 113, 350, 240
-0.999058, 279, 177, 294, 304
-0.999059, 419, 161, 434, 288
-0.999063, 57, 17, 72, 144
-0.999066, 195, 209, 210, 333
-0.999066, 185, 1, 200, 128
-0.999066, 135, 1, 150, 128
-0.999067, 287, 193, 302, 320
-0.999068, 349, 161, 364, 288
-0.999073, 235, 209, 250, 333
-0.999076, 89, 1, 104, 128
-0.999076, 19, 209, 34, 333
-0.999082, 255, 97, 270, 224
-0.999083, 35, 145, 50, 272
-0.999086, 423, 209, 438, 333
-0.999091, 39, 1, 54, 128
-0.999093, 435, 209, 450, 333
-0.999094, 365, 145, 380, 272
-0.999101, 325, 113, 340, 240
-0.999103, 351, 49, 366, 176
-0.999106, 253, 161, 268, 288
-0.999109, 159, 209, 174, 333
-0.999111, 245, 33, 260, 160
-0.999112, 385, 193, 400, 320
-0.99912, 9, 145, 24, 272
-0.999121, 337, 49, 352, 176
-0.999122, 153, 113, 168, 240
-0.999123, 241, 81, 256, 208
-0.999131, 349, 209, 364, 333
-0.999136, 425, 1, 440, 128
-0.999151, 343, 113, 358, 240
-0.999153, 447, 1, 462, 128
-0.999153, 379, 33, 394, 160
-0.999154, 393, 97, 408, 224
-0.999154, 273, 161, 288, 288
-0.999159, 463, 1, 478, 128
-0.999159, 417, 17, 432, 144
-0.99916, 411, 113, 426, 240
-0.999165, 21, 161, 36, 288
-0.999169, 267, 193, 282, 320
-0.99917, 27, 209, 42, 333
-0.999171, 27, 1, 42, 128
-0.999174, 343, 49, 358, 176
-0.999175, 431, 161, 446, 288
-0.999176, 95, 81, 110, 208
-0.999183, 393, 33, 408, 160
-0.999187, 295, 209, 310, 333
-0.999188, 437, 1, 452, 128
-0.999188, 279, 113, 294, 240
-0.999191, 9, 193, 24, 320
-0.999191, 53, 193, 68, 320
-0.999191, 269, 113, 284, 240
-0.999192, 217, 129, 232, 256
-0.999193, 171, 193, 186, 320
-0.999654, 391, 157, 406, 172
-0.999655, 233, 141, 248, 156
-0.999655, 237, 213, 252, 228
-0.999655, 193, 135, 208, 150
-0.999656, 147, 115, 162, 130
-0.999657, 151, 83, 166, 98
-0.999657, 431, 197, 446, 212
-0.999657, 321, 187, 336, 202
-0.999659, 233, 219, 248, 234
-0.999659, 393, 169, 408, 184
-0.999659, 313, 189, 328, 204
-0.99966, 105, 79, 120, 94
-0.999661, 189, 125, 204, 140
-0.999661, 351, 193, 366, 208
-0.999661, 303, 191, 318, 206
-0.999663, 333, 181, 348, 196
-0.999665, 101, 137, 116, 152
-0.999665, 115, 69, 130, 84
-0.999665, 387, 199, 402, 214
-0.999666, 297, 151, 312, 166
-0.999667, 279, 151, 294, 166
-0.999667, 267, 163, 282, 178
-0.999667, 151, 73, 166, 88
-0.999667, 259, 203, 274, 218
-0.999669, 41, 201, 56, 216
-0.999672, 163, 205, 178, 220
-0.999674, 401, 193, 416, 208
-0.999675, 357, 199, 372, 214
-0.999676, 239, 183, 254, 198
-0.999677, 253, 201, 268, 216
-0.999677, 379, 155, 394, 170
-0.999679, 331, 149, 346, 164
-0.999679, 393, 219, 408, 234
-0.99968, 155, 107, 170, 122
-0.99968, 339, 191, 354, 206
-0.999681, 355, 153, 370, 168
-0.999681, 251, 187, 266, 202
-0.999682, 41, 9, 56, 24
-0.999682, 345, 153, 360, 168
-0.999682, 383, 149, 398, 164
-0.999682, 163, 197, 178, 212
-0.999683, 163, 115, 178, 130
-0.999683, 157, 115, 172, 130
-0.999684, 211, 187, 226, 202
-0.999685, 153, 169, 168, 184
-0.999686, 251, 181, 266, 196
-0.999687, 31, 205, 46, 220
-0.999687, 179, 133, 194, 148
-0.999687, 35, 175, 50, 190
-0.999689, 195, 129, 210, 144
-0.99969, 7, 201, 22, 216
-0.999691, 189, 163, 204, 178
-0.999691, 151, 89, 166, 104
-0.999691, 323, 149, 338, 164
-0.999692, 305, 149, 320, 164
-0.999693, 399, 157, 414, 172
-0.999695, 181, 145, 196, 160
-0.999695, 291, 165, 306, 180
-0.999695, 163, 191, 178, 206
-0.999697, 79, 73, 94, 88
-0.999701, 237, 149, 252, 164
-0.999701, 251, 163, 266, 178
-0.999702, 247, 201, 262, 216
-0.999705, 271, 151, 286, 166
-0.999705, 31, 195, 46, 210
-0.999707, 311, 149, 326, 164
-0.999707, 249, 151, 264, 166
-0.999708, 365, 273, 380, 288
-0.999708, 163, 185, 178, 200
-0.999709, 221, 183, 236, 198
-0.99971, 169, 133, 184, 148
-0.999713, 341, 147, 356, 162
-0.999713, 291, 151, 306, 166
-0.999716, 393, 213, 408, 228
-0.999718, 151, 101, 166, 116
-0.999719, 177, 127, 192, 142
-0.999719, 345, 191, 360, 206
-0.99972, 317, 149, 332, 164
-0.999723, 173, 157, 188, 172
-0.999724, 113, 81, 128, 96
-0.999725, 169, 125, 184, 140
-0.999725, 285, 151, 300, 166
-0.999726, 159, 171, 174, 186
-0.999727, 241, 197, 256, 212
-0.99973, 249, 173, 264, 188
-0.99973, 401, 179, 416, 194
-0.999731, 159, 145, 174, 160
-0.999731, 157, 121, 172, 136
-0.999734, 101, 93, 116, 108
-0.999736, 411, 183, 426, 198
-0.999738, 373, 149, 388, 164
-0.999738, 421, 189, 436, 204
-0.999739, 167, 141, 182, 156
-0.999741, 349, 163, 364, 178
-0.999742, 113, 95, 128, 110
-0.999742, 401, 187, 416, 202
-0.999742, 365, 145, 380, 160
-0.999744, 255, 155, 270, 170
-0.999745, 241, 155, 256, 170
-0.999746, 433, 191, 448, 206
-0.999751, 247, 195, 262, 210
-0.999752, 255, 175, 270, 190
-0.999754, 113, 75, 128, 90
-0.999756, 389, 205, 404, 220
-0.999758, 349, 145, 364, 160
-0.999761, 407, 175, 422, 190
-0.999763, 359, 143, 374, 158
-0.999763, 183, 125, 198, 140
-0.999767, 395, 163, 410, 178
-0.999768, 411, 193, 426, 208
-0.999768, 239, 203, 254, 218
-0.999769, 175, 139, 190, 154
-0.999771, 399, 173, 414, 188
-0.999772, 151, 95, 166, 110
-0.999775, 261, 169, 276, 184
-0.99978, 173, 145, 188, 160
-0.99978, 173, 151, 188, 166
-0.999781, 261, 161, 276, 176
-0.999787, 391, 151, 406, 166
-0.999787, 267, 157, 282, 172
-0.999789, 243, 149, 258, 164
-0.999789, 405, 169, 420, 184
-0.999793, 185, 131, 200, 146
-0.999802, 365, 139, 380, 154
-0.999806, 245, 179, 260, 194
-0.99981, 401, 163, 416, 178
-0.999812, 113, 89, 128, 104
-0.999824, 163, 179, 178, 194
-0.999833, 105, 85, 120, 100
-0.999853, 349, 169, 364, 184
