1877
-0.285423, 161, 1, 416, 333
-0.393395, 1, 1, 500, 333
-0.417942, 257, 1, 500, 333
-0.442858, 161, 1, 416, 256
-0.477545, 1, 1, 500, 256
-0.666914, 65, 1, 320, 333
-0.69199, 257, 1, 500, 256
-0.762094, 33, 65, 288, 320
-0.836485, 177, 1, 304, 256
-0.8379, 177, 1, 304, 333
-0.855229, 225, 1, 352, 333
-0.859052, 369, 1, 496, 333
-0.871268, 321, 1, 448, 333
-0.872824, 225, 1, 352, 256
-0.87671, 321, 1, 448, 256
-0.879432, 273, 1, 400, 333
-0.880799, 369, 1, 496, 256
-0.883649, 273, 1, 400, 256
-0.884447, 129, 65, 256, 320
-0.895229, 129, 1, 256, 333
-0.911133, 1, 33, 500, 160
-0.912134, 193, 33, 448, 160
-0.919035, 1, 193, 500, 320
-0.921365, 1, 129, 500, 256
-0.923387, 129, 113, 384, 240
-0.926326, 225, 209, 480, 333
-0.92754, 81, 1, 208, 333
-0.928426, 161, 113, 224, 240
-0.929046, 1, 81, 500, 208
-0.932531, 193, 33, 320, 160
-0.932935, 81, 65, 208, 320
-0.933699, 145, 113, 272, 240
-0.936252, 193, 33, 256, 160
-0.940749, 193, 161, 448, 288
-0.944175, 33, 113, 288, 240
-0.947108, 97, 33, 352, 160
-0.947143, 145, 193, 272, 320
-0.947252, 33, 193, 288, 320
-0.952801, 161, 121, 224, 184
-0.952832, 97, 113, 224, 240
-0.953006, 129, 97, 192, 224
-0.95663, 129, 209, 384, 333
-0.956715, 185, 177, 248, 304
-0.957821, 145, 49, 272, 176
-0.958573, 193, 1, 256, 256
-0.959421, 153, 65, 216, 192
-0.959909, 337, 193, 464, 320
-0.96065, 289, 33, 416, 160
-0.960734, 185, 97, 248, 224
-0.961248, 193, 41, 256, 104
-0.96165, 1, 49, 256, 176
-0.96317, 161, 153, 224, 216
-0.963455, 241, 33, 368, 160
-0.963907, 137, 145, 200, 272
-0.963918, 225, 193, 352, 320
-0.964184, 129, 105, 192, 168
-0.96419, 225, 145, 352, 272
-0.965386, 225, 33, 288, 160
-0.966354, 177, 185, 240, 248
-0.966944, 209, 129, 272, 256
-0.967049, 249, 33, 312, 160
-0.96759, 153, 97, 216, 160
-0.968054, 297, 33, 360, 160
-0.968222, 337, 33, 464, 160
-0.968618, 33, 1, 160, 333
-0.969871, 353, 145, 480, 272
-0.970059, 121, 129, 184, 192
-0.970082, 305, 129, 432, 256
-0.9701, 273, 33, 336, 160
-0.970935, 345, 33, 408, 160
-0.971036, 321, 33, 384, 160
-0.971278, 185, 105, 248, 168
-0.971327, 353, 113, 416, 240
-0.971673, 345, 153, 408, 216
-0.971746, 169, 65, 232, 320
-0.972197, 321, 129, 384, 256
-0.972263, 385, 33, 448, 160
-0.972316, 177, 113, 208, 240
-0.972538, 209, 209, 272, 333
-0.972667, 201, 137, 264, 200
-0.973298, 193, 97, 320, 224
-0.97371, 201, 33, 232, 160
-0.974138, 249, 209, 312, 333
-0.97435, 257, 113, 500, 240
-0.974374, 145, 145, 272, 208
-0.974509, 377, 113, 440, 240
-0.974613, 145, 121, 272, 184
-0.974865, 273, 209, 400, 333
-0.974946, 225, 1, 288, 256
-0.974966, 161, 177, 224, 304
-0.975009, 193, 1, 256, 333
-0.975335, 233, 161, 296, 288
-0.975389, 177, 41, 304, 104
-0.975837, 433, 33, 496, 160
-0.975877, 33, 33, 160, 288
-0.976101, 249, 249, 312, 312
-0.976212, 97, 33, 224, 160
-0.976307, 361, 1, 424, 256
-0.976845, 329, 1, 392, 256
-0.97729, 385, 209, 448, 333
-0.97755, 153, 97, 184, 224
-0.977586, 105, 97, 168, 224
-0.97771, 201, 161, 264, 224
-0.978098, 129, 97, 256, 160
-0.978134, 129, 193, 256, 256
-0.978727, 345, 161, 408, 288
-0.978787, 1, 1, 256, 128
-0.97881, 353, 129, 416, 192
-0.978834, 189, 113, 220, 240
-0.979002, 305, 1, 368, 256
-0.979135, 81, 161, 208, 288
-0.979206, 377, 161, 440, 224
-0.979235, 393, 161, 456, 288
-0.979366, 433, 209, 496, 333
-0.979518, 385, 1, 448, 256
-0.979561, 173, 121, 204, 184
-0.979672, 257, 97, 384, 224
-0.979681, 149, 113, 180, 176
-0.979727, 145, 177, 208, 240
-0.979736, 273, 1, 336, 256
-0.979745, 209, 249, 272, 312
-0.9798, 193, 81, 256, 144
-0.979964, 321, 145, 384, 208
-0.98001, 205, 185, 236, 248
-0.980016, 165, 113, 196, 240
-0.980099, 433, 1, 496, 256
-0.980109, 433, 241, 496, 304
-0.98028, 409, 33, 472, 160
-0.980567, 313, 209, 376, 333
-0.980658, 289, 209, 352, 333
-0.980704, 201, 41, 232, 104
-0.980841, 249, 1, 312, 256
-0.98094, 153, 73, 216, 136
-0.980997, 353, 97, 480, 224
-0.981093, 273, 265, 336, 328
-0.98152, 141, 97, 172, 224
-0.981527, 97, 121, 224, 184
-0.981532, 49, 97, 176, 224
-0.981647, 265, 41, 328, 104
-0.981649, 321, 273, 384, 333
-0.981659, 353, 177, 416, 240
-0.981773, 185, 209, 248, 272
-0.981931, 241, 249, 368, 312
-0.981997, 209, 129, 240, 256
-0.982006, 233, 1, 296, 333
-0.982141, 433, 41, 496, 104
-0.98217, 409, 1, 472, 256
-0.982177, 385, 137, 448, 200
-0.982407, 305, 41, 368, 104
-0.9825, 233, 41, 296, 104
-0.982585, 169, 1, 232, 333
-0.982774, 361, 209, 424, 333
-0.98313, 105, 105, 168, 168
-0.98337, 233, 217, 296, 280
-0.983462, 161, 113, 192, 176
-0.983623, 369, 161, 432, 288
-0.983656, 145, 169, 272, 232
-0.983782, 401, 1, 464, 333
-0.983815, 213, 33, 244, 160
-0.983937, 121, 161, 184, 224
-0.98401, 337, 161, 464, 224
-0.984139, 137, 97, 168, 160
-0.984185, 433, 1, 496, 333
-0.984228, 329, 41, 392, 104
-0.984376, 193, 113, 224, 176
-0.984425, 201, 185, 264, 248
-0.984459, 225, 185, 288, 248
-0.984515, 233, 273, 296, 333
-0.984689, 353, 41, 416, 104
-0.984786, 113, 73, 240, 136
-0.984796, 177, 81, 304, 144
-0.984976, 297, 257, 360, 320
-0.98499, 97, 169, 224, 232
-0.985012, 193, 169, 320, 232
-0.985019, 321, 169, 384, 232
-0.985171, 377, 41, 440, 104
-0.985436, 129, 65, 192, 320
-0.985508, 233, 33, 264, 160
-0.985534, 337, 209, 400, 333
-0.985609, 145, 137, 176, 200
-0.985624, 225, 225, 352, 288
-0.985646, 157, 153, 188, 216
-0.985688, 293, 33, 324, 160
-0.985752, 225, 209, 256, 333
-0.985758, 409, 249, 472, 312
-0.985776, 361, 1, 424, 333
-0.985829, 289, 129, 416, 192
-0.985839, 233, 137, 264, 200
-0.985891, 417, 161, 480, 288
-0.985957, 249, 33, 280, 160
-0.986108, 257, 41, 384, 104
-0.986305, 369, 137, 496, 200
-0.986453, 401, 113, 464, 240
-0.986488, 321, 41, 448, 104
-0.986534, 277, 33, 308, 160
-0.98657, 321, 121, 384, 184
-0.986687, 161, 161, 192, 288
-0.986764, 353, 257, 480, 320
-0.986794, 233, 145, 264, 272
-0.986806, 385, 265, 448, 328
-0.986828, 213, 177, 244, 304
-0.986833, 181, 89, 212, 152
-0.986835, 209, 193, 336, 256
-0.986971, 337, 1, 400, 333
-0.987028, 265, 33, 296, 160
-0.987037, 305, 81, 432, 208
-0.987083, 185, 65, 216, 192
-0.987151, 153, 17, 216, 144
-0.987166, 201, 177, 232, 304
-0.987269, 201, 161, 232, 224
-0.987306, 221, 217, 252, 280
-0.987337, 193, 265, 320, 328
-0.987371, 193, 17, 256, 80
-0.987391, 317, 33, 348, 160
-0.987475, 221, 113, 252, 240
-0.987483, 273, 273, 400, 333
-0.987501, 145, 241, 272, 304
-0.987551, 305, 33, 336, 160
-0.987559, 129, 81, 192, 144
-0.987566, 289, 153, 416, 216
-0.987581, 369, 41, 496, 104
-0.987602, 297, 1, 360, 333
-0.987661, 237, 249, 268, 312
-0.987668, 153, 49, 216, 112
-0.987742, 165, 185, 196, 248
-0.987742, 297, 145, 360, 208
-0.98783, 145, 217, 272, 280
-0.987832, 209, 225, 272, 288
-0.987867, 401, 41, 464, 104
-0.987963, 329, 33, 360, 160
-0.987975, 257, 1, 320, 333
-0.988068, 213, 145, 244, 208
-0.98817, 193, 185, 224, 248
-0.988294, 289, 177, 416, 240
-0.988379, 225, 145, 288, 208
-0.988513, 361, 265, 424, 328
-0.988694, 189, 177, 220, 304
-0.988741, 241, 145, 368, 208
-0.988901, 393, 33, 424, 160
-0.988903, 353, 33, 384, 160
-0.988912, 353, 153, 384, 216
-0.98892, 225, 169, 256, 232
-0.988952, 233, 17, 296, 80
-0.989147, 281, 129, 344, 256
-0.98919, 365, 33, 396, 160
-0.989199, 97, 145, 224, 208
-0.989205, 273, 17, 336, 80
-0.989275, 193, 105, 320, 168
-0.989305, 241, 113, 368, 176
-0.989307, 201, 89, 232, 152
-0.989335, 341, 33, 372, 160
-0.989369, 65, 97, 192, 160
-0.989438, 373, 153, 404, 216
-0.989451, 33, 49, 160, 176
-0.989535, 209, 113, 272, 176
-0.989654, 125, 105, 156, 168
-0.989725, 97, 49, 224, 112
-0.989729, 161, 125, 224, 156
-0.989731, 409, 273, 472, 333
-0.989826, 129, 49, 192, 176
-0.989863, 193, 41, 256, 72
-0.989873, 297, 17, 360, 80
-0.989913, 193, 145, 320, 208
-0.989918, 321, 249, 384, 312
-0.989951, 153, 201, 216, 264
-0.990012, 177, 193, 240, 224
-0.990049, 381, 33, 412, 160
-0.990062, 173, 193, 204, 320
-0.99015, 137, 117, 200, 148
-0.990301, 409, 33, 440, 160
-0.990319, 161, 145, 224, 176
-0.990325, 321, 81, 384, 208
-0.990345, 281, 121, 344, 184
-0.990348, 261, 257, 292, 320
-0.990381, 177, 193, 208, 256
-0.990387, 369, 113, 496, 176
-0.990395, 169, 153, 200, 216
-0.990396, 249, 273, 280, 333
-0.990428, 153, 105, 216, 136
-0.990433, 369, 129, 400, 256
-0.990459, 305, 249, 432, 312
-0.99053, 409, 209, 472, 333
-0.990548, 161, 41, 416, 104
-0.990634, 321, 17, 384, 80
-0.990641, 193, 17, 320, 80
-0.990665, 129, 105, 192, 136
-0.990673, 385, 169, 416, 232
-0.990693, 353, 153, 416, 184
-0.990724, 201, 141, 264, 172
-0.99079, 121, 137, 184, 168
-0.990799, 469, 33, 500, 160
-0.990814, 385, 113, 416, 240
-0.990819, 213, 41, 244, 104
-0.99105, 369, 201, 496, 264
-0.991054, 333, 145, 364, 208
-0.991072, 161, 173, 224, 204
-0.991084, 257, 17, 384, 80
-0.991141, 345, 17, 408, 80
-0.991234, 217, 121, 248, 184
-0.991322, 469, 41, 500, 104
-0.991365, 145, 185, 208, 216
-0.991423, 193, 105, 256, 136
-0.991503, 89, 49, 152, 176
-0.991512, 161, 157, 224, 188
-0.99154, 185, 121, 248, 152
-0.991609, 381, 129, 412, 192
-0.991625, 285, 41, 316, 104
-0.991645, 329, 145, 392, 176
-0.991653, 321, 209, 352, 333
-0.991656, 277, 265, 308, 328
-0.991663, 129, 113, 384, 176
-0.991687, 253, 41, 284, 104
-0.991706, 433, 153, 496, 216
-0.991716, 337, 169, 400, 200
-0.991757, 241, 249, 304, 280
-0.991788, 273, 41, 336, 72
-0.99179, 201, 185, 264, 216
-0.991815, 113, 117, 176, 148
-0.991855, 149, 145, 180, 272
-0.991857, 241, 41, 272, 104
-0.991857, 265, 41, 296, 104
-0.991857, 305, 41, 336, 104
-0.991865, 421, 33, 452, 160
-0.991872, 185, 205, 248, 236
-0.991876, 249, 269, 312, 300
-0.991888, 325, 41, 356, 104
-0.991899, 357, 129, 388, 256
-0.991903, 225, 249, 480, 312
-0.991908, 249, 41, 312, 72
-0.991914, 201, 153, 264, 184
-0.991931, 297, 41, 360, 72
-0.991936, 225, 41, 288, 72
-0.991953, 257, 289, 320, 320
-0.991959, 321, 277, 384, 308
-0.99196, 233, 237, 296, 268
-0.991967, 153, 89, 184, 152
-0.991972, 241, 97, 304, 224
-0.991974, 129, 97, 160, 224
-0.992016, 209, 269, 272, 300
-0.992019, 185, 93, 248, 124
-0.992027, 97, 25, 224, 88
-0.992041, 377, 169, 440, 200
-0.992127, 281, 289, 344, 320
-0.992127, 313, 157, 376, 188
-0.992154, 129, 173, 192, 204
-0.992183, 321, 41, 384, 72
-0.9922, 233, 225, 296, 256
-0.992201, 353, 41, 416, 72
-0.992206, 385, 113, 448, 176
-0.992249, 353, 141, 416, 172
-0.992274, 289, 265, 320, 328
-0.992281, 217, 197, 280, 228
-0.99229, 377, 41, 440, 72
-0.992307, 193, 221, 256, 252
-0.992315, 201, 241, 264, 272
-0.992327, 153, 25, 216, 88
-0.992331, 129, 153, 384, 216
-0.992334, 153, 93, 216, 124
-0.992336, 229, 41, 260, 104
-0.992349, 209, 257, 272, 288
-0.992349, 433, 41, 496, 72
-0.992362, 369, 17, 432, 80
-0.992366, 225, 209, 288, 240
-0.99239, 225, 145, 288, 176
-0.992395, 409, 129, 472, 192
-0.992422, 49, 129, 176, 192
-0.992438, 233, 281, 296, 312
-0.992459, 457, 33, 488, 160
-0.99246, 393, 157, 456, 188
-0.992483, 305, 17, 432, 80
-0.992491, 193, 73, 256, 104
-0.992502, 361, 289, 424, 320
-0.992523, 433, 245, 496, 276
-0.992583, 329, 133, 392, 164
-0.992584, 401, 161, 464, 224
-0.992588, 385, 289, 448, 320
-0.99259, 201, 173, 264, 204
-0.9926, 205, 185, 236, 216
-0.992609, 133, 129, 164, 192
-0.992625, 153, 69, 216, 100
-0.992643, 129, 153, 192, 184
-0.992653, 393, 141, 456, 172
-0.992656, 153, 57, 216, 88
-0.992675, 281, 277, 344, 308
-0.992686, 153, 137, 184, 168
-0.992689, 193, 61, 256, 92
-0.992707, 337, 41, 368, 104
-0.992729, 385, 273, 448, 304
-0.992736, 305, 145, 368, 176
-0.992743, 201, 41, 232, 72
-0.992754, 353, 129, 416, 160
-0.992773, 89, 113, 152, 144
-0.992798, 153, 81, 216, 112
-0.992809, 233, 113, 296, 176
-0.992823, 409, 41, 472, 72
-0.992855, 153, 197, 216, 228
-0.992868, 185, 109, 216, 140
-0.99289, 201, 81, 232, 208
-0.992895, 153, 45, 216, 76
-0.992908, 145, 117, 176, 148
-0.992909, 313, 169, 376, 200
-0.992915, 305, 289, 368, 320
-0.992916, 233, 141, 264, 172
-0.99294, 189, 161, 220, 224
-0.992944, 257, 209, 288, 333
-0.992962, 169, 125, 200, 156
-0.992964, 265, 29, 328, 60
-0.992976, 233, 157, 296, 188
-0.99299, 361, 277, 424, 308
-0.993003, 233, 29, 296, 60
-0.993008, 353, 181, 416, 212
-0.993019, 157, 121, 188, 152
-0.993022, 297, 29, 360, 60
-0.993028, 153, 185, 184, 248
-0.993032, 209, 29, 272, 60
-0.993037, 353, 17, 480, 80
-0.993051, 417, 17, 480, 80
-0.993061, 337, 289, 400, 320
-0.993073, 329, 181, 392, 212
-0.993095, 337, 273, 368, 333
-0.993097, 329, 153, 360, 184
-0.993103, 137, 105, 168, 136
-0.993105, 193, 189, 224, 220
-0.993105, 197, 121, 228, 152
-0.99311, 409, 281, 472, 312
-0.993116, 225, 133, 288, 164
-0.993119, 105, 101, 168, 132
-0.993123, 169, 145, 200, 176
-0.99313, 425, 257, 488, 288
-0.993143, 173, 185, 204, 216
-0.993144, 193, 177, 448, 240
-0.993155, 209, 81, 272, 208
-0.993162, 437, 249, 468, 312
-0.993164, 141, 133, 172, 164
-0.993178, 377, 129, 440, 160
-0.99318, 217, 133, 248, 164
-0.993187, 289, 105, 416, 168
-0.993188, 337, 29, 400, 60
-0.993194, 201, 93, 232, 124
-0.993194, 185, 125, 216, 156
-0.993194, 305, 125, 368, 156
-0.993198, 241, 269, 272, 300
-0.9932, 209, 197, 240, 228
-0.993216, 281, 153, 344, 184
-0.993219, 161, 185, 192, 216
-0.993225, 157, 173, 188, 204
-0.993236, 133, 117, 164, 148
-0.993237, 209, 273, 272, 333
-0.993239, 213, 41, 244, 72
-0.993244, 297, 41, 328, 72
-0.993255, 285, 41, 316, 72
-0.993259, 257, 41, 288, 72
-0.993259, 273, 41, 304, 72
-0.99326, 433, 113, 496, 240
-0.99326, 229, 41, 260, 72
-0.993261, 285, 289, 316, 320
-0.993265, 309, 41, 340, 72
-0.993265, 217, 145, 248, 176
-0.993269, 381, 153, 412, 184
-0.99327, 245, 41, 276, 72
-0.99327, 261, 289, 292, 320
-0.993272, 433, 149, 496, 180
-0.99328, 281, 141, 344, 172
-0.993285, 217, 217, 248, 248
-0.993286, 417, 269, 480, 300
-0.99329, 233, 253, 264, 284
-0.99329, 273, 289, 304, 320
-0.993293, 325, 41, 356, 72
-0.993293, 433, 233, 496, 264
-0.993304, 469, 41, 500, 72
-0.993306, 357, 149, 388, 180
-0.993306, 225, 237, 256, 268
-0.993309, 297, 289, 328, 320
-0.99331, 361, 41, 392, 104
-0.993313, 337, 41, 368, 72
-0.993321, 161, 161, 192, 192
-0.993325, 121, 113, 152, 144
-0.993331, 181, 97, 212, 128
-0.993335, 349, 41, 380, 72
-0.993345, 181, 197, 212, 228
-0.993354, 417, 137, 480, 168
-0.993357, 221, 173, 252, 204
-0.993359, 401, 257, 464, 288
-0.993362, 209, 157, 240, 188
-0.993367, 341, 145, 372, 176
-0.993369, 249, 281, 280, 312
-0.993369, 201, 137, 232, 168
-0.993371, 349, 165, 380, 196
-0.993374, 377, 137, 408, 168
-0.99338, 205, 105, 236, 136
-0.993381, 261, 269, 292, 300
-0.993382, 361, 41, 392, 72
-0.993397, 197, 81, 228, 112
-0.9934, 309, 289, 340, 320
-0.9934, 457, 41, 488, 72
-0.993403, 165, 65, 196, 192
-0.993412, 361, 29, 424, 60
-0.993413, 381, 41, 412, 72
-0.993418, 161, 109, 192, 140
-0.99343, 289, 113, 352, 144
-0.99343, 385, 169, 416, 200
-0.993437, 405, 41, 436, 72
-0.993438, 233, 157, 264, 188
-0.99344, 381, 289, 412, 320
-0.99344, 365, 137, 396, 168
-0.993445, 153, 33, 216, 64
-0.993446, 393, 289, 424, 320
-0.993448, 349, 41, 380, 104
-0.993452, 397, 161, 428, 192
-0.993452, 321, 285, 352, 316
-0.993453, 185, 29, 248, 60
-0.993455, 189, 41, 220, 72
-0.993468, 393, 137, 424, 200
-0.99347, 341, 277, 372, 308
-0.993473, 129, 129, 160, 160
-0.993476, 393, 41, 424, 72
-0.993477, 405, 289, 436, 320
-0.993478, 377, 181, 440, 212
-0.993479, 337, 225, 464, 288
-0.993481, 409, 245, 472, 276
-0.993484, 97, 129, 160, 160
-0.993486, 369, 289, 400, 320
-0.993499, 121, 185, 184, 216
-0.993503, 353, 137, 384, 168
-0.993512, 249, 245, 280, 276
-0.993515, 417, 29, 480, 60
-0.993523, 365, 165, 396, 196
-0.993527, 369, 149, 400, 180
-0.993528, 337, 165, 368, 196
-0.993529, 401, 189, 464, 220
-0.993532, 209, 117, 272, 148
-0.993536, 425, 169, 488, 200
-0.993539, 149, 105, 180, 136
-0.993539, 221, 157, 252, 188
-0.99354, 357, 277, 388, 308
-0.99354, 181, 61, 212, 92
-0.993541, 289, 165, 352, 196
-0.993545, 125, 101, 156, 132
-0.993546, 325, 165, 356, 196
-0.993549, 401, 125, 464, 156
-0.993555, 273, 277, 304, 308
-0.993555, 293, 277, 324, 308
-0.993556, 253, 257, 284, 288
-0.993557, 385, 29, 448, 60
-0.993562, 157, 149, 188, 180
-0.993566, 145, 169, 176, 200
-0.993571, 389, 141, 420, 172
-0.993572, 369, 129, 400, 192
-0.993574, 173, 113, 204, 144
-0.993579, 165, 197, 196, 228
-0.99358, 305, 277, 336, 308
-0.993583, 329, 141, 360, 172
-0.993586, 229, 197, 260, 228
-0.993588, 245, 233, 276, 264
-0.993592, 193, 173, 224, 204
-0.993592, 421, 273, 452, 304
-0.993599, 317, 153, 348, 184
-0.993599, 285, 29, 316, 60
-0.993599, 237, 221, 268, 252
-0.993599, 417, 289, 448, 320
-0.993603, 217, 29, 248, 60
-0.993603, 445, 245, 476, 276
-0.993604, 253, 29, 284, 60
-0.993609, 225, 185, 256, 216
-0.993609, 369, 277, 400, 308
-0.99361, 301, 29, 332, 60
-0.993612, 233, 29, 264, 60
-0.993614, 273, 29, 304, 60
-0.993614, 417, 41, 448, 72
-0.993616, 233, 209, 264, 240
-0.993618, 181, 73, 212, 104
-0.99362, 317, 29, 348, 60
-0.993624, 217, 121, 248, 152
-0.993625, 329, 273, 360, 304
-0.993627, 181, 137, 212, 168
-0.99363, 205, 29, 236, 60
-0.99363, 209, 173, 240, 204
-0.993631, 245, 145, 276, 176
-0.993631, 353, 117, 416, 148
-0.993634, 197, 149, 228, 180
-0.993636, 329, 121, 392, 152
-0.993637, 401, 129, 432, 256
-0.993637, 317, 273, 348, 304
-0.993639, 201, 65, 232, 96
-0.993639, 349, 177, 380, 208
-0.993641, 229, 129, 260, 160
-0.993647, 249, 137, 312, 168
-0.993663, 433, 217, 496, 280
-0.993687, 281, 81, 344, 208
-0.993694, 409, 233, 472, 264
-0.993713, 433, 33, 464, 160
-0.993734, 129, 93, 192, 124
-0.993741, 333, 209, 364, 333
-0.993742, 225, 185, 288, 216
-0.993747, 305, 181, 368, 212
-0.993772, 301, 265, 332, 328
-0.993824, 377, 117, 440, 148
-0.993827, 281, 129, 344, 160
-0.993847, 197, 65, 228, 128
-0.993849, 273, 245, 336, 276
-0.993875, 373, 177, 404, 240
-0.993891, 265, 117, 328, 148
-0.993891, 345, 129, 376, 256
-0.993904, 321, 153, 352, 216
-0.993906, 325, 145, 356, 272
-0.993939, 425, 125, 488, 156
-0.99394, 393, 201, 456, 232
-0.993956, 129, 121, 256, 152
-0.993973, 153, 49, 184, 176
-0.993996, 321, 109, 384, 140
-0.993999, 241, 121, 304, 152
-0.994015, 433, 53, 496, 84
-0.994021, 349, 273, 380, 333
-0.994022, 433, 221, 496, 252
-0.99403, 81, 101, 144, 132
-0.994033, 385, 245, 448, 276
-0.994057, 241, 193, 272, 320
-0.994167, 189, 41, 220, 104
-0.994174, 97, 89, 352, 152
-0.99419, 373, 41, 404, 104
-0.994215, 425, 257, 456, 320
-0.994279, 225, 241, 256, 304
-0.994294, 225, 225, 480, 288
-0.99431, 113, 109, 240, 140
-0.994341, 201, 1, 232, 256
-0.994353, 457, 41, 488, 104
-0.994384, 445, 33, 476, 160
-0.994478, 449, 241, 480, 304
-0.994548, 217, 193, 248, 256
-0.994582, 177, 41, 304, 72
-0.994638, 389, 41, 420, 104
-0.99466, 313, 257, 344, 320
-0.994689, 33, 193, 288, 256
-0.994732, 257, 41, 500, 104
-0.994761, 237, 201, 268, 264
-0.994763, 325, 273, 356, 333
-0.994847, 33, 121, 288, 184
-0.99485, 393, 17, 456, 80
-0.994919, 181, 17, 212, 144
-0.994945, 333, 121, 364, 184
-0.994961, 409, 41, 440, 104
-0.994978, 349, 193, 380, 320
-0.995027, 161, 65, 416, 128
-0.995054, 145, 145, 272, 176
-0.995064, 369, 209, 400, 333
-0.995064, 353, 177, 384, 240
-0.995115, 137, 1, 200, 333
-0.995125, 329, 193, 392, 256
-0.995128, 145, 157, 272, 188
-0.995207, 381, 209, 412, 333
-0.995242, 361, 273, 392, 333
-0.995288, 445, 209, 476, 333
-0.995298, 433, 129, 496, 192
-0.99535, 233, 97, 264, 224
-0.995391, 113, 97, 240, 128
-0.995417, 201, 137, 232, 200
-0.99542, 113, 145, 176, 272
-0.995425, 401, 185, 464, 248
-0.995434, 33, 49, 288, 112
-0.995489, 171, 113, 186, 176
-0.995491, 159, 113, 174, 176
-0.995493, 201, 17, 232, 80
-0.995493, 341, 169, 372, 232
-0.995512, 1, 41, 500, 104
-0.995526, 165, 113, 180, 176
-0.995548, 325, 249, 356, 312
-0.995565, 167, 145, 182, 208
-0.995602, 309, 209, 340, 333
-0.995604, 401, 217, 464, 280
-0.99561, 129, 197, 256, 228
-0.995632, 153, 113, 168, 176
-0.995653, 245, 145, 276, 208
-0.995653, 81, 193, 208, 256
-0.995685, 397, 209, 428, 333
-0.995705, 1, 97, 256, 160
-0.995778, 213, 97, 244, 160
-0.995803, 241, 169, 368, 232
-0.995816, 397, 161, 428, 224
-0.99582, 147, 105, 162, 168
-0.995839, 309, 129, 340, 192
-0.995846, 1, 105, 500, 168
-0.995883, 297, 169, 360, 232
-0.995894, 345, 105, 408, 168
-0.995897, 413, 113, 444, 240
-0.995983, 145, 173, 272, 204
-0.996015, 193, 201, 448, 264
-0.996027, 159, 137, 174, 200
-0.99604, 97, 265, 352, 328
-0.996046, 177, 113, 192, 176
-0.996056, 249, 225, 280, 288
-0.996063, 273, 209, 304, 333
-0.996067, 385, 241, 448, 304
-0.99607, 189, 1, 220, 256
-0.9961, 417, 209, 448, 333
-0.996103, 421, 41, 452, 104
-0.996113, 257, 201, 384, 264
-0.996129, 221, 1, 252, 256
-0.99615, 233, 17, 264, 80
-0.996152, 305, 201, 432, 264
-0.996158, 65, 217, 320, 280
-0.996159, 177, 109, 304, 140
-0.996175, 195, 105, 210, 168
-0.996176, 217, 185, 232, 248
-0.996178, 241, 269, 368, 300
-0.996196, 213, 17, 244, 80
-0.996201, 1, 257, 500, 320
-0.996203, 213, 161, 228, 224
-0.996228, 137, 49, 168, 176
-0.996243, 145, 133, 272, 164
-0.996276, 349, 129, 380, 192
-0.996308, 203, 41, 218, 104
-0.99632, 261, 17, 292, 80
-0.99632, 285, 17, 316, 80
-0.99632, 413, 265, 444, 328
-0.996335, 145, 161, 176, 224
-0.996377, 165, 89, 196, 152
-0.996395, 389, 161, 420, 288
-0.996404, 1, 137, 500, 200
-0.996406, 233, 217, 248, 280
-0.996413, 245, 249, 260, 312
-0.996421, 337, 169, 464, 200
-0.996445, 225, 273, 480, 333
-0.996446, 129, 185, 256, 216
-0.99645, 433, 209, 464, 333
-0.996476, 239, 233, 254, 296
-0.996485, 457, 209, 488, 333
-0.99649, 309, 17, 340, 80
-0.996508, 141, 97, 156, 160
-0.996519, 337, 157, 464, 188
-0.996574, 251, 265, 266, 328
-0.996585, 203, 113, 218, 176
-0.996609, 33, 169, 288, 232
-0.996643, 223, 193, 238, 256
-0.996647, 211, 185, 226, 248
-0.99666, 249, 17, 280, 80
-0.99666, 321, 17, 352, 80
-0.996676, 233, 1, 264, 256
-0.996691, 273, 17, 304, 80
-0.996691, 297, 17, 328, 80
-0.996695, 243, 137, 258, 200
-0.996707, 81, 133, 208, 164
-0.996717, 1, 73, 256, 136
-0.996747, 337, 269, 464, 300
-0.996753, 373, 265, 404, 328
-0.996756, 197, 193, 212, 256
-0.99676, 257, 41, 384, 72
-0.99678, 209, 213, 336, 244
-0.996781, 181, 65, 212, 128
-0.996796, 225, 257, 352, 288
-0.996811, 171, 185, 186, 248
-0.996834, 49, 73, 176, 136
-0.996836, 145, 209, 272, 240
-0.996848, 433, 161, 464, 288
-0.996856, 191, 193, 206, 256
-0.996858, 219, 161, 234, 224
-0.996866, 177, 65, 208, 320
-0.99687, 289, 285, 416, 316
-0.996887, 183, 121, 198, 184
-0.996903, 305, 41, 432, 72
-0.996905, 225, 237, 352, 268
-0.996914, 177, 189, 304, 220
-0.996921, 145, 17, 272, 80
-0.996952, 369, 89, 496, 152
-0.996956, 207, 161, 222, 224
-0.996972, 257, 153, 500, 216
-0.996972, 273, 225, 400, 288
-0.996972, 145, 265, 272, 328
-0.996979, 161, 161, 176, 224
-0.996983, 369, 137, 496, 168
-0.997, 341, 17, 372, 80
-0.99701, 461, 233, 492, 296
-0.997024, 113, 85, 240, 116
-0.997055, 257, 129, 500, 192
-0.997059, 65, 109, 192, 140
-0.997065, 289, 153, 416, 184
-0.997068, 33, 145, 288, 208
-0.99707, 81, 185, 208, 216
-0.997087, 65, 241, 320, 304
-0.997091, 189, 121, 204, 184
-0.997099, 205, 185, 220, 248
-0.997106, 249, 249, 280, 312
-0.997136, 81, 121, 208, 152
-0.997139, 337, 1, 368, 256
-0.997141, 425, 113, 456, 240
-0.997147, 241, 285, 368, 316
-0.99717, 409, 1, 440, 256
-0.997173, 397, 1, 428, 256
-0.997187, 209, 201, 336, 232
-0.99719, 209, 225, 336, 256
-0.997191, 321, 181, 448, 212
-0.997208, 367, 153, 382, 216
-0.99721, 369, 41, 496, 72
-0.997213, 257, 273, 272, 333
-0.997218, 245, 1, 276, 256
-0.997237, 405, 129, 436, 192
-0.997238, 1, 161, 500, 224
-0.997239, 161, 17, 416, 80
-0.997244, 49, 161, 176, 224
-0.997246, 437, 41, 468, 104
-0.997263, 135, 105, 150, 168
-0.997265, 273, 145, 336, 208
-0.997275, 161, 269, 288, 300
-0.997279, 369, 1, 400, 256
-0.997281, 237, 137, 252, 200
-0.997282, 385, 1, 416, 256
-0.997285, 209, 41, 224, 104
-0.997294, 349, 1, 380, 256
-0.997317, 181, 193, 196, 256
-0.997325, 385, 265, 416, 328
-0.997328, 393, 137, 408, 200
-0.997334, 305, 141, 432, 172
-0.997364, 425, 129, 456, 192
-0.997369, 433, 193, 496, 256
-0.997379, 177, 53, 304, 84
-0.997382, 177, 69, 304, 100
-0.997415, 193, 81, 208, 144
-0.997462, 203, 81, 218, 144
-0.997462, 325, 1, 356, 256
-0.997465, 227, 161, 242, 224
-0.997465, 251, 41, 266, 104
-0.997471, 257, 41, 272, 104
-0.997499, 177, 81, 304, 112
-0.997504, 173, 153, 188, 216
-0.997506, 313, 129, 344, 256
-0.997528, 1, 233, 500, 296
-0.997532, 235, 41, 250, 104
-0.997533, 305, 97, 368, 160
-0.997536, 399, 137, 414, 200
-0.997538, 293, 41, 308, 104
-0.997538, 299, 41, 314, 104
-0.99754, 215, 41, 230, 104
-0.997541, 357, 17, 388, 80
-0.997544, 145, 241, 272, 272
-0.997551, 233, 113, 264, 176
-0.997551, 333, 97, 364, 224
-0.997553, 329, 177, 360, 240
-0.997565, 243, 41, 258, 104
-0.997569, 273, 165, 400, 196
-0.997571, 267, 41, 282, 104
-0.997571, 273, 41, 288, 104
-0.997571, 279, 41, 294, 104
-0.997571, 285, 41, 300, 104
-0.997571, 305, 41, 320, 104
-0.997571, 311, 41, 326, 104
-0.997571, 317, 41, 332, 104
-0.997571, 323, 41, 338, 104
-0.997573, 147, 129, 162, 192
-0.997585, 469, 209, 500, 333
-0.997586, 229, 41, 244, 104
-0.997589, 361, 145, 376, 208
-0.997597, 475, 41, 490, 104
-0.997597, 305, 1, 336, 256
-0.997611, 285, 209, 316, 333
-0.997612, 353, 285, 480, 316
-0.997617, 293, 265, 308, 328
-0.99762, 301, 265, 316, 328
-0.997624, 197, 41, 212, 104
-0.997629, 221, 41, 236, 104
-0.997634, 401, 265, 432, 328
-0.997638, 331, 41, 346, 104
-0.997638, 281, 265, 296, 328
-0.997639, 421, 1, 452, 256
-0.997646, 241, 145, 368, 176
-0.99765, 145, 229, 272, 260
-0.997669, 177, 97, 304, 128
-0.997684, 341, 41, 356, 104
-0.997696, 287, 265, 302, 328
-0.997697, 113, 53, 240, 84
-0.9977, 337, 145, 352, 208
-0.997728, 387, 153, 402, 216
-0.997732, 215, 185, 230, 216
-0.997737, 213, 137, 228, 200
-0.997742, 161, 253, 288, 284
-0.997753, 193, 89, 448, 152
-0.997763, 179, 169, 194, 232
-0.997776, 97, 145, 224, 176
-0.997783, 469, 1, 500, 256
-0.997784, 201, 161, 216, 224
-0.997788, 269, 1, 300, 256
-0.99779, 347, 41, 362, 104
-0.997792, 331, 145, 346, 208
-0.997799, 113, 65, 240, 96
-0.997803, 285, 1, 316, 256
-0.997808, 65, 173, 192, 204
-0.997821, 121, 185, 184, 248
-0.997824, 377, 185, 440, 248
-0.997828, 257, 17, 500, 80
-0.997842, 241, 129, 368, 160
-0.99785, 193, 281, 320, 312
-0.997853, 165, 137, 180, 168
-0.997857, 355, 41, 370, 104
-0.99786, 355, 145, 370, 208
-0.997866, 377, 145, 392, 208
-0.997868, 165, 185, 180, 248
-0.99788, 263, 257, 278, 320
-0.997885, 393, 169, 408, 232
-0.99789, 365, 41, 380, 104
-0.99789, 375, 41, 390, 104
-0.997895, 249, 145, 264, 208
-0.997902, 153, 137, 168, 200
-0.997908, 275, 265, 290, 328
-0.997914, 141, 129, 156, 192
-0.997928, 371, 177, 386, 240
-0.99795, 1, 81, 500, 144
-0.997968, 257, 1, 288, 256
-0.997978, 307, 265, 322, 328
-0.997988, 185, 169, 200, 232
-0.997988, 1, 25, 256, 88
-0.99799, 269, 265, 284, 328
-0.99799, 387, 129, 402, 192
-0.998006, 337, 249, 368, 312
-0.998007, 193, 177, 320, 208
-0.998012, 339, 273, 354, 333
-0.998022, 193, 153, 320, 184
-0.998023, 227, 217, 242, 280
-0.998028, 137, 193, 200, 320
-0.998031, 399, 161, 414, 224
-0.998036, 381, 41, 396, 104
-0.998036, 353, 125, 480, 156
-0.998039, 177, 121, 304, 152
-0.998043, 163, 89, 178, 152
-0.998046, 219, 137, 234, 200
-0.998052, 345, 273, 360, 333
-0.998062, 129, 97, 144, 160
-0.99808, 349, 161, 364, 224
-0.998086, 377, 177, 392, 240
-0.998099, 433, 1, 464, 256
-0.9981, 197, 109, 212, 140
-0.998112, 257, 249, 272, 312
-0.998114, 289, 273, 416, 304
-0.998114, 281, 217, 344, 280
-0.998119, 351, 273, 366, 333
-0.998122, 153, 89, 168, 152
-0.998132, 469, 41, 484, 104
-0.998132, 161, 121, 176, 152
-0.998134, 359, 273, 374, 333
-0.998136, 297, 209, 328, 333
-0.998142, 81, 157, 208, 188
-0.998143, 203, 41, 218, 72
-0.998144, 369, 17, 400, 80
-0.99816, 169, 153, 184, 184
-0.998164, 153, 117, 168, 148
-0.998168, 191, 169, 206, 232
-0.99817, 403, 41, 418, 104
-0.998173, 333, 273, 348, 333
-0.998181, 481, 41, 496, 104
-0.998181, 241, 89, 368, 152
-0.998185, 165, 65, 196, 320
-0.998199, 369, 65, 496, 128
-0.998203, 389, 41, 404, 104
-0.998208, 193, 141, 320, 172
-0.998209, 397, 41, 412, 104
-0.998212, 317, 265, 332, 328
-0.99822, 327, 257, 342, 320
-0.99823, 333, 249, 348, 312
-0.998242, 433, 265, 496, 328
-0.998248, 159, 137, 174, 168
-0.998254, 385, 177, 400, 240
-0.998254, 171, 141, 186, 172
-0.998255, 129, 103, 160, 118
-0.998255, 273, 285, 304, 300
-0.998255, 309, 285, 340, 300
-0.998256, 361, 285, 392, 300
-0.998256, 373, 175, 404, 190
-0.998257, 385, 157, 416, 172
-0.998257, 253, 261, 284, 276
-0.998257, 329, 151, 360, 166
-0.998257, 193, 201, 224, 216
-0.998258, 165, 131, 196, 146
-0.998258, 197, 49, 228, 64
-0.99826, 181, 63, 212, 78
-0.99826, 197, 145, 228, 160
-0.99826, 285, 285, 316, 300
-0.99826, 149, 165, 180, 180
-0.99826, 385, 171, 416, 186
-0.998261, 367, 273, 382, 333
-0.998262, 401, 43, 432, 58
-0.998262, 369, 291, 400, 306
-0.998262, 187, 97, 202, 160
-0.998262, 397, 167, 428, 182
-0.998264, 411, 41, 426, 104
-0.998264, 405, 291, 436, 306
-0.998264, 341, 149, 372, 164
-0.998265, 297, 285, 328, 300
-0.998265, 367, 129, 382, 192
-0.998265, 209, 185, 224, 216
-0.998265, 189, 43, 220, 58
-0.998266, 325, 163, 356, 178
-0.998266, 153, 125, 184, 140
-0.998267, 165, 199, 196, 214
-0.998268, 393, 291, 424, 306
-0.998268, 225, 201, 256, 216
-0.998269, 257, 275, 288, 290
-0.998269, 381, 43, 412, 58
-0.998269, 321, 289, 352, 304
-0.998269, 345, 169, 376, 184
-0.998269, 177, 203, 208, 218
-0.998269, 153, 155, 184, 170
-0.99827, 381, 291, 412, 306
-0.99827, 417, 41, 432, 104
-0.99827, 457, 43, 488, 58
-0.99827, 237, 229, 268, 244
-0.998271, 161, 117, 192, 132
-0.998272, 229, 209, 260, 224
-0.998272, 253, 267, 284, 282
-0.998272, 357, 159, 388, 174
-0.998273, 181, 101, 212, 116
-0.998274, 241, 239, 272, 254
-0.998274, 145, 131, 176, 146
-0.998274, 369, 43, 400, 58
-0.998276, 357, 169, 388, 184
-0.998278, 345, 175, 376, 190
-0.998279, 233, 219, 264, 234
-0.998279, 221, 145, 252, 160
-0.99828, 233, 157, 264, 172
-0.998281, 197, 87, 228, 102
-0.998282, 121, 117, 152, 132
-0.998282, 381, 17, 412, 80
-0.998283, 205, 157, 236, 172
-0.998284, 201, 139, 232, 154
-0.998284, 393, 113, 424, 176
-0.998284, 309, 291, 340, 306
-0.998287, 249, 287, 280, 302
-0.998287, 249, 255, 280, 270
-0.998287, 173, 137, 204, 152
-0.998287, 353, 43, 384, 58
-0.998288, 245, 247, 276, 262
-0.998288, 337, 163, 368, 178
-0.998288, 241, 275, 272, 290
-0.998289, 125, 125, 156, 140
-0.99829, 221, 235, 252, 250
-0.998296, 165, 159, 196, 174
-0.998297, 365, 151, 396, 166
-0.998297, 341, 43, 372, 58
-0.998298, 329, 43, 360, 58
-0.998299, 229, 251, 260, 266
-0.998299, 233, 259, 264, 274
-0.998302, 225, 241, 256, 256
-0.998302, 201, 151, 232, 166
-0.998303, 293, 291, 324, 306
-0.998303, 241, 43, 272, 58
-0.998303, 173, 121, 204, 136
-0.998303, 237, 269, 268, 284
-0.998305, 341, 155, 372, 170
-0.998305, 221, 229, 252, 244
-0.998305, 301, 43, 332, 58
-0.998306, 317, 43, 348, 58
-0.998306, 251, 241, 266, 304
-0.998307, 173, 147, 204, 162
-0.998308, 213, 211, 244, 226
-0.998309, 217, 221, 248, 236
-0.998309, 181, 107, 212, 122
-0.99831, 221, 157, 252, 172
-0.998311, 185, 127, 216, 142
-0.998312, 241, 281, 272, 296
-0.998312, 233, 139, 264, 154
-0.998313, 229, 43, 260, 58
-0.998313, 281, 43, 312, 58
-0.998314, 261, 291, 292, 306
-0.998314, 161, 165, 192, 180
-0.998315, 209, 145, 240, 160
-0.998315, 281, 291, 312, 306
-0.998315, 253, 43, 284, 58
-0.998315, 269, 43, 300, 58
-0.998316, 331, 121, 346, 184
-0.998317, 213, 43, 244, 58
-0.998317, 201, 103, 232, 118
-0.998318, 193, 195, 224, 210
-0.998323, 359, 169, 374, 232
-0.998324, 157, 193, 188, 208
-0.998326, 365, 177, 380, 240
-0.998327, 469, 45, 500, 60
-0.998327, 157, 181, 188, 196
-0.998328, 373, 273, 388, 333
-0.998328, 201, 109, 232, 124
-0.998329, 133, 109, 164, 124
-0.99833, 113, 41, 240, 72
-0.998331, 209, 203, 240, 218
-0.998333, 445, 249, 460, 312
-0.998333, 141, 121, 172, 136
-0.998338, 213, 185, 244, 200
-0.998339, 217, 151, 248, 166
-0.998339, 289, 117, 416, 148
-0.99834, 197, 123, 228, 138
-0.99834, 197, 93, 228, 108
-0.998342, 199, 189, 214, 220
-0.998342, 261, 283, 292, 298
-0.998343, 165, 153, 196, 168
-0.998343, 177, 89, 192, 152
-0.998343, 221, 137, 252, 152
-0.998344, 157, 187, 188, 202
-0.998345, 237, 151, 268, 166
-0.998345, 177, 197, 208, 212
-0.998347, 201, 185, 232, 200
-0.998348, 329, 157, 360, 172
-0.998348, 133, 131, 164, 146
-0.998352, 185, 113, 216, 128
-0.998352, 203, 117, 218, 148
-0.998352, 157, 171, 188, 186
-0.998352, 193, 29, 320, 60
-0.998359, 165, 165, 180, 196
-0.99836, 205, 197, 236, 212
-0.998365, 305, 129, 432, 160
-0.998365, 469, 161, 500, 288
-0.998369, 177, 191, 208, 206
-0.998371, 137, 115, 168, 130
-0.998383, 233, 145, 264, 160
-0.998383, 257, 29, 384, 60
-0.998392, 145, 137, 176, 152
-0.998393, 185, 119, 216, 134
-0.998399, 171, 125, 186, 156
-0.9984, 321, 129, 352, 192
-0.998405, 237, 273, 268, 333
-0.998406, 229, 213, 244, 244
-0.998408, 221, 197, 236, 228
-0.998421, 157, 141, 188, 156
-0.998422, 247, 257, 262, 288
-0.998429, 201, 43, 232, 58
-0.998431, 253, 273, 268, 304
-0.998433, 473, 41, 488, 72
-0.998438, 273, 241, 336, 304
-0.99844, 171, 185, 186, 216
-0.99844, 239, 237, 254, 268
-0.998441, 245, 141, 260, 172
-0.998445, 353, 257, 480, 288
-0.998449, 331, 149, 346, 180
-0.998452, 233, 225, 248, 256
-0.998457, 205, 191, 236, 206
-0.998464, 457, 1, 488, 256
-0.998489, 257, 177, 384, 208
-0.998491, 239, 137, 254, 168
-0.9985, 209, 41, 224, 72
-0.998516, 311, 41, 326, 72
-0.998525, 177, 197, 240, 212
-0.998528, 193, 197, 208, 228
-0.99853, 305, 41, 320, 72
-0.998531, 325, 41, 340, 72
-0.998532, 129, 121, 192, 136
-0.998536, 193, 43, 256, 58
-0.998543, 277, 41, 292, 72
-0.998546, 215, 41, 230, 72
-0.998546, 233, 41, 248, 72
-0.998546, 259, 41, 274, 72
-0.998546, 287, 41, 302, 72
-0.998547, 299, 41, 314, 72
-0.998548, 161, 151, 224, 166
-0.998548, 161, 117, 224, 132
-0.998549, 317, 41, 332, 72
-0.99855, 147, 117, 162, 148
-0.998551, 161, 145, 224, 160
-0.998552, 177, 191, 240, 206
-0.998555, 293, 41, 308, 72
-0.998557, 221, 41, 236, 72
-0.998557, 227, 41, 242, 72
-0.998557, 247, 41, 262, 72
-0.998557, 253, 41, 268, 72
-0.998557, 283, 289, 298, 320
-0.998559, 197, 125, 212, 156
-0.99856, 265, 41, 280, 72
-0.99856, 271, 41, 286, 72
-0.998562, 241, 41, 256, 72
-0.998566, 191, 125, 206, 156
-0.998569, 177, 125, 192, 156
-0.998572, 289, 289, 304, 320
-0.998573, 201, 145, 264, 160
-0.998582, 139, 113, 154, 144
-0.998582, 317, 105, 348, 168
-0.998589, 445, 1, 476, 256
-0.998592, 145, 127, 208, 142
-0.9986, 295, 289, 310, 320
-0.998603, 331, 41, 346, 72
-0.998606, 129, 115, 192, 130
-0.998612, 153, 111, 216, 126
-0.998612, 153, 133, 168, 164
-0.998614, 261, 285, 276, 316
-0.998614, 343, 41, 358, 72
-0.998615, 161, 157, 224, 172
-0.998616, 129, 139, 192, 154
-0.998616, 161, 183, 224, 198
-0.998617, 185, 203, 248, 218
-0.998618, 209, 155, 272, 170
-0.99862, 153, 167, 216, 182
-0.99862, 353, 237, 480, 268
-0.99862, 169, 123, 232, 138
-0.998622, 185, 189, 200, 220
-0.998625, 193, 111, 256, 126
-0.998626, 369, 181, 496, 212
-0.998628, 169, 139, 232, 154
-0.998628, 337, 41, 352, 72
-0.998631, 305, 29, 432, 60
-0.998631, 275, 289, 290, 320
-0.998633, 353, 157, 416, 172
-0.998638, 201, 139, 264, 154
-0.998641, 241, 257, 304, 272
-0.998644, 193, 105, 256, 120
-0.998644, 153, 191, 216, 206
-0.998645, 113, 133, 176, 148
-0.998646, 249, 137, 312, 200
-0.998647, 233, 241, 296, 256
-0.998648, 329, 149, 392, 164
-0.998648, 153, 105, 216, 120
-0.998649, 257, 283, 320, 298
-0.998651, 193, 117, 256, 132
-0.998652, 213, 141, 228, 172
-0.998654, 241, 251, 304, 266
-0.998654, 241, 249, 256, 280
-0.998657, 351, 41, 366, 72
-0.998657, 353, 163, 416, 178
-0.998658, 313, 159, 376, 174
-0.998659, 233, 235, 296, 250
-0.99866, 301, 289, 316, 320
-0.99866, 321, 287, 384, 302
-0.998664, 177, 189, 192, 220
-0.998665, 129, 189, 192, 204
-0.998666, 161, 177, 224, 192
-0.998667, 359, 41, 374, 72
-0.998668, 129, 109, 192, 124
-0.998669, 393, 165, 456, 180
-0.998669, 185, 211, 248, 226
-0.998671, 225, 213, 288, 228
-0.998671, 225, 221, 288, 236
-0.998671, 257, 291, 320, 306
-0.998672, 249, 43, 312, 58
-0.998673, 201, 189, 264, 204
-0.998675, 337, 169, 400, 184
-0.998675, 241, 263, 304, 278
-0.998676, 185, 99, 248, 114
-0.998676, 217, 281, 280, 296
-0.998677, 307, 289, 322, 320
-0.998678, 273, 43, 336, 58
-0.998678, 225, 43, 288, 58
-0.998678, 297, 43, 360, 58
-0.998679, 145, 197, 208, 212
-0.998679, 337, 177, 400, 192
-0.998681, 97, 125, 160, 140
-0.998681, 267, 289, 282, 320
-0.998681, 225, 227, 288, 242
-0.998683, 193, 231, 256, 246
-0.998684, 201, 255, 264, 270
-0.998684, 121, 173, 184, 188
-0.998684, 217, 195, 280, 210
-0.998685, 313, 165, 376, 180
-0.998685, 185, 93, 248, 108
-0.998686, 209, 261, 272, 276
-0.998687, 129, 181, 192, 196
-0.998687, 185, 217, 248, 232
-0.998688, 209, 269, 272, 284
-0.998688, 193, 237, 256, 252
-0.998688, 321, 43, 384, 58
-0.998688, 201, 243, 264, 258
-0.998689, 217, 201, 280, 216
-0.998689, 209, 275, 272, 290
-0.998689, 201, 249, 264, 264
-0.99869, 289, 291, 352, 306
-0.99869, 225, 147, 288, 162
-0.998692, 193, 223, 256, 238
-0.998692, 433, 43, 496, 58
-0.998692, 249, 275, 312, 290
-0.998692, 161, 133, 224, 148
-0.998692, 153, 99, 216, 114
-0.998692, 193, 81, 256, 96
-0.998693, 129, 145, 192, 160
-0.998694, 385, 171, 448, 186
-0.998694, 217, 207, 280, 222
-0.998696, 249, 269, 312, 284
-0.998698, 377, 177, 440, 192
-0.998698, 289, 285, 352, 300
-0.998699, 193, 123, 256, 138
-0.998699, 105, 117, 168, 132
-0.9987, 345, 43, 408, 58
-0.9987, 305, 153, 368, 168
-0.9987, 193, 73, 256, 88
-0.998701, 121, 161, 184, 176
-0.998701, 193, 67, 256, 82
-0.998703, 369, 43, 432, 58
-0.998704, 233, 287, 296, 302
-0.998704, 121, 167, 184, 182
-0.998705, 153, 83, 216, 98
-0.998705, 217, 161, 280, 176
-0.998705, 185, 87, 248, 102
-0.998707, 353, 133, 416, 148
-0.998708, 225, 141, 288, 156
-0.998709, 185, 155, 248, 170
-0.998709, 201, 183, 264, 198
-0.99871, 153, 73, 216, 88
-0.99871, 121, 155, 184, 170
-0.99871, 153, 49, 216, 64
-0.99871, 153, 63, 216, 78
-0.99871, 185, 49, 248, 64
-0.99871, 393, 159, 456, 174
-0.998711, 193, 161, 256, 176
-0.998712, 133, 101, 148, 132
-0.998712, 153, 55, 216, 70
-0.998712, 393, 289, 456, 304
-0.998713, 193, 55, 256, 70
-0.998713, 193, 61, 256, 76
-0.998714, 353, 291, 416, 306
-0.998715, 153, 89, 216, 104
-0.998716, 165, 177, 180, 208
-0.998717, 353, 151, 416, 166
-0.998717, 185, 129, 248, 144
-0.998717, 385, 283, 448, 298
-0.998719, 321, 281, 384, 296
-0.998719, 313, 289, 328, 320
-0.99872, 185, 125, 200, 156
-0.998722, 233, 155, 296, 170
-0.998722, 201, 85, 216, 116
-0.998725, 353, 139, 416, 154
-0.998726, 361, 171, 424, 186
-0.99873, 373, 141, 388, 172
-0.998731, 137, 133, 200, 148
-0.998731, 409, 43, 472, 58
-0.998732, 361, 285, 424, 300
-0.998733, 105, 111, 168, 126
-0.998734, 169, 43, 232, 58
-0.998736, 337, 183, 400, 198
-0.998738, 221, 165, 236, 196
-0.998741, 365, 41, 380, 72
-0.998757, 367, 149, 382, 180
-0.998759, 1, 185, 500, 248
-0.998763, 193, 165, 320, 196
-0.998764, 133, 117, 148, 148
-0.998769, 367, 137, 382, 168
-0.99877, 373, 41, 388, 72
-0.998773, 179, 113, 194, 240
-0.998774, 395, 157, 410, 188
-0.998775, 187, 201, 202, 232
-0.998777, 147, 129, 162, 160
-0.998782, 319, 289, 334, 320
-0.998788, 145, 101, 160, 132
-0.99879, 145, 1, 272, 128
-0.998791, 221, 149, 236, 180
-0.998799, 197, 41, 212, 72
-0.998807, 379, 41, 394, 72
-0.998808, 167, 97, 182, 224
-0.998808, 265, 273, 280, 304
-0.99881, 395, 289, 410, 320
-0.99881, 401, 289, 416, 320
-0.998813, 389, 289, 404, 320
-0.998814, 141, 125, 156, 156
-0.998815, 385, 41, 400, 72
-0.99882, 391, 41, 406, 72
-0.99882, 369, 29, 496, 60
-0.998827, 407, 289, 422, 320
-0.998832, 351, 165, 366, 196
-0.998835, 231, 153, 246, 184
-0.998844, 383, 289, 398, 320
-0.998844, 337, 149, 352, 180
-0.998847, 361, 149, 376, 180
-0.998848, 159, 169, 174, 200
-0.998849, 325, 289, 340, 320
-0.998853, 179, 113, 194, 144
-0.998853, 177, 145, 192, 176
-0.998857, 479, 41, 494, 72
-0.998858, 397, 41, 412, 72
-0.998866, 191, 113, 206, 240
-0.99887, 215, 173, 230, 204
-0.998871, 467, 41, 482, 72
-0.998885, 251, 149, 266, 180
-0.998885, 203, 33, 218, 160
-0.998886, 413, 289, 428, 320
-0.998892, 167, 105, 182, 136
-0.998894, 377, 289, 392, 320
-0.998913, 331, 285, 346, 316
-0.998913, 385, 141, 400, 172
-0.998916, 207, 173, 222, 204
-0.998921, 361, 137, 376, 168
-0.998924, 405, 41, 420, 72
-0.998924, 389, 153, 404, 184
-0.998931, 379, 137, 394, 168
-0.998931, 259, 273, 274, 304
-0.998932, 401, 157, 416, 188
-0.998934, 185, 113, 200, 240
-0.99894, 191, 185, 206, 216
-0.998942, 139, 101, 154, 132
-0.998943, 411, 41, 426, 72
-0.998949, 1, 209, 500, 272
-0.998953, 173, 113, 188, 144
-0.998954, 215, 153, 230, 184
-0.998955, 399, 169, 414, 200
-0.99896, 271, 277, 286, 308
-0.998964, 203, 105, 218, 136
-0.99897, 225, 113, 352, 144
-0.998976, 157, 97, 172, 224
-0.998976, 153, 33, 184, 288
-0.998998, 197, 113, 212, 240
-0.999012, 305, 193, 432, 224
-0.999027, 245, 145, 276, 272
-0.999027, 369, 197, 496, 228
-0.999032, 151, 97, 166, 224
-0.999039, 405, 17, 436, 80
-0.999051, 113, 97, 144, 160
-0.999063, 173, 113, 188, 240
-0.99907, 393, 17, 424, 80
-0.999072, 97, 81, 160, 144
-0.999089, 81, 197, 208, 228
-0.999144, 203, 113, 218, 240
-0.999177, 209, 33, 224, 160
-0.999177, 421, 161, 452, 288
-0.99918, 215, 33, 230, 160
-0.999186, 369, 225, 496, 256
-0.999187, 113, 29, 240, 60
-0.999189, 221, 33, 236, 160
-0.99919, 257, 193, 384, 224
-0.999194, 213, 129, 228, 256
-0.999204, 469, 209, 500, 272
-0.999207, 235, 33, 250, 160
-0.999215, 229, 33, 244, 160
-0.999221, 33, 121, 160, 152
-0.999231, 235, 161, 250, 288
-0.999233, 169, 161, 184, 288
-0.999245, 241, 33, 256, 160
-0.999246, 293, 33, 308, 160
-0.999255, 133, 73, 164, 136
-0.999259, 299, 33, 314, 160
-0.999261, 251, 33, 266, 160
-0.999266, 283, 33, 298, 160
-0.999267, 219, 129, 234, 256
-0.999268, 229, 145, 244, 272
-0.999276, 307, 33, 322, 160
-0.999281, 143, 81, 158, 208
-0.999281, 441, 129, 472, 192
-0.999286, 445, 161, 476, 288
-0.999287, 315, 33, 330, 160
-0.999288, 277, 33, 292, 160
-0.999311, 261, 33, 276, 160
-0.999313, 195, 49, 210, 176
-0.999315, 271, 33, 286, 160
-0.999328, 231, 209, 246, 333
-0.99933, 321, 33, 336, 160
-0.999334, 223, 193, 238, 320
-0.999339, 329, 33, 344, 160
-0.999341, 349, 33, 364, 160
-0.999342, 199, 177, 214, 304
-0.999353, 213, 177, 228, 304
-0.999356, 335, 33, 350, 160
-0.999359, 341, 33, 356, 160
-0.999364, 193, 177, 208, 304
-0.999367, 401, 33, 416, 160
-0.999369, 355, 33, 370, 160
-0.999384, 187, 177, 202, 304
-0.999386, 175, 177, 190, 304
-0.999389, 241, 161, 256, 288
-0.999398, 395, 33, 410, 160
-0.999404, 207, 161, 222, 288
-0.99941, 387, 33, 402, 160
-0.999418, 411, 33, 426, 160
-0.999419, 365, 33, 380, 160
-0.999422, 381, 33, 396, 160
-0.999423, 367, 129, 382, 256
-0.999427, 33, 97, 160, 128
-0.999434, 375, 33, 390, 160
-0.999437, 163, 145, 178, 272
-0.999453, 417, 33, 432, 160
-0.999461, 237, 209, 252, 333
-0.999468, 273, 285, 288, 300
-0.999469, 203, 103, 218, 118
-0.999469, 413, 43, 428, 58
-0.999469, 177, 119, 192, 134
-0.999469, 327, 291, 342, 306
-0.99947, 151, 129, 166, 144
-0.99947, 373, 129, 388, 256
-0.99947, 167, 119, 182, 134
-0.99947, 133, 121, 148, 136
-0.99947, 217, 155, 232, 170
-0.999471, 343, 155, 358, 170
-0.999473, 237, 157, 252, 172
-0.999474, 181, 193, 196, 320
-0.999474, 417, 291, 432, 306
-0.999476, 395, 43, 410, 58
-0.999476, 381, 291, 396, 306
-0.999476, 201, 95, 216, 110
-0.999476, 131, 105, 146, 120
-0.999476, 365, 151, 380, 166
-0.999477, 423, 33, 438, 160
-0.999478, 165, 135, 180, 150
-0.999478, 299, 285, 314, 300
-0.999479, 197, 193, 212, 208
-0.999479, 195, 107, 210, 122
-0.999479, 229, 161, 244, 176
-0.99948, 171, 183, 186, 198
-0.99948, 357, 169, 372, 184
-0.999481, 361, 129, 376, 256
-0.999481, 165, 175, 180, 190
-0.999481, 387, 291, 402, 306
-0.999481, 165, 147, 180, 162
-0.999481, 393, 291, 408, 306
-0.999481, 399, 291, 414, 306
-0.999481, 405, 291, 420, 306
-0.999481, 411, 291, 426, 306
-0.999482, 389, 43, 404, 58
-0.999482, 321, 291, 336, 306
-0.999482, 381, 43, 396, 58
-0.999484, 329, 161, 344, 176
-0.999486, 375, 43, 390, 58
-0.999486, 157, 173, 172, 188
-0.999486, 145, 127, 160, 142
-0.999489, 131, 115, 146, 130
-0.99949, 179, 189, 194, 204
-0.99949, 201, 87, 216, 102
-0.99949, 335, 149, 350, 164
-0.99949, 223, 159, 238, 174
-0.99949, 231, 155, 246, 170
-0.999491, 215, 149, 230, 164
-0.999491, 251, 151, 266, 166
-0.999492, 139, 111, 154, 126
-0.999492, 137, 81, 152, 208
-0.999492, 189, 193, 204, 208
-0.999492, 369, 43, 384, 58
-0.999493, 183, 121, 198, 136
-0.999494, 245, 261, 260, 276
-0.999494, 315, 291, 330, 306
-0.999494, 175, 201, 190, 216
-0.999494, 197, 113, 212, 128
-0.999495, 203, 187, 218, 202
-0.999495, 271, 291, 286, 306
-0.999496, 251, 275, 266, 290
-0.999497, 361, 43, 376, 58
-0.999498, 379, 129, 394, 256
-0.999499, 307, 291, 322, 306
-0.999499, 201, 127, 216, 142
-0.999499, 321, 209, 448, 240
-0.9995, 183, 203, 198, 218
-0.9995, 239, 245, 254, 260
-0.999501, 249, 269, 264, 284
-0.999501, 331, 209, 346, 333
-0.999501, 349, 43, 364, 58
-0.999502, 213, 143, 228, 158
-0.999503, 355, 43, 370, 58
-0.999503, 343, 43, 358, 58
-0.999503, 191, 127, 206, 142
-0.999505, 235, 237, 250, 252
-0.999505, 231, 227, 246, 242
-0.999506, 217, 181, 232, 196
-0.999506, 225, 211, 240, 226
-0.999506, 229, 221, 244, 236
-0.999506, 243, 255, 258, 270
-0.999506, 267, 285, 282, 300
-0.999506, 169, 157, 184, 172
-0.999507, 337, 43, 352, 58
-0.999507, 277, 291, 292, 306
-0.999508, 265, 291, 280, 306
-0.999508, 259, 287, 274, 302
-0.999508, 331, 43, 346, 58
-0.999508, 245, 143, 260, 158
-0.999509, 183, 197, 198, 212
-0.999509, 297, 291, 312, 306
-0.99951, 221, 201, 236, 216
-0.99951, 319, 43, 334, 58
-0.999512, 241, 43, 256, 58
-0.999512, 247, 43, 262, 58
-0.999512, 295, 43, 310, 58
-0.999512, 301, 43, 316, 58
-0.999512, 307, 43, 322, 58
-0.999512, 313, 43, 328, 58
-0.999512, 325, 43, 340, 58
-0.999513, 283, 291, 298, 306
-0.999514, 177, 147, 192, 162
-0.999514, 253, 43, 268, 58
-0.999514, 289, 43, 304, 58
-0.999515, 329, 155, 344, 170
-0.999516, 221, 43, 236, 58
-0.999516, 163, 163, 178, 178
-0.999518, 231, 43, 246, 58
-0.999518, 261, 43, 276, 58
-0.999518, 273, 43, 288, 58
-0.999518, 291, 291, 306, 306
-0.999519, 143, 133, 158, 148
-0.999519, 153, 135, 168, 150
-0.999519, 139, 123, 154, 138
-0.99952, 283, 43, 298, 58
-0.999521, 255, 281, 270, 296
-0.999522, 189, 201, 204, 216
-0.999523, 213, 43, 228, 58
-0.999524, 475, 33, 490, 160
-0.999524, 267, 43, 282, 58
-0.999524, 257, 205, 384, 236
-0.999525, 429, 33, 444, 160
-0.999528, 207, 43, 222, 58
-0.999529, 247, 193, 262, 320
-0.99953, 165, 181, 180, 196
-0.99953, 177, 195, 192, 210
-0.999531, 219, 195, 234, 210
-0.999534, 209, 189, 224, 204
-0.999535, 205, 121, 220, 136
-0.999536, 149, 49, 164, 176
-0.999538, 157, 145, 172, 272
-0.99954, 325, 209, 340, 333
-0.999542, 203, 193, 218, 208
-0.999542, 195, 199, 210, 214
-0.999547, 239, 139, 254, 154
-0.999548, 171, 189, 186, 204
-0.999548, 473, 43, 488, 58
-0.99955, 235, 113, 250, 240
-0.999552, 145, 129, 160, 256
-0.999553, 331, 129, 346, 256
-0.999553, 163, 169, 178, 184
-0.999556, 369, 209, 496, 240
-0.99956, 337, 209, 352, 333
-0.999563, 201, 43, 216, 58
-0.999563, 171, 151, 186, 166
-0.999563, 199, 119, 214, 134
-0.999567, 159, 137, 174, 152
-0.999571, 255, 209, 270, 333
-0.999576, 437, 33, 452, 160
-0.999591, 273, 249, 400, 280
-0.999592, 469, 33, 484, 160
-0.999606, 169, 141, 184, 156
-0.999607, 189, 49, 204, 176
-0.999614, 1, 41, 128, 104
-0.999615, 445, 33, 460, 160
-0.999617, 385, 129, 400, 256
-0.999621, 451, 33, 466, 160
-0.999623, 257, 65, 500, 128
-0.999624, 363, 193, 378, 320
-0.999624, 97, 129, 160, 192
-0.999625, 393, 129, 408, 256
-0.999628, 355, 129, 370, 256
-0.999635, 463, 33, 478, 160
-0.999637, 485, 33, 500, 160
-0.999639, 229, 97, 244, 224
-0.99964, 399, 113, 414, 240
-0.999642, 241, 113, 256, 240
-0.999645, 325, 129, 340, 256
-0.999649, 215, 187, 230, 202
-0.999649, 245, 113, 276, 176
-0.99965, 173, 65, 188, 192
-0.999655, 457, 33, 472, 160
-0.999658, 369, 177, 384, 304
-0.999659, 353, 249, 384, 312
-0.999663, 183, 65, 198, 192
-0.999663, 305, 105, 432, 136
-0.999667, 155, 49, 170, 176
-0.99967, 343, 209, 358, 333
-0.999671, 351, 193, 366, 320
-0.999674, 405, 113, 420, 240
-0.999674, 389, 209, 404, 333
-0.999674, 395, 209, 410, 333
-0.999683, 261, 209, 276, 333
-0.999684, 357, 193, 372, 320
-0.999692, 375, 209, 390, 333
-0.999693, 113, 1, 176, 333
-0.999694, 369, 113, 496, 144
-0.999696, 447, 209, 462, 333
-0.999697, 401, 209, 416, 333
-0.999697, 411, 113, 426, 240
-0.999705, 161, 49, 176, 176
-0.999707, 433, 209, 448, 333
-0.999708, 267, 209, 282, 333
-0.999716, 319, 209, 334, 333
-0.999723, 247, 145, 262, 272
-0.999723, 441, 209, 456, 333
-0.999725, 369, 53, 496, 84
-0.999726, 425, 113, 440, 240
-0.999728, 383, 209, 398, 333
-0.999737, 459, 209, 474, 333
-0.999739, 407, 209, 422, 333
-0.999748, 465, 209, 480, 333
-0.999751, 141, 33, 172, 288
-0.999751, 435, 113, 450, 240
-0.999753, 413, 209, 428, 333
-0.999757, 337, 129, 352, 256
-0.999759, 453, 209, 468, 333
-0.999762, 273, 209, 288, 333
-0.999764, 425, 169, 456, 232
-0.999765, 427, 209, 442, 333
-0.999765, 139, 129, 154, 256
-0.999766, 279, 209, 294, 333
-0.999767, 419, 113, 434, 240
-0.999772, 399, 161, 414, 288
-0.999773, 289, 209, 304, 333
-0.999777, 419, 209, 434, 333
-0.99978, 289, 81, 416, 144
-0.999781, 273, 177, 336, 240
-0.999789, 257, 225, 384, 256
-0.9998, 89, 1, 152, 333
-0.999898, 245, 97, 276, 224
-0.999905, 1, 65, 128, 128
-0.999939, 257, 113, 320, 176
-0.999989, 273, 237, 400, 268
-0.999991, 125, 49, 156, 176
-0.999991, 449, 217, 480, 280
-1.00003, 225, 101, 352, 132
-1.00003, 369, 65, 496, 96
-1.00007, 105, 65, 168, 320
-1.00009, 361, 209, 424, 272
-1.0001, 17, 97, 144, 160
-1.00012, 433, 65, 496, 128
-1.00014, 437, 225, 468, 288
-1.00015, 65, 45, 192, 76
-1.00016, 369, 85, 496, 116
-1.00016, 17, 109, 144, 140
-1.00017, 17, 45, 144, 76
-1.0002, 129, 33, 160, 288
-1.00023, 453, 17, 484, 80
-1.00024, 321, 57, 448, 88
-1.00025, 321, 221, 448, 252
-1.00026, 457, 161, 488, 288
-1.00028, 97, 209, 224, 240
-1.00028, 369, 97, 496, 128
-1.00032, 17, 57, 144, 88
-1.00034, 453, 129, 484, 192
-1.00037, 433, 105, 496, 168
-1.0004, 65, 57, 192, 88
-1.00042, 257, 53, 384, 84
-1.00043, 273, 93, 400, 124
-1.00043, 417, 17, 448, 80
-1.00047, 65, 1, 320, 64
-1.00049, 305, 69, 432, 100
-1.00051, 65, 41, 128, 104
-1.00052, 305, 105, 336, 168
-1.00054, 193, 293, 320, 324
-1.00055, 49, 145, 176, 176
-1.00056, 225, 89, 352, 120
-1.00056, 1, 33, 128, 64
-1.00058, 33, 85, 160, 116
-1.0006, 1, 73, 128, 104
-1.00066, 241, 65, 368, 128
-1.00066, 49, 69, 176, 100
-1.00066, 257, 65, 384, 96
-1.00066, 437, 113, 468, 240
-1.00067, 117, 33, 148, 288
-1.00067, 273, 81, 400, 112
-1.00069, 145, 281, 272, 312
-1.00069, 321, 93, 448, 124
-1.00072, 357, 81, 388, 208
-1.00075, 65, 33, 192, 64
-1.00075, 65, 1, 128, 333
-1.00078, 321, 81, 448, 112
-1.00079, 17, 201, 144, 232
-1.0008, 49, 217, 176, 248
-1.00081, 93, 1, 124, 256
-1.00085, 1, 285, 128, 316
-1.00085, 281, 97, 344, 160
-1.00087, 225, 77, 352, 108
-1.00087, 49, 285, 176, 316
-1.0009, 313, 81, 344, 208
-1.00091, 33, 161, 160, 192
-1.00091, 65, 273, 192, 304
-1.00093, 1, 213, 128, 244
-1.00095, 1, 185, 128, 216
-1.00097, 33, 133, 160, 164
-1.001, 17, 233, 144, 264
-1.001, 65, 233, 192, 264
-1.00101, 305, 193, 368, 256
-1.00103, 469, 81, 500, 208
-1.00107, 401, 81, 432, 208
-1.0012, 105, 1, 136, 256
-1.00128, 1, 17, 128, 80
-1.0013, 409, 105, 472, 168
-1.00131, 1, 1, 32, 256
-1.00133, 49, 49, 176, 112
-1.00137, 313, 225, 376, 288
-1.00141, 1, 17, 500, 80
-1.00156, 81, 1, 112, 256
-1.00157, 89, 41, 152, 104
-1.00164, 169, 1, 232, 64
-1.00165, 97, 1, 224, 64
-1.00166, 373, 81, 404, 208
-1.00167, 81, 217, 208, 280
-1.00168, 13, 1, 44, 256
-1.00169, 45, 65, 76, 320
-1.0017, 57, 65, 88, 320
-1.00175, 33, 33, 64, 288
-1.0018, 69, 1, 100, 256
-1.00181, 81, 105, 144, 168
-1.00188, 17, 193, 144, 256
-1.00189, 225, 89, 288, 152
-1.00195, 249, 161, 312, 224
-1.00205, 449, 113, 480, 240
-1.00207, 1, 1, 64, 333
-1.00213, 97, 209, 224, 333
-1.00215, 33, 217, 160, 280
-1.00222, 345, 81, 376, 208
-1.00233, 65, 273, 192, 333
-1.00234, 73, 65, 136, 128
-1.00235, 1, 265, 256, 328
-1.00254, 1, 153, 128, 216
-1.00254, 385, 89, 448, 152
-1.00256, 65, 249, 192, 312
-1.00269, 49, 17, 176, 80
-1.00274, 1, 273, 128, 333
-1.00279, 1, 121, 128, 184
-1.00282, 301, 113, 332, 240
-1.00285, 81, 1, 144, 256
-1.00285, 17, 249, 144, 312
-1.003, 117, 113, 148, 240
-1.00307, 285, 97, 316, 224
-1.00316, 41, 1, 104, 333
-1.00322, 93, 33, 124, 160
-1.00357, 113, 49, 144, 176
-1.00365, 257, 97, 288, 224
-1.00365, 1, 1, 128, 128
-1.00387, 249, 185, 312, 248
-1.004, 337, 217, 400, 280
-1.00406, 137, 145, 168, 272
-1.00416, 361, 241, 424, 304
-1.00416, 185, 233, 248, 296
-1.00456, 9, 73, 72, 136
-1.00481, 265, 145, 296, 272
-1.00481, 409, 65, 472, 128
-1.00502, 269, 97, 300, 224
-1.00508, 257, 89, 320, 152
-1.00522, 289, 73, 352, 136
-1.00527, 65, 49, 128, 176
-1.00561, 329, 81, 392, 144
-1.00562, 73, 201, 136, 264
-1.00566, 385, 65, 448, 128
-1.00567, 1, 33, 32, 160
-1.00572, 257, 217, 320, 280
-1.00586, 277, 145, 308, 272
-1.00587, 105, 17, 168, 80
-1.00592, 49, 65, 112, 128
-1.00596, 65, 17, 128, 80
-1.0061, 41, 25, 104, 88
-1.00628, 81, 33, 112, 160
-1.0064, 225, 65, 288, 128
-1.00659, 169, 17, 200, 144
-1.00677, 97, 201, 160, 264
-1.00686, 113, 41, 176, 104
-1.00688, 289, 145, 320, 272
-1.00697, 301, 161, 332, 288
-1.00703, 1, 81, 32, 208
-1.00714, 9, 49, 72, 112
-1.00719, 1, 97, 64, 160
-1.00735, 57, 177, 120, 240
-1.00736, 109, 1, 140, 128
-1.00759, 105, 193, 136, 320
-1.00763, 129, 209, 192, 272
-1.00773, 57, 1, 120, 256
-1.00781, 13, 17, 44, 144
-1.00797, 1, 129, 128, 256
-1.00807, 161, 209, 192, 333
-1.0081, 93, 81, 124, 208
-1.00814, 93, 193, 124, 320
-1.00816, 145, 193, 176, 320
-1.00818, 13, 65, 44, 192
-1.00831, 121, 1, 152, 128
-1.00835, 105, 145, 136, 272
-1.00848, 41, 65, 72, 192
-1.00856, 117, 177, 148, 304
-1.00865, 49, 129, 80, 256
-1.00868, 17, 177, 144, 304
-1.0087, 1, 1, 64, 256
-1.0087, 61, 193, 92, 320
-1.00877, 93, 145, 124, 272
-1.0088, 61, 113, 92, 240
-1.00881, 69, 17, 100, 144
-1.00883, 77, 161, 108, 288
-1.00893, 57, 1, 120, 128
-1.00904, 29, 81, 60, 208
-1.00905, 53, 49, 84, 176
-1.00908, 77, 209, 108, 333
-1.00915, 105, 97, 136, 224
-1.00915, 29, 1, 60, 128
-1.00915, 49, 1, 80, 128
-1.00918, 37, 129, 68, 256
-1.00926, 145, 1, 176, 128
-1.00958, 89, 1, 152, 128
-1.00964, 25, 65, 88, 320
-1.01011, 257, 161, 320, 288
-1.01013, 1, 49, 64, 176
-1.01124, 73, 209, 136, 333
-1.01166, 1, 1, 64, 128
-1.01231, 97, 193, 160, 320
-1.0128, 73, 145, 136, 272
-1.01285, 81, 97, 144, 224
-1.01315, 33, 209, 96, 333
-1.01328, 33, 81, 96, 208
-1.01328, 33, 129, 96, 256
-1.01334, 49, 1, 176, 128
-1.01344, 33, 1, 96, 128
-1.01358, 1, 97, 64, 224
-1.01416, 57, 97, 120, 224
-1.01428, 113, 1, 176, 128
-1.01471, 9, 209, 72, 333
-1.01478, 9, 161, 72, 288
