1975
-0.440557, 1, 129, 500, 375
-0.499573, 1, 1, 500, 375
-0.516409, 129, 1, 384, 375
-0.578936, 33, 1, 288, 375
-0.579516, 1, 33, 500, 288
-0.584478, 257, 1, 500, 375
-0.642237, 129, 65, 384, 320
-0.661629, 225, 97, 480, 352
-0.709828, 33, 33, 288, 288
-0.753176, 1, 129, 256, 375
-0.850823, 225, 1, 480, 256
-0.866915, 161, 1, 288, 375
-0.877284, 289, 97, 416, 352
-0.877548, 113, 1, 240, 375
-0.879754, 81, 97, 208, 352
-0.887046, 337, 97, 464, 352
-0.887633, 1, 193, 500, 320
-0.888995, 161, 97, 288, 352
-0.897015, 113, 1, 240, 256
-0.898528, 209, 97, 336, 352
-0.900546, 209, 1, 336, 375
-0.900751, 161, 1, 288, 256
-0.904339, 289, 1, 416, 375
-0.904933, 337, 1, 464, 375
-0.91148, 65, 1, 192, 375
-0.913336, 33, 129, 160, 375
-0.919923, 1, 241, 500, 368
-0.922603, 129, 177, 384, 304
-0.923603, 17, 1, 144, 375
-0.928925, 273, 1, 400, 256
-0.92904, 1, 33, 128, 288
-0.932692, 193, 225, 448, 352
-0.934264, 193, 113, 448, 240
-0.934637, 225, 1, 352, 256
-0.934655, 369, 1, 496, 256
-0.935229, 33, 193, 288, 320
-0.936087, 33, 145, 288, 272
-0.938669, 49, 1, 176, 256
-0.939676, 1, 97, 500, 224
-0.942392, 321, 1, 448, 256
-0.94263, 129, 65, 384, 192
-0.943262, 257, 177, 500, 304
-0.944593, 97, 129, 224, 256
-0.946087, 1, 49, 500, 176
-0.946134, 33, 177, 160, 304
-0.947543, 369, 241, 432, 368
-0.9476, 177, 113, 304, 240
-0.947629, 33, 49, 288, 176
-0.948323, 353, 241, 480, 368
-0.949714, 89, 177, 152, 304
-0.950481, 273, 209, 400, 336
-0.951294, 1, 145, 500, 272
-0.952367, 209, 193, 336, 320
-0.952719, 353, 193, 480, 320
-0.953707, 81, 177, 208, 304
-0.95379, 65, 193, 128, 320
-0.95522, 1, 241, 256, 368
-0.957402, 361, 257, 424, 320
-0.958269, 137, 129, 200, 256
-0.95832, 113, 161, 176, 288
-0.958868, 161, 97, 224, 224
-0.958977, 33, 97, 288, 224
-0.959022, 409, 193, 472, 320
-0.960049, 145, 177, 272, 304
-0.960762, 257, 177, 320, 304
-0.962119, 65, 193, 128, 256
-0.962283, 225, 113, 352, 240
-0.96229, 129, 17, 384, 144
-0.96233, 281, 113, 344, 240
-0.963256, 185, 81, 248, 208
-0.964061, 89, 113, 152, 240
-0.964164, 161, 65, 288, 192
-0.96439, 433, 209, 496, 336
-0.964488, 289, 113, 416, 240
-0.964774, 89, 177, 152, 240
-0.96491, 137, 177, 200, 304
-0.965572, 369, 193, 432, 320
-0.965723, 257, 177, 320, 240
-0.966398, 257, 97, 320, 224
-0.966734, 41, 193, 104, 320
-0.966831, 49, 217, 112, 280
-0.967019, 153, 137, 216, 200
-0.968297, 297, 241, 360, 368
-0.968511, 113, 33, 240, 160
-0.968885, 345, 193, 408, 320
-0.969844, 113, 209, 176, 336
-0.969876, 297, 193, 360, 320
-0.970169, 33, 113, 160, 240
-0.97017, 265, 201, 328, 264
-0.970212, 233, 113, 296, 240
-0.970523, 25, 217, 88, 280
-0.97077, 257, 49, 500, 176
-0.971113, 161, 97, 224, 160
-0.971459, 97, 217, 160, 280
-0.9716, 321, 225, 384, 352
-0.97167, 161, 49, 224, 176
-0.971734, 137, 193, 200, 256
-0.971736, 257, 161, 384, 288
-0.971784, 273, 225, 336, 352
-0.972074, 113, 113, 176, 240
-0.972081, 113, 81, 240, 208
-0.972751, 73, 217, 136, 280
-0.972813, 1, 241, 128, 368
-0.972905, 129, 145, 192, 208
-0.972909, 369, 113, 496, 240
-0.973317, 81, 225, 208, 352
-0.973465, 233, 185, 296, 248
-0.973577, 33, 1, 288, 128
-0.973742, 161, 177, 224, 304
-0.974214, 433, 265, 496, 328
-0.974304, 393, 113, 456, 240
-0.974711, 329, 313, 392, 375
-0.975048, 433, 113, 496, 240
-0.97516, 185, 97, 248, 160
-0.975283, 321, 273, 384, 336
-0.975477, 1, 1, 500, 128
-0.975546, 81, 177, 208, 240
-0.975596, 393, 241, 456, 368
-0.975672, 185, 177, 248, 240
-0.975918, 345, 241, 408, 368
-0.975932, 113, 193, 176, 256
-0.975988, 49, 113, 112, 240
-0.976189, 209, 113, 272, 240
-0.976189, 433, 241, 496, 304
-0.976249, 161, 17, 288, 144
-0.976343, 321, 241, 384, 304
-0.976378, 297, 265, 360, 328
-0.976436, 353, 265, 480, 328
-0.976542, 161, 209, 224, 272
-0.976547, 225, 241, 352, 368
-0.976583, 33, 209, 160, 272
-0.976662, 17, 241, 80, 368
-0.976801, 281, 169, 344, 232
-0.976802, 97, 185, 128, 248
-0.97699, 297, 233, 360, 296
-0.976998, 185, 129, 248, 256
-0.977026, 361, 97, 424, 352
-0.977032, 113, 161, 144, 288
-0.977594, 121, 169, 184, 232
-0.977642, 185, 33, 248, 160
-0.977653, 401, 97, 464, 352
-0.977882, 369, 49, 496, 176
-0.977893, 369, 257, 400, 320
-0.978034, 329, 97, 392, 224
-0.978081, 185, 121, 248, 184
-0.978112, 121, 97, 184, 352
-0.978163, 97, 177, 128, 304
-0.978309, 305, 161, 432, 288
-0.9784, 89, 225, 152, 352
-0.978485, 373, 241, 404, 368
-0.978557, 225, 209, 288, 336
-0.978687, 369, 113, 432, 240
-0.978721, 273, 105, 336, 168
-0.979052, 117, 177, 148, 240
-0.97917, 17, 193, 80, 320
-0.979264, 121, 113, 184, 176
-0.979381, 145, 97, 208, 352
-0.979392, 241, 129, 304, 192
-0.979466, 209, 201, 272, 264
-0.979594, 265, 97, 328, 352
-0.979704, 321, 97, 384, 352
-0.979722, 273, 249, 400, 312
-0.979882, 77, 201, 108, 264
-0.979963, 177, 177, 304, 240
-0.980015, 201, 177, 264, 304
-0.980206, 225, 201, 352, 264
-0.980231, 305, 97, 368, 224
-0.980314, 97, 241, 352, 368
-0.98035, 65, 241, 128, 368
-0.980385, 249, 225, 312, 352
-0.980489, 297, 209, 360, 272
-0.980532, 25, 193, 88, 256
-0.980567, 385, 257, 448, 320
-0.980631, 129, 225, 256, 352
-0.980703, 345, 233, 408, 296
-0.980734, 433, 129, 496, 192
-0.980762, 273, 281, 400, 344
-0.980789, 281, 49, 344, 176
-0.980889, 305, 65, 432, 192
-0.98091, 161, 185, 224, 248
-0.980951, 181, 97, 212, 224
-0.980963, 297, 129, 360, 192
-0.981041, 177, 97, 240, 352
-0.981141, 433, 97, 496, 352
-0.981332, 193, 89, 224, 152
-0.981377, 185, 73, 248, 136
-0.981451, 185, 209, 248, 272
-0.981476, 409, 265, 472, 328
-0.981509, 121, 217, 184, 280
-0.981513, 193, 65, 224, 192
-0.981543, 281, 169, 312, 232
-0.981598, 297, 97, 360, 352
-0.981633, 241, 49, 304, 176
-0.981642, 257, 65, 384, 192
-0.981835, 129, 177, 256, 240
-0.981842, 201, 97, 264, 352
-0.981844, 409, 129, 472, 192
-0.981883, 81, 129, 144, 375
-0.98193, 269, 177, 300, 240
-0.981988, 161, 73, 224, 136
-0.982057, 113, 153, 240, 216
-0.982143, 33, 185, 160, 248
-0.982543, 209, 65, 336, 192
-0.98256, 137, 65, 200, 192
-0.982578, 49, 65, 176, 192
-0.982961, 113, 209, 144, 336
-0.983022, 257, 289, 320, 352
-0.983052, 17, 313, 80, 375
-0.983073, 145, 201, 272, 264
-0.983088, 125, 161, 156, 288
-0.983105, 353, 313, 384, 375
-0.983151, 433, 193, 464, 320
-0.983207, 109, 217, 140, 280
-0.983309, 345, 281, 408, 344
-0.983411, 181, 49, 212, 176
-0.983411, 161, 113, 192, 240
-0.983507, 349, 225, 380, 352
-0.983723, 241, 89, 304, 152
-0.983758, 321, 129, 384, 192
-0.983976, 197, 113, 228, 240
-0.984011, 409, 241, 472, 304
-0.984059, 425, 65, 488, 192
-0.984106, 241, 129, 304, 375
-0.984178, 289, 225, 416, 288
-0.98419, 177, 241, 304, 368
-0.984249, 153, 1, 216, 256
-0.984277, 61, 217, 92, 280
-0.984286, 361, 65, 424, 192
-0.984297, 293, 97, 324, 224
-0.984364, 97, 113, 128, 240
-0.984638, 137, 113, 168, 240
-0.984639, 193, 129, 320, 192
-0.984749, 361, 313, 424, 375
-0.98478, 385, 193, 416, 320
-0.984804, 137, 225, 200, 352
-0.984888, 129, 209, 160, 272
-0.984943, 81, 209, 208, 272
-0.98495, 141, 153, 172, 216
-0.984981, 41, 241, 104, 368
-0.984994, 401, 193, 464, 256
-0.98503, 113, 113, 144, 240
-0.98518, 225, 177, 352, 240
-0.985208, 305, 97, 336, 224
-0.985244, 293, 201, 324, 264
-0.98525, 145, 121, 272, 184
-0.985309, 97, 217, 128, 280
-0.985404, 457, 241, 488, 304
-0.985652, 209, 177, 272, 240
-0.985685, 273, 185, 400, 248
-0.985733, 241, 209, 304, 272
-0.985779, 385, 121, 448, 184
-0.985908, 1, 289, 64, 352
-0.985917, 161, 137, 192, 200
-0.985951, 273, 129, 336, 192
-0.985955, 277, 145, 308, 272
-0.986007, 353, 233, 384, 296
-0.98602, 161, 97, 288, 160
-0.986048, 97, 153, 160, 216
-0.986108, 165, 185, 196, 248
-0.986117, 225, 161, 288, 288
-0.986129, 257, 193, 288, 256
-0.986182, 41, 97, 104, 352
-0.986216, 397, 193, 428, 320
-0.986223, 281, 97, 312, 224
-0.986254, 469, 241, 500, 304
-0.986303, 81, 193, 112, 320
-0.986316, 177, 153, 304, 216
-0.986318, 285, 209, 316, 336
-0.986366, 257, 153, 320, 216
-0.986373, 353, 201, 480, 264
-0.986382, 373, 193, 404, 320
-0.986414, 57, 193, 88, 320
-0.986427, 129, 185, 160, 248
-0.98658, 113, 97, 240, 160
-0.98663, 89, 65, 152, 192
-0.986636, 289, 145, 320, 272
-0.986639, 1, 225, 64, 288
-0.986675, 125, 209, 156, 336
-0.986706, 1, 305, 128, 368
-0.986747, 285, 105, 316, 168
-0.986769, 353, 241, 480, 304
-0.98684, 361, 121, 424, 184
-0.986889, 193, 225, 256, 352
-0.986982, 193, 1, 256, 256
-0.987003, 257, 121, 384, 184
-0.98711, 389, 257, 420, 320
-0.987118, 209, 225, 336, 288
-0.987131, 161, 1, 224, 375
-0.987157, 181, 1, 212, 128
-0.987216, 189, 169, 220, 232
-0.987218, 413, 193, 444, 320
-0.987223, 185, 113, 216, 176
-0.987264, 321, 105, 384, 168
-0.987303, 369, 129, 496, 192
-0.987303, 73, 265, 136, 328
-0.987428, 273, 313, 400, 375
-0.987511, 1, 65, 128, 192
-0.987535, 41, 241, 104, 304
-0.987552, 125, 113, 156, 240
-0.987561, 41, 209, 72, 272
-0.987563, 169, 225, 232, 352
-0.987582, 433, 105, 496, 168
-0.987618, 177, 145, 208, 208
-0.987661, 289, 281, 320, 344
-0.987678, 121, 273, 184, 336
-0.9877, 185, 145, 216, 272
-0.987727, 437, 265, 468, 328
-0.987798, 145, 177, 176, 304
-0.987925, 385, 65, 448, 192
-0.987956, 81, 121, 208, 184
-0.987968, 97, 121, 160, 184
-0.987996, 265, 225, 328, 288
-0.988, 281, 201, 312, 264
-0.988175, 469, 265, 500, 328
-0.988226, 165, 177, 196, 304
-0.988268, 361, 209, 424, 272
-0.988268, 185, 1, 248, 375
-0.988336, 353, 281, 384, 344
-0.988342, 65, 233, 192, 296
-0.988362, 173, 113, 204, 176
-0.988412, 129, 153, 160, 216
-0.988412, 141, 193, 172, 256
-0.988461, 249, 1, 312, 375
-0.988481, 433, 1, 496, 375
-0.988516, 245, 185, 276, 248
-0.988525, 169, 273, 232, 336
-0.98865, 209, 65, 272, 192
-0.988665, 81, 273, 208, 336
-0.98867, 449, 265, 480, 328
-0.988694, 65, 153, 192, 216
-0.988695, 25, 65, 88, 192
-0.988709, 37, 193, 68, 320
-0.988717, 145, 121, 176, 184
-0.988728, 257, 257, 320, 320
-0.988735, 301, 129, 332, 192
-0.98874, 305, 185, 368, 248
-0.988743, 85, 177, 116, 240
-0.988794, 305, 129, 432, 192
-0.988851, 313, 49, 376, 176
-0.988861, 33, 273, 160, 336
-0.988869, 173, 209, 204, 272
-0.988927, 469, 129, 500, 192
-0.989031, 209, 105, 336, 168
-0.989036, 433, 1, 496, 256
-0.989061, 281, 1, 344, 256
-0.989104, 265, 177, 296, 304
-0.989129, 161, 41, 288, 104
-0.989217, 465, 193, 496, 320
-0.989227, 41, 217, 104, 248
-0.989234, 413, 241, 444, 368
-0.989256, 257, 97, 384, 160
-0.989264, 421, 113, 452, 240
-0.989286, 157, 113, 188, 176
-0.989378, 209, 289, 336, 352
-0.989395, 445, 193, 476, 320
-0.989407, 265, 113, 296, 240
-0.989422, 253, 113, 284, 240
-0.989433, 153, 161, 216, 224
-0.989441, 185, 209, 216, 272
-0.989458, 57, 193, 88, 256
-0.989501, 161, 17, 288, 80
-0.989508, 293, 169, 324, 232
-0.989534, 445, 241, 476, 304
-0.989542, 225, 281, 288, 344
-0.989551, 449, 113, 480, 240
-0.989573, 113, 41, 240, 104
-0.989635, 81, 1, 144, 375
-0.989642, 113, 17, 240, 80
-0.989647, 393, 113, 424, 240
-0.989657, 385, 241, 416, 368
-0.989683, 409, 1, 472, 375
-0.989716, 241, 1, 304, 256
-0.989718, 205, 97, 236, 160
-0.989719, 193, 17, 224, 144
-0.989777, 217, 105, 280, 168
-0.989777, 365, 313, 396, 375
-0.989799, 281, 289, 344, 352
-0.989803, 305, 145, 368, 272
-0.989865, 97, 1, 160, 256
-0.989872, 445, 129, 476, 192
-0.98989, 17, 233, 144, 296
-0.989901, 433, 113, 464, 240
-0.989916, 361, 193, 392, 320
-0.989923, 321, 313, 448, 375
-0.989924, 81, 225, 144, 256
-0.989932, 309, 241, 340, 304
-0.989935, 145, 273, 208, 336
-0.989989, 181, 41, 212, 104
-0.989996, 269, 201, 300, 264
-0.990002, 209, 113, 240, 240
-0.990034, 73, 177, 104, 240
-0.990036, 265, 205, 328, 236
-0.990089, 77, 113, 108, 240
-0.990101, 301, 265, 332, 328
-0.990108, 409, 113, 440, 240
-0.990146, 361, 265, 424, 296
-0.990155, 269, 65, 300, 192
-0.990157, 433, 177, 496, 240
-0.99016, 345, 97, 408, 160
-0.990181, 297, 97, 360, 160
-0.990189, 225, 257, 352, 320
-0.990189, 321, 289, 448, 352
-0.990209, 305, 225, 336, 352
-0.990214, 233, 201, 264, 264
-0.99022, 105, 221, 168, 252
-0.990226, 401, 257, 432, 320
-0.99023, 49, 169, 112, 232
-0.990249, 161, 49, 224, 112
-0.990288, 129, 281, 256, 344
-0.990306, 409, 105, 472, 168
-0.990322, 385, 1, 448, 375
-0.990376, 65, 213, 128, 244
-0.990379, 137, 1, 200, 375
-0.990442, 181, 89, 212, 152
-0.990506, 145, 217, 208, 248
-0.990509, 105, 241, 168, 304
-0.99052, 153, 145, 216, 176
-0.990528, 1, 201, 64, 264
-0.99058, 225, 1, 288, 375
-0.990589, 253, 177, 284, 304
-0.9906, 193, 73, 320, 136
-0.990602, 193, 65, 224, 128
-0.99069, 157, 209, 188, 272
-0.990733, 29, 217, 60, 280
-0.990736, 17, 217, 80, 248
-0.990738, 457, 129, 488, 192
-0.990765, 273, 1, 336, 375
-0.990795, 273, 129, 304, 192
-0.990817, 433, 17, 496, 144
-0.990859, 137, 157, 200, 188
-0.990859, 113, 165, 176, 196
-0.990886, 433, 269, 496, 300
-0.990899, 65, 177, 320, 240
-0.99092, 197, 161, 228, 288
-0.990925, 305, 1, 368, 375
-0.990932, 65, 49, 128, 176
-0.990937, 65, 33, 128, 288
-0.990999, 397, 241, 428, 368
-0.991027, 1, 65, 64, 192
-0.99103, 433, 129, 464, 192
-0.991039, 113, 1, 176, 375
-0.991045, 97, 273, 160, 336
-0.991048, 377, 113, 408, 240
-0.991053, 305, 105, 432, 168
-0.991058, 401, 265, 464, 296
-0.991059, 177, 217, 240, 248
-0.99106, 185, 49, 248, 112
-0.991084, 273, 173, 336, 204
-0.991103, 425, 201, 488, 264
-0.99113, 69, 193, 100, 320
-0.991138, 329, 273, 392, 304
-0.991158, 153, 185, 184, 248
-0.991175, 241, 201, 304, 232
-0.991176, 81, 185, 144, 216
-0.991231, 273, 105, 304, 168
-0.991234, 217, 209, 280, 240
-0.991252, 57, 113, 120, 176
-0.991257, 273, 161, 400, 224
-0.99126, 385, 233, 448, 296
-0.991266, 149, 97, 180, 224
-0.99127, 81, 241, 144, 304
-0.99132, 41, 265, 104, 328
-0.991331, 265, 221, 328, 252
-0.991338, 105, 177, 168, 208
-0.991345, 369, 185, 432, 248
-0.991367, 121, 1, 184, 256
-0.991375, 305, 193, 336, 256
-0.991391, 169, 177, 232, 208
-0.991416, 233, 113, 264, 240
-0.991427, 25, 229, 88, 260
-0.991449, 177, 145, 240, 208
-0.991491, 337, 261, 400, 292
-0.991498, 249, 189, 312, 220
-0.991501, 33, 121, 160, 184
-0.991516, 49, 229, 112, 260
-0.991575, 81, 201, 144, 232
-0.991595, 297, 261, 360, 292
-0.991603, 181, 65, 212, 128
-0.991604, 217, 1, 280, 256
-0.991616, 193, 25, 224, 88
-0.991623, 409, 209, 472, 240
-0.991625, 337, 345, 400, 375
-0.991632, 361, 277, 424, 308
-0.991643, 113, 65, 240, 128
-0.991649, 425, 265, 456, 328
-0.991653, 329, 285, 392, 316
-0.991656, 297, 273, 360, 304
-0.991695, 181, 17, 212, 80
-0.991725, 273, 193, 336, 224
-0.99174, 325, 129, 356, 192
-0.99175, 41, 205, 104, 236
-0.991767, 337, 1, 400, 256
-0.991794, 161, 93, 224, 124
-0.991795, 185, 105, 248, 136
-0.991805, 249, 177, 312, 208
-0.991807, 25, 145, 88, 272
-0.991817, 297, 245, 360, 276
-0.991827, 117, 153, 148, 216
-0.99185, 185, 89, 248, 120
-0.991859, 161, 105, 224, 136
-0.991863, 73, 145, 136, 208
-0.991875, 309, 177, 340, 304
-0.991883, 185, 125, 248, 156
-0.991896, 297, 133, 360, 164
-0.991923, 129, 217, 384, 280
-0.991964, 329, 309, 392, 340
-0.991964, 369, 289, 400, 352
-0.991979, 137, 169, 200, 200
-0.991984, 345, 1, 408, 375
-0.992001, 17, 205, 80, 236
-0.992001, 329, 333, 392, 364
-0.99201, 249, 297, 312, 328
-0.992014, 141, 217, 172, 280
-0.992023, 329, 297, 392, 328
-0.992024, 409, 133, 472, 164
-0.992045, 433, 133, 496, 164
-0.992055, 465, 113, 496, 240
-0.992057, 221, 113, 252, 240
-0.992069, 305, 229, 368, 260
-0.992082, 9, 321, 72, 352
-0.992085, 325, 97, 356, 224
-0.992088, 469, 201, 500, 264
-0.992091, 185, 77, 248, 108
-0.992101, 161, 125, 224, 156
-0.992119, 309, 217, 340, 280
-0.99212, 345, 321, 408, 352
-0.992163, 201, 153, 264, 216
-0.992178, 369, 105, 496, 168
-0.992181, 369, 133, 432, 164
-0.992195, 425, 253, 488, 284
-0.992201, 113, 233, 240, 296
-0.992215, 305, 217, 368, 248
-0.992228, 177, 265, 304, 328
-0.992235, 241, 213, 304, 244
-0.992241, 205, 65, 236, 192
-0.992255, 129, 189, 192, 220
-0.992269, 217, 209, 248, 272
-0.992275, 177, 193, 208, 320
-0.99228, 81, 173, 144, 204
-0.99228, 129, 141, 192, 172
-0.99229, 121, 209, 184, 240
-0.992304, 337, 249, 400, 280
-0.992304, 289, 285, 352, 316
-0.992306, 285, 137, 316, 200
-0.992312, 101, 225, 132, 352
-0.992316, 377, 253, 440, 284
-0.992325, 161, 81, 224, 112
-0.992334, 321, 133, 384, 164
-0.992351, 289, 161, 352, 192
-0.992356, 273, 297, 336, 328
-0.99236, 49, 1, 112, 375
-0.992379, 345, 133, 408, 164
-0.992385, 129, 125, 192, 156
-0.992387, 433, 161, 496, 288
-0.992398, 201, 289, 264, 352
-0.99242, 241, 129, 304, 160
-0.992428, 61, 217, 92, 248
-0.992432, 73, 277, 136, 308
-0.992437, 361, 289, 424, 320
-0.992457, 261, 225, 292, 352
-0.99246, 305, 313, 368, 375
-0.992463, 201, 181, 264, 212
-0.992465, 169, 201, 232, 232
-0.992474, 17, 65, 80, 320
-0.992484, 1, 309, 64, 340
-0.992488, 145, 233, 208, 296
-0.992514, 161, 157, 224, 188
-0.992516, 413, 265, 444, 328
-0.992517, 257, 1, 500, 128
-0.992522, 377, 213, 440, 244
-0.992533, 57, 193, 120, 224
-0.992536, 257, 117, 320, 148
-0.992537, 17, 337, 80, 368
-0.992546, 233, 165, 296, 196
-0.99255, 105, 189, 168, 220
-0.992556, 433, 193, 496, 224
-0.99258, 361, 309, 424, 340
-0.992582, 273, 129, 336, 160
-0.992597, 361, 337, 424, 368
-0.992614, 193, 165, 256, 196
-0.992621, 113, 153, 176, 184
-0.992643, 289, 205, 352, 236
-0.992656, 97, 161, 128, 224
-0.992658, 45, 217, 76, 248
-0.99266, 321, 321, 384, 352
-0.992662, 33, 201, 288, 264
-0.99267, 453, 33, 484, 160
-0.99268, 217, 197, 280, 228
-0.992689, 457, 201, 488, 264
-0.992691, 117, 221, 148, 252
-0.992698, 373, 261, 404, 292
-0.992699, 73, 217, 104, 248
-0.9927, 97, 225, 128, 256
-0.992715, 145, 201, 208, 232
-0.992715, 289, 49, 320, 176
-0.992726, 233, 285, 296, 316
-0.992738, 121, 233, 184, 264
-0.992765, 465, 241, 496, 368
-0.992797, 81, 225, 112, 288
-0.992799, 233, 153, 296, 216
-0.992808, 125, 169, 156, 200
-0.992813, 129, 221, 160, 252
-0.992813, 85, 225, 116, 256
-0.992816, 137, 165, 168, 196
-0.99283, 173, 217, 204, 248
-0.992833, 105, 277, 168, 308
-0.992838, 305, 309, 368, 340
-0.992841, 361, 121, 424, 152
-0.992853, 281, 149, 344, 180
-0.992872, 141, 221, 172, 252
-0.99288, 281, 117, 344, 148
-0.99288, 417, 265, 448, 296
-0.99289, 457, 269, 488, 300
-0.992897, 113, 177, 144, 208
-0.992899, 297, 193, 360, 224
-0.992901, 101, 177, 132, 208
-0.992903, 353, 337, 384, 368
-0.992907, 1, 313, 32, 375
-0.99291, 77, 205, 108, 236
-0.99291, 225, 225, 288, 256
-0.99292, 73, 237, 136, 268
-0.992924, 161, 217, 192, 248
-0.992932, 201, 209, 232, 272
-0.992936, 417, 345, 480, 375
-0.992942, 161, 141, 192, 172
-0.992943, 385, 1, 448, 256
-0.99295, 201, 169, 232, 232
-0.992955, 93, 189, 124, 220
-0.992956, 129, 277, 192, 308
-0.992962, 285, 169, 316, 200
-0.992963, 313, 345, 376, 375
-0.992969, 129, 121, 384, 184
-0.992972, 261, 189, 292, 220
-0.992979, 49, 273, 112, 304
-0.992987, 265, 285, 328, 316
-0.99299, 33, 289, 96, 320
-0.99299, 253, 201, 284, 232
-0.992992, 193, 93, 224, 124
-0.992999, 409, 197, 472, 228
-0.993007, 385, 265, 416, 296
-0.993021, 337, 121, 400, 152
-0.993025, 177, 141, 240, 172
-0.993032, 361, 1, 424, 256
-0.993036, 193, 205, 256, 236
-0.993042, 265, 257, 328, 288
-0.993048, 369, 1, 496, 64
-0.993049, 365, 345, 396, 375
-0.99305, 33, 217, 64, 248
-0.993054, 369, 325, 432, 356
-0.993058, 369, 273, 400, 304
-0.993059, 1, 229, 64, 260
-0.993074, 1, 329, 32, 360
-0.993076, 161, 229, 224, 260
-0.993077, 145, 153, 176, 184
-0.993077, 353, 325, 384, 356
-0.993081, 57, 173, 120, 204
-0.993083, 249, 89, 312, 120
-0.993086, 301, 133, 332, 164
-0.993091, 225, 301, 288, 332
-0.993092, 273, 177, 304, 208
-0.993092, 289, 205, 320, 236
-0.993092, 469, 269, 500, 300
-0.993101, 353, 265, 384, 296
-0.993109, 281, 293, 312, 324
-0.993114, 201, 221, 264, 252
-0.993117, 193, 297, 256, 328
-0.993121, 77, 193, 108, 224
-0.993122, 193, 105, 224, 136
-0.993123, 173, 137, 204, 168
-0.993124, 349, 277, 380, 308
-0.993125, 433, 209, 496, 240
-0.993131, 65, 229, 96, 260
-0.993132, 305, 121, 368, 152
-0.993137, 257, 265, 500, 328
-0.99314, 161, 69, 224, 100
-0.993142, 277, 201, 308, 232
-0.993144, 61, 205, 92, 236
-0.993145, 353, 217, 416, 248
-0.99315, 217, 209, 248, 240
-0.99316, 233, 113, 296, 144
-0.993162, 265, 209, 296, 240
-0.993168, 185, 117, 216, 148
-0.993176, 161, 153, 192, 184
-0.993183, 173, 125, 204, 156
-0.993187, 237, 205, 268, 236
-0.993192, 301, 209, 332, 240
-0.993192, 109, 189, 140, 220
-0.993193, 201, 169, 232, 200
-0.993198, 9, 341, 40, 372
-0.993205, 429, 265, 460, 296
-0.993207, 125, 185, 156, 216
-0.993209, 369, 41, 496, 104
-0.993219, 369, 285, 400, 316
-0.99322, 185, 217, 216, 248
-0.993224, 397, 261, 428, 292
-0.993227, 185, 177, 216, 208
-0.993233, 309, 245, 340, 276
-0.993239, 289, 157, 320, 188
-0.993243, 201, 217, 232, 248
-0.993243, 461, 133, 492, 164
-0.993244, 353, 297, 384, 328
-0.993253, 53, 229, 84, 260
-0.993253, 445, 269, 476, 300
-0.99326, 133, 205, 164, 236
-0.993264, 293, 221, 324, 252
-0.993266, 89, 205, 120, 236
-0.993267, 409, 169, 472, 232
-0.993271, 297, 177, 328, 208
-0.993273, 449, 133, 480, 164
-0.993276, 21, 217, 52, 248
-0.993277, 185, 81, 216, 112
-0.993291, 301, 145, 332, 176
-0.993294, 89, 177, 120, 208
-0.993296, 197, 121, 228, 184
-0.993297, 329, 261, 360, 292
-0.993301, 205, 105, 236, 136
-0.993306, 233, 177, 264, 240
-0.993309, 289, 193, 320, 224
-0.993325, 137, 89, 200, 152
-0.993326, 413, 133, 444, 164
-0.993332, 361, 133, 392, 164
-0.993335, 353, 313, 384, 344
-0.993337, 393, 133, 424, 164
-0.993338, 433, 133, 464, 164
-0.993339, 285, 113, 316, 144
-0.993342, 321, 133, 352, 164
-0.993345, 177, 105, 208, 136
-0.993349, 169, 205, 200, 236
-0.993351, 181, 93, 212, 124
-0.993353, 453, 229, 484, 260
-0.993357, 193, 37, 224, 68
-0.993362, 285, 101, 316, 132
-0.993367, 365, 317, 396, 348
-0.993369, 181, 25, 212, 56
-0.993375, 373, 133, 404, 164
-0.993376, 181, 45, 212, 76
-0.993376, 101, 213, 132, 244
-0.993379, 145, 185, 176, 216
-0.99338, 341, 133, 372, 164
-0.993383, 193, 61, 224, 92
-0.993387, 301, 197, 332, 228
-0.993391, 149, 125, 180, 156
-0.993398, 313, 213, 344, 244
-0.993398, 333, 273, 364, 304
-0.993399, 181, 69, 212, 100
-0.993402, 149, 141, 180, 172
-0.993403, 289, 129, 320, 160
-0.993405, 193, 49, 224, 80
-0.99341, 249, 213, 280, 244
-0.993412, 437, 209, 468, 240
-0.993412, 197, 117, 228, 148
-0.993415, 181, 57, 212, 88
-0.993419, 273, 129, 304, 160
-0.993427, 201, 81, 232, 112
-0.993431, 25, 229, 56, 260
-0.993431, 293, 289, 324, 320
-0.993435, 269, 301, 300, 332
-0.993438, 181, 9, 212, 40
-0.993439, 453, 197, 484, 228
-0.993443, 113, 209, 144, 240
-0.993444, 113, 165, 144, 196
-0.993448, 445, 257, 476, 288
-0.993455, 233, 209, 264, 336
-0.993459, 153, 165, 184, 196
-0.993459, 465, 201, 496, 232
-0.99346, 17, 321, 48, 352
-0.993461, 49, 205, 80, 236
-0.993465, 373, 329, 404, 360
-0.993467, 309, 265, 340, 296
-0.993468, 37, 229, 68, 260
-0.993487, 73, 89, 136, 152
-0.993503, 349, 257, 380, 320
-0.993521, 441, 49, 472, 176
-0.993523, 277, 297, 308, 360
-0.993562, 305, 105, 336, 168
-0.993568, 357, 97, 388, 224
-0.993617, 153, 1, 216, 128
-0.993617, 113, 65, 176, 192
-0.993674, 161, 193, 416, 256
-0.993675, 313, 1, 376, 256
-0.993709, 425, 241, 456, 368
-0.993717, 213, 185, 244, 248
-0.993749, 1, 97, 128, 160
-0.993858, 33, 113, 96, 176
-0.993874, 69, 241, 100, 368
-0.993874, 353, 265, 480, 296
-0.993876, 25, 1, 88, 375
-0.993889, 421, 129, 452, 192
-0.993901, 353, 1, 480, 128
-0.993908, 465, 65, 496, 192
-0.993924, 341, 313, 372, 375
-0.993969, 433, 1, 496, 64
-0.993972, 1, 209, 500, 272
-0.993983, 337, 49, 400, 176
-0.993994, 17, 257, 80, 320
-0.994005, 177, 185, 208, 248
-0.994027, 369, 289, 432, 352
-0.994072, 1, 17, 128, 144
-0.994087, 225, 153, 352, 216
-0.994165, 313, 129, 344, 192
-0.99417, 305, 161, 336, 224
-0.994199, 269, 81, 300, 144
-0.994224, 81, 241, 112, 368
-0.994237, 369, 97, 432, 160
-0.994244, 193, 265, 256, 328
-0.994246, 1, 153, 128, 216
-0.994246, 369, 177, 496, 240
-0.994271, 209, 81, 272, 144
-0.994271, 257, 201, 500, 264
-0.994291, 161, 225, 288, 288
-0.994373, 81, 221, 208, 252
-0.994378, 193, 1, 224, 64
-0.994386, 97, 145, 352, 208
-0.994401, 1, 185, 500, 248
-0.994404, 161, 281, 416, 344
-0.994451, 97, 89, 160, 152
-0.994463, 137, 225, 168, 352
-0.994487, 65, 97, 192, 160
-0.994498, 365, 217, 396, 280
-0.994552, 265, 81, 328, 144
-0.994553, 337, 241, 368, 368
-0.994575, 53, 241, 84, 368
-0.994617, 325, 225, 356, 352
-0.994627, 129, 233, 160, 296
-0.994633, 257, 241, 500, 304
-0.994646, 409, 129, 440, 192
-0.994658, 393, 121, 424, 184
-0.994665, 409, 33, 472, 96
-0.994673, 129, 97, 384, 160
-0.994677, 289, 225, 320, 288
-0.994685, 453, 241, 484, 368
-0.994693, 273, 225, 304, 352
-0.994694, 25, 241, 56, 368
-0.994722, 201, 145, 232, 208
-0.994722, 161, 257, 416, 320
-0.994724, 333, 249, 364, 312
-0.994739, 225, 313, 352, 375
-0.994758, 41, 289, 104, 352
-0.994769, 209, 129, 272, 192
-0.994782, 337, 97, 368, 224
-0.994794, 157, 161, 188, 224
-0.994817, 321, 177, 448, 240
-0.994825, 1, 225, 256, 288
-0.994868, 409, 1, 472, 256
-0.994877, 209, 209, 336, 240
-0.994938, 373, 121, 404, 184
-0.994964, 17, 213, 144, 244
-0.994969, 53, 241, 84, 304
-0.994978, 17, 225, 144, 256
-0.99498, 329, 185, 392, 248
-0.994984, 1, 17, 64, 144
-0.995002, 73, 265, 104, 328
-0.995003, 321, 217, 384, 280
-0.995012, 241, 161, 272, 288
-0.995026, 129, 257, 256, 320
-0.99504, 161, 213, 288, 244
-0.995053, 205, 73, 236, 136
-0.995076, 457, 33, 488, 96
-0.995107, 217, 225, 280, 288
-0.995131, 409, 17, 472, 144
-0.995144, 125, 121, 156, 184
-0.995161, 369, 313, 496, 375
-0.99524, 49, 89, 112, 152
-0.995299, 197, 89, 212, 152
-0.995373, 433, 241, 464, 304
-0.995387, 33, 273, 288, 336
-0.995391, 373, 257, 388, 320
-0.995445, 1, 257, 500, 320
-0.995447, 1, 97, 64, 160
-0.995447, 273, 281, 400, 312
-0.995451, 213, 209, 244, 336
-0.995462, 1, 281, 500, 344
-0.995464, 465, 105, 496, 168
-0.995478, 1, 1, 64, 375
-0.995481, 33, 97, 288, 160
-0.995493, 433, 33, 496, 96
-0.99551, 361, 121, 392, 184
-0.995514, 45, 265, 76, 328
-0.995535, 99, 185, 114, 248
-0.995563, 89, 201, 104, 264
-0.995565, 433, 65, 496, 128
-0.995578, 281, 177, 296, 240
-0.995584, 289, 253, 416, 284
-0.995586, 257, 121, 288, 184
-0.995589, 111, 193, 126, 256
-0.995636, 421, 241, 452, 304
-0.995647, 1, 313, 256, 375
-0.995659, 361, 241, 392, 368
-0.995664, 41, 1, 104, 256
-0.995665, 201, 225, 232, 352
-0.995681, 437, 241, 468, 368
-0.995733, 79, 201, 94, 264
-0.995744, 193, 169, 448, 232
-0.99575, 165, 65, 196, 192
-0.99575, 61, 113, 92, 240
-0.995847, 113, 165, 240, 196
-0.995855, 71, 209, 86, 272
-0.995886, 249, 161, 280, 224
-0.995887, 389, 65, 420, 192
-0.995928, 449, 105, 480, 168
-0.995932, 245, 225, 276, 352
-0.995945, 133, 273, 164, 336
-0.995969, 1, 233, 500, 296
-0.995974, 257, 129, 500, 192
-0.995977, 273, 185, 288, 248
-0.995981, 369, 65, 400, 192
-0.996005, 453, 177, 484, 240
-0.996038, 127, 217, 142, 280
-0.996041, 289, 265, 416, 296
-0.996046, 265, 281, 296, 344
-0.996048, 65, 209, 192, 240
-0.996064, 193, 41, 208, 104
-0.996084, 437, 201, 468, 264
-0.996094, 195, 65, 210, 128
-0.996098, 301, 49, 332, 176
-0.996101, 111, 217, 126, 280
-0.996115, 325, 105, 356, 168
-0.996125, 177, 297, 240, 360
-0.996126, 401, 65, 432, 192
-0.996129, 369, 65, 496, 128
-0.996132, 119, 217, 134, 280
-0.996149, 305, 201, 320, 264
-0.996159, 265, 153, 296, 216
-0.996162, 429, 105, 460, 168
-0.996165, 1, 313, 500, 375
-0.996176, 273, 293, 400, 324
-0.996196, 225, 105, 480, 168
-0.996198, 209, 17, 336, 144
-0.996208, 65, 73, 192, 136
-0.996209, 105, 185, 120, 248
-0.996235, 425, 65, 456, 192
-0.996248, 119, 185, 134, 248
-0.996251, 89, 265, 120, 328
-0.996263, 95, 217, 110, 280
-0.996278, 45, 145, 76, 272
-0.996279, 129, 177, 144, 240
-0.996291, 289, 161, 304, 224
-0.996302, 65, 189, 192, 220
-0.996309, 135, 177, 150, 240
-0.996309, 329, 225, 360, 288
-0.996331, 165, 225, 196, 352
-0.996337, 209, 161, 240, 288
-0.996342, 33, 121, 288, 184
-0.996351, 1, 145, 64, 272
-0.996355, 295, 169, 310, 232
-0.996364, 209, 221, 336, 252
-0.996376, 483, 241, 498, 304
-0.996382, 477, 241, 492, 304
-0.996387, 105, 217, 120, 280
-0.996427, 33, 33, 288, 96
-0.996435, 265, 185, 280, 248
-0.996444, 369, 345, 496, 375
-0.996448, 285, 97, 300, 160
-0.996457, 49, 297, 176, 360
-0.996458, 25, 73, 88, 136
-0.996463, 305, 161, 368, 224
-0.996471, 165, 145, 180, 208
-0.996479, 1, 73, 64, 136
-0.996487, 169, 121, 184, 184
-0.996529, 409, 1, 472, 64
-0.996539, 143, 209, 158, 272
-0.99656, 133, 201, 148, 264
-0.996574, 1, 241, 32, 368
-0.996584, 369, 153, 496, 216
-0.996614, 177, 129, 304, 160
-0.996631, 297, 201, 312, 264
-0.996636, 365, 281, 380, 344
-0.996639, 209, 197, 336, 228
-0.996643, 161, 177, 288, 208
-0.996651, 193, 17, 208, 80
-0.996655, 469, 241, 484, 304
-0.996689, 365, 313, 380, 375
-0.996696, 129, 57, 384, 120
-0.996703, 149, 209, 164, 272
-0.996714, 259, 185, 274, 248
-0.996734, 291, 193, 306, 256
-0.996741, 25, 193, 56, 320
-0.996758, 1, 325, 128, 356
-0.996763, 293, 105, 308, 168
-0.996767, 53, 217, 68, 280
-0.996771, 1, 145, 256, 208
-0.996783, 459, 241, 474, 304
-0.996793, 481, 265, 496, 328
-0.996796, 379, 257, 394, 320
-0.996826, 401, 257, 416, 320
-0.996827, 65, 209, 80, 272
-0.996831, 113, 149, 240, 180
-0.996835, 161, 201, 288, 232
-0.996869, 141, 185, 156, 248
-0.996887, 33, 65, 288, 128
-0.996889, 189, 209, 220, 336
-0.996898, 257, 213, 384, 244
-0.996912, 229, 161, 260, 288
-0.996917, 443, 265, 458, 328
-0.996952, 157, 121, 172, 184
-0.996954, 17, 73, 144, 136
-0.996958, 433, 153, 496, 216
-0.996965, 285, 201, 300, 264
-0.996969, 49, 17, 176, 144
-0.996981, 113, 177, 240, 208
-0.996982, 163, 121, 178, 184
-0.996983, 87, 177, 102, 240
-0.996998, 45, 65, 76, 192
-0.997004, 155, 153, 170, 216
-0.997006, 287, 129, 302, 192
-0.997007, 129, 33, 384, 96
-0.997012, 301, 177, 316, 240
-0.997012, 353, 209, 480, 240
-0.997041, 429, 97, 460, 352
-0.997052, 371, 313, 386, 375
-0.997053, 485, 129, 500, 192
-0.997053, 479, 129, 494, 192
-0.99706, 193, 313, 448, 375
-0.997063, 179, 193, 194, 256
-0.997063, 187, 209, 202, 272
-0.997063, 197, 169, 212, 232
-0.997075, 293, 289, 308, 352
-0.997078, 395, 257, 410, 320
-0.997095, 197, 145, 212, 208
-0.997097, 141, 161, 156, 224
-0.997103, 461, 265, 476, 328
-0.997105, 353, 277, 480, 308
-0.997106, 449, 265, 464, 328
-0.997122, 113, 205, 240, 236
-0.997123, 209, 169, 336, 200
-0.997124, 17, 345, 144, 375
-0.997126, 457, 129, 472, 192
-0.997127, 25, 169, 88, 232
-0.997133, 471, 265, 486, 328
-0.997134, 203, 169, 218, 232
-0.997146, 413, 65, 444, 192
-0.997157, 353, 133, 480, 164
-0.997163, 405, 97, 436, 352
-0.997176, 305, 133, 432, 164
-0.997178, 449, 129, 464, 192
-0.997184, 407, 257, 422, 320
-0.997188, 455, 265, 470, 328
-0.99719, 149, 225, 180, 352
-0.99719, 471, 129, 486, 192
-0.997192, 47, 217, 62, 280
-0.997195, 189, 121, 204, 184
-0.997197, 453, 241, 468, 304
-0.997202, 65, 177, 192, 208
-0.99721, 147, 153, 162, 216
-0.99721, 303, 129, 318, 192
-0.997218, 237, 201, 252, 264
-0.997221, 417, 97, 448, 352
-0.997223, 155, 193, 170, 256
-0.997236, 253, 193, 268, 256
-0.99725, 279, 89, 294, 152
-0.997252, 273, 345, 400, 375
-0.997252, 185, 1, 216, 256
-0.997257, 1, 121, 500, 184
-0.99726, 439, 129, 454, 192
-0.99727, 311, 201, 326, 264
-0.99727, 289, 201, 416, 232
-0.997275, 393, 97, 424, 352
-0.997277, 175, 137, 190, 200
-0.997279, 135, 153, 150, 216
-0.9973, 199, 113, 214, 176
-0.997306, 273, 317, 400, 348
-0.997309, 463, 129, 478, 192
-0.997332, 373, 97, 404, 352
-0.997333, 303, 273, 318, 336
-0.997348, 39, 217, 54, 280
-0.997365, 459, 201, 474, 264
-0.997373, 357, 313, 372, 375
-0.997379, 243, 201, 258, 264
-0.997395, 217, 65, 248, 192
-0.997415, 305, 97, 336, 352
-0.997423, 273, 333, 400, 364
-0.997425, 389, 257, 404, 320
-0.997427, 93, 177, 108, 240
-0.99743, 57, 65, 88, 192
-0.997432, 1, 189, 128, 220
-0.997438, 313, 233, 328, 296
-0.997442, 189, 97, 204, 160
-0.997453, 173, 185, 188, 248
-0.997455, 437, 265, 452, 328
-0.997465, 297, 145, 312, 208
-0.997471, 151, 121, 166, 184
-0.997471, 191, 177, 206, 240
-0.997473, 81, 177, 96, 240
-0.997495, 449, 97, 480, 352
-0.997498, 33, 237, 160, 268
-0.997503, 59, 217, 74, 248
-0.997504, 161, 305, 288, 368
-0.997504, 373, 281, 388, 344
-0.997522, 69, 213, 84, 244
-0.997529, 59, 209, 74, 272
-0.997534, 419, 265, 434, 328
-0.997548, 161, 193, 176, 256
-0.997548, 309, 265, 324, 328
-0.997556, 73, 185, 88, 248
-0.997556, 289, 241, 416, 272
-0.997559, 307, 177, 322, 240
-0.997568, 3, 313, 18, 375
-0.99757, 279, 201, 294, 264
-0.997594, 287, 289, 302, 352
-0.9976, 97, 97, 128, 352
-0.997603, 257, 65, 288, 192
-0.997607, 203, 57, 218, 120
-0.997613, 161, 97, 192, 352
-0.997614, 185, 97, 216, 352
-0.997621, 149, 177, 164, 240
-0.997623, 247, 177, 262, 240
-0.997661, 17, 201, 144, 232
-0.997662, 113, 129, 144, 375
-0.997662, 181, 113, 196, 176
-0.997666, 129, 153, 144, 216
-0.997668, 277, 97, 308, 352
-0.997677, 209, 113, 336, 144
-0.997683, 141, 97, 172, 352
-0.997698, 201, 97, 232, 352
-0.997704, 193, 209, 208, 272
-0.997706, 19, 305, 34, 368
-0.997713, 345, 249, 360, 312
-0.997715, 161, 21, 288, 52
-0.997717, 75, 217, 90, 248
-0.99772, 9, 313, 24, 375
-0.99772, 469, 97, 500, 352
-0.997723, 257, 133, 384, 164
-0.997729, 289, 97, 320, 352
-0.997737, 225, 181, 352, 212
-0.997739, 205, 89, 220, 152
-0.997745, 273, 305, 400, 336
-0.997745, 289, 121, 416, 152
-0.997748, 307, 241, 322, 304
-0.997748, 351, 241, 366, 304
-0.997766, 97, 225, 112, 256
-0.997768, 167, 177, 182, 240
-0.99777, 119, 153, 134, 216
-0.997779, 81, 209, 96, 240
-0.997779, 193, 281, 320, 312
-0.997779, 433, 129, 448, 192
-0.997781, 141, 165, 156, 196
-0.997787, 209, 297, 336, 328
-0.99779, 317, 209, 332, 272
-0.997795, 197, 97, 212, 128
-0.997799, 125, 129, 156, 375
-0.997809, 321, 333, 448, 364
-0.997821, 115, 225, 130, 256
-0.997828, 205, 17, 236, 144
-0.99783, 91, 217, 106, 248
-0.997831, 133, 169, 148, 200
-0.997838, 109, 225, 124, 256
-0.997854, 257, 65, 384, 128
-0.997874, 17, 65, 48, 192
-0.997875, 257, 289, 500, 352
-0.997896, 103, 225, 118, 256
-0.997897, 127, 221, 142, 252
-0.997897, 81, 125, 208, 156
-0.997903, 161, 9, 288, 40
-0.997913, 353, 97, 384, 352
-0.997916, 197, 85, 212, 116
-0.997918, 97, 233, 224, 264
-0.997919, 325, 97, 356, 352
-0.997923, 81, 277, 208, 308
-0.997933, 33, 277, 160, 308
-0.997941, 117, 177, 132, 208
-0.997942, 121, 225, 136, 256
-0.997945, 113, 109, 240, 140
-0.997957, 133, 221, 148, 252
-0.997968, 357, 49, 388, 176
-0.997973, 53, 217, 68, 248
-0.997975, 155, 221, 170, 252
-0.997977, 163, 145, 178, 176
-0.997987, 177, 157, 304, 188
-0.998005, 241, 269, 368, 300
-0.998012, 289, 225, 416, 256
-0.998018, 113, 97, 240, 128
-0.998032, 367, 337, 382, 368
-0.998039, 161, 77, 288, 108
-0.998039, 173, 97, 204, 352
-0.998044, 353, 253, 480, 284
-0.998065, 129, 125, 256, 156
-0.998066, 321, 345, 448, 375
-0.998066, 29, 97, 60, 224
-0.998067, 149, 221, 164, 252
-0.998083, 145, 225, 272, 256
-0.998088, 475, 269, 490, 300
-0.998096, 313, 49, 344, 176
-0.998101, 161, 221, 176, 252
-0.998104, 297, 165, 312, 196
-0.998121, 81, 225, 96, 256
-0.998121, 37, 241, 68, 368
-0.99813, 257, 169, 384, 200
-0.998131, 291, 165, 306, 196
-0.998131, 33, 165, 160, 196
-0.998131, 201, 1, 232, 256
-0.998133, 177, 217, 192, 248
-0.998134, 113, 13, 240, 44
-0.998134, 113, 65, 144, 192
-0.998134, 463, 269, 478, 300
-0.998135, 373, 273, 388, 304
-0.998145, 337, 289, 464, 320
-0.998146, 45, 217, 60, 248
-0.99815, 421, 265, 436, 296
-0.998151, 169, 137, 184, 168
-0.998154, 265, 97, 296, 352
-0.998158, 167, 221, 182, 252
-0.998164, 123, 173, 138, 204
-0.998165, 23, 345, 38, 375
-0.998174, 161, 97, 288, 128
-0.998184, 197, 109, 212, 140
-0.998186, 469, 269, 484, 300
-0.998188, 113, 25, 240, 56
-0.99819, 353, 221, 480, 252
-0.998195, 245, 65, 276, 192
-0.998202, 241, 97, 272, 352
-0.998205, 153, 157, 168, 188
-0.998207, 113, 1, 240, 32
-0.998209, 375, 261, 390, 292
-0.99821, 91, 193, 106, 224
-0.998211, 65, 225, 80, 256
-0.998219, 283, 177, 298, 208
-0.998221, 161, 57, 288, 88
-0.998224, 365, 325, 380, 356
-0.998232, 147, 161, 162, 192
-0.998234, 161, 33, 288, 64
-0.998234, 345, 273, 360, 304
-0.998236, 113, 37, 240, 68
-0.998241, 185, 217, 200, 248
-0.998241, 283, 201, 298, 232
-0.998243, 253, 97, 284, 352
-0.998243, 129, 189, 256, 220
-0.998255, 87, 205, 102, 236
-0.998255, 195, 69, 210, 100
-0.998261, 113, 85, 240, 116
-0.998266, 73, 97, 104, 352
-0.998272, 141, 221, 156, 252
-0.998276, 369, 121, 496, 152
-0.99828, 17, 337, 32, 368
-0.998281, 1, 313, 128, 344
-0.998282, 193, 37, 208, 68
-0.998282, 305, 213, 432, 244
-0.99829, 383, 261, 398, 292
-0.998295, 307, 133, 322, 164
-0.998302, 301, 205, 316, 236
-0.998309, 427, 265, 442, 296
-0.998312, 291, 293, 306, 324
-0.998312, 53, 211, 84, 226
-0.998312, 185, 125, 216, 140
-0.998313, 181, 37, 212, 52
-0.998313, 301, 175, 332, 190
-0.998313, 205, 103, 236, 118
-0.998314, 193, 37, 224, 52
-0.998314, 141, 157, 172, 172
-0.998314, 337, 321, 464, 352
-0.998314, 237, 209, 268, 224
-0.998315, 281, 201, 312, 216
-0.998316, 217, 213, 248, 228
-0.998316, 273, 187, 304, 202
-0.998318, 285, 111, 316, 126
-0.998318, 465, 203, 496, 218
-0.998318, 469, 279, 500, 294
-0.998318, 65, 213, 96, 228
-0.998319, 305, 139, 336, 154
-0.998319, 369, 285, 400, 300
-0.998319, 349, 299, 380, 314
-0.99832, 309, 217, 340, 232
-0.99832, 349, 273, 380, 288
-0.998321, 457, 277, 488, 292
-0.998321, 325, 265, 356, 280
-0.998322, 185, 87, 216, 102
-0.998323, 265, 197, 296, 212
-0.998323, 197, 115, 228, 130
-0.998323, 97, 219, 128, 234
-0.998323, 145, 177, 176, 192
-0.998324, 349, 293, 380, 308
-0.998324, 313, 133, 344, 148
-0.998324, 297, 205, 328, 220
-0.998324, 389, 271, 420, 286
-0.998324, 181, 217, 212, 232
-0.998326, 373, 259, 404, 274
-0.998326, 289, 201, 304, 232
-0.998327, 293, 141, 324, 156
-0.998328, 305, 251, 336, 266
-0.998328, 13, 355, 44, 370
-0.99833, 181, 31, 212, 46
-0.99833, 105, 175, 136, 190
-0.99833, 349, 351, 380, 366
-0.998331, 9, 345, 40, 360
-0.998332, 1, 335, 32, 350
-0.998332, 73, 191, 104, 206
-0.998332, 161, 45, 288, 76
-0.998333, 109, 189, 140, 204
-0.998333, 161, 109, 288, 140
-0.998333, 137, 217, 168, 232
-0.998334, 293, 289, 324, 304
-0.998335, 353, 309, 384, 324
-0.998335, 257, 203, 288, 218
-0.998336, 377, 357, 408, 372
-0.998336, 121, 171, 152, 186
-0.998337, 213, 183, 244, 198
-0.998338, 205, 165, 220, 196
-0.998339, 285, 105, 316, 120
-0.998339, 309, 201, 324, 232
-0.998339, 273, 133, 304, 148
-0.998339, 197, 109, 228, 124
-0.99834, 193, 49, 208, 80
-0.99834, 113, 57, 240, 88
-0.998341, 129, 185, 160, 200
-0.998341, 213, 97, 244, 352
-0.998345, 245, 201, 276, 216
-0.998346, 469, 353, 500, 368
-0.998346, 185, 111, 216, 126
-0.998346, 193, 93, 224, 108
-0.998347, 273, 181, 304, 196
-0.998348, 177, 183, 208, 198
-0.998349, 121, 219, 152, 234
-0.998349, 21, 361, 52, 375
-0.998351, 333, 277, 364, 292
-0.998351, 353, 267, 384, 282
-0.998352, 181, 175, 212, 190
-0.998353, 93, 203, 124, 218
-0.998354, 185, 119, 216, 134
-0.998355, 165, 145, 196, 160
-0.998355, 77, 221, 108, 236
-0.998355, 161, 215, 192, 230
-0.998357, 353, 285, 384, 300
-0.998358, 149, 217, 180, 232
-0.998359, 353, 329, 384, 344
-0.998361, 77, 201, 108, 216
-0.998362, 285, 195, 316, 210
-0.998362, 197, 165, 212, 196
-0.998363, 85, 185, 116, 200
-0.998363, 293, 133, 324, 148
-0.998364, 373, 271, 404, 286
-0.998366, 41, 221, 72, 236
-0.998367, 257, 201, 272, 232
-0.998367, 287, 101, 302, 132
-0.998367, 99, 189, 114, 220
-0.99837, 169, 139, 200, 154
-0.99837, 69, 229, 100, 244
-0.998371, 293, 221, 324, 236
-0.998371, 209, 257, 336, 288
-0.998373, 161, 153, 192, 168
-0.998374, 185, 105, 216, 120
-0.998374, 353, 343, 384, 358
-0.998374, 65, 219, 96, 234
-0.998374, 129, 225, 160, 240
-0.998375, 113, 69, 240, 100
-0.998375, 33, 289, 160, 320
-0.998384, 33, 9, 288, 72
-0.998386, 269, 301, 300, 316
-0.998387, 369, 277, 400, 292
-0.998387, 229, 97, 260, 352
-0.998387, 25, 219, 56, 234
-0.998388, 91, 229, 106, 260
-0.99839, 97, 227, 128, 242
-0.998391, 153, 225, 184, 240
-0.998393, 153, 183, 184, 198
-0.998393, 21, 227, 52, 242
-0.998393, 169, 221, 200, 236
-0.998394, 113, 289, 240, 320
-0.998394, 141, 223, 172, 238
-0.998396, 353, 337, 384, 352
-0.998396, 289, 17, 416, 144
-0.998398, 365, 357, 396, 372
-0.998398, 97, 193, 128, 208
-0.998405, 75, 229, 90, 260
-0.998406, 285, 179, 316, 194
-0.998412, 37, 229, 68, 244
-0.998412, 117, 177, 148, 192
-0.998412, 389, 265, 404, 296
-0.998415, 117, 225, 148, 240
-0.998418, 341, 97, 372, 352
-0.998419, 373, 345, 388, 375
-0.99842, 57, 229, 88, 244
-0.998421, 5, 325, 20, 356
-0.998422, 85, 227, 116, 242
-0.998423, 77, 211, 108, 226
-0.998425, 193, 99, 224, 114
-0.998432, 349, 279, 380, 294
-0.998433, 273, 185, 288, 216
-0.998438, 85, 193, 116, 208
-0.998439, 361, 351, 392, 366
-0.99844, 193, 25, 208, 56
-0.99844, 133, 169, 164, 184
-0.998443, 285, 297, 316, 312
-0.998445, 105, 181, 136, 196
-0.998445, 153, 159, 184, 174
-0.998447, 369, 267, 432, 282
-0.99845, 193, 177, 224, 192
-0.998451, 75, 205, 90, 236
-0.998453, 353, 357, 384, 372
-0.998456, 1, 249, 256, 312
-0.998458, 37, 217, 52, 248
-0.99846, 141, 183, 172, 198
-0.998461, 325, 49, 356, 176
-0.998463, 437, 271, 468, 286
-0.998465, 277, 209, 292, 240
-0.998466, 129, 179, 160, 194
-0.998471, 285, 171, 316, 186
-0.998473, 53, 221, 84, 236
-0.998473, 365, 309, 380, 340
-0.998475, 191, 1, 206, 32
-0.998477, 271, 209, 286, 240
-0.998483, 117, 183, 148, 198
-0.998484, 103, 177, 118, 208
-0.998484, 299, 285, 314, 316
-0.998484, 137, 65, 168, 192
-0.998486, 401, 269, 464, 284
-0.998488, 425, 269, 456, 284
-0.998491, 177, 241, 208, 368
-0.998491, 303, 173, 318, 204
-0.998493, 481, 269, 496, 300
-0.998496, 97, 137, 224, 168
-0.998498, 449, 271, 480, 286
-0.998498, 385, 265, 416, 280
-0.998502, 405, 267, 436, 282
-0.998505, 337, 301, 464, 332
-0.998506, 11, 329, 26, 360
-0.998507, 267, 189, 282, 220
-0.998507, 27, 217, 42, 248
-0.998509, 105, 181, 168, 196
-0.998512, 129, 9, 384, 72
-0.998513, 425, 271, 488, 286
-0.998513, 299, 149, 314, 180
-0.998513, 337, 145, 400, 272
-0.998514, 265, 201, 280, 232
-0.998516, 469, 273, 500, 288
-0.998518, 173, 1, 204, 256
-0.998522, 359, 325, 374, 356
-0.998524, 473, 133, 488, 164
-0.998527, 373, 321, 388, 352
-0.998529, 279, 89, 294, 120
-0.99853, 411, 261, 426, 292
-0.998536, 175, 137, 190, 168
-0.998536, 17, 177, 144, 208
-0.998537, 161, 293, 288, 324
-0.998537, 435, 265, 450, 296
-0.998538, 141, 163, 172, 178
-0.998542, 395, 265, 410, 296
-0.998542, 239, 205, 254, 236
-0.998543, 97, 187, 128, 202
-0.998543, 193, 13, 208, 44
-0.998544, 401, 265, 416, 296
-0.998547, 191, 213, 206, 244
-0.998551, 197, 121, 212, 152
-0.998553, 373, 265, 404, 280
-0.998557, 49, 221, 112, 236
-0.998558, 169, 177, 232, 192
-0.998558, 81, 227, 144, 242
-0.99856, 5, 65, 36, 192
-0.998561, 265, 221, 328, 236
-0.998561, 79, 193, 94, 224
-0.998562, 129, 183, 192, 198
-0.998564, 105, 225, 168, 240
-0.998565, 361, 273, 424, 288
-0.998566, 465, 17, 496, 144
-0.99857, 25, 219, 88, 234
-0.998571, 129, 223, 192, 238
-0.998573, 337, 355, 400, 370
-0.998574, 251, 201, 266, 232
-0.998575, 201, 177, 216, 208
-0.998579, 41, 229, 104, 244
-0.998584, 329, 281, 392, 296
-0.998585, 107, 189, 122, 220
-0.998586, 17, 121, 144, 152
-0.998587, 257, 109, 384, 140
-0.998588, 137, 163, 200, 178
-0.99859, 297, 253, 360, 268
-0.998591, 345, 265, 408, 280
-0.998593, 81, 191, 144, 206
-0.998594, 297, 189, 312, 220
-0.998596, 329, 287, 392, 302
-0.998597, 457, 269, 472, 300
-0.998599, 421, 133, 436, 164
-0.998602, 97, 209, 112, 240
-0.998604, 209, 217, 224, 248
-0.998604, 273, 179, 336, 194
-0.998605, 459, 133, 474, 164
-0.998606, 129, 215, 192, 230
-0.998607, 129, 181, 144, 212
-0.998609, 355, 337, 370, 368
-0.998611, 169, 219, 232, 234
-0.998611, 59, 229, 74, 260
-0.998612, 361, 279, 424, 294
-0.998615, 81, 203, 144, 218
-0.998616, 231, 209, 246, 240
-0.998617, 105, 187, 168, 202
-0.998617, 297, 125, 312, 156
-0.998618, 9, 227, 72, 242
-0.99862, 85, 189, 100, 220
-0.998621, 49, 211, 112, 226
-0.998624, 467, 133, 482, 164
-0.998624, 203, 217, 218, 248
-0.998626, 241, 203, 304, 218
-0.998627, 105, 175, 168, 190
-0.998627, 365, 281, 380, 312
-0.998627, 169, 183, 232, 198
-0.998629, 1, 265, 128, 296
-0.998631, 81, 185, 144, 200
-0.998632, 297, 275, 360, 290
-0.998632, 293, 153, 308, 184
-0.998633, 161, 99, 224, 114
-0.998633, 185, 107, 248, 122
-0.998635, 89, 219, 152, 234
-0.998635, 417, 209, 480, 224
-0.998636, 337, 349, 400, 364
-0.998636, 361, 331, 424, 346
-0.998638, 249, 299, 312, 314
-0.998639, 145, 157, 208, 172
-0.998642, 273, 205, 336, 220
-0.998643, 153, 149, 216, 164
-0.998643, 249, 197, 312, 212
-0.998645, 281, 173, 344, 188
-0.998645, 81, 197, 144, 212
-0.998645, 433, 279, 496, 294
-0.998645, 411, 133, 426, 164
-0.998646, 161, 87, 224, 102
-0.998647, 41, 203, 104, 218
-0.998647, 181, 125, 196, 156
-0.998648, 161, 105, 224, 120
-0.998648, 161, 139, 224, 154
-0.998648, 105, 167, 168, 182
-0.998648, 297, 283, 360, 298
-0.998648, 233, 209, 296, 224
-0.998649, 329, 275, 392, 290
-0.998652, 145, 175, 208, 190
-0.998652, 185, 101, 248, 116
-0.998653, 153, 213, 216, 228
-0.998654, 85, 97, 116, 352
-0.998655, 281, 135, 344, 150
-0.998655, 329, 313, 392, 328
-0.998656, 429, 133, 444, 164
-0.998656, 57, 193, 120, 208
-0.998656, 1, 323, 64, 338
-0.998657, 145, 177, 160, 208
-0.998658, 451, 133, 466, 164
-0.998658, 135, 181, 150, 212
-0.99866, 223, 209, 238, 240
-0.99866, 329, 293, 392, 308
-0.99866, 345, 325, 408, 340
-0.99866, 1, 219, 64, 234
-0.998661, 297, 247, 360, 262
-0.998661, 329, 335, 392, 350
-0.998661, 459, 209, 474, 240
-0.998662, 25, 351, 88, 366
-0.998662, 169, 125, 184, 156
-0.998663, 161, 93, 224, 108
-0.998663, 185, 95, 248, 110
-0.998663, 353, 361, 416, 375
-0.998664, 241, 177, 304, 192
-0.998665, 257, 169, 320, 184
-0.998665, 361, 285, 424, 300
-0.998665, 17, 339, 80, 354
-0.998666, 209, 213, 272, 228
-0.998666, 81, 209, 144, 224
-0.998666, 129, 169, 192, 184
-0.998667, 1, 361, 64, 375
-0.998668, 57, 185, 120, 200
-0.998668, 297, 261, 360, 276
-0.998669, 249, 185, 312, 200
-0.998669, 9, 329, 72, 344
-0.99867, 329, 301, 392, 316
-0.99867, 185, 83, 248, 98
-0.99867, 33, 359, 96, 374
-0.99867, 369, 261, 432, 276
-0.99867, 265, 211, 328, 226
-0.998671, 305, 217, 368, 232
-0.998671, 193, 175, 256, 190
-0.998671, 337, 49, 368, 176
-0.998671, 329, 319, 392, 334
-0.998672, 321, 263, 384, 278
-0.998673, 81, 177, 144, 192
-0.998673, 17, 345, 80, 360
-0.998673, 129, 189, 192, 204
-0.998674, 273, 197, 336, 212
-0.998674, 305, 133, 368, 148
-0.998674, 433, 201, 496, 216
-0.998676, 329, 307, 392, 322
-0.998676, 281, 293, 344, 308
-0.998679, 217, 299, 280, 314
-0.998679, 185, 89, 248, 104
-0.99868, 433, 135, 496, 150
-0.998681, 257, 131, 320, 146
-0.998682, 401, 263, 464, 278
-0.998685, 185, 113, 248, 128
-0.998687, 9, 233, 72, 248
-0.998687, 329, 343, 392, 358
-0.998687, 321, 269, 384, 284
-0.998689, 337, 135, 400, 150
-0.998689, 361, 353, 424, 368
-0.99869, 281, 141, 344, 156
-0.99869, 209, 183, 272, 198
-0.99869, 297, 269, 360, 284
-0.998691, 353, 53, 480, 84
-0.998691, 1, 317, 64, 332
-0.998691, 409, 135, 472, 150
-0.998691, 233, 305, 296, 320
-0.998692, 313, 351, 376, 366
-0.998692, 49, 153, 176, 184
-0.998693, 273, 299, 336, 314
-0.998693, 153, 225, 216, 240
-0.998694, 129, 205, 192, 220
-0.998694, 281, 149, 344, 164
-0.998695, 161, 111, 224, 126
-0.998696, 233, 293, 296, 308
-0.998696, 185, 123, 248, 138
-0.998696, 185, 129, 248, 144
-0.998697, 281, 167, 344, 182
-0.998697, 393, 275, 456, 290
-0.998697, 193, 219, 256, 234
-0.998735, 69, 49, 100, 176
-0.998741, 1, 49, 128, 112
-0.998742, 177, 145, 304, 176
-0.998768, 273, 189, 400, 220
-0.998768, 289, 1, 320, 256
-0.998772, 449, 1, 480, 256
-0.998778, 33, 145, 64, 272
-0.998781, 369, 197, 496, 228
-0.998795, 369, 333, 496, 364
-0.99882, 305, 1, 336, 256
-0.998826, 129, 277, 256, 308
-0.998837, 61, 97, 92, 352
-0.998842, 97, 1, 128, 256
-0.998842, 269, 1, 300, 256
-0.998851, 119, 161, 134, 288
-0.998869, 33, 301, 160, 332
-0.998884, 197, 65, 212, 192
-0.998886, 257, 157, 384, 188
-0.998892, 113, 177, 128, 304
-0.998938, 109, 33, 140, 288
-0.99894, 89, 49, 120, 176
-0.998942, 393, 1, 424, 256
-0.998945, 127, 177, 142, 304
-0.998989, 249, 1, 280, 256
-0.998997, 325, 177, 356, 304
-0.998999, 321, 153, 448, 216
-0.999013, 37, 97, 68, 352
-0.999031, 101, 161, 116, 288
-0.999037, 129, 1, 160, 256
-0.999049, 369, 177, 496, 208
-0.999062, 49, 97, 80, 352
-0.999064, 195, 17, 210, 144
-0.99907, 133, 145, 148, 272
-0.999075, 107, 177, 122, 304
-0.999076, 405, 1, 436, 256
-0.99909, 337, 237, 464, 268
-0.999097, 65, 113, 192, 144
-0.999102, 369, 145, 496, 176
-0.999119, 369, 41, 496, 72
-0.999129, 189, 113, 204, 240
-0.999131, 375, 241, 390, 368
-0.999132, 65, 33, 192, 96
-0.99915, 233, 65, 264, 192
-0.99916, 213, 1, 244, 256
-0.999168, 95, 193, 110, 320
-0.999181, 205, 113, 220, 240
-0.999202, 241, 245, 368, 276
-0.999204, 425, 1, 456, 256
-0.999205, 321, 49, 448, 112
-0.999206, 287, 97, 302, 224
-0.99921, 197, 113, 212, 240
-0.999211, 297, 81, 312, 208
-0.999211, 127, 113, 142, 240
-0.999214, 241, 233, 368, 264
-0.999216, 225, 1, 256, 256
-0.999223, 149, 1, 180, 256
-0.999228, 21, 65, 52, 320
-0.999231, 389, 193, 404, 320
-0.999235, 461, 1, 492, 256
-0.999242, 447, 193, 462, 320
-0.999243, 181, 113, 196, 240
-0.999244, 317, 1, 348, 256
-0.999245, 133, 193, 148, 320
-0.999251, 177, 309, 304, 340
-0.999257, 139, 177, 154, 304
-0.99926, 139, 113, 154, 240
-0.999261, 119, 209, 134, 336
-0.999263, 413, 193, 428, 320
-0.999267, 161, 1, 192, 256
-0.999267, 89, 193, 104, 320
-0.999273, 109, 113, 124, 240
-0.999278, 293, 145, 308, 272
-0.99928, 437, 1, 468, 256
-0.999281, 401, 193, 416, 320
-0.999294, 383, 193, 398, 320
-0.999296, 419, 193, 434, 320
-0.999298, 303, 193, 318, 320
-0.999299, 395, 193, 410, 320
-0.999302, 147, 113, 162, 240
-0.999307, 407, 193, 422, 320
-0.999309, 101, 113, 116, 240
-0.999316, 281, 113, 296, 240
-0.999317, 119, 113, 134, 240
-0.99932, 305, 169, 432, 200
-0.999321, 309, 113, 324, 240
-0.999326, 175, 129, 190, 256
-0.999326, 225, 313, 352, 344
-0.999333, 361, 1, 392, 256
-0.999334, 77, 1, 108, 256
-0.999342, 279, 177, 294, 304
-0.999343, 71, 193, 86, 320
-0.999356, 435, 193, 450, 320
-0.999357, 427, 193, 442, 320
-0.999362, 441, 193, 456, 320
-0.999364, 437, 113, 452, 240
-0.999364, 479, 193, 494, 320
-0.999366, 485, 177, 500, 304
-0.999369, 453, 193, 468, 320
-0.99937, 287, 145, 302, 272
-0.999373, 373, 193, 388, 320
-0.999375, 381, 241, 396, 368
-0.99938, 167, 113, 182, 240
-0.999383, 155, 97, 170, 224
-0.999385, 193, 269, 320, 300
-0.999386, 373, 1, 404, 256
-0.999387, 369, 1, 496, 32
-0.999391, 409, 113, 424, 240
-0.999392, 47, 193, 62, 320
-0.999395, 299, 129, 314, 256
-0.999397, 297, 209, 312, 336
-0.999397, 345, 1, 376, 256
-0.999404, 421, 113, 436, 240
-0.999405, 465, 193, 480, 320
-0.999407, 459, 193, 474, 320
-0.999408, 213, 113, 228, 240
-0.999409, 91, 113, 106, 240
-0.999413, 415, 113, 430, 240
-0.999414, 189, 65, 204, 192
-0.999414, 65, 193, 80, 320
-0.999416, 443, 113, 458, 240
-0.999416, 387, 241, 402, 368
-0.999416, 403, 113, 418, 240
-0.999421, 473, 193, 488, 320
-0.999424, 175, 177, 190, 304
-0.999425, 255, 113, 270, 240
-0.999427, 427, 113, 442, 240
-0.999427, 321, 113, 336, 240
-0.999429, 309, 225, 324, 352
-0.99943, 97, 305, 224, 368
-0.999433, 197, 161, 212, 288
-0.999434, 49, 265, 176, 296
-0.999435, 289, 209, 304, 336
-0.999436, 145, 177, 160, 304
-0.999437, 397, 113, 412, 240
-0.999438, 219, 113, 234, 240
-0.999438, 225, 329, 352, 360
-0.999441, 449, 113, 464, 240
-0.999442, 157, 177, 172, 304
-0.999443, 49, 141, 176, 172
-0.999445, 181, 177, 196, 304
-0.999453, 205, 177, 220, 304
-0.999458, 83, 193, 98, 320
-0.999459, 77, 193, 92, 320
-0.999464, 263, 177, 278, 304
-0.999465, 101, 209, 116, 336
-0.999467, 271, 113, 286, 240
-0.999467, 203, 65, 218, 192
-0.999467, 457, 113, 472, 240
-0.999472, 255, 209, 270, 336
-0.999475, 421, 241, 436, 368
-0.999476, 391, 113, 406, 240
-0.999477, 369, 21, 496, 52
-0.999477, 393, 241, 408, 368
-0.999478, 329, 1, 360, 256
-0.999484, 125, 225, 140, 352
-0.999489, 225, 145, 352, 176
-0.999492, 247, 113, 262, 240
-0.999493, 409, 241, 424, 368
-0.999494, 59, 193, 74, 320
-0.999497, 401, 241, 416, 368
-0.9995, 363, 225, 378, 352
-0.999507, 349, 225, 364, 352
-0.999507, 161, 97, 176, 224
-0.999511, 415, 241, 430, 368
-0.999511, 273, 209, 288, 336
-0.999516, 385, 113, 400, 240
-0.999516, 189, 17, 204, 144
-0.999518, 315, 97, 330, 224
-0.99952, 111, 225, 126, 352
-0.999522, 463, 113, 478, 240
-0.999523, 379, 113, 394, 240
-0.999524, 455, 65, 470, 192
-0.999524, 473, 113, 488, 240
-0.999524, 481, 241, 496, 368
-0.999528, 133, 97, 148, 224
-0.999529, 281, 65, 296, 192
-0.999531, 237, 113, 252, 240
-0.999533, 247, 177, 262, 304
-0.999534, 289, 97, 416, 128
-0.999536, 9, 33, 40, 288
-0.999537, 225, 97, 240, 224
-0.999539, 481, 113, 496, 240
-0.99954, 17, 105, 144, 136
-0.999542, 73, 209, 88, 224
-0.999542, 219, 183, 234, 198
-0.999543, 33, 227, 48, 242
-0.999543, 327, 113, 342, 240
-0.999543, 147, 223, 162, 238
-0.999543, 175, 215, 190, 230
-0.999543, 163, 153, 178, 168
-0.999543, 261, 113, 276, 240
-0.999543, 427, 241, 442, 368
-0.999544, 133, 187, 148, 202
-0.999544, 139, 225, 154, 240
-0.999544, 167, 183, 182, 198
-0.999544, 53, 193, 68, 320
-0.999545, 315, 177, 330, 304
-0.999546, 289, 179, 304, 194
-0.999546, 163, 177, 178, 304
-0.999547, 107, 227, 122, 242
-0.999548, 469, 357, 484, 372
-0.999549, 191, 1, 206, 16
-0.999549, 481, 351, 496, 366
-0.999551, 57, 241, 72, 368
-0.999551, 43, 219, 58, 234
-0.999552, 303, 221, 318, 236
-0.999553, 195, 63, 210, 78
-0.999554, 367, 267, 382, 282
-0.999555, 355, 353, 370, 368
-0.999555, 345, 285, 360, 300
-0.999556, 135, 219, 150, 234
-0.999557, 101, 227, 116, 242
-0.999557, 193, 47, 208, 62
-0.999558, 141, 171, 156, 186
-0.999558, 49, 219, 64, 234
-0.999558, 155, 223, 170, 238
-0.999559, 89, 219, 104, 234
-0.99956, 165, 217, 180, 232
-0.999563, 85, 199, 100, 214
-0.999563, 307, 253, 322, 268
-0.999563, 131, 177, 146, 192
-0.999563, 169, 177, 184, 304
-0.999563, 115, 225, 130, 240
-0.999564, 61, 221, 76, 236
-0.999565, 165, 225, 180, 240
-0.999565, 295, 293, 310, 308
-0.999567, 161, 183, 176, 198
-0.999567, 283, 181, 298, 196
-0.999567, 131, 225, 146, 240
-0.999568, 195, 69, 210, 84
-0.999569, 197, 169, 212, 184
-0.999569, 199, 123, 214, 138
-0.999569, 151, 177, 166, 304
-0.999569, 89, 227, 104, 242
-0.99957, 125, 187, 140, 202
-0.99957, 283, 299, 298, 314
-0.99957, 7, 329, 22, 344
-0.99957, 25, 351, 40, 366
-0.99957, 307, 135, 322, 150
-0.999571, 195, 81, 210, 96
-0.999572, 289, 173, 304, 188
-0.999572, 475, 353, 490, 368
-0.999572, 159, 159, 174, 174
-0.999573, 47, 229, 62, 244
-0.999574, 287, 49, 302, 176
-0.999574, 137, 179, 152, 194
-0.999574, 175, 221, 190, 236
-0.999574, 77, 229, 92, 244
-0.999575, 97, 201, 112, 216
-0.999575, 165, 147, 180, 162
-0.999575, 299, 147, 314, 162
-0.999575, 129, 171, 144, 186
-0.999575, 69, 219, 84, 234
-0.999576, 121, 225, 136, 240
-0.999576, 197, 115, 212, 130
-0.999576, 81, 207, 96, 222
-0.999576, 151, 181, 166, 196
-0.999577, 259, 201, 274, 216
-0.999577, 289, 105, 304, 120
-0.999577, 193, 37, 208, 52
-0.999577, 107, 189, 122, 204
-0.999577, 293, 33, 308, 160
-0.999578, 21, 345, 36, 360
-0.999579, 373, 263, 388, 278
-0.99958, 1, 325, 16, 340
-0.999581, 193, 31, 208, 46
-0.999581, 13, 335, 28, 350
-0.999582, 197, 91, 212, 106
-0.999582, 53, 229, 68, 244
-0.999582, 363, 327, 378, 342
-0.999582, 61, 229, 76, 244
-0.999584, 1, 253, 128, 284
-0.999585, 195, 75, 210, 90
-0.999588, 113, 179, 128, 194
-0.999591, 197, 103, 212, 118
-0.999592, 369, 65, 496, 96
-0.999593, 71, 229, 86, 244
-0.999593, 125, 177, 140, 192
-0.999594, 427, 269, 442, 284
-0.999595, 81, 213, 96, 228
-0.999596, 379, 355, 394, 370
-0.999596, 373, 275, 388, 290
-0.999597, 33, 361, 48, 375
-0.999598, 87, 207, 102, 222
-0.999598, 171, 141, 186, 156
-0.999598, 299, 169, 314, 184
-0.9996, 237, 1, 268, 256
-0.999601, 447, 271, 462, 286
-0.999602, 153, 161, 168, 176
-0.999605, 367, 357, 382, 372
-0.999606, 203, 177, 218, 192
-0.999606, 95, 227, 110, 242
-0.999607, 91, 189, 106, 204
-0.999608, 321, 189, 448, 220
-0.999609, 361, 355, 376, 370
-0.999609, 371, 351, 386, 366
-0.99961, 197, 97, 212, 112
-0.999617, 119, 185, 134, 200
-0.999617, 113, 301, 240, 332
-0.999618, 145, 181, 160, 196
-0.999619, 433, 269, 448, 284
-0.99962, 135, 171, 150, 186
-0.999621, 197, 109, 212, 124
-0.999624, 107, 183, 122, 198
-0.999627, 441, 269, 456, 284
-0.999628, 119, 179, 134, 194
-0.999628, 101, 191, 116, 206
-0.999629, 91, 195, 106, 210
-0.99963, 305, 81, 432, 144
-0.99963, 289, 297, 304, 312
-0.99963, 397, 265, 412, 280
-0.999631, 385, 265, 400, 280
-0.999632, 345, 275, 360, 290
-0.999632, 419, 267, 434, 282
-0.999632, 471, 273, 486, 288
-0.999633, 453, 271, 468, 286
-0.999635, 141, 165, 156, 180
-0.999637, 209, 93, 336, 124
-0.999638, 391, 265, 406, 280
-0.999641, 147, 161, 162, 176
-0.999642, 321, 145, 448, 176
-0.999643, 113, 185, 128, 200
-0.999645, 407, 267, 422, 282
-0.999645, 459, 271, 474, 286
-0.999646, 465, 271, 480, 286
-0.999646, 483, 273, 498, 288
-0.999647, 99, 185, 114, 200
-0.999647, 55, 221, 70, 236
-0.999654, 413, 267, 428, 282
-0.999655, 197, 175, 212, 190
-0.999658, 65, 1, 96, 256
-0.99966, 305, 157, 432, 188
-0.999665, 379, 265, 394, 280
-0.999675, 225, 81, 480, 144
-0.999679, 477, 273, 492, 288
-0.999683, 49, 1, 80, 256
-0.999703, 65, 313, 192, 344
-0.999762, 1, 97, 500, 160
-0.999764, 257, 33, 500, 96
-0.999915, 25, 17, 88, 144
-0.999925, 1, 129, 32, 375
-0.999927, 257, 1, 500, 64
-0.999943, 33, 1, 64, 256
-0.99998, 97, 305, 352, 368
-1.00022, 321, 1, 448, 64
-1.00023, 361, 17, 424, 144
-1.00029, 1, 33, 500, 96
-1.0003, 1, 25, 128, 88
-1.0004, 17, 1, 144, 64
-1.00041, 65, 1, 192, 64
-1.00042, 209, 17, 272, 144
-1.00043, 305, 25, 432, 88
-1.00047, 1, 153, 500, 216
-1.00057, 257, 57, 500, 120
-1.00064, 209, 33, 336, 96
-1.00092, 209, 1, 336, 64
-1.001, 369, 289, 496, 352
-1.00117, 257, 41, 384, 104
-1.00151, 241, 1, 304, 128
-1.00188, 1, 57, 500, 120
-1.00194, 1, 9, 500, 72
-1.00228, 281, 1, 344, 128
-1.00243, 257, 9, 384, 72
-1.00247, 385, 17, 448, 144
-1.00264, 89, 17, 152, 144
-1.00401, 57, 1, 120, 128
-1.00459, 121, 17, 184, 144
-1.01024, 313, 1, 376, 128
-1.01148, 337, 1, 400, 128
