1966
-0.466961, 1, 129, 500, 374
-0.494139, 129, 1, 384, 374
-0.555366, 1, 1, 500, 374
-0.583116, 1, 1, 500, 256
-0.656633, 129, 97, 384, 352
-0.662039, 33, 1, 288, 374
-0.663584, 225, 129, 480, 374
-0.677995, 33, 129, 288, 374
-0.681127, 225, 1, 480, 374
-0.716938, 193, 1, 448, 256
-0.86417, 1, 129, 128, 374
-0.867322, 1, 241, 500, 368
-0.872039, 289, 129, 416, 374
-0.874875, 33, 33, 288, 288
-0.880302, 225, 1, 352, 374
-0.880771, 1, 177, 500, 304
-0.883561, 129, 129, 256, 374
-0.884293, 257, 1, 384, 256
-0.893578, 145, 1, 272, 374
-0.897862, 177, 65, 304, 320
-0.899044, 337, 129, 464, 374
-0.899975, 241, 97, 368, 352
-0.907976, 1, 129, 500, 256
-0.908156, 97, 193, 352, 320
-0.909512, 81, 129, 208, 374
-0.912787, 65, 241, 320, 368
-0.913111, 9, 241, 72, 368
-0.916434, 225, 241, 480, 368
-0.919336, 1, 241, 128, 368
-0.92334, 369, 1, 496, 374
-0.923997, 65, 1, 192, 374
-0.924705, 129, 129, 384, 256
-0.924896, 113, 193, 240, 320
-0.926964, 1, 193, 256, 320
-0.927194, 193, 177, 448, 304
-0.927443, 305, 33, 432, 288
-0.928512, 305, 1, 432, 374
-0.931567, 33, 193, 160, 320
-0.932034, 17, 1, 144, 374
-0.934379, 113, 241, 176, 368
-0.935654, 49, 241, 176, 368
-0.936271, 145, 241, 272, 368
-0.937494, 33, 145, 288, 272
-0.938085, 9, 257, 72, 320
-0.940334, 153, 193, 216, 320
-0.940732, 321, 193, 448, 320
-0.942048, 97, 241, 224, 368
-0.942205, 97, 193, 160, 320
-0.944743, 49, 33, 176, 288
-0.944886, 137, 241, 200, 368
-0.945935, 289, 241, 416, 368
-0.946096, 385, 193, 448, 320
-0.94612, 161, 129, 224, 256
-0.946129, 105, 265, 168, 328
-0.946947, 233, 305, 296, 368
-0.947408, 225, 129, 480, 256
-0.947643, 337, 241, 464, 368
-0.94768, 113, 129, 240, 256
-0.947785, 417, 241, 480, 368
-0.947823, 305, 129, 432, 256
-0.947856, 129, 81, 384, 208
-0.949283, 129, 177, 192, 304
-0.950001, 281, 225, 344, 352
-0.950076, 9, 289, 72, 352
-0.950458, 193, 193, 320, 320
-0.950463, 193, 177, 256, 304
-0.950703, 97, 33, 224, 288
-0.951909, 1, 81, 500, 208
-0.952156, 1, 145, 128, 272
-0.95267, 353, 33, 480, 288
-0.952698, 273, 193, 400, 320
-0.953258, 337, 161, 400, 288
-0.953757, 89, 241, 152, 368
-0.954049, 385, 241, 448, 368
-0.954065, 49, 241, 112, 368
-0.954319, 313, 129, 376, 256
-0.95442, 305, 193, 368, 320
-0.955007, 345, 209, 408, 336
-0.95508, 233, 241, 296, 368
-0.955129, 17, 161, 80, 288
-0.955378, 41, 193, 104, 320
-0.955635, 225, 1, 352, 128
-0.95605, 241, 241, 368, 368
-0.956544, 401, 273, 464, 336
-0.957025, 193, 1, 448, 128
-0.957611, 121, 185, 184, 248
-0.957798, 193, 241, 320, 368
-0.95806, 65, 145, 192, 272
-0.958343, 113, 241, 176, 304
-0.959395, 289, 145, 352, 272
-0.959651, 225, 113, 352, 240
-0.95966, 177, 33, 304, 160
-0.960434, 433, 305, 496, 368
-0.960587, 161, 113, 288, 240
-0.961581, 225, 97, 288, 224
-0.961602, 9, 113, 72, 240
-0.961969, 1, 33, 128, 288
-0.962027, 177, 241, 240, 368
-0.962157, 417, 193, 480, 320
-0.962403, 193, 185, 256, 248
-0.962706, 9, 313, 72, 374
-0.962953, 153, 225, 216, 288
-0.962958, 129, 273, 192, 336
-0.962977, 369, 281, 432, 344
-0.963037, 257, 313, 320, 374
-0.963802, 305, 241, 368, 368
-0.963842, 209, 241, 272, 368
-0.963977, 417, 249, 480, 312
-0.964058, 369, 201, 432, 264
-0.964326, 153, 257, 216, 320
-0.964354, 329, 201, 392, 264
-0.964601, 49, 265, 112, 328
-0.964674, 137, 129, 200, 256
-0.964912, 369, 145, 496, 272
-0.964933, 9, 177, 72, 240
-0.964989, 81, 273, 144, 336
-0.965535, 1, 257, 128, 320
-0.965587, 17, 241, 48, 368
-0.965662, 345, 177, 408, 240
-0.966002, 73, 177, 136, 304
-0.966151, 249, 65, 312, 192
-0.966227, 161, 177, 224, 240
-0.96646, 369, 193, 496, 320
-0.966694, 385, 233, 448, 296
-0.967022, 113, 297, 176, 360
-0.967308, 217, 145, 280, 272
-0.967411, 185, 225, 248, 288
-0.967485, 257, 209, 320, 336
-0.967507, 313, 137, 376, 200
-0.967869, 161, 201, 224, 264
-0.968119, 409, 313, 472, 374
-0.968197, 249, 17, 312, 144
-0.968361, 193, 265, 256, 328
-0.968377, 1, 97, 256, 224
-0.968546, 113, 161, 176, 224
-0.968579, 361, 161, 424, 288
-0.968758, 33, 241, 64, 368
-0.968854, 49, 273, 176, 336
-0.96908, 9, 129, 72, 374
-0.969158, 97, 1, 352, 128
-0.969196, 281, 289, 344, 352
-0.969197, 209, 313, 272, 374
-0.96929, 233, 281, 296, 344
-0.969332, 305, 185, 368, 248
-0.969343, 345, 313, 408, 374
-0.969411, 41, 313, 104, 374
-0.969734, 225, 1, 288, 128
-0.970244, 225, 49, 352, 176
-0.970345, 41, 241, 104, 304
-0.970611, 225, 193, 288, 320
-0.970692, 313, 281, 376, 344
-0.970697, 417, 225, 480, 288
-0.9708, 425, 273, 488, 336
-0.970967, 353, 281, 480, 344
-0.971022, 249, 145, 312, 272
-0.971046, 13, 257, 44, 320
-0.971174, 225, 313, 352, 374
-0.97131, 129, 241, 256, 304
-0.971501, 129, 273, 160, 336
-0.971891, 97, 265, 224, 328
-0.971997, 49, 249, 176, 312
-0.972817, 145, 273, 272, 336
-0.973048, 265, 1, 328, 64
-0.973092, 33, 97, 160, 224
-0.97319, 265, 217, 328, 280
-0.973283, 97, 193, 160, 256
-0.973376, 153, 281, 216, 344
-0.973437, 113, 201, 240, 264
-0.973485, 337, 313, 464, 374
-0.973505, 153, 145, 216, 208
-0.973557, 241, 313, 272, 374
-0.973579, 49, 297, 176, 360
-0.973731, 89, 241, 152, 304
-0.973735, 141, 241, 172, 368
-0.973777, 249, 249, 312, 312
-0.973795, 97, 217, 160, 280
-0.973803, 113, 273, 144, 336
-0.973808, 345, 225, 408, 288
-0.973851, 209, 241, 272, 304
-0.974034, 345, 257, 408, 320
-0.974123, 1, 1, 500, 128
-0.97418, 129, 241, 160, 368
-0.974346, 1, 313, 128, 374
-0.974385, 385, 313, 448, 374
-0.974462, 141, 265, 172, 328
-0.974513, 177, 153, 240, 216
-0.974547, 185, 129, 248, 256
-0.974554, 273, 289, 400, 352
-0.974825, 33, 49, 288, 176
-0.975001, 89, 297, 152, 360
-0.975057, 225, 49, 288, 176
-0.975099, 449, 305, 480, 368
-0.975112, 1, 233, 64, 296
-0.975344, 281, 313, 344, 374
-0.975346, 201, 177, 232, 304
-0.975387, 117, 241, 148, 368
-0.975391, 345, 289, 408, 352
-0.975416, 73, 177, 136, 240
-0.97554, 129, 233, 160, 296
-0.975546, 197, 201, 228, 264
-0.975573, 305, 193, 432, 256
-0.975586, 225, 145, 288, 208
-0.975648, 273, 313, 304, 374
-0.97572, 329, 129, 392, 374
-0.975974, 257, 49, 500, 176
-0.976063, 193, 257, 320, 320
-0.976096, 17, 121, 80, 184
-0.976098, 33, 257, 64, 320
-0.97611, 161, 97, 224, 352
-0.976168, 225, 1, 288, 64
-0.976222, 209, 217, 272, 280
-0.976257, 17, 153, 80, 216
-0.976449, 33, 185, 96, 248
-0.976567, 345, 113, 408, 240
-0.976645, 225, 1, 352, 64
-0.976675, 225, 73, 288, 136
-0.976693, 113, 169, 240, 232
-0.976696, 1, 289, 128, 352
-0.976753, 113, 129, 176, 256
-0.976966, 157, 193, 188, 320
-0.977144, 289, 209, 352, 272
-0.977171, 321, 81, 384, 208
-0.97723, 225, 65, 288, 320
-0.977339, 289, 137, 416, 200
-0.977376, 177, 313, 304, 374
-0.9774, 73, 217, 136, 280
-0.977429, 249, 57, 312, 120
-0.977469, 289, 1, 352, 128
-0.977473, 321, 225, 448, 288
-0.977748, 49, 289, 112, 352
-0.977826, 249, 97, 312, 160
-0.977883, 257, 289, 320, 352
-0.977939, 1, 185, 128, 248
-0.97798, 65, 177, 192, 240
-0.978007, 249, 33, 312, 96
-0.978022, 193, 289, 256, 352
-0.978039, 273, 1, 400, 128
-0.97804, 305, 161, 368, 224
-0.978047, 145, 177, 176, 304
-0.978127, 453, 241, 484, 368
-0.978167, 181, 193, 212, 320
-0.978487, 25, 121, 56, 184
-0.978489, 121, 193, 152, 320
-0.978535, 161, 121, 224, 184
-0.978547, 289, 241, 352, 304
-0.978578, 337, 153, 400, 216
-0.978693, 261, 305, 292, 368
-0.978727, 53, 177, 84, 304
-0.978797, 109, 169, 140, 232
-0.978837, 389, 193, 420, 256
-0.978982, 177, 201, 304, 264
-0.979009, 209, 185, 240, 248
-0.979083, 433, 273, 464, 336
-0.979156, 273, 313, 400, 374
-0.97919, 65, 241, 128, 304
-0.979417, 225, 49, 288, 112
-0.979426, 369, 97, 496, 224
-0.979451, 109, 193, 140, 320
-0.979613, 305, 81, 432, 208
-0.979717, 101, 257, 132, 320
-0.979718, 153, 241, 184, 368
-0.979803, 9, 201, 72, 264
-0.979827, 145, 145, 272, 208
-0.979828, 65, 201, 192, 264
-0.979875, 193, 225, 224, 288
-0.979886, 33, 225, 160, 288
-0.97989, 249, 17, 280, 144
-0.979936, 297, 1, 360, 256
-0.980025, 321, 113, 384, 176
-0.980074, 373, 193, 404, 256
-0.980103, 269, 241, 300, 368
-0.980161, 313, 161, 344, 288
-0.980174, 241, 185, 368, 248
-0.980191, 321, 113, 352, 240
-0.980191, 13, 177, 44, 304
-0.980242, 141, 161, 172, 224
-0.980259, 29, 97, 60, 224
-0.980302, 249, 1, 280, 64
-0.980312, 129, 217, 192, 280
-0.980387, 149, 241, 180, 304
-0.980411, 177, 225, 208, 288
-0.980413, 225, 105, 288, 168
-0.980437, 305, 129, 368, 374
-0.980446, 305, 249, 432, 312
-0.980578, 361, 145, 392, 272
-0.980581, 369, 217, 496, 280
-0.980598, 433, 241, 464, 368
-0.980625, 393, 209, 456, 272
-0.980625, 33, 217, 96, 280
-0.980706, 129, 297, 256, 360
-0.980783, 325, 193, 356, 320
-0.980823, 225, 25, 288, 88
-0.980961, 201, 257, 232, 320
-0.981007, 453, 281, 484, 344
-0.981009, 1, 313, 32, 374
-0.981111, 165, 129, 196, 256
-0.981206, 241, 225, 304, 288
-0.981219, 161, 177, 288, 240
-0.981299, 105, 241, 136, 368
-0.981394, 273, 225, 400, 288
-0.981407, 113, 249, 144, 312
-0.981428, 377, 257, 440, 320
-0.981433, 385, 129, 448, 256
-0.981516, 369, 289, 400, 352
-0.981562, 1, 153, 128, 216
-0.981574, 217, 169, 280, 232
-0.981634, 177, 1, 304, 64
-0.981669, 213, 161, 244, 288
-0.981763, 289, 193, 320, 320
-0.981933, 117, 297, 148, 360
-0.981965, 409, 145, 472, 272
-0.981968, 265, 1, 328, 256
-0.981991, 225, 289, 352, 352
-0.982035, 321, 257, 384, 320
-0.982111, 289, 161, 416, 224
-0.982118, 321, 313, 384, 374
-0.982131, 321, 225, 384, 288
-0.982218, 181, 201, 212, 264
-0.982231, 393, 193, 424, 320
-0.982282, 57, 129, 120, 256
-0.982419, 381, 177, 412, 304
-0.982436, 369, 241, 496, 304
-0.982477, 281, 241, 312, 368
-0.982539, 177, 81, 240, 208
-0.982589, 353, 193, 480, 256
-0.98277, 281, 185, 344, 248
-0.982811, 169, 209, 200, 336
-0.982813, 393, 241, 424, 304
-0.982825, 465, 209, 496, 336
-0.982834, 321, 129, 352, 192
-0.982897, 109, 201, 140, 264
-0.983008, 241, 273, 272, 336
-0.983044, 289, 17, 352, 80
-0.983108, 361, 153, 392, 216
-0.98312, 369, 129, 432, 374
-0.983136, 161, 225, 192, 288
-0.983145, 253, 105, 284, 168
-0.983165, 57, 241, 88, 368
-0.983179, 465, 281, 496, 344
-0.983216, 273, 265, 336, 328
-0.983266, 5, 241, 36, 368
-0.983298, 249, 97, 280, 224
-0.983346, 249, 25, 280, 88
-0.983364, 241, 201, 304, 264
-0.983372, 241, 249, 368, 312
-0.98338, 177, 33, 304, 96
-0.983437, 1, 193, 32, 320
-0.983481, 105, 297, 136, 360
-0.9835, 37, 169, 68, 232
-0.983551, 221, 233, 252, 296
-0.983564, 177, 105, 304, 168
-0.983577, 281, 129, 344, 374
-0.98362, 237, 241, 268, 368
-0.983682, 221, 209, 252, 336
-0.983739, 129, 297, 160, 360
-0.983768, 353, 185, 384, 248
-0.983823, 217, 257, 248, 320
-0.983899, 81, 225, 208, 288
-0.98393, 265, 161, 328, 224
-0.983933, 37, 137, 68, 200
-0.983996, 205, 233, 236, 296
-0.984034, 177, 233, 304, 296
-0.984063, 157, 145, 188, 208
-0.984079, 33, 129, 96, 374
-0.984148, 313, 185, 344, 248
-0.98428, 409, 225, 440, 352
-0.984287, 249, 49, 280, 112
-0.984305, 229, 313, 260, 374
-0.984324, 453, 249, 484, 312
-0.984363, 225, 25, 352, 88
-0.984384, 417, 225, 448, 288
-0.984419, 389, 281, 420, 344
-0.98447, 425, 201, 488, 264
-0.984473, 153, 273, 184, 336
-0.984483, 225, 161, 352, 224
-0.984558, 289, 129, 352, 192
-0.984582, 225, 209, 352, 272
-0.984582, 177, 57, 304, 120
-0.984613, 421, 313, 452, 374
-0.984616, 257, 121, 320, 184
-0.984627, 333, 201, 364, 264
-0.984658, 321, 1, 384, 256
-0.984727, 137, 129, 200, 374
-0.984729, 337, 193, 368, 320
-0.984821, 405, 233, 436, 296
-0.98483, 53, 185, 84, 248
-0.98489, 381, 217, 412, 280
-0.984972, 273, 97, 336, 224
-0.985018, 421, 209, 452, 336
-0.985029, 401, 201, 432, 264
-0.985043, 345, 121, 408, 184
-0.985072, 121, 185, 152, 248
-0.985092, 369, 177, 432, 240
-0.985173, 369, 137, 432, 200
-0.985192, 297, 241, 328, 368
-0.985206, 229, 273, 260, 336
-0.985259, 417, 281, 448, 344
-0.985303, 225, 97, 352, 160
-0.985356, 13, 233, 44, 296
-0.985418, 25, 169, 56, 232
-0.985421, 209, 241, 240, 368
-0.985484, 141, 297, 172, 360
-0.985492, 189, 113, 220, 240
-0.985563, 285, 313, 316, 374
-0.985601, 173, 257, 204, 320
-0.98561, 41, 161, 72, 288
-0.985615, 401, 289, 432, 352
-0.985625, 385, 241, 416, 368
-0.985673, 289, 209, 320, 272
-0.985691, 169, 185, 200, 248
-0.985735, 433, 249, 464, 312
-0.985761, 133, 177, 164, 304
-0.985768, 289, 289, 320, 352
-0.985851, 373, 225, 404, 352
-0.985934, 13, 305, 44, 368
-0.985936, 145, 185, 176, 248
-0.98594, 461, 209, 492, 272
-0.985947, 193, 241, 224, 368
-0.985948, 433, 305, 464, 368
-0.986057, 465, 305, 496, 368
-0.986098, 365, 225, 396, 288
-0.986135, 57, 297, 88, 360
-0.98615, 409, 129, 472, 374
-0.986251, 189, 257, 220, 320
-0.986308, 97, 193, 128, 320
-0.986313, 217, 193, 280, 256
-0.986331, 25, 161, 56, 288
-0.986355, 253, 81, 284, 144
-0.986442, 185, 313, 248, 374
-0.98646, 93, 241, 124, 368
-0.986483, 177, 81, 304, 144
-0.986516, 117, 225, 148, 288
-0.986521, 201, 65, 264, 192
-0.986541, 445, 193, 476, 320
-0.986555, 313, 209, 344, 336
-0.986647, 221, 185, 252, 248
-0.986684, 169, 129, 200, 192
-0.986689, 321, 9, 384, 72
-0.986702, 305, 113, 432, 176
-0.986715, 57, 153, 120, 216
-0.98673, 1, 225, 32, 288
-0.986821, 333, 129, 364, 256
-0.986909, 185, 129, 248, 374
-0.986936, 1, 1, 256, 128
-0.986974, 201, 161, 232, 224
-0.986983, 181, 241, 212, 368
-0.987003, 277, 289, 308, 352
-0.987017, 225, 137, 352, 200
-0.987075, 37, 297, 68, 360
-0.987144, 37, 113, 68, 176
-0.987397, 253, 137, 284, 200
-0.9874, 257, 225, 288, 352
-0.987435, 1, 261, 64, 292
-0.987592, 25, 145, 56, 208
-0.987649, 97, 145, 224, 208
-0.987664, 57, 249, 88, 312
-0.987701, 137, 305, 200, 368
-0.987792, 357, 313, 388, 374
-0.987804, 201, 129, 232, 256
-0.987836, 177, 113, 208, 240
-0.987843, 249, 145, 280, 272
-0.98792, 233, 233, 264, 296
-0.987936, 201, 129, 264, 192
-0.987976, 17, 113, 48, 240
-0.988058, 157, 201, 188, 264
-0.988164, 413, 257, 444, 320
-0.988174, 237, 161, 268, 288
-0.988255, 113, 145, 144, 272
-0.988298, 349, 289, 380, 352
-0.988349, 349, 177, 380, 304
-0.98836, 97, 33, 224, 160
-0.988416, 337, 177, 368, 240
-0.988422, 241, 169, 304, 232
-0.988423, 225, 1, 288, 374
-0.988468, 57, 273, 88, 336
-0.988518, 321, 161, 352, 224
-0.988611, 161, 249, 192, 312
-0.988615, 225, 49, 352, 112
-0.988653, 349, 129, 380, 256
-0.988714, 257, 289, 500, 352
-0.988732, 397, 241, 428, 368
-0.988734, 313, 1, 376, 128
-0.988756, 97, 265, 352, 328
-0.988798, 9, 321, 72, 352
-0.988857, 17, 345, 80, 374
-0.98889, 373, 129, 404, 256
-0.988952, 249, 97, 312, 352
-0.988984, 241, 97, 272, 160
-0.989109, 181, 129, 212, 192
-0.989121, 401, 265, 432, 328
-0.989161, 241, 317, 304, 348
-0.989176, 193, 345, 256, 374
-0.989181, 353, 257, 384, 320
-0.989183, 9, 305, 72, 336
-0.98923, 9, 293, 72, 324
-0.989232, 261, 65, 292, 192
-0.98924, 353, 129, 480, 192
-0.989262, 85, 265, 116, 328
-0.989262, 161, 313, 224, 374
-0.989278, 401, 177, 464, 240
-0.989282, 1, 289, 32, 352
-0.989284, 113, 277, 176, 308
-0.989301, 265, 281, 296, 344
-0.989301, 9, 281, 72, 312
-0.989322, 301, 145, 332, 272
-0.989322, 261, 1, 292, 64
-0.989325, 445, 225, 476, 288
-0.989334, 321, 221, 384, 252
-0.989348, 225, 313, 480, 374
-0.989398, 161, 265, 224, 296
-0.989415, 253, 281, 284, 344
-0.989481, 153, 81, 216, 208
-0.989522, 289, 1, 416, 64
-0.989534, 217, 333, 280, 364
-0.989554, 337, 113, 368, 176
-0.989602, 277, 257, 308, 320
-0.989604, 13, 185, 44, 248
-0.989604, 105, 257, 168, 288
-0.98961, 33, 297, 288, 360
-0.989622, 217, 297, 248, 360
-0.989667, 265, 333, 328, 364
-0.989701, 225, 209, 256, 272
-0.989712, 353, 217, 384, 280
-0.989734, 225, 73, 352, 136
-0.989773, 261, 17, 292, 144
-0.98978, 129, 265, 192, 296
-0.989818, 161, 277, 224, 308
-0.989886, 401, 285, 464, 316
-0.989887, 249, 345, 312, 374
-0.989919, 161, 193, 224, 224
-0.989928, 369, 217, 432, 248
-0.989942, 161, 217, 224, 248
-0.989984, 105, 173, 168, 204
-0.989992, 313, 133, 376, 164
-0.989994, 249, 1, 312, 374
-0.990059, 145, 233, 208, 264
-0.990066, 241, 169, 272, 232
-0.990075, 121, 185, 184, 216
-0.990101, 185, 265, 248, 296
-0.990132, 369, 161, 496, 224
-0.990156, 145, 245, 208, 276
-0.990185, 17, 177, 80, 208
-0.990225, 209, 209, 240, 272
-0.990226, 301, 17, 332, 80
-0.990255, 361, 193, 392, 320
-0.990318, 33, 333, 96, 364
-0.99034, 33, 233, 288, 296
-0.990377, 333, 265, 364, 328
-0.990377, 361, 301, 424, 332
-0.990392, 409, 233, 472, 264
-0.990398, 393, 329, 456, 360
-0.990422, 49, 273, 112, 304
-0.990428, 141, 129, 172, 256
-0.990471, 305, 209, 368, 240
-0.990483, 45, 113, 76, 240
-0.990485, 309, 129, 340, 192
-0.99051, 209, 269, 272, 300
-0.990511, 345, 285, 408, 316
-0.990538, 161, 205, 224, 236
-0.990538, 417, 253, 480, 284
-0.990541, 77, 241, 108, 368
-0.990567, 189, 153, 220, 216
-0.990568, 425, 313, 488, 344
-0.990571, 121, 161, 152, 224
-0.990589, 281, 217, 344, 248
-0.990606, 201, 193, 264, 224
-0.990607, 153, 345, 216, 374
-0.990682, 217, 345, 280, 374
-0.990707, 333, 241, 364, 368
-0.990712, 357, 121, 388, 184
-0.990713, 185, 105, 248, 168
-0.990755, 385, 237, 448, 268
-0.990756, 49, 285, 112, 316
-0.99076, 225, 161, 256, 288
-0.990776, 49, 129, 176, 192
-0.990778, 409, 313, 440, 374
-0.990803, 253, 241, 284, 304
-0.990818, 265, 17, 328, 48
-0.990846, 289, 105, 352, 168
-0.990846, 105, 301, 168, 332
-0.990848, 425, 329, 488, 360
-0.990876, 41, 257, 104, 288
-0.990879, 417, 265, 480, 296
-0.990882, 377, 273, 440, 304
-0.990914, 425, 277, 488, 308
-0.99092, 273, 225, 304, 288
-0.990935, 329, 209, 392, 240
-0.990951, 369, 345, 432, 374
-0.990989, 177, 173, 240, 204
-0.990994, 185, 225, 248, 256
-0.991034, 1, 305, 500, 368
-0.99105, 81, 265, 144, 296
-0.991055, 193, 249, 448, 312
-0.991056, 305, 281, 368, 312
-0.991079, 409, 345, 472, 374
-0.99109, 65, 193, 96, 320
-0.991122, 73, 341, 136, 372
-0.991131, 33, 209, 96, 240
-0.991138, 49, 301, 112, 332
-0.991161, 1, 209, 64, 240
-0.991163, 185, 277, 248, 308
-0.991188, 177, 253, 240, 284
-0.991189, 113, 197, 176, 228
-0.99122, 345, 193, 408, 224
-0.991242, 33, 193, 288, 256
-0.991242, 405, 177, 436, 304
-0.991252, 281, 233, 344, 264
-0.991255, 353, 233, 416, 264
-0.991265, 265, 5, 328, 36
-0.991292, 393, 317, 456, 348
-0.991292, 321, 1, 352, 128
-0.991314, 281, 49, 344, 176
-0.99132, 1, 281, 500, 344
-0.991321, 89, 277, 152, 308
-0.991341, 193, 213, 256, 244
-0.991343, 73, 289, 136, 320
-0.991353, 225, 201, 480, 264
-0.991371, 113, 97, 176, 352
-0.991372, 129, 201, 384, 264
-0.991379, 137, 173, 200, 204
-0.991379, 129, 221, 192, 252
-0.991398, 145, 293, 208, 324
-0.991406, 121, 245, 184, 276
-0.99141, 313, 121, 376, 152
-0.991411, 433, 241, 496, 272
-0.991424, 313, 145, 376, 176
-0.991425, 129, 121, 256, 184
-0.991429, 9, 333, 72, 364
-0.991432, 345, 221, 408, 252
-0.991435, 49, 153, 176, 216
-0.991439, 433, 297, 496, 328
-0.991488, 153, 129, 184, 256
-0.991489, 185, 237, 248, 268
-0.991495, 65, 129, 128, 374
-0.991501, 225, 101, 288, 132
-0.991507, 265, 293, 328, 324
-0.991509, 241, 333, 304, 364
-0.991521, 225, 89, 288, 120
-0.991534, 297, 1, 360, 32
-0.991546, 113, 81, 240, 208
-0.991561, 1, 129, 128, 192
-0.991563, 49, 321, 112, 352
-0.991567, 225, 177, 288, 208
-0.991581, 161, 133, 224, 164
-0.991592, 345, 181, 408, 212
-0.991608, 73, 189, 136, 220
-0.991623, 305, 1, 336, 128
-0.991624, 201, 181, 264, 212
-0.991645, 73, 245, 136, 276
-0.991651, 225, 65, 288, 96
-0.991656, 249, 57, 312, 88
-0.991672, 249, 33, 312, 64
-0.991684, 73, 213, 136, 244
-0.991687, 361, 97, 392, 224
-0.991697, 233, 253, 296, 284
-0.991703, 33, 197, 96, 228
-0.991708, 233, 281, 296, 312
-0.991714, 137, 277, 200, 308
-0.991716, 225, 77, 288, 108
-0.991718, 249, 45, 312, 76
-0.991736, 249, 89, 312, 120
-0.991749, 33, 245, 96, 276
-0.991757, 41, 345, 104, 374
-0.991758, 97, 245, 160, 276
-0.991774, 241, 229, 304, 260
-0.991789, 225, 9, 288, 40
-0.991791, 249, 73, 312, 104
-0.991819, 369, 197, 432, 228
-0.99182, 153, 149, 216, 180
-0.991823, 369, 321, 432, 352
-0.991828, 249, 101, 312, 132
-0.991832, 1, 249, 64, 280
-0.991837, 9, 165, 72, 196
-0.991845, 401, 305, 464, 336
-0.991849, 137, 161, 200, 192
-0.991862, 225, 53, 288, 84
-0.991863, 121, 209, 184, 240
-0.991866, 393, 261, 456, 292
-0.991871, 345, 345, 408, 374
-0.991896, 301, 193, 332, 320
-0.991899, 121, 233, 184, 264
-0.991901, 97, 225, 160, 256
-0.991902, 313, 165, 376, 196
-0.991914, 225, 21, 288, 52
-0.992064, 289, 1, 352, 374
-0.992085, 129, 225, 384, 288
-0.992153, 105, 137, 168, 200
-0.992205, 1, 169, 256, 232
-0.992224, 13, 261, 44, 292
-0.992285, 9, 1, 72, 374
-0.992301, 161, 177, 416, 240
-0.992333, 225, 225, 480, 288
-0.992415, 225, 345, 256, 374
-0.992436, 137, 257, 168, 288
-0.992443, 193, 265, 224, 296
-0.992489, 1, 257, 256, 320
-0.992502, 369, 81, 432, 208
-0.992515, 453, 313, 484, 344
-0.992515, 181, 265, 212, 296
-0.992538, 33, 261, 64, 292
-0.992544, 261, 177, 292, 304
-0.992562, 165, 265, 196, 296
-0.992575, 101, 265, 132, 296
-0.992594, 149, 265, 180, 296
-0.992596, 261, 113, 292, 240
-0.992612, 177, 229, 208, 260
-0.992623, 433, 273, 464, 304
-0.992666, 325, 129, 356, 160
-0.992668, 21, 345, 52, 374
-0.992672, 121, 261, 152, 292
-0.992691, 289, 213, 320, 244
-0.992696, 393, 225, 424, 256
-0.992707, 129, 137, 192, 200
-0.992715, 201, 221, 232, 252
-0.992719, 137, 181, 168, 212
-0.992731, 273, 333, 304, 364
-0.992736, 417, 333, 448, 364
-0.992739, 29, 117, 60, 148
-0.992765, 209, 261, 240, 292
-0.992774, 201, 345, 232, 374
-0.992779, 37, 173, 68, 204
-0.99278, 37, 345, 68, 374
-0.99278, 249, 5, 280, 36
-0.992781, 369, 305, 400, 336
-0.992786, 145, 297, 176, 328
-0.99279, 445, 325, 476, 356
-0.9928, 165, 225, 196, 256
-0.992802, 25, 129, 56, 160
-0.992808, 109, 173, 140, 204
-0.99281, 237, 333, 268, 364
-0.992811, 241, 321, 272, 352
-0.992827, 177, 213, 208, 244
-0.992829, 337, 209, 368, 240
-0.992831, 165, 277, 196, 308
-0.992836, 45, 241, 76, 368
-0.992838, 361, 225, 392, 256
-0.992842, 65, 313, 128, 374
-0.992844, 261, 341, 292, 372
-0.992845, 273, 317, 304, 348
-0.992848, 189, 225, 220, 256
-0.992848, 429, 313, 460, 344
-0.99285, 1, 329, 32, 360
-0.99285, 213, 345, 244, 374
-0.992852, 129, 137, 384, 200
-0.992854, 129, 301, 160, 332
-0.992863, 373, 233, 404, 264
-0.992872, 145, 277, 176, 308
-0.992878, 185, 1, 248, 256
-0.992878, 253, 121, 284, 152
-0.992888, 321, 161, 352, 192
-0.992888, 249, 17, 280, 48
-0.992894, 417, 233, 448, 264
-0.992894, 197, 209, 228, 240
-0.992899, 285, 329, 316, 360
-0.992901, 249, 29, 280, 60
-0.992911, 117, 301, 148, 332
-0.992914, 189, 197, 220, 228
-0.992918, 117, 197, 148, 228
-0.992918, 389, 197, 420, 228
-0.99292, 25, 173, 56, 204
-0.992924, 421, 281, 452, 312
-0.992925, 249, 45, 280, 76
-0.99293, 197, 277, 228, 308
-0.992931, 465, 309, 496, 340
-0.992931, 309, 209, 340, 240
-0.992931, 109, 253, 140, 284
-0.992933, 405, 289, 436, 320
-0.992943, 249, 345, 280, 374
-0.992944, 105, 277, 136, 308
-0.992945, 253, 313, 284, 344
-0.992946, 321, 141, 352, 172
-0.992954, 141, 169, 172, 200
-0.992966, 221, 265, 252, 296
-0.992968, 221, 181, 252, 212
-0.992969, 453, 301, 484, 332
-0.992979, 249, 57, 280, 88
-0.992985, 349, 221, 380, 252
-0.992987, 393, 277, 424, 308
-0.992989, 389, 293, 420, 324
-0.992995, 137, 241, 168, 272
-0.992995, 361, 289, 392, 320
-0.992997, 277, 193, 308, 320
-0.993002, 205, 197, 236, 228
-0.993003, 165, 213, 196, 244
-0.993003, 157, 245, 188, 276
-0.993007, 413, 269, 444, 300
-0.993008, 433, 325, 464, 356
-0.993008, 1, 185, 500, 248
-0.99301, 101, 297, 132, 328
-0.993013, 13, 249, 44, 280
-0.993021, 37, 161, 68, 192
-0.993025, 465, 297, 496, 328
-0.993026, 377, 285, 408, 316
-0.993027, 97, 277, 224, 308
-0.993028, 433, 129, 496, 374
-0.993028, 289, 225, 320, 256
-0.993031, 117, 277, 148, 308
-0.993032, 57, 309, 88, 340
-0.993033, 237, 81, 268, 208
-0.993038, 449, 261, 480, 292
-0.993044, 369, 213, 400, 244
-0.993047, 389, 241, 420, 272
-0.993049, 37, 325, 68, 356
-0.99305, 197, 253, 228, 284
-0.993059, 153, 225, 184, 256
-0.99306, 125, 245, 156, 276
-0.993068, 405, 233, 436, 264
-0.993068, 249, 73, 280, 104
-0.993069, 253, 105, 284, 136
-0.993072, 233, 273, 264, 304
-0.993073, 1, 233, 500, 296
-0.993075, 181, 129, 212, 160
-0.993077, 445, 273, 476, 304
-0.993086, 49, 337, 80, 368
-0.993088, 57, 325, 88, 356
-0.993088, 213, 245, 244, 276
-0.993092, 437, 301, 468, 332
-0.993092, 121, 173, 152, 204
-0.993092, 465, 253, 496, 284
-0.993094, 133, 277, 164, 308
-0.993095, 417, 317, 448, 348
-0.993098, 253, 93, 284, 124
-0.993102, 1, 269, 128, 300
-0.993107, 381, 221, 412, 252
-0.993114, 313, 21, 344, 52
-0.993114, 453, 289, 484, 320
-0.993118, 333, 277, 364, 308
-0.993119, 177, 277, 208, 308
-0.993125, 17, 117, 48, 148
-0.99313, 13, 325, 44, 356
-0.993131, 217, 233, 248, 264
-0.993132, 57, 293, 88, 324
-0.993137, 165, 189, 196, 220
-0.993144, 353, 209, 384, 240
-0.993145, 161, 177, 192, 208
-0.993146, 221, 221, 252, 252
-0.993147, 425, 257, 456, 288
-0.993149, 161, 1, 224, 374
-0.993201, 97, 265, 224, 296
-0.993371, 33, 289, 160, 320
-0.993389, 17, 257, 32, 320
-0.993408, 209, 333, 336, 364
-0.993435, 129, 313, 384, 374
-0.99348, 305, 97, 336, 224
-0.993481, 41, 81, 104, 208
-0.993539, 209, 345, 336, 374
-0.993578, 49, 277, 176, 308
-0.993621, 353, 105, 480, 168
-0.993773, 461, 161, 492, 288
-0.99378, 145, 273, 272, 304
-0.993801, 143, 273, 158, 336
-0.99382, 393, 129, 424, 256
-0.993876, 135, 273, 150, 336
-0.993885, 1, 257, 500, 320
-0.993929, 161, 113, 416, 176
-0.993979, 123, 273, 138, 336
-0.994004, 289, 221, 416, 252
-0.994069, 285, 313, 300, 374
-0.994074, 353, 301, 480, 332
-0.994098, 41, 121, 104, 184
-0.994104, 77, 177, 108, 304
-0.994117, 49, 257, 176, 288
-0.994134, 129, 273, 144, 336
-0.994266, 289, 285, 416, 316
-0.994343, 1, 341, 128, 372
-0.994363, 149, 273, 164, 336
-0.994365, 117, 273, 132, 336
-0.994406, 33, 301, 160, 332
-0.99441, 459, 305, 474, 368
-0.994438, 185, 1, 248, 374
-0.994443, 193, 1, 448, 64
-0.994448, 65, 345, 192, 374
-0.99448, 313, 1, 376, 374
-0.994485, 129, 289, 384, 352
-0.994608, 1, 257, 128, 288
-0.994622, 433, 145, 496, 272
-0.994632, 145, 261, 272, 292
-0.994637, 145, 233, 160, 296
-0.994641, 1, 325, 128, 356
-0.994662, 209, 317, 336, 348
-0.99472, 243, 313, 258, 374
-0.994729, 225, 9, 352, 40
-0.994749, 369, 1, 432, 374
-0.994785, 321, 337, 448, 368
-0.994792, 111, 257, 126, 320
-0.994812, 161, 333, 288, 364
-0.994871, 47, 257, 62, 320
-0.994896, 161, 209, 288, 240
-0.994926, 279, 313, 294, 374
-0.994964, 1, 161, 500, 224
-0.994967, 437, 145, 468, 272
-0.99497, 145, 345, 272, 374
-0.994978, 1, 209, 500, 272
-0.99498, 323, 137, 338, 200
-0.994988, 113, 205, 240, 236
-0.99499, 263, 1, 278, 64
-0.994996, 289, 205, 416, 236
-0.995005, 345, 97, 408, 160
-0.995032, 1, 313, 128, 344
-0.995042, 81, 105, 208, 168
-0.995061, 113, 217, 240, 248
-0.995064, 273, 25, 400, 88
-0.995065, 145, 189, 272, 220
-0.995068, 177, 65, 208, 192
-0.995088, 129, 241, 256, 272
-0.995147, 209, 193, 224, 256
-0.995171, 139, 233, 154, 296
-0.995178, 113, 173, 240, 204
-0.995182, 197, 225, 212, 288
-0.995186, 345, 241, 376, 368
-0.995193, 33, 177, 160, 208
-0.995193, 257, 329, 384, 360
-0.995228, 337, 313, 464, 344
-0.995234, 203, 217, 218, 280
-0.995283, 409, 129, 440, 256
-0.995291, 201, 73, 264, 136
-0.995291, 261, 313, 276, 374
-0.995302, 253, 313, 268, 374
-0.995304, 273, 305, 288, 368
-0.995304, 65, 189, 192, 220
-0.99533, 321, 65, 352, 192
-0.995336, 145, 285, 272, 316
-0.995338, 433, 193, 464, 320
-0.995369, 193, 41, 256, 104
-0.995386, 155, 265, 170, 328
-0.995403, 17, 233, 32, 296
-0.995407, 43, 113, 58, 176
-0.99543, 257, 105, 272, 168
-0.995432, 193, 17, 256, 144
-0.995437, 289, 233, 416, 264
-0.995462, 289, 141, 416, 172
-0.995463, 289, 193, 416, 224
-0.995494, 111, 169, 126, 232
-0.9955, 65, 205, 192, 236
-0.995502, 1, 189, 128, 220
-0.995505, 257, 177, 500, 240
-0.995507, 197, 193, 212, 256
-0.99552, 337, 289, 464, 320
-0.995522, 263, 113, 278, 176
-0.995532, 123, 297, 138, 360
-0.995532, 129, 297, 144, 360
-0.995534, 425, 1, 488, 374
-0.995552, 193, 277, 320, 308
-0.99557, 321, 273, 448, 304
-0.995601, 193, 17, 256, 80
-0.995617, 37, 129, 52, 192
-0.995634, 337, 325, 464, 356
-0.995676, 13, 313, 28, 374
-0.995696, 291, 313, 306, 374
-0.9957, 369, 221, 496, 252
-0.995704, 263, 65, 278, 128
-0.995714, 31, 113, 46, 176
-0.995754, 33, 145, 288, 208
-0.9958, 135, 297, 150, 360
-0.995807, 97, 289, 224, 320
-0.995811, 273, 313, 400, 344
-0.995814, 187, 233, 202, 296
-0.995818, 281, 41, 344, 104
-0.99583, 127, 241, 142, 304
-0.995831, 151, 233, 166, 296
-0.995835, 9, 289, 24, 352
-0.995842, 117, 297, 132, 360
-0.995846, 257, 297, 384, 328
-0.995855, 225, 21, 352, 52
-0.995864, 381, 201, 396, 264
-0.995877, 105, 273, 120, 336
-0.995887, 389, 193, 404, 256
-0.99589, 431, 313, 446, 374
-0.995893, 369, 237, 496, 268
-0.995894, 223, 257, 238, 320
-0.995894, 133, 233, 148, 296
-0.995895, 101, 145, 132, 272
-0.995897, 97, 253, 224, 284
-0.995911, 267, 305, 282, 368
-0.995921, 257, 145, 500, 208
-0.995935, 193, 25, 448, 88
-0.995937, 121, 249, 136, 312
-0.995937, 199, 257, 214, 320
-0.995946, 241, 209, 368, 240
-0.995959, 49, 297, 64, 360
-0.995967, 373, 153, 388, 216
-0.995968, 289, 157, 416, 188
-0.99597, 215, 193, 230, 256
-0.995977, 41, 169, 56, 232
-0.995977, 123, 169, 138, 232
-0.995996, 155, 161, 170, 224
-0.995998, 443, 305, 458, 368
-0.996001, 97, 1, 352, 64
-0.996014, 203, 193, 218, 256
-0.996022, 47, 153, 62, 216
-0.996028, 453, 281, 468, 344
-0.996032, 465, 289, 480, 352
-0.996041, 17, 129, 48, 374
-0.996055, 345, 1, 408, 374
-0.996058, 263, 89, 278, 152
-0.996081, 217, 113, 248, 240
-0.996127, 447, 265, 462, 328
-0.996137, 177, 5, 304, 36
-0.996139, 369, 277, 496, 308
-0.996149, 175, 225, 190, 288
-0.996152, 193, 197, 320, 228
-0.996162, 263, 41, 278, 104
-0.996164, 33, 129, 64, 374
-0.996199, 263, 137, 278, 200
-0.996201, 383, 281, 398, 344
-0.99621, 11, 225, 26, 288
-0.996213, 193, 257, 208, 320
-0.996218, 451, 313, 466, 374
-0.996238, 217, 257, 232, 320
-0.996242, 161, 281, 176, 344
-0.996249, 141, 297, 156, 360
-0.996256, 329, 129, 344, 192
-0.996258, 391, 233, 406, 296
-0.996259, 373, 281, 388, 344
-0.996262, 241, 185, 368, 216
-0.996263, 49, 313, 176, 344
-0.996272, 245, 273, 260, 336
-0.996293, 49, 325, 176, 356
-0.996295, 361, 185, 376, 248
-0.996304, 323, 177, 338, 240
-0.996312, 289, 181, 416, 212
-0.996317, 29, 257, 44, 320
-0.996329, 111, 297, 126, 360
-0.996338, 113, 73, 240, 136
-0.99634, 41, 97, 104, 160
-0.996344, 305, 125, 432, 156
-0.996352, 465, 209, 480, 272
-0.996356, 37, 257, 52, 320
-0.996364, 161, 241, 176, 304
-0.99637, 57, 1, 120, 374
-0.996378, 181, 225, 196, 288
-0.99638, 23, 257, 38, 320
-0.996387, 113, 1, 176, 374
-0.996394, 367, 201, 382, 264
-0.996399, 33, 245, 160, 276
-0.996401, 215, 233, 230, 296
-0.996404, 223, 233, 238, 296
-0.99641, 193, 257, 320, 288
-0.996413, 393, 273, 408, 336
-0.996422, 1, 165, 128, 196
-0.996423, 161, 193, 176, 256
-0.996425, 353, 209, 480, 240
-0.996432, 191, 201, 206, 264
-0.996437, 161, 145, 176, 208
-0.996461, 437, 305, 452, 368
-0.996465, 409, 201, 424, 264
-0.996466, 1, 137, 500, 200
-0.996475, 289, 289, 304, 352
-0.996478, 121, 193, 136, 256
-0.996481, 177, 25, 304, 56
-0.996494, 425, 177, 488, 240
-0.996497, 67, 193, 82, 256
-0.996513, 283, 289, 298, 352
-0.996521, 237, 313, 252, 374
-0.996522, 129, 185, 144, 248
-0.996523, 167, 265, 182, 328
-0.996527, 273, 145, 304, 272
-0.996535, 129, 229, 256, 260
-0.99654, 399, 217, 414, 280
-0.996548, 49, 229, 176, 260
-0.996563, 191, 121, 206, 184
-0.996569, 375, 209, 390, 272
-0.996589, 289, 169, 416, 200
-0.996595, 229, 217, 244, 280
-0.996597, 389, 297, 404, 360
-0.996601, 403, 193, 418, 256
-0.996628, 177, 49, 304, 80
-0.996635, 101, 249, 116, 312
-0.996637, 177, 65, 304, 96
-0.996647, 31, 137, 46, 200
-0.99665, 177, 37, 304, 68
-0.996651, 257, 121, 500, 184
-0.996653, 147, 297, 162, 360
-0.996654, 209, 229, 336, 260
-0.996674, 395, 193, 410, 256
-0.996684, 205, 257, 220, 320
-0.996692, 177, 77, 304, 108
-0.99671, 145, 305, 272, 336
-0.996714, 185, 201, 200, 264
-0.996728, 225, 173, 352, 204
-0.996732, 169, 233, 184, 296
-0.996735, 337, 1, 464, 64
-0.996736, 305, 89, 432, 152
-0.99675, 221, 185, 236, 248
-0.996751, 437, 241, 452, 304
-0.996762, 169, 209, 184, 272
-0.996762, 399, 241, 414, 304
-0.996763, 33, 1, 96, 374
-0.996768, 113, 161, 240, 192
-0.996781, 413, 233, 428, 296
-0.996783, 369, 249, 496, 280
-0.996784, 403, 273, 418, 336
-0.996794, 211, 257, 226, 320
-0.996796, 7, 265, 22, 328
-0.996803, 325, 1, 356, 256
-0.996804, 251, 273, 266, 336
-0.996806, 367, 313, 382, 374
-0.996812, 145, 149, 272, 180
-0.996814, 211, 169, 226, 232
-0.996814, 421, 313, 436, 374
-0.996815, 1, 201, 128, 232
-0.996816, 177, 89, 304, 120
-0.996818, 133, 161, 148, 224
-0.996836, 97, 33, 352, 96
-0.996865, 369, 113, 432, 176
-0.996881, 209, 245, 336, 276
-0.996895, 237, 1, 268, 128
-0.996897, 81, 301, 208, 332
-0.996941, 305, 1, 336, 256
-0.996946, 145, 321, 272, 352
-0.996953, 257, 341, 384, 372
-0.99696, 313, 129, 344, 374
-0.99697, 1, 105, 128, 168
-0.996992, 1, 225, 128, 256
-0.997011, 369, 265, 496, 296
-0.997029, 177, 101, 304, 132
-0.997045, 161, 169, 288, 200
-0.997105, 129, 89, 384, 152
-0.997112, 65, 217, 192, 248
-0.997113, 225, 33, 352, 64
-0.997124, 459, 313, 474, 344
-0.997141, 353, 49, 480, 176
-0.997167, 165, 97, 196, 352
-0.99718, 1, 113, 256, 176
-0.997214, 257, 245, 384, 276
-0.997218, 353, 197, 480, 228
-0.997222, 257, 129, 384, 160
-0.997238, 97, 25, 224, 88
-0.997256, 121, 81, 184, 208
-0.997265, 273, 1, 400, 32
-0.997279, 241, 261, 368, 292
-0.997289, 401, 1, 464, 374
-0.997299, 177, 121, 304, 152
-0.997315, 249, 1, 280, 256
-0.997338, 23, 341, 38, 372
-0.997342, 241, 285, 368, 316
-0.997342, 417, 145, 480, 208
-0.997347, 81, 241, 208, 272
-0.99735, 17, 261, 32, 292
-0.997366, 81, 153, 144, 216
-0.99737, 289, 13, 416, 44
-0.997373, 45, 129, 76, 374
-0.997391, 1, 213, 128, 244
-0.997395, 97, 49, 224, 112
-0.997396, 321, 245, 448, 276
-0.997414, 97, 57, 352, 120
-0.997473, 45, 261, 60, 292
-0.997477, 195, 265, 210, 296
-0.997492, 225, 45, 352, 76
-0.997495, 225, 161, 352, 192
-0.997522, 325, 97, 356, 352
-0.997533, 249, 97, 280, 352
-0.997539, 243, 321, 258, 352
-0.997553, 151, 257, 166, 288
-0.99756, 353, 153, 480, 184
-0.997567, 369, 345, 496, 374
-0.997579, 225, 117, 352, 148
-0.997584, 257, 273, 384, 304
-0.997588, 31, 113, 46, 144
-0.997598, 193, 49, 448, 112
-0.997614, 161, 133, 288, 164
-0.997617, 325, 133, 340, 164
-0.997633, 323, 161, 338, 192
-0.997641, 43, 113, 58, 144
-0.997641, 263, 121, 278, 152
-0.997643, 225, 145, 352, 176
-0.997653, 49, 157, 176, 188
-0.99766, 189, 265, 204, 296
-0.997662, 215, 345, 230, 374
-0.997663, 323, 145, 338, 176
-0.997666, 241, 197, 368, 228
-0.997668, 201, 257, 216, 288
-0.99767, 225, 61, 352, 92
-0.997677, 119, 261, 134, 292
-0.997688, 229, 345, 244, 374
-0.997707, 125, 261, 140, 292
-0.997729, 181, 97, 212, 352
-0.99773, 97, 333, 224, 364
-0.997734, 193, 289, 320, 320
-0.997745, 113, 261, 128, 292
-0.997756, 305, 49, 336, 176
-0.99776, 207, 265, 222, 296
-0.997769, 357, 129, 388, 374
-0.997772, 145, 257, 160, 288
-0.99778, 97, 1, 224, 64
-0.997788, 9, 33, 72, 288
-0.997794, 225, 73, 352, 104
-0.997801, 43, 209, 58, 240
-0.997804, 257, 121, 272, 152
-0.997828, 199, 221, 214, 252
-0.997844, 389, 237, 404, 268
-0.997845, 169, 265, 184, 296
-0.997849, 345, 1, 408, 64
-0.997866, 153, 297, 168, 328
-0.997893, 131, 301, 146, 332
-0.997894, 277, 333, 292, 364
-0.997902, 131, 261, 146, 292
-0.997905, 225, 85, 352, 116
-0.997912, 271, 333, 286, 364
-0.997915, 47, 161, 62, 192
-0.997916, 137, 301, 152, 332
-0.997918, 449, 321, 464, 352
-0.99792, 191, 229, 206, 260
-0.997922, 1, 153, 128, 184
-0.997933, 291, 329, 306, 360
-0.997944, 421, 161, 452, 288
-0.997944, 125, 301, 140, 332
-0.997947, 177, 225, 192, 256
-0.997949, 263, 9, 278, 40
-0.997965, 15, 249, 30, 280
-0.997976, 107, 265, 122, 296
-0.997977, 143, 301, 158, 332
-0.99798, 25, 49, 56, 176
-0.997982, 139, 257, 154, 288
-0.997991, 333, 81, 364, 208
-0.997991, 283, 313, 298, 344
-0.997993, 235, 341, 250, 372
-0.997995, 377, 305, 392, 336
-0.998002, 49, 345, 64, 374
-0.998007, 201, 269, 216, 300
-0.998011, 369, 225, 384, 256
-0.998017, 13, 329, 28, 360
-0.99802, 263, 97, 278, 128
-0.998025, 305, 301, 432, 332
-0.998033, 345, 33, 408, 288
-0.99804, 157, 257, 172, 288
-0.998046, 265, 341, 280, 372
-0.998047, 437, 329, 452, 360
-0.998054, 1, 113, 500, 176
-0.998058, 175, 265, 190, 296
-0.998061, 445, 309, 460, 340
-0.998063, 213, 261, 228, 292
-0.998066, 369, 33, 432, 288
-0.998066, 225, 105, 352, 136
-0.998069, 39, 125, 54, 156
-0.998071, 363, 221, 378, 252
-0.998071, 285, 333, 300, 364
-0.998072, 375, 229, 390, 260
-0.998088, 205, 213, 220, 244
-0.998091, 263, 85, 278, 116
-0.998097, 337, 137, 464, 168
-0.9981, 431, 329, 446, 360
-0.998104, 321, 181, 336, 212
-0.998106, 263, 73, 278, 104
-0.998106, 119, 301, 134, 332
-0.998116, 101, 265, 116, 296
-0.998117, 263, 61, 278, 92
-0.998119, 331, 129, 346, 160
-0.998119, 111, 173, 126, 204
-0.998132, 41, 169, 56, 200
-0.998135, 201, 197, 216, 228
-0.998138, 337, 185, 464, 216
-0.998144, 371, 305, 386, 336
-0.998146, 181, 265, 196, 296
-0.998147, 159, 293, 174, 324
-0.998149, 23, 261, 38, 292
-0.99815, 263, 141, 278, 172
-0.998151, 139, 173, 154, 204
-0.998154, 305, 257, 432, 288
-0.998157, 383, 233, 398, 264
-0.998164, 465, 305, 480, 336
-0.998165, 171, 229, 186, 260
-0.998166, 211, 205, 226, 236
-0.998168, 159, 269, 174, 300
-0.998169, 255, 109, 270, 140
-0.998171, 105, 277, 120, 308
-0.998179, 443, 325, 458, 356
-0.998181, 355, 209, 370, 240
-0.998191, 451, 301, 466, 332
-0.998192, 263, 49, 278, 80
-0.998193, 41, 345, 56, 374
-0.998195, 341, 205, 356, 236
-0.9982, 241, 333, 256, 364
-0.9982, 297, 329, 312, 360
-0.998202, 377, 129, 408, 374
-0.998203, 219, 269, 234, 300
-0.998203, 263, 109, 278, 140
-0.998204, 447, 273, 462, 304
-0.998206, 109, 297, 124, 328
-0.998211, 29, 261, 44, 292
-0.998212, 353, 165, 480, 196
-0.998219, 251, 317, 266, 348
-0.998221, 207, 345, 222, 374
-0.998222, 149, 169, 164, 200
-0.998225, 263, 37, 278, 68
-0.998228, 145, 129, 176, 374
-0.998238, 201, 129, 232, 374
-0.998238, 413, 237, 428, 268
-0.998247, 421, 285, 436, 316
-0.998254, 35, 261, 50, 292
-0.998255, 429, 281, 444, 312
-0.998256, 195, 277, 210, 308
-0.998263, 33, 125, 48, 156
-0.998264, 411, 289, 426, 320
-0.998265, 147, 241, 162, 272
-0.998267, 193, 305, 320, 336
-0.998268, 419, 233, 434, 264
-0.998269, 195, 209, 210, 240
-0.998276, 469, 249, 484, 280
-0.998279, 435, 345, 450, 374
-0.99828, 375, 213, 390, 244
-0.99828, 35, 345, 50, 374
-0.998281, 139, 245, 154, 276
-0.998282, 369, 209, 384, 240
-0.998287, 437, 277, 452, 308
-0.998288, 395, 241, 410, 272
-0.99829, 217, 193, 232, 224
-0.998297, 263, 25, 278, 56
-0.998298, 373, 149, 388, 180
-0.998303, 121, 197, 136, 228
-0.99831, 211, 277, 226, 308
-0.998311, 49, 325, 64, 356
-0.998311, 289, 317, 304, 348
-0.998314, 261, 1, 292, 256
-0.998315, 129, 245, 144, 276
-0.998315, 33, 89, 288, 152
-0.998327, 97, 133, 224, 164
-0.99834, 337, 1, 368, 256
-0.998357, 1, 261, 64, 276
-0.998368, 217, 129, 248, 374
-0.998375, 445, 251, 476, 266
-0.998375, 361, 153, 392, 168
-0.998375, 57, 295, 88, 310
-0.998376, 57, 305, 88, 320
-0.998378, 321, 179, 352, 194
-0.998379, 421, 335, 452, 350
-0.998379, 153, 295, 184, 310
-0.99838, 37, 335, 68, 350
-0.99838, 113, 301, 144, 316
-0.998381, 449, 271, 480, 286
-0.998381, 253, 115, 284, 130
-0.998382, 249, 89, 280, 104
-0.998382, 253, 97, 284, 112
-0.998384, 333, 221, 364, 236
-0.998384, 289, 221, 320, 236
-0.998385, 393, 359, 424, 374
-0.998386, 189, 199, 220, 214
-0.998386, 397, 235, 428, 250
-0.998387, 109, 197, 140, 212
-0.998387, 349, 355, 380, 370
-0.998387, 177, 131, 208, 146
-0.998387, 209, 275, 240, 290
-0.998388, 249, 83, 280, 98
-0.998388, 65, 359, 96, 374
-0.998389, 289, 227, 320, 242
-0.99839, 249, 77, 280, 92
-0.998391, 165, 219, 196, 234
-0.998392, 57, 321, 88, 336
-0.998393, 221, 357, 252, 372
-0.998395, 341, 129, 372, 374
-0.998395, 249, 69, 280, 84
-0.998395, 121, 261, 152, 276
-0.998397, 181, 215, 212, 230
-0.998398, 165, 275, 196, 290
-0.998398, 189, 209, 220, 224
-0.998399, 321, 141, 352, 156
-0.998399, 461, 247, 492, 262
-0.9984, 437, 273, 468, 288
-0.998401, 57, 315, 88, 330
-0.998402, 189, 349, 220, 364
-0.998402, 433, 323, 464, 338
-0.998403, 249, 63, 280, 78
-0.998404, 1, 333, 32, 348
-0.998404, 37, 343, 68, 358
-0.998405, 269, 339, 300, 354
-0.998408, 289, 211, 320, 226
-0.99841, 337, 215, 368, 230
-0.99841, 13, 255, 44, 270
-0.998411, 1, 133, 128, 164
-0.998413, 101, 297, 132, 312
-0.998413, 337, 201, 368, 216
-0.998414, 277, 325, 308, 340
-0.998415, 201, 233, 232, 248
-0.998416, 389, 197, 420, 212
-0.998417, 221, 191, 252, 206
-0.998418, 181, 261, 212, 276
-0.998418, 361, 231, 392, 246
-0.998421, 149, 259, 180, 274
-0.998422, 465, 253, 496, 268
-0.998423, 237, 339, 268, 354
-0.998423, 249, 39, 280, 54
-0.998423, 41, 211, 72, 226
-0.998424, 141, 299, 172, 314
-0.998424, 253, 121, 284, 136
-0.998424, 37, 125, 68, 140
-0.998425, 249, 57, 280, 72
-0.998425, 273, 333, 304, 348
-0.998425, 269, 313, 300, 328
-0.998425, 153, 81, 184, 208
-0.998427, 193, 359, 224, 374
-0.998427, 249, 1, 280, 16
-0.998427, 249, 49, 280, 64
-0.998428, 137, 265, 168, 280
-0.998428, 249, 31, 280, 46
-0.998428, 437, 309, 468, 324
-0.998428, 409, 239, 440, 254
-0.998432, 245, 353, 276, 368
-0.998432, 385, 237, 416, 252
-0.998433, 249, 25, 280, 40
-0.998435, 25, 177, 56, 192
-0.998436, 109, 263, 140, 278
-0.998436, 465, 129, 496, 374
-0.998437, 249, 315, 280, 330
-0.998437, 345, 221, 376, 236
-0.998438, 221, 235, 252, 250
-0.998439, 205, 355, 236, 370
-0.998439, 397, 241, 428, 256
-0.998442, 233, 345, 264, 360
-0.998443, 249, 15, 280, 30
-0.998443, 465, 309, 496, 324
-0.998443, 89, 129, 152, 256
-0.998445, 25, 171, 56, 186
-0.998447, 381, 299, 412, 314
-0.998447, 169, 267, 200, 282
-0.998448, 413, 359, 444, 374
-0.99845, 165, 233, 196, 248
-0.998452, 217, 265, 248, 280
-0.998454, 9, 311, 72, 326
-0.998454, 197, 259, 228, 274
-0.998458, 149, 273, 180, 288
-0.998458, 249, 9, 280, 24
-0.99846, 9, 325, 72, 340
-0.99846, 409, 289, 440, 304
-0.99846, 149, 267, 180, 282
-0.998461, 225, 339, 288, 354
-0.998461, 9, 317, 72, 332
-0.998461, 9, 293, 72, 308
-0.998464, 9, 331, 72, 346
-0.998464, 321, 223, 384, 238
-0.998465, 169, 225, 200, 240
-0.998465, 37, 169, 68, 184
-0.998466, 329, 131, 360, 146
-0.998466, 121, 255, 152, 270
-0.998467, 201, 221, 232, 236
-0.998469, 193, 185, 320, 216
-0.998469, 373, 235, 404, 250
-0.998469, 421, 285, 452, 300
-0.998471, 237, 319, 268, 334
-0.998471, 365, 359, 396, 374
-0.998472, 417, 233, 448, 248
-0.998472, 109, 257, 140, 272
-0.998473, 9, 287, 72, 302
-0.998474, 9, 299, 72, 314
-0.998474, 205, 345, 236, 360
-0.998475, 241, 315, 304, 330
-0.998475, 19, 241, 34, 368
-0.998477, 9, 305, 72, 320
-0.998477, 9, 281, 72, 296
-0.998478, 369, 305, 400, 320
-0.998479, 9, 271, 72, 286
-0.998479, 197, 267, 228, 282
-0.998479, 225, 351, 256, 366
-0.99848, 141, 183, 172, 198
-0.99848, 181, 267, 212, 282
-0.998483, 201, 345, 264, 360
-0.998484, 417, 283, 480, 298
-0.998484, 425, 329, 456, 344
-0.998485, 249, 345, 312, 360
-0.998485, 393, 295, 424, 310
-0.99849, 29, 117, 60, 132
-0.998492, 137, 257, 168, 272
-0.998493, 177, 231, 208, 246
-0.998501, 201, 353, 264, 368
-0.998502, 445, 323, 476, 338
-0.998502, 181, 225, 212, 240
-0.998504, 401, 289, 464, 304
-0.998505, 357, 225, 388, 240
-0.998506, 33, 261, 64, 276
-0.998507, 185, 359, 248, 374
-0.998508, 37, 175, 68, 190
-0.998509, 17, 343, 80, 358
-0.998512, 105, 263, 168, 278
-0.998514, 261, 345, 292, 360
-0.998515, 113, 257, 176, 272
-0.998518, 433, 279, 464, 294
-0.998519, 21, 343, 52, 358
-0.998521, 265, 335, 328, 350
-0.998522, 225, 345, 288, 360
-0.998524, 161, 213, 224, 228
-0.998529, 17, 179, 80, 194
-0.998529, 161, 203, 224, 218
-0.998531, 161, 277, 224, 292
-0.998531, 169, 267, 232, 282
-0.998533, 161, 223, 224, 238
-0.998536, 25, 129, 56, 144
-0.998536, 129, 185, 192, 200
-0.998544, 47, 241, 62, 368
-0.998545, 313, 133, 376, 148
-0.998545, 1, 121, 128, 152
-0.99855, 41, 341, 104, 356
-0.99855, 121, 275, 184, 290
-0.99855, 385, 237, 448, 252
-0.998554, 41, 267, 104, 282
-0.998556, 121, 191, 184, 206
-0.998556, 393, 333, 456, 348
-0.998557, 433, 251, 496, 266
-0.998559, 453, 315, 484, 330
-0.998559, 33, 211, 96, 226
-0.99856, 161, 197, 224, 212
-0.998562, 409, 235, 472, 250
-0.998562, 41, 281, 104, 296
-0.998563, 177, 347, 240, 362
-0.998564, 177, 261, 240, 276
-0.998564, 97, 175, 160, 190
-0.998567, 145, 231, 208, 246
-0.998569, 417, 261, 480, 276
-0.998569, 425, 277, 488, 292
-0.998569, 145, 267, 208, 282
-0.998572, 49, 335, 112, 350
-0.998573, 409, 355, 472, 370
-0.998574, 361, 305, 424, 320
-0.998574, 425, 329, 488, 344
-0.998574, 305, 215, 368, 230
-0.998574, 41, 273, 104, 288
-0.998576, 201, 269, 264, 284
-0.998577, 161, 359, 224, 374
-0.998577, 41, 287, 104, 302
-0.998581, 153, 289, 216, 304
-0.998581, 13, 261, 44, 276
-0.998582, 377, 359, 440, 374
-0.998582, 65, 291, 128, 306
-0.998582, 105, 301, 168, 316
-0.998583, 369, 223, 432, 238
-0.998583, 225, 333, 288, 348
-0.998584, 377, 297, 440, 312
-0.998584, 329, 229, 392, 244
-0.998585, 97, 277, 160, 292
-0.998585, 329, 209, 392, 224
-0.998587, 305, 285, 368, 300
-0.998587, 17, 185, 80, 200
-0.998588, 1, 209, 64, 224
-0.998589, 201, 195, 264, 210
-0.998589, 409, 317, 472, 332
-0.99859, 137, 1, 200, 374
-0.998591, 433, 245, 496, 260
-0.998591, 41, 295, 104, 310
-0.998593, 249, 11, 312, 26
-0.998594, 89, 129, 152, 374
-0.998595, 345, 359, 408, 374
-0.998596, 137, 261, 200, 276
-0.998597, 73, 257, 136, 272
-0.998598, 281, 235, 344, 250
-0.998598, 345, 193, 408, 208
-0.998599, 377, 231, 440, 246
-0.998599, 121, 223, 184, 238
-0.998599, 73, 343, 136, 358
-0.9986, 145, 295, 208, 310
-0.9986, 17, 337, 80, 352
-0.9986, 49, 301, 112, 316
-0.9986, 305, 205, 368, 220
-0.998603, 369, 353, 432, 368
-0.998605, 113, 197, 176, 212
-0.998605, 345, 215, 408, 230
-0.998605, 425, 349, 488, 364
-0.998605, 41, 259, 104, 274
-0.998605, 169, 233, 232, 248
-0.998606, 153, 191, 216, 206
-0.998607, 105, 291, 168, 306
-0.998607, 249, 17, 312, 32
-0.998608, 97, 269, 160, 284
-0.998608, 345, 289, 408, 304
-0.998609, 281, 215, 344, 230
-0.99861, 361, 199, 424, 214
-0.99861, 305, 355, 368, 370
-0.998611, 389, 129, 420, 374
-0.998611, 377, 279, 440, 294
-0.998612, 425, 311, 488, 326
-0.998613, 329, 203, 392, 218
-0.998614, 209, 275, 272, 290
-0.998614, 217, 359, 280, 374
-0.998616, 97, 183, 160, 198
-0.998617, 425, 343, 488, 358
-0.998617, 201, 201, 264, 216
-0.998618, 33, 205, 96, 220
-0.998619, 393, 243, 456, 258
-0.998619, 281, 349, 344, 364
-0.998619, 65, 269, 128, 284
-0.99862, 225, 99, 288, 114
-0.99862, 401, 271, 464, 286
-0.99862, 81, 297, 144, 312
-0.998621, 265, 23, 328, 38
-0.998621, 17, 359, 80, 374
-0.998623, 297, 221, 360, 236
-0.998623, 201, 207, 264, 222
-0.998623, 193, 285, 256, 300
-0.998625, 225, 93, 288, 108
-0.998627, 153, 185, 216, 200
-0.998627, 185, 275, 248, 290
-0.998627, 49, 325, 112, 340
-0.998628, 233, 321, 296, 336
-0.998628, 361, 237, 424, 252
-0.998673, 237, 33, 268, 288
-0.998683, 5, 129, 36, 374
-0.99869, 143, 241, 158, 368
-0.998725, 369, 81, 496, 144
-0.998752, 129, 97, 256, 160
-0.998767, 137, 241, 152, 368
-0.998774, 357, 241, 388, 368
-0.998781, 257, 89, 500, 152
-0.998789, 233, 129, 264, 374
-0.998801, 151, 241, 166, 368
-0.99882, 157, 177, 172, 304
-0.998821, 409, 129, 440, 374
-0.998839, 129, 241, 144, 368
-0.998839, 37, 241, 52, 368
-0.998849, 263, 1, 278, 128
-0.998855, 123, 241, 138, 368
-0.998864, 25, 241, 40, 368
-0.998871, 31, 241, 46, 368
-0.998897, 459, 225, 474, 352
-0.998905, 261, 97, 292, 352
-0.998931, 17, 177, 32, 304
-0.998956, 57, 129, 88, 374
-0.998977, 153, 1, 216, 256
-0.99898, 217, 177, 232, 304
-0.998984, 201, 193, 216, 320
-0.998992, 287, 225, 302, 352
-0.998996, 163, 193, 178, 320
-0.999, 117, 241, 132, 368
-0.999011, 429, 129, 460, 374
-0.999023, 129, 193, 144, 320
-0.999027, 325, 129, 340, 256
-0.999035, 157, 241, 172, 368
-0.999052, 111, 193, 126, 320
-0.999054, 331, 177, 346, 304
-0.999055, 263, 49, 278, 176
-0.999059, 49, 65, 80, 192
-0.999063, 135, 193, 150, 320
-0.999068, 263, 113, 278, 240
-0.999074, 323, 177, 338, 304
-0.999078, 373, 145, 388, 272
-0.999081, 167, 129, 182, 256
-0.999082, 211, 177, 226, 304
-0.999087, 257, 97, 272, 224
-0.99909, 293, 1, 324, 128
-0.999098, 469, 209, 484, 336
-0.999101, 289, 49, 416, 112
-0.999103, 47, 113, 62, 240
-0.999103, 111, 241, 126, 368
-0.999104, 11, 193, 26, 320
-0.999109, 443, 241, 458, 368
-0.999109, 395, 241, 410, 368
-0.999111, 31, 97, 46, 224
-0.999115, 319, 129, 334, 256
-0.999118, 427, 209, 442, 336
-0.999118, 367, 145, 382, 272
-0.999121, 119, 193, 134, 320
-0.999123, 349, 81, 380, 208
-0.999134, 55, 161, 70, 288
-0.999135, 421, 209, 436, 336
-0.99914, 337, 193, 352, 320
-0.999147, 281, 241, 296, 368
-0.999148, 229, 161, 244, 288
-0.99915, 223, 161, 238, 288
-0.999151, 105, 241, 120, 368
-0.999158, 331, 113, 346, 240
-0.999167, 13, 241, 28, 368
-0.999169, 391, 177, 406, 304
-0.999171, 229, 209, 244, 336
-0.999182, 191, 193, 206, 320
-0.999185, 7, 241, 22, 368
-0.999194, 23, 177, 38, 304
-0.999195, 449, 241, 464, 368
-0.9992, 239, 177, 254, 304
-0.999211, 67, 177, 82, 304
-0.999219, 169, 209, 184, 336
-0.999227, 383, 161, 398, 288
-0.999227, 401, 241, 416, 368
-0.999229, 183, 193, 198, 320
-0.99924, 141, 193, 156, 320
-0.999249, 293, 241, 308, 368
-0.999257, 397, 193, 412, 320
-0.99926, 295, 193, 310, 320
-0.999261, 163, 241, 178, 368
-0.999262, 197, 241, 212, 368
-0.999263, 389, 241, 404, 368
-0.999273, 197, 33, 228, 288
-0.999273, 105, 193, 120, 320
-0.99928, 305, 193, 320, 320
-0.999287, 275, 241, 290, 368
-0.999289, 177, 193, 192, 320
-0.999291, 41, 161, 56, 288
-0.999291, 301, 241, 316, 368
-0.999299, 267, 241, 282, 368
-0.999303, 197, 65, 228, 192
-0.999305, 255, 49, 270, 176
-0.999306, 301, 129, 332, 374
-0.999307, 415, 209, 430, 336
-0.999309, 209, 129, 224, 256
-0.999311, 151, 177, 166, 304
-0.999316, 343, 193, 358, 320
-0.999319, 205, 241, 220, 368
-0.999322, 195, 113, 210, 240
-0.999325, 403, 177, 418, 304
-0.999325, 175, 241, 190, 368
-0.99933, 191, 241, 206, 368
-0.99933, 113, 145, 128, 272
-0.999339, 41, 97, 56, 224
-0.999342, 249, 225, 264, 352
-0.99935, 307, 241, 322, 368
-0.999353, 437, 241, 452, 368
-0.999358, 161, 129, 176, 256
-0.999359, 213, 241, 228, 368
-0.999361, 477, 225, 492, 352
-0.999362, 313, 241, 328, 368
-0.999367, 345, 65, 408, 192
-0.999371, 235, 225, 250, 352
-0.999372, 189, 113, 204, 240
-0.999375, 257, 241, 272, 368
-0.999378, 177, 113, 192, 240
-0.999382, 99, 241, 114, 368
-0.99939, 321, 225, 336, 352
-0.999391, 183, 113, 198, 240
-0.9994, 219, 241, 234, 368
-0.999401, 47, 193, 62, 320
-0.999403, 183, 241, 198, 368
-0.999409, 349, 209, 364, 336
-0.999416, 359, 145, 374, 272
-0.999423, 407, 241, 422, 368
-0.999428, 5, 193, 20, 320
-0.99943, 129, 145, 144, 272
-0.999432, 121, 145, 136, 272
-0.999433, 323, 81, 338, 208
-0.999445, 25, 97, 40, 224
-0.999447, 449, 129, 480, 374
-0.999447, 313, 193, 328, 320
-0.999449, 373, 97, 388, 224
-0.999452, 383, 225, 398, 352
-0.999458, 257, 145, 272, 272
-0.999462, 241, 225, 256, 352
-0.999471, 217, 129, 232, 256
-0.999472, 35, 193, 50, 320
-0.999474, 327, 225, 342, 352
-0.999476, 409, 193, 424, 320
-0.999482, 377, 209, 392, 336
-0.999482, 337, 113, 352, 240
-0.999484, 203, 145, 218, 272
-0.999492, 363, 97, 378, 224
-0.999494, 433, 193, 448, 320
-0.999509, 155, 129, 170, 256
-0.999511, 1, 57, 256, 120
-0.999537, 109, 129, 140, 374
-0.999538, 289, 129, 320, 374
-0.999551, 361, 33, 392, 288
-0.999559, 1, 33, 256, 96
-0.999571, 133, 97, 164, 352
-0.999572, 43, 343, 58, 358
-0.999572, 327, 175, 342, 190
-0.999572, 129, 261, 144, 276
-0.999574, 395, 195, 410, 210
-0.999574, 25, 33, 56, 288
-0.999574, 157, 267, 172, 282
-0.999574, 263, 15, 278, 30
-0.999575, 263, 21, 278, 36
-0.999575, 199, 205, 214, 220
-0.999575, 135, 261, 150, 276
-0.999576, 255, 117, 270, 132
-0.999577, 15, 253, 30, 268
-0.999577, 425, 231, 440, 246
-0.999577, 35, 343, 50, 358
-0.999578, 263, 35, 278, 50
-0.999578, 201, 359, 216, 374
-0.999579, 13, 335, 28, 350
-0.99958, 189, 233, 204, 248
-0.999581, 263, 29, 278, 44
-0.999581, 441, 277, 456, 292
-0.999581, 163, 265, 178, 280
-0.999582, 173, 269, 188, 284
-0.999582, 343, 199, 358, 214
-0.999583, 259, 1, 274, 16
-0.999583, 263, 41, 278, 56
-0.999584, 263, 51, 278, 66
-0.999584, 103, 267, 118, 282
-0.999585, 1, 1, 256, 64
-0.999585, 283, 315, 298, 330
-0.999585, 209, 209, 224, 224
-0.999586, 29, 343, 44, 358
-0.999587, 357, 221, 372, 236
-0.999587, 181, 227, 196, 242
-0.999587, 321, 185, 336, 200
-0.999587, 197, 261, 212, 276
-0.999589, 263, 95, 278, 110
-0.99959, 263, 71, 278, 86
-0.99959, 263, 83, 278, 98
-0.999591, 329, 181, 344, 196
-0.999592, 249, 355, 264, 370
-0.999592, 225, 263, 240, 278
-0.999592, 169, 225, 184, 240
-0.999593, 263, 63, 278, 78
-0.999593, 253, 317, 268, 332
-0.999593, 249, 347, 264, 362
-0.999594, 115, 263, 130, 278
-0.999595, 263, 57, 278, 72
-0.999595, 263, 141, 278, 156
-0.999595, 263, 89, 278, 104
-0.999595, 263, 101, 278, 116
-0.999596, 177, 1, 208, 256
-0.999598, 21, 261, 36, 276
-0.999599, 373, 153, 388, 168
-0.999599, 211, 261, 226, 276
-0.999599, 263, 77, 278, 92
-0.9996, 159, 295, 174, 310
-0.9996, 191, 261, 206, 276
-0.999602, 119, 195, 134, 210
-0.999602, 151, 257, 166, 272
-0.999603, 263, 111, 278, 126
-0.999603, 203, 259, 218, 274
-0.999605, 321, 179, 336, 194
-0.999605, 43, 123, 58, 138
-0.999606, 465, 311, 480, 326
-0.999606, 151, 265, 166, 280
-0.999606, 323, 159, 338, 174
-0.999607, 109, 257, 124, 272
-0.999608, 395, 241, 410, 256
-0.999609, 447, 273, 462, 288
-0.999609, 201, 221, 216, 236
-0.999611, 37, 211, 52, 226
-0.999611, 373, 359, 388, 374
-0.999611, 325, 139, 340, 154
-0.999612, 405, 243, 420, 258
-0.999612, 263, 127, 278, 142
-0.999612, 263, 9, 278, 24
-0.999613, 291, 327, 306, 342
-0.999613, 263, 343, 278, 358
-0.999613, 423, 357, 438, 372
-0.999613, 377, 303, 392, 318
-0.999614, 169, 235, 184, 250
-0.999614, 197, 267, 212, 282
-0.999615, 49, 343, 64, 358
-0.999616, 43, 117, 58, 132
-0.999616, 117, 257, 132, 272
-0.999617, 393, 297, 408, 312
-0.999618, 417, 235, 432, 250
-0.999618, 229, 345, 244, 360
-0.999619, 145, 257, 160, 272
-0.999619, 33, 171, 48, 186
-0.999619, 109, 263, 124, 278
-0.999621, 383, 235, 398, 250
-0.999621, 237, 339, 252, 354
-0.999622, 435, 279, 450, 294
-0.999622, 211, 267, 226, 282
-0.999624, 323, 145, 338, 160
-0.999624, 473, 251, 488, 266
-0.999624, 387, 299, 402, 314
-0.999625, 195, 227, 210, 242
-0.999625, 39, 177, 54, 192
-0.999626, 399, 295, 414, 310
-0.999627, 47, 171, 62, 186
-0.99963, 323, 151, 338, 166
-0.99963, 139, 255, 154, 270
-0.999631, 427, 283, 442, 298
-0.999631, 269, 339, 284, 354
-0.999632, 411, 239, 426, 254
-0.999634, 417, 359, 432, 374
-0.999635, 419, 287, 434, 302
-0.999636, 5, 97, 36, 224
-0.999637, 447, 323, 462, 338
-0.999637, 389, 239, 404, 254
-0.999637, 129, 255, 144, 270
-0.999638, 29, 117, 44, 132
-0.999641, 31, 127, 46, 142
-0.999643, 123, 255, 138, 270
-0.999646, 371, 305, 386, 320
-0.999648, 323, 165, 338, 180
-0.99965, 39, 129, 54, 144
-0.999651, 409, 291, 424, 306
-0.999654, 439, 329, 454, 344
-0.999655, 377, 231, 392, 246
-0.99966, 327, 133, 342, 148
-0.999661, 41, 171, 56, 186
-0.999661, 241, 321, 256, 336
-0.999662, 363, 223, 378, 238
-0.999668, 217, 345, 232, 360
-0.999668, 263, 121, 278, 136
-0.999672, 23, 343, 38, 358
-0.999672, 371, 227, 386, 242
-0.99968, 45, 261, 60, 276
-0.999689, 145, 33, 208, 160
-0.999692, 15, 259, 30, 274
-0.9997, 43, 211, 58, 226
-0.999736, 37, 33, 68, 288
-0.99974, 459, 313, 474, 328
-0.999758, 77, 129, 108, 374
-0.999835, 373, 33, 404, 288
-0.999844, 293, 1, 324, 256
-0.999845, 349, 1, 380, 256
-0.999933, 217, 33, 248, 288
-0.999937, 273, 129, 304, 374
-1.00002, 49, 33, 80, 288
-1.00006, 57, 113, 88, 240
-1.0001, 1, 1, 500, 64
-1.00017, 333, 1, 364, 128
-1.00018, 121, 97, 152, 352
-1.00019, 289, 145, 320, 272
-1.00025, 397, 33, 428, 288
-1.00027, 373, 81, 404, 208
-1.00029, 149, 33, 180, 288
-1.00033, 13, 33, 44, 288
-1.00037, 97, 129, 128, 374
-1.00042, 165, 1, 196, 256
-1.00052, 129, 129, 160, 256
-1.00054, 273, 33, 304, 288
-1.00062, 353, 49, 480, 112
-1.00064, 409, 33, 440, 288
-1.00065, 1, 33, 32, 288
-1.00076, 461, 33, 492, 288
-1.00079, 429, 33, 460, 288
-1.00087, 89, 129, 120, 256
-1.00091, 353, 25, 480, 88
-1.00094, 321, 1, 448, 128
-1.00095, 89, 1, 152, 374
-1.00096, 1, 89, 500, 152
-1.00096, 69, 33, 100, 288
-1.001, 385, 33, 416, 288
-1.00108, 449, 33, 480, 288
-1.00113, 1, 81, 128, 144
-1.00122, 109, 33, 140, 288
-1.00138, 137, 1, 168, 256
-1.00142, 33, 33, 96, 288
-1.00144, 165, 81, 196, 208
-1.0015, 93, 1, 124, 256
-1.00159, 125, 1, 156, 256
-1.00185, 1, 25, 500, 88
-1.002, 273, 65, 304, 192
-1.00211, 73, 129, 104, 256
-1.00212, 81, 1, 112, 256
-1.00219, 1, 49, 500, 112
-1.00219, 417, 33, 480, 288
-1.00221, 393, 33, 456, 288
-1.00223, 433, 97, 496, 224
-1.00224, 1, 33, 128, 160
-1.00238, 273, 17, 304, 144
-1.0024, 9, 49, 40, 176
-1.00248, 37, 49, 68, 176
-1.00256, 449, 145, 480, 272
-1.0026, 1, 41, 128, 104
-1.00263, 1, 1, 128, 64
-1.00263, 469, 113, 500, 240
-1.00288, 453, 97, 484, 224
-1.00291, 49, 1, 176, 64
-1.00291, 49, 25, 176, 88
-1.00291, 49, 49, 176, 112
-1.00301, 109, 97, 140, 224
-1.00304, 1, 145, 32, 272
-1.0033, 65, 33, 128, 288
-1.00331, 49, 73, 176, 136
-1.00364, 121, 1, 184, 256
-1.00403, 9, 65, 72, 192
-1.00415, 393, 81, 456, 208
-1.00516, 337, 1, 400, 128
-1.00586, 169, 33, 232, 160
-1.00662, 41, 33, 104, 160
-1.00675, 369, 17, 432, 144
-1.00691, 433, 49, 496, 176
-1.00724, 97, 81, 160, 208
-1.00749, 409, 33, 472, 160
-1.00779, 97, 1, 160, 256
-1.00881, 369, 1, 496, 128
-1.00917, 1, 17, 64, 144
-1.01178, 49, 1, 176, 128
-1.01243, 49, 49, 176, 176
-1.01372, 121, 33, 184, 160
-1.01478, 65, 33, 128, 160
-1.01478, 89, 33, 152, 160
-1.01516, 433, 1, 496, 128
-1.01621, 65, 81, 128, 208
