1971
-0.292025, 1, 129, 375, 384
-0.312157, 1, 225, 375, 480
-0.437658, 1, 1, 375, 500
-0.468335, 1, 1, 375, 256
-0.474485, 129, 161, 375, 416
-0.483756, 97, 1, 352, 500
-0.504663, 1, 1, 256, 500
-0.530402, 33, 225, 288, 480
-0.547601, 33, 129, 288, 384
-0.606112, 129, 257, 375, 500
-0.645312, 33, 1, 288, 256
-0.763424, 129, 1, 375, 256
-0.82244, 65, 257, 192, 500
-0.828479, 113, 225, 240, 480
-0.83132, 113, 129, 240, 384
-0.832678, 209, 161, 336, 416
-0.849666, 161, 161, 288, 416
-0.854071, 97, 1, 224, 500
-0.85566, 49, 65, 176, 320
-0.858409, 113, 1, 240, 256
-0.859717, 1, 177, 375, 304
-0.864072, 1, 273, 375, 400
-0.865431, 1, 1, 128, 256
-0.869321, 33, 1, 160, 500
-0.870354, 161, 257, 288, 500
-0.872528, 209, 257, 336, 500
-0.877593, 193, 65, 320, 320
-0.878532, 17, 257, 144, 500
-0.879558, 1, 353, 375, 480
-0.881266, 1, 225, 375, 352
-0.883965, 1, 129, 375, 256
-0.884466, 129, 193, 375, 320
-0.890606, 65, 161, 192, 416
-0.891603, 1, 161, 128, 416
-0.893099, 209, 1, 336, 500
-0.898668, 1, 1, 375, 128
-0.898742, 145, 1, 272, 500
-0.900421, 65, 369, 320, 496
-0.902045, 33, 273, 288, 400
-0.906927, 33, 225, 288, 352
-0.907706, 33, 321, 288, 448
-0.913656, 1, 49, 375, 176
-0.915272, 137, 209, 200, 336
-0.917385, 161, 177, 224, 304
-0.919075, 33, 129, 288, 256
-0.919189, 129, 241, 375, 368
-0.919701, 89, 305, 152, 432
-0.921126, 241, 65, 368, 320
-0.921696, 97, 241, 224, 368
-0.922643, 97, 257, 160, 384
-0.923378, 129, 129, 256, 256
-0.924803, 33, 177, 288, 304
-0.926653, 193, 337, 320, 464
-0.9268, 153, 129, 216, 256
-0.927019, 201, 337, 264, 464
-0.927507, 169, 289, 232, 416
-0.92771, 185, 145, 248, 272
-0.927936, 129, 305, 375, 432
-0.928086, 81, 193, 208, 320
-0.929313, 49, 17, 176, 144
-0.929777, 193, 177, 320, 304
-0.932067, 113, 209, 176, 336
-0.932242, 241, 337, 304, 464
-0.932891, 65, 305, 128, 432
-0.933599, 129, 193, 256, 320
-0.933608, 129, 145, 375, 272
-0.933798, 241, 321, 368, 448
-0.934935, 1, 81, 256, 208
-0.935154, 81, 353, 144, 480
-0.935975, 65, 289, 192, 416
-0.936035, 97, 1, 352, 128
-0.936418, 145, 337, 272, 464
-0.936486, 201, 225, 264, 352
-0.936864, 17, 241, 144, 368
-0.937368, 65, 337, 192, 464
-0.937461, 169, 225, 232, 352
-0.937736, 113, 1, 176, 128
-0.937743, 185, 193, 248, 256
-0.940276, 73, 257, 136, 384
-0.940521, 57, 353, 120, 480
-0.940585, 81, 353, 144, 416
-0.941, 65, 97, 192, 224
-0.9416, 113, 1, 240, 128
-0.941657, 153, 217, 216, 280
-0.942135, 129, 257, 192, 384
-0.942226, 81, 209, 144, 336
-0.942823, 265, 201, 328, 264
-0.942909, 1, 17, 256, 144
-0.943355, 1, 17, 128, 144
-0.944186, 225, 289, 288, 416
-0.94432, 105, 241, 168, 304
-0.944321, 105, 369, 168, 496
-0.944424, 193, 289, 256, 416
-0.944834, 313, 225, 375, 352
-0.944925, 129, 129, 192, 256
-0.945024, 241, 193, 304, 256
-0.94518, 169, 337, 232, 464
-0.945478, 177, 225, 304, 352
-0.945522, 137, 249, 200, 312
-0.945606, 65, 17, 128, 144
-0.945793, 313, 353, 375, 480
-0.94594, 89, 1, 152, 128
-0.94598, 241, 209, 368, 336
-0.946073, 209, 217, 272, 280
-0.946206, 121, 65, 184, 192
-0.946348, 113, 289, 240, 416
-0.946891, 145, 129, 208, 192
-0.947158, 177, 97, 240, 224
-0.947259, 177, 169, 240, 232
-0.947401, 177, 225, 240, 288
-0.947543, 41, 1, 104, 128
-0.947669, 105, 129, 168, 256
-0.947793, 113, 81, 240, 208
-0.947801, 89, 409, 152, 472
-0.948601, 137, 377, 200, 440
-0.948639, 201, 289, 264, 352
-0.948642, 145, 81, 208, 208
-0.948708, 17, 305, 144, 432
-0.948744, 217, 177, 280, 304
-0.948755, 81, 145, 208, 272
-0.949111, 89, 385, 152, 448
-0.949362, 9, 1, 72, 128
-0.949592, 201, 345, 264, 408
-0.949593, 129, 225, 192, 288
-0.949766, 193, 289, 320, 416
-0.949878, 225, 329, 288, 392
-0.949976, 153, 193, 216, 256
-0.950076, 217, 193, 280, 256
-0.95046, 305, 225, 368, 288
-0.951054, 281, 321, 344, 448
-0.951709, 145, 337, 208, 464
-0.952189, 129, 97, 375, 224
-0.952292, 257, 177, 320, 304
-0.952513, 89, 265, 152, 328
-0.952685, 177, 121, 240, 184
-0.952869, 113, 1, 176, 64
-0.953084, 121, 113, 184, 176
-0.953106, 177, 129, 304, 256
-0.953338, 113, 265, 176, 328
-0.953373, 1, 81, 128, 208
-0.953379, 89, 49, 152, 176
-0.953932, 41, 65, 104, 192
-0.954006, 89, 329, 152, 392
-0.954186, 177, 369, 240, 432
-0.954262, 113, 369, 176, 432
-0.954334, 185, 249, 248, 312
-0.954542, 241, 369, 368, 496
-0.9546, 257, 233, 320, 296
-0.954645, 177, 145, 240, 208
-0.955112, 153, 161, 216, 224
-0.955165, 129, 161, 192, 224
-0.955452, 225, 305, 288, 368
-0.955817, 289, 209, 352, 336
-0.956133, 65, 393, 128, 456
-0.956176, 217, 265, 280, 328
-0.956256, 57, 209, 120, 336
-0.956448, 105, 193, 168, 256
-0.956496, 97, 113, 160, 176
-0.956552, 153, 1, 216, 128
-0.95676, 145, 129, 208, 384
-0.956801, 89, 305, 152, 368
-0.956854, 89, 41, 152, 104
-0.957099, 105, 433, 168, 496
-0.957182, 129, 49, 375, 176
-0.957289, 65, 217, 128, 280
-0.957365, 105, 257, 168, 500
-0.957431, 209, 129, 272, 256
-0.957602, 113, 305, 176, 432
-0.957617, 49, 241, 112, 304
-0.957737, 233, 225, 296, 288
-0.957746, 17, 369, 144, 496
-0.957846, 241, 361, 304, 424
-0.958143, 177, 297, 240, 360
-0.958158, 217, 369, 280, 432
-0.958212, 201, 225, 264, 480
-0.958322, 81, 433, 144, 496
-0.958539, 81, 17, 144, 80
-0.958591, 185, 97, 248, 352
-0.958695, 177, 321, 240, 384
-0.958823, 33, 161, 160, 288
-0.959054, 113, 409, 176, 472
-0.95919, 281, 369, 344, 496
-0.959299, 241, 257, 368, 384
-0.959392, 57, 369, 120, 432
-0.959409, 25, 257, 88, 384
-0.95973, 129, 193, 192, 256
-0.959778, 153, 353, 216, 416
-0.959882, 113, 89, 176, 152
-0.960131, 185, 393, 248, 456
-0.960229, 249, 329, 312, 392
-0.960235, 241, 225, 304, 352
-0.960767, 89, 89, 152, 152
-0.960782, 121, 57, 184, 120
-0.961001, 145, 225, 208, 480
-0.961145, 65, 321, 128, 384
-0.961442, 313, 249, 375, 312
-0.961531, 145, 193, 176, 320
-0.961725, 281, 225, 344, 288
-0.962364, 213, 193, 244, 256
-0.963198, 145, 217, 176, 280
-0.963243, 221, 329, 252, 392
-0.963327, 121, 345, 184, 408
-0.963451, 137, 273, 200, 336
-0.963459, 209, 201, 336, 264
-0.963546, 201, 321, 264, 384
-0.963726, 125, 233, 156, 296
-0.963735, 169, 273, 232, 336
-0.963747, 257, 225, 320, 480
-0.963791, 57, 49, 120, 112
-0.963917, 141, 241, 172, 304
-0.96393, 197, 145, 228, 272
-0.963965, 145, 193, 272, 256
-0.963978, 121, 161, 184, 416
-0.964131, 1, 289, 64, 416
-0.96421, 193, 193, 224, 320
-0.964327, 81, 97, 144, 224
-0.964556, 113, 225, 240, 288
-0.964618, 9, 81, 72, 208
-0.964848, 257, 297, 320, 360
-0.964954, 281, 329, 344, 392
-0.965021, 129, 225, 160, 352
-0.965186, 33, 81, 96, 144
-0.965219, 161, 249, 224, 312
-0.965251, 265, 401, 328, 464
-0.965316, 93, 337, 124, 464
-0.965322, 169, 217, 200, 280
-0.965372, 49, 129, 112, 256
-0.965388, 201, 161, 264, 224
-0.965484, 177, 345, 240, 408
-0.965576, 165, 177, 196, 304
-0.965599, 225, 161, 288, 416
-0.96579, 177, 161, 208, 288
-0.96579, 193, 353, 320, 416
-0.96592, 229, 321, 260, 448
-0.965933, 81, 257, 144, 500
-0.965999, 109, 305, 140, 432
-0.966079, 169, 193, 232, 448
-0.966082, 57, 17, 120, 80
-0.966162, 57, 417, 120, 480
-0.966192, 113, 249, 240, 312
-0.966226, 65, 369, 192, 432
-0.966261, 241, 257, 304, 320
-0.966271, 245, 201, 276, 264
-0.966344, 181, 201, 212, 264
-0.966419, 113, 169, 240, 232
-0.966461, 181, 225, 212, 352
-0.966465, 209, 305, 240, 432
-0.966472, 73, 113, 136, 176
-0.966651, 113, 289, 176, 352
-0.96684, 281, 353, 344, 416
-0.966953, 277, 193, 308, 256
-0.967005, 209, 241, 272, 304
-0.967061, 305, 289, 368, 416
-0.967119, 225, 353, 256, 416
-0.967299, 105, 217, 168, 280
-0.967305, 145, 105, 208, 168
-0.967342, 113, 241, 144, 304
-0.967532, 25, 1, 88, 64
-0.967578, 201, 201, 232, 264
-0.967673, 65, 297, 128, 360
-0.967744, 185, 177, 216, 240
-0.967856, 49, 257, 112, 384
-0.967867, 257, 193, 288, 256
-0.968051, 201, 137, 264, 200
-0.968052, 265, 225, 328, 352
-0.968078, 41, 305, 104, 432
-0.968107, 137, 1, 200, 64
-0.968268, 225, 257, 288, 500
-0.968288, 97, 201, 224, 264
-0.968292, 49, 225, 176, 288
-0.968343, 49, 49, 176, 112
-0.968344, 297, 201, 360, 264
-0.968388, 17, 129, 80, 256
-0.968405, 281, 161, 344, 288
-0.968473, 89, 353, 120, 416
-0.968509, 229, 201, 260, 264
-0.968648, 289, 193, 320, 256
-0.968667, 161, 241, 192, 304
-0.968715, 65, 273, 128, 336
-0.968927, 297, 417, 360, 480
-0.968975, 97, 265, 128, 328
-0.969053, 161, 393, 224, 456
-0.96923, 133, 1, 164, 128
-0.969422, 113, 257, 144, 384
-0.969596, 113, 369, 240, 432
-0.969638, 165, 129, 196, 256
-0.969662, 313, 225, 344, 288
-0.969689, 57, 345, 120, 408
-0.969825, 113, 313, 176, 376
-0.969857, 57, 81, 120, 144
-0.969938, 181, 129, 212, 192
-0.96998, 97, 273, 224, 336
-0.970074, 209, 353, 240, 416
-0.970137, 165, 193, 196, 256
-0.970169, 113, 137, 240, 200
-0.970177, 105, 345, 136, 408
-0.970202, 101, 257, 132, 384
-0.970303, 241, 161, 368, 288
-0.97033, 117, 265, 148, 328
-0.970351, 93, 329, 124, 392
-0.970462, 241, 225, 368, 288
-0.970557, 129, 49, 160, 176
-0.970564, 161, 217, 288, 280
-0.970587, 185, 113, 216, 240
-0.970735, 177, 1, 240, 128
-0.970737, 133, 265, 164, 328
-0.970737, 109, 385, 140, 448
-0.97075, 281, 377, 344, 440
-0.970865, 121, 369, 152, 432
-0.970903, 193, 289, 224, 416
-0.970934, 41, 113, 104, 176
-0.970944, 89, 1, 152, 256
-0.970967, 213, 161, 244, 288
-0.97099, 141, 145, 172, 272
-0.971059, 205, 241, 236, 368
-0.971113, 185, 153, 216, 216
-0.971118, 129, 49, 160, 112
-0.971142, 145, 345, 272, 408
-0.971196, 181, 233, 212, 296
-0.97133, 333, 233, 364, 296
-0.971354, 97, 97, 160, 352
-0.971431, 65, 393, 192, 456
-0.971507, 121, 1, 152, 128
-0.97157, 209, 393, 272, 456
-0.971605, 225, 169, 288, 232
-0.971624, 265, 217, 296, 280
-0.971643, 113, 33, 176, 96
-0.971754, 165, 225, 196, 352
-0.971755, 165, 369, 196, 432
-0.971793, 197, 337, 228, 464
-0.971903, 165, 145, 196, 208
-0.971951, 265, 177, 328, 240
-0.971958, 105, 169, 168, 232
-0.972039, 193, 177, 320, 240
-0.972119, 309, 209, 340, 336
-0.972193, 97, 65, 160, 128
-0.972244, 185, 369, 216, 432
-0.9724, 257, 273, 320, 400
-0.972434, 205, 129, 236, 192
-0.972455, 177, 273, 208, 336
-0.972491, 233, 329, 264, 392
-0.972544, 1, 1, 64, 256
-0.972606, 113, 33, 144, 96
-0.972671, 57, 1, 120, 256
-0.972754, 249, 321, 280, 448
-0.972875, 245, 345, 276, 408
-0.972991, 113, 369, 144, 496
-0.973016, 137, 1, 200, 256
-0.973084, 93, 393, 124, 456
-0.973096, 129, 433, 192, 496
-0.973171, 101, 1, 132, 128
-0.973205, 281, 161, 344, 416
-0.973208, 153, 97, 184, 224
-0.97323, 89, 289, 120, 416
-0.973255, 9, 81, 72, 144
-0.973271, 65, 1, 192, 64
-0.973338, 25, 57, 88, 120
-0.973399, 153, 145, 184, 272
-0.973486, 101, 289, 132, 352
-0.97352, 41, 393, 104, 456
-0.973525, 209, 313, 240, 376
-0.97354, 145, 49, 176, 176
-0.973652, 229, 177, 260, 240
-0.973701, 149, 369, 180, 432
-0.973707, 1, 209, 64, 336
-0.973724, 305, 257, 368, 500
-0.973728, 33, 265, 160, 328
-0.973838, 69, 17, 100, 144
-0.973874, 181, 273, 212, 400
-0.973878, 133, 369, 164, 432
-0.973888, 125, 1, 156, 64
-0.973937, 157, 217, 188, 280
-0.973959, 137, 409, 200, 472
-0.97401, 153, 113, 184, 176
-0.974071, 297, 217, 328, 280
-0.974168, 209, 113, 240, 240
-0.974284, 313, 289, 375, 352
-0.974285, 49, 1, 80, 128
-0.974287, 1, 185, 64, 248
-0.974294, 9, 289, 72, 352
-0.9743, 197, 225, 228, 288
-0.974389, 337, 225, 368, 352
-0.974394, 137, 25, 168, 88
-0.974477, 81, 297, 208, 360
-0.974479, 93, 17, 124, 80
-0.974548, 217, 257, 248, 384
-0.974554, 129, 337, 160, 464
-0.974557, 129, 289, 160, 416
-0.974592, 257, 129, 320, 384
-0.974698, 41, 193, 104, 256
-0.974698, 129, 177, 160, 304
-0.974723, 189, 281, 220, 344
-0.974728, 345, 241, 375, 304
-0.974728, 105, 417, 136, 480
-0.97475, 113, 9, 144, 72
-0.974894, 305, 145, 368, 272
-0.974912, 89, 145, 152, 208
-0.974945, 117, 305, 148, 368
-0.974962, 33, 265, 96, 328
-0.974976, 97, 425, 224, 488
-0.975029, 217, 81, 280, 208
-0.975031, 81, 193, 144, 256
-0.975032, 193, 129, 224, 192
-0.975176, 197, 177, 228, 240
-0.975199, 213, 353, 244, 480
-0.975207, 113, 209, 144, 336
-0.975211, 49, 73, 176, 136
-0.975396, 121, 137, 184, 200
-0.975527, 81, 113, 208, 176
-0.975554, 181, 337, 212, 464
-0.975626, 153, 297, 216, 360
-0.975642, 29, 1, 60, 128
-0.975708, 73, 161, 136, 288
-0.975745, 133, 113, 164, 176
-0.975745, 245, 257, 276, 384
-0.97576, 81, 289, 112, 352
-0.975853, 17, 1, 144, 64
-0.975883, 289, 249, 352, 312
-0.975911, 237, 377, 268, 440
-0.975939, 193, 305, 224, 368
-0.976089, 217, 217, 248, 280
-0.9761, 25, 209, 88, 336
-0.976135, 161, 377, 288, 440
-0.976217, 145, 321, 272, 384
-0.976251, 57, 225, 120, 480
-0.976317, 197, 353, 228, 416
-0.976378, 161, 81, 288, 208
-0.976395, 17, 289, 144, 352
-0.976406, 245, 177, 276, 240
-0.976442, 217, 65, 280, 320
-0.976446, 65, 337, 192, 400
-0.97652, 81, 17, 112, 80
-0.976533, 145, 337, 176, 464
-0.976542, 193, 241, 224, 368
-0.976617, 137, 81, 200, 144
-0.976662, 133, 97, 164, 224
-0.976672, 49, 201, 176, 264
-0.976693, 177, 417, 240, 480
-0.976712, 205, 153, 236, 216
-0.976727, 169, 345, 200, 408
-0.976798, 209, 377, 240, 440
-0.976837, 177, 1, 240, 256
-0.976985, 117, 49, 148, 176
-0.977105, 209, 385, 336, 448
-0.977213, 33, 1, 96, 256
-0.977239, 329, 337, 360, 464
-0.977285, 1, 337, 64, 464
-0.977452, 33, 25, 160, 88
-0.977467, 33, 353, 96, 480
-0.977593, 17, 361, 144, 424
-0.977625, 233, 241, 264, 368
-0.977645, 193, 305, 320, 368
-0.977667, 133, 177, 164, 240
-0.977767, 141, 1, 172, 64
-0.977859, 17, 393, 144, 456
-0.977866, 265, 337, 296, 464
-0.977951, 1, 257, 64, 320
-0.977967, 165, 337, 196, 464
-0.977979, 313, 353, 375, 416
-0.978026, 289, 177, 320, 304
-0.978043, 289, 297, 352, 360
-0.978115, 141, 145, 172, 208
-0.978161, 113, 1, 176, 256
-0.978209, 93, 193, 124, 320
-0.978231, 129, 289, 160, 352
-0.978269, 73, 129, 136, 384
-0.97831, 325, 209, 356, 336
-0.978356, 205, 289, 236, 352
-0.978409, 113, 1, 240, 64
-0.97842, 165, 81, 196, 208
-0.978422, 161, 153, 288, 216
-0.978451, 305, 377, 368, 440
-0.978498, 233, 369, 264, 496
-0.978592, 145, 265, 176, 328
-0.978606, 209, 329, 336, 392
-0.978629, 117, 73, 148, 136
-0.978633, 193, 329, 224, 392
-0.97866, 133, 73, 164, 136
-0.978661, 57, 73, 88, 136
-0.978661, 73, 313, 104, 376
-0.978681, 185, 1, 248, 64
-0.978738, 49, 1, 80, 64
-0.97874, 121, 97, 152, 224
-0.97877, 121, 409, 152, 472
-0.978798, 161, 241, 288, 304
-0.978839, 1, 17, 64, 80
-0.978866, 273, 353, 304, 416
-0.978979, 1, 81, 128, 144
-0.978987, 281, 217, 312, 280
-0.979083, 117, 105, 148, 168
-0.979088, 285, 393, 316, 456
-0.979105, 189, 257, 220, 320
-0.979148, 117, 433, 148, 496
-0.979257, 197, 97, 228, 224
-0.9793, 89, 17, 120, 144
-0.979356, 169, 121, 200, 184
-0.979376, 1, 305, 32, 432
-0.979377, 1, 289, 32, 352
-0.979398, 257, 337, 288, 400
-0.979411, 45, 73, 76, 136
-0.979478, 285, 321, 316, 384
-0.979541, 149, 345, 180, 408
-0.979543, 137, 25, 200, 88
-0.979583, 13, 289, 44, 352
-0.979624, 305, 337, 336, 400
-0.97963, 1, 337, 128, 400
-0.97969, 341, 337, 372, 464
-0.979786, 65, 177, 192, 240
-0.979817, 73, 393, 104, 456
-0.979874, 161, 17, 224, 80
-0.979876, 265, 273, 328, 336
-0.979882, 1, 145, 64, 208
-0.979885, 69, 49, 100, 112
-0.980013, 149, 1, 180, 128
-0.980079, 145, 193, 176, 256
-0.980083, 249, 225, 280, 288
-0.980113, 209, 81, 336, 208
-0.980188, 1, 417, 128, 480
-0.980195, 161, 129, 288, 192
-0.980315, 161, 1, 288, 128
-0.980357, 141, 257, 172, 384
-0.980374, 173, 169, 204, 232
-0.980442, 33, 113, 160, 176
-0.980486, 73, 369, 104, 496
-0.980494, 133, 209, 164, 272
-0.980497, 197, 385, 228, 448
-0.980518, 77, 417, 108, 480
-0.980529, 65, 9, 96, 72
-0.980616, 233, 305, 264, 368
-0.980619, 93, 425, 124, 488
-0.980626, 161, 169, 192, 232
-0.980633, 289, 353, 320, 416
-0.980679, 141, 49, 172, 112
-0.980716, 245, 321, 276, 384
-0.980828, 309, 385, 340, 448
-0.980857, 281, 273, 344, 400
-0.980875, 241, 353, 368, 416
-0.980933, 1, 241, 128, 304
-0.980963, 333, 257, 364, 320
-0.980975, 53, 49, 84, 112
-0.980978, 221, 305, 252, 368
-0.981193, 285, 337, 316, 464
-0.98132, 345, 265, 375, 328
-0.981372, 257, 129, 320, 256
-0.98143, 221, 393, 252, 456
-0.981472, 137, 345, 168, 408
-0.981485, 73, 369, 104, 432
-0.981605, 161, 401, 288, 464
-0.981639, 265, 273, 296, 400
-0.98164, 113, 393, 240, 456
-0.981734, 153, 1, 184, 64
-0.981734, 229, 225, 260, 288
-0.981789, 245, 193, 276, 320
-0.981802, 289, 225, 320, 352
-0.981805, 113, 89, 240, 152
-0.981858, 81, 217, 112, 280
-0.981862, 229, 177, 260, 304
-0.981921, 1, 57, 128, 120
-0.98209, 281, 257, 344, 500
-0.98214, 73, 289, 104, 416
-0.98215, 81, 209, 112, 336
-0.982173, 97, 1, 160, 500
-0.982394, 257, 177, 288, 304
-0.982491, 105, 321, 136, 384
-0.982513, 65, 137, 192, 200
-0.982544, 45, 257, 76, 320
-0.982598, 1, 337, 32, 400
-0.982611, 309, 201, 340, 264
-0.982634, 17, 313, 144, 376
-0.982694, 1, 185, 128, 248
-0.982727, 61, 225, 92, 352
-0.982755, 241, 249, 368, 312
-0.982778, 153, 257, 184, 384
-0.982815, 57, 1, 120, 500
-0.982876, 1, 1, 32, 128
-0.983048, 129, 297, 256, 360
-0.983123, 257, 1, 320, 256
-0.983352, 217, 209, 248, 336
-0.983569, 13, 1, 44, 128
-0.983634, 113, 25, 240, 88
-0.983639, 309, 321, 340, 448
-0.983729, 269, 177, 300, 304
-0.983808, 49, 49, 80, 176
-0.983835, 241, 409, 368, 472
-0.983847, 313, 129, 375, 384
-0.984043, 177, 281, 304, 344
-0.984043, 49, 433, 176, 496
-0.984082, 81, 97, 112, 224
-0.984118, 177, 49, 240, 176
-0.984178, 49, 241, 80, 368
-0.984181, 1, 97, 32, 224
-0.984259, 137, 1, 200, 500
-0.984351, 69, 81, 100, 208
-0.984353, 233, 129, 296, 256
-0.984374, 325, 273, 356, 400
-0.98472, 113, 57, 240, 120
-0.984738, 281, 1, 344, 128
-0.984785, 101, 49, 132, 176
-0.98486, 33, 1, 96, 500
-0.985381, 1, 129, 64, 384
-0.985412, 17, 145, 144, 208
-0.985424, 241, 305, 368, 368
-0.985479, 245, 369, 276, 496
-0.985488, 17, 257, 80, 500
-0.985498, 117, 161, 148, 288
-0.98556, 225, 1, 352, 128
-0.985564, 221, 113, 252, 240
-0.985617, 189, 1, 220, 128
-0.985672, 265, 225, 296, 352
-0.98571, 33, 97, 96, 352
-0.985842, 277, 225, 308, 352
-0.986039, 301, 369, 332, 496
-0.986097, 169, 273, 200, 400
-0.98633, 73, 161, 104, 288
-0.986413, 305, 161, 336, 288
-0.986433, 37, 257, 68, 384
-0.986469, 25, 241, 56, 368
-0.986654, 297, 305, 328, 432
-0.986982, 1, 145, 32, 272
-0.987011, 285, 289, 316, 416
-0.987345, 345, 273, 375, 400
-0.987433, 121, 233, 184, 264
-0.98745, 37, 209, 68, 336
-0.987464, 169, 229, 232, 260
-0.987535, 309, 257, 340, 384
-0.987537, 217, 1, 280, 500
-0.987615, 105, 257, 168, 288
-0.987632, 121, 245, 184, 276
-0.987676, 13, 81, 44, 208
-0.98768, 217, 17, 280, 144
-0.987745, 145, 229, 208, 260
-0.987791, 37, 49, 68, 176
-0.987808, 153, 249, 216, 280
-0.987815, 61, 369, 92, 496
-0.987868, 209, 361, 272, 392
-0.987958, 129, 225, 375, 288
-0.987979, 209, 201, 272, 232
-0.988006, 177, 1, 304, 64
-0.988066, 97, 269, 160, 300
-0.988144, 313, 369, 344, 496
-0.988222, 97, 377, 352, 440
-0.988293, 81, 45, 144, 76
-0.98833, 177, 133, 240, 164
-0.98834, 185, 65, 216, 192
-0.988385, 177, 185, 240, 216
-0.9884, 97, 193, 352, 256
-0.988423, 137, 261, 200, 292
-0.988452, 81, 377, 144, 408
-0.98848, 153, 189, 216, 220
-0.988496, 225, 189, 288, 220
-0.988501, 81, 357, 144, 388
-0.988515, 169, 33, 200, 160
-0.988521, 153, 217, 216, 248
-0.988541, 209, 217, 272, 248
-0.988557, 45, 161, 76, 288
-0.988625, 233, 349, 296, 380
-0.988651, 249, 193, 312, 224
-0.988675, 89, 457, 152, 488
-0.988695, 97, 289, 160, 320
-0.988728, 73, 309, 136, 340
-0.988756, 265, 205, 328, 236
-0.98876, 177, 105, 304, 168
-0.988783, 201, 237, 264, 268
-0.988821, 1, 257, 32, 384
-0.98891, 241, 177, 368, 240
-0.988937, 89, 325, 152, 356
-0.988938, 121, 277, 184, 308
-0.98894, 257, 237, 320, 268
-0.988964, 153, 169, 216, 200
-0.989003, 89, 401, 152, 432
-0.989007, 177, 153, 240, 184
-0.989058, 145, 273, 208, 304
-0.989072, 241, 365, 304, 396
-0.989098, 177, 205, 240, 236
-0.989103, 81, 345, 144, 376
-0.989107, 313, 1, 375, 128
-0.98911, 97, 265, 352, 328
-0.989127, 217, 329, 280, 360
-0.989143, 177, 1, 240, 500
-0.989159, 97, 469, 160, 500
-0.989175, 241, 205, 304, 236
-0.989191, 177, 361, 240, 392
-0.989194, 97, 337, 352, 400
-0.9892, 233, 217, 296, 248
-0.989216, 97, 309, 160, 340
-0.989224, 289, 357, 352, 388
-0.989228, 65, 329, 128, 360
-0.989256, 193, 349, 256, 380
-0.989257, 1, 217, 128, 280
-0.989269, 193, 373, 256, 404
-0.989293, 313, 237, 375, 268
-0.989311, 81, 437, 144, 468
-0.989339, 73, 297, 136, 328
-0.989344, 273, 1, 336, 500
-0.989353, 201, 289, 264, 320
-0.989368, 113, 9, 176, 40
-0.989371, 121, 109, 184, 140
-0.989377, 185, 217, 248, 248
-0.989386, 129, 177, 192, 208
-0.989387, 185, 173, 248, 204
-0.989391, 65, 413, 128, 444
-0.989463, 105, 189, 168, 220
-0.989472, 153, 373, 216, 404
-0.989531, 17, 129, 48, 256
-0.989536, 273, 337, 336, 368
-0.989548, 177, 261, 240, 292
-0.98955, 105, 369, 168, 400
-0.98955, 137, 121, 200, 152
-0.989561, 177, 241, 240, 272
-0.989568, 145, 201, 208, 232
-0.989573, 153, 133, 216, 164
-0.989612, 61, 161, 92, 288
-0.989632, 177, 277, 240, 308
-0.989655, 281, 65, 344, 320
-0.98975, 57, 349, 120, 380
-0.989759, 169, 293, 232, 324
-0.989761, 57, 397, 120, 428
-0.989764, 325, 161, 356, 288
-0.989774, 97, 245, 160, 276
-0.989774, 145, 361, 208, 392
-0.989779, 113, 121, 176, 152
-0.989802, 257, 217, 320, 248
-0.989824, 49, 61, 112, 92
-0.989844, 217, 373, 280, 404
-0.989859, 33, 81, 96, 112
-0.989864, 289, 225, 352, 256
-0.989868, 209, 129, 336, 192
-0.989872, 145, 1, 208, 32
-0.989881, 57, 361, 120, 392
-0.989882, 265, 361, 328, 392
-0.989884, 185, 321, 248, 352
-0.989887, 217, 249, 280, 280
-0.989897, 145, 425, 272, 488
-0.989903, 65, 425, 128, 456
-0.989908, 33, 289, 288, 352
-0.989912, 129, 133, 192, 164
-0.98992, 33, 225, 288, 288
-0.989932, 113, 69, 176, 100
-0.989939, 105, 357, 168, 388
-0.989983, 113, 457, 176, 488
-0.990012, 145, 149, 208, 180
-0.990021, 105, 437, 168, 468
-0.990023, 89, 89, 152, 120
-0.990063, 33, 1, 96, 32
-0.990083, 57, 381, 120, 412
-0.990106, 13, 289, 44, 416
-0.990137, 297, 405, 360, 436
-0.990161, 73, 225, 136, 256
-0.990186, 113, 201, 176, 232
-0.990195, 209, 413, 272, 444
-0.990195, 209, 317, 272, 348
-0.990203, 177, 309, 240, 340
-0.990212, 129, 217, 192, 248
-0.990217, 89, 213, 152, 244
-0.990217, 89, 421, 152, 452
-0.990222, 121, 305, 184, 336
-0.990252, 265, 409, 328, 440
-0.990256, 137, 289, 200, 320
-0.990266, 113, 45, 176, 76
-0.990267, 121, 57, 184, 88
-0.990275, 33, 401, 288, 464
-0.99028, 57, 245, 120, 276
-0.990303, 257, 349, 320, 380
-0.990309, 81, 57, 144, 88
-0.990318, 89, 105, 152, 136
-0.990339, 241, 257, 304, 288
-0.990358, 25, 81, 56, 208
-0.990401, 193, 433, 320, 496
-0.990412, 201, 305, 264, 336
-0.990427, 89, 389, 152, 420
-0.990447, 313, 257, 375, 288
-0.990464, 129, 377, 192, 408
-0.990496, 281, 393, 344, 424
-0.990498, 201, 277, 264, 308
-0.990515, 33, 313, 288, 376
-0.990537, 185, 337, 248, 368
-0.99054, 129, 189, 192, 220
-0.990549, 217, 265, 280, 296
-0.990549, 241, 337, 304, 368
-0.990571, 313, 357, 375, 388
-0.990584, 201, 189, 264, 220
-0.990629, 225, 277, 288, 308
-0.990646, 33, 13, 96, 44
-0.990655, 1, 297, 375, 360
-0.990656, 105, 345, 168, 376
-0.990657, 241, 321, 304, 352
-0.990659, 49, 49, 112, 80
-0.990664, 153, 413, 216, 444
-0.990675, 257, 1, 320, 128
-0.990676, 1, 121, 256, 184
-0.990678, 1, 217, 375, 280
-0.990679, 185, 405, 248, 436
-0.990904, 1, 369, 375, 432
-0.990928, 93, 97, 124, 224
-0.990944, 313, 1, 375, 256
-0.990948, 1, 1, 64, 500
-0.990978, 109, 97, 140, 224
-0.990997, 241, 1, 304, 500
-0.991001, 257, 129, 288, 256
-0.991102, 1, 185, 256, 248
-0.991113, 1, 265, 256, 328
-0.991115, 37, 97, 68, 224
-0.991121, 1, 353, 32, 480
-0.991207, 237, 129, 268, 256
-0.991211, 57, 97, 88, 224
-0.991323, 1, 369, 256, 432
-0.991372, 1, 185, 375, 248
-0.99139, 17, 193, 48, 320
-0.991409, 5, 209, 36, 336
-0.991469, 241, 281, 368, 344
-0.991535, 337, 177, 368, 304
-0.991639, 241, 433, 368, 496
-0.991776, 145, 229, 176, 260
-0.991817, 1, 345, 375, 408
-0.991875, 233, 201, 264, 232
-0.991907, 133, 237, 164, 268
-0.991958, 97, 425, 352, 488
-0.991958, 225, 193, 240, 256
-0.991968, 185, 181, 216, 212
-0.99202, 125, 105, 156, 136
-0.992062, 133, 57, 164, 88
-0.992063, 225, 349, 256, 380
-0.992071, 169, 233, 200, 264
-0.992078, 265, 201, 296, 232
-0.992088, 105, 265, 136, 296
-0.992091, 225, 361, 256, 392
-0.992096, 197, 233, 228, 264
-0.992099, 121, 465, 152, 496
-0.992115, 219, 193, 234, 256
-0.992116, 161, 213, 192, 244
-0.992126, 113, 233, 240, 264
-0.99216, 181, 229, 212, 260
-0.992164, 181, 169, 212, 200
-0.992166, 117, 49, 148, 80
-0.99217, 193, 245, 224, 276
-0.992181, 149, 113, 180, 144
-0.992181, 221, 337, 252, 368
-0.992197, 169, 193, 200, 224
-0.992199, 277, 205, 308, 236
-0.992203, 185, 177, 200, 240
-0.992211, 209, 357, 240, 388
-0.992231, 253, 205, 284, 236
-0.992236, 185, 193, 216, 224
-0.992237, 89, 361, 120, 392
-0.99224, 157, 125, 188, 156
-0.992244, 85, 373, 116, 404
-0.992246, 169, 253, 200, 284
-0.99225, 217, 201, 248, 232
-0.992254, 101, 41, 132, 72
-0.992265, 49, 1, 80, 32
-0.992268, 265, 217, 296, 248
-0.992269, 149, 213, 180, 244
-0.99227, 181, 217, 212, 248
-0.992276, 89, 393, 120, 424
-0.992279, 125, 1, 156, 32
-0.992282, 213, 217, 244, 248
-0.992284, 181, 133, 212, 164
-0.992285, 205, 133, 236, 164
-0.992287, 149, 249, 180, 280
-0.992288, 129, 117, 160, 148
-0.992297, 121, 249, 152, 280
-0.992312, 97, 329, 128, 360
-0.992334, 181, 205, 212, 236
-0.992334, 201, 381, 232, 412
-0.992351, 233, 217, 264, 248
-0.992354, 245, 189, 276, 220
-0.99236, 157, 261, 188, 292
-0.992362, 247, 201, 262, 264
-0.992365, 89, 289, 120, 320
-0.992369, 157, 193, 188, 224
-0.99237, 113, 453, 144, 484
-0.992371, 229, 189, 260, 220
-0.99238, 147, 241, 162, 304
-0.992385, 1, 321, 375, 384
-0.992385, 133, 225, 164, 256
-0.992387, 121, 73, 152, 104
-0.992387, 281, 221, 312, 252
-0.992388, 89, 349, 120, 380
-0.992391, 281, 193, 312, 224
-0.992391, 213, 325, 244, 356
-0.992392, 197, 213, 228, 244
-0.992396, 181, 265, 212, 296
-0.992396, 181, 277, 212, 308
-0.992399, 241, 17, 368, 80
-0.992409, 141, 225, 156, 288
-0.992411, 49, 73, 80, 104
-0.992412, 97, 257, 224, 288
-0.992413, 237, 357, 268, 388
-0.992415, 305, 229, 336, 260
-0.99242, 181, 373, 212, 404
-0.992428, 189, 289, 220, 320
-0.992429, 173, 181, 204, 212
-0.992433, 135, 249, 150, 312
-0.992445, 105, 377, 136, 408
-0.992452, 85, 45, 116, 76
-0.992457, 201, 369, 232, 400
-0.992457, 189, 149, 220, 180
-0.992458, 133, 257, 164, 288
-0.992459, 81, 305, 112, 336
-0.992459, 293, 389, 324, 420
-0.99246, 265, 233, 296, 264
-0.99246, 221, 373, 252, 404
-0.992469, 117, 321, 148, 352
-0.99247, 197, 193, 228, 224
-0.992471, 101, 441, 132, 472
-0.992474, 97, 429, 128, 460
-0.992474, 209, 153, 336, 216
-0.992475, 97, 277, 128, 308
-0.992481, 129, 41, 160, 72
-0.992483, 177, 361, 208, 392
-0.992485, 181, 249, 212, 280
-0.992487, 177, 193, 304, 224
-0.992487, 285, 193, 300, 256
-0.99249, 129, 401, 375, 464
-0.992492, 173, 145, 204, 176
-0.992492, 233, 333, 264, 364
-0.992494, 145, 65, 176, 96
-0.992495, 133, 69, 164, 100
-0.992499, 289, 205, 320, 236
-0.992504, 129, 305, 375, 368
-0.992504, 101, 317, 132, 348
-0.99251, 165, 373, 196, 404
-0.992519, 201, 153, 232, 184
-0.99252, 93, 409, 124, 440
-0.992521, 121, 93, 152, 124
-0.992531, 317, 249, 348, 280
-0.992538, 189, 301, 220, 332
-0.992544, 277, 193, 292, 256
-0.992545, 121, 237, 152, 268
-0.992549, 157, 233, 188, 264
-0.99255, 293, 241, 324, 272
-0.99255, 201, 321, 232, 352
-0.992553, 129, 189, 256, 220
-0.99256, 105, 305, 136, 336
-0.992561, 125, 297, 156, 328
-0.992561, 337, 241, 368, 272
-0.992564, 149, 361, 180, 392
-0.992564, 129, 221, 256, 252
-0.992565, 169, 157, 200, 188
-0.992567, 1, 265, 375, 328
-0.992567, 265, 189, 296, 220
-0.992567, 193, 217, 320, 248
-0.992575, 293, 225, 324, 256
-0.992581, 317, 233, 348, 264
-0.992584, 105, 397, 136, 428
-0.99259, 285, 349, 316, 380
-0.992594, 205, 285, 236, 316
-0.992597, 293, 377, 324, 408
-0.992598, 121, 269, 152, 300
-0.992599, 253, 349, 284, 380
-0.99261, 229, 321, 260, 352
-0.992611, 245, 369, 276, 400
-0.992613, 73, 393, 104, 424
-0.992614, 9, 297, 40, 328
-0.992615, 109, 345, 140, 376
-0.992626, 113, 37, 144, 68
-0.992629, 89, 21, 120, 52
-0.992635, 241, 201, 256, 264
-0.992636, 193, 133, 224, 164
-0.992639, 193, 349, 320, 380
-0.992645, 197, 257, 228, 288
-0.992646, 169, 133, 200, 164
-0.992647, 205, 1, 236, 32
-0.992648, 189, 361, 220, 392
-0.992655, 141, 5, 172, 36
-0.992658, 133, 373, 164, 404
-0.992659, 165, 361, 196, 392
-0.992677, 155, 217, 170, 280
-0.992689, 97, 169, 352, 232
-0.992768, 193, 365, 320, 396
-0.992822, 81, 193, 208, 224
-0.99283, 229, 329, 244, 392
-0.992835, 185, 201, 200, 264
-0.9929, 231, 193, 246, 256
-0.992937, 113, 133, 240, 164
-0.992979, 119, 249, 134, 312
-0.993014, 109, 369, 124, 432
-0.993039, 313, 1, 375, 500
-0.99305, 271, 193, 286, 256
-0.993072, 163, 225, 178, 288
-0.993075, 175, 209, 190, 272
-0.993093, 291, 193, 306, 256
-0.993127, 183, 225, 198, 288
-0.993132, 195, 145, 210, 208
-0.993141, 217, 217, 232, 280
-0.993152, 129, 241, 144, 304
-0.993182, 1, 9, 256, 72
-0.99319, 225, 233, 352, 264
-0.993216, 153, 241, 168, 304
-0.993221, 355, 241, 370, 304
-0.993224, 197, 273, 212, 336
-0.993267, 129, 41, 144, 104
-0.99329, 97, 377, 224, 408
-0.9933, 1, 57, 256, 120
-0.99331, 125, 89, 140, 152
-0.993317, 97, 245, 224, 276
-0.993321, 219, 345, 234, 408
-0.993322, 213, 185, 228, 248
-0.993358, 179, 185, 194, 248
-0.993358, 257, 185, 272, 248
-0.993363, 65, 233, 192, 264
-0.993381, 145, 365, 272, 396
-0.993393, 49, 53, 176, 84
-0.993406, 149, 217, 164, 280
-0.993426, 185, 145, 200, 208
-0.993444, 189, 257, 204, 320
-0.993455, 177, 233, 304, 264
-0.99347, 297, 209, 312, 272
-0.993484, 131, 369, 146, 432
-0.993507, 115, 433, 130, 496
-0.993561, 241, 337, 256, 400
-0.99357, 1, 1, 375, 64
-0.99357, 127, 265, 142, 328
-0.993573, 145, 205, 272, 236
-0.993581, 193, 25, 320, 88
-0.99359, 141, 249, 156, 312
-0.993595, 1, 345, 256, 408
-0.993601, 119, 281, 134, 344
-0.993622, 219, 321, 234, 384
-0.993634, 145, 245, 272, 276
-0.99364, 129, 297, 144, 360
-0.993656, 163, 369, 178, 432
-0.99366, 1, 393, 375, 456
-0.993661, 187, 369, 202, 432
-0.993707, 207, 201, 222, 264
-0.99372, 269, 329, 284, 392
-0.993731, 345, 233, 360, 296
-0.993751, 147, 9, 162, 72
-0.993776, 247, 345, 262, 408
-0.993787, 33, 145, 288, 208
-0.993789, 235, 329, 250, 392
-0.993811, 195, 169, 210, 232
-0.99382, 209, 405, 336, 436
-0.993825, 185, 121, 200, 184
-0.993834, 289, 97, 352, 224
-0.993836, 135, 225, 150, 288
-0.993839, 205, 129, 220, 192
-0.993867, 303, 209, 318, 272
-0.993868, 311, 217, 326, 280
-0.993872, 113, 329, 128, 392
-0.99388, 33, 97, 288, 160
-0.993898, 169, 369, 184, 432
-0.993899, 213, 369, 228, 432
-0.993913, 111, 257, 126, 320
-0.993919, 265, 201, 280, 264
-0.993926, 81, 273, 208, 304
-0.993939, 113, 177, 240, 208
-0.993944, 169, 241, 184, 304
-0.993947, 193, 377, 320, 408
-0.993949, 209, 205, 336, 236
-0.993966, 135, 49, 150, 112
-0.993975, 227, 353, 242, 416
-0.994015, 181, 353, 196, 416
-0.99402, 247, 177, 262, 240
-0.99402, 123, 425, 138, 488
-0.994021, 145, 369, 160, 432
-0.994039, 139, 369, 154, 432
-0.994044, 195, 233, 210, 296
-0.994074, 255, 241, 270, 304
-0.994074, 125, 385, 140, 448
-0.994086, 223, 233, 238, 296
-0.994119, 335, 225, 350, 288
-0.994146, 131, 89, 146, 152
-0.994161, 191, 209, 206, 272
-0.994167, 109, 425, 124, 488
-0.994181, 97, 317, 224, 348
-0.994188, 155, 41, 170, 104
-0.994192, 159, 249, 174, 312
-0.994193, 1, 417, 375, 480
-0.994198, 97, 9, 352, 72
-0.994212, 213, 305, 228, 368
-0.99422, 327, 225, 342, 288
-0.994225, 141, 1, 156, 64
-0.994229, 205, 369, 220, 432
-0.99429, 89, 17, 104, 80
-0.994292, 217, 241, 232, 304
-0.994296, 197, 369, 212, 432
-0.994319, 65, 365, 192, 396
-0.994337, 241, 245, 368, 276
-0.994344, 33, 1, 160, 32
-0.994346, 81, 209, 208, 240
-0.994348, 1, 241, 375, 304
-0.994353, 135, 9, 150, 72
-0.994383, 117, 361, 132, 424
-0.994385, 175, 249, 190, 312
-0.994394, 33, 245, 160, 276
-0.994411, 153, 353, 168, 416
-0.994417, 219, 129, 234, 192
-0.994427, 317, 225, 332, 288
-0.994428, 259, 313, 274, 376
-0.99444, 129, 137, 375, 200
-0.994442, 213, 129, 228, 192
-0.994447, 199, 193, 214, 256
-0.994461, 169, 217, 184, 280
-0.994466, 179, 137, 194, 200
-0.994466, 117, 385, 132, 448
-0.994468, 65, 221, 192, 252
-0.994471, 105, 305, 120, 368
-0.994471, 129, 433, 144, 496
-0.994472, 81, 121, 208, 152
-0.994476, 103, 265, 118, 328
-0.994479, 237, 177, 252, 240
-0.994487, 101, 17, 116, 80
-0.994499, 361, 249, 375, 312
-0.994502, 207, 297, 222, 360
-0.994528, 65, 393, 192, 424
-0.994533, 233, 361, 248, 424
-0.994537, 145, 273, 160, 336
-0.99454, 155, 1, 170, 64
-0.994558, 113, 393, 240, 424
-0.994569, 171, 121, 186, 184
-0.99457, 173, 185, 188, 248
-0.994599, 3, 337, 18, 400
-0.994621, 81, 289, 208, 320
-0.994639, 99, 313, 114, 376
-0.994642, 131, 409, 146, 472
-0.994646, 149, 193, 164, 256
-0.994652, 129, 65, 144, 128
-0.994654, 161, 133, 288, 164
-0.994679, 63, 1, 78, 64
-0.994684, 205, 177, 220, 240
-0.994689, 145, 193, 176, 448
-0.994691, 17, 401, 144, 432
-0.994698, 111, 1, 126, 64
-0.994699, 107, 337, 122, 400
-0.994736, 195, 121, 210, 184
-0.994748, 129, 269, 256, 300
-0.994751, 33, 189, 160, 220
-0.994753, 223, 297, 238, 360
-0.994753, 113, 289, 128, 352
-0.994754, 119, 305, 134, 368
-0.994774, 1, 89, 128, 120
-0.994776, 49, 65, 176, 96
-0.994777, 113, 1, 240, 32
-0.994797, 241, 353, 368, 384
-0.994809, 241, 221, 368, 252
-0.994814, 197, 225, 228, 480
-0.994819, 257, 337, 272, 400
-0.994821, 65, 109, 192, 140
-0.994824, 277, 321, 292, 384
-0.994844, 65, 405, 192, 436
-0.994851, 221, 369, 236, 432
-0.994856, 97, 281, 112, 344
-0.994871, 97, 305, 224, 336
-0.994899, 65, 349, 192, 380
-0.994951, 1, 137, 375, 200
-0.994958, 49, 257, 176, 288
-0.994982, 161, 173, 288, 204
-0.994985, 217, 129, 248, 384
-0.994987, 113, 149, 240, 180
-0.995027, 173, 161, 204, 416
-0.995035, 17, 385, 144, 416
-0.99507, 33, 293, 160, 324
-0.995072, 17, 309, 144, 340
-0.995212, 241, 105, 368, 168
-0.995219, 209, 257, 240, 500
-0.995237, 65, 329, 192, 360
-0.995255, 229, 225, 260, 480
-0.995296, 165, 257, 196, 500
-0.995337, 97, 417, 224, 448
-0.995347, 1, 161, 375, 224
-0.995359, 153, 97, 184, 352
-0.995362, 145, 341, 272, 372
-0.995364, 145, 381, 272, 412
-0.995378, 65, 133, 192, 164
-0.99539, 209, 305, 336, 336
-0.995417, 177, 321, 304, 352
-0.995458, 17, 321, 144, 352
-0.995463, 1, 281, 128, 312
-0.995502, 17, 417, 144, 448
-0.995526, 113, 469, 240, 500
-0.995533, 185, 161, 216, 416
-0.995537, 101, 257, 132, 500
-0.995542, 49, 77, 176, 108
-0.995549, 17, 357, 144, 388
-0.995554, 17, 337, 144, 368
-0.995558, 33, 445, 160, 476
-0.995559, 129, 105, 375, 168
-0.995561, 241, 369, 368, 400
-0.995564, 161, 413, 288, 444
-0.995569, 161, 57, 288, 120
-0.995574, 133, 193, 164, 448
-0.995587, 225, 333, 352, 364
-0.995588, 177, 257, 208, 500
-0.995603, 1, 41, 375, 104
-0.995613, 193, 389, 320, 420
-0.99563, 113, 353, 240, 384
-0.995632, 121, 257, 152, 500
-0.995695, 81, 13, 208, 44
-0.995712, 293, 161, 324, 416
-0.995735, 125, 1, 156, 256
-0.995749, 33, 269, 160, 300
-0.995751, 1, 201, 128, 232
-0.995752, 81, 449, 208, 480
-0.995764, 265, 161, 296, 416
-0.995767, 49, 465, 176, 496
-0.995803, 241, 225, 272, 480
-0.995818, 113, 165, 240, 196
-0.995835, 121, 97, 152, 352
-0.995839, 177, 257, 304, 288
-0.995842, 33, 21, 160, 52
-0.995886, 137, 97, 168, 352
-0.995906, 49, 41, 176, 72
-0.995958, 141, 1, 172, 256
-0.995976, 205, 97, 236, 352
-0.995977, 253, 161, 284, 416
-0.995987, 225, 193, 352, 224
-0.996006, 129, 281, 256, 312
-0.996008, 241, 257, 368, 288
-0.996064, 1, 425, 256, 488
-0.996066, 161, 401, 288, 432
-0.996098, 97, 41, 352, 104
-0.996104, 65, 433, 192, 464
-0.996115, 113, 329, 240, 360
-0.99612, 1, 1, 32, 256
-0.996124, 17, 429, 144, 460
-0.996146, 281, 161, 312, 416
-0.996201, 1, 101, 128, 132
-0.996221, 81, 1, 112, 256
-0.996236, 49, 93, 176, 124
-0.996239, 33, 145, 160, 176
-0.996277, 229, 129, 260, 384
-0.996284, 1, 373, 128, 404
-0.996293, 161, 145, 288, 176
-0.996337, 161, 297, 288, 328
-0.996341, 17, 233, 144, 264
-0.996362, 161, 309, 288, 340
-0.996369, 1, 65, 128, 96
-0.996378, 1, 113, 375, 176
-0.996398, 177, 269, 304, 300
-0.996415, 113, 25, 240, 56
-0.99645, 1, 257, 128, 288
-0.99647, 193, 65, 224, 320
-0.996473, 267, 201, 282, 232
-0.996525, 241, 417, 368, 448
-0.996527, 129, 121, 256, 152
-0.996529, 13, 1, 44, 256
-0.996537, 113, 97, 240, 128
-0.996551, 89, 257, 120, 500
-0.996557, 169, 65, 200, 320
-0.996573, 129, 13, 256, 44
-0.996587, 191, 229, 206, 260
-0.996621, 309, 257, 340, 500
-0.99663, 113, 1, 144, 256
-0.996634, 249, 201, 264, 232
-0.996649, 1, 33, 256, 96
-0.996683, 169, 117, 184, 148
-0.996693, 183, 233, 198, 264
-0.996693, 151, 221, 166, 252
-0.996696, 195, 169, 210, 200
-0.996714, 135, 233, 150, 264
-0.996714, 153, 1, 184, 256
-0.996732, 113, 405, 240, 436
-0.996751, 185, 217, 200, 248
-0.99677, 179, 133, 194, 164
-0.996773, 185, 185, 200, 216
-0.996775, 25, 1, 56, 256
-0.996784, 141, 229, 156, 260
-0.996806, 193, 245, 208, 276
-0.996838, 219, 353, 234, 384
-0.996857, 65, 177, 192, 208
-0.996892, 195, 185, 210, 216
-0.996894, 77, 193, 108, 448
-0.996904, 97, 49, 224, 80
-0.996907, 157, 229, 172, 260
-0.996908, 135, 245, 150, 276
-0.996937, 125, 241, 140, 272
-0.996947, 241, 129, 272, 384
-0.99695, 109, 161, 140, 416
-0.996953, 1, 469, 128, 500
-0.996957, 165, 241, 180, 272
-0.996961, 65, 1, 80, 32
-0.996962, 59, 1, 74, 32
-0.996966, 37, 1, 68, 256
-0.996976, 217, 221, 232, 252
-0.996976, 207, 229, 222, 260
-0.996981, 69, 1, 100, 256
-0.996983, 97, 85, 224, 116
-0.997, 1, 117, 128, 148
-0.997009, 135, 53, 150, 84
-0.997022, 215, 249, 230, 280
-0.997025, 193, 245, 320, 276
-0.997036, 235, 201, 250, 232
-0.997037, 57, 1, 88, 256
-0.99704, 225, 1, 256, 256
-0.997048, 173, 129, 188, 160
-0.997049, 151, 57, 166, 88
-0.99705, 285, 205, 300, 236
-0.997054, 209, 137, 336, 168
-0.997058, 243, 361, 258, 392
-0.997061, 241, 269, 368, 300
-0.997064, 1, 457, 128, 488
-0.997068, 241, 293, 368, 324
-0.997074, 265, 257, 296, 500
-0.997089, 131, 105, 146, 136
-0.997096, 225, 361, 240, 392
-0.997099, 117, 249, 132, 280
-0.997102, 141, 5, 156, 36
-0.997112, 175, 249, 190, 280
-0.997117, 185, 173, 200, 204
-0.997129, 151, 233, 166, 264
-0.997137, 235, 349, 250, 380
-0.997139, 257, 189, 272, 220
-0.99714, 129, 109, 256, 140
-0.997144, 279, 205, 294, 236
-0.997147, 213, 237, 228, 268
-0.99715, 291, 205, 306, 236
-0.997151, 127, 53, 142, 84
-0.997164, 53, 1, 68, 32
-0.99717, 241, 201, 256, 232
-0.997178, 139, 109, 154, 140
-0.997188, 185, 261, 200, 292
-0.99719, 1, 53, 128, 84
-0.997192, 181, 369, 196, 400
-0.997206, 179, 185, 194, 216
-0.997215, 183, 205, 198, 236
-0.997216, 241, 469, 368, 500
-0.99722, 125, 253, 140, 284
-0.99722, 141, 241, 156, 272
-0.997223, 183, 153, 198, 184
-0.997237, 227, 205, 242, 236
-0.997238, 97, 65, 224, 96
-0.99724, 133, 65, 148, 96
-0.997245, 217, 365, 232, 396
-0.99725, 97, 37, 224, 68
-0.997264, 219, 205, 234, 236
-0.997265, 181, 1, 212, 256
-0.997266, 257, 209, 272, 240
-0.997269, 219, 133, 234, 164
-0.997277, 113, 333, 128, 364
-0.997279, 219, 325, 234, 356
-0.997281, 189, 373, 204, 404
-0.997284, 335, 237, 350, 268
-0.997286, 175, 373, 190, 404
-0.997288, 183, 249, 198, 280
-0.997288, 135, 289, 150, 320
-0.997303, 125, 73, 140, 104
-0.997306, 177, 13, 304, 44
-0.997312, 255, 249, 270, 280
-0.997315, 197, 285, 212, 316
-0.997316, 125, 93, 140, 124
-0.997322, 193, 153, 208, 184
-0.997324, 57, 73, 72, 104
-0.997325, 327, 233, 342, 264
-0.997325, 305, 161, 336, 416
-0.997326, 273, 193, 288, 224
-0.997328, 125, 441, 140, 472
-0.997329, 283, 193, 298, 224
-0.997331, 107, 377, 122, 408
-0.997331, 109, 393, 124, 424
-0.997335, 163, 113, 178, 144
-0.997343, 193, 197, 208, 228
-0.997347, 211, 381, 226, 412
-0.997347, 229, 193, 244, 224
-0.997348, 145, 217, 160, 248
-0.99735, 139, 465, 154, 496
-0.997352, 225, 321, 352, 352
-0.997352, 201, 241, 216, 272
-0.997354, 175, 145, 190, 176
-0.99736, 97, 65, 352, 128
-0.997364, 211, 361, 226, 392
-0.997366, 201, 297, 216, 328
-0.997368, 245, 341, 260, 372
-0.99737, 145, 425, 272, 456
-0.997376, 159, 249, 174, 280
-0.997377, 119, 261, 134, 292
-0.997388, 241, 393, 368, 424
-0.997392, 191, 269, 206, 300
-0.997394, 133, 453, 148, 484
-0.997395, 205, 369, 220, 400
-0.997398, 111, 257, 126, 288
-0.997399, 295, 385, 310, 416
-0.997399, 297, 257, 328, 500
-0.997399, 157, 109, 172, 140
-0.997404, 195, 309, 210, 340
-0.997408, 281, 217, 296, 248
-0.99741, 229, 341, 244, 372
-0.997411, 147, 9, 162, 40
-0.997412, 103, 281, 118, 312
-0.997413, 131, 93, 146, 124
-0.997413, 169, 257, 184, 288
-0.997413, 129, 465, 144, 496
-0.997415, 129, 273, 144, 304
-0.997422, 97, 1, 128, 256
-0.997422, 231, 217, 246, 248
-0.997423, 195, 373, 210, 404
-0.997426, 257, 233, 272, 264
-0.997427, 1, 41, 128, 72
-0.997436, 127, 1, 142, 32
-0.997436, 97, 161, 128, 416
-0.997439, 51, 73, 66, 104
-0.997442, 281, 257, 312, 500
-0.997444, 273, 205, 288, 236
-0.997445, 237, 373, 252, 404
-0.997451, 217, 153, 232, 184
-0.997452, 201, 381, 216, 412
-0.997453, 317, 229, 332, 260
-0.997458, 141, 261, 156, 292
-0.997459, 17, 221, 144, 252
-0.99746, 109, 25, 124, 56
-0.997464, 173, 229, 188, 260
-0.997464, 251, 217, 266, 248
-0.997469, 297, 193, 312, 224
-0.997473, 355, 269, 370, 300
-0.997475, 159, 265, 174, 296
-0.997475, 197, 133, 212, 164
-0.997476, 107, 361, 122, 392
-0.997477, 247, 189, 262, 220
-0.997481, 203, 205, 218, 236
-0.997481, 267, 349, 282, 380
-0.997482, 187, 133, 202, 164
-0.997482, 209, 213, 224, 244
-0.997495, 209, 1, 240, 256
-0.997513, 1, 65, 375, 128
-0.997538, 129, 457, 256, 488
-0.99756, 265, 65, 296, 320
-0.997587, 313, 65, 375, 192
-0.997636, 225, 429, 352, 460
-0.997689, 1, 129, 32, 384
-0.997767, 321, 225, 352, 480
-0.997791, 85, 97, 116, 352
-0.997805, 253, 65, 284, 320
-0.997813, 345, 257, 375, 500
-0.997837, 281, 65, 312, 320
-0.997842, 253, 257, 284, 500
-0.997859, 65, 257, 96, 500
-0.998011, 33, 225, 64, 480
-0.998047, 333, 257, 364, 500
-0.998069, 237, 1, 268, 256
-0.998214, 65, 97, 96, 352
-0.998237, 161, 81, 288, 144
-0.998281, 187, 209, 202, 336
-0.998314, 1, 225, 32, 480
-0.998347, 137, 225, 200, 240
-0.998351, 181, 161, 196, 288
-0.998359, 107, 273, 122, 400
-0.998363, 121, 237, 184, 252
-0.998369, 161, 231, 224, 246
-0.998372, 137, 377, 200, 392
-0.998377, 121, 247, 184, 262
-0.99838, 153, 367, 216, 382
-0.998382, 201, 237, 264, 252
-0.998386, 21, 129, 52, 384
-0.998387, 153, 267, 216, 282
-0.998387, 201, 361, 264, 376
-0.998388, 81, 349, 144, 364
-0.998389, 105, 265, 168, 280
-0.99839, 209, 203, 272, 218
-0.998391, 177, 383, 240, 398
-0.998392, 185, 135, 248, 150
-0.998392, 89, 373, 152, 388
-0.998398, 113, 113, 176, 128
-0.998399, 169, 219, 232, 234
-0.998399, 161, 375, 224, 390
-0.998403, 81, 47, 144, 62
-0.998404, 177, 201, 240, 216
-0.998405, 149, 1, 164, 128
-0.998405, 115, 289, 130, 416
-0.998405, 89, 325, 152, 340
-0.998409, 145, 253, 208, 268
-0.998411, 113, 383, 176, 398
-0.998412, 193, 377, 256, 392
-0.998412, 81, 379, 144, 394
-0.998413, 105, 303, 168, 318
-0.998414, 145, 131, 208, 146
-0.998415, 193, 367, 256, 382
-0.998418, 199, 193, 214, 320
-0.998418, 129, 267, 192, 282
-0.998419, 105, 469, 168, 484
-0.99842, 81, 309, 144, 324
-0.998421, 137, 383, 200, 398
-0.998422, 81, 367, 144, 382
-0.998423, 81, 387, 144, 402
-0.998426, 145, 239, 208, 254
-0.998427, 161, 191, 224, 206
-0.998427, 129, 261, 192, 276
-0.998428, 81, 355, 144, 370
-0.998428, 105, 259, 168, 274
-0.99843, 113, 481, 176, 496
-0.998432, 105, 277, 168, 292
-0.998434, 145, 203, 208, 218
-0.998436, 81, 297, 144, 312
-0.998437, 203, 145, 218, 272
-0.998439, 153, 247, 216, 262
-0.998441, 129, 231, 192, 246
-0.998442, 89, 287, 152, 302
-0.998442, 65, 331, 128, 346
-0.998443, 121, 371, 184, 386
-0.998443, 177, 361, 240, 376
-0.998443, 145, 273, 208, 288
-0.998444, 201, 293, 264, 308
-0.998445, 137, 283, 200, 298
-0.998445, 289, 371, 352, 386
-0.998446, 105, 271, 168, 286
-0.998447, 241, 353, 304, 368
-0.998447, 105, 361, 168, 376
-0.998447, 81, 415, 144, 430
-0.998448, 169, 241, 232, 256
-0.998448, 113, 253, 176, 268
-0.998449, 133, 209, 148, 336
-0.99845, 113, 377, 176, 392
-0.998451, 113, 1, 176, 16
-0.998453, 113, 289, 176, 304
-0.998453, 161, 183, 224, 198
-0.998454, 169, 213, 232, 228
-0.998456, 81, 437, 144, 452
-0.998457, 193, 193, 208, 320
-0.998457, 89, 461, 152, 476
-0.998459, 217, 243, 280, 258
-0.998459, 233, 359, 296, 374
-0.998461, 281, 359, 344, 374
-0.998465, 113, 475, 176, 490
-0.998466, 89, 331, 152, 346
-0.998466, 145, 219, 208, 234
-0.998466, 113, 309, 176, 324
-0.998467, 153, 261, 216, 276
-0.998467, 89, 339, 152, 354
-0.998467, 265, 207, 328, 222
-0.998467, 145, 197, 208, 212
-0.998468, 161, 173, 224, 188
-0.998468, 65, 361, 128, 376
-0.998469, 137, 147, 200, 162
-0.998469, 65, 421, 128, 436
-0.99847, 177, 225, 240, 240
-0.998471, 97, 317, 160, 332
-0.998471, 217, 371, 280, 386
-0.998473, 113, 283, 176, 298
-0.998474, 121, 125, 184, 140
-0.998475, 89, 53, 152, 68
-0.998477, 249, 369, 312, 384
-0.998477, 185, 247, 248, 262
-0.998479, 97, 453, 160, 468
-0.998479, 97, 443, 160, 458
-0.99848, 33, 85, 96, 100
-0.99848, 185, 195, 248, 210
-0.998481, 121, 191, 184, 206
-0.998481, 33, 91, 96, 106
-0.998481, 225, 345, 288, 360
-0.998482, 105, 297, 168, 312
-0.998483, 81, 405, 144, 420
-0.998484, 217, 377, 280, 392
-0.998487, 225, 365, 288, 380
-0.998487, 193, 417, 256, 432
-0.998489, 185, 231, 248, 246
-0.998489, 115, 241, 130, 368
-0.99849, 105, 197, 168, 212
-0.99849, 217, 257, 280, 272
-0.99849, 241, 235, 304, 250
-0.99849, 193, 129, 208, 256
-0.998491, 177, 263, 240, 278
-0.998492, 177, 283, 240, 298
-0.998492, 201, 299, 264, 314
-0.998492, 81, 393, 144, 408
-0.998492, 57, 347, 120, 362
-0.998493, 153, 361, 216, 376
-0.998493, 177, 291, 240, 306
-0.998493, 129, 185, 192, 200
-0.998495, 289, 377, 352, 392
-0.998496, 107, 337, 122, 464
-0.998496, 161, 419, 224, 434
-0.998497, 181, 209, 196, 336
-0.998498, 73, 315, 136, 330
-0.9985, 89, 421, 152, 436
-0.998501, 201, 383, 264, 398
-0.998501, 313, 361, 375, 376
-0.998503, 249, 375, 312, 390
-0.998507, 177, 167, 240, 182
-0.998507, 137, 213, 200, 228
-0.998511, 313, 249, 375, 264
-0.998511, 257, 423, 320, 438
-0.998512, 257, 241, 320, 256
-0.998512, 81, 399, 144, 414
-0.998512, 57, 411, 120, 426
-0.998513, 201, 263, 264, 278
-0.998515, 57, 367, 120, 382
-0.998516, 129, 365, 192, 380
-0.998516, 153, 193, 168, 320
-0.998524, 203, 289, 218, 416
-0.998541, 189, 243, 220, 258
-0.998541, 281, 355, 312, 370
-0.998541, 325, 363, 356, 378
-0.998542, 129, 51, 160, 66
-0.998542, 189, 297, 220, 312
-0.998543, 105, 315, 136, 330
-0.998543, 197, 197, 228, 212
-0.998543, 189, 365, 220, 380
-0.998544, 237, 367, 268, 382
-0.998545, 145, 481, 176, 496
-0.998547, 105, 349, 136, 364
-0.998547, 189, 155, 220, 170
-0.998548, 93, 345, 124, 360
-0.998549, 185, 173, 216, 188
-0.99855, 245, 375, 276, 390
-0.99855, 205, 327, 236, 342
-0.99855, 171, 177, 186, 304
-0.998551, 137, 65, 168, 80
-0.998552, 105, 451, 136, 466
-0.998552, 217, 341, 248, 356
-0.998554, 129, 301, 160, 316
-0.998554, 181, 223, 212, 238
-0.998554, 209, 199, 240, 214
-0.998554, 97, 331, 128, 346
-0.998555, 97, 285, 128, 300
-0.998555, 201, 321, 232, 336
-0.998556, 105, 399, 136, 414
-0.998557, 181, 279, 212, 294
-0.998557, 211, 225, 226, 352
-0.998557, 301, 367, 332, 382
-0.998558, 101, 387, 132, 402
-0.998558, 181, 203, 212, 218
-0.998558, 193, 165, 224, 180
-0.998558, 173, 145, 204, 160
-0.998559, 225, 365, 256, 380
-0.998559, 309, 373, 340, 388
-0.998561, 205, 249, 236, 264
-0.998562, 167, 225, 182, 352
-0.998564, 109, 305, 140, 320
-0.998565, 205, 367, 236, 382
-0.998565, 177, 139, 208, 154
-0.998565, 121, 9, 152, 24
-0.998566, 125, 273, 140, 400
-0.998566, 165, 383, 196, 398
-0.998566, 105, 275, 136, 290
-0.998567, 121, 245, 152, 260
-0.998567, 97, 431, 128, 446
-0.998567, 285, 199, 316, 214
-0.998568, 125, 251, 156, 266
-0.998569, 113, 299, 144, 314
-0.998571, 109, 459, 140, 474
-0.998571, 129, 71, 160, 86
-0.998571, 101, 49, 132, 64
-0.998572, 161, 265, 192, 280
-0.998573, 93, 421, 124, 436
-0.998573, 221, 349, 252, 364
-0.998573, 113, 327, 144, 342
-0.998574, 229, 329, 260, 344
-0.998575, 161, 371, 192, 386
-0.998575, 337, 353, 352, 480
-0.998577, 165, 195, 196, 210
-0.998577, 237, 205, 268, 220
-0.998578, 125, 481, 156, 496
-0.998578, 89, 403, 120, 418
-0.998578, 101, 377, 132, 392
-0.99858, 121, 109, 152, 124
-0.998581, 137, 383, 168, 398
-0.998581, 173, 253, 204, 268
-0.998583, 289, 367, 320, 382
-0.998583, 177, 193, 208, 208
-0.998584, 157, 217, 188, 232
-0.998584, 101, 441, 132, 456
-0.998585, 133, 59, 164, 74
-0.998586, 125, 383, 156, 398
-0.998587, 161, 223, 192, 238
-0.998587, 161, 377, 192, 392
-0.998588, 113, 465, 144, 480
-0.998589, 117, 471, 148, 486
-0.998589, 89, 353, 120, 368
-0.998589, 169, 243, 200, 258
-0.998589, 181, 383, 212, 398
-0.998589, 133, 245, 164, 260
-0.99859, 341, 485, 372, 500
-0.99859, 97, 337, 128, 352
-0.998591, 181, 209, 212, 224
-0.998591, 217, 371, 248, 386
-0.998591, 201, 383, 232, 398
-0.998591, 209, 305, 224, 432
-0.998592, 185, 289, 216, 304
-0.998593, 185, 181, 216, 196
-0.998594, 89, 395, 120, 410
-0.998595, 109, 267, 140, 282
-0.998595, 85, 383, 116, 398
-0.998595, 137, 371, 168, 386
-0.998595, 113, 373, 144, 388
-0.998596, 17, 257, 48, 500
-0.998597, 149, 383, 180, 398
-0.998598, 235, 305, 250, 432
-0.998599, 203, 337, 218, 464
-0.998599, 49, 85, 80, 100
-0.998601, 215, 305, 230, 432
-0.998601, 181, 217, 212, 232
-0.998602, 193, 257, 208, 384
-0.998602, 245, 211, 276, 226
-0.998602, 89, 409, 120, 424
-0.998602, 101, 323, 132, 338
-0.998602, 137, 239, 168, 254
-0.998603, 193, 207, 224, 222
-0.998606, 177, 267, 208, 282
-0.998607, 215, 113, 230, 240
-0.99861, 273, 321, 288, 448
-0.99861, 131, 49, 146, 176
-0.998611, 117, 259, 148, 274
-0.998611, 117, 51, 148, 66
-0.998613, 173, 373, 204, 388
-0.998614, 149, 367, 180, 382
-0.998616, 113, 383, 144, 398
-0.998617, 137, 125, 168, 140
-0.998618, 149, 127, 180, 142
-0.998618, 193, 229, 224, 244
-0.998623, 89, 371, 120, 386
-0.998624, 165, 229, 196, 244
-0.998624, 201, 239, 232, 254
-0.998625, 139, 1, 154, 128
-0.998627, 209, 361, 240, 376
-0.998628, 169, 211, 200, 226
-0.998628, 225, 359, 256, 374
-0.998629, 105, 393, 136, 408
-0.998629, 147, 209, 162, 336
-0.99863, 95, 305, 110, 432
-0.99863, 165, 177, 180, 304
-0.99863, 153, 251, 184, 266
-0.998632, 181, 233, 212, 248
-0.998637, 155, 145, 170, 272
-0.998638, 197, 377, 228, 392
-0.998645, 149, 117, 180, 132
-0.998646, 101, 43, 132, 58
-0.998648, 243, 337, 258, 464
-0.998648, 125, 239, 156, 254
-0.998649, 173, 365, 204, 380
-0.998649, 187, 161, 202, 288
-0.998652, 45, 257, 76, 500
-0.998655, 189, 371, 220, 386
-0.998655, 89, 377, 120, 392
-0.998657, 181, 187, 212, 202
-0.998658, 265, 205, 296, 220
-0.998659, 317, 1, 348, 256
-0.99866, 99, 257, 114, 384
-0.998662, 145, 223, 176, 238
-0.998665, 149, 235, 180, 250
-0.998666, 305, 65, 336, 320
-0.998672, 129, 377, 160, 392
-0.998672, 221, 305, 236, 432
-0.998677, 193, 305, 208, 432
-0.998686, 131, 1, 146, 128
-0.998703, 121, 225, 136, 352
-0.998703, 149, 377, 180, 392
-0.998703, 159, 49, 174, 176
-0.998704, 133, 233, 164, 248
-0.998704, 209, 65, 336, 128
-0.998715, 139, 225, 154, 352
-0.99872, 349, 225, 364, 352
-0.998723, 145, 229, 176, 244
-0.998735, 219, 161, 234, 288
-0.998735, 51, 1, 66, 128
-0.998737, 159, 225, 174, 352
-0.998737, 149, 337, 164, 464
-0.998746, 53, 129, 84, 384
-0.998759, 293, 65, 324, 320
-0.998759, 143, 161, 158, 288
-0.998765, 209, 113, 224, 240
-0.998771, 267, 337, 282, 464
-0.998774, 175, 337, 190, 464
-0.998775, 167, 113, 182, 240
-0.998779, 155, 1, 170, 128
-0.998781, 173, 129, 188, 256
-0.998784, 227, 321, 242, 448
-0.998785, 333, 129, 364, 384
-0.998785, 181, 113, 196, 240
-0.998789, 173, 225, 188, 352
-0.998794, 145, 257, 160, 384
-0.998802, 125, 49, 140, 176
-0.998802, 141, 337, 156, 464
-0.998803, 61, 1, 76, 128
-0.998809, 255, 193, 270, 320
-0.998815, 15, 1, 30, 128
-0.998837, 203, 241, 218, 368
-0.998837, 249, 321, 264, 448
-0.998839, 113, 369, 128, 496
-0.998853, 29, 1, 44, 128
-0.998854, 323, 209, 338, 336
-0.998861, 107, 225, 122, 352
-0.998865, 99, 369, 114, 496
-0.998866, 179, 257, 194, 384
-0.998866, 137, 49, 152, 176
-0.998875, 75, 1, 90, 128
-0.998875, 249, 241, 264, 368
-0.998876, 255, 241, 270, 368
-0.998876, 217, 225, 232, 352
-0.99888, 93, 17, 108, 144
-0.998881, 187, 337, 202, 464
-0.998884, 115, 1, 130, 128
-0.998885, 125, 369, 140, 496
-0.998892, 255, 305, 270, 432
-0.998896, 137, 97, 152, 224
-0.998897, 155, 337, 170, 464
-0.998902, 221, 113, 236, 240
-0.998905, 227, 273, 242, 400
-0.998906, 43, 1, 58, 128
-0.998913, 127, 97, 142, 224
-0.998919, 169, 337, 184, 464
-0.99892, 161, 305, 176, 432
-0.998921, 37, 1, 52, 128
-0.998924, 145, 113, 160, 240
-0.998924, 343, 353, 358, 480
-0.998932, 317, 129, 348, 384
-0.998935, 355, 225, 370, 352
-0.998939, 161, 1, 176, 128
-0.998942, 7, 1, 22, 128
-0.998946, 309, 193, 324, 320
-0.998947, 131, 369, 146, 496
-0.998952, 349, 337, 364, 464
-0.998953, 305, 369, 320, 496
-0.998954, 131, 289, 146, 416
-0.998954, 203, 97, 218, 224
-0.998958, 213, 161, 228, 288
-0.998958, 87, 17, 102, 144
-0.998961, 339, 209, 354, 336
-0.998973, 361, 225, 375, 352
-0.998982, 145, 49, 160, 176
-0.998991, 343, 289, 358, 416
-0.998997, 81, 17, 96, 144
-0.998998, 41, 129, 72, 384
-0.998999, 181, 337, 196, 464
-0.999004, 89, 273, 104, 400
-0.999004, 187, 113, 202, 240
-0.999005, 127, 225, 142, 352
-0.999007, 1, 1, 16, 128
-0.999007, 185, 257, 200, 384
-0.999008, 309, 321, 324, 448
-0.999011, 99, 17, 114, 144
-0.999017, 99, 209, 114, 336
-0.999025, 261, 337, 276, 464
-0.999026, 139, 273, 154, 400
-0.999027, 317, 209, 332, 336
-0.99903, 261, 273, 276, 400
-0.999037, 225, 161, 240, 288
-0.999038, 333, 209, 348, 336
-0.99904, 281, 337, 296, 464
-0.999041, 237, 353, 252, 480
-0.999046, 303, 321, 318, 448
-0.999048, 249, 161, 264, 288
-0.999048, 161, 129, 176, 256
-0.99905, 69, 1, 84, 128
-0.999064, 109, 1, 124, 128
-0.999079, 345, 129, 375, 384
-0.999145, 329, 1, 360, 256
-0.999188, 1, 89, 375, 152
-0.999348, 341, 1, 372, 256
-0.999706, 127, 377, 142, 392
-0.999707, 241, 365, 256, 380
-0.999707, 189, 265, 204, 280
-0.999707, 141, 285, 156, 300
-0.999707, 145, 371, 160, 386
-0.999708, 179, 153, 194, 168
-0.999708, 141, 121, 156, 136
-0.999709, 191, 155, 206, 170
-0.999709, 123, 75, 138, 90
-0.999711, 209, 241, 224, 256
-0.999711, 215, 259, 230, 274
-0.999711, 153, 125, 168, 140
-0.999712, 183, 219, 198, 234
-0.999713, 229, 325, 244, 340
-0.999713, 305, 395, 320, 410
-0.999713, 121, 53, 136, 68
-0.999714, 125, 47, 140, 62
-0.999714, 179, 193, 194, 208
-0.999715, 147, 237, 162, 252
-0.999715, 211, 387, 226, 402
-0.999715, 299, 399, 314, 414
-0.999715, 83, 387, 98, 402
-0.999715, 119, 323, 134, 338
-0.999716, 191, 233, 206, 248
-0.999716, 119, 45, 134, 60
-0.999717, 211, 203, 226, 218
-0.999717, 299, 199, 314, 214
-0.99972, 57, 75, 72, 90
-0.999721, 133, 69, 148, 84
-0.999721, 199, 323, 214, 338
-0.999721, 267, 205, 282, 220
-0.999721, 113, 341, 128, 356
-0.999721, 227, 415, 242, 430
-0.999723, 57, 85, 72, 100
-0.999724, 123, 447, 138, 462
-0.999724, 107, 387, 122, 402
-0.999724, 195, 371, 210, 386
-0.999724, 185, 211, 200, 226
-0.999726, 159, 117, 174, 132
-0.999726, 199, 383, 214, 398
-0.999726, 343, 373, 358, 388
-0.999727, 133, 297, 148, 312
-0.999728, 153, 231, 168, 246
-0.999728, 171, 383, 186, 398
-0.999728, 111, 43, 126, 58
-0.999729, 247, 203, 262, 218
-0.999729, 113, 383, 128, 398
-0.99973, 179, 187, 194, 202
-0.99973, 123, 109, 138, 124
-0.999731, 175, 247, 190, 262
-0.999731, 271, 345, 286, 360
-0.999731, 143, 477, 158, 492
-0.999731, 187, 365, 202, 380
-0.999732, 153, 367, 168, 382
-0.999732, 203, 239, 218, 254
-0.999733, 149, 279, 164, 294
-0.999733, 107, 393, 122, 408
-0.999733, 187, 145, 202, 160
-0.999733, 105, 269, 120, 284
-0.999734, 215, 253, 230, 268
-0.999735, 179, 265, 194, 280
-0.999736, 191, 247, 206, 262
-0.999736, 173, 211, 188, 226
-0.999737, 101, 47, 116, 62
-0.999738, 181, 139, 196, 154
-0.999738, 197, 245, 212, 260
-0.999739, 231, 331, 246, 346
-0.999739, 217, 385, 232, 400
-0.999739, 137, 383, 152, 398
-0.99974, 107, 377, 122, 392
-0.999741, 181, 377, 196, 392
-0.999741, 187, 167, 202, 182
-0.999741, 191, 385, 206, 400
-0.999742, 133, 461, 148, 476
-0.999746, 235, 337, 250, 352
-0.999748, 211, 377, 226, 392
-0.999748, 63, 81, 78, 96
-0.999749, 73, 17, 88, 32
-0.999749, 131, 107, 146, 122
-0.999751, 197, 231, 212, 246
-0.999751, 173, 373, 188, 388
-0.999752, 185, 183, 200, 198
-0.999753, 133, 377, 148, 392
-0.999755, 113, 257, 128, 272
-0.999756, 165, 247, 180, 262
-0.999756, 143, 383, 158, 398
-0.999757, 129, 383, 144, 398
-0.999757, 131, 51, 146, 66
-0.999758, 163, 383, 178, 398
-0.999758, 209, 235, 224, 250
-0.999758, 159, 371, 174, 386
-0.999758, 201, 377, 216, 392
-0.999758, 175, 143, 190, 158
-0.999758, 139, 5, 154, 20
-0.99976, 145, 225, 160, 240
-0.999763, 201, 371, 216, 386
-0.999764, 153, 383, 168, 398
-0.999764, 67, 13, 82, 28
-0.999764, 135, 233, 150, 248
-0.999765, 355, 485, 370, 500
-0.999765, 257, 213, 272, 228
-0.999765, 147, 231, 162, 246
-0.999767, 129, 245, 144, 260
-0.999769, 195, 377, 210, 392
-0.999771, 177, 365, 192, 380
-0.999771, 149, 483, 164, 498
-0.999773, 195, 173, 210, 188
-0.999774, 171, 133, 186, 148
-0.999774, 185, 383, 200, 398
-0.99978, 159, 229, 174, 244
-0.999782, 361, 479, 375, 494
-0.999782, 221, 357, 236, 372
-0.999782, 187, 373, 202, 388
-0.999785, 139, 377, 154, 392
-0.999785, 195, 185, 210, 200
-0.999787, 167, 373, 182, 388
-0.999789, 227, 365, 242, 380
-0.999806, 137, 467, 152, 482
-0.999811, 123, 247, 138, 262
-0.999812, 179, 211, 194, 226
-0.999813, 185, 205, 200, 220
-0.999813, 133, 239, 148, 254
-0.999814, 153, 377, 168, 392
-0.999824, 145, 377, 160, 392
-0.999826, 171, 127, 186, 142
-0.999828, 119, 253, 134, 268
-0.999828, 159, 377, 174, 392
-0.999829, 165, 121, 180, 136
-0.999848, 141, 231, 156, 246
-0.999855, 151, 225, 166, 240
-1.00039, 241, 41, 368, 104
-1.00082, 265, 81, 328, 208
-1.00156, 241, 81, 304, 208
-1.00519, 289, 49, 352, 176
