1969
-0.410183, 1, 1, 500, 375
-0.438993, 1, 1, 500, 256
-0.455484, 1, 97, 500, 352
-0.547576, 1, 1, 256, 375
-0.624245, 257, 1, 500, 375
-0.638335, 97, 1, 352, 375
-0.694471, 129, 1, 384, 256
-0.698955, 33, 65, 288, 320
-0.721069, 257, 1, 500, 256
-0.847252, 129, 97, 384, 352
-0.863528, 65, 1, 192, 375
-0.866397, 33, 1, 160, 256
-0.870375, 225, 97, 480, 352
-0.877234, 17, 1, 144, 375
-0.88941, 113, 1, 240, 256
-0.890345, 113, 1, 240, 375
-0.894571, 305, 1, 432, 375
-0.896538, 353, 1, 480, 256
-0.897541, 177, 1, 304, 375
-0.898991, 177, 1, 304, 256
-0.899897, 1, 97, 500, 224
-0.906728, 289, 1, 416, 256
-0.9079, 1, 49, 500, 176
-0.909752, 1, 1, 500, 128
-0.910288, 353, 1, 480, 375
-0.914777, 241, 1, 368, 375
-0.919701, 113, 97, 240, 352
-0.920235, 225, 1, 352, 256
-0.926671, 369, 97, 496, 352
-0.930842, 1, 161, 500, 288
-0.931346, 49, 97, 176, 352
-0.933332, 97, 81, 352, 208
-0.933902, 1, 1, 256, 128
-0.935175, 161, 97, 288, 352
-0.938475, 1, 129, 128, 375
-0.938947, 1, 49, 256, 176
-0.941852, 225, 97, 480, 224
-0.942855, 209, 129, 336, 375
-0.942915, 1, 113, 256, 240
-0.944474, 321, 97, 448, 352
-0.946221, 257, 97, 384, 352
-0.947794, 1, 161, 256, 288
-0.950638, 17, 49, 144, 176
-0.950713, 1, 1, 128, 128
-0.950954, 161, 1, 416, 128
-0.951572, 113, 81, 240, 208
-0.952374, 49, 33, 112, 160
-0.952901, 1, 1, 64, 128
-0.953514, 97, 33, 224, 160
-0.953528, 193, 49, 448, 176
-0.956231, 1, 209, 500, 336
-0.956449, 153, 33, 216, 160
-0.957695, 57, 113, 120, 240
-0.957813, 97, 129, 352, 256
-0.958346, 177, 49, 304, 176
-0.958361, 193, 161, 448, 288
-0.959029, 369, 65, 496, 192
-0.959344, 161, 81, 224, 208
-0.959561, 137, 81, 200, 208
-0.959647, 81, 81, 144, 208
-0.959657, 9, 49, 72, 176
-0.960128, 65, 121, 128, 184
-0.960209, 297, 113, 360, 176
-0.960405, 169, 161, 232, 288
-0.961546, 369, 17, 496, 144
-0.961642, 177, 201, 240, 264
-0.961716, 257, 97, 320, 224
-0.961823, 257, 81, 384, 208
-0.963019, 185, 225, 248, 288
-0.963202, 1, 113, 128, 240
-0.964089, 177, 1, 304, 128
-0.964653, 113, 97, 176, 224
-0.965119, 305, 97, 432, 224
-0.965129, 425, 129, 488, 256
-0.965164, 401, 129, 464, 256
-0.965247, 113, 105, 176, 168
-0.965332, 25, 1, 88, 128
-0.965773, 33, 113, 96, 240
-0.966478, 113, 17, 176, 144
-0.966629, 337, 81, 400, 144
-0.967458, 273, 105, 336, 168
-0.967582, 49, 1, 176, 128
-0.967758, 353, 97, 416, 224
-0.967898, 369, 129, 496, 256
-0.967918, 345, 105, 408, 168
-0.968118, 185, 113, 248, 240
-0.968323, 49, 113, 176, 240
-0.969056, 297, 81, 360, 144
-0.969137, 9, 97, 72, 224
-0.969193, 321, 17, 448, 144
-0.969345, 89, 33, 152, 160
-0.969428, 377, 17, 440, 144
-0.96945, 433, 65, 496, 192
-0.969664, 417, 17, 480, 144
-0.970057, 89, 89, 152, 152
-0.97007, 193, 137, 256, 200
-0.97042, 49, 49, 112, 112
-0.970453, 89, 113, 152, 176
-0.970569, 313, 97, 376, 224
-0.970598, 177, 129, 304, 256
-0.97068, 153, 105, 216, 168
-0.970913, 129, 129, 256, 256
-0.971028, 321, 105, 384, 168
-0.971052, 65, 209, 320, 336
-0.971092, 281, 97, 344, 224
-0.971316, 153, 65, 216, 128
-0.971857, 337, 17, 400, 144
-0.971891, 89, 57, 152, 120
-0.97192, 193, 209, 256, 336
-0.972199, 153, 1, 216, 256
-0.972213, 209, 209, 272, 272
-0.972279, 185, 65, 248, 192
-0.972318, 273, 1, 400, 128
-0.972373, 41, 129, 104, 192
-0.972389, 281, 49, 344, 176
-0.972476, 233, 137, 296, 200
-0.972534, 417, 137, 480, 200
-0.972548, 257, 1, 500, 128
-0.972564, 233, 129, 296, 256
-0.972745, 113, 129, 176, 192
-0.97275, 193, 1, 256, 128
-0.973431, 189, 209, 220, 272
-0.973432, 145, 225, 272, 352
-0.973462, 161, 225, 224, 288
-0.973472, 81, 1, 144, 256
-0.973749, 153, 153, 216, 216
-0.973756, 81, 113, 208, 176
-0.973779, 161, 209, 416, 336
-0.973903, 81, 161, 208, 288
-0.973999, 193, 177, 256, 240
-0.974112, 9, 1, 72, 256
-0.97427, 49, 1, 112, 256
-0.974439, 81, 129, 144, 256
-0.97464, 25, 33, 88, 96
-0.974735, 193, 161, 256, 288
-0.975151, 285, 97, 316, 160
-0.975259, 209, 201, 240, 264
-0.975283, 89, 137, 152, 200
-0.975455, 145, 129, 208, 192
-0.975487, 169, 129, 232, 192
-0.975555, 129, 81, 192, 144
-0.975722, 193, 33, 256, 96
-0.97583, 49, 97, 112, 160
-0.975926, 369, 105, 432, 168
-0.97599, 1, 49, 64, 112
-0.976073, 153, 201, 216, 264
-0.976162, 193, 193, 320, 320
-0.976269, 249, 97, 312, 160
-0.976352, 325, 105, 356, 168
-0.976575, 25, 65, 88, 128
-0.976968, 265, 137, 328, 200
-0.977033, 393, 65, 456, 192
-0.977054, 209, 113, 272, 240
-0.977107, 33, 9, 96, 72
-0.977243, 433, 113, 496, 176
-0.977632, 153, 33, 216, 96
-0.977661, 377, 129, 440, 256
-0.977692, 201, 225, 232, 288
-0.978525, 1, 17, 64, 80
-0.978566, 17, 129, 144, 192
-0.97862, 137, 97, 168, 160
-0.97864, 169, 225, 232, 352
-0.978657, 145, 129, 208, 256
-0.978683, 241, 49, 304, 176
-0.978878, 49, 73, 112, 136
-0.978893, 225, 129, 352, 256
-0.97894, 177, 97, 240, 160
-0.978943, 113, 49, 176, 112
-0.978996, 65, 25, 128, 88
-0.979055, 345, 1, 408, 256
-0.979085, 225, 185, 288, 248
-0.979266, 17, 161, 144, 288
-0.979301, 241, 1, 304, 128
-0.979321, 129, 97, 256, 160
-0.979388, 129, 177, 256, 304
-0.979434, 257, 105, 384, 168
-0.979444, 401, 1, 464, 256
-0.979475, 17, 97, 80, 160
-0.979892, 393, 137, 456, 200
-0.97997, 113, 161, 176, 224
-0.980223, 225, 1, 352, 128
-0.980297, 113, 1, 176, 256
-0.980451, 137, 177, 200, 304
-0.980575, 153, 177, 216, 240
-0.980666, 321, 145, 448, 272
-0.980791, 97, 121, 128, 184
-0.981031, 193, 65, 256, 128
-0.981105, 33, 97, 160, 160
-0.981148, 125, 97, 156, 160
-0.981202, 45, 1, 76, 128
-0.981417, 89, 161, 152, 224
-0.981485, 289, 137, 352, 200
-0.98155, 97, 65, 224, 128
-0.981552, 105, 145, 168, 272
-0.981608, 1, 57, 128, 120
-0.981715, 377, 105, 408, 168
-0.98177, 157, 65, 188, 192
-0.981832, 193, 137, 320, 200
-0.982016, 457, 145, 488, 208
-0.982063, 13, 1, 44, 128
-0.982069, 305, 113, 432, 176
-0.982116, 65, 145, 128, 208
-0.982172, 129, 129, 256, 192
-0.98226, 85, 113, 116, 176
-0.982332, 285, 81, 316, 208
-0.982401, 425, 1, 488, 256
-0.982551, 49, 57, 176, 120
-0.982595, 33, 33, 64, 160
-0.982706, 217, 161, 280, 224
-0.982809, 209, 65, 272, 192
-0.98283, 401, 25, 464, 88
-0.982858, 193, 81, 224, 208
-0.982925, 221, 209, 252, 272
-0.98308, 1, 1, 32, 128
-0.983108, 121, 121, 152, 184
-0.983114, 69, 1, 100, 128
-0.983199, 73, 105, 104, 168
-0.983223, 177, 97, 304, 160
-0.983231, 89, 33, 152, 96
-0.983266, 177, 1, 240, 256
-0.98337, 313, 1, 376, 256
-0.983801, 345, 145, 408, 208
-0.983912, 425, 25, 488, 88
-0.983924, 217, 177, 280, 304
-0.983959, 41, 161, 104, 288
-0.984023, 1, 73, 64, 136
-0.984034, 109, 129, 140, 192
-0.984106, 369, 145, 496, 208
-0.984131, 305, 81, 432, 144
-0.984206, 181, 33, 212, 160
-0.984252, 321, 137, 384, 200
-0.98426, 285, 121, 316, 184
-0.984422, 201, 161, 232, 288
-0.984455, 157, 105, 188, 168
-0.984485, 145, 33, 272, 96
-0.984561, 265, 161, 328, 224
-0.984574, 469, 121, 500, 184
-0.98464, 177, 73, 304, 136
-0.984714, 469, 81, 500, 208
-0.984817, 189, 129, 220, 192
-0.984904, 1, 33, 128, 96
-0.984918, 281, 1, 344, 128
-0.985074, 69, 129, 100, 192
-0.985096, 145, 225, 272, 288
-0.985158, 145, 161, 272, 224
-0.985176, 217, 145, 248, 272
-0.985187, 225, 1, 288, 256
-0.985189, 209, 233, 272, 296
-0.985224, 205, 177, 236, 240
-0.985232, 105, 1, 168, 375
-0.985236, 369, 145, 432, 208
-0.985356, 241, 137, 368, 200
-0.985368, 17, 137, 80, 200
-0.985379, 145, 121, 176, 184
-0.985421, 377, 41, 440, 104
-0.985431, 177, 225, 208, 288
-0.985471, 97, 33, 224, 96
-0.985491, 85, 137, 116, 200
-0.985494, 81, 89, 208, 152
-0.985503, 193, 217, 320, 280
-0.985591, 201, 1, 264, 256
-0.985634, 221, 137, 252, 200
-0.985637, 121, 97, 184, 352
-0.985643, 353, 41, 416, 104
-0.985701, 377, 1, 440, 256
-0.985779, 457, 97, 488, 224
-0.985805, 185, 185, 216, 248
-0.985866, 37, 65, 68, 128
-0.985876, 45, 33, 76, 96
-0.985878, 189, 233, 220, 296
-0.985897, 385, 81, 448, 144
-0.98595, 337, 105, 368, 168
-0.986, 149, 81, 180, 144
-0.986006, 65, 1, 128, 375
-0.986035, 1, 145, 64, 272
-0.986079, 241, 25, 304, 88
-0.986166, 169, 153, 200, 216
-0.986207, 185, 249, 248, 312
-0.986282, 65, 137, 192, 200
-0.98629, 209, 209, 240, 336
-0.986307, 173, 129, 204, 192
-0.986309, 81, 161, 208, 224
-0.986326, 77, 33, 108, 96
-0.986347, 185, 97, 248, 352
-0.986369, 57, 1, 88, 128
-0.986493, 9, 1, 72, 375
-0.986493, 469, 129, 500, 256
-0.986493, 133, 121, 164, 184
-0.986541, 205, 137, 236, 200
-0.986553, 161, 249, 224, 312
-0.986556, 185, 97, 216, 160
-0.986608, 381, 97, 412, 224
-0.98671, 81, 33, 112, 160
-0.986775, 217, 1, 280, 128
-0.986778, 273, 113, 304, 176
-0.986788, 57, 129, 88, 192
-0.9868, 137, 49, 168, 176
-0.986833, 61, 57, 92, 120
-0.98684, 297, 41, 360, 104
-0.986858, 369, 113, 496, 176
-0.986877, 457, 113, 488, 176
-0.986931, 329, 81, 360, 144
-0.986974, 185, 65, 216, 128
-0.986982, 185, 161, 216, 288
-0.987016, 441, 145, 472, 208
-0.987093, 137, 233, 200, 296
-0.987106, 305, 49, 368, 176
-0.987139, 305, 137, 432, 200
-0.987154, 437, 129, 468, 256
-0.987211, 129, 201, 256, 264
-0.987245, 329, 97, 360, 224
-0.987272, 121, 25, 184, 88
-0.987295, 13, 17, 44, 80
-0.987315, 117, 65, 148, 192
-0.987353, 221, 185, 252, 248
-0.987366, 241, 41, 368, 104
-0.987399, 49, 49, 80, 176
-0.987428, 49, 25, 176, 88
-0.987433, 389, 17, 420, 144
-0.98746, 101, 49, 132, 176
-0.987489, 305, 177, 368, 240
-0.987495, 21, 49, 52, 176
-0.987515, 97, 57, 128, 120
-0.987552, 305, 97, 336, 160
-0.987554, 129, 193, 192, 256
-0.987596, 221, 193, 252, 320
-0.9876, 217, 25, 280, 88
-0.98764, 177, 81, 208, 208
-0.987654, 353, 1, 416, 375
-0.987716, 369, 65, 496, 128
-0.987734, 321, 41, 448, 104
-0.987775, 41, 113, 72, 240
-0.987788, 53, 113, 84, 240
-0.987832, 217, 113, 280, 176
-0.987852, 117, 113, 148, 240
-0.987858, 33, 1, 96, 375
-0.987956, 257, 73, 384, 136
-0.988006, 281, 1, 344, 256
-0.988076, 193, 33, 320, 96
-0.988077, 261, 137, 292, 200
-0.988141, 129, 113, 160, 240
-0.988188, 33, 161, 160, 224
-0.988217, 77, 113, 108, 240
-0.988271, 185, 1, 248, 375
-0.988278, 81, 185, 144, 248
-0.988315, 117, 57, 148, 120
-0.988329, 433, 57, 496, 120
-0.988352, 169, 33, 200, 160
-0.988405, 273, 145, 400, 272
-0.988407, 257, 225, 500, 352
-0.988418, 345, 73, 376, 136
-0.988442, 421, 129, 452, 256
-0.988446, 369, 25, 496, 88
-0.988453, 329, 17, 392, 80
-0.98846, 41, 185, 104, 248
-0.988512, 469, 17, 500, 144
-0.988512, 89, 81, 120, 208
-0.988531, 1, 9, 128, 72
-0.988561, 33, 33, 64, 96
-0.988578, 77, 73, 108, 136
-0.988598, 149, 113, 180, 240
-0.988603, 193, 1, 224, 128
-0.988618, 245, 137, 276, 200
-0.988629, 353, 145, 416, 272
-0.988642, 237, 129, 268, 256
-0.988646, 205, 113, 236, 240
-0.988724, 137, 73, 168, 136
-0.988733, 53, 9, 84, 72
-0.988738, 389, 113, 420, 176
-0.988761, 209, 193, 336, 256
-0.988798, 97, 145, 128, 208
-0.988973, 377, 17, 408, 144
-0.988982, 401, 129, 432, 256
-0.989043, 193, 9, 256, 72
-0.989061, 145, 225, 208, 352
-0.98907, 193, 161, 320, 224
-0.989106, 101, 1, 132, 128
-0.989111, 297, 109, 360, 140
-0.989123, 173, 105, 204, 168
-0.989156, 329, 145, 392, 272
-0.989157, 161, 1, 224, 375
-0.989161, 73, 121, 136, 152
-0.989164, 469, 145, 500, 208
-0.989166, 453, 17, 484, 144
-0.989187, 273, 81, 304, 208
-0.989196, 161, 113, 192, 240
-0.989241, 109, 97, 140, 160
-0.989293, 113, 113, 176, 144
-0.989297, 297, 121, 328, 184
-0.989312, 273, 81, 336, 144
-0.989326, 145, 97, 208, 352
-0.989396, 129, 49, 160, 112
-0.989502, 337, 109, 400, 140
-0.989512, 177, 221, 240, 252
-0.989515, 273, 137, 304, 200
-0.98954, 189, 41, 220, 104
-0.989563, 213, 233, 244, 296
-0.989584, 65, 109, 128, 140
-0.989603, 41, 153, 104, 216
-0.989647, 289, 17, 416, 80
-0.989659, 173, 129, 204, 256
-0.989714, 49, 65, 80, 128
-0.989726, 401, 17, 432, 144
-0.989759, 205, 25, 236, 88
-0.989797, 89, 9, 152, 72
-0.989811, 189, 153, 220, 216
-0.989818, 49, 57, 112, 88
-0.98982, 113, 125, 176, 156
-0.989847, 153, 9, 216, 72
-0.989916, 129, 1, 192, 375
-0.98998, 65, 49, 96, 176
-0.990034, 65, 113, 96, 240
-0.990059, 205, 65, 236, 192
-0.990074, 273, 185, 336, 248
-0.990095, 65, 133, 128, 164
-0.99011, 97, 97, 160, 352
-0.990128, 5, 65, 36, 192
-0.990128, 293, 145, 324, 208
-0.990133, 153, 161, 184, 224
-0.990148, 201, 57, 264, 88
-0.990188, 229, 161, 260, 224
-0.990192, 233, 137, 264, 200
-0.990202, 273, 105, 336, 136
-0.990227, 161, 81, 192, 144
-0.990284, 425, 137, 456, 200
-0.990315, 157, 137, 188, 200
-0.99035, 209, 49, 240, 112
-0.990362, 153, 229, 216, 260
-0.990365, 205, 1, 236, 128
-0.990389, 289, 9, 352, 72
-0.990432, 41, 129, 104, 160
-0.990474, 469, 97, 500, 160
-0.990519, 25, 65, 88, 96
-0.990531, 161, 61, 224, 92
-0.990535, 209, 1, 272, 375
-0.990589, 177, 237, 240, 268
-0.990623, 297, 1, 360, 375
-0.990669, 321, 161, 448, 224
-0.99068, 377, 1, 440, 375
-0.9907, 261, 65, 292, 192
-0.990733, 221, 25, 252, 88
-0.990743, 309, 137, 340, 200
-0.990747, 17, 97, 48, 224
-0.990754, 377, 145, 408, 208
-0.99077, 1, 201, 64, 264
-0.990771, 113, 101, 176, 132
-0.990823, 9, 53, 72, 84
-0.990825, 137, 117, 200, 148
-0.990826, 121, 69, 184, 100
-0.990837, 37, 9, 68, 72
-0.990843, 193, 209, 224, 336
-0.990849, 89, 61, 152, 92
-0.990852, 241, 73, 304, 136
-0.990914, 81, 37, 144, 68
-0.990921, 173, 201, 204, 264
-0.990945, 265, 33, 328, 96
-0.99095, 185, 137, 248, 168
-0.990965, 41, 117, 104, 148
-0.990975, 329, 129, 360, 192
-0.99098, 17, 97, 48, 160
-0.990986, 409, 1, 472, 375
-0.991049, 73, 49, 136, 80
-0.991059, 433, 141, 496, 172
-0.991069, 41, 97, 104, 352
-0.991081, 101, 97, 132, 224
-0.991083, 1, 9, 32, 72
-0.991127, 405, 145, 436, 208
-0.991127, 269, 1, 300, 128
-0.991142, 177, 209, 240, 240
-0.991145, 365, 105, 396, 168
-0.991169, 137, 161, 168, 224
-0.991174, 89, 81, 120, 144
-0.99119, 201, 69, 264, 100
-0.991193, 97, 97, 352, 160
-0.991228, 417, 61, 480, 92
-0.991253, 17, 49, 48, 112
-0.991254, 169, 49, 232, 80
-0.991271, 329, 1, 392, 375
-0.991286, 401, 141, 464, 172
-0.991286, 173, 73, 204, 136
-0.991315, 57, 33, 88, 96
-0.991334, 17, 101, 80, 132
-0.99135, 369, 17, 432, 80
-0.99137, 201, 237, 264, 268
-0.991387, 201, 217, 264, 248
-0.991398, 185, 37, 248, 68
-0.991404, 177, 193, 240, 224
-0.991412, 289, 193, 416, 320
-0.991416, 153, 105, 216, 136
-0.991436, 25, 37, 88, 68
-0.991441, 113, 45, 176, 76
-0.991446, 405, 25, 436, 88
-0.991468, 137, 93, 200, 124
-0.991508, 165, 225, 196, 288
-0.991511, 369, 109, 432, 140
-0.991514, 241, 169, 368, 232
-0.99153, 297, 121, 360, 152
-0.991538, 117, 1, 148, 128
-0.991557, 177, 181, 240, 212
-0.991558, 385, 41, 416, 104
-0.991579, 161, 37, 224, 68
-0.991581, 433, 1, 496, 375
-0.991588, 105, 25, 136, 88
-0.991595, 49, 105, 80, 168
-0.991608, 121, 57, 184, 88
-0.991612, 249, 1, 312, 256
-0.991632, 153, 241, 216, 272
-0.991649, 225, 61, 288, 92
-0.991669, 161, 77, 224, 108
-0.991678, 369, 89, 496, 152
-0.991691, 81, 209, 208, 336
-0.991693, 393, 113, 456, 176
-0.991701, 49, 45, 112, 76
-0.991703, 225, 49, 288, 80
-0.991717, 97, 9, 224, 72
-0.991724, 337, 97, 400, 128
-0.991731, 17, 97, 80, 352
-0.991736, 137, 129, 200, 160
-0.991737, 393, 61, 456, 92
-0.991755, 433, 153, 496, 184
-0.991771, 217, 141, 280, 172
-0.991784, 1, 129, 32, 192
-0.991792, 49, 77, 112, 108
-0.991815, 173, 33, 204, 96
-0.991818, 369, 97, 400, 224
-0.991823, 17, 161, 80, 224
-0.991825, 45, 129, 76, 192
-0.991825, 137, 193, 200, 224
-0.991826, 281, 93, 344, 124
-0.991828, 89, 133, 152, 164
-0.991828, 217, 185, 280, 216
-0.991829, 97, 225, 224, 288
-0.991848, 281, 33, 312, 160
-0.991851, 89, 109, 152, 140
-0.991863, 177, 249, 240, 280
-0.991911, 377, 45, 440, 76
-0.991928, 145, 49, 208, 80
-0.991947, 157, 57, 188, 120
-0.991964, 129, 137, 384, 200
-0.991977, 89, 185, 152, 216
-0.991996, 145, 249, 272, 312
-0.992006, 249, 145, 312, 176
-0.992012, 417, 225, 480, 288
-0.99202, 161, 137, 224, 168
-0.992025, 73, 145, 136, 176
-0.992035, 433, 97, 496, 352
-0.992054, 65, 185, 192, 248
-0.992055, 469, 65, 500, 128
-0.992061, 137, 37, 200, 68
-0.992078, 157, 17, 188, 144
-0.992089, 441, 17, 472, 144
-0.992096, 153, 181, 216, 212
-0.992098, 89, 85, 152, 116
-0.992101, 361, 121, 424, 152
-0.992103, 209, 9, 336, 72
-0.992105, 369, 169, 432, 232
-0.992124, 361, 61, 424, 92
-0.992133, 273, 145, 336, 176
-0.992147, 389, 145, 420, 208
-0.99215, 337, 121, 400, 152
-0.99215, 49, 93, 112, 124
-0.992153, 1, 65, 64, 96
-0.992163, 241, 161, 304, 224
-0.992184, 97, 73, 160, 104
-0.992186, 29, 113, 60, 240
-0.992187, 105, 121, 136, 152
-0.992191, 325, 105, 356, 136
-0.992193, 193, 165, 256, 196
-0.992202, 137, 165, 200, 196
-0.992209, 169, 169, 232, 200
-0.99221, 233, 185, 264, 248
-0.992216, 249, 49, 312, 80
-0.992252, 1, 105, 500, 168
-0.992259, 105, 165, 168, 196
-0.992262, 9, 77, 72, 108
-0.992265, 257, 125, 320, 156
-0.992288, 201, 197, 264, 228
-0.992291, 113, 137, 176, 168
-0.992308, 17, 117, 80, 148
-0.99232, 89, 33, 120, 96
-0.99232, 289, 73, 320, 136
-0.992328, 425, 129, 488, 160
-0.992335, 5, 49, 36, 112
-0.992356, 89, 129, 120, 256
-0.99237, 433, 105, 496, 136
-0.992376, 253, 1, 284, 128
-0.992377, 273, 193, 400, 256
-0.992377, 109, 161, 140, 224
-0.99238, 417, 161, 480, 224
-0.992386, 281, 41, 344, 72
-0.9924, 217, 165, 280, 196
-0.9924, 161, 157, 224, 188
-0.992405, 249, 185, 312, 248
-0.992405, 161, 125, 224, 156
-0.992406, 137, 81, 200, 112
-0.99243, 177, 97, 240, 128
-0.992431, 285, 101, 316, 132
-0.992459, 313, 77, 376, 108
-0.992472, 229, 1, 260, 128
-0.992473, 1, 89, 64, 120
-0.992476, 137, 145, 200, 176
-0.992505, 89, 97, 152, 128
-0.992506, 401, 45, 464, 76
-0.99252, 377, 109, 408, 140
-0.992525, 249, 101, 312, 132
-0.992526, 337, 69, 400, 100
-0.992529, 125, 117, 156, 148
-0.992537, 213, 193, 244, 224
-0.992541, 1, 21, 64, 52
-0.992545, 25, 13, 88, 44
-0.992558, 85, 113, 116, 144
-0.992576, 365, 17, 396, 144
-0.99258, 257, 173, 320, 204
-0.992581, 69, 129, 100, 160
-0.992583, 65, 113, 96, 144
-0.992594, 1, 185, 128, 248
-0.992595, 425, 73, 488, 104
-0.992601, 141, 1, 172, 128
-0.992637, 353, 37, 416, 68
-0.992643, 297, 97, 328, 224
-0.99265, 313, 161, 344, 224
-0.992655, 225, 197, 288, 228
-0.992667, 153, 205, 216, 236
-0.992669, 209, 229, 240, 260
-0.992669, 201, 81, 264, 112
-0.992682, 169, 193, 200, 320
-0.992685, 377, 73, 440, 104
-0.992688, 401, 73, 464, 104
-0.992694, 449, 145, 480, 272
-0.992696, 73, 73, 136, 104
-0.992711, 49, 149, 112, 180
-0.992712, 113, 29, 176, 60
-0.99272, 185, 221, 216, 252
-0.992734, 369, 137, 432, 168
-0.992743, 129, 177, 192, 208
-0.992745, 45, 53, 76, 84
-0.992745, 365, 145, 396, 208
-0.992746, 85, 125, 116, 156
-0.992749, 197, 221, 228, 252
-0.992758, 113, 197, 176, 228
-0.992761, 465, 141, 496, 172
-0.992771, 397, 65, 428, 192
-0.992777, 153, 253, 216, 284
-0.992788, 393, 33, 456, 64
-0.99279, 125, 105, 156, 136
-0.992791, 209, 61, 240, 92
-0.992795, 137, 105, 168, 136
-0.992795, 241, 161, 304, 192
-0.992797, 197, 241, 228, 272
-0.9928, 213, 217, 244, 248
-0.99281, 297, 145, 360, 176
-0.992812, 141, 125, 172, 156
-0.992817, 469, 101, 500, 132
-0.992818, 33, 57, 64, 88
-0.992835, 1, 121, 256, 184
-0.992836, 49, 29, 112, 60
-0.992837, 17, 129, 80, 160
-0.992844, 313, 33, 376, 64
-0.992847, 469, 25, 500, 88
-0.992848, 369, 177, 496, 304
-0.99285, 129, 233, 192, 264
-0.992851, 305, 217, 432, 280
-0.992859, 353, 49, 416, 80
-0.992862, 393, 161, 456, 224
-0.992872, 413, 17, 444, 144
-0.992877, 1, 129, 500, 192
-0.992887, 73, 165, 136, 196
-0.992896, 305, 109, 336, 140
-0.992897, 229, 53, 260, 84
-0.9929, 53, 117, 84, 148
-0.992907, 161, 113, 192, 144
-0.992912, 297, 65, 360, 96
-0.992915, 409, 65, 440, 96
-0.992919, 77, 49, 108, 80
-0.992921, 5, 97, 36, 160
-0.992924, 65, 57, 96, 88
-0.992931, 57, 129, 88, 160
-0.992932, 109, 61, 140, 92
-0.992957, 369, 225, 496, 288
-0.99296, 125, 129, 156, 160
-0.992967, 185, 245, 216, 276
-0.992969, 453, 145, 484, 176
-0.992977, 409, 65, 472, 128
-0.992979, 49, 125, 176, 156
-0.992982, 149, 109, 180, 140
-0.992994, 93, 61, 124, 92
-0.992998, 17, 49, 48, 80
-0.992999, 213, 205, 244, 236
-0.993001, 437, 141, 468, 172
-0.993011, 205, 49, 236, 80
-0.993012, 189, 65, 220, 96
-0.993015, 429, 17, 460, 144
-0.993016, 101, 45, 132, 76
-0.993026, 69, 37, 100, 68
-0.993031, 201, 209, 232, 240
-0.993033, 185, 233, 216, 264
-0.993034, 201, 197, 232, 228
-0.993051, 153, 125, 184, 156
-0.993062, 113, 109, 144, 140
-0.993064, 465, 153, 496, 184
-0.993073, 217, 49, 280, 112
-0.993076, 161, 57, 192, 88
-0.993086, 1, 65, 256, 128
-0.99309, 221, 181, 252, 212
-0.9931, 337, 109, 368, 140
-0.9931, 217, 49, 248, 80
-0.993109, 97, 133, 128, 164
-0.993114, 5, 53, 36, 84
-0.993115, 185, 205, 216, 236
-0.993117, 125, 61, 156, 92
-0.993122, 169, 45, 200, 76
-0.993124, 145, 61, 176, 92
-0.993126, 349, 105, 380, 136
-0.993136, 49, 65, 80, 96
-0.993155, 161, 101, 192, 132
-0.993156, 37, 37, 68, 68
-0.993159, 165, 229, 196, 260
-0.993161, 185, 137, 216, 168
-0.993162, 329, 169, 392, 232
-0.993167, 169, 241, 200, 272
-0.993172, 109, 133, 140, 164
-0.993174, 141, 45, 172, 76
-0.993174, 13, 73, 44, 136
-0.993182, 201, 181, 232, 212
-0.993184, 225, 201, 256, 232
-0.993186, 61, 105, 92, 168
-0.99319, 353, 129, 384, 256
-0.993193, 225, 213, 256, 244
-0.993196, 209, 73, 240, 104
-0.993202, 93, 145, 124, 176
-0.993204, 137, 93, 168, 124
-0.99321, 469, 69, 500, 100
-0.99321, 341, 69, 372, 100
-0.993213, 81, 37, 112, 68
-0.993213, 193, 49, 224, 80
-0.993217, 317, 97, 348, 224
-0.993222, 49, 97, 80, 128
-0.993222, 233, 181, 264, 212
-0.993232, 57, 45, 88, 76
-0.993232, 285, 145, 316, 176
-0.993232, 265, 145, 296, 176
-0.993234, 329, 125, 360, 156
-0.993238, 273, 165, 304, 196
-0.993241, 285, 113, 316, 144
-0.993242, 225, 105, 480, 168
-0.993244, 453, 133, 484, 164
-0.993246, 365, 109, 396, 140
-0.993249, 125, 45, 156, 76
-0.993254, 145, 77, 176, 108
-0.993258, 97, 109, 128, 140
-0.993261, 189, 77, 220, 108
-0.993262, 81, 61, 112, 92
-0.993265, 45, 133, 76, 164
-0.993271, 397, 61, 428, 92
-0.993272, 249, 141, 280, 172
-0.993273, 97, 73, 128, 104
-0.993274, 157, 165, 188, 196
-0.993274, 229, 141, 260, 172
-0.993275, 197, 97, 228, 160
-0.993275, 241, 57, 272, 88
-0.993281, 113, 49, 144, 80
-0.993283, 169, 133, 200, 164
-0.99329, 213, 165, 244, 196
-0.993296, 233, 25, 264, 88
-0.993305, 69, 97, 100, 128
-0.993308, 21, 61, 52, 92
-0.993318, 201, 137, 232, 168
-0.993318, 169, 145, 200, 176
-0.99332, 317, 121, 348, 152
-0.99332, 37, 97, 68, 128
-0.99332, 221, 229, 252, 260
-0.993323, 181, 157, 212, 188
-0.993325, 305, 1, 368, 128
-0.993326, 193, 37, 224, 68
-0.99333, 201, 169, 232, 200
-0.993335, 373, 97, 404, 128
-0.993336, 77, 77, 108, 108
-0.993338, 401, 45, 432, 76
-0.993339, 221, 65, 252, 96
-0.993339, 469, 89, 500, 120
-0.993342, 181, 37, 212, 68
-0.993343, 161, 33, 192, 64
-0.993345, 13, 21, 44, 52
-0.993346, 409, 129, 472, 375
-0.99335, 389, 113, 420, 144
-0.993351, 125, 77, 156, 108
-0.993351, 37, 69, 68, 100
-0.993353, 385, 45, 416, 76
-0.993353, 169, 217, 200, 248
-0.993355, 305, 97, 336, 128
-0.993357, 285, 125, 316, 156
-0.993357, 181, 169, 212, 200
-0.993366, 129, 1, 160, 128
-0.993434, 1, 209, 128, 272
-0.993481, 1, 73, 32, 136
-0.9935, 241, 193, 368, 320
-0.993526, 145, 49, 176, 112
-0.993597, 125, 161, 156, 224
-0.993652, 341, 113, 372, 240
-0.993671, 181, 225, 212, 352
-0.993681, 49, 113, 176, 144
-0.993684, 37, 97, 68, 160
-0.993739, 1, 161, 256, 224
-0.993745, 253, 113, 284, 240
-0.993762, 105, 185, 168, 248
-0.993766, 65, 177, 128, 304
-0.993771, 65, 9, 96, 72
-0.99379, 49, 209, 112, 272
-0.993866, 273, 145, 336, 272
-0.993874, 217, 81, 248, 208
-0.993901, 161, 33, 192, 96
-0.993907, 273, 1, 336, 375
-0.993924, 125, 25, 156, 88
-0.993933, 437, 25, 468, 88
-0.99397, 101, 145, 132, 272
-0.993998, 305, 73, 336, 136
-0.994068, 233, 81, 264, 208
-0.994083, 145, 9, 272, 72
-0.994091, 25, 9, 56, 72
-0.994107, 341, 105, 356, 168
-0.994117, 437, 121, 468, 184
-0.994119, 369, 169, 496, 232
-0.994121, 233, 1, 296, 375
-0.994123, 433, 177, 496, 304
-0.99415, 377, 81, 408, 144
-0.994194, 341, 137, 372, 200
-0.994196, 385, 97, 448, 352
-0.994235, 97, 129, 224, 160
-0.994271, 217, 129, 280, 375
-0.994294, 313, 201, 376, 264
-0.994326, 335, 105, 350, 168
-0.994378, 349, 49, 380, 176
-0.994425, 1, 81, 500, 144
-0.994466, 113, 61, 240, 92
-0.994477, 193, 241, 320, 304
-0.994541, 49, 1, 176, 64
-0.99456, 217, 1, 248, 128
-0.994603, 1, 209, 128, 336
-0.994604, 249, 65, 280, 192
-0.994672, 1, 57, 128, 88
-0.994687, 257, 81, 500, 144
-0.994688, 297, 97, 312, 160
-0.994696, 225, 185, 240, 248
-0.994705, 1, 133, 128, 164
-0.994884, 361, 65, 424, 128
-0.994893, 129, 73, 384, 136
-0.994908, 33, 41, 288, 104
-0.994947, 329, 97, 392, 352
-0.994962, 205, 209, 220, 272
-0.994974, 219, 217, 234, 280
-0.99499, 65, 49, 192, 80
-0.995011, 289, 97, 304, 160
-0.995022, 145, 49, 272, 80
-0.995036, 345, 201, 408, 264
-0.995036, 5, 113, 36, 240
-0.995044, 1, 41, 500, 104
-0.995091, 305, 109, 432, 140
-0.995162, 213, 209, 228, 272
-0.99517, 57, 1, 120, 64
-0.995203, 257, 145, 500, 208
-0.995216, 157, 177, 188, 304
-0.995244, 391, 105, 406, 168
-0.995261, 389, 145, 420, 272
-0.995284, 385, 105, 400, 168
-0.995305, 33, 17, 288, 80
-0.995307, 49, 209, 176, 272
-0.995321, 199, 201, 214, 264
-0.995355, 161, 161, 416, 224
-0.995362, 97, 249, 224, 312
-0.995369, 305, 49, 336, 176
-0.995396, 339, 81, 354, 144
-0.995397, 321, 41, 384, 104
-0.9954, 141, 97, 156, 160
-0.995419, 257, 109, 384, 140
-0.995453, 97, 113, 224, 144
-0.995457, 191, 217, 206, 280
-0.995475, 161, 185, 416, 248
-0.995499, 327, 105, 342, 168
-0.995524, 193, 49, 448, 112
-0.99554, 105, 137, 120, 200
-0.995541, 369, 1, 496, 64
-0.995554, 33, 185, 288, 248
-0.995568, 1, 97, 256, 160
-0.995596, 49, 61, 176, 92
-0.995598, 265, 129, 296, 256
-0.995614, 369, 141, 496, 172
-0.995614, 137, 257, 200, 320
-0.995629, 433, 201, 496, 264
-0.995649, 369, 193, 496, 256
-0.995688, 337, 49, 368, 176
-0.995782, 341, 1, 372, 128
-0.995824, 1, 161, 500, 224
-0.995829, 209, 233, 224, 296
-0.995862, 73, 97, 136, 352
-0.995874, 151, 97, 166, 160
-0.995877, 305, 177, 368, 304
-0.995886, 161, 225, 416, 288
-0.995946, 161, 61, 288, 92
-0.995968, 369, 109, 496, 140
-0.995982, 97, 113, 112, 176
-0.995985, 129, 229, 256, 260
-0.996004, 369, 201, 432, 264
-0.996006, 421, 65, 452, 192
-0.996023, 197, 225, 212, 288
-0.996081, 463, 145, 478, 208
-0.996085, 273, 97, 336, 352
-0.996118, 73, 209, 136, 272
-0.996118, 393, 217, 456, 280
-0.99612, 193, 25, 448, 88
-0.996121, 225, 209, 240, 272
-0.996156, 91, 113, 106, 176
-0.996172, 233, 137, 248, 200
-0.996189, 273, 209, 336, 272
-0.996229, 293, 121, 308, 184
-0.996232, 473, 137, 488, 200
-0.996246, 91, 73, 106, 136
-0.996247, 67, 129, 82, 192
-0.99625, 181, 129, 196, 192
-0.996265, 187, 241, 202, 304
-0.996292, 333, 81, 348, 144
-0.996293, 321, 185, 448, 248
-0.996295, 231, 193, 246, 256
-0.996307, 377, 105, 392, 168
-0.996308, 1, 113, 128, 144
-0.99633, 197, 177, 212, 240
-0.996351, 203, 233, 218, 296
-0.996352, 433, 89, 496, 152
-0.996352, 441, 65, 472, 192
-0.996353, 227, 137, 242, 200
-0.996359, 193, 137, 208, 200
-0.996365, 385, 177, 448, 304
-0.996368, 81, 129, 96, 192
-0.996387, 131, 97, 146, 160
-0.996389, 485, 121, 500, 184
-0.996392, 303, 97, 318, 160
-0.996398, 471, 113, 486, 176
-0.996428, 73, 121, 88, 184
-0.996431, 81, 97, 96, 160
-0.99645, 449, 145, 464, 208
-0.996451, 455, 145, 470, 208
-0.996457, 181, 217, 196, 280
-0.99647, 145, 37, 272, 68
-0.996483, 161, 137, 288, 168
-0.996504, 161, 81, 176, 144
-0.996505, 111, 121, 126, 184
-0.996513, 299, 121, 314, 184
-0.996516, 113, 77, 240, 108
-0.99654, 93, 137, 108, 200
-0.996544, 99, 137, 114, 200
-0.996552, 1, 209, 256, 272
-0.996556, 143, 121, 158, 184
-0.996557, 153, 73, 168, 136
-0.996561, 353, 193, 416, 320
-0.996571, 219, 193, 234, 256
-0.996573, 53, 65, 68, 128
-0.996579, 325, 49, 356, 176
-0.996581, 353, 1, 384, 128
-0.996582, 119, 121, 134, 184
-0.996593, 175, 105, 190, 168
-0.996611, 129, 121, 144, 184
-0.996611, 153, 121, 168, 184
-0.996611, 217, 137, 232, 200
-0.996614, 135, 121, 150, 184
-0.996627, 213, 185, 228, 248
-0.996637, 241, 1, 304, 64
-0.996657, 61, 129, 76, 192
-0.996657, 129, 217, 256, 248
-0.996662, 233, 177, 264, 304
-0.996663, 209, 129, 224, 192
-0.996665, 265, 9, 328, 72
-0.996674, 21, 1, 52, 256
-0.996682, 347, 113, 362, 176
-0.996685, 297, 1, 328, 128
-0.996691, 409, 177, 472, 304
-0.996697, 187, 153, 202, 216
-0.996698, 65, 37, 192, 68
-0.996704, 337, 61, 464, 92
-0.996706, 113, 161, 240, 192
-0.996734, 287, 121, 302, 184
-0.996738, 159, 105, 174, 168
-0.996739, 21, 17, 36, 80
-0.99674, 161, 161, 176, 224
-0.99674, 201, 65, 216, 128
-0.996764, 271, 137, 286, 200
-0.996773, 45, 1, 76, 256
-0.996776, 409, 81, 440, 208
-0.996776, 61, 161, 92, 288
-0.99678, 89, 49, 104, 112
-0.996781, 1, 17, 500, 80
-0.996808, 397, 105, 412, 168
-0.99681, 133, 161, 164, 288
-0.99681, 177, 221, 304, 252
-0.996813, 245, 137, 260, 200
-0.996817, 193, 49, 320, 80
-0.996822, 241, 49, 304, 112
-0.996823, 185, 97, 200, 160
-0.996827, 203, 137, 218, 200
-0.996828, 281, 137, 296, 200
-0.996828, 97, 101, 224, 132
-0.996831, 33, 305, 160, 368
-0.996832, 49, 137, 176, 168
-0.996833, 17, 37, 144, 68
-0.996847, 61, 1, 92, 256
-0.996855, 361, 129, 424, 375
-0.996863, 125, 57, 140, 120
-0.996872, 377, 145, 408, 272
-0.996874, 73, 161, 104, 288
-0.996882, 205, 185, 220, 248
-0.996888, 13, 9, 28, 72
-0.996894, 199, 97, 214, 160
-0.996926, 305, 121, 432, 152
-0.99693, 145, 241, 272, 272
-0.996934, 1, 1, 32, 256
-0.996939, 113, 181, 240, 212
-0.996941, 481, 153, 496, 216
-0.996949, 479, 121, 494, 184
-0.996973, 197, 25, 212, 88
-0.996976, 169, 97, 184, 160
-0.996984, 463, 113, 478, 176
-0.996993, 55, 33, 70, 96
-0.996998, 191, 177, 206, 240
-0.997014, 265, 137, 280, 200
-0.997041, 193, 173, 320, 204
-0.997049, 155, 161, 170, 224
-0.997052, 145, 193, 272, 224
-0.997064, 329, 225, 392, 288
-0.99708, 33, 1, 64, 256
-0.997085, 345, 65, 360, 128
-0.997086, 29, 17, 44, 80
-0.997088, 257, 125, 384, 156
-0.997088, 47, 41, 62, 104
-0.997088, 77, 57, 92, 120
-0.997099, 113, 1, 144, 256
-0.997103, 187, 129, 202, 192
-0.997104, 433, 1, 496, 64
-0.997104, 99, 57, 114, 120
-0.997135, 251, 137, 266, 200
-0.997138, 69, 97, 84, 160
-0.997139, 283, 97, 298, 160
-0.997157, 389, 81, 404, 144
-0.99716, 143, 161, 158, 224
-0.997164, 177, 93, 304, 124
-0.997169, 239, 137, 254, 200
-0.99717, 305, 137, 320, 200
-0.997172, 259, 137, 274, 200
-0.997174, 125, 1, 156, 256
-0.997187, 297, 73, 312, 136
-0.99719, 81, 1, 112, 256
-0.997192, 317, 137, 332, 200
-0.997198, 257, 169, 500, 232
-0.997209, 17, 73, 144, 104
-0.997213, 241, 241, 368, 304
-0.997225, 193, 233, 320, 264
-0.997226, 193, 73, 320, 104
-0.99723, 377, 145, 392, 208
-0.997231, 39, 25, 54, 88
-0.997236, 209, 145, 336, 176
-0.997236, 233, 209, 296, 272
-0.997239, 179, 65, 194, 128
-0.997246, 191, 97, 206, 160
-0.997246, 169, 153, 184, 216
-0.997248, 237, 201, 252, 264
-0.997248, 405, 1, 436, 256
-0.997258, 399, 41, 414, 104
-0.997264, 11, 33, 26, 96
-0.997265, 233, 25, 248, 88
-0.997267, 369, 153, 496, 184
-0.997273, 153, 1, 184, 256
-0.997274, 175, 129, 190, 192
-0.997283, 241, 129, 304, 375
-0.997284, 47, 65, 62, 128
-0.997291, 289, 241, 416, 304
-0.997291, 217, 217, 232, 248
-0.997307, 85, 73, 100, 136
-0.997308, 13, 73, 28, 136
-0.99731, 87, 137, 102, 200
-0.99731, 231, 217, 246, 280
-0.997311, 65, 9, 80, 72
-0.997314, 65, 233, 320, 296
-0.997317, 481, 97, 496, 160
-0.997324, 103, 113, 118, 176
-0.997325, 119, 57, 134, 120
-0.997326, 1, 25, 16, 88
-0.997334, 129, 205, 256, 236
-0.997335, 209, 25, 224, 88
-0.997335, 223, 25, 238, 88
-0.997337, 469, 1, 500, 256
-0.997396, 119, 121, 134, 152
-0.997412, 339, 105, 354, 136
-0.997413, 209, 185, 336, 216
-0.997461, 177, 209, 304, 240
-0.997467, 97, 89, 224, 120
-0.997475, 49, 233, 176, 296
-0.997485, 225, 213, 240, 244
-0.997506, 185, 1, 216, 256
-0.997514, 69, 117, 84, 148
-0.997521, 1, 145, 128, 176
-0.997538, 109, 121, 124, 152
-0.997552, 49, 93, 176, 124
-0.997568, 305, 97, 368, 352
-0.99757, 385, 109, 400, 140
-0.997602, 75, 113, 90, 144
-0.997611, 129, 117, 144, 148
-0.997616, 137, 33, 168, 288
-0.997617, 1, 233, 64, 296
-0.997619, 353, 1, 384, 256
-0.997627, 377, 1, 408, 256
-0.99763, 93, 1, 124, 256
-0.997634, 209, 61, 336, 92
-0.99764, 289, 145, 416, 176
-0.997667, 177, 105, 304, 136
-0.997667, 211, 217, 226, 248
-0.997671, 193, 197, 320, 228
-0.997681, 333, 109, 348, 140
-0.99772, 145, 121, 272, 152
-0.997722, 1, 97, 128, 128
-0.997723, 89, 113, 104, 144
-0.997726, 225, 189, 240, 220
-0.99773, 193, 157, 320, 188
-0.99773, 97, 141, 224, 172
-0.997733, 425, 1, 456, 256
-0.997746, 327, 109, 342, 140
-0.997755, 201, 89, 264, 152
-0.997761, 165, 1, 196, 256
-0.997768, 63, 117, 78, 148
-0.997774, 369, 97, 496, 128
-0.997777, 391, 109, 406, 140
-0.99778, 241, 1, 272, 128
-0.997795, 45, 161, 76, 288
-0.997799, 229, 201, 244, 232
-0.997816, 451, 145, 466, 176
-0.997829, 353, 129, 480, 160
-0.997831, 1, 185, 500, 248
-0.997842, 445, 1, 476, 256
-0.997844, 305, 97, 432, 128
-0.997852, 49, 149, 176, 180
-0.997853, 65, 173, 192, 204
-0.997873, 257, 97, 384, 128
-0.997887, 69, 129, 84, 160
-0.99789, 101, 125, 116, 156
-0.997892, 79, 125, 94, 156
-0.997893, 81, 25, 208, 56
-0.997896, 153, 105, 168, 136
-0.997897, 81, 113, 96, 144
-0.997905, 145, 253, 272, 284
-0.997911, 145, 177, 176, 304
-0.997916, 189, 229, 204, 260
-0.997919, 257, 177, 384, 208
-0.997922, 465, 149, 480, 180
-0.997938, 369, 45, 496, 76
-0.997947, 211, 237, 226, 268
-0.997959, 63, 133, 78, 164
-0.997964, 425, 249, 488, 312
-0.997966, 65, 281, 192, 344
-0.997967, 85, 129, 100, 160
-0.997968, 137, 109, 152, 140
-0.997974, 223, 201, 238, 232
-0.997979, 17, 17, 144, 48
-0.997982, 379, 109, 394, 140
-0.997982, 459, 145, 474, 176
-0.997988, 217, 229, 232, 260
-0.997989, 49, 305, 112, 368
-0.997996, 65, 77, 192, 108
-0.998008, 153, 125, 168, 156
-0.998008, 471, 149, 486, 180
-0.998018, 457, 1, 488, 256
-0.998021, 225, 37, 352, 68
-0.998024, 479, 93, 494, 124
-0.998024, 205, 241, 220, 272
-0.998026, 85, 37, 100, 68
-0.998026, 211, 61, 226, 92
-0.998032, 231, 57, 246, 88
-0.998034, 273, 165, 400, 196
-0.998037, 287, 101, 302, 132
-0.998047, 33, 193, 160, 224
-0.998061, 329, 1, 360, 256
-0.998063, 209, 129, 336, 160
-0.998074, 273, 45, 400, 76
-0.998077, 195, 241, 210, 272
-0.998081, 473, 101, 488, 132
-0.998082, 185, 213, 200, 244
-0.998083, 321, 77, 448, 108
-0.998092, 205, 225, 220, 256
-0.998093, 177, 225, 192, 256
-0.998097, 127, 61, 142, 92
-0.998098, 369, 85, 496, 116
-0.9981, 217, 193, 232, 224
-0.998105, 341, 1, 372, 256
-0.998105, 97, 245, 224, 276
-0.998106, 189, 249, 204, 280
-0.998108, 197, 1, 228, 256
-0.998112, 207, 205, 222, 236
-0.998117, 161, 113, 176, 144
-0.998119, 95, 113, 110, 144
-0.998122, 477, 141, 492, 172
-0.998133, 393, 1, 456, 64
-0.998145, 215, 205, 230, 236
-0.998148, 231, 181, 246, 212
-0.998149, 163, 57, 178, 88
-0.998157, 143, 113, 158, 144
-0.998164, 41, 57, 56, 88
-0.998176, 243, 53, 258, 84
-0.998186, 131, 105, 146, 136
-0.998187, 183, 241, 198, 272
-0.998192, 205, 61, 220, 92
-0.998194, 199, 221, 214, 252
-0.998195, 299, 101, 314, 132
-0.9982, 17, 169, 144, 200
-0.9982, 393, 1, 424, 256
-0.998201, 61, 53, 76, 84
-0.998202, 81, 213, 208, 244
-0.998203, 141, 125, 156, 156
-0.998207, 237, 57, 252, 88
-0.998218, 123, 109, 138, 140
-0.998218, 223, 229, 238, 260
-0.998219, 345, 109, 360, 140
-0.998224, 467, 137, 482, 168
-0.998228, 221, 49, 236, 80
-0.998233, 87, 57, 102, 88
-0.998235, 191, 209, 206, 240
-0.998242, 89, 177, 120, 304
-0.998242, 209, 1, 240, 256
-0.998243, 485, 89, 500, 120
-0.998249, 161, 69, 176, 100
-0.998262, 51, 57, 66, 88
-0.998264, 189, 137, 204, 168
-0.998266, 103, 65, 118, 96
-0.998276, 117, 45, 132, 76
-0.998287, 413, 65, 428, 96
-0.998289, 97, 193, 224, 224
-0.99829, 235, 205, 250, 236
-0.998293, 77, 57, 92, 88
-0.998294, 217, 61, 232, 92
-0.998298, 93, 41, 108, 72
-0.998298, 421, 61, 436, 92
-0.998299, 57, 129, 72, 160
-0.9983, 223, 177, 238, 208
-0.998302, 93, 129, 108, 160
-0.998305, 57, 225, 120, 352
-0.998308, 273, 81, 400, 112
-0.998309, 67, 61, 82, 92
-0.998318, 77, 37, 92, 68
-0.998324, 119, 65, 134, 96
-0.998327, 109, 65, 124, 96
-0.998328, 347, 73, 362, 104
-0.998332, 229, 1, 260, 256
-0.998342, 71, 45, 86, 76
-0.998345, 293, 97, 308, 128
-0.998346, 179, 133, 194, 164
-0.998347, 223, 61, 238, 92
-0.998348, 477, 65, 492, 96
-0.998348, 161, 107, 192, 122
-0.998349, 65, 51, 96, 66
-0.998349, 217, 61, 248, 76
-0.998349, 237, 65, 268, 80
-0.998349, 153, 71, 184, 86
-0.998349, 125, 105, 156, 120
-0.998351, 125, 61, 156, 76
-0.998351, 201, 195, 232, 210
-0.998352, 13, 61, 44, 76
-0.998352, 213, 169, 244, 184
-0.998353, 93, 57, 108, 88
-0.998354, 209, 207, 240, 222
-0.998354, 193, 137, 224, 152
-0.998355, 57, 119, 88, 134
-0.998355, 285, 97, 316, 112
-0.998355, 157, 61, 188, 76
-0.998355, 321, 173, 448, 204
-0.998356, 137, 75, 168, 90
-0.998356, 225, 189, 256, 204
-0.998356, 5, 53, 36, 68
-0.998357, 189, 77, 220, 92
-0.998357, 157, 121, 188, 136
-0.998358, 105, 85, 136, 100
-0.998359, 469, 71, 500, 86
-0.998359, 257, 189, 384, 220
-0.99836, 209, 177, 240, 192
-0.998361, 149, 111, 180, 126
-0.998361, 409, 77, 440, 92
-0.998361, 77, 51, 108, 66
-0.998362, 469, 97, 500, 112
-0.998362, 399, 45, 414, 76
-0.998363, 353, 77, 384, 92
-0.998364, 201, 185, 232, 200
-0.998366, 29, 53, 60, 68
-0.998367, 483, 141, 498, 172
-0.998367, 73, 41, 104, 56
-0.998367, 101, 43, 132, 58
-0.998367, 13, 71, 44, 86
-0.998367, 177, 53, 208, 68
-0.998367, 201, 213, 232, 228
-0.998368, 125, 113, 156, 128
-0.998369, 197, 231, 228, 246
-0.998369, 205, 63, 236, 78
-0.99837, 165, 239, 196, 254
-0.99837, 185, 59, 216, 74
-0.99837, 177, 183, 208, 198
-0.998371, 93, 133, 124, 148
-0.998371, 185, 237, 216, 252
-0.998371, 137, 63, 168, 78
-0.998371, 161, 115, 192, 130
-0.998371, 69, 117, 100, 132
-0.998372, 141, 97, 156, 128
-0.998372, 321, 49, 448, 80
-0.998373, 157, 101, 188, 116
-0.998373, 211, 49, 226, 80
-0.998374, 177, 219, 208, 234
-0.998375, 65, 59, 96, 74
-0.998375, 183, 45, 198, 76
-0.998377, 217, 229, 248, 244
-0.998377, 459, 157, 474, 188
-0.998378, 257, 65, 384, 96
-0.99838, 7, 53, 22, 84
-0.998381, 25, 65, 56, 80
-0.998382, 49, 67, 80, 82
-0.998383, 457, 155, 488, 170
-0.998384, 21, 105, 52, 120
-0.998384, 165, 55, 196, 70
-0.998384, 45, 131, 76, 146
-0.998386, 93, 85, 124, 100
-0.998387, 329, 105, 360, 120
-0.998387, 53, 97, 84, 112
-0.998388, 57, 113, 88, 128
-0.99839, 373, 105, 404, 120
-0.998392, 45, 137, 76, 152
-0.998392, 113, 119, 144, 134
-0.998392, 405, 141, 436, 156
-0.998394, 153, 127, 184, 142
-0.998395, 417, 143, 448, 158
-0.998396, 305, 107, 336, 122
-0.998397, 289, 33, 416, 64
-0.998397, 341, 71, 372, 86
-0.998399, 349, 111, 380, 126
-0.9984, 233, 59, 264, 74
-0.998402, 205, 241, 236, 256
-0.998402, 113, 63, 144, 78
-0.998405, 13, 49, 28, 80
-0.998407, 213, 219, 244, 234
-0.998407, 189, 211, 220, 226
-0.998408, 209, 201, 240, 216
-0.998409, 169, 137, 200, 152
-0.998411, 445, 151, 476, 166
-0.998412, 483, 153, 498, 184
-0.998413, 81, 115, 112, 130
-0.998414, 221, 207, 252, 222
-0.998415, 381, 117, 412, 132
-0.998415, 457, 143, 488, 158
-0.998418, 193, 245, 224, 260
-0.998423, 89, 49, 120, 64
-0.998423, 37, 59, 68, 74
-0.998424, 81, 133, 112, 148
-0.998429, 35, 57, 50, 88
-0.99843, 201, 205, 216, 236
-0.99843, 197, 203, 228, 218
-0.998432, 321, 113, 384, 128
-0.998432, 257, 141, 272, 172
-0.998433, 209, 235, 240, 250
-0.998434, 65, 135, 96, 150
-0.998435, 33, 99, 64, 114
-0.998436, 469, 105, 500, 120
-0.998436, 429, 143, 460, 158
-0.998438, 221, 199, 252, 214
-0.998438, 209, 73, 240, 88
-0.99844, 471, 65, 486, 96
-0.99844, 77, 57, 108, 72
-0.998441, 243, 141, 258, 172
-0.998441, 189, 217, 220, 232
-0.998442, 113, 109, 128, 140
-0.998443, 137, 119, 168, 134
-0.998445, 101, 113, 116, 144
-0.998446, 155, 57, 170, 88
-0.998447, 181, 225, 212, 240
-0.998447, 485, 101, 500, 132
-0.99845, 105, 127, 168, 142
-0.99845, 137, 109, 168, 124
-0.998451, 345, 111, 408, 126
-0.998451, 281, 109, 344, 124
-0.998452, 101, 57, 132, 72
-0.998452, 297, 115, 360, 130
-0.998454, 49, 57, 80, 72
-0.998454, 213, 73, 228, 104
-0.998455, 373, 105, 388, 136
-0.998456, 125, 119, 156, 134
-0.998461, 469, 143, 500, 158
-0.998463, 69, 111, 100, 126
-0.998464, 89, 123, 120, 138
-0.998465, 305, 113, 336, 128
-0.998465, 181, 247, 212, 262
-0.998469, 217, 181, 232, 212
-0.998469, 201, 225, 232, 240
-0.99847, 141, 127, 172, 142
-0.998478, 445, 141, 460, 172
-0.998478, 285, 115, 316, 130
-0.998479, 101, 123, 132, 138
-0.99848, 105, 41, 120, 72
-0.99849, 213, 213, 244, 228
-0.99849, 305, 133, 432, 164
-0.99849, 409, 145, 472, 160
-0.998491, 309, 119, 340, 134
-0.998492, 337, 29, 464, 60
-0.998493, 37, 67, 68, 82
-0.998494, 159, 125, 174, 156
-0.998495, 485, 69, 500, 100
-0.998498, 201, 219, 232, 234
-0.998499, 129, 129, 160, 144
-0.9985, 65, 121, 128, 136
-0.9985, 213, 193, 244, 208
-0.998503, 365, 1, 396, 256
-0.998507, 57, 129, 88, 144
-0.99851, 147, 125, 162, 156
-0.99851, 161, 25, 288, 56
-0.998516, 65, 59, 128, 74
-0.998517, 273, 115, 336, 130
-0.998518, 65, 133, 128, 148
-0.998519, 105, 129, 136, 144
-0.99852, 433, 147, 496, 162
-0.998523, 57, 113, 120, 128
-0.998523, 297, 121, 360, 136
-0.998523, 137, 103, 168, 118
-0.998524, 109, 133, 124, 164
-0.998525, 405, 61, 420, 92
-0.998527, 469, 153, 500, 168
-0.998527, 69, 127, 100, 142
-0.998528, 329, 117, 360, 132
-0.998528, 187, 165, 202, 196
-0.998528, 285, 109, 316, 124
-0.998529, 153, 239, 216, 254
-0.99853, 445, 145, 476, 160
-0.99853, 193, 1, 448, 64
-0.998532, 269, 145, 284, 176
-0.998533, 345, 117, 408, 132
-0.998536, 65, 127, 128, 142
-0.998537, 113, 121, 176, 136
-0.998538, 281, 103, 344, 118
-0.998543, 257, 217, 384, 280
-0.998547, 117, 125, 148, 140
-0.998548, 1, 85, 128, 116
-0.99855, 129, 111, 192, 126
-0.998553, 341, 77, 372, 92
-0.998561, 25, 55, 88, 70
-0.998561, 377, 111, 408, 126
-0.998563, 169, 229, 232, 244
-0.998563, 25, 65, 88, 80
-0.998563, 161, 57, 224, 72
-0.998569, 129, 105, 192, 120
-0.998573, 201, 61, 264, 76
-0.998573, 185, 215, 248, 230
-0.998577, 129, 129, 192, 144
-0.998578, 17, 101, 80, 116
-0.998582, 177, 63, 240, 78
-0.998583, 285, 103, 316, 118
-0.998583, 201, 73, 264, 88
-0.998584, 321, 119, 384, 134
-0.998586, 41, 127, 104, 142
-0.998587, 121, 135, 184, 150
-0.998589, 369, 113, 432, 128
-0.99859, 49, 51, 112, 66
-0.99859, 161, 245, 224, 260
-0.998591, 89, 61, 152, 76
-0.998594, 185, 139, 248, 154
-0.998594, 161, 79, 224, 94
-0.998595, 193, 245, 256, 260
-0.998596, 177, 235, 240, 250
-0.998596, 321, 107, 384, 122
-0.998598, 177, 223, 240, 238
-0.9986, 161, 69, 224, 84
-0.9986, 257, 103, 320, 118
-0.998603, 153, 193, 216, 208
-0.998604, 433, 153, 496, 168
-0.998607, 337, 77, 400, 92
-0.998608, 89, 115, 152, 130
-0.998608, 41, 135, 104, 150
-0.998608, 1, 63, 64, 78
-0.998609, 121, 77, 184, 92
-0.99861, 73, 53, 136, 68
-0.99861, 313, 79, 376, 94
-0.998611, 9, 71, 72, 86
-0.998615, 65, 161, 192, 192
-0.998616, 225, 67, 288, 82
-0.998616, 185, 209, 248, 224
-0.998617, 325, 111, 356, 126
-0.99862, 193, 197, 256, 212
-0.998621, 201, 235, 264, 250
-0.998623, 169, 251, 232, 266
-0.998623, 49, 95, 112, 110
-0.998624, 121, 71, 184, 86
-0.998624, 137, 245, 200, 260
-0.998625, 113, 63, 176, 78
-0.998629, 185, 51, 248, 66
-0.99863, 273, 121, 336, 136
-0.99863, 137, 199, 200, 214
-0.998631, 81, 85, 144, 100
-0.998634, 65, 147, 128, 162
-0.998636, 177, 185, 240, 200
-0.998636, 97, 53, 160, 68
-0.998637, 1, 53, 64, 68
-0.998637, 89, 133, 152, 148
-0.998637, 385, 141, 448, 156
-0.998638, 9, 107, 72, 122
-0.998638, 89, 121, 152, 136
-0.998638, 145, 137, 208, 152
-0.998639, 185, 191, 248, 206
-0.99864, 81, 67, 144, 82
-0.99864, 409, 65, 472, 80
-0.99864, 89, 109, 152, 124
-0.99864, 41, 119, 104, 134
-0.998641, 137, 57, 200, 72
-0.998641, 257, 109, 320, 124
-0.998642, 57, 79, 120, 94
-0.998643, 129, 191, 192, 206
-0.998643, 345, 123, 408, 138
-0.998647, 81, 47, 144, 62
-0.998648, 49, 65, 112, 80
-0.99865, 137, 63, 200, 78
-0.99865, 217, 189, 280, 204
-0.998651, 145, 99, 208, 114
-0.998651, 73, 41, 136, 56
-0.998651, 433, 141, 496, 156
-0.998652, 345, 105, 408, 120
-0.998653, 97, 139, 160, 154
-0.998654, 113, 47, 176, 62
-0.998654, 41, 71, 104, 86
-0.998654, 209, 213, 272, 228
-0.998655, 137, 117, 200, 132
-0.998656, 225, 143, 288, 158
-0.998656, 177, 169, 240, 184
-0.99866, 185, 203, 248, 218
-0.99866, 145, 123, 208, 138
-0.998661, 457, 149, 488, 164
-0.998662, 153, 185, 216, 200
-0.998662, 153, 41, 216, 56
-0.998662, 361, 141, 424, 156
-0.998665, 153, 129, 216, 144
-0.998665, 409, 151, 472, 166
-0.998665, 97, 73, 160, 88
-0.998665, 153, 105, 216, 120
-0.998666, 193, 177, 256, 192
-0.998667, 129, 41, 192, 56
-0.998669, 89, 145, 152, 160
-0.99867, 225, 61, 288, 76
-0.998671, 1, 95, 64, 110
-0.998672, 201, 169, 264, 184
-0.998672, 73, 91, 136, 106
-0.998673, 1, 133, 64, 148
-0.998673, 281, 97, 344, 112
-0.998676, 201, 67, 264, 82
-0.998676, 105, 83, 168, 98
-0.998677, 161, 89, 224, 104
-0.998677, 385, 73, 448, 88
-0.998678, 321, 125, 384, 140
-0.998679, 17, 87, 80, 102
-0.99868, 113, 201, 176, 216
-0.998681, 57, 141, 120, 156
-0.998681, 17, 77, 80, 92
-0.998681, 317, 1, 348, 128
-0.998682, 249, 145, 312, 160
-0.998694, 289, 1, 320, 256
-0.998704, 257, 225, 500, 288
-0.998726, 245, 1, 276, 256
-0.99873, 225, 209, 352, 240
-0.998755, 369, 73, 496, 104
-0.998757, 321, 225, 448, 256
-0.998767, 317, 1, 348, 256
-0.99878, 1, 265, 128, 328
-0.998782, 81, 225, 208, 256
-0.998788, 5, 97, 36, 352
-0.998802, 217, 225, 280, 352
-0.998811, 369, 173, 496, 204
-0.998836, 209, 97, 240, 352
-0.998848, 257, 1, 288, 256
-0.998868, 289, 205, 416, 236
-0.998881, 17, 145, 48, 272
-0.998881, 113, 161, 144, 288
-0.998894, 125, 97, 156, 352
-0.998905, 161, 129, 192, 375
-0.998925, 33, 217, 160, 248
-0.998935, 193, 245, 320, 276
-0.998936, 353, 193, 480, 224
-0.998947, 161, 249, 416, 312
-0.998952, 465, 97, 496, 352
-0.998958, 269, 1, 300, 256
-0.998966, 483, 81, 498, 208
-0.998976, 17, 181, 144, 212
-0.998993, 369, 225, 496, 256
-0.999007, 225, 221, 352, 252
-0.99903, 13, 1, 28, 128
-0.999047, 1, 1, 16, 128
-0.999049, 173, 97, 204, 352
-0.99906, 193, 117, 320, 148
-0.999079, 305, 185, 432, 216
-0.999081, 301, 1, 332, 256
-0.999086, 33, 161, 64, 288
-0.999087, 477, 81, 492, 208
-0.999093, 225, 25, 352, 56
-0.999094, 65, 257, 320, 320
-0.999096, 145, 149, 272, 180
-0.999098, 47, 1, 62, 128
-0.999106, 163, 65, 178, 192
-0.99911, 1, 225, 500, 288
-0.999136, 17, 97, 48, 352
-0.999145, 329, 1, 360, 128
-0.999146, 1, 313, 128, 344
-0.999148, 1, 157, 128, 188
-0.999154, 369, 249, 496, 312
-0.999156, 45, 97, 76, 352
-0.99916, 475, 129, 490, 256
-0.999161, 21, 1, 36, 128
-0.999164, 157, 65, 172, 192
-0.999179, 7, 1, 22, 128
-0.999185, 185, 81, 200, 208
-0.999186, 17, 205, 144, 236
-0.999193, 273, 221, 400, 252
-0.999194, 149, 97, 180, 352
-0.999199, 41, 1, 56, 128
-0.999202, 485, 129, 500, 256
-0.999207, 61, 1, 76, 128
-0.999209, 1, 5, 128, 36
-0.999211, 79, 1, 94, 128
-0.999212, 29, 1, 44, 128
-0.999213, 289, 81, 304, 208
-0.999216, 55, 1, 70, 128
-0.999216, 485, 17, 500, 144
-0.999217, 201, 81, 216, 208
-0.999217, 29, 97, 60, 352
-0.999231, 221, 209, 236, 336
-0.999232, 385, 17, 400, 144
-0.999233, 317, 145, 348, 272
-0.999246, 215, 161, 230, 288
-0.999251, 97, 257, 224, 288
-0.999257, 33, 229, 160, 260
-0.99926, 49, 241, 176, 272
-0.99926, 467, 129, 482, 256
-0.99926, 223, 129, 238, 256
-0.999261, 477, 17, 492, 144
-0.999264, 229, 129, 244, 256
-0.999265, 91, 113, 106, 240
-0.999266, 187, 129, 202, 256
-0.999269, 299, 81, 314, 208
-0.999271, 93, 1, 108, 128
-0.999276, 175, 81, 190, 208
-0.999282, 395, 17, 410, 144
-0.999282, 209, 177, 224, 304
-0.999287, 471, 65, 486, 192
-0.999291, 257, 201, 500, 264
-0.999292, 369, 253, 496, 284
-0.999292, 69, 1, 84, 128
-0.999294, 449, 129, 464, 256
-0.999298, 453, 97, 484, 352
-0.999301, 221, 129, 252, 375
-0.999309, 211, 113, 226, 240
-0.999311, 401, 17, 416, 144
-0.999323, 131, 65, 146, 192
-0.999326, 209, 265, 336, 328
-0.999328, 87, 33, 102, 160
-0.999329, 163, 113, 178, 240
-0.999337, 197, 97, 228, 352
-0.99934, 195, 81, 210, 208
-0.999342, 215, 209, 230, 336
-0.999345, 207, 65, 222, 192
-0.999346, 135, 113, 150, 240
-0.999346, 69, 49, 84, 176
-0.999348, 183, 33, 198, 160
-0.999349, 55, 49, 70, 176
-0.999354, 369, 241, 496, 272
-0.999358, 151, 81, 166, 208
-0.99936, 437, 129, 468, 375
-0.99936, 35, 1, 50, 128
-0.999364, 469, 17, 484, 144
-0.99937, 101, 81, 116, 208
-0.99937, 443, 129, 458, 256
-0.999374, 409, 97, 440, 352
-0.999376, 169, 33, 184, 160
-0.999385, 39, 49, 54, 176
-0.999387, 197, 1, 212, 128
-0.999388, 11, 65, 26, 192
-0.999388, 431, 129, 446, 256
-0.999391, 393, 97, 408, 224
-0.999392, 101, 33, 116, 160
-0.999393, 415, 129, 430, 256
-0.999394, 235, 129, 250, 256
-0.999397, 421, 129, 436, 256
-0.999402, 403, 129, 418, 256
-0.999405, 437, 129, 452, 256
-0.999406, 461, 129, 476, 256
-0.999407, 93, 49, 108, 176
-0.999408, 59, 113, 74, 240
-0.999411, 201, 129, 216, 256
-0.999412, 27, 49, 42, 176
-0.999416, 125, 17, 140, 144
-0.999418, 201, 177, 216, 304
-0.999421, 191, 33, 206, 160
-0.999422, 379, 17, 394, 144
-0.999426, 341, 81, 356, 208
-0.999427, 409, 129, 424, 256
-0.999428, 273, 17, 400, 48
-0.999429, 169, 81, 184, 208
-0.99943, 385, 81, 400, 208
-0.999431, 79, 113, 94, 240
-0.999433, 161, 17, 176, 144
-0.999437, 153, 17, 168, 144
-0.999437, 283, 81, 298, 208
-0.999438, 177, 129, 192, 256
-0.999438, 379, 97, 394, 224
-0.999439, 61, 49, 76, 176
-0.99944, 229, 193, 244, 320
-0.999444, 51, 113, 66, 240
-0.999444, 293, 33, 308, 160
-0.999445, 17, 65, 32, 192
-0.999448, 175, 33, 190, 160
-0.999449, 153, 129, 168, 256
-0.999451, 65, 113, 80, 240
-0.999455, 455, 129, 470, 256
-0.999466, 187, 177, 202, 304
-0.999468, 185, 97, 216, 352
-0.999468, 461, 17, 476, 144
-0.999469, 141, 81, 156, 208
-0.99947, 179, 209, 194, 336
-0.999471, 241, 129, 256, 256
-0.999474, 111, 97, 126, 224
-0.999477, 71, 113, 86, 240
-0.999478, 283, 1, 298, 128
-0.99948, 109, 49, 124, 176
-0.999481, 109, 1, 124, 128
-0.999484, 45, 113, 60, 240
-0.999484, 425, 129, 456, 375
-0.999484, 203, 1, 218, 128
-0.999484, 49, 49, 64, 176
-0.99949, 335, 81, 350, 208
-0.999494, 269, 1, 284, 128
-0.999495, 27, 113, 42, 240
-0.999496, 125, 65, 140, 192
-0.999496, 193, 129, 208, 256
-0.999498, 407, 17, 422, 144
-0.999498, 85, 113, 100, 240
-0.999499, 337, 205, 464, 236
-0.999501, 369, 17, 496, 48
-0.999506, 115, 49, 130, 176
-0.999513, 321, 161, 448, 192
-0.999514, 271, 81, 286, 208
-0.999523, 185, 225, 200, 352
-0.999526, 249, 113, 264, 240
-0.999526, 5, 65, 20, 192
-0.999526, 119, 97, 134, 224
-0.999527, 389, 97, 420, 352
-0.999527, 419, 17, 434, 144
-0.999529, 329, 97, 344, 224
-0.999529, 33, 113, 48, 240
-0.99953, 305, 97, 320, 224
-0.999532, 119, 1, 134, 128
-0.999536, 277, 49, 292, 176
-0.999538, 465, 65, 480, 192
-0.999539, 403, 65, 418, 192
-0.99954, 33, 49, 48, 176
-0.999546, 211, 1, 226, 128
-0.999565, 93, 47, 108, 62
-0.999565, 63, 115, 78, 130
-0.999566, 177, 227, 192, 242
-0.999567, 209, 231, 224, 246
-0.999567, 191, 57, 206, 72
-0.999567, 137, 103, 152, 118
-0.999568, 57, 97, 72, 112
-0.999568, 69, 61, 84, 76
-0.999568, 189, 209, 204, 224
-0.999569, 39, 99, 54, 114
-0.999569, 483, 87, 498, 102
-0.999569, 391, 105, 406, 120
-0.999569, 373, 109, 388, 124
-0.999569, 91, 133, 106, 148
-0.99957, 209, 213, 224, 228
-0.999571, 79, 49, 94, 64
-0.999571, 187, 137, 202, 152
-0.999571, 393, 117, 408, 132
-0.999572, 163, 59, 178, 74
-0.999572, 61, 137, 76, 152
-0.999572, 123, 119, 138, 134
-0.999574, 49, 99, 64, 114
-0.999575, 53, 131, 68, 146
-0.999575, 205, 243, 220, 258
-0.999575, 83, 111, 98, 126
-0.999576, 187, 229, 202, 244
-0.999576, 469, 107, 484, 122
-0.999577, 397, 111, 412, 126
-0.999577, 217, 187, 232, 202
-0.999578, 485, 101, 500, 116
-0.999578, 477, 143, 492, 158
-0.999578, 409, 141, 424, 156
-0.999579, 181, 57, 196, 72
-0.999579, 479, 105, 494, 120
-0.99958, 85, 133, 100, 148
-0.99958, 139, 121, 154, 136
-0.99958, 31, 99, 46, 114
-0.999581, 93, 57, 108, 72
-0.999581, 69, 119, 84, 134
-0.999581, 427, 143, 442, 158
-0.999581, 35, 65, 50, 80
-0.999583, 471, 155, 486, 170
-0.999585, 75, 111, 90, 126
-0.999585, 83, 117, 98, 132
-0.999585, 229, 189, 244, 204
-0.999585, 211, 73, 226, 88
-0.999586, 433, 143, 448, 158
-0.999586, 205, 201, 220, 216
-0.999587, 129, 113, 144, 128
-0.999588, 461, 143, 476, 158
-0.999588, 233, 129, 264, 375
-0.999589, 245, 59, 260, 74
-0.999589, 359, 77, 374, 92
-0.99959, 185, 247, 200, 262
-0.99959, 217, 225, 232, 240
-0.999592, 61, 121, 76, 136
-0.999594, 301, 111, 316, 126
-0.999595, 101, 123, 116, 138
-0.999595, 87, 125, 102, 140
-0.999596, 125, 63, 140, 78
-0.999596, 481, 149, 496, 164
-0.999597, 69, 135, 84, 150
-0.999597, 103, 59, 118, 74
-0.999597, 45, 59, 60, 74
-0.999598, 287, 107, 302, 122
-0.999599, 479, 97, 494, 112
-0.999599, 379, 111, 394, 126
-0.999601, 93, 125, 108, 140
-0.999601, 41, 67, 56, 82
-0.999603, 107, 125, 122, 140
-0.999604, 223, 199, 238, 214
-0.999604, 51, 67, 66, 82
-0.999605, 361, 97, 392, 352
-0.999606, 297, 101, 312, 116
-0.999606, 325, 107, 340, 122
-0.999606, 225, 229, 240, 244
-0.999607, 145, 101, 160, 116
-0.999608, 221, 207, 236, 222
-0.999609, 197, 225, 212, 240
-0.999609, 65, 129, 80, 144
-0.999609, 217, 235, 232, 250
-0.99961, 291, 101, 306, 116
-0.999611, 155, 111, 170, 126
-0.999612, 211, 239, 226, 254
-0.999613, 211, 225, 226, 240
-0.999615, 211, 197, 226, 212
-0.999615, 181, 221, 196, 236
-0.999616, 333, 109, 348, 124
-0.999617, 215, 211, 230, 226
-0.999618, 155, 123, 170, 138
-0.999619, 135, 109, 150, 124
-0.999619, 327, 113, 342, 128
-0.999622, 453, 149, 468, 164
-0.999623, 483, 157, 498, 172
-0.999624, 59, 131, 74, 146
-0.999625, 185, 215, 200, 230
-0.999626, 467, 143, 482, 158
-0.999626, 191, 223, 206, 238
-0.999627, 55, 137, 70, 152
-0.999627, 141, 129, 156, 144
-0.999627, 443, 143, 458, 158
-0.999629, 131, 129, 146, 144
-0.99963, 69, 111, 84, 126
-0.999632, 217, 193, 232, 208
-0.999632, 91, 113, 106, 128
-0.999634, 233, 205, 248, 220
-0.999634, 151, 103, 166, 118
-0.999635, 79, 127, 94, 142
-0.999636, 341, 77, 356, 92
-0.999636, 273, 241, 400, 272
-0.999641, 353, 77, 368, 92
-0.999642, 229, 195, 244, 210
-0.999643, 203, 223, 218, 238
-0.999644, 225, 217, 240, 232
-0.999645, 377, 129, 408, 375
-0.999651, 149, 127, 164, 142
-0.999653, 339, 109, 354, 124
-0.999655, 49, 305, 176, 336
-0.999655, 1, 233, 128, 296
-0.999656, 71, 127, 86, 142
-0.999657, 385, 109, 400, 124
-0.999662, 477, 155, 492, 170
-0.999665, 347, 77, 362, 92
-0.999666, 209, 219, 224, 234
-0.999667, 113, 129, 144, 375
-0.999672, 333, 97, 364, 352
-0.999674, 219, 219, 234, 234
-0.999676, 195, 247, 210, 262
-0.999678, 321, 257, 448, 288
-0.999679, 227, 211, 242, 226
-0.999682, 115, 123, 130, 138
-0.999685, 453, 143, 468, 158
-0.999686, 473, 149, 488, 164
-0.999687, 129, 121, 144, 136
-0.99969, 465, 149, 480, 164
-0.999703, 121, 125, 136, 140
-0.999704, 57, 129, 88, 375
-0.999704, 391, 111, 406, 126
-0.999706, 161, 265, 288, 296
-0.999709, 223, 191, 238, 206
-0.999718, 321, 237, 448, 268
-0.99974, 459, 149, 474, 164
-0.999777, 113, 13, 240, 44
-0.999797, 209, 13, 336, 44
-0.99984, 225, 257, 352, 288
-0.999875, 137, 129, 168, 375
-0.99991, 73, 129, 104, 375
-0.999911, 65, 13, 192, 44
-0.999926, 349, 129, 380, 375
-0.999947, 273, 265, 400, 328
-0.999953, 161, 13, 288, 44
-0.999965, 321, 17, 448, 48
-0.999998, 101, 97, 132, 352
-1.00006, 365, 145, 396, 272
-1.00006, 85, 129, 116, 375
-1.00017, 61, 241, 92, 368
-1.0002, 245, 129, 276, 375
-1.0002, 305, 97, 336, 352
-1.0002, 261, 129, 292, 375
-1.00021, 273, 97, 304, 352
-1.00024, 305, 177, 336, 304
-1.00025, 49, 257, 176, 320
-1.00027, 429, 177, 460, 304
-1.00027, 77, 209, 108, 336
-1.00029, 209, 241, 336, 368
-1.00034, 317, 97, 348, 352
-1.00036, 329, 145, 360, 272
-1.00036, 5, 177, 36, 304
-1.00038, 257, 249, 500, 312
-1.00038, 1, 249, 500, 312
-1.00039, 241, 177, 304, 304
-1.00041, 289, 97, 320, 352
-1.00045, 17, 193, 80, 320
-1.00055, 81, 241, 144, 368
-1.00061, 145, 273, 272, 336
-1.00071, 33, 281, 288, 344
-1.0008, 1, 305, 256, 368
-1.00081, 257, 281, 500, 344
-1.00091, 273, 241, 400, 368
-1.001, 321, 289, 448, 352
-1.00107, 281, 193, 344, 320
-1.00107, 9, 241, 72, 368
-1.00113, 277, 129, 308, 256
-1.00116, 413, 177, 444, 304
-1.00117, 257, 313, 500, 375
-1.00126, 465, 177, 496, 304
-1.00133, 321, 265, 448, 328
-1.00139, 289, 145, 320, 272
-1.00143, 325, 193, 356, 320
-1.00147, 169, 241, 200, 368
-1.0015, 161, 273, 416, 336
-1.00153, 273, 289, 400, 352
-1.00154, 369, 313, 496, 375
-1.00165, 97, 305, 352, 368
-1.00181, 81, 305, 208, 368
-1.00189, 369, 281, 496, 344
-1.00196, 241, 313, 368, 375
-1.00215, 337, 225, 464, 352
-1.00222, 177, 297, 304, 360
-1.0024, 89, 193, 152, 320
-1.00242, 129, 297, 256, 360
-1.00243, 1, 273, 500, 336
-1.00258, 225, 289, 352, 352
-1.00267, 1, 305, 500, 368
-1.00283, 321, 313, 448, 375
-1.00289, 33, 241, 96, 368
-1.00332, 329, 209, 392, 336
-1.005, 113, 193, 176, 320
-1.0051, 393, 225, 456, 352
-1.00513, 105, 241, 168, 368
-1.0062, 425, 225, 488, 352
-1.00643, 353, 241, 416, 368
-1.0086, 305, 225, 368, 352
-1.00919, 257, 225, 320, 352
-1.01049, 281, 241, 344, 368
