1862
-0.189523, 1, 1, 308, 500
-0.291525, 1, 1, 308, 256
-0.325089, 1, 97, 308, 352
-0.405147, 1, 1, 256, 500
-0.413575, 1, 225, 308, 480
-0.498552, 33, 97, 288, 352
-0.534405, 33, 1, 288, 256
-0.656553, 33, 225, 288, 480
-0.829652, 129, 1, 256, 256
-0.850566, 65, 1, 192, 256
-0.851915, 1, 225, 128, 480
-0.853825, 81, 1, 208, 500
-0.85898, 1, 1, 128, 500
-0.862692, 145, 97, 272, 352
-0.865563, 65, 97, 192, 352
-0.870865, 1, 81, 308, 208
-0.871743, 161, 1, 288, 500
-0.872837, 1, 65, 128, 320
-0.876095, 1, 1, 308, 128
-0.878823, 1, 337, 308, 464
-0.887932, 65, 225, 192, 480
-0.889019, 1, 129, 308, 256
-0.890905, 177, 1, 304, 256
-0.892955, 1, 209, 308, 336
-0.902542, 33, 97, 288, 224
-0.904337, 161, 193, 288, 448
-0.907647, 1, 289, 308, 416
-0.910329, 1, 49, 256, 176
-0.910954, 113, 257, 240, 500
-0.912609, 65, 145, 308, 272
-0.913979, 33, 369, 288, 496
-0.919275, 65, 1, 308, 128
-0.926497, 129, 1, 192, 128
-0.928736, 81, 337, 208, 464
-0.92986, 1, 1, 128, 128
-0.930479, 73, 321, 136, 448
-0.930598, 73, 1, 136, 128
-0.931365, 169, 65, 232, 192
-0.93323, 17, 369, 144, 496
-0.935222, 129, 1, 256, 128
-0.935735, 1, 321, 256, 448
-0.935879, 65, 65, 192, 192
-0.936287, 145, 65, 272, 192
-0.936855, 81, 1, 208, 128
-0.938137, 185, 1, 248, 128
-0.938263, 145, 65, 208, 192
-0.93939, 17, 1, 80, 128
-0.940408, 33, 305, 160, 432
-0.941945, 1, 161, 128, 288
-0.941953, 65, 209, 308, 336
-0.942137, 1, 273, 256, 400
-0.942485, 41, 353, 104, 480
-0.942973, 97, 33, 160, 160
-0.943855, 1, 49, 64, 176
-0.944068, 1, 49, 128, 176
-0.944083, 145, 97, 208, 160
-0.944366, 41, 145, 104, 272
-0.9446, 1, 241, 128, 368
-0.944965, 49, 1, 112, 128
-0.945927, 97, 1, 160, 64
-0.946528, 217, 33, 280, 160
-0.947055, 25, 49, 88, 176
-0.948364, 121, 49, 184, 176
-0.948565, 145, 129, 272, 256
-0.95023, 65, 369, 128, 496
-0.950379, 121, 337, 184, 464
-0.950831, 73, 9, 136, 72
-0.951527, 73, 41, 136, 104
-0.951623, 81, 129, 208, 256
-0.951949, 9, 225, 72, 352
-0.952217, 177, 1, 304, 128
-0.952336, 193, 81, 256, 208
-0.95253, 161, 369, 224, 496
-0.952996, 129, 369, 256, 496
-0.953226, 1, 97, 128, 224
-0.953492, 169, 73, 232, 136
-0.953885, 73, 401, 136, 464
-0.954056, 49, 193, 112, 320
-0.95438, 97, 337, 160, 464
-0.955019, 161, 1, 224, 128
-0.955305, 97, 33, 160, 96
-0.95548, 49, 209, 176, 336
-0.955516, 57, 49, 120, 176
-0.955561, 169, 97, 232, 160
-0.955636, 81, 337, 144, 400
-0.95609, 41, 305, 104, 432
-0.956183, 1, 321, 64, 448
-0.956426, 33, 257, 96, 384
-0.956625, 33, 369, 96, 432
-0.957301, 49, 17, 112, 80
-0.95748, 73, 209, 136, 336
-0.958812, 193, 369, 256, 496
-0.959321, 81, 273, 144, 400
-0.959369, 177, 369, 304, 496
-0.959442, 33, 97, 96, 224
-0.959752, 1, 161, 64, 288
-0.959869, 161, 321, 288, 448
-0.959888, 121, 97, 184, 224
-0.960177, 121, 105, 184, 168
-0.961082, 137, 1, 200, 64
-0.961416, 193, 129, 256, 256
-0.961526, 9, 233, 72, 296
-0.961717, 57, 377, 120, 440
-0.962267, 209, 89, 272, 152
-0.962656, 9, 33, 72, 96
-0.962813, 241, 113, 304, 240
-0.96286, 33, 345, 96, 408
-0.963466, 25, 1, 88, 64
-0.963648, 217, 369, 280, 496
-0.963804, 1, 337, 64, 400
-0.963837, 89, 425, 152, 488
-0.963888, 97, 81, 160, 208
-0.963897, 153, 129, 216, 256
-0.964316, 1, 57, 64, 120
-0.96432, 233, 401, 296, 464
-0.964614, 1, 97, 64, 224
-0.964758, 105, 273, 168, 400
-0.965181, 217, 81, 280, 208
-0.965537, 137, 65, 200, 128
-0.965845, 17, 369, 80, 496
-0.965875, 33, 393, 96, 456
-0.965933, 201, 417, 264, 480
-0.966265, 41, 161, 104, 224
-0.966291, 161, 193, 288, 320
-0.966301, 121, 25, 184, 88
-0.966398, 153, 33, 216, 288
-0.966497, 161, 401, 224, 464
-0.967178, 177, 121, 240, 184
-0.967393, 1, 313, 64, 376
-0.967518, 225, 193, 288, 320
-0.967646, 121, 1, 184, 256
-0.9677, 89, 129, 152, 256
-0.967878, 97, 41, 128, 104
-0.967948, 1, 1, 64, 64
-0.968057, 225, 425, 288, 488
-0.968072, 41, 57, 104, 120
-0.968072, 193, 393, 256, 456
-0.968168, 121, 345, 184, 408
-0.968796, 209, 65, 272, 128
-0.968836, 81, 65, 144, 128
-0.968845, 225, 289, 288, 416
-0.968942, 73, 1, 136, 256
-0.968954, 81, 289, 208, 416
-0.969396, 97, 89, 160, 152
-0.969446, 169, 425, 232, 488
-0.969457, 33, 425, 96, 488
-0.969507, 57, 433, 120, 496
-0.969593, 161, 89, 192, 152
-0.969669, 89, 17, 120, 80
-0.969759, 129, 97, 256, 160
-0.970197, 157, 81, 188, 208
-0.970233, 169, 49, 232, 112
-0.970408, 57, 97, 120, 224
-0.970571, 81, 377, 144, 440
-0.970596, 113, 425, 176, 488
-0.970745, 33, 417, 160, 480
-0.970745, 209, 1, 272, 64
-0.970773, 121, 129, 184, 192
-0.970791, 153, 121, 216, 184
-0.97087, 217, 145, 280, 272
-0.970871, 33, 337, 160, 400
-0.971027, 177, 33, 240, 288
-0.971295, 169, 321, 232, 448
-0.9713, 33, 321, 96, 384
-0.971332, 9, 57, 40, 120
-0.971462, 17, 225, 80, 480
-0.971581, 17, 33, 144, 96
-0.97168, 81, 385, 208, 448
-0.971731, 33, 97, 96, 160
-0.971888, 97, 1, 160, 256
-0.972077, 69, 353, 100, 480
-0.972117, 121, 369, 184, 432
-0.972459, 25, 65, 88, 320
-0.972631, 241, 17, 304, 144
-0.972658, 69, 353, 100, 416
-0.97267, 101, 17, 132, 80
-0.972716, 145, 97, 176, 160
-0.972767, 113, 417, 240, 480
-0.972996, 81, 41, 208, 104
-0.973126, 81, 193, 144, 448
-0.973152, 177, 1, 240, 64
-0.973236, 241, 337, 304, 464
-0.973288, 81, 313, 144, 376
-0.973464, 173, 369, 204, 496
-0.973477, 1, 81, 64, 144
-0.973629, 173, 97, 204, 160
-0.973728, 81, 89, 208, 152
-0.973765, 13, 33, 44, 160
-0.973826, 97, 337, 128, 464
-0.973889, 201, 137, 264, 200
-0.973944, 113, 1, 144, 64
-0.973948, 57, 337, 120, 400
-0.973956, 121, 209, 184, 336
-0.973959, 105, 65, 168, 128
-0.974136, 177, 49, 208, 176
-0.974305, 233, 49, 296, 112
-0.974312, 73, 121, 136, 184
-0.974329, 17, 1, 144, 64
-0.97437, 161, 273, 288, 400
-0.974535, 101, 1, 132, 128
-0.974597, 41, 225, 104, 480
-0.974648, 161, 361, 224, 424
-0.974859, 193, 321, 256, 448
-0.975049, 1, 1, 32, 128
-0.975069, 57, 257, 120, 384
-0.975085, 161, 1, 192, 128
-0.975323, 65, 65, 192, 128
-0.975327, 49, 361, 176, 424
-0.975336, 25, 321, 56, 448
-0.975362, 161, 425, 288, 488
-0.97549, 41, 209, 104, 272
-0.975544, 209, 1, 272, 256
-0.975608, 49, 137, 112, 200
-0.975635, 189, 1, 220, 128
-0.975728, 97, 361, 224, 424
-0.975739, 205, 97, 236, 160
-0.975792, 65, 145, 128, 272
-0.975837, 65, 121, 192, 184
-0.975846, 97, 225, 224, 352
-0.975878, 53, 1, 84, 64
-0.975931, 81, 9, 208, 72
-0.976088, 33, 393, 160, 456
-0.976163, 161, 73, 288, 136
-0.976169, 113, 129, 240, 192
-0.976251, 233, 113, 296, 176
-0.976316, 129, 97, 192, 352
-0.976321, 25, 329, 56, 392
-0.976347, 233, 81, 296, 144
-0.976378, 233, 1, 296, 64
-0.9764, 25, 33, 56, 96
-0.976401, 129, 393, 192, 456
-0.976419, 25, 1, 56, 64
-0.976447, 121, 49, 152, 176
-0.97657, 177, 97, 304, 160
-0.976678, 129, 9, 256, 72
-0.976777, 233, 241, 296, 368
-0.976967, 145, 81, 176, 208
-0.977135, 73, 25, 104, 88
-0.977141, 129, 289, 192, 416
-0.977269, 1, 49, 32, 176
-0.977281, 81, 1, 112, 128
-0.977321, 13, 225, 44, 352
-0.977326, 73, 289, 136, 352
-0.977432, 1, 57, 128, 120
-0.97748, 201, 41, 264, 104
-0.97754, 233, 369, 296, 432
-0.977541, 33, 297, 96, 360
-0.977549, 65, 233, 128, 296
-0.977681, 73, 377, 104, 440
-0.977729, 85, 321, 116, 448
-0.977757, 113, 65, 240, 128
-0.977772, 57, 81, 120, 144
-0.97779, 129, 321, 192, 384
-0.977845, 1, 361, 128, 424
-0.977882, 105, 97, 168, 352
-0.978125, 241, 65, 304, 192
-0.978188, 161, 65, 192, 128
-0.978287, 201, 81, 232, 208
-0.978311, 177, 1, 304, 64
-0.978335, 173, 1, 204, 128
-0.978347, 1, 273, 64, 400
-0.97835, 133, 25, 164, 88
-0.978423, 145, 41, 208, 104
-0.978481, 161, 49, 288, 112
-0.978484, 105, 401, 168, 464
-0.978514, 1, 313, 128, 376
-0.978553, 133, 89, 164, 152
-0.978575, 57, 129, 120, 384
-0.978619, 173, 369, 204, 432
-0.978633, 77, 1, 108, 64
-0.978682, 257, 33, 288, 160
-0.978708, 1, 433, 64, 496
-0.97874, 117, 433, 148, 496
-0.978756, 41, 1, 72, 64
-0.978782, 161, 113, 192, 176
-0.978834, 133, 17, 164, 144
-0.978837, 177, 25, 240, 88
-0.978903, 85, 41, 116, 104
-0.978937, 189, 401, 220, 464
-0.979169, 217, 161, 280, 416
-0.979199, 5, 25, 36, 88
-0.979225, 9, 137, 72, 200
-0.979346, 241, 161, 304, 224
-0.979371, 65, 433, 96, 496
-0.979388, 49, 1, 112, 256
-0.979475, 49, 185, 112, 248
-0.979587, 161, 401, 288, 464
-0.979646, 65, 1, 96, 128
-0.979722, 13, 305, 44, 368
-0.97979, 17, 209, 144, 272
-0.97982, 81, 337, 208, 400
-0.979825, 217, 1, 248, 128
-0.979834, 241, 1, 272, 64
-0.979843, 81, 177, 144, 240
-0.979985, 265, 1, 296, 64
-0.979997, 1, 233, 128, 296
-0.980126, 65, 1, 96, 64
-0.980131, 225, 289, 288, 352
-0.980136, 193, 369, 256, 432
-0.980174, 225, 345, 288, 408
-0.980185, 65, 1, 128, 500
-0.980214, 153, 129, 216, 384
-0.980217, 225, 25, 288, 88
-0.980253, 49, 33, 80, 160
-0.980285, 29, 1, 60, 128
-0.980292, 233, 1, 296, 256
-0.980458, 13, 321, 44, 448
-0.980598, 113, 401, 144, 464
-0.980651, 113, 25, 144, 88
-0.980653, 105, 305, 168, 368
-0.980678, 9, 105, 72, 168
-0.980679, 93, 401, 124, 464
-0.980731, 197, 369, 228, 496
-0.980793, 201, 425, 232, 488
-0.980834, 217, 97, 248, 160
-0.980869, 185, 81, 216, 144
-0.9809, 17, 81, 144, 144
-0.980911, 269, 49, 300, 112
-0.980999, 217, 81, 248, 208
-0.981009, 1, 1, 64, 256
-0.98107, 145, 353, 272, 416
-0.981074, 1, 377, 64, 440
-0.981241, 57, 313, 120, 376
-0.981253, 21, 65, 52, 128
-0.981324, 97, 1, 160, 500
-0.981327, 69, 409, 100, 472
-0.98138, 41, 265, 104, 328
-0.981445, 117, 1, 148, 128
-0.981464, 161, 353, 192, 480
-0.981503, 81, 257, 144, 320
-0.981528, 201, 113, 264, 176
-0.981553, 145, 425, 208, 488
-0.981564, 169, 9, 200, 72
-0.981577, 241, 137, 304, 200
-0.981585, 205, 1, 236, 64
-0.981605, 17, 105, 144, 168
-0.981624, 85, 337, 116, 400
-0.981632, 145, 73, 176, 136
-0.981672, 193, 129, 256, 384
-0.981771, 149, 1, 180, 128
-0.981841, 189, 65, 220, 192
-0.981899, 81, 145, 144, 208
-0.981902, 125, 377, 156, 440
-0.981958, 29, 49, 60, 176
-0.98214, 161, 121, 288, 184
-0.982145, 229, 425, 260, 488
-0.982202, 121, 257, 184, 500
-0.982202, 193, 113, 224, 176
-0.982229, 225, 369, 256, 496
-0.982242, 237, 353, 268, 480
-0.982274, 113, 369, 144, 496
-0.982285, 41, 1, 104, 500
-0.982317, 1, 177, 128, 240
-0.982381, 9, 257, 72, 320
-0.982483, 125, 353, 156, 480
-0.982577, 113, 305, 144, 432
-0.982595, 233, 33, 264, 160
-0.98261, 109, 49, 140, 112
-0.982633, 145, 121, 176, 184
-0.982651, 81, 177, 112, 304
-0.982659, 81, 369, 112, 496
-0.982674, 265, 25, 296, 88
-0.982698, 53, 97, 84, 224
-0.982828, 49, 49, 80, 112
-0.982954, 257, 49, 288, 112
-0.983024, 65, 209, 128, 272
-0.983065, 133, 65, 164, 192
-0.983251, 33, 225, 64, 352
-0.983266, 201, 161, 264, 224
-0.983271, 201, 209, 264, 336
-0.983291, 121, 225, 184, 288
-0.983385, 253, 1, 284, 64
-0.983388, 161, 129, 192, 256
-0.983396, 133, 113, 164, 176
-0.983417, 185, 353, 216, 480
-0.983532, 1, 1, 32, 64
-0.98354, 145, 321, 272, 384
-0.983558, 73, 305, 104, 432
-0.983665, 177, 1, 240, 500
-0.983672, 9, 1, 72, 500
-0.983686, 145, 377, 272, 440
-0.983696, 277, 1, 308, 64
-0.983725, 177, 401, 208, 464
-0.983782, 181, 121, 212, 184
-0.983791, 1, 169, 64, 232
-0.983798, 17, 233, 48, 296
-0.983875, 253, 369, 284, 496
-0.983907, 133, 433, 164, 496
-0.983943, 5, 81, 36, 144
-0.984022, 241, 97, 304, 352
-0.98406, 45, 25, 76, 88
-0.984097, 241, 185, 304, 248
-0.984179, 49, 313, 176, 376
-0.984206, 193, 257, 256, 384
-0.984222, 145, 17, 176, 80
-0.984257, 13, 81, 44, 208
-0.984301, 229, 145, 260, 272
-0.984447, 109, 49, 140, 176
-0.984467, 105, 433, 136, 496
-0.984481, 81, 401, 112, 464
-0.984504, 197, 73, 228, 136
-0.984519, 1, 289, 128, 352
-0.984615, 97, 209, 160, 336
-0.984616, 205, 1, 236, 128
-0.984666, 217, 313, 280, 376
-0.984687, 161, 337, 224, 400
-0.984744, 157, 9, 188, 72
-0.984768, 1, 265, 128, 328
-0.98478, 33, 65, 64, 128
-0.984794, 113, 337, 144, 400
-0.984849, 69, 145, 100, 272
-0.984926, 1, 281, 64, 344
-0.985003, 177, 25, 304, 88
-0.985058, 97, 113, 160, 176
-0.985115, 217, 201, 280, 264
-0.985151, 189, 113, 220, 240
-0.985159, 193, 1, 224, 64
-0.985188, 65, 145, 192, 208
-0.98523, 173, 97, 204, 224
-0.985246, 133, 337, 164, 400
-0.985289, 1, 137, 128, 200
-0.985322, 173, 73, 204, 136
-0.985443, 57, 73, 88, 136
-0.985503, 29, 161, 60, 288
-0.985739, 105, 257, 168, 320
-0.985776, 181, 41, 212, 104
-0.9858, 9, 273, 40, 400
-0.9858, 65, 177, 192, 240
-0.985824, 81, 97, 144, 352
-0.985888, 245, 33, 276, 160
-0.985896, 85, 273, 116, 400
-0.9859, 97, 177, 224, 304
-0.985903, 165, 401, 196, 464
-0.985958, 73, 329, 104, 392
-0.986123, 269, 49, 300, 176
-0.986125, 73, 161, 104, 224
-0.98614, 253, 289, 284, 416
-0.98616, 65, 289, 192, 352
-0.986193, 33, 241, 96, 304
-0.986208, 225, 137, 256, 200
-0.986344, 9, 209, 72, 272
-0.986437, 245, 41, 276, 104
-0.986515, 241, 425, 272, 488
-0.986523, 1, 401, 64, 464
-0.98653, 45, 345, 76, 408
-0.986614, 117, 257, 148, 384
-0.986674, 77, 65, 108, 192
-0.986719, 153, 1, 216, 500
-0.986743, 157, 137, 188, 200
-0.98679, 237, 305, 268, 368
-0.9868, 209, 73, 240, 136
-0.98684, 169, 209, 232, 336
-0.986862, 121, 65, 152, 128
-0.986871, 65, 49, 96, 176
-0.986884, 1, 129, 64, 384
-0.9869, 49, 233, 176, 296
-0.98691, 149, 129, 180, 256
-0.986991, 189, 425, 220, 488
-0.987038, 241, 161, 272, 288
-0.987116, 217, 433, 248, 496
-0.987206, 33, 97, 64, 224
-0.987322, 249, 113, 280, 240
-0.987365, 145, 433, 176, 496
-0.987371, 213, 129, 244, 256
-0.987385, 49, 353, 80, 480
-0.987484, 257, 345, 288, 408
-0.987559, 145, 209, 208, 336
-0.987628, 181, 1, 212, 64
-0.987682, 13, 337, 44, 400
-0.987683, 169, 433, 200, 496
-0.987689, 117, 273, 148, 336
-0.987699, 117, 297, 148, 360
-0.987728, 241, 121, 272, 184
-0.987736, 161, 161, 288, 224
-0.987755, 13, 145, 44, 272
-0.98777, 77, 193, 108, 256
-0.987784, 73, 49, 104, 112
-0.987801, 225, 241, 288, 304
-0.987875, 133, 1, 164, 64
-0.98794, 33, 233, 64, 296
-0.987945, 241, 305, 272, 432
-0.98795, 57, 369, 88, 432
-0.987977, 241, 369, 272, 432
-0.988099, 69, 73, 100, 136
-0.988132, 265, 337, 296, 464
-0.98814, 101, 289, 132, 416
-0.988218, 217, 257, 280, 500
-0.988265, 229, 401, 260, 464
-0.988292, 49, 97, 80, 160
-0.988293, 89, 233, 152, 296
-0.9883, 113, 1, 176, 32
-0.988304, 169, 345, 200, 408
-0.988312, 81, 425, 112, 488
-0.988335, 73, 17, 136, 48
-0.988338, 65, 257, 192, 320
-0.98842, 97, 225, 128, 352
-0.988434, 65, 201, 192, 264
-0.988449, 9, 273, 40, 336
-0.988485, 61, 25, 92, 88
-0.988568, 217, 265, 280, 328
-0.988571, 161, 41, 192, 104
-0.988578, 45, 161, 76, 288
-0.988619, 57, 345, 88, 408
-0.988633, 65, 257, 96, 384
-0.98865, 73, 5, 136, 36
-0.988663, 161, 201, 288, 264
-0.988674, 169, 137, 200, 200
-0.988707, 193, 321, 256, 384
-0.988709, 49, 9, 112, 40
-0.988725, 89, 193, 120, 256
-0.988734, 97, 17, 160, 48
-0.988752, 37, 97, 68, 160
-0.988768, 65, 97, 96, 224
-0.988779, 229, 97, 260, 160
-0.988827, 153, 121, 216, 152
-0.988842, 185, 225, 248, 480
-0.988846, 25, 73, 88, 104
-0.988879, 1, 145, 32, 272
-0.988931, 229, 97, 260, 224
-0.989022, 65, 409, 128, 440
-0.989102, 129, 289, 160, 416
-0.989114, 221, 57, 252, 120
-0.989143, 1, 41, 64, 72
-0.989164, 241, 321, 304, 384
-0.989226, 205, 385, 236, 448
-0.989228, 201, 1, 264, 500
-0.989251, 213, 409, 244, 472
-0.989262, 249, 289, 280, 352
-0.989285, 1, 73, 64, 104
-0.989292, 81, 345, 144, 376
-0.989341, 81, 129, 112, 192
-0.989354, 241, 1, 304, 500
-0.989356, 121, 1, 184, 500
-0.989396, 105, 377, 136, 440
-0.989398, 169, 89, 232, 120
-0.989411, 85, 377, 116, 440
-0.989415, 41, 357, 104, 388
-0.989433, 209, 369, 240, 496
-0.989466, 89, 29, 152, 60
-0.989476, 65, 137, 308, 200
-0.9895, 25, 89, 56, 152
-0.989505, 177, 129, 240, 160
-0.989511, 65, 185, 96, 248
-0.989537, 97, 313, 224, 376
-0.989538, 33, 385, 96, 416
-0.989545, 241, 193, 304, 448
-0.989547, 61, 49, 92, 112
-0.989558, 209, 429, 272, 460
-0.989561, 29, 369, 60, 496
-0.989625, 269, 1, 300, 128
-0.989655, 121, 133, 184, 164
-0.989707, 1, 297, 32, 360
-0.989724, 105, 281, 168, 344
-0.989737, 65, 29, 128, 60
-0.98977, 41, 373, 104, 404
-0.989778, 81, 421, 144, 452
-0.989791, 181, 305, 212, 432
-0.989793, 1, 53, 64, 84
-0.989805, 257, 81, 288, 144
-0.989829, 137, 97, 200, 128
-0.989831, 209, 101, 272, 132
-0.989836, 57, 397, 120, 428
-0.98986, 193, 281, 256, 344
-0.989878, 113, 29, 176, 60
-0.989928, 9, 85, 72, 116
-0.989934, 89, 217, 120, 280
-0.989939, 277, 353, 308, 480
-0.989951, 89, 41, 152, 72
-0.989967, 177, 109, 240, 140
-0.99001, 121, 349, 184, 380
-0.990014, 225, 289, 256, 416
-0.990027, 65, 433, 128, 464
-0.990045, 1, 345, 64, 376
-0.990064, 57, 41, 120, 72
-0.990093, 133, 113, 164, 240
-0.990126, 25, 457, 88, 488
-0.990126, 237, 345, 268, 408
-0.990134, 133, 49, 164, 112
-0.990164, 25, 57, 88, 88
-0.990182, 97, 225, 224, 288
-0.990196, 41, 21, 104, 52
-0.9902, 25, 425, 88, 456
-0.990217, 169, 77, 232, 108
-0.990232, 1, 1, 64, 32
-0.990233, 161, 413, 224, 444
-0.990241, 57, 53, 120, 84
-0.990299, 121, 449, 184, 480
-0.990315, 9, 241, 72, 272
-0.990317, 137, 1, 200, 32
-0.990326, 93, 145, 124, 272
-0.990338, 89, 61, 152, 92
-0.990343, 61, 193, 92, 320
-0.990347, 129, 17, 192, 48
-0.990357, 33, 409, 288, 472
-0.990375, 89, 433, 152, 464
-0.990417, 145, 217, 208, 280
-0.990421, 169, 65, 232, 96
-0.990444, 233, 425, 296, 456
-0.990454, 121, 373, 184, 404
-0.990457, 57, 461, 120, 492
-0.990472, 209, 1, 272, 32
-0.990482, 153, 401, 216, 432
-0.990512, 129, 121, 192, 152
-0.990518, 89, 445, 152, 476
-0.990526, 33, 89, 96, 120
-0.990529, 33, 413, 96, 444
-0.99054, 73, 381, 136, 412
-0.990603, 1, 73, 256, 136
-0.99067, 33, 33, 96, 64
-0.990671, 161, 265, 288, 328
-0.990675, 129, 73, 192, 104
-0.990679, 113, 437, 176, 468
-0.990687, 25, 469, 88, 500
-0.990741, 65, 41, 308, 104
-0.99077, 1, 337, 32, 464
-0.990772, 233, 1, 296, 32
-0.990781, 241, 265, 304, 328
-0.990789, 129, 361, 192, 392
-0.990851, 81, 361, 144, 392
-0.990855, 65, 97, 308, 160
-0.990859, 225, 45, 288, 76
-0.990865, 57, 89, 120, 120
-0.990865, 193, 413, 256, 444
-0.990873, 81, 321, 144, 352
-0.990893, 209, 121, 272, 152
-0.990913, 161, 9, 224, 40
-0.990918, 97, 49, 128, 176
-0.990918, 81, 393, 144, 424
-0.990939, 161, 273, 224, 400
-0.990974, 49, 197, 112, 228
-0.990993, 121, 385, 184, 416
-0.990994, 17, 357, 80, 388
-0.991015, 161, 369, 224, 400
-0.991042, 1, 25, 64, 56
-0.991072, 89, 405, 152, 436
-0.991075, 153, 109, 216, 140
-0.991076, 13, 369, 44, 496
-0.99109, 137, 85, 200, 116
-0.991091, 153, 133, 216, 164
-0.991095, 17, 13, 80, 44
-0.991103, 33, 397, 96, 428
-0.991113, 105, 201, 168, 264
-0.991122, 25, 445, 88, 476
-0.991142, 1, 329, 64, 360
-0.991146, 25, 105, 88, 136
-0.991156, 113, 97, 176, 128
-0.991161, 121, 461, 184, 492
-0.991162, 1, 1, 256, 64
-0.991183, 41, 337, 104, 368
-0.991191, 49, 449, 112, 480
-0.991195, 105, 337, 168, 368
-0.991197, 81, 461, 144, 492
-0.991209, 185, 401, 248, 432
-0.991213, 49, 161, 112, 192
-0.991219, 153, 305, 184, 432
-0.991227, 1, 317, 64, 348
-0.991241, 201, 73, 264, 104
-0.991246, 185, 429, 248, 460
-0.991261, 121, 397, 184, 428
-0.991274, 161, 389, 224, 420
-0.991283, 49, 69, 112, 100
-0.991287, 1, 461, 64, 492
-0.991294, 25, 1, 88, 32
-0.991301, 193, 57, 256, 88
-0.991342, 1, 97, 308, 160
-0.991344, 41, 185, 104, 216
-0.991348, 161, 433, 224, 464
-0.991359, 201, 89, 264, 120
-0.991367, 25, 45, 88, 76
-0.99139, 137, 33, 200, 64
-0.991404, 17, 369, 80, 400
-0.991416, 65, 161, 308, 224
-0.991424, 117, 209, 148, 336
-0.991427, 73, 261, 136, 292
-0.99144, 129, 109, 192, 140
-0.991459, 105, 117, 168, 148
-0.991484, 137, 337, 168, 464
-0.991489, 97, 85, 160, 116
-0.991502, 225, 57, 288, 88
-0.991506, 129, 49, 192, 80
-0.99151, 73, 133, 136, 164
-0.991526, 49, 209, 112, 240
-0.991529, 233, 413, 296, 444
-0.991559, 9, 253, 72, 284
-0.991572, 145, 297, 272, 360
-0.991577, 241, 441, 304, 472
-0.991592, 81, 333, 144, 364
-0.991596, 25, 201, 88, 232
-0.991601, 113, 413, 176, 444
-0.991621, 25, 185, 88, 248
-0.991637, 201, 441, 264, 472
-0.991662, 41, 173, 104, 204
-0.991681, 169, 53, 232, 84
-0.991691, 201, 41, 264, 72
-0.991695, 233, 357, 296, 388
-0.991702, 241, 85, 304, 116
-0.991723, 81, 193, 144, 224
-0.991732, 129, 209, 160, 336
-0.991919, 33, 369, 288, 432
-0.992034, 145, 257, 208, 500
-0.992055, 169, 217, 232, 280
-0.992168, 81, 13, 112, 44
-0.992172, 81, 1, 112, 32
-0.992177, 69, 369, 100, 400
-0.992203, 141, 209, 172, 336
-0.992212, 1, 345, 256, 408
-0.992275, 1, 57, 32, 88
-0.992282, 13, 65, 44, 96
-0.992288, 97, 45, 128, 76
-0.992324, 1, 73, 32, 104
-0.992326, 65, 5, 96, 36
-0.992327, 117, 1, 148, 32
-0.99236, 141, 1, 172, 32
-0.992409, 81, 129, 112, 256
-0.992413, 93, 25, 124, 56
-0.992423, 13, 321, 44, 352
-0.992425, 185, 345, 248, 408
-0.992462, 101, 9, 132, 40
-0.992476, 117, 25, 148, 56
-0.99248, 49, 57, 80, 88
-0.992517, 141, 97, 172, 128
-0.992525, 1, 65, 308, 128
-0.992526, 1, 25, 32, 56
-0.992553, 45, 9, 76, 40
-0.992553, 225, 429, 256, 460
-0.992559, 13, 53, 44, 84
-0.992574, 25, 69, 56, 100
-0.992582, 137, 121, 168, 152
-0.992589, 117, 13, 148, 44
-0.992591, 133, 29, 164, 60
-0.992597, 161, 97, 192, 128
-0.992611, 21, 333, 52, 364
-0.992618, 13, 77, 44, 108
-0.992634, 85, 41, 116, 72
-0.992646, 161, 125, 192, 156
-0.992651, 65, 357, 96, 388
-0.992654, 69, 17, 100, 48
-0.99266, 177, 121, 208, 152
-0.992661, 145, 109, 176, 140
-0.992667, 197, 125, 228, 156
-0.992676, 25, 345, 56, 376
-0.992679, 49, 209, 80, 336
-0.99268, 205, 109, 236, 140
-0.992696, 73, 381, 104, 412
-0.992698, 113, 425, 144, 456
-0.992706, 1, 1, 32, 32
-0.992709, 77, 397, 108, 428
-0.992711, 185, 417, 216, 448
-0.992728, 25, 57, 56, 88
-0.992732, 81, 25, 112, 56
-0.992734, 49, 305, 80, 432
-0.992739, 125, 445, 156, 476
-0.992748, 21, 1, 52, 32
-0.992749, 173, 385, 204, 416
-0.99275, 109, 337, 140, 368
-0.992766, 125, 377, 156, 408
-0.99277, 57, 25, 88, 56
-0.992778, 273, 57, 304, 88
-0.992785, 69, 413, 100, 444
-0.992796, 65, 457, 96, 488
-0.992796, 149, 17, 180, 48
-0.992797, 57, 469, 88, 500
-0.992802, 29, 45, 60, 76
-0.992804, 33, 1, 64, 32
-0.992804, 113, 413, 144, 444
-0.99281, 45, 41, 76, 72
-0.992813, 1, 45, 32, 76
-0.992814, 73, 37, 104, 68
-0.992814, 89, 409, 120, 440
-0.992815, 181, 397, 212, 428
-0.99282, 217, 101, 248, 132
-0.992823, 61, 89, 92, 120
-0.992833, 185, 109, 216, 140
-0.992847, 13, 309, 44, 340
-0.992857, 1, 85, 32, 116
-0.992861, 33, 433, 288, 496
-0.992879, 209, 1, 240, 32
-0.992882, 93, 57, 124, 88
-0.992885, 209, 429, 240, 460
-0.992885, 73, 61, 104, 92
-0.992888, 45, 365, 76, 396
-0.992891, 13, 41, 44, 72
-0.992894, 181, 133, 212, 164
-0.992903, 269, 1, 300, 32
-0.992904, 261, 57, 292, 88
-0.992905, 113, 65, 144, 96
-0.992907, 41, 85, 72, 116
-0.992915, 165, 405, 196, 436
-0.992917, 81, 341, 112, 372
-0.992919, 105, 401, 136, 432
-0.992923, 153, 449, 184, 480
-0.992924, 69, 429, 100, 460
-0.992935, 169, 85, 200, 116
-0.992939, 145, 133, 176, 164
-0.992945, 17, 89, 48, 120
-0.992946, 205, 441, 236, 472
-0.992946, 173, 373, 204, 404
-0.992948, 253, 357, 284, 388
-0.992948, 261, 41, 292, 72
-0.992949, 205, 97, 236, 128
-0.992958, 129, 341, 160, 372
-0.992966, 249, 421, 280, 452
-0.992968, 113, 37, 144, 68
-0.992973, 13, 345, 44, 376
-0.992973, 65, 401, 96, 432
-0.992978, 97, 421, 128, 452
-0.992979, 1, 41, 308, 104
-0.992981, 21, 21, 52, 52
-0.992986, 189, 85, 220, 116
-0.992987, 53, 69, 84, 100
-0.992989, 241, 45, 272, 76
-0.992991, 121, 397, 152, 428
-0.992993, 65, 77, 96, 108
-0.992994, 37, 73, 68, 104
-0.992999, 161, 9, 192, 40
-0.993001, 1, 1, 308, 64
-0.993003, 197, 425, 228, 456
-0.993009, 137, 449, 168, 480
-0.993009, 61, 49, 92, 80
-0.993011, 169, 137, 200, 168
-0.993012, 197, 1, 228, 32
-0.993024, 249, 1, 280, 32
-0.993026, 1, 305, 256, 368
-0.993028, 57, 369, 88, 400
-0.993028, 25, 369, 56, 400
-0.993031, 189, 437, 220, 468
-0.993036, 45, 461, 76, 492
-0.99305, 1, 13, 32, 44
-0.993052, 165, 113, 196, 144
-0.993075, 29, 93, 60, 124
-0.993075, 229, 417, 260, 448
-0.993085, 69, 469, 100, 500
-0.993089, 137, 17, 168, 48
-0.99309, 173, 417, 204, 448
-0.993092, 65, 441, 96, 472
-0.993093, 69, 193, 100, 224
-0.993097, 49, 105, 80, 136
-0.993099, 213, 137, 244, 168
-0.9931, 57, 381, 88, 412
-0.993101, 129, 49, 160, 80
-0.993105, 145, 85, 176, 116
-0.993111, 105, 441, 136, 472
-0.99313, 145, 89, 160, 152
-0.993232, 269, 241, 300, 368
-0.993288, 113, 97, 240, 128
-0.993322, 25, 273, 56, 400
-0.993334, 177, 241, 304, 304
-0.993341, 53, 257, 84, 384
-0.993371, 37, 321, 68, 448
-0.993398, 1, 137, 308, 200
-0.9934, 129, 145, 192, 272
-0.993522, 165, 89, 180, 152
-0.993555, 193, 209, 256, 272
-0.993571, 107, 17, 122, 80
-0.993585, 201, 129, 232, 256
-0.993649, 1, 225, 32, 352
-0.993673, 33, 185, 288, 248
-0.993687, 129, 265, 192, 328
-0.993705, 65, 1, 192, 32
-0.993736, 85, 225, 116, 352
-0.99378, 265, 113, 296, 240
-0.993848, 81, 397, 208, 428
-0.993866, 49, 429, 176, 460
-0.993888, 177, 1, 304, 32
-0.993917, 33, 341, 160, 372
-0.99396, 33, 385, 160, 416
-0.994019, 175, 97, 190, 160
-0.994024, 49, 461, 176, 492
-0.994025, 237, 257, 268, 384
-0.99403, 33, 41, 160, 72
-0.994036, 101, 25, 116, 88
-0.994042, 129, 297, 192, 360
-0.994052, 275, 1, 290, 64
-0.994107, 145, 429, 272, 460
-0.994112, 111, 41, 126, 104
-0.994126, 11, 57, 26, 120
-0.994147, 49, 441, 176, 472
-0.994161, 155, 97, 170, 160
-0.994209, 1, 57, 128, 88
-0.994211, 129, 425, 144, 488
-0.994245, 129, 133, 256, 164
-0.994253, 1, 57, 16, 120
-0.994267, 27, 33, 42, 96
-0.994302, 49, 365, 176, 396
-0.994374, 167, 113, 182, 176
-0.994446, 1, 73, 128, 104
-0.994464, 185, 409, 200, 472
-0.994467, 113, 17, 128, 80
-0.99447, 181, 97, 196, 160
-0.994481, 137, 25, 152, 88
-0.994482, 113, 57, 240, 88
-0.994489, 17, 413, 144, 444
-0.994498, 267, 25, 282, 88
-0.994508, 65, 121, 192, 152
-0.994511, 89, 17, 104, 80
-0.994512, 33, 397, 160, 428
-0.994542, 217, 209, 248, 336
-0.994569, 83, 1, 98, 64
-0.994581, 1, 17, 128, 48
-0.994614, 39, 1, 54, 64
-0.994624, 31, 313, 46, 376
-0.994629, 113, 265, 240, 328
-0.994659, 81, 409, 208, 440
-0.994668, 265, 289, 296, 416
-0.994671, 97, 437, 224, 468
-0.994694, 75, 353, 90, 416
-0.994744, 1, 1, 128, 32
-0.99479, 1, 321, 308, 384
-0.994797, 81, 385, 208, 416
-0.994803, 95, 17, 110, 80
-0.994831, 1, 369, 128, 400
-0.99485, 177, 449, 304, 480
-0.994852, 65, 133, 192, 164
-0.994855, 21, 41, 36, 104
-0.99486, 149, 353, 180, 480
-0.99491, 131, 345, 146, 408
-0.994912, 49, 1, 64, 64
-0.994933, 145, 121, 272, 152
-0.994952, 65, 53, 192, 84
-0.994977, 113, 85, 240, 116
-0.99499, 191, 393, 206, 456
-0.995009, 71, 417, 86, 480
-0.995015, 161, 113, 176, 176
-0.995042, 61, 305, 92, 432
-0.995045, 241, 425, 256, 488
-0.995103, 177, 145, 208, 272
-0.995103, 121, 401, 136, 464
-0.995107, 141, 1, 156, 64
-0.995123, 33, 89, 160, 120
-0.995162, 165, 1, 196, 256
-0.99518, 197, 401, 212, 464
-0.99518, 177, 53, 304, 84
-0.995182, 145, 145, 208, 208
-0.995192, 1, 417, 308, 480
-0.995209, 1, 345, 308, 408
-0.995209, 97, 425, 224, 456
-0.99521, 27, 57, 42, 120
-0.995217, 57, 145, 88, 272
-0.995238, 113, 73, 240, 104
-0.995241, 217, 97, 232, 160
-0.995248, 205, 105, 220, 168
-0.995286, 33, 217, 288, 280
-0.995304, 177, 361, 192, 424
-0.995327, 263, 1, 278, 64
-0.995339, 1, 369, 308, 432
-0.995347, 33, 29, 160, 60
-0.995351, 1, 81, 16, 144
-0.995357, 129, 1, 256, 32
-0.995394, 241, 217, 304, 280
-0.995399, 257, 1, 272, 64
-0.995404, 83, 353, 98, 416
-0.995427, 1, 25, 16, 88
-0.995428, 213, 1, 228, 64
-0.995434, 77, 25, 92, 88
-0.995436, 1, 177, 308, 240
-0.995448, 15, 17, 30, 80
-0.99545, 81, 25, 208, 56
-0.995453, 113, 373, 240, 404
-0.995461, 1, 97, 32, 224
-0.995462, 153, 313, 216, 376
-0.995475, 65, 109, 192, 140
-0.995487, 161, 77, 288, 108
-0.995496, 235, 417, 250, 480
-0.995499, 187, 97, 202, 160
-0.995523, 19, 65, 34, 128
-0.995529, 185, 385, 200, 448
-0.995533, 1, 297, 308, 360
-0.995534, 109, 417, 124, 480
-0.995537, 113, 449, 240, 480
-0.995544, 1, 329, 128, 360
-0.995547, 173, 401, 188, 464
-0.995552, 161, 409, 288, 440
-0.995563, 95, 41, 110, 104
-0.995573, 97, 37, 224, 68
-0.995574, 1, 1, 16, 64
-0.995587, 65, 353, 192, 384
-0.995596, 39, 329, 54, 392
-0.995599, 95, 393, 110, 456
-0.995603, 49, 65, 176, 96
-0.995611, 75, 393, 90, 456
-0.995613, 211, 97, 226, 160
-0.995622, 145, 113, 160, 176
-0.995623, 77, 1, 92, 64
-0.995654, 61, 1, 76, 64
-0.995693, 269, 49, 284, 112
-0.995698, 245, 209, 276, 336
-0.995727, 177, 73, 192, 136
-0.995734, 33, 281, 288, 344
-0.995735, 35, 33, 50, 96
-0.995737, 141, 273, 172, 400
-0.995738, 127, 369, 142, 432
-0.995789, 139, 105, 154, 168
-0.995816, 179, 401, 194, 464
-0.995822, 225, 425, 240, 488
-0.995834, 1, 209, 128, 240
-0.995837, 161, 89, 288, 120
-0.995851, 67, 369, 82, 432
-0.995859, 191, 417, 206, 480
-0.99586, 153, 33, 184, 288
-0.995863, 229, 209, 260, 336
-0.995868, 91, 185, 106, 248
-0.99587, 29, 9, 44, 72
-0.995875, 205, 417, 220, 480
-0.995888, 33, 65, 48, 128
-0.995894, 25, 305, 40, 368
-0.995912, 105, 49, 120, 112
-0.995926, 181, 1, 212, 256
-0.995932, 145, 109, 272, 140
-0.995936, 171, 73, 186, 136
-0.995941, 49, 13, 176, 44
-0.995959, 245, 161, 260, 224
-0.995963, 177, 397, 304, 428
-0.995973, 83, 33, 98, 96
-0.995976, 85, 377, 100, 440
-0.995977, 129, 13, 256, 44
-0.995981, 113, 349, 240, 380
-0.995986, 1, 453, 128, 484
-0.995986, 161, 65, 288, 96
-0.995987, 1, 169, 128, 200
-0.99599, 1, 185, 128, 216
-0.995991, 145, 25, 160, 88
-0.995994, 33, 249, 288, 312
-0.996, 215, 425, 230, 488
-0.996005, 65, 77, 192, 108
-0.996012, 175, 425, 190, 488
-0.996031, 1, 241, 308, 304
-0.996043, 161, 209, 192, 336
-0.996051, 81, 329, 96, 392
-0.996053, 249, 433, 264, 496
-0.996056, 193, 97, 208, 160
-0.996057, 225, 97, 240, 160
-0.996064, 113, 361, 240, 392
-0.996065, 251, 1, 266, 64
-0.996071, 185, 9, 200, 72
-0.996079, 119, 1, 134, 64
-0.996085, 7, 81, 22, 144
-0.99609, 65, 433, 80, 496
-0.9961, 253, 161, 284, 288
-0.996102, 7, 25, 22, 88
-0.996104, 1, 245, 128, 276
-0.996115, 219, 1, 234, 64
-0.996118, 249, 401, 264, 464
-0.996123, 1, 425, 128, 456
-0.996125, 67, 1, 82, 64
-0.996126, 97, 461, 224, 492
-0.996131, 121, 433, 136, 496
-0.996133, 161, 41, 288, 72
-0.99614, 241, 305, 256, 368
-0.996148, 145, 385, 272, 416
-0.996165, 131, 41, 146, 104
-0.996184, 279, 417, 294, 480
-0.996188, 17, 225, 48, 480
-0.996204, 179, 9, 194, 72
-0.996213, 17, 229, 144, 260
-0.996226, 113, 201, 240, 264
-0.99623, 291, 57, 306, 120
-0.996233, 205, 209, 236, 336
-0.996234, 123, 321, 138, 384
-0.996247, 197, 321, 228, 448
-0.996256, 91, 337, 106, 400
-0.996257, 1, 437, 128, 468
-0.996258, 171, 1, 186, 64
-0.996274, 1, 469, 128, 500
-0.996277, 41, 33, 56, 96
-0.996281, 135, 433, 150, 496
-0.996282, 49, 97, 80, 352
-0.996285, 213, 73, 228, 136
-0.99629, 281, 33, 296, 96
-0.996291, 249, 377, 264, 440
-0.996311, 29, 225, 60, 480
-0.99632, 171, 137, 186, 200
-0.996347, 63, 345, 78, 408
-0.996351, 141, 433, 156, 496
-0.996366, 157, 73, 172, 136
-0.996376, 63, 49, 78, 112
-0.996379, 183, 73, 198, 136
-0.996383, 161, 461, 288, 492
-0.996386, 185, 41, 200, 104
-0.996391, 21, 17, 36, 80
-0.996403, 243, 401, 258, 464
-0.996411, 49, 97, 64, 160
-0.996418, 291, 1, 306, 64
-0.996423, 13, 265, 28, 328
-0.996426, 137, 49, 152, 112
-0.99643, 7, 297, 22, 360
-0.99643, 101, 1, 116, 64
-0.996435, 97, 337, 224, 368
-0.996437, 45, 1, 76, 256
-0.996457, 73, 65, 88, 128
-0.996457, 259, 401, 274, 464
-0.996461, 1, 105, 128, 136
-0.996475, 101, 1, 132, 256
-0.996478, 133, 1, 164, 256
-0.996488, 127, 393, 142, 456
-0.996491, 115, 409, 130, 472
-0.996508, 103, 409, 118, 472
-0.996521, 193, 1, 224, 256
-0.996528, 233, 1, 264, 256
-0.996534, 1, 197, 128, 228
-0.996538, 1, 157, 128, 188
-0.996545, 185, 97, 216, 352
-0.996581, 205, 65, 236, 320
-0.996594, 257, 241, 288, 368
-0.996595, 65, 325, 192, 356
-0.996677, 105, 145, 136, 272
-0.996678, 1, 305, 128, 336
-0.996689, 1, 269, 128, 300
-0.996718, 13, 33, 44, 288
-0.996781, 145, 145, 272, 176
-0.996789, 7, 53, 22, 84
-0.996791, 1, 217, 308, 280
-0.996821, 1, 265, 308, 328
-0.996825, 65, 173, 192, 204
-0.996827, 161, 129, 192, 384
-0.99683, 85, 1, 100, 32
-0.996833, 65, 129, 96, 384
-0.996896, 161, 353, 288, 384
-0.996925, 129, 25, 256, 56
-0.996938, 29, 65, 60, 320
-0.996941, 73, 1, 104, 256
-0.996951, 113, 33, 144, 288
-0.996957, 165, 305, 196, 432
-0.996968, 41, 225, 72, 480
-0.99699, 177, 133, 304, 164
-0.996997, 17, 353, 144, 384
-0.997006, 17, 65, 32, 96
-0.997023, 37, 273, 68, 400
-0.997032, 189, 209, 220, 336
-0.99706, 121, 97, 152, 224
-0.997064, 65, 145, 192, 176
-0.997069, 1, 317, 128, 348
-0.997069, 25, 57, 40, 88
-0.997078, 17, 133, 144, 164
-0.997087, 1, 257, 128, 288
-0.9971, 185, 257, 248, 320
-0.997112, 9, 73, 24, 104
-0.997132, 1, 393, 308, 456
-0.997141, 93, 5, 108, 36
-0.997143, 65, 193, 192, 224
-0.997144, 131, 373, 146, 404
-0.997145, 25, 37, 40, 68
-0.997156, 173, 97, 204, 352
-0.997161, 217, 1, 248, 256
-0.99719, 79, 361, 94, 392
-0.99721, 1, 33, 32, 288
-0.997213, 143, 121, 158, 152
-0.997215, 1, 73, 16, 104
-0.997223, 1, 293, 128, 324
-0.997257, 81, 161, 112, 416
-0.99728, 65, 297, 192, 328
-0.99731, 161, 341, 288, 372
-0.997322, 105, 257, 136, 500
-0.997323, 65, 205, 192, 236
-0.997323, 217, 97, 248, 352
-0.997328, 145, 97, 160, 128
-0.99734, 149, 129, 180, 384
-0.997341, 137, 33, 152, 64
-0.99735, 65, 277, 192, 308
-0.997356, 73, 257, 104, 500
-0.99737, 85, 17, 100, 48
-0.997381, 1, 57, 16, 88
-0.997423, 73, 1, 88, 32
-0.997424, 205, 117, 220, 148
-0.997432, 55, 9, 70, 40
-0.997462, 217, 429, 232, 460
-0.997475, 79, 5, 94, 36
-0.997478, 89, 1, 120, 256
-0.997485, 1, 281, 128, 312
-0.997486, 233, 161, 264, 416
-0.997492, 65, 161, 192, 192
-0.997495, 27, 77, 42, 108
-0.997499, 109, 45, 124, 76
-0.997512, 109, 25, 124, 56
-0.997531, 97, 25, 112, 56
-0.997536, 113, 1, 128, 32
-0.997538, 121, 1, 136, 32
-0.997551, 97, 229, 224, 260
-0.997556, 1, 117, 128, 148
-0.997558, 73, 77, 88, 108
-0.99761, 49, 241, 176, 272
-0.997613, 103, 45, 118, 76
-0.997621, 179, 117, 194, 148
-0.997627, 53, 225, 84, 480
-0.997628, 35, 333, 50, 364
-0.997631, 161, 365, 288, 396
-0.997645, 65, 313, 192, 344
-0.997651, 1, 145, 128, 176
-0.997652, 65, 5, 80, 36
-0.997655, 141, 1, 156, 32
-0.997662, 215, 109, 230, 140
-0.997664, 17, 53, 32, 84
-0.997668, 67, 369, 82, 400
-0.997679, 19, 77, 34, 108
-0.997683, 185, 121, 200, 152
-0.997694, 135, 341, 150, 372
-0.997712, 89, 37, 104, 68
-0.997712, 155, 121, 170, 152
-0.997721, 203, 421, 218, 452
-0.997728, 73, 369, 88, 400
-0.997733, 73, 357, 88, 388
-0.997741, 97, 45, 112, 76
-0.997743, 129, 429, 144, 460
-0.997745, 161, 165, 288, 196
-0.997751, 129, 349, 144, 380
-0.997761, 13, 85, 28, 116
-0.997762, 153, 109, 168, 140
-0.997775, 177, 29, 304, 60
-0.997777, 79, 17, 94, 48
-0.997777, 133, 445, 148, 476
-0.997777, 13, 129, 44, 384
-0.99778, 165, 97, 180, 128
-0.997789, 137, 97, 168, 352
-0.997799, 197, 405, 212, 436
-0.99782, 157, 449, 172, 480
-0.997824, 207, 437, 222, 468
-0.997826, 245, 1, 276, 256
-0.997838, 63, 469, 78, 500
-0.997841, 143, 109, 158, 140
-0.997847, 47, 1, 62, 32
-0.997849, 65, 257, 192, 288
-0.99785, 15, 41, 30, 72
-0.997853, 187, 417, 202, 448
-0.997859, 209, 105, 224, 136
-0.997861, 167, 129, 182, 160
-0.997868, 1, 5, 16, 36
-0.997872, 91, 25, 106, 56
-0.997885, 67, 385, 82, 416
-0.997886, 31, 317, 46, 348
-0.997887, 123, 421, 138, 452
-0.997893, 59, 45, 74, 76
-0.997895, 23, 89, 38, 120
-0.997896, 67, 17, 82, 48
-0.997917, 213, 1, 228, 32
-0.997921, 69, 397, 84, 428
-0.997932, 51, 53, 66, 84
-0.997933, 103, 25, 118, 56
-0.997941, 1, 45, 16, 76
-0.997943, 161, 181, 288, 212
-0.997945, 51, 37, 66, 68
-0.997945, 121, 333, 136, 364
-0.997946, 163, 453, 178, 484
-0.997954, 117, 129, 148, 384
-0.997961, 49, 217, 176, 248
-0.997963, 145, 329, 272, 360
-0.997965, 287, 1, 302, 32
-0.997969, 149, 125, 164, 156
-0.99797, 293, 65, 308, 96
-0.997973, 135, 45, 150, 76
-0.997973, 161, 125, 176, 156
-0.997975, 265, 25, 280, 56
-0.997979, 1, 85, 16, 116
-0.99798, 239, 421, 254, 452
-0.997987, 105, 9, 120, 40
-0.997987, 7, 85, 22, 116
-0.997988, 31, 25, 46, 56
-0.997996, 267, 1, 282, 32
-0.997996, 71, 437, 86, 468
-0.997998, 285, 61, 300, 92
-0.997998, 41, 341, 56, 372
-0.997998, 109, 421, 124, 452
-0.998, 143, 29, 158, 60
-0.998003, 177, 409, 192, 440
-0.998007, 93, 397, 108, 428
-0.998007, 161, 1, 176, 32
-0.998008, 171, 97, 186, 128
-0.998009, 225, 453, 240, 484
-0.99801, 93, 193, 124, 448
-0.998013, 73, 21, 88, 52
-0.998018, 159, 97, 174, 128
-0.998019, 35, 73, 50, 104
-0.99802, 149, 449, 164, 480
-0.998021, 275, 57, 290, 88
-0.998023, 33, 93, 48, 124
-0.998024, 1, 17, 16, 48
-0.998025, 33, 49, 48, 80
-0.998026, 61, 21, 76, 52
-0.998028, 29, 329, 44, 360
-0.998032, 67, 85, 82, 116
-0.998033, 73, 409, 88, 440
-0.998038, 39, 1, 54, 32
-0.998038, 149, 21, 164, 52
-0.998045, 87, 381, 102, 412
-0.998051, 117, 409, 132, 440
-0.998053, 43, 69, 58, 100
-0.998054, 289, 469, 304, 500
-0.998055, 69, 425, 84, 456
-0.998057, 57, 1, 88, 256
-0.99806, 31, 1, 46, 32
-0.99806, 17, 17, 32, 48
-0.998061, 129, 361, 144, 392
-0.998065, 9, 1, 24, 32
-0.998071, 61, 93, 76, 124
-0.998072, 161, 17, 176, 48
-0.998073, 177, 365, 192, 396
-0.998073, 23, 21, 38, 52
-0.998084, 181, 137, 196, 168
-0.998094, 279, 441, 294, 472
-0.998098, 219, 441, 234, 472
-0.9981, 69, 469, 84, 500
-0.998139, 125, 257, 156, 500
-0.998179, 245, 161, 276, 416
-0.998183, 5, 225, 36, 480
-0.998373, 65, 29, 128, 44
-0.998376, 161, 217, 288, 248
-0.998391, 129, 397, 256, 428
-0.998399, 153, 127, 216, 142
-0.998406, 261, 1, 292, 256
-0.998428, 97, 19, 160, 34
-0.998428, 197, 1, 228, 16
-0.998429, 57, 485, 88, 500
-0.998429, 141, 99, 172, 114
-0.99843, 261, 65, 292, 80
-0.99843, 249, 55, 280, 70
-0.99843, 37, 87, 68, 102
-0.99843, 77, 431, 108, 446
-0.998432, 157, 129, 188, 144
-0.998433, 85, 41, 116, 56
-0.998434, 241, 427, 272, 442
-0.998434, 217, 103, 248, 118
-0.998435, 73, 5, 136, 20
-0.998435, 45, 361, 76, 376
-0.998435, 229, 427, 260, 442
-0.998436, 153, 19, 184, 34
-0.998436, 173, 375, 204, 390
-0.998437, 21, 53, 52, 68
-0.998437, 169, 411, 200, 426
-0.998437, 73, 11, 136, 26
-0.998437, 137, 15, 168, 30
-0.998438, 161, 99, 192, 114
-0.998438, 85, 415, 116, 430
-0.99844, 129, 137, 192, 152
-0.99844, 29, 25, 60, 40
-0.998441, 65, 417, 128, 432
-0.998442, 133, 127, 164, 142
-0.998442, 45, 15, 76, 30
-0.998443, 101, 407, 132, 422
-0.998444, 165, 13, 196, 28
-0.998444, 177, 137, 240, 152
-0.998444, 33, 1, 96, 16
-0.998444, 93, 1, 124, 16
-0.998445, 97, 37, 128, 52
-0.998445, 61, 91, 92, 106
-0.998445, 189, 421, 220, 436
-0.998446, 65, 357, 96, 372
-0.998448, 57, 55, 88, 70
-0.998449, 125, 383, 156, 398
-0.998449, 69, 19, 100, 34
-0.99845, 117, 445, 148, 460
-0.99845, 73, 479, 104, 494
-0.998451, 137, 455, 168, 470
-0.998451, 193, 437, 224, 452
-0.998453, 205, 111, 236, 126
-0.998454, 33, 37, 64, 52
-0.998455, 181, 121, 212, 136
-0.998456, 33, 73, 64, 88
-0.998456, 49, 373, 80, 388
-0.998456, 17, 91, 48, 106
-0.998457, 97, 45, 128, 60
-0.998457, 113, 1, 176, 16
-0.998458, 161, 281, 288, 312
-0.998458, 109, 421, 140, 436
-0.998458, 97, 241, 224, 272
-0.998458, 113, 37, 144, 52
-0.998459, 133, 31, 164, 46
-0.998459, 117, 337, 148, 352
-0.998461, 73, 411, 136, 426
-0.998461, 133, 347, 164, 362
-0.998462, 29, 31, 60, 46
-0.998462, 45, 51, 76, 66
-0.998464, 41, 371, 104, 386
-0.998467, 69, 419, 100, 434
-0.998467, 273, 59, 304, 74
-0.998467, 25, 1, 56, 16
-0.998467, 53, 29, 84, 44
-0.998468, 117, 437, 148, 452
-0.998468, 173, 395, 204, 410
-0.998468, 65, 19, 128, 34
-0.998469, 81, 13, 112, 28
-0.998469, 17, 85, 80, 100
-0.998469, 97, 341, 160, 356
-0.99847, 97, 31, 128, 46
-0.99847, 13, 321, 44, 336
-0.99847, 1, 73, 64, 88
-0.998471, 1, 41, 32, 56
-0.998471, 105, 11, 168, 26
-0.998471, 105, 413, 136, 428
-0.998472, 113, 427, 144, 442
-0.998472, 209, 3, 240, 18
-0.998473, 57, 405, 120, 420
-0.998473, 1, 1, 32, 16
-0.998475, 45, 367, 76, 382
-0.998475, 9, 1, 72, 16
-0.998476, 181, 403, 212, 418
-0.998477, 153, 133, 216, 148
-0.998477, 21, 59, 52, 74
-0.998477, 125, 451, 156, 466
-0.998478, 53, 23, 84, 38
-0.998478, 41, 359, 104, 374
-0.998478, 133, 25, 164, 40
-0.998479, 209, 453, 240, 468
-0.99848, 49, 7, 112, 22
-0.998483, 1, 43, 64, 58
-0.998484, 197, 131, 228, 146
-0.998485, 161, 123, 192, 138
-0.998485, 125, 377, 156, 392
-0.998486, 41, 19, 104, 34
-0.998488, 277, 65, 308, 80
-0.998488, 13, 327, 44, 342
-0.998488, 61, 13, 92, 28
-0.998491, 121, 7, 152, 22
-0.998491, 57, 479, 88, 494
-0.998493, 177, 293, 304, 324
-0.998495, 45, 45, 76, 60
-0.998495, 257, 97, 288, 352
-0.998495, 49, 39, 112, 54
-0.998495, 5, 91, 36, 106
-0.998496, 209, 433, 240, 448
-0.998498, 169, 121, 232, 136
-0.998499, 257, 359, 288, 374
-0.9985, 229, 433, 260, 448
-0.9985, 153, 115, 216, 130
-0.9985, 81, 35, 144, 50
-0.998502, 169, 93, 232, 108
-0.998502, 41, 25, 104, 40
-0.998503, 145, 121, 208, 136
-0.998503, 105, 25, 168, 40
-0.998504, 85, 57, 116, 72
-0.998505, 117, 31, 148, 46
-0.998505, 141, 1, 172, 16
-0.998505, 13, 1, 44, 16
-0.998506, 21, 85, 52, 100
-0.998508, 101, 19, 132, 34
-0.998508, 261, 59, 292, 74
-0.998509, 65, 427, 128, 442
-0.998509, 137, 1, 200, 16
-0.998512, 41, 379, 104, 394
-0.998512, 89, 41, 152, 56
-0.998512, 1, 347, 64, 362
-0.998513, 69, 385, 100, 400
-0.998515, 141, 117, 172, 132
-0.998516, 61, 1, 92, 16
-0.998517, 73, 397, 104, 412
-0.998518, 113, 23, 144, 38
-0.998518, 21, 39, 52, 54
-0.998518, 209, 5, 272, 20
-0.998519, 33, 387, 96, 402
-0.99852, 181, 139, 212, 154
-0.998521, 25, 429, 88, 444
-0.998522, 105, 31, 168, 46
-0.998522, 65, 471, 96, 486
-0.998524, 33, 393, 96, 408
-0.998526, 1, 55, 64, 70
-0.998526, 61, 7, 92, 22
-0.998527, 81, 1, 112, 16
-0.998528, 209, 433, 272, 448
-0.998528, 161, 135, 192, 150
-0.998528, 41, 365, 104, 380
-0.998529, 177, 13, 304, 44
-0.998529, 117, 13, 148, 28
-0.99853, 1, 37, 64, 52
-0.998531, 17, 337, 48, 352
-0.998531, 33, 53, 96, 68
-0.998532, 261, 257, 292, 500
-0.998534, 89, 347, 152, 362
-0.998534, 9, 55, 40, 70
-0.998534, 1, 49, 64, 64
-0.998534, 25, 71, 88, 86
-0.998535, 65, 59, 128, 74
-0.998536, 169, 69, 232, 84
-0.998537, 25, 343, 56, 358
-0.998537, 25, 461, 88, 476
-0.998537, 97, 7, 128, 22
-0.998538, 41, 33, 104, 48
-0.998538, 73, 399, 136, 414
-0.998538, 81, 393, 144, 408
-0.998539, 137, 99, 200, 114
-0.99854, 113, 449, 176, 464
-0.998541, 77, 405, 108, 420
-0.998542, 73, 391, 104, 406
-0.998543, 137, 133, 168, 148
-0.998543, 17, 473, 80, 488
-0.998543, 97, 25, 128, 40
-0.998543, 129, 11, 192, 26
-0.998544, 177, 423, 240, 438
-0.998544, 185, 131, 248, 146
-0.998544, 49, 13, 112, 28
-0.998545, 121, 459, 184, 474
-0.998545, 129, 115, 192, 130
-0.998545, 129, 21, 192, 36
-0.998547, 33, 411, 96, 426
-0.998547, 1, 91, 64, 106
-0.998547, 161, 193, 288, 224
-0.998548, 41, 7, 72, 22
-0.998549, 169, 99, 232, 114
-0.998551, 73, 435, 136, 450
-0.998552, 209, 445, 272, 460
-0.998552, 225, 57, 288, 72
-0.998553, 193, 121, 256, 136
-0.998556, 89, 445, 152, 460
-0.998556, 81, 377, 144, 392
-0.998556, 25, 451, 88, 466
-0.998556, 121, 369, 184, 384
-0.998556, 169, 77, 232, 92
-0.998556, 25, 435, 88, 450
-0.998557, 113, 343, 144, 358
-0.998558, 113, 37, 176, 52
-0.998559, 81, 363, 144, 378
-0.998559, 209, 101, 272, 116
-0.99856, 5, 85, 36, 100
-0.99856, 241, 449, 304, 464
-0.99856, 161, 115, 192, 130
-0.998561, 65, 441, 128, 456
-0.998561, 129, 131, 192, 146
-0.998563, 9, 243, 72, 258
-0.998563, 81, 387, 144, 402
-0.998564, 89, 65, 152, 80
-0.998564, 153, 109, 216, 124
-0.998565, 9, 7, 72, 22
-0.998567, 33, 91, 96, 106
-0.998567, 33, 405, 96, 420
-0.998569, 169, 1, 232, 16
-0.99857, 129, 349, 192, 364
-0.998571, 1, 1, 16, 128
-0.998572, 25, 43, 88, 58
-0.998572, 17, 67, 48, 82
-0.998573, 233, 3, 296, 18
-0.998573, 57, 469, 120, 484
-0.998574, 81, 335, 144, 350
-0.998575, 121, 383, 184, 398
-0.998576, 161, 415, 224, 430
-0.998577, 25, 445, 88, 460
-0.998577, 33, 399, 96, 414
-0.998578, 153, 139, 216, 154
-0.998578, 153, 13, 216, 28
-0.998578, 33, 421, 96, 436
-0.998578, 209, 427, 272, 442
-0.99858, 89, 425, 152, 440
-0.99858, 49, 195, 112, 210
-0.99858, 89, 405, 152, 420
-0.998581, 81, 7, 112, 22
-0.998581, 41, 201, 104, 216
-0.998582, 241, 427, 304, 442
-0.998582, 117, 1, 148, 16
-0.998582, 69, 25, 100, 40
-0.998582, 161, 375, 224, 390
-0.998582, 169, 401, 232, 416
-0.998582, 101, 13, 132, 28
-0.998582, 209, 439, 272, 454
-0.998582, 241, 439, 304, 454
-0.998583, 113, 443, 176, 458
-0.998583, 129, 363, 192, 378
-0.998583, 57, 385, 120, 400
-0.998584, 25, 467, 88, 482
-0.998585, 49, 455, 112, 470
-0.998585, 161, 479, 224, 494
-0.998585, 137, 377, 200, 392
-0.998586, 17, 377, 80, 392
-0.998587, 65, 67, 128, 82
-0.998587, 129, 75, 192, 90
-0.998588, 153, 407, 216, 422
-0.998589, 177, 409, 240, 424
-0.998589, 81, 19, 112, 34
-0.99859, 9, 25, 72, 40
-0.99859, 233, 433, 296, 448
-0.998592, 65, 87, 128, 102
-0.998594, 145, 123, 176, 138
-0.998595, 23, 33, 38, 160
-0.998599, 5, 77, 36, 92
-0.998605, 9, 61, 40, 76
-0.998607, 237, 257, 268, 500
-0.998614, 65, 363, 96, 378
-0.998614, 5, 69, 36, 84
-0.998624, 69, 379, 100, 394
-0.998625, 69, 369, 100, 384
-0.998636, 171, 81, 186, 208
-0.998638, 41, 1, 72, 16
-0.998644, 161, 81, 176, 208
-0.998657, 97, 97, 128, 352
-0.998658, 75, 337, 90, 464
-0.998678, 7, 1, 22, 128
-0.998684, 161, 265, 288, 296
-0.998702, 145, 317, 272, 348
-0.998747, 15, 33, 30, 160
-0.998762, 127, 337, 142, 464
-0.998769, 167, 1, 182, 128
-0.998799, 183, 49, 198, 176
-0.9988, 137, 17, 152, 144
-0.998812, 277, 1, 308, 256
-0.998821, 175, 353, 190, 480
-0.99883, 37, 321, 52, 448
-0.998846, 147, 65, 162, 192
-0.998852, 81, 353, 96, 480
-0.99886, 249, 257, 280, 500
-0.998879, 179, 1, 194, 128
-0.998889, 93, 321, 108, 448
-0.9989, 115, 1, 130, 128
-0.998918, 113, 261, 240, 292
-0.998923, 177, 205, 304, 236
-0.998927, 177, 65, 192, 192
-0.998932, 99, 337, 114, 464
-0.998942, 155, 65, 170, 192
-0.998947, 185, 369, 200, 496
-0.998952, 259, 33, 274, 160
-0.998954, 191, 1, 206, 128
-0.998957, 97, 1, 112, 128
-0.99896, 31, 305, 46, 432
-0.998964, 7, 49, 22, 176
-0.998969, 51, 17, 66, 144
-0.99897, 107, 337, 122, 464
-0.998978, 153, 257, 184, 500
-0.998986, 273, 33, 288, 160
-0.998994, 173, 1, 188, 128
-0.998997, 33, 1, 48, 128
-0.999002, 213, 225, 244, 480
-0.999005, 87, 321, 102, 448
-0.999007, 87, 369, 102, 496
-0.999009, 121, 1, 136, 128
-0.999014, 157, 1, 172, 128
-0.999015, 169, 225, 200, 480
-0.999021, 105, 17, 120, 144
-0.999022, 185, 1, 200, 128
-0.999038, 67, 369, 82, 496
-0.999045, 219, 81, 234, 208
-0.99905, 133, 353, 148, 480
-0.999062, 23, 81, 38, 208
-0.999065, 161, 245, 288, 276
-0.999073, 265, 33, 280, 160
-0.999074, 257, 289, 272, 416
-0.999075, 59, 49, 74, 176
-0.999088, 121, 369, 136, 496
-0.999089, 121, 49, 136, 176
-0.999096, 131, 49, 146, 176
-0.999098, 113, 337, 128, 464
-0.999099, 197, 65, 212, 192
-0.9991, 29, 49, 44, 176
-0.999103, 15, 321, 30, 448
-0.999121, 189, 49, 204, 176
-0.999131, 1, 129, 32, 384
-0.999131, 173, 129, 188, 256
-0.999132, 119, 321, 134, 448
-0.999137, 43, 161, 58, 288
-0.999139, 45, 49, 60, 176
-0.999142, 203, 1, 218, 128
-0.99915, 141, 65, 156, 192
-0.999152, 15, 225, 30, 352
-0.999153, 137, 193, 168, 448
-0.999158, 17, 81, 32, 208
-0.999158, 59, 1, 74, 128
-0.999159, 1, 49, 16, 176
-0.999159, 205, 81, 220, 208
-0.999164, 241, 145, 256, 272
-0.999168, 67, 1, 82, 128
-0.999169, 251, 369, 266, 496
-0.999173, 51, 65, 66, 192
-0.999177, 121, 273, 136, 400
-0.99918, 145, 305, 272, 336
-0.999181, 65, 49, 80, 176
-0.999183, 163, 129, 178, 256
-0.999183, 241, 369, 256, 496
-0.999191, 87, 1, 102, 128
-0.999192, 225, 97, 240, 224
-0.999193, 201, 369, 216, 496
-0.999194, 81, 305, 96, 432
-0.999197, 97, 217, 224, 248
-0.999202, 81, 1, 96, 128
-0.999204, 81, 161, 96, 288
-0.999207, 151, 1, 166, 128
-0.99921, 239, 289, 254, 416
-0.999215, 75, 33, 90, 160
-0.999218, 273, 257, 304, 500
-0.999221, 233, 65, 248, 192
-0.999224, 91, 177, 106, 304
-0.999227, 211, 65, 226, 192
-0.999228, 13, 145, 28, 272
-0.999231, 241, 33, 256, 160
-0.999237, 189, 129, 204, 256
-0.999241, 31, 161, 46, 288
-0.999241, 209, 1, 224, 128
-0.999241, 249, 33, 264, 160
-0.999245, 197, 1, 212, 128
-0.999245, 185, 225, 216, 480
-0.999248, 67, 97, 82, 224
-0.999252, 179, 129, 194, 256
-0.999255, 39, 49, 54, 176
-0.999256, 157, 129, 172, 256
-0.999257, 269, 97, 300, 352
-0.999259, 25, 289, 40, 416
-0.999264, 217, 1, 232, 128
-0.999267, 149, 113, 164, 240
-0.999269, 115, 49, 130, 176
-0.999275, 43, 369, 58, 496
-0.99928, 191, 353, 206, 480
-0.999282, 61, 97, 76, 224
-0.999294, 247, 289, 262, 416
-0.999298, 39, 97, 54, 224
-0.999299, 231, 129, 246, 256
-0.999301, 285, 33, 300, 160
-0.999301, 49, 177, 64, 304
-0.999302, 247, 161, 262, 288
-0.999302, 93, 369, 108, 496
-0.999306, 45, 113, 60, 240
-0.999307, 131, 1, 146, 128
-0.999308, 5, 193, 20, 320
-0.999308, 41, 1, 56, 128
-0.999308, 269, 337, 284, 464
-0.999312, 137, 305, 152, 432
-0.999316, 35, 225, 50, 352
-0.99932, 7, 273, 22, 400
-0.999321, 145, 17, 160, 144
-0.999322, 227, 49, 242, 176
-0.999331, 279, 49, 294, 176
-0.999332, 131, 289, 146, 416
-0.999339, 37, 161, 52, 288
-0.999342, 129, 293, 256, 324
-0.999345, 199, 113, 214, 240
-0.999346, 29, 113, 44, 240
-0.999348, 261, 369, 276, 496
-0.999351, 21, 337, 36, 464
-0.999364, 111, 225, 126, 352
-0.99937, 253, 113, 268, 240
-0.99937, 113, 273, 240, 304
-0.999371, 97, 145, 112, 272
-0.99938, 73, 81, 88, 208
-0.99943, 225, 257, 256, 500
-0.99949, 201, 193, 232, 448
-0.999529, 113, 177, 240, 240
-0.999622, 129, 443, 144, 458
-0.999622, 69, 369, 84, 384
-0.999622, 83, 381, 98, 396
-0.999622, 145, 449, 160, 464
-0.999623, 137, 41, 152, 56
-0.999624, 173, 115, 188, 130
-0.999624, 43, 71, 58, 86
-0.999624, 13, 1, 28, 16
-0.999624, 139, 483, 154, 498
-0.999625, 127, 359, 142, 374
-0.999625, 139, 23, 154, 38
-0.999627, 187, 421, 202, 436
-0.999627, 235, 429, 250, 444
-0.999628, 225, 431, 240, 446
-0.999628, 31, 41, 46, 56
-0.999629, 93, 41, 108, 56
-0.999629, 293, 65, 308, 80
-0.99963, 253, 443, 268, 458
-0.99963, 31, 321, 46, 336
-0.99963, 211, 429, 226, 444
-0.99963, 49, 459, 64, 474
-0.999631, 171, 13, 186, 28
-0.999631, 161, 17, 176, 32
-0.999633, 127, 343, 142, 358
-0.999633, 143, 1, 158, 16
-0.999634, 63, 471, 78, 486
-0.999635, 49, 7, 64, 22
-0.999636, 25, 51, 40, 66
-0.999637, 217, 451, 232, 466
-0.999637, 3, 47, 18, 62
-0.999638, 111, 19, 126, 34
-0.999638, 23, 61, 38, 76
-0.999639, 263, 55, 278, 70
-0.999639, 157, 453, 172, 468
-0.999639, 243, 47, 258, 62
-0.999639, 69, 363, 84, 378
-0.99964, 223, 451, 238, 466
-0.99964, 73, 413, 88, 428
-0.99964, 167, 461, 182, 476
-0.999642, 179, 141, 194, 156
-0.999642, 31, 51, 46, 66
-0.999643, 75, 13, 90, 28
-0.999643, 209, 119, 224, 134
-0.999643, 215, 441, 230, 456
-0.999643, 67, 91, 82, 106
-0.999644, 67, 481, 82, 496
-0.999644, 131, 371, 146, 386
-0.999644, 151, 453, 166, 468
-0.999645, 163, 451, 178, 466
-0.999645, 103, 47, 118, 62
-0.999645, 185, 139, 200, 154
-0.999646, 285, 439, 300, 454
-0.999646, 141, 119, 156, 134
-0.999646, 279, 443, 294, 458
-0.999647, 285, 63, 300, 78
-0.999648, 89, 19, 104, 34
-0.999649, 19, 83, 34, 98
-0.99965, 249, 359, 264, 374
-0.99965, 123, 337, 138, 352
-0.999652, 59, 51, 74, 66
-0.999652, 181, 119, 196, 134
-0.999653, 57, 463, 72, 478
-0.999653, 27, 35, 42, 50
-0.999657, 105, 21, 120, 36
-0.999659, 55, 15, 70, 30
-0.99966, 65, 379, 80, 394
-0.99966, 267, 29, 282, 44
-0.999661, 77, 359, 92, 374
-0.999661, 131, 351, 146, 366
-0.999662, 73, 421, 88, 436
-0.999662, 7, 71, 22, 86
-0.999663, 61, 479, 76, 494
-0.999664, 53, 43, 68, 58
-0.999664, 205, 125, 220, 140
-0.999665, 73, 21, 88, 36
-0.999665, 1, 63, 16, 78
-0.999668, 83, 17, 98, 32
-0.999668, 59, 45, 74, 60
-0.999668, 137, 35, 152, 50
-0.999669, 39, 1, 54, 16
-0.999671, 291, 1, 306, 16
-0.999673, 25, 83, 40, 98
-0.999673, 219, 429, 234, 444
-0.999674, 65, 25, 80, 40
-0.999674, 3, 77, 18, 92
-0.999674, 219, 1, 234, 16
-0.999674, 71, 357, 86, 372
-0.999676, 161, 113, 176, 128
-0.999678, 133, 345, 148, 360
-0.999679, 215, 435, 230, 450
-0.999679, 211, 113, 226, 128
-0.999681, 113, 5, 128, 20
-0.999682, 9, 77, 24, 92
-0.999683, 145, 229, 272, 260
-0.999684, 63, 373, 78, 388
-0.999685, 97, 57, 112, 72
-0.999688, 207, 439, 222, 454
-0.999689, 95, 11, 110, 26
-0.99969, 1, 89, 16, 104
-0.99969, 85, 5, 100, 20
-0.999691, 37, 341, 52, 356
-0.999691, 79, 365, 94, 380
-0.999692, 155, 113, 170, 128
-0.999693, 129, 449, 144, 464
-0.999694, 275, 59, 290, 74
-0.999694, 81, 23, 96, 38
-0.9997, 19, 71, 34, 86
-0.999702, 47, 1, 62, 16
-0.999703, 7, 65, 22, 80
-0.999704, 213, 3, 228, 18
-0.999704, 111, 25, 126, 40
-0.999705, 75, 27, 90, 42
-0.999707, 269, 57, 284, 72
-0.999708, 53, 1, 68, 16
-0.999708, 139, 449, 154, 464
-0.99971, 55, 7, 70, 22
-0.999714, 155, 127, 170, 142
-0.999717, 123, 1, 138, 16
-0.999719, 11, 87, 26, 102
-0.999726, 25, 41, 40, 56
-0.99973, 131, 377, 146, 392
-0.999731, 25, 67, 40, 82
-0.999734, 59, 1, 74, 16
-0.999735, 17, 59, 32, 74
-0.999736, 1, 83, 16, 98
-0.999742, 5, 53, 20, 68
-0.999742, 145, 125, 160, 140
-0.999742, 13, 67, 28, 82
-0.99975, 1, 69, 16, 84
-0.999781, 153, 121, 168, 136
-0.999786, 7, 59, 22, 74
-1.00032, 113, 205, 240, 236
-1.00078, 113, 157, 240, 188
-1.00081, 113, 177, 240, 208
-1.00104, 113, 193, 240, 224
-1.00438, 113, 153, 240, 216
