2018
-0.434391, 225, 1, 480, 400
-0.441558, 129, 1, 384, 400
-0.479971, 1, 65, 500, 320
-0.635148, 1, 1, 500, 400
-0.636296, 225, 1, 480, 256
-0.637161, 65, 1, 320, 256
-0.65447, 65, 97, 320, 352
-0.710616, 33, 1, 288, 400
-0.861636, 193, 1, 320, 400
-0.864081, 225, 33, 352, 288
-0.868133, 161, 129, 416, 384
-0.869441, 161, 1, 288, 256
-0.870124, 177, 97, 304, 352
-0.876657, 241, 1, 368, 400
-0.877946, 289, 1, 416, 400
-0.88154, 225, 129, 352, 384
-0.883764, 129, 1, 256, 400
-0.886247, 273, 1, 400, 256
-0.886366, 113, 1, 240, 256
-0.896667, 1, 81, 500, 208
-0.902817, 33, 113, 288, 240
-0.904945, 337, 1, 464, 400
-0.907041, 129, 97, 256, 352
-0.910114, 193, 33, 448, 160
-0.915781, 1, 33, 500, 160
-0.91923, 257, 129, 500, 384
-0.921254, 129, 209, 384, 336
-0.924535, 249, 177, 312, 304
-0.924854, 225, 193, 352, 320
-0.925064, 97, 65, 352, 192
-0.927129, 289, 209, 352, 336
-0.928942, 273, 129, 400, 384
-0.929261, 185, 65, 248, 192
-0.929324, 321, 1, 448, 128
-0.930574, 1, 65, 128, 320
-0.930745, 1, 241, 500, 368
-0.930995, 193, 49, 320, 176
-0.933148, 129, 97, 256, 224
-0.933206, 337, 1, 400, 128
-0.933273, 81, 1, 208, 400
-0.934631, 369, 1, 432, 128
-0.935427, 65, 97, 192, 352
-0.936158, 161, 257, 416, 384
-0.936589, 273, 17, 400, 144
-0.937694, 321, 1, 448, 256
-0.939173, 225, 177, 288, 304
-0.940603, 249, 185, 312, 248
-0.941394, 145, 49, 272, 176
-0.941517, 225, 65, 288, 192
-0.941851, 185, 113, 248, 240
-0.943642, 65, 1, 320, 128
-0.944187, 185, 81, 248, 144
-0.944831, 305, 33, 368, 96
-0.945315, 297, 17, 360, 144
-0.945339, 65, 113, 192, 240
-0.947135, 225, 193, 480, 320
-0.948205, 161, 65, 224, 192
-0.948457, 1, 129, 500, 256
-0.948926, 185, 17, 248, 144
-0.94988, 49, 129, 112, 192
-0.950237, 1, 113, 128, 240
-0.950385, 321, 129, 448, 384
-0.950561, 257, 49, 320, 176
-0.950612, 265, 41, 328, 104
-0.950683, 177, 193, 304, 320
-0.951314, 209, 241, 336, 368
-0.952088, 65, 1, 192, 256
-0.95243, 273, 225, 400, 352
-0.952707, 177, 1, 304, 128
-0.952887, 177, 113, 240, 176
-0.953041, 353, 1, 416, 64
-0.953145, 193, 81, 448, 208
-0.953429, 105, 113, 168, 176
-0.953832, 1, 193, 500, 320
-0.953855, 65, 113, 128, 240
-0.953957, 81, 121, 144, 184
-0.954814, 305, 257, 368, 320
-0.954902, 281, 225, 344, 288
-0.955068, 1, 137, 64, 200
-0.955722, 161, 89, 224, 152
-0.956521, 129, 105, 192, 168
-0.956685, 241, 225, 304, 352
-0.956918, 1, 49, 256, 176
-0.957124, 25, 129, 88, 192
-0.957382, 257, 225, 320, 288
-0.9577, 185, 57, 248, 120
-0.957781, 329, 25, 392, 88
-0.95826, 241, 49, 304, 112
-0.958377, 97, 161, 352, 288
-0.958411, 161, 1, 224, 128
-0.958668, 225, 113, 288, 240
-0.958896, 265, 225, 328, 352
-0.959052, 105, 97, 168, 224
-0.959274, 137, 97, 200, 224
-0.959475, 313, 225, 376, 352
-0.960431, 209, 89, 272, 152
-0.960991, 281, 249, 344, 312
-0.961415, 193, 145, 320, 272
-0.961651, 193, 33, 224, 160
-0.961655, 217, 185, 280, 248
-0.961793, 233, 17, 296, 144
-0.962281, 201, 161, 264, 288
-0.962494, 225, 233, 288, 296
-0.963149, 41, 113, 104, 240
-0.963156, 273, 1, 336, 128
-0.963585, 153, 305, 216, 368
-0.96359, 209, 17, 272, 144
-0.963902, 329, 1, 392, 64
-0.963957, 177, 281, 240, 344
-0.964516, 1, 113, 64, 240
-0.964662, 225, 209, 288, 272
-0.964954, 233, 73, 296, 136
-0.965002, 257, 257, 500, 384
-0.965257, 177, 97, 304, 224
-0.965411, 209, 161, 272, 224
-0.965436, 257, 49, 384, 112
-0.965556, 273, 201, 336, 264
-0.96601, 261, 161, 292, 288
-0.966164, 233, 33, 296, 288
-0.966478, 65, 337, 128, 400
-0.966676, 225, 145, 480, 272
-0.966732, 89, 329, 152, 392
-0.966747, 33, 1, 160, 400
-0.967105, 145, 145, 272, 272
-0.967181, 209, 41, 272, 104
-0.967206, 121, 321, 184, 384
-0.96729, 209, 65, 272, 128
-0.967527, 257, 249, 320, 312
-0.967575, 353, 25, 416, 88
-0.967775, 285, 193, 316, 320
-0.968052, 129, 113, 256, 176
-0.968115, 233, 161, 296, 224
-0.968267, 129, 273, 256, 400
-0.968437, 333, 25, 364, 88
-0.968516, 297, 193, 328, 320
-0.968827, 229, 177, 260, 240
-0.968915, 289, 257, 352, 384
-0.969347, 257, 241, 384, 304
-0.969362, 257, 273, 384, 400
-0.969577, 305, 9, 368, 72
-0.969666, 161, 17, 224, 80
-0.969689, 161, 1, 224, 256
-0.969707, 321, 25, 352, 88
-0.969732, 249, 129, 312, 256
-0.969892, 1, 129, 128, 192
-0.970022, 197, 81, 228, 144
-0.970161, 105, 137, 168, 200
-0.97018, 305, 233, 368, 296
-0.970236, 309, 25, 340, 88
-0.97053, 89, 121, 120, 184
-0.970739, 241, 185, 272, 248
-0.970936, 273, 161, 336, 288
-0.970995, 25, 337, 88, 400
-0.971006, 209, 177, 336, 240
-0.971008, 249, 177, 280, 304
-0.97102, 153, 113, 216, 176
-0.971024, 185, 273, 248, 400
-0.971148, 385, 1, 416, 128
-0.971213, 209, 81, 240, 144
-0.971245, 109, 121, 140, 184
-0.971307, 321, 9, 448, 72
-0.971354, 273, 177, 304, 304
-0.971509, 65, 273, 320, 400
-0.971518, 289, 57, 352, 120
-0.971759, 129, 113, 160, 176
-0.971776, 49, 129, 80, 192
-0.971858, 337, 57, 400, 120
-0.97188, 221, 153, 252, 216
-0.972097, 257, 129, 320, 384
-0.972145, 193, 137, 256, 200
-0.972194, 257, 177, 288, 240
-0.972257, 113, 1, 240, 128
-0.972316, 333, 249, 364, 312
-0.972408, 281, 41, 312, 104
-0.972482, 313, 273, 376, 400
-0.972789, 329, 265, 392, 328
-0.972883, 241, 217, 368, 280
-0.972911, 273, 177, 400, 304
-0.97292, 153, 105, 184, 168
-0.972975, 225, 161, 256, 288
-0.972998, 225, 81, 256, 208
-0.973061, 81, 65, 208, 192
-0.973109, 213, 81, 244, 208
-0.973112, 241, 209, 272, 272
-0.973253, 65, 113, 192, 176
-0.973317, 253, 57, 284, 120
-0.973336, 345, 17, 376, 80
-0.973343, 161, 273, 224, 400
-0.973491, 209, 113, 240, 176
-0.973624, 297, 41, 328, 104
-0.973661, 385, 1, 448, 64
-0.97371, 265, 65, 328, 128
-0.973755, 177, 97, 208, 160
-0.973772, 201, 265, 264, 328
-0.97378, 257, 25, 384, 88
-0.973819, 177, 81, 304, 144
-0.973868, 309, 209, 340, 336
-0.973914, 25, 153, 88, 216
-0.973918, 129, 129, 192, 192
-0.973936, 73, 145, 136, 208
-0.973985, 61, 129, 92, 192
-0.97404, 185, 1, 248, 64
-0.974042, 369, 1, 496, 256
-0.974097, 325, 225, 356, 352
-0.974304, 81, 65, 144, 192
-0.974366, 37, 129, 68, 192
-0.974584, 225, 1, 352, 128
-0.974672, 365, 1, 396, 64
-0.974927, 189, 1, 220, 64
-0.975019, 1, 137, 32, 200
-0.975043, 237, 161, 268, 288
-0.975053, 269, 233, 300, 296
-0.975111, 393, 1, 456, 128
-0.975124, 265, 49, 296, 112
-0.975188, 201, 81, 232, 208
-0.975331, 221, 97, 252, 160
-0.975412, 193, 257, 320, 320
-0.975437, 373, 1, 404, 128
-0.975457, 113, 305, 240, 368
-0.975514, 73, 129, 104, 192
-0.975538, 257, 33, 320, 288
-0.975591, 25, 137, 56, 200
-0.975608, 265, 33, 296, 160
-0.97582, 241, 65, 368, 192
-0.975876, 357, 25, 388, 88
-0.976022, 193, 185, 256, 248
-0.976089, 197, 57, 228, 120
-0.976234, 329, 1, 360, 128
-0.976451, 129, 297, 192, 360
-0.976471, 209, 65, 272, 320
-0.976519, 13, 137, 44, 200
-0.976541, 65, 329, 192, 392
-0.976583, 265, 273, 328, 400
-0.976587, 401, 1, 432, 128
-0.976742, 213, 129, 244, 256
-0.976792, 237, 65, 268, 128
-0.976871, 165, 97, 196, 160
-0.976912, 193, 49, 320, 112
-0.976913, 185, 1, 248, 256
-0.976927, 129, 89, 256, 152
-0.976981, 313, 57, 376, 120
-0.977044, 161, 65, 224, 128
-0.977087, 1, 329, 64, 392
-0.977152, 349, 1, 380, 128
-0.977319, 141, 105, 172, 168
-0.977396, 1, 337, 32, 400
-0.977426, 261, 209, 292, 336
-0.977538, 49, 153, 112, 216
-0.977752, 225, 137, 288, 200
-0.977826, 369, 1, 496, 128
-0.977826, 185, 81, 216, 208
-0.977847, 257, 233, 288, 296
-0.97789, 273, 225, 304, 352
-0.977903, 277, 33, 308, 160
-0.977951, 181, 1, 212, 128
-0.977983, 257, 209, 288, 272
-0.978081, 1, 65, 128, 192
-0.978116, 137, 49, 200, 176
-0.978121, 289, 241, 320, 304
-0.978179, 49, 137, 176, 200
-0.978198, 321, 241, 352, 304
-0.978218, 161, 113, 224, 240
-0.978413, 317, 17, 348, 144
-0.978568, 225, 73, 352, 136
-0.978573, 265, 273, 328, 336
-0.978692, 197, 113, 228, 176
-0.978707, 345, 257, 376, 320
-0.978717, 189, 25, 220, 88
-0.978777, 225, 73, 256, 136
-0.978853, 297, 209, 328, 272
-0.978924, 253, 33, 284, 160
-0.979018, 129, 273, 192, 400
-0.979099, 89, 113, 120, 240
-0.979264, 161, 41, 224, 104
-0.97938, 217, 225, 280, 352
-0.979455, 281, 17, 344, 80
-0.979585, 381, 1, 412, 64
-0.979617, 233, 153, 264, 216
-0.979647, 313, 217, 344, 280
-0.979725, 257, 265, 384, 328
-0.979736, 77, 113, 108, 240
-0.979876, 249, 1, 312, 400
-0.980045, 281, 185, 312, 248
-0.98007, 297, 281, 360, 344
-0.980239, 337, 241, 368, 368
-0.980383, 277, 257, 308, 320
-0.980445, 305, 33, 432, 96
-0.980465, 193, 289, 224, 352
-0.980541, 241, 17, 272, 144
-0.980563, 145, 97, 176, 224
-0.980585, 233, 129, 296, 384
-0.980651, 57, 105, 120, 168
-0.980746, 17, 337, 144, 400
-0.980854, 209, 273, 240, 336
-0.980976, 401, 1, 432, 64
-0.980995, 1, 153, 128, 216
-0.981568, 173, 297, 204, 360
-0.981633, 149, 313, 180, 376
-0.981666, 5, 113, 36, 240
-0.981726, 233, 257, 296, 320
-0.981765, 329, 241, 392, 304
-0.981829, 1, 161, 64, 224
-0.981906, 177, 1, 240, 400
-0.981915, 377, 65, 440, 128
-0.981947, 321, 193, 448, 320
-0.981997, 305, 17, 336, 144
-0.982137, 309, 241, 340, 304
-0.982149, 321, 49, 384, 176
-0.982219, 313, 49, 344, 112
-0.982222, 257, 17, 320, 80
-0.98224, 361, 49, 424, 176
-0.982273, 361, 1, 392, 128
-0.982279, 129, 321, 160, 384
-0.982316, 205, 33, 236, 160
-0.9824, 321, 49, 448, 176
-0.982453, 345, 41, 376, 104
-0.982557, 281, 129, 344, 384
-0.982567, 209, 113, 272, 176
-0.982687, 161, 185, 288, 248
-0.98269, 105, 49, 168, 176
-0.982751, 173, 81, 204, 208
-0.982941, 293, 241, 324, 368
-0.982944, 117, 321, 148, 384
-0.982957, 233, 97, 264, 160
-0.983023, 65, 113, 96, 240
-0.983081, 177, 17, 208, 80
-0.98309, 1, 273, 128, 400
-0.983199, 209, 137, 240, 200
-0.983262, 269, 209, 300, 272
-0.983333, 269, 177, 300, 240
-0.983357, 281, 217, 312, 280
-0.983364, 153, 281, 216, 344
-0.983428, 241, 41, 272, 104
-0.983456, 65, 337, 96, 400
-0.983491, 377, 25, 440, 88
-0.983539, 1, 113, 64, 176
-0.983578, 161, 289, 288, 352
-0.983739, 133, 97, 164, 224
-0.983771, 193, 217, 320, 280
-0.983823, 161, 305, 192, 368
-0.983884, 17, 113, 48, 240
-0.983893, 305, 57, 432, 120
-0.983917, 221, 129, 252, 192
-0.98392, 217, 177, 248, 240
-0.983987, 193, 105, 320, 168
-0.984031, 57, 65, 120, 192
-0.984049, 185, 73, 216, 136
-0.984136, 81, 97, 144, 160
-0.984166, 289, 17, 320, 144
-0.984194, 237, 97, 268, 224
-0.984198, 93, 337, 124, 400
-0.984217, 97, 305, 160, 368
-0.984287, 45, 337, 76, 400
-0.984347, 321, 241, 448, 368
-0.984359, 185, 33, 248, 96
-0.984396, 321, 289, 384, 352
-0.984517, 289, 1, 352, 256
-0.98454, 225, 1, 288, 400
-0.984589, 29, 113, 60, 240
-0.984596, 1, 161, 64, 288
-0.984698, 109, 97, 140, 224
-0.984743, 49, 153, 80, 216
-0.984757, 89, 145, 152, 272
-0.984873, 105, 329, 136, 392
-0.984888, 157, 81, 188, 208
-0.984957, 161, 25, 288, 88
-0.985042, 253, 33, 284, 96
-0.98531, 193, 153, 320, 216
-0.985358, 65, 273, 192, 400
-0.985417, 337, 257, 400, 384
-0.985423, 93, 145, 124, 208
-0.985756, 265, 257, 296, 320
-0.985792, 185, 97, 248, 352
-0.985846, 33, 65, 96, 192
-0.985868, 145, 49, 272, 112
-0.986, 329, 49, 360, 112
-0.986256, 105, 89, 168, 152
-0.986294, 245, 161, 276, 224
-0.986344, 209, 57, 240, 120
-0.986371, 193, 273, 224, 400
-0.986388, 77, 337, 108, 400
-0.986439, 337, 209, 400, 336
-0.986482, 121, 97, 152, 224
-0.986629, 169, 121, 200, 184
-0.986675, 345, 1, 408, 400
-0.986679, 105, 145, 136, 208
-0.986724, 249, 225, 280, 352
-0.98684, 237, 209, 268, 336
-0.986878, 221, 257, 252, 320
-0.986932, 249, 129, 280, 256
-0.987005, 57, 313, 120, 376
-0.987008, 145, 161, 272, 224
-0.987033, 149, 129, 180, 192
-0.987034, 273, 1, 336, 400
-0.987064, 1, 313, 128, 376
-0.987105, 249, 81, 280, 144
-0.987124, 121, 137, 152, 200
-0.987246, 113, 137, 240, 200
-0.987488, 37, 153, 68, 216
-0.987494, 33, 337, 64, 400
-0.987528, 289, 65, 320, 128
-0.987536, 349, 281, 380, 344
-0.987614, 185, 49, 216, 112
-0.987634, 305, 53, 368, 84
-0.987661, 277, 65, 308, 128
-0.987701, 1, 161, 128, 288
-0.987722, 349, 257, 380, 384
-0.987738, 313, 177, 376, 304
-0.98776, 53, 113, 84, 240
-0.987802, 265, 73, 296, 136
-0.98781, 41, 113, 72, 240
-0.987849, 321, 1, 384, 400
-0.987875, 241, 129, 368, 256
-0.987991, 257, 193, 384, 256
-0.987992, 241, 181, 304, 212
-0.98802, 305, 257, 432, 320
-0.988087, 33, 121, 288, 184
-0.98813, 129, 81, 192, 144
-0.988131, 313, 281, 344, 344
-0.988294, 33, 105, 96, 168
-0.988314, 257, 49, 320, 80
-0.988358, 193, 85, 256, 116
-0.988385, 177, 121, 240, 152
-0.988542, 197, 265, 228, 328
-0.988566, 325, 273, 356, 336
-0.988571, 13, 337, 44, 400
-0.988576, 1, 105, 128, 168
-0.988621, 1, 65, 64, 320
-0.988624, 161, 1, 288, 64
-0.988647, 153, 1, 216, 400
-0.988753, 73, 129, 136, 160
-0.988775, 245, 233, 276, 296
-0.988814, 321, 273, 352, 400
-0.988848, 297, 193, 360, 256
-0.988874, 97, 121, 160, 152
-0.988911, 369, 1, 432, 400
-0.988922, 233, 193, 296, 224
-0.988929, 273, 1, 400, 64
-0.989023, 241, 213, 304, 244
-0.989047, 89, 257, 152, 384
-0.989049, 113, 1, 240, 64
-0.989142, 305, 217, 432, 280
-0.989191, 257, 161, 320, 224
-0.989264, 329, 61, 392, 92
-0.989278, 217, 33, 248, 160
-0.98931, 285, 145, 316, 272
-0.989321, 97, 137, 160, 168
-0.989333, 1, 161, 256, 288
-0.989347, 49, 89, 176, 152
-0.989367, 205, 257, 236, 384
-0.989404, 329, 217, 392, 280
-0.989428, 369, 1, 496, 64
-0.989441, 273, 289, 400, 352
-0.989448, 49, 133, 112, 164
-0.989453, 209, 73, 272, 104
-0.989457, 309, 257, 340, 384
-0.989467, 353, 5, 416, 36
-0.989498, 257, 237, 320, 268
-0.989505, 61, 153, 92, 216
-0.98952, 41, 345, 104, 376
-0.989564, 153, 309, 216, 340
-0.9896, 281, 225, 344, 256
-0.989601, 137, 109, 200, 140
-0.989603, 313, 273, 376, 304
-0.989613, 281, 41, 344, 72
-0.989709, 385, 49, 448, 176
-0.989714, 353, 1, 416, 256
-0.989719, 201, 25, 232, 88
-0.989722, 137, 321, 200, 352
-0.989725, 257, 249, 320, 280
-0.989773, 1, 357, 64, 388
-0.989773, 57, 65, 120, 320
-0.989775, 233, 65, 296, 96
-0.989833, 329, 9, 392, 40
-0.989845, 25, 137, 88, 168
-0.989848, 257, 201, 320, 232
-0.98986, 105, 329, 168, 360
-0.98987, 293, 185, 324, 248
-0.989893, 353, 17, 416, 48
-0.989906, 257, 225, 320, 256
-0.98991, 193, 49, 448, 112
-0.989915, 229, 201, 260, 264
-0.989917, 329, 49, 360, 176
-0.989938, 413, 1, 444, 64
-0.989974, 185, 65, 248, 96
-0.989975, 85, 65, 116, 192
-0.989998, 57, 145, 120, 176
-0.990061, 73, 345, 136, 376
-0.990066, 333, 1, 364, 64
-0.990121, 297, 245, 360, 276
-0.990125, 353, 65, 416, 96
-0.990153, 305, 21, 368, 52
-0.990168, 145, 129, 208, 160
-0.99019, 25, 65, 88, 320
-0.990193, 177, 257, 240, 320
-0.990216, 209, 173, 272, 204
-0.990225, 201, 209, 264, 272
-0.990228, 185, 161, 248, 224
-0.990235, 225, 45, 288, 76
-0.990238, 261, 257, 292, 384
-0.990277, 1, 141, 64, 172
-0.990289, 305, 41, 368, 72
-0.990296, 145, 49, 176, 176
-0.9903, 185, 109, 248, 140
-0.990321, 169, 97, 232, 128
-0.990326, 181, 121, 212, 184
-0.99033, 81, 333, 144, 364
-0.99037, 209, 189, 272, 220
-0.990375, 121, 133, 184, 164
-0.990405, 109, 97, 140, 160
-0.990435, 353, 249, 416, 312
-0.990448, 281, 257, 344, 288
-0.99045, 209, 201, 272, 232
-0.990471, 225, 249, 288, 280
-0.990501, 209, 25, 336, 88
-0.990519, 121, 121, 184, 152
-0.990519, 281, 53, 344, 84
-0.990555, 97, 65, 128, 192
-0.990567, 25, 357, 88, 388
-0.990586, 273, 213, 336, 244
-0.990635, 273, 169, 400, 232
-0.990643, 305, 261, 368, 292
-0.990647, 81, 149, 144, 180
-0.99065, 177, 5, 240, 36
-0.990683, 121, 1, 184, 400
-0.990694, 393, 69, 456, 100
-0.990697, 129, 309, 192, 340
-0.990706, 177, 301, 240, 332
-0.990711, 65, 305, 192, 368
-0.99072, 193, 129, 320, 192
-0.990726, 33, 149, 96, 180
-0.99075, 357, 49, 388, 112
-0.990787, 369, 25, 400, 88
-0.990838, 329, 41, 392, 72
-0.990843, 161, 17, 224, 48
-0.990876, 281, 281, 344, 312
-0.990924, 281, 273, 312, 400
-0.990952, 233, 169, 296, 200
-0.99098, 177, 305, 240, 368
-0.990985, 225, 237, 288, 268
-0.990991, 133, 137, 164, 200
-0.990992, 297, 265, 328, 328
-0.991007, 257, 61, 320, 92
-0.991007, 393, 5, 456, 36
-0.991007, 257, 261, 320, 292
-0.991008, 1, 153, 64, 184
-0.991018, 129, 25, 384, 88
-0.99106, 145, 209, 272, 272
-0.991076, 9, 369, 72, 400
-0.991081, 209, 101, 272, 132
-0.991119, 369, 49, 496, 176
-0.991122, 217, 225, 280, 256
-0.991152, 373, 57, 404, 120
-0.991157, 161, 97, 224, 352
-0.991199, 329, 21, 392, 52
-0.991229, 289, 161, 352, 224
-0.991235, 281, 65, 344, 96
-0.991242, 33, 209, 288, 336
-0.991256, 325, 217, 356, 280
-0.991257, 377, 57, 440, 88
-0.991265, 185, 289, 248, 320
-0.991274, 249, 77, 312, 108
-0.991317, 281, 269, 344, 300
-0.991317, 209, 113, 272, 144
-0.991319, 273, 189, 336, 220
-0.991324, 105, 317, 168, 348
-0.991335, 25, 161, 88, 192
-0.991366, 217, 213, 280, 244
-0.991375, 225, 261, 288, 292
-0.991391, 169, 77, 232, 108
-0.991392, 161, 257, 416, 320
-0.991407, 261, 81, 292, 208
-0.991415, 49, 357, 112, 388
-0.99142, 193, 145, 256, 176
-0.991422, 293, 17, 324, 80
-0.991427, 249, 33, 312, 64
-0.991458, 305, 129, 368, 384
-0.991469, 225, 89, 288, 120
-0.991473, 161, 109, 224, 140
-0.991481, 201, 37, 264, 68
-0.991519, 153, 297, 216, 328
-0.991522, 257, 273, 320, 304
-0.991538, 57, 157, 120, 188
-0.991541, 201, 273, 264, 304
-0.991551, 337, 289, 368, 352
-0.991601, 153, 5, 216, 36
-0.991602, 65, 281, 192, 344
-0.991657, 353, 33, 480, 96
-0.991664, 257, 49, 384, 80
-0.991695, 185, 17, 248, 48
-0.991706, 353, 53, 416, 84
-0.991714, 1, 161, 32, 224
-0.991732, 85, 313, 116, 376
-0.99174, 337, 281, 400, 312
-0.99177, 265, 177, 328, 208
-0.991773, 181, 273, 212, 336
-0.991808, 377, 17, 440, 48
-0.99183, 161, 53, 224, 84
-0.991838, 129, 97, 384, 160
-0.991858, 201, 53, 264, 84
-0.991906, 193, 73, 448, 136
-0.991957, 17, 345, 80, 376
-0.991967, 305, 233, 368, 264
-0.992019, 217, 145, 280, 176
-0.99203, 261, 241, 292, 272
-0.992034, 201, 1, 232, 64
-0.992035, 137, 97, 200, 352
-0.99204, 105, 341, 168, 372
-0.992049, 185, 5, 216, 36
-0.992089, 161, 29, 224, 60
-0.992092, 233, 97, 296, 160
-0.99211, 337, 193, 368, 320
-0.992111, 249, 185, 264, 248
-0.992115, 129, 297, 160, 360
-0.992125, 25, 113, 56, 176
-0.992132, 233, 185, 264, 216
-0.992158, 201, 1, 264, 400
-0.99216, 209, 249, 240, 312
-0.992184, 197, 77, 228, 108
-0.992186, 345, 57, 376, 88
-0.992187, 57, 333, 120, 364
-0.992202, 161, 65, 224, 96
-0.992229, 289, 45, 320, 76
-0.992233, 325, 45, 356, 76
-0.992243, 109, 125, 140, 156
-0.992244, 101, 137, 132, 168
-0.992245, 81, 97, 144, 352
-0.992252, 321, 249, 384, 280
-0.99226, 113, 329, 240, 392
-0.992265, 281, 201, 344, 232
-0.992271, 261, 229, 292, 260
-0.992274, 209, 125, 272, 156
-0.992282, 305, 65, 368, 96
-0.992285, 161, 281, 192, 344
-0.992301, 105, 305, 136, 368
-0.992306, 245, 221, 276, 252
-0.992312, 121, 121, 152, 152
-0.992333, 121, 325, 152, 356
-0.992336, 189, 17, 220, 48
-0.992337, 297, 213, 360, 244
-0.992347, 265, 57, 296, 88
-0.992356, 393, 25, 424, 88
-0.992359, 237, 205, 268, 236
-0.992365, 197, 117, 228, 148
-0.992374, 273, 61, 400, 92
-0.992377, 161, 41, 224, 72
-0.992383, 249, 209, 280, 240
-0.992383, 417, 65, 480, 96
-0.992386, 1, 165, 64, 196
-0.99239, 113, 265, 240, 328
-0.992399, 225, 157, 288, 188
-0.992405, 273, 249, 304, 280
-0.992409, 309, 53, 340, 84
-0.992423, 253, 181, 284, 212
-0.992424, 185, 133, 248, 164
-0.992426, 113, 225, 240, 352
-0.992428, 253, 45, 284, 76
-0.992429, 157, 309, 188, 340
-0.992442, 305, 285, 368, 316
-0.992447, 273, 177, 304, 208
-0.992455, 297, 1, 360, 400
-0.99246, 277, 53, 308, 84
-0.992465, 333, 21, 364, 52
-0.992468, 49, 349, 80, 380
-0.99247, 169, 269, 232, 300
-0.992472, 337, 41, 368, 72
-0.992476, 33, 145, 288, 208
-0.992483, 25, 161, 88, 288
-0.992489, 337, 269, 368, 300
-0.992491, 101, 333, 132, 364
-0.992496, 369, 1, 400, 32
-0.99251, 193, 157, 256, 188
-0.992513, 81, 341, 112, 372
-0.992523, 197, 65, 228, 96
-0.992523, 97, 125, 128, 156
-0.992535, 281, 193, 312, 224
-0.992544, 37, 353, 68, 384
-0.992556, 241, 73, 272, 104
-0.992558, 209, 125, 240, 156
-0.992566, 381, 13, 412, 44
-0.992574, 161, 281, 224, 312
-0.992581, 349, 13, 380, 44
-0.99259, 409, 1, 472, 64
-0.992593, 225, 153, 256, 184
-0.992596, 209, 113, 240, 144
-0.992599, 309, 33, 340, 64
-0.992602, 85, 129, 116, 160
-0.992606, 133, 321, 164, 352
-0.992606, 21, 357, 52, 388
-0.992609, 357, 61, 388, 92
-0.99261, 225, 173, 256, 204
-0.992612, 217, 85, 248, 116
-0.992618, 169, 301, 200, 332
-0.992622, 329, 249, 360, 280
-0.992623, 293, 261, 324, 292
-0.992628, 213, 141, 244, 172
-0.992639, 345, 261, 408, 292
-0.99264, 69, 345, 100, 376
-0.992643, 65, 117, 128, 148
-0.992649, 173, 13, 204, 44
-0.992655, 269, 217, 300, 248
-0.99266, 253, 65, 284, 96
-0.992671, 145, 317, 176, 348
-0.992673, 129, 333, 192, 364
-0.992673, 243, 177, 258, 240
-0.992674, 273, 261, 304, 292
-0.992691, 301, 217, 332, 248
-0.992691, 245, 193, 276, 224
-0.992697, 229, 77, 260, 108
-0.992702, 297, 61, 328, 92
-0.992703, 369, 77, 432, 108
-0.992704, 249, 89, 312, 120
-0.992705, 193, 293, 224, 324
-0.992707, 325, 57, 356, 88
-0.992707, 117, 141, 148, 172
-0.992709, 89, 141, 120, 172
-0.992712, 189, 29, 220, 60
-0.99272, 133, 117, 164, 148
-0.992721, 321, 29, 352, 60
-0.992722, 209, 277, 240, 308
-0.992723, 161, 225, 224, 352
-0.992733, 157, 109, 188, 140
-0.992733, 145, 113, 176, 144
-0.992735, 1, 361, 32, 392
-0.992742, 193, 45, 224, 76
-0.992743, 45, 137, 76, 168
-0.992746, 225, 101, 256, 132
-0.992749, 181, 293, 212, 324
-0.992753, 237, 173, 268, 204
-0.992758, 369, 65, 400, 96
-0.992776, 313, 229, 344, 260
-0.992785, 397, 65, 428, 96
-0.992788, 221, 125, 252, 156
-0.992803, 401, 9, 432, 40
-0.992805, 65, 133, 96, 164
-0.992805, 241, 241, 368, 272
-0.992839, 217, 265, 248, 296
-0.992843, 273, 273, 304, 304
-0.992846, 317, 281, 348, 312
-0.992848, 21, 141, 52, 172
-0.992849, 281, 229, 312, 260
-0.992849, 173, 101, 204, 132
-0.992851, 161, 233, 416, 296
-0.992861, 49, 153, 80, 184
-0.992865, 69, 149, 100, 180
-0.992867, 285, 205, 316, 236
-0.992868, 413, 1, 444, 32
-0.99287, 145, 133, 176, 164
-0.992872, 325, 237, 356, 268
-0.992881, 169, 125, 200, 156
-0.992881, 417, 69, 448, 100
-0.992881, 185, 121, 216, 152
-0.992883, 349, 281, 380, 312
-0.992886, 133, 137, 164, 168
-0.992887, 225, 137, 256, 168
-0.99289, 323, 25, 338, 88
-0.992891, 33, 137, 64, 168
-0.992898, 285, 69, 316, 100
-0.992902, 257, 85, 288, 116
-0.992904, 181, 305, 212, 336
-0.992905, 297, 205, 328, 236
-0.992906, 185, 93, 216, 124
-0.992907, 261, 201, 292, 232
-0.992913, 225, 201, 256, 232
-0.992916, 221, 185, 252, 216
-0.992921, 205, 89, 236, 120
-0.992925, 157, 129, 188, 160
-0.992931, 235, 153, 250, 216
-0.992931, 381, 65, 412, 96
-0.992932, 289, 241, 320, 272
-0.992936, 309, 249, 340, 280
-0.992937, 369, 21, 400, 52
-0.992937, 249, 233, 280, 264
-0.992939, 229, 17, 260, 144
-0.992944, 269, 77, 300, 108
-0.992949, 349, 33, 380, 64
-0.992953, 9, 141, 40, 172
-0.992953, 241, 93, 272, 124
-0.992962, 37, 153, 68, 184
-0.992965, 237, 37, 268, 68
-0.992992, 101, 149, 132, 180
-0.992995, 189, 281, 220, 312
-0.992998, 213, 69, 244, 100
-0.993005, 293, 229, 324, 260
-0.99301, 305, 265, 336, 296
-0.993069, 401, 57, 464, 120
-0.99308, 199, 17, 214, 80
-0.993099, 33, 313, 96, 376
-0.993103, 257, 257, 384, 288
-0.993119, 113, 25, 240, 88
-0.993133, 229, 137, 244, 200
-0.99314, 17, 133, 144, 164
-0.993162, 1, 121, 500, 184
-0.993192, 273, 233, 288, 296
-0.9932, 257, 185, 272, 248
-0.993275, 313, 1, 376, 256
-0.993299, 65, 273, 128, 400
-0.9933, 281, 241, 296, 304
-0.993326, 267, 225, 282, 288
-0.993327, 1, 161, 32, 288
-0.993352, 345, 17, 360, 80
-0.993355, 193, 185, 448, 248
-0.993355, 311, 33, 326, 96
-0.993407, 339, 17, 354, 80
-0.993418, 73, 65, 104, 192
-0.993419, 351, 33, 366, 96
-0.993442, 181, 273, 212, 400
-0.993444, 223, 105, 238, 168
-0.993454, 273, 129, 304, 256
-0.993492, 301, 145, 332, 272
-0.993495, 99, 121, 114, 184
-0.993496, 165, 273, 196, 400
-0.99352, 17, 161, 48, 288
-0.993528, 253, 209, 268, 272
-0.993574, 353, 9, 368, 72
-0.993591, 129, 209, 384, 272
-0.993593, 209, 281, 336, 344
-0.993596, 53, 129, 68, 192
-0.993619, 113, 121, 240, 152
-0.99362, 257, 25, 500, 88
-0.993632, 237, 177, 252, 240
-0.993656, 217, 81, 232, 144
-0.993657, 209, 189, 336, 220
-0.993675, 261, 217, 276, 280
-0.993704, 225, 221, 352, 252
-0.993712, 353, 65, 480, 128
-0.993723, 203, 49, 218, 112
-0.99373, 289, 129, 416, 256
-0.993731, 305, 33, 320, 96
-0.993737, 257, 269, 384, 300
-0.9938, 155, 105, 170, 168
-0.99382, 115, 121, 130, 184
-0.993827, 59, 129, 74, 192
-0.993833, 225, 205, 352, 236
-0.993842, 193, 49, 320, 80
-0.993878, 185, 225, 248, 352
-0.993886, 177, 65, 304, 96
-0.993886, 317, 25, 332, 88
-0.993906, 177, 97, 192, 160
-0.993918, 223, 129, 238, 192
-0.993928, 131, 113, 146, 176
-0.993934, 257, 57, 272, 120
-0.993948, 321, 17, 448, 48
-0.993949, 201, 81, 216, 144
-0.993977, 225, 1, 352, 64
-0.994, 239, 73, 254, 136
-0.994011, 281, 41, 296, 104
-0.994015, 369, 1, 384, 64
-0.994016, 195, 89, 210, 152
-0.994054, 105, 121, 120, 184
-0.994063, 47, 129, 62, 192
-0.994088, 1, 137, 16, 200
-0.99409, 93, 121, 108, 184
-0.994101, 177, 85, 304, 116
-0.99411, 1, 329, 256, 392
-0.994113, 333, 25, 348, 88
-0.994123, 97, 305, 352, 368
-0.99416, 337, 241, 352, 304
-0.994167, 299, 41, 314, 104
-0.994174, 65, 129, 80, 192
-0.99418, 347, 257, 362, 320
-0.994195, 97, 49, 224, 112
-0.994199, 33, 97, 288, 160
-0.994208, 249, 81, 280, 208
-0.994252, 251, 65, 266, 128
-0.994268, 49, 145, 176, 176
-0.994297, 263, 57, 278, 120
-0.994309, 125, 113, 140, 176
-0.994323, 241, 37, 368, 68
-0.994332, 137, 113, 152, 176
-0.994353, 227, 81, 242, 144
-0.994356, 293, 41, 308, 104
-0.994356, 143, 113, 158, 176
-0.994382, 229, 161, 244, 224
-0.994397, 65, 121, 192, 152
-0.994401, 77, 129, 92, 192
-0.994411, 321, 281, 448, 344
-0.994412, 229, 105, 244, 168
-0.994416, 33, 349, 160, 380
-0.994417, 183, 97, 198, 160
-0.994426, 7, 137, 22, 200
-0.994431, 225, 209, 480, 272
-0.994432, 165, 105, 180, 168
-0.994445, 217, 113, 232, 176
-0.994468, 233, 25, 296, 88
-0.994472, 359, 25, 374, 88
-0.994486, 13, 137, 28, 200
-0.994506, 287, 249, 302, 312
-0.994512, 87, 121, 102, 184
-0.994527, 171, 97, 186, 160
-0.994539, 101, 145, 132, 272
-0.994547, 289, 65, 320, 192
-0.994563, 125, 49, 156, 176
-0.99458, 305, 29, 432, 60
-0.994596, 23, 137, 38, 200
-0.994597, 353, 281, 416, 344
-0.994608, 71, 129, 86, 192
-0.994641, 113, 133, 240, 164
-0.994642, 153, 257, 216, 320
-0.994648, 353, 265, 368, 328
-0.994649, 349, 209, 380, 336
-0.994658, 149, 105, 164, 168
-0.994675, 193, 265, 320, 296
-0.994676, 189, 89, 204, 152
-0.994677, 287, 41, 302, 104
-0.994682, 339, 265, 354, 328
-0.994692, 65, 57, 320, 120
-0.9947, 161, 281, 416, 344
-0.99474, 193, 1, 448, 64
-0.994743, 41, 129, 56, 192
-0.994752, 413, 1, 444, 128
-0.994765, 129, 109, 256, 140
-0.994766, 169, 233, 232, 296
-0.994784, 305, 193, 432, 256
-0.994801, 375, 1, 390, 64
-0.994808, 29, 137, 44, 200
-0.994811, 245, 73, 260, 136
-0.994813, 97, 185, 352, 248
-0.994817, 211, 113, 226, 176
-0.994824, 269, 57, 284, 120
-0.994829, 35, 137, 50, 200
-0.99483, 345, 41, 360, 104
-0.99483, 325, 177, 356, 304
-0.99485, 1, 157, 128, 188
-0.994867, 337, 5, 464, 36
-0.994902, 397, 1, 412, 64
-0.994916, 113, 145, 176, 272
-0.994931, 65, 337, 192, 368
-0.99496, 193, 1, 208, 64
-0.995045, 295, 241, 310, 304
-0.995049, 363, 1, 378, 64
-0.995049, 233, 73, 248, 136
-0.995052, 393, 1, 456, 400
-0.995055, 209, 73, 224, 136
-0.995056, 291, 185, 306, 248
-0.995056, 263, 185, 278, 248
-0.995059, 161, 97, 288, 128
-0.995068, 225, 65, 352, 96
-0.995158, 331, 249, 346, 312
-0.99516, 249, 1, 280, 256
-0.995278, 97, 325, 224, 356
-0.995299, 305, 201, 320, 264
-0.995351, 105, 1, 168, 256
-0.995408, 261, 65, 292, 320
-0.995415, 157, 129, 188, 256
-0.995456, 257, 249, 500, 312
-0.995462, 129, 313, 256, 344
-0.995485, 217, 241, 248, 368
-0.995487, 365, 25, 380, 88
-0.995506, 61, 65, 92, 192
-0.995576, 251, 41, 266, 104
-0.995585, 5, 337, 20, 400
-0.995596, 209, 49, 224, 112
-0.995616, 275, 41, 290, 104
-0.995628, 285, 177, 300, 240
-0.995631, 307, 249, 322, 312
-0.995638, 359, 273, 374, 336
-0.995644, 339, 41, 354, 104
-0.995646, 247, 209, 262, 272
-0.995656, 209, 253, 336, 284
-0.995676, 1, 337, 128, 368
-0.995694, 225, 77, 352, 108
-0.995708, 407, 1, 422, 64
-0.995719, 129, 321, 144, 384
-0.99577, 197, 49, 212, 112
-0.995773, 209, 273, 224, 336
-0.995783, 241, 201, 256, 264
-0.995795, 203, 281, 218, 344
-0.995814, 329, 225, 344, 288
-0.995818, 81, 109, 208, 140
-0.995827, 1, 145, 128, 176
-0.995835, 217, 265, 232, 328
-0.995845, 185, 1, 216, 256
-0.995855, 209, 177, 336, 208
-0.995867, 385, 49, 416, 176
-0.995877, 317, 49, 332, 112
-0.995884, 297, 185, 312, 248
-0.995899, 1, 249, 500, 312
-0.995901, 165, 33, 196, 160
-0.995925, 197, 289, 212, 352
-0.995936, 235, 97, 250, 160
-0.995949, 413, 1, 428, 64
-0.99595, 191, 289, 206, 352
-0.995954, 241, 153, 256, 216
-0.995954, 41, 273, 104, 400
-0.995969, 301, 241, 316, 304
-0.995976, 381, 1, 396, 64
-0.99598, 187, 1, 202, 64
-0.995987, 59, 337, 74, 400
-0.995988, 65, 133, 192, 164
-0.99599, 141, 313, 156, 376
-0.99599, 273, 285, 400, 316
-0.995996, 177, 297, 192, 360
-0.996011, 307, 57, 322, 120
-0.996022, 193, 25, 208, 88
-0.996023, 269, 177, 284, 240
-0.996044, 319, 217, 334, 280
-0.996047, 193, 241, 320, 272
-0.996053, 311, 209, 326, 272
-0.996058, 137, 1, 200, 256
-0.996061, 11, 329, 26, 392
-0.996069, 161, 121, 288, 152
-0.996075, 369, 49, 400, 176
-0.996079, 1, 361, 128, 392
-0.996109, 353, 249, 480, 312
-0.996117, 223, 257, 238, 320
-0.996121, 123, 321, 138, 384
-0.996157, 319, 241, 334, 304
-0.996251, 321, 65, 448, 96
-0.996278, 241, 25, 368, 56
-0.996308, 113, 13, 240, 44
-0.996353, 145, 233, 272, 296
-0.996433, 193, 277, 320, 308
-0.996454, 321, 41, 448, 72
-0.996478, 129, 121, 384, 184
-0.996483, 249, 201, 264, 232
-0.996517, 113, 97, 240, 128
-0.996531, 193, 109, 320, 140
-0.996545, 161, 37, 288, 68
-0.996547, 197, 33, 228, 288
-0.99657, 267, 237, 282, 268
-0.996633, 137, 257, 168, 384
-0.996633, 259, 217, 274, 248
-0.996636, 273, 9, 400, 40
-0.996648, 305, 273, 432, 304
-0.996656, 237, 33, 268, 288
-0.9967, 97, 1, 160, 400
-0.996734, 209, 17, 272, 80
-0.996752, 273, 129, 304, 384
-0.996806, 285, 261, 300, 292
-0.996842, 97, 1, 352, 64
-0.996846, 129, 85, 256, 116
-0.99685, 219, 113, 234, 144
-0.996866, 161, 301, 288, 332
-0.996893, 223, 125, 238, 156
-0.996906, 237, 173, 252, 204
-0.996908, 243, 185, 258, 216
-0.996913, 347, 53, 362, 84
-0.996921, 233, 153, 248, 184
-0.996923, 177, 229, 304, 260
-0.996924, 65, 233, 320, 296
-0.996928, 161, 5, 288, 36
-0.996941, 9, 65, 72, 192
-0.996946, 265, 225, 280, 256
-0.996976, 33, 33, 288, 96
-0.996987, 161, 213, 288, 244
-0.996991, 113, 133, 128, 164
-0.996992, 227, 137, 242, 168
-0.99701, 177, 201, 304, 232
-0.997012, 1, 1, 500, 64
-0.99702, 225, 161, 480, 224
-0.997088, 29, 161, 60, 288
-0.997094, 191, 5, 206, 36
-0.997095, 273, 245, 288, 276
-0.997099, 129, 273, 192, 336
-0.997104, 255, 205, 270, 236
-0.997109, 153, 273, 184, 400
-0.997134, 337, 45, 352, 76
-0.997157, 195, 17, 210, 48
-0.99719, 113, 273, 144, 400
-0.997202, 221, 97, 252, 352
-0.997214, 249, 97, 280, 352
-0.997226, 345, 41, 360, 72
-0.997235, 161, 189, 288, 220
-0.997241, 273, 189, 400, 220
-0.997242, 1, 65, 500, 128
-0.997245, 173, 1, 204, 256
-0.997257, 209, 97, 336, 128
-0.99728, 279, 253, 294, 284
-0.997283, 269, 45, 284, 76
-0.997294, 291, 269, 306, 300
-0.997301, 321, 193, 384, 256
-0.997302, 369, 129, 496, 384
-0.997304, 355, 57, 370, 88
-0.99732, 237, 185, 252, 216
-0.99732, 285, 129, 316, 384
-0.997332, 273, 229, 400, 260
-0.997351, 263, 45, 278, 76
-0.997371, 249, 189, 264, 220
-0.997371, 381, 1, 396, 32
-0.997381, 201, 41, 216, 72
-0.997386, 105, 137, 120, 168
-0.99739, 161, 17, 288, 48
-0.997399, 205, 65, 220, 96
-0.997418, 33, 325, 160, 356
-0.997425, 203, 53, 218, 84
-0.997435, 81, 305, 208, 336
-0.997436, 285, 181, 300, 212
-0.997439, 1, 329, 500, 392
-0.997449, 321, 53, 448, 84
-0.997456, 119, 125, 134, 156
-0.99746, 305, 41, 320, 72
-0.997463, 161, 313, 288, 376
-0.997475, 197, 289, 212, 320
-0.997493, 361, 57, 376, 88
-0.997496, 185, 5, 200, 36
-0.997502, 321, 249, 448, 280
-0.997503, 209, 65, 240, 320
-0.997507, 253, 217, 268, 248
-0.997509, 183, 301, 198, 332
-0.99751, 317, 49, 332, 80
-0.997517, 211, 117, 226, 148
-0.997522, 403, 9, 418, 40
-0.997548, 309, 53, 324, 84
-0.997552, 339, 241, 354, 272
-0.997557, 257, 273, 500, 336
-0.997569, 129, 325, 144, 356
-0.997569, 403, 69, 418, 100
-0.997574, 293, 189, 308, 220
-0.997587, 125, 121, 140, 152
-0.997589, 109, 333, 124, 364
-0.997593, 277, 177, 292, 208
-0.997594, 197, 5, 212, 36
-0.997596, 207, 77, 222, 108
-0.997598, 313, 37, 328, 68
-0.997598, 331, 45, 346, 76
-0.99761, 277, 57, 292, 88
-0.997611, 229, 105, 244, 136
-0.997611, 53, 349, 68, 380
-0.997615, 193, 225, 224, 352
-0.99762, 99, 337, 114, 368
-0.997621, 199, 29, 214, 60
-0.997622, 177, 305, 192, 336
-0.997627, 119, 329, 134, 360
-0.997628, 113, 121, 128, 152
-0.99763, 241, 205, 256, 236
-0.997644, 349, 257, 364, 288
-0.997644, 363, 9, 378, 40
-0.997648, 191, 293, 206, 324
-0.99765, 229, 177, 244, 208
-0.997654, 357, 273, 372, 304
-0.997656, 267, 181, 282, 212
-0.997656, 113, 145, 240, 176
-0.997657, 103, 125, 118, 156
-0.99766, 247, 213, 262, 244
-0.99766, 89, 341, 104, 372
-0.99767, 163, 309, 178, 340
-0.997674, 73, 345, 88, 376
-0.997688, 255, 185, 270, 216
-0.997688, 151, 317, 166, 348
-0.997692, 43, 353, 58, 384
-0.997694, 135, 321, 150, 352
-0.997697, 375, 5, 390, 36
-0.9977, 141, 321, 156, 352
-0.997701, 129, 69, 256, 100
-0.997702, 341, 21, 356, 52
-0.997706, 257, 45, 272, 76
-0.997706, 371, 61, 386, 92
-0.997716, 271, 57, 286, 88
-0.997718, 29, 357, 44, 388
-0.997719, 137, 1, 200, 64
-0.997726, 1, 305, 256, 368
-0.997734, 319, 33, 334, 64
-0.997739, 169, 309, 184, 340
-0.997741, 369, 9, 384, 40
-0.997741, 393, 13, 408, 44
-0.997746, 357, 13, 372, 44
-0.997749, 83, 341, 98, 372
-0.997749, 59, 349, 74, 380
-0.99775, 397, 49, 428, 176
-0.997755, 235, 81, 250, 112
-0.99776, 129, 161, 384, 224
-0.997762, 37, 353, 52, 384
-0.997763, 267, 213, 282, 244
-0.997764, 285, 49, 300, 80
-0.997772, 351, 17, 366, 48
-0.997773, 157, 313, 172, 344
-0.997775, 219, 137, 234, 168
-0.997776, 161, 289, 288, 320
-0.997778, 249, 37, 264, 68
-0.997786, 145, 177, 272, 208
-0.99779, 23, 357, 38, 388
-0.99781, 361, 285, 376, 316
-0.997816, 251, 73, 266, 104
-0.997818, 241, 77, 256, 108
-0.997822, 333, 25, 348, 56
-0.997827, 265, 65, 280, 96
-0.997829, 201, 17, 216, 48
-0.99783, 341, 57, 356, 88
-0.997832, 343, 253, 358, 284
-0.997836, 259, 69, 274, 100
-0.997838, 219, 261, 234, 292
-0.997838, 201, 77, 216, 108
-0.99785, 255, 229, 270, 260
-0.997851, 303, 205, 318, 236
-0.997855, 227, 85, 242, 116
-0.997859, 297, 45, 312, 76
-0.997864, 213, 269, 228, 300
-0.99787, 207, 277, 222, 308
-0.997876, 275, 45, 290, 76
-0.997896, 87, 129, 102, 160
-0.997899, 49, 157, 176, 188
-0.997902, 73, 133, 88, 164
-0.997906, 297, 129, 328, 384
-0.997918, 1, 25, 500, 88
-0.997919, 177, 225, 208, 352
-0.997923, 413, 5, 428, 36
-0.997923, 151, 113, 166, 144
-0.997928, 119, 137, 134, 168
-0.997931, 233, 141, 248, 172
-0.997931, 285, 249, 300, 280
-0.997933, 281, 33, 312, 288
-0.997934, 297, 269, 312, 300
-0.997937, 139, 117, 154, 148
-0.997937, 351, 269, 366, 300
-0.997938, 323, 53, 338, 84
-0.997944, 273, 81, 304, 208
-0.997949, 237, 129, 268, 384
-0.997975, 101, 273, 132, 400
-0.998, 369, 17, 496, 48
-0.998004, 193, 133, 320, 164
-0.998016, 1, 273, 64, 400
-0.998137, 113, 1, 240, 32
-0.998154, 113, 25, 240, 56
-0.998163, 225, 1, 256, 256
-0.998171, 1, 97, 500, 160
-0.998218, 97, 293, 224, 324
-0.998218, 289, 205, 416, 236
-0.998277, 369, 57, 496, 88
-0.99828, 281, 65, 344, 192
-0.998294, 201, 33, 216, 160
-0.998303, 337, 285, 464, 316
-0.998322, 193, 153, 320, 184
-0.998325, 341, 49, 372, 176
-0.998325, 305, 261, 432, 292
-0.998334, 369, 69, 496, 100
-0.998335, 321, 129, 352, 384
-0.998343, 305, 55, 368, 70
-0.998361, 161, 253, 288, 284
-0.998362, 113, 145, 144, 272
-0.998369, 309, 129, 340, 384
-0.998374, 177, 123, 240, 138
-0.998375, 273, 73, 400, 104
-0.998376, 377, 1, 440, 256
-0.998391, 249, 185, 312, 200
-0.998402, 257, 145, 384, 208
-0.998409, 297, 61, 360, 76
-0.998415, 329, 63, 392, 78
-0.998415, 225, 189, 288, 204
-0.998422, 1, 281, 256, 344
-0.998425, 273, 235, 304, 250
-0.998425, 209, 89, 240, 104
-0.998426, 337, 41, 368, 56
-0.998426, 309, 255, 340, 270
-0.998427, 225, 105, 256, 120
-0.998427, 221, 187, 252, 202
-0.998428, 269, 57, 300, 72
-0.998428, 145, 113, 176, 128
-0.998429, 301, 217, 332, 232
-0.998429, 117, 123, 148, 138
-0.99843, 353, 69, 416, 84
-0.99843, 313, 231, 344, 246
-0.99843, 37, 159, 68, 174
-0.998431, 397, 17, 428, 32
-0.998431, 1, 121, 128, 152
-0.998432, 309, 51, 340, 66
-0.998433, 257, 49, 320, 64
-0.998435, 265, 59, 328, 74
-0.998435, 205, 113, 236, 128
-0.998435, 193, 47, 224, 62
-0.998435, 53, 351, 84, 366
-0.998436, 197, 289, 228, 304
-0.998436, 249, 91, 280, 106
-0.998437, 241, 177, 272, 192
-0.998438, 61, 153, 92, 168
-0.998439, 193, 41, 224, 56
-0.998439, 185, 301, 216, 316
-0.99844, 237, 97, 268, 112
-0.99844, 237, 223, 268, 238
-0.99844, 193, 55, 224, 70
-0.998441, 195, 33, 210, 160
-0.998445, 221, 151, 252, 166
-0.998445, 313, 283, 344, 298
-0.998447, 321, 243, 352, 258
-0.998447, 293, 45, 324, 60
-0.998447, 381, 75, 412, 90
-0.998447, 361, 21, 424, 36
-0.998447, 69, 347, 100, 362
-0.99845, 233, 197, 296, 212
-0.998451, 333, 257, 364, 272
-0.998453, 257, 55, 288, 70
-0.998454, 201, 125, 232, 140
-0.998455, 249, 191, 312, 206
-0.998455, 97, 137, 160, 152
-0.998455, 377, 23, 408, 38
-0.998455, 189, 35, 220, 50
-0.998456, 377, 69, 440, 84
-0.998456, 197, 91, 228, 106
-0.998457, 221, 145, 252, 160
-0.998458, 253, 193, 284, 208
-0.998458, 121, 135, 152, 150
-0.998459, 281, 51, 312, 66
-0.998459, 209, 79, 240, 94
-0.998459, 313, 281, 376, 296
-0.998459, 297, 67, 328, 82
-0.99846, 89, 149, 120, 164
-0.99846, 229, 201, 260, 216
-0.998461, 277, 241, 308, 256
-0.998461, 109, 333, 140, 348
-0.998462, 237, 217, 268, 232
-0.998462, 141, 321, 172, 336
-0.998463, 321, 237, 448, 268
-0.998463, 121, 331, 152, 346
-0.998465, 281, 247, 312, 262
-0.998465, 417, 1, 448, 16
-0.998466, 129, 141, 160, 156
-0.998467, 329, 251, 360, 266
-0.998468, 281, 195, 312, 210
-0.998469, 241, 215, 304, 230
-0.998469, 193, 89, 256, 104
-0.998469, 329, 47, 360, 62
-0.99847, 261, 229, 292, 244
-0.99847, 337, 267, 368, 282
-0.998471, 149, 135, 180, 150
-0.998471, 57, 133, 120, 148
-0.998471, 285, 207, 316, 222
-0.998471, 297, 1, 328, 256
-0.998473, 49, 157, 80, 172
-0.998473, 41, 349, 104, 364
-0.998474, 261, 215, 292, 230
-0.998475, 189, 295, 220, 310
-0.998478, 289, 47, 352, 62
-0.99848, 225, 177, 256, 192
-0.998481, 329, 57, 392, 72
-0.998481, 241, 221, 304, 236
-0.998482, 257, 261, 320, 276
-0.998486, 169, 129, 200, 144
-0.998487, 221, 193, 252, 208
-0.998488, 321, 59, 352, 74
-0.998489, 109, 147, 140, 162
-0.998489, 225, 157, 256, 172
-0.998491, 285, 201, 316, 216
-0.998491, 101, 127, 132, 142
-0.998491, 209, 83, 272, 98
-0.998491, 233, 203, 296, 218
-0.998494, 157, 313, 188, 328
-0.998494, 81, 343, 112, 358
-0.998495, 225, 167, 256, 182
-0.998497, 173, 305, 204, 320
-0.998497, 173, 15, 204, 30
-0.998498, 169, 129, 232, 144
-0.9985, 309, 63, 340, 78
-0.9985, 353, 291, 384, 306
-0.9985, 97, 337, 128, 352
-0.9985, 97, 143, 160, 158
-0.998502, 213, 123, 244, 138
-0.998502, 361, 5, 424, 20
-0.998504, 217, 137, 248, 152
-0.998506, 241, 179, 304, 194
-0.998506, 417, 71, 448, 86
-0.998506, 249, 251, 312, 266
-0.998508, 277, 187, 308, 202
-0.998508, 257, 207, 320, 222
-0.998509, 185, 95, 248, 110
-0.99851, 345, 13, 408, 28
-0.99851, 185, 75, 248, 90
-0.99851, 197, 61, 228, 76
-0.99851, 249, 227, 312, 242
-0.998511, 97, 143, 128, 158
-0.998511, 285, 253, 316, 268
-0.998511, 257, 65, 320, 80
-0.998511, 197, 73, 228, 88
-0.998515, 249, 241, 312, 256
-0.998517, 97, 335, 160, 350
-0.998518, 213, 129, 244, 144
-0.998518, 373, 69, 404, 84
-0.998518, 329, 19, 392, 34
-0.998519, 65, 341, 128, 356
-0.99852, 249, 227, 280, 242
-0.99852, 233, 75, 296, 90
-0.99852, 189, 29, 220, 44
-0.998523, 1, 359, 64, 374
-0.998523, 361, 27, 424, 42
-0.998525, 177, 11, 240, 26
-0.998525, 249, 47, 280, 62
-0.998526, 281, 227, 344, 242
-0.998526, 193, 165, 320, 196
-0.998527, 185, 5, 216, 20
-0.998527, 209, 195, 272, 210
-0.998528, 225, 81, 240, 208
-0.998528, 233, 49, 296, 64
-0.998529, 145, 313, 208, 328
-0.998529, 297, 37, 360, 52
-0.998529, 281, 53, 344, 68
-0.99853, 57, 159, 120, 174
-0.998531, 89, 129, 120, 144
-0.998531, 197, 79, 228, 94
-0.998532, 57, 149, 120, 164
-0.998532, 97, 149, 160, 164
-0.998533, 281, 221, 344, 236
-0.998534, 313, 29, 376, 44
-0.998535, 189, 123, 220, 138
-0.998535, 81, 127, 144, 142
-0.998535, 265, 233, 328, 248
-0.998536, 185, 117, 248, 132
-0.998536, 25, 355, 88, 370
-0.998536, 113, 131, 176, 146
-0.998536, 73, 141, 136, 156
-0.998537, 113, 329, 176, 344
-0.998539, 129, 325, 160, 340
-0.998539, 261, 177, 276, 304
-0.998542, 249, 187, 280, 202
-0.998542, 289, 259, 320, 274
-0.998542, 193, 69, 256, 84
-0.998542, 217, 175, 280, 190
-0.998543, 33, 159, 96, 174
-0.998544, 121, 137, 184, 152
-0.998545, 353, 63, 416, 78
-0.998546, 177, 101, 240, 116
-0.998548, 225, 257, 288, 272
-0.998549, 121, 323, 184, 338
-0.99855, 369, 1, 400, 256
-0.998553, 305, 261, 368, 276
-0.998553, 273, 265, 304, 280
-0.998556, 145, 133, 208, 148
-0.998556, 313, 275, 376, 290
-0.998557, 281, 285, 344, 300
-0.998558, 309, 57, 340, 72
-0.998559, 265, 213, 328, 228
-0.99856, 303, 193, 318, 320
-0.99856, 401, 71, 464, 86
-0.998563, 161, 17, 224, 32
-0.998563, 233, 195, 264, 210
-0.998563, 145, 319, 208, 334
-0.998564, 281, 257, 344, 272
-0.998564, 161, 307, 224, 322
-0.998568, 377, 63, 440, 78
-0.998569, 197, 67, 228, 82
-0.998569, 385, 69, 416, 84
-0.99857, 329, 69, 392, 84
-0.998571, 145, 165, 272, 196
-0.998574, 257, 235, 288, 250
-0.998577, 233, 209, 296, 224
-0.998579, 185, 81, 248, 96
-0.99858, 231, 97, 246, 224
-0.99858, 321, 287, 384, 302
-0.998581, 369, 15, 432, 30
-0.998582, 333, 53, 364, 68
-0.998582, 417, 49, 448, 176
-0.998583, 113, 125, 176, 140
-0.998583, 385, 17, 416, 32
-0.998584, 137, 117, 200, 132
-0.998584, 241, 43, 304, 58
-0.998584, 113, 185, 240, 248
-0.998584, 207, 33, 222, 160
-0.998584, 197, 85, 228, 100
-0.998585, 33, 137, 96, 152
-0.998586, 257, 201, 320, 216
-0.998586, 89, 341, 152, 356
-0.998588, 201, 187, 264, 202
-0.998588, 209, 201, 272, 216
-0.998588, 297, 245, 360, 260
-0.998589, 257, 177, 384, 208
-0.99859, 241, 205, 272, 220
-0.998593, 361, 75, 424, 90
-0.998593, 21, 65, 52, 320
-0.998594, 321, 53, 352, 68
-0.998595, 109, 139, 140, 154
-0.998596, 225, 267, 288, 282
-0.998596, 269, 181, 300, 196
-0.998597, 273, 243, 336, 258
-0.998597, 261, 49, 292, 64
-0.998598, 241, 55, 304, 70
-0.998598, 189, 23, 220, 38
-0.998598, 313, 267, 376, 282
-0.998598, 289, 277, 352, 292
-0.998599, 177, 301, 240, 316
-0.9986, 289, 67, 352, 82
-0.9986, 185, 17, 216, 32
-0.9986, 241, 233, 304, 248
-0.9986, 73, 347, 136, 362
-0.998601, 81, 155, 144, 170
-0.998602, 201, 119, 232, 134
-0.998603, 185, 195, 248, 210
-0.998604, 365, 63, 396, 78
-0.998607, 233, 81, 296, 96
-0.998608, 273, 271, 336, 286
-0.998608, 33, 153, 96, 168
-0.998608, 289, 235, 352, 250
-0.998609, 209, 207, 272, 222
-0.998609, 269, 259, 300, 274
-0.998611, 153, 109, 216, 124
-0.998611, 1, 141, 64, 156
-0.998611, 193, 145, 256, 160
-0.998613, 233, 69, 296, 84
-0.998613, 209, 63, 272, 78
-0.998613, 271, 161, 286, 288
-0.998615, 169, 67, 232, 82
-0.998616, 261, 247, 292, 262
-0.998617, 185, 293, 248, 308
-0.998619, 161, 5, 224, 20
-0.998619, 305, 251, 368, 266
-0.998619, 209, 123, 272, 138
-0.99862, 145, 49, 272, 80
-0.99862, 209, 77, 272, 92
-0.99862, 233, 183, 264, 198
-0.99862, 169, 61, 232, 76
-0.99862, 25, 367, 88, 382
-0.998621, 329, 45, 392, 60
-0.998621, 121, 143, 184, 158
-0.998622, 217, 145, 280, 160
-0.998622, 249, 217, 280, 232
-0.998623, 265, 43, 328, 58
-0.998625, 217, 217, 280, 232
-0.998625, 397, 71, 428, 86
-0.99863, 1, 225, 500, 288
-0.998633, 97, 329, 352, 392
-0.998637, 1, 65, 32, 320
-0.998639, 241, 211, 272, 226
-0.998641, 265, 253, 296, 268
-0.99865, 213, 65, 228, 192
-0.998652, 261, 241, 292, 256
-0.998671, 239, 161, 254, 288
-0.998672, 399, 1, 414, 128
-0.998675, 113, 37, 240, 68
-0.998676, 343, 1, 358, 128
-0.998685, 353, 63, 384, 78
-0.998688, 185, 11, 216, 26
-0.998695, 233, 189, 264, 204
-0.998696, 113, 277, 240, 308
-0.998699, 345, 241, 360, 368
-0.998701, 233, 145, 248, 272
-0.998705, 341, 59, 372, 74
-0.99871, 33, 65, 64, 320
-0.998721, 357, 1, 388, 256
-0.998722, 389, 1, 404, 128
-0.998728, 381, 1, 412, 256
-0.99875, 265, 33, 280, 160
-0.998752, 289, 217, 416, 248
-0.998761, 255, 177, 270, 304
-0.998763, 297, 193, 312, 320
-0.998767, 237, 97, 252, 224
-0.99878, 1, 273, 500, 336
-0.99878, 113, 337, 240, 368
-0.998781, 287, 177, 302, 304
-0.998798, 315, 209, 330, 336
-0.998808, 113, 97, 176, 352
-0.998809, 81, 349, 208, 380
-0.99881, 249, 177, 264, 304
-0.998814, 161, 33, 192, 288
-0.998814, 383, 1, 398, 128
-0.998816, 329, 225, 344, 352
-0.998817, 45, 65, 76, 320
-0.998818, 323, 209, 338, 336
-0.99882, 145, 329, 208, 392
-0.99882, 219, 81, 234, 208
-0.998821, 313, 1, 344, 256
-0.998821, 375, 1, 390, 128
-0.998825, 277, 33, 292, 160
-0.998854, 339, 241, 354, 368
-0.998854, 271, 33, 286, 160
-0.998861, 353, 273, 480, 304
-0.99888, 225, 137, 480, 200
-0.998884, 189, 33, 204, 160
-0.998884, 189, 81, 204, 208
-0.998892, 283, 33, 298, 160
-0.998897, 195, 81, 210, 208
-0.99891, 225, 129, 240, 256
-0.998913, 279, 177, 294, 304
-0.998921, 309, 209, 324, 336
-0.998926, 57, 65, 88, 320
-0.998931, 1, 193, 500, 256
-0.998933, 341, 129, 372, 384
-0.998956, 337, 1, 352, 128
-0.998959, 291, 33, 306, 160
-0.998961, 147, 97, 162, 224
-0.998973, 405, 1, 420, 128
-0.998991, 105, 281, 168, 344
-0.998994, 331, 17, 346, 144
-0.998997, 291, 225, 306, 352
-0.999007, 79, 113, 94, 240
-0.999024, 411, 1, 426, 128
-0.999029, 201, 81, 216, 208
-0.999035, 259, 33, 274, 160
-0.99904, 323, 17, 338, 144
-0.99904, 103, 113, 118, 240
-0.999041, 267, 209, 282, 336
-0.999041, 85, 113, 100, 240
-0.999045, 349, 1, 364, 128
-0.999046, 95, 113, 110, 240
-0.999047, 33, 313, 160, 344
-0.99905, 157, 81, 172, 208
-0.999059, 317, 17, 332, 144
-0.999062, 65, 93, 192, 124
-0.99907, 235, 49, 250, 176
-0.999073, 49, 361, 176, 392
-0.999078, 141, 97, 156, 224
-0.999087, 15, 113, 30, 240
-0.999088, 5, 113, 20, 240
-0.999096, 297, 17, 312, 144
-0.999097, 297, 241, 312, 368
-0.9991, 251, 17, 266, 144
-0.999104, 369, 1, 384, 128
-0.999106, 33, 105, 160, 136
-0.999118, 279, 225, 294, 352
-0.999119, 225, 13, 352, 44
-0.999119, 73, 113, 88, 240
-0.999123, 183, 81, 198, 208
-0.999126, 245, 129, 260, 256
-0.99913, 145, 325, 272, 356
-0.999132, 27, 113, 42, 240
-0.999134, 21, 113, 36, 240
-0.999138, 129, 201, 256, 232
-0.999147, 273, 225, 288, 352
-0.99915, 207, 81, 222, 208
-0.99916, 109, 113, 124, 240
-0.99916, 351, 241, 366, 368
-0.999168, 163, 81, 178, 208
-0.99917, 285, 225, 300, 352
-0.99918, 33, 209, 288, 272
-0.999186, 65, 257, 320, 320
-0.999195, 33, 113, 48, 240
-0.999215, 245, 17, 260, 144
-0.999217, 115, 97, 130, 224
-0.999223, 189, 129, 220, 384
-0.999227, 169, 81, 184, 208
-0.999227, 311, 17, 326, 144
-0.999237, 81, 65, 112, 320
-0.999271, 39, 113, 54, 240
-0.999272, 261, 225, 276, 352
-0.999273, 361, 1, 376, 128
-0.999279, 67, 113, 82, 240
-0.999287, 355, 1, 370, 128
-0.999289, 303, 17, 318, 144
-0.999295, 303, 241, 318, 368
-0.999302, 121, 97, 136, 224
-0.999302, 201, 289, 264, 352
-0.999309, 69, 65, 100, 320
-0.999315, 393, 1, 424, 256
-0.999317, 93, 97, 124, 352
-0.999333, 335, 193, 350, 320
-0.999333, 97, 53, 224, 84
-0.999347, 135, 97, 150, 224
-0.999354, 127, 97, 142, 224
-0.999358, 175, 81, 190, 208
-0.99936, 261, 81, 276, 208
-0.999361, 165, 129, 196, 384
-0.999361, 213, 113, 228, 240
-0.999362, 129, 265, 256, 296
-0.999364, 261, 129, 276, 256
-0.999364, 253, 129, 268, 256
-0.999368, 49, 113, 64, 240
-0.999369, 219, 129, 234, 256
-0.999379, 61, 113, 76, 240
-0.999383, 321, 257, 336, 384
-0.999383, 321, 77, 448, 108
-0.999392, 339, 49, 354, 176
-0.999401, 55, 113, 70, 240
-0.999415, 269, 81, 284, 208
-0.999417, 103, 65, 118, 192
-0.999417, 93, 65, 108, 192
-0.999421, 151, 49, 166, 176
-0.999424, 279, 129, 294, 256
-0.999435, 219, 33, 234, 160
-0.999437, 331, 273, 346, 400
-0.999439, 85, 65, 100, 192
-0.999439, 309, 257, 324, 384
-0.999442, 341, 193, 356, 320
-0.999444, 255, 225, 270, 352
-0.999448, 353, 29, 480, 60
-0.999463, 315, 257, 330, 384
-0.999473, 267, 257, 282, 384
-0.999476, 291, 273, 306, 400
-0.999483, 225, 33, 240, 160
-0.999495, 1, 1, 256, 64
-0.999496, 243, 81, 258, 208
-0.999503, 197, 257, 212, 384
-0.999511, 79, 65, 94, 192
-0.999515, 5, 161, 20, 288
-0.999515, 293, 145, 308, 272
-0.999517, 301, 145, 316, 272
-0.999517, 243, 209, 258, 336
-0.999523, 179, 273, 194, 400
-0.999527, 157, 129, 172, 256
-0.999534, 145, 49, 160, 176
-0.999538, 347, 193, 362, 320
-0.999542, 109, 65, 124, 192
-0.999546, 21, 161, 36, 288
-0.999555, 81, 81, 208, 112
-0.999567, 89, 273, 120, 400
-0.999583, 329, 129, 392, 384
-0.999594, 149, 65, 180, 320
-0.999601, 201, 129, 232, 256
-0.999623, 229, 193, 244, 208
-0.999624, 283, 265, 298, 280
-0.999624, 229, 171, 244, 186
-0.999625, 195, 29, 210, 44
-0.999625, 271, 57, 286, 72
-0.999625, 333, 283, 348, 298
-0.999626, 275, 241, 290, 256
-0.999626, 213, 273, 228, 288
-0.999626, 329, 235, 344, 250
-0.999627, 363, 67, 378, 82
-0.999627, 419, 71, 434, 86
-0.999627, 57, 159, 72, 174
-0.999628, 105, 97, 136, 352
-0.999629, 279, 181, 294, 196
-0.999629, 103, 149, 118, 164
-0.999629, 293, 193, 308, 208
-0.999629, 353, 65, 368, 80
-0.999629, 287, 51, 302, 66
-0.99963, 323, 229, 338, 244
-0.999632, 229, 177, 244, 192
-0.999632, 197, 35, 212, 50
-0.999632, 97, 151, 112, 166
-0.999632, 227, 107, 242, 122
-0.999633, 195, 23, 210, 38
-0.999633, 239, 203, 254, 218
-0.999633, 207, 281, 222, 296
-0.999634, 341, 251, 356, 266
-0.999635, 303, 65, 318, 80
-0.999636, 203, 85, 218, 100
-0.999636, 339, 63, 354, 78
-0.999636, 307, 57, 322, 72
-0.999637, 257, 41, 272, 56
-0.999638, 107, 127, 122, 142
-0.999638, 249, 39, 264, 54
-0.999641, 199, 63, 214, 78
-0.999641, 339, 265, 354, 280
-0.999641, 285, 183, 300, 198
-0.999646, 287, 209, 302, 224
-0.999647, 199, 47, 214, 62
-0.999647, 405, 23, 420, 38
-0.999651, 197, 291, 212, 306
-0.999652, 351, 269, 366, 284
-0.999654, 331, 49, 346, 64
-0.999654, 269, 235, 284, 250
-0.999655, 337, 245, 352, 260
-0.999655, 309, 65, 324, 80
-0.999656, 205, 119, 220, 134
-0.999656, 233, 161, 248, 176
-0.999657, 115, 127, 130, 142
-0.999659, 263, 217, 278, 232
-0.999659, 277, 59, 292, 74
-0.999659, 199, 41, 214, 56
-0.999659, 197, 11, 212, 26
-0.99966, 289, 263, 304, 278
-0.999661, 203, 55, 218, 70
-0.999665, 119, 143, 134, 158
-0.999667, 211, 119, 226, 134
-0.999667, 347, 263, 362, 278
-0.999668, 199, 17, 214, 32
-0.999669, 315, 61, 330, 76
-0.999671, 363, 287, 378, 302
-0.999671, 239, 183, 254, 198
-0.999674, 277, 253, 292, 268
-0.999674, 207, 69, 222, 84
-0.999676, 321, 55, 336, 70
-0.999677, 253, 227, 268, 242
-0.999677, 431, 67, 446, 82
-0.999677, 291, 275, 306, 290
-0.999677, 291, 187, 306, 202
-0.999677, 249, 221, 264, 236
-0.999678, 207, 79, 222, 94
-0.999678, 209, 121, 336, 152
-0.999679, 313, 161, 344, 288
-0.999679, 343, 257, 358, 272
-0.999682, 413, 71, 428, 86
-0.999683, 391, 19, 406, 34
-0.999684, 337, 47, 352, 62
-0.999684, 315, 55, 330, 70
-0.999685, 209, 85, 224, 100
-0.999689, 271, 179, 286, 194
-0.99969, 425, 67, 440, 82
-0.99969, 387, 69, 402, 84
-0.99969, 111, 135, 126, 150
-0.999691, 247, 213, 262, 228
-0.999692, 111, 145, 126, 160
-0.999693, 1, 145, 500, 208
-0.999694, 269, 51, 284, 66
-0.999696, 251, 45, 266, 60
-0.999696, 201, 69, 216, 84
-0.999697, 277, 51, 292, 66
-0.999697, 253, 209, 268, 224
-0.9997, 263, 183, 278, 198
-0.9997, 243, 193, 258, 208
-0.9997, 217, 115, 232, 130
-0.9997, 407, 71, 422, 86
-0.999705, 193, 17, 208, 32
-0.999705, 205, 63, 220, 78
-0.999709, 347, 63, 362, 78
-0.99971, 263, 233, 278, 248
-0.999712, 235, 171, 250, 186
-0.999713, 253, 191, 268, 206
-0.999715, 275, 247, 290, 262
-0.999715, 283, 255, 298, 270
-0.999716, 289, 269, 304, 284
-0.999717, 195, 5, 210, 20
-0.999718, 393, 69, 408, 84
-0.999721, 49, 161, 112, 288
-0.999722, 125, 257, 156, 384
-0.999723, 333, 55, 348, 70
-0.999725, 181, 13, 196, 28
-0.999729, 269, 241, 284, 256
-0.999733, 263, 227, 278, 242
-0.999734, 263, 239, 278, 254
-0.999737, 49, 161, 176, 224
-0.999739, 237, 189, 252, 204
-0.999743, 245, 187, 260, 202
-0.999743, 381, 67, 396, 82
-0.999745, 343, 55, 358, 70
-0.999745, 401, 17, 416, 32
-0.999746, 233, 155, 248, 170
-0.999748, 237, 177, 252, 192
-0.999749, 187, 11, 202, 26
-0.999751, 229, 145, 244, 160
-0.999753, 375, 65, 390, 80
-0.999759, 219, 121, 234, 136
-0.999761, 247, 205, 262, 220
-0.999764, 221, 127, 236, 142
-0.999767, 361, 61, 376, 76
-0.99977, 261, 47, 276, 62
-0.999771, 257, 221, 272, 236
-0.999787, 401, 71, 416, 86
-0.999788, 225, 137, 240, 152
-0.999789, 369, 63, 384, 78
-0.999799, 245, 199, 260, 214
-0.999799, 355, 59, 370, 74
-0.9998, 9, 65, 40, 192
-0.999801, 273, 165, 400, 196
-0.999802, 349, 57, 364, 72
-0.999804, 253, 215, 268, 230
-0.999829, 9, 305, 72, 368
-0.99984, 145, 241, 272, 272
-0.999859, 177, 129, 208, 384
-1, 93, 1, 124, 256
-1.00002, 325, 33, 356, 288
-1.00002, 321, 297, 448, 328
-1.00005, 353, 261, 480, 292
-1.0001, 177, 313, 304, 344
-1.00011, 297, 129, 360, 256
-1.00012, 161, 161, 224, 224
-1.00012, 169, 137, 232, 200
-1.00013, 201, 241, 264, 304
-1.00013, 1, 169, 128, 200
-1.00014, 49, 65, 80, 192
-1.00017, 105, 1, 136, 256
-1.00019, 225, 97, 480, 160
-1.00023, 169, 129, 200, 256
-1.00025, 65, 1, 192, 32
-1.00026, 97, 241, 224, 304
-1.00027, 113, 253, 240, 284
-1.00027, 113, 189, 240, 220
-1.00029, 225, 289, 352, 320
-1.00034, 369, 45, 496, 76
-1.00038, 345, 1, 376, 256
-1.00044, 273, 297, 400, 328
-1.0005, 137, 97, 168, 352
-1.00054, 49, 293, 176, 324
-1.0006, 337, 225, 464, 256
-1.00063, 361, 129, 392, 384
-1.00067, 41, 161, 72, 288
-1.00068, 109, 49, 140, 176
-1.0007, 129, 1, 160, 256
-1.00072, 65, 13, 192, 44
-1.00074, 25, 65, 56, 192
-1.00075, 369, 81, 496, 112
-1.00076, 97, 177, 224, 208
-1.00078, 257, 89, 384, 120
-1.0008, 305, 177, 432, 208
-1.00081, 169, 193, 232, 256
-1.00082, 369, 297, 496, 328
-1.00083, 129, 229, 256, 260
-1.00084, 205, 209, 236, 336
-1.00084, 73, 273, 104, 400
-1.00085, 241, 273, 304, 400
-1.00087, 65, 29, 192, 60
-1.00094, 117, 65, 148, 320
-1.00103, 1, 169, 256, 232
-1.00107, 405, 1, 436, 256
-1.00108, 17, 289, 144, 352
-1.00115, 57, 161, 88, 288
-1.00117, 137, 225, 200, 352
-1.00121, 73, 1, 136, 400
-1.00132, 1, 305, 500, 368
-1.00139, 49, 65, 176, 128
-1.0014, 409, 49, 472, 176
-1.00144, 125, 145, 156, 272
-1.00145, 305, 81, 432, 144
-1.00146, 81, 1, 144, 256
-1.00148, 257, 297, 500, 360
-1.00156, 37, 65, 68, 192
-1.00158, 241, 121, 368, 184
-1.00162, 9, 273, 40, 400
-1.00164, 361, 273, 392, 400
-1.00172, 65, 1, 192, 64
-1.00176, 469, 1, 500, 256
-1.00176, 65, 225, 192, 352
-1.00179, 429, 1, 460, 256
-1.00181, 97, 161, 224, 224
-1.00181, 441, 1, 472, 256
-1.00181, 453, 1, 484, 256
-1.00184, 373, 129, 404, 384
-1.00184, 417, 33, 448, 288
-1.00184, 385, 129, 416, 384
-1.00184, 397, 129, 428, 384
-1.00184, 409, 129, 440, 384
-1.00184, 421, 129, 452, 384
-1.00184, 433, 129, 464, 384
-1.00184, 445, 129, 476, 384
-1.00184, 457, 129, 488, 384
-1.00184, 469, 129, 500, 384
-1.00185, 69, 161, 100, 288
-1.00192, 357, 65, 388, 192
-1.00203, 1, 81, 128, 144
-1.00212, 257, 337, 500, 400
-1.00213, 49, 161, 176, 288
-1.00221, 425, 49, 488, 112
-1.00238, 185, 129, 216, 256
-1.00238, 137, 145, 168, 272
-1.00241, 417, 1, 480, 400
-1.00253, 301, 65, 332, 192
-1.00255, 353, 225, 480, 288
-1.00256, 369, 297, 496, 360
-1.00259, 49, 273, 80, 400
-1.00262, 321, 305, 448, 368
-1.00267, 49, 1, 112, 400
-1.0027, 65, 25, 192, 88
-1.00273, 369, 273, 496, 336
-1.00281, 353, 129, 416, 384
-1.00283, 273, 137, 336, 200
-1.0029, 1, 169, 500, 232
-1.00291, 17, 9, 144, 72
-1.00291, 17, 33, 144, 96
-1.00291, 1, 57, 128, 120
-1.00291, 369, 105, 496, 168
-1.00291, 321, 121, 448, 184
-1.00291, 369, 129, 496, 192
-1.00291, 321, 145, 448, 208
-1.00291, 369, 153, 496, 216
-1.00291, 369, 177, 496, 240
-1.00291, 17, 193, 144, 256
-1.00291, 65, 193, 192, 256
-1.00291, 369, 201, 496, 264
-1.00291, 17, 217, 144, 280
-1.00291, 65, 217, 192, 280
-1.00291, 1, 241, 128, 304
-1.00291, 49, 241, 176, 304
-1.00291, 1, 265, 128, 328
-1.00291, 225, 313, 352, 376
-1.00291, 273, 313, 400, 376
-1.00291, 177, 337, 304, 400
-1.00291, 225, 337, 352, 400
-1.00291, 273, 337, 400, 400
-1.00291, 321, 337, 448, 400
-1.00291, 369, 337, 496, 400
-1.00295, 241, 97, 368, 160
-1.00308, 317, 65, 348, 192
-1.00321, 9, 1, 72, 400
-1.00337, 361, 209, 392, 336
-1.00349, 429, 33, 460, 160
-1.0036, 273, 113, 336, 240
-1.00366, 369, 225, 496, 352
-1.00378, 81, 161, 112, 288
-1.00393, 361, 225, 424, 352
-1.00398, 37, 273, 68, 400
-1.00402, 61, 273, 92, 400
-1.00422, 233, 1, 296, 64
-1.00423, 165, 225, 196, 352
-1.00445, 321, 169, 448, 232
-1.00457, 401, 25, 464, 88
-1.00462, 137, 57, 200, 120
-1.00484, 257, 89, 320, 152
-1.00555, 113, 225, 176, 352
-1.00563, 353, 225, 416, 288
-1.00573, 9, 89, 72, 152
-1.00573, 425, 25, 488, 88
-1.00582, 177, 161, 240, 288
-1.0062, 249, 137, 312, 200
-1.00625, 353, 81, 416, 144
-1.00629, 241, 281, 304, 344
-1.0065, 401, 81, 464, 144
-1.00672, 137, 25, 200, 88
-1.00679, 73, 289, 136, 352
-1.00721, 377, 265, 440, 328
-1.00722, 65, 1, 192, 128
-1.00725, 313, 169, 376, 232
-1.00731, 209, 273, 272, 400
-1.00769, 417, 1, 480, 128
-1.0078, 137, 1, 200, 128
-1.00835, 137, 145, 200, 272
-1.00897, 337, 161, 400, 288
-1.0092, 369, 177, 496, 304
-1.01027, 433, 1, 496, 256
-1.01038, 369, 129, 496, 256
-1.01086, 385, 129, 448, 384
-1.01086, 409, 129, 472, 384
-1.01086, 433, 129, 496, 384
-1.01105, 409, 33, 472, 288
-1.01192, 361, 273, 424, 400
-1.01263, 1, 1, 128, 128
-1.01272, 97, 161, 224, 288
-1.01367, 369, 177, 432, 304
-1.01371, 369, 273, 496, 400
-1.01391, 17, 225, 144, 352
-1.01401, 89, 209, 152, 336
-1.01419, 433, 49, 496, 176
-1.01431, 81, 17, 144, 144
-1.01448, 1, 209, 64, 336
-1.01478, 1, 1, 64, 128
-1.01478, 337, 97, 400, 224
-1.01478, 361, 129, 424, 256
-1.01478, 385, 129, 448, 256
-1.01478, 409, 129, 472, 256
-1.01478, 433, 129, 496, 256
-1.01478, 409, 177, 472, 304
-1.01478, 433, 177, 496, 304
-1.01478, 385, 225, 448, 352
-1.01478, 409, 225, 472, 352
-1.01478, 433, 225, 496, 352
-1.01478, 385, 273, 448, 400
-1.01478, 409, 273, 472, 400
-1.01478, 433, 273, 496, 400
-1.01513, 25, 209, 88, 336
-1.01622, 113, 1, 176, 128
-1.01645, 57, 225, 120, 352
-1.01652, 57, 1, 120, 128
-1.01786, 25, 1, 88, 128
