1970
-0.29358, 1, 1, 375, 500
-0.297325, 1, 225, 375, 480
-0.307678, 97, 1, 352, 500
-0.336052, 1, 129, 375, 384
-0.481685, 1, 33, 375, 288
-0.528993, 65, 161, 320, 416
-0.530274, 33, 257, 288, 500
-0.545462, 1, 1, 256, 500
-0.635384, 129, 257, 375, 500
-0.676361, 97, 1, 352, 256
-0.716906, 1, 65, 256, 320
-0.837085, 177, 129, 304, 384
-0.837943, 97, 1, 224, 500
-0.842776, 1, 257, 375, 384
-0.845206, 97, 97, 224, 352
-0.848316, 241, 257, 368, 500
-0.85012, 225, 129, 352, 384
-0.851946, 145, 225, 272, 480
-0.860367, 113, 1, 240, 256
-0.861404, 65, 257, 192, 500
-0.861827, 225, 1, 352, 500
-0.861861, 49, 1, 176, 500
-0.866822, 161, 1, 288, 500
-0.868619, 1, 337, 375, 464
-0.871082, 1, 209, 375, 336
-0.871505, 49, 129, 176, 384
-0.875203, 1, 145, 375, 272
-0.875709, 193, 225, 320, 480
-0.887738, 49, 1, 176, 256
-0.893208, 17, 257, 144, 500
-0.897509, 129, 145, 375, 272
-0.902937, 65, 225, 320, 352
-0.905012, 193, 33, 320, 288
-0.908671, 129, 353, 375, 480
-0.908889, 33, 177, 288, 304
-0.909462, 65, 273, 320, 400
-0.910985, 1, 65, 375, 192
-0.91137, 225, 321, 352, 448
-0.91227, 1, 1, 128, 500
-0.916054, 1, 369, 256, 496
-0.916084, 1, 97, 128, 352
-0.917203, 249, 321, 312, 448
-0.921307, 193, 369, 320, 496
-0.923229, 73, 33, 136, 160
-0.924136, 217, 289, 280, 416
-0.92419, 97, 81, 352, 208
-0.925759, 1, 97, 256, 224
-0.92715, 113, 33, 176, 160
-0.927446, 89, 97, 152, 224
-0.927781, 97, 1, 224, 128
-0.92818, 241, 33, 368, 288
-0.928411, 1, 321, 256, 448
-0.930474, 289, 321, 352, 448
-0.93084, 97, 97, 224, 224
-0.931507, 129, 113, 192, 240
-0.93179, 177, 209, 304, 336
-0.931806, 185, 193, 248, 320
-0.931959, 1, 337, 128, 464
-0.932114, 193, 273, 320, 400
-0.933786, 209, 129, 336, 256
-0.934228, 1, 1, 375, 128
-0.934338, 65, 257, 192, 384
-0.934374, 241, 369, 304, 496
-0.934377, 129, 225, 256, 352
-0.934588, 49, 1, 176, 128
-0.935646, 145, 273, 272, 400
-0.936033, 193, 369, 256, 496
-0.936121, 97, 17, 352, 144
-0.936263, 81, 177, 208, 304
-0.936446, 209, 241, 272, 368
-0.936613, 129, 145, 256, 272
-0.93673, 169, 145, 232, 272
-0.938786, 313, 337, 375, 464
-0.939415, 273, 369, 336, 496
-0.940507, 233, 209, 296, 336
-0.940535, 241, 177, 368, 304
-0.940843, 217, 145, 280, 272
-0.94194, 217, 337, 280, 464
-0.942149, 289, 177, 352, 304
-0.94229, 241, 369, 368, 496
-0.942576, 273, 129, 336, 256
-0.942744, 65, 9, 128, 72
-0.942873, 249, 369, 312, 432
-0.943094, 49, 289, 112, 416
-0.943423, 177, 321, 304, 448
-0.943624, 145, 17, 208, 144
-0.943717, 153, 209, 216, 336
-0.943988, 73, 41, 136, 104
-0.944237, 153, 97, 216, 224
-0.944251, 241, 225, 368, 352
-0.944316, 1, 1, 256, 128
-0.944382, 193, 145, 256, 272
-0.944436, 97, 49, 224, 176
-0.944601, 73, 65, 136, 128
-0.944936, 145, 369, 272, 496
-0.945273, 209, 193, 272, 320
-0.945797, 145, 81, 272, 208
-0.946236, 65, 353, 128, 480
-0.946497, 201, 249, 264, 312
-0.946555, 129, 17, 192, 80
-0.946568, 113, 89, 176, 152
-0.946949, 1, 1, 128, 256
-0.947039, 313, 177, 375, 304
-0.94715, 49, 97, 176, 224
-0.947228, 105, 337, 168, 464
-0.947232, 209, 369, 272, 432
-0.94741, 73, 89, 136, 152
-0.948105, 49, 49, 176, 176
-0.948188, 305, 369, 368, 432
-0.948351, 105, 65, 168, 128
-0.948704, 313, 97, 375, 224
-0.948952, 1, 289, 128, 416
-0.949145, 49, 49, 112, 176
-0.949278, 49, 369, 176, 496
-0.949444, 73, 241, 136, 368
-0.949782, 105, 17, 168, 80
-0.95016, 153, 65, 216, 128
-0.950384, 241, 129, 304, 256
-0.950496, 105, 41, 168, 104
-0.950522, 1, 369, 64, 496
-0.950949, 185, 185, 248, 248
-0.951438, 177, 241, 240, 368
-0.9519, 169, 1, 232, 128
-0.952276, 249, 273, 312, 400
-0.952392, 89, 113, 152, 176
-0.952427, 145, 137, 208, 200
-0.952491, 225, 297, 288, 360
-0.952572, 41, 289, 104, 352
-0.95267, 209, 393, 272, 456
-0.953085, 97, 369, 224, 496
-0.953379, 201, 281, 264, 344
-0.953762, 25, 321, 88, 448
-0.953802, 281, 257, 344, 384
-0.954154, 257, 177, 320, 304
-0.954188, 273, 377, 336, 440
-0.954405, 129, 41, 192, 104
-0.954436, 25, 369, 88, 496
-0.954455, 313, 225, 375, 352
-0.954732, 241, 273, 368, 400
-0.954943, 121, 161, 184, 224
-0.95504, 313, 289, 375, 416
-0.955642, 113, 161, 176, 288
-0.955851, 281, 409, 344, 472
-0.955927, 89, 161, 152, 288
-0.955952, 137, 257, 200, 384
-0.956204, 161, 185, 224, 248
-0.956517, 145, 17, 272, 144
-0.9567, 161, 217, 224, 280
-0.95693, 273, 353, 336, 416
-0.957422, 249, 233, 312, 296
-0.957765, 233, 337, 296, 400
-0.957795, 257, 225, 320, 352
-0.958186, 185, 225, 248, 288
-0.95825, 1, 393, 64, 456
-0.95827, 57, 425, 120, 488
-0.958276, 145, 161, 208, 288
-0.959079, 225, 273, 288, 336
-0.95922, 193, 289, 256, 416
-0.959546, 121, 113, 184, 176
-0.959675, 33, 385, 96, 448
-0.95985, 129, 321, 256, 448
-0.95994, 1, 49, 256, 176
-0.959954, 161, 41, 224, 104
-0.960139, 49, 321, 176, 448
-0.960165, 185, 81, 248, 208
-0.960186, 233, 393, 296, 456
-0.960198, 49, 1, 112, 128
-0.960653, 265, 321, 328, 384
-0.960916, 121, 137, 184, 200
-0.961228, 65, 385, 128, 448
-0.961234, 305, 329, 368, 392
-0.96137, 201, 153, 264, 216
-0.961398, 233, 145, 296, 208
-0.961677, 81, 409, 144, 472
-0.961831, 177, 153, 240, 216
-0.961927, 193, 433, 256, 496
-0.961932, 137, 89, 200, 152
-0.962038, 289, 201, 352, 264
-0.962176, 81, 305, 144, 432
-0.962224, 73, 1, 136, 256
-0.962356, 145, 113, 208, 176
-0.962477, 217, 217, 280, 280
-0.962495, 145, 241, 208, 304
-0.962768, 1, 145, 128, 272
-0.962904, 25, 273, 88, 400
-0.963017, 1, 425, 64, 488
-0.963021, 97, 257, 160, 384
-0.963046, 201, 129, 264, 384
-0.963407, 225, 249, 288, 312
-0.963494, 113, 393, 176, 456
-0.963615, 97, 345, 160, 408
-0.963723, 177, 273, 240, 336
-0.964188, 169, 97, 232, 352
-0.964313, 297, 177, 360, 240
-0.96473, 145, 1, 208, 256
-0.964759, 257, 137, 320, 200
-0.964936, 49, 81, 112, 144
-0.965241, 73, 313, 136, 376
-0.965325, 313, 97, 375, 160
-0.965385, 153, 1, 216, 64
-0.96564, 313, 305, 375, 368
-0.96568, 65, 273, 96, 400
-0.965792, 65, 129, 128, 256
-0.966048, 73, 361, 136, 424
-0.966068, 121, 97, 184, 352
-0.966187, 185, 369, 248, 432
-0.966365, 225, 281, 256, 344
-0.966374, 301, 337, 332, 464
-0.966604, 169, 305, 232, 432
-0.966742, 33, 209, 160, 336
-0.96679, 305, 409, 368, 472
-0.966809, 137, 369, 200, 496
-0.966825, 89, 185, 152, 248
-0.967061, 225, 377, 256, 440
-0.967072, 145, 409, 208, 472
-0.967229, 25, 425, 88, 488
-0.96734, 145, 161, 208, 224
-0.967411, 177, 249, 240, 312
-0.967588, 81, 137, 144, 200
-0.967591, 217, 257, 280, 500
-0.967876, 177, 193, 240, 448
-0.967899, 33, 257, 96, 500
-0.968128, 137, 9, 168, 72
-0.968234, 225, 249, 256, 312
-0.968277, 273, 321, 304, 448
-0.968332, 177, 249, 304, 312
-0.968404, 237, 297, 268, 360
-0.968499, 117, 1, 148, 128
-0.968565, 217, 97, 280, 224
-0.968584, 65, 129, 192, 192
-0.968621, 185, 73, 248, 136
-0.968621, 241, 273, 272, 400
-0.968647, 281, 433, 344, 496
-0.968726, 65, 193, 128, 320
-0.968728, 209, 369, 336, 432
-0.968729, 257, 129, 320, 384
-0.96876, 185, 193, 216, 320
-0.968771, 129, 1, 160, 128
-0.968948, 177, 401, 304, 464
-0.96905, 281, 121, 344, 184
-0.969143, 49, 321, 112, 384
-0.969166, 241, 321, 272, 448
-0.969191, 329, 361, 360, 424
-0.969363, 169, 353, 232, 480
-0.969424, 81, 257, 144, 320
-0.969468, 177, 153, 208, 216
-0.969542, 313, 209, 375, 272
-0.969591, 97, 17, 224, 80
-0.969671, 249, 297, 312, 360
-0.969684, 257, 297, 288, 360
-0.969732, 241, 329, 368, 392
-0.969756, 49, 57, 112, 120
-0.969764, 97, 73, 224, 136
-0.969873, 281, 393, 312, 456
-0.969884, 121, 1, 184, 256
-0.969997, 301, 377, 332, 440
-0.970051, 225, 241, 256, 368
-0.970234, 57, 289, 88, 352
-0.970253, 105, 233, 168, 296
-0.970333, 317, 353, 348, 480
-0.970429, 169, 113, 200, 240
-0.970551, 233, 129, 296, 384
-0.97059, 305, 97, 368, 352
-0.970683, 165, 33, 196, 160
-0.970724, 73, 1, 104, 128
-0.970752, 189, 145, 220, 272
-0.970778, 209, 217, 336, 280
-0.970782, 277, 369, 308, 432
-0.970837, 237, 377, 268, 440
-0.970867, 185, 401, 248, 464
-0.971047, 113, 209, 176, 336
-0.971085, 337, 305, 368, 368
-0.971086, 209, 345, 272, 408
-0.971109, 201, 305, 264, 368
-0.971134, 273, 225, 336, 288
-0.971146, 257, 161, 320, 224
-0.971171, 257, 185, 320, 248
-0.971174, 177, 145, 304, 208
-0.971224, 81, 337, 112, 464
-0.971254, 273, 257, 336, 500
-0.97131, 253, 337, 284, 464
-0.97132, 141, 1, 172, 128
-0.97133, 249, 81, 312, 208
-0.971373, 73, 41, 104, 104
-0.971416, 121, 417, 184, 480
-0.971421, 125, 65, 156, 192
-0.971629, 169, 1, 232, 256
-0.971635, 177, 17, 240, 80
-0.971675, 269, 129, 300, 256
-0.971675, 305, 409, 336, 472
-0.971754, 129, 241, 256, 304
-0.971826, 1, 369, 32, 496
-0.971855, 77, 49, 108, 176
-0.971914, 17, 393, 48, 456
-0.97201, 177, 33, 208, 160
-0.972021, 237, 209, 268, 336
-0.972104, 65, 257, 128, 500
-0.97212, 297, 233, 360, 296
-0.972136, 49, 9, 176, 72
-0.972164, 225, 321, 256, 448
-0.972178, 241, 433, 304, 496
-0.97235, 341, 305, 372, 432
-0.972385, 153, 137, 184, 200
-0.9724, 1, 369, 64, 432
-0.97241, 97, 41, 224, 104
-0.972426, 77, 89, 108, 152
-0.972486, 137, 97, 168, 160
-0.972731, 249, 265, 312, 328
-0.972746, 145, 129, 208, 384
-0.97275, 257, 401, 320, 464
-0.972788, 233, 193, 296, 256
-0.972877, 221, 353, 252, 416
-0.972902, 25, 361, 88, 424
-0.972995, 49, 105, 176, 168
-0.973, 313, 257, 375, 500
-0.973033, 137, 305, 200, 432
-0.973053, 1, 401, 128, 464
-0.973085, 209, 209, 240, 336
-0.9731, 89, 257, 152, 500
-0.973144, 81, 161, 144, 416
-0.973151, 141, 49, 172, 176
-0.973167, 97, 1, 160, 256
-0.973179, 49, 65, 176, 128
-0.973209, 241, 321, 272, 384
-0.973209, 241, 257, 304, 500
-0.973213, 329, 305, 360, 432
-0.973215, 105, 265, 168, 328
-0.973273, 165, 9, 196, 72
-0.973275, 49, 241, 112, 368
-0.973283, 49, 425, 176, 488
-0.973308, 145, 177, 272, 240
-0.973348, 245, 145, 276, 272
-0.973359, 129, 65, 192, 128
-0.973384, 193, 185, 224, 248
-0.973393, 193, 337, 320, 400
-0.973463, 321, 329, 352, 392
-0.973466, 93, 353, 124, 480
-0.973525, 125, 17, 156, 80
-0.973552, 113, 145, 240, 208
-0.973575, 157, 81, 188, 208
-0.973621, 145, 57, 176, 120
-0.973652, 97, 169, 224, 232
-0.973731, 113, 1, 144, 64
-0.973747, 165, 121, 196, 184
-0.973943, 261, 145, 292, 208
-0.973954, 49, 121, 112, 184
-0.973963, 213, 249, 244, 312
-0.973976, 157, 81, 188, 144
-0.973996, 129, 41, 160, 104
-0.974064, 237, 273, 268, 336
-0.97407, 161, 89, 224, 152
-0.974104, 17, 369, 48, 496
-0.974141, 137, 193, 200, 256
-0.974166, 149, 17, 180, 80
-0.974171, 281, 97, 344, 352
-0.974185, 241, 81, 368, 208
-0.97419, 97, 97, 224, 160
-0.974249, 205, 209, 236, 272
-0.974264, 329, 393, 360, 456
-0.974347, 81, 201, 208, 264
-0.974396, 145, 281, 272, 344
-0.974452, 337, 329, 368, 392
-0.974477, 177, 433, 304, 496
-0.97456, 69, 1, 100, 64
-0.974597, 253, 361, 284, 424
-0.974609, 41, 1, 104, 64
-0.974683, 169, 425, 232, 488
-0.974765, 185, 81, 216, 208
-0.974768, 53, 273, 84, 400
-0.974832, 117, 113, 148, 240
-0.974836, 297, 337, 328, 400
-0.974867, 261, 337, 292, 400
-0.974933, 129, 377, 256, 440
-0.974942, 225, 145, 256, 272
-0.97496, 225, 305, 352, 368
-0.975012, 205, 281, 236, 344
-0.975084, 141, 129, 172, 192
-0.975106, 69, 281, 100, 344
-0.97512, 157, 41, 188, 104
-0.975147, 173, 177, 204, 304
-0.975213, 129, 129, 160, 192
-0.975222, 289, 369, 320, 496
-0.975273, 225, 369, 256, 496
-0.975325, 237, 369, 268, 496
-0.975326, 173, 33, 204, 96
-0.975379, 49, 33, 112, 96
-0.975383, 117, 57, 148, 120
-0.975419, 205, 145, 236, 272
-0.975469, 137, 113, 168, 240
-0.975497, 225, 393, 352, 456
-0.975554, 201, 233, 232, 296
-0.975568, 289, 81, 352, 208
-0.9756, 253, 289, 284, 416
-0.975679, 97, 417, 224, 480
-0.975733, 177, 209, 208, 272
-0.975821, 329, 353, 360, 480
-0.975874, 17, 377, 144, 440
-0.975876, 309, 353, 340, 416
-0.9759, 337, 97, 368, 224
-0.975917, 153, 257, 216, 500
-0.975996, 145, 217, 272, 280
-0.976169, 169, 129, 232, 192
-0.976179, 257, 241, 288, 368
-0.976201, 77, 289, 108, 416
-0.976354, 225, 193, 256, 320
-0.976448, 145, 113, 272, 176
-0.976453, 277, 273, 308, 400
-0.976472, 285, 113, 316, 240
-0.976518, 193, 209, 224, 272
-0.976562, 313, 305, 344, 432
-0.976606, 201, 17, 264, 144
-0.976669, 197, 153, 228, 216
-0.976696, 177, 1, 208, 64
-0.976716, 65, 425, 96, 488
-0.976764, 5, 385, 36, 448
-0.976764, 73, 385, 104, 448
-0.976822, 209, 185, 272, 248
-0.976875, 97, 265, 224, 328
-0.976961, 289, 369, 320, 432
-0.976965, 309, 329, 340, 392
-0.97701, 161, 177, 192, 304
-0.977028, 205, 273, 236, 400
-0.977042, 273, 329, 304, 392
-0.977047, 153, 1, 184, 128
-0.977059, 241, 425, 368, 488
-0.977178, 177, 65, 208, 128
-0.977208, 177, 345, 240, 408
-0.977262, 193, 185, 320, 248
-0.977361, 157, 129, 188, 256
-0.977388, 49, 401, 176, 464
-0.977393, 49, 289, 176, 352
-0.97741, 165, 145, 196, 208
-0.977438, 113, 25, 144, 88
-0.977456, 237, 249, 268, 312
-0.97749, 341, 177, 372, 304
-0.977491, 309, 113, 340, 240
-0.977584, 329, 97, 360, 160
-0.9776, 241, 145, 272, 208
-0.977617, 257, 193, 288, 320
-0.977671, 113, 49, 144, 176
-0.977679, 49, 265, 176, 328
-0.977809, 153, 161, 184, 224
-0.977823, 89, 385, 152, 448
-0.977831, 285, 321, 316, 448
-0.977838, 281, 417, 312, 480
-0.977867, 277, 129, 308, 192
-0.97787, 317, 177, 348, 304
-0.977874, 341, 393, 372, 456
-0.977884, 325, 97, 356, 224
-0.977894, 269, 393, 300, 456
-0.977928, 241, 121, 368, 184
-0.977949, 129, 257, 192, 500
-0.977989, 305, 121, 368, 184
-0.97809, 177, 177, 208, 240
-0.978109, 77, 65, 108, 128
-0.978138, 221, 209, 252, 272
-0.978157, 89, 361, 120, 424
-0.978195, 201, 257, 232, 320
-0.978227, 177, 313, 304, 376
-0.978235, 49, 41, 176, 104
-0.978287, 173, 225, 204, 352
-0.978346, 225, 265, 352, 328
-0.978348, 197, 1, 228, 64
-0.978352, 1, 321, 128, 384
-0.978354, 121, 81, 152, 144
-0.97836, 81, 233, 208, 296
-0.978374, 201, 1, 264, 256
-0.978403, 241, 185, 368, 248
-0.978423, 81, 281, 144, 344
-0.978532, 241, 113, 304, 176
-0.978569, 137, 217, 200, 280
-0.978676, 193, 257, 224, 384
-0.978703, 193, 81, 320, 208
-0.978796, 105, 409, 136, 472
-0.978808, 221, 401, 252, 464
-0.978857, 249, 257, 280, 320
-0.978971, 273, 257, 336, 320
-0.979019, 89, 113, 120, 240
-0.979023, 201, 409, 232, 472
-0.979073, 209, 369, 240, 432
-0.979076, 1, 345, 64, 408
-0.97908, 57, 321, 88, 448
-0.979081, 265, 369, 296, 432
-0.979084, 77, 145, 108, 272
-0.979225, 145, 265, 208, 328
-0.979231, 49, 1, 112, 256
-0.979404, 205, 369, 236, 496
-0.979411, 145, 1, 272, 64
-0.979422, 137, 1, 200, 500
-0.979432, 97, 33, 128, 160
-0.979539, 305, 177, 336, 304
-0.979554, 313, 377, 344, 440
-0.979586, 209, 185, 240, 248
-0.979614, 249, 385, 280, 448
-0.979671, 81, 121, 112, 184
-0.979723, 329, 177, 360, 304
-0.979886, 49, 265, 112, 328
-0.979925, 297, 209, 328, 272
-0.980019, 185, 25, 216, 88
-0.980028, 217, 305, 248, 368
-0.980055, 189, 233, 220, 296
-0.980081, 121, 321, 184, 384
-0.98009, 93, 193, 124, 256
-0.980131, 225, 145, 352, 208
-0.980179, 93, 33, 124, 96
-0.980199, 337, 225, 368, 352
-0.980213, 97, 89, 128, 152
-0.980224, 17, 305, 80, 368
-0.980314, 57, 97, 120, 352
-0.98034, 1, 425, 128, 488
-0.980354, 97, 385, 128, 448
-0.980378, 193, 49, 256, 112
-0.980521, 205, 433, 236, 496
-0.980615, 153, 385, 216, 448
-0.980631, 229, 145, 260, 208
-0.980651, 1, 353, 128, 416
-0.980668, 17, 153, 144, 216
-0.980675, 225, 241, 352, 304
-0.980693, 281, 217, 312, 280
-0.980743, 297, 177, 328, 240
-0.980785, 89, 209, 152, 272
-0.980795, 81, 433, 144, 496
-0.980807, 81, 1, 144, 500
-0.980838, 289, 257, 320, 384
-0.980874, 97, 177, 128, 304
-0.980917, 105, 369, 136, 496
-0.980932, 341, 369, 372, 432
-0.980964, 273, 209, 304, 336
-0.981107, 273, 369, 304, 496
-0.981159, 233, 353, 264, 416
-0.981161, 81, 193, 112, 320
-0.98117, 5, 409, 36, 472
-0.981203, 289, 145, 352, 208
-0.981241, 69, 321, 100, 384
-0.98129, 97, 65, 128, 128
-0.981299, 277, 177, 308, 240
-0.981323, 285, 345, 316, 408
-0.981419, 1, 297, 128, 360
-0.981448, 65, 161, 128, 224
-0.981471, 97, 321, 160, 384
-0.981522, 325, 305, 356, 368
-0.981589, 233, 169, 296, 232
-0.981646, 109, 177, 140, 304
-0.981673, 305, 433, 368, 496
-0.981691, 333, 201, 364, 264
-0.981751, 129, 353, 256, 416
-0.981783, 289, 305, 352, 368
-0.98181, 285, 161, 316, 288
-0.981813, 109, 337, 140, 400
-0.981835, 1, 321, 32, 448
-0.981902, 217, 121, 280, 184
-0.981965, 153, 113, 184, 176
-0.982019, 29, 385, 60, 448
-0.982052, 233, 1, 296, 256
-0.982077, 257, 129, 288, 256
-0.982116, 77, 97, 108, 224
-0.982159, 121, 161, 152, 224
-0.982177, 241, 1, 304, 500
-0.982195, 81, 337, 208, 400
-0.982317, 1, 433, 32, 496
-0.982341, 189, 273, 220, 336
-0.982374, 93, 9, 124, 72
-0.982387, 233, 409, 264, 472
-0.98242, 145, 393, 176, 456
-0.982477, 193, 17, 320, 144
-0.982494, 133, 73, 164, 136
-0.982548, 293, 409, 324, 472
-0.982586, 165, 225, 196, 288
-0.982589, 213, 153, 244, 216
-0.982589, 125, 393, 156, 456
-0.982614, 65, 313, 192, 376
-0.982622, 17, 369, 48, 432
-0.982672, 277, 153, 308, 216
-0.982738, 145, 81, 272, 144
-0.982778, 341, 369, 372, 496
-0.982792, 317, 401, 348, 464
-0.982806, 297, 129, 328, 256
-0.982855, 105, 1, 168, 500
-0.982864, 89, 241, 120, 368
-0.982915, 197, 1, 228, 128
-0.983119, 65, 361, 192, 424
-0.983145, 117, 129, 148, 192
-0.983189, 161, 225, 192, 352
-0.983239, 81, 145, 112, 208
-0.9833, 189, 49, 220, 112
-0.983339, 65, 369, 96, 496
-0.983383, 41, 97, 104, 224
-0.983421, 197, 193, 228, 320
-0.983515, 313, 1, 375, 256
-0.983821, 241, 97, 272, 224
-0.983836, 313, 49, 375, 176
-0.984289, 285, 209, 316, 336
-0.984385, 29, 369, 60, 496
-0.984518, 145, 241, 176, 368
-0.984638, 121, 353, 152, 480
-0.984879, 241, 1, 368, 128
-0.984936, 301, 225, 332, 352
-0.985276, 257, 1, 320, 256
-0.985311, 161, 1, 224, 500
-0.985324, 145, 161, 176, 288
-0.985514, 33, 241, 160, 304
-0.985684, 289, 1, 352, 500
-0.986029, 345, 1, 375, 128
-0.986195, 129, 305, 256, 368
-0.98641, 213, 321, 244, 448
-0.98643, 185, 1, 248, 500
-0.986621, 65, 81, 96, 208
-0.986634, 109, 257, 140, 384
-0.986654, 145, 25, 272, 88
-0.986679, 1, 1, 128, 128
-0.986717, 1, 321, 64, 448
-0.986813, 181, 273, 212, 400
-0.986837, 1, 425, 375, 488
-0.986842, 197, 65, 228, 192
-0.986933, 89, 289, 120, 416
-0.987037, 105, 305, 136, 432
-0.98721, 41, 369, 72, 496
-0.987228, 145, 49, 272, 112
-0.987244, 1, 65, 128, 192
-0.98733, 125, 161, 156, 288
-0.987382, 105, 17, 168, 48
-0.987428, 313, 1, 375, 500
-0.987537, 65, 9, 128, 40
-0.987591, 137, 353, 168, 480
-0.987639, 265, 1, 328, 500
-0.987834, 13, 321, 44, 448
-0.987838, 249, 401, 312, 432
-0.988007, 73, 77, 136, 108
-0.988035, 61, 1, 92, 128
-0.988037, 73, 93, 136, 124
-0.988218, 209, 389, 272, 420
-0.988244, 113, 105, 176, 136
-0.988256, 169, 189, 232, 220
-0.988256, 73, 109, 136, 140
-0.98829, 209, 369, 272, 400
-0.988325, 101, 81, 132, 208
-0.988457, 97, 153, 352, 216
-0.988471, 49, 177, 176, 240
-0.98857, 209, 1, 240, 128
-0.988575, 105, 89, 168, 120
-0.988654, 65, 249, 320, 312
-0.988683, 241, 377, 304, 408
-0.988698, 273, 413, 336, 444
-0.988736, 165, 337, 196, 464
-0.988788, 105, 29, 168, 60
-0.988814, 209, 301, 272, 332
-0.98882, 65, 65, 128, 96
-0.988865, 73, 45, 136, 76
-0.988914, 193, 369, 224, 496
-0.988927, 201, 289, 264, 320
-0.988984, 1, 425, 256, 488
-0.989013, 321, 225, 352, 352
-0.989018, 41, 293, 104, 324
-0.989041, 217, 1, 280, 500
-0.989056, 201, 409, 264, 440
-0.98906, 97, 5, 160, 36
-0.989062, 257, 325, 320, 356
-0.989077, 25, 1, 88, 128
-0.989089, 1, 177, 128, 240
-0.989116, 137, 25, 200, 56
-0.989127, 81, 21, 144, 52
-0.989169, 89, 121, 152, 152
-0.989226, 273, 397, 336, 428
-0.989238, 65, 177, 320, 240
-0.989262, 185, 205, 248, 236
-0.989267, 105, 61, 168, 92
-0.989272, 49, 1, 112, 500
-0.989283, 145, 261, 208, 292
-0.989328, 253, 81, 284, 208
-0.989371, 65, 33, 128, 64
-0.989381, 273, 365, 336, 396
-0.989384, 145, 41, 208, 72
-0.989406, 273, 381, 336, 412
-0.989407, 153, 369, 184, 496
-0.989434, 105, 41, 168, 72
-0.989446, 129, 165, 192, 196
-0.989449, 113, 117, 176, 148
-0.989467, 9, 433, 72, 464
-0.989488, 137, 121, 200, 152
-0.989515, 89, 425, 152, 456
-0.989519, 129, 329, 256, 392
-0.989529, 153, 13, 216, 44
-0.989531, 233, 389, 296, 420
-0.989587, 121, 273, 152, 400
-0.989603, 89, 345, 152, 376
-0.989607, 225, 401, 288, 432
-0.989614, 249, 413, 312, 444
-0.989615, 249, 257, 312, 288
-0.989622, 145, 89, 208, 120
-0.989622, 145, 421, 208, 452
-0.989624, 33, 393, 96, 424
-0.989638, 113, 77, 176, 108
-0.98968, 185, 249, 248, 280
-0.98972, 145, 145, 208, 176
-0.989757, 217, 313, 280, 344
-0.989809, 241, 269, 304, 300
-0.989861, 209, 257, 272, 288
-0.989862, 297, 357, 360, 388
-0.989876, 57, 433, 120, 464
-0.989882, 289, 217, 352, 248
-0.989882, 161, 157, 224, 188
-0.989896, 313, 413, 375, 444
-0.9899, 49, 309, 112, 340
-0.989902, 97, 133, 160, 164
-0.989923, 177, 281, 240, 312
-0.989995, 145, 1, 208, 32
-0.989998, 57, 225, 88, 352
-0.990003, 289, 321, 352, 352
-0.990003, 65, 209, 320, 272
-0.99007, 225, 81, 352, 144
-0.990075, 225, 285, 288, 316
-0.990079, 49, 85, 112, 116
-0.990088, 209, 193, 272, 224
-0.990106, 121, 137, 184, 168
-0.990111, 273, 449, 336, 480
-0.990114, 233, 365, 296, 396
-0.990156, 273, 425, 336, 456
-0.990161, 233, 149, 296, 180
-0.990164, 113, 425, 176, 456
-0.990166, 153, 73, 216, 104
-0.990194, 169, 221, 232, 252
-0.9902, 193, 453, 256, 484
-0.990223, 113, 413, 176, 444
-0.990228, 145, 101, 208, 132
-0.990247, 233, 301, 296, 332
-0.990267, 17, 449, 80, 480
-0.990279, 41, 145, 104, 272
-0.990286, 1, 413, 64, 444
-0.990304, 185, 377, 248, 408
-0.990309, 201, 321, 232, 448
-0.990327, 281, 461, 344, 492
-0.990328, 129, 13, 192, 44
-0.990359, 233, 325, 296, 356
-0.990365, 305, 369, 368, 400
-0.990389, 201, 465, 264, 496
-0.990393, 249, 313, 312, 344
-0.990465, 33, 217, 160, 280
-0.990466, 313, 109, 375, 140
-0.990468, 161, 201, 224, 232
-0.99054, 257, 245, 320, 276
-0.990548, 1, 401, 375, 464
-0.990554, 73, 385, 136, 416
-0.990558, 177, 1, 240, 32
-0.990559, 185, 397, 248, 428
-0.990571, 145, 53, 208, 84
-0.990575, 161, 241, 224, 272
-0.990577, 297, 425, 360, 456
-0.990577, 241, 465, 304, 496
-0.990589, 209, 273, 272, 304
-0.990602, 161, 25, 224, 56
-0.990616, 169, 417, 232, 448
-0.99062, 305, 233, 368, 264
-0.990637, 185, 261, 248, 292
-0.990668, 65, 325, 128, 356
-0.99068, 301, 289, 332, 416
-0.99068, 145, 133, 208, 164
-0.990682, 273, 129, 336, 160
-0.990693, 217, 237, 280, 268
-0.990696, 313, 401, 375, 432
-0.99074, 297, 381, 360, 412
-0.990751, 257, 337, 320, 368
-0.990756, 241, 137, 304, 168
-0.990766, 305, 245, 368, 276
-0.990778, 305, 337, 368, 368
-0.990783, 297, 185, 360, 216
-0.990785, 217, 337, 280, 368
-0.990843, 41, 1, 104, 32
-0.990867, 129, 65, 192, 96
-0.990882, 17, 469, 80, 500
-0.990883, 313, 1, 375, 128
-0.990888, 209, 153, 272, 184
-0.990898, 65, 401, 320, 464
-0.990907, 233, 189, 296, 220
-0.990919, 241, 205, 304, 236
-0.990921, 193, 441, 256, 472
-0.990926, 9, 401, 72, 432
-0.990932, 273, 233, 336, 264
-0.990969, 49, 97, 112, 128
-0.99097, 225, 413, 288, 444
-0.990978, 193, 421, 256, 452
-0.990983, 313, 197, 375, 228
-0.991002, 105, 261, 168, 292
-0.991032, 233, 353, 296, 384
-0.991038, 177, 369, 208, 496
-0.991072, 1, 217, 375, 280
-0.991081, 345, 49, 375, 176
-0.991164, 41, 273, 72, 400
-0.991219, 97, 105, 352, 168
-0.991234, 217, 97, 248, 224
-0.991281, 189, 321, 220, 448
-0.991324, 225, 1, 288, 128
-0.991431, 133, 241, 164, 368
-0.991577, 65, 353, 320, 416
-0.991675, 169, 273, 200, 400
-0.991705, 1, 89, 128, 152
-0.991803, 65, 273, 320, 336
-0.991893, 65, 305, 320, 368
-0.992024, 193, 121, 320, 184
-0.992027, 1, 281, 375, 344
-0.992072, 117, 81, 148, 112
-0.992073, 141, 13, 172, 44
-0.992094, 281, 401, 312, 432
-0.992095, 45, 321, 76, 448
-0.992097, 193, 373, 320, 404
-0.992098, 221, 385, 252, 416
-0.992105, 1, 369, 375, 432
-0.992143, 229, 289, 260, 320
-0.992152, 245, 385, 260, 448
-0.992167, 233, 393, 264, 424
-0.992172, 177, 413, 304, 444
-0.992182, 257, 321, 288, 352
-0.992202, 177, 1, 208, 32
-0.992212, 193, 189, 224, 220
-0.992227, 65, 289, 96, 320
-0.992236, 141, 25, 172, 56
-0.99226, 241, 325, 272, 356
-0.992268, 77, 101, 108, 132
-0.992277, 113, 21, 144, 52
-0.992285, 73, 57, 104, 88
-0.992292, 333, 49, 364, 176
-0.992297, 257, 305, 288, 336
-0.992299, 129, 329, 375, 392
-0.992306, 69, 5, 100, 36
-0.992325, 65, 81, 320, 144
-0.992341, 89, 365, 120, 396
-0.992354, 329, 365, 360, 396
-0.992371, 149, 141, 180, 172
-0.992371, 73, 33, 104, 64
-0.992383, 173, 89, 204, 120
-0.992389, 105, 421, 136, 452
-0.99239, 209, 237, 240, 268
-0.992393, 129, 13, 160, 44
-0.992397, 321, 413, 352, 444
-0.992397, 237, 313, 268, 344
-0.992399, 177, 201, 208, 232
-0.992402, 113, 57, 144, 88
-0.992409, 165, 149, 196, 180
-0.992413, 285, 381, 316, 412
-0.99243, 69, 17, 100, 48
-0.992439, 217, 293, 248, 324
-0.99244, 173, 181, 204, 212
-0.992446, 329, 105, 360, 136
-0.992455, 73, 45, 104, 76
-0.992457, 329, 317, 360, 348
-0.992458, 233, 257, 264, 288
-0.99246, 185, 413, 216, 444
-0.99246, 241, 337, 272, 368
-0.992464, 297, 405, 328, 436
-0.992464, 341, 401, 372, 432
-0.99248, 269, 369, 300, 400
-0.992482, 197, 417, 228, 448
-0.992482, 205, 401, 236, 432
-0.992482, 9, 413, 40, 444
-0.992484, 177, 69, 208, 100
-0.992485, 269, 141, 300, 172
-0.992487, 129, 377, 375, 440
-0.992492, 109, 1, 140, 32
-0.992501, 77, 113, 108, 144
-0.992504, 77, 89, 108, 120
-0.992507, 209, 249, 240, 280
-0.99251, 193, 257, 224, 288
-0.992513, 77, 69, 108, 100
-0.992516, 113, 45, 144, 76
-0.992523, 113, 69, 144, 100
-0.992524, 133, 77, 164, 108
-0.992531, 305, 381, 336, 412
-0.992533, 141, 41, 172, 72
-0.992536, 277, 325, 308, 356
-0.992539, 1, 457, 32, 488
-0.992548, 253, 381, 284, 412
-0.992549, 281, 413, 312, 444
-0.992554, 297, 445, 328, 476
-0.992556, 297, 421, 328, 452
-0.992566, 125, 37, 156, 68
-0.992569, 165, 137, 196, 168
-0.992575, 113, 33, 144, 64
-0.992575, 241, 149, 272, 180
-0.992577, 197, 205, 228, 236
-0.992577, 269, 397, 300, 428
-0.992579, 229, 301, 260, 332
-0.992583, 217, 409, 248, 440
-0.992585, 53, 289, 84, 320
-0.99259, 329, 337, 360, 368
-0.992591, 97, 105, 224, 136
-0.992596, 157, 49, 188, 80
-0.992597, 133, 53, 164, 84
-0.992598, 81, 133, 112, 164
-0.9926, 165, 125, 196, 156
-0.992602, 149, 89, 180, 120
-0.992615, 145, 121, 176, 152
-0.992615, 285, 445, 316, 476
-0.992618, 81, 381, 112, 412
-0.99262, 161, 13, 192, 44
-0.992621, 133, 65, 164, 96
-0.992627, 317, 337, 348, 368
-0.992629, 17, 389, 48, 420
-0.99263, 1, 9, 256, 72
-0.992631, 17, 469, 48, 500
-0.992633, 121, 93, 152, 124
-0.992635, 157, 25, 188, 56
-0.992638, 261, 345, 292, 376
-0.992643, 193, 85, 224, 116
-0.992645, 97, 129, 352, 192
-0.992647, 345, 341, 375, 372
-0.992648, 117, 25, 132, 88
-0.992651, 217, 369, 248, 400
-0.992654, 325, 401, 356, 432
-0.992654, 241, 405, 272, 436
-0.992655, 97, 421, 224, 452
-0.992657, 237, 377, 252, 440
-0.992659, 305, 393, 336, 424
-0.992671, 89, 197, 120, 228
-0.992673, 125, 25, 156, 56
-0.992675, 149, 17, 164, 80
-0.992678, 197, 21, 228, 52
-0.992679, 237, 373, 268, 404
-0.99268, 177, 221, 208, 252
-0.992684, 205, 193, 236, 224
-0.992685, 241, 361, 368, 392
-0.992696, 261, 153, 292, 184
-0.992698, 173, 13, 204, 44
-0.992699, 17, 401, 48, 432
-0.992701, 1, 193, 375, 256
-0.992707, 205, 285, 236, 316
-0.992708, 317, 369, 348, 400
-0.99271, 193, 401, 320, 432
-0.992712, 1, 377, 256, 440
-0.992714, 285, 129, 316, 160
-0.992726, 329, 353, 360, 384
-0.992727, 1, 265, 128, 328
-0.992729, 133, 97, 164, 128
-0.992731, 237, 77, 268, 108
-0.992733, 93, 77, 124, 108
-0.99274, 5, 469, 36, 500
-0.992741, 65, 433, 96, 464
-0.992746, 149, 421, 180, 452
-0.992749, 97, 93, 128, 124
-0.992751, 213, 69, 244, 100
-0.992753, 101, 113, 132, 144
-0.992756, 169, 41, 200, 72
-0.99276, 181, 25, 212, 56
-0.992765, 177, 269, 208, 300
-0.992769, 317, 325, 348, 356
-0.992777, 225, 313, 256, 344
-0.992777, 197, 9, 228, 40
-0.99278, 153, 101, 184, 132
-0.99278, 329, 377, 360, 408
-0.99278, 77, 357, 108, 388
-0.992781, 257, 393, 288, 424
-0.992782, 157, 249, 188, 280
-0.99284, 177, 257, 304, 288
-0.992975, 221, 353, 236, 416
-0.993072, 1, 113, 128, 176
-0.993073, 241, 281, 256, 344
-0.993074, 193, 1, 320, 64
-0.993167, 221, 281, 236, 344
-0.993247, 1, 129, 256, 192
-0.993276, 97, 1, 352, 64
-0.993325, 341, 305, 356, 368
-0.993334, 235, 281, 250, 344
-0.993361, 157, 121, 172, 184
-0.993412, 97, 21, 224, 52
-0.993419, 227, 249, 242, 312
-0.993428, 289, 369, 304, 432
-0.993452, 1, 257, 375, 320
-0.993463, 181, 25, 196, 88
-0.99347, 243, 249, 258, 312
-0.99348, 143, 9, 158, 72
-0.993526, 225, 325, 352, 356
-0.993534, 129, 433, 375, 496
-0.993535, 291, 401, 306, 464
-0.993544, 97, 93, 224, 124
-0.993551, 247, 289, 262, 352
-0.993562, 281, 1, 344, 256
-0.993566, 241, 409, 368, 440
-0.993572, 343, 361, 358, 424
-0.993614, 9, 257, 72, 500
-0.993703, 59, 289, 74, 352
-0.993728, 243, 361, 258, 424
-0.993756, 299, 377, 314, 440
-0.993787, 177, 469, 304, 500
-0.993802, 349, 305, 364, 368
-0.993812, 199, 177, 214, 240
-0.993836, 177, 149, 304, 180
-0.993837, 335, 353, 350, 416
-0.993859, 147, 73, 162, 136
-0.993859, 229, 361, 244, 424
-0.993859, 281, 361, 296, 424
-0.993865, 1, 153, 256, 216
-0.993887, 181, 89, 196, 152
-0.993907, 179, 1, 194, 64
-0.993909, 29, 385, 44, 448
-0.993911, 91, 105, 106, 168
-0.993917, 237, 249, 252, 312
-0.993925, 97, 261, 224, 292
-0.993939, 339, 329, 354, 392
-0.993942, 49, 429, 176, 460
-0.993953, 137, 57, 152, 120
-0.993958, 185, 1, 200, 64
-0.99398, 97, 185, 224, 216
-0.993989, 193, 361, 320, 392
-0.99399, 49, 81, 176, 112
-0.994002, 251, 249, 266, 312
-0.994003, 1, 9, 128, 72
-0.994028, 193, 389, 320, 420
-0.994054, 97, 117, 224, 148
-0.994055, 269, 297, 284, 360
-0.994059, 205, 241, 220, 304
-0.994061, 215, 257, 230, 320
-0.994065, 97, 77, 224, 108
-0.994068, 177, 269, 304, 300
-0.994082, 33, 329, 288, 392
-0.994098, 65, 257, 96, 500
-0.994144, 189, 57, 204, 120
-0.994153, 1, 161, 64, 288
-0.994161, 97, 45, 224, 76
-0.994161, 5, 385, 20, 448
-0.994181, 79, 281, 94, 344
-0.994192, 1, 161, 375, 224
-0.994201, 127, 17, 142, 80
-0.994201, 77, 385, 92, 448
-0.994206, 255, 321, 270, 384
-0.994214, 151, 137, 166, 200
-0.994216, 49, 17, 176, 48
-0.994232, 137, 1, 152, 64
-0.994247, 355, 305, 370, 368
-0.994253, 81, 137, 208, 168
-0.99426, 349, 329, 364, 392
-0.994274, 97, 25, 352, 88
-0.994276, 303, 409, 318, 472
-0.994279, 141, 129, 156, 192
-0.994307, 23, 385, 38, 448
-0.994325, 49, 37, 176, 68
-0.994336, 13, 385, 28, 448
-0.994348, 221, 377, 236, 440
-0.994353, 187, 25, 202, 88
-0.994355, 143, 49, 158, 112
-0.994359, 177, 449, 304, 480
-0.994364, 133, 129, 148, 192
-0.99439, 49, 93, 176, 124
-0.994413, 241, 137, 368, 168
-0.994415, 157, 9, 172, 72
-0.994416, 199, 249, 214, 312
-0.994422, 205, 153, 220, 216
-0.994423, 1, 401, 128, 432
-0.994424, 1, 89, 375, 152
-0.994428, 245, 313, 260, 376
-0.994429, 227, 281, 242, 344
-0.994429, 329, 329, 344, 392
-0.99443, 169, 169, 184, 232
-0.994441, 361, 305, 375, 368
-0.994444, 151, 97, 166, 160
-0.994449, 271, 337, 286, 400
-0.994452, 287, 329, 302, 392
-0.994468, 281, 385, 296, 448
-0.994495, 103, 377, 118, 440
-0.994513, 49, 125, 176, 156
-0.994521, 193, 25, 320, 88
-0.994521, 99, 353, 114, 416
-0.994522, 119, 49, 134, 112
-0.994536, 305, 353, 320, 416
-0.99454, 97, 169, 224, 200
-0.99455, 177, 425, 304, 456
-0.994551, 171, 129, 186, 192
-0.99458, 347, 393, 362, 456
-0.994582, 197, 17, 212, 80
-0.994586, 357, 81, 372, 144
-0.994619, 97, 1, 224, 32
-0.994623, 17, 161, 80, 416
-0.994631, 81, 149, 208, 180
-0.99465, 173, 33, 188, 96
-0.994654, 225, 309, 352, 340
-0.994663, 315, 377, 330, 440
-0.994672, 127, 65, 142, 128
-0.994677, 311, 337, 326, 400
-0.994681, 179, 137, 194, 200
-0.994681, 129, 385, 256, 416
-0.994687, 221, 257, 236, 320
-0.994691, 119, 409, 134, 472
-0.994696, 205, 209, 220, 272
-0.994699, 49, 57, 176, 88
-0.994705, 81, 1, 96, 64
-0.994715, 211, 281, 226, 344
-0.994718, 237, 353, 252, 416
-0.994723, 163, 129, 178, 192
-0.994724, 285, 129, 300, 192
-0.994726, 199, 201, 214, 264
-0.994731, 215, 217, 230, 280
-0.994732, 153, 57, 168, 120
-0.994759, 241, 381, 368, 412
-0.99476, 269, 137, 284, 200
-0.994768, 209, 241, 336, 272
-0.994772, 81, 201, 208, 232
-0.994772, 319, 409, 334, 472
-0.994777, 221, 225, 236, 288
-0.994787, 213, 193, 228, 256
-0.99479, 137, 33, 152, 96
-0.9948, 215, 377, 230, 440
-0.994809, 305, 377, 320, 440
-0.994818, 129, 205, 256, 236
-0.994829, 179, 113, 194, 176
-0.994842, 1, 409, 16, 472
-0.994849, 173, 65, 188, 128
-0.994853, 1, 305, 375, 368
-0.994873, 85, 33, 100, 96
-0.994877, 129, 157, 256, 188
-0.994888, 145, 285, 272, 316
-0.994925, 97, 433, 224, 464
-0.994932, 163, 81, 178, 144
-0.994941, 251, 385, 266, 448
-0.99495, 33, 293, 160, 324
-0.994952, 1, 337, 375, 400
-0.994955, 191, 153, 206, 216
-0.994956, 167, 25, 182, 88
-0.994958, 161, 305, 288, 336
-0.99496, 169, 201, 184, 264
-0.994965, 87, 73, 102, 136
-0.99497, 17, 225, 80, 352
-0.994973, 1, 57, 256, 120
-0.994973, 183, 65, 198, 128
-0.994978, 49, 109, 176, 140
-0.994984, 263, 305, 278, 368
-0.995, 1, 413, 128, 444
-0.995012, 35, 377, 50, 440
-0.995027, 299, 353, 314, 416
-0.995029, 33, 313, 160, 344
-0.995041, 145, 133, 272, 164
-0.995047, 207, 417, 222, 480
-0.995049, 179, 185, 194, 248
-0.995051, 49, 5, 176, 36
-0.995063, 247, 337, 262, 400
-0.995063, 241, 57, 368, 120
-0.995082, 193, 249, 208, 312
-0.995083, 247, 145, 262, 208
-0.995084, 263, 161, 278, 224
-0.995087, 65, 289, 80, 352
-0.995095, 225, 269, 352, 300
-0.995126, 1, 469, 128, 500
-0.995142, 67, 425, 82, 488
-0.995142, 225, 341, 352, 372
-0.995146, 129, 249, 256, 280
-0.995149, 267, 369, 282, 432
-0.995166, 155, 393, 170, 456
-0.99517, 341, 385, 356, 448
-0.995173, 125, 1, 156, 256
-0.99518, 237, 321, 252, 384
-0.995187, 275, 393, 290, 456
-0.995189, 87, 129, 102, 192
-0.995206, 97, 409, 224, 440
-0.995208, 173, 1, 204, 256
-0.995216, 197, 409, 212, 472
-0.995221, 193, 437, 320, 468
-0.995222, 203, 273, 218, 336
-0.995234, 145, 397, 272, 428
-0.995246, 49, 69, 176, 100
-0.99525, 49, 417, 176, 448
-0.995261, 145, 21, 272, 52
-0.995284, 337, 257, 368, 500
-0.995284, 209, 129, 240, 384
-0.995286, 241, 397, 368, 428
-0.99529, 241, 189, 368, 220
-0.995346, 145, 189, 272, 220
-0.995353, 193, 189, 320, 220
-0.995376, 261, 129, 292, 384
-0.995423, 97, 33, 224, 64
-0.995434, 97, 273, 224, 304
-0.995451, 209, 217, 336, 248
-0.995459, 1, 129, 375, 192
-0.995498, 229, 129, 260, 384
-0.995499, 81, 217, 208, 248
-0.995518, 225, 257, 352, 288
-0.995548, 1, 273, 64, 400
-0.995567, 1, 361, 128, 392
-0.995652, 81, 249, 208, 280
-0.995683, 193, 281, 320, 312
-0.995685, 33, 325, 160, 356
-0.995733, 177, 129, 208, 384
-0.995753, 113, 61, 240, 92
-0.99578, 193, 49, 320, 112
-0.995789, 17, 385, 144, 416
-0.995812, 189, 129, 220, 384
-0.995814, 145, 9, 272, 40
-0.995827, 145, 373, 272, 404
-0.995828, 237, 257, 268, 500
-0.995861, 209, 201, 336, 232
-0.995894, 1, 433, 128, 464
-0.995912, 97, 49, 352, 112
-0.995936, 329, 65, 360, 320
-0.995942, 157, 97, 188, 352
-0.995968, 161, 81, 288, 112
-0.996, 221, 257, 252, 500
-0.996031, 129, 225, 256, 256
-0.996038, 53, 257, 84, 500
-0.996052, 209, 229, 336, 260
-0.996067, 1, 33, 128, 96
-0.996079, 241, 453, 368, 484
-0.996084, 65, 361, 192, 392
-0.996154, 49, 273, 176, 304
-0.996192, 133, 97, 164, 352
-0.996205, 81, 237, 208, 268
-0.996206, 177, 329, 304, 360
-0.996221, 153, 1, 184, 256
-0.996223, 257, 257, 288, 500
-0.99623, 129, 237, 256, 268
-0.996243, 145, 173, 272, 204
-0.996245, 177, 345, 304, 376
-0.996252, 1, 33, 256, 96
-0.996258, 137, 1, 168, 256
-0.996303, 49, 337, 176, 368
-0.996321, 225, 421, 352, 452
-0.99634, 177, 161, 304, 192
-0.996352, 177, 121, 304, 152
-0.996357, 113, 65, 144, 320
-0.996357, 285, 97, 316, 352
-0.996362, 289, 33, 352, 160
-0.996372, 297, 97, 328, 352
-0.996377, 241, 469, 368, 500
-0.996379, 193, 293, 320, 324
-0.99638, 249, 129, 280, 384
-0.996382, 1, 65, 128, 128
-0.996396, 77, 257, 108, 500
-0.996404, 161, 257, 192, 500
-0.996431, 49, 441, 176, 472
-0.996459, 193, 257, 224, 500
-0.996468, 81, 397, 208, 428
-0.996475, 177, 317, 304, 348
-0.996489, 269, 257, 300, 500
-0.996555, 1, 1, 375, 64
-0.996573, 223, 293, 238, 324
-0.996573, 113, 301, 240, 332
-0.996578, 209, 257, 240, 500
-0.996626, 145, 33, 272, 64
-0.996654, 65, 381, 192, 412
-0.996655, 33, 257, 160, 288
-0.996656, 17, 373, 144, 404
-0.996662, 225, 149, 352, 180
-0.996666, 219, 373, 234, 404
-0.996679, 101, 1, 132, 256
-0.996679, 145, 361, 272, 392
-0.996682, 241, 297, 368, 328
-0.996691, 113, 161, 144, 416
-0.996694, 181, 257, 212, 500
-0.996702, 97, 445, 224, 476
-0.996713, 17, 161, 144, 192
-0.996735, 281, 225, 312, 480
-0.99674, 299, 401, 314, 432
-0.996751, 317, 97, 348, 352
-0.996779, 193, 33, 224, 288
-0.996779, 273, 141, 288, 172
-0.996792, 341, 1, 372, 256
-0.996798, 1, 457, 128, 488
-0.996809, 73, 1, 104, 256
-0.996821, 273, 97, 304, 352
-0.996836, 93, 257, 124, 500
-0.996881, 129, 17, 144, 48
-0.996915, 155, 9, 170, 40
-0.996948, 235, 289, 250, 320
-0.996953, 219, 281, 234, 312
-0.996978, 77, 97, 108, 352
-0.996985, 285, 401, 300, 432
-0.996986, 113, 465, 240, 496
-0.996991, 229, 293, 244, 324
-0.996999, 113, 325, 240, 356
-0.997013, 341, 97, 372, 352
-0.997026, 143, 13, 158, 44
-0.997032, 129, 145, 256, 176
-0.997069, 133, 69, 148, 100
-0.997078, 207, 189, 222, 220
-0.997083, 293, 225, 324, 480
-0.997084, 139, 57, 154, 88
-0.997092, 1, 181, 128, 212
-0.997103, 189, 25, 204, 56
-0.997103, 101, 361, 116, 392
-0.997106, 199, 417, 214, 448
-0.997118, 149, 17, 164, 48
-0.997125, 145, 81, 160, 112
-0.997138, 245, 393, 260, 424
-0.997151, 119, 69, 134, 100
-0.997154, 243, 281, 258, 312
-0.997154, 89, 161, 120, 416
-0.997154, 313, 193, 344, 448
-0.99717, 213, 285, 228, 316
-0.997176, 173, 33, 188, 64
-0.997193, 281, 385, 296, 416
-0.997195, 183, 17, 198, 48
-0.9972, 293, 401, 308, 432
-0.997204, 337, 317, 352, 348
-0.997222, 213, 237, 228, 268
-0.997226, 299, 445, 314, 476
-0.997235, 193, 137, 320, 168
-0.997239, 215, 385, 230, 416
-0.997247, 201, 13, 216, 44
-0.997247, 277, 413, 292, 444
-0.997249, 319, 409, 334, 440
-0.997263, 183, 97, 198, 128
-0.997271, 269, 305, 284, 336
-0.997287, 31, 401, 46, 432
-0.997288, 193, 173, 320, 204
-0.997289, 27, 389, 42, 420
-0.997295, 289, 433, 304, 464
-0.997298, 149, 5, 164, 36
-0.997301, 339, 357, 354, 388
-0.997301, 115, 25, 130, 56
-0.997304, 203, 241, 218, 272
-0.997305, 117, 45, 132, 76
-0.997307, 143, 25, 158, 56
-0.997313, 153, 89, 168, 120
-0.997316, 253, 257, 268, 288
-0.997321, 137, 29, 152, 60
-0.997324, 161, 25, 176, 56
-0.997327, 1, 105, 256, 168
-0.997341, 173, 93, 188, 124
-0.997344, 183, 49, 198, 80
-0.997346, 225, 381, 240, 412
-0.997347, 275, 373, 290, 404
-0.997349, 65, 349, 192, 380
-0.99735, 145, 129, 176, 384
-0.997352, 309, 409, 324, 440
-0.997362, 161, 101, 288, 132
-0.997369, 333, 361, 348, 392
-0.997375, 93, 193, 108, 224
-0.997377, 243, 329, 258, 360
-0.997379, 129, 49, 144, 80
-0.997389, 239, 389, 254, 420
-0.997398, 91, 125, 106, 156
-0.997398, 117, 257, 148, 500
-0.9974, 139, 69, 154, 100
-0.997406, 325, 257, 356, 500
-0.997408, 137, 93, 152, 124
-0.997419, 179, 37, 194, 68
-0.997424, 181, 85, 196, 116
-0.997425, 77, 289, 92, 320
-0.997425, 241, 109, 368, 140
-0.997426, 193, 1, 320, 32
-0.997428, 19, 469, 34, 500
-0.997436, 187, 37, 202, 68
-0.997437, 179, 185, 194, 216
-0.997438, 145, 41, 160, 72
-0.997452, 179, 117, 194, 148
-0.997453, 1, 141, 128, 172
-0.997462, 169, 129, 184, 160
-0.997467, 137, 9, 152, 40
-0.997471, 163, 133, 178, 164
-0.997472, 305, 381, 320, 412
-0.997474, 321, 461, 336, 492
-0.997474, 117, 421, 132, 452
-0.997475, 197, 25, 212, 56
-0.997476, 79, 393, 94, 424
-0.997476, 143, 93, 158, 124
-0.99748, 243, 149, 258, 180
-0.997484, 145, 61, 160, 92
-0.997487, 85, 145, 100, 176
-0.997488, 123, 17, 138, 48
-0.997489, 155, 21, 170, 52
-0.997491, 317, 381, 332, 412
-0.997504, 255, 329, 270, 360
-0.99751, 91, 357, 106, 388
-0.997513, 209, 249, 224, 280
-0.997514, 127, 81, 142, 112
-0.997516, 347, 401, 362, 432
-0.997528, 59, 293, 74, 324
-0.997529, 125, 1, 140, 32
-0.997543, 149, 257, 180, 500
-0.997545, 81, 313, 208, 344
-0.997545, 241, 293, 256, 324
-0.997548, 283, 425, 298, 456
-0.997556, 293, 381, 308, 412
-0.997559, 259, 357, 274, 388
-0.997567, 179, 137, 194, 168
-0.997569, 347, 337, 362, 368
-0.997569, 215, 249, 230, 280
-0.997569, 183, 5, 198, 36
-0.997571, 135, 81, 150, 112
-0.997576, 247, 373, 262, 404
-0.997577, 217, 69, 232, 100
-0.997577, 339, 345, 354, 376
-0.997578, 221, 245, 236, 276
-0.997583, 327, 369, 342, 400
-0.997588, 241, 437, 368, 468
-0.997591, 225, 161, 352, 192
-0.997593, 5, 453, 20, 484
-0.997594, 189, 5, 204, 36
-0.997598, 81, 9, 96, 40
-0.997599, 275, 397, 290, 428
-0.997601, 9, 413, 24, 444
-0.997601, 191, 193, 206, 224
-0.997603, 119, 5, 134, 36
-0.997607, 127, 65, 142, 96
-0.997607, 41, 257, 72, 500
-0.997612, 165, 89, 180, 120
-0.997617, 247, 405, 262, 436
-0.997618, 1, 445, 128, 476
-0.997621, 189, 61, 204, 92
-0.997624, 171, 17, 186, 48
-0.997624, 113, 13, 128, 44
-0.997628, 181, 257, 196, 288
-0.997636, 357, 89, 372, 120
-0.997637, 181, 73, 196, 104
-0.997637, 157, 101, 172, 132
-0.997644, 119, 57, 134, 88
-0.997644, 225, 361, 240, 392
-0.997646, 199, 185, 214, 216
-0.997652, 111, 421, 126, 452
-0.997653, 333, 337, 348, 368
-0.997656, 81, 289, 208, 320
-0.997662, 219, 361, 234, 392
-0.997663, 287, 413, 302, 444
-0.99767, 1, 193, 128, 224
-0.997677, 17, 349, 144, 380
-0.99777, 105, 257, 136, 500
-0.997881, 137, 257, 168, 500
-0.997891, 1, 65, 375, 128
-0.997973, 249, 33, 280, 288
-0.998009, 1, 25, 375, 88
-0.998109, 101, 161, 132, 416
-0.998121, 25, 1, 88, 500
-0.998129, 89, 65, 120, 320
-0.998189, 241, 1, 368, 64
-0.998245, 249, 1, 312, 128
-0.998278, 205, 33, 236, 288
-0.998296, 65, 161, 96, 416
-0.99831, 65, 11, 128, 26
-0.998339, 65, 5, 128, 20
-0.998341, 233, 33, 264, 288
-0.998346, 81, 17, 144, 32
-0.99835, 273, 413, 336, 428
-0.998354, 73, 95, 136, 110
-0.998362, 73, 101, 136, 116
-0.998362, 249, 401, 312, 416
-0.998367, 73, 85, 136, 100
-0.998376, 73, 107, 136, 122
-0.998377, 169, 193, 232, 208
-0.998381, 113, 27, 176, 42
-0.99839, 209, 395, 272, 410
-0.998394, 65, 73, 128, 88
-0.998403, 73, 115, 136, 130
-0.998405, 209, 389, 272, 404
-0.998416, 89, 77, 152, 92
-0.998417, 65, 79, 128, 94
-0.998418, 273, 419, 336, 434
-0.998419, 97, 133, 160, 148
-0.998421, 243, 321, 258, 448
-0.998423, 249, 327, 312, 342
-0.998425, 145, 103, 208, 118
-0.998425, 105, 21, 168, 36
-0.998428, 169, 199, 232, 214
-0.998428, 65, 67, 128, 82
-0.998428, 113, 113, 176, 128
-0.99843, 73, 45, 136, 60
-0.998431, 209, 375, 272, 390
-0.998433, 113, 93, 176, 108
-0.998434, 217, 259, 280, 274
-0.998438, 81, 127, 144, 142
-0.998439, 41, 295, 104, 310
-0.998442, 233, 407, 296, 422
-0.998443, 97, 11, 160, 26
-0.99845, 257, 333, 320, 348
-0.99845, 241, 395, 304, 410
-0.998451, 233, 415, 296, 430
-0.998453, 169, 205, 232, 220
-0.998454, 113, 43, 176, 58
-0.998456, 201, 287, 264, 302
-0.998456, 81, 23, 144, 38
-0.998457, 105, 69, 168, 84
-0.998457, 65, 61, 128, 76
-0.998457, 129, 17, 192, 32
-0.998457, 177, 261, 240, 276
-0.998458, 113, 123, 176, 138
-0.998459, 225, 305, 288, 320
-0.998459, 145, 133, 208, 148
-0.99846, 73, 37, 136, 52
-0.99846, 73, 51, 136, 66
-0.998462, 73, 121, 136, 136
-0.998463, 273, 407, 336, 422
-0.998464, 209, 401, 272, 416
-0.998467, 169, 187, 232, 202
-0.998467, 97, 101, 160, 116
-0.998469, 273, 399, 336, 414
-0.998469, 249, 375, 312, 390
-0.99847, 113, 87, 176, 102
-0.998474, 33, 395, 96, 410
-0.998475, 303, 337, 318, 464
-0.998478, 209, 413, 272, 428
-0.998481, 209, 381, 272, 396
-0.998482, 217, 311, 280, 326
-0.998486, 137, 31, 200, 46
-0.998488, 153, 23, 216, 38
-0.998489, 145, 113, 208, 128
-0.998489, 201, 303, 264, 318
-0.99849, 249, 269, 312, 284
-0.998491, 113, 107, 176, 122
-0.998492, 289, 325, 352, 340
-0.998492, 145, 139, 208, 154
-0.998493, 217, 297, 280, 312
-0.998494, 153, 423, 216, 438
-0.998495, 273, 381, 336, 396
-0.998496, 97, 429, 160, 444
-0.998496, 89, 57, 152, 72
-0.998496, 141, 55, 172, 70
-0.998496, 301, 415, 332, 430
-0.998497, 329, 161, 360, 416
-0.998497, 165, 145, 196, 160
-0.998497, 329, 341, 360, 356
-0.998497, 177, 41, 208, 56
-0.998498, 209, 407, 240, 422
-0.998499, 149, 133, 180, 148
-0.998499, 325, 333, 356, 348
-0.998499, 313, 337, 328, 464
-0.9985, 345, 403, 375, 418
-0.9985, 149, 1, 164, 128
-0.9985, 193, 213, 256, 228
-0.9985, 209, 369, 272, 384
-0.998501, 109, 5, 140, 20
-0.998501, 153, 47, 216, 62
-0.998501, 325, 359, 356, 374
-0.998502, 63, 273, 78, 400
-0.998502, 89, 367, 120, 382
-0.998502, 69, 273, 84, 400
-0.998503, 189, 185, 220, 200
-0.998503, 305, 365, 368, 380
-0.998503, 177, 17, 208, 32
-0.998504, 177, 59, 208, 74
-0.998505, 237, 323, 268, 338
-0.998505, 17, 391, 48, 406
-0.998505, 281, 425, 344, 440
-0.998505, 113, 81, 176, 96
-0.998506, 153, 81, 168, 208
-0.998506, 105, 421, 168, 436
-0.998507, 121, 169, 184, 184
-0.998507, 125, 133, 156, 148
-0.998507, 249, 151, 280, 166
-0.998507, 73, 431, 136, 446
-0.998507, 177, 67, 208, 82
-0.998508, 77, 91, 108, 106
-0.998508, 185, 253, 248, 268
-0.998509, 289, 331, 352, 346
-0.99851, 337, 101, 368, 116
-0.99851, 1, 465, 32, 480
-0.99851, 157, 11, 188, 26
-0.99851, 77, 117, 108, 132
-0.998511, 165, 51, 196, 66
-0.998511, 17, 409, 48, 424
-0.998511, 277, 329, 308, 344
-0.998511, 105, 51, 168, 66
-0.998511, 297, 411, 360, 426
-0.998512, 77, 85, 108, 100
-0.998512, 109, 19, 140, 34
-0.998513, 209, 407, 272, 422
-0.998513, 201, 195, 264, 210
-0.998513, 137, 265, 200, 280
-0.998514, 205, 243, 236, 258
-0.998515, 305, 337, 368, 352
-0.998517, 105, 63, 168, 78
-0.998517, 181, 261, 212, 276
-0.998517, 97, 373, 128, 388
-0.998518, 145, 91, 208, 106
-0.998518, 49, 323, 112, 338
-0.998519, 197, 87, 228, 102
-0.998519, 313, 419, 375, 434
-0.99852, 257, 259, 320, 274
-0.998521, 285, 381, 316, 396
-0.998521, 177, 51, 208, 66
-0.998521, 77, 97, 108, 112
-0.998521, 169, 223, 232, 238
-0.998521, 165, 151, 196, 166
-0.998521, 25, 389, 88, 404
-0.998522, 201, 485, 264, 500
-0.998523, 249, 389, 312, 404
-0.998523, 145, 97, 208, 112
-0.998524, 165, 139, 196, 154
-0.998524, 185, 417, 248, 432
-0.998524, 81, 361, 112, 376
-0.998524, 89, 5, 152, 20
-0.998524, 129, 57, 192, 72
-0.998524, 289, 219, 352, 234
-0.998525, 153, 7, 216, 22
-0.998525, 177, 201, 208, 216
-0.998525, 81, 31, 144, 46
-0.998525, 165, 27, 196, 42
-0.998525, 329, 375, 360, 390
-0.998526, 161, 115, 192, 130
-0.998526, 137, 41, 200, 56
-0.998526, 133, 63, 164, 78
-0.998527, 185, 383, 248, 398
-0.998527, 305, 423, 336, 438
-0.998528, 237, 79, 268, 94
-0.998528, 137, 89, 168, 104
-0.998528, 181, 11, 212, 26
-0.998528, 73, 41, 104, 56
-0.998528, 261, 337, 292, 352
-0.998528, 129, 65, 192, 80
-0.998529, 289, 359, 352, 374
-0.998529, 49, 317, 112, 332
-0.998529, 81, 143, 112, 158
-0.998531, 113, 37, 176, 52
-0.998531, 237, 407, 268, 422
-0.998531, 125, 427, 156, 442
-0.998531, 113, 47, 144, 62
-0.998532, 77, 79, 108, 94
-0.998532, 249, 321, 312, 336
-0.998532, 157, 35, 188, 50
-0.998532, 225, 287, 256, 302
-0.998532, 241, 339, 272, 354
-0.998533, 317, 419, 348, 434
-0.998533, 285, 449, 316, 464
-0.998533, 297, 451, 328, 466
-0.998533, 185, 407, 248, 422
-0.998534, 221, 307, 252, 322
-0.998534, 233, 149, 296, 164
-0.998534, 145, 97, 176, 112
-0.998535, 73, 47, 104, 62
-0.998535, 73, 29, 104, 44
-0.998535, 125, 75, 156, 90
-0.998535, 241, 275, 304, 290
-0.998536, 305, 247, 368, 262
-0.998536, 79, 273, 94, 400
-0.998536, 1, 469, 64, 484
-0.998536, 297, 213, 360, 228
-0.998538, 281, 465, 344, 480
-0.998538, 17, 441, 80, 456
-0.998538, 261, 343, 292, 358
-0.998539, 129, 71, 192, 86
-0.99854, 145, 271, 208, 286
-0.99854, 257, 339, 320, 354
-0.99854, 49, 87, 112, 102
-0.998541, 185, 1, 248, 16
-0.998542, 213, 301, 244, 316
-0.998542, 225, 337, 288, 352
-0.998543, 1, 413, 64, 428
-0.998544, 161, 245, 224, 260
-0.998545, 173, 97, 204, 112
-0.998546, 257, 329, 288, 344
-0.998546, 225, 259, 256, 274
-0.998546, 113, 53, 144, 68
-0.998546, 129, 83, 160, 98
-0.998547, 105, 427, 136, 442
-0.998547, 69, 19, 100, 34
-0.998547, 1, 471, 32, 486
-0.998547, 73, 69, 104, 84
-0.998549, 321, 413, 352, 428
-0.998549, 69, 1, 100, 16
-0.99855, 217, 383, 248, 398
-0.998551, 173, 195, 204, 210
-0.998552, 221, 293, 252, 308
-0.998553, 341, 339, 372, 354
-0.998554, 249, 303, 280, 318
-0.998555, 221, 33, 252, 288
-0.998557, 237, 391, 268, 406
-0.99856, 113, 61, 144, 76
-0.998561, 237, 337, 252, 464
-0.998563, 77, 103, 108, 118
-0.998563, 113, 73, 144, 88
-0.998563, 73, 57, 104, 72
-0.998565, 281, 417, 312, 432
-0.998566, 141, 45, 172, 60
-0.998567, 69, 7, 100, 22
-0.998568, 53, 293, 84, 308
-0.998569, 237, 329, 268, 344
-0.998571, 177, 35, 208, 50
-0.998571, 157, 61, 188, 76
-0.998573, 281, 411, 312, 426
-0.998574, 277, 399, 308, 414
-0.998576, 225, 301, 256, 316
-0.998578, 221, 365, 252, 380
-0.998579, 329, 107, 360, 122
-0.99858, 245, 273, 260, 400
-0.998581, 69, 13, 100, 28
-0.998581, 273, 375, 304, 390
-0.998582, 197, 191, 228, 206
-0.998582, 205, 287, 236, 302
-0.998582, 221, 389, 252, 404
-0.998584, 209, 249, 240, 264
-0.998584, 185, 415, 216, 430
-0.998584, 177, 91, 208, 106
-0.998584, 117, 83, 148, 98
-0.998586, 297, 409, 328, 424
-0.998588, 117, 13, 148, 28
-0.998589, 73, 63, 104, 78
-0.998589, 61, 1, 92, 256
-0.998594, 77, 111, 108, 126
-0.998594, 149, 91, 180, 106
-0.9986, 329, 365, 360, 380
-0.9986, 237, 305, 268, 320
-0.9986, 73, 35, 104, 50
-0.998603, 145, 25, 176, 40
-0.998608, 121, 23, 152, 38
-0.998609, 141, 19, 172, 34
-0.99861, 257, 309, 288, 324
-0.998614, 65, 293, 96, 308
-0.998616, 177, 185, 208, 200
-0.998618, 257, 321, 272, 448
-0.998625, 223, 225, 238, 352
-0.998626, 261, 145, 276, 272
-0.998626, 191, 145, 206, 272
-0.998626, 181, 33, 196, 160
-0.998634, 257, 321, 288, 336
-0.998641, 341, 337, 356, 464
-0.998645, 237, 259, 268, 274
-0.998647, 281, 405, 312, 420
-0.998648, 215, 193, 230, 320
-0.998654, 323, 337, 338, 464
-0.998663, 187, 1, 202, 128
-0.998668, 121, 33, 136, 160
-0.998669, 1, 369, 16, 496
-0.99867, 219, 273, 234, 400
-0.998671, 297, 337, 312, 464
-0.998676, 169, 81, 184, 208
-0.998676, 351, 305, 366, 432
-0.998678, 129, 81, 144, 208
-0.998678, 9, 369, 24, 496
-0.998679, 237, 225, 252, 352
-0.998681, 93, 337, 108, 464
-0.998688, 243, 369, 258, 496
-0.99869, 117, 89, 148, 104
-0.998699, 129, 17, 160, 32
-0.998702, 139, 33, 154, 160
-0.998703, 29, 369, 44, 496
-0.998727, 273, 129, 288, 256
-0.998727, 181, 81, 196, 208
-0.998732, 175, 1, 190, 128
-0.998736, 205, 225, 220, 352
-0.998737, 333, 305, 348, 432
-0.998739, 333, 353, 348, 480
-0.99874, 87, 65, 102, 192
-0.998741, 277, 321, 292, 448
-0.998748, 57, 273, 72, 400
-0.998754, 19, 369, 34, 496
-0.998757, 209, 145, 224, 272
-0.998757, 201, 145, 216, 272
-0.99876, 185, 193, 200, 320
-0.998761, 231, 241, 246, 368
-0.998761, 221, 145, 236, 272
-0.998766, 147, 65, 162, 192
-0.998767, 247, 225, 262, 352
-0.998776, 135, 81, 150, 208
-0.99878, 131, 17, 146, 144
-0.998784, 215, 145, 230, 272
-0.998788, 267, 129, 282, 256
-0.99879, 221, 353, 236, 480
-0.998794, 179, 129, 194, 256
-0.998799, 285, 321, 300, 448
-0.998801, 155, 1, 170, 128
-0.998815, 191, 193, 206, 320
-0.998815, 231, 353, 246, 480
-0.998817, 359, 305, 374, 432
-0.998817, 231, 193, 246, 320
-0.998823, 99, 353, 114, 480
-0.998827, 199, 1, 214, 128
-0.99883, 121, 113, 136, 240
-0.998833, 87, 145, 102, 272
-0.998833, 227, 145, 242, 272
-0.998841, 251, 129, 266, 256
-0.998846, 253, 257, 268, 384
-0.998851, 335, 177, 350, 304
-0.998851, 237, 145, 252, 272
-0.998858, 85, 289, 100, 416
-0.99886, 179, 177, 194, 304
-0.998864, 267, 289, 282, 416
-0.998864, 351, 97, 366, 224
-0.998865, 81, 1, 96, 128
-0.998867, 161, 65, 176, 192
-0.998869, 105, 353, 120, 480
-0.99887, 279, 129, 294, 256
-0.998878, 251, 321, 266, 448
-0.998883, 169, 1, 184, 128
-0.998888, 93, 145, 108, 272
-0.998888, 141, 113, 156, 240
-0.998895, 291, 353, 306, 480
-0.998898, 185, 145, 200, 272
-0.998903, 317, 113, 332, 240
-0.998904, 287, 193, 302, 320
-0.998912, 199, 193, 214, 320
-0.998912, 353, 177, 368, 304
-0.998917, 41, 193, 104, 320
-0.998924, 193, 17, 208, 144
-0.998927, 345, 177, 360, 304
-0.998935, 191, 81, 206, 208
-0.998939, 205, 273, 220, 400
-0.998942, 359, 241, 374, 368
-0.998943, 237, 273, 252, 400
-0.998944, 345, 241, 360, 368
-0.998946, 281, 257, 296, 384
-0.998947, 211, 241, 226, 368
-0.998951, 249, 369, 264, 496
-0.998951, 267, 337, 282, 464
-0.998953, 323, 97, 338, 224
-0.998954, 343, 97, 358, 224
-0.998956, 359, 65, 374, 192
-0.99896, 111, 337, 126, 464
-0.998965, 161, 1, 176, 128
-0.998977, 305, 1, 336, 256
-0.998983, 261, 33, 292, 288
-0.998985, 87, 337, 102, 464
-0.998988, 305, 113, 320, 240
-0.998994, 243, 129, 258, 256
-0.999002, 323, 177, 338, 304
-0.999004, 147, 113, 162, 240
-0.999005, 339, 289, 354, 416
-0.999007, 311, 129, 326, 256
-0.999008, 337, 97, 352, 224
-0.99901, 261, 193, 276, 320
-0.999017, 287, 113, 302, 240
-0.99902, 329, 97, 344, 224
-0.999023, 311, 177, 326, 304
-0.999023, 287, 273, 302, 400
-0.999023, 229, 289, 244, 416
-0.999025, 71, 321, 86, 448
-0.999026, 215, 353, 230, 480
-0.999028, 175, 225, 190, 352
-0.999034, 317, 177, 332, 304
-0.999036, 87, 17, 102, 144
-0.999036, 159, 113, 174, 240
-0.999049, 295, 113, 310, 240
-0.999053, 165, 161, 180, 288
-0.999055, 115, 1, 130, 128
-0.999055, 93, 97, 108, 224
-0.999059, 211, 289, 226, 416
-0.999071, 81, 337, 96, 464
-0.999262, 277, 1, 308, 256
-0.999278, 53, 161, 84, 416
-0.999289, 293, 1, 324, 256
-0.999409, 225, 49, 288, 176
-0.999613, 317, 1, 348, 256
-0.999677, 185, 261, 200, 276
-0.999678, 341, 365, 356, 380
-0.999678, 117, 59, 132, 74
-0.999678, 19, 477, 34, 492
-0.999678, 149, 67, 164, 82
-0.999679, 341, 105, 356, 120
-0.999679, 271, 145, 286, 160
-0.999679, 165, 49, 180, 64
-0.99968, 213, 305, 228, 320
-0.99968, 29, 407, 44, 422
-0.999681, 151, 23, 166, 38
-0.999681, 217, 381, 232, 396
-0.999682, 119, 83, 134, 98
-0.999682, 185, 1, 200, 16
-0.999683, 133, 13, 148, 28
-0.999683, 291, 437, 306, 452
-0.999684, 199, 89, 214, 104
-0.999684, 125, 81, 140, 96
-0.999684, 157, 417, 172, 432
-0.999685, 355, 1, 370, 16
-0.999685, 249, 307, 264, 322
-0.999686, 221, 307, 236, 322
-0.999686, 125, 75, 140, 90
-0.999686, 205, 249, 220, 264
-0.999686, 223, 367, 238, 382
-0.999687, 9, 473, 24, 488
-0.999688, 153, 91, 168, 106
-0.999688, 187, 185, 202, 200
-0.999688, 181, 55, 196, 70
-0.999691, 127, 67, 142, 82
-0.999693, 133, 65, 148, 80
-0.999694, 155, 11, 170, 26
-0.999694, 147, 93, 162, 108
-0.999695, 127, 57, 142, 72
-0.999695, 179, 183, 194, 198
-0.999695, 171, 29, 186, 44
-0.999696, 121, 27, 136, 42
-0.999696, 119, 69, 134, 84
-0.999696, 251, 77, 266, 92
-0.999697, 227, 293, 242, 308
-0.999697, 163, 33, 178, 48
-0.999697, 163, 25, 178, 40
-0.999698, 179, 261, 194, 276
-0.999699, 325, 413, 340, 428
-0.999699, 139, 21, 154, 36
-0.9997, 177, 149, 192, 164
-0.9997, 133, 71, 148, 86
-0.9997, 231, 307, 246, 322
-0.9997, 149, 17, 164, 32
-0.999701, 209, 79, 224, 94
-0.999701, 145, 99, 160, 114
-0.999702, 173, 95, 188, 110
-0.999703, 155, 103, 170, 118
-0.999703, 299, 411, 314, 426
-0.999703, 113, 423, 128, 438
-0.999703, 171, 45, 186, 60
-0.999704, 99, 363, 114, 378
-0.999704, 199, 21, 214, 36
-0.999704, 207, 285, 222, 300
-0.999705, 115, 31, 130, 46
-0.999705, 131, 25, 146, 40
-0.999706, 319, 421, 334, 436
-0.999707, 169, 23, 184, 38
-0.999707, 187, 65, 202, 80
-0.999708, 165, 91, 180, 106
-0.999708, 357, 91, 372, 106
-0.999709, 285, 403, 300, 418
-0.999709, 201, 83, 216, 98
-0.99971, 317, 413, 332, 428
-0.999711, 123, 125, 138, 140
-0.999712, 269, 305, 284, 320
-0.999713, 245, 391, 260, 406
-0.999713, 199, 423, 214, 438
-0.999713, 175, 103, 190, 118
-0.999713, 233, 259, 248, 274
-0.999714, 181, 115, 196, 130
-0.999714, 115, 41, 130, 56
-0.999715, 309, 421, 324, 436
-0.999716, 17, 469, 32, 484
-0.999717, 189, 33, 204, 48
-0.999718, 201, 15, 216, 30
-0.999719, 133, 85, 148, 100
-0.99972, 147, 61, 162, 76
-0.99972, 77, 291, 92, 306
-0.99972, 183, 25, 198, 40
-0.999721, 275, 377, 290, 392
-0.999721, 221, 287, 236, 302
-0.999721, 179, 93, 194, 108
-0.999722, 9, 483, 24, 498
-0.999722, 285, 409, 300, 424
-0.999722, 217, 297, 232, 312
-0.999723, 91, 359, 106, 374
-0.999724, 85, 151, 100, 166
-0.999724, 275, 417, 290, 432
-0.999725, 141, 83, 156, 98
-0.999726, 183, 101, 198, 116
-0.999726, 139, 71, 154, 86
-0.999726, 331, 107, 346, 122
-0.999729, 177, 39, 192, 54
-0.999729, 193, 25, 208, 40
-0.99973, 351, 7, 366, 22
-0.99973, 113, 19, 128, 34
-0.999731, 187, 51, 202, 66
-0.999732, 281, 329, 296, 344
-0.999733, 181, 49, 196, 64
-0.999734, 181, 63, 196, 78
-0.999736, 243, 149, 258, 164
-0.999736, 77, 395, 92, 410
-0.999737, 291, 403, 306, 418
-0.999737, 345, 339, 360, 354
-0.99974, 239, 389, 254, 404
-0.999741, 223, 301, 238, 316
-0.999743, 199, 417, 214, 432
-0.999744, 211, 253, 226, 268
-0.999745, 251, 259, 266, 274
-0.999746, 281, 397, 296, 412
-0.999747, 221, 249, 236, 264
-0.999748, 119, 21, 134, 36
-0.999752, 117, 47, 132, 62
-0.999752, 213, 287, 228, 302
-0.999757, 135, 93, 150, 108
-0.999758, 189, 95, 204, 110
-0.999765, 299, 449, 314, 464
-0.999768, 177, 31, 192, 46
-0.999768, 131, 77, 146, 92
-0.999772, 5, 257, 36, 500
-0.999773, 297, 405, 312, 420
-0.999777, 157, 23, 172, 38
-0.999789, 223, 381, 238, 396
-0.999799, 129, 19, 144, 34
-0.999813, 217, 375, 232, 390
-1.00021, 37, 161, 68, 416
-1.00025, 29, 257, 60, 500
-1.00031, 17, 257, 48, 500
-1.00065, 1, 1, 64, 500
-1.0007, 5, 161, 36, 416
-1.00101, 5, 65, 36, 320
-1.00108, 25, 161, 56, 416
-1.00154, 21, 65, 52, 320
-1.00164, 25, 49, 88, 176
-1.00172, 49, 1, 80, 256
-1.00178, 37, 65, 68, 320
-1.00233, 241, 33, 368, 96
-1.0028, 25, 1, 88, 256
-1.00428, 1, 113, 64, 240
-1.00873, 1, 65, 64, 320
-1.01358, 1, 33, 64, 160
