1956
-0.335809, 1, 129, 500, 375
-0.367501, 1, 1, 500, 375
-0.475981, 1, 1, 500, 256
-0.494559, 33, 1, 288, 375
-0.548276, 129, 1, 384, 375
-0.602621, 129, 65, 384, 320
-0.609982, 225, 1, 480, 375
-0.612725, 225, 129, 480, 375
-0.661308, 1, 129, 256, 375
-0.725457, 33, 33, 288, 288
-0.819517, 225, 1, 480, 256
-0.839851, 257, 129, 384, 375
-0.845497, 129, 65, 256, 320
-0.855063, 113, 1, 240, 375
-0.864602, 65, 129, 192, 375
-0.866741, 1, 129, 128, 375
-0.867054, 193, 97, 320, 352
-0.867539, 369, 97, 496, 352
-0.870691, 161, 1, 288, 375
-0.879072, 1, 129, 500, 256
-0.879128, 321, 129, 448, 375
-0.883949, 1, 81, 500, 208
-0.893833, 369, 1, 496, 375
-0.895781, 65, 1, 192, 375
-0.899278, 97, 97, 352, 224
-0.899565, 17, 1, 144, 375
-0.904208, 1, 241, 500, 368
-0.906313, 1, 193, 500, 320
-0.90709, 17, 33, 144, 288
-0.908289, 257, 1, 384, 375
-0.909891, 1, 129, 256, 256
-0.912824, 65, 33, 192, 288
-0.913301, 321, 1, 448, 375
-0.916911, 209, 1, 336, 375
-0.922039, 129, 65, 256, 192
-0.922158, 289, 33, 416, 288
-0.923758, 257, 145, 500, 272
-0.926204, 1, 81, 256, 208
-0.92784, 129, 145, 384, 272
-0.928691, 369, 113, 496, 240
-0.929571, 177, 49, 240, 176
-0.93001, 425, 97, 488, 224
-0.930779, 257, 97, 500, 224
-0.932304, 289, 161, 416, 288
-0.933155, 209, 1, 336, 256
-0.934515, 65, 209, 320, 336
-0.935503, 393, 97, 456, 224
-0.938816, 209, 129, 336, 256
-0.939133, 249, 129, 312, 256
-0.939324, 225, 209, 480, 336
-0.941118, 129, 113, 192, 240
-0.941345, 305, 145, 368, 272
-0.942611, 17, 129, 144, 256
-0.943399, 65, 97, 192, 224
-0.944532, 257, 209, 384, 336
-0.944938, 33, 33, 288, 160
-0.945819, 281, 145, 344, 272
-0.945999, 1, 33, 500, 160
-0.946048, 337, 161, 464, 288
-0.946311, 41, 129, 104, 256
-0.946908, 57, 81, 120, 208
-0.947675, 241, 129, 304, 192
-0.948382, 81, 129, 144, 256
-0.950525, 409, 105, 472, 168
-0.950704, 345, 161, 408, 288
-0.951253, 81, 145, 208, 272
-0.951338, 385, 145, 448, 272
-0.951625, 105, 113, 168, 240
-0.951684, 129, 129, 256, 256
-0.952127, 201, 81, 264, 208
-0.952226, 113, 129, 176, 192
-0.952787, 1, 81, 128, 208
-0.952841, 177, 73, 240, 136
-0.953323, 81, 81, 144, 208
-0.953345, 369, 1, 496, 256
-0.953418, 225, 49, 480, 176
-0.953633, 217, 145, 280, 272
-0.953987, 433, 137, 496, 200
-0.9555, 129, 105, 192, 168
-0.955691, 1, 129, 64, 256
-0.956557, 385, 153, 448, 216
-0.95715, 97, 17, 224, 144
-0.957348, 89, 89, 152, 152
-0.958189, 1, 81, 64, 208
-0.958675, 281, 153, 344, 216
-0.958814, 89, 113, 152, 176
-0.958863, 209, 121, 272, 184
-0.958928, 65, 137, 128, 200
-0.959003, 25, 81, 88, 208
-0.959017, 129, 49, 384, 176
-0.959177, 177, 81, 304, 208
-0.960162, 321, 97, 448, 224
-0.960217, 57, 105, 120, 168
-0.960373, 177, 177, 304, 304
-0.960401, 153, 65, 216, 192
-0.96055, 409, 129, 472, 192
-0.96082, 305, 169, 368, 232
-0.960938, 41, 137, 104, 200
-0.961102, 1, 113, 64, 176
-0.961407, 433, 105, 496, 168
-0.961908, 433, 145, 496, 272
-0.962214, 1, 137, 64, 200
-0.962595, 1, 161, 64, 224
-0.963104, 257, 113, 384, 240
-0.963398, 153, 17, 216, 144
-0.963753, 121, 161, 184, 288
-0.963879, 153, 177, 216, 304
-0.96419, 361, 169, 424, 232
-0.96451, 161, 33, 224, 288
-0.964518, 273, 209, 336, 336
-0.964573, 89, 145, 152, 208
-0.964777, 177, 49, 240, 112
-0.965696, 129, 97, 256, 160
-0.966347, 249, 225, 312, 352
-0.966815, 153, 97, 216, 160
-0.967052, 385, 105, 448, 168
-0.967115, 161, 201, 224, 264
-0.967164, 225, 97, 288, 224
-0.967414, 113, 185, 176, 248
-0.967878, 433, 161, 496, 224
-0.968157, 337, 177, 400, 240
-0.96836, 105, 65, 168, 192
-0.968506, 281, 209, 344, 272
-0.968509, 369, 137, 496, 200
-0.969257, 177, 33, 304, 160
-0.969439, 169, 25, 232, 88
-0.969653, 113, 225, 240, 352
-0.969665, 297, 129, 360, 375
-0.969761, 461, 137, 492, 200
-0.969768, 209, 129, 336, 192
-0.969784, 305, 225, 432, 352
-0.969806, 273, 129, 336, 375
-0.969824, 141, 121, 172, 184
-0.969876, 409, 145, 472, 272
-0.969937, 289, 97, 352, 224
-0.969981, 129, 153, 192, 216
-0.97015, 233, 105, 296, 168
-0.970249, 209, 241, 336, 368
-0.970255, 41, 129, 104, 375
-0.970343, 361, 113, 424, 240
-0.970347, 409, 105, 440, 168
-0.970564, 129, 97, 192, 352
-0.970611, 153, 129, 216, 256
-0.970678, 65, 137, 192, 200
-0.9707, 401, 65, 464, 320
-0.971047, 305, 209, 368, 336
-0.971231, 241, 97, 304, 352
-0.971414, 33, 113, 96, 176
-0.971585, 369, 105, 496, 168
-0.971615, 221, 81, 252, 208
-0.971631, 193, 129, 256, 256
-0.971689, 1, 137, 128, 200
-0.971711, 409, 137, 440, 200
-0.971845, 209, 145, 272, 208
-0.971901, 129, 209, 192, 336
-0.97193, 65, 113, 192, 176
-0.971958, 469, 105, 500, 168
-0.972103, 385, 129, 448, 192
-0.97213, 201, 193, 264, 256
-0.972206, 305, 145, 368, 208
-0.972312, 201, 49, 232, 176
-0.972344, 345, 209, 408, 336
-0.972429, 97, 129, 160, 375
-0.972586, 129, 105, 160, 168
-0.972737, 241, 129, 272, 192
-0.972742, 33, 209, 160, 336
-0.972769, 265, 129, 328, 192
-0.972776, 185, 193, 248, 320
-0.97297, 273, 113, 304, 240
-0.972972, 429, 97, 460, 224
-0.973004, 445, 97, 476, 224
-0.973069, 145, 25, 208, 88
-0.973288, 153, 161, 216, 224
-0.973429, 41, 201, 104, 264
-0.973528, 189, 33, 220, 160
-0.973813, 209, 97, 272, 160
-0.973935, 269, 129, 300, 192
-0.974095, 249, 153, 312, 216
-0.974137, 157, 97, 188, 224
-0.97415, 333, 145, 364, 272
-0.974166, 73, 97, 136, 352
-0.974309, 389, 129, 420, 192
-0.974317, 409, 97, 440, 224
-0.974435, 241, 177, 304, 304
-0.974447, 369, 129, 432, 375
-0.974452, 145, 121, 272, 184
-0.974472, 233, 49, 296, 176
-0.974559, 329, 153, 392, 216
-0.974574, 257, 161, 384, 224
-0.974593, 21, 145, 52, 208
-0.974596, 13, 97, 44, 224
-0.974647, 441, 105, 472, 168
-0.974651, 153, 105, 184, 168
-0.974666, 321, 129, 384, 375
-0.974764, 65, 297, 128, 360
-0.974798, 185, 33, 248, 288
-0.974872, 249, 193, 312, 256
-0.9749, 89, 289, 152, 352
-0.974902, 409, 161, 472, 224
-0.975021, 141, 97, 172, 224
-0.975071, 217, 97, 280, 352
-0.975186, 185, 1, 248, 128
-0.975208, 305, 177, 432, 240
-0.975233, 457, 97, 488, 224
-0.975258, 361, 145, 424, 208
-0.975299, 353, 241, 480, 368
-0.975309, 329, 113, 392, 240
-0.975313, 137, 185, 200, 248
-0.975363, 49, 49, 176, 176
-0.975435, 73, 225, 136, 352
-0.975601, 137, 129, 200, 192
-0.975654, 77, 129, 108, 192
-0.975724, 369, 161, 496, 224
-0.975778, 129, 97, 160, 224
-0.975874, 293, 145, 324, 272
-0.975919, 93, 129, 124, 256
-0.975923, 141, 97, 172, 160
-0.97597, 453, 105, 484, 168
-0.976052, 1, 129, 32, 192
-0.976054, 185, 25, 216, 88
-0.976206, 425, 65, 488, 320
-0.976226, 421, 105, 452, 168
-0.97624, 81, 81, 112, 208
-0.976384, 57, 121, 88, 184
-0.976459, 225, 241, 288, 368
-0.976625, 129, 177, 256, 304
-0.976704, 221, 113, 252, 176
-0.976744, 57, 81, 120, 144
-0.97685, 385, 177, 448, 240
-0.976874, 25, 113, 56, 240
-0.976875, 137, 217, 200, 280
-0.976921, 305, 129, 336, 256
-0.976931, 129, 73, 256, 136
-0.977003, 257, 129, 288, 192
-0.977026, 9, 145, 40, 272
-0.977119, 89, 177, 152, 240
-0.97713, 113, 81, 176, 144
-0.977169, 469, 113, 500, 240
-0.977193, 137, 65, 200, 128
-0.977351, 1, 161, 128, 224
-0.977407, 209, 193, 272, 320
-0.977455, 417, 193, 480, 320
-0.977546, 89, 177, 152, 304
-0.977611, 313, 193, 376, 256
-0.977685, 425, 185, 488, 248
-0.977693, 97, 89, 128, 152
-0.9777, 57, 161, 120, 224
-0.977832, 237, 129, 268, 256
-0.977864, 185, 129, 248, 192
-0.977868, 321, 129, 448, 192
-0.977908, 129, 137, 160, 200
-0.977953, 321, 153, 448, 216
-0.977973, 449, 145, 480, 208
-0.977982, 189, 57, 220, 120
-0.978051, 41, 129, 72, 192
-0.978058, 117, 97, 148, 224
-0.978088, 45, 129, 76, 256
-0.978105, 57, 97, 88, 224
-0.9783, 9, 153, 40, 216
-0.978318, 33, 161, 96, 224
-0.978389, 161, 225, 288, 352
-0.978413, 365, 161, 396, 288
-0.978456, 49, 209, 112, 336
-0.978492, 221, 89, 252, 152
-0.978532, 105, 129, 136, 256
-0.978539, 41, 297, 104, 360
-0.978551, 97, 145, 128, 208
-0.978592, 81, 129, 112, 256
-0.978749, 273, 305, 336, 368
-0.978779, 337, 161, 368, 224
-0.978921, 129, 33, 192, 160
-0.979001, 345, 129, 408, 375
-0.979025, 293, 153, 324, 216
-0.979053, 113, 121, 144, 184
-0.979119, 177, 1, 240, 375
-0.979246, 273, 185, 336, 248
-0.979253, 349, 161, 380, 288
-0.979274, 209, 153, 336, 216
-0.979294, 161, 225, 224, 352
-0.979321, 9, 97, 72, 352
-0.979355, 201, 49, 232, 112
-0.979666, 33, 289, 160, 352
-0.979836, 257, 225, 384, 288
-0.979866, 237, 105, 268, 168
-0.97987, 177, 65, 208, 192
-0.979954, 397, 153, 428, 216
-0.979996, 417, 49, 480, 176
-0.980014, 425, 137, 456, 200
-0.980092, 17, 113, 144, 176
-0.980094, 257, 113, 288, 240
-0.980163, 49, 89, 176, 152
-0.980165, 93, 81, 124, 208
-0.980176, 161, 153, 288, 216
-0.980202, 321, 217, 384, 280
-0.980277, 85, 105, 116, 168
-0.980294, 257, 193, 384, 256
-0.980341, 321, 145, 352, 272
-0.980445, 69, 81, 100, 208
-0.980468, 61, 145, 92, 208
-0.980472, 465, 169, 496, 232
-0.980593, 393, 113, 424, 240
-0.980621, 33, 81, 96, 144
-0.980681, 153, 153, 184, 216
-0.980697, 1, 97, 32, 224
-0.980711, 129, 145, 160, 272
-0.980731, 161, 225, 224, 288
-0.980806, 365, 177, 396, 240
-0.980854, 377, 161, 408, 288
-0.980855, 105, 313, 168, 375
-0.980895, 81, 201, 144, 264
-0.980931, 113, 281, 176, 344
-0.981064, 161, 137, 224, 200
-0.981083, 305, 153, 336, 216
-0.981092, 185, 217, 248, 280
-0.981094, 17, 177, 80, 304
-0.981139, 113, 33, 240, 96
-0.981198, 297, 305, 360, 368
-0.981243, 361, 121, 424, 184
-0.981291, 409, 161, 440, 224
-0.981336, 381, 169, 412, 232
-0.981386, 385, 209, 448, 336
-0.981471, 177, 17, 208, 144
-0.981487, 109, 145, 140, 208
-0.981531, 449, 145, 480, 272
-0.981556, 113, 209, 176, 272
-0.981689, 257, 81, 320, 208
-0.981717, 69, 89, 100, 152
-0.981801, 145, 289, 208, 352
-0.981839, 321, 153, 352, 216
-0.981899, 105, 225, 168, 352
-0.981915, 73, 225, 136, 288
-0.981938, 29, 121, 60, 184
-0.981998, 17, 193, 80, 256
-0.982022, 69, 129, 100, 256
-0.982044, 149, 145, 180, 272
-0.982055, 397, 105, 428, 168
-0.982184, 349, 185, 380, 248
-0.982202, 221, 129, 252, 256
-0.982207, 9, 89, 72, 152
-0.98228, 13, 105, 44, 168
-0.982385, 45, 153, 76, 216
-0.982395, 177, 201, 304, 264
-0.982428, 205, 81, 236, 144
-0.982595, 113, 153, 240, 216
-0.982648, 217, 265, 280, 328
-0.982684, 225, 193, 288, 256
-0.982762, 233, 297, 296, 360
-0.98281, 177, 177, 240, 240
-0.982826, 97, 113, 128, 176
-0.982863, 41, 1, 104, 256
-0.982866, 241, 217, 304, 280
-0.982887, 81, 217, 208, 280
-0.98289, 469, 161, 500, 288
-0.983087, 193, 105, 320, 168
-0.983244, 237, 81, 268, 208
-0.983309, 281, 137, 312, 200
-0.983426, 257, 249, 320, 312
-0.983509, 345, 209, 408, 272
-0.9836, 81, 65, 208, 128
-0.983627, 437, 137, 468, 200
-0.98371, 37, 81, 68, 208
-0.98376, 221, 137, 252, 200
-0.983764, 105, 33, 168, 288
-0.983781, 401, 81, 464, 144
-0.983905, 393, 217, 456, 280
-0.983928, 237, 153, 268, 216
-0.983992, 121, 81, 152, 144
-0.983998, 369, 209, 432, 272
-0.984159, 105, 257, 168, 320
-0.984174, 425, 81, 488, 144
-0.98423, 137, 1, 200, 256
-0.984249, 153, 129, 216, 375
-0.984251, 177, 225, 304, 288
-0.984311, 25, 225, 88, 352
-0.984364, 113, 185, 240, 248
-0.984429, 257, 137, 384, 200
-0.984484, 57, 145, 88, 272
-0.984595, 153, 1, 216, 375
-0.984619, 369, 65, 496, 192
-0.98463, 389, 161, 420, 288
-0.984718, 121, 1, 184, 375
-0.984766, 17, 33, 80, 160
-0.984768, 217, 225, 280, 288
-0.98477, 177, 89, 208, 152
-0.984772, 205, 193, 236, 256
-0.984782, 453, 169, 484, 232
-0.984862, 193, 185, 224, 248
-0.984883, 425, 217, 488, 280
-0.984886, 117, 145, 148, 272
-0.98516, 261, 241, 292, 368
-0.985172, 321, 201, 448, 264
-0.985175, 197, 137, 228, 200
-0.985219, 201, 49, 264, 112
-0.985266, 157, 185, 188, 248
-0.985283, 165, 145, 196, 208
-0.985283, 193, 177, 320, 240
-0.985311, 409, 145, 440, 272
-0.98541, 1, 89, 128, 152
-0.985522, 137, 193, 168, 256
-0.985596, 25, 65, 56, 192
-0.985646, 209, 129, 240, 192
-0.985714, 17, 313, 80, 375
-0.985845, 141, 153, 172, 216
-0.985875, 25, 161, 56, 288
-0.985925, 321, 305, 384, 368
-0.985934, 1, 177, 32, 240
-0.98594, 29, 169, 60, 232
-0.985959, 81, 289, 208, 352
-0.986057, 269, 161, 300, 288
-0.986059, 273, 225, 304, 352
-0.986068, 177, 57, 304, 120
-0.986074, 429, 145, 460, 272
-0.986097, 81, 81, 112, 144
-0.986175, 129, 241, 192, 304
-0.986201, 161, 33, 288, 96
-0.986245, 177, 201, 208, 264
-0.986262, 1, 185, 128, 248
-0.986322, 425, 241, 488, 368
-0.986323, 17, 217, 144, 280
-0.986334, 201, 1, 264, 375
-0.986351, 165, 17, 196, 144
-0.986433, 77, 153, 108, 216
-0.986443, 141, 49, 172, 176
-0.986458, 49, 313, 176, 375
-0.986471, 293, 209, 324, 272
-0.986479, 305, 185, 336, 248
-0.986556, 393, 49, 456, 176
-0.986577, 369, 225, 496, 288
-0.986602, 449, 193, 480, 320
-0.986619, 289, 121, 352, 184
-0.986641, 209, 169, 272, 232
-0.986669, 225, 65, 352, 192
-0.986679, 1, 33, 128, 160
-0.986779, 205, 113, 236, 240
-0.98678, 409, 1, 472, 375
-0.986866, 41, 105, 72, 168
-0.986876, 201, 73, 264, 136
-0.986889, 257, 273, 320, 336
-0.986898, 173, 17, 204, 80
-0.986912, 1, 1, 64, 256
-0.986962, 81, 65, 144, 128
-0.987002, 177, 129, 240, 375
-0.98707, 65, 185, 192, 248
-0.98714, 293, 209, 324, 336
-0.987182, 177, 265, 304, 328
-0.987214, 33, 225, 96, 288
-0.98724, 73, 297, 104, 360
-0.987243, 337, 185, 368, 248
-0.987252, 421, 161, 452, 224
-0.987279, 41, 33, 104, 160
-0.987439, 353, 241, 416, 304
-0.987446, 161, 145, 192, 272
-0.987463, 325, 177, 356, 240
-0.987518, 29, 97, 60, 160
-0.987892, 293, 121, 324, 184
-0.987929, 181, 153, 212, 216
-0.98801, 177, 177, 208, 304
-0.988027, 173, 49, 204, 112
-0.988094, 209, 297, 336, 360
-0.988106, 197, 217, 228, 280
-0.988116, 193, 161, 224, 224
-0.988164, 77, 193, 108, 256
-0.98819, 89, 93, 152, 124
-0.988207, 65, 121, 320, 184
-0.988208, 249, 209, 280, 336
-0.98824, 153, 265, 216, 328
-0.988292, 177, 85, 240, 116
-0.988365, 117, 185, 148, 248
-0.988373, 285, 305, 316, 368
-0.988379, 17, 289, 80, 352
-0.988411, 305, 233, 432, 296
-0.988437, 249, 137, 312, 168
-0.988477, 137, 281, 168, 344
-0.988501, 241, 265, 368, 328
-0.988502, 73, 1, 136, 256
-0.988503, 137, 217, 168, 280
-0.988506, 121, 161, 152, 224
-0.988534, 57, 141, 120, 172
-0.988571, 401, 241, 464, 304
-0.988599, 385, 1, 448, 375
-0.98864, 249, 161, 280, 288
-0.988641, 93, 297, 124, 360
-0.988676, 357, 153, 388, 216
-0.98868, 53, 201, 84, 264
-0.988767, 165, 209, 196, 272
-0.988777, 433, 185, 464, 248
-0.988792, 129, 273, 256, 336
-0.988802, 1, 313, 128, 375
-0.988868, 369, 201, 496, 264
-0.988905, 293, 185, 324, 248
-0.98897, 209, 145, 272, 176
-0.988997, 413, 185, 444, 248
-0.989018, 149, 225, 180, 288
-0.989035, 377, 305, 440, 368
-0.98905, 285, 97, 316, 224
-0.989064, 49, 161, 176, 224
-0.9891, 345, 297, 408, 360
-0.989104, 65, 185, 96, 248
-0.989121, 9, 217, 72, 280
-0.989131, 145, 193, 176, 320
-0.989138, 205, 177, 236, 304
-0.989189, 121, 141, 184, 172
-0.989204, 209, 81, 336, 144
-0.98921, 193, 129, 224, 256
-0.989214, 257, 153, 288, 216
-0.989247, 281, 169, 312, 232
-0.989274, 401, 105, 464, 136
-0.989285, 377, 165, 440, 196
-0.989292, 393, 149, 456, 180
-0.989356, 401, 265, 464, 328
-0.989361, 289, 153, 352, 184
-0.989378, 161, 145, 416, 208
-0.989415, 9, 1, 72, 375
-0.989468, 377, 33, 440, 288
-0.989471, 113, 113, 176, 144
-0.989516, 101, 185, 132, 248
-0.989527, 433, 137, 496, 168
-0.989551, 85, 225, 116, 352
-0.989557, 33, 1, 96, 375
-0.989559, 329, 209, 360, 336
-0.989564, 177, 73, 240, 104
-0.989578, 121, 153, 184, 184
-0.989579, 97, 141, 160, 172
-0.989608, 433, 149, 496, 180
-0.98961, 305, 209, 336, 336
-0.989681, 393, 177, 424, 240
-0.989704, 129, 1, 384, 128
-0.989716, 353, 249, 480, 312
-0.989722, 165, 105, 196, 168
-0.989727, 433, 1, 496, 375
-0.989728, 433, 165, 496, 196
-0.989763, 249, 149, 312, 180
-0.989781, 305, 165, 368, 196
-0.989787, 345, 169, 408, 200
-0.9898, 425, 49, 456, 176
-0.989806, 17, 145, 80, 176
-0.98985, 261, 297, 292, 360
-0.98986, 185, 141, 248, 172
-0.989865, 257, 305, 384, 368
-0.989872, 257, 1, 320, 375
-0.989893, 177, 97, 240, 160
-0.989897, 65, 265, 192, 328
-0.989899, 133, 209, 164, 336
-0.989908, 1, 145, 256, 208
-0.989912, 217, 133, 280, 164
-0.989917, 321, 105, 448, 168
-0.989939, 65, 1, 128, 375
-0.989975, 105, 81, 136, 208
-0.990029, 161, 149, 224, 180
-0.990034, 341, 225, 372, 352
-0.990041, 25, 133, 88, 164
-0.990049, 313, 281, 376, 344
-0.990063, 257, 129, 500, 192
-0.99008, 17, 157, 80, 188
-0.990093, 393, 129, 456, 160
-0.990113, 129, 249, 256, 312
-0.990126, 273, 193, 304, 256
-0.990135, 65, 93, 128, 124
-0.990136, 257, 153, 500, 216
-0.990142, 113, 101, 176, 132
-0.990166, 129, 217, 256, 280
-0.990167, 281, 221, 344, 252
-0.990174, 325, 201, 356, 264
-0.990201, 233, 81, 296, 144
-0.99022, 1, 105, 32, 168
-0.990222, 337, 185, 400, 216
-0.990228, 377, 257, 440, 320
-0.990231, 185, 241, 248, 304
-0.990257, 145, 161, 208, 192
-0.990258, 345, 33, 408, 288
-0.990266, 281, 233, 344, 296
-0.990304, 409, 81, 440, 144
-0.990313, 81, 129, 144, 160
-0.990336, 433, 109, 496, 140
-0.990349, 129, 313, 192, 375
-0.990351, 233, 1, 296, 256
-0.990366, 141, 73, 172, 136
-0.990372, 109, 81, 140, 144
-0.990409, 81, 153, 144, 184
-0.990419, 145, 109, 208, 140
-0.990443, 169, 29, 232, 60
-0.990456, 289, 33, 352, 288
-0.990477, 185, 157, 248, 188
-0.990483, 81, 9, 208, 72
-0.990484, 369, 81, 496, 144
-0.990485, 409, 289, 472, 352
-0.990512, 33, 89, 288, 152
-0.990528, 109, 281, 140, 344
-0.990534, 189, 81, 220, 144
-0.990543, 177, 1, 240, 64
-0.990543, 401, 169, 464, 200
-0.99055, 441, 49, 472, 176
-0.990559, 129, 85, 192, 116
-0.990561, 393, 117, 456, 148
-0.990566, 153, 221, 216, 252
-0.990571, 105, 233, 168, 296
-0.990585, 305, 181, 368, 212
-0.990592, 433, 125, 496, 156
-0.99062, 1, 137, 500, 200
-0.99063, 161, 9, 288, 72
-0.990647, 209, 17, 272, 144
-0.99068, 113, 313, 240, 375
-0.990723, 137, 129, 200, 160
-0.99073, 281, 141, 344, 172
-0.990733, 361, 181, 424, 212
-0.990734, 49, 129, 112, 160
-0.990739, 169, 41, 232, 72
-0.990781, 193, 201, 256, 232
-0.99081, 245, 265, 276, 328
-0.990813, 57, 105, 120, 136
-0.99084, 9, 169, 72, 200
-0.990869, 353, 65, 416, 192
-0.990874, 1, 117, 64, 148
-0.990878, 105, 125, 168, 156
-0.990893, 145, 29, 208, 60
-0.990903, 317, 209, 348, 336
-0.990925, 409, 181, 472, 212
-0.990934, 349, 209, 380, 272
-0.990961, 225, 161, 256, 224
-0.990966, 209, 157, 272, 188
-0.990969, 121, 225, 152, 352
-0.990983, 281, 209, 344, 240
-0.990994, 385, 181, 448, 212
-0.991032, 121, 289, 152, 352
-0.99104, 41, 93, 104, 124
-0.991044, 33, 209, 96, 240
-0.991054, 41, 193, 72, 256
-0.991067, 273, 113, 400, 176
-0.991068, 69, 177, 100, 304
-0.991074, 145, 209, 208, 240
-0.991091, 465, 81, 496, 144
-0.991096, 57, 97, 88, 160
-0.991109, 121, 189, 184, 220
-0.991144, 49, 153, 112, 184
-0.991178, 265, 197, 328, 228
-0.99119, 137, 97, 200, 128
-0.991191, 289, 1, 352, 375
-0.991196, 177, 61, 240, 92
-0.991206, 105, 289, 168, 320
-0.99122, 121, 169, 184, 200
-0.991229, 185, 225, 248, 256
-0.991253, 221, 185, 252, 248
-0.991261, 209, 117, 272, 148
-0.991276, 149, 289, 180, 352
-0.991283, 321, 97, 352, 224
-0.9913, 97, 181, 160, 212
-0.991308, 81, 81, 144, 112
-0.991312, 121, 205, 184, 236
-0.991341, 201, 1, 232, 128
-0.991354, 393, 209, 424, 336
-0.991384, 369, 281, 432, 344
-0.991392, 169, 201, 232, 232
-0.991409, 289, 281, 416, 344
-0.991413, 369, 137, 432, 168
-0.991424, 353, 273, 480, 336
-0.991437, 9, 221, 72, 252
-0.991443, 469, 65, 500, 192
-0.991454, 185, 153, 248, 216
-0.991456, 17, 185, 48, 248
-0.991456, 33, 225, 96, 256
-0.991459, 145, 193, 208, 224
-0.99146, 453, 81, 484, 144
-0.991463, 57, 189, 120, 220
-0.991466, 121, 225, 184, 256
-0.991482, 161, 233, 224, 264
-0.99149, 153, 81, 184, 144
-0.9915, 313, 1, 376, 375
-0.991518, 193, 97, 256, 128
-0.99152, 409, 205, 472, 236
-0.991523, 153, 181, 216, 212
-0.991549, 309, 297, 340, 360
-0.991552, 357, 209, 388, 336
-0.991561, 89, 105, 152, 136
-0.991581, 249, 161, 312, 192
-0.991592, 1, 181, 64, 212
-0.991602, 57, 117, 120, 148
-0.991614, 25, 317, 88, 348
-0.991616, 241, 205, 304, 236
-0.991622, 161, 297, 288, 360
-0.991624, 329, 157, 392, 188
-0.991636, 369, 125, 432, 156
-0.991637, 401, 193, 464, 224
-0.991641, 89, 165, 152, 196
-0.991648, 233, 1, 296, 375
-0.991665, 289, 193, 352, 224
-0.99171, 1, 133, 64, 164
-0.991724, 169, 97, 232, 128
-0.991725, 257, 309, 320, 340
-0.991736, 49, 177, 112, 208
-0.99175, 129, 237, 192, 268
-0.99177, 65, 257, 128, 320
-0.991791, 233, 121, 296, 152
-0.991791, 281, 305, 344, 336
-0.991792, 353, 89, 416, 152
-0.991798, 17, 197, 80, 228
-0.991808, 97, 317, 160, 348
-0.991817, 57, 81, 120, 112
-0.991826, 25, 113, 88, 144
-0.991829, 265, 33, 328, 288
-0.991846, 297, 81, 328, 208
-0.991847, 41, 165, 104, 196
-0.991876, 9, 101, 72, 132
-0.991877, 209, 213, 272, 244
-0.99188, 249, 217, 312, 248
-0.991911, 305, 205, 368, 236
-0.991932, 369, 201, 432, 232
-0.99194, 433, 181, 496, 212
-0.991947, 369, 149, 432, 180
-0.991955, 313, 221, 376, 252
-0.991959, 281, 233, 344, 264
-0.991961, 177, 25, 208, 56
-0.991992, 433, 97, 496, 128
-0.991997, 401, 93, 464, 124
-0.992012, 217, 33, 248, 160
-0.992021, 97, 1, 160, 375
-0.992029, 177, 213, 240, 244
-0.992036, 241, 229, 304, 260
-0.992048, 381, 113, 412, 240
-0.992055, 129, 145, 160, 176
-0.992058, 193, 129, 256, 160
-0.992072, 161, 137, 224, 168
-0.992073, 137, 105, 168, 136
-0.992073, 121, 49, 152, 176
-0.99209, 337, 129, 400, 192
-0.992103, 9, 209, 72, 240
-0.992147, 217, 185, 280, 216
-0.992149, 353, 113, 384, 240
-0.992176, 353, 1, 416, 375
-0.992186, 281, 161, 312, 288
-0.992188, 77, 145, 108, 176
-0.9922, 377, 213, 440, 244
-0.9922, 269, 133, 300, 164
-0.992213, 437, 193, 468, 320
-0.992213, 145, 293, 208, 324
-0.992216, 425, 257, 488, 320
-0.99223, 25, 185, 88, 216
-0.992235, 433, 205, 496, 236
-0.992236, 145, 41, 208, 72
-0.992258, 241, 133, 272, 164
-0.992262, 461, 137, 492, 168
-0.992263, 209, 1, 272, 256
-0.992297, 193, 209, 224, 336
-0.992305, 405, 145, 436, 176
-0.99231, 65, 141, 192, 172
-0.992313, 141, 133, 172, 164
-0.99232, 369, 297, 496, 360
-0.99232, 453, 49, 484, 176
-0.992347, 457, 153, 488, 184
-0.99235, 105, 149, 136, 180
-0.992352, 153, 49, 184, 176
-0.992365, 29, 149, 60, 180
-0.992367, 397, 129, 428, 160
-0.992369, 105, 209, 136, 336
-0.99238, 281, 281, 344, 344
-0.992385, 1, 113, 500, 176
-0.992393, 237, 145, 268, 176
-0.992396, 425, 145, 456, 176
-0.992404, 13, 157, 44, 188
-0.992416, 261, 65, 292, 192
-0.992422, 465, 117, 496, 148
-0.992458, 409, 49, 440, 176
-0.992465, 81, 133, 112, 164
-0.992468, 413, 105, 444, 136
-0.992476, 1, 241, 64, 368
-0.992477, 305, 49, 432, 176
-0.992504, 145, 97, 160, 160
-0.992509, 73, 89, 104, 120
-0.992518, 449, 165, 480, 196
-0.992528, 445, 145, 476, 176
-0.992547, 289, 157, 320, 188
-0.992557, 221, 145, 252, 176
-0.992567, 1, 257, 128, 320
-0.992573, 305, 305, 432, 368
-0.992573, 125, 97, 156, 128
-0.992577, 1, 149, 32, 180
-0.992577, 257, 133, 288, 164
-0.99258, 129, 97, 384, 160
-0.992582, 277, 145, 308, 176
-0.992588, 169, 153, 200, 184
-0.992594, 97, 97, 128, 128
-0.992604, 397, 169, 428, 200
-0.992605, 121, 117, 152, 148
-0.992607, 9, 137, 40, 168
-0.992612, 437, 165, 468, 196
-0.992613, 129, 133, 160, 164
-0.992627, 93, 141, 124, 172
-0.992628, 197, 145, 228, 176
-0.992629, 253, 153, 284, 184
-0.992631, 189, 65, 220, 96
-0.992641, 349, 185, 380, 216
-0.992641, 113, 89, 144, 120
-0.992642, 153, 113, 184, 144
-0.992642, 385, 165, 416, 196
-0.992643, 41, 141, 72, 172
-0.992648, 53, 137, 84, 168
-0.99265, 225, 105, 480, 168
-0.992665, 1, 169, 32, 200
-0.992666, 133, 117, 164, 148
-0.99267, 53, 149, 84, 180
-0.992675, 405, 117, 436, 148
-0.992708, 301, 149, 332, 180
-0.99271, 409, 133, 440, 164
-0.992714, 149, 153, 180, 184
-0.992719, 413, 157, 444, 188
-0.99272, 469, 149, 500, 180
-0.992727, 65, 105, 96, 136
-0.992728, 333, 161, 364, 192
-0.992729, 221, 133, 252, 164
-0.99274, 65, 141, 96, 172
-0.992744, 225, 105, 256, 136
-0.992748, 453, 105, 484, 136
-0.992754, 77, 101, 108, 132
-0.992758, 209, 145, 240, 176
-0.992766, 205, 81, 236, 112
-0.992779, 181, 85, 212, 116
-0.992781, 469, 161, 500, 192
-0.992782, 41, 153, 72, 184
-0.992783, 69, 125, 100, 156
-0.992785, 21, 101, 52, 132
-0.992786, 425, 157, 456, 188
-0.992801, 445, 133, 476, 164
-0.992833, 341, 173, 372, 204
-0.992835, 289, 137, 320, 168
-0.992841, 429, 105, 460, 136
-0.992842, 13, 169, 44, 200
-0.992848, 385, 177, 416, 208
-0.992856, 57, 125, 88, 156
-0.99286, 173, 129, 204, 256
-0.992861, 145, 193, 176, 224
-0.992861, 89, 153, 120, 184
-0.992871, 393, 141, 424, 172
-0.992874, 441, 105, 472, 136
-0.992878, 189, 45, 220, 76
-0.992883, 149, 165, 180, 196
-0.992884, 29, 137, 60, 168
-0.992886, 221, 121, 252, 152
-0.992889, 201, 221, 232, 252
-0.99289, 369, 177, 400, 208
-0.992892, 465, 105, 496, 136
-0.99291, 89, 109, 120, 140
-0.992912, 401, 157, 432, 188
-0.992921, 25, 161, 56, 192
-0.992924, 1, 181, 32, 212
-0.992924, 201, 69, 232, 100
-0.992927, 189, 233, 220, 264
-0.992929, 149, 225, 180, 256
-0.992933, 173, 97, 204, 128
-0.992935, 225, 93, 256, 124
-0.992936, 45, 113, 76, 144
-0.992943, 97, 185, 352, 248
-0.992956, 393, 113, 424, 144
-0.992957, 9, 117, 40, 148
-0.992957, 205, 193, 236, 224
-0.992958, 117, 145, 148, 176
-0.99296, 233, 157, 264, 188
-0.992966, 369, 225, 400, 352
-0.992968, 121, 201, 152, 232
-0.992973, 321, 153, 352, 184
-0.992979, 453, 177, 484, 208
-0.992983, 197, 205, 228, 236
-0.992987, 425, 169, 456, 200
-0.992988, 475, 137, 490, 200
-0.99299, 29, 173, 60, 204
-0.992991, 409, 169, 440, 200
-0.992992, 169, 225, 200, 256
-0.993017, 437, 185, 468, 216
-0.993023, 421, 133, 452, 164
-0.993023, 85, 85, 116, 116
-0.993028, 77, 113, 108, 144
-0.993028, 209, 133, 240, 164
-0.99303, 181, 197, 212, 228
-0.99304, 189, 157, 220, 188
-0.99304, 277, 161, 308, 192
-0.993048, 137, 181, 168, 212
-0.993051, 445, 117, 476, 148
-0.993061, 121, 165, 152, 196
-0.993066, 153, 125, 184, 156
-0.993074, 185, 209, 216, 240
-0.99308, 41, 125, 72, 156
-0.99308, 385, 129, 416, 160
-0.99308, 325, 177, 356, 208
-0.993081, 357, 173, 388, 204
-0.993085, 217, 157, 248, 188
-0.993088, 265, 145, 296, 176
-0.993089, 157, 237, 188, 268
-0.993183, 89, 121, 104, 184
-0.993235, 49, 225, 80, 352
-0.993276, 409, 105, 424, 168
-0.993284, 37, 177, 68, 304
-0.993341, 425, 105, 440, 168
-0.993354, 129, 97, 256, 128
-0.993373, 463, 121, 478, 184
-0.993373, 73, 225, 104, 352
-0.993403, 177, 145, 304, 176
-0.993421, 417, 129, 432, 192
-0.993457, 157, 193, 188, 320
-0.993476, 381, 241, 412, 368
-0.993506, 1, 57, 128, 120
-0.993516, 97, 281, 352, 344
-0.993519, 81, 177, 112, 304
-0.993531, 1, 145, 128, 176
-0.993609, 469, 145, 484, 208
-0.993617, 129, 109, 256, 140
-0.993619, 461, 209, 492, 336
-0.993656, 201, 241, 264, 368
-0.993673, 153, 121, 168, 184
-0.993679, 237, 209, 268, 336
-0.993794, 73, 33, 136, 160
-0.993816, 1, 161, 500, 224
-0.993822, 161, 217, 416, 280
-0.993882, 145, 121, 160, 184
-0.993918, 33, 65, 288, 128
-0.993931, 139, 113, 154, 176
-0.994016, 369, 133, 496, 164
-0.994032, 413, 209, 444, 336
-0.994084, 135, 137, 150, 200
-0.994115, 321, 173, 448, 204
-0.994117, 369, 145, 496, 176
-0.994133, 95, 105, 110, 168
-0.994172, 95, 129, 110, 192
-0.994193, 225, 177, 480, 240
-0.994241, 81, 241, 208, 304
-0.994262, 191, 25, 206, 88
-0.994277, 369, 109, 496, 140
-0.994306, 369, 165, 496, 196
-0.994333, 9, 193, 40, 320
-0.994333, 193, 133, 320, 164
-0.994336, 1, 305, 256, 368
-0.994341, 81, 93, 208, 124
-0.994354, 113, 81, 240, 112
-0.994355, 225, 257, 480, 320
-0.99436, 409, 153, 424, 216
-0.994371, 403, 137, 418, 200
-0.994382, 61, 225, 92, 352
-0.994384, 347, 161, 362, 224
-0.994396, 229, 97, 244, 160
-0.994426, 483, 153, 498, 216
-0.994427, 273, 65, 304, 192
-0.994431, 65, 225, 320, 288
-0.994434, 183, 17, 198, 80
-0.994439, 455, 129, 470, 192
-0.994459, 305, 257, 432, 320
-0.994499, 289, 185, 416, 216
-0.994527, 29, 145, 44, 208
-0.994527, 483, 105, 498, 168
-0.99453, 261, 129, 276, 192
-0.994531, 1, 81, 500, 144
-0.994534, 81, 137, 96, 200
-0.994567, 415, 105, 430, 168
-0.994572, 445, 105, 460, 168
-0.994612, 33, 101, 160, 132
-0.994613, 469, 121, 484, 184
-0.994615, 59, 121, 74, 184
-0.994624, 241, 161, 368, 192
-0.994648, 101, 137, 116, 200
-0.99465, 283, 129, 298, 192
-0.994661, 437, 105, 452, 168
-0.994666, 65, 129, 192, 160
-0.994673, 87, 97, 102, 160
-0.994683, 21, 209, 52, 336
-0.994706, 477, 161, 492, 224
-0.994712, 425, 137, 440, 200
-0.994722, 3, 145, 18, 208
-0.994749, 163, 153, 178, 216
-0.99477, 135, 89, 150, 152
-0.994795, 255, 129, 270, 192
-0.994807, 81, 105, 96, 168
-0.994815, 1, 185, 500, 248
-0.994828, 145, 157, 272, 188
-0.99483, 463, 145, 478, 208
-0.994837, 415, 153, 430, 216
-0.994851, 455, 105, 470, 168
-0.994877, 53, 129, 68, 192
-0.994877, 73, 33, 104, 160
-0.994881, 235, 97, 250, 160
-0.994909, 65, 113, 80, 176
-0.99495, 369, 121, 496, 152
-0.994952, 335, 153, 350, 216
-0.994953, 107, 145, 122, 208
-0.994964, 321, 161, 448, 192
-0.99497, 129, 121, 256, 152
-0.994983, 241, 149, 368, 180
-0.995014, 159, 105, 174, 168
-0.995032, 235, 137, 250, 200
-0.995039, 19, 153, 34, 216
-0.995047, 1, 161, 128, 192
-0.995051, 365, 113, 396, 240
-0.995079, 411, 129, 426, 192
-0.995105, 49, 153, 64, 216
-0.995113, 341, 153, 356, 216
-0.995114, 49, 153, 176, 184
-0.995121, 271, 129, 286, 192
-0.995147, 313, 33, 376, 288
-0.995153, 117, 145, 132, 208
-0.995192, 431, 105, 446, 168
-0.995192, 39, 129, 54, 192
-0.995217, 69, 145, 84, 208
-0.995233, 91, 153, 106, 216
-0.995243, 305, 141, 432, 172
-0.995264, 403, 169, 418, 232
-0.995266, 289, 129, 304, 192
-0.995269, 389, 169, 404, 232
-0.995275, 225, 209, 256, 336
-0.995279, 1, 289, 500, 352
-0.995288, 113, 137, 240, 168
-0.995318, 189, 81, 220, 208
-0.995319, 183, 89, 198, 152
-0.995321, 125, 113, 140, 176
-0.995323, 1, 133, 128, 164
-0.995329, 243, 153, 258, 216
-0.995368, 97, 157, 224, 188
-0.995371, 49, 117, 176, 148
-0.995374, 1, 193, 256, 256
-0.995388, 27, 121, 42, 184
-0.995401, 461, 97, 476, 160
-0.995401, 9, 161, 24, 224
-0.995403, 5, 49, 36, 176
-0.995409, 395, 169, 410, 232
-0.995415, 145, 185, 160, 248
-0.995449, 381, 169, 396, 232
-0.99546, 223, 81, 238, 144
-0.995465, 485, 129, 500, 192
-0.995466, 357, 185, 372, 248
-0.995472, 161, 85, 288, 116
-0.995479, 129, 73, 384, 136
-0.995501, 165, 105, 180, 168
-0.99551, 371, 177, 386, 240
-0.995512, 225, 81, 480, 144
-0.995516, 39, 169, 54, 232
-0.995537, 117, 121, 132, 184
-0.995538, 363, 177, 378, 240
-0.995562, 241, 121, 256, 184
-0.995583, 161, 193, 288, 224
-0.995586, 3, 169, 18, 232
-0.99559, 431, 137, 446, 200
-0.995604, 49, 293, 176, 324
-0.995621, 257, 173, 384, 204
-0.995622, 173, 105, 188, 168
-0.99565, 153, 185, 168, 248
-0.995663, 191, 49, 206, 112
-0.995675, 181, 41, 196, 104
-0.995678, 129, 137, 144, 200
-0.99568, 23, 97, 38, 160
-0.995691, 455, 161, 470, 224
-0.995716, 397, 129, 412, 192
-0.995719, 467, 97, 482, 160
-0.995722, 37, 225, 68, 352
-0.995729, 81, 189, 208, 220
-0.995735, 295, 153, 310, 216
-0.995748, 321, 145, 336, 208
-0.995758, 59, 145, 74, 208
-0.995764, 17, 129, 32, 192
-0.995765, 475, 105, 490, 168
-0.995767, 329, 145, 344, 208
-0.995774, 249, 129, 264, 192
-0.995775, 1, 257, 500, 320
-0.995794, 313, 145, 328, 208
-0.995807, 45, 33, 76, 160
-0.995808, 193, 121, 320, 152
-0.99581, 5, 121, 20, 184
-0.995822, 249, 65, 280, 192
-0.995827, 143, 145, 158, 208
-0.995844, 229, 121, 244, 184
-0.995846, 467, 169, 482, 232
-0.995848, 303, 153, 318, 216
-0.995865, 97, 305, 352, 368
-0.995871, 157, 153, 172, 216
-0.995883, 403, 113, 418, 176
-0.995892, 257, 221, 384, 252
-0.9959, 189, 33, 220, 288
-0.995903, 11, 137, 26, 200
-0.995933, 159, 185, 174, 248
-0.995943, 75, 137, 90, 200
-0.995974, 203, 49, 218, 112
-0.995983, 101, 105, 116, 168
-0.995989, 257, 209, 500, 272
-0.995999, 93, 177, 124, 304
-0.996011, 151, 97, 166, 160
-0.996016, 153, 97, 184, 352
-0.996035, 1, 169, 256, 232
-0.996068, 333, 129, 364, 375
-0.996084, 213, 49, 228, 112
-0.996092, 437, 137, 452, 200
-0.996109, 321, 81, 448, 144
-0.996112, 79, 81, 94, 144
-0.996128, 251, 153, 266, 216
-0.996139, 193, 305, 448, 368
-0.996148, 127, 161, 142, 224
-0.996152, 333, 97, 364, 224
-0.996164, 73, 113, 88, 176
-0.996175, 211, 193, 226, 256
-0.996182, 129, 205, 256, 236
-0.996188, 273, 237, 400, 268
-0.996196, 369, 197, 496, 228
-0.996234, 141, 97, 172, 352
-0.99624, 201, 193, 216, 256
-0.996256, 1, 33, 128, 96
-0.996276, 305, 213, 432, 244
-0.996286, 269, 97, 300, 352
-0.996288, 241, 137, 368, 168
-0.996297, 97, 177, 224, 208
-0.996299, 277, 129, 292, 192
-0.996322, 149, 145, 164, 208
-0.996327, 47, 129, 62, 192
-0.99633, 369, 177, 496, 208
-0.99636, 193, 157, 320, 188
-0.996363, 97, 29, 224, 60
-0.996363, 97, 257, 352, 320
-0.996366, 437, 65, 468, 320
-0.996372, 111, 121, 126, 184
-0.996377, 219, 121, 234, 184
-0.996378, 293, 129, 324, 375
-0.996385, 225, 189, 352, 220
-0.996394, 189, 73, 204, 136
-0.996394, 183, 65, 198, 128
-0.996395, 81, 105, 208, 136
-0.996398, 177, 33, 208, 288
-0.996404, 257, 233, 500, 296
-0.996405, 409, 97, 440, 352
-0.996415, 123, 137, 138, 200
-0.996421, 225, 201, 352, 232
-0.996447, 93, 137, 108, 168
-0.996493, 73, 129, 104, 375
-0.996497, 309, 129, 340, 375
-0.996499, 221, 65, 252, 320
-0.996501, 165, 65, 196, 320
-0.996503, 161, 73, 288, 104
-0.996509, 97, 217, 224, 248
-0.996515, 145, 181, 272, 212
-0.996556, 177, 205, 304, 236
-0.996557, 1, 209, 500, 272
-0.996585, 1, 317, 128, 348
-0.996588, 453, 65, 484, 320
-0.996651, 89, 97, 120, 352
-0.996652, 225, 281, 480, 344
-0.996665, 241, 97, 272, 352
-0.996675, 177, 225, 304, 256
-0.996696, 425, 65, 456, 320
-0.996702, 201, 33, 232, 288
-0.996723, 1, 121, 128, 152
-0.996729, 101, 129, 132, 375
-0.996742, 147, 121, 162, 152
-0.996745, 49, 225, 176, 256
-0.996752, 281, 129, 312, 375
-0.99678, 161, 33, 288, 64
-0.996794, 49, 165, 176, 196
-0.996818, 5, 97, 36, 352
-0.996822, 45, 97, 76, 352
-0.996825, 253, 97, 284, 352
-0.996836, 345, 129, 376, 375
-0.996848, 143, 133, 158, 164
-0.99685, 177, 237, 304, 268
-0.996853, 407, 121, 422, 152
-0.99686, 1, 85, 128, 116
-0.996866, 143, 101, 158, 132
-0.996884, 149, 109, 164, 140
-0.996891, 369, 217, 496, 248
-0.996917, 407, 109, 422, 140
-0.996919, 81, 201, 208, 232
-0.996924, 225, 305, 352, 336
-0.996932, 145, 169, 272, 200
-0.996962, 321, 129, 352, 375
-0.99697, 417, 133, 432, 164
-0.996972, 305, 201, 432, 232
-0.99699, 113, 41, 240, 72
-0.99704, 113, 69, 240, 100
-0.997067, 113, 129, 144, 375
-0.997072, 1, 281, 256, 344
-0.997075, 1, 173, 128, 204
-0.997079, 129, 97, 160, 352
-0.997081, 209, 177, 336, 208
-0.997084, 389, 129, 420, 375
-0.997094, 1, 209, 128, 240
-0.997144, 461, 149, 476, 180
-0.997169, 105, 145, 120, 176
-0.997173, 417, 149, 432, 180
-0.997183, 449, 241, 480, 368
-0.997183, 163, 149, 178, 180
-0.997185, 479, 137, 494, 168
-0.997195, 401, 125, 416, 156
-0.997203, 89, 125, 104, 156
-0.997209, 469, 97, 500, 352
-0.997214, 321, 125, 448, 156
-0.997218, 409, 137, 424, 168
-0.997241, 141, 121, 156, 152
-0.997263, 467, 129, 482, 160
-0.997266, 149, 133, 164, 164
-0.997273, 347, 165, 362, 196
-0.997275, 137, 141, 152, 172
-0.997278, 17, 65, 48, 320
-0.997283, 49, 317, 176, 348
-0.99729, 241, 249, 368, 280
-0.997302, 1, 225, 128, 256
-0.997304, 97, 101, 112, 132
-0.997319, 429, 241, 460, 368
-0.997321, 99, 141, 114, 172
-0.997333, 17, 305, 144, 336
-0.997338, 113, 309, 240, 340
-0.997357, 133, 93, 148, 124
-0.997358, 473, 149, 488, 180
-0.997366, 377, 129, 408, 375
-0.997385, 161, 61, 288, 92
-0.997385, 27, 145, 42, 176
-0.997386, 473, 137, 488, 168
-0.997394, 97, 285, 224, 316
-0.997396, 455, 153, 470, 184
-0.997401, 407, 157, 422, 188
-0.997408, 61, 129, 92, 375
-0.997417, 481, 149, 496, 180
-0.997419, 183, 25, 198, 56
-0.997421, 81, 141, 96, 172
-0.997432, 209, 105, 336, 136
-0.997433, 17, 193, 144, 224
-0.997438, 49, 177, 176, 208
-0.997438, 423, 137, 438, 168
-0.997452, 471, 117, 486, 148
-0.997464, 49, 213, 176, 244
-0.997466, 261, 133, 276, 164
-0.997467, 305, 113, 432, 144
-0.997468, 459, 165, 474, 196
-0.997479, 339, 161, 354, 192
-0.99748, 237, 137, 252, 168
-0.997493, 401, 141, 416, 172
-0.997494, 361, 129, 392, 375
-0.997495, 483, 121, 498, 152
-0.997497, 467, 157, 482, 188
-0.997498, 1, 249, 256, 312
-0.997506, 273, 301, 400, 332
-0.997512, 337, 233, 464, 264
-0.997519, 245, 145, 260, 176
-0.997522, 193, 249, 320, 280
-0.997527, 219, 137, 234, 168
-0.997531, 485, 137, 500, 168
-0.997533, 271, 133, 286, 164
-0.997537, 55, 141, 70, 172
-0.997539, 455, 141, 470, 172
-0.997541, 349, 177, 364, 208
-0.997542, 417, 109, 432, 140
-0.997545, 1, 161, 16, 192
-0.997546, 483, 109, 498, 140
-0.997546, 105, 93, 120, 124
-0.997548, 251, 137, 266, 168
-0.997549, 461, 137, 476, 168
-0.997556, 15, 141, 30, 172
-0.997561, 97, 241, 224, 272
-0.997564, 21, 137, 36, 168
-0.997571, 49, 149, 64, 180
-0.997576, 155, 121, 170, 152
-0.997579, 425, 193, 456, 320
-0.997598, 161, 289, 288, 320
-0.997603, 145, 241, 176, 368
-0.997604, 389, 65, 420, 192
-0.997604, 93, 113, 108, 144
-0.997613, 165, 161, 180, 192
-0.997615, 131, 145, 146, 176
-0.997615, 257, 149, 272, 180
-0.997621, 161, 49, 288, 80
-0.997633, 65, 145, 80, 176
-0.997634, 33, 97, 64, 352
-0.997645, 209, 89, 336, 120
-0.997655, 113, 53, 240, 84
-0.997671, 89, 101, 104, 132
-0.997672, 183, 93, 198, 124
-0.997674, 35, 153, 50, 184
-0.997682, 399, 161, 414, 192
-0.997686, 413, 121, 428, 152
-0.997694, 453, 169, 468, 200
-0.997694, 189, 29, 204, 60
-0.997699, 123, 149, 138, 180
-0.997704, 237, 149, 252, 180
-0.997704, 17, 165, 32, 196
-0.997705, 357, 177, 372, 208
-0.997725, 1, 141, 16, 172
-0.997728, 467, 141, 482, 172
-0.997732, 145, 181, 160, 212
-0.997733, 231, 93, 246, 124
-0.997734, 437, 137, 452, 168
-0.997742, 477, 165, 492, 196
-0.997742, 387, 169, 402, 200
-0.997743, 157, 225, 172, 256
-0.997759, 201, 145, 216, 176
-0.997761, 117, 149, 132, 180
-0.99777, 9, 145, 24, 176
-0.997771, 409, 169, 424, 200
-0.997771, 477, 109, 492, 140
-0.997779, 161, 261, 288, 292
-0.997783, 231, 149, 246, 180
-0.997789, 467, 169, 482, 200
-0.997815, 137, 105, 152, 136
-0.997817, 449, 149, 464, 180
-0.997824, 23, 101, 38, 132
-0.997824, 25, 157, 40, 188
-0.99783, 33, 41, 288, 104
-0.997833, 129, 49, 384, 112
-0.997834, 237, 105, 252, 136
-0.997839, 59, 129, 74, 160
-0.997842, 1, 329, 128, 360
-0.997847, 173, 149, 188, 180
-0.997853, 461, 125, 476, 156
-0.997854, 1, 129, 16, 160
-0.997859, 393, 181, 408, 212
-0.997865, 321, 301, 448, 332
-0.997872, 289, 249, 416, 280
-0.997875, 245, 129, 260, 160
-0.997881, 149, 217, 164, 248
-0.997888, 283, 133, 298, 164
-0.997889, 399, 173, 414, 204
-0.997897, 65, 305, 192, 336
-0.997906, 11, 125, 26, 156
-0.997908, 423, 105, 438, 136
-0.99791, 161, 109, 176, 140
-0.997912, 191, 61, 206, 92
-0.997916, 459, 109, 474, 140
-0.997921, 273, 313, 400, 344
-0.997924, 83, 89, 98, 120
-0.997925, 5, 181, 20, 212
-0.997929, 161, 277, 288, 308
-0.997931, 163, 233, 178, 264
-0.997934, 339, 181, 354, 212
-0.997941, 135, 117, 150, 148
-0.997945, 293, 149, 308, 180
-0.997946, 55, 153, 70, 184
-0.997952, 145, 145, 160, 176
-0.997953, 429, 145, 444, 176
-0.997955, 211, 145, 226, 176
-0.997955, 251, 153, 266, 184
-0.997955, 449, 133, 464, 164
-0.997957, 333, 153, 348, 184
-0.997957, 35, 165, 50, 196
-0.997961, 465, 105, 480, 136
-0.997967, 97, 157, 112, 188
-0.997968, 311, 149, 326, 180
-0.99797, 277, 133, 292, 164
-0.997971, 91, 153, 106, 184
-0.997971, 421, 161, 436, 192
-0.997978, 423, 149, 438, 180
-0.997978, 11, 169, 26, 200
-0.99798, 129, 229, 256, 260
-0.997991, 69, 1, 100, 256
-0.99803, 369, 245, 496, 276
-0.998044, 97, 321, 224, 352
-0.998046, 161, 21, 288, 52
-0.998078, 209, 77, 336, 108
-0.998086, 177, 305, 304, 336
-0.998147, 337, 257, 464, 288
-0.998165, 337, 289, 464, 320
-0.998176, 65, 33, 192, 96
-0.998176, 149, 1, 180, 256
-0.998186, 241, 289, 368, 320
-0.998215, 1, 281, 128, 312
-0.998238, 205, 129, 236, 375
-0.998272, 225, 233, 352, 264
-0.998283, 241, 269, 368, 300
-0.998285, 93, 1, 124, 256
-0.998286, 369, 97, 496, 128
-0.998313, 57, 49, 88, 176
-0.998314, 353, 269, 480, 300
-0.998321, 49, 1, 80, 256
-0.998368, 1, 233, 500, 296
-0.998371, 101, 33, 132, 160
-0.998395, 113, 297, 240, 328
-0.998403, 113, 121, 176, 136
-0.99841, 397, 33, 428, 288
-0.998416, 97, 95, 160, 110
-0.998419, 433, 165, 496, 180
-0.99842, 177, 89, 240, 104
-0.998423, 309, 81, 340, 208
-0.998428, 57, 145, 120, 160
-0.99843, 409, 161, 472, 176
-0.99843, 433, 159, 496, 174
-0.998432, 49, 329, 176, 360
-0.998433, 13, 153, 44, 168
-0.998433, 129, 139, 160, 154
-0.998434, 417, 163, 448, 178
-0.998434, 189, 65, 220, 80
-0.998434, 9, 175, 40, 190
-0.998435, 429, 163, 460, 178
-0.998436, 409, 145, 472, 160
-0.998437, 381, 179, 412, 194
-0.998437, 289, 217, 320, 232
-0.998437, 173, 239, 204, 254
-0.998437, 49, 119, 80, 134
-0.998439, 189, 77, 220, 92
-0.998439, 281, 153, 344, 168
-0.998442, 149, 161, 180, 176
-0.998442, 317, 153, 348, 168
-0.998442, 149, 167, 180, 182
-0.998443, 301, 157, 332, 172
-0.998443, 37, 161, 68, 176
-0.998444, 241, 131, 272, 146
-0.998444, 69, 125, 100, 140
-0.998445, 461, 107, 492, 122
-0.998446, 229, 153, 260, 168
-0.998447, 429, 139, 460, 154
-0.998447, 341, 183, 372, 198
-0.998447, 401, 109, 464, 124
-0.998449, 205, 137, 236, 152
-0.99845, 369, 177, 432, 192
-0.998451, 289, 149, 320, 164
-0.998451, 125, 151, 156, 166
-0.998453, 305, 151, 336, 166
-0.998453, 129, 113, 192, 128
-0.998453, 241, 137, 304, 152
-0.998454, 225, 129, 256, 144
-0.998454, 353, 177, 384, 192
-0.998455, 265, 157, 296, 172
-0.998456, 65, 93, 128, 108
-0.998456, 1, 135, 32, 150
-0.998457, 393, 137, 456, 152
-0.998457, 249, 147, 312, 162
-0.998457, 29, 171, 60, 186
-0.998458, 389, 145, 420, 160
-0.998459, 177, 155, 208, 170
-0.998459, 29, 149, 60, 164
-0.99846, 449, 137, 480, 152
-0.99846, 417, 151, 448, 166
-0.998461, 465, 169, 496, 184
-0.998461, 249, 155, 312, 170
-0.998464, 17, 169, 48, 184
-0.998464, 217, 155, 248, 170
-0.998466, 225, 107, 256, 122
-0.998468, 453, 169, 484, 184
-0.998468, 253, 137, 284, 152
-0.998468, 1, 141, 32, 156
-0.998469, 277, 157, 308, 172
-0.998469, 469, 151, 500, 166
-0.998469, 425, 137, 488, 152
-0.99847, 201, 141, 264, 156
-0.998471, 225, 113, 256, 128
-0.998472, 133, 185, 164, 200
-0.998473, 209, 155, 272, 170
-0.998474, 461, 115, 492, 130
-0.998475, 205, 87, 236, 102
-0.998475, 425, 151, 488, 166
-0.998476, 397, 129, 428, 144
-0.998478, 257, 151, 288, 166
-0.99848, 25, 163, 56, 178
-0.99848, 153, 113, 184, 128
-0.99848, 5, 147, 36, 162
-0.998482, 385, 165, 448, 180
-0.998483, 189, 159, 220, 174
-0.998484, 105, 145, 168, 160
-0.998484, 145, 151, 176, 166
-0.998485, 225, 147, 288, 162
-0.998485, 1, 293, 128, 324
-0.998487, 425, 157, 456, 172
-0.998487, 57, 151, 88, 166
-0.998488, 73, 95, 104, 110
-0.998488, 325, 159, 356, 174
-0.998488, 421, 107, 452, 122
-0.998488, 69, 101, 100, 116
-0.998489, 165, 159, 196, 174
-0.99849, 1, 157, 32, 172
-0.998491, 37, 155, 68, 170
-0.998491, 197, 151, 228, 166
-0.998491, 469, 145, 500, 160
-0.998492, 353, 183, 384, 198
-0.998492, 121, 93, 152, 108
-0.998492, 85, 95, 116, 110
-0.998492, 9, 151, 72, 166
-0.998493, 93, 143, 124, 158
-0.998494, 465, 131, 496, 146
-0.998495, 9, 161, 72, 176
-0.998496, 217, 149, 248, 164
-0.998498, 341, 177, 372, 192
-0.998501, 449, 107, 480, 122
-0.998502, 465, 157, 496, 172
-0.998503, 369, 177, 400, 192
-0.998503, 329, 165, 360, 180
-0.998504, 217, 135, 280, 150
-0.998506, 377, 171, 440, 186
-0.998507, 177, 83, 240, 98
-0.998508, 337, 177, 400, 192
-0.998508, 81, 107, 112, 122
-0.99851, 257, 161, 320, 176
-0.998511, 85, 137, 116, 152
-0.998511, 129, 103, 192, 118
-0.998512, 227, 81, 242, 208
-0.998512, 393, 151, 456, 166
-0.998513, 145, 125, 176, 140
-0.998513, 409, 167, 472, 182
-0.998513, 441, 157, 472, 172
-0.998513, 121, 99, 152, 114
-0.998514, 81, 101, 112, 116
-0.998515, 81, 149, 144, 164
-0.998515, 397, 171, 428, 186
-0.998517, 9, 167, 72, 182
-0.998521, 169, 33, 232, 48
-0.998523, 33, 157, 96, 172
-0.998523, 105, 151, 168, 166
-0.998525, 81, 141, 144, 156
-0.998526, 141, 135, 172, 150
-0.998526, 337, 185, 400, 200
-0.998526, 137, 97, 200, 112
-0.998526, 429, 151, 460, 166
-0.998527, 433, 145, 496, 160
-0.998527, 269, 151, 300, 166
-0.998527, 9, 137, 72, 152
-0.998528, 425, 107, 488, 122
-0.998528, 217, 161, 280, 176
-0.998528, 417, 139, 448, 154
-0.998529, 289, 157, 320, 172
-0.998532, 185, 151, 248, 166
-0.998532, 121, 159, 184, 174
-0.998532, 449, 163, 480, 178
-0.998533, 141, 107, 172, 122
-0.998533, 177, 75, 240, 90
-0.998533, 97, 101, 160, 116
-0.998536, 281, 159, 344, 174
-0.998538, 49, 151, 112, 166
-0.998539, 101, 97, 132, 112
-0.998542, 361, 183, 424, 198
-0.998543, 161, 153, 192, 168
-0.998543, 105, 185, 168, 200
-0.998544, 105, 151, 136, 166
-0.998544, 385, 173, 416, 188
-0.998544, 377, 159, 440, 174
-0.998545, 137, 201, 200, 216
-0.998545, 177, 69, 240, 84
-0.998547, 217, 143, 248, 158
-0.998548, 33, 105, 96, 120
-0.998548, 177, 199, 240, 214
-0.998548, 245, 155, 276, 170
-0.998549, 1, 177, 64, 192
-0.998549, 433, 171, 496, 186
-0.99855, 41, 137, 104, 152
-0.99855, 393, 129, 456, 144
-0.998551, 9, 143, 72, 158
-0.998551, 305, 169, 368, 184
-0.998551, 177, 35, 208, 50
-0.998551, 57, 103, 120, 118
-0.998552, 405, 111, 436, 126
-0.998552, 129, 135, 192, 150
-0.998553, 345, 171, 408, 186
-0.998555, 177, 95, 240, 110
-0.998556, 73, 115, 136, 130
-0.998557, 169, 205, 232, 220
-0.998557, 153, 157, 216, 172
-0.998557, 33, 145, 96, 160
-0.998557, 441, 143, 472, 158
-0.998559, 469, 121, 500, 136
-0.99856, 441, 149, 472, 164
-0.998562, 13, 163, 44, 178
-0.998564, 221, 137, 252, 152
-0.998565, 137, 195, 200, 210
-0.998565, 433, 115, 496, 130
-0.998567, 105, 115, 168, 130
-0.998567, 25, 155, 56, 170
-0.998569, 369, 301, 496, 332
-0.998569, 155, 113, 170, 240
-0.998569, 141, 145, 172, 160
-0.99857, 273, 125, 400, 156
-0.99857, 433, 127, 496, 142
-0.998572, 209, 197, 272, 212
-0.998574, 169, 45, 232, 60
-0.998574, 305, 163, 368, 178
-0.998574, 81, 155, 144, 170
-0.998575, 193, 133, 256, 148
-0.998576, 145, 185, 208, 200
-0.998576, 161, 235, 224, 250
-0.998576, 9, 129, 72, 144
-0.998577, 455, 97, 470, 224
-0.998577, 241, 137, 272, 152
-0.998579, 69, 147, 100, 162
-0.998579, 273, 135, 304, 150
-0.998582, 461, 137, 492, 152
-0.998582, 393, 179, 456, 194
-0.998583, 421, 145, 452, 160
-0.998584, 145, 37, 208, 52
-0.998584, 137, 119, 168, 134
-0.998585, 385, 143, 448, 158
-0.998585, 153, 229, 216, 244
-0.998586, 89, 135, 152, 150
-0.998586, 281, 219, 344, 234
-0.998587, 393, 115, 456, 130
-0.998588, 417, 183, 480, 198
-0.99859, 393, 123, 456, 138
-0.998591, 145, 29, 208, 44
-0.998592, 125, 119, 156, 134
-0.998593, 313, 175, 376, 190
-0.998594, 129, 143, 192, 158
-0.998595, 393, 187, 456, 202
-0.998595, 125, 145, 156, 160
-0.998595, 233, 129, 296, 144
-0.998595, 313, 181, 376, 196
-0.998596, 369, 153, 432, 168
-0.998597, 201, 127, 264, 142
-0.998598, 137, 91, 200, 106
-0.998598, 405, 155, 436, 170
-0.998599, 305, 155, 368, 170
-0.998599, 409, 173, 472, 188
-0.998599, 281, 147, 344, 162
-0.9986, 9, 115, 72, 130
-0.998602, 145, 151, 208, 166
-0.998602, 177, 63, 240, 78
-0.998603, 81, 161, 144, 176
-0.998603, 33, 169, 96, 184
-0.998604, 169, 39, 232, 54
-0.998607, 129, 129, 192, 144
-0.998608, 113, 165, 176, 180
-0.998608, 81, 1, 112, 256
-0.998609, 89, 89, 152, 104
-0.998609, 177, 143, 240, 158
-0.99861, 113, 193, 176, 208
-0.99861, 185, 157, 248, 172
-0.99861, 345, 165, 408, 180
-0.99861, 121, 225, 184, 240
-0.998612, 41, 95, 104, 110
-0.998613, 153, 241, 216, 256
-0.998614, 97, 109, 160, 124
-0.998614, 137, 179, 200, 194
-0.998614, 33, 163, 96, 178
-0.998616, 49, 191, 112, 206
-0.998616, 461, 163, 492, 178
-0.998616, 33, 111, 96, 126
-0.998617, 105, 177, 168, 192
-0.998617, 1, 1, 32, 256
-0.998618, 193, 105, 256, 120
-0.998618, 233, 197, 296, 212
-0.998618, 93, 149, 124, 164
-0.998618, 453, 143, 484, 158
-0.998624, 143, 81, 158, 208
-0.998626, 393, 165, 424, 180
-0.998628, 405, 165, 436, 180
-0.998631, 237, 147, 268, 162
-0.998641, 81, 143, 112, 158
-0.998641, 109, 91, 140, 106
-0.99865, 401, 137, 432, 152
-0.998651, 405, 147, 436, 162
-0.998656, 217, 65, 232, 192
-0.998658, 49, 81, 176, 112
-0.99866, 167, 97, 182, 224
-0.998662, 117, 33, 148, 288
-0.998665, 457, 151, 488, 166
-0.998667, 453, 157, 484, 172
-0.998669, 443, 97, 458, 224
-0.998674, 341, 145, 356, 272
-0.998674, 177, 29, 208, 44
-0.998697, 137, 113, 168, 128
-0.998706, 411, 97, 426, 224
-0.998706, 29, 1, 60, 256
-0.99872, 161, 97, 176, 224
-0.998737, 449, 97, 464, 224
-0.998738, 429, 97, 444, 224
-0.998761, 105, 33, 136, 288
-0.998766, 347, 145, 362, 272
-0.998773, 93, 97, 108, 224
-0.998787, 191, 17, 206, 144
-0.998801, 97, 341, 224, 372
-0.998803, 239, 97, 254, 224
-0.998814, 97, 273, 224, 304
-0.998816, 463, 81, 478, 208
-0.998829, 29, 97, 44, 224
-0.998833, 49, 237, 176, 268
-0.998835, 473, 97, 488, 224
-0.998845, 409, 1, 440, 256
-0.99885, 417, 97, 432, 224
-0.99885, 185, 129, 216, 375
-0.998857, 161, 145, 176, 272
-0.998859, 335, 145, 350, 272
-0.99886, 423, 97, 438, 224
-0.998863, 47, 145, 62, 272
-0.998869, 437, 97, 452, 224
-0.998877, 311, 129, 326, 256
-0.998879, 149, 113, 164, 240
-0.99888, 17, 97, 32, 224
-0.998881, 1, 237, 128, 268
-0.998884, 485, 129, 500, 256
-0.998884, 3, 129, 18, 256
-0.998887, 465, 129, 480, 256
-0.998888, 241, 1, 272, 256
-0.99889, 281, 33, 312, 288
-0.998897, 353, 325, 480, 356
-0.998905, 289, 289, 416, 320
-0.998905, 301, 145, 316, 272
-0.998911, 11, 145, 26, 272
-0.998922, 209, 25, 336, 88
-0.998922, 321, 145, 336, 272
-0.998928, 107, 129, 122, 256
-0.998929, 279, 113, 294, 240
-0.99893, 249, 129, 264, 256
-0.998931, 305, 101, 432, 132
-0.998939, 479, 113, 494, 240
-0.998942, 233, 81, 248, 208
-0.998942, 287, 113, 302, 240
-0.998944, 297, 33, 328, 288
-0.998949, 85, 81, 100, 208
-0.99896, 255, 113, 270, 240
-0.99896, 329, 145, 344, 272
-0.998961, 143, 129, 158, 256
-0.998962, 33, 145, 48, 272
-0.998972, 181, 81, 196, 208
-0.998972, 261, 113, 276, 240
-0.998974, 363, 161, 378, 288
-0.998975, 405, 113, 420, 240
-0.998977, 21, 145, 36, 272
-0.998985, 355, 177, 370, 304
-0.998986, 39, 145, 54, 272
-0.998987, 379, 161, 394, 288
-0.998987, 113, 129, 128, 256
-0.998991, 81, 17, 208, 48
-0.998993, 393, 161, 408, 288
-0.998997, 137, 129, 152, 256
-0.999021, 371, 161, 386, 288
-0.999022, 85, 129, 100, 256
-0.999032, 267, 129, 282, 256
-0.999042, 385, 161, 400, 288
-0.99906, 273, 113, 288, 240
-0.999062, 101, 145, 116, 272
-0.999064, 23, 97, 38, 224
-0.999066, 41, 97, 56, 224
-0.999069, 53, 129, 68, 256
-0.99907, 65, 97, 80, 224
-0.999075, 321, 345, 448, 375
-0.999078, 129, 145, 144, 272
-0.99908, 137, 81, 152, 208
-0.99908, 27, 145, 42, 272
-0.999081, 217, 113, 232, 240
-0.999081, 75, 129, 90, 256
-0.999083, 207, 49, 222, 176
-0.999085, 369, 345, 496, 375
-0.999087, 113, 257, 240, 288
-0.999091, 131, 97, 146, 224
-0.999094, 201, 49, 216, 176
-0.999094, 337, 313, 464, 344
-0.999105, 119, 97, 134, 224
-0.999105, 295, 145, 310, 272
-0.999107, 155, 161, 170, 288
-0.999109, 243, 145, 258, 272
-0.999131, 11, 97, 26, 224
-0.99914, 91, 145, 106, 272
-0.999148, 99, 81, 114, 208
-0.999168, 267, 241, 282, 368
-0.999169, 485, 81, 500, 208
-0.999169, 399, 161, 414, 288
-0.999176, 455, 145, 470, 272
-0.999178, 181, 17, 196, 144
-0.999183, 173, 97, 188, 224
-0.999184, 119, 145, 134, 272
-0.999187, 133, 1, 164, 256
-0.999193, 59, 129, 74, 256
-0.999195, 475, 161, 490, 288
-0.999216, 207, 129, 222, 256
-0.999216, 79, 65, 94, 192
-0.999218, 229, 129, 244, 256
-0.999224, 33, 17, 288, 80
-0.999229, 71, 81, 86, 208
-0.999237, 35, 97, 50, 224
-0.999239, 399, 113, 414, 240
-0.999248, 47, 97, 62, 224
-0.999252, 255, 209, 270, 336
-0.999254, 405, 161, 420, 288
-0.999256, 175, 33, 190, 160
-0.999258, 155, 65, 170, 192
-0.999259, 1, 313, 500, 375
-0.999259, 321, 33, 352, 288
-0.999259, 125, 97, 140, 224
-0.999259, 237, 145, 252, 272
-0.999283, 189, 65, 204, 192
-0.999288, 287, 225, 302, 352
-0.999288, 149, 193, 164, 320
-0.9993, 205, 193, 220, 320
-0.999302, 277, 241, 292, 368
-0.999309, 201, 129, 216, 256
-0.999321, 195, 161, 210, 288
-0.999323, 223, 129, 238, 256
-0.999329, 415, 145, 430, 272
-0.999334, 129, 25, 384, 88
-0.999341, 261, 241, 276, 368
-0.999342, 469, 1, 500, 256
-0.999347, 67, 145, 82, 272
-0.999348, 353, 129, 368, 256
-0.999348, 167, 145, 182, 272
-0.999353, 423, 145, 438, 272
-0.99936, 269, 193, 284, 320
-0.99936, 213, 17, 228, 144
-0.999368, 3, 177, 18, 304
-0.999377, 465, 177, 480, 304
-0.999382, 455, 49, 470, 176
-0.999383, 285, 161, 300, 288
-0.999386, 449, 145, 464, 272
-0.999386, 245, 81, 260, 208
-0.999388, 277, 161, 292, 288
-0.99939, 429, 49, 444, 176
-0.999395, 197, 1, 212, 128
-0.999399, 217, 161, 232, 288
-0.999399, 351, 225, 366, 352
-0.999417, 261, 1, 292, 256
-0.999442, 49, 1, 176, 128
-0.999556, 309, 33, 340, 288
-0.999611, 369, 33, 400, 288
-0.999651, 465, 117, 480, 132
-0.999652, 239, 159, 254, 174
-0.999652, 379, 179, 394, 194
-0.999653, 485, 131, 500, 146
-0.999653, 359, 183, 374, 198
-0.999653, 483, 137, 498, 152
-0.999654, 467, 131, 482, 146
-0.999655, 333, 157, 348, 172
-0.999655, 27, 153, 42, 168
-0.999655, 87, 113, 102, 128
-0.999655, 371, 181, 386, 196
-0.999655, 293, 157, 308, 172
-0.999656, 465, 107, 480, 122
-0.999657, 137, 113, 152, 128
-0.999657, 1, 149, 16, 164
-0.999657, 165, 149, 180, 164
-0.999658, 245, 137, 260, 152
-0.999658, 455, 161, 470, 176
-0.999658, 391, 167, 406, 182
-0.999659, 429, 139, 444, 154
-0.999659, 89, 119, 104, 134
-0.999659, 153, 129, 168, 144
-0.999659, 157, 231, 172, 246
-0.999659, 63, 149, 78, 164
-0.99966, 433, 145, 448, 160
-0.999661, 475, 115, 490, 130
-0.999665, 349, 33, 380, 288
-0.999665, 471, 147, 486, 162
-0.999665, 287, 137, 302, 152
-0.999666, 239, 145, 254, 160
-0.999667, 427, 107, 442, 122
-0.999668, 213, 139, 228, 154
-0.999669, 403, 155, 418, 170
-0.999669, 481, 155, 496, 170
-0.999669, 469, 141, 484, 156
-0.999671, 131, 119, 146, 134
-0.999671, 163, 113, 178, 128
-0.999672, 457, 107, 472, 122
-0.999672, 407, 171, 422, 186
-0.999672, 267, 155, 282, 170
-0.999672, 455, 167, 470, 182
-0.999673, 255, 137, 270, 152
-0.999673, 163, 235, 178, 250
-0.999673, 47, 155, 62, 170
-0.999675, 105, 93, 120, 108
-0.999676, 477, 171, 492, 186
-0.999676, 147, 137, 162, 152
-0.999678, 93, 107, 108, 122
-0.999679, 185, 27, 200, 42
-0.99968, 475, 139, 490, 154
-0.999681, 123, 119, 138, 134
-0.999681, 401, 141, 416, 156
-0.999681, 409, 123, 424, 138
-0.999681, 425, 145, 440, 160
-0.999681, 477, 121, 492, 136
-0.999682, 23, 141, 38, 156
-0.999683, 277, 133, 292, 148
-0.999683, 467, 161, 482, 176
-0.999684, 227, 149, 242, 164
-0.999685, 185, 93, 200, 108
-0.999685, 449, 141, 464, 156
-0.999686, 131, 93, 146, 108
-0.999686, 437, 139, 452, 154
-0.999687, 137, 97, 152, 112
-0.999687, 143, 113, 158, 128
-0.999688, 313, 149, 328, 164
-0.999688, 91, 135, 106, 150
-0.999689, 157, 157, 172, 172
-0.999689, 399, 133, 414, 148
-0.99969, 391, 173, 406, 188
-0.99969, 137, 119, 152, 134
-0.999691, 239, 151, 254, 166
-0.999692, 27, 159, 42, 174
-0.999693, 119, 91, 134, 106
-0.999693, 409, 129, 424, 144
-0.999693, 447, 147, 462, 162
-0.999694, 251, 153, 266, 168
-0.999694, 53, 155, 68, 170
-0.999695, 465, 147, 480, 162
-0.999698, 1, 143, 16, 158
-0.999699, 143, 147, 158, 162
-0.9997, 401, 171, 416, 186
-0.9997, 461, 139, 476, 154
-0.9997, 125, 91, 140, 106
-0.999701, 349, 177, 364, 192
-0.999703, 37, 159, 52, 174
-0.999704, 33, 153, 48, 168
-0.999704, 113, 91, 128, 106
-0.999705, 477, 147, 492, 162
-0.999705, 261, 155, 276, 170
-0.999705, 341, 163, 356, 178
-0.999707, 167, 161, 182, 176
-0.999707, 453, 147, 468, 162
-0.999708, 407, 109, 422, 124
-0.999708, 465, 167, 480, 182
-0.999711, 385, 177, 400, 192
-0.999714, 155, 119, 170, 134
-0.999714, 233, 153, 248, 168
-0.999715, 107, 149, 122, 164
-0.999716, 219, 137, 234, 152
-0.999717, 97, 147, 112, 162
-0.999718, 483, 123, 498, 138
-0.999718, 423, 139, 438, 154
-0.999721, 95, 99, 110, 114
-0.999723, 153, 113, 168, 128
-0.999724, 143, 107, 158, 122
-0.999728, 133, 143, 148, 158
-0.999729, 449, 159, 464, 174
-0.999734, 473, 153, 488, 168
-0.999737, 81, 143, 96, 158
-0.999737, 411, 165, 426, 180
-0.99974, 147, 125, 162, 140
-0.999741, 257, 161, 272, 176
-0.999741, 149, 119, 164, 134
-0.999742, 397, 165, 412, 180
-0.999745, 409, 149, 424, 164
-0.999746, 337, 33, 368, 288
-0.999747, 463, 153, 478, 168
-0.99975, 475, 163, 490, 178
-0.999758, 411, 155, 426, 170
-0.999758, 93, 141, 108, 156
-0.99976, 415, 139, 430, 154
-0.99976, 409, 141, 424, 156
-0.999765, 419, 155, 434, 170
-0.999767, 461, 161, 476, 176
-0.99977, 163, 155, 178, 170
-0.999773, 417, 149, 432, 164
-0.999787, 455, 153, 470, 168
-0.999799, 145, 131, 160, 146
-0.999799, 419, 161, 434, 176
-0.999803, 405, 135, 420, 150
-0.999804, 141, 141, 156, 156
-0.999824, 385, 33, 416, 288
-1.0002, 273, 89, 400, 152
-1.00026, 33, 9, 160, 72
-1.00055, 97, 17, 160, 144
-1.00071, 1, 57, 500, 120
-1.00109, 129, 1, 384, 64
-1.00137, 225, 57, 352, 120
-1.00149, 225, 57, 480, 120
-1.00158, 353, 57, 480, 120
-1.00171, 1, 33, 500, 96
-1.00209, 257, 25, 500, 88
-1.00223, 257, 1, 500, 64
-1.0025, 1, 1, 500, 64
-1.00268, 281, 49, 344, 176
-1.00278, 209, 1, 336, 64
-1.0028, 337, 33, 464, 96
-1.00291, 273, 1, 400, 64
-1.00291, 321, 1, 448, 64
-1.00291, 369, 9, 496, 72
-1.00291, 289, 25, 416, 88
-1.00291, 273, 49, 400, 112
-1.00333, 225, 17, 352, 144
-1.00506, 353, 17, 480, 144
-1.00714, 313, 65, 376, 192
-1.00888, 369, 17, 432, 144
-1.012, 305, 1, 432, 128
-1.01298, 225, 1, 480, 128
-1.014, 393, 1, 456, 128
-1.01439, 305, 17, 368, 144
-1.01442, 233, 1, 296, 128
-1.01478, 337, 1, 400, 128
-1.01552, 265, 1, 328, 128
-1.01629, 417, 1, 480, 128
