1875
-0.276425, 1, 1, 500, 333
-0.328258, 1, 1, 500, 256
-0.334596, 193, 1, 448, 333
-0.440377, 225, 1, 480, 256
-0.455508, 97, 1, 352, 333
-0.537928, 1, 1, 256, 333
-0.584383, 129, 1, 384, 256
-0.681134, 33, 33, 288, 288
-0.809632, 225, 1, 352, 333
-0.820027, 241, 1, 368, 256
-0.825987, 289, 1, 416, 256
-0.83025, 321, 1, 448, 333
-0.852992, 337, 1, 464, 256
-0.853027, 273, 1, 400, 333
-0.854478, 1, 81, 500, 208
-0.859596, 1, 209, 500, 333
-0.865052, 65, 65, 192, 320
-0.86896, 193, 33, 320, 288
-0.869491, 1, 33, 500, 160
-0.870525, 177, 1, 304, 333
-0.872343, 17, 65, 144, 320
-0.877975, 1, 145, 500, 272
-0.881884, 113, 1, 240, 333
-0.883182, 145, 33, 272, 288
-0.888877, 369, 1, 496, 333
-0.890379, 49, 1, 176, 333
-0.898581, 1, 1, 128, 333
-0.900197, 225, 1, 480, 128
-0.911012, 129, 177, 384, 304
-0.911892, 193, 97, 448, 224
-0.913071, 257, 17, 384, 144
-0.913225, 33, 209, 288, 333
-0.915545, 193, 49, 448, 176
-0.91659, 297, 17, 360, 144
-0.919706, 265, 17, 328, 144
-0.920221, 1, 193, 128, 320
-0.920418, 65, 161, 192, 288
-0.921224, 1, 161, 256, 288
-0.92217, 289, 145, 416, 272
-0.923373, 305, 17, 432, 144
-0.923722, 97, 129, 352, 256
-0.924115, 321, 129, 384, 256
-0.926599, 65, 209, 192, 333
-0.927353, 337, 81, 400, 208
-0.928752, 289, 65, 416, 192
-0.929015, 225, 65, 352, 192
-0.929026, 257, 145, 500, 272
-0.929198, 321, 33, 384, 160
-0.929723, 297, 161, 360, 288
-0.929809, 97, 161, 160, 288
-0.931187, 337, 81, 464, 208
-0.931902, 73, 129, 136, 256
-0.932172, 49, 129, 112, 256
-0.933173, 297, 65, 360, 192
-0.933704, 369, 145, 496, 272
-0.933996, 297, 113, 360, 240
-0.934514, 233, 33, 296, 160
-0.935028, 49, 177, 112, 304
-0.93545, 25, 161, 88, 288
-0.936899, 225, 193, 480, 320
-0.936967, 17, 129, 144, 256
-0.937979, 193, 161, 256, 288
-0.93922, 1, 81, 256, 208
-0.939224, 225, 177, 352, 304
-0.93951, 113, 161, 240, 288
-0.939642, 161, 209, 224, 333
-0.939958, 209, 17, 336, 144
-0.94058, 289, 193, 416, 320
-0.941601, 377, 1, 440, 128
-0.941646, 25, 209, 88, 333
-0.942168, 145, 209, 272, 333
-0.94231, 89, 209, 152, 333
-0.943188, 129, 1, 384, 128
-0.943438, 281, 33, 344, 96
-0.943492, 97, 49, 352, 176
-0.943794, 297, 65, 360, 128
-0.944152, 257, 25, 320, 88
-0.945404, 345, 17, 408, 144
-0.945701, 233, 49, 296, 112
-0.945845, 121, 161, 184, 288
-0.946256, 97, 113, 224, 240
-0.946418, 273, 65, 336, 192
-0.946938, 377, 145, 440, 272
-0.947148, 329, 137, 392, 200
-0.947221, 369, 81, 432, 208
-0.947961, 89, 225, 152, 288
-0.948415, 225, 113, 352, 240
-0.948604, 321, 177, 384, 304
-0.948704, 1, 209, 64, 333
-0.949182, 273, 57, 336, 120
-0.949232, 321, 89, 384, 152
-0.949272, 329, 33, 392, 96
-0.949984, 129, 217, 192, 280
-0.950454, 113, 209, 176, 333
-0.950875, 161, 49, 288, 176
-0.951409, 329, 209, 392, 272
-0.952005, 233, 97, 296, 224
-0.952026, 273, 177, 336, 304
-0.95216, 105, 177, 168, 240
-0.952306, 321, 177, 384, 240
-0.952599, 25, 177, 88, 240
-0.952756, 201, 209, 264, 333
-0.953127, 321, 113, 384, 176
-0.953426, 161, 161, 224, 288
-0.953616, 73, 161, 136, 224
-0.953692, 129, 97, 192, 224
-0.954516, 345, 113, 408, 176
-0.954814, 161, 161, 288, 288
-0.955273, 297, 169, 360, 232
-0.955374, 217, 161, 280, 288
-0.955487, 353, 1, 480, 128
-0.95557, 321, 57, 384, 120
-0.956064, 89, 81, 152, 208
-0.956143, 65, 137, 128, 200
-0.956176, 289, 193, 352, 256
-0.956407, 345, 145, 408, 272
-0.956426, 33, 137, 96, 200
-0.956503, 49, 81, 176, 208
-0.956554, 329, 33, 392, 288
-0.957258, 401, 273, 464, 333
-0.957296, 137, 209, 200, 333
-0.957479, 177, 113, 304, 240
-0.957501, 297, 209, 360, 333
-0.957511, 1, 265, 64, 328
-0.957541, 345, 193, 408, 320
-0.958111, 265, 193, 328, 256
-0.958254, 369, 1, 432, 64
-0.958461, 305, 33, 368, 96
-0.958539, 249, 217, 312, 280
-0.959014, 65, 201, 128, 264
-0.959197, 153, 217, 216, 280
-0.959203, 97, 65, 224, 192
-0.959568, 185, 193, 248, 256
-0.959568, 225, 201, 288, 264
-0.959699, 233, 209, 296, 333
-0.959821, 265, 1, 328, 64
-0.959827, 393, 81, 456, 208
-0.960211, 49, 161, 112, 224
-0.960428, 377, 153, 440, 216
-0.96076, 1, 161, 64, 288
-0.960888, 49, 233, 112, 296
-0.960895, 65, 81, 128, 208
-0.961137, 297, 1, 360, 256
-0.961168, 289, 9, 352, 72
-0.961195, 369, 193, 432, 256
-0.961577, 289, 217, 352, 280
-0.96178, 201, 113, 264, 240
-0.961856, 33, 265, 96, 328
-0.962035, 353, 57, 416, 120
-0.96207, 273, 1, 336, 256
-0.96248, 377, 249, 440, 312
-0.962527, 297, 89, 360, 152
-0.962635, 185, 225, 248, 288
-0.962699, 33, 81, 96, 208
-0.96286, 305, 137, 368, 200
-0.963021, 329, 1, 392, 64
-0.963066, 241, 25, 368, 88
-0.963433, 353, 225, 416, 288
-0.96362, 1, 113, 64, 240
-0.96376, 41, 201, 104, 264
-0.963763, 105, 201, 168, 264
-0.963905, 309, 17, 340, 144
-0.96393, 297, 113, 360, 176
-0.963991, 169, 65, 232, 192
-0.964104, 377, 89, 440, 152
-0.964129, 317, 89, 348, 152
-0.964323, 129, 193, 192, 256
-0.964412, 201, 161, 264, 224
-0.964422, 201, 49, 264, 176
-0.96443, 353, 1, 416, 256
-0.964612, 233, 33, 296, 288
-0.964759, 113, 241, 176, 304
-0.964883, 353, 153, 416, 216
-0.965131, 1, 33, 256, 160
-0.965165, 309, 65, 340, 128
-0.965188, 369, 209, 432, 333
-0.96529, 369, 33, 432, 96
-0.965496, 289, 65, 416, 128
-0.96561, 329, 57, 360, 120
-0.96564, 161, 113, 224, 240
-0.965718, 257, 81, 320, 144
-0.965911, 317, 81, 348, 208
-0.965923, 17, 225, 80, 288
-0.965952, 97, 153, 160, 216
-0.966251, 325, 129, 356, 256
-0.9667, 193, 129, 256, 192
-0.966878, 65, 257, 192, 320
-0.966902, 261, 33, 292, 160
-0.966941, 57, 257, 120, 320
-0.967309, 345, 81, 408, 144
-0.967429, 25, 113, 88, 176
-0.967439, 1, 185, 64, 248
-0.96752, 333, 65, 364, 192
-0.967616, 281, 25, 312, 88
-0.967826, 281, 1, 312, 128
-0.967843, 321, 201, 352, 264
-0.967965, 137, 241, 200, 304
-0.968273, 321, 17, 352, 144
-0.968542, 225, 49, 352, 112
-0.968626, 49, 113, 112, 176
-0.968648, 273, 169, 400, 232
-0.9688, 297, 57, 328, 120
-0.968851, 329, 89, 360, 152
-0.968876, 153, 193, 216, 256
-0.96904, 273, 209, 400, 272
-0.969062, 309, 41, 340, 104
-0.96915, 65, 65, 128, 320
-0.969226, 25, 65, 88, 320
-0.969229, 89, 257, 152, 320
-0.969324, 241, 161, 304, 288
-0.969382, 65, 193, 96, 320
-0.969571, 305, 41, 432, 104
-0.969899, 313, 145, 344, 272
-0.970076, 297, 17, 328, 144
-0.970432, 257, 41, 288, 104
-0.970491, 233, 73, 296, 136
-0.970491, 233, 105, 296, 168
-0.970556, 121, 113, 184, 176
-0.970578, 433, 145, 496, 272
-0.97068, 233, 25, 296, 88
-0.970805, 333, 17, 364, 144
-0.970902, 341, 89, 372, 152
-0.970975, 97, 217, 224, 280
-0.971271, 297, 17, 328, 80
-0.971356, 377, 65, 440, 128
-0.971402, 245, 41, 276, 104
-0.971406, 161, 241, 224, 304
-0.971467, 9, 137, 72, 200
-0.97147, 249, 33, 280, 160
-0.971483, 77, 193, 108, 320
-0.971513, 289, 145, 416, 208
-0.971517, 93, 193, 124, 320
-0.971591, 345, 81, 376, 208
-0.971611, 73, 145, 104, 272
-0.971625, 177, 169, 240, 232
-0.971678, 209, 49, 272, 112
-0.971696, 377, 65, 440, 320
-0.971804, 1, 81, 128, 208
-0.971845, 321, 1, 448, 64
-0.971879, 17, 161, 144, 224
-0.972282, 329, 33, 360, 96
-0.972324, 57, 121, 88, 184
-0.97234, 129, 65, 192, 320
-0.972356, 273, 1, 400, 64
-0.972526, 225, 161, 256, 288
-0.972578, 17, 137, 144, 200
-0.972602, 121, 265, 184, 328
-0.972688, 89, 89, 152, 152
-0.97286, 177, 57, 304, 120
-0.972885, 325, 153, 356, 216
-0.972909, 113, 217, 144, 280
-0.972948, 17, 217, 144, 280
-0.972948, 285, 57, 316, 120
-0.97296, 49, 89, 112, 152
-0.972986, 145, 1, 272, 128
-0.972995, 113, 145, 144, 272
-0.973078, 345, 185, 408, 248
-0.973394, 209, 225, 272, 288
-0.973477, 369, 129, 432, 192
-0.973505, 329, 177, 360, 240
-0.973513, 89, 129, 152, 192
-0.973522, 337, 129, 368, 192
-0.97353, 381, 81, 412, 208
-0.973722, 201, 89, 264, 152
-0.973848, 305, 121, 432, 184
-0.973872, 417, 273, 448, 333
-0.973874, 345, 129, 376, 256
-0.973878, 273, 169, 336, 232
-0.974019, 265, 129, 328, 256
-0.974091, 73, 137, 104, 200
-0.974108, 305, 89, 432, 152
-0.974121, 353, 153, 480, 216
-0.974188, 129, 153, 192, 216
-0.97426, 241, 73, 368, 136
-0.974284, 53, 129, 84, 256
-0.974296, 149, 193, 180, 320
-0.974476, 365, 65, 396, 192
-0.974483, 53, 177, 84, 240
-0.974527, 309, 169, 340, 232
-0.974556, 225, 185, 352, 248
-0.9747, 225, 177, 288, 240
-0.974735, 401, 145, 464, 272
-0.974754, 269, 17, 300, 80
-0.974797, 309, 201, 340, 264
-0.974801, 353, 249, 416, 312
-0.974813, 257, 97, 384, 160
-0.974818, 309, 17, 340, 80
-0.97492, 133, 217, 164, 280
-0.974964, 105, 65, 168, 320
-0.974971, 65, 177, 192, 240
-0.975078, 1, 257, 128, 320
-0.975084, 113, 193, 240, 256
-0.975094, 77, 97, 108, 160
-0.975122, 393, 1, 456, 64
-0.975129, 325, 177, 356, 304
-0.97513, 125, 145, 156, 272
-0.975137, 381, 145, 412, 272
-0.975152, 385, 217, 448, 280
-0.97528, 85, 145, 116, 272
-0.975325, 165, 209, 196, 333
-0.975372, 1, 193, 128, 256
-0.975506, 77, 97, 108, 224
-0.975555, 113, 153, 240, 216
-0.975613, 153, 273, 216, 333
-0.975621, 305, 97, 336, 224
-0.97564, 145, 217, 272, 280
-0.975667, 301, 177, 332, 304
-0.975671, 221, 209, 252, 272
-0.975703, 101, 145, 132, 272
-0.975814, 141, 193, 172, 256
-0.975855, 205, 193, 236, 256
-0.975919, 205, 177, 236, 304
-0.976027, 153, 217, 184, 280
-0.976091, 189, 225, 220, 288
-0.976184, 33, 145, 64, 272
-0.976449, 41, 129, 72, 192
-0.976458, 217, 137, 248, 200
-0.976626, 365, 1, 396, 64
-0.976814, 73, 161, 104, 224
-0.976829, 105, 161, 136, 224
-0.976913, 401, 161, 464, 224
-0.976981, 29, 193, 60, 320
-0.977022, 45, 209, 76, 333
-0.977094, 377, 1, 408, 128
-0.977109, 193, 193, 224, 320
-0.977116, 53, 145, 84, 208
-0.977128, 377, 193, 408, 256
-0.977295, 41, 153, 72, 216
-0.97736, 397, 81, 428, 208
-0.977386, 177, 193, 304, 256
-0.977398, 345, 17, 376, 144
-0.977403, 381, 153, 412, 216
-0.97745, 257, 1, 320, 333
-0.977451, 233, 201, 264, 264
-0.977535, 357, 129, 388, 192
-0.977596, 361, 209, 392, 272
-0.97761, 353, 25, 384, 88
-0.977629, 321, 209, 448, 272
-0.977655, 65, 121, 192, 184
-0.977686, 357, 17, 388, 144
-0.977697, 325, 129, 356, 192
-0.97779, 89, 233, 120, 296
-0.97785, 233, 1, 296, 333
-0.977853, 85, 137, 116, 200
-0.977859, 225, 121, 352, 184
-0.97804, 281, 145, 344, 208
-0.978046, 285, 49, 316, 176
-0.978156, 353, 209, 480, 333
-0.978161, 137, 89, 200, 152
-0.978234, 377, 113, 408, 176
-0.97836, 29, 169, 60, 232
-0.978411, 365, 105, 396, 168
-0.978424, 49, 33, 176, 160
-0.978443, 193, 65, 256, 320
-0.97847, 377, 9, 408, 72
-0.978479, 337, 273, 464, 333
-0.978485, 125, 193, 156, 256
-0.978511, 269, 41, 300, 104
-0.978561, 365, 153, 396, 216
-0.978574, 241, 1, 304, 64
-0.97859, 101, 217, 132, 280
-0.978593, 1, 105, 64, 168
-0.978604, 201, 169, 232, 232
-0.978619, 121, 153, 152, 216
-0.978633, 1, 161, 64, 224
-0.978684, 397, 1, 428, 128
-0.978729, 65, 145, 192, 208
-0.978784, 357, 81, 388, 144
-0.978798, 321, 185, 448, 248
-0.97897, 97, 97, 128, 224
-0.978978, 165, 225, 196, 288
-0.979027, 425, 137, 488, 200
-0.979111, 193, 145, 320, 208
-0.979119, 265, 65, 296, 128
-0.979217, 89, 33, 152, 160
-0.979223, 337, 65, 464, 128
-0.979245, 129, 257, 160, 320
-0.979276, 153, 153, 216, 216
-0.979294, 341, 177, 372, 240
-0.979301, 305, 89, 336, 152
-0.979332, 177, 177, 208, 304
-0.979334, 29, 265, 60, 328
-0.979384, 153, 193, 184, 256
-0.97941, 429, 273, 460, 333
-0.979434, 353, 89, 480, 152
-0.979483, 337, 1, 400, 333
-0.97949, 309, 113, 340, 176
-0.979531, 265, 105, 328, 168
-0.979576, 273, 49, 304, 176
-0.979598, 285, 1, 316, 64
-0.979614, 105, 193, 136, 320
-0.979626, 149, 81, 180, 208
-0.979644, 377, 273, 440, 333
-0.979671, 129, 209, 160, 333
-0.979684, 313, 1, 376, 333
-0.979698, 213, 169, 244, 232
-0.97972, 205, 129, 236, 256
-0.979801, 45, 265, 76, 328
-0.979834, 313, 241, 376, 304
-0.979863, 137, 129, 168, 256
-0.979927, 401, 1, 432, 64
-0.979942, 225, 113, 256, 240
-0.979963, 305, 233, 432, 296
-0.97998, 225, 177, 256, 240
-0.980004, 85, 161, 116, 224
-0.980019, 357, 113, 388, 240
-0.980028, 237, 33, 268, 160
-0.980202, 261, 217, 292, 280
-0.980315, 325, 225, 356, 288
-0.980318, 29, 137, 60, 200
-0.980349, 69, 201, 100, 264
-0.980379, 137, 49, 200, 176
-0.980425, 145, 241, 272, 304
-0.980428, 325, 1, 356, 64
-0.980561, 297, 217, 328, 280
-0.980563, 209, 97, 336, 160
-0.980578, 313, 209, 344, 333
-0.980585, 353, 25, 480, 88
-0.980641, 89, 193, 120, 256
-0.980679, 1, 257, 32, 320
-0.980754, 401, 1, 464, 128
-0.98082, 117, 241, 148, 304
-0.980913, 33, 193, 64, 256
-0.980938, 417, 97, 480, 224
-0.980949, 169, 129, 232, 192
-0.980971, 217, 129, 280, 192
-0.980988, 377, 41, 408, 104
-0.980994, 225, 209, 352, 272
-0.980994, 161, 17, 224, 144
-0.98101, 297, 185, 328, 248
-0.981135, 161, 169, 288, 232
-0.981234, 177, 209, 208, 272
-0.981285, 361, 1, 424, 333
-0.98141, 289, 1, 352, 333
-0.981417, 401, 73, 464, 136
-0.981549, 113, 89, 176, 152
-0.981562, 281, 217, 312, 280
-0.981564, 233, 153, 296, 216
-0.981568, 389, 225, 420, 288
-0.981578, 401, 65, 432, 128
-0.981641, 381, 81, 412, 144
-0.981645, 13, 273, 44, 333
-0.981765, 373, 225, 404, 288
-0.981802, 289, 177, 320, 304
-0.981896, 145, 129, 208, 192
-0.981919, 149, 129, 180, 256
-0.981992, 341, 57, 372, 120
-0.981995, 249, 201, 280, 264
-0.98206, 353, 113, 480, 176
-0.982094, 237, 209, 268, 333
-0.982154, 193, 273, 256, 333
-0.982217, 389, 249, 420, 312
-0.982237, 145, 89, 272, 152
-0.982247, 253, 65, 284, 128
-0.982293, 361, 177, 392, 304
-0.98233, 113, 193, 144, 256
-0.982386, 277, 185, 308, 248
-0.982412, 133, 81, 164, 208
-0.982633, 433, 193, 496, 256
-0.982643, 53, 217, 84, 280
-0.982646, 385, 1, 448, 333
-0.982653, 145, 241, 176, 304
-0.982663, 61, 97, 92, 160
-0.982683, 425, 273, 488, 333
-0.982733, 65, 97, 192, 160
-0.982778, 1, 65, 64, 320
-0.982789, 241, 97, 272, 224
-0.982832, 337, 217, 368, 280
-0.982873, 93, 89, 124, 152
-0.982927, 17, 113, 144, 176
-0.982945, 221, 209, 252, 333
-0.982951, 425, 161, 488, 224
-0.982972, 313, 145, 344, 208
-0.98305, 313, 225, 344, 288
-0.983081, 377, 209, 408, 333
-0.983146, 13, 249, 44, 312
-0.983149, 409, 81, 440, 208
-0.983151, 65, 265, 96, 328
-0.98317, 185, 249, 248, 312
-0.983193, 281, 273, 344, 333
-0.983223, 341, 33, 372, 96
-0.983314, 189, 201, 220, 264
-0.983342, 201, 225, 232, 288
-0.9834, 405, 265, 436, 328
-0.983441, 341, 9, 372, 72
-0.983494, 209, 249, 272, 312
-0.98351, 233, 49, 264, 112
-0.983515, 193, 145, 224, 272
-0.983629, 177, 1, 304, 64
-0.983677, 393, 25, 456, 88
-0.983679, 97, 137, 128, 200
-0.983806, 393, 153, 424, 216
-0.983843, 113, 49, 176, 176
-0.983861, 65, 97, 96, 224
-0.983874, 101, 193, 132, 256
-0.983912, 257, 241, 320, 304
-0.983929, 369, 209, 496, 272
-0.98393, 117, 209, 148, 333
-0.983939, 337, 177, 368, 304
-0.983954, 113, 121, 240, 184
-0.984005, 401, 137, 464, 200
-0.984012, 161, 1, 224, 256
-0.984013, 401, 209, 464, 333
-0.984122, 165, 129, 196, 256
-0.984138, 225, 1, 352, 64
-0.984165, 289, 241, 352, 304
-0.984166, 57, 241, 88, 304
-0.984203, 145, 265, 272, 328
-0.984232, 97, 17, 224, 144
-0.984278, 25, 89, 88, 152
-0.984287, 165, 81, 196, 208
-0.984291, 161, 97, 224, 160
-0.984304, 77, 265, 108, 328
-0.984422, 409, 233, 472, 296
-0.984483, 1, 209, 32, 333
-0.984575, 369, 1, 496, 64
-0.984684, 337, 153, 368, 216
-0.984687, 57, 1, 120, 333
-0.984773, 69, 233, 100, 296
-0.984793, 17, 209, 48, 333
-0.984822, 241, 273, 304, 333
-0.984923, 397, 89, 428, 152
-0.984958, 261, 193, 292, 256
-0.98498, 161, 33, 288, 96
-0.985051, 1, 33, 128, 160
-0.98506, 113, 97, 144, 224
-0.98508, 149, 265, 180, 328
-0.985109, 353, 105, 384, 168
-0.985178, 89, 257, 120, 320
-0.985223, 353, 177, 384, 240
-0.98528, 233, 233, 264, 296
-0.985395, 209, 1, 272, 333
-0.985413, 353, 1, 384, 64
-0.985822, 401, 65, 464, 320
-0.985845, 225, 49, 256, 176
-0.985909, 369, 185, 496, 248
-0.986126, 177, 129, 208, 256
-0.986229, 49, 33, 112, 160
-0.986308, 169, 73, 232, 136
-0.986523, 401, 113, 464, 176
-0.986773, 1, 65, 64, 192
-0.986824, 409, 1, 440, 128
-0.98684, 233, 241, 296, 304
-0.987108, 237, 161, 268, 288
-0.987113, 329, 273, 392, 333
-0.987158, 393, 193, 456, 256
-0.987254, 33, 1, 96, 333
-0.987372, 81, 165, 144, 196
-0.987376, 97, 65, 160, 128
-0.987387, 353, 249, 480, 312
-0.987431, 177, 65, 208, 192
-0.987436, 161, 1, 224, 333
-0.987452, 273, 61, 336, 92
-0.9875, 241, 145, 368, 208
-0.987576, 469, 129, 500, 256
-0.987602, 241, 233, 368, 296
-0.987648, 393, 209, 424, 333
-0.987654, 337, 173, 400, 204
-0.987689, 193, 121, 448, 184
-0.987742, 233, 45, 296, 76
-0.987988, 129, 1, 192, 128
-0.988024, 17, 161, 48, 288
-0.988083, 1, 89, 128, 152
-0.988248, 65, 177, 128, 208
-0.988258, 185, 1, 248, 128
-0.988275, 161, 121, 288, 184
-0.988295, 369, 113, 400, 240
-0.988308, 329, 145, 392, 176
-0.988337, 369, 157, 432, 188
-0.988364, 297, 61, 360, 92
-0.988381, 289, 205, 352, 236
-0.988398, 249, 209, 312, 240
-0.988408, 329, 205, 392, 236
-0.988419, 297, 73, 360, 104
-0.988447, 305, 161, 368, 192
-0.988475, 41, 169, 104, 200
-0.988514, 185, 1, 248, 333
-0.988515, 297, 85, 360, 116
-0.988552, 129, 1, 192, 333
-0.988559, 153, 209, 216, 240
-0.988626, 257, 49, 320, 80
-0.988739, 41, 181, 104, 212
-0.988743, 329, 157, 392, 188
-0.988764, 189, 65, 220, 192
-0.98877, 225, 209, 288, 240
-0.98878, 281, 37, 344, 68
-0.988799, 233, 57, 296, 88
-0.988821, 321, 117, 384, 148
-0.988843, 1, 189, 64, 220
-0.988858, 377, 1, 440, 32
-0.988918, 113, 217, 176, 248
-0.988929, 193, 193, 256, 224
-0.988972, 321, 133, 384, 164
-0.989053, 97, 177, 160, 208
-0.989066, 437, 145, 468, 272
-0.98911, 89, 225, 152, 256
-0.989116, 273, 177, 304, 304
-0.989135, 329, 217, 392, 248
-0.989149, 65, 153, 320, 216
-0.98916, 49, 133, 112, 164
-0.98917, 453, 145, 484, 272
-0.989183, 161, 197, 224, 228
-0.989192, 289, 49, 352, 80
-0.989221, 321, 105, 384, 136
-0.989238, 249, 193, 280, 320
-0.989244, 49, 213, 112, 244
-0.98925, 17, 205, 80, 236
-0.989283, 1, 249, 500, 312
-0.989307, 97, 73, 224, 136
-0.989341, 393, 145, 424, 272
-0.989395, 49, 253, 112, 284
-0.989413, 265, 25, 328, 56
-0.98943, 225, 33, 480, 96
-0.989431, 345, 9, 408, 40
-0.98944, 369, 193, 432, 224
-0.989465, 305, 173, 368, 204
-0.989483, 113, 157, 176, 188
-0.989515, 409, 293, 472, 324
-0.989521, 297, 193, 360, 224
-0.989554, 329, 189, 392, 220
-0.989569, 329, 37, 392, 68
-0.989616, 65, 197, 128, 228
-0.989632, 113, 229, 176, 260
-0.989646, 201, 205, 264, 236
-0.989651, 57, 293, 120, 324
-0.989662, 89, 1, 152, 333
-0.989664, 273, 221, 336, 252
-0.989676, 193, 273, 320, 333
-0.98968, 321, 89, 384, 120
-0.989682, 97, 217, 352, 280
-0.989716, 273, 73, 336, 104
-0.989725, 241, 221, 304, 252
-0.989728, 345, 121, 408, 152
-0.989756, 137, 221, 200, 252
-0.989757, 241, 73, 304, 104
-0.989765, 25, 133, 88, 164
-0.989779, 25, 193, 88, 224
-0.989788, 289, 25, 352, 56
-0.989801, 241, 273, 368, 333
-0.98983, 369, 217, 432, 248
-0.989876, 193, 241, 320, 304
-0.989878, 297, 221, 360, 252
-0.989887, 201, 161, 264, 192
-0.989918, 421, 81, 452, 208
-0.989932, 53, 81, 84, 208
-0.989938, 337, 233, 400, 264
-0.989939, 49, 121, 112, 152
-0.989944, 193, 221, 256, 252
-0.989944, 65, 229, 128, 260
-0.989965, 261, 81, 292, 208
-0.989967, 1, 281, 64, 312
-0.989982, 17, 173, 80, 204
-0.989987, 393, 161, 456, 192
-0.989993, 257, 37, 320, 68
-0.99, 361, 249, 424, 280
-0.99003, 65, 149, 128, 180
-0.990044, 249, 197, 312, 228
-0.990047, 321, 61, 384, 92
-0.990072, 293, 129, 324, 256
-0.990091, 193, 145, 448, 208
-0.990096, 305, 37, 368, 68
-0.990105, 401, 281, 464, 312
-0.99012, 369, 13, 432, 44
-0.990144, 337, 77, 400, 108
-0.990147, 121, 177, 184, 208
-0.99018, 265, 97, 328, 128
-0.990209, 169, 229, 232, 260
-0.990245, 137, 197, 200, 228
-0.990259, 41, 157, 104, 188
-0.990266, 353, 137, 416, 168
-0.990274, 345, 109, 408, 140
-0.990277, 313, 17, 376, 48
-0.99028, 17, 269, 80, 300
-0.990286, 49, 241, 112, 272
-0.990288, 257, 1, 500, 64
-0.990292, 193, 169, 448, 232
-0.990297, 1, 293, 64, 324
-0.990298, 349, 193, 380, 320
-0.9903, 353, 33, 416, 64
-0.990322, 17, 109, 80, 140
-0.990351, 369, 169, 432, 200
-0.990365, 209, 57, 272, 88
-0.990393, 177, 209, 240, 240
-0.9904, 225, 197, 288, 228
-0.990409, 25, 121, 88, 152
-0.990421, 273, 5, 336, 36
-0.990421, 81, 241, 144, 272
-0.990427, 385, 269, 448, 300
-0.990435, 29, 81, 60, 208
-0.990452, 33, 289, 96, 320
-0.990541, 249, 301, 312, 332
-0.990546, 129, 249, 192, 280
-0.99056, 145, 157, 208, 188
-0.990562, 1, 209, 500, 272
-0.990581, 417, 161, 480, 192
-0.990593, 345, 57, 408, 88
-0.990618, 281, 173, 344, 204
-0.99062, 377, 89, 440, 120
-0.990629, 89, 213, 152, 244
-0.990682, 1, 129, 500, 192
-0.990692, 297, 113, 360, 144
-0.990711, 377, 301, 440, 332
-0.990734, 121, 113, 184, 144
-0.99076, 233, 85, 296, 116
-0.990794, 129, 193, 384, 256
-0.990796, 217, 225, 280, 256
-0.990808, 353, 97, 416, 128
-0.990812, 113, 205, 176, 236
-0.990843, 297, 5, 360, 36
-0.990845, 25, 217, 88, 248
-0.990858, 145, 233, 208, 264
-0.990861, 273, 189, 336, 220
-0.990864, 305, 145, 368, 176
-0.990864, 377, 69, 440, 100
-0.990866, 89, 253, 152, 284
-0.990871, 89, 189, 152, 220
-0.990896, 169, 157, 232, 188
-0.990906, 409, 1, 472, 333
-0.990923, 9, 253, 72, 284
-0.990934, 1, 177, 500, 240
-0.990938, 345, 21, 408, 52
-0.990945, 433, 301, 496, 332
-0.990966, 385, 257, 448, 288
-0.991, 193, 89, 448, 152
-0.991016, 49, 73, 176, 136
-0.991023, 1, 257, 256, 320
-0.991103, 225, 45, 352, 76
-0.991211, 1, 185, 256, 248
-0.991232, 249, 145, 280, 272
-0.991249, 33, 129, 288, 192
-0.991348, 1, 97, 500, 160
-0.991429, 181, 1, 212, 128
-0.991429, 425, 129, 456, 256
-0.991531, 213, 65, 244, 192
-0.991624, 1, 153, 500, 216
-0.991642, 77, 49, 108, 176
-0.991711, 193, 57, 448, 120
-0.991743, 289, 165, 416, 196
-0.99176, 317, 93, 348, 124
-0.99189, 433, 65, 496, 320
-0.991947, 1, 161, 32, 288
-0.991954, 309, 81, 340, 112
-0.991979, 85, 177, 116, 208
-0.991984, 225, 193, 480, 256
-0.991984, 17, 113, 48, 240
-0.992013, 273, 205, 400, 236
-0.992056, 81, 165, 112, 196
-0.992061, 257, 273, 500, 333
-0.992086, 1, 273, 500, 333
-0.992096, 37, 173, 68, 204
-0.992101, 69, 177, 100, 208
-0.992105, 321, 205, 352, 236
-0.992154, 253, 41, 284, 72
-0.992154, 309, 37, 340, 68
-0.992157, 325, 81, 356, 112
-0.992178, 281, 41, 312, 72
-0.992181, 193, 225, 448, 288
-0.992183, 241, 45, 272, 76
-0.992202, 309, 213, 340, 244
-0.992213, 97, 177, 128, 208
-0.992228, 285, 53, 316, 84
-0.992233, 233, 205, 264, 236
-0.992244, 105, 165, 136, 196
-0.992244, 333, 133, 364, 164
-0.992251, 297, 65, 328, 96
-0.992252, 317, 169, 348, 200
-0.992254, 333, 157, 364, 188
-0.992264, 293, 25, 324, 56
-0.992269, 297, 49, 328, 80
-0.992274, 201, 209, 232, 240
-0.99228, 297, 37, 328, 68
-0.992283, 309, 69, 340, 100
-0.992283, 17, 169, 144, 200
-0.99229, 33, 97, 288, 160
-0.992292, 393, 1, 424, 32
-0.992313, 97, 49, 128, 176
-0.992317, 53, 185, 84, 216
-0.992342, 381, 157, 412, 188
-0.992348, 189, 197, 220, 228
-0.992354, 345, 173, 376, 204
-0.992357, 365, 165, 396, 196
-0.992364, 93, 165, 124, 196
-0.992376, 253, 209, 284, 240
-0.992388, 173, 209, 204, 240
-0.992394, 297, 209, 328, 240
-0.992397, 277, 213, 308, 244
-0.992398, 337, 93, 368, 124
-0.992403, 221, 201, 252, 232
-0.992406, 265, 49, 296, 80
-0.99241, 53, 133, 84, 164
-0.99241, 117, 157, 148, 188
-0.992413, 377, 41, 408, 72
-0.992415, 137, 217, 168, 248
-0.99242, 157, 209, 188, 240
-0.992422, 325, 217, 356, 248
-0.992427, 117, 177, 148, 208
-0.992427, 313, 53, 344, 84
-0.992433, 69, 165, 100, 196
-0.992454, 29, 189, 60, 220
-0.992465, 217, 213, 248, 244
-0.992469, 353, 117, 384, 148
-0.992471, 105, 221, 136, 252
-0.992474, 241, 57, 272, 88
-0.992474, 73, 129, 104, 160
-0.99248, 381, 217, 412, 248
-0.992481, 361, 137, 392, 168
-0.992481, 161, 205, 288, 236
-0.992495, 253, 221, 284, 252
-0.992496, 93, 229, 124, 260
-0.992496, 149, 221, 180, 252
-0.992499, 329, 181, 360, 212
-0.992501, 265, 61, 296, 92
-0.992508, 329, 61, 360, 92
-0.992511, 345, 141, 376, 172
-0.992512, 213, 189, 244, 220
-0.992516, 41, 97, 72, 224
-0.992516, 345, 153, 376, 184
-0.992523, 1, 201, 32, 232
-0.992526, 177, 197, 208, 228
-0.992531, 201, 197, 232, 228
-0.992532, 405, 145, 436, 272
-0.992532, 357, 209, 388, 240
-0.992533, 277, 29, 308, 60
-0.992533, 401, 157, 432, 188
-0.992539, 437, 297, 468, 328
-0.992549, 317, 105, 348, 136
-0.992551, 1, 233, 256, 296
-0.992561, 285, 65, 316, 96
-0.992564, 321, 229, 352, 260
-0.992567, 257, 197, 288, 228
-0.992568, 305, 93, 336, 124
-0.992569, 61, 289, 92, 320
-0.99257, 165, 197, 196, 228
-0.99257, 129, 229, 160, 260
-0.992578, 73, 189, 104, 220
-0.99258, 329, 169, 360, 200
-0.992584, 37, 205, 68, 236
-0.992589, 357, 9, 388, 40
-0.992589, 377, 185, 408, 216
-0.992594, 189, 225, 220, 256
-0.992594, 357, 149, 388, 180
-0.992598, 377, 5, 408, 36
-0.9926, 337, 109, 368, 140
-0.992611, 241, 217, 272, 248
-0.992615, 329, 193, 360, 224
-0.992617, 77, 113, 108, 144
-0.992617, 377, 173, 408, 204
-0.992622, 413, 269, 444, 300
-0.992628, 389, 249, 420, 280
-0.992629, 73, 213, 104, 244
-0.99263, 317, 153, 348, 184
-0.992639, 309, 201, 340, 232
-0.99264, 357, 29, 388, 60
-0.992641, 53, 165, 84, 196
-0.992643, 429, 281, 460, 312
-0.992643, 117, 217, 148, 248
-0.992643, 37, 113, 68, 144
-0.992651, 365, 105, 396, 136
-0.992652, 133, 157, 164, 188
-0.992654, 329, 121, 360, 152
-0.992656, 41, 133, 72, 164
-0.992658, 417, 157, 448, 188
-0.992661, 253, 57, 284, 88
-0.992661, 337, 213, 368, 244
-0.992664, 445, 97, 476, 224
-0.992668, 65, 117, 96, 148
-0.992672, 89, 241, 120, 272
-0.992675, 245, 197, 276, 228
-0.992678, 41, 185, 72, 216
-0.992681, 373, 29, 404, 60
-0.992682, 305, 153, 432, 184
-0.992684, 305, 105, 336, 136
-0.992687, 197, 161, 228, 192
-0.992694, 53, 217, 84, 248
-0.992697, 85, 213, 116, 244
-0.992698, 153, 33, 184, 160
-0.9927, 405, 1, 436, 32
-0.992701, 17, 189, 48, 220
-0.992703, 185, 209, 216, 240
-0.992706, 281, 201, 312, 232
-0.992709, 209, 169, 240, 200
-0.992713, 61, 145, 92, 176
-0.992718, 217, 225, 248, 256
-0.992719, 265, 209, 296, 240
-0.992725, 53, 197, 84, 228
-0.992725, 205, 221, 236, 252
-0.992739, 1, 209, 256, 272
-0.992765, 225, 249, 480, 312
-0.992813, 169, 17, 200, 144
-0.992828, 201, 81, 232, 208
-0.992906, 97, 1, 224, 64
-0.992937, 1, 65, 500, 128
-0.99295, 261, 209, 292, 333
-0.992981, 65, 249, 192, 280
-0.992997, 97, 49, 224, 112
-0.993036, 1, 41, 500, 104
-0.993091, 241, 69, 368, 100
-0.993117, 421, 1, 452, 128
-0.993129, 241, 57, 368, 88
-0.993138, 65, 261, 192, 292
-0.99314, 311, 65, 326, 128
-0.993172, 289, 73, 416, 104
-0.993198, 307, 33, 322, 96
-0.993223, 17, 181, 144, 212
-0.993229, 65, 165, 192, 196
-0.993232, 113, 157, 240, 188
-0.993304, 331, 89, 346, 152
-0.993312, 353, 161, 480, 192
-0.993319, 65, 181, 192, 212
-0.993319, 65, 49, 96, 176
-0.993346, 25, 33, 88, 160
-0.993355, 225, 201, 352, 232
-0.993355, 289, 177, 416, 208
-0.993374, 329, 65, 344, 128
-0.993411, 209, 1, 272, 128
-0.99342, 257, 33, 384, 64
-0.993432, 305, 53, 432, 84
-0.993445, 97, 49, 352, 112
-0.993454, 289, 217, 416, 248
-0.993454, 275, 41, 290, 104
-0.993467, 1, 65, 128, 128
-0.993479, 97, 17, 352, 80
-0.993557, 289, 85, 416, 116
-0.993561, 81, 225, 208, 256
-0.993569, 257, 21, 384, 52
-0.993574, 65, 281, 192, 312
-0.99359, 337, 57, 352, 120
-0.993595, 265, 41, 280, 104
-0.993598, 329, 201, 344, 264
-0.993619, 257, 101, 384, 132
-0.993625, 1, 1, 64, 333
-0.993647, 319, 41, 334, 104
-0.993649, 341, 33, 356, 96
-0.993681, 65, 237, 192, 268
-0.993701, 289, 33, 304, 96
-0.993717, 413, 209, 444, 333
-0.993719, 97, 241, 352, 304
-0.993722, 335, 201, 350, 264
-0.993782, 319, 73, 334, 136
-0.993791, 255, 33, 270, 96
-0.993879, 343, 89, 358, 152
-0.993907, 429, 273, 444, 333
-0.993945, 333, 33, 348, 96
-0.993946, 113, 209, 240, 240
-0.99396, 1, 9, 500, 72
-0.993998, 289, 273, 416, 333
-0.99407, 305, 33, 432, 64
-0.994084, 127, 217, 142, 280
-0.99409, 97, 273, 352, 333
-0.994098, 119, 217, 134, 280
-0.994222, 281, 9, 296, 72
-0.994239, 97, 73, 352, 136
-0.994256, 17, 197, 144, 228
-0.994266, 69, 129, 84, 192
-0.99427, 273, 189, 400, 220
-0.994295, 337, 17, 464, 48
-0.994316, 337, 113, 352, 176
-0.994326, 63, 121, 78, 184
-0.994336, 1, 253, 128, 284
-0.994338, 111, 217, 126, 280
-0.994342, 97, 25, 224, 88
-0.994352, 301, 57, 316, 120
-0.994357, 33, 293, 160, 324
-0.994362, 119, 177, 134, 240
-0.994371, 301, 25, 316, 88
-0.994375, 247, 41, 262, 104
-0.994388, 51, 129, 66, 192
-0.994427, 331, 177, 346, 240
-0.994429, 177, 57, 304, 88
-0.994432, 1, 241, 128, 272
-0.994443, 383, 153, 398, 216
-0.994446, 17, 221, 144, 252
-0.994448, 283, 57, 298, 120
-0.99448, 129, 169, 256, 200
-0.994487, 337, 1, 464, 32
-0.994488, 79, 121, 94, 184
-0.994489, 323, 201, 338, 264
-0.994498, 129, 225, 256, 256
-0.994536, 305, 105, 432, 136
-0.994566, 241, 217, 368, 248
-0.994598, 113, 197, 240, 228
-0.9946, 1, 277, 128, 308
-0.994634, 333, 153, 348, 216
-0.994655, 121, 153, 136, 216
-0.994672, 341, 33, 372, 288
-0.994676, 289, 9, 416, 40
-0.994694, 331, 129, 346, 192
-0.994707, 161, 217, 176, 280
-0.994709, 1, 209, 128, 240
-0.994733, 115, 153, 130, 216
-0.994762, 33, 41, 160, 104
-0.994767, 305, 141, 432, 172
-0.994771, 33, 133, 160, 164
-0.994775, 299, 1, 314, 64
-0.994776, 93, 225, 108, 288
-0.994778, 153, 209, 168, 272
-0.99479, 281, 129, 312, 256
-0.994796, 177, 217, 304, 248
-0.994804, 309, 33, 340, 288
-0.994805, 5, 113, 36, 240
-0.994811, 17, 265, 144, 296
-0.994813, 325, 65, 356, 320
-0.994817, 327, 33, 342, 96
-0.99482, 225, 185, 240, 248
-0.994829, 321, 197, 448, 228
-0.994836, 77, 161, 92, 224
-0.994857, 363, 113, 378, 176
-0.994875, 195, 217, 210, 280
-0.994884, 217, 185, 232, 248
-0.994885, 209, 189, 336, 220
-0.994886, 65, 193, 192, 224
-0.994888, 339, 153, 354, 216
-0.994916, 141, 217, 156, 280
-0.99493, 417, 49, 480, 176
-0.994939, 349, 57, 364, 120
-0.99496, 361, 1, 392, 256
-0.994987, 45, 129, 60, 192
-0.994988, 225, 209, 240, 272
-0.994991, 305, 117, 432, 148
-0.995, 43, 169, 58, 232
-0.995019, 341, 185, 356, 248
-0.995055, 373, 201, 388, 264
-0.995097, 135, 193, 150, 256
-0.995098, 321, 97, 336, 160
-0.995104, 209, 81, 336, 112
-0.995107, 85, 137, 100, 200
-0.995113, 93, 89, 108, 152
-0.995115, 161, 93, 288, 124
-0.995118, 133, 225, 148, 288
-0.995133, 213, 161, 228, 224
-0.995139, 57, 121, 72, 184
-0.995149, 377, 1, 408, 256
-0.995164, 53, 153, 68, 216
-0.995164, 357, 105, 372, 168
-0.995181, 225, 113, 352, 144
-0.995194, 69, 177, 84, 240
-0.995209, 85, 97, 100, 160
-0.995222, 65, 121, 192, 152
-0.995224, 315, 1, 330, 64
-0.995234, 275, 17, 290, 80
-0.995238, 337, 69, 464, 100
-0.995239, 109, 153, 124, 216
-0.995248, 333, 9, 348, 72
-0.99525, 105, 225, 120, 288
-0.995252, 349, 89, 364, 152
-0.995256, 145, 193, 160, 256
-0.995264, 353, 221, 480, 252
-0.995265, 187, 225, 202, 288
-0.995285, 357, 81, 372, 144
-0.995287, 129, 193, 144, 256
-0.995306, 161, 193, 288, 224
-0.995325, 65, 213, 192, 244
-0.995325, 373, 153, 388, 216
-0.995328, 289, 9, 304, 72
-0.995329, 305, 209, 320, 272
-0.995334, 393, 113, 408, 176
-0.995338, 347, 33, 362, 96
-0.995367, 423, 273, 438, 333
-0.995389, 289, 233, 416, 264
-0.995395, 469, 81, 500, 208
-0.995395, 369, 301, 496, 332
-0.995404, 311, 169, 326, 232
-0.995407, 307, 9, 322, 72
-0.995412, 313, 33, 328, 96
-0.995415, 103, 153, 118, 216
-0.995433, 379, 1, 394, 64
-0.995441, 17, 145, 144, 176
-0.995447, 321, 169, 336, 232
-0.995447, 257, 145, 384, 176
-0.995448, 457, 97, 488, 224
-0.995458, 389, 153, 404, 216
-0.995461, 55, 185, 70, 248
-0.995465, 379, 89, 394, 152
-0.995469, 213, 217, 228, 280
-0.995477, 341, 209, 356, 272
-0.995499, 83, 161, 98, 224
-0.995506, 77, 97, 92, 160
-0.995514, 111, 193, 126, 256
-0.995522, 223, 153, 238, 216
-0.995524, 337, 209, 464, 240
-0.995532, 249, 201, 264, 264
-0.995534, 193, 161, 320, 192
-0.995545, 165, 193, 180, 256
-0.995559, 369, 1, 384, 64
-0.995559, 317, 193, 332, 256
-0.995562, 275, 73, 290, 136
-0.995569, 159, 193, 174, 256
-0.99557, 39, 129, 54, 192
-0.995579, 55, 273, 70, 333
-0.995592, 141, 273, 156, 333
-0.995606, 311, 217, 326, 280
-0.995612, 353, 281, 480, 312
-0.995614, 435, 273, 450, 333
-0.995619, 249, 1, 280, 256
-0.995642, 89, 161, 104, 224
-0.995651, 297, 217, 312, 280
-0.995663, 395, 225, 410, 288
-0.995675, 269, 65, 284, 128
-0.99568, 303, 185, 318, 248
-0.995687, 359, 1, 374, 64
-0.995687, 353, 185, 480, 216
-0.995688, 233, 193, 248, 256
-0.99569, 357, 137, 372, 200
-0.995692, 47, 265, 62, 328
-0.995694, 353, 33, 480, 64
-0.9957, 433, 81, 464, 208
-0.995702, 205, 193, 220, 256
-0.995703, 337, 173, 464, 204
-0.995706, 91, 137, 106, 200
-0.995708, 417, 65, 432, 128
-0.995731, 33, 1, 160, 64
-0.995739, 209, 33, 336, 64
-0.995747, 33, 137, 48, 200
-0.995751, 5, 265, 20, 328
-0.995753, 413, 1, 428, 64
-0.995758, 153, 185, 168, 248
-0.99576, 391, 89, 406, 152
-0.995765, 381, 113, 396, 176
-0.995772, 241, 201, 256, 264
-0.995775, 383, 177, 398, 240
-0.995794, 279, 217, 294, 280
-0.995812, 353, 149, 480, 180
-0.995828, 17, 121, 144, 152
-0.99585, 337, 89, 464, 120
-0.99586, 321, 253, 448, 284
-0.995932, 261, 1, 292, 256
-0.995954, 129, 245, 256, 276
-0.995966, 177, 69, 304, 100
-0.996004, 433, 1, 496, 333
-0.996009, 65, 153, 192, 184
-0.99605, 113, 181, 240, 212
-0.996057, 121, 49, 152, 176
-0.996062, 1, 157, 128, 188
-0.996071, 145, 301, 272, 332
-0.996082, 209, 93, 336, 124
-0.996091, 225, 133, 352, 164
-0.996091, 389, 65, 420, 320
-0.996107, 49, 65, 80, 320
-0.996113, 225, 173, 352, 204
-0.996154, 97, 301, 224, 332
-0.996156, 113, 261, 240, 292
-0.996244, 81, 65, 112, 320
-0.996262, 281, 1, 312, 256
-0.996262, 237, 33, 268, 288
-0.996269, 177, 9, 304, 40
-0.996319, 161, 41, 288, 72
-0.996326, 33, 65, 64, 320
-0.996335, 297, 1, 328, 256
-0.996342, 137, 65, 168, 320
-0.996346, 337, 269, 464, 300
-0.996372, 177, 177, 304, 208
-0.996451, 145, 125, 272, 156
-0.996486, 305, 129, 432, 160
-0.996533, 145, 145, 272, 176
-0.996538, 145, 273, 272, 304
-0.996594, 87, 177, 102, 208
-0.996598, 353, 105, 480, 136
-0.996697, 93, 65, 124, 320
-0.996745, 65, 65, 96, 320
-0.996758, 311, 77, 326, 108
-0.996798, 65, 101, 192, 132
-0.996799, 93, 169, 108, 200
-0.996823, 113, 93, 240, 124
-0.996831, 241, 229, 368, 260
-0.996842, 99, 177, 114, 208
-0.996847, 425, 209, 456, 333
-0.996911, 329, 93, 344, 124
-0.996913, 81, 177, 96, 208
-0.996924, 81, 133, 208, 164
-0.996974, 105, 177, 120, 208
-0.996993, 241, 157, 368, 188
-0.997003, 1, 65, 256, 128
-0.997008, 113, 289, 240, 320
-0.997016, 331, 205, 346, 236
-0.997023, 83, 165, 98, 196
-0.997031, 315, 37, 330, 68
-0.997037, 307, 45, 322, 76
-0.99704, 321, 73, 336, 104
-0.997052, 145, 105, 272, 136
-0.99708, 111, 181, 126, 212
-0.997095, 253, 41, 268, 72
-0.997097, 339, 217, 354, 248
-0.997108, 245, 45, 260, 76
-0.997119, 383, 157, 398, 188
-0.997139, 261, 161, 292, 288
-0.997148, 17, 105, 144, 136
-0.997151, 235, 205, 250, 236
-0.997161, 275, 49, 290, 80
-0.997162, 321, 301, 448, 332
-0.997164, 99, 165, 114, 196
-0.997165, 93, 181, 108, 212
-0.997167, 225, 65, 256, 320
-0.997181, 219, 193, 234, 224
-0.997182, 193, 21, 320, 52
-0.997193, 409, 65, 440, 320
-0.997195, 151, 217, 166, 248
-0.997201, 117, 177, 132, 208
-0.997201, 259, 41, 274, 72
-0.997204, 241, 5, 368, 36
-0.997216, 313, 89, 328, 120
-0.997238, 353, 45, 480, 76
-0.99724, 257, 209, 272, 240
-0.997247, 109, 165, 124, 196
-0.99726, 339, 153, 354, 184
-0.997261, 141, 213, 156, 244
-0.997262, 329, 81, 344, 112
-0.997263, 321, 93, 336, 124
-0.997269, 195, 197, 210, 228
-0.997282, 223, 213, 238, 244
-0.997316, 193, 17, 224, 144
-0.997317, 75, 173, 90, 204
-0.99733, 201, 197, 216, 228
-0.997347, 309, 57, 324, 88
-0.997352, 335, 129, 350, 160
-0.99737, 161, 81, 288, 112
-0.997371, 123, 157, 138, 188
-0.997377, 37, 177, 52, 208
-0.997381, 75, 133, 90, 164
-0.997386, 117, 165, 132, 196
-0.997409, 357, 121, 372, 152
-0.99742, 79, 197, 94, 228
-0.997421, 405, 1, 420, 32
-0.997423, 373, 209, 388, 240
-0.997426, 119, 217, 134, 248
-0.997431, 229, 209, 244, 240
-0.997438, 405, 157, 420, 188
-0.997444, 301, 209, 316, 240
-0.997458, 7, 197, 22, 228
-0.997461, 329, 61, 344, 92
-0.997465, 305, 33, 320, 64
-0.997468, 425, 209, 488, 333
-0.99747, 339, 169, 354, 200
-0.99747, 133, 33, 164, 160
-0.997481, 217, 205, 232, 236
-0.997483, 363, 137, 378, 168
-0.997489, 309, 217, 324, 248
-0.997497, 209, 161, 224, 192
-0.997503, 341, 89, 356, 120
-0.997507, 127, 181, 142, 212
-0.997507, 61, 133, 76, 164
-0.997519, 399, 1, 414, 32
-0.997521, 1, 33, 256, 96
-0.997526, 89, 213, 104, 244
-0.997535, 69, 133, 84, 164
-0.997537, 247, 205, 262, 236
-0.997537, 399, 157, 414, 188
-0.997543, 193, 149, 320, 180
-0.99755, 333, 189, 348, 220
-0.997551, 129, 165, 144, 196
-0.997553, 269, 205, 284, 236
-0.997559, 73, 185, 88, 216
-0.997561, 175, 209, 190, 240
-0.997563, 187, 201, 202, 232
-0.997573, 93, 229, 108, 260
-0.997578, 351, 129, 366, 160
-0.997581, 47, 169, 62, 200
-0.997582, 109, 221, 124, 252
-0.997583, 121, 65, 152, 320
-0.997595, 389, 173, 404, 204
-0.997603, 167, 197, 182, 228
-0.997603, 157, 201, 172, 232
-0.997606, 313, 25, 328, 56
-0.99761, 161, 213, 176, 244
-0.99761, 281, 213, 296, 244
-0.997612, 211, 209, 226, 240
-0.997613, 195, 209, 210, 240
-0.997619, 45, 197, 60, 228
-0.997623, 153, 65, 184, 320
-0.997623, 67, 285, 82, 316
-0.997628, 331, 153, 346, 184
-0.99763, 331, 105, 346, 136
-0.99764, 347, 173, 362, 204
-0.997652, 207, 197, 222, 228
-0.997653, 189, 65, 220, 320
-0.997659, 299, 21, 314, 52
-0.997662, 177, 229, 304, 260
-0.997665, 51, 133, 66, 164
-0.997666, 181, 209, 196, 240
-0.99767, 261, 57, 276, 88
-0.99767, 325, 209, 340, 240
-0.997672, 151, 229, 166, 260
-0.997676, 323, 169, 338, 200
-0.997678, 53, 205, 68, 236
-0.997679, 279, 61, 294, 92
-0.997681, 63, 121, 78, 152
-0.997683, 429, 273, 444, 304
-0.997683, 353, 57, 480, 88
-0.997689, 55, 185, 70, 216
-0.997689, 399, 173, 414, 204
-0.99769, 181, 197, 196, 228
-0.997694, 209, 301, 336, 332
-0.997696, 381, 169, 396, 200
-0.997697, 263, 205, 278, 236
-0.997698, 301, 61, 316, 92
-0.997703, 319, 201, 334, 232
-0.997704, 333, 177, 348, 208
-0.997707, 375, 165, 390, 196
-0.997709, 193, 225, 208, 256
-0.99771, 403, 253, 418, 284
-0.997711, 417, 157, 432, 188
-0.997717, 335, 73, 350, 104
-0.997717, 319, 61, 334, 92
-0.997718, 215, 169, 230, 200
-0.997724, 39, 189, 54, 220
-0.997728, 77, 121, 92, 152
-0.997728, 257, 197, 272, 228
-0.997733, 205, 209, 220, 240
-0.997738, 87, 129, 102, 160
-0.997741, 353, 137, 480, 168
-0.997742, 65, 89, 192, 120
-0.997743, 45, 17, 76, 144
-0.997745, 357, 141, 372, 172
-0.997749, 411, 157, 426, 188
-0.997753, 417, 265, 432, 296
-0.997757, 375, 221, 390, 252
-0.997757, 137, 157, 152, 188
-0.997761, 59, 293, 74, 324
-0.997762, 171, 225, 186, 256
-0.997763, 363, 117, 378, 148
-0.997772, 229, 189, 244, 220
-0.997836, 165, 65, 196, 320
-0.997909, 109, 65, 140, 320
-0.997995, 201, 33, 232, 288
-0.998005, 369, 233, 496, 264
-0.998021, 369, 249, 496, 280
-0.998083, 113, 77, 240, 108
-0.998115, 353, 117, 480, 148
-0.998119, 273, 301, 400, 332
-0.99817, 17, 93, 144, 124
-0.998226, 177, 241, 304, 272
-0.998244, 177, 1, 208, 256
-0.998257, 193, 273, 320, 304
-0.99826, 241, 285, 368, 316
-0.998272, 145, 25, 272, 56
-0.998294, 177, 285, 304, 316
-0.998308, 273, 63, 336, 78
-0.998316, 275, 33, 290, 160
-0.998331, 329, 81, 344, 208
-0.998358, 297, 63, 360, 78
-0.998372, 297, 71, 360, 86
-0.998376, 97, 167, 160, 182
-0.998378, 331, 129, 346, 256
-0.998381, 311, 17, 326, 144
-0.998384, 337, 171, 400, 186
-0.998388, 233, 59, 296, 74
-0.998391, 257, 57, 320, 72
-0.998392, 305, 171, 368, 186
-0.998394, 233, 47, 296, 62
-0.998397, 321, 115, 384, 130
-0.9984, 273, 213, 336, 228
-0.998401, 297, 211, 360, 226
-0.998402, 273, 69, 336, 84
-0.998402, 265, 41, 328, 56
-0.998404, 113, 219, 176, 234
-0.998406, 73, 183, 136, 198
-0.998407, 233, 53, 296, 68
-0.998418, 273, 219, 336, 234
-0.998424, 329, 155, 392, 170
-0.998427, 297, 85, 360, 100
-0.998428, 329, 211, 392, 226
-0.998428, 369, 221, 432, 236
-0.998428, 129, 61, 256, 92
-0.99843, 297, 77, 360, 92
-0.998431, 129, 225, 192, 240
-0.998431, 49, 133, 112, 148
-0.998437, 249, 219, 312, 234
-0.998443, 33, 295, 96, 310
-0.998443, 81, 175, 144, 190
-0.998444, 241, 241, 368, 272
-0.998445, 41, 181, 104, 196
-0.998447, 233, 209, 296, 224
-0.998447, 337, 179, 400, 194
-0.998448, 319, 1, 334, 128
-0.998448, 57, 175, 120, 190
-0.998449, 297, 91, 360, 106
-0.99845, 289, 39, 352, 54
-0.998451, 329, 205, 392, 220
-0.998456, 377, 3, 440, 18
-0.998456, 97, 225, 160, 240
-0.998458, 97, 9, 224, 40
-0.99846, 1, 205, 64, 220
-0.99846, 89, 231, 152, 246
-0.998461, 73, 167, 136, 182
-0.998461, 25, 207, 88, 222
-0.998465, 313, 109, 376, 124
-0.998467, 265, 35, 328, 50
-0.998468, 41, 189, 104, 204
-0.99847, 345, 9, 408, 24
-0.99847, 297, 177, 360, 192
-0.998471, 329, 161, 392, 176
-0.998472, 241, 71, 304, 86
-0.998473, 369, 157, 432, 172
-0.998474, 361, 171, 424, 186
-0.998474, 17, 181, 80, 196
-0.998475, 289, 57, 352, 72
-0.998475, 265, 49, 328, 64
-0.998476, 281, 29, 344, 44
-0.998477, 225, 217, 288, 232
-0.998478, 433, 167, 496, 182
-0.998479, 81, 161, 144, 176
-0.998479, 201, 205, 264, 220
-0.99848, 33, 173, 96, 188
-0.998481, 321, 137, 384, 152
-0.998482, 377, 191, 440, 206
-0.998483, 421, 65, 452, 320
-0.998484, 329, 219, 392, 234
-0.998486, 297, 219, 360, 234
-0.998486, 25, 137, 88, 152
-0.998488, 273, 75, 336, 90
-0.998489, 1, 65, 32, 192
-0.998489, 81, 237, 144, 252
-0.998492, 321, 71, 384, 86
-0.998493, 137, 213, 200, 228
-0.998493, 153, 221, 216, 236
-0.998496, 321, 145, 384, 160
-0.998497, 193, 225, 256, 240
-0.998499, 377, 9, 408, 24
-0.998499, 265, 55, 296, 70
-0.998499, 57, 245, 88, 260
-0.998499, 61, 175, 92, 190
-0.9985, 329, 173, 360, 188
-0.9985, 329, 105, 360, 120
-0.9985, 89, 245, 120, 260
-0.998501, 321, 121, 384, 136
-0.998501, 125, 179, 156, 194
-0.998501, 345, 185, 408, 200
-0.998502, 17, 215, 48, 230
-0.998502, 249, 317, 312, 332
-0.998502, 293, 29, 324, 44
-0.998502, 49, 253, 112, 268
-0.998502, 217, 225, 248, 240
-0.998502, 33, 107, 96, 122
-0.998502, 305, 205, 336, 220
-0.998502, 197, 167, 228, 182
-0.998503, 77, 95, 108, 110
-0.998503, 445, 167, 476, 182
-0.998503, 41, 175, 72, 190
-0.998504, 33, 207, 64, 222
-0.998504, 65, 191, 128, 206
-0.998504, 65, 135, 96, 150
-0.998504, 69, 253, 100, 268
-0.998505, 145, 211, 176, 226
-0.998505, 257, 217, 288, 232
-0.998505, 329, 35, 392, 50
-0.998505, 305, 105, 336, 120
-0.998506, 77, 129, 108, 144
-0.998506, 331, 17, 346, 144
-0.998507, 317, 163, 348, 178
-0.998508, 57, 219, 120, 234
-0.998508, 333, 135, 364, 150
-0.998509, 333, 161, 364, 176
-0.998509, 293, 211, 324, 226
-0.998509, 41, 167, 104, 182
-0.99851, 117, 167, 148, 182
-0.99851, 337, 187, 368, 202
-0.99851, 329, 225, 392, 240
-0.998511, 341, 129, 372, 144
-0.998511, 89, 173, 120, 188
-0.998511, 321, 221, 352, 236
-0.998511, 17, 187, 80, 202
-0.998511, 361, 253, 424, 268
-0.998511, 329, 97, 392, 112
-0.998512, 269, 61, 300, 76
-0.998512, 29, 191, 60, 206
-0.998512, 321, 93, 352, 108
-0.998512, 1, 209, 32, 224
-0.998513, 281, 203, 344, 218
-0.998513, 25, 273, 88, 288
-0.998514, 305, 81, 336, 96
-0.998514, 273, 15, 336, 30
-0.998515, 241, 51, 272, 66
-0.998515, 89, 235, 120, 250
-0.998515, 89, 219, 152, 234
-0.998515, 337, 65, 352, 192
-0.998516, 185, 227, 216, 242
-0.998517, 281, 23, 344, 38
-0.998517, 249, 225, 312, 240
-0.998517, 393, 221, 456, 236
-0.998517, 33, 215, 96, 230
-0.998517, 321, 131, 384, 146
-0.998517, 177, 203, 240, 218
-0.998518, 145, 219, 176, 234
-0.998518, 57, 295, 120, 310
-0.998518, 77, 167, 108, 182
-0.998518, 197, 221, 228, 236
-0.998518, 33, 201, 96, 216
-0.998518, 405, 189, 436, 204
-0.99852, 97, 165, 128, 180
-0.998521, 353, 33, 416, 48
-0.998521, 337, 15, 400, 30
-0.998521, 153, 227, 216, 242
-0.998522, 341, 109, 372, 124
-0.998522, 341, 11, 372, 26
-0.998523, 289, 47, 352, 62
-0.998523, 329, 103, 392, 118
-0.998523, 345, 179, 376, 194
-0.998523, 277, 39, 308, 54
-0.998524, 53, 203, 84, 218
-0.998524, 113, 231, 176, 246
-0.998524, 69, 189, 100, 204
-0.998525, 129, 231, 160, 246
-0.998525, 369, 9, 432, 24
-0.998525, 217, 199, 280, 214
-0.998526, 305, 99, 336, 114
-0.998526, 41, 301, 104, 316
-0.998526, 457, 167, 488, 182
-0.998527, 185, 191, 248, 206
-0.998528, 1, 301, 64, 316
-0.998528, 121, 249, 184, 264
-0.998528, 321, 65, 384, 80
-0.998528, 45, 181, 76, 196
-0.998528, 113, 183, 144, 198
-0.998528, 193, 167, 256, 182
-0.998528, 105, 179, 168, 194
-0.998529, 249, 65, 312, 80
-0.998529, 337, 219, 368, 234
-0.998529, 13, 207, 44, 222
-0.998529, 329, 181, 360, 196
-0.99853, 61, 181, 92, 196
-0.998531, 77, 175, 108, 190
-0.998532, 1, 203, 32, 218
-0.998532, 121, 173, 184, 188
-0.998532, 209, 317, 272, 332
-0.998532, 101, 183, 132, 198
-0.998533, 161, 215, 224, 230
-0.998533, 129, 313, 192, 328
-0.998534, 169, 167, 232, 182
-0.998534, 389, 3, 420, 18
-0.998534, 297, 97, 360, 112
-0.998534, 345, 243, 408, 258
-0.998534, 381, 155, 412, 170
-0.998535, 409, 301, 472, 316
-0.998535, 397, 221, 428, 236
-0.998536, 121, 167, 184, 182
-0.998536, 265, 71, 296, 86
-0.998538, 293, 41, 324, 56
-0.998538, 237, 213, 268, 228
-0.998539, 369, 227, 432, 242
-0.998539, 305, 165, 368, 180
-0.99854, 365, 35, 396, 50
-0.998541, 409, 295, 472, 310
-0.998542, 305, 155, 368, 170
-0.998542, 289, 225, 352, 240
-0.998542, 25, 139, 56, 154
-0.998543, 73, 225, 136, 240
-0.998543, 209, 211, 272, 226
-0.998543, 321, 79, 384, 94
-0.998544, 329, 129, 360, 144
-0.998545, 337, 99, 368, 114
-0.998545, 313, 55, 344, 70
-0.998546, 41, 263, 104, 278
-0.998546, 57, 129, 88, 144
-0.998547, 217, 207, 248, 222
-0.998548, 77, 243, 108, 258
-0.998549, 249, 59, 280, 74
-0.998549, 337, 129, 352, 256
-0.998549, 33, 181, 64, 196
-0.99855, 221, 191, 252, 206
-0.99855, 281, 45, 312, 60
-0.998551, 113, 161, 144, 176
-0.998552, 377, 185, 408, 200
-0.998554, 469, 167, 500, 182
-0.998558, 305, 73, 336, 88
-0.998558, 381, 221, 412, 236
-0.998558, 157, 223, 188, 238
-0.99856, 173, 221, 204, 236
-0.99856, 109, 221, 140, 236
-0.99856, 157, 213, 188, 228
-0.998562, 233, 219, 264, 234
-0.998564, 269, 33, 284, 160
-0.998564, 213, 197, 244, 212
-0.998565, 65, 295, 96, 310
-0.998565, 285, 67, 316, 82
-0.998566, 329, 167, 360, 182
-0.998566, 277, 217, 308, 232
-0.99857, 305, 213, 336, 228
-0.998571, 85, 183, 116, 198
-0.998572, 333, 155, 364, 170
-0.998576, 317, 79, 348, 94
-0.99858, 309, 171, 340, 186
-0.99858, 333, 91, 364, 106
-0.998581, 73, 181, 104, 196
-0.998582, 13, 65, 44, 320
-0.998583, 309, 39, 340, 54
-0.998583, 365, 7, 396, 22
-0.998584, 345, 173, 376, 188
-0.998585, 293, 47, 324, 62
-0.998586, 329, 63, 360, 78
-0.998586, 377, 171, 408, 186
-0.998587, 49, 297, 80, 312
-0.998587, 297, 61, 328, 76
-0.998589, 361, 171, 392, 186
-0.998591, 317, 61, 348, 76
-0.998591, 233, 205, 264, 220
-0.998593, 285, 55, 316, 70
-0.998597, 337, 17, 352, 144
-0.9986, 253, 43, 284, 58
-0.998601, 317, 69, 348, 84
-0.998604, 293, 35, 324, 50
-0.998607, 297, 67, 328, 82
-0.998607, 297, 55, 328, 70
-0.99861, 285, 61, 316, 76
-0.998611, 391, 81, 406, 208
-0.998613, 317, 105, 348, 120
-0.998614, 257, 209, 288, 224
-0.998626, 133, 219, 164, 234
-0.998629, 309, 219, 340, 234
-0.998631, 321, 209, 352, 224
-0.99864, 323, 49, 338, 176
-0.99864, 309, 87, 340, 102
-0.99864, 325, 85, 356, 100
-0.998641, 213, 65, 244, 320
-0.998679, 343, 81, 358, 208
-0.99868, 309, 93, 340, 108
-0.998684, 469, 33, 500, 288
-0.998685, 287, 1, 302, 128
-0.998686, 305, 1, 320, 128
-0.998704, 115, 145, 130, 272
-0.99871, 437, 65, 468, 320
-0.998719, 79, 193, 94, 320
-0.998722, 317, 99, 348, 114
-0.998731, 357, 65, 372, 192
-0.998732, 129, 145, 144, 272
-0.998741, 331, 177, 346, 304
-0.998748, 169, 193, 184, 320
-0.99875, 93, 193, 108, 320
-0.998757, 109, 145, 124, 272
-0.998759, 317, 161, 332, 288
-0.998762, 263, 33, 278, 160
-0.998773, 323, 161, 338, 288
-0.998787, 71, 129, 86, 256
-0.998792, 321, 97, 336, 224
-0.998793, 397, 81, 412, 208
-0.998794, 219, 177, 234, 304
-0.998796, 309, 161, 324, 288
-0.998796, 77, 145, 92, 272
-0.998801, 325, 1, 340, 128
-0.998819, 249, 33, 264, 160
-0.998831, 89, 145, 104, 272
-0.998834, 281, 1, 296, 128
-0.998835, 121, 145, 136, 272
-0.998841, 95, 145, 110, 272
-0.998843, 383, 145, 398, 272
-0.998846, 103, 177, 118, 304
-0.998847, 257, 17, 272, 144
-0.99886, 385, 81, 400, 208
-0.998865, 347, 17, 362, 144
-0.998873, 365, 1, 380, 128
-0.99888, 317, 49, 332, 176
-0.998894, 83, 129, 98, 256
-0.998912, 85, 193, 100, 320
-0.998916, 93, 97, 108, 224
-0.998921, 303, 177, 318, 304
-0.998925, 343, 145, 358, 272
-0.998929, 313, 97, 328, 224
-0.998932, 197, 177, 212, 304
-0.998935, 49, 209, 64, 333
-0.998937, 135, 145, 150, 272
-0.998938, 69, 193, 84, 320
-0.998939, 281, 49, 296, 176
-0.998949, 351, 81, 366, 208
-0.998956, 55, 177, 70, 304
-0.998964, 155, 193, 170, 320
-0.998966, 151, 81, 166, 208
-0.998968, 305, 49, 320, 176
-0.998981, 241, 161, 256, 288
-0.99899, 161, 145, 176, 272
-0.998993, 143, 177, 158, 304
-0.998995, 221, 129, 236, 256
-0.999, 363, 65, 378, 192
-0.999003, 243, 33, 258, 160
-0.999004, 357, 17, 372, 144
-0.999008, 401, 1, 416, 128
-0.999009, 299, 17, 314, 144
-0.999025, 213, 177, 228, 304
-0.999032, 205, 177, 220, 304
-0.999038, 191, 177, 206, 304
-0.99904, 137, 209, 152, 333
-0.999041, 161, 209, 176, 333
-0.99905, 49, 161, 64, 288
-0.999056, 77, 81, 92, 208
-0.999057, 145, 81, 160, 208
-0.999059, 177, 177, 192, 304
-0.99906, 403, 81, 418, 208
-0.999065, 361, 129, 376, 256
-0.99907, 337, 177, 352, 304
-0.999072, 149, 177, 164, 304
-0.999072, 225, 1, 256, 128
-0.999084, 389, 1, 404, 128
-0.999086, 145, 129, 160, 256
-0.999089, 293, 1, 308, 128
-0.99909, 395, 1, 410, 128
-0.999102, 247, 193, 262, 320
-0.999103, 229, 161, 244, 288
-0.999107, 383, 1, 398, 128
-0.999108, 171, 81, 186, 208
-0.999109, 151, 129, 166, 256
-0.999113, 373, 145, 388, 272
-0.999113, 55, 129, 70, 256
-0.999122, 99, 97, 114, 224
-0.999123, 115, 97, 130, 224
-0.999126, 1, 33, 32, 288
-0.999127, 419, 65, 434, 192
-0.999129, 109, 193, 124, 320
-0.999132, 121, 193, 136, 320
-0.999138, 27, 193, 42, 320
-0.999141, 43, 145, 58, 272
-0.999143, 379, 65, 394, 192
-0.999143, 241, 113, 256, 240
-0.999153, 233, 65, 248, 192
-0.999155, 377, 209, 392, 333
-0.999157, 411, 81, 426, 208
-0.999158, 61, 209, 76, 333
-0.999165, 139, 81, 154, 208
-0.99917, 353, 129, 368, 256
-0.999174, 65, 129, 80, 256
-0.999175, 37, 161, 52, 288
-0.999187, 235, 145, 250, 272
-0.999187, 131, 209, 146, 333
-0.999188, 185, 161, 200, 288
-0.999188, 43, 193, 58, 320
-0.999196, 159, 81, 174, 208
-0.999196, 297, 177, 312, 304
-0.999203, 5, 209, 20, 333
-0.999206, 325, 209, 340, 333
-0.999216, 307, 97, 322, 224
-0.999216, 407, 1, 422, 128
-0.999223, 115, 193, 130, 320
-0.999226, 371, 1, 386, 128
-0.999228, 309, 209, 324, 333
-0.999229, 169, 129, 184, 256
-0.999231, 179, 65, 194, 192
-0.999234, 209, 129, 224, 256
-0.999238, 11, 209, 26, 333
-0.999248, 237, 209, 252, 333
-0.999269, 369, 49, 384, 176
-0.999443, 449, 1, 480, 256
-0.9995, 1, 9, 256, 72
-0.999652, 95, 175, 110, 190
-0.999652, 91, 243, 106, 258
-0.999653, 239, 189, 254, 204
-0.999653, 81, 183, 96, 198
-0.999653, 89, 229, 104, 244
-0.999653, 305, 39, 320, 54
-0.999653, 37, 137, 52, 152
-0.999654, 129, 225, 144, 240
-0.999654, 367, 141, 382, 156
-0.999654, 57, 297, 72, 312
-0.999654, 91, 169, 106, 184
-0.999654, 389, 171, 404, 186
-0.999655, 195, 221, 210, 236
-0.999655, 377, 169, 392, 184
-0.999655, 93, 129, 108, 144
-0.999655, 307, 31, 322, 46
-0.999655, 59, 125, 74, 140
-0.999656, 45, 199, 60, 214
-0.999656, 121, 177, 136, 192
-0.999656, 1, 205, 16, 220
-0.999657, 397, 221, 412, 236
-0.999658, 115, 163, 130, 178
-0.999658, 279, 69, 294, 84
-0.999659, 125, 219, 140, 234
-0.999659, 227, 205, 242, 220
-0.999659, 211, 161, 226, 176
-0.999659, 95, 183, 110, 198
-0.999659, 85, 191, 100, 206
-0.999659, 37, 183, 52, 198
-0.99966, 131, 181, 146, 196
-0.99966, 237, 217, 252, 232
-0.99966, 421, 269, 436, 284
-0.99966, 109, 191, 124, 206
-0.99966, 193, 227, 208, 242
-0.999661, 283, 15, 298, 30
-0.999661, 347, 179, 362, 194
-0.999661, 461, 167, 476, 182
-0.999661, 61, 133, 76, 148
-0.999662, 75, 187, 90, 202
-0.999662, 161, 219, 176, 234
-0.999662, 417, 187, 432, 202
-0.999663, 95, 235, 110, 250
-0.999664, 113, 221, 128, 236
-0.999665, 315, 171, 330, 186
-0.999665, 191, 91, 206, 106
-0.999665, 365, 171, 380, 186
-0.999665, 467, 167, 482, 182
-0.999666, 101, 183, 116, 198
-0.999666, 231, 213, 246, 228
-0.999667, 67, 295, 82, 310
-0.999667, 349, 93, 364, 108
-0.999668, 383, 155, 398, 170
-0.999668, 313, 33, 328, 48
-0.999668, 15, 209, 30, 224
-0.99967, 329, 79, 344, 94
-0.99967, 155, 221, 170, 236
-0.99967, 353, 171, 368, 186
-0.999671, 107, 183, 122, 198
-0.999671, 309, 217, 324, 232
-0.999672, 155, 213, 170, 228
-0.999672, 373, 211, 388, 226
-0.999673, 7, 201, 22, 216
-0.999675, 307, 209, 322, 224
-0.999675, 219, 203, 234, 218
-0.999675, 389, 185, 404, 200
-0.999676, 133, 171, 148, 186
-0.999677, 333, 207, 348, 222
-0.999677, 255, 215, 270, 230
-0.999677, 121, 165, 136, 180
-0.999678, 319, 67, 334, 82
-0.999681, 329, 69, 344, 84
-0.999681, 393, 35, 408, 50
-0.999681, 177, 223, 192, 238
-0.999683, 233, 189, 248, 204
-0.999684, 79, 293, 94, 308
-0.999685, 135, 221, 150, 236
-0.999685, 333, 63, 348, 78
-0.999686, 305, 45, 320, 60
-0.999686, 119, 183, 134, 198
-0.999687, 345, 187, 360, 202
-0.999687, 359, 11, 374, 26
-0.999688, 299, 215, 314, 230
-0.999689, 121, 159, 136, 174
-0.999689, 87, 183, 102, 198
-0.999691, 339, 181, 354, 196
-0.999692, 109, 161, 124, 176
-0.999692, 321, 95, 336, 110
-0.999692, 339, 63, 354, 78
-0.999692, 31, 137, 46, 152
-0.999699, 379, 7, 394, 22
-0.9997, 151, 229, 166, 244
-0.9997, 165, 225, 180, 240
-0.9997, 333, 189, 348, 204
-0.999701, 257, 209, 272, 224
-0.999703, 227, 195, 242, 210
-0.999704, 281, 213, 296, 228
-0.999705, 329, 89, 344, 104
-0.999705, 161, 213, 176, 228
-0.999706, 79, 177, 94, 192
-0.999707, 383, 171, 398, 186
-0.999708, 335, 131, 350, 146
-0.999708, 311, 69, 326, 84
-0.999709, 51, 297, 66, 312
-0.999712, 217, 197, 232, 212
-0.999713, 383, 183, 398, 198
-0.999715, 307, 57, 322, 72
-0.999717, 211, 167, 226, 182
-0.999719, 345, 65, 360, 80
-0.99972, 89, 175, 104, 190
-0.99972, 483, 167, 498, 182
-0.999722, 307, 51, 322, 66
-0.999722, 167, 213, 182, 228
-0.999723, 313, 95, 328, 110
-0.999726, 329, 97, 344, 112
-0.999727, 321, 89, 336, 104
-0.999727, 311, 79, 326, 94
-0.999727, 321, 101, 336, 116
-0.999727, 309, 63, 324, 78
-0.999727, 337, 155, 352, 170
-0.999728, 233, 205, 248, 220
-0.999729, 339, 219, 354, 234
-0.999732, 223, 189, 238, 204
-0.999734, 243, 55, 258, 70
-0.999739, 319, 73, 334, 88
-0.99974, 473, 167, 488, 182
-0.99974, 143, 217, 158, 232
-0.999742, 321, 83, 336, 98
-0.999744, 113, 183, 128, 198
-0.99978, 311, 85, 326, 100
-0.999785, 313, 39, 328, 54
-0.999903, 109, 49, 140, 176
-1.00064, 437, 209, 468, 333
-1.00088, 433, 33, 464, 160
-1.00118, 13, 65, 44, 192
-1.00161, 205, 17, 236, 144
-1.00732, 425, 1, 488, 128
-1.00804, 1, 1, 64, 128
