1876
-0.341346, 1, 1, 500, 333
-0.390149, 129, 1, 384, 333
-0.520008, 1, 65, 500, 320
-0.54006, 1, 1, 256, 333
-0.571734, 225, 1, 480, 333
-0.620812, 129, 1, 384, 256
-0.693207, 33, 65, 288, 320
-0.814874, 225, 65, 480, 320
-0.860287, 177, 1, 304, 333
-0.863975, 193, 1, 320, 256
-0.86442, 113, 1, 240, 333
-0.866677, 241, 1, 368, 333
-0.889975, 65, 65, 192, 320
-0.891347, 289, 1, 416, 333
-0.891369, 1, 209, 500, 333
-0.892098, 1, 1, 128, 333
-0.896799, 241, 1, 368, 256
-0.899808, 65, 1, 192, 333
-0.905713, 145, 33, 272, 288
-0.910116, 1, 1, 128, 256
-0.917453, 1, 65, 500, 192
-0.925953, 353, 1, 480, 333
-0.926538, 161, 49, 416, 176
-0.930019, 1, 81, 256, 208
-0.930195, 1, 129, 500, 256
-0.931095, 305, 65, 432, 320
-0.935435, 33, 145, 288, 272
-0.94008, 129, 209, 384, 333
-0.94163, 81, 81, 208, 208
-0.943957, 33, 209, 288, 333
-0.946521, 353, 65, 480, 320
-0.947353, 129, 145, 384, 272
-0.948443, 89, 81, 152, 208
-0.950418, 65, 33, 320, 160
-0.950562, 1, 17, 500, 144
-0.951089, 257, 49, 384, 176
-0.951128, 89, 177, 152, 304
-0.952035, 137, 209, 200, 333
-0.952836, 65, 193, 192, 320
-0.953243, 225, 209, 480, 333
-0.955182, 129, 65, 256, 192
-0.955595, 193, 17, 320, 144
-0.956057, 305, 129, 368, 256
-0.956626, 313, 49, 376, 176
-0.957584, 33, 81, 160, 208
-0.957729, 233, 41, 296, 104
-0.957736, 97, 97, 352, 224
-0.958154, 113, 81, 176, 208
-0.958159, 113, 129, 240, 256
-0.958406, 97, 129, 160, 256
-0.958501, 89, 113, 152, 176
-0.959069, 281, 33, 344, 160
-0.959355, 353, 153, 416, 216
-0.959377, 273, 41, 336, 104
-0.959787, 113, 209, 240, 333
-0.960031, 81, 33, 208, 160
-0.960214, 329, 129, 392, 256
-0.960278, 137, 225, 200, 288
-0.96052, 321, 137, 384, 200
-0.960596, 1, 33, 128, 160
-0.960752, 257, 129, 500, 256
-0.960815, 185, 49, 248, 112
-0.961407, 233, 217, 296, 280
-0.961577, 65, 145, 192, 272
-0.961617, 89, 73, 152, 136
-0.961781, 177, 217, 240, 280
-0.961869, 297, 49, 360, 112
-0.961985, 257, 145, 384, 272
-0.962386, 161, 49, 224, 176
-0.963474, 113, 265, 176, 328
-0.963546, 249, 265, 312, 328
-0.963602, 313, 161, 376, 224
-0.963822, 345, 129, 408, 192
-0.964162, 137, 129, 200, 192
-0.964301, 209, 41, 272, 104
-0.964416, 105, 145, 168, 208
-0.964549, 193, 1, 448, 128
-0.964649, 305, 129, 432, 256
-0.964812, 257, 49, 500, 176
-0.965281, 113, 209, 176, 333
-0.965388, 305, 49, 432, 176
-0.965499, 193, 209, 320, 333
-0.966186, 17, 193, 144, 320
-0.966186, 217, 209, 280, 333
-0.966508, 337, 65, 400, 192
-0.967413, 121, 129, 184, 256
-0.967418, 81, 241, 144, 304
-0.967556, 177, 65, 304, 192
-0.96763, 89, 33, 152, 160
-0.967805, 137, 65, 200, 192
-0.967824, 169, 145, 232, 272
-0.967844, 113, 169, 176, 232
-0.967845, 65, 193, 128, 320
-0.968107, 305, 193, 432, 320
-0.968192, 185, 209, 248, 333
-0.968396, 209, 41, 336, 104
-0.968467, 281, 145, 344, 272
-0.968654, 241, 1, 368, 128
-0.968717, 185, 257, 248, 320
-0.968834, 257, 17, 320, 144
-0.96897, 129, 201, 192, 264
-0.969345, 153, 201, 216, 264
-0.969545, 281, 177, 344, 240
-0.969857, 225, 193, 288, 256
-0.96986, 129, 105, 192, 168
-0.969863, 81, 177, 144, 240
-0.969956, 65, 97, 128, 224
-0.969956, 321, 57, 384, 120
-0.970422, 241, 193, 368, 320
-0.970655, 161, 57, 224, 120
-0.970805, 241, 209, 304, 333
-0.971096, 409, 209, 472, 333
-0.971162, 185, 17, 248, 144
-0.971288, 129, 17, 256, 144
-0.971446, 145, 249, 208, 312
-0.972279, 281, 265, 344, 328
-0.972369, 65, 113, 192, 176
-0.972426, 217, 241, 280, 304
-0.972538, 369, 241, 432, 304
-0.972649, 257, 49, 384, 112
-0.972655, 233, 17, 296, 144
-0.972822, 161, 145, 288, 272
-0.972869, 105, 201, 168, 264
-0.973427, 81, 153, 144, 216
-0.97357, 369, 209, 496, 333
-0.973583, 169, 129, 232, 192
-0.973667, 333, 49, 364, 112
-0.973917, 353, 113, 416, 240
-0.974381, 161, 209, 224, 333
-0.974638, 1, 129, 128, 256
-0.974653, 57, 257, 120, 320
-0.97478, 365, 121, 396, 184
-0.974835, 97, 265, 224, 328
-0.974856, 129, 81, 192, 144
-0.974892, 41, 209, 104, 333
-0.974971, 225, 265, 288, 328
-0.975154, 257, 193, 320, 256
-0.975284, 209, 17, 272, 144
-0.975359, 201, 217, 264, 280
-0.975386, 113, 137, 240, 200
-0.975387, 177, 193, 240, 256
-0.975918, 297, 193, 360, 320
-0.975942, 409, 257, 472, 320
-0.975974, 265, 193, 328, 320
-0.976039, 65, 81, 192, 144
-0.976331, 129, 97, 160, 224
-0.976371, 201, 113, 264, 176
-0.976438, 289, 41, 320, 104
-0.97648, 161, 49, 288, 112
-0.976541, 229, 41, 260, 104
-0.976546, 369, 209, 432, 333
-0.976651, 257, 145, 320, 272
-0.976742, 249, 1, 312, 256
-0.976778, 129, 257, 160, 320
-0.976829, 101, 161, 132, 224
-0.976845, 305, 265, 368, 328
-0.976933, 201, 65, 264, 192
-0.977372, 185, 25, 248, 88
-0.977607, 313, 1, 376, 128
-0.977709, 121, 105, 152, 168
-0.977863, 321, 153, 448, 216
-0.977884, 133, 121, 164, 184
-0.977996, 189, 257, 220, 320
-0.978033, 113, 97, 240, 160
-0.978166, 273, 257, 304, 320
-0.978239, 57, 137, 120, 200
-0.97824, 337, 129, 368, 256
-0.97835, 313, 81, 376, 144
-0.978612, 321, 105, 384, 168
-0.978723, 225, 265, 352, 328
-0.978741, 81, 225, 208, 288
-0.978764, 289, 81, 352, 208
-0.978831, 345, 81, 376, 208
-0.978839, 245, 41, 276, 104
-0.978951, 265, 41, 296, 104
-0.97896, 145, 113, 208, 240
-0.979026, 177, 57, 208, 120
-0.979055, 177, 257, 304, 320
-0.979071, 113, 137, 144, 200
-0.979074, 385, 153, 448, 216
-0.979207, 257, 97, 384, 224
-0.979343, 217, 41, 248, 104
-0.979392, 257, 65, 320, 128
-0.979414, 177, 105, 240, 168
-0.979641, 321, 1, 448, 128
-0.979645, 133, 89, 164, 152
-0.979653, 193, 129, 256, 256
-0.979753, 317, 169, 348, 232
-0.979849, 161, 273, 224, 333
-0.979894, 349, 65, 380, 128
-0.979914, 249, 17, 312, 80
-0.97996, 353, 153, 384, 216
-0.979966, 57, 145, 120, 272
-0.980134, 89, 265, 152, 328
-0.980186, 109, 97, 140, 224
-0.980196, 409, 233, 472, 296
-0.980253, 1, 249, 128, 312
-0.980368, 353, 129, 384, 192
-0.980422, 177, 241, 208, 304
-0.980486, 149, 209, 180, 333
-0.980505, 201, 1, 264, 256
-0.980507, 289, 153, 352, 216
-0.980631, 49, 257, 176, 320
-0.980679, 1, 137, 128, 200
-0.980686, 257, 225, 320, 288
-0.980732, 65, 161, 192, 224
-0.980732, 241, 169, 368, 232
-0.980752, 217, 73, 280, 136
-0.980757, 209, 17, 272, 80
-0.980789, 137, 57, 200, 120
-0.980818, 177, 225, 304, 288
-0.980918, 241, 193, 368, 256
-0.980944, 113, 169, 144, 232
-0.981024, 225, 1, 288, 256
-0.981117, 49, 233, 112, 296
-0.981153, 281, 241, 344, 304
-0.981207, 121, 17, 184, 144
-0.981233, 145, 73, 272, 136
-0.981284, 361, 265, 424, 328
-0.981301, 145, 121, 176, 184
-0.981322, 301, 41, 332, 104
-0.981327, 277, 33, 308, 96
-0.98135, 1, 81, 128, 144
-0.981432, 261, 193, 292, 256
-0.981478, 137, 209, 168, 333
-0.981512, 433, 193, 496, 320
-0.981535, 97, 33, 160, 288
-0.981756, 297, 25, 360, 88
-0.981825, 177, 217, 208, 280
-0.981827, 261, 257, 292, 320
-0.981834, 321, 49, 352, 112
-0.981834, 65, 105, 128, 168
-0.981898, 177, 201, 304, 264
-0.981918, 125, 145, 156, 208
-0.981922, 353, 105, 416, 168
-0.981947, 209, 129, 336, 256
-0.981965, 193, 73, 320, 136
-0.982013, 153, 105, 216, 168
-0.982085, 129, 225, 256, 288
-0.982126, 301, 257, 332, 320
-0.982161, 65, 137, 192, 200
-0.982326, 49, 33, 112, 160
-0.982368, 193, 105, 320, 168
-0.982447, 353, 129, 480, 256
-0.982549, 365, 153, 396, 216
-0.982681, 153, 33, 216, 288
-0.982768, 109, 73, 140, 136
-0.982772, 125, 177, 156, 304
-0.98282, 81, 201, 208, 264
-0.98283, 313, 185, 376, 248
-0.982912, 245, 217, 276, 280
-0.982913, 261, 225, 292, 288
-0.982915, 205, 41, 236, 104
-0.982932, 93, 65, 124, 192
-0.982982, 225, 241, 256, 304
-0.983031, 285, 257, 316, 320
-0.983038, 193, 129, 224, 192
-0.983098, 337, 81, 400, 144
-0.983259, 201, 193, 264, 256
-0.983344, 273, 121, 400, 184
-0.983682, 337, 137, 368, 200
-0.983723, 329, 249, 392, 312
-0.98374, 329, 193, 392, 320
-0.983746, 225, 209, 256, 272
-0.983751, 317, 33, 348, 160
-0.983834, 177, 265, 208, 328
-0.983932, 117, 49, 148, 176
-0.983939, 113, 49, 240, 112
-0.984012, 329, 65, 392, 320
-0.984028, 369, 257, 496, 320
-0.984097, 145, 201, 176, 264
-0.984227, 225, 145, 288, 272
-0.984241, 377, 145, 440, 272
-0.98425, 369, 265, 400, 328
-0.984302, 401, 129, 464, 256
-0.984356, 349, 129, 380, 256
-0.984369, 137, 273, 200, 333
-0.984391, 129, 193, 256, 256
-0.984412, 321, 33, 384, 96
-0.984436, 377, 145, 408, 208
-0.98446, 189, 225, 220, 288
-0.98449, 89, 161, 120, 288
-0.984552, 193, 41, 224, 104
-0.984598, 1, 177, 64, 304
-0.984608, 313, 129, 344, 256
-0.984669, 257, 73, 384, 136
-0.984841, 257, 145, 384, 208
-0.984865, 117, 265, 148, 328
-0.984868, 337, 177, 400, 240
-0.98487, 57, 169, 120, 232
-0.984873, 273, 265, 400, 328
-0.984929, 121, 81, 152, 144
-0.984954, 353, 49, 480, 176
-0.985009, 137, 153, 200, 216
-0.98505, 433, 257, 496, 320
-0.985084, 113, 145, 144, 272
-0.985094, 321, 177, 448, 240
-0.985153, 1, 81, 32, 208
-0.985159, 209, 1, 272, 333
-0.985176, 305, 57, 432, 120
-0.985178, 357, 81, 388, 208
-0.985189, 145, 161, 208, 288
-0.985189, 169, 1, 232, 333
-0.985234, 265, 153, 328, 216
-0.985248, 329, 49, 360, 176
-0.985249, 157, 201, 188, 264
-0.985267, 345, 33, 376, 160
-0.985271, 341, 161, 372, 224
-0.985297, 133, 169, 164, 232
-0.985322, 225, 105, 288, 168
-0.985373, 1, 49, 64, 176
-0.985448, 49, 209, 112, 272
-0.985453, 93, 105, 124, 168
-0.985494, 377, 129, 440, 192
-0.985525, 297, 1, 360, 333
-0.985577, 337, 129, 464, 192
-0.985586, 89, 177, 120, 240
-0.985615, 361, 65, 424, 192
-0.985622, 385, 265, 448, 328
-0.985685, 1, 105, 32, 168
-0.98569, 193, 137, 256, 200
-0.985925, 289, 1, 352, 256
-0.985943, 49, 81, 112, 144
-0.985968, 257, 25, 384, 88
-0.985978, 321, 249, 448, 312
-0.986086, 9, 49, 72, 112
-0.986093, 321, 1, 384, 333
-0.986101, 145, 129, 176, 256
-0.986229, 193, 129, 320, 192
-0.986266, 273, 1, 336, 333
-0.986279, 225, 225, 352, 288
-0.986291, 137, 177, 200, 240
-0.986345, 169, 49, 200, 176
-0.986377, 1, 57, 128, 120
-0.9864, 345, 49, 408, 112
-0.986404, 193, 73, 256, 136
-0.986409, 153, 81, 216, 144
-0.986443, 329, 161, 360, 224
-0.986461, 313, 265, 344, 328
-0.986467, 193, 17, 320, 80
-0.98652, 297, 113, 360, 176
-0.986649, 337, 73, 368, 136
-0.986667, 17, 161, 144, 224
-0.986674, 249, 265, 280, 328
-0.986694, 137, 145, 168, 208
-0.986869, 321, 273, 448, 333
-0.986891, 193, 105, 224, 168
-0.986901, 81, 97, 112, 224
-0.986907, 305, 17, 336, 144
-0.986934, 33, 185, 160, 248
-0.986983, 69, 249, 100, 312
-0.986989, 249, 193, 280, 256
-0.986995, 125, 193, 156, 256
-0.987032, 77, 137, 108, 200
-0.987053, 233, 1, 296, 333
-0.987166, 277, 17, 308, 144
-0.987167, 1, 105, 128, 168
-0.987177, 145, 225, 176, 288
-0.987279, 161, 1, 224, 128
-0.987297, 81, 201, 144, 264
-0.987357, 109, 105, 140, 168
-0.98739, 281, 201, 344, 264
-0.987434, 349, 89, 380, 152
-0.987447, 145, 1, 208, 333
-0.987481, 161, 193, 192, 320
-0.98752, 89, 1, 152, 333
-0.987589, 197, 129, 228, 256
-0.987606, 305, 169, 336, 232
-0.987671, 41, 41, 104, 104
-0.987715, 257, 65, 320, 192
-0.987797, 1, 73, 64, 136
-0.987807, 337, 273, 400, 333
-0.98781, 233, 65, 296, 192
-0.987812, 181, 121, 212, 184
-0.987897, 289, 17, 320, 144
-0.987912, 253, 209, 284, 333
-0.987952, 357, 33, 388, 160
-0.988057, 25, 241, 88, 304
-0.988143, 93, 73, 124, 136
-0.988286, 273, 17, 336, 80
-0.988334, 225, 209, 256, 333
-0.988349, 305, 209, 368, 272
-0.988435, 273, 225, 304, 288
-0.988441, 165, 65, 196, 128
-0.988457, 177, 61, 240, 92
-0.988513, 317, 145, 348, 208
-0.988595, 197, 17, 228, 144
-0.988617, 109, 209, 140, 333
-0.988664, 145, 25, 208, 88
-0.988674, 325, 129, 356, 256
-0.988701, 73, 65, 136, 320
-0.988724, 101, 137, 132, 200
-0.988725, 113, 49, 176, 112
-0.98874, 217, 113, 248, 176
-0.988796, 201, 257, 232, 320
-0.98882, 145, 177, 176, 240
-0.988886, 17, 1, 80, 128
-0.988892, 273, 241, 400, 304
-0.988901, 265, 17, 296, 144
-0.988914, 417, 257, 448, 320
-0.988929, 393, 153, 424, 216
-0.988965, 1, 177, 32, 304
-0.989038, 273, 97, 400, 160
-0.989125, 141, 257, 172, 320
-0.989126, 217, 17, 248, 144
-0.989168, 313, 161, 376, 192
-0.989223, 153, 213, 216, 244
-0.98923, 333, 1, 364, 128
-0.989329, 217, 265, 248, 328
-0.989371, 185, 265, 248, 296
-0.989388, 421, 233, 452, 296
-0.989393, 113, 225, 176, 288
-0.989413, 1, 81, 32, 144
-0.98942, 101, 185, 132, 248
-0.989435, 217, 213, 280, 244
-0.989484, 193, 49, 256, 80
-0.989489, 337, 33, 464, 96
-0.989506, 81, 113, 144, 144
-0.989526, 353, 153, 416, 184
-0.989552, 85, 241, 116, 304
-0.989562, 241, 261, 304, 292
-0.989617, 185, 225, 248, 256
-0.989621, 377, 105, 440, 168
-0.989627, 65, 57, 192, 120
-0.989653, 265, 105, 328, 168
-0.989688, 133, 225, 164, 288
-0.989698, 121, 65, 184, 320
-0.989743, 233, 61, 296, 92
-0.98975, 245, 17, 276, 144
-0.98982, 181, 65, 212, 192
-0.989841, 345, 125, 408, 156
-0.989845, 401, 177, 464, 240
-0.989853, 121, 121, 184, 152
-0.989869, 113, 273, 176, 304
-0.989873, 337, 141, 400, 172
-0.989884, 161, 121, 192, 184
-0.989888, 137, 133, 200, 164
-0.989896, 213, 209, 244, 333
-0.989918, 89, 209, 120, 333
-0.989922, 305, 53, 368, 84
-0.989944, 237, 241, 268, 304
-0.98995, 209, 265, 272, 296
-0.989954, 289, 269, 352, 300
-0.989972, 97, 153, 160, 184
-0.990007, 89, 129, 152, 160
-0.990038, 73, 209, 104, 333
-0.99007, 425, 177, 488, 240
-0.990079, 33, 225, 160, 288
-0.990113, 241, 217, 304, 248
-0.990116, 401, 241, 432, 304
-0.990125, 273, 49, 336, 80
-0.990169, 113, 205, 176, 236
-0.990218, 137, 225, 200, 256
-0.990219, 245, 17, 276, 80
-0.990222, 265, 209, 296, 333
-0.990225, 121, 261, 184, 292
-0.990226, 185, 145, 216, 272
-0.990246, 89, 145, 120, 208
-0.990265, 297, 145, 328, 208
-0.990302, 129, 49, 160, 176
-0.99031, 217, 65, 248, 128
-0.990312, 1, 249, 64, 312
-0.990314, 249, 45, 312, 76
-0.990316, 181, 193, 212, 256
-0.990317, 281, 73, 344, 136
-0.990369, 229, 17, 260, 144
-0.990371, 273, 65, 336, 96
-0.990383, 273, 205, 336, 236
-0.990399, 213, 217, 244, 280
-0.990445, 105, 49, 136, 176
-0.990452, 161, 49, 416, 112
-0.990468, 309, 193, 340, 256
-0.99047, 217, 45, 280, 76
-0.990483, 89, 265, 152, 296
-0.990497, 265, 265, 328, 296
-0.990501, 145, 265, 208, 296
-0.990535, 353, 17, 416, 144
-0.990537, 297, 177, 360, 208
-0.99059, 169, 133, 232, 164
-0.990593, 137, 69, 200, 100
-0.990609, 233, 201, 296, 232
-0.990633, 193, 213, 256, 244
-0.990639, 137, 201, 200, 232
-0.990642, 177, 65, 240, 320
-0.990664, 361, 81, 392, 144
-0.990672, 89, 173, 152, 204
-0.990724, 229, 17, 260, 80
-0.990745, 241, 209, 272, 333
-0.990793, 89, 77, 152, 108
-0.990834, 417, 257, 480, 288
-0.990856, 321, 65, 384, 96
-0.990866, 233, 273, 296, 304
-0.990869, 177, 209, 208, 333
-0.99087, 205, 121, 236, 184
-0.990893, 81, 253, 144, 284
-0.990898, 169, 49, 232, 80
-0.990903, 1, 129, 32, 192
-0.990925, 93, 113, 124, 240
-0.990929, 89, 201, 152, 232
-0.990942, 165, 225, 196, 288
-0.990951, 245, 73, 276, 136
-0.990995, 209, 61, 272, 92
-0.991008, 1, 65, 64, 320
-0.991012, 321, 193, 352, 320
-0.991093, 149, 97, 180, 160
-0.991102, 9, 1, 72, 333
-0.991103, 121, 101, 184, 132
-0.991119, 229, 73, 260, 136
-0.991128, 97, 25, 224, 88
-0.991133, 205, 193, 236, 256
-0.991163, 321, 129, 384, 160
-0.991176, 317, 25, 348, 88
-0.991184, 345, 41, 376, 104
-0.991191, 321, 117, 384, 148
-0.991203, 313, 145, 376, 176
-0.991261, 145, 145, 208, 176
-0.991273, 369, 97, 400, 224
-0.991273, 73, 161, 136, 192
-0.991317, 257, 17, 288, 80
-0.991323, 337, 165, 400, 196
-0.991359, 129, 169, 256, 232
-0.991363, 369, 121, 432, 152
-0.991369, 97, 141, 160, 172
-0.99137, 145, 253, 208, 284
-0.991372, 81, 101, 144, 132
-0.991386, 321, 177, 384, 208
-0.991397, 197, 65, 228, 192
-0.991404, 41, 249, 104, 280
-0.991417, 89, 49, 152, 112
-0.991456, 65, 57, 320, 120
-0.991459, 305, 201, 432, 264
-0.991468, 377, 253, 440, 284
-0.991489, 49, 65, 112, 320
-0.991503, 185, 277, 248, 308
-0.991507, 121, 153, 184, 184
-0.991549, 353, 105, 480, 168
-0.991555, 297, 69, 360, 100
-0.991566, 81, 113, 112, 176
-0.991572, 361, 165, 424, 196
-0.991581, 273, 193, 336, 224
-0.991583, 113, 193, 176, 224
-0.991592, 281, 165, 344, 196
-0.991595, 281, 185, 312, 248
-0.991616, 153, 65, 184, 192
-0.991617, 145, 81, 208, 112
-0.991626, 185, 253, 248, 284
-0.991638, 49, 17, 112, 80
-0.991662, 325, 73, 356, 136
-0.991678, 241, 73, 304, 104
-0.991681, 233, 265, 264, 328
-0.991682, 369, 233, 496, 296
-0.991683, 101, 161, 132, 288
-0.991696, 401, 129, 464, 192
-0.991698, 385, 157, 448, 188
-0.991729, 321, 269, 384, 300
-0.991729, 281, 253, 344, 284
-0.991732, 233, 169, 296, 232
-0.991738, 209, 253, 272, 284
-0.991738, 49, 1, 112, 333
-0.991757, 361, 141, 424, 172
-0.991761, 113, 217, 176, 248
-0.991763, 321, 77, 384, 108
-0.991763, 121, 89, 184, 120
-0.991784, 137, 281, 200, 312
-0.991786, 145, 17, 272, 80
-0.991798, 89, 89, 152, 120
-0.991801, 33, 105, 288, 168
-0.991809, 161, 257, 416, 320
-0.991813, 169, 121, 232, 152
-0.991815, 113, 165, 176, 196
-0.991822, 65, 141, 128, 172
-0.991838, 361, 265, 424, 296
-0.991847, 209, 73, 272, 104
-0.991889, 57, 237, 120, 268
-0.991901, 65, 189, 128, 220
-0.991902, 1, 97, 64, 224
-0.991919, 345, 65, 408, 96
-0.991922, 225, 229, 288, 260
-0.991931, 297, 205, 360, 236
-0.991969, 201, 209, 232, 333
-0.99197, 329, 185, 360, 248
-0.991973, 113, 201, 144, 264
-0.991982, 81, 277, 144, 308
-0.991989, 129, 257, 160, 288
-0.991997, 77, 217, 108, 280
-0.99201, 225, 105, 288, 136
-0.992056, 169, 145, 232, 176
-0.99206, 273, 129, 336, 192
-0.992073, 121, 1, 184, 333
-0.992095, 377, 241, 440, 272
-0.992103, 337, 105, 400, 136
-0.992118, 273, 177, 336, 208
-0.992139, 281, 145, 312, 272
-0.992178, 161, 233, 224, 264
-0.992191, 217, 17, 248, 80
-0.992197, 289, 149, 352, 180
-0.992212, 149, 73, 180, 136
-0.992238, 9, 137, 72, 200
-0.992251, 145, 57, 208, 88
-0.992256, 433, 225, 496, 288
-0.99226, 209, 277, 272, 308
-0.992261, 161, 285, 224, 316
-0.992301, 409, 241, 472, 272
-0.992301, 289, 233, 320, 296
-0.992305, 181, 61, 212, 92
-0.992315, 185, 73, 248, 104
-0.99233, 321, 89, 384, 120
-0.992335, 321, 253, 384, 284
-0.992336, 369, 125, 400, 156
-0.992352, 189, 261, 220, 292
-0.99236, 193, 137, 256, 168
-0.992361, 421, 193, 452, 320
-0.992366, 113, 77, 176, 108
-0.992373, 81, 241, 144, 272
-0.992376, 177, 1, 208, 128
-0.992379, 273, 37, 336, 68
-0.992381, 145, 117, 208, 148
-0.992383, 125, 121, 156, 152
-0.992387, 161, 73, 416, 136
-0.992391, 425, 169, 456, 232
-0.992396, 121, 57, 184, 88
-0.992418, 309, 65, 340, 128
-0.992427, 109, 173, 140, 204
-0.992432, 33, 161, 96, 288
-0.992438, 17, 25, 80, 88
-0.992442, 469, 209, 500, 333
-0.992453, 201, 113, 264, 144
-0.992461, 261, 201, 292, 232
-0.992474, 329, 189, 392, 220
-0.992474, 265, 217, 328, 248
-0.992479, 289, 109, 352, 140
-0.992489, 169, 65, 200, 96
-0.992501, 145, 45, 208, 76
-0.992505, 209, 125, 272, 156
-0.992508, 89, 185, 152, 216
-0.99251, 33, 237, 96, 268
-0.992513, 49, 269, 112, 300
-0.992521, 305, 193, 368, 224
-0.992527, 357, 129, 388, 160
-0.992531, 229, 213, 260, 244
-0.992534, 181, 145, 212, 208
-0.992535, 313, 101, 376, 132
-0.992535, 321, 225, 448, 288
-0.992537, 229, 265, 260, 296
-0.992544, 177, 217, 208, 248
-0.992546, 13, 49, 44, 176
-0.992548, 241, 265, 272, 296
-0.992567, 97, 241, 128, 304
-0.992573, 401, 173, 464, 204
-0.992578, 205, 49, 236, 80
-0.992595, 333, 57, 364, 88
-0.992596, 213, 265, 244, 296
-0.992597, 65, 125, 128, 156
-0.992599, 177, 177, 304, 240
-0.992602, 265, 277, 328, 308
-0.992605, 113, 177, 176, 208
-0.992613, 1, 33, 128, 96
-0.992616, 145, 205, 176, 236
-0.992619, 201, 265, 232, 296
-0.992629, 257, 261, 288, 292
-0.992629, 157, 217, 188, 248
-0.992659, 345, 77, 408, 108
-0.99266, 361, 81, 424, 144
-0.992668, 97, 161, 128, 192
-0.992668, 265, 61, 296, 92
-0.99267, 385, 273, 448, 304
-0.99267, 1, 97, 64, 160
-0.992689, 377, 241, 408, 304
-0.9927, 249, 217, 280, 248
-0.992709, 297, 145, 328, 272
-0.99271, 193, 53, 224, 84
-0.99271, 129, 153, 160, 184
-0.992711, 313, 265, 344, 296
-0.992712, 145, 133, 176, 164
-0.992728, 333, 161, 364, 192
-0.992734, 349, 65, 380, 96
-0.992737, 401, 145, 432, 272
-0.992738, 277, 45, 308, 76
-0.992741, 9, 1, 72, 64
-0.992746, 117, 109, 148, 140
-0.992762, 377, 153, 408, 184
-0.992763, 189, 273, 220, 304
-0.992764, 225, 61, 256, 92
-0.992768, 365, 141, 396, 172
-0.992772, 301, 49, 332, 80
-0.992781, 117, 133, 148, 164
-0.992786, 237, 61, 268, 92
-0.992793, 273, 261, 304, 292
-0.992801, 345, 161, 376, 192
-0.992816, 125, 273, 156, 304
-0.992819, 321, 177, 352, 208
-0.99282, 321, 53, 352, 84
-0.992821, 369, 177, 496, 240
-0.992821, 113, 157, 144, 188
-0.992829, 313, 165, 344, 196
-0.992833, 389, 153, 420, 184
-0.992845, 197, 133, 228, 164
-0.992845, 221, 49, 252, 80
-0.99285, 301, 261, 332, 292
-0.992857, 249, 61, 280, 92
-0.992863, 373, 265, 404, 296
-0.992865, 277, 209, 308, 333
-0.992874, 353, 177, 384, 240
-0.992878, 97, 173, 128, 204
-0.992879, 253, 273, 284, 304
-0.992894, 353, 145, 384, 176
-0.992897, 233, 45, 264, 76
-0.992901, 129, 101, 160, 132
-0.992903, 129, 141, 160, 172
-0.992903, 285, 61, 316, 92
-0.992908, 97, 145, 352, 208
-0.992909, 137, 273, 168, 304
-0.992911, 177, 273, 208, 304
-0.992916, 265, 273, 296, 304
-0.992918, 265, 45, 296, 76
-0.992927, 157, 145, 188, 272
-0.992931, 365, 113, 396, 144
-0.992933, 357, 161, 388, 192
-0.992935, 353, 77, 384, 108
-0.992939, 205, 61, 236, 92
-0.992942, 281, 273, 312, 304
-0.992946, 241, 205, 272, 236
-0.992948, 213, 65, 244, 192
-0.992953, 193, 45, 320, 76
-0.992978, 341, 145, 372, 176
-0.992981, 245, 45, 276, 76
-0.992982, 345, 133, 376, 164
-0.992985, 289, 49, 320, 80
-0.992998, 297, 17, 328, 80
-0.993, 61, 193, 92, 320
-0.993005, 121, 201, 152, 232
-0.993005, 185, 229, 216, 260
-0.993016, 181, 129, 212, 160
-0.993017, 313, 193, 344, 224
-0.993018, 169, 77, 200, 108
-0.993022, 265, 213, 296, 244
-0.993024, 205, 17, 236, 80
-0.993029, 113, 261, 240, 292
-0.99303, 65, 125, 192, 156
-0.993037, 349, 117, 380, 148
-0.993038, 257, 73, 288, 136
-0.993042, 1, 121, 32, 152
-0.993046, 149, 121, 180, 152
-0.993047, 289, 261, 320, 292
-0.993047, 137, 121, 168, 152
-0.993048, 25, 1, 88, 256
-0.99305, 277, 57, 308, 120
-0.993053, 89, 77, 120, 108
-0.993053, 225, 225, 256, 256
-0.993058, 117, 145, 148, 176
-0.993062, 197, 221, 228, 252
-0.993064, 421, 257, 452, 288
-0.99307, 341, 113, 372, 176
-0.993072, 113, 121, 144, 152
-0.993074, 113, 273, 144, 304
-0.993074, 181, 49, 212, 80
-0.993083, 173, 229, 204, 260
-0.993084, 301, 169, 332, 200
-0.99309, 129, 165, 160, 196
-0.993099, 157, 205, 188, 236
-0.993102, 317, 149, 348, 180
-0.993121, 89, 185, 120, 216
-0.993123, 145, 225, 176, 256
-0.993126, 225, 73, 256, 104
-0.993129, 85, 169, 116, 200
-0.993131, 129, 85, 160, 116
-0.993135, 161, 133, 192, 164
-0.993137, 149, 273, 180, 304
-0.993143, 65, 249, 96, 280
-0.993155, 157, 69, 188, 100
-0.993159, 105, 145, 136, 176
-0.99316, 261, 225, 292, 256
-0.993166, 341, 173, 372, 204
-0.99317, 333, 189, 364, 220
-0.993179, 333, 73, 364, 104
-0.993183, 289, 65, 320, 192
-0.993183, 309, 181, 340, 212
-0.993188, 329, 149, 360, 180
-0.993189, 89, 109, 120, 140
-0.993195, 209, 217, 240, 248
-0.993197, 377, 141, 408, 172
-0.993197, 109, 193, 140, 224
-0.993202, 293, 273, 324, 304
-0.993202, 117, 77, 148, 108
-0.993204, 313, 69, 344, 100
-0.993205, 309, 209, 340, 333
-0.993206, 429, 173, 460, 204
-0.993215, 65, 81, 320, 144
-0.993216, 269, 73, 300, 104
-0.993224, 357, 173, 388, 204
-0.993227, 237, 253, 268, 284
-0.993228, 1, 109, 32, 140
-0.993231, 309, 205, 340, 236
-0.993234, 77, 237, 108, 268
-0.993236, 141, 261, 172, 292
-0.993246, 209, 253, 240, 284
-0.993247, 177, 241, 208, 272
-0.993248, 165, 285, 196, 316
-0.993273, 161, 121, 416, 184
-0.99333, 169, 97, 232, 224
-0.993338, 41, 105, 104, 168
-0.993339, 377, 1, 440, 333
-0.993412, 65, 49, 128, 112
-0.993534, 209, 113, 240, 240
-0.993536, 65, 261, 192, 292
-0.993561, 333, 177, 364, 304
-0.99377, 369, 217, 432, 280
-0.993775, 353, 33, 416, 288
-0.993782, 401, 81, 464, 208
-0.993825, 353, 65, 480, 128
-0.993832, 257, 241, 500, 304
-0.993836, 169, 153, 232, 216
-0.993857, 257, 53, 384, 84
-0.993865, 193, 257, 208, 320
-0.993878, 33, 257, 288, 320
-0.993897, 17, 161, 48, 288
-0.993926, 141, 81, 172, 208
-0.993946, 189, 209, 220, 333
-0.993984, 257, 49, 500, 112
-0.994033, 161, 61, 288, 92
-0.994038, 293, 193, 324, 320
-0.994085, 257, 65, 384, 96
-0.994134, 317, 81, 348, 208
-0.994185, 177, 261, 304, 292
-0.994215, 397, 193, 428, 320
-0.994269, 257, 153, 500, 216
-0.99429, 65, 225, 320, 288
-0.994299, 369, 153, 496, 216
-0.994304, 113, 137, 240, 168
-0.994316, 145, 213, 272, 244
-0.99433, 409, 209, 472, 272
-0.99437, 389, 129, 420, 256
-0.99439, 1, 241, 500, 304
-0.994397, 277, 65, 308, 192
-0.994408, 249, 129, 312, 192
-0.994415, 209, 61, 336, 92
-0.994422, 1, 137, 256, 200
-0.994479, 1, 129, 500, 192
-0.994504, 305, 65, 336, 192
-0.994592, 361, 129, 376, 192
-0.994596, 353, 57, 368, 120
-0.9946, 257, 273, 500, 333
-0.994622, 361, 145, 392, 272
-0.994652, 273, 1, 400, 64
-0.994653, 65, 273, 192, 304
-0.994654, 227, 33, 242, 96
-0.994668, 193, 153, 320, 216
-0.994691, 225, 265, 352, 296
-0.994701, 265, 145, 296, 272
-0.99474, 117, 169, 132, 232
-0.994747, 337, 49, 352, 112
-0.99475, 165, 97, 196, 224
-0.99478, 253, 145, 284, 272
-0.994783, 1, 49, 500, 112
-0.994787, 143, 121, 158, 184
-0.994862, 289, 257, 304, 320
-0.994862, 25, 217, 88, 280
-0.994864, 65, 81, 192, 112
-0.994913, 161, 169, 416, 232
-0.994914, 49, 33, 176, 96
-0.994928, 77, 145, 108, 272
-0.994936, 299, 41, 314, 104
-0.99494, 177, 273, 304, 304
-0.994944, 65, 33, 320, 96
-0.994964, 275, 257, 290, 320
-0.994979, 41, 193, 72, 320
-0.995008, 133, 105, 148, 168
-0.995068, 187, 217, 202, 280
-0.995084, 345, 49, 360, 112
-0.995092, 291, 33, 306, 96
-0.995104, 187, 241, 202, 304
-0.995106, 65, 137, 192, 168
-0.995108, 365, 153, 380, 216
-0.995113, 233, 41, 248, 104
-0.995131, 305, 241, 368, 304
-0.995138, 113, 61, 240, 92
-0.99514, 149, 17, 180, 144
-0.995155, 305, 41, 320, 104
-0.995184, 113, 273, 240, 304
-0.995188, 449, 209, 480, 333
-0.99519, 1, 169, 64, 232
-0.995208, 281, 257, 296, 320
-0.995217, 269, 257, 284, 320
-0.99522, 221, 41, 236, 104
-0.995271, 113, 125, 240, 156
-0.9953, 193, 97, 448, 160
-0.995301, 195, 233, 210, 296
-0.995307, 137, 137, 152, 200
-0.995307, 1, 273, 128, 333
-0.995308, 305, 161, 432, 192
-0.995309, 257, 33, 272, 96
-0.99531, 133, 73, 148, 136
-0.995323, 239, 41, 254, 104
-0.995343, 369, 121, 384, 184
-0.995354, 413, 113, 444, 240
-0.99536, 281, 41, 296, 104
-0.995372, 433, 153, 496, 216
-0.995373, 193, 25, 448, 88
-0.995389, 109, 177, 124, 240
-0.995401, 263, 41, 278, 104
-0.995462, 235, 241, 250, 304
-0.995468, 355, 137, 370, 200
-0.995486, 187, 265, 202, 328
-0.995504, 65, 113, 192, 144
-0.995505, 89, 233, 104, 296
-0.99551, 13, 113, 44, 240
-0.995511, 257, 177, 500, 240
-0.995521, 1, 225, 64, 288
-0.995525, 73, 49, 104, 176
-0.99554, 161, 209, 416, 272
-0.995542, 1, 161, 256, 224
-0.995559, 251, 41, 266, 104
-0.995564, 127, 97, 142, 160
-0.995574, 241, 205, 368, 236
-0.995574, 149, 121, 164, 184
-0.99558, 131, 257, 146, 320
-0.995581, 299, 265, 314, 328
-0.995593, 101, 153, 116, 216
-0.995597, 141, 257, 156, 320
-0.995602, 145, 73, 272, 104
-0.995603, 199, 257, 214, 320
-0.995617, 93, 17, 124, 144
-0.995621, 323, 49, 338, 112
-0.995628, 401, 65, 464, 320
-0.99563, 113, 101, 240, 132
-0.995636, 269, 193, 284, 256
-0.995643, 139, 97, 154, 160
-0.995655, 209, 129, 224, 192
-0.99566, 1, 265, 500, 328
-0.995674, 127, 177, 142, 240
-0.995674, 271, 33, 286, 96
-0.995682, 173, 65, 188, 128
-0.995688, 235, 217, 250, 280
-0.995695, 145, 49, 272, 80
-0.995703, 433, 1, 496, 333
-0.995707, 65, 157, 192, 188
-0.995712, 229, 217, 244, 280
-0.995752, 241, 145, 272, 272
-0.995753, 273, 225, 288, 288
-0.995764, 309, 257, 324, 320
-0.995774, 177, 225, 304, 256
-0.995781, 289, 145, 416, 176
-0.995785, 273, 269, 400, 300
-0.99579, 245, 41, 260, 104
-0.995792, 65, 101, 192, 132
-0.995825, 33, 1, 64, 128
-0.995841, 353, 193, 384, 320
-0.995847, 33, 1, 160, 64
-0.995848, 145, 97, 160, 160
-0.995849, 193, 73, 320, 104
-0.99585, 65, 201, 192, 232
-0.995851, 127, 137, 142, 200
-0.995853, 317, 257, 332, 320
-0.995863, 125, 73, 140, 136
-0.995897, 191, 57, 206, 120
-0.995941, 329, 49, 344, 112
-0.995959, 97, 213, 224, 244
-0.995969, 327, 169, 342, 232
-0.995982, 267, 225, 282, 288
-0.995989, 263, 257, 278, 320
-0.996006, 93, 257, 108, 320
-0.996016, 181, 241, 196, 304
-0.996025, 107, 153, 122, 216
-0.996026, 359, 57, 374, 120
-0.996035, 81, 225, 208, 256
-0.99607, 221, 145, 252, 272
-0.996077, 317, 41, 332, 104
-0.996084, 225, 221, 352, 252
-0.996084, 359, 161, 374, 224
-0.996087, 121, 137, 136, 200
-0.996093, 215, 41, 230, 104
-0.99612, 311, 41, 326, 104
-0.996137, 143, 145, 158, 208
-0.996138, 275, 193, 290, 256
-0.996152, 155, 201, 170, 264
-0.996172, 147, 257, 162, 320
-0.996187, 263, 193, 278, 256
-0.996188, 433, 193, 464, 320
-0.996196, 197, 41, 212, 104
-0.996211, 181, 217, 196, 280
-0.996223, 201, 121, 216, 184
-0.996228, 65, 173, 192, 204
-0.996256, 289, 189, 416, 220
-0.996257, 203, 41, 218, 104
-0.996267, 241, 193, 368, 224
-0.996278, 33, 201, 288, 264
-0.996288, 1, 89, 128, 120
-0.996293, 113, 149, 240, 180
-0.996297, 229, 241, 244, 304
-0.996313, 1, 153, 500, 216
-0.996314, 377, 121, 392, 184
-0.996321, 193, 129, 208, 192
-0.996321, 147, 201, 162, 264
-0.996324, 379, 257, 394, 320
-0.996345, 261, 225, 276, 288
-0.996357, 1, 253, 128, 284
-0.996366, 181, 49, 196, 112
-0.99637, 371, 153, 386, 216
-0.99637, 241, 217, 256, 280
-0.996375, 241, 241, 256, 304
-0.996398, 65, 249, 192, 280
-0.996399, 349, 137, 364, 200
-0.99641, 25, 209, 56, 333
-0.996411, 135, 161, 150, 224
-0.996414, 121, 105, 136, 168
-0.996456, 115, 137, 130, 200
-0.996465, 113, 113, 240, 144
-0.996474, 323, 265, 338, 328
-0.996483, 257, 173, 384, 204
-0.996487, 173, 145, 204, 272
-0.996497, 273, 109, 400, 140
-0.996512, 7, 113, 22, 176
-0.996513, 377, 153, 392, 216
-0.996532, 305, 61, 432, 92
-0.996535, 145, 225, 160, 288
-0.996538, 365, 73, 380, 136
-0.996546, 7, 73, 22, 136
-0.996581, 93, 73, 108, 136
-0.996586, 313, 161, 328, 224
-0.996586, 321, 169, 336, 232
-0.996591, 187, 129, 202, 192
-0.996602, 335, 153, 350, 216
-0.996613, 1, 101, 128, 132
-0.996622, 209, 41, 224, 104
-0.996628, 125, 265, 140, 328
-0.996664, 333, 177, 348, 240
-0.996664, 17, 161, 144, 192
-0.996674, 321, 253, 448, 284
-0.996685, 383, 145, 398, 208
-0.996693, 417, 233, 432, 296
-0.99673, 129, 225, 256, 256
-0.996734, 403, 153, 418, 216
-0.996736, 119, 73, 134, 136
-0.996747, 207, 105, 222, 168
-0.996752, 351, 161, 366, 224
-0.996766, 95, 177, 110, 240
-0.996771, 1, 77, 128, 108
-0.996777, 81, 249, 96, 312
-0.996777, 337, 173, 464, 204
-0.996793, 45, 1, 76, 128
-0.996801, 113, 201, 240, 232
-0.996802, 419, 257, 434, 320
-0.996815, 205, 257, 220, 320
-0.996822, 193, 201, 208, 264
-0.996832, 17, 141, 144, 172
-0.996836, 195, 105, 210, 168
-0.99684, 13, 209, 44, 333
-0.996848, 151, 225, 166, 288
-0.996867, 253, 201, 268, 264
-0.996876, 369, 201, 496, 264
-0.996878, 1, 73, 16, 136
-0.996883, 1, 125, 128, 156
-0.996887, 161, 233, 416, 296
-0.996888, 103, 177, 118, 240
-0.996889, 423, 233, 438, 296
-0.99689, 285, 17, 300, 80
-0.996901, 257, 161, 384, 192
-0.996924, 179, 65, 194, 96
-0.996925, 257, 257, 272, 320
-0.99694, 279, 225, 294, 288
-0.996947, 1, 97, 500, 160
-0.996961, 227, 57, 242, 120
-0.996978, 193, 205, 320, 236
-0.99698, 257, 77, 384, 108
-0.997002, 353, 161, 480, 192
-0.997002, 1, 193, 500, 256
-0.997045, 409, 209, 440, 333
-0.997047, 173, 65, 188, 96
-0.997062, 1, 73, 500, 136
-0.997082, 17, 265, 144, 296
-0.997109, 161, 121, 288, 152
-0.99712, 321, 129, 448, 160
-0.997132, 113, 89, 240, 120
-0.997151, 353, 273, 480, 304
-0.997155, 1, 217, 500, 280
-0.997158, 49, 213, 176, 244
-0.997175, 225, 65, 256, 192
-0.997192, 113, 285, 240, 316
-0.997193, 371, 125, 386, 156
-0.997227, 1, 65, 128, 96
-0.99724, 345, 1, 408, 333
-0.997249, 65, 69, 192, 100
-0.99726, 257, 73, 500, 136
-0.997268, 225, 253, 352, 284
-0.997272, 337, 141, 464, 172
-0.997278, 189, 57, 204, 88
-0.997283, 369, 261, 496, 292
-0.997284, 361, 129, 376, 160
-0.997303, 161, 133, 288, 164
-0.997331, 257, 65, 288, 192
-0.997338, 265, 1, 296, 256
-0.997359, 1, 129, 32, 256
-0.99736, 367, 153, 382, 184
-0.997361, 251, 265, 266, 296
-0.997363, 257, 121, 500, 184
-0.997368, 193, 261, 208, 292
-0.997403, 241, 41, 368, 72
-0.997421, 357, 65, 372, 96
-0.997434, 377, 121, 392, 152
-0.997439, 279, 61, 294, 92
-0.997446, 199, 261, 214, 292
-0.99745, 227, 265, 242, 296
-0.997457, 205, 265, 220, 296
-0.997469, 127, 113, 142, 144
-0.997473, 113, 249, 240, 280
-0.997477, 187, 225, 202, 256
-0.997477, 245, 265, 260, 296
-0.997488, 233, 265, 248, 296
-0.99749, 193, 285, 320, 316
-0.997492, 273, 121, 400, 152
-0.997496, 239, 265, 254, 296
-0.99751, 133, 257, 148, 288
-0.997526, 213, 265, 228, 296
-0.997541, 353, 113, 480, 144
-0.997542, 195, 53, 210, 84
-0.997546, 143, 133, 158, 164
-0.997566, 261, 261, 276, 292
-0.99759, 209, 49, 224, 80
-0.997597, 259, 61, 274, 92
-0.997601, 221, 265, 236, 296
-0.997612, 137, 117, 152, 148
-0.99762, 373, 145, 404, 272
-0.997624, 1, 237, 128, 268
-0.997625, 359, 165, 374, 196
-0.997625, 337, 9, 464, 72
-0.997638, 229, 61, 244, 92
-0.99764, 143, 257, 158, 288
-0.997644, 123, 125, 138, 156
-0.99765, 323, 265, 338, 296
-0.99765, 1, 113, 128, 144
-0.997669, 121, 113, 136, 144
-0.997673, 315, 261, 330, 292
-0.997681, 333, 177, 348, 208
-0.997699, 273, 133, 400, 164
-0.997702, 101, 165, 116, 196
-0.997704, 377, 261, 392, 292
-0.997719, 113, 161, 240, 192
-0.997722, 233, 1, 264, 256
-0.997735, 351, 133, 366, 164
-0.997738, 177, 249, 304, 280
-0.997739, 269, 61, 284, 92
-0.997739, 239, 61, 254, 92
-0.997745, 17, 173, 144, 204
-0.997751, 193, 109, 320, 140
-0.997773, 89, 241, 104, 272
-0.997774, 81, 45, 208, 76
-0.997775, 289, 261, 304, 292
-0.997782, 143, 121, 158, 152
-0.997787, 377, 149, 392, 180
-0.99779, 203, 49, 218, 80
-0.997798, 1, 33, 32, 160
-0.997799, 219, 49, 234, 80
-0.997801, 177, 33, 208, 288
-0.997803, 227, 213, 242, 244
-0.997803, 249, 1, 280, 256
-0.997805, 111, 173, 126, 204
-0.99781, 295, 265, 310, 296
-0.997818, 369, 17, 400, 144
-0.997824, 209, 125, 336, 156
-0.99783, 257, 201, 500, 264
-0.997846, 267, 261, 282, 292
-0.997847, 361, 153, 376, 184
-0.997848, 117, 157, 132, 188
-0.997849, 131, 101, 146, 132
-0.99785, 321, 49, 336, 80
-0.997862, 145, 237, 272, 268
-0.997864, 109, 33, 140, 288
-0.997868, 337, 49, 464, 80
-0.997871, 249, 61, 264, 92
-0.997873, 277, 201, 292, 232
-0.997874, 225, 49, 240, 80
-0.997876, 161, 193, 288, 224
-0.997878, 191, 273, 206, 304
-0.99788, 351, 61, 366, 92
-0.997888, 49, 185, 176, 216
-0.997893, 107, 157, 122, 188
-0.9979, 181, 217, 196, 248
-0.997906, 367, 137, 382, 168
-0.997911, 137, 133, 152, 164
-0.997912, 149, 133, 164, 164
-0.997921, 161, 1, 192, 128
-0.997921, 365, 165, 380, 196
-0.997924, 273, 261, 288, 292
-0.997927, 137, 145, 152, 176
-0.997937, 305, 73, 432, 104
-0.997947, 117, 173, 132, 204
-0.997948, 129, 273, 144, 304
-0.997954, 313, 49, 328, 80
-0.997957, 195, 217, 210, 248
-0.997962, 309, 265, 324, 296
-0.997972, 161, 205, 176, 236
-0.997975, 265, 273, 280, 304
-0.997978, 273, 273, 288, 304
-0.997981, 287, 45, 302, 76
-0.997982, 283, 261, 298, 292
-0.997983, 127, 177, 142, 208
-0.997986, 289, 61, 304, 92
-0.997991, 259, 273, 274, 304
-0.997992, 355, 145, 370, 176
-0.997997, 129, 129, 144, 160
-0.997998, 241, 149, 368, 180
-0.998, 197, 273, 212, 304
-0.998001, 397, 153, 412, 184
-0.998005, 33, 9, 288, 72
-0.998009, 233, 45, 248, 76
-0.99801, 391, 153, 406, 184
-0.998011, 345, 57, 360, 88
-0.998014, 183, 53, 198, 84
-0.998019, 267, 213, 282, 244
-0.998024, 371, 113, 386, 144
-0.998024, 337, 161, 352, 192
-0.998029, 305, 281, 432, 312
-0.998038, 261, 201, 276, 232
-0.99804, 209, 177, 336, 208
-0.998043, 277, 1, 308, 256
-0.998043, 263, 45, 278, 76
-0.998047, 209, 29, 336, 60
-0.998052, 125, 165, 140, 196
-0.998054, 235, 225, 250, 256
-0.998055, 151, 213, 166, 244
-0.998058, 255, 45, 270, 76
-0.998058, 279, 273, 294, 304
-0.998059, 363, 73, 378, 104
-0.998064, 335, 53, 350, 84
-0.998064, 277, 45, 292, 76
-0.998074, 351, 161, 366, 192
-0.998075, 183, 77, 198, 108
-0.998077, 243, 217, 258, 248
-0.998086, 295, 45, 310, 76
-0.998097, 289, 273, 304, 304
-0.9981, 305, 49, 320, 80
-0.998107, 247, 45, 262, 76
-0.998111, 185, 273, 200, 304
-0.998112, 149, 269, 164, 300
-0.998113, 161, 221, 176, 252
-0.998118, 269, 45, 284, 76
-0.998123, 365, 177, 380, 208
-0.998129, 197, 229, 212, 260
-0.998137, 145, 201, 160, 232
-0.998138, 217, 61, 232, 92
-0.998151, 353, 81, 368, 112
-0.998152, 5, 117, 20, 148
-0.998156, 325, 165, 340, 196
-0.998163, 303, 261, 318, 292
-0.998164, 211, 133, 226, 164
-0.998166, 161, 145, 288, 176
-0.998175, 385, 141, 400, 172
-0.998175, 175, 77, 190, 108
-0.998176, 401, 1, 464, 333
-0.998181, 405, 157, 420, 188
-0.998183, 359, 117, 374, 148
-0.998189, 239, 45, 254, 76
-0.998196, 175, 133, 190, 164
-0.998201, 273, 213, 288, 244
-0.998202, 377, 109, 392, 140
-0.998215, 337, 185, 464, 216
-0.998225, 337, 33, 368, 288
-0.99824, 289, 201, 416, 232
-0.998246, 377, 65, 440, 320
-0.998255, 257, 285, 384, 316
-0.998273, 1, 65, 32, 320
-0.998296, 201, 1, 232, 256
-0.998307, 369, 249, 496, 280
-0.99832, 317, 65, 348, 320
-0.998332, 165, 33, 196, 288
-0.998346, 193, 97, 320, 128
-0.998355, 289, 97, 416, 128
-0.99836, 317, 109, 348, 124
-0.998361, 393, 163, 424, 178
-0.998362, 65, 251, 96, 266
-0.998362, 305, 85, 432, 116
-0.998362, 113, 279, 144, 294
-0.998362, 93, 165, 124, 180
-0.998363, 133, 89, 164, 104
-0.998363, 301, 171, 332, 186
-0.998363, 161, 285, 192, 300
-0.998364, 225, 65, 256, 80
-0.998366, 261, 211, 292, 226
-0.998366, 165, 235, 196, 250
-0.998367, 345, 175, 376, 190
-0.998367, 113, 111, 144, 126
-0.998367, 121, 131, 152, 146
-0.998368, 421, 259, 452, 274
-0.998369, 433, 177, 464, 192
-0.99837, 217, 49, 248, 64
-0.99837, 285, 49, 316, 64
-0.99837, 321, 207, 352, 222
-0.99837, 157, 211, 188, 226
-0.99837, 105, 159, 136, 174
-0.99837, 337, 139, 368, 154
-0.998371, 313, 51, 344, 66
-0.998372, 121, 177, 152, 192
-0.998373, 317, 151, 348, 166
-0.998375, 233, 235, 264, 250
-0.998375, 201, 229, 232, 244
-0.998376, 1, 123, 32, 138
-0.998377, 245, 209, 276, 224
-0.998378, 357, 173, 388, 188
-0.998378, 389, 81, 420, 208
-0.99838, 249, 227, 280, 242
-0.99838, 113, 151, 144, 166
-0.99838, 157, 229, 188, 244
-0.998382, 241, 215, 272, 230
-0.998382, 269, 223, 300, 238
-0.998383, 261, 263, 292, 278
-0.998385, 133, 141, 164, 156
-0.998386, 129, 105, 160, 120
-0.998388, 89, 185, 120, 200
-0.998389, 313, 165, 344, 180
-0.99839, 189, 141, 220, 156
-0.998391, 353, 81, 384, 96
-0.998391, 365, 265, 396, 280
-0.998393, 157, 69, 188, 84
-0.998393, 285, 67, 316, 82
-0.998393, 185, 231, 248, 246
-0.998395, 237, 65, 268, 80
-0.998396, 97, 1, 224, 64
-0.998396, 205, 51, 236, 66
-0.998396, 145, 141, 176, 156
-0.998397, 329, 149, 360, 164
-0.998397, 329, 161, 360, 176
-0.998398, 325, 55, 356, 70
-0.998399, 65, 285, 192, 316
-0.9984, 181, 235, 212, 250
-0.998401, 337, 59, 368, 74
-0.998404, 181, 77, 212, 92
-0.998405, 181, 71, 212, 86
-0.998407, 137, 223, 168, 238
-0.998408, 357, 165, 388, 180
-0.998408, 333, 175, 364, 190
-0.99841, 361, 69, 392, 84
-0.998411, 265, 65, 296, 80
-0.998412, 17, 197, 144, 228
-0.998413, 365, 119, 396, 134
-0.998414, 137, 99, 168, 114
-0.998414, 109, 169, 140, 184
-0.998414, 129, 171, 160, 186
-0.998415, 129, 147, 160, 162
-0.998415, 125, 157, 156, 172
-0.998417, 377, 155, 408, 170
-0.99842, 369, 149, 400, 164
-0.998421, 201, 265, 232, 280
-0.998422, 165, 217, 196, 232
-0.998423, 249, 265, 280, 280
-0.998424, 365, 131, 396, 146
-0.998425, 137, 277, 168, 292
-0.998427, 341, 163, 372, 178
-0.998428, 193, 53, 224, 68
-0.99843, 185, 265, 248, 280
-0.998432, 237, 65, 268, 192
-0.998433, 281, 263, 312, 278
-0.998435, 353, 139, 384, 154
-0.998438, 121, 201, 152, 216
-0.99844, 145, 135, 176, 150
-0.998441, 305, 177, 336, 192
-0.998441, 153, 219, 216, 234
-0.998444, 313, 171, 344, 186
-0.998445, 321, 183, 352, 198
-0.998446, 349, 87, 380, 102
-0.998447, 365, 157, 396, 172
-0.998449, 129, 1, 384, 64
-0.998449, 249, 221, 280, 236
-0.998451, 353, 133, 384, 148
-0.998455, 169, 67, 232, 82
-0.998456, 97, 171, 128, 186
-0.998456, 297, 267, 328, 282
-0.998457, 353, 157, 416, 172
-0.998457, 93, 179, 124, 194
-0.998457, 345, 69, 376, 84
-0.998459, 165, 77, 196, 92
-0.99846, 337, 181, 368, 196
-0.99846, 273, 257, 400, 288
-0.99846, 229, 265, 260, 280
-0.998463, 169, 63, 200, 78
-0.998464, 125, 119, 156, 134
-0.998465, 313, 201, 344, 216
-0.998465, 213, 265, 244, 280
-0.998465, 117, 125, 148, 140
-0.99847, 297, 177, 360, 192
-0.998471, 125, 277, 156, 292
-0.998473, 181, 215, 212, 230
-0.998473, 65, 237, 192, 268
-0.998473, 181, 57, 212, 72
-0.998474, 181, 65, 212, 80
-0.998475, 345, 147, 376, 162
-0.998477, 353, 127, 384, 142
-0.998479, 133, 131, 164, 146
-0.998482, 217, 219, 280, 234
-0.998483, 337, 143, 400, 158
-0.998484, 157, 223, 188, 238
-0.998486, 249, 71, 280, 86
-0.998491, 145, 203, 176, 218
-0.998494, 389, 157, 420, 172
-0.998495, 281, 267, 344, 282
-0.998495, 237, 71, 268, 86
-0.998496, 265, 71, 296, 86
-0.998497, 217, 71, 280, 86
-0.9985, 229, 215, 260, 230
-0.9985, 249, 263, 312, 278
-0.998501, 217, 213, 280, 228
-0.998503, 17, 277, 144, 308
-0.998504, 365, 143, 396, 158
-0.998505, 241, 225, 304, 240
-0.998507, 133, 125, 164, 140
-0.998507, 353, 157, 384, 172
-0.998508, 313, 165, 376, 180
-0.998512, 193, 225, 256, 240
-0.998512, 153, 225, 216, 240
-0.998518, 193, 213, 256, 228
-0.998521, 121, 269, 184, 284
-0.998521, 97, 157, 160, 172
-0.998522, 273, 67, 336, 82
-0.998525, 113, 277, 176, 292
-0.998527, 313, 65, 376, 80
-0.998529, 261, 201, 292, 216
-0.998531, 225, 229, 256, 244
-0.998534, 81, 273, 144, 288
-0.998537, 81, 127, 144, 142
-0.998538, 129, 267, 160, 282
-0.998541, 81, 119, 144, 134
-0.998542, 145, 217, 176, 232
-0.998542, 309, 265, 340, 280
-0.998543, 261, 217, 292, 232
-0.998544, 321, 149, 384, 164
-0.998545, 121, 129, 184, 144
-0.998546, 361, 125, 424, 140
-0.998547, 129, 219, 192, 234
-0.998548, 129, 225, 192, 240
-0.998549, 241, 73, 304, 88
-0.99855, 145, 269, 208, 284
-0.998551, 373, 193, 404, 320
-0.998552, 145, 231, 208, 246
-0.998553, 89, 79, 152, 94
-0.998554, 369, 125, 400, 140
-0.998557, 105, 175, 168, 190
-0.998559, 81, 263, 144, 278
-0.998559, 153, 213, 216, 228
-0.99856, 113, 203, 176, 218
-0.99856, 241, 219, 304, 234
-0.998561, 345, 131, 408, 146
-0.998562, 169, 135, 232, 150
-0.998563, 93, 1, 124, 256
-0.998566, 177, 61, 240, 76
-0.998567, 369, 163, 432, 178
-0.998567, 145, 263, 208, 278
-0.998568, 225, 71, 256, 86
-0.998569, 321, 173, 384, 188
-0.99857, 81, 65, 112, 320
-0.998573, 113, 123, 176, 138
-0.998574, 81, 113, 144, 128
-0.998574, 209, 265, 272, 280
-0.998575, 321, 71, 384, 86
-0.998577, 189, 265, 220, 280
-0.998577, 349, 75, 380, 90
-0.998579, 321, 179, 384, 194
-0.998581, 221, 1, 252, 256
-0.998581, 321, 77, 384, 92
-0.998582, 81, 175, 144, 190
-0.998583, 305, 59, 368, 74
-0.998586, 89, 133, 152, 148
-0.998588, 417, 259, 480, 274
-0.998588, 201, 49, 264, 64
-0.99859, 89, 169, 152, 184
-0.998591, 329, 123, 392, 138
-0.998593, 233, 65, 296, 80
-0.998594, 225, 231, 288, 246
-0.998594, 121, 263, 184, 278
-0.998594, 137, 141, 200, 156
-0.998596, 81, 99, 144, 114
-0.998597, 177, 55, 240, 70
-0.998599, 137, 75, 200, 90
-0.998599, 289, 51, 352, 66
-0.998601, 169, 71, 200, 86
-0.998601, 369, 237, 496, 268
-0.998604, 313, 139, 376, 154
-0.998604, 217, 225, 280, 240
-0.998604, 105, 221, 168, 236
-0.998604, 377, 267, 440, 282
-0.998606, 233, 207, 296, 222
-0.998608, 337, 137, 400, 152
-0.998608, 129, 259, 160, 274
-0.998609, 89, 209, 152, 224
-0.99861, 129, 213, 192, 228
-0.998612, 329, 155, 392, 170
-0.998613, 97, 197, 160, 212
-0.998613, 297, 183, 360, 198
-0.998613, 97, 163, 160, 178
-0.998614, 317, 177, 348, 192
-0.998616, 137, 285, 200, 300
-0.998617, 193, 71, 256, 86
-0.998621, 177, 219, 240, 234
-0.998622, 89, 279, 152, 294
-0.998622, 233, 47, 296, 62
-0.998622, 81, 257, 144, 272
-0.998624, 145, 69, 208, 84
-0.998625, 345, 163, 408, 178
-0.998625, 113, 177, 240, 208
-0.998625, 113, 135, 176, 150
-0.998626, 273, 207, 336, 222
-0.998628, 177, 229, 208, 244
-0.998628, 377, 157, 440, 172
-0.99863, 257, 49, 320, 64
-0.99863, 137, 63, 200, 78
-0.998631, 273, 171, 336, 186
-0.998631, 257, 201, 320, 216
-0.998632, 57, 245, 120, 260
-0.998632, 281, 73, 344, 88
-0.998634, 201, 113, 264, 128
-0.998635, 121, 103, 184, 118
-0.998636, 109, 175, 140, 190
-0.998638, 185, 237, 248, 252
-0.998639, 137, 207, 200, 222
-0.998639, 41, 251, 104, 266
-0.998639, 105, 147, 168, 162
-0.998639, 241, 213, 304, 228
-0.998642, 281, 261, 344, 276
-0.998642, 145, 275, 208, 290
-0.998643, 137, 123, 200, 138
-0.998643, 377, 259, 440, 274
-0.998644, 345, 77, 408, 92
-0.998645, 305, 159, 368, 174
-0.998645, 1, 213, 128, 244
-0.998646, 145, 147, 208, 162
-0.998647, 281, 201, 344, 216
-0.998647, 113, 109, 176, 124
-0.998647, 89, 107, 152, 122
-0.998647, 201, 63, 264, 78
-0.998648, 65, 167, 128, 182
-0.998649, 81, 139, 144, 154
-0.998649, 121, 97, 184, 112
-0.998649, 361, 145, 424, 160
-0.998649, 281, 113, 344, 128
-0.998649, 273, 177, 336, 192
-0.99865, 65, 183, 128, 198
-0.998651, 297, 107, 360, 122
-0.998651, 81, 93, 144, 108
-0.998652, 321, 269, 384, 284
-0.998652, 137, 83, 200, 98
-0.998653, 369, 169, 432, 184
-0.998655, 289, 1, 320, 256
-0.998656, 161, 141, 224, 156
-0.998656, 353, 69, 416, 84
-0.998657, 105, 87, 168, 102
-0.998658, 305, 203, 368, 218
-0.998658, 81, 73, 144, 88
-0.998679, 129, 37, 256, 68
-0.998687, 13, 65, 44, 320
-0.998728, 321, 37, 448, 68
-0.998749, 273, 29, 400, 60
-0.998753, 353, 69, 480, 100
-0.998762, 241, 93, 368, 124
-0.998766, 161, 85, 288, 116
-0.998795, 353, 93, 480, 124
-0.998807, 461, 161, 492, 288
-0.998855, 49, 33, 176, 64
-0.998875, 353, 65, 368, 192
-0.998887, 189, 1, 220, 256
-0.998888, 359, 81, 374, 208
-0.998903, 305, 225, 432, 256
-0.998915, 137, 97, 152, 224
-0.998929, 153, 209, 168, 333
-0.998936, 225, 233, 352, 264
-0.998937, 1, 225, 128, 256
-0.998958, 127, 65, 142, 192
-0.998987, 385, 209, 416, 333
-0.99899, 121, 65, 152, 320
-0.998994, 209, 161, 336, 192
-0.999013, 135, 177, 150, 304
-0.999017, 1, 185, 128, 216
-0.999025, 321, 241, 448, 272
-0.999039, 145, 25, 272, 56
-0.99906, 349, 113, 364, 240
-0.999063, 359, 33, 374, 160
-0.999069, 143, 209, 158, 333
-0.999079, 327, 33, 342, 160
-0.999098, 121, 65, 136, 192
-0.9991, 305, 213, 432, 244
-0.999105, 343, 129, 358, 256
-0.999123, 369, 213, 496, 244
-0.999128, 449, 161, 480, 288
-0.999129, 69, 65, 100, 320
-0.99913, 1, 37, 128, 68
-0.999135, 335, 129, 350, 256
-0.99914, 365, 113, 380, 240
-0.999145, 209, 137, 336, 168
-0.999153, 97, 145, 112, 272
-0.999163, 361, 65, 392, 320
-0.999182, 7, 65, 22, 192
-0.99919, 97, 97, 112, 224
-0.999197, 99, 193, 114, 320
-0.9992, 111, 97, 126, 224
-0.999203, 133, 65, 164, 320
-0.999204, 149, 65, 180, 320
-0.999204, 91, 209, 106, 333
-0.999206, 129, 177, 144, 304
-0.999206, 127, 113, 142, 240
-0.999218, 329, 145, 344, 272
-0.999224, 339, 81, 354, 208
-0.999242, 105, 65, 120, 192
-0.999246, 345, 33, 360, 160
-0.999254, 1, 65, 16, 192
-0.999258, 359, 129, 374, 256
-0.999261, 365, 65, 380, 192
-0.999261, 175, 49, 190, 176
-0.999262, 147, 129, 162, 256
-0.999262, 201, 113, 216, 240
-0.999271, 73, 1, 104, 128
-0.999275, 57, 1, 88, 256
-0.999278, 349, 65, 380, 320
-0.999295, 137, 49, 152, 176
-0.999307, 233, 209, 248, 333
-0.999317, 293, 17, 308, 144
-0.999324, 225, 1, 480, 64
-0.999327, 91, 65, 106, 192
-0.999331, 159, 209, 174, 333
-0.999335, 143, 81, 158, 208
-0.999346, 265, 209, 280, 333
-0.999348, 271, 209, 286, 333
-0.999348, 195, 145, 210, 272
-0.99935, 319, 17, 334, 144
-0.999351, 313, 17, 328, 144
-0.999354, 301, 17, 316, 144
-0.99936, 287, 17, 302, 144
-0.999366, 333, 33, 348, 160
-0.999378, 83, 209, 98, 333
-0.999381, 227, 17, 242, 144
-0.999382, 207, 17, 222, 144
-0.999384, 281, 17, 296, 144
-0.999388, 9, 177, 24, 304
-0.999395, 221, 17, 236, 144
-0.999395, 227, 209, 242, 333
-0.999396, 335, 193, 350, 320
-0.999399, 201, 65, 216, 192
-0.999401, 169, 65, 184, 192
-0.999402, 287, 209, 302, 333
-0.999403, 185, 209, 200, 333
-0.999405, 121, 129, 136, 256
-0.999405, 113, 49, 128, 176
-0.999406, 485, 193, 500, 320
-0.999407, 9, 113, 24, 240
-0.999407, 317, 129, 332, 256
-0.999409, 141, 161, 156, 288
-0.999412, 97, 49, 112, 176
-0.999413, 333, 81, 348, 208
-0.999414, 179, 193, 194, 320
-0.999416, 105, 161, 120, 288
-0.999417, 351, 1, 366, 128
-0.999425, 271, 17, 286, 144
-0.999433, 237, 17, 252, 144
-0.999435, 239, 193, 254, 320
-0.999436, 255, 17, 270, 144
-0.999439, 323, 129, 338, 256
-0.999439, 121, 1, 152, 128
-0.999441, 215, 17, 230, 144
-0.999441, 307, 17, 322, 144
-0.999444, 423, 209, 438, 333
-0.999445, 287, 145, 302, 272
-0.999447, 301, 33, 332, 288
-0.999449, 207, 65, 222, 192
-0.999452, 339, 33, 354, 160
-0.999452, 153, 97, 168, 224
-0.999453, 265, 17, 280, 144
-0.999459, 123, 209, 138, 333
-0.999461, 279, 209, 294, 333
-0.999468, 249, 17, 264, 144
-0.999476, 243, 17, 258, 144
-0.999478, 15, 177, 30, 304
-0.999481, 479, 209, 494, 333
-0.999482, 201, 17, 216, 144
-0.999486, 207, 129, 222, 256
-0.999487, 13, 65, 28, 192
-0.999487, 161, 145, 176, 272
-0.99949, 259, 209, 274, 333
-0.999493, 13, 1, 44, 128
-0.999494, 311, 145, 326, 272
-0.999495, 221, 209, 236, 333
-0.999501, 409, 145, 424, 272
-0.999503, 191, 193, 206, 320
-0.999506, 3, 177, 18, 304
-0.999518, 277, 145, 292, 272
-0.999526, 293, 209, 308, 333
-0.999527, 185, 65, 200, 192
-0.999528, 191, 65, 206, 192
-0.999528, 175, 1, 190, 128
-0.999531, 165, 209, 180, 333
-0.999535, 189, 145, 204, 272
-0.999535, 409, 65, 440, 320
-0.99954, 91, 161, 106, 288
-0.999544, 413, 209, 428, 333
-0.999545, 105, 113, 120, 240
-0.999546, 315, 193, 330, 320
-0.999548, 153, 145, 168, 272
-0.999548, 371, 81, 386, 208
-0.999552, 3, 113, 18, 240
-0.999552, 253, 209, 268, 333
-0.999559, 309, 193, 324, 320
-0.999563, 429, 177, 444, 304
-0.999567, 213, 97, 228, 224
-0.999568, 291, 65, 306, 192
-0.999569, 89, 113, 104, 240
-0.99957, 77, 177, 92, 304
-0.999575, 473, 193, 488, 320
-0.999576, 21, 113, 36, 240
-0.999578, 173, 81, 188, 96
-0.999578, 265, 199, 280, 214
-0.999579, 209, 51, 224, 66
-0.999579, 179, 231, 194, 246
-0.999579, 351, 145, 366, 160
-0.999579, 345, 161, 360, 176
-0.999579, 171, 193, 186, 320
-0.999579, 133, 177, 148, 192
-0.999579, 415, 145, 430, 272
-0.99958, 119, 17, 134, 144
-0.999581, 123, 207, 138, 222
-0.999582, 179, 221, 194, 236
-0.999582, 227, 65, 242, 80
-0.999582, 163, 97, 178, 224
-0.999582, 97, 177, 112, 192
-0.999583, 109, 205, 124, 220
-0.999583, 333, 147, 348, 162
-0.999583, 403, 129, 418, 256
-0.999584, 311, 263, 326, 278
-0.999584, 107, 161, 122, 176
-0.999584, 117, 203, 132, 218
-0.999584, 185, 235, 200, 250
-0.999585, 197, 233, 212, 248
-0.999585, 279, 221, 294, 236
-0.999586, 277, 65, 292, 80
-0.999586, 341, 177, 356, 304
-0.999586, 333, 207, 348, 222
-0.999587, 273, 217, 288, 232
-0.999587, 147, 277, 162, 292
-0.999587, 329, 193, 344, 320
-0.999589, 357, 165, 372, 180
-0.99959, 145, 91, 160, 106
-0.99959, 111, 209, 126, 333
-0.999591, 343, 147, 358, 162
-0.999593, 137, 279, 152, 294
-0.999593, 201, 53, 216, 68
-0.999594, 233, 213, 248, 228
-0.999594, 129, 119, 144, 134
-0.999594, 297, 145, 312, 272
-0.999594, 127, 201, 142, 216
-0.999595, 101, 167, 116, 182
-0.999595, 109, 181, 124, 196
-0.999595, 233, 233, 248, 248
-0.999595, 91, 243, 106, 258
-0.999596, 131, 105, 146, 120
-0.999596, 291, 261, 306, 276
-0.999598, 277, 201, 292, 216
-0.999599, 127, 279, 142, 294
-0.9996, 327, 181, 342, 196
-0.999601, 141, 125, 156, 140
-0.999601, 139, 101, 154, 116
-0.999602, 139, 157, 154, 172
-0.999602, 5, 121, 20, 136
-0.999603, 119, 177, 134, 192
-0.999603, 317, 167, 332, 182
-0.999604, 399, 157, 414, 172
-0.999604, 147, 97, 162, 112
-0.999607, 149, 135, 164, 150
-0.999608, 405, 159, 420, 174
-0.999609, 237, 265, 252, 280
-0.99961, 141, 141, 156, 156
-0.999612, 221, 265, 236, 280
-0.999613, 229, 265, 244, 280
-0.999613, 141, 259, 156, 274
-0.999614, 185, 213, 200, 228
-0.999614, 195, 55, 210, 70
-0.999615, 353, 79, 368, 94
-0.999615, 133, 147, 148, 162
-0.999615, 207, 265, 222, 280
-0.999616, 251, 267, 266, 282
-0.999618, 183, 79, 198, 94
-0.999619, 311, 181, 326, 196
-0.999619, 179, 67, 194, 82
-0.999619, 155, 219, 170, 234
-0.99962, 243, 265, 258, 280
-0.999622, 271, 71, 286, 86
-0.999623, 239, 231, 254, 246
-0.999624, 339, 179, 354, 194
-0.999624, 353, 65, 368, 80
-0.999625, 373, 143, 388, 158
-0.999628, 297, 267, 312, 282
-0.999631, 199, 265, 214, 280
-0.999631, 103, 183, 118, 198
-0.999632, 257, 265, 272, 280
-0.999633, 311, 173, 326, 188
-0.999633, 187, 67, 202, 82
-0.999634, 215, 265, 230, 280
-0.999634, 89, 249, 104, 264
-0.999635, 323, 265, 338, 280
-0.999636, 355, 133, 370, 148
-0.999638, 307, 269, 322, 284
-0.999638, 369, 133, 384, 148
-0.99964, 365, 139, 380, 154
-0.999643, 359, 139, 374, 154
-0.999643, 353, 139, 368, 154
-0.999643, 143, 133, 158, 148
-0.999643, 249, 71, 264, 86
-0.999643, 135, 121, 150, 136
-0.999646, 367, 165, 382, 180
-0.999647, 131, 269, 146, 284
-0.999647, 235, 71, 250, 86
-0.999647, 185, 229, 200, 244
-0.999651, 375, 149, 390, 164
-0.999651, 263, 71, 278, 86
-0.999652, 147, 127, 162, 142
-0.999657, 317, 263, 332, 278
-0.999659, 329, 175, 344, 190
-0.999659, 189, 59, 204, 74
-0.99966, 255, 71, 270, 86
-0.999661, 353, 73, 368, 88
-0.999663, 243, 71, 258, 86
-0.999667, 171, 75, 186, 90
-0.999671, 361, 129, 376, 144
-0.999672, 277, 71, 292, 86
-0.999673, 191, 231, 206, 246
-0.999674, 121, 125, 136, 140
-0.999674, 137, 131, 152, 146
-0.999678, 117, 171, 132, 186
-0.999679, 133, 259, 148, 274
-0.999681, 353, 85, 368, 100
-0.999681, 191, 263, 206, 278
-0.999682, 183, 61, 198, 76
-0.999684, 317, 177, 332, 192
-0.999688, 127, 127, 142, 142
-0.999689, 227, 71, 242, 86
-0.999692, 367, 157, 382, 172
-0.999694, 125, 175, 140, 190
-0.999697, 379, 143, 394, 158
-0.999698, 109, 175, 124, 190
-0.999713, 181, 73, 196, 88
-0.999715, 323, 175, 338, 190
-0.999725, 377, 263, 392, 278
-0.999726, 379, 123, 394, 138
-0.999726, 173, 67, 188, 82
-0.999727, 303, 263, 318, 278
-0.999727, 361, 75, 376, 90
-0.999728, 333, 181, 348, 196
-0.999756, 359, 69, 374, 84
-0.999767, 371, 125, 386, 140
-0.999803, 425, 65, 488, 320
-0.99981, 421, 65, 452, 320
-0.999832, 397, 65, 428, 320
-0.999838, 433, 65, 464, 320
-0.999958, 45, 1, 76, 256
-1.00006, 1, 25, 500, 88
-1.00008, 353, 161, 416, 288
-1.0001, 385, 65, 416, 320
-1.00021, 453, 65, 484, 320
-1.00032, 429, 145, 460, 272
-1.00033, 373, 65, 404, 320
-1.00034, 33, 65, 64, 320
-1.00036, 105, 1, 136, 128
-1.00037, 469, 65, 500, 320
-1.0004, 433, 145, 496, 272
-1.00051, 29, 161, 60, 288
-1.00061, 69, 97, 100, 224
-1.00063, 369, 1, 496, 128
-1.00077, 209, 161, 240, 288
-1.00079, 401, 97, 432, 224
-1.00097, 57, 1, 88, 128
-1.00112, 1, 1, 500, 64
-1.00132, 61, 49, 92, 176
-1.00133, 41, 97, 104, 224
-1.0018, 433, 81, 464, 208
-1.0021, 25, 49, 88, 176
-1.0023, 433, 1, 496, 128
-1.00231, 133, 1, 164, 128
-1.00234, 469, 33, 500, 160
-1.00243, 405, 49, 436, 176
-1.00293, 449, 113, 480, 240
-1.0035, 425, 81, 488, 208
-1.00487, 377, 1, 440, 128
-1.00659, 401, 17, 464, 144
