1896
-0.600156, 33, 1, 288, 333
-0.615384, 1, 1, 500, 256
-0.641249, 1, 1, 500, 333
-0.666425, 257, 1, 500, 333
-0.769652, 33, 1, 288, 256
-0.780557, 257, 1, 500, 256
-0.782092, 129, 1, 384, 333
-0.873785, 161, 1, 416, 256
-0.894125, 209, 1, 336, 256
-0.908904, 209, 1, 336, 333
-0.909269, 145, 1, 272, 333
-0.909507, 33, 1, 160, 333
-0.92025, 97, 1, 224, 333
-0.921353, 1, 1, 500, 128
-0.929259, 289, 1, 416, 333
-0.930711, 161, 1, 288, 256
-0.931818, 33, 1, 160, 256
-0.932392, 257, 1, 384, 256
-0.934672, 113, 1, 240, 256
-0.934776, 209, 97, 336, 224
-0.9359, 193, 97, 448, 224
-0.940526, 305, 1, 432, 256
-0.943899, 1, 1, 256, 128
-0.944328, 97, 65, 352, 192
-0.947566, 1, 177, 500, 304
-0.947857, 249, 113, 312, 240
-0.949036, 273, 81, 336, 208
-0.949524, 81, 1, 208, 128
-0.949728, 209, 113, 272, 240
-0.949854, 97, 113, 352, 240
-0.950154, 97, 1, 352, 128
-0.9509, 1, 97, 500, 224
-0.951925, 337, 1, 464, 333
-0.954786, 249, 105, 312, 168
-0.956025, 257, 129, 320, 192
-0.956789, 225, 1, 480, 128
-0.956946, 97, 1, 160, 128
-0.957448, 129, 161, 384, 288
-0.958075, 217, 105, 280, 168
-0.959318, 273, 129, 336, 256
-0.959609, 201, 137, 264, 200
-0.962555, 193, 161, 320, 288
-0.962857, 225, 177, 480, 304
-0.963846, 233, 65, 296, 192
-0.963906, 161, 113, 288, 240
-0.964534, 1, 49, 500, 176
-0.965187, 209, 49, 336, 176
-0.965858, 1, 49, 256, 176
-0.966003, 241, 145, 368, 272
-0.96647, 121, 1, 184, 128
-0.966843, 225, 145, 288, 208
-0.967013, 225, 169, 288, 232
-0.967149, 209, 161, 272, 288
-0.967788, 257, 1, 384, 128
-0.968042, 273, 153, 336, 216
-0.968159, 257, 81, 384, 208
-0.96818, 1, 97, 256, 224
-0.970478, 273, 97, 336, 160
-0.971719, 433, 177, 496, 304
-0.971727, 161, 65, 288, 192
-0.971841, 369, 65, 496, 320
-0.972091, 257, 49, 500, 176
-0.972095, 233, 161, 296, 288
-0.972236, 33, 1, 160, 128
-0.97237, 257, 33, 320, 160
-0.972494, 297, 113, 360, 240
-0.973053, 209, 97, 336, 160
-0.97361, 241, 81, 304, 144
-0.974077, 177, 1, 304, 128
-0.974243, 209, 129, 336, 192
-0.97464, 297, 1, 360, 128
-0.97471, 185, 145, 248, 272
-0.974751, 193, 161, 256, 224
-0.974966, 129, 1, 256, 128
-0.975417, 285, 113, 316, 240
-0.975457, 81, 17, 144, 80
-0.975485, 265, 177, 328, 240
-0.97552, 233, 113, 264, 176
-0.975562, 265, 81, 296, 208
-0.976457, 209, 169, 336, 232
-0.976483, 249, 153, 312, 216
-0.976587, 289, 121, 352, 184
-0.976697, 245, 129, 276, 192
-0.976929, 277, 105, 308, 168
-0.977094, 73, 1, 136, 128
-0.977485, 129, 1, 192, 64
-0.977952, 237, 113, 268, 240
-0.978161, 289, 113, 320, 176
-0.978189, 145, 161, 272, 288
-0.978268, 225, 113, 256, 240
-0.978318, 97, 1, 224, 64
-0.97861, 385, 265, 448, 328
-0.978635, 253, 113, 284, 240
-0.978669, 209, 65, 272, 192
-0.978767, 297, 153, 360, 216
-0.978818, 369, 209, 496, 333
-0.978978, 257, 129, 288, 192
-0.979002, 321, 1, 384, 128
-0.979064, 1, 49, 128, 176
-0.979544, 33, 161, 288, 288
-0.979583, 273, 129, 304, 256
-0.979616, 249, 1, 312, 256
-0.979763, 229, 137, 260, 200
-0.979824, 193, 113, 256, 176
-0.980119, 201, 185, 264, 248
-0.98032, 301, 97, 332, 160
-0.980465, 113, 65, 240, 192
-0.98054, 305, 1, 432, 128
-0.980563, 297, 113, 328, 240
-0.980686, 253, 105, 284, 168
-0.980938, 145, 1, 208, 128
-0.981009, 153, 1, 216, 64
-0.98137, 265, 105, 296, 168
-0.981745, 105, 9, 168, 72
-0.981784, 177, 137, 240, 200
-0.981848, 217, 113, 248, 176
-0.981918, 49, 33, 112, 160
-0.981974, 201, 1, 264, 128
-0.982089, 217, 65, 280, 320
-0.982285, 353, 273, 416, 333
-0.982653, 185, 49, 248, 176
-0.98271, 213, 113, 244, 240
-0.983016, 301, 153, 332, 216
-0.983069, 253, 65, 284, 192
-0.983255, 157, 1, 188, 64
-0.983297, 305, 1, 368, 64
-0.98339, 57, 25, 120, 88
-0.983508, 285, 65, 316, 192
-0.983557, 301, 121, 332, 184
-0.983636, 161, 145, 288, 208
-0.983696, 213, 137, 244, 200
-0.983746, 269, 129, 300, 192
-0.983852, 113, 1, 144, 128
-0.983905, 289, 89, 320, 152
-0.984014, 161, 113, 288, 176
-0.984199, 217, 81, 280, 144
-0.984539, 289, 129, 416, 256
-0.984545, 185, 97, 248, 224
-0.984641, 249, 153, 280, 216
-0.984726, 257, 153, 384, 216
-0.984765, 217, 17, 280, 80
-0.984828, 313, 153, 344, 216
-0.984836, 317, 113, 348, 176
-0.98489, 225, 161, 256, 224
-0.985151, 433, 185, 496, 248
-0.985474, 201, 129, 232, 256
-0.985487, 265, 177, 328, 304
-0.985587, 297, 97, 360, 160
-0.985687, 161, 65, 288, 128
-0.985758, 185, 73, 248, 136
-0.985822, 257, 1, 384, 64
-0.985884, 289, 137, 320, 200
-0.985897, 241, 9, 304, 72
-0.985902, 309, 81, 340, 208
-0.985902, 233, 17, 296, 144
-0.986109, 49, 17, 176, 80
-0.986151, 129, 1, 160, 128
-0.986268, 89, 17, 120, 80
-0.986269, 241, 89, 272, 152
-0.986441, 277, 81, 308, 144
-0.986589, 433, 209, 496, 272
-0.986615, 145, 1, 176, 128
-0.986688, 9, 49, 72, 176
-0.986753, 241, 1, 304, 333
-0.986844, 237, 65, 268, 192
-0.986884, 257, 105, 384, 168
-0.986895, 289, 169, 320, 232
-0.986896, 297, 49, 360, 176
-0.986905, 393, 209, 456, 333
-0.986921, 257, 129, 384, 192
-0.987015, 297, 161, 360, 288
-0.987242, 289, 177, 352, 240
-0.987342, 161, 177, 288, 240
-0.98735, 369, 265, 496, 328
-0.987382, 193, 1, 256, 256
-0.987458, 209, 57, 272, 120
-0.987686, 241, 41, 304, 104
-0.987785, 217, 1, 280, 333
-0.987917, 261, 169, 292, 232
-0.987978, 105, 65, 168, 128
-0.987999, 229, 89, 260, 152
-0.988018, 265, 9, 328, 72
-0.988029, 193, 41, 320, 104
-0.988049, 241, 161, 272, 288
-0.988052, 97, 1, 160, 256
-0.988108, 277, 153, 308, 216
-0.988151, 101, 1, 132, 128
-0.98818, 253, 161, 284, 288
-0.988203, 89, 17, 120, 144
-0.988203, 81, 65, 144, 128
-0.988234, 65, 49, 192, 176
-0.988355, 273, 33, 304, 160
-0.988363, 217, 185, 248, 248
-0.988369, 17, 49, 144, 112
-0.988392, 217, 65, 248, 192
-0.988395, 329, 1, 392, 64
-0.988498, 113, 65, 240, 128
-0.98851, 273, 177, 304, 240
-0.988578, 121, 49, 184, 176
-0.988645, 41, 49, 104, 112
-0.98866, 385, 241, 448, 304
-0.988694, 265, 73, 328, 136
-0.988713, 321, 113, 352, 240
-0.988765, 145, 1, 272, 64
-0.988778, 169, 33, 232, 96
-0.988893, 205, 177, 236, 240
-0.989245, 137, 1, 168, 64
-0.989285, 297, 65, 328, 192
-0.989378, 145, 41, 208, 104
-0.989426, 65, 57, 192, 120
-0.989539, 273, 1, 336, 256
-0.98969, 293, 161, 324, 288
-0.989699, 193, 25, 256, 88
-0.989702, 145, 33, 272, 96
-0.989706, 409, 217, 472, 280
-0.989746, 313, 129, 376, 192
-0.989801, 209, 73, 336, 136
-0.989832, 237, 161, 268, 224
-0.989838, 117, 9, 148, 72
-0.98984, 89, 49, 152, 176
-0.989859, 209, 161, 272, 192
-0.990018, 233, 169, 296, 200
-0.990023, 209, 137, 272, 168
-0.990028, 145, 89, 272, 152
-0.990028, 249, 157, 312, 188
-0.990085, 221, 161, 252, 288
-0.990096, 273, 161, 336, 192
-0.990123, 177, 185, 240, 248
-0.990132, 321, 1, 352, 128
-0.990148, 377, 273, 408, 333
-0.990149, 309, 145, 340, 272
-0.990214, 249, 133, 312, 164
-0.990249, 249, 105, 312, 136
-0.990362, 197, 153, 228, 216
-0.990403, 193, 17, 320, 80
-0.990424, 81, 1, 144, 333
-0.990513, 217, 101, 280, 132
-0.99061, 265, 1, 328, 333
-0.990634, 305, 1, 432, 64
-0.990676, 209, 113, 272, 144
-0.990694, 289, 121, 352, 152
-0.99079, 353, 293, 416, 324
-0.990847, 241, 193, 368, 256
-0.990852, 9, 81, 72, 144
-0.990861, 253, 81, 284, 144
-0.990887, 405, 233, 436, 296
-0.99089, 241, 93, 304, 124
-0.990993, 201, 149, 264, 180
-0.991096, 305, 81, 432, 208
-0.9911, 369, 161, 496, 288
-0.991136, 273, 149, 336, 180
-0.991168, 273, 173, 336, 204
-0.991184, 1, 121, 64, 184
-0.991348, 273, 101, 336, 132
-0.991394, 161, 129, 224, 256
-0.991399, 81, 21, 144, 52
-0.991414, 209, 173, 272, 204
-0.991456, 41, 1, 104, 64
-0.991456, 1, 49, 64, 112
-0.99146, 105, 13, 168, 44
-0.991509, 81, 97, 144, 160
-0.991538, 145, 1, 208, 32
-0.991541, 185, 165, 248, 196
-0.99155, 273, 133, 336, 164
-0.991592, 17, 73, 144, 136
-0.991711, 409, 161, 472, 288
-0.991726, 249, 145, 312, 176
-0.991799, 265, 33, 328, 96
-0.991814, 433, 209, 496, 240
-0.99183, 297, 161, 360, 192
-0.991832, 209, 125, 272, 156
-0.991928, 265, 81, 296, 144
-0.991948, 265, 185, 328, 216
-0.991974, 1, 25, 128, 88
-0.991974, 305, 145, 432, 208
-0.991975, 289, 209, 416, 333
-0.992001, 185, 137, 248, 168
-0.992005, 201, 185, 264, 216
-0.992013, 157, 1, 188, 128
-0.992018, 297, 137, 360, 168
-0.992048, 297, 149, 360, 180
-0.992064, 225, 149, 288, 180
-0.992079, 265, 89, 328, 120
-0.99208, 289, 273, 416, 333
-0.992102, 65, 97, 192, 160
-0.992138, 217, 89, 280, 120
-0.992209, 1, 121, 128, 184
-0.992229, 265, 121, 328, 152
-0.992266, 369, 209, 496, 272
-0.992294, 385, 277, 448, 308
-0.992346, 337, 5, 400, 36
-0.99235, 241, 25, 368, 88
-0.992383, 333, 1, 364, 128
-0.992385, 1, 1, 128, 64
-0.99239, 241, 181, 304, 212
-0.9924, 385, 257, 448, 288
-0.992411, 273, 201, 336, 264
-0.992424, 97, 33, 224, 96
-0.992456, 57, 1, 120, 333
-0.992458, 33, 97, 160, 224
-0.992474, 89, 89, 152, 120
-0.992504, 433, 181, 496, 212
-0.992515, 193, 101, 256, 132
-0.992519, 193, 1, 256, 333
-0.992531, 385, 297, 448, 328
-0.992541, 177, 61, 240, 92
-0.992554, 393, 273, 424, 333
-0.992555, 361, 1, 424, 32
-0.992569, 261, 153, 292, 184
-0.992569, 257, 33, 320, 64
-0.99258, 329, 1, 360, 64
-0.992585, 17, 97, 144, 160
-0.99261, 177, 177, 240, 208
-0.992653, 289, 1, 352, 32
-0.992678, 249, 153, 280, 184
-0.992692, 193, 1, 256, 64
-0.992704, 225, 157, 256, 188
-0.992705, 353, 1, 416, 64
-0.992707, 237, 137, 268, 168
-0.99271, 281, 109, 312, 140
-0.992711, 41, 37, 104, 68
-0.992712, 313, 1, 376, 32
-0.992742, 177, 125, 240, 156
-0.99275, 297, 109, 328, 140
-0.992754, 217, 137, 248, 168
-0.992758, 249, 45, 312, 76
-0.992777, 73, 1, 136, 256
-0.992784, 205, 113, 236, 176
-0.992787, 177, 153, 240, 184
-0.992789, 41, 13, 104, 44
-0.992795, 345, 281, 408, 312
-0.9928, 277, 157, 308, 188
-0.992801, 301, 149, 332, 180
-0.992802, 297, 97, 328, 128
-0.992815, 129, 57, 192, 88
-0.992816, 57, 25, 120, 56
-0.992833, 233, 97, 264, 128
-0.992854, 249, 101, 280, 132
-0.992855, 237, 157, 268, 188
-0.992859, 201, 9, 264, 40
-0.99286, 433, 197, 496, 228
-0.992865, 217, 117, 248, 148
-0.992868, 297, 121, 328, 152
-0.992877, 305, 173, 368, 204
-0.992879, 261, 169, 292, 200
-0.992891, 177, 193, 240, 224
-0.992895, 261, 133, 292, 164
-0.992911, 225, 21, 288, 52
-0.992911, 97, 65, 160, 96
-0.992913, 81, 1, 144, 32
-0.992915, 293, 133, 324, 164
-0.992921, 313, 161, 344, 192
-0.992924, 169, 1, 232, 32
-0.992956, 369, 241, 496, 304
-0.99297, 89, 25, 120, 56
-0.992978, 301, 177, 332, 240
-0.992978, 305, 109, 368, 140
-0.99299, 129, 13, 192, 44
-0.992991, 433, 221, 496, 252
-0.992994, 285, 121, 316, 152
-0.992994, 245, 169, 276, 200
-0.993008, 201, 61, 264, 92
-0.993008, 281, 133, 312, 164
-0.993009, 225, 177, 256, 208
-0.993013, 205, 137, 236, 168
-0.993018, 385, 245, 448, 276
-0.993026, 225, 49, 288, 80
-0.993034, 241, 117, 304, 148
-0.993038, 1, 61, 64, 92
-0.993039, 309, 109, 340, 140
-0.993044, 357, 1, 388, 64
-0.99305, 201, 33, 264, 64
-0.99306, 329, 17, 392, 48
-0.993073, 289, 153, 320, 184
-0.993075, 1, 121, 64, 152
-0.993075, 205, 165, 236, 196
-0.993077, 265, 101, 296, 132
-0.993081, 329, 301, 392, 332
-0.993086, 249, 133, 280, 164
-0.993087, 285, 169, 316, 200
-0.993102, 373, 289, 404, 320
-0.993105, 173, 1, 204, 32
-0.99311, 281, 33, 344, 64
-0.993112, 285, 97, 316, 128
-0.993116, 205, 181, 236, 212
-0.993123, 237, 109, 268, 140
-0.993124, 97, 77, 160, 108
-0.993135, 65, 97, 128, 128
-0.993135, 289, 185, 352, 216
-0.993141, 77, 17, 108, 144
-0.993141, 313, 149, 344, 180
-0.993142, 401, 217, 464, 248
-0.99316, 297, 93, 360, 124
-0.993164, 257, 89, 288, 120
-0.993166, 137, 73, 200, 104
-0.993173, 221, 105, 252, 136
-0.993176, 105, 1, 168, 32
-0.993177, 257, 1, 320, 32
-0.993178, 273, 169, 304, 200
-0.993178, 133, 13, 164, 44
-0.99318, 385, 1, 448, 32
-0.993181, 229, 185, 260, 248
-0.993182, 205, 149, 236, 180
-0.993182, 305, 21, 368, 52
-0.993193, 73, 37, 136, 68
-0.993206, 297, 169, 328, 200
-0.993206, 113, 89, 176, 120
-0.993217, 41, 121, 104, 152
-0.993217, 289, 73, 352, 136
-0.993222, 381, 301, 412, 332
-0.993233, 409, 193, 472, 256
-0.993237, 393, 233, 456, 264
-0.993242, 73, 73, 136, 104
-0.993245, 273, 201, 336, 232
-0.993255, 349, 301, 380, 332
-0.993263, 361, 1, 392, 32
-0.993265, 117, 13, 148, 44
-0.993266, 73, 109, 136, 140
-0.99327, 229, 125, 260, 156
-0.99328, 265, 77, 328, 108
-0.993286, 309, 129, 340, 160
-0.993286, 153, 49, 216, 80
-0.993287, 265, 21, 328, 52
-0.993288, 269, 89, 300, 120
-0.993288, 429, 209, 460, 333
-0.993301, 241, 81, 304, 112
-0.993301, 393, 273, 424, 304
-0.99331, 361, 293, 392, 324
-0.993314, 81, 53, 144, 84
-0.993319, 245, 85, 276, 116
-0.99332, 1, 81, 64, 112
-0.993326, 49, 1, 112, 256
-0.993338, 253, 113, 284, 144
-0.993344, 137, 89, 200, 120
-0.993346, 461, 161, 492, 288
-0.993347, 161, 1, 192, 32
-0.993351, 41, 105, 104, 136
-0.993354, 273, 37, 304, 68
-0.993357, 469, 205, 500, 236
-0.993361, 297, 181, 328, 212
-0.99337, 257, 41, 288, 72
-0.993371, 101, 21, 132, 52
-0.993372, 225, 61, 288, 92
-0.993375, 65, 9, 320, 72
-0.993389, 277, 145, 308, 176
-0.993395, 33, 25, 96, 56
-0.993399, 461, 181, 492, 212
-0.993401, 401, 181, 464, 212
-0.993411, 409, 229, 440, 260
-0.993413, 205, 193, 236, 224
-0.993419, 161, 161, 224, 224
-0.993421, 205, 125, 236, 156
-0.993421, 445, 193, 476, 224
-0.993422, 169, 73, 232, 104
-0.993425, 149, 5, 180, 36
-0.99343, 281, 81, 312, 112
-0.993432, 233, 193, 296, 224
-0.993436, 377, 277, 408, 308
-0.993443, 201, 197, 264, 228
-0.993446, 289, 177, 416, 240
-0.993454, 341, 13, 372, 44
-0.993455, 193, 161, 224, 192
-0.993455, 469, 225, 500, 256
-0.993455, 177, 13, 240, 44
-0.993461, 397, 301, 428, 332
-0.993461, 1, 133, 64, 164
-0.993469, 89, 9, 120, 40
-0.993472, 269, 121, 300, 152
-0.993474, 441, 169, 472, 200
-0.993477, 309, 97, 340, 128
-0.993481, 233, 1, 296, 32
-0.993481, 201, 21, 264, 52
-0.993483, 217, 189, 248, 220
-0.993484, 277, 181, 308, 212
-0.993486, 321, 133, 352, 164
-0.993496, 1, 69, 32, 100
-0.993501, 297, 81, 328, 112
-0.993507, 457, 197, 488, 228
-0.993507, 349, 1, 380, 32
-0.993513, 189, 65, 220, 96
-0.993519, 201, 13, 232, 44
-0.993521, 113, 1, 144, 32
-0.993521, 113, 113, 240, 240
-0.993523, 417, 245, 480, 276
-0.993527, 93, 97, 124, 128
-0.993528, 173, 69, 204, 100
-0.99353, 1, 1, 64, 128
-0.99353, 41, 49, 104, 80
-0.993533, 377, 1, 408, 32
-0.993535, 453, 213, 484, 244
-0.993536, 385, 289, 416, 320
-0.99354, 321, 117, 352, 148
-0.993541, 213, 13, 244, 44
-0.993546, 201, 45, 264, 76
-0.993548, 17, 65, 48, 96
-0.993552, 201, 61, 232, 92
-0.993554, 101, 5, 132, 36
-0.993557, 33, 117, 64, 148
-0.993558, 285, 33, 316, 64
-0.993559, 21, 121, 52, 152
-0.99356, 409, 241, 440, 272
-0.99356, 1, 125, 32, 156
-0.993561, 177, 1, 240, 128
-0.993562, 225, 1, 256, 64
-0.993565, 425, 169, 488, 200
-0.993566, 77, 29, 108, 60
-0.993568, 105, 93, 136, 124
-0.993571, 305, 33, 368, 64
-0.993573, 241, 121, 272, 152
-0.993574, 441, 205, 472, 236
-0.993575, 117, 89, 148, 120
-0.99358, 325, 145, 356, 176
-0.993583, 113, 45, 176, 76
-0.993586, 97, 101, 160, 132
-0.993594, 193, 149, 224, 180
-0.993601, 137, 1, 168, 32
-0.993601, 329, 17, 360, 48
-0.993604, 213, 57, 244, 88
-0.993608, 81, 101, 112, 132
-0.993608, 185, 113, 248, 144
-0.993608, 313, 181, 344, 212
-0.993609, 229, 189, 260, 220
-0.993609, 153, 181, 216, 212
-0.993609, 417, 217, 448, 248
-0.993612, 401, 253, 432, 284
-0.993617, 265, 185, 296, 216
-0.993617, 69, 13, 100, 44
-0.993619, 125, 1, 156, 32
-0.993619, 317, 1, 348, 32
-0.993621, 213, 25, 244, 56
-0.993623, 273, 81, 400, 144
-0.993627, 97, 69, 128, 100
-0.993628, 361, 13, 424, 44
-0.993631, 393, 1, 424, 32
-0.993632, 225, 9, 256, 40
-0.993632, 409, 193, 472, 224
-0.993633, 337, 1, 368, 32
-0.993634, 253, 181, 284, 212
-0.993638, 193, 173, 224, 204
-0.993638, 317, 21, 348, 52
-0.993643, 201, 1, 232, 32
-0.993657, 249, 205, 312, 236
-0.993666, 161, 25, 224, 56
-0.993674, 177, 41, 240, 72
-0.993695, 201, 73, 264, 104
-0.993727, 225, 37, 288, 68
-0.993728, 361, 269, 424, 300
-0.993775, 101, 1, 132, 64
-0.993825, 453, 177, 484, 240
-0.993878, 445, 161, 476, 288
-0.994041, 33, 1, 96, 333
-0.994043, 193, 113, 448, 176
-0.99406, 285, 17, 316, 144
-0.994095, 261, 17, 292, 144
-0.994111, 105, 89, 168, 152
-0.994123, 433, 161, 496, 224
-0.99413, 241, 193, 304, 256
-0.994136, 69, 1, 100, 64
-0.99417, 113, 161, 240, 224
-0.994208, 205, 25, 236, 88
-0.994223, 161, 65, 224, 128
-0.994268, 97, 105, 352, 168
-0.99432, 129, 137, 384, 200
-0.994368, 309, 1, 340, 64
-0.994408, 349, 1, 380, 128
-0.994415, 297, 113, 312, 176
-0.994476, 243, 113, 258, 176
-0.994527, 241, 137, 256, 200
-0.994538, 253, 129, 268, 192
-0.994548, 169, 1, 232, 256
-0.994554, 121, 65, 152, 128
-0.994619, 345, 1, 376, 64
-0.994629, 369, 185, 496, 248
-0.99465, 385, 1, 448, 64
-0.994653, 441, 169, 472, 232
-0.994693, 465, 209, 496, 272
-0.994703, 289, 1, 320, 64
-0.994779, 97, 209, 352, 333
-0.99478, 401, 209, 432, 333
-0.994784, 277, 9, 308, 72
-0.994798, 259, 129, 274, 192
-0.994811, 1, 1, 64, 333
-0.994817, 289, 105, 304, 168
-0.994829, 313, 177, 376, 240
-0.994831, 237, 113, 252, 176
-0.994863, 169, 1, 200, 64
-0.994904, 253, 1, 284, 64
-0.994918, 57, 89, 120, 152
-0.994927, 225, 165, 352, 196
-0.994986, 137, 65, 200, 128
-0.99499, 209, 105, 336, 136
-0.995045, 177, 201, 304, 264
-0.995053, 231, 113, 246, 176
-0.995057, 209, 133, 336, 164
-0.995066, 121, 41, 184, 104
-0.995098, 321, 113, 384, 240
-0.995116, 81, 41, 144, 104
-0.995144, 267, 105, 282, 168
-0.995267, 205, 177, 236, 304
-0.995282, 77, 25, 108, 88
-0.995284, 247, 137, 262, 200
-0.9953, 105, 1, 168, 333
-0.995307, 209, 177, 336, 208
-0.995336, 225, 113, 240, 176
-0.995336, 265, 129, 280, 192
-0.995346, 241, 153, 368, 184
-0.995388, 129, 169, 384, 232
-0.995514, 227, 137, 242, 200
-0.995527, 1, 49, 256, 112
-0.995539, 305, 121, 432, 184
-0.995579, 209, 1, 240, 128
-0.995583, 281, 177, 312, 304
-0.99559, 305, 97, 320, 160
-0.995611, 25, 113, 88, 176
-0.995615, 259, 105, 274, 168
-0.995622, 273, 105, 288, 168
-0.995636, 225, 1, 256, 128
-0.995663, 189, 161, 220, 288
-0.995667, 271, 129, 286, 192
-0.995695, 283, 105, 298, 168
-0.995696, 141, 25, 172, 88
-0.995703, 233, 145, 248, 208
-0.995713, 465, 177, 496, 240
-0.995744, 325, 137, 356, 200
-0.995749, 289, 25, 416, 88
-0.995751, 185, 193, 248, 320
-0.995761, 285, 129, 300, 192
-0.995787, 245, 17, 276, 144
-0.995802, 299, 89, 314, 152
-0.995838, 313, 89, 344, 152
-0.995857, 161, 1, 176, 64
-0.995866, 441, 193, 472, 256
-0.995867, 97, 81, 352, 144
-0.995872, 253, 57, 284, 120
-0.995879, 315, 153, 330, 216
-0.995916, 249, 105, 264, 168
-0.99592, 307, 121, 322, 184
-0.995926, 177, 153, 304, 184
-0.995948, 221, 137, 236, 200
-0.996011, 353, 1, 480, 64
-0.996012, 241, 193, 368, 320
-0.996024, 193, 57, 224, 120
-0.996053, 217, 33, 248, 96
-0.996054, 121, 1, 184, 256
-0.996124, 97, 5, 224, 36
-0.996177, 249, 177, 280, 240
-0.996177, 429, 225, 460, 288
-0.996189, 265, 25, 296, 88
-0.996218, 189, 1, 220, 128
-0.996225, 257, 169, 500, 232
-0.996239, 17, 49, 48, 112
-0.996242, 321, 233, 448, 296
-0.99625, 219, 113, 234, 176
-0.99626, 201, 209, 264, 272
-0.996269, 365, 273, 396, 333
-0.996275, 301, 73, 332, 136
-0.99632, 277, 129, 292, 192
-0.996322, 305, 1, 336, 128
-0.996334, 241, 49, 368, 112
-0.996359, 209, 93, 336, 124
-0.99643, 193, 89, 448, 152
-0.996439, 153, 1, 216, 333
-0.996457, 13, 49, 44, 176
-0.996469, 241, 17, 272, 80
-0.996481, 219, 169, 234, 232
-0.996516, 217, 89, 248, 152
-0.996526, 321, 161, 352, 288
-0.996526, 307, 161, 322, 224
-0.996527, 241, 49, 272, 112
-0.996559, 205, 65, 236, 192
-0.996562, 33, 25, 96, 88
-0.996627, 313, 177, 344, 240
-0.996668, 209, 117, 336, 148
-0.996676, 263, 153, 278, 216
-0.996684, 105, 65, 136, 128
-0.996694, 273, 169, 288, 232
-0.99673, 253, 153, 268, 216
-0.996741, 329, 1, 392, 333
-0.996761, 213, 137, 228, 200
-0.996774, 289, 65, 320, 128
-0.996778, 465, 209, 496, 333
-0.996796, 1, 9, 500, 72
-0.996801, 385, 217, 448, 280
-0.996801, 193, 193, 224, 256
-0.996809, 89, 73, 120, 136
-0.996817, 395, 273, 410, 333
-0.996822, 279, 153, 294, 216
-0.996825, 161, 173, 288, 204
-0.996836, 193, 189, 320, 220
-0.996852, 225, 161, 240, 224
-0.996853, 277, 81, 292, 144
-0.996872, 291, 81, 306, 144
-0.996873, 5, 121, 36, 184
-0.996888, 289, 153, 304, 216
-0.996904, 161, 81, 224, 208
-0.996905, 297, 137, 312, 200
-0.996945, 161, 137, 288, 168
-0.99696, 297, 1, 360, 333
-0.996964, 301, 169, 316, 232
-0.996988, 295, 169, 310, 232
-0.997007, 243, 89, 258, 152
-0.997014, 287, 177, 302, 240
-0.997019, 245, 161, 260, 224
-0.997026, 155, 1, 170, 64
-0.997026, 1, 57, 32, 120
-0.997036, 393, 249, 424, 312
-0.997083, 107, 9, 122, 72
-0.997104, 257, 133, 384, 164
-0.997115, 169, 113, 232, 176
-0.99712, 81, 17, 208, 48
-0.997125, 257, 193, 500, 256
-0.997153, 413, 257, 444, 320
-0.99716, 315, 121, 330, 184
-0.997161, 313, 89, 328, 152
-0.997174, 1, 97, 256, 160
-0.997186, 291, 129, 306, 192
-0.997191, 369, 297, 496, 328
-0.997193, 33, 1, 64, 128
-0.997197, 9, 9, 72, 72
-0.997205, 321, 161, 336, 224
-0.997206, 97, 57, 352, 120
-0.997208, 285, 81, 300, 144
-0.997215, 331, 121, 346, 184
-0.997217, 213, 177, 228, 240
-0.997217, 253, 81, 268, 144
-0.99723, 193, 17, 448, 80
-0.997235, 25, 1, 88, 128
-0.997245, 273, 1, 400, 32
-0.997256, 201, 153, 216, 216
-0.997288, 167, 1, 182, 64
-0.997303, 113, 185, 240, 248
-0.997312, 433, 129, 496, 256
-0.997314, 417, 209, 448, 272
-0.997316, 387, 273, 402, 333
-0.997323, 281, 177, 296, 240
-0.997331, 225, 137, 480, 200
-0.997333, 133, 57, 164, 120
-0.997337, 113, 113, 240, 176
-0.997339, 91, 25, 106, 88
-0.997339, 417, 241, 480, 304
-0.997346, 237, 89, 252, 152
-0.997361, 277, 153, 292, 184
-0.997373, 65, 37, 192, 68
-0.997415, 161, 193, 416, 256
-0.997427, 451, 185, 466, 248
-0.997456, 225, 185, 240, 248
-0.997472, 201, 1, 232, 64
-0.997474, 321, 121, 336, 184
-0.9975, 97, 17, 112, 80
-0.997501, 269, 81, 284, 144
-0.997518, 33, 145, 288, 208
-0.997532, 181, 33, 212, 96
-0.997546, 231, 89, 246, 152
-0.997556, 177, 1, 208, 128
-0.997568, 229, 65, 260, 128
-0.997572, 119, 9, 134, 72
-0.997608, 5, 81, 36, 144
-0.997611, 337, 1, 400, 256
-0.997613, 129, 1, 192, 333
-0.997613, 299, 121, 314, 152
-0.997614, 17, 1, 144, 32
-0.997624, 161, 65, 288, 96
-0.997632, 231, 185, 246, 248
-0.997637, 337, 137, 352, 200
-0.997647, 315, 149, 330, 180
-0.997665, 289, 293, 416, 324
-0.997675, 149, 1, 164, 64
-0.997687, 153, 33, 184, 96
-0.99769, 483, 193, 498, 256
-0.997699, 217, 57, 248, 120
-0.997701, 329, 161, 344, 224
-0.997721, 441, 169, 456, 232
-0.997723, 359, 1, 374, 64
-0.997727, 305, 113, 320, 144
-0.997732, 129, 81, 256, 112
-0.99775, 349, 1, 364, 64
-0.997763, 207, 137, 222, 200
-0.997764, 441, 193, 456, 256
-0.997764, 225, 65, 256, 320
-0.997765, 241, 37, 368, 68
-0.99777, 29, 49, 60, 112
-0.99777, 173, 57, 204, 120
-0.997782, 263, 153, 278, 184
-0.997783, 113, 137, 240, 200
-0.997786, 251, 157, 266, 188
-0.997789, 219, 121, 234, 152
-0.997804, 263, 81, 278, 144
-0.997814, 369, 277, 496, 308
-0.997819, 257, 1, 288, 256
-0.997824, 153, 185, 216, 248
-0.997826, 173, 1, 188, 64
-0.997827, 145, 1, 272, 32
-0.997838, 295, 109, 310, 140
-0.997838, 289, 149, 416, 180
-0.997839, 305, 97, 320, 128
-0.997866, 1, 81, 128, 112
-0.997872, 97, 161, 224, 288
-0.997873, 113, 61, 240, 92
-0.997876, 457, 177, 472, 240
-0.997881, 239, 161, 254, 224
-0.997882, 125, 9, 140, 72
-0.997891, 337, 1, 464, 32
-0.997892, 277, 165, 292, 196
-0.997897, 135, 1, 150, 64
-0.997906, 433, 161, 464, 288
-0.997917, 287, 157, 302, 188
-0.997922, 255, 17, 270, 80
-0.997924, 101, 89, 132, 152
-0.997928, 193, 41, 448, 104
-0.997931, 237, 33, 268, 288
-0.997936, 393, 169, 456, 232
-0.997947, 249, 137, 264, 168
-0.997948, 225, 265, 480, 328
-0.997956, 309, 185, 324, 248
-0.997956, 253, 177, 268, 240
-0.997963, 305, 73, 320, 136
-0.997965, 205, 73, 236, 136
-0.997965, 17, 25, 144, 56
-0.997969, 281, 1, 312, 256
-0.997969, 257, 13, 384, 44
-0.99797, 257, 93, 384, 124
-0.997983, 237, 137, 252, 168
-0.997996, 193, 33, 224, 96
-0.998005, 385, 161, 448, 288
-0.998005, 269, 153, 284, 184
-0.998013, 193, 209, 320, 333
-0.998014, 257, 153, 272, 184
-0.998019, 269, 177, 300, 304
-0.998024, 241, 157, 256, 188
-0.998034, 207, 169, 222, 232
-0.998045, 215, 9, 230, 72
-0.99805, 325, 169, 356, 232
-0.998056, 339, 1, 354, 64
-0.99806, 253, 101, 268, 132
-0.998061, 1, 73, 256, 136
-0.998065, 345, 249, 408, 312
-0.998067, 471, 185, 486, 248
-0.998068, 33, 81, 96, 144
-0.99807, 259, 133, 274, 164
-0.998072, 161, 117, 288, 148
-0.998074, 287, 141, 302, 172
-0.998077, 225, 81, 352, 112
-0.998079, 227, 137, 242, 168
-0.998079, 465, 185, 480, 248
-0.99808, 289, 169, 416, 200
-0.998081, 1, 53, 128, 84
-0.998083, 219, 137, 234, 168
-0.998084, 389, 293, 404, 324
-0.998087, 33, 185, 288, 248
-0.998089, 269, 165, 284, 196
-0.998092, 281, 17, 296, 80
-0.998094, 307, 129, 322, 160
-0.998095, 291, 9, 306, 72
-0.998099, 161, 101, 288, 132
-0.998122, 211, 129, 226, 160
-0.998123, 311, 113, 326, 144
-0.998124, 257, 121, 384, 152
-0.998125, 267, 133, 282, 164
-0.998126, 243, 105, 258, 136
-0.998129, 157, 25, 172, 88
-0.998141, 295, 97, 310, 128
-0.998142, 265, 101, 280, 132
-0.998143, 305, 13, 432, 44
-0.998144, 1, 33, 500, 96
-0.998147, 265, 17, 280, 80
-0.99815, 449, 209, 480, 333
-0.998152, 109, 33, 124, 96
-0.99816, 365, 1, 380, 64
-0.998168, 105, 25, 136, 88
-0.998173, 9, 33, 72, 288
-0.998183, 85, 25, 100, 88
-0.998183, 23, 49, 38, 112
-0.998185, 429, 185, 460, 248
-0.998194, 161, 33, 288, 64
-0.998195, 235, 157, 250, 188
-0.998197, 433, 1, 496, 333
-0.998199, 231, 101, 246, 132
-0.998203, 243, 137, 258, 168
-0.998212, 25, 49, 56, 176
-0.998219, 281, 133, 296, 164
-0.998219, 263, 165, 278, 196
-0.998235, 65, 89, 192, 120
-0.99824, 81, 73, 208, 104
-0.998243, 219, 181, 234, 212
-0.998251, 113, 1, 128, 64
-0.998254, 345, 1, 408, 128
-0.998258, 209, 49, 336, 80
-0.998271, 91, 1, 106, 64
-0.998271, 409, 233, 424, 296
-0.998274, 83, 1, 98, 64
-0.998276, 227, 161, 242, 192
-0.998276, 141, 1, 156, 64
-0.99828, 229, 133, 260, 148
-0.99828, 115, 65, 130, 128
-0.998282, 249, 181, 280, 196
-0.998282, 257, 87, 288, 102
-0.998283, 321, 117, 352, 132
-0.998283, 265, 149, 296, 164
-0.998284, 395, 249, 410, 312
-0.998285, 165, 77, 196, 92
-0.998285, 197, 139, 228, 154
-0.998287, 217, 127, 248, 142
-0.998287, 329, 19, 360, 34
-0.998287, 283, 173, 298, 204
-0.998287, 73, 107, 104, 122
-0.998288, 85, 31, 116, 46
-0.998289, 409, 245, 440, 260
-0.99829, 441, 177, 472, 192
-0.99829, 445, 205, 476, 220
-0.99829, 417, 1, 448, 16
-0.998291, 409, 239, 440, 254
-0.998291, 393, 1, 424, 16
-0.998294, 197, 157, 228, 172
-0.998294, 461, 201, 492, 216
-0.998294, 193, 19, 224, 34
-0.998295, 257, 97, 288, 112
-0.998295, 301, 91, 332, 106
-0.998296, 281, 141, 312, 156
-0.998297, 293, 133, 308, 164
-0.998297, 173, 71, 204, 86
-0.998299, 229, 101, 260, 116
-0.998299, 197, 177, 228, 192
-0.9983, 217, 121, 248, 136
-0.998301, 193, 17, 320, 48
-0.998301, 249, 49, 280, 64
-0.998302, 269, 99, 300, 114
-0.998302, 209, 193, 240, 208
-0.998303, 293, 165, 324, 180
-0.998304, 221, 167, 252, 182
-0.998304, 205, 145, 236, 160
-0.998304, 445, 187, 476, 202
-0.998305, 305, 181, 336, 196
-0.998305, 289, 109, 304, 140
-0.998306, 293, 135, 324, 150
-0.998306, 293, 83, 324, 98
-0.998307, 381, 301, 412, 316
-0.998307, 453, 193, 484, 208
-0.998308, 389, 277, 420, 292
-0.998311, 433, 217, 448, 280
-0.998311, 405, 1, 436, 16
-0.998313, 357, 305, 388, 320
-0.998313, 257, 43, 288, 58
-0.998313, 377, 295, 408, 310
-0.998316, 259, 93, 274, 124
-0.998317, 207, 33, 222, 96
-0.998317, 409, 233, 440, 248
-0.998317, 29, 49, 44, 112
-0.998318, 273, 183, 304, 198
-0.998318, 413, 193, 444, 320
-0.998319, 209, 177, 240, 192
-0.998319, 281, 159, 312, 174
-0.998322, 365, 311, 396, 326
-0.998323, 237, 105, 252, 136
-0.998324, 213, 113, 228, 176
-0.998324, 197, 163, 228, 178
-0.998325, 225, 113, 240, 144
-0.998326, 309, 117, 340, 132
-0.998328, 253, 151, 284, 166
-0.998328, 313, 169, 344, 184
-0.998328, 221, 153, 252, 168
-0.998329, 301, 187, 332, 202
-0.998331, 313, 149, 344, 164
-0.998332, 307, 145, 322, 176
-0.998332, 213, 133, 244, 148
-0.998333, 207, 193, 222, 256
-0.998334, 317, 129, 348, 144
-0.998335, 293, 173, 324, 188
-0.998337, 469, 229, 500, 244
-0.998339, 217, 107, 248, 122
-0.99834, 401, 257, 416, 320
-0.998341, 313, 97, 328, 128
-0.998341, 285, 183, 316, 198
-0.998342, 91, 73, 106, 136
-0.998342, 261, 111, 292, 126
-0.998344, 345, 315, 376, 330
-0.998344, 205, 151, 236, 166
-0.998348, 377, 317, 408, 332
-0.998349, 293, 147, 324, 162
-0.99835, 381, 273, 396, 333
-0.998351, 253, 141, 284, 156
-0.998352, 205, 171, 236, 186
-0.998353, 173, 1, 204, 16
-0.998354, 229, 183, 260, 198
-0.998354, 285, 99, 316, 114
-0.998355, 227, 173, 242, 204
-0.998355, 241, 93, 256, 124
-0.998357, 265, 171, 296, 186
-0.998361, 153, 7, 184, 22
-0.998363, 233, 163, 264, 178
-0.998364, 261, 165, 292, 180
-0.998365, 317, 123, 348, 138
-0.998366, 117, 17, 148, 32
-0.998369, 381, 307, 412, 322
-0.99837, 261, 181, 292, 196
-0.998374, 273, 111, 304, 126
-0.998375, 309, 111, 340, 126
-0.998377, 289, 125, 320, 140
-0.998378, 193, 81, 224, 208
-0.998378, 217, 187, 248, 202
-0.998379, 209, 163, 240, 178
-0.998381, 105, 21, 136, 36
-0.998386, 373, 287, 404, 302
-0.998387, 135, 57, 150, 120
-0.998389, 277, 153, 308, 168
-0.998389, 301, 129, 332, 144
-0.998391, 65, 61, 192, 92
-0.998392, 301, 97, 332, 112
-0.998393, 217, 165, 232, 196
-0.998394, 221, 147, 252, 162
-0.998396, 109, 21, 124, 52
-0.998398, 293, 159, 324, 174
-0.998399, 253, 173, 268, 204
-0.998399, 205, 183, 236, 198
-0.9984, 313, 163, 344, 178
-0.998401, 133, 13, 164, 28
-0.998402, 297, 103, 328, 118
-0.998403, 325, 1, 340, 64
-0.998406, 257, 109, 384, 140
-0.998407, 273, 89, 288, 120
-0.99841, 249, 167, 280, 182
-0.998411, 233, 169, 264, 184
-0.998411, 241, 143, 272, 158
-0.998414, 273, 177, 304, 192
-0.998415, 285, 111, 316, 126
-0.998415, 273, 133, 288, 164
-0.998416, 275, 101, 290, 132
-0.998416, 261, 157, 292, 172
-0.998417, 309, 157, 340, 172
-0.99842, 275, 17, 290, 80
-0.998427, 233, 125, 248, 156
-0.998429, 221, 161, 252, 176
-0.998432, 241, 151, 272, 166
-0.998432, 161, 49, 288, 80
-0.998433, 239, 1, 254, 64
-0.998434, 237, 113, 268, 128
-0.998437, 241, 175, 272, 190
-0.998439, 247, 93, 262, 124
-0.99844, 89, 25, 120, 40
-0.99844, 273, 165, 304, 180
-0.998443, 233, 157, 264, 172
-0.998443, 317, 161, 332, 192
-0.998443, 245, 157, 276, 172
-0.998448, 179, 1, 194, 64
-0.998449, 293, 153, 324, 168
-0.998451, 221, 115, 252, 130
-0.998455, 301, 123, 332, 138
-0.998457, 125, 65, 140, 128
-0.998461, 321, 153, 384, 216
-0.998462, 307, 169, 322, 200
-0.998465, 249, 111, 280, 126
-0.998467, 297, 109, 328, 124
-0.998467, 261, 57, 276, 120
-0.998469, 297, 115, 328, 130
-0.998469, 209, 139, 240, 154
-0.998472, 259, 105, 274, 136
-0.998473, 241, 105, 304, 120
-0.998475, 201, 185, 216, 248
-0.998475, 245, 105, 276, 120
-0.998478, 281, 133, 312, 148
-0.998479, 253, 135, 284, 150
-0.998479, 91, 25, 106, 56
-0.998485, 203, 57, 218, 120
-0.998489, 17, 69, 144, 100
-0.998494, 223, 33, 238, 96
-0.998494, 41, 49, 56, 112
-0.998496, 285, 105, 316, 120
-0.998497, 451, 209, 466, 272
-0.998498, 217, 105, 280, 120
-0.9985, 229, 139, 260, 154
-0.998501, 327, 97, 342, 160
-0.998502, 269, 1, 300, 256
-0.998502, 217, 175, 280, 190
-0.998504, 249, 113, 264, 144
-0.998504, 395, 273, 410, 304
-0.998506, 241, 137, 272, 152
-0.998511, 307, 157, 322, 188
-0.998511, 253, 173, 284, 188
-0.998514, 241, 157, 304, 172
-0.998518, 115, 17, 130, 48
-0.998518, 1, 201, 500, 264
-0.998518, 221, 177, 252, 192
-0.99852, 233, 137, 296, 152
-0.99852, 265, 135, 296, 150
-0.998521, 369, 217, 496, 248
-0.998522, 265, 165, 328, 180
-0.998523, 211, 149, 226, 180
-0.998525, 229, 107, 260, 122
-0.998527, 337, 137, 368, 200
-0.998529, 249, 111, 312, 126
-0.99853, 241, 175, 304, 190
-0.998532, 257, 133, 320, 148
-0.998535, 317, 117, 332, 148
-0.998536, 289, 97, 304, 128
-0.998538, 209, 139, 272, 154
-0.998547, 289, 201, 416, 264
-0.998547, 257, 103, 288, 118
-0.998547, 395, 297, 410, 328
-0.998547, 269, 105, 300, 120
-0.998551, 233, 167, 296, 182
-0.998553, 17, 81, 48, 144
-0.998556, 265, 105, 328, 120
-0.998557, 225, 111, 288, 126
-0.998558, 217, 153, 232, 184
-0.998565, 301, 169, 316, 200
-0.998566, 243, 117, 258, 148
-0.998566, 213, 33, 244, 288
-0.99857, 485, 225, 500, 256
-0.998573, 283, 109, 298, 140
-0.998575, 329, 161, 344, 192
-0.998576, 161, 177, 224, 304
-0.998577, 273, 177, 336, 192
-0.998577, 217, 161, 280, 176
-0.998578, 203, 149, 218, 180
-0.998581, 211, 161, 226, 192
-0.998583, 151, 9, 166, 40
-0.998585, 245, 173, 260, 204
-0.998585, 1, 125, 128, 156
-0.998587, 233, 181, 296, 196
-0.998588, 273, 157, 336, 172
-0.998589, 289, 129, 352, 144
-0.998597, 201, 147, 264, 162
-0.998597, 289, 123, 352, 138
-0.9986, 353, 299, 416, 314
-0.9986, 345, 309, 408, 324
-0.998602, 193, 177, 256, 192
-0.998603, 287, 129, 302, 160
-0.998607, 201, 169, 264, 184
-0.998614, 265, 171, 328, 186
-0.998615, 241, 151, 304, 166
-0.998621, 293, 153, 308, 184
-0.998622, 353, 293, 416, 308
-0.998622, 281, 93, 296, 124
-0.998623, 257, 143, 320, 158
-0.998623, 17, 41, 144, 72
-0.998625, 193, 153, 256, 168
-0.998627, 225, 145, 288, 160
-0.998631, 225, 101, 240, 132
-0.998635, 273, 149, 336, 164
-0.998635, 257, 99, 320, 114
-0.998635, 201, 183, 264, 198
-0.998635, 455, 193, 470, 224
-0.998636, 227, 149, 242, 180
-0.998638, 103, 21, 118, 52
-0.998639, 193, 161, 256, 176
-0.99864, 297, 151, 360, 166
-0.998643, 81, 25, 144, 40
-0.998644, 179, 1, 194, 32
-0.998644, 161, 1, 224, 16
-0.998646, 105, 17, 168, 32
-0.998646, 433, 215, 496, 230
-0.99865, 265, 183, 328, 198
-0.998653, 265, 85, 328, 100
-0.998653, 309, 185, 324, 216
-0.998653, 281, 135, 344, 150
-0.998657, 185, 141, 248, 156
-0.998658, 217, 155, 280, 170
-0.998658, 273, 189, 336, 204
-0.99866, 369, 1, 432, 16
-0.99866, 289, 117, 352, 132
-0.998661, 241, 25, 368, 56
-0.998662, 137, 7, 200, 22
-0.998662, 289, 107, 352, 122
-0.998663, 161, 5, 176, 36
-0.998663, 297, 157, 360, 172
-0.998663, 45, 41, 76, 104
-0.998664, 433, 197, 496, 212
-0.998665, 129, 185, 256, 216
-0.998667, 433, 209, 496, 224
-0.998668, 257, 93, 320, 108
-0.998671, 329, 117, 344, 148
-0.998671, 1, 65, 32, 192
-0.998671, 1, 125, 64, 140
-0.998672, 265, 89, 280, 120
-0.998673, 177, 171, 240, 186
-0.998675, 209, 117, 272, 132
-0.998675, 249, 41, 312, 56
-0.998679, 193, 109, 256, 124
-0.998681, 193, 189, 256, 204
-0.998681, 33, 113, 160, 144
-0.998682, 177, 183, 240, 198
-0.998682, 65, 101, 192, 132
-0.998682, 209, 131, 272, 146
-0.998683, 329, 315, 392, 330
-0.998684, 225, 97, 288, 112
-0.998684, 281, 99, 344, 114
-0.998686, 265, 127, 328, 142
-0.998686, 289, 169, 352, 184
-0.998688, 313, 129, 328, 160
-0.998688, 97, 93, 160, 108
-0.998688, 311, 85, 326, 116
-0.998689, 293, 121, 308, 152
-0.99869, 265, 35, 328, 50
-0.998691, 297, 163, 360, 178
-0.998692, 385, 299, 448, 314
-0.998692, 345, 287, 408, 302
-0.998694, 241, 189, 368, 220
-0.998695, 129, 13, 192, 28
-0.998696, 113, 93, 240, 124
-0.998696, 329, 13, 392, 28
-0.998697, 305, 7, 368, 22
-0.998697, 385, 257, 448, 272
-0.998697, 385, 289, 448, 304
-0.998699, 215, 9, 230, 40
-0.9987, 369, 181, 496, 212
-0.998702, 393, 1, 456, 16
-0.998702, 369, 307, 432, 322
-0.998703, 201, 195, 264, 210
-0.998704, 57, 17, 120, 32
-0.998705, 273, 1, 336, 16
-0.998706, 113, 1, 176, 16
-0.998706, 217, 193, 232, 224
-0.998708, 41, 31, 104, 46
-0.998708, 73, 31, 136, 46
-0.99871, 185, 63, 248, 78
-0.998711, 367, 1, 382, 32
-0.998711, 289, 277, 416, 308
-0.998711, 377, 281, 440, 296
-0.998712, 225, 1, 352, 32
-0.998712, 433, 191, 496, 206
-0.998713, 169, 69, 232, 84
-0.998715, 73, 101, 136, 116
-0.998715, 289, 183, 352, 198
-0.998716, 185, 135, 248, 150
-0.998716, 217, 13, 280, 28
-0.998717, 361, 301, 376, 332
-0.998717, 241, 187, 304, 202
-0.998717, 385, 251, 448, 266
-0.998719, 297, 175, 360, 190
-0.998719, 297, 143, 360, 158
-0.99872, 433, 223, 496, 238
-0.99872, 217, 19, 280, 34
-0.998722, 385, 273, 448, 288
-0.998722, 201, 7, 264, 22
-0.998723, 433, 229, 496, 244
-0.998724, 353, 315, 416, 330
-0.998724, 225, 49, 288, 64
-0.998725, 97, 7, 160, 22
-0.998725, 41, 23, 104, 38
-0.998726, 313, 19, 376, 34
-0.998728, 161, 7, 224, 22
-0.998729, 73, 37, 136, 52
-0.99873, 433, 183, 496, 198
-0.99873, 409, 219, 472, 234
-0.998731, 393, 229, 456, 244
-0.998731, 233, 129, 296, 144
-0.998731, 105, 55, 168, 70
-0.998732, 89, 69, 152, 84
-0.998732, 145, 77, 208, 92
-0.998733, 81, 63, 144, 78
-0.998734, 241, 85, 304, 100
-0.998735, 41, 45, 104, 60
-0.998736, 73, 109, 136, 124
-0.998736, 281, 13, 344, 28
-0.998736, 447, 177, 462, 208
-0.998736, 161, 157, 224, 172
-0.998737, 345, 5, 408, 20
-0.998737, 305, 135, 368, 150
-0.998738, 213, 1, 244, 64
-0.998738, 313, 1, 376, 16
-0.998738, 377, 1, 392, 32
-0.998738, 367, 293, 382, 324
-0.998738, 297, 93, 360, 108
-0.998738, 169, 177, 232, 192
-0.998738, 249, 51, 312, 66
-0.998739, 1, 65, 64, 80
-0.998739, 81, 19, 144, 34
-0.998739, 241, 19, 304, 34
-0.99874, 275, 81, 290, 208
-0.998742, 289, 25, 320, 88
-0.998746, 333, 133, 348, 164
-0.998749, 481, 205, 496, 236
-0.998751, 277, 177, 292, 208
-0.998752, 241, 201, 368, 232
-0.998754, 447, 197, 462, 228
-0.998761, 227, 125, 242, 156
-0.998761, 323, 109, 338, 140
-0.998765, 297, 65, 328, 320
-0.998767, 133, 13, 148, 44
-0.998768, 285, 81, 300, 208
-0.998769, 295, 169, 310, 200
-0.998772, 113, 49, 240, 80
-0.998776, 289, 25, 416, 56
-0.998779, 129, 157, 256, 188
-0.998782, 1, 13, 128, 44
-0.998783, 369, 261, 496, 292
-0.998784, 353, 137, 480, 200
-0.998789, 85, 25, 100, 56
-0.998789, 361, 1, 376, 32
-0.99879, 323, 145, 338, 176
-0.998795, 211, 193, 226, 224
-0.998797, 173, 1, 188, 32
-0.998802, 231, 113, 246, 144
-0.998806, 385, 281, 400, 312
-0.998812, 323, 165, 338, 196
-0.998821, 145, 9, 160, 40
-0.998825, 225, 185, 240, 216
-0.998827, 473, 189, 488, 220
-0.99883, 279, 37, 294, 68
-0.998831, 455, 181, 470, 212
-0.998832, 299, 153, 314, 184
-0.998841, 253, 89, 268, 120
-0.998843, 185, 1, 200, 32
-0.998846, 267, 41, 282, 72
-0.998847, 479, 221, 494, 252
-0.998847, 93, 1, 124, 256
-0.998857, 233, 173, 248, 204
-0.99886, 97, 33, 352, 96
-0.998861, 213, 181, 228, 212
-0.998862, 201, 161, 216, 192
-0.998863, 297, 25, 360, 88
-0.998864, 129, 209, 256, 272
-0.998873, 111, 41, 126, 72
-0.998875, 383, 301, 398, 332
-0.998925, 239, 113, 254, 240
-0.998929, 77, 89, 108, 152
-0.998948, 265, 113, 280, 240
-0.99895, 247, 113, 262, 240
-0.998953, 185, 153, 216, 216
-0.998957, 209, 61, 336, 92
-0.998964, 291, 81, 306, 208
-0.998964, 297, 201, 328, 264
-0.998973, 229, 113, 244, 240
-0.998986, 307, 97, 322, 224
-0.99899, 285, 129, 300, 256
-0.998991, 257, 113, 272, 240
-0.998994, 1, 97, 64, 224
-0.999002, 219, 113, 234, 240
-0.999017, 1, 121, 256, 184
-0.99903, 121, 1, 152, 256
-0.999031, 275, 129, 290, 256
-0.999042, 301, 113, 316, 240
-0.999049, 291, 129, 306, 256
-0.999049, 113, 173, 240, 204
-0.999056, 289, 185, 416, 216
-0.999059, 315, 113, 330, 240
-0.999063, 145, 197, 272, 228
-0.999068, 29, 113, 60, 176
-0.999072, 1, 113, 500, 176
-0.999077, 193, 1, 224, 256
-0.999088, 337, 241, 464, 272
-0.999091, 77, 1, 108, 256
-0.999099, 73, 97, 136, 224
-0.999113, 113, 29, 240, 60
-0.999122, 265, 65, 280, 192
-0.999125, 253, 25, 284, 88
-0.999141, 345, 209, 408, 333
-0.99915, 209, 129, 224, 256
-0.999154, 333, 113, 364, 240
-0.999167, 305, 137, 432, 168
-0.999173, 285, 193, 316, 256
-0.999201, 115, 1, 130, 128
-0.999202, 305, 125, 432, 156
-0.999213, 109, 1, 140, 256
-0.999222, 147, 1, 162, 128
-0.999235, 257, 65, 272, 192
-0.999241, 129, 1, 144, 128
-0.999249, 139, 1, 154, 128
-0.99926, 161, 1, 176, 128
-0.999263, 17, 93, 144, 124
-0.999279, 301, 49, 316, 176
-0.999282, 225, 233, 480, 296
-0.999282, 53, 33, 84, 160
-0.999295, 65, 33, 96, 96
-0.999295, 205, 49, 236, 112
-0.999299, 313, 1, 376, 256
-0.9993, 193, 209, 320, 240
-0.999302, 129, 89, 192, 152
-0.999316, 239, 65, 254, 192
-0.999323, 113, 129, 240, 160
-0.999343, 247, 65, 262, 192
-0.999366, 155, 1, 170, 128
-0.999368, 113, 145, 240, 176
-0.99937, 269, 161, 284, 288
-0.999373, 307, 161, 322, 288
-0.999373, 91, 17, 106, 144
-0.999374, 123, 1, 138, 128
-0.999374, 129, 17, 256, 48
-0.999376, 249, 161, 264, 288
-0.999377, 271, 33, 286, 160
-0.99938, 233, 65, 248, 192
-0.999396, 85, 65, 116, 192
-0.999401, 289, 197, 416, 228
-0.999403, 285, 33, 300, 160
-0.999405, 309, 1, 340, 256
-0.999407, 99, 17, 114, 144
-0.999408, 299, 161, 314, 288
-0.999421, 369, 193, 496, 224
-0.999426, 321, 97, 336, 224
-0.999427, 65, 49, 192, 80
-0.999428, 279, 33, 294, 160
-0.99943, 255, 161, 270, 288
-0.999442, 219, 65, 234, 192
-0.999455, 291, 33, 306, 160
-0.999457, 105, 17, 120, 144
-0.999469, 307, 49, 322, 176
-0.99947, 65, 33, 96, 160
-0.999471, 233, 161, 248, 288
-0.999473, 321, 145, 336, 272
-0.999474, 257, 65, 500, 128
-0.999478, 361, 225, 424, 288
-0.999483, 329, 273, 392, 333
-0.99949, 335, 1, 350, 128
-0.999492, 315, 161, 330, 288
-0.999492, 321, 97, 448, 160
-0.999498, 145, 57, 176, 120
-0.999505, 83, 17, 98, 144
-0.999505, 239, 161, 254, 288
-0.999505, 1, 145, 500, 208
-0.999517, 219, 161, 234, 288
-0.999518, 201, 145, 216, 272
-0.99952, 225, 65, 240, 192
-0.999527, 445, 177, 460, 304
-0.999527, 453, 201, 484, 264
-0.999528, 475, 197, 490, 212
-0.999528, 283, 163, 298, 178
-0.999529, 307, 177, 322, 192
-0.999529, 187, 1, 202, 16
-0.999529, 333, 113, 348, 240
-0.999529, 393, 305, 408, 320
-0.999529, 263, 161, 278, 288
-0.99953, 217, 167, 232, 182
-0.99953, 295, 155, 310, 170
-0.999531, 101, 25, 116, 40
-0.999533, 307, 143, 322, 158
-0.999533, 147, 13, 162, 28
-0.999533, 229, 117, 244, 132
-0.999533, 157, 9, 172, 24
-0.999534, 307, 155, 322, 170
-0.999534, 275, 109, 290, 124
-0.999534, 257, 143, 272, 158
-0.999534, 49, 113, 112, 176
-0.999534, 37, 49, 68, 176
-0.999535, 235, 155, 250, 170
-0.999535, 209, 135, 224, 150
-0.999536, 307, 171, 322, 186
-0.999536, 215, 1, 230, 128
-0.999537, 323, 117, 338, 132
-0.999537, 311, 125, 326, 140
-0.999537, 273, 179, 288, 194
-0.999537, 293, 123, 308, 138
-0.999538, 457, 195, 472, 210
-0.99954, 331, 161, 346, 176
-0.99954, 451, 199, 466, 214
-0.999541, 269, 101, 284, 116
-0.999541, 303, 117, 318, 132
-0.999541, 213, 183, 228, 198
-0.999542, 229, 187, 244, 202
-0.999545, 263, 143, 278, 158
-0.999546, 225, 147, 240, 162
-0.999547, 249, 113, 264, 128
-0.999548, 219, 149, 234, 164
-0.999548, 249, 149, 264, 164
-0.999549, 247, 157, 262, 172
-0.999549, 199, 159, 214, 174
-0.999549, 245, 169, 260, 184
-0.999549, 485, 235, 500, 250
-0.99955, 145, 33, 208, 288
-0.999551, 287, 175, 302, 190
-0.999551, 109, 23, 124, 38
-0.999551, 237, 115, 252, 130
-0.999551, 257, 165, 272, 180
-0.999552, 313, 65, 328, 192
-0.999552, 299, 99, 314, 114
-0.999554, 115, 19, 130, 34
-0.999554, 221, 189, 236, 204
-0.999554, 461, 153, 492, 216
-0.999555, 227, 161, 242, 288
-0.999556, 263, 109, 278, 124
-0.999557, 235, 171, 250, 186
-0.999557, 311, 103, 326, 118
-0.999559, 239, 145, 254, 160
-0.999559, 315, 147, 330, 162
-0.999559, 473, 161, 488, 288
-0.99956, 327, 97, 342, 224
-0.999561, 327, 1, 342, 128
-0.999563, 251, 169, 266, 184
-0.999563, 243, 113, 258, 128
-0.999566, 241, 177, 256, 192
-0.999566, 389, 315, 404, 330
-0.999568, 227, 161, 242, 176
-0.999568, 391, 295, 406, 310
-0.999569, 211, 141, 226, 156
-0.99957, 479, 227, 494, 242
-0.999571, 263, 165, 278, 180
-0.999572, 311, 89, 326, 104
-0.999575, 245, 143, 260, 158
-0.999576, 479, 161, 494, 288
-0.999576, 253, 157, 268, 172
-0.999577, 297, 113, 312, 128
-0.999577, 425, 249, 456, 312
-0.999578, 279, 157, 294, 172
-0.999578, 217, 131, 232, 146
-0.999578, 87, 29, 102, 44
-0.999578, 305, 261, 432, 292
-0.99958, 457, 161, 472, 288
-0.999581, 309, 149, 324, 164
-0.999583, 231, 105, 246, 120
-0.999585, 315, 109, 330, 124
-0.999586, 345, 1, 360, 128
-0.999586, 255, 151, 270, 166
-0.999586, 255, 111, 270, 126
-0.999587, 285, 109, 300, 124
-0.999588, 229, 171, 244, 186
-0.99959, 249, 175, 264, 190
-0.99959, 309, 117, 324, 132
-0.999591, 315, 159, 330, 174
-0.999591, 295, 133, 310, 148
-0.999592, 317, 125, 332, 140
-0.999592, 451, 177, 466, 304
-0.999594, 223, 109, 238, 124
-0.999596, 177, 77, 304, 108
-0.999598, 289, 133, 304, 148
-0.999602, 301, 129, 316, 144
-0.999602, 219, 183, 234, 198
-0.999602, 241, 159, 256, 174
-0.999602, 263, 173, 278, 188
-0.999603, 233, 161, 248, 176
-0.999604, 233, 145, 248, 160
-0.999604, 251, 143, 266, 158
-0.999606, 291, 111, 306, 126
-0.999606, 223, 117, 238, 132
-0.99961, 309, 131, 324, 146
-0.99961, 255, 175, 270, 190
-0.99961, 263, 157, 278, 172
-0.999611, 351, 1, 366, 128
-0.999613, 211, 163, 226, 178
-0.999613, 221, 177, 236, 192
-0.999614, 289, 155, 304, 170
-0.999614, 235, 177, 250, 192
-0.999616, 303, 111, 318, 126
-0.999618, 217, 141, 232, 156
-0.999619, 477, 209, 492, 333
-0.99962, 303, 105, 318, 120
-0.99962, 283, 133, 298, 148
-0.999622, 307, 95, 322, 110
-0.999623, 193, 1, 208, 128
-0.999627, 299, 123, 314, 138
-0.999627, 241, 153, 256, 168
-0.999627, 315, 153, 330, 168
-0.999628, 327, 145, 342, 272
-0.999628, 293, 103, 308, 118
-0.999629, 269, 107, 284, 122
-0.999632, 269, 165, 284, 180
-0.999636, 337, 229, 464, 260
-0.999637, 241, 137, 256, 152
-0.999638, 277, 167, 292, 182
-0.999642, 221, 1, 236, 128
-0.999642, 439, 177, 454, 304
-0.999644, 235, 139, 250, 154
-0.999645, 227, 139, 242, 154
-0.999648, 277, 135, 292, 150
-0.999649, 305, 123, 320, 138
-0.999649, 289, 37, 416, 68
-0.99965, 273, 81, 400, 112
-0.999651, 283, 177, 298, 304
-0.999651, 259, 137, 274, 152
-0.999654, 273, 157, 288, 172
-0.999654, 467, 177, 482, 304
-0.999655, 255, 105, 270, 120
-0.999655, 265, 135, 280, 150
-0.999655, 275, 103, 290, 118
-0.999659, 279, 177, 294, 192
-0.999659, 241, 1, 256, 128
-0.999661, 287, 103, 302, 118
-0.999662, 265, 1, 296, 64
-0.999663, 269, 173, 284, 188
-0.999663, 209, 65, 224, 192
-0.999666, 429, 161, 460, 224
-0.999668, 181, 177, 212, 240
-0.999671, 263, 17, 278, 144
-0.999672, 301, 1, 316, 128
-0.999672, 433, 209, 448, 333
-0.999673, 415, 209, 430, 333
-0.999674, 227, 177, 242, 192
-0.999679, 271, 135, 286, 150
-0.99968, 229, 111, 244, 126
-0.999681, 281, 103, 296, 118
-0.999682, 485, 177, 500, 304
-0.999682, 237, 109, 252, 124
-0.999684, 213, 177, 228, 304
-0.999685, 319, 1, 334, 128
-0.999691, 247, 137, 262, 152
-0.999692, 305, 101, 432, 132
-0.999693, 263, 103, 278, 118
-0.999693, 245, 107, 260, 122
-0.999696, 7, 65, 22, 192
-0.999702, 409, 209, 424, 333
-0.999705, 253, 137, 268, 152
-0.999718, 65, 1, 96, 256
-0.999731, 167, 1, 182, 128
-0.999733, 257, 17, 272, 144
-0.999744, 235, 1, 250, 128
-0.999751, 77, 1, 92, 128
-0.999757, 13, 49, 28, 176
-0.99976, 93, 65, 108, 192
-0.999762, 293, 177, 308, 304
-0.999764, 41, 1, 56, 128
-0.999766, 1, 81, 16, 208
-0.999767, 309, 1, 324, 128
-0.999773, 441, 129, 456, 256
-0.999774, 423, 209, 438, 333
-0.999775, 23, 49, 38, 176
-0.999776, 43, 49, 58, 176
-0.999777, 249, 17, 264, 144
-0.999779, 359, 1, 374, 128
-0.999783, 449, 129, 464, 256
-0.999785, 207, 177, 222, 304
-0.999793, 195, 161, 210, 288
-0.999793, 51, 33, 66, 160
-0.999794, 187, 1, 202, 128
-0.9998, 229, 1, 244, 128
-0.999803, 403, 209, 418, 333
-0.999808, 29, 49, 44, 176
-0.999808, 457, 209, 472, 333
-0.999814, 35, 49, 50, 176
-0.999818, 353, 13, 480, 44
-0.999826, 203, 33, 218, 160
-0.999826, 337, 165, 464, 196
-0.999827, 139, 49, 154, 176
-0.99983, 353, 137, 480, 168
-0.999833, 209, 17, 224, 144
-0.999834, 1, 33, 16, 160
-0.999838, 1, 33, 32, 288
-0.999844, 365, 1, 380, 128
-0.999847, 103, 65, 118, 192
-0.999848, 277, 33, 308, 96
-0.999853, 319, 49, 334, 176
-0.999853, 13, 97, 28, 224
-0.999857, 175, 17, 190, 144
-0.999857, 137, 49, 168, 176
-0.999868, 133, 1, 164, 256
-0.999868, 35, 1, 50, 128
-0.999876, 57, 1, 72, 128
-0.999877, 201, 193, 216, 320
-0.999878, 71, 1, 86, 128
-0.999878, 181, 17, 196, 144
-0.999882, 199, 97, 214, 224
-0.999885, 19, 97, 34, 224
-0.999889, 431, 161, 446, 288
-0.999897, 129, 49, 144, 176
-0.999899, 433, 65, 496, 320
-0.999902, 339, 129, 354, 256
-0.999929, 49, 1, 80, 256
-0.999929, 229, 33, 260, 96
-0.999995, 297, 201, 360, 264
-1, 1, 65, 500, 128
-1.00001, 337, 205, 464, 236
-1.00001, 353, 1, 416, 333
-1.00002, 17, 113, 48, 176
-1.00003, 113, 117, 240, 148
-1.00003, 393, 1, 456, 333
-1.00006, 257, 49, 384, 80
-1.00007, 305, 113, 432, 144
-1.00008, 89, 49, 120, 112
-1.0001, 445, 65, 476, 320
-1.00013, 113, 105, 240, 136
-1.00013, 13, 65, 44, 320
-1.00014, 1, 257, 500, 320
-1.00014, 1, 137, 128, 168
-1.00015, 321, 97, 384, 160
-1.00015, 369, 161, 496, 224
-1.00017, 145, 209, 272, 240
-1.00018, 181, 1, 212, 256
-1.00022, 321, 1, 352, 256
-1.00023, 369, 1, 400, 256
-1.00023, 29, 65, 60, 320
-1.00023, 353, 1, 384, 256
-1.00025, 225, 217, 352, 280
-1.00026, 153, 1, 184, 256
-1.00026, 469, 65, 500, 320
-1.00026, 65, 209, 320, 272
-1.00027, 241, 297, 368, 328
-1.00029, 125, 89, 156, 152
-1.00031, 1, 177, 500, 240
-1.00032, 321, 217, 448, 248
-1.00034, 189, 9, 220, 72
-1.00035, 257, 69, 384, 100
-1.00038, 37, 1, 68, 64
-1.00039, 33, 73, 64, 136
-1.00039, 289, 245, 416, 276
-1.00041, 457, 65, 488, 320
-1.00042, 49, 121, 176, 184
-1.00046, 113, 49, 144, 176
-1.00051, 97, 217, 224, 248
-1.00051, 65, 205, 192, 236
-1.00053, 341, 1, 372, 256
-1.00056, 353, 125, 480, 156
-1.00059, 241, 213, 368, 244
-1.0006, 81, 161, 208, 192
-1.00061, 161, 221, 288, 252
-1.00062, 81, 193, 208, 224
-1.00062, 429, 65, 460, 320
-1.00063, 337, 25, 464, 56
-1.00063, 409, 65, 440, 320
-1.00066, 337, 149, 464, 180
-1.00067, 169, 1, 200, 256
-1.00068, 49, 125, 176, 156
-1.00068, 17, 193, 144, 224
-1.00069, 145, 241, 272, 272
-1.00069, 241, 273, 368, 333
-1.00072, 33, 173, 160, 204
-1.00072, 145, 301, 272, 332
-1.00073, 145, 277, 272, 308
-1.00074, 145, 253, 272, 284
-1.00075, 1, 89, 500, 152
-1.00077, 193, 261, 320, 292
-1.00078, 225, 249, 352, 280
-1.00078, 241, 281, 368, 312
-1.00079, 1, 213, 128, 244
-1.0008, 65, 241, 192, 272
-1.00081, 81, 209, 208, 272
-1.00081, 33, 153, 160, 184
-1.00082, 305, 69, 432, 100
-1.00083, 65, 257, 192, 288
-1.00083, 273, 229, 400, 260
-1.00083, 17, 229, 144, 260
-1.00085, 49, 141, 176, 172
-1.00085, 225, 237, 352, 268
-1.00085, 81, 293, 208, 324
-1.00087, 1, 225, 500, 288
-1.00088, 145, 209, 272, 333
-1.00091, 273, 249, 400, 312
-1.00096, 409, 265, 472, 328
-1.00096, 65, 153, 192, 216
-1.001, 289, 57, 416, 120
-1.00101, 381, 1, 412, 256
-1.00104, 421, 145, 452, 272
-1.0011, 13, 97, 44, 224
-1.00115, 1, 185, 128, 248
-1.00119, 129, 273, 384, 333
-1.00119, 21, 1, 52, 128
-1.00124, 241, 209, 304, 333
-1.00126, 393, 65, 424, 320
-1.00127, 337, 25, 464, 88
-1.00136, 17, 153, 144, 216
-1.00139, 65, 185, 192, 248
-1.00142, 177, 209, 240, 272
-1.00147, 177, 225, 304, 288
-1.0015, 49, 97, 112, 224
-1.00154, 33, 257, 288, 320
-1.00155, 305, 193, 336, 320
-1.00155, 1, 233, 256, 296
-1.00156, 321, 65, 352, 192
-1.00157, 369, 209, 432, 333
-1.00158, 97, 233, 352, 296
-1.00159, 97, 265, 224, 328
-1.00161, 329, 25, 392, 88
-1.00161, 193, 249, 320, 312
-1.00162, 1, 17, 32, 144
-1.00178, 145, 265, 272, 328
-1.00188, 49, 249, 176, 312
-1.00188, 177, 161, 208, 288
-1.0019, 1, 241, 128, 304
-1.00194, 97, 233, 224, 296
-1.00197, 125, 49, 156, 176
-1.00198, 101, 65, 132, 192
-1.00204, 385, 193, 448, 256
-1.00213, 49, 273, 176, 333
-1.00215, 369, 89, 496, 152
-1.00225, 393, 145, 456, 208
-1.00234, 409, 65, 472, 320
-1.00237, 153, 49, 184, 176
-1.00238, 1, 217, 128, 280
-1.00239, 361, 1, 392, 128
-1.00244, 373, 209, 404, 333
-1.00247, 193, 273, 320, 333
-1.00251, 1, 273, 128, 333
-1.00251, 453, 113, 484, 240
-1.00259, 337, 49, 464, 112
-1.00261, 25, 113, 56, 240
-1.00263, 369, 113, 496, 176
-1.00264, 177, 65, 208, 192
-1.00271, 401, 1, 432, 128
-1.00274, 225, 217, 288, 280
-1.00288, 153, 137, 216, 200
-1.00298, 249, 209, 280, 333
-1.00312, 305, 273, 368, 333
-1.00316, 389, 209, 420, 333
-1.00325, 409, 1, 472, 64
-1.00327, 273, 225, 400, 288
-1.0033, 237, 209, 268, 333
-1.00358, 333, 65, 364, 192
-1.00369, 361, 1, 424, 256
-1.00373, 73, 97, 104, 224
-1.00388, 369, 97, 496, 224
-1.00389, 321, 65, 384, 192
-1.00396, 25, 137, 88, 200
-1.00397, 381, 1, 412, 128
-1.00398, 165, 49, 196, 176
-1.00406, 313, 73, 376, 136
-1.0041, 217, 209, 280, 333
-1.00421, 433, 137, 496, 200
-1.00425, 1, 113, 32, 240
-1.00426, 361, 193, 424, 256
-1.00426, 369, 1, 432, 128
-1.0043, 41, 97, 72, 224
-1.00438, 181, 113, 212, 240
-1.00438, 117, 97, 148, 224
-1.00445, 1, 209, 256, 333
-1.00451, 433, 273, 496, 333
-1.00454, 225, 209, 256, 333
-1.00457, 369, 1, 496, 128
-1.00459, 249, 217, 312, 280
-1.00464, 401, 113, 464, 240
-1.00499, 129, 97, 160, 224
-1.0051, 289, 49, 352, 112
-1.00519, 385, 65, 448, 320
-1.00523, 25, 129, 88, 256
-1.00528, 441, 113, 472, 240
-1.00538, 465, 113, 496, 240
-1.00545, 13, 145, 44, 272
-1.00546, 129, 185, 192, 248
-1.00547, 293, 209, 324, 333
-1.00552, 89, 113, 120, 240
-1.00564, 153, 89, 216, 152
-1.00577, 409, 145, 440, 272
-1.00581, 97, 97, 160, 224
-1.00587, 105, 113, 136, 240
-1.00587, 97, 209, 224, 333
-1.00594, 145, 209, 208, 272
-1.00601, 165, 177, 196, 304
-1.00602, 177, 209, 208, 333
-1.00603, 321, 249, 384, 312
-1.00604, 189, 209, 220, 333
-1.00608, 1, 145, 64, 208
-1.00612, 53, 81, 84, 208
-1.0062, 105, 193, 168, 256
-1.0064, 337, 129, 400, 192
-1.00641, 333, 161, 364, 288
-1.00645, 17, 177, 80, 240
-1.00647, 165, 129, 196, 256
-1.0065, 1, 145, 128, 272
-1.00661, 393, 121, 456, 184
-1.00662, 397, 161, 428, 288
-1.00666, 345, 113, 376, 240
-1.00682, 281, 241, 344, 304
-1.00682, 149, 177, 180, 304
-1.00689, 41, 161, 104, 224
-1.00696, 441, 65, 472, 192
-1.00698, 121, 217, 184, 280
-1.00703, 89, 145, 152, 208
-1.00705, 369, 161, 432, 224
-1.00707, 9, 257, 72, 320
-1.0071, 1, 225, 64, 288
-1.00711, 121, 97, 184, 224
-1.00715, 1, 145, 64, 272
-1.00717, 353, 25, 416, 88
-1.00717, 65, 241, 128, 304
-1.00721, 137, 161, 200, 224
-1.00721, 345, 153, 408, 216
-1.00724, 41, 225, 104, 288
-1.00728, 49, 161, 176, 288
-1.00733, 49, 137, 112, 200
-1.00734, 385, 161, 416, 288
-1.00734, 49, 209, 176, 333
-1.00735, 149, 129, 180, 256
-1.00735, 1, 201, 64, 264
-1.00737, 429, 97, 460, 224
-1.00737, 113, 129, 176, 192
-1.00744, 413, 1, 444, 128
-1.00749, 357, 209, 388, 333
-1.00752, 37, 145, 68, 272
-1.00754, 89, 225, 152, 288
-1.00757, 417, 81, 448, 208
-1.00762, 137, 161, 168, 288
-1.00779, 353, 161, 416, 288
-1.00783, 49, 161, 80, 288
-1.00783, 1, 193, 32, 320
-1.008, 1, 209, 128, 333
-1.00824, 25, 177, 56, 304
-1.00827, 125, 161, 156, 288
-1.00832, 345, 65, 376, 192
-1.00832, 137, 209, 168, 333
-1.00835, 37, 193, 68, 320
-1.00845, 13, 209, 44, 333
-1.00849, 97, 161, 128, 288
-1.00856, 429, 1, 460, 128
-1.00867, 393, 1, 456, 128
-1.00896, 137, 177, 200, 304
-1.00953, 353, 49, 480, 176
-1.01007, 377, 97, 440, 224
-1.01013, 321, 161, 384, 288
-1.01062, 297, 209, 360, 333
-1.01067, 425, 81, 488, 208
-1.01075, 113, 161, 176, 288
-1.01133, 65, 145, 128, 272
-1.01133, 1, 193, 64, 320
-1.0114, 25, 209, 88, 333
-1.01202, 57, 193, 120, 320
-1.01205, 345, 81, 408, 208
-1.01276, 113, 209, 176, 333
-1.01364, 385, 49, 448, 176
-1.01367, 89, 145, 152, 272
-1.0137, 433, 33, 496, 160
-1.01396, 89, 193, 152, 320
-1.01473, 321, 209, 384, 333
