1877
-0.341561, 1, 1, 500, 333
-0.461066, 257, 1, 500, 333
-0.464125, 161, 1, 416, 333
-0.472137, 1, 33, 500, 288
-0.526734, 257, 65, 500, 320
-0.598741, 1, 1, 256, 333
-0.605135, 161, 33, 416, 288
-0.687425, 65, 33, 320, 288
-0.836101, 273, 1, 400, 333
-0.853958, 305, 33, 432, 288
-0.855409, 353, 65, 480, 320
-0.859644, 257, 33, 384, 288
-0.865837, 353, 1, 480, 333
-0.87364, 129, 33, 256, 288
-0.879479, 209, 1, 336, 333
-0.881712, 209, 65, 336, 320
-0.889187, 1, 97, 500, 224
-0.889772, 161, 1, 288, 333
-0.895091, 193, 81, 448, 208
-0.895276, 113, 1, 240, 333
-0.908591, 1, 49, 500, 176
-0.917822, 225, 145, 480, 272
-0.922079, 81, 1, 208, 256
-0.924239, 65, 97, 320, 224
-0.926789, 49, 1, 176, 333
-0.927948, 401, 97, 464, 224
-0.928523, 33, 1, 160, 256
-0.930549, 353, 97, 480, 224
-0.931172, 161, 33, 416, 160
-0.931458, 321, 49, 384, 176
-0.93194, 209, 161, 336, 288
-0.932132, 305, 81, 432, 208
-0.934819, 257, 65, 384, 192
-0.934933, 161, 97, 288, 224
-0.935036, 1, 1, 500, 128
-0.936017, 361, 81, 424, 208
-0.938383, 129, 161, 384, 288
-0.93883, 257, 33, 500, 160
-0.9389, 1, 209, 500, 333
-0.939619, 1, 145, 500, 272
-0.940521, 217, 97, 280, 224
-0.945346, 241, 113, 368, 240
-0.945421, 113, 81, 240, 208
-0.94587, 265, 65, 328, 192
-0.946642, 65, 49, 320, 176
-0.947421, 257, 145, 320, 272
-0.947669, 193, 113, 256, 240
-0.949006, 289, 17, 416, 144
-0.949053, 1, 1, 128, 333
-0.949824, 217, 145, 280, 272
-0.950577, 305, 145, 432, 272
-0.950734, 425, 113, 488, 240
-0.950908, 209, 65, 336, 192
-0.95157, 113, 33, 240, 160
-0.952387, 321, 81, 384, 144
-0.953223, 321, 1, 384, 128
-0.953348, 321, 49, 384, 112
-0.953419, 289, 33, 352, 160
-0.954349, 353, 1, 480, 128
-0.955569, 369, 49, 496, 176
-0.955847, 353, 17, 416, 144
-0.956055, 113, 129, 240, 256
-0.957001, 257, 209, 500, 333
-0.957074, 177, 49, 240, 176
-0.957259, 297, 81, 360, 208
-0.957424, 161, 209, 416, 333
-0.957564, 217, 153, 280, 216
-0.958236, 289, 57, 352, 120
-0.958255, 369, 145, 496, 272
-0.959022, 273, 209, 400, 333
-0.959113, 361, 145, 424, 272
-0.95973, 425, 121, 488, 184
-0.960474, 217, 113, 280, 176
-0.961031, 345, 57, 408, 120
-0.961051, 161, 49, 288, 176
-0.96128, 401, 145, 464, 272
-0.961705, 361, 89, 424, 152
-0.962239, 169, 129, 232, 256
-0.96247, 201, 193, 264, 320
-0.962616, 177, 89, 240, 152
-0.962767, 209, 177, 272, 240
-0.965127, 433, 65, 496, 192
-0.965529, 49, 49, 176, 176
-0.965969, 353, 57, 384, 120
-0.96609, 289, 209, 352, 333
-0.966172, 313, 33, 376, 288
-0.966212, 393, 105, 456, 168
-0.966613, 337, 97, 400, 224
-0.966636, 161, 145, 288, 272
-0.966641, 433, 73, 496, 136
-0.966936, 265, 121, 328, 184
-0.966936, 249, 185, 312, 248
-0.967296, 321, 209, 384, 333
-0.967343, 225, 89, 288, 152
-0.967394, 377, 17, 440, 144
-0.967607, 289, 209, 352, 272
-0.967645, 161, 193, 288, 320
-0.967721, 297, 129, 360, 256
-0.96795, 393, 1, 456, 256
-0.968144, 265, 81, 328, 144
-0.968667, 313, 105, 376, 168
-0.968712, 425, 161, 488, 288
-0.968819, 377, 81, 408, 208
-0.968859, 137, 81, 200, 208
-0.969282, 193, 129, 256, 192
-0.969552, 413, 97, 444, 224
-0.96965, 161, 65, 224, 128
-0.969789, 289, 33, 352, 288
-0.969946, 225, 209, 352, 333
-0.970054, 345, 33, 408, 288
-0.970481, 153, 33, 216, 160
-0.970807, 225, 49, 288, 176
-0.970816, 33, 161, 288, 288
-0.97091, 225, 193, 288, 320
-0.972091, 401, 97, 432, 224
-0.972172, 241, 17, 368, 144
-0.972238, 153, 41, 216, 104
-0.972417, 177, 121, 304, 184
-0.972481, 369, 33, 432, 288
-0.972513, 409, 145, 472, 208
-0.97259, 425, 97, 456, 224
-0.972609, 209, 201, 272, 264
-0.972722, 241, 97, 304, 224
-0.972771, 273, 49, 400, 112
-0.972789, 241, 145, 272, 272
-0.972795, 337, 49, 368, 176
-0.973111, 389, 81, 420, 208
-0.973169, 289, 97, 352, 160
-0.97323, 337, 73, 368, 136
-0.973296, 297, 33, 360, 96
-0.973365, 357, 49, 388, 176
-0.973378, 353, 209, 480, 333
-0.973591, 137, 65, 200, 128
-0.973689, 245, 153, 276, 216
-0.973808, 205, 81, 236, 208
-0.97388, 241, 137, 304, 200
-0.973887, 193, 185, 320, 248
-0.974329, 225, 97, 256, 224
-0.97434, 257, 73, 384, 136
-0.974354, 257, 161, 384, 288
-0.974421, 257, 249, 320, 312
-0.974645, 257, 33, 320, 288
-0.974996, 161, 97, 288, 160
-0.975359, 309, 49, 340, 176
-0.97551, 337, 145, 400, 272
-0.975577, 241, 137, 368, 200
-0.97604, 361, 33, 424, 96
-0.97604, 145, 97, 208, 160
-0.976064, 49, 1, 176, 128
-0.976116, 437, 113, 468, 240
-0.976162, 65, 97, 192, 224
-0.976274, 233, 169, 264, 232
-0.976274, 417, 65, 480, 320
-0.976357, 193, 1, 320, 128
-0.9764, 289, 129, 352, 192
-0.976546, 437, 121, 468, 184
-0.976552, 209, 89, 336, 152
-0.976673, 201, 89, 264, 152
-0.97668, 433, 97, 496, 160
-0.976697, 313, 57, 344, 120
-0.976733, 337, 41, 368, 104
-0.976958, 129, 41, 192, 104
-0.977158, 337, 89, 464, 152
-0.977225, 317, 1, 348, 128
-0.977436, 361, 81, 392, 144
-0.977436, 261, 113, 292, 240
-0.977464, 457, 129, 488, 192
-0.977508, 205, 97, 236, 160
-0.977589, 153, 1, 216, 256
-0.977632, 1, 1, 256, 128
-0.977633, 325, 41, 356, 104
-0.977763, 333, 1, 364, 128
-0.977906, 201, 65, 264, 320
-0.977932, 321, 81, 352, 208
-0.978071, 241, 161, 304, 224
-0.978078, 353, 121, 416, 184
-0.978149, 369, 145, 432, 208
-0.978265, 373, 1, 404, 128
-0.978449, 385, 1, 448, 64
-0.978485, 369, 121, 496, 184
-0.978527, 205, 129, 236, 256
-0.978542, 433, 153, 496, 216
-0.978603, 177, 41, 240, 104
-0.978613, 313, 217, 376, 280
-0.978628, 169, 113, 232, 176
-0.978763, 253, 185, 284, 248
-0.978789, 453, 81, 484, 208
-0.978817, 469, 121, 500, 184
-0.97887, 229, 161, 260, 288
-0.978971, 113, 97, 240, 160
-0.979046, 313, 137, 376, 200
-0.979082, 241, 217, 368, 280
-0.979085, 177, 1, 240, 256
-0.979149, 57, 1, 120, 128
-0.979156, 113, 193, 240, 320
-0.97917, 409, 1, 472, 64
-0.979236, 345, 9, 408, 72
-0.979321, 289, 121, 416, 184
-0.97934, 225, 161, 352, 224
-0.9794, 321, 25, 384, 88
-0.979405, 345, 1, 408, 333
-0.979414, 265, 161, 328, 224
-0.979579, 469, 65, 500, 192
-0.979602, 113, 49, 176, 176
-0.979788, 169, 137, 232, 200
-0.97986, 325, 81, 356, 144
-0.980065, 253, 161, 284, 288
-0.980098, 113, 57, 240, 120
-0.980152, 265, 17, 328, 144
-0.980194, 129, 137, 256, 200
-0.980206, 65, 209, 320, 333
-0.980418, 225, 113, 352, 176
-0.98059, 309, 113, 340, 176
-0.98071, 217, 89, 248, 152
-0.980959, 289, 9, 416, 72
-0.980963, 233, 225, 296, 288
-0.980964, 249, 193, 312, 320
-0.980966, 201, 49, 264, 176
-0.981195, 321, 1, 384, 333
-0.981219, 345, 145, 408, 208
-0.981228, 297, 1, 360, 64
-0.98144, 161, 73, 288, 136
-0.981452, 305, 113, 336, 240
-0.981542, 89, 17, 152, 144
-0.981709, 185, 41, 216, 104
-0.98172, 393, 81, 456, 144
-0.981817, 421, 113, 452, 176
-0.98186, 273, 97, 400, 160
-0.981875, 209, 185, 240, 248
-0.981879, 453, 129, 484, 256
-0.981926, 193, 49, 224, 176
-0.982128, 409, 49, 472, 176
-0.982198, 265, 121, 296, 184
-0.982458, 405, 145, 436, 272
-0.982511, 237, 201, 268, 264
-0.982572, 461, 73, 492, 136
-0.982578, 209, 65, 272, 128
-0.982702, 373, 89, 404, 152
-0.982747, 401, 217, 464, 280
-0.98276, 265, 57, 328, 120
-0.982819, 349, 1, 380, 128
-0.982863, 177, 145, 304, 208
-0.982886, 337, 57, 464, 120
-0.982943, 241, 97, 272, 224
-0.983031, 289, 209, 416, 272
-0.983055, 365, 97, 396, 224
-0.983058, 209, 65, 336, 128
-0.983083, 185, 185, 248, 248
-0.983148, 281, 233, 344, 296
-0.983156, 433, 49, 496, 112
-0.983206, 353, 145, 480, 208
-0.983232, 409, 105, 440, 168
-0.983414, 313, 89, 344, 152
-0.983473, 297, 65, 328, 192
-0.983537, 105, 49, 168, 112
-0.983551, 301, 57, 332, 120
-0.983634, 365, 57, 396, 120
-0.98365, 417, 145, 448, 272
-0.983728, 113, 33, 240, 96
-0.983748, 209, 225, 272, 288
-0.983759, 241, 185, 368, 248
-0.983872, 233, 249, 296, 312
-0.983984, 273, 65, 304, 192
-0.984139, 385, 17, 416, 144
-0.98417, 137, 81, 168, 208
-0.984258, 317, 209, 348, 272
-0.98426, 177, 209, 304, 272
-0.984444, 121, 89, 184, 152
-0.984454, 209, 177, 240, 304
-0.984519, 389, 97, 420, 160
-0.984577, 49, 81, 112, 208
-0.98458, 389, 145, 420, 272
-0.984608, 177, 193, 240, 320
-0.984627, 209, 129, 240, 192
-0.984754, 241, 241, 368, 304
-0.984787, 225, 33, 288, 288
-0.984816, 17, 97, 144, 224
-0.98488, 145, 169, 272, 232
-0.98489, 321, 129, 352, 256
-0.984937, 305, 145, 432, 208
-0.984944, 257, 225, 320, 288
-0.984983, 221, 169, 252, 232
-0.984999, 185, 65, 248, 128
-0.985058, 233, 89, 264, 152
-0.985212, 465, 113, 496, 240
-0.985292, 221, 113, 252, 176
-0.985448, 193, 129, 224, 256
-0.985493, 129, 1, 192, 256
-0.985517, 113, 97, 176, 224
-0.985525, 309, 161, 340, 288
-0.985628, 289, 1, 352, 333
-0.985648, 349, 81, 380, 144
-0.985725, 193, 105, 224, 168
-0.985748, 441, 65, 472, 192
-0.985779, 145, 121, 208, 184
-0.985816, 417, 1, 480, 128
-0.985884, 265, 1, 328, 333
-0.98596, 369, 65, 432, 128
-0.985982, 253, 97, 284, 160
-0.986014, 57, 9, 120, 72
-0.986059, 377, 129, 408, 256
-0.986067, 137, 89, 168, 152
-0.986116, 461, 97, 492, 160
-0.98623, 241, 113, 304, 176
-0.986382, 281, 257, 344, 320
-0.986409, 385, 1, 448, 333
-0.986432, 161, 1, 224, 333
-0.986481, 285, 65, 316, 128
-0.9865, 241, 193, 272, 320
-0.986522, 145, 41, 176, 104
-0.986546, 49, 97, 112, 160
-0.98655, 285, 65, 316, 192
-0.986574, 357, 113, 388, 176
-0.986612, 273, 249, 304, 312
-0.98671, 293, 145, 324, 272
-0.986989, 165, 33, 196, 96
-0.987038, 353, 97, 384, 224
-0.987053, 421, 145, 452, 208
-0.987132, 177, 113, 208, 176
-0.987139, 177, 233, 304, 296
-0.987226, 193, 41, 320, 104
-0.987265, 65, 49, 192, 112
-0.987324, 49, 17, 176, 80
-0.987402, 461, 153, 492, 216
-0.987422, 313, 1, 344, 64
-0.987463, 401, 209, 464, 333
-0.987475, 337, 33, 464, 96
-0.987487, 225, 265, 352, 328
-0.987566, 257, 145, 288, 208
-0.987582, 369, 217, 432, 280
-0.987617, 349, 33, 380, 96
-0.987643, 97, 25, 160, 88
-0.987659, 305, 1, 336, 128
-0.987943, 289, 185, 352, 248
-0.988015, 437, 145, 468, 208
-0.988025, 401, 145, 432, 208
-0.98805, 269, 161, 300, 224
-0.988051, 333, 1, 364, 64
-0.988051, 81, 121, 208, 184
-0.988162, 193, 81, 448, 144
-0.988203, 9, 113, 72, 176
-0.988238, 129, 193, 256, 256
-0.988286, 273, 17, 336, 80
-0.988314, 209, 249, 272, 312
-0.988358, 317, 209, 348, 333
-0.988381, 49, 81, 176, 144
-0.988451, 361, 1, 392, 128
-0.988452, 305, 209, 336, 333
-0.988457, 241, 25, 368, 88
-0.98846, 433, 1, 496, 64
-0.988468, 225, 113, 288, 144
-0.988479, 353, 217, 480, 280
-0.988528, 185, 225, 248, 288
-0.988629, 369, 193, 432, 320
-0.988689, 377, 169, 440, 232
-0.988719, 165, 57, 196, 120
-0.988728, 329, 77, 392, 108
-0.988828, 113, 121, 176, 184
-0.988831, 305, 209, 336, 272
-0.988931, 329, 209, 360, 333
-0.988941, 317, 137, 348, 200
-0.988978, 445, 89, 476, 152
-0.989012, 361, 145, 392, 272
-0.989028, 149, 65, 180, 128
-0.989046, 329, 121, 360, 184
-0.98907, 33, 113, 160, 176
-0.989078, 253, 65, 284, 192
-0.989081, 437, 161, 468, 288
-0.989105, 153, 17, 216, 80
-0.989113, 1, 1, 128, 128
-0.989123, 469, 49, 500, 112
-0.98917, 205, 73, 236, 136
-0.989224, 161, 169, 224, 232
-0.989247, 225, 169, 288, 200
-0.989257, 321, 1, 384, 64
-0.989264, 333, 145, 364, 272
-0.989266, 401, 73, 432, 136
-0.989318, 321, 53, 384, 84
-0.989341, 181, 49, 212, 176
-0.989407, 293, 17, 324, 144
-0.989415, 269, 73, 300, 136
-0.98948, 209, 1, 272, 333
-0.989491, 289, 233, 416, 296
-0.989533, 273, 113, 304, 240
-0.989542, 425, 1, 488, 333
-0.989595, 345, 105, 376, 168
-0.9896, 89, 65, 152, 192
-0.989608, 197, 137, 228, 200
-0.989704, 289, 65, 352, 96
-0.989745, 245, 225, 276, 288
-0.989753, 253, 121, 284, 184
-0.989761, 313, 101, 376, 132
-0.98978, 305, 185, 432, 248
-0.9898, 145, 129, 208, 256
-0.98985, 297, 121, 328, 184
-0.989929, 301, 81, 332, 144
-0.989954, 449, 65, 480, 128
-0.989997, 201, 193, 264, 224
-0.989999, 401, 193, 464, 256
-0.990018, 337, 65, 400, 96
-0.990076, 293, 33, 324, 96
-0.990127, 9, 97, 72, 224
-0.99015, 233, 57, 296, 120
-0.99018, 449, 153, 480, 216
-0.990183, 401, 57, 464, 120
-0.990209, 389, 1, 420, 64
-0.990211, 261, 249, 292, 312
-0.990226, 125, 97, 156, 224
-0.990244, 373, 33, 404, 96
-0.990245, 137, 1, 200, 333
-0.990258, 353, 89, 416, 120
-0.990327, 177, 257, 304, 320
-0.990341, 413, 73, 444, 136
-0.990366, 185, 101, 248, 132
-0.990366, 209, 181, 272, 212
-0.990385, 213, 33, 244, 160
-0.990395, 409, 169, 472, 232
-0.990399, 313, 25, 344, 88
-0.990405, 257, 273, 320, 333
-0.99046, 329, 249, 392, 312
-0.99046, 305, 257, 432, 320
-0.990469, 217, 93, 280, 124
-0.990471, 221, 65, 252, 128
-0.990492, 337, 1, 464, 64
-0.990508, 297, 213, 360, 244
-0.99053, 313, 65, 376, 96
-0.990589, 201, 41, 264, 104
-0.990603, 321, 89, 384, 120
-0.990623, 389, 145, 420, 208
-0.990652, 289, 153, 352, 216
-0.990761, 433, 133, 496, 164
-0.990766, 177, 113, 240, 144
-0.990768, 401, 49, 432, 176
-0.990777, 225, 193, 256, 256
-0.990803, 185, 65, 216, 128
-0.990819, 393, 109, 456, 140
-0.990821, 297, 77, 360, 108
-0.990826, 297, 45, 360, 76
-0.99087, 433, 73, 496, 104
-0.990886, 137, 61, 200, 92
-0.990893, 165, 81, 196, 208
-0.990896, 97, 169, 224, 232
-0.990905, 241, 1, 368, 64
-0.990911, 257, 133, 320, 164
-0.990929, 409, 145, 472, 176
-0.990976, 353, 241, 480, 304
-0.990978, 225, 105, 480, 168
-0.99098, 369, 137, 400, 200
-0.990985, 433, 97, 464, 160
-0.990995, 241, 153, 304, 184
-0.991016, 161, 201, 224, 264
-0.991031, 145, 33, 176, 160
-0.991036, 337, 97, 368, 224
-0.991095, 361, 69, 424, 100
-0.991112, 453, 33, 484, 160
-0.991114, 193, 89, 256, 120
-0.991171, 273, 109, 336, 140
-0.991229, 153, 41, 216, 72
-0.991261, 137, 77, 200, 108
-0.991273, 225, 145, 480, 208
-0.991321, 233, 185, 296, 216
-0.991341, 161, 65, 224, 96
-0.991364, 369, 101, 432, 132
-0.991382, 129, 113, 160, 176
-0.99141, 425, 101, 488, 132
-0.991421, 273, 77, 336, 108
-0.991454, 185, 133, 248, 164
-0.991463, 265, 161, 296, 288
-0.991463, 209, 209, 272, 240
-0.99148, 81, 81, 144, 144
-0.991481, 373, 1, 404, 64
-0.991523, 217, 157, 280, 188
-0.991561, 265, 121, 328, 152
-0.991568, 329, 129, 392, 160
-0.991573, 321, 41, 384, 72
-0.991593, 417, 121, 480, 152
-0.991597, 401, 217, 464, 248
-0.991602, 289, 141, 352, 172
-0.991632, 137, 109, 200, 140
-0.991639, 217, 125, 280, 156
-0.991651, 169, 89, 232, 120
-0.991663, 289, 121, 352, 152
-0.991674, 329, 209, 360, 272
-0.991679, 265, 97, 328, 128
-0.991682, 345, 1, 376, 64
-0.991694, 289, 97, 352, 128
-0.991732, 249, 257, 312, 288
-0.991778, 329, 117, 392, 148
-0.991786, 153, 125, 216, 156
-0.991841, 257, 57, 500, 120
-0.991932, 321, 141, 384, 172
-0.991942, 285, 249, 316, 312
-0.991946, 249, 201, 312, 232
-0.991954, 129, 49, 384, 112
-0.991962, 129, 97, 192, 128
-0.991988, 177, 77, 240, 108
-0.991992, 265, 157, 328, 188
-0.991999, 249, 81, 312, 112
-0.992001, 337, 25, 400, 56
-0.992045, 217, 221, 280, 252
-0.992087, 361, 57, 424, 88
-0.992096, 377, 13, 440, 44
-0.992096, 433, 153, 496, 184
-0.992114, 349, 53, 380, 84
-0.992115, 353, 145, 416, 176
-0.992132, 257, 169, 320, 200
-0.992134, 129, 225, 256, 288
-0.992158, 281, 257, 344, 288
-0.992168, 369, 169, 496, 232
-0.992191, 201, 113, 264, 144
-0.992218, 321, 217, 384, 248
-0.992234, 273, 49, 336, 80
-0.99225, 297, 225, 360, 256
-0.992262, 385, 73, 416, 136
-0.992269, 433, 61, 496, 92
-0.992279, 217, 81, 280, 112
-0.992284, 341, 69, 372, 100
-0.99229, 265, 145, 328, 176
-0.992311, 49, 257, 176, 320
-0.992323, 273, 245, 336, 276
-0.992334, 321, 273, 384, 333
-0.992339, 165, 105, 196, 168
-0.992343, 249, 213, 312, 244
-0.992343, 225, 257, 288, 288
-0.992346, 353, 69, 384, 100
-0.992362, 385, 149, 448, 180
-0.992395, 409, 157, 472, 188
-0.992398, 329, 193, 392, 256
-0.992411, 305, 9, 368, 40
-0.992437, 393, 89, 456, 120
-0.99244, 161, 141, 224, 172
-0.992453, 349, 145, 380, 272
-0.992455, 213, 101, 244, 132
-0.992463, 417, 25, 480, 88
-0.992469, 97, 73, 160, 104
-0.992476, 49, 121, 112, 184
-0.992485, 193, 265, 256, 296
-0.992498, 409, 1, 472, 32
-0.992502, 9, 113, 72, 144
-0.992513, 177, 45, 240, 76
-0.992516, 397, 1, 428, 128
-0.992517, 353, 41, 416, 72
-0.992517, 385, 1, 448, 32
-0.992525, 129, 45, 192, 76
-0.992526, 461, 73, 492, 104
-0.992534, 359, 49, 374, 112
-0.992547, 193, 221, 256, 252
-0.992554, 281, 41, 312, 104
-0.992565, 353, 133, 416, 164
-0.992574, 297, 33, 360, 64
-0.992592, 97, 97, 352, 160
-0.992594, 57, 17, 120, 48
-0.992611, 201, 69, 264, 100
-0.992614, 161, 101, 224, 132
-0.992627, 193, 57, 256, 88
-0.992628, 185, 1, 248, 333
-0.992629, 417, 89, 480, 120
-0.992632, 97, 57, 160, 88
-0.992633, 57, 1, 120, 333
-0.99264, 17, 137, 80, 200
-0.992658, 393, 25, 456, 88
-0.992663, 249, 109, 312, 140
-0.992676, 345, 9, 408, 40
-0.99268, 237, 201, 268, 232
-0.992681, 461, 133, 492, 164
-0.992684, 329, 45, 360, 76
-0.992692, 197, 193, 228, 320
-0.992692, 225, 197, 288, 228
-0.992698, 65, 249, 128, 312
-0.992699, 257, 181, 320, 212
-0.992709, 289, 201, 352, 232
-0.992716, 221, 89, 252, 120
-0.992718, 357, 81, 388, 112
-0.992722, 249, 153, 280, 184
-0.992727, 317, 45, 348, 76
-0.992731, 265, 65, 328, 96
-0.99274, 329, 89, 360, 120
-0.992749, 225, 141, 288, 172
-0.992752, 161, 181, 224, 212
-0.992771, 253, 113, 284, 144
-0.992781, 249, 189, 280, 220
-0.992792, 9, 125, 72, 156
-0.992794, 97, 137, 352, 200
-0.992809, 193, 153, 256, 184
-0.992823, 377, 25, 440, 56
-0.99283, 273, 213, 336, 244
-0.992839, 317, 61, 348, 92
-0.992845, 233, 97, 264, 128
-0.992847, 425, 225, 488, 288
-0.992851, 329, 245, 392, 276
-0.992857, 105, 33, 168, 64
-0.992859, 49, 49, 112, 112
-0.99286, 233, 69, 296, 100
-0.992872, 33, 117, 96, 148
-0.992874, 177, 165, 240, 196
-0.992875, 209, 129, 240, 160
-0.992882, 113, 85, 176, 116
-0.992885, 337, 57, 368, 88
-0.99289, 329, 77, 360, 108
-0.992893, 369, 225, 432, 256
-0.992894, 225, 113, 256, 144
-0.992896, 121, 161, 184, 192
-0.992898, 193, 1, 256, 128
-0.992902, 241, 213, 272, 244
-0.992904, 465, 85, 496, 116
-0.992924, 297, 65, 328, 96
-0.992931, 361, 1, 392, 64
-0.992939, 321, 101, 352, 132
-0.992942, 461, 153, 492, 184
-0.992946, 193, 17, 320, 80
-0.992954, 313, 141, 344, 172
-0.992961, 289, 153, 352, 184
-0.992962, 245, 165, 276, 196
-0.992969, 105, 117, 168, 148
-0.992971, 49, 105, 112, 136
-0.992971, 409, 201, 440, 264
-0.992972, 345, 81, 376, 112
-0.992975, 217, 181, 248, 212
-0.992979, 185, 181, 248, 212
-0.992979, 257, 225, 320, 256
-0.992979, 201, 169, 264, 200
-0.992981, 153, 29, 216, 60
-0.992984, 385, 97, 416, 128
-0.99299, 445, 125, 476, 156
-0.993003, 449, 69, 480, 100
-0.993014, 365, 61, 396, 92
-0.993031, 97, 293, 160, 324
-0.993033, 49, 153, 176, 216
-0.993036, 421, 113, 452, 144
-0.993038, 125, 117, 156, 148
-0.993043, 233, 161, 264, 192
-0.993048, 273, 37, 336, 68
-0.99305, 373, 89, 404, 120
-0.993051, 229, 173, 260, 204
-0.993051, 317, 113, 348, 144
-0.993054, 189, 69, 220, 100
-0.993057, 177, 209, 240, 240
-0.993058, 377, 165, 440, 196
-0.993072, 409, 109, 440, 140
-0.993076, 341, 93, 372, 124
-0.993077, 445, 109, 476, 140
-0.993078, 121, 17, 184, 80
-0.993095, 281, 73, 312, 104
-0.993109, 197, 137, 228, 168
-0.993115, 301, 53, 332, 84
-0.993117, 265, 129, 296, 160
-0.993118, 465, 117, 496, 148
-0.993119, 133, 105, 164, 136
-0.99312, 445, 149, 476, 180
-0.993123, 209, 193, 240, 224
-0.993125, 49, 1, 112, 256
-0.993126, 201, 97, 232, 128
-0.993133, 353, 113, 384, 144
-0.993135, 205, 117, 236, 148
-0.993135, 233, 189, 264, 220
-0.993136, 261, 145, 292, 176
-0.993137, 317, 89, 348, 120
-0.993143, 245, 93, 276, 124
-0.993146, 313, 209, 344, 240
-0.993152, 397, 101, 428, 132
-0.993152, 305, 129, 336, 160
-0.993158, 205, 85, 236, 116
-0.993158, 333, 125, 364, 156
-0.993159, 145, 93, 176, 124
-0.993164, 357, 145, 388, 208
-0.993175, 145, 77, 176, 108
-0.993179, 449, 81, 480, 112
-0.99319, 241, 225, 272, 256
-0.993192, 193, 113, 224, 144
-0.993193, 449, 161, 480, 192
-0.993206, 165, 61, 196, 92
-0.993218, 465, 61, 496, 92
-0.993224, 97, 73, 352, 136
-0.993224, 433, 117, 464, 148
-0.993235, 245, 177, 276, 208
-0.993238, 185, 41, 216, 72
-0.993241, 297, 145, 328, 176
-0.993241, 325, 141, 356, 172
-0.99325, 325, 213, 356, 244
-0.993262, 205, 209, 236, 240
-0.993269, 149, 65, 180, 96
-0.993272, 265, 169, 296, 200
-0.993272, 213, 73, 244, 104
-0.99328, 345, 37, 376, 68
-0.993286, 433, 105, 464, 136
-0.993291, 309, 5, 340, 36
-0.993294, 49, 177, 176, 304
-0.993294, 265, 157, 296, 188
-0.993312, 369, 73, 400, 104
-0.993317, 197, 193, 228, 256
-0.993319, 389, 145, 420, 176
-0.993324, 221, 125, 252, 156
-0.993327, 181, 121, 212, 152
-0.993332, 241, 81, 272, 112
-0.993334, 37, 113, 68, 144
-0.993335, 37, 125, 68, 156
-0.993335, 301, 93, 332, 124
-0.993336, 433, 145, 464, 176
-0.993336, 157, 77, 188, 108
-0.993352, 253, 201, 284, 232
-0.993352, 237, 109, 268, 140
-0.993358, 149, 41, 180, 72
-0.993361, 385, 9, 416, 40
-0.993364, 229, 213, 260, 244
-0.993365, 309, 77, 340, 108
-0.993367, 401, 9, 432, 40
-0.993368, 257, 101, 288, 132
-0.993372, 137, 117, 168, 148
-0.99338, 341, 217, 372, 248
-0.993383, 409, 153, 440, 184
-0.993386, 305, 117, 336, 148
-0.993387, 261, 181, 292, 212
-0.993387, 161, 225, 224, 288
-0.993392, 301, 209, 332, 240
-0.993394, 273, 253, 304, 284
-0.993394, 469, 49, 500, 80
-0.993396, 257, 217, 500, 280
-0.993403, 169, 109, 200, 140
-0.993404, 417, 97, 448, 128
-0.993407, 333, 33, 364, 64
-0.993407, 365, 125, 396, 156
-0.993407, 1, 137, 128, 200
-0.99341, 185, 57, 216, 88
-0.993418, 301, 41, 332, 72
-0.993425, 181, 97, 212, 224
-0.993426, 409, 213, 440, 244
-0.993427, 377, 141, 408, 172
-0.993431, 289, 209, 320, 272
-0.993434, 353, 193, 416, 256
-0.993436, 337, 105, 368, 136
-0.993436, 185, 101, 216, 132
-0.993438, 469, 97, 500, 128
-0.993438, 417, 1, 448, 32
-0.993438, 149, 161, 180, 192
-0.993441, 285, 257, 316, 288
-0.993448, 265, 85, 296, 116
-0.993449, 133, 81, 164, 112
-0.99345, 457, 105, 488, 136
-0.993453, 273, 113, 304, 144
-0.993497, 413, 49, 444, 176
-0.993514, 153, 97, 184, 160
-0.993518, 233, 273, 296, 333
-0.99357, 305, 249, 368, 312
-0.993586, 429, 49, 460, 176
-0.993619, 433, 177, 496, 240
-0.993633, 469, 17, 500, 144
-0.993643, 181, 137, 212, 200
-0.993696, 389, 121, 420, 184
-0.993708, 161, 185, 416, 248
-0.993723, 273, 97, 304, 160
-0.993763, 149, 81, 180, 208
-0.993763, 293, 193, 324, 320
-0.993783, 241, 1, 304, 333
-0.993795, 365, 49, 380, 112
-0.993827, 281, 161, 312, 288
-0.993836, 185, 265, 248, 328
-0.993878, 229, 209, 260, 333
-0.994005, 161, 209, 416, 272
-0.994019, 273, 77, 400, 108
-0.994024, 177, 117, 304, 148
-0.994035, 289, 89, 416, 120
-0.994042, 1, 49, 128, 176
-0.994065, 129, 109, 256, 140
-0.994126, 1, 97, 500, 160
-0.994216, 225, 241, 480, 304
-0.994272, 113, 153, 176, 216
-0.994304, 297, 241, 328, 304
-0.994326, 459, 129, 474, 192
-0.994337, 57, 105, 88, 168
-0.994339, 193, 153, 256, 216
-0.994342, 1, 89, 128, 152
-0.994342, 205, 41, 236, 104
-0.994378, 169, 33, 200, 160
-0.994401, 229, 49, 260, 176
-0.994411, 353, 193, 480, 256
-0.994414, 337, 105, 464, 136
-0.994498, 113, 257, 176, 320
-0.994501, 17, 89, 80, 152
-0.994506, 257, 185, 272, 248
-0.99451, 361, 25, 392, 88
-0.994526, 129, 249, 256, 312
-0.994532, 453, 121, 468, 184
-0.994537, 367, 73, 382, 136
-0.994601, 261, 145, 276, 208
-0.994642, 1, 89, 256, 152
-0.994666, 137, 65, 168, 128
-0.994676, 17, 49, 80, 176
-0.994676, 1, 49, 500, 112
-0.99468, 221, 89, 236, 152
-0.994688, 1, 249, 128, 312
-0.994703, 81, 1, 112, 128
-0.994716, 257, 225, 288, 288
-0.994738, 349, 57, 364, 120
-0.994743, 133, 33, 164, 160
-0.99479, 177, 129, 304, 160
-0.994882, 273, 65, 400, 96
-0.994882, 69, 1, 100, 64
-0.99489, 213, 225, 244, 288
-0.994918, 345, 209, 408, 333
-0.994934, 485, 121, 500, 184
-0.994945, 341, 41, 356, 104
-0.994983, 321, 257, 352, 320
-0.995014, 125, 57, 156, 120
-0.995015, 465, 129, 480, 192
-0.995023, 251, 153, 266, 216
-0.995036, 113, 1, 176, 333
-0.995053, 373, 81, 388, 144
-0.995058, 241, 213, 368, 244
-0.995074, 327, 89, 342, 152
-0.99509, 1, 129, 500, 192
-0.995108, 165, 81, 196, 144
-0.995114, 429, 217, 460, 280
-0.995124, 245, 257, 276, 320
-0.995169, 435, 113, 450, 176
-0.995185, 97, 9, 224, 72
-0.995194, 1, 145, 128, 272
-0.995197, 241, 149, 368, 180
-0.995201, 49, 233, 176, 296
-0.995215, 113, 273, 240, 333
-0.995263, 241, 105, 368, 136
-0.995279, 337, 93, 464, 124
-0.995283, 337, 225, 400, 288
-0.995322, 349, 209, 380, 333
-0.995327, 285, 137, 316, 200
-0.99533, 233, 145, 264, 208
-0.995338, 471, 65, 486, 128
-0.995342, 33, 49, 288, 112
-0.995354, 137, 145, 200, 208
-0.995366, 129, 25, 384, 88
-0.995371, 471, 129, 486, 192
-0.995376, 245, 73, 276, 136
-0.99539, 269, 121, 284, 184
-0.995403, 447, 121, 462, 184
-0.995408, 251, 193, 266, 256
-0.995419, 157, 17, 188, 144
-0.995422, 1, 113, 256, 176
-0.995428, 333, 57, 348, 120
-0.99544, 417, 1, 448, 64
-0.995518, 265, 89, 280, 152
-0.995553, 441, 113, 456, 176
-0.99556, 161, 97, 288, 128
-0.995564, 105, 1, 168, 256
-0.995581, 343, 65, 358, 128
-0.995582, 257, 137, 384, 168
-0.995584, 305, 185, 336, 248
-0.995596, 113, 49, 144, 176
-0.995603, 233, 89, 248, 152
-0.995619, 359, 73, 374, 136
-0.995619, 345, 145, 376, 208
-0.995622, 1, 73, 500, 136
-0.995636, 273, 53, 400, 84
-0.995644, 249, 33, 312, 96
-0.995651, 413, 65, 444, 320
-0.995655, 209, 173, 336, 204
-0.995665, 1, 9, 128, 72
-0.995668, 245, 161, 260, 224
-0.995672, 161, 249, 224, 312
-0.995696, 37, 105, 68, 168
-0.995696, 421, 105, 436, 168
-0.995703, 165, 145, 196, 208
-0.995714, 333, 81, 348, 144
-0.995725, 317, 1, 348, 256
-0.995753, 129, 77, 256, 108
-0.995779, 465, 65, 480, 128
-0.995782, 209, 193, 224, 256
-0.99579, 65, 161, 320, 224
-0.995792, 245, 201, 260, 264
-0.995796, 323, 57, 338, 120
-0.995797, 301, 1, 332, 64
-0.995804, 209, 93, 336, 124
-0.995834, 253, 217, 268, 280
-0.995859, 477, 121, 492, 184
-0.995872, 373, 113, 404, 176
-0.99591, 401, 97, 416, 160
-0.995912, 371, 49, 386, 112
-0.995915, 113, 61, 240, 92
-0.995917, 1, 49, 128, 112
-0.995934, 351, 33, 366, 96
-0.99594, 305, 141, 432, 172
-0.995941, 385, 89, 400, 152
-0.995952, 161, 169, 288, 200
-0.995953, 353, 81, 480, 112
-0.995962, 113, 41, 240, 72
-0.995973, 241, 117, 368, 148
-0.995989, 215, 113, 230, 176
-0.995999, 369, 117, 496, 148
-0.996041, 369, 145, 496, 176
-0.996044, 113, 121, 240, 152
-0.996048, 353, 265, 480, 328
-0.99605, 41, 257, 104, 320
-0.996052, 177, 17, 240, 80
-0.996063, 117, 113, 148, 176
-0.996079, 341, 217, 372, 280
-0.996081, 397, 1, 412, 64
-0.996084, 361, 233, 392, 296
-0.996085, 237, 113, 268, 176
-0.996088, 397, 217, 428, 280
-0.996129, 329, 33, 344, 96
-0.996142, 289, 213, 416, 244
-0.996149, 319, 105, 334, 168
-0.996153, 337, 65, 464, 96
-0.996154, 429, 113, 444, 176
-0.996156, 305, 145, 336, 208
-0.996165, 373, 33, 404, 288
-0.996167, 263, 113, 278, 176
-0.996178, 385, 33, 416, 288
-0.996197, 349, 1, 364, 64
-0.996201, 341, 1, 372, 256
-0.996203, 193, 73, 320, 104
-0.99622, 413, 105, 428, 168
-0.996222, 365, 113, 380, 176
-0.996232, 177, 193, 304, 224
-0.996254, 401, 33, 432, 288
-0.996291, 129, 257, 384, 320
-0.996297, 329, 145, 360, 208
-0.996306, 273, 225, 400, 256
-0.996316, 477, 65, 492, 128
-0.996324, 239, 161, 254, 224
-0.996326, 209, 161, 336, 192
-0.996327, 263, 185, 278, 248
-0.996327, 301, 65, 316, 128
-0.996329, 281, 17, 312, 144
-0.996342, 395, 97, 410, 160
-0.996347, 329, 1, 344, 64
-0.996378, 233, 169, 248, 232
-0.996382, 341, 17, 356, 80
-0.996405, 193, 209, 320, 240
-0.99643, 215, 89, 230, 152
-0.996432, 257, 169, 500, 232
-0.996441, 475, 89, 490, 152
-0.996452, 65, 185, 320, 248
-0.996462, 413, 193, 444, 320
-0.996481, 321, 1, 336, 64
-0.996497, 327, 129, 342, 192
-0.996502, 361, 65, 392, 320
-0.996513, 283, 249, 298, 312
-0.996514, 227, 97, 242, 160
-0.996521, 161, 181, 288, 212
-0.996543, 333, 209, 348, 272
-0.996547, 307, 57, 322, 120
-0.996552, 289, 5, 416, 36
-0.996563, 289, 125, 416, 156
-0.996581, 335, 1, 350, 64
-0.996582, 327, 209, 342, 272
-0.996592, 379, 89, 394, 152
-0.996602, 313, 49, 328, 112
-0.996606, 257, 25, 500, 88
-0.99662, 209, 81, 224, 144
-0.996621, 305, 1, 336, 256
-0.996625, 313, 121, 328, 184
-0.996631, 295, 65, 310, 128
-0.996648, 113, 97, 240, 128
-0.996648, 449, 97, 464, 160
-0.99665, 385, 241, 448, 304
-0.996651, 203, 105, 218, 168
-0.996671, 467, 89, 482, 152
-0.996682, 209, 257, 336, 288
-0.996688, 225, 177, 240, 240
-0.996694, 1, 25, 256, 88
-0.996694, 319, 209, 334, 272
-0.996721, 225, 121, 240, 184
-0.996726, 239, 89, 254, 152
-0.996726, 469, 153, 484, 216
-0.996739, 89, 121, 152, 184
-0.996747, 269, 161, 284, 224
-0.996751, 149, 49, 164, 112
-0.996757, 145, 141, 272, 172
-0.996772, 65, 233, 320, 296
-0.996778, 57, 97, 88, 224
-0.996781, 483, 57, 498, 120
-0.996786, 431, 145, 446, 208
-0.996801, 407, 97, 422, 160
-0.99682, 57, 17, 88, 144
-0.996829, 209, 113, 224, 176
-0.996831, 231, 65, 246, 128
-0.996836, 161, 57, 176, 120
-0.996841, 441, 145, 456, 208
-0.996848, 275, 121, 290, 184
-0.996861, 81, 77, 208, 108
-0.996861, 219, 185, 234, 248
-0.996875, 293, 33, 324, 288
-0.996876, 145, 81, 160, 144
-0.996892, 483, 81, 498, 144
-0.996916, 185, 1, 216, 256
-0.996918, 1, 137, 256, 200
-0.996922, 351, 81, 366, 144
-0.996926, 289, 249, 304, 312
-0.99693, 305, 33, 320, 96
-0.996935, 481, 145, 496, 208
-0.996936, 475, 41, 490, 104
-0.996936, 333, 113, 348, 176
-0.996941, 145, 157, 272, 188
-0.996958, 455, 97, 470, 160
-0.996971, 329, 1, 360, 256
-0.996981, 289, 113, 416, 144
-0.996986, 409, 73, 424, 136
-0.996986, 451, 145, 466, 208
-0.997009, 315, 25, 330, 88
-0.997026, 209, 225, 336, 256
-0.99704, 193, 61, 320, 92
-0.997043, 25, 1, 88, 333
-0.997056, 459, 73, 474, 136
-0.99706, 193, 41, 208, 104
-0.997068, 165, 33, 180, 96
-0.997068, 461, 153, 476, 216
-0.997071, 425, 65, 456, 320
-0.997078, 475, 73, 490, 104
-0.997093, 271, 97, 286, 160
-0.997153, 171, 33, 186, 96
-0.997176, 387, 9, 402, 72
-0.997179, 371, 121, 386, 184
-0.997189, 415, 145, 430, 208
-0.997196, 177, 33, 192, 96
-0.997198, 161, 221, 288, 252
-0.997198, 225, 197, 352, 228
-0.997212, 33, 113, 160, 144
-0.997223, 367, 69, 382, 100
-0.997227, 337, 217, 464, 248
-0.99723, 277, 249, 292, 312
-0.997238, 409, 145, 424, 208
-0.997244, 465, 69, 480, 100
-0.997248, 241, 185, 368, 216
-0.997265, 365, 53, 380, 84
-0.997266, 385, 137, 400, 200
-0.997272, 485, 33, 500, 96
-0.99728, 167, 57, 182, 120
-0.99728, 65, 89, 192, 120
-0.997289, 281, 33, 312, 288
-0.997299, 417, 249, 480, 312
-0.997302, 395, 145, 410, 208
-0.997333, 461, 105, 476, 168
-0.997335, 425, 209, 488, 333
-0.997336, 257, 113, 272, 176
-0.997343, 223, 109, 238, 140
-0.997345, 259, 233, 274, 296
-0.997346, 357, 105, 372, 168
-0.997365, 307, 201, 322, 264
-0.997367, 197, 137, 212, 200
-0.997371, 417, 73, 432, 136
-0.997372, 425, 145, 440, 208
-0.997381, 247, 205, 262, 236
-0.997384, 233, 113, 248, 176
-0.997385, 17, 249, 80, 312
-0.997392, 357, 69, 372, 100
-0.997396, 401, 137, 416, 200
-0.997397, 313, 161, 376, 224
-0.9974, 73, 273, 136, 333
-0.997421, 183, 33, 198, 96
-0.997457, 351, 57, 366, 88
-0.997477, 37, 81, 68, 208
-0.997494, 157, 129, 188, 256
-0.997495, 255, 189, 270, 220
-0.997509, 229, 65, 260, 320
-0.99751, 1, 1, 500, 64
-0.997516, 289, 101, 416, 132
-0.997553, 197, 33, 228, 288
-0.997559, 197, 1, 228, 128
-0.997561, 333, 81, 348, 112
-0.997563, 353, 229, 480, 260
-0.997582, 369, 129, 496, 160
-0.997588, 69, 1, 100, 128
-0.997592, 369, 9, 496, 40
-0.997604, 145, 9, 272, 72
-0.997608, 273, 237, 400, 268
-0.99765, 231, 93, 246, 124
-0.997656, 457, 1, 488, 256
-0.997673, 33, 177, 160, 240
-0.997677, 65, 209, 320, 272
-0.997693, 273, 257, 400, 288
-0.997699, 233, 113, 248, 144
-0.997716, 281, 209, 312, 333
-0.997722, 121, 145, 184, 272
-0.997726, 267, 113, 282, 144
-0.997734, 193, 49, 320, 80
-0.997747, 329, 93, 344, 124
-0.99775, 321, 53, 448, 84
-0.997761, 33, 125, 160, 156
-0.997768, 357, 53, 372, 84
-0.997775, 343, 69, 358, 100
-0.997787, 337, 41, 352, 72
-0.997798, 253, 217, 268, 248
-0.9978, 219, 121, 234, 152
-0.997833, 209, 237, 336, 268
-0.997847, 305, 201, 432, 232
-0.997856, 209, 65, 240, 320
-0.997867, 193, 141, 320, 172
-0.997869, 361, 81, 376, 112
-0.997875, 81, 109, 208, 140
-0.997876, 351, 69, 366, 100
-0.997881, 129, 193, 256, 224
-0.997887, 343, 57, 358, 88
-0.997894, 257, 193, 500, 256
-0.997914, 73, 33, 136, 96
-0.997915, 65, 53, 192, 84
-0.997938, 273, 41, 400, 72
-0.99794, 93, 1, 124, 128
-0.997942, 257, 1, 500, 64
-0.997943, 193, 269, 320, 300
-0.997959, 481, 77, 496, 108
-0.997963, 113, 169, 240, 200
-0.997981, 219, 93, 234, 124
-0.997983, 269, 17, 300, 144
-0.997987, 327, 45, 342, 76
-0.997991, 237, 89, 252, 120
-0.997993, 259, 149, 274, 180
-0.997996, 237, 101, 252, 132
-0.997999, 133, 113, 148, 144
-0.998011, 249, 33, 280, 288
-0.998012, 475, 133, 490, 164
-0.998016, 169, 1, 200, 256
-0.998018, 211, 193, 226, 224
-0.998023, 471, 61, 486, 92
-0.998024, 145, 205, 272, 236
-0.998034, 437, 65, 468, 320
-0.998036, 485, 65, 500, 96
-0.99804, 257, 161, 384, 192
-0.998041, 343, 45, 358, 76
-0.998043, 49, 33, 176, 64
-0.998056, 269, 129, 284, 160
-0.998056, 1, 273, 128, 333
-0.998071, 301, 65, 316, 96
-0.998073, 227, 121, 242, 152
-0.998076, 455, 125, 470, 156
-0.998086, 81, 1, 144, 333
-0.998095, 353, 241, 480, 272
-0.998102, 325, 141, 340, 172
-0.998105, 457, 77, 472, 108
-0.99812, 269, 33, 300, 288
-0.998121, 33, 201, 160, 264
-0.998135, 425, 193, 456, 320
-0.998137, 153, 1, 184, 256
-0.998138, 1, 225, 500, 288
-0.998139, 81, 57, 144, 120
-0.998142, 257, 173, 384, 204
-0.998143, 105, 225, 168, 288
-0.998148, 137, 129, 168, 256
-0.998152, 367, 81, 382, 112
-0.998159, 251, 157, 266, 188
-0.998164, 265, 145, 280, 176
-0.998171, 421, 109, 436, 140
-0.998171, 337, 69, 352, 100
-0.998182, 49, 73, 112, 136
-0.99819, 49, 65, 176, 96
-0.998198, 411, 105, 426, 136
-0.9982, 481, 133, 496, 164
-0.998202, 355, 81, 370, 112
-0.998212, 373, 69, 388, 100
-0.998212, 215, 133, 230, 164
-0.998216, 289, 21, 416, 52
-0.998223, 369, 157, 496, 188
-0.99823, 221, 181, 236, 212
-0.998234, 475, 117, 490, 148
-0.998236, 401, 101, 416, 132
-0.998237, 213, 117, 228, 148
-0.998237, 295, 69, 310, 100
-0.998244, 389, 93, 404, 124
-0.998245, 261, 169, 276, 200
-0.998252, 113, 1, 176, 128
-0.998268, 221, 133, 236, 164
-0.998269, 97, 29, 224, 60
-0.998272, 241, 193, 256, 224
-0.998282, 427, 109, 442, 140
-0.998291, 225, 265, 480, 328
-0.998291, 469, 153, 484, 184
-0.998291, 81, 193, 208, 256
-0.998295, 469, 121, 484, 152
-0.998301, 323, 101, 338, 132
-0.998303, 261, 181, 276, 212
-0.998304, 247, 193, 262, 224
-0.998318, 173, 139, 204, 154
-0.998319, 317, 75, 348, 90
-0.998319, 141, 117, 172, 132
-0.998319, 265, 181, 296, 196
-0.99832, 181, 43, 212, 58
-0.99832, 229, 121, 260, 136
-0.998321, 241, 161, 256, 192
-0.998321, 265, 143, 296, 158
-0.998321, 353, 113, 384, 128
-0.998323, 297, 213, 328, 228
-0.998323, 469, 93, 500, 108
-0.998324, 209, 79, 240, 94
-0.998324, 205, 137, 220, 168
-0.998324, 369, 61, 400, 76
-0.998325, 317, 89, 348, 104
-0.998326, 149, 77, 164, 108
-0.998326, 397, 9, 412, 40
-0.998326, 461, 145, 492, 160
-0.998327, 321, 213, 352, 228
-0.998327, 189, 77, 220, 92
-0.998329, 469, 67, 500, 82
-0.99833, 305, 15, 336, 30
-0.99833, 145, 163, 176, 178
-0.998331, 197, 117, 228, 132
-0.998331, 169, 63, 200, 78
-0.998332, 129, 123, 160, 138
-0.998332, 387, 17, 402, 48
-0.998332, 181, 133, 212, 148
-0.998333, 201, 103, 232, 118
-0.998333, 149, 75, 180, 90
-0.998333, 325, 141, 356, 156
-0.998336, 145, 95, 176, 110
-0.998338, 245, 183, 276, 198
-0.998339, 405, 15, 436, 30
-0.99834, 281, 75, 312, 90
-0.998343, 337, 103, 368, 118
-0.998343, 221, 267, 252, 282
-0.998345, 245, 195, 276, 210
-0.998346, 383, 93, 398, 124
-0.998347, 449, 85, 480, 100
-0.998347, 317, 95, 348, 110
-0.998347, 145, 81, 176, 96
-0.998347, 273, 129, 304, 144
-0.998347, 341, 91, 372, 106
-0.998347, 253, 109, 284, 124
-0.998348, 297, 147, 328, 162
-0.998348, 325, 67, 356, 82
-0.998348, 249, 177, 280, 192
-0.998348, 437, 111, 468, 126
-0.998349, 385, 7, 416, 22
-0.998349, 233, 173, 264, 188
-0.998349, 317, 117, 348, 132
-0.99835, 313, 49, 344, 64
-0.998351, 449, 151, 480, 166
-0.998352, 237, 167, 268, 182
-0.998352, 217, 131, 248, 146
-0.998353, 337, 21, 464, 52
-0.998356, 341, 45, 372, 60
-0.998357, 449, 75, 480, 90
-0.998357, 217, 117, 248, 132
-0.998357, 233, 189, 264, 204
-0.998357, 305, 57, 336, 72
-0.998359, 265, 137, 296, 152
-0.998359, 233, 195, 264, 210
-0.99836, 375, 85, 390, 116
-0.998361, 33, 101, 160, 132
-0.998361, 453, 161, 484, 176
-0.998362, 449, 125, 464, 156
-0.998363, 369, 67, 400, 82
-0.998363, 265, 149, 296, 164
-0.998365, 233, 115, 264, 130
-0.998365, 225, 179, 256, 194
-0.998366, 81, 133, 208, 164
-0.998366, 353, 119, 384, 134
-0.998367, 397, 9, 428, 24
-0.998368, 241, 91, 272, 106
-0.99837, 449, 117, 480, 132
-0.99837, 253, 189, 284, 204
-0.998372, 365, 87, 396, 102
-0.998372, 381, 27, 412, 42
-0.998372, 437, 109, 452, 140
-0.998372, 319, 53, 334, 84
-0.998373, 117, 115, 148, 130
-0.998375, 233, 169, 248, 200
-0.998375, 395, 97, 410, 128
-0.998376, 209, 123, 240, 138
-0.998377, 445, 127, 476, 142
-0.998377, 193, 139, 224, 154
-0.998378, 209, 193, 240, 208
-0.998379, 221, 185, 252, 200
-0.998379, 309, 213, 340, 228
-0.998379, 143, 101, 158, 132
-0.998381, 461, 129, 476, 160
-0.998382, 185, 71, 216, 86
-0.998383, 405, 107, 436, 122
-0.998383, 245, 223, 276, 238
-0.998385, 311, 57, 326, 88
-0.998386, 349, 33, 364, 64
-0.998389, 233, 97, 264, 112
-0.99839, 327, 61, 342, 92
-0.998392, 313, 143, 344, 158
-0.998395, 245, 161, 276, 176
-0.998395, 321, 105, 352, 120
-0.998396, 361, 257, 424, 320
-0.998397, 341, 97, 372, 112
-0.998397, 461, 133, 492, 148
-0.998399, 249, 171, 280, 186
-0.998399, 377, 93, 408, 108
-0.998399, 241, 215, 272, 230
-0.998402, 133, 101, 148, 132
-0.998402, 461, 79, 492, 94
-0.998402, 337, 57, 368, 72
-0.998403, 205, 97, 236, 112
-0.998403, 385, 99, 416, 114
-0.998403, 475, 153, 490, 184
-0.998404, 463, 81, 478, 112
-0.998405, 331, 137, 346, 168
-0.998405, 421, 1, 436, 32
-0.998406, 461, 155, 492, 170
-0.998407, 429, 119, 460, 134
-0.998408, 443, 121, 458, 152
-0.998408, 465, 85, 496, 100
-0.99841, 139, 113, 154, 144
-0.99841, 293, 69, 324, 84
-0.998415, 253, 115, 284, 130
-0.998417, 233, 201, 264, 216
-0.998417, 321, 81, 384, 96
-0.998419, 317, 111, 348, 126
-0.998419, 319, 141, 334, 172
-0.99842, 205, 137, 236, 152
-0.998422, 337, 65, 368, 80
-0.998425, 483, 121, 498, 152
-0.998425, 221, 89, 252, 104
-0.998426, 33, 257, 288, 320
-0.998426, 253, 153, 284, 168
-0.998428, 417, 113, 448, 128
-0.998428, 361, 73, 392, 88
-0.998428, 469, 133, 484, 164
-0.99843, 241, 107, 272, 122
-0.998431, 317, 55, 348, 70
-0.998431, 459, 149, 474, 180
-0.998434, 225, 109, 256, 124
-0.998436, 233, 209, 264, 224
-0.998437, 333, 51, 364, 66
-0.998438, 305, 63, 336, 78
-0.998439, 213, 103, 244, 118
-0.99844, 199, 137, 214, 168
-0.99844, 335, 213, 350, 244
-0.998444, 329, 97, 360, 112
-0.998445, 113, 181, 240, 212
-0.998449, 465, 125, 496, 140
-0.998456, 317, 61, 348, 76
-0.998463, 129, 115, 160, 130
-0.998463, 317, 109, 332, 140
-0.998464, 225, 97, 240, 128
-0.998465, 227, 177, 242, 208
-0.998467, 453, 109, 468, 140
-0.998467, 275, 121, 290, 152
-0.998468, 353, 83, 384, 98
-0.998472, 221, 97, 252, 112
-0.998474, 337, 91, 400, 106
-0.998476, 333, 83, 364, 98
-0.998478, 335, 57, 350, 88
-0.998478, 477, 61, 492, 92
-0.998479, 329, 91, 360, 106
-0.998483, 225, 173, 288, 188
-0.998485, 463, 113, 478, 144
-0.998488, 311, 141, 326, 172
-0.998495, 481, 145, 496, 176
-0.998496, 353, 97, 416, 112
-0.998498, 245, 177, 260, 208
-0.998498, 349, 45, 364, 76
-0.998499, 353, 53, 384, 68
-0.998499, 347, 81, 362, 112
-0.998507, 213, 111, 244, 126
-0.998508, 427, 97, 442, 224
-0.998508, 337, 37, 464, 68
-0.998509, 393, 81, 408, 208
-0.998509, 145, 265, 272, 296
-0.99851, 149, 93, 164, 124
-0.998511, 321, 57, 384, 72
-0.998512, 225, 117, 288, 132
-0.998513, 217, 181, 280, 196
-0.998514, 371, 57, 386, 88
-0.998516, 297, 213, 360, 228
-0.998516, 337, 77, 368, 92
-0.998517, 325, 45, 356, 60
-0.998517, 243, 93, 258, 124
-0.998518, 143, 81, 158, 112
-0.99852, 313, 97, 376, 112
-0.998523, 225, 103, 256, 118
-0.998526, 81, 1, 144, 256
-0.998527, 329, 213, 344, 244
-0.99853, 1, 249, 500, 312
-0.998531, 267, 177, 282, 208
-0.998533, 313, 103, 376, 118
-0.998533, 369, 121, 384, 152
-0.998535, 305, 49, 368, 64
-0.998537, 337, 71, 368, 86
-0.998538, 209, 187, 272, 202
-0.998538, 305, 145, 320, 176
-0.998542, 225, 167, 288, 182
-0.998544, 447, 105, 462, 136
-0.998546, 185, 121, 248, 136
-0.998546, 201, 197, 264, 212
-0.99855, 225, 111, 288, 126
-0.998552, 407, 97, 422, 224
-0.998552, 209, 81, 224, 112
-0.998554, 461, 73, 492, 88
-0.998555, 433, 73, 496, 88
-0.998556, 321, 63, 384, 78
-0.998556, 185, 115, 248, 130
-0.998557, 289, 269, 416, 300
-0.998557, 329, 75, 392, 90
-0.998558, 231, 81, 246, 112
-0.99856, 353, 59, 384, 74
-0.998561, 265, 93, 280, 124
-0.998562, 465, 57, 480, 88
-0.998565, 433, 115, 496, 130
-0.998568, 137, 65, 200, 80
-0.998568, 273, 113, 336, 128
-0.998569, 281, 75, 344, 90
-0.998572, 49, 113, 64, 144
-0.998573, 313, 109, 376, 124
-0.998573, 257, 149, 320, 164
-0.998573, 349, 77, 380, 92
-0.998575, 297, 89, 360, 104
-0.998575, 33, 77, 160, 108
-0.998576, 349, 67, 380, 82
-0.998577, 289, 67, 352, 82
-0.998577, 337, 69, 400, 84
-0.998578, 193, 103, 256, 118
-0.99858, 469, 85, 484, 116
-0.99858, 385, 81, 400, 208
-0.998583, 461, 161, 476, 192
-0.998583, 177, 127, 240, 142
-0.998583, 217, 105, 280, 120
-0.998584, 433, 79, 496, 94
-0.998587, 225, 125, 288, 140
-0.998588, 217, 99, 280, 114
-0.998589, 193, 109, 256, 124
-0.99859, 161, 73, 224, 88
-0.998593, 153, 41, 216, 56
-0.998594, 251, 145, 266, 272
-0.998594, 297, 81, 360, 96
-0.998597, 305, 75, 368, 90
-0.998598, 255, 177, 270, 208
-0.998599, 425, 149, 488, 164
-0.998601, 345, 85, 408, 100
-0.998601, 297, 219, 360, 234
-0.998602, 453, 149, 468, 180
-0.998602, 353, 103, 416, 118
-0.998602, 169, 139, 232, 154
-0.998603, 433, 109, 496, 124
-0.998603, 475, 89, 490, 120
-0.998604, 393, 111, 456, 126
-0.998606, 341, 5, 356, 36
-0.998608, 249, 217, 312, 232
-0.998608, 1, 225, 128, 288
-0.998613, 379, 81, 394, 208
-0.998616, 329, 121, 392, 136
-0.998616, 273, 121, 336, 136
-0.998619, 361, 61, 424, 76
-0.99862, 137, 79, 200, 94
-0.99862, 193, 135, 256, 150
-0.99862, 137, 71, 200, 86
-0.99862, 153, 133, 216, 148
-0.998621, 193, 89, 256, 104
-0.998623, 145, 249, 272, 280
-0.998623, 49, 253, 176, 284
-0.998623, 217, 131, 280, 146
-0.998623, 417, 125, 480, 140
-0.998624, 249, 257, 312, 272
-0.998624, 469, 1, 500, 256
-0.998625, 297, 61, 360, 76
-0.998625, 481, 89, 496, 120
-0.998625, 281, 145, 344, 160
-0.998626, 393, 19, 456, 34
-0.998626, 209, 221, 272, 236
-0.998628, 329, 133, 392, 148
-0.998628, 409, 103, 472, 118
-0.998629, 201, 203, 264, 218
-0.998629, 241, 157, 304, 172
-0.99863, 265, 127, 328, 142
-0.998631, 289, 101, 352, 116
-0.998633, 217, 263, 280, 278
-0.998633, 257, 137, 320, 152
-0.998633, 241, 205, 256, 236
-0.998633, 369, 11, 432, 26
-0.998635, 401, 117, 464, 132
-0.998635, 273, 107, 336, 122
-0.998639, 393, 97, 456, 112
-0.998639, 409, 157, 472, 172
-0.99864, 353, 75, 416, 90
-0.99864, 329, 127, 392, 142
-0.998641, 217, 93, 280, 108
-0.998641, 145, 113, 208, 128
-0.998641, 421, 97, 436, 224
-0.998642, 297, 43, 360, 58
-0.998642, 313, 69, 376, 84
-0.998643, 233, 191, 296, 206
-0.998645, 177, 67, 240, 82
-0.998646, 201, 215, 264, 230
-0.998647, 137, 85, 200, 100
-0.99865, 161, 79, 224, 94
-0.99865, 305, 143, 368, 158
-0.998652, 377, 25, 440, 40
-0.998653, 313, 115, 376, 130
-0.998655, 361, 67, 424, 82
-0.998657, 257, 143, 320, 158
-0.998659, 193, 97, 256, 112
-0.998659, 161, 237, 288, 268
-0.99866, 353, 19, 416, 34
-0.99866, 193, 267, 256, 282
-0.998661, 241, 223, 304, 238
-0.998661, 433, 143, 496, 158
-0.998661, 401, 219, 464, 234
-0.998661, 121, 117, 184, 132
-0.998662, 393, 5, 456, 20
-0.998663, 265, 67, 328, 82
-0.998663, 289, 95, 352, 110
-0.998665, 433, 91, 496, 106
-0.998665, 257, 91, 320, 106
-0.998666, 433, 85, 496, 100
-0.998667, 337, 41, 400, 56
-0.998668, 249, 105, 312, 120
-0.998669, 289, 225, 352, 240
-0.998669, 193, 83, 256, 98
-0.998671, 377, 105, 440, 120
-0.998671, 297, 55, 360, 70
-0.998671, 413, 97, 428, 224
-0.998671, 233, 197, 296, 212
-0.998671, 217, 161, 280, 176
-0.998671, 97, 145, 224, 176
-0.998673, 373, 81, 388, 208
-0.998673, 181, 145, 212, 272
-0.998675, 385, 91, 448, 106
-0.998676, 169, 103, 232, 118
-0.998677, 257, 145, 272, 272
-0.998678, 289, 127, 352, 142
-0.998678, 305, 121, 368, 136
-0.998679, 137, 59, 200, 74
-0.99868, 249, 185, 312, 200
-0.998681, 97, 85, 160, 100
-0.998682, 353, 27, 416, 42
-0.998683, 129, 107, 192, 122
-0.998684, 201, 209, 264, 224
-0.998684, 161, 61, 224, 76
-0.998684, 217, 143, 280, 158
-0.998686, 233, 151, 296, 166
-0.998687, 393, 13, 456, 28
-0.998687, 185, 73, 248, 88
-0.998688, 257, 165, 320, 180
-0.998689, 273, 55, 336, 70
-0.998696, 113, 217, 240, 248
-0.998699, 433, 97, 448, 224
-0.998707, 161, 1, 416, 64
-0.998712, 49, 153, 176, 184
-0.99874, 437, 209, 468, 333
-0.998749, 1, 153, 500, 216
-0.99875, 401, 97, 416, 224
-0.998757, 401, 193, 432, 320
-0.998772, 365, 49, 380, 176
-0.998773, 177, 29, 304, 60
-0.998777, 465, 81, 480, 208
-0.998785, 219, 81, 234, 208
-0.998792, 245, 145, 260, 272
-0.998795, 457, 113, 472, 240
-0.998801, 1, 1, 64, 333
-0.998802, 269, 113, 284, 240
-0.998804, 465, 161, 496, 288
-0.998805, 241, 273, 368, 304
-0.99881, 337, 1, 352, 128
-0.998814, 449, 97, 464, 224
-0.99882, 305, 153, 432, 184
-0.998826, 331, 49, 346, 176
-0.998829, 443, 113, 458, 240
-0.998863, 253, 209, 284, 333
-0.998865, 331, 1, 346, 128
-0.998867, 321, 33, 336, 160
-0.998872, 263, 145, 278, 272
-0.998899, 217, 129, 232, 256
-0.9989, 325, 81, 340, 208
-0.998916, 359, 49, 374, 176
-0.998921, 229, 97, 244, 224
-0.998931, 181, 1, 212, 128
-0.998939, 475, 65, 490, 192
-0.99895, 349, 49, 364, 176
-0.998954, 65, 165, 192, 196
-0.998968, 369, 49, 496, 80
-0.998977, 241, 5, 368, 36
-0.998981, 259, 97, 274, 224
-0.999003, 137, 33, 168, 288
-0.999006, 305, 285, 432, 316
-0.999014, 349, 1, 364, 128
-0.999015, 313, 49, 328, 176
-0.999015, 1, 261, 128, 292
-0.999019, 237, 81, 252, 208
-0.999019, 73, 193, 136, 320
-0.999023, 239, 161, 254, 288
-0.99904, 33, 137, 160, 168
-0.999041, 113, 233, 240, 264
-0.999045, 387, 1, 402, 128
-0.999046, 211, 97, 226, 224
-0.999056, 113, 113, 144, 240
-0.999057, 319, 113, 334, 240
-0.99906, 257, 285, 384, 316
-0.999087, 225, 33, 352, 64
-0.999091, 33, 21, 160, 52
-0.999107, 409, 145, 424, 272
-0.99911, 375, 1, 390, 128
-0.999113, 337, 81, 352, 208
-0.999124, 419, 145, 434, 272
-0.999125, 343, 49, 358, 176
-0.999128, 313, 113, 328, 240
-0.999135, 455, 65, 470, 192
-0.999138, 343, 1, 358, 128
-0.999143, 241, 17, 368, 48
-0.999146, 205, 129, 220, 256
-0.999148, 467, 129, 482, 256
-0.999149, 113, 277, 240, 308
-0.999161, 355, 1, 370, 128
-0.999168, 97, 257, 224, 288
-0.999169, 303, 65, 318, 192
-0.999174, 353, 253, 480, 284
-0.999192, 441, 1, 472, 128
-0.999204, 403, 145, 418, 272
-0.999208, 311, 161, 326, 288
-0.999208, 481, 17, 496, 144
-0.999212, 393, 1, 408, 128
-0.999213, 319, 161, 334, 288
-0.999216, 209, 177, 224, 304
-0.999226, 381, 1, 396, 128
-0.999231, 425, 145, 440, 272
-0.999236, 451, 145, 466, 272
-0.999238, 433, 145, 448, 272
-0.999238, 481, 65, 496, 192
-0.999246, 223, 129, 238, 256
-0.999252, 247, 193, 262, 320
-0.999252, 201, 49, 216, 176
-0.999254, 275, 81, 290, 208
-0.999255, 361, 1, 376, 128
-0.999257, 297, 65, 312, 192
-0.999271, 325, 161, 340, 288
-0.999274, 445, 161, 460, 288
-0.999279, 305, 17, 320, 144
-0.999282, 393, 129, 408, 256
-0.999283, 399, 1, 414, 128
-0.99929, 301, 145, 316, 272
-0.999293, 143, 81, 158, 208
-0.999294, 387, 129, 402, 256
-0.999294, 97, 205, 224, 236
-0.999297, 253, 97, 268, 224
-0.999301, 209, 49, 224, 176
-0.999309, 199, 129, 214, 256
-0.999313, 473, 113, 488, 240
-0.999314, 253, 193, 268, 320
-0.999316, 231, 161, 246, 288
-0.999317, 65, 233, 192, 264
-0.999318, 311, 1, 326, 128
-0.999319, 215, 177, 230, 304
-0.99932, 331, 113, 346, 240
-0.999326, 269, 65, 284, 192
-0.999327, 49, 177, 176, 208
-0.999328, 227, 49, 242, 176
-0.999334, 369, 1, 384, 128
-0.999344, 327, 209, 342, 333
-0.999346, 195, 49, 210, 176
-0.999346, 33, 293, 160, 324
-0.999351, 357, 97, 372, 224
-0.999355, 353, 281, 480, 312
-0.999359, 379, 129, 394, 256
-0.999363, 307, 113, 322, 240
-0.999364, 337, 145, 352, 272
-0.999369, 1, 65, 128, 96
-0.999369, 133, 97, 148, 224
-0.999373, 247, 97, 262, 224
-0.999383, 33, 1, 288, 64
-0.999386, 221, 177, 236, 304
-0.999387, 295, 145, 310, 272
-0.999387, 1, 249, 128, 280
-0.99939, 367, 97, 382, 224
-0.999392, 335, 209, 350, 333
-0.999408, 441, 65, 456, 192
-0.999409, 475, 17, 490, 144
-0.999412, 17, 49, 144, 80
-0.999415, 331, 161, 346, 288
-0.999419, 403, 49, 418, 176
-0.99942, 439, 161, 454, 288
-0.999423, 371, 145, 386, 272
-0.999424, 281, 65, 296, 192
-0.999426, 263, 193, 278, 320
-0.999427, 97, 17, 224, 48
-0.999435, 1, 193, 128, 320
-0.999465, 321, 209, 336, 333
-0.999466, 135, 49, 150, 176
-0.999468, 149, 49, 164, 176
-0.999468, 343, 145, 358, 272
-0.999477, 365, 145, 380, 272
-0.99948, 353, 169, 480, 200
-0.999496, 299, 17, 314, 144
-0.999499, 65, 269, 192, 300
-0.999505, 425, 49, 440, 176
-0.999508, 189, 49, 204, 176
-0.999511, 61, 1, 92, 256
-0.999513, 357, 145, 372, 272
-0.999515, 49, 9, 176, 40
-0.999517, 289, 65, 304, 192
-0.999517, 465, 33, 480, 160
-0.999519, 485, 129, 500, 256
-0.999519, 417, 49, 432, 176
-0.999522, 165, 81, 180, 208
-0.999527, 411, 49, 426, 176
-0.999528, 277, 145, 292, 272
-0.999528, 1, 149, 128, 180
-0.999533, 181, 81, 196, 208
-0.999535, 305, 193, 320, 320
-0.999535, 191, 97, 206, 224
-0.99954, 241, 209, 256, 333
-0.999542, 303, 147, 318, 162
-0.999542, 143, 117, 158, 132
-0.999543, 247, 99, 262, 114
-0.999543, 309, 147, 324, 162
-0.999543, 233, 121, 248, 136
-0.999543, 465, 153, 480, 168
-0.999544, 473, 127, 488, 142
-0.999544, 231, 83, 246, 98
-0.999544, 351, 145, 366, 272
-0.999544, 195, 141, 210, 156
-0.999545, 483, 71, 498, 86
-0.999545, 313, 209, 328, 333
-0.999545, 223, 181, 238, 196
-0.999548, 461, 131, 476, 146
-0.999548, 237, 169, 252, 184
-0.999548, 261, 185, 276, 200
-0.999548, 485, 131, 500, 146
-0.999549, 459, 161, 474, 176
-0.999549, 485, 125, 500, 140
-0.999549, 251, 203, 266, 218
-0.999549, 461, 123, 476, 138
-0.99955, 229, 177, 244, 192
-0.99955, 481, 65, 496, 80
-0.999551, 227, 121, 242, 136
-0.999553, 375, 65, 390, 80
-0.999554, 1, 193, 500, 256
-0.999555, 471, 89, 486, 104
-0.999555, 479, 151, 494, 166
-0.999556, 345, 7, 360, 22
-0.999556, 219, 187, 234, 202
-0.999556, 343, 77, 358, 92
-0.999556, 333, 61, 348, 76
-0.999556, 343, 57, 358, 72
-0.999557, 317, 63, 332, 78
-0.999558, 417, 109, 432, 124
-0.999559, 225, 131, 240, 146
-0.999559, 325, 53, 340, 68
-0.999559, 429, 109, 444, 124
-0.999559, 469, 133, 484, 148
-0.99956, 309, 15, 324, 30
-0.99956, 399, 13, 414, 28
-0.99956, 267, 147, 282, 162
-0.999561, 239, 109, 254, 124
-0.999561, 461, 83, 476, 98
-0.999561, 293, 69, 308, 84
-0.999562, 219, 107, 234, 122
-0.999564, 277, 125, 292, 140
-0.999566, 239, 101, 254, 116
-0.999566, 395, 7, 410, 22
-0.999567, 479, 123, 494, 138
-0.999567, 475, 83, 490, 98
-0.999567, 309, 213, 324, 228
-0.99957, 333, 45, 348, 60
-0.999574, 479, 129, 494, 144
-0.999574, 237, 89, 252, 104
-0.999575, 349, 49, 364, 64
-0.999576, 243, 163, 258, 178
-0.999576, 325, 143, 340, 158
-0.999577, 245, 193, 260, 208
-0.999578, 393, 99, 408, 114
-0.999578, 337, 79, 352, 94
-0.999579, 365, 83, 380, 98
-0.999579, 211, 193, 226, 208
-0.99958, 439, 113, 454, 128
-0.99958, 369, 73, 384, 88
-0.99958, 219, 97, 234, 112
-0.999581, 411, 107, 426, 122
-0.999581, 401, 103, 416, 118
-0.999582, 239, 199, 254, 214
-0.999584, 467, 125, 482, 140
-0.999584, 251, 157, 266, 172
-0.999585, 361, 69, 376, 84
-0.999585, 437, 119, 452, 134
-0.999585, 209, 137, 224, 152
-0.999586, 233, 115, 248, 130
-0.999586, 379, 91, 394, 106
-0.999587, 299, 65, 314, 80
-0.999587, 463, 71, 478, 86
-0.999588, 465, 159, 480, 174
-0.999588, 343, 65, 358, 80
-0.99959, 307, 67, 322, 82
-0.999591, 201, 139, 216, 154
-0.999593, 355, 55, 370, 70
-0.999594, 317, 57, 332, 72
-0.999596, 349, 55, 364, 70
-0.999597, 387, 95, 402, 110
-0.999598, 371, 87, 386, 102
-0.999599, 465, 77, 480, 92
-0.999599, 349, 69, 364, 84
-0.999599, 455, 129, 470, 144
-0.999601, 329, 99, 344, 114
-0.999601, 311, 59, 326, 74
-0.999605, 245, 199, 260, 214
-0.999605, 473, 155, 488, 170
-0.999606, 227, 103, 242, 118
-0.999606, 351, 61, 366, 76
-0.999608, 305, 61, 320, 76
-0.999608, 231, 97, 246, 112
-0.999609, 219, 135, 234, 150
-0.999613, 255, 193, 270, 208
-0.999613, 343, 51, 358, 66
-0.999615, 261, 151, 276, 166
-0.999615, 327, 47, 342, 62
-0.999615, 445, 123, 460, 138
-0.999616, 429, 115, 444, 130
-0.999616, 299, 71, 314, 86
-0.999619, 253, 227, 268, 242
-0.999621, 355, 67, 370, 82
-0.999622, 423, 111, 438, 126
-0.999623, 339, 45, 354, 60
-0.999625, 245, 207, 260, 222
-0.999628, 231, 89, 246, 104
-0.999629, 219, 127, 234, 142
-0.99963, 335, 85, 350, 100
-0.999632, 233, 105, 248, 120
-0.999633, 475, 71, 490, 86
-0.999638, 353, 269, 480, 300
-0.99964, 333, 93, 348, 108
-0.999641, 349, 75, 364, 90
-0.999642, 269, 115, 284, 130
-0.999642, 249, 213, 264, 228
-0.999645, 97, 289, 224, 320
-0.999651, 357, 79, 372, 94
-0.999653, 251, 221, 266, 236
-0.999654, 363, 75, 378, 90
-0.999658, 227, 111, 242, 126
-0.999659, 221, 121, 236, 136
-0.999662, 237, 95, 252, 110
-0.999673, 365, 59, 380, 74
-0.999676, 355, 73, 370, 88
-0.999684, 361, 53, 376, 68
-0.999688, 343, 71, 358, 86
-0.999691, 469, 71, 484, 86
-0.999699, 477, 77, 492, 92
-0.999712, 1, 9, 128, 40
-0.999712, 49, 189, 176, 220
-0.999713, 273, 297, 400, 328
-0.999737, 133, 115, 148, 130
-0.999748, 17, 165, 144, 196
-0.999762, 17, 273, 144, 304
-0.999768, 33, 177, 96, 304
-0.99977, 1, 25, 500, 88
-0.999789, 101, 49, 132, 176
-0.999808, 209, 285, 336, 316
-0.99981, 113, 301, 240, 332
-0.999838, 125, 1, 156, 256
-0.99987, 185, 209, 216, 333
-0.999885, 153, 177, 216, 304
-0.999917, 73, 81, 104, 208
-0.999991, 361, 209, 392, 333
-1.00004, 49, 1, 80, 256
-1.00005, 33, 1, 96, 128
-1.00008, 81, 1, 112, 256
-1.00009, 169, 129, 200, 256
-1.00011, 241, 1, 304, 128
-1.00012, 113, 1, 144, 256
-1.00024, 5, 97, 36, 224
-1.00029, 241, 33, 272, 160
-1.0003, 449, 177, 480, 304
-1.00035, 1, 273, 500, 333
-1.00036, 33, 65, 64, 320
-1.00039, 5, 65, 36, 320
-1.0004, 121, 1, 152, 128
-1.00042, 113, 209, 176, 333
-1.00049, 93, 33, 124, 288
-1.00065, 9, 65, 72, 320
-1.0007, 149, 177, 180, 304
-1.00082, 17, 65, 48, 320
-1.00086, 425, 1, 456, 128
-1.00125, 85, 65, 116, 192
-1.00127, 389, 193, 420, 320
-1.00159, 413, 1, 444, 128
-1.00165, 129, 209, 160, 333
-1.00165, 9, 145, 72, 272
-1.00172, 45, 33, 76, 160
-1.00172, 89, 129, 152, 256
-1.0018, 125, 145, 156, 272
-1.0018, 37, 129, 68, 256
-1.0019, 253, 17, 284, 144
-1.00211, 217, 1, 280, 128
-1.00212, 57, 193, 88, 320
-1.00221, 373, 177, 404, 304
-1.00226, 73, 193, 104, 320
-1.00242, 465, 209, 496, 333
-1.0025, 49, 145, 80, 272
-1.00253, 25, 81, 56, 208
-1.0047, 9, 209, 72, 333
-1.00503, 49, 129, 112, 256
-1.0105, 9, 1, 72, 128
