1951
-0.417322, 1, 1, 500, 375
-0.47176, 1, 97, 500, 352
-0.532106, 65, 1, 320, 375
-0.55345, 1, 1, 500, 256
-0.579006, 193, 1, 448, 375
-0.700028, 257, 97, 500, 352
-0.704046, 129, 129, 384, 375
-0.751478, 1, 129, 256, 375
-0.763072, 129, 33, 384, 288
-0.8081, 225, 1, 480, 256
-0.823009, 33, 1, 288, 256
-0.867267, 193, 1, 320, 375
-0.882338, 145, 1, 272, 375
-0.886093, 257, 65, 384, 320
-0.887698, 81, 129, 208, 375
-0.890074, 97, 1, 224, 375
-0.890314, 193, 65, 320, 320
-0.892043, 353, 129, 480, 375
-0.89242, 241, 1, 368, 375
-0.897112, 129, 97, 256, 352
-0.899956, 49, 1, 176, 375
-0.900094, 305, 97, 432, 352
-0.90845, 1, 177, 500, 304
-0.909639, 1, 129, 500, 256
-0.912592, 369, 1, 496, 375
-0.913699, 1, 1, 128, 375
-0.914365, 305, 1, 432, 375
-0.915787, 257, 129, 500, 256
-0.915828, 305, 1, 432, 256
-0.916348, 161, 145, 416, 272
-0.921867, 1, 225, 500, 352
-0.922445, 65, 33, 192, 288
-0.922502, 129, 1, 256, 256
-0.922758, 353, 1, 480, 256
-0.922917, 33, 129, 160, 375
-0.927015, 17, 33, 144, 288
-0.929095, 241, 145, 304, 272
-0.931091, 257, 145, 384, 272
-0.934111, 289, 145, 352, 272
-0.93567, 65, 113, 320, 240
-0.936804, 1, 81, 500, 208
-0.937, 305, 113, 432, 240
-0.93775, 329, 129, 392, 256
-0.938116, 209, 161, 336, 288
-0.93851, 265, 113, 328, 240
-0.940491, 1, 177, 256, 304
-0.943433, 289, 97, 352, 224
-0.943514, 81, 177, 208, 304
-0.944284, 217, 161, 280, 288
-0.944338, 209, 113, 336, 240
-0.944622, 353, 113, 416, 240
-0.945763, 161, 81, 416, 208
-0.946124, 1, 33, 500, 160
-0.94821, 297, 169, 360, 232
-0.9484, 241, 161, 304, 224
-0.949938, 257, 137, 320, 200
-0.950603, 129, 145, 256, 272
-0.952195, 257, 81, 500, 208
-0.953132, 89, 161, 152, 288
-0.953787, 97, 177, 160, 240
-0.954361, 329, 177, 392, 304
-0.954814, 201, 209, 264, 336
-0.955488, 265, 161, 328, 288
-0.956198, 1, 225, 128, 352
-0.956403, 65, 65, 320, 192
-0.95696, 177, 209, 304, 336
-0.957157, 345, 185, 408, 248
-0.95724, 1, 225, 256, 352
-0.957509, 257, 209, 500, 336
-0.957676, 177, 145, 240, 272
-0.957687, 97, 193, 352, 320
-0.957751, 377, 129, 440, 256
-0.95813, 233, 185, 296, 248
-0.95853, 153, 177, 216, 304
-0.958567, 209, 217, 272, 280
-0.958752, 257, 81, 384, 208
-0.959142, 161, 233, 224, 296
-0.959337, 241, 81, 304, 208
-0.959651, 289, 145, 352, 208
-0.960188, 113, 161, 176, 288
-0.960406, 265, 177, 328, 240
-0.960588, 289, 113, 352, 176
-0.96062, 57, 209, 120, 336
-0.960791, 129, 225, 256, 352
-0.960805, 161, 97, 288, 224
-0.961556, 433, 289, 496, 352
-0.961899, 321, 177, 384, 240
-0.962374, 353, 129, 480, 256
-0.963568, 353, 177, 480, 304
-0.96397, 321, 137, 384, 200
-0.964058, 121, 209, 184, 272
-0.964518, 265, 201, 328, 264
-0.964662, 257, 1, 500, 128
-0.965062, 313, 81, 376, 208
-0.965076, 201, 97, 264, 224
-0.965213, 161, 201, 224, 264
-0.965437, 417, 177, 480, 304
-0.965698, 209, 193, 272, 256
-0.966004, 177, 209, 240, 336
-0.966139, 129, 209, 192, 336
-0.966308, 241, 33, 368, 160
-0.966534, 137, 129, 200, 256
-0.966808, 233, 113, 296, 176
-0.967147, 105, 113, 168, 240
-0.967303, 257, 193, 384, 320
-0.96761, 417, 177, 480, 240
-0.967653, 401, 129, 464, 256
-0.967714, 25, 249, 88, 312
-0.967971, 377, 177, 440, 240
-0.968054, 353, 177, 416, 304
-0.968117, 233, 209, 296, 272
-0.968473, 81, 97, 208, 224
-0.968576, 17, 177, 144, 304
-0.968589, 17, 209, 80, 336
-0.968632, 273, 65, 336, 320
-0.968689, 41, 161, 104, 288
-0.96875, 281, 1, 344, 128
-0.968773, 17, 97, 144, 224
-0.968855, 65, 129, 128, 256
-0.968969, 281, 49, 344, 176
-0.969094, 65, 17, 320, 144
-0.969334, 49, 225, 176, 352
-0.96956, 393, 153, 456, 216
-0.969567, 353, 121, 416, 184
-0.96985, 129, 153, 192, 216
-0.970072, 217, 161, 280, 224
-0.970114, 233, 129, 296, 375
-0.970369, 305, 65, 432, 192
-0.970435, 233, 137, 296, 200
-0.970488, 289, 201, 352, 264
-0.970645, 337, 129, 368, 256
-0.970992, 185, 225, 248, 288
-0.971167, 41, 209, 104, 272
-0.971412, 409, 289, 472, 352
-0.971446, 89, 145, 152, 208
-0.971448, 241, 153, 368, 216
-0.971497, 277, 129, 308, 256
-0.971583, 305, 161, 432, 288
-0.971684, 193, 121, 256, 184
-0.971732, 97, 241, 352, 368
-0.971852, 221, 193, 252, 256
-0.971905, 257, 185, 384, 248
-0.971931, 225, 89, 288, 152
-0.972235, 249, 33, 312, 160
-0.972437, 193, 201, 320, 264
-0.972986, 265, 209, 328, 336
-0.973005, 65, 209, 128, 272
-0.973182, 305, 121, 432, 184
-0.973329, 65, 201, 192, 264
-0.973349, 257, 113, 320, 176
-0.973569, 289, 193, 352, 320
-0.973677, 337, 145, 368, 208
-0.974148, 257, 57, 320, 120
-0.974189, 277, 121, 308, 184
-0.974194, 161, 33, 416, 160
-0.974238, 289, 89, 352, 152
-0.974266, 65, 241, 128, 304
-0.97446, 165, 225, 196, 288
-0.974488, 325, 169, 356, 232
-0.97465, 193, 49, 320, 176
-0.974703, 65, 49, 192, 176
-0.974787, 241, 193, 304, 320
-0.974788, 185, 193, 248, 256
-0.974904, 433, 241, 496, 368
-0.974939, 321, 153, 448, 216
-0.975051, 49, 185, 112, 248
-0.975136, 197, 225, 228, 288
-0.975177, 257, 89, 320, 152
-0.975222, 25, 273, 88, 336
-0.975261, 353, 185, 384, 248
-0.975644, 265, 137, 296, 200
-0.975704, 277, 193, 308, 256
-0.975715, 193, 225, 320, 288
-0.975808, 121, 185, 184, 248
-0.975826, 145, 177, 208, 240
-0.975883, 257, 113, 384, 176
-0.975986, 261, 113, 292, 176
-0.97609, 65, 161, 128, 224
-0.976108, 313, 105, 376, 168
-0.976133, 89, 201, 152, 264
-0.976171, 145, 257, 208, 320
-0.976282, 129, 233, 192, 296
-0.97635, 129, 185, 256, 248
-0.976418, 177, 161, 240, 224
-0.976488, 221, 177, 252, 304
-0.976676, 109, 169, 140, 232
-0.976728, 313, 201, 376, 264
-0.976754, 253, 161, 284, 224
-0.977247, 365, 185, 396, 248
-0.977288, 433, 265, 496, 328
-0.977302, 341, 185, 372, 248
-0.977316, 289, 81, 320, 208
-0.977574, 425, 313, 488, 375
-0.977594, 345, 145, 408, 208
-0.977664, 277, 161, 308, 224
-0.977716, 121, 169, 152, 232
-0.977749, 213, 225, 244, 288
-0.977815, 97, 121, 160, 184
-0.977819, 257, 145, 288, 272
-0.977834, 113, 161, 240, 224
-0.977881, 169, 257, 232, 320
-0.978, 133, 185, 164, 248
-0.978008, 153, 225, 216, 352
-0.978058, 293, 145, 324, 272
-0.978134, 145, 225, 272, 288
-0.978199, 261, 97, 292, 224
-0.978251, 353, 129, 384, 256
-0.978321, 65, 81, 128, 208
-0.978452, 181, 241, 212, 304
-0.978463, 77, 209, 108, 336
-0.97848, 241, 161, 272, 288
-0.978528, 297, 33, 360, 288
-0.978532, 153, 225, 184, 288
-0.978613, 101, 145, 132, 208
-0.978761, 337, 177, 464, 240
-0.978781, 241, 169, 272, 232
-0.978839, 441, 289, 472, 352
-0.978955, 209, 113, 336, 176
-0.979009, 393, 177, 456, 304
-0.979077, 361, 209, 424, 272
-0.979262, 169, 129, 232, 375
-0.979289, 89, 161, 120, 288
-0.979374, 145, 201, 176, 264
-0.979458, 325, 113, 356, 240
-0.979483, 161, 161, 288, 224
-0.979562, 81, 225, 208, 288
-0.97981, 209, 177, 336, 240
-0.979855, 369, 241, 496, 368
-0.979877, 281, 1, 344, 64
-0.979919, 73, 249, 104, 312
-0.979935, 133, 161, 164, 224
-0.980075, 321, 33, 384, 160
-0.98009, 353, 97, 416, 352
-0.980124, 149, 193, 180, 320
-0.98014, 321, 129, 384, 375
-0.980758, 209, 209, 240, 336
-0.980855, 385, 185, 416, 248
-0.980869, 273, 209, 400, 272
-0.980919, 241, 97, 272, 224
-0.980938, 193, 65, 256, 320
-0.980976, 129, 33, 256, 160
-0.98117, 33, 169, 160, 232
-0.981219, 265, 225, 328, 288
-0.98136, 321, 81, 384, 144
-0.981374, 153, 129, 216, 192
-0.9814, 301, 97, 332, 224
-0.981466, 241, 25, 304, 88
-0.98147, 97, 137, 224, 200
-0.981471, 289, 1, 416, 128
-0.981587, 1, 209, 128, 272
-0.981672, 297, 129, 360, 375
-0.981707, 93, 193, 124, 256
-0.981785, 73, 209, 104, 272
-0.981794, 345, 65, 408, 192
-0.981806, 1, 249, 64, 312
-0.981826, 241, 81, 368, 144
-0.98187, 241, 33, 304, 288
-0.981875, 133, 145, 164, 272
-0.981875, 313, 145, 344, 272
-0.981883, 405, 129, 436, 256
-0.981937, 305, 161, 336, 224
-0.981987, 441, 177, 472, 240
-0.98206, 281, 41, 344, 104
-0.982074, 177, 137, 304, 200
-0.982081, 17, 225, 80, 288
-0.982132, 101, 161, 132, 288
-0.982151, 177, 97, 240, 224
-0.98216, 321, 145, 352, 208
-0.982172, 361, 177, 392, 304
-0.982193, 321, 33, 384, 288
-0.982239, 341, 113, 372, 176
-0.982256, 161, 209, 192, 336
-0.982384, 73, 89, 136, 152
-0.982452, 193, 97, 256, 160
-0.982562, 301, 105, 332, 168
-0.982606, 349, 145, 380, 208
-0.982751, 453, 281, 484, 344
-0.982799, 253, 89, 284, 152
-0.982909, 293, 177, 324, 240
-0.982913, 1, 305, 64, 368
-0.982952, 377, 129, 408, 256
-0.982957, 353, 121, 384, 184
-0.982977, 369, 1, 496, 128
-0.982983, 93, 169, 124, 232
-0.98299, 89, 129, 152, 375
-0.98307, 289, 145, 320, 208
-0.983136, 425, 129, 488, 256
-0.983241, 81, 209, 144, 336
-0.983294, 469, 273, 500, 336
-0.983319, 365, 129, 396, 256
-0.98333, 229, 113, 260, 240
-0.983349, 217, 65, 280, 128
-0.983386, 217, 1, 280, 375
-0.983387, 225, 169, 256, 232
-0.983458, 337, 201, 464, 264
-0.983467, 129, 257, 256, 320
-0.983497, 85, 217, 116, 280
-0.98353, 249, 1, 312, 375
-0.983588, 61, 233, 92, 296
-0.983637, 433, 201, 496, 264
-0.983655, 409, 201, 472, 264
-0.983665, 217, 49, 280, 176
-0.98372, 377, 129, 440, 192
-0.983727, 413, 169, 444, 232
-0.983756, 429, 297, 460, 360
-0.983764, 209, 201, 240, 264
-0.983771, 281, 177, 312, 304
-0.983857, 97, 113, 224, 176
-0.983924, 249, 113, 280, 176
-0.983947, 77, 161, 108, 288
-0.984067, 457, 241, 488, 368
-0.98407, 49, 1, 176, 128
-0.984188, 393, 81, 456, 208
-0.984208, 385, 297, 448, 360
-0.984261, 385, 201, 448, 264
-0.984359, 89, 145, 120, 208
-0.984368, 105, 113, 136, 240
-0.984387, 1, 281, 64, 344
-0.984397, 57, 265, 120, 328
-0.984398, 81, 169, 112, 232
-0.984472, 417, 1, 480, 128
-0.984522, 281, 97, 312, 160
-0.98456, 145, 177, 176, 240
-0.984656, 65, 137, 128, 200
-0.984672, 153, 145, 184, 272
-0.984675, 129, 97, 192, 352
-0.984687, 353, 97, 416, 160
-0.984796, 313, 97, 344, 224
-0.984811, 145, 81, 208, 208
-0.98482, 41, 81, 104, 208
-0.984841, 369, 49, 432, 176
-0.984912, 17, 249, 144, 312
-0.984943, 289, 121, 320, 184
-0.984969, 337, 209, 400, 272
-0.985064, 177, 89, 304, 152
-0.985089, 245, 137, 276, 200
-0.985143, 369, 289, 496, 352
-0.985154, 161, 113, 288, 176
-0.985155, 417, 153, 480, 216
-0.985414, 193, 1, 320, 128
-0.985467, 113, 145, 144, 208
-0.985499, 305, 209, 432, 336
-0.985501, 1, 129, 128, 192
-0.985515, 17, 49, 144, 176
-0.985603, 233, 193, 264, 256
-0.985699, 329, 121, 360, 184
-0.985742, 401, 177, 432, 240
-0.985814, 289, 89, 416, 152
-0.985908, 25, 185, 88, 248
-0.985961, 225, 225, 256, 288
-0.98597, 361, 1, 424, 128
-0.986001, 105, 97, 168, 160
-0.986019, 417, 145, 448, 272
-0.986021, 209, 241, 272, 304
-0.986033, 49, 97, 112, 160
-0.986066, 129, 129, 192, 192
-0.986123, 273, 65, 304, 192
-0.986192, 65, 33, 128, 160
-0.986286, 369, 1, 432, 64
-0.986326, 293, 201, 324, 264
-0.986437, 317, 121, 348, 184
-0.986525, 9, 241, 40, 304
-0.986606, 197, 209, 228, 336
-0.986674, 417, 65, 480, 192
-0.9867, 89, 1, 152, 128
-0.986751, 121, 193, 152, 256
-0.986767, 273, 1, 336, 375
-0.98677, 209, 161, 240, 288
-0.986835, 325, 161, 356, 288
-0.98691, 409, 145, 440, 208
-0.986912, 365, 121, 396, 184
-0.986918, 265, 89, 296, 152
-0.986926, 153, 153, 216, 216
-0.986955, 1, 289, 128, 352
-0.987093, 185, 177, 216, 304
-0.987094, 161, 201, 192, 264
-0.987105, 453, 313, 484, 375
-0.987112, 121, 161, 152, 288
-0.987138, 57, 177, 88, 304
-0.987254, 365, 209, 396, 272
-0.987303, 65, 97, 128, 352
-0.987346, 185, 217, 216, 280
-0.98741, 425, 177, 456, 240
-0.987456, 353, 121, 480, 184
-0.987498, 341, 81, 372, 208
-0.987548, 49, 105, 176, 168
-0.987572, 353, 49, 480, 176
-0.987644, 65, 249, 192, 312
-0.987818, 65, 241, 96, 368
-0.987868, 169, 97, 232, 160
-0.987903, 197, 161, 228, 288
-0.987976, 281, 65, 344, 128
-0.988014, 369, 1, 496, 64
-0.988045, 337, 177, 368, 304
-0.988072, 417, 129, 480, 192
-0.988074, 173, 177, 204, 304
-0.988093, 389, 113, 420, 240
-0.988099, 425, 153, 456, 216
-0.98811, 217, 33, 280, 288
-0.98811, 257, 1, 320, 64
-0.988139, 169, 257, 200, 320
-0.988172, 153, 33, 216, 160
-0.988193, 105, 65, 168, 192
-0.988207, 277, 225, 308, 352
-0.988278, 457, 185, 488, 248
-0.988307, 113, 1, 176, 375
-0.988345, 61, 273, 92, 336
-0.988386, 273, 17, 304, 144
-0.988457, 133, 193, 164, 320
-0.988477, 261, 209, 292, 272
-0.98856, 433, 129, 496, 375
-0.988592, 377, 97, 440, 352
-0.988594, 321, 89, 352, 152
-0.988657, 81, 65, 144, 128
-0.98875, 241, 165, 304, 196
-0.988764, 41, 129, 104, 375
-0.988846, 233, 177, 296, 208
-0.988905, 325, 65, 356, 192
-0.98893, 113, 113, 144, 176
-0.988953, 289, 169, 352, 200
-0.98896, 469, 305, 500, 368
-0.989102, 241, 89, 272, 152
-0.989114, 337, 97, 464, 160
-0.989116, 161, 241, 224, 272
-0.989121, 385, 105, 448, 168
-0.989134, 277, 241, 308, 304
-0.989142, 41, 17, 104, 144
-0.989181, 21, 281, 52, 344
-0.989197, 193, 249, 224, 312
-0.989224, 193, 49, 256, 176
-0.989232, 305, 41, 368, 104
-0.989245, 53, 209, 84, 272
-0.989275, 409, 129, 472, 375
-0.989287, 345, 189, 408, 220
-0.989308, 137, 1, 200, 375
-0.989324, 225, 189, 288, 220
-0.989364, 225, 1, 288, 128
-0.989389, 97, 185, 160, 216
-0.989394, 49, 129, 176, 192
-0.989425, 81, 1, 144, 375
-0.989427, 177, 1, 240, 375
-0.989459, 249, 153, 312, 184
-0.989469, 117, 113, 148, 240
-0.989475, 9, 297, 40, 360
-0.989498, 1, 1, 128, 128
-0.98953, 1, 313, 128, 375
-0.989568, 393, 185, 456, 216
-0.98957, 381, 177, 412, 304
-0.98959, 433, 293, 496, 324
-0.989607, 249, 125, 312, 156
-0.989615, 445, 161, 476, 288
-0.989656, 345, 49, 408, 112
-0.989684, 233, 121, 264, 184
-0.989762, 273, 217, 304, 280
-0.989782, 385, 1, 448, 256
-0.989787, 257, 1, 384, 64
-0.989814, 345, 17, 408, 80
-0.989822, 337, 201, 400, 232
-0.989832, 129, 97, 192, 160
-0.989875, 73, 113, 136, 176
-0.989883, 169, 229, 232, 260
-0.989891, 89, 225, 152, 288
-0.989893, 97, 197, 160, 228
-0.98991, 57, 1, 120, 375
-0.989931, 353, 313, 480, 375
-0.989961, 369, 153, 432, 216
-0.989967, 337, 177, 400, 208
-0.99004, 273, 181, 336, 212
-0.99005, 89, 97, 120, 224
-0.990097, 97, 33, 160, 288
-0.990135, 221, 225, 252, 352
-0.990155, 233, 201, 296, 232
-0.990156, 285, 33, 316, 160
-0.990167, 193, 201, 256, 232
-0.990186, 229, 81, 260, 144
-0.990213, 321, 189, 384, 220
-0.990267, 241, 113, 304, 144
-0.990273, 233, 217, 296, 248
-0.990275, 397, 145, 428, 208
-0.990281, 429, 129, 460, 256
-0.990301, 301, 137, 332, 200
-0.990306, 265, 197, 328, 228
-0.990356, 289, 121, 352, 152
-0.990357, 265, 209, 328, 240
-0.990364, 41, 153, 104, 216
-0.990367, 313, 113, 376, 144
-0.990384, 129, 33, 192, 160
-0.990445, 249, 137, 312, 168
-0.990448, 81, 173, 144, 204
-0.990452, 289, 141, 352, 172
-0.990453, 89, 209, 120, 336
-0.990463, 173, 225, 204, 352
-0.990471, 209, 217, 272, 248
-0.990481, 305, 9, 368, 72
-0.990504, 345, 125, 408, 156
-0.990504, 121, 169, 184, 200
-0.990532, 297, 181, 360, 212
-0.990554, 209, 121, 272, 152
-0.990566, 193, 237, 256, 268
-0.990566, 225, 57, 352, 120
-0.990569, 101, 121, 132, 184
-0.99057, 137, 193, 200, 224
-0.990582, 409, 241, 472, 368
-0.990586, 433, 317, 496, 348
-0.990589, 421, 193, 452, 320
-0.990592, 185, 73, 248, 136
-0.990593, 25, 273, 88, 304
-0.990611, 337, 209, 368, 272
-0.990618, 249, 229, 312, 260
-0.990635, 369, 197, 432, 228
-0.990641, 129, 229, 192, 260
-0.990657, 73, 217, 136, 248
-0.990657, 245, 193, 276, 256
-0.990661, 133, 209, 164, 272
-0.990666, 121, 217, 184, 248
-0.990666, 129, 1, 192, 256
-0.990689, 249, 65, 280, 128
-0.990696, 177, 249, 304, 312
-0.9907, 153, 249, 184, 312
-0.99071, 121, 73, 184, 136
-0.990738, 165, 129, 196, 256
-0.990741, 193, 185, 256, 216
-0.990747, 233, 145, 264, 208
-0.990764, 33, 257, 96, 288
-0.990773, 289, 153, 352, 184
-0.990797, 225, 129, 480, 192
-0.990808, 361, 161, 392, 224
-0.990833, 369, 153, 496, 216
-0.990853, 369, 181, 432, 212
-0.990861, 417, 305, 480, 336
-0.990876, 417, 177, 480, 208
-0.990877, 49, 217, 112, 248
-0.990877, 121, 257, 184, 320
-0.990878, 381, 153, 412, 216
-0.990887, 345, 1, 408, 256
-0.990889, 217, 97, 248, 160
-0.990901, 393, 173, 456, 204
-0.990903, 65, 237, 128, 268
-0.990955, 289, 209, 352, 240
-0.990963, 441, 313, 472, 375
-0.990972, 9, 225, 40, 352
-0.990985, 33, 1, 96, 375
-0.990999, 321, 153, 384, 184
-0.991012, 313, 165, 376, 196
-0.991032, 225, 97, 288, 128
-0.991038, 233, 233, 296, 296
-0.99104, 161, 217, 224, 248
-0.991045, 209, 161, 272, 192
-0.991049, 265, 165, 328, 196
-0.991064, 201, 173, 264, 204
-0.991078, 285, 49, 316, 112
-0.991082, 433, 189, 496, 220
-0.991091, 269, 65, 300, 128
-0.991096, 321, 125, 384, 156
-0.991111, 1, 105, 128, 168
-0.991142, 81, 157, 144, 188
-0.991153, 329, 141, 392, 172
-0.991174, 105, 25, 168, 88
-0.991175, 169, 253, 232, 284
-0.991185, 225, 153, 480, 216
-0.99121, 21, 225, 52, 288
-0.991249, 205, 97, 236, 224
-0.991251, 281, 109, 344, 140
-0.991253, 361, 209, 424, 240
-0.991254, 225, 229, 288, 260
-0.991283, 257, 61, 320, 92
-0.991292, 289, 193, 352, 224
-0.9913, 393, 33, 456, 160
-0.99132, 257, 73, 320, 104
-0.991331, 425, 329, 488, 360
-0.991342, 129, 181, 192, 212
-0.991351, 425, 33, 488, 288
-0.991353, 261, 49, 292, 176
-0.991356, 97, 209, 160, 240
-0.991363, 217, 9, 280, 72
-0.991366, 41, 233, 104, 264
-0.991371, 393, 121, 424, 184
-0.991372, 361, 169, 424, 200
-0.991386, 181, 161, 212, 224
-0.991397, 25, 245, 88, 276
-0.991406, 41, 129, 104, 192
-0.991412, 185, 113, 248, 144
-0.991412, 49, 205, 112, 236
-0.991428, 425, 205, 488, 236
-0.991438, 337, 213, 400, 244
-0.99147, 225, 85, 288, 116
-0.991477, 209, 109, 272, 140
-0.991479, 393, 197, 456, 228
-0.991505, 121, 205, 184, 236
-0.991514, 401, 161, 464, 192
-0.991515, 105, 209, 168, 336
-0.991538, 137, 241, 200, 272
-0.991547, 293, 1, 324, 64
-0.991554, 161, 205, 224, 236
-0.991566, 269, 177, 300, 304
-0.991569, 217, 149, 280, 180
-0.991599, 5, 265, 36, 328
-0.991607, 297, 1, 360, 375
-0.991613, 25, 285, 88, 316
-0.991637, 265, 93, 328, 124
-0.991666, 393, 301, 456, 332
-0.991703, 273, 221, 336, 252
-0.991717, 409, 265, 472, 328
-0.991739, 133, 137, 164, 200
-0.991742, 57, 261, 120, 292
-0.991752, 369, 133, 432, 164
-0.991753, 353, 209, 384, 272
-0.991773, 105, 153, 168, 184
-0.991779, 73, 197, 136, 228
-0.991784, 97, 161, 352, 224
-0.991789, 385, 149, 448, 180
-0.991807, 353, 81, 384, 208
-0.991821, 225, 133, 288, 164
-0.991822, 385, 209, 448, 240
-0.991829, 273, 233, 336, 264
-0.991835, 349, 177, 380, 304
-0.991848, 289, 225, 352, 288
-0.991851, 281, 57, 344, 88
-0.99188, 469, 193, 500, 320
-0.991881, 181, 129, 212, 256
-0.991894, 425, 1, 488, 375
-0.99191, 381, 209, 412, 272
-0.991915, 313, 205, 376, 236
-0.991927, 185, 129, 248, 160
-0.991982, 21, 241, 52, 368
-0.992004, 289, 225, 320, 288
-0.992014, 161, 137, 192, 200
-0.992022, 81, 145, 144, 176
-0.992031, 1, 273, 64, 304
-0.992071, 433, 265, 496, 296
-0.992084, 73, 185, 136, 216
-0.992087, 193, 253, 256, 284
-0.992097, 209, 9, 336, 72
-0.99212, 217, 241, 280, 272
-0.992141, 73, 101, 136, 132
-0.992141, 289, 93, 352, 124
-0.992149, 169, 189, 232, 220
-0.992153, 337, 1, 400, 375
-0.992157, 241, 49, 272, 176
-0.992163, 153, 65, 216, 128
-0.992174, 65, 249, 128, 280
-0.992174, 161, 1, 288, 64
-0.992202, 301, 49, 332, 176
-0.992209, 457, 177, 488, 304
-0.992212, 25, 217, 88, 248
-0.99222, 257, 41, 320, 72
-0.992221, 153, 125, 216, 156
-0.992254, 153, 265, 216, 296
-0.992266, 313, 217, 376, 248
-0.992275, 129, 145, 192, 176
-0.992277, 361, 145, 424, 176
-0.992285, 257, 245, 320, 276
-0.992293, 105, 137, 168, 168
-0.992296, 333, 141, 364, 172
-0.992297, 65, 129, 320, 192
-0.992299, 1, 201, 64, 264
-0.9923, 153, 33, 216, 288
-0.992302, 385, 25, 448, 88
-0.992307, 145, 253, 208, 284
-0.992313, 433, 281, 496, 312
-0.992315, 1, 161, 64, 288
-0.992328, 77, 113, 108, 240
-0.99233, 65, 1, 128, 64
-0.99235, 409, 289, 472, 320
-0.992351, 161, 137, 224, 168
-0.992362, 241, 233, 368, 296
-0.992372, 9, 329, 72, 360
-0.992384, 337, 165, 400, 196
-0.99239, 289, 73, 352, 104
-0.992398, 293, 81, 324, 144
-0.992415, 129, 157, 192, 188
-0.992425, 197, 241, 228, 272
-0.992446, 369, 81, 400, 208
-0.992448, 425, 1, 488, 64
-0.992457, 221, 205, 252, 236
-0.992466, 393, 1, 456, 64
-0.992469, 281, 129, 312, 160
-0.99247, 73, 25, 136, 88
-0.992471, 205, 177, 236, 240
-0.992472, 345, 137, 376, 168
-0.992472, 393, 161, 424, 288
-0.992473, 109, 177, 140, 208
-0.992475, 17, 81, 144, 144
-0.992494, 369, 49, 432, 112
-0.992519, 337, 1, 368, 128
-0.992536, 293, 193, 324, 320
-0.992545, 261, 165, 292, 196
-0.992545, 389, 189, 420, 220
-0.992545, 305, 33, 432, 96
-0.992559, 349, 185, 380, 216
-0.992578, 277, 193, 308, 224
-0.992585, 185, 245, 216, 276
-0.992589, 329, 177, 360, 208
-0.992614, 201, 113, 232, 176
-0.992621, 169, 245, 200, 276
-0.992629, 129, 201, 160, 232
-0.992631, 125, 169, 156, 200
-0.992658, 337, 153, 368, 184
-0.992663, 149, 225, 180, 256
-0.992666, 33, 193, 288, 256
-0.99267, 305, 65, 432, 128
-0.992689, 233, 169, 264, 200
-0.992698, 253, 117, 284, 148
-0.992702, 373, 197, 404, 228
-0.992708, 77, 217, 108, 248
-0.99271, 305, 165, 336, 196
-0.99271, 209, 229, 240, 260
-0.992719, 345, 125, 376, 156
-0.992723, 145, 57, 272, 120
-0.992733, 225, 181, 256, 212
-0.992736, 429, 297, 460, 328
-0.992751, 125, 181, 156, 212
-0.992751, 257, 33, 384, 96
-0.992757, 305, 1, 432, 64
-0.992767, 445, 181, 476, 212
-0.99277, 69, 249, 100, 280
-0.992771, 265, 145, 296, 176
-0.992773, 277, 177, 308, 208
-0.992773, 265, 113, 296, 144
-0.992784, 277, 25, 308, 88
-0.992785, 105, 157, 136, 188
-0.992789, 281, 161, 312, 192
-0.99279, 449, 289, 480, 320
-0.992794, 361, 189, 392, 220
-0.992794, 469, 281, 500, 312
-0.992804, 133, 97, 164, 224
-0.99281, 65, 25, 192, 88
-0.992815, 469, 313, 500, 344
-0.992818, 337, 165, 368, 196
-0.992824, 357, 129, 388, 160
-0.992825, 161, 233, 192, 264
-0.992826, 449, 317, 480, 348
-0.992836, 277, 205, 308, 236
-0.992842, 177, 121, 208, 184
-0.992844, 97, 177, 128, 208
-0.99285, 297, 181, 328, 212
-0.992851, 149, 213, 180, 244
-0.992856, 33, 225, 288, 288
-0.992863, 245, 169, 276, 200
-0.992863, 405, 181, 436, 212
-0.992864, 337, 193, 368, 224
-0.992873, 237, 189, 268, 220
-0.992873, 221, 233, 252, 264
-0.992875, 225, 193, 256, 224
-0.992882, 317, 165, 348, 196
-0.992884, 85, 201, 116, 232
-0.992886, 237, 121, 268, 152
-0.99289, 373, 209, 404, 240
-0.992896, 201, 201, 232, 232
-0.992899, 57, 261, 88, 292
-0.992908, 325, 153, 356, 184
-0.992909, 213, 217, 244, 248
-0.992909, 113, 89, 240, 152
-0.992911, 65, 237, 96, 268
-0.992915, 297, 113, 328, 144
-0.992918, 141, 201, 172, 232
-0.99293, 385, 205, 416, 236
-0.992943, 253, 153, 284, 184
-0.992944, 137, 213, 168, 244
-0.992946, 257, 129, 288, 160
-0.992949, 369, 125, 400, 156
-0.992953, 77, 233, 108, 264
-0.992956, 349, 209, 380, 240
-0.992961, 237, 217, 268, 280
-0.992961, 33, 249, 288, 312
-0.992962, 137, 185, 168, 216
-0.992977, 81, 189, 112, 220
-0.992993, 89, 165, 120, 196
-0.992994, 69, 269, 100, 300
-0.992997, 449, 301, 480, 332
-0.993, 217, 113, 248, 144
-0.993001, 437, 201, 468, 232
-0.993001, 241, 157, 272, 188
-0.993003, 405, 169, 436, 200
-0.993008, 257, 177, 288, 208
-0.993011, 269, 133, 300, 164
-0.993029, 421, 181, 452, 212
-0.99303, 421, 209, 452, 272
-0.993032, 277, 229, 308, 260
-0.993034, 237, 105, 268, 136
-0.993035, 285, 149, 316, 180
-0.993036, 109, 189, 140, 220
-0.99304, 369, 177, 400, 208
-0.993053, 349, 197, 380, 228
-0.993069, 261, 101, 292, 132
-0.993073, 225, 125, 256, 156
-0.993074, 285, 65, 316, 96
-0.993075, 421, 169, 452, 200
-0.993076, 65, 201, 96, 232
-0.993078, 361, 209, 392, 240
-0.993087, 349, 173, 380, 204
-0.993087, 89, 213, 120, 244
-0.993097, 277, 217, 308, 248
-0.993104, 97, 189, 128, 220
-0.993106, 337, 113, 368, 144
-0.993108, 101, 97, 132, 160
-0.993108, 353, 149, 384, 180
-0.99311, 89, 149, 120, 180
-0.993116, 205, 117, 236, 148
-0.993122, 409, 193, 440, 224
-0.993125, 241, 201, 272, 232
-0.993126, 277, 109, 308, 140
-0.993131, 193, 229, 224, 260
-0.993134, 393, 177, 424, 208
-0.993139, 405, 149, 436, 180
-0.993142, 469, 269, 500, 300
-0.993143, 293, 193, 324, 224
-0.993145, 361, 1, 424, 375
-0.993147, 161, 221, 192, 252
-0.993148, 433, 325, 464, 356
-0.993155, 189, 257, 220, 288
-0.993156, 9, 273, 40, 304
-0.993161, 457, 189, 488, 220
-0.993162, 65, 225, 96, 256
-0.993182, 317, 121, 348, 152
-0.993183, 57, 213, 88, 244
-0.993188, 249, 141, 280, 172
-0.99319, 325, 189, 356, 220
-0.993192, 225, 101, 256, 132
-0.993195, 57, 273, 88, 304
-0.993195, 213, 185, 244, 216
-0.993195, 437, 313, 468, 344
-0.993196, 229, 221, 260, 252
-0.993201, 317, 101, 348, 132
-0.993203, 101, 205, 132, 236
-0.993203, 397, 205, 428, 236
-0.993206, 125, 157, 156, 188
-0.993211, 201, 257, 232, 288
-0.993221, 69, 185, 100, 248
-0.993225, 305, 81, 336, 144
-0.993226, 225, 185, 480, 248
-0.993292, 377, 113, 408, 176
-0.99332, 161, 233, 416, 296
-0.993373, 89, 97, 120, 160
-0.993373, 437, 201, 468, 264
-0.993402, 265, 41, 296, 104
-0.993415, 205, 257, 236, 320
-0.993444, 45, 209, 76, 336
-0.993463, 65, 81, 192, 144
-0.993468, 161, 105, 416, 168
-0.993476, 257, 185, 384, 216
-0.993495, 433, 241, 464, 368
-0.993499, 385, 273, 448, 336
-0.993508, 9, 105, 72, 168
-0.993521, 325, 201, 356, 264
-0.993599, 129, 201, 384, 264
-0.993715, 217, 113, 248, 240
-0.993821, 321, 289, 448, 352
-0.993848, 17, 97, 80, 224
-0.993861, 313, 225, 376, 288
-0.993869, 1, 1, 128, 64
-0.993878, 161, 25, 288, 88
-0.993941, 65, 129, 96, 256
-0.993966, 401, 1, 464, 375
-0.994002, 65, 105, 320, 168
-0.994004, 1, 137, 500, 200
-0.99401, 221, 65, 252, 192
-0.994091, 313, 1, 344, 128
-0.994102, 401, 81, 432, 208
-0.994106, 369, 265, 496, 328
-0.994138, 213, 217, 228, 280
-0.994147, 335, 161, 350, 224
-0.994179, 17, 1, 80, 128
-0.994198, 257, 173, 384, 204
-0.994243, 169, 225, 184, 288
-0.994264, 113, 1, 240, 64
-0.994305, 193, 217, 320, 248
-0.994328, 433, 193, 464, 320
-0.994353, 193, 205, 320, 236
-0.99438, 33, 73, 96, 136
-0.994422, 145, 209, 272, 240
-0.994466, 273, 209, 400, 240
-0.994504, 253, 1, 284, 128
-0.994519, 193, 49, 256, 112
-0.994523, 135, 169, 150, 232
-0.994537, 289, 197, 416, 228
-0.994569, 163, 217, 178, 280
-0.99457, 77, 225, 92, 288
-0.994651, 185, 241, 200, 304
-0.994652, 409, 105, 472, 168
-0.994695, 141, 193, 156, 256
-0.994698, 345, 73, 408, 136
-0.994711, 209, 181, 336, 212
-0.994729, 347, 145, 362, 208
-0.994731, 41, 33, 104, 288
-0.994735, 241, 117, 368, 148
-0.994752, 233, 209, 264, 336
-0.99476, 469, 241, 500, 368
-0.994769, 257, 193, 288, 320
-0.994778, 337, 185, 352, 248
-0.994779, 87, 201, 102, 264
-0.99478, 369, 57, 496, 120
-0.994791, 207, 225, 222, 288
-0.994794, 325, 1, 356, 128
-0.994809, 181, 81, 212, 208
-0.99483, 337, 197, 464, 228
-0.994839, 233, 193, 248, 256
-0.994866, 71, 241, 86, 304
-0.99493, 193, 193, 320, 224
-0.994937, 433, 25, 496, 88
-0.994941, 321, 129, 448, 160
-0.994964, 1, 33, 128, 96
-0.994974, 33, 57, 160, 120
-0.994976, 81, 57, 208, 120
-0.994984, 369, 301, 496, 332
-0.99499, 209, 169, 336, 200
-0.995004, 65, 81, 320, 144
-0.99501, 113, 65, 144, 192
-0.995015, 225, 209, 480, 272
-0.995029, 145, 41, 208, 104
-0.995031, 155, 209, 170, 272
-0.995034, 277, 129, 292, 192
-0.99504, 371, 185, 386, 248
-0.995042, 193, 229, 320, 260
-0.995051, 409, 193, 440, 320
-0.995061, 241, 153, 368, 184
-0.995065, 129, 225, 256, 256
-0.995072, 175, 233, 190, 296
-0.995099, 129, 177, 144, 240
-0.99512, 219, 201, 234, 264
-0.995125, 1, 169, 500, 232
-0.995155, 297, 1, 328, 128
-0.995156, 81, 213, 208, 244
-0.995163, 347, 177, 362, 240
-0.995176, 225, 193, 240, 256
-0.995195, 257, 133, 384, 164
-0.995203, 145, 193, 272, 224
-0.99526, 377, 193, 392, 256
-0.995308, 69, 49, 100, 176
-0.99532, 149, 201, 164, 264
-0.995329, 293, 121, 308, 184
-0.995355, 321, 181, 448, 212
-0.995371, 81, 249, 96, 312
-0.995375, 289, 145, 416, 176
-0.995401, 81, 273, 208, 336
-0.995404, 341, 153, 356, 216
-0.995424, 287, 153, 302, 216
-0.995428, 201, 241, 216, 304
-0.995442, 185, 225, 216, 352
-0.995444, 321, 165, 448, 196
-0.99545, 313, 49, 344, 176
-0.995454, 103, 145, 118, 208
-0.995471, 1, 217, 500, 280
-0.995475, 145, 237, 272, 268
-0.995476, 109, 153, 124, 216
-0.995496, 355, 145, 370, 208
-0.995498, 49, 201, 176, 232
-0.99551, 321, 225, 448, 288
-0.995527, 251, 153, 266, 216
-0.995534, 193, 121, 320, 152
-0.995542, 1, 273, 256, 336
-0.995565, 75, 265, 90, 328
-0.995575, 287, 121, 302, 184
-0.995576, 365, 185, 380, 248
-0.995587, 441, 297, 456, 360
-0.995595, 447, 177, 462, 240
-0.995619, 225, 81, 480, 144
-0.995627, 239, 169, 254, 232
-0.99563, 81, 229, 208, 260
-0.995633, 385, 185, 400, 248
-0.995648, 73, 1, 136, 256
-0.995669, 97, 161, 112, 224
-0.995677, 9, 1, 72, 375
-0.99571, 65, 245, 192, 276
-0.995714, 257, 241, 384, 368
-0.995715, 357, 185, 372, 248
-0.995728, 245, 161, 260, 224
-0.995735, 445, 113, 476, 240
-0.995739, 41, 81, 72, 208
-0.995752, 295, 145, 310, 208
-0.995762, 141, 161, 156, 224
-0.995778, 87, 233, 102, 296
-0.995796, 271, 105, 286, 168
-0.995798, 243, 193, 258, 256
-0.995805, 93, 185, 108, 248
-0.995809, 377, 33, 408, 160
-0.995809, 445, 225, 476, 352
-0.995819, 17, 129, 80, 375
-0.995835, 449, 289, 464, 352
-0.995851, 355, 121, 370, 184
-0.995861, 297, 177, 312, 240
-0.995869, 257, 121, 272, 184
-0.995871, 209, 241, 336, 272
-0.995872, 415, 169, 430, 232
-0.995889, 341, 129, 356, 192
-0.99592, 263, 113, 278, 176
-0.995937, 261, 153, 276, 216
-0.995956, 317, 161, 332, 224
-0.995978, 1, 233, 128, 264
-0.995979, 303, 161, 318, 224
-0.99598, 49, 1, 176, 64
-0.995989, 105, 177, 120, 240
-0.995989, 177, 1, 240, 128
-0.995998, 1, 49, 64, 176
-0.996003, 145, 249, 272, 280
-0.996013, 365, 121, 380, 184
-0.996014, 369, 241, 496, 304
-0.996029, 353, 209, 480, 240
-0.996029, 421, 153, 436, 216
-0.996033, 279, 105, 294, 168
-0.996054, 201, 1, 264, 128
-0.996064, 329, 145, 344, 208
-0.996072, 353, 25, 480, 88
-0.996074, 121, 153, 136, 216
-0.996084, 289, 117, 416, 148
-0.996088, 369, 313, 496, 344
-0.996099, 225, 225, 240, 288
-0.99611, 403, 177, 418, 240
-0.996116, 327, 169, 342, 232
-0.996152, 81, 201, 96, 264
-0.996162, 135, 145, 150, 208
-0.996193, 305, 313, 432, 375
-0.99623, 191, 241, 206, 304
-0.996234, 289, 225, 416, 256
-0.996252, 257, 97, 272, 160
-0.996259, 263, 89, 278, 152
-0.99628, 1, 257, 500, 320
-0.996284, 93, 217, 108, 280
-0.996295, 65, 181, 192, 212
-0.996297, 465, 1, 496, 128
-0.996299, 369, 177, 496, 208
-0.996303, 1, 113, 500, 176
-0.996304, 329, 225, 392, 352
-0.996314, 1, 161, 256, 224
-0.996315, 429, 81, 460, 208
-0.996322, 115, 145, 130, 208
-0.996335, 89, 49, 120, 176
-0.996377, 311, 153, 326, 216
-0.996383, 161, 169, 288, 200
-0.996395, 437, 1, 468, 128
-0.996407, 147, 177, 162, 240
-0.996409, 241, 197, 368, 228
-0.996425, 257, 297, 500, 360
-0.996429, 209, 105, 336, 136
-0.996447, 271, 145, 286, 208
-0.996453, 245, 137, 260, 200
-0.996454, 335, 137, 350, 200
-0.996464, 219, 225, 234, 288
-0.996494, 17, 253, 144, 284
-0.996507, 251, 129, 266, 192
-0.996524, 409, 177, 424, 240
-0.996532, 93, 1, 124, 128
-0.996542, 389, 65, 420, 192
-0.996547, 455, 289, 470, 352
-0.996549, 441, 177, 456, 240
-0.996567, 453, 177, 468, 240
-0.996572, 361, 145, 376, 208
-0.996584, 257, 105, 384, 136
-0.996592, 145, 181, 272, 212
-0.996598, 127, 153, 142, 216
-0.996614, 331, 97, 346, 160
-0.99663, 33, 225, 64, 352
-0.996648, 99, 185, 114, 248
-0.996658, 33, 213, 160, 244
-0.996659, 285, 33, 316, 288
-0.996675, 115, 169, 130, 232
-0.996682, 225, 93, 352, 124
-0.996685, 253, 73, 268, 136
-0.996693, 281, 185, 296, 248
-0.996696, 113, 165, 240, 196
-0.996705, 305, 113, 320, 176
-0.996707, 291, 225, 306, 288
-0.996714, 413, 145, 428, 208
-0.996719, 161, 133, 288, 164
-0.996725, 17, 281, 144, 312
-0.996739, 241, 13, 368, 44
-0.996739, 25, 289, 40, 352
-0.996753, 251, 177, 266, 240
-0.996761, 481, 273, 496, 336
-0.996762, 49, 169, 176, 200
-0.996763, 337, 105, 352, 168
-0.99681, 327, 121, 342, 184
-0.996834, 101, 65, 132, 192
-0.996846, 193, 113, 224, 240
-0.996852, 271, 201, 286, 264
-0.996852, 69, 265, 84, 328
-0.996853, 343, 201, 358, 264
-0.996868, 301, 137, 316, 200
-0.996875, 121, 185, 136, 248
-0.996876, 295, 201, 310, 264
-0.996879, 135, 193, 150, 256
-0.996882, 369, 325, 496, 356
-0.996904, 149, 241, 180, 368
-0.996909, 299, 49, 314, 112
-0.99691, 423, 177, 438, 240
-0.996913, 225, 57, 480, 120
-0.996917, 167, 193, 182, 256
-0.996923, 251, 105, 266, 168
-0.996938, 81, 121, 208, 152
-0.996938, 459, 185, 474, 248
-0.996942, 283, 241, 298, 304
-0.996964, 97, 141, 224, 172
-0.996982, 345, 105, 360, 168
-0.996986, 161, 193, 176, 256
-0.996991, 113, 113, 128, 176
-0.996995, 113, 261, 240, 292
-0.997002, 435, 297, 450, 360
-0.997023, 113, 33, 240, 96
-0.997025, 197, 49, 228, 176
-0.997038, 21, 177, 52, 304
-0.997062, 461, 313, 476, 375
-0.997065, 391, 177, 406, 240
-0.997067, 281, 161, 296, 224
-0.997087, 225, 1, 480, 64
-0.99709, 213, 193, 228, 256
-0.99711, 337, 141, 464, 172
-0.997111, 367, 209, 382, 272
-0.997123, 233, 225, 248, 288
-0.99713, 257, 313, 384, 375
-0.997148, 87, 169, 102, 232
-0.997157, 241, 221, 368, 252
-0.997173, 153, 177, 168, 240
-0.997173, 461, 273, 476, 336
-0.997184, 99, 209, 114, 272
-0.997199, 179, 257, 194, 320
-0.997204, 371, 113, 386, 176
-0.997224, 355, 133, 370, 164
-0.997234, 305, 265, 432, 328
-0.997272, 453, 1, 484, 128
-0.997274, 257, 105, 500, 168
-0.997283, 33, 101, 160, 132
-0.997287, 97, 197, 224, 228
-0.997311, 1, 297, 128, 328
-0.997317, 353, 145, 368, 176
-0.997328, 265, 65, 296, 320
-0.99736, 167, 225, 182, 256
-0.997365, 401, 1, 432, 128
-0.997386, 345, 177, 360, 208
-0.997386, 161, 109, 288, 140
-0.997397, 469, 129, 500, 256
-0.9974, 193, 69, 320, 100
-0.997415, 339, 169, 354, 200
-0.997425, 73, 269, 88, 300
-0.997425, 65, 57, 320, 120
-0.997429, 97, 17, 352, 80
-0.997435, 161, 89, 288, 120
-0.997463, 161, 157, 288, 188
-0.997465, 237, 181, 252, 212
-0.997471, 161, 217, 176, 248
-0.997499, 173, 233, 188, 264
-0.997501, 231, 193, 246, 224
-0.997502, 361, 97, 392, 352
-0.997504, 177, 145, 304, 176
-0.997506, 81, 221, 96, 252
-0.99751, 173, 129, 204, 375
-0.997532, 1, 193, 500, 256
-0.997532, 151, 205, 166, 236
-0.997538, 389, 1, 420, 128
-0.997539, 201, 241, 216, 272
-0.997543, 341, 149, 356, 180
-0.997543, 79, 233, 94, 264
-0.997547, 1, 345, 128, 375
-0.997548, 293, 129, 324, 375
-0.997564, 141, 193, 156, 224
-0.997568, 145, 121, 272, 152
-0.997573, 383, 205, 398, 236
-0.997576, 87, 213, 102, 244
-0.997587, 377, 241, 440, 368
-0.997597, 209, 81, 336, 112
-0.997597, 361, 125, 376, 156
-0.997608, 211, 225, 226, 256
-0.997638, 135, 185, 150, 216
-0.997648, 49, 149, 176, 180
-0.997652, 247, 169, 262, 200
-0.997657, 337, 153, 464, 184
-0.997658, 257, 1, 384, 32
-0.997659, 177, 313, 304, 375
-0.997667, 113, 153, 240, 184
-0.997672, 127, 177, 142, 208
-0.997684, 369, 1, 496, 32
-0.997714, 17, 189, 144, 220
-0.997717, 383, 193, 398, 224
-0.997718, 65, 257, 192, 288
-0.997725, 49, 133, 176, 164
-0.997728, 293, 125, 308, 156
-0.997731, 257, 33, 500, 96
-0.997737, 1, 329, 128, 360
-0.997741, 347, 193, 362, 224
-0.997747, 183, 245, 198, 276
-0.997758, 275, 121, 290, 152
-0.997758, 257, 237, 384, 268
-0.997762, 73, 249, 88, 280
-0.997764, 193, 249, 208, 280
-0.997792, 255, 117, 270, 148
-0.997793, 57, 81, 88, 208
-0.997798, 225, 201, 240, 232
-0.9978, 391, 189, 406, 220
-0.997809, 471, 313, 486, 344
-0.997811, 95, 189, 110, 220
-0.997812, 113, 177, 128, 208
-0.997819, 253, 157, 268, 188
-0.997823, 377, 209, 392, 240
-0.997833, 67, 265, 82, 296
-0.997833, 1, 309, 128, 340
-0.997839, 17, 265, 144, 296
-0.997847, 299, 181, 314, 212
-0.997848, 339, 137, 354, 168
-0.997852, 353, 289, 480, 320
-0.997852, 333, 165, 348, 196
-0.997854, 209, 133, 336, 164
-0.997862, 219, 213, 234, 244
-0.997869, 157, 65, 188, 192
-0.99788, 409, 173, 424, 204
-0.997884, 337, 97, 368, 352
-0.997885, 401, 185, 416, 216
-0.997901, 1, 129, 128, 160
-0.997902, 369, 265, 496, 296
-0.997917, 237, 129, 268, 375
-0.997918, 113, 109, 240, 140
-0.997923, 289, 33, 416, 64
-0.997927, 355, 185, 370, 216
-0.99793, 149, 97, 180, 352
-0.997934, 305, 1, 336, 256
-0.99795, 207, 237, 222, 268
-0.99796, 337, 181, 352, 212
-0.997961, 447, 177, 462, 208
-0.997965, 125, 97, 156, 352
-0.997969, 349, 133, 364, 164
-0.997971, 209, 33, 336, 96
-0.997971, 213, 65, 244, 320
-0.997979, 421, 157, 436, 188
-0.997979, 79, 257, 94, 288
-0.997989, 369, 125, 384, 156
-0.997994, 161, 129, 192, 375
-0.997994, 361, 137, 376, 168
-0.997999, 243, 201, 258, 232
-0.998, 281, 117, 296, 148
-0.998006, 273, 77, 400, 108
-0.99801, 485, 273, 500, 304
-0.998011, 331, 177, 346, 208
-0.998014, 369, 165, 496, 196
-0.998016, 267, 113, 282, 144
-0.998026, 85, 245, 100, 276
-0.998035, 91, 201, 106, 232
-0.998037, 253, 129, 268, 160
-0.998042, 361, 185, 376, 216
-0.998058, 1, 201, 128, 232
-0.998061, 449, 293, 464, 324
-0.998068, 91, 229, 106, 260
-0.998073, 369, 337, 496, 368
-0.998079, 209, 49, 240, 176
-0.998086, 257, 273, 500, 336
-0.998089, 221, 17, 252, 144
-0.998101, 89, 129, 120, 375
-0.998103, 371, 205, 386, 236
-0.998104, 373, 193, 388, 224
-0.998108, 247, 121, 262, 152
-0.998109, 169, 81, 200, 208
-0.998109, 209, 273, 336, 336
-0.998114, 321, 1, 448, 32
-0.998124, 105, 165, 120, 196
-0.998126, 353, 197, 368, 228
-0.998135, 419, 169, 434, 200
-0.99814, 325, 169, 340, 200
-0.998146, 441, 297, 456, 328
-0.998149, 479, 309, 494, 340
-0.99815, 193, 253, 320, 284
-0.998151, 317, 165, 332, 196
-0.998152, 261, 117, 276, 148
-0.998156, 285, 133, 300, 164
-0.998161, 249, 185, 264, 216
-0.998163, 133, 165, 148, 196
-0.998167, 99, 177, 114, 208
-0.998168, 127, 165, 142, 196
-0.998176, 163, 237, 178, 268
-0.998176, 333, 1, 364, 256
-0.998176, 129, 289, 256, 352
-0.998178, 477, 273, 492, 304
-0.998182, 135, 201, 150, 232
-0.998184, 465, 317, 480, 348
-0.998187, 77, 97, 108, 352
-0.99819, 251, 105, 266, 136
-0.998196, 415, 181, 430, 212
-0.998203, 351, 209, 366, 240
-0.998207, 305, 105, 432, 136
-0.998207, 139, 165, 154, 196
-0.998209, 389, 209, 404, 240
-0.998211, 219, 197, 234, 228
-0.998212, 65, 37, 192, 68
-0.998214, 347, 149, 362, 180
-0.998214, 451, 309, 466, 340
-0.998215, 257, 257, 384, 320
-0.998219, 97, 213, 112, 244
-0.998223, 347, 165, 362, 196
-0.998224, 29, 81, 60, 208
-0.998226, 241, 121, 256, 152
-0.998226, 361, 149, 376, 180
-0.998231, 297, 69, 312, 100
-0.998235, 121, 173, 136, 204
-0.998235, 241, 65, 368, 96
-0.998236, 213, 197, 228, 228
-0.998236, 67, 253, 82, 284
-0.998238, 433, 297, 448, 328
-0.998239, 279, 141, 294, 172
-0.998239, 185, 129, 216, 375
-0.99824, 471, 273, 486, 304
-0.998245, 301, 109, 316, 140
-0.998247, 241, 53, 368, 84
-0.998249, 253, 129, 284, 375
-0.998251, 73, 237, 88, 268
-0.998252, 463, 281, 478, 312
-0.998253, 339, 209, 354, 240
-0.998254, 317, 33, 348, 288
-0.998257, 141, 209, 156, 240
-0.99826, 145, 97, 176, 224
-0.998261, 441, 201, 456, 232
-0.998264, 261, 165, 276, 196
-0.998264, 333, 153, 348, 184
-0.998272, 105, 33, 136, 288
-0.998272, 219, 237, 234, 268
-0.998287, 381, 97, 412, 352
-0.998295, 297, 145, 312, 176
-0.998295, 267, 157, 282, 188
-0.998301, 129, 257, 384, 320
-0.998302, 213, 241, 228, 272
-0.998308, 259, 149, 274, 180
-0.998312, 225, 185, 240, 216
-0.998312, 109, 153, 124, 184
-0.998316, 273, 89, 400, 120
-0.998318, 283, 105, 298, 136
-0.99832, 275, 169, 290, 200
-0.998323, 145, 65, 272, 96
-0.998327, 125, 189, 140, 220
-0.998328, 121, 157, 136, 188
-0.998331, 353, 221, 480, 252
-0.998336, 255, 173, 270, 204
-0.998338, 455, 285, 470, 316
-0.998348, 457, 113, 488, 240
-0.998353, 149, 193, 164, 224
-0.998355, 285, 157, 300, 188
-0.998363, 219, 117, 234, 148
-0.998369, 151, 221, 166, 252
-0.998374, 1, 145, 128, 176
-0.998374, 485, 305, 500, 336
-0.998382, 57, 1, 88, 128
-0.998383, 313, 179, 344, 194
-0.998385, 401, 189, 432, 204
-0.998385, 277, 231, 308, 246
-0.998385, 281, 165, 312, 180
-0.998387, 1, 297, 256, 360
-0.998389, 281, 241, 312, 256
-0.99839, 369, 127, 400, 142
-0.99839, 433, 179, 464, 194
-0.99839, 281, 129, 312, 375
-0.998391, 57, 227, 88, 242
-0.998392, 437, 207, 468, 222
-0.998392, 245, 17, 276, 32
-0.998392, 373, 203, 404, 218
-0.998393, 197, 253, 228, 268
-0.998393, 277, 223, 308, 238
-0.998393, 125, 199, 156, 214
-0.998394, 241, 165, 272, 180
-0.998394, 261, 129, 292, 144
-0.998394, 265, 17, 296, 32
-0.998396, 277, 119, 308, 134
-0.998396, 197, 261, 228, 276
-0.998397, 237, 191, 268, 206
-0.998397, 281, 171, 312, 186
-0.998398, 109, 193, 140, 208
-0.998398, 81, 211, 112, 226
-0.998398, 301, 123, 332, 138
-0.998399, 281, 109, 312, 124
-0.998402, 69, 247, 100, 262
-0.998406, 337, 197, 368, 212
-0.998406, 277, 205, 308, 220
-0.998407, 425, 303, 456, 318
-0.998407, 457, 283, 488, 298
-0.998407, 193, 17, 320, 48
-0.998409, 133, 207, 164, 222
-0.99841, 297, 183, 328, 198
-0.99841, 269, 109, 300, 124
-0.998411, 85, 217, 116, 232
-0.998411, 441, 185, 472, 200
-0.998412, 93, 191, 124, 206
-0.998412, 209, 223, 240, 238
-0.998412, 385, 207, 416, 222
-0.998413, 321, 185, 352, 200
-0.998414, 97, 179, 128, 194
-0.998414, 137, 17, 168, 144
-0.998415, 353, 137, 384, 152
-0.998416, 213, 229, 244, 244
-0.998416, 333, 191, 364, 206
-0.998416, 469, 277, 500, 292
-0.998417, 121, 177, 152, 192
-0.998418, 273, 147, 304, 162
-0.998418, 57, 275, 88, 290
-0.998418, 205, 203, 236, 218
-0.998418, 133, 193, 164, 208
-0.998419, 153, 219, 184, 234
-0.998419, 233, 177, 264, 192
-0.99842, 233, 175, 296, 190
-0.998421, 445, 295, 476, 310
-0.998421, 89, 169, 120, 184
-0.998421, 61, 263, 92, 278
-0.998422, 221, 235, 252, 250
-0.998423, 469, 307, 500, 322
-0.998424, 277, 217, 308, 232
-0.998425, 293, 195, 324, 210
-0.998425, 389, 185, 420, 200
-0.998426, 369, 17, 496, 48
-0.998427, 281, 141, 312, 156
-0.998427, 189, 243, 220, 258
-0.998428, 321, 173, 352, 188
-0.998428, 365, 219, 396, 234
-0.998428, 269, 159, 300, 174
-0.998429, 305, 165, 336, 180
-0.998429, 385, 197, 416, 212
-0.99843, 109, 171, 140, 186
-0.998431, 469, 315, 500, 330
-0.998431, 305, 97, 336, 352
-0.998431, 337, 159, 368, 174
-0.998433, 333, 175, 364, 190
-0.998436, 85, 197, 116, 212
-0.998438, 241, 171, 272, 186
-0.998439, 361, 195, 392, 210
-0.998439, 217, 117, 248, 132
-0.99844, 369, 277, 496, 308
-0.998441, 413, 173, 444, 188
-0.998441, 341, 137, 372, 152
-0.998442, 65, 253, 96, 268
-0.998442, 121, 183, 152, 198
-0.998442, 365, 17, 396, 144
-0.998445, 161, 237, 192, 252
-0.998446, 145, 209, 176, 224
-0.998447, 137, 199, 168, 214
-0.998447, 229, 183, 260, 198
-0.998448, 201, 247, 232, 262
-0.998449, 393, 185, 456, 200
-0.998451, 149, 225, 180, 240
-0.998452, 169, 237, 232, 252
-0.998452, 121, 191, 152, 206
-0.998453, 457, 289, 488, 304
-0.998454, 153, 231, 184, 246
-0.998454, 69, 239, 100, 254
-0.998455, 201, 241, 232, 256
-0.998457, 369, 187, 400, 202
-0.998458, 281, 179, 312, 194
-0.998458, 77, 233, 108, 248
-0.99846, 141, 215, 172, 230
-0.998461, 129, 169, 160, 184
-0.998461, 229, 123, 260, 138
-0.998462, 225, 97, 256, 352
-0.998462, 241, 123, 272, 138
-0.998463, 225, 189, 288, 204
-0.998464, 337, 189, 400, 204
-0.998464, 225, 189, 256, 204
-0.998465, 321, 163, 352, 178
-0.998468, 357, 125, 388, 140
-0.99847, 265, 165, 296, 180
-0.99847, 33, 117, 160, 148
-0.99847, 277, 127, 308, 142
-0.998472, 469, 283, 500, 298
-0.998472, 105, 187, 136, 202
-0.998473, 401, 183, 432, 198
-0.998474, 253, 123, 284, 138
-0.998474, 345, 131, 376, 146
-0.998475, 273, 167, 336, 182
-0.998475, 345, 195, 408, 210
-0.998476, 1, 169, 128, 200
-0.998478, 449, 317, 480, 332
-0.998479, 337, 153, 368, 168
-0.99848, 253, 165, 284, 180
-0.998483, 221, 217, 252, 232
-0.998484, 225, 201, 256, 216
-0.998484, 249, 181, 312, 196
-0.99849, 297, 167, 360, 182
-0.998492, 169, 243, 200, 258
-0.998493, 169, 251, 232, 266
-0.998494, 89, 191, 152, 206
-0.998494, 337, 117, 464, 148
-0.998495, 333, 181, 364, 196
-0.998499, 233, 121, 296, 136
-0.998502, 205, 235, 236, 250
-0.998504, 345, 143, 376, 158
-0.998505, 249, 127, 312, 142
-0.998506, 109, 177, 140, 192
-0.998507, 277, 199, 308, 214
-0.998509, 233, 197, 296, 212
-0.998509, 233, 209, 296, 224
-0.998509, 241, 163, 304, 178
-0.998511, 225, 195, 256, 210
-0.998513, 277, 185, 308, 200
-0.998514, 177, 5, 304, 36
-0.998517, 97, 201, 160, 216
-0.99852, 297, 173, 360, 188
-0.998521, 277, 193, 308, 208
-0.998524, 177, 243, 240, 258
-0.998525, 377, 191, 440, 206
-0.998526, 221, 211, 252, 226
-0.998527, 265, 121, 296, 136
-0.998528, 41, 1, 72, 128
-0.998529, 233, 203, 296, 218
-0.998531, 265, 199, 328, 214
-0.998532, 289, 187, 352, 202
-0.998532, 265, 193, 328, 208
-0.998532, 389, 191, 420, 206
-0.998533, 433, 309, 496, 324
-0.998533, 285, 135, 316, 150
-0.998535, 337, 213, 400, 228
-0.998536, 289, 147, 352, 162
-0.998536, 201, 219, 264, 234
-0.998537, 257, 139, 320, 154
-0.998537, 349, 65, 380, 320
-0.998537, 25, 277, 88, 292
-0.998538, 333, 147, 364, 162
-0.998538, 233, 169, 296, 184
-0.998539, 273, 181, 336, 196
-0.998539, 345, 185, 376, 200
-0.99854, 265, 205, 328, 220
-0.99854, 233, 219, 296, 234
-0.99854, 305, 13, 432, 44
-0.998541, 241, 157, 304, 172
-0.998541, 121, 219, 184, 234
-0.998542, 225, 181, 288, 196
-0.998545, 345, 201, 408, 216
-0.998545, 193, 205, 256, 220
-0.998545, 193, 213, 256, 228
-0.998546, 313, 119, 376, 134
-0.998547, 249, 187, 312, 202
-0.998548, 321, 149, 384, 164
-0.998548, 261, 173, 292, 188
-0.998548, 77, 223, 108, 238
-0.998551, 317, 129, 348, 375
-0.998552, 401, 179, 464, 194
-0.998553, 249, 145, 312, 160
-0.998555, 245, 117, 276, 132
-0.998555, 265, 161, 328, 176
-0.998556, 197, 97, 228, 352
-0.998556, 345, 127, 408, 142
-0.998557, 201, 227, 264, 242
-0.998558, 369, 185, 432, 200
-0.998559, 49, 219, 112, 234
-0.998561, 193, 237, 256, 252
-0.998561, 233, 115, 296, 130
-0.998561, 313, 183, 376, 198
-0.998563, 217, 129, 280, 144
-0.998563, 113, 209, 176, 224
-0.998565, 265, 211, 328, 226
-0.998567, 81, 171, 144, 186
-0.998567, 201, 123, 264, 138
-0.998567, 241, 151, 304, 166
-0.998567, 321, 143, 384, 158
-0.998568, 201, 197, 264, 212
-0.998571, 121, 189, 184, 204
-0.998571, 265, 111, 328, 126
-0.998572, 369, 129, 496, 160
-0.998573, 25, 257, 88, 272
-0.998575, 257, 133, 320, 148
-0.998576, 89, 181, 152, 196
-0.998576, 313, 189, 376, 204
-0.998577, 289, 141, 352, 156
-0.998577, 289, 153, 352, 168
-0.998577, 273, 173, 336, 188
-0.998578, 337, 207, 400, 222
-0.998579, 417, 187, 480, 202
-0.998579, 289, 133, 352, 148
-0.998581, 73, 223, 136, 238
-0.998582, 289, 215, 352, 230
-0.998583, 129, 229, 192, 244
-0.998583, 201, 187, 264, 202
-0.998584, 257, 289, 384, 352
-0.998585, 289, 127, 352, 142
-0.998586, 153, 231, 216, 246
-0.998586, 437, 129, 468, 375
-0.998588, 169, 261, 232, 276
-0.998588, 161, 225, 224, 240
-0.998588, 265, 217, 328, 232
-0.998589, 121, 169, 184, 184
-0.998589, 137, 239, 200, 254
-0.998589, 233, 225, 296, 240
-0.998589, 289, 209, 352, 224
-0.99859, 49, 229, 112, 244
-0.998591, 177, 231, 240, 246
-0.998592, 265, 155, 328, 170
-0.998592, 265, 223, 328, 238
-0.998595, 145, 255, 208, 270
-0.998597, 433, 193, 496, 208
-0.998598, 353, 133, 416, 148
-0.9986, 409, 209, 472, 224
-0.9986, 97, 215, 160, 230
-0.9986, 305, 197, 368, 212
-0.998601, 321, 169, 384, 184
-0.998601, 193, 115, 256, 130
-0.998601, 41, 247, 104, 262
-0.998601, 153, 245, 216, 260
-0.998602, 361, 207, 424, 222
-0.998603, 417, 303, 480, 318
-0.998603, 265, 117, 328, 132
-0.998604, 121, 199, 184, 214
-0.998604, 233, 135, 296, 150
-0.998606, 57, 213, 120, 228
-0.998607, 329, 137, 392, 152
-0.998608, 41, 239, 104, 254
-0.998608, 137, 209, 200, 224
-0.99861, 433, 327, 496, 342
-0.99861, 377, 197, 440, 212
-0.998611, 169, 213, 232, 228
-0.998611, 313, 129, 376, 144
-0.998613, 249, 237, 312, 252
-0.998615, 257, 75, 320, 90
-0.998615, 337, 181, 400, 196
-0.998615, 289, 161, 352, 176
-0.998617, 265, 229, 328, 244
-0.998618, 289, 221, 352, 236
-0.998622, 369, 213, 432, 228
-0.998622, 233, 107, 296, 122
-0.998622, 25, 283, 88, 298
-0.998623, 65, 255, 128, 270
-0.998624, 321, 163, 384, 178
-0.998624, 225, 91, 288, 106
-0.998624, 417, 297, 480, 312
-0.998625, 65, 239, 128, 254
-0.998626, 209, 171, 272, 186
-0.998627, 113, 181, 176, 196
-0.998628, 65, 245, 128, 260
-0.998629, 305, 57, 432, 88
-0.998631, 261, 115, 292, 130
-0.998681, 49, 57, 176, 88
-0.998695, 253, 33, 284, 288
-0.998696, 81, 85, 208, 116
-0.998717, 81, 297, 208, 360
-0.998719, 425, 129, 456, 375
-0.998722, 289, 45, 416, 76
-0.998722, 161, 53, 288, 84
-0.998739, 321, 309, 448, 340
-0.998756, 101, 129, 132, 375
-0.998773, 17, 41, 144, 72
-0.998785, 77, 225, 92, 352
-0.998788, 321, 321, 448, 352
-0.9988, 57, 129, 88, 375
-0.998801, 337, 93, 464, 124
-0.998805, 241, 33, 368, 64
-0.998815, 113, 129, 144, 375
-0.998823, 413, 97, 444, 352
-0.998827, 97, 21, 224, 52
-0.99883, 1, 1, 256, 64
-0.998838, 285, 129, 300, 256
-0.998869, 223, 193, 238, 320
-0.998875, 233, 177, 248, 304
-0.998876, 137, 97, 168, 352
-0.998887, 81, 73, 208, 104
-0.99891, 33, 89, 160, 120
-0.998918, 241, 33, 272, 288
-0.998935, 83, 177, 98, 304
-0.99894, 295, 145, 310, 272
-0.998948, 355, 129, 370, 256
-0.998959, 293, 97, 308, 224
-0.99896, 313, 81, 328, 208
-0.998965, 257, 233, 500, 296
-0.99897, 253, 113, 268, 240
-0.998971, 393, 97, 424, 352
-0.998974, 303, 97, 318, 224
-0.998983, 347, 129, 362, 256
-0.999014, 33, 25, 160, 56
-0.999043, 33, 69, 160, 100
-0.999045, 125, 1, 156, 256
-0.999047, 287, 81, 302, 208
-0.999047, 341, 129, 356, 256
-0.999051, 91, 193, 106, 320
-0.999062, 225, 1, 256, 256
-0.999063, 1, 73, 500, 136
-0.999067, 361, 129, 376, 256
-0.999072, 243, 161, 258, 288
-0.999082, 367, 129, 382, 256
-0.999087, 213, 209, 228, 336
-0.999091, 83, 225, 98, 352
-0.999098, 419, 129, 434, 256
-0.9991, 375, 177, 390, 304
-0.999103, 145, 77, 272, 108
-0.999114, 331, 113, 346, 240
-0.999116, 373, 129, 388, 256
-0.999121, 303, 161, 318, 288
-0.999122, 169, 209, 184, 336
-0.999132, 177, 33, 208, 288
-0.999139, 197, 1, 228, 256
-0.99914, 71, 241, 86, 368
-0.999148, 193, 29, 320, 60
-0.99915, 177, 177, 192, 304
-0.999156, 1, 33, 256, 96
-0.999157, 275, 97, 290, 224
-0.999161, 141, 145, 156, 272
-0.999162, 317, 145, 332, 272
-0.999175, 325, 97, 340, 224
-0.999178, 213, 161, 228, 288
-0.99919, 227, 145, 242, 272
-0.999192, 369, 177, 384, 304
-0.999205, 259, 145, 274, 272
-0.999205, 113, 37, 240, 68
-0.999207, 309, 145, 324, 272
-0.999215, 77, 177, 92, 304
-0.99922, 97, 177, 112, 304
-0.999225, 361, 1, 392, 256
-0.99923, 263, 97, 278, 224
-0.999237, 71, 193, 86, 320
-0.999237, 305, 293, 432, 324
-0.999243, 97, 53, 224, 84
-0.999244, 449, 129, 480, 375
-0.999245, 409, 129, 424, 256
-0.999246, 89, 33, 120, 288
-0.999247, 163, 193, 178, 320
-0.99925, 279, 161, 294, 288
-0.999262, 271, 145, 286, 272
-0.999262, 155, 161, 170, 288
-0.999266, 249, 161, 264, 288
-0.999266, 81, 97, 208, 128
-0.999266, 325, 161, 340, 288
-0.999277, 105, 161, 120, 288
-0.999285, 379, 129, 394, 256
-0.99929, 401, 113, 416, 240
-0.999291, 281, 225, 296, 352
-0.999291, 471, 241, 486, 368
-0.999298, 221, 145, 236, 272
-0.999301, 65, 285, 192, 316
-0.999306, 161, 33, 192, 288
-0.999313, 91, 145, 106, 272
-0.999313, 207, 225, 222, 352
-0.999314, 425, 145, 440, 272
-0.999314, 233, 129, 248, 256
-0.999315, 373, 1, 404, 256
-0.999319, 247, 113, 262, 240
-0.999322, 347, 81, 362, 208
-0.999322, 409, 1, 440, 256
-0.999335, 111, 97, 126, 224
-0.999335, 441, 33, 472, 288
-0.999335, 387, 113, 402, 240
-0.999348, 165, 145, 180, 272
-0.999352, 131, 113, 146, 240
-0.999356, 389, 1, 420, 256
-0.999361, 357, 81, 372, 208
-0.999364, 381, 177, 396, 304
-0.999374, 117, 113, 132, 240
-0.999374, 255, 65, 270, 192
-0.999384, 335, 177, 350, 304
-0.999388, 149, 145, 164, 272
-0.999388, 319, 81, 334, 208
-0.999391, 289, 177, 304, 304
-0.999397, 295, 193, 310, 320
-0.999397, 175, 225, 190, 352
-0.999399, 431, 193, 446, 320
-0.999409, 281, 65, 296, 192
-0.999413, 149, 193, 164, 320
-0.999418, 337, 81, 352, 208
-0.999419, 133, 161, 148, 288
-0.99942, 201, 177, 216, 304
-0.999427, 335, 33, 350, 160
-0.99943, 473, 177, 488, 304
-0.999433, 97, 129, 112, 256
-0.999435, 295, 49, 310, 176
-0.999437, 65, 209, 80, 336
-0.999439, 265, 161, 280, 288
-0.999443, 459, 241, 474, 368
-0.99945, 393, 113, 408, 240
-0.999452, 241, 113, 256, 240
-0.999463, 403, 161, 418, 288
-0.999464, 303, 49, 318, 176
-0.999464, 117, 161, 132, 288
-0.999478, 467, 177, 482, 304
-0.999479, 273, 193, 288, 320
-0.999484, 447, 161, 462, 288
-0.999485, 13, 241, 28, 368
-0.999485, 355, 177, 370, 304
-0.999488, 363, 177, 378, 304
-0.999489, 111, 145, 126, 272
-0.999491, 191, 209, 206, 336
-0.999491, 267, 1, 282, 128
-0.999492, 451, 1, 466, 128
-0.999498, 227, 97, 242, 224
-0.999498, 183, 225, 198, 352
-0.999499, 183, 145, 198, 272
-0.9995, 431, 145, 446, 272
-0.999501, 103, 113, 118, 240
-0.999506, 437, 177, 452, 304
-0.999507, 193, 145, 208, 272
-0.999507, 207, 161, 222, 288
-0.999509, 461, 129, 492, 375
-0.999512, 19, 241, 34, 368
-0.999513, 481, 177, 496, 304
-0.999514, 265, 49, 280, 176
-0.999516, 177, 129, 192, 256
-0.999518, 409, 177, 424, 304
-0.999519, 283, 17, 298, 144
-0.999523, 83, 129, 98, 256
-0.999524, 287, 225, 302, 352
-0.999529, 127, 161, 142, 288
-0.999531, 1, 1, 500, 64
-0.999532, 193, 97, 208, 224
-0.999533, 369, 81, 384, 208
-0.999535, 157, 209, 172, 336
-0.999551, 137, 1, 168, 256
-0.999551, 449, 241, 464, 368
-0.999552, 425, 193, 440, 320
-0.999553, 387, 161, 402, 288
-0.999556, 467, 1, 482, 128
-0.999572, 141, 209, 156, 336
-0.999572, 239, 209, 254, 336
-0.999577, 125, 113, 140, 240
-0.999577, 241, 241, 304, 368
-0.999577, 383, 207, 398, 222
-0.999577, 103, 209, 118, 224
-0.999577, 273, 1, 288, 128
-0.999578, 215, 223, 230, 238
-0.999578, 321, 169, 336, 184
-0.999579, 485, 305, 500, 320
-0.999579, 341, 181, 356, 196
-0.99958, 139, 207, 154, 222
-0.999581, 117, 183, 132, 198
-0.999581, 277, 129, 292, 144
-0.999581, 473, 311, 488, 326
-0.999581, 163, 239, 178, 254
-0.999582, 95, 195, 110, 210
-0.999583, 277, 117, 292, 132
-0.999583, 457, 289, 472, 304
-0.999584, 429, 33, 460, 288
-0.999584, 171, 247, 186, 262
-0.999585, 341, 161, 356, 176
-0.999585, 415, 177, 430, 192
-0.999585, 107, 175, 122, 190
-0.999586, 321, 125, 336, 140
-0.999586, 215, 207, 230, 222
-0.999587, 221, 207, 236, 222
-0.999587, 305, 103, 320, 118
-0.999587, 99, 165, 114, 180
-0.999588, 449, 293, 464, 308
-0.999588, 283, 167, 298, 182
-0.999588, 383, 191, 398, 206
-0.999589, 445, 309, 460, 324
-0.999589, 235, 123, 250, 138
-0.999589, 367, 221, 382, 236
-0.99959, 97, 189, 112, 204
-0.99959, 279, 17, 294, 32
-0.999591, 219, 201, 234, 216
-0.999591, 253, 137, 268, 152
-0.999591, 291, 155, 306, 170
-0.999593, 329, 163, 344, 178
-0.999594, 363, 137, 378, 152
-0.999594, 351, 137, 366, 152
-0.999594, 351, 199, 366, 214
-0.999595, 479, 309, 494, 324
-0.999596, 251, 15, 266, 30
-0.999596, 79, 225, 94, 240
-0.999596, 353, 131, 368, 146
-0.999596, 85, 225, 100, 240
-0.999597, 367, 125, 382, 140
-0.999597, 335, 185, 350, 200
-0.999597, 245, 129, 260, 144
-0.999598, 185, 247, 200, 262
-0.999599, 297, 137, 312, 152
-0.999599, 383, 213, 398, 228
-0.999599, 41, 129, 72, 375
-0.9996, 361, 149, 376, 164
-0.999602, 281, 123, 296, 138
-0.999603, 259, 129, 274, 144
-0.999603, 331, 179, 346, 194
-0.999605, 247, 177, 262, 192
-0.999605, 229, 187, 244, 202
-0.999605, 91, 209, 106, 224
-0.999605, 257, 161, 272, 176
-0.999606, 211, 215, 226, 230
-0.999609, 275, 175, 290, 190
-0.99961, 341, 137, 356, 152
-0.99961, 223, 233, 238, 248
-0.99961, 373, 219, 388, 234
-0.999612, 231, 201, 246, 216
-0.999615, 469, 283, 484, 298
-0.999616, 243, 183, 258, 198
-0.999616, 341, 191, 356, 206
-0.999617, 227, 195, 242, 210
-0.999618, 477, 279, 492, 294
-0.999618, 213, 229, 228, 244
-0.999619, 389, 195, 404, 210
-0.999619, 71, 229, 86, 244
-0.99962, 449, 179, 464, 194
-0.99962, 229, 231, 244, 246
-0.99962, 75, 265, 90, 280
-0.99962, 65, 263, 80, 278
-0.999622, 89, 215, 104, 230
-0.999623, 79, 243, 94, 258
-0.999625, 207, 239, 222, 254
-0.999625, 75, 251, 90, 266
-0.999625, 253, 131, 268, 146
-0.999628, 9, 33, 72, 288
-0.999631, 333, 145, 348, 160
-0.999633, 397, 187, 412, 202
-0.999635, 71, 277, 86, 292
-0.999635, 129, 167, 144, 182
-0.999637, 277, 111, 292, 126
-0.999637, 391, 189, 406, 204
-0.999638, 357, 143, 372, 158
-0.999639, 353, 187, 368, 202
-0.999639, 311, 119, 326, 134
-0.999639, 225, 201, 240, 216
-0.99964, 179, 243, 194, 258
-0.999641, 335, 151, 350, 166
-0.999642, 73, 271, 88, 286
-0.999644, 239, 189, 254, 204
-0.999646, 83, 231, 98, 246
-0.999647, 241, 121, 256, 136
-0.999648, 113, 177, 128, 192
-0.999649, 351, 151, 366, 166
-0.99965, 253, 167, 268, 182
-0.999651, 335, 169, 350, 184
-0.999653, 129, 181, 144, 196
-0.999653, 409, 181, 424, 196
-0.999654, 483, 275, 498, 290
-0.99966, 403, 185, 418, 200
-0.999664, 241, 205, 256, 220
-0.999665, 123, 175, 138, 190
-0.999668, 173, 237, 188, 252
-0.999668, 133, 187, 148, 202
-0.999669, 263, 123, 278, 138
-0.999669, 271, 113, 286, 128
-0.99967, 25, 129, 56, 375
-0.999671, 1, 129, 32, 375
-0.999672, 73, 257, 88, 272
-0.999673, 139, 193, 154, 208
-0.999677, 347, 181, 362, 196
-0.999678, 151, 209, 166, 224
-0.999682, 165, 225, 180, 240
-0.999684, 357, 137, 372, 152
-0.999688, 233, 195, 248, 210
-0.999689, 263, 117, 278, 132
-0.99969, 143, 199, 158, 214
-0.999691, 169, 231, 184, 246
-0.999694, 341, 175, 356, 190
-0.999694, 251, 125, 266, 140
-0.999696, 291, 127, 306, 142
-0.999701, 159, 219, 174, 234
-0.999707, 81, 237, 96, 252
-0.999712, 271, 119, 286, 134
-0.999713, 341, 147, 356, 162
-0.999717, 359, 129, 374, 144
-0.99972, 351, 143, 366, 158
-0.999733, 255, 119, 270, 134
-0.999802, 453, 1, 484, 256
-0.999846, 465, 1, 496, 256
-0.99988, 129, 313, 256, 375
-0.999898, 13, 129, 44, 375
-0.99995, 1, 25, 500, 88
-1.00007, 33, 33, 64, 288
-1.00008, 53, 33, 84, 288
-1.0001, 129, 289, 384, 352
-1.00012, 73, 1, 104, 256
-1.00028, 9, 1, 40, 256
-1.00029, 21, 33, 52, 288
-1.00041, 161, 313, 416, 375
-1.00042, 149, 1, 180, 256
-1.00045, 1, 289, 500, 352
-1.00059, 353, 225, 416, 352
-1.00061, 1, 49, 500, 112
-1.00091, 1, 313, 500, 375
-1.00659, 289, 241, 352, 368
