1966
-0.28897, 1, 1, 500, 375
-0.343185, 1, 33, 500, 288
-0.408659, 193, 1, 448, 375
-0.488894, 97, 1, 352, 375
-0.540396, 1, 129, 500, 375
-0.630612, 193, 1, 448, 256
-0.700829, 97, 33, 352, 288
-0.72773, 33, 129, 288, 375
-0.788666, 1, 1, 256, 375
-0.821103, 257, 97, 500, 352
-0.822864, 129, 129, 384, 375
-0.8578, 289, 1, 416, 256
-0.860584, 209, 1, 336, 375
-0.864827, 145, 1, 272, 375
-0.870457, 273, 1, 400, 375
-0.880124, 337, 1, 464, 256
-0.88098, 321, 1, 448, 375
-0.885466, 161, 33, 288, 288
-0.899145, 241, 33, 368, 288
-0.900436, 1, 97, 500, 224
-0.903983, 1, 17, 500, 144
-0.904823, 97, 1, 224, 375
-0.905599, 113, 33, 240, 288
-0.90986, 65, 129, 192, 375
-0.913905, 289, 97, 416, 352
-0.91398, 353, 97, 480, 352
-0.916926, 113, 129, 240, 375
-0.91936, 1, 33, 256, 288
-0.92067, 1, 193, 500, 320
-0.92333, 1, 241, 500, 368
-0.924218, 193, 129, 320, 375
-0.925237, 17, 129, 144, 375
-0.926195, 193, 17, 448, 144
-0.92715, 1, 145, 500, 272
-0.930054, 161, 1, 288, 128
-0.930244, 241, 129, 368, 375
-0.934342, 369, 1, 496, 375
-0.93601, 185, 1, 248, 128
-0.93993, 33, 177, 288, 304
-0.940753, 1, 1, 128, 375
-0.941103, 353, 1, 480, 128
-0.942551, 161, 1, 224, 128
-0.942856, 369, 1, 432, 128
-0.943688, 289, 17, 416, 144
-0.943767, 33, 225, 288, 352
-0.94473, 225, 177, 480, 304
-0.94688, 49, 1, 176, 375
-0.948059, 177, 49, 240, 112
-0.948245, 225, 97, 480, 224
-0.952563, 97, 33, 352, 160
-0.952579, 169, 49, 232, 176
-0.953237, 129, 145, 384, 272
-0.954312, 345, 1, 408, 128
-0.954982, 313, 17, 376, 144
-0.955339, 1, 241, 128, 368
-0.955667, 33, 113, 288, 240
-0.956232, 209, 1, 272, 128
-0.956667, 177, 49, 304, 176
-0.95738, 49, 225, 176, 352
-0.957884, 305, 177, 432, 304
-0.959444, 65, 209, 128, 336
-0.960214, 193, 49, 256, 176
-0.960684, 153, 41, 216, 104
-0.960912, 409, 1, 472, 128
-0.961754, 129, 225, 384, 352
-0.961988, 177, 25, 240, 88
-0.962357, 65, 33, 192, 288
-0.962416, 89, 177, 152, 304
-0.962864, 129, 49, 256, 176
-0.963136, 257, 145, 384, 272
-0.963688, 273, 33, 336, 160
-0.963852, 209, 1, 336, 128
-0.964417, 305, 65, 432, 192
-0.964694, 209, 193, 336, 320
-0.964802, 33, 177, 160, 304
-0.965119, 97, 193, 224, 320
-0.965287, 185, 1, 248, 64
-0.965568, 1, 33, 128, 288
-0.965654, 17, 225, 80, 352
-0.966552, 393, 97, 456, 224
-0.966751, 41, 241, 104, 368
-0.966936, 161, 73, 224, 136
-0.967105, 113, 1, 240, 128
-0.967202, 353, 145, 480, 272
-0.967285, 49, 257, 112, 320
-0.967549, 329, 25, 392, 88
-0.967684, 145, 65, 208, 192
-0.967789, 17, 289, 80, 352
-0.967882, 73, 233, 136, 296
-0.96853, 209, 1, 240, 128
-0.968886, 201, 25, 264, 88
-0.96889, 105, 225, 168, 352
-0.969142, 161, 225, 288, 352
-0.969653, 201, 49, 264, 112
-0.969667, 205, 33, 236, 96
-0.969681, 305, 33, 368, 96
-0.969709, 145, 177, 272, 304
-0.969804, 161, 1, 224, 64
-0.969956, 241, 193, 304, 320
-0.970287, 225, 49, 288, 176
-0.97038, 65, 161, 128, 288
-0.970553, 369, 113, 432, 240
-0.970553, 361, 161, 424, 288
-0.970845, 257, 209, 384, 336
-0.970882, 185, 49, 216, 112
-0.97097, 377, 1, 440, 256
-0.971257, 329, 177, 392, 304
-0.97157, 249, 33, 312, 160
-0.971645, 189, 1, 220, 128
-0.972473, 281, 41, 344, 104
-0.97275, 289, 193, 352, 320
-0.972799, 129, 97, 384, 224
-0.972853, 225, 49, 352, 176
-0.972969, 177, 33, 240, 288
-0.97297, 209, 145, 336, 272
-0.973014, 65, 113, 192, 240
-0.973058, 89, 129, 152, 256
-0.973259, 369, 65, 432, 192
-0.973376, 241, 209, 304, 272
-0.973464, 145, 193, 208, 320
-0.973465, 305, 113, 432, 240
-0.973605, 353, 17, 416, 80
-0.973864, 97, 241, 224, 368
-0.973908, 361, 177, 424, 240
-0.973947, 209, 177, 272, 304
-0.974073, 265, 145, 328, 272
-0.974491, 193, 1, 224, 64
-0.974564, 425, 1, 488, 64
-0.974698, 113, 233, 176, 296
-0.974699, 373, 1, 404, 128
-0.974721, 221, 1, 252, 64
-0.974828, 177, 33, 208, 160
-0.974971, 49, 289, 112, 352
-0.975001, 201, 225, 264, 352
-0.975032, 173, 9, 204, 72
-0.975175, 73, 273, 136, 336
-0.975197, 137, 9, 200, 72
-0.975275, 1, 1, 256, 128
-0.975304, 353, 65, 480, 192
-0.975389, 161, 25, 288, 88
-0.975704, 353, 1, 416, 256
-0.975949, 289, 129, 352, 256
-0.975954, 249, 49, 312, 112
-0.976087, 89, 193, 152, 256
-0.976128, 169, 193, 232, 320
-0.976132, 201, 1, 264, 256
-0.97635, 225, 57, 288, 120
-0.976501, 121, 177, 184, 304
-0.976525, 393, 145, 456, 272
-0.976623, 177, 57, 304, 120
-0.976742, 137, 1, 200, 128
-0.976999, 385, 9, 448, 72
-0.977004, 189, 25, 220, 88
-0.977009, 257, 97, 384, 224
-0.977022, 225, 225, 480, 352
-0.977057, 65, 169, 128, 232
-0.977059, 113, 113, 176, 240
-0.977163, 305, 209, 368, 272
-0.977225, 337, 129, 400, 256
-0.977465, 345, 49, 408, 176
-0.977561, 41, 313, 104, 375
-0.977602, 265, 225, 328, 288
-0.977689, 193, 73, 256, 136
-0.977689, 105, 265, 168, 328
-0.977714, 329, 201, 392, 264
-0.977753, 361, 65, 424, 128
-0.977859, 393, 161, 456, 224
-0.977921, 9, 313, 72, 375
-0.97805, 137, 233, 200, 296
-0.978308, 329, 1, 392, 256
-0.978314, 265, 209, 328, 336
-0.97835, 89, 169, 152, 232
-0.978467, 49, 193, 112, 256
-0.978671, 265, 193, 328, 256
-0.978737, 201, 249, 264, 312
-0.978832, 321, 169, 384, 232
-0.978848, 289, 1, 352, 256
-0.978869, 41, 145, 104, 272
-0.97912, 225, 41, 352, 104
-0.979181, 113, 97, 240, 224
-0.979188, 137, 65, 200, 128
-0.979362, 97, 177, 128, 304
-0.97937, 201, 217, 264, 280
-0.97938, 241, 233, 304, 296
-0.979537, 61, 241, 92, 368
-0.979598, 17, 265, 80, 328
-0.979636, 1, 257, 128, 320
-0.979803, 329, 49, 392, 112
-0.97987, 241, 145, 304, 272
-0.979934, 289, 25, 416, 88
-0.980013, 401, 113, 464, 176
-0.980112, 189, 49, 220, 176
-0.980192, 113, 161, 176, 224
-0.980247, 225, 1, 256, 128
-0.980292, 337, 25, 368, 88
-0.980313, 49, 273, 176, 336
-0.980452, 161, 233, 224, 296
-0.980457, 209, 1, 272, 64
-0.980483, 153, 33, 216, 288
-0.980574, 257, 33, 320, 288
-0.980947, 89, 233, 120, 296
-0.980973, 417, 113, 480, 240
-0.981102, 145, 1, 272, 64
-0.981118, 165, 65, 196, 192
-0.98123, 201, 1, 264, 375
-0.981263, 145, 137, 208, 200
-0.981267, 57, 257, 88, 320
-0.981314, 97, 129, 160, 375
-0.981425, 57, 129, 120, 375
-0.98152, 361, 17, 392, 144
-0.981619, 393, 1, 424, 128
-0.98168, 401, 89, 464, 152
-0.981816, 1, 305, 128, 368
-0.981837, 209, 9, 240, 72
-0.981851, 17, 129, 144, 256
-0.982021, 121, 49, 184, 176
-0.982057, 337, 17, 464, 80
-0.98206, 145, 129, 208, 256
-0.982071, 93, 185, 124, 248
-0.982074, 177, 73, 208, 136
-0.982119, 81, 241, 208, 304
-0.982123, 321, 17, 352, 144
-0.982177, 65, 113, 128, 240
-0.982263, 345, 145, 408, 208
-0.982284, 257, 217, 384, 280
-0.982331, 161, 241, 224, 368
-0.982441, 349, 17, 380, 144
-0.982443, 313, 129, 376, 256
-0.982495, 49, 217, 112, 280
-0.982517, 289, 81, 352, 208
-0.982625, 321, 185, 448, 248
-0.982628, 177, 209, 240, 272
-0.98276, 17, 177, 80, 304
-0.982767, 257, 177, 384, 240
-0.982923, 193, 1, 320, 64
-0.98293, 321, 25, 352, 88
-0.982977, 9, 241, 72, 304
-0.983033, 365, 17, 396, 80
-0.98312, 209, 97, 336, 224
-0.983148, 165, 1, 196, 128
-0.983231, 1, 65, 256, 192
-0.983256, 217, 193, 280, 256
-0.9833, 113, 25, 240, 88
-0.98335, 305, 145, 432, 208
-0.983354, 177, 1, 240, 375
-0.983474, 165, 33, 196, 96
-0.983478, 73, 145, 136, 208
-0.983578, 217, 57, 248, 120
-0.983657, 225, 1, 288, 375
-0.983732, 201, 49, 232, 176
-0.983779, 377, 89, 440, 152
-0.983852, 429, 1, 460, 128
-0.983877, 129, 49, 256, 112
-0.984001, 41, 193, 104, 320
-0.984175, 349, 17, 380, 80
-0.984293, 145, 1, 208, 375
-0.984309, 305, 33, 336, 160
-0.984327, 441, 1, 472, 64
-0.984345, 209, 233, 336, 296
-0.984346, 433, 1, 496, 128
-0.984413, 165, 65, 196, 128
-0.984454, 417, 1, 448, 128
-0.984523, 297, 185, 360, 248
-0.984633, 73, 297, 136, 360
-0.984691, 345, 1, 408, 375
-0.984694, 129, 105, 192, 168
-0.984708, 193, 201, 320, 264
-0.984726, 405, 1, 436, 128
-0.984791, 129, 73, 256, 136
-0.984823, 101, 161, 132, 224
-0.984836, 161, 249, 288, 312
-0.984864, 401, 1, 464, 256
-0.984986, 265, 1, 328, 375
-0.985071, 97, 265, 224, 328
-0.98514, 289, 1, 352, 375
-0.985151, 113, 137, 176, 200
-0.985179, 185, 161, 248, 224
-0.985196, 101, 241, 132, 304
-0.985334, 145, 257, 208, 320
-0.985339, 81, 49, 208, 176
-0.985388, 321, 1, 384, 375
-0.985404, 1, 281, 128, 344
-0.985405, 369, 137, 432, 200
-0.985532, 353, 121, 480, 184
-0.985565, 225, 25, 288, 88
-0.985618, 273, 121, 336, 184
-0.985628, 177, 257, 240, 320
-0.985689, 285, 33, 316, 160
-0.985716, 77, 193, 108, 320
-0.985732, 129, 65, 192, 320
-0.98575, 441, 1, 472, 128
-0.985781, 305, 57, 432, 120
-0.985797, 229, 25, 260, 88
-0.98583, 309, 33, 340, 96
-0.985855, 129, 225, 256, 288
-0.985958, 153, 209, 216, 272
-0.986021, 193, 73, 224, 136
-0.986044, 337, 17, 368, 144
-0.986138, 109, 177, 140, 304
-0.986239, 97, 225, 128, 352
-0.98649, 289, 81, 352, 144
-0.986547, 161, 129, 288, 256
-0.98657, 57, 313, 88, 375
-0.986576, 369, 129, 432, 375
-0.986604, 233, 33, 296, 288
-0.986618, 33, 233, 160, 296
-0.98674, 105, 113, 168, 176
-0.986747, 165, 89, 196, 152
-0.986868, 49, 241, 80, 368
-0.986888, 261, 209, 292, 272
-0.986912, 425, 97, 456, 224
-0.986951, 121, 209, 184, 272
-0.987004, 269, 33, 300, 160
-0.987007, 417, 145, 480, 208
-0.98707, 209, 241, 336, 368
-0.987083, 129, 41, 192, 104
-0.987101, 5, 273, 36, 336
-0.987237, 117, 233, 148, 296
-0.987266, 305, 209, 432, 272
-0.987405, 185, 145, 248, 272
-0.98751, 213, 49, 244, 176
-0.987589, 249, 81, 312, 208
-0.987628, 385, 161, 416, 288
-0.98776, 249, 129, 312, 375
-0.987774, 101, 113, 132, 240
-0.987804, 369, 169, 496, 232
-0.987812, 289, 41, 320, 104
-0.987814, 65, 185, 192, 248
-0.987883, 177, 49, 240, 80
-0.987918, 393, 49, 456, 176
-0.988012, 281, 161, 312, 288
-0.988014, 161, 97, 224, 160
-0.988054, 229, 57, 260, 120
-0.988092, 353, 97, 480, 160
-0.9882, 329, 105, 392, 168
-0.988218, 393, 9, 424, 72
-0.988237, 365, 193, 396, 256
-0.988243, 249, 97, 312, 160
-0.988271, 77, 257, 108, 320
-0.988302, 249, 209, 280, 272
-0.988322, 121, 177, 152, 304
-0.98837, 113, 169, 240, 232
-0.988395, 177, 5, 240, 36
-0.988398, 77, 289, 108, 352
-0.988407, 169, 129, 232, 192
-0.988429, 373, 177, 404, 304
-0.988531, 453, 1, 484, 64
-0.988536, 229, 49, 260, 176
-0.988542, 81, 185, 112, 248
-0.988577, 81, 137, 208, 200
-0.988664, 401, 113, 432, 240
-0.988679, 249, 193, 280, 320
-0.98868, 321, 201, 352, 264
-0.988721, 209, 97, 272, 352
-0.988754, 145, 241, 176, 304
-0.988769, 429, 1, 460, 64
-0.988816, 33, 209, 160, 272
-0.988817, 377, 177, 408, 240
-0.988821, 377, 113, 440, 176
-0.988822, 17, 177, 144, 240
-0.988868, 297, 105, 360, 168
-0.988884, 289, 105, 416, 168
-0.988897, 177, 61, 240, 92
-0.98892, 81, 153, 112, 216
-0.988943, 225, 225, 256, 288
-0.989059, 57, 281, 88, 344
-0.989089, 405, 9, 436, 72
-0.989098, 217, 129, 280, 256
-0.989136, 9, 217, 72, 280
-0.989166, 413, 81, 444, 208
-0.989199, 353, 201, 416, 264
-0.989224, 261, 209, 292, 336
-0.989237, 121, 225, 152, 352
-0.989295, 113, 161, 144, 224
-0.989307, 65, 297, 192, 360
-0.989307, 101, 209, 132, 272
-0.989418, 321, 129, 384, 192
-0.989428, 73, 145, 104, 272
-0.989431, 401, 97, 464, 352
-0.989482, 369, 1, 432, 375
-0.989485, 205, 57, 236, 120
-0.989532, 145, 97, 272, 160
-0.989546, 205, 225, 236, 288
-0.989554, 133, 233, 164, 296
-0.989557, 273, 81, 400, 144
-0.989573, 397, 73, 428, 136
-0.989575, 113, 257, 144, 320
-0.989582, 425, 121, 488, 184
-0.989644, 297, 225, 328, 288
-0.989647, 373, 113, 404, 240
-0.989668, 177, 29, 240, 60
-0.989668, 361, 177, 392, 304
-0.989683, 321, 161, 352, 288
-0.989733, 109, 241, 140, 368
-0.989743, 333, 201, 364, 264
-0.989764, 89, 273, 120, 336
-0.98981, 353, 105, 416, 168
-0.989859, 377, 49, 408, 176
-0.989866, 97, 1, 224, 64
-0.989867, 377, 17, 408, 80
-0.989869, 73, 241, 104, 368
-0.989876, 149, 225, 180, 352
-0.989887, 305, 9, 368, 72
-0.989922, 313, 65, 376, 192
-0.989982, 137, 241, 200, 368
-0.989993, 61, 193, 92, 320
-0.990009, 153, 41, 216, 72
-0.990058, 297, 97, 360, 352
-0.990075, 177, 77, 240, 108
-0.990082, 153, 61, 216, 92
-0.990083, 281, 193, 312, 256
-0.990085, 113, 185, 176, 248
-0.990108, 345, 209, 376, 272
-0.990113, 289, 153, 352, 216
-0.990149, 281, 225, 312, 288
-0.990217, 257, 129, 384, 192
-0.990231, 77, 233, 108, 296
-0.99024, 273, 129, 336, 375
-0.990258, 289, 37, 352, 68
-0.99027, 161, 169, 288, 232
-0.99033, 337, 177, 368, 304
-0.990341, 201, 49, 264, 80
-0.990372, 169, 233, 200, 296
-0.990373, 465, 1, 496, 64
-0.990377, 81, 113, 208, 176
-0.990383, 185, 17, 248, 48
-0.990395, 161, 129, 224, 375
-0.990413, 313, 81, 376, 144
-0.990422, 201, 65, 264, 96
-0.990439, 389, 169, 420, 232
-0.990443, 101, 265, 132, 328
-0.990445, 225, 57, 288, 88
-0.990446, 225, 177, 256, 304
-0.990447, 145, 201, 272, 264
-0.990492, 65, 161, 192, 224
-0.990496, 417, 9, 448, 72
-0.990498, 241, 1, 272, 128
-0.99054, 265, 45, 328, 76
-0.990543, 41, 169, 104, 232
-0.990571, 161, 9, 192, 72
-0.990659, 225, 65, 352, 128
-0.990667, 277, 41, 308, 104
-0.990688, 209, 13, 272, 44
-0.990734, 345, 97, 408, 352
-0.990735, 249, 153, 312, 216
-0.990744, 57, 265, 120, 296
-0.990756, 349, 193, 380, 320
-0.990779, 257, 49, 288, 112
-0.990786, 289, 209, 320, 336
-0.990795, 369, 57, 400, 120
-0.990828, 17, 313, 80, 344
-0.990828, 185, 185, 248, 248
-0.99083, 153, 73, 216, 104
-0.990849, 1, 241, 32, 368
-0.990896, 257, 17, 320, 80
-0.990897, 73, 249, 136, 280
-0.990969, 153, 29, 216, 60
-0.991, 321, 29, 384, 60
-0.991038, 321, 97, 384, 352
-0.991052, 105, 269, 168, 300
-0.991053, 393, 137, 456, 200
-0.991055, 433, 1, 496, 32
-0.991074, 49, 277, 112, 308
-0.991075, 405, 161, 436, 224
-0.991083, 81, 209, 112, 272
-0.991085, 201, 253, 264, 284
-0.991103, 17, 293, 80, 324
-0.99114, 353, 73, 480, 136
-0.991194, 305, 217, 368, 248
-0.99125, 81, 65, 208, 128
-0.991275, 97, 177, 160, 208
-0.991301, 385, 13, 448, 44
-0.991314, 17, 269, 80, 300
-0.991322, 245, 57, 276, 120
-0.991377, 49, 293, 112, 324
-0.991394, 161, 17, 224, 48
-0.991409, 269, 145, 300, 272
-0.991421, 361, 17, 424, 48
-0.991431, 249, 237, 312, 268
-0.99144, 57, 181, 120, 212
-0.991457, 193, 129, 320, 192
-0.991487, 209, 89, 336, 152
-0.9915, 257, 49, 288, 176
-0.9915, 153, 81, 184, 208
-0.991503, 369, 181, 432, 212
-0.99155, 321, 189, 384, 220
-0.991612, 265, 225, 328, 256
-0.991615, 65, 237, 128, 268
-0.99163, 297, 201, 360, 232
-0.991641, 385, 65, 416, 128
-0.991643, 265, 209, 328, 240
-0.991649, 409, 9, 472, 40
-0.991649, 289, 49, 352, 80
-0.991684, 209, 25, 272, 56
-0.99169, 137, 225, 168, 352
-0.991697, 209, 249, 240, 312
-0.991702, 105, 257, 168, 288
-0.991705, 201, 233, 264, 264
-0.991711, 193, 41, 448, 104
-0.991711, 33, 325, 96, 356
-0.991726, 361, 169, 392, 232
-0.991741, 433, 65, 496, 192
-0.991749, 17, 281, 80, 312
-0.991749, 65, 169, 128, 200
-0.991749, 241, 225, 304, 256
-0.991791, 137, 257, 200, 288
-0.99186, 337, 209, 400, 240
-0.991875, 41, 305, 104, 336
-0.991882, 153, 145, 216, 176
-0.991891, 209, 137, 272, 200
-0.991894, 409, 81, 440, 144
-0.991901, 177, 241, 240, 272
-0.991931, 153, 185, 216, 248
-0.991945, 385, 169, 448, 200
-0.991951, 205, 49, 236, 80
-0.991956, 437, 121, 468, 184
-0.991961, 145, 5, 208, 36
-0.991969, 153, 85, 216, 116
-0.991969, 41, 345, 104, 375
-0.991972, 225, 245, 288, 276
-0.991979, 401, 117, 464, 148
-0.991986, 113, 161, 176, 192
-0.99199, 145, 121, 272, 184
-0.991995, 201, 77, 264, 108
-0.992014, 297, 193, 328, 256
-0.992014, 201, 1, 264, 32
-0.992025, 337, 177, 400, 208
-0.992029, 177, 261, 240, 292
-0.992033, 121, 97, 152, 224
-0.992039, 345, 197, 408, 228
-0.992045, 213, 193, 244, 320
-0.992046, 97, 237, 160, 268
-0.992055, 121, 133, 184, 164
-0.992096, 369, 81, 432, 112
-0.992105, 201, 37, 264, 68
-0.992114, 221, 9, 252, 40
-0.992137, 81, 261, 144, 292
-0.992145, 249, 121, 312, 184
-0.992151, 301, 193, 332, 320
-0.992161, 369, 153, 432, 184
-0.992162, 313, 53, 376, 84
-0.992177, 257, 153, 384, 216
-0.992192, 81, 189, 144, 220
-0.992209, 145, 273, 176, 336
-0.99222, 173, 17, 204, 48
-0.992234, 153, 161, 216, 224
-0.992242, 177, 89, 240, 120
-0.992242, 153, 269, 216, 300
-0.992244, 81, 277, 144, 308
-0.992263, 33, 257, 96, 288
-0.992264, 121, 1, 184, 375
-0.992273, 153, 97, 216, 128
-0.992283, 145, 169, 208, 200
-0.992294, 353, 137, 416, 168
-0.992302, 353, 65, 416, 96
-0.992304, 89, 225, 152, 256
-0.992305, 85, 129, 116, 256
-0.992313, 289, 229, 352, 260
-0.992314, 369, 145, 496, 208
-0.992314, 349, 145, 380, 272
-0.99233, 305, 57, 368, 120
-0.992337, 341, 177, 372, 240
-0.992354, 97, 125, 160, 156
-0.992366, 185, 53, 216, 84
-0.992369, 137, 177, 168, 304
-0.992372, 409, 157, 472, 188
-0.992376, 209, 177, 336, 240
-0.992389, 49, 193, 112, 224
-0.992395, 373, 153, 404, 216
-0.992395, 73, 289, 136, 320
-0.992423, 9, 257, 72, 288
-0.992432, 289, 85, 352, 116
-0.992438, 9, 325, 72, 356
-0.99244, 273, 209, 304, 336
-0.99244, 329, 133, 392, 164
-0.992445, 205, 37, 236, 68
-0.992448, 157, 177, 188, 304
-0.99246, 193, 33, 224, 64
-0.992488, 153, 213, 216, 244
-0.992489, 401, 141, 464, 172
-0.992489, 129, 229, 192, 260
-0.99249, 369, 193, 432, 224
-0.992502, 249, 57, 312, 88
-0.992506, 281, 9, 344, 72
-0.992513, 309, 201, 340, 264
-0.992518, 177, 169, 240, 200
-0.992523, 69, 177, 100, 240
-0.992537, 177, 73, 208, 104
-0.992541, 385, 101, 448, 132
-0.992549, 225, 205, 288, 236
-0.992551, 137, 109, 200, 140
-0.992559, 129, 145, 192, 176
-0.992564, 241, 1, 368, 64
-0.992569, 81, 209, 208, 272
-0.99258, 229, 249, 260, 312
-0.99258, 321, 145, 384, 176
-0.992581, 189, 1, 220, 32
-0.992581, 313, 37, 344, 68
-0.992602, 209, 153, 336, 216
-0.992606, 109, 169, 140, 200
-0.992608, 121, 121, 184, 152
-0.992611, 269, 233, 300, 296
-0.992624, 297, 129, 360, 192
-0.992625, 297, 145, 328, 272
-0.992629, 73, 157, 136, 188
-0.992629, 161, 225, 224, 256
-0.992636, 137, 17, 200, 48
-0.992639, 73, 121, 136, 184
-0.99264, 65, 317, 128, 348
-0.992652, 193, 65, 224, 96
-0.992662, 285, 97, 316, 160
-0.992664, 129, 57, 192, 88
-0.992665, 353, 125, 416, 156
-0.992665, 17, 129, 80, 375
-0.992677, 189, 225, 220, 288
-0.992693, 209, 61, 240, 92
-0.992696, 193, 225, 224, 352
-0.992697, 353, 165, 416, 196
-0.992709, 389, 113, 420, 240
-0.99271, 165, 193, 196, 256
-0.992735, 121, 245, 184, 276
-0.992737, 425, 113, 456, 176
-0.992741, 57, 225, 120, 256
-0.992741, 169, 157, 232, 188
-0.992758, 81, 201, 144, 232
-0.992761, 197, 13, 228, 44
-0.992772, 153, 241, 216, 272
-0.992773, 257, 193, 320, 224
-0.992774, 129, 69, 192, 100
-0.992778, 249, 121, 312, 152
-0.992791, 169, 89, 200, 120
-0.992791, 289, 157, 352, 188
-0.992797, 129, 273, 192, 304
-0.992806, 65, 305, 128, 336
-0.992808, 297, 45, 328, 76
-0.992814, 225, 69, 256, 100
-0.992815, 169, 5, 200, 36
-0.992837, 105, 189, 168, 220
-0.992856, 145, 129, 208, 160
-0.992861, 325, 33, 356, 64
-0.992863, 201, 221, 264, 252
-0.992867, 409, 169, 472, 200
-0.992873, 209, 5, 240, 36
-0.992874, 289, 141, 352, 172
-0.992882, 81, 145, 144, 176
-0.992884, 193, 177, 224, 304
-0.992884, 73, 341, 136, 372
-0.992886, 165, 77, 196, 108
-0.992889, 241, 185, 304, 248
-0.99289, 165, 33, 196, 64
-0.992894, 281, 185, 344, 216
-0.992914, 381, 185, 412, 216
-0.99292, 101, 181, 132, 212
-0.992925, 57, 257, 88, 288
-0.992927, 325, 205, 356, 236
-0.992931, 285, 81, 316, 208
-0.992935, 189, 77, 220, 108
-0.992937, 101, 253, 132, 284
-0.992944, 205, 77, 236, 108
-0.99296, 187, 41, 202, 104
-0.992972, 165, 65, 196, 96
-0.992993, 401, 173, 432, 204
-0.993009, 217, 21, 248, 52
-0.993031, 17, 153, 144, 216
-0.993036, 353, 193, 480, 320
-0.993042, 93, 193, 124, 224
-0.993043, 89, 233, 120, 264
-0.993057, 369, 193, 400, 224
-0.993062, 337, 29, 368, 60
-0.993081, 121, 253, 152, 284
-0.993089, 345, 213, 376, 244
-0.993096, 281, 221, 312, 252
-0.993097, 221, 57, 252, 88
-0.993098, 77, 297, 108, 328
-0.993099, 169, 53, 200, 84
-0.993099, 277, 49, 308, 80
-0.993104, 57, 325, 88, 356
-0.993106, 261, 221, 292, 252
-0.993113, 401, 13, 432, 44
-0.993115, 433, 9, 464, 40
-0.993116, 257, 73, 320, 136
-0.99312, 449, 5, 480, 36
-0.993128, 369, 21, 400, 52
-0.993134, 157, 233, 188, 296
-0.993143, 325, 221, 356, 252
-0.993148, 313, 213, 344, 244
-0.993148, 93, 277, 124, 308
-0.993151, 77, 273, 108, 304
-0.993151, 385, 17, 416, 48
-0.993163, 349, 25, 380, 56
-0.993164, 145, 145, 272, 208
-0.993175, 321, 49, 352, 80
-0.99318, 241, 61, 272, 92
-0.993181, 297, 225, 328, 256
-0.993181, 117, 265, 148, 296
-0.993186, 273, 233, 304, 264
-0.993207, 57, 285, 88, 316
-0.993207, 413, 145, 444, 272
-0.993208, 61, 337, 92, 368
-0.993209, 253, 57, 284, 88
-0.993224, 369, 61, 400, 92
-0.993226, 233, 249, 264, 280
-0.993229, 417, 165, 448, 196
-0.99323, 89, 161, 120, 192
-0.993233, 181, 41, 212, 72
-0.993234, 265, 49, 296, 80
-0.993235, 213, 253, 244, 284
-0.99324, 101, 241, 132, 272
-0.993246, 161, 17, 192, 48
-0.993248, 229, 237, 260, 268
-0.993248, 285, 233, 316, 264
-0.993255, 121, 165, 152, 196
-0.993256, 397, 77, 428, 108
-0.993257, 421, 9, 452, 40
-0.993268, 85, 181, 116, 212
-0.99327, 249, 233, 280, 296
-0.993271, 177, 81, 208, 208
-0.993275, 89, 245, 120, 276
-0.993275, 209, 241, 240, 272
-0.993284, 241, 49, 272, 176
-0.993286, 229, 225, 260, 352
-0.993288, 181, 29, 212, 60
-0.993291, 357, 201, 388, 232
-0.993291, 233, 49, 264, 80
-0.993295, 117, 241, 148, 272
-0.993298, 5, 289, 36, 320
-0.993309, 57, 309, 88, 340
-0.993313, 157, 93, 188, 124
-0.993313, 313, 225, 344, 256
-0.993318, 149, 265, 180, 296
-0.993337, 193, 261, 224, 292
-0.993343, 65, 177, 96, 208
-0.993344, 141, 277, 172, 308
-0.993348, 157, 229, 188, 260
-0.993356, 301, 33, 332, 64
-0.993356, 185, 241, 216, 272
-0.993359, 169, 213, 200, 244
-0.993362, 101, 225, 132, 256
-0.993368, 205, 25, 236, 56
-0.993369, 153, 145, 184, 176
-0.993371, 285, 93, 316, 124
-0.993372, 105, 273, 136, 304
-0.993378, 249, 229, 280, 260
-0.993379, 61, 273, 92, 304
-0.99338, 425, 109, 456, 140
-0.993383, 113, 181, 144, 212
-0.993384, 129, 265, 160, 296
-0.993386, 149, 133, 180, 164
-0.993389, 337, 53, 368, 84
-0.993396, 201, 161, 232, 192
-0.993398, 461, 1, 492, 32
-0.993407, 49, 297, 80, 328
-0.993407, 1, 273, 32, 304
-0.99341, 77, 197, 108, 228
-0.993411, 9, 313, 40, 375
-0.993415, 245, 241, 276, 272
-0.993416, 25, 193, 88, 256
-0.993416, 285, 105, 316, 136
-0.993418, 337, 129, 368, 256
-0.993419, 345, 193, 376, 224
-0.993421, 117, 117, 148, 148
-0.993422, 217, 37, 248, 68
-0.993423, 57, 177, 88, 240
-0.993427, 129, 265, 160, 328
-0.993428, 185, 17, 216, 48
-0.993431, 241, 13, 272, 44
-0.993432, 381, 65, 412, 96
-0.993433, 197, 225, 228, 256
-0.993434, 197, 245, 228, 276
-0.993444, 61, 245, 92, 276
-0.993444, 69, 285, 100, 316
-0.993444, 25, 297, 56, 328
-0.99345, 145, 225, 176, 256
-0.99345, 297, 85, 328, 116
-0.993451, 301, 213, 332, 244
-0.993453, 369, 177, 400, 208
-0.993454, 81, 209, 112, 240
-0.993461, 183, 1, 198, 64
-0.993463, 211, 33, 226, 96
-0.993479, 397, 161, 428, 288
-0.993493, 57, 233, 88, 296
-0.993531, 337, 49, 368, 112
-0.993538, 41, 193, 72, 320
-0.993562, 317, 209, 348, 336
-0.99357, 21, 225, 52, 352
-0.993606, 329, 1, 392, 64
-0.993618, 211, 9, 226, 72
-0.993671, 213, 241, 244, 368
-0.993696, 237, 177, 268, 304
-0.993762, 97, 1, 160, 375
-0.993779, 157, 257, 188, 320
-0.993813, 153, 137, 184, 200
-0.993837, 65, 217, 320, 280
-0.993885, 153, 89, 184, 152
-0.993902, 1, 145, 500, 208
-0.993918, 169, 193, 200, 320
-0.993935, 421, 153, 452, 216
-0.993941, 433, 89, 496, 152
-0.993973, 289, 1, 416, 64
-0.994003, 85, 241, 116, 368
-0.994024, 349, 49, 380, 112
-0.994051, 89, 81, 152, 208
-0.994071, 409, 137, 440, 200
-0.994129, 193, 145, 224, 208
-0.99414, 161, 13, 288, 44
-0.994148, 121, 137, 152, 200
-0.994179, 437, 97, 468, 224
-0.994239, 161, 1, 416, 64
-0.994254, 393, 1, 456, 375
-0.994305, 49, 145, 112, 208
-0.994347, 145, 281, 208, 344
-0.994353, 17, 289, 48, 352
-0.994365, 393, 65, 424, 192
-0.99439, 289, 233, 352, 296
-0.994402, 93, 137, 124, 200
-0.994451, 337, 81, 400, 144
-0.994475, 177, 97, 240, 224
-0.994494, 209, 161, 272, 224
-0.994505, 33, 265, 288, 328
-0.994587, 253, 145, 284, 272
-0.994605, 185, 129, 248, 375
-0.994661, 179, 57, 194, 120
-0.994687, 169, 113, 200, 176
-0.994699, 145, 217, 176, 280
-0.994701, 149, 33, 180, 160
-0.994722, 153, 113, 184, 176
-0.994742, 97, 49, 352, 112
-0.994747, 393, 145, 424, 208
-0.994752, 257, 105, 500, 168
-0.994826, 177, 9, 192, 72
-0.994867, 105, 185, 136, 248
-0.994873, 181, 177, 212, 304
-0.994888, 213, 177, 244, 240
-0.99489, 293, 73, 324, 136
-0.99498, 161, 273, 288, 336
-0.994981, 41, 241, 72, 304
-0.994993, 409, 113, 440, 176
-0.995011, 369, 41, 496, 104
-0.995015, 33, 129, 160, 192
-0.995025, 193, 153, 448, 216
-0.995067, 1, 265, 128, 296
-0.99507, 325, 177, 356, 240
-0.995089, 421, 89, 452, 152
-0.995093, 377, 113, 408, 176
-0.995099, 217, 9, 232, 72
-0.995102, 305, 225, 432, 352
-0.995118, 181, 177, 212, 240
-0.995118, 185, 201, 216, 264
-0.995119, 241, 49, 368, 80
-0.995133, 233, 241, 296, 368
-0.995145, 149, 129, 180, 256
-0.995157, 221, 49, 236, 112
-0.995167, 133, 113, 164, 176
-0.99518, 65, 1, 192, 128
-0.995238, 129, 73, 384, 136
-0.995275, 45, 289, 76, 352
-0.995296, 285, 137, 316, 200
-0.995301, 33, 177, 288, 240
-0.995308, 217, 81, 280, 144
-0.995337, 153, 57, 184, 120
-0.995344, 453, 1, 484, 128
-0.995376, 257, 17, 500, 80
-0.995395, 193, 29, 320, 60
-0.995443, 273, 97, 304, 160
-0.99547, 227, 49, 242, 112
-0.9955, 201, 49, 216, 112
-0.995502, 97, 241, 352, 304
-0.995555, 193, 113, 256, 176
-0.995564, 129, 97, 384, 160
-0.995574, 1, 81, 128, 208
-0.995576, 169, 273, 200, 336
-0.995596, 65, 273, 192, 304
-0.995603, 189, 249, 220, 312
-0.995615, 1, 65, 500, 128
-0.995618, 191, 65, 206, 128
-0.995622, 57, 1, 120, 375
-0.995623, 341, 25, 356, 88
-0.995623, 33, 145, 288, 208
-0.995665, 161, 41, 288, 72
-0.995673, 365, 65, 396, 192
-0.995673, 161, 241, 192, 368
-0.995683, 137, 97, 168, 224
-0.995712, 361, 17, 376, 80
-0.995716, 333, 25, 348, 88
-0.995737, 173, 153, 204, 216
-0.995758, 409, 65, 472, 128
-0.995766, 117, 201, 148, 264
-0.995773, 385, 65, 448, 128
-0.995778, 445, 1, 460, 64
-0.995784, 347, 25, 362, 88
-0.995813, 161, 61, 288, 92
-0.995818, 225, 209, 480, 272
-0.995833, 305, 81, 336, 208
-0.995843, 257, 201, 384, 232
-0.99587, 63, 257, 78, 320
-0.995913, 209, 217, 336, 248
-0.995914, 1, 209, 500, 272
-0.995918, 57, 145, 88, 272
-0.995919, 353, 41, 416, 104
-0.995922, 33, 25, 288, 88
-0.995932, 369, 9, 496, 40
-0.995936, 129, 193, 384, 256
-0.995947, 367, 17, 382, 80
-0.995949, 33, 289, 288, 352
-0.995951, 225, 65, 480, 128
-0.995957, 353, 25, 368, 88
-0.995975, 273, 221, 400, 252
-0.99598, 1, 281, 128, 312
-0.996048, 225, 177, 480, 240
-0.996058, 309, 145, 340, 272
-0.996068, 17, 153, 80, 216
-0.996124, 99, 233, 114, 296
-0.996128, 193, 233, 448, 296
-0.996138, 81, 89, 208, 152
-0.996154, 97, 185, 112, 248
-0.996187, 1, 241, 256, 304
-0.99623, 321, 17, 448, 48
-0.996231, 1, 41, 500, 104
-0.996238, 179, 81, 194, 144
-0.996252, 425, 145, 456, 272
-0.996274, 113, 5, 240, 36
-0.996314, 225, 129, 480, 192
-0.996317, 271, 209, 286, 272
-0.996325, 235, 1, 250, 64
-0.996335, 113, 65, 240, 96
-0.99634, 113, 25, 240, 56
-0.996354, 373, 17, 388, 80
-0.996356, 381, 17, 396, 80
-0.996357, 273, 97, 304, 224
-0.996358, 171, 17, 186, 80
-0.996384, 17, 281, 32, 344
-0.996403, 425, 65, 488, 320
-0.99642, 129, 121, 384, 184
-0.996449, 161, 77, 288, 108
-0.99646, 81, 261, 208, 292
-0.996482, 1, 185, 500, 248
-0.996504, 333, 193, 348, 256
-0.996535, 225, 229, 352, 260
-0.996549, 223, 1, 238, 64
-0.99655, 1, 105, 500, 168
-0.996557, 1, 317, 128, 348
-0.996566, 389, 1, 420, 256
-0.996583, 1, 17, 500, 80
-0.996586, 211, 37, 226, 68
-0.996587, 205, 1, 236, 256
-0.99659, 451, 1, 466, 64
-0.996599, 171, 81, 186, 144
-0.996605, 241, 17, 256, 80
-0.996611, 117, 161, 132, 224
-0.996639, 185, 73, 200, 136
-0.996648, 313, 33, 328, 96
-0.996662, 111, 169, 126, 232
-0.996691, 97, 33, 160, 288
-0.996699, 193, 1, 208, 64
-0.996711, 405, 1, 436, 256
-0.996713, 325, 113, 356, 240
-0.996754, 225, 113, 288, 176
-0.996757, 93, 233, 108, 296
-0.996765, 111, 249, 126, 312
-0.996785, 169, 1, 200, 256
-0.996791, 95, 209, 110, 272
-0.996812, 459, 1, 474, 64
-0.996815, 305, 29, 432, 60
-0.996824, 193, 25, 208, 88
-0.996834, 305, 209, 432, 240
-0.996838, 399, 9, 414, 72
-0.996844, 209, 241, 336, 272
-0.996844, 33, 1, 288, 64
-0.996855, 145, 233, 272, 264
-0.996863, 73, 257, 88, 320
-0.996864, 439, 1, 454, 64
-0.996867, 105, 241, 120, 304
-0.996872, 161, 1, 288, 32
-0.996879, 57, 281, 72, 344
-0.996885, 387, 17, 402, 80
-0.996894, 293, 41, 308, 104
-0.996904, 181, 225, 212, 352
-0.996904, 305, 41, 320, 104
-0.996908, 177, 33, 192, 96
-0.996913, 187, 73, 202, 104
-0.996918, 71, 297, 86, 360
-0.996925, 209, 145, 240, 272
-0.996931, 173, 129, 204, 256
-0.996936, 171, 41, 186, 104
-0.996941, 207, 73, 222, 136
-0.996942, 361, 113, 392, 240
-0.996948, 205, 1, 220, 64
-0.996948, 257, 37, 384, 68
-0.996951, 97, 165, 224, 196
-0.996951, 209, 65, 336, 96
-0.996961, 327, 25, 342, 88
-0.996985, 409, 9, 424, 72
-0.996995, 1, 305, 128, 336
-0.996996, 471, 1, 486, 64
-0.996998, 81, 297, 96, 360
-0.997001, 377, 41, 440, 104
-0.997005, 323, 201, 338, 264
-0.997025, 265, 209, 280, 272
-0.99703, 103, 177, 118, 240
-0.997034, 319, 33, 334, 96
-0.997045, 375, 193, 390, 256
-0.997052, 201, 25, 216, 88
-0.997071, 185, 17, 200, 48
-0.997073, 79, 257, 94, 320
-0.997076, 373, 1, 404, 256
-0.99709, 129, 257, 256, 288
-0.997091, 289, 177, 416, 208
-0.997131, 431, 9, 446, 72
-0.997132, 129, 305, 256, 368
-0.997134, 33, 313, 288, 375
-0.997137, 57, 305, 72, 368
-0.997141, 249, 57, 264, 120
-0.997143, 353, 133, 480, 164
-0.997153, 369, 181, 496, 212
-0.997164, 415, 9, 430, 72
-0.997165, 65, 33, 192, 96
-0.997172, 339, 193, 354, 256
-0.997181, 305, 65, 432, 96
-0.997204, 393, 9, 408, 72
-0.997225, 465, 1, 480, 64
-0.997225, 421, 9, 436, 72
-0.997233, 1, 293, 128, 324
-0.997235, 121, 233, 136, 296
-0.997239, 219, 249, 234, 312
-0.997245, 321, 149, 448, 180
-0.997251, 301, 225, 316, 288
-0.997257, 183, 5, 198, 36
-0.997259, 159, 241, 174, 304
-0.997264, 201, 73, 216, 136
-0.997265, 137, 233, 152, 296
-0.997301, 409, 73, 424, 136
-0.997305, 267, 49, 282, 112
-0.997322, 305, 1, 336, 256
-0.997327, 49, 301, 176, 332
-0.997333, 179, 73, 194, 104
-0.997337, 337, 217, 352, 280
-0.99734, 177, 253, 304, 284
-0.997345, 361, 1, 392, 256
-0.997348, 387, 185, 402, 248
-0.997354, 273, 49, 288, 112
-0.997362, 233, 9, 248, 40
-0.99737, 187, 49, 202, 80
-0.997375, 369, 193, 384, 256
-0.997395, 221, 53, 236, 84
-0.997405, 241, 17, 368, 48
-0.997406, 193, 33, 224, 288
-0.997417, 299, 41, 314, 104
-0.997428, 65, 177, 192, 208
-0.99743, 225, 249, 240, 312
-0.997432, 441, 113, 456, 176
-0.997434, 1, 97, 128, 160
-0.997435, 287, 41, 302, 104
-0.997437, 237, 225, 252, 288
-0.997437, 337, 117, 464, 148
-0.99744, 223, 5, 238, 36
-0.997454, 395, 177, 410, 240
-0.997457, 33, 253, 160, 284
-0.99747, 305, 189, 432, 220
-0.997472, 89, 201, 104, 264
-0.997476, 433, 1, 496, 375
-0.997482, 211, 9, 226, 40
-0.997486, 305, 161, 432, 192
-0.997497, 209, 205, 336, 236
-0.997499, 293, 225, 308, 288
-0.997504, 369, 169, 496, 200
-0.997508, 391, 65, 406, 128
-0.997518, 349, 1, 380, 256
-0.997525, 129, 269, 256, 300
-0.997532, 233, 65, 248, 128
-0.997535, 281, 233, 296, 296
-0.997539, 221, 1, 252, 256
-0.997542, 257, 189, 384, 220
-0.997543, 131, 241, 146, 304
-0.997548, 1, 65, 256, 128
-0.997548, 201, 65, 216, 96
-0.997548, 97, 245, 224, 276
-0.997548, 329, 1, 360, 256
-0.997551, 381, 185, 396, 248
-0.997553, 273, 85, 400, 116
-0.997556, 289, 53, 416, 84
-0.997559, 113, 49, 240, 80
-0.997562, 105, 209, 120, 272
-0.997564, 87, 265, 102, 328
-0.997569, 239, 13, 254, 44
-0.99757, 361, 201, 376, 264
-0.997597, 401, 177, 416, 240
-0.997608, 183, 233, 198, 296
-0.997614, 375, 161, 390, 224
-0.997614, 153, 233, 168, 296
-0.997614, 51, 297, 66, 360
-0.997615, 177, 13, 192, 44
-0.997616, 367, 169, 382, 232
-0.99762, 65, 221, 192, 252
-0.997621, 243, 217, 258, 280
-0.997627, 113, 37, 240, 68
-0.997628, 5, 193, 36, 320
-0.997634, 347, 209, 362, 272
-0.997639, 71, 169, 86, 232
-0.99764, 227, 225, 242, 288
-0.997643, 213, 233, 228, 296
-0.997644, 477, 1, 492, 64
-0.997648, 415, 81, 430, 144
-0.99765, 63, 233, 78, 296
-0.997651, 293, 1, 324, 256
-0.997653, 243, 249, 258, 312
-0.997654, 255, 201, 270, 264
-0.997656, 137, 265, 152, 328
-0.997669, 319, 37, 334, 68
-0.99767, 161, 209, 288, 240
-0.997673, 179, 85, 194, 116
-0.997674, 19, 313, 34, 375
-0.997674, 227, 65, 242, 96
-0.997674, 65, 205, 192, 236
-0.997677, 353, 105, 480, 136
-0.997691, 257, 137, 384, 168
-0.997699, 165, 89, 180, 152
-0.997709, 411, 161, 426, 224
-0.99771, 289, 97, 416, 128
-0.997712, 65, 297, 80, 360
-0.997714, 147, 233, 162, 296
-0.997717, 65, 189, 192, 220
-0.99772, 153, 273, 168, 336
-0.997725, 321, 77, 448, 108
-0.997728, 113, 113, 240, 144
-0.997734, 317, 1, 348, 256
-0.997735, 287, 225, 302, 288
-0.997736, 383, 57, 398, 120
-0.997739, 385, 153, 400, 216
-0.997749, 219, 225, 234, 288
-0.997757, 289, 109, 416, 140
-0.997763, 49, 241, 176, 272
-0.997764, 353, 193, 480, 224
-0.997764, 171, 17, 186, 48
-0.997765, 49, 285, 176, 316
-0.997769, 329, 33, 344, 64
-0.99778, 313, 37, 328, 68
-0.997784, 191, 1, 206, 32
-0.997786, 161, 169, 288, 200
-0.997786, 191, 61, 206, 92
-0.997787, 99, 233, 114, 264
-0.997816, 181, 61, 196, 92
-0.997824, 65, 149, 192, 180
-0.997832, 109, 173, 124, 204
-0.997837, 281, 33, 312, 288
-0.997845, 417, 1, 448, 256
-0.997854, 181, 1, 212, 256
-0.997856, 101, 97, 132, 352
-0.997859, 65, 337, 192, 368
-0.997872, 49, 313, 176, 344
-0.997879, 227, 53, 242, 84
-0.997893, 199, 53, 214, 84
-0.997895, 65, 133, 192, 164
-0.997898, 119, 169, 134, 200
-0.997916, 217, 5, 232, 36
-0.997916, 33, 105, 288, 168
-0.997924, 307, 41, 322, 72
-0.997924, 105, 241, 120, 272
-0.997949, 191, 37, 206, 68
-0.997953, 337, 65, 368, 192
-0.997978, 217, 41, 232, 72
-0.997985, 161, 221, 288, 252
-0.998003, 257, 241, 384, 304
-0.998004, 211, 25, 226, 56
-0.998049, 1, 329, 128, 360
-0.998061, 113, 221, 240, 252
-0.998074, 113, 149, 240, 180
-0.998076, 335, 33, 350, 64
-0.998091, 1, 237, 128, 268
-0.998091, 111, 245, 126, 276
-0.998098, 17, 201, 144, 232
-0.998102, 93, 233, 108, 264
-0.998106, 17, 173, 144, 204
-0.998109, 237, 129, 268, 256
-0.998113, 317, 65, 348, 192
-0.998131, 195, 77, 210, 108
-0.998142, 145, 89, 272, 120
-0.998143, 225, 97, 352, 128
-0.998148, 115, 257, 130, 288
-0.998148, 353, 89, 480, 120
-0.998151, 157, 65, 188, 320
-0.998153, 265, 33, 296, 288
-0.998162, 353, 225, 480, 288
-0.998164, 145, 189, 272, 220
-0.998172, 299, 45, 314, 76
-0.998179, 277, 129, 308, 375
-0.998184, 49, 161, 176, 192
-0.998184, 341, 29, 356, 60
-0.998187, 233, 1, 264, 256
-0.9982, 113, 177, 240, 208
-0.998209, 17, 189, 144, 220
-0.998209, 189, 97, 220, 224
-0.998215, 217, 25, 232, 56
-0.998219, 253, 33, 284, 288
-0.998221, 1, 249, 500, 312
-0.998225, 209, 165, 336, 196
-0.998228, 65, 121, 192, 152
-0.998238, 273, 225, 288, 256
-0.99824, 281, 221, 296, 252
-0.998244, 63, 257, 78, 288
-0.998249, 117, 129, 148, 375
-0.99825, 453, 5, 468, 36
-0.998254, 437, 9, 452, 40
-0.99826, 65, 325, 192, 356
-0.998266, 201, 77, 216, 108
-0.998269, 201, 41, 216, 72
-0.998273, 17, 345, 144, 375
-0.998278, 101, 189, 116, 220
-0.998291, 121, 257, 136, 288
-0.998295, 305, 137, 432, 168
-0.9983, 73, 129, 104, 375
-0.998304, 209, 189, 336, 220
-0.998305, 185, 85, 200, 116
-0.998313, 395, 181, 410, 212
-0.998314, 107, 185, 122, 216
-0.998316, 161, 129, 192, 256
-0.998317, 289, 125, 416, 156
-0.998324, 77, 233, 108, 248
-0.998324, 57, 327, 88, 342
-0.998325, 329, 207, 360, 222
-0.998325, 99, 221, 114, 252
-0.998325, 125, 263, 156, 278
-0.998327, 305, 223, 336, 238
-0.998328, 341, 205, 372, 220
-0.998328, 241, 15, 272, 30
-0.998328, 81, 277, 112, 292
-0.998328, 97, 229, 128, 244
-0.998329, 121, 119, 152, 134
-0.998329, 217, 37, 248, 52
-0.99833, 81, 189, 112, 204
-0.998331, 261, 55, 292, 70
-0.998333, 361, 205, 392, 220
-0.998333, 169, 7, 200, 22
-0.998334, 161, 25, 192, 40
-0.998335, 57, 295, 88, 310
-0.998336, 249, 247, 280, 262
-0.998337, 157, 147, 188, 162
-0.998337, 185, 29, 216, 44
-0.998338, 61, 333, 92, 348
-0.998339, 61, 257, 92, 272
-0.998339, 109, 261, 140, 276
-0.998339, 169, 1, 200, 16
-0.99834, 405, 13, 420, 44
-0.998341, 93, 199, 124, 214
-0.998341, 229, 55, 260, 70
-0.998344, 85, 241, 116, 256
-0.998345, 257, 223, 288, 238
-0.998347, 421, 13, 452, 28
-0.998347, 379, 193, 394, 224
-0.998347, 241, 67, 272, 82
-0.998349, 241, 21, 272, 36
-0.998349, 101, 235, 132, 250
-0.99835, 229, 9, 260, 24
-0.998351, 85, 183, 116, 198
-0.998352, 373, 65, 404, 80
-0.998353, 329, 209, 344, 240
-0.998354, 165, 277, 196, 292
-0.998354, 165, 75, 196, 90
-0.998355, 77, 195, 108, 210
-0.998356, 165, 49, 196, 64
-0.998357, 165, 63, 196, 78
-0.998357, 33, 1, 96, 375
-0.998358, 189, 85, 220, 100
-0.998358, 165, 95, 196, 110
-0.998359, 301, 229, 332, 244
-0.998359, 161, 89, 192, 104
-0.99836, 209, 77, 224, 108
-0.998361, 149, 279, 180, 294
-0.998362, 169, 39, 200, 54
-0.998363, 329, 221, 360, 236
-0.998363, 101, 175, 132, 190
-0.998367, 377, 193, 408, 208
-0.998368, 181, 3, 212, 18
-0.998371, 121, 269, 152, 284
-0.998372, 405, 173, 436, 188
-0.998372, 317, 219, 348, 234
-0.998372, 277, 237, 308, 252
-0.998373, 233, 251, 264, 266
-0.998373, 409, 15, 440, 30
-0.998373, 109, 245, 140, 260
-0.998373, 209, 3, 240, 18
-0.998374, 345, 213, 376, 228
-0.998375, 149, 269, 180, 284
-0.998375, 213, 257, 244, 272
-0.998379, 97, 193, 128, 208
-0.99838, 97, 241, 128, 256
-0.99838, 457, 5, 488, 20
-0.998381, 371, 21, 386, 52
-0.998381, 89, 235, 120, 250
-0.998382, 229, 21, 260, 36
-0.998383, 385, 187, 416, 202
-0.998384, 165, 57, 196, 72
-0.998386, 393, 17, 408, 48
-0.998387, 101, 255, 132, 270
-0.99839, 317, 49, 348, 64
-0.99839, 1, 221, 128, 252
-0.998391, 289, 233, 320, 248
-0.998392, 277, 227, 308, 242
-0.998392, 445, 7, 476, 22
-0.998394, 385, 189, 400, 220
-0.998395, 165, 69, 196, 84
-0.998396, 97, 187, 128, 202
-0.998396, 369, 23, 400, 38
-0.998396, 221, 73, 252, 88
-0.998397, 197, 23, 228, 38
-0.998397, 203, 1, 218, 32
-0.998397, 317, 225, 348, 240
-0.998398, 193, 67, 224, 82
-0.998398, 385, 19, 416, 34
-0.998399, 113, 251, 144, 266
-0.998399, 393, 181, 424, 196
-0.9984, 181, 19, 212, 34
-0.9984, 323, 213, 338, 244
-0.998402, 325, 213, 356, 228
-0.998403, 397, 15, 428, 30
-0.998403, 217, 21, 248, 36
-0.998403, 197, 29, 228, 44
-0.998403, 249, 61, 280, 76
-0.998404, 173, 33, 204, 48
-0.998405, 349, 27, 380, 42
-0.998405, 189, 79, 220, 94
-0.998406, 369, 145, 496, 176
-0.998407, 433, 11, 464, 26
-0.998413, 209, 71, 240, 86
-0.998414, 105, 181, 136, 196
-0.998416, 267, 221, 282, 252
-0.998416, 321, 35, 352, 50
-0.998419, 233, 65, 248, 96
-0.998419, 333, 31, 364, 46
-0.99842, 273, 51, 304, 66
-0.99842, 373, 197, 388, 228
-0.99842, 209, 61, 224, 92
-0.99842, 61, 263, 92, 278
-0.998424, 113, 175, 144, 190
-0.998425, 97, 249, 128, 264
-0.998425, 177, 7, 240, 22
-0.998426, 209, 257, 336, 320
-0.998432, 443, 9, 458, 40
-0.998432, 129, 101, 256, 132
-0.998439, 193, 61, 224, 76
-0.998439, 355, 25, 370, 56
-0.998439, 165, 83, 196, 98
-0.998442, 177, 73, 208, 88
-0.998446, 293, 45, 324, 60
-0.998448, 117, 169, 148, 184
-0.99845, 411, 13, 426, 44
-0.99845, 201, 79, 232, 94
-0.998451, 137, 97, 168, 352
-0.998454, 169, 13, 200, 28
-0.998454, 225, 61, 256, 76
-0.998455, 177, 67, 240, 82
-0.998456, 405, 177, 420, 208
-0.998456, 177, 53, 240, 68
-0.998457, 161, 125, 288, 156
-0.998459, 377, 21, 392, 52
-0.99846, 89, 273, 104, 304
-0.998461, 201, 9, 232, 24
-0.998462, 279, 49, 294, 80
-0.998466, 169, 93, 184, 124
-0.998466, 245, 17, 260, 48
-0.998468, 209, 65, 240, 80
-0.998471, 1, 65, 64, 128
-0.998471, 145, 305, 208, 368
-0.998472, 125, 165, 140, 196
-0.998472, 193, 73, 224, 88
-0.998473, 309, 39, 340, 54
-0.998475, 205, 39, 236, 54
-0.998475, 177, 79, 208, 94
-0.998479, 173, 89, 204, 104
-0.99848, 321, 225, 384, 352
-0.998481, 225, 85, 352, 116
-0.998484, 193, 61, 256, 76
-0.998486, 177, 1, 240, 16
-0.998487, 385, 129, 416, 375
-0.998489, 171, 29, 186, 60
-0.998491, 211, 1, 226, 128
-0.998492, 105, 229, 120, 260
-0.998494, 69, 305, 84, 336
-0.998495, 229, 67, 260, 82
-0.998496, 211, 49, 226, 80
-0.998499, 425, 13, 440, 44
-0.998499, 193, 1, 224, 16
-0.998501, 169, 77, 184, 108
-0.998504, 337, 221, 352, 252
-0.998504, 181, 33, 196, 64
-0.998505, 193, 153, 320, 184
-0.998506, 161, 73, 224, 88
-0.99851, 177, 31, 240, 46
-0.998512, 247, 61, 262, 92
-0.998517, 189, 45, 220, 60
-0.998519, 153, 47, 216, 62
-0.99852, 17, 281, 32, 312
-0.998521, 293, 97, 324, 352
-0.998524, 431, 9, 446, 40
-0.998526, 177, 47, 240, 62
-0.998526, 181, 9, 212, 24
-0.998526, 185, 21, 248, 36
-0.998528, 153, 57, 216, 72
-0.998533, 209, 59, 240, 74
-0.99854, 75, 333, 90, 364
-0.99854, 217, 257, 232, 288
-0.998541, 193, 35, 224, 50
-0.998541, 177, 265, 304, 296
-0.998541, 153, 67, 216, 82
-0.998542, 387, 17, 402, 48
-0.998543, 181, 63, 212, 78
-0.998543, 209, 137, 336, 168
-0.998545, 173, 27, 204, 42
-0.998546, 169, 19, 200, 34
-0.998547, 117, 245, 132, 276
-0.998548, 89, 129, 120, 375
-0.998552, 281, 237, 296, 268
-0.998552, 177, 15, 240, 30
-0.998556, 367, 201, 382, 232
-0.998557, 281, 49, 344, 64
-0.998557, 295, 233, 310, 264
-0.998558, 201, 69, 264, 84
-0.998558, 81, 301, 96, 332
-0.998559, 273, 149, 400, 180
-0.998561, 271, 53, 286, 84
-0.998561, 385, 15, 448, 30
-0.998563, 209, 15, 272, 30
-0.998565, 177, 79, 240, 94
-0.998567, 201, 55, 264, 70
-0.998568, 177, 41, 240, 56
-0.998568, 241, 231, 304, 246
-0.998572, 113, 81, 176, 144
-0.998572, 113, 273, 176, 288
-0.998572, 87, 293, 102, 324
-0.998573, 361, 25, 376, 56
-0.998573, 185, 55, 216, 70
-0.998573, 153, 41, 216, 56
-0.998576, 201, 9, 264, 24
-0.998576, 153, 79, 216, 94
-0.998578, 417, 13, 432, 44
-0.998578, 169, 97, 200, 352
-0.99858, 205, 45, 236, 60
-0.998585, 253, 57, 268, 88
-0.998586, 353, 281, 480, 344
-0.998587, 459, 5, 474, 36
-0.99859, 265, 223, 328, 238
-0.998593, 347, 29, 362, 60
-0.998593, 57, 275, 120, 290
-0.998593, 245, 249, 260, 280
-0.998596, 99, 177, 114, 208
-0.998598, 201, 75, 264, 90
-0.998599, 335, 205, 350, 236
-0.998602, 289, 43, 352, 58
-0.998603, 433, 7, 496, 22
-0.998603, 305, 223, 368, 238
-0.998605, 209, 21, 272, 36
-0.998606, 129, 137, 256, 168
-0.998607, 223, 41, 238, 72
-0.998607, 155, 277, 170, 308
-0.998611, 153, 29, 216, 44
-0.998611, 149, 261, 164, 292
-0.998613, 289, 49, 304, 80
-0.998614, 41, 357, 104, 372
-0.998614, 205, 51, 236, 66
-0.998616, 81, 263, 144, 278
-0.998618, 329, 27, 392, 42
-0.998618, 217, 9, 248, 24
-0.998619, 297, 213, 360, 228
-0.99862, 49, 289, 112, 304
-0.99862, 321, 207, 384, 222
-0.99862, 257, 165, 384, 196
-0.998621, 17, 311, 80, 326
-0.998621, 145, 269, 208, 284
-0.998621, 257, 51, 320, 66
-0.998622, 241, 29, 256, 60
-0.998624, 399, 13, 414, 44
-0.998624, 265, 231, 328, 246
-0.998624, 227, 253, 242, 284
-0.998624, 73, 261, 88, 292
-0.998625, 49, 269, 112, 284
-0.998626, 225, 65, 288, 80
-0.998627, 137, 73, 200, 88
-0.998628, 201, 243, 264, 258
-0.99863, 49, 281, 112, 296
-0.998631, 249, 239, 312, 254
-0.998631, 153, 1, 216, 16
-0.998632, 153, 35, 216, 50
-0.998632, 361, 21, 424, 36
-0.998634, 95, 285, 110, 316
-0.998634, 113, 167, 176, 182
-0.998634, 89, 233, 152, 248
-0.998635, 153, 85, 216, 100
-0.998636, 97, 177, 160, 192
-0.998636, 305, 229, 320, 260
-0.998637, 249, 57, 312, 72
-0.99864, 411, 173, 426, 204
-0.99864, 409, 11, 472, 26
-0.99864, 17, 317, 80, 332
-0.99864, 225, 59, 288, 74
-0.99864, 201, 27, 264, 42
-0.998641, 193, 25, 208, 56
-0.998641, 201, 253, 264, 268
-0.998642, 145, 15, 208, 30
-0.998643, 17, 291, 80, 306
-0.998644, 49, 297, 112, 312
-0.998645, 73, 257, 136, 272
-0.998646, 305, 35, 368, 50
-0.998646, 73, 195, 136, 210
-0.998646, 321, 213, 384, 228
-0.998647, 17, 285, 80, 300
-0.998648, 57, 187, 120, 202
-0.998649, 113, 77, 240, 108
-0.99865, 53, 317, 68, 348
-0.99865, 377, 189, 440, 204
-0.998651, 317, 209, 332, 240
-0.998651, 221, 15, 252, 30
-0.998652, 321, 197, 384, 212
-0.998652, 89, 189, 152, 204
-0.998653, 259, 57, 274, 88
-0.998654, 353, 65, 384, 192
-0.998654, 289, 229, 352, 244
-0.998654, 401, 121, 464, 136
-0.998654, 305, 51, 368, 66
-0.998655, 241, 113, 368, 144
-0.998656, 73, 251, 136, 266
-0.998656, 225, 221, 288, 236
-0.998656, 221, 73, 236, 104
-0.998656, 289, 233, 304, 264
-0.998657, 145, 21, 208, 36
-0.998657, 17, 305, 80, 320
-0.998658, 41, 347, 104, 362
-0.998658, 145, 145, 208, 160
-0.998658, 9, 275, 72, 290
-0.99866, 345, 65, 408, 80
-0.99866, 169, 251, 232, 266
-0.998661, 49, 263, 112, 278
-0.998662, 401, 175, 464, 190
-0.998662, 33, 333, 96, 348
-0.998662, 9, 325, 72, 340
-0.998664, 17, 297, 80, 312
-0.998664, 65, 181, 128, 196
-0.998664, 335, 49, 350, 80
-0.998664, 57, 237, 120, 252
-0.998665, 225, 251, 288, 266
-0.998666, 113, 267, 176, 282
-0.998666, 73, 269, 136, 284
-0.998666, 169, 65, 184, 96
-0.998668, 145, 275, 208, 290
-0.998668, 377, 183, 440, 198
-0.998668, 121, 139, 184, 154
-0.998668, 169, 91, 232, 106
-0.998669, 177, 85, 240, 100
-0.998669, 265, 217, 328, 232
-0.99867, 201, 49, 264, 64
-0.99867, 49, 197, 112, 212
-0.998671, 33, 323, 96, 338
-0.998671, 379, 181, 394, 212
-0.998671, 105, 253, 168, 268
-0.998672, 369, 195, 432, 210
-0.998672, 73, 175, 136, 190
-0.998673, 73, 169, 136, 184
-0.998673, 241, 245, 304, 260
-0.998675, 361, 169, 424, 184
-0.998676, 41, 341, 104, 356
-0.998677, 77, 345, 92, 375
-0.998678, 145, 7, 208, 22
-0.998679, 89, 183, 152, 198
-0.99868, 57, 293, 72, 324
-0.99868, 73, 245, 136, 260
-0.998681, 105, 243, 168, 258
-0.998681, 369, 85, 432, 100
-0.998683, 361, 143, 424, 158
-0.998684, 41, 307, 104, 322
-0.998685, 297, 83, 360, 98
-0.998686, 57, 231, 120, 246
-0.998686, 329, 189, 392, 204
-0.998689, 193, 259, 256, 274
-0.998689, 201, 237, 264, 252
-0.998689, 95, 189, 110, 220
-0.99869, 81, 163, 144, 178
-0.99869, 215, 77, 230, 108
-0.998691, 97, 227, 160, 242
-0.998692, 321, 57, 384, 72
-0.998693, 393, 153, 456, 168
-0.998693, 9, 267, 72, 282
-0.998693, 329, 141, 392, 156
-0.998765, 241, 125, 368, 156
-0.99878, 289, 5, 416, 36
-0.998782, 369, 77, 496, 108
-0.998783, 189, 1, 204, 128
-0.998789, 129, 265, 384, 328
-0.99879, 379, 1, 394, 128
-0.998815, 397, 97, 428, 352
-0.998833, 369, 193, 496, 256
-0.998839, 221, 1, 236, 128
-0.998839, 369, 157, 496, 188
-0.998858, 373, 97, 404, 352
-0.998863, 273, 233, 400, 264
-0.998867, 265, 129, 296, 375
-0.998876, 305, 241, 432, 304
-0.998886, 261, 97, 292, 224
-0.998931, 183, 17, 198, 144
-0.998944, 177, 109, 304, 140
-0.998944, 113, 209, 240, 240
-0.998965, 257, 73, 384, 104
-0.998971, 97, 233, 224, 264
-0.998972, 227, 1, 242, 128
-0.998981, 189, 49, 204, 176
-0.998985, 369, 17, 384, 144
-0.998993, 97, 89, 224, 120
-0.998994, 385, 1, 400, 128
-0.998995, 369, 57, 496, 88
-0.999003, 305, 97, 336, 352
-0.999007, 171, 1, 186, 128
-0.999014, 177, 1, 192, 128
-0.999019, 25, 97, 88, 224
-0.99903, 113, 125, 240, 156
-0.99905, 391, 1, 406, 128
-0.999054, 253, 129, 284, 375
-0.999059, 363, 17, 378, 144
-0.99906, 61, 129, 92, 375
-0.999069, 181, 65, 196, 192
-0.999106, 397, 1, 412, 128
-0.999113, 1, 1, 64, 375
-0.999125, 199, 1, 214, 128
-0.99913, 97, 177, 112, 304
-0.999138, 421, 1, 436, 128
-0.999143, 437, 49, 468, 176
-0.999149, 411, 1, 426, 128
-0.999162, 357, 17, 372, 144
-0.999168, 209, 1, 336, 32
-0.999174, 403, 1, 418, 128
-0.999174, 325, 17, 340, 144
-0.99918, 129, 281, 256, 312
-0.999183, 409, 97, 440, 352
-0.999186, 1, 161, 128, 192
-0.999187, 63, 241, 78, 368
-0.999192, 225, 177, 352, 208
-0.999195, 337, 41, 464, 72
-0.999196, 231, 49, 246, 176
-0.999198, 239, 1, 254, 128
-0.999206, 385, 185, 448, 248
-0.999207, 431, 1, 446, 128
-0.99922, 445, 1, 460, 128
-0.999221, 73, 241, 88, 368
-0.999237, 195, 65, 210, 192
-0.999237, 245, 1, 260, 128
-0.999251, 347, 17, 362, 144
-0.999254, 209, 49, 224, 176
-0.999256, 175, 65, 190, 192
-0.99926, 353, 205, 480, 236
-0.99926, 315, 33, 330, 160
-0.999268, 129, 305, 256, 336
-0.999268, 189, 129, 220, 375
-0.999283, 439, 1, 454, 128
-0.999288, 49, 109, 176, 140
-0.999289, 301, 33, 316, 160
-0.999291, 205, 97, 236, 352
-0.999291, 333, 1, 348, 128
-0.999296, 91, 193, 106, 320
-0.999298, 57, 241, 72, 368
-0.999299, 451, 1, 466, 128
-0.999299, 113, 177, 128, 304
-0.999299, 289, 305, 416, 368
-0.999308, 205, 1, 220, 128
-0.999321, 307, 33, 322, 160
-0.999321, 339, 17, 354, 144
-0.999336, 107, 177, 122, 304
-0.999342, 201, 49, 216, 176
-0.999342, 119, 177, 134, 304
-0.999353, 283, 33, 298, 160
-0.999357, 377, 177, 392, 304
-0.999362, 321, 221, 448, 252
-0.999364, 393, 161, 408, 288
-0.999366, 223, 49, 238, 176
-0.999371, 17, 149, 144, 180
-0.999381, 295, 33, 310, 160
-0.999387, 387, 177, 402, 304
-0.99939, 335, 177, 350, 304
-0.999393, 1, 289, 500, 352
-0.999399, 371, 177, 386, 304
-0.999404, 99, 129, 114, 256
-0.999408, 325, 97, 356, 352
-0.999413, 349, 97, 380, 352
-0.999415, 273, 209, 288, 336
-0.99942, 429, 65, 460, 320
-0.999421, 435, 97, 450, 224
-0.999421, 457, 1, 472, 128
-0.999422, 113, 113, 128, 240
-0.999424, 277, 33, 292, 160
-0.999425, 1, 313, 500, 375
-0.999433, 427, 81, 442, 208
-0.999436, 253, 177, 268, 304
-0.999437, 215, 49, 230, 176
-0.999438, 289, 177, 304, 304
-0.999438, 297, 209, 312, 336
-0.999439, 129, 317, 256, 348
-0.999446, 389, 49, 404, 176
-0.999448, 233, 1, 248, 128
-0.999448, 123, 241, 138, 368
-0.999461, 115, 241, 130, 368
-0.999461, 73, 161, 88, 288
-0.999461, 165, 81, 180, 208
-0.999463, 399, 161, 414, 288
-0.999465, 107, 225, 122, 352
-0.999465, 217, 97, 248, 352
-0.999466, 257, 1, 288, 128
-0.99947, 17, 133, 144, 164
-0.999474, 415, 65, 430, 192
-0.999474, 271, 33, 286, 160
-0.999476, 13, 241, 28, 368
-0.999479, 341, 145, 356, 272
-0.999481, 225, 97, 256, 224
-0.999482, 65, 49, 192, 80
-0.999482, 97, 225, 112, 352
-0.999483, 387, 113, 402, 240
-0.999485, 125, 177, 140, 304
-0.999488, 161, 209, 176, 336
-0.999488, 153, 225, 168, 352
-0.999489, 245, 177, 260, 304
-0.99949, 237, 177, 252, 304
-0.999491, 281, 161, 296, 288
-0.999497, 237, 49, 252, 176
-0.999497, 441, 97, 456, 224
-0.999501, 83, 241, 98, 368
-0.999509, 289, 33, 304, 160
-0.999509, 329, 161, 344, 288
-0.999509, 323, 177, 338, 304
-0.99951, 351, 193, 366, 320
-0.999511, 217, 193, 232, 320
-0.999511, 421, 81, 436, 208
-0.999514, 135, 209, 150, 336
-0.999514, 337, 97, 368, 352
-0.999515, 51, 225, 66, 352
-0.999517, 343, 193, 358, 320
-0.999518, 263, 193, 278, 320
-0.99952, 209, 225, 224, 352
-0.999521, 359, 177, 374, 304
-0.999523, 303, 209, 318, 336
-0.999527, 121, 97, 136, 224
-0.999529, 229, 193, 244, 320
-0.999532, 397, 97, 412, 224
-0.999536, 91, 129, 106, 256
-0.999537, 365, 177, 380, 304
-0.999537, 105, 129, 120, 256
-0.999542, 271, 145, 286, 272
-0.999543, 413, 15, 428, 30
-0.999544, 197, 31, 212, 46
-0.999544, 177, 93, 192, 108
-0.999544, 97, 197, 112, 212
-0.999545, 189, 27, 204, 42
-0.999545, 101, 181, 116, 196
-0.999545, 155, 279, 170, 294
-0.999546, 169, 97, 184, 112
-0.999546, 425, 15, 440, 30
-0.999546, 109, 181, 124, 196
-0.999546, 415, 173, 430, 188
-0.999548, 269, 55, 284, 70
-0.999548, 411, 81, 426, 96
-0.999548, 281, 233, 296, 248
-0.99955, 329, 217, 344, 232
-0.999551, 281, 225, 296, 352
-0.999551, 407, 113, 422, 240
-0.999551, 203, 7, 218, 22
-0.999552, 325, 37, 340, 52
-0.999552, 109, 255, 124, 270
-0.999553, 241, 27, 256, 42
-0.999555, 237, 69, 252, 84
-0.999555, 159, 129, 174, 256
-0.999555, 217, 79, 232, 94
-0.999555, 247, 65, 262, 80
-0.999556, 443, 9, 458, 24
-0.999556, 373, 199, 388, 214
-0.999556, 195, 37, 210, 52
-0.999556, 299, 233, 314, 248
-0.999556, 219, 27, 234, 42
-0.999556, 99, 229, 114, 244
-0.999557, 205, 37, 220, 52
-0.999558, 455, 7, 470, 22
-0.999558, 149, 271, 164, 286
-0.999559, 341, 221, 356, 236
-0.999559, 271, 221, 286, 236
-0.999559, 253, 61, 268, 76
-0.999559, 367, 25, 382, 40
-0.999559, 385, 65, 400, 80
-0.999561, 223, 75, 238, 90
-0.999561, 97, 241, 112, 256
-0.999562, 297, 129, 312, 256
-0.999563, 275, 53, 290, 68
-0.999563, 63, 259, 78, 274
-0.999564, 331, 35, 346, 50
-0.999564, 217, 37, 232, 52
-0.999565, 383, 21, 398, 36
-0.999565, 235, 15, 250, 30
-0.999565, 383, 49, 398, 176
-0.999565, 265, 49, 280, 176
-0.999567, 193, 43, 208, 58
-0.999567, 169, 85, 184, 100
-0.999567, 431, 13, 446, 28
-0.999568, 423, 129, 438, 256
-0.999568, 171, 19, 186, 34
-0.99957, 377, 23, 392, 38
-0.999571, 223, 47, 238, 62
-0.999571, 399, 17, 414, 32
-0.999572, 343, 31, 358, 46
-0.999573, 167, 177, 182, 304
-0.999573, 321, 223, 336, 238
-0.999574, 7, 241, 22, 368
-0.999574, 123, 169, 138, 184
-0.999575, 393, 19, 408, 34
-0.999575, 357, 27, 372, 42
-0.999575, 317, 193, 332, 320
-0.999575, 245, 49, 260, 176
-0.999576, 407, 15, 422, 30
-0.999576, 191, 61, 206, 76
-0.999577, 449, 9, 464, 24
-0.999577, 337, 33, 352, 48
-0.999577, 229, 13, 244, 28
-0.999578, 291, 49, 306, 64
-0.999579, 379, 195, 394, 210
-0.99958, 413, 113, 428, 240
-0.999581, 227, 55, 242, 70
-0.999582, 201, 1, 216, 16
-0.999582, 437, 11, 452, 26
-0.999583, 349, 29, 364, 44
-0.999583, 119, 257, 134, 272
-0.999584, 171, 31, 186, 46
-0.999585, 67, 161, 82, 288
-0.999586, 191, 11, 206, 26
-0.999586, 107, 175, 122, 190
-0.999587, 89, 241, 104, 368
-0.999588, 119, 251, 134, 266
-0.999588, 209, 79, 224, 94
-0.999589, 241, 13, 256, 28
-0.999589, 407, 177, 422, 192
-0.999591, 213, 5, 228, 20
-0.999591, 197, 83, 212, 98
-0.999591, 185, 61, 200, 76
-0.999592, 209, 73, 224, 88
-0.999592, 243, 225, 258, 352
-0.999592, 61, 177, 76, 304
-0.999593, 223, 225, 238, 352
-0.999593, 241, 97, 272, 352
-0.999593, 251, 49, 266, 176
-0.999593, 143, 209, 158, 336
-0.999594, 263, 145, 278, 272
-0.999594, 319, 39, 334, 54
-0.999596, 185, 85, 200, 100
-0.999596, 205, 97, 236, 224
-0.999596, 289, 225, 304, 352
-0.999597, 91, 233, 106, 248
-0.999597, 397, 183, 412, 198
-0.999598, 183, 25, 198, 40
-0.999601, 391, 187, 406, 202
-0.999602, 297, 47, 312, 62
-0.999602, 353, 249, 480, 312
-0.999604, 117, 173, 132, 188
-0.999604, 105, 247, 120, 262
-0.999605, 385, 191, 400, 206
-0.999606, 217, 45, 232, 60
-0.999611, 361, 97, 392, 352
-0.999612, 195, 1, 210, 16
-0.999613, 223, 13, 238, 28
-0.999613, 231, 71, 246, 86
-0.999613, 195, 77, 210, 92
-0.999616, 225, 63, 240, 78
-0.999618, 175, 13, 190, 28
-0.999618, 189, 49, 204, 64
-0.999619, 201, 59, 216, 74
-0.99962, 243, 21, 258, 36
-0.999621, 201, 53, 216, 68
-0.999623, 221, 53, 236, 68
-0.999624, 191, 85, 206, 100
-0.999627, 181, 69, 196, 84
-0.999628, 175, 25, 190, 40
-0.999632, 97, 235, 112, 250
-0.999634, 201, 65, 216, 80
-0.999638, 111, 249, 126, 264
-0.999644, 313, 41, 328, 56
-0.999645, 211, 33, 226, 48
-0.999646, 303, 45, 318, 60
-0.999647, 231, 65, 246, 80
-0.999647, 191, 67, 206, 82
-0.999647, 177, 19, 192, 34
-0.999648, 187, 55, 202, 70
-0.999652, 103, 241, 118, 256
-0.999654, 201, 75, 216, 90
-0.999655, 289, 281, 416, 344
-0.999656, 179, 87, 194, 102
-0.999659, 49, 129, 80, 375
-0.999665, 241, 241, 272, 368
-0.999665, 235, 9, 250, 24
-0.999667, 211, 47, 226, 62
-0.999673, 189, 5, 204, 20
-0.999676, 221, 7, 236, 22
-0.999681, 37, 241, 68, 368
-0.999686, 181, 75, 196, 90
-0.999695, 187, 73, 202, 88
-0.999696, 241, 289, 368, 352
-0.9997, 213, 11, 228, 26
-0.999705, 181, 9, 196, 24
-0.999707, 227, 7, 242, 22
-0.999711, 179, 81, 194, 96
-0.999731, 183, 19, 198, 34
-0.999737, 211, 39, 226, 54
-0.999768, 187, 79, 202, 94
-0.999839, 229, 97, 260, 352
-0.999954, 329, 225, 360, 352
-0.999962, 145, 1, 176, 256
-1.00001, 441, 65, 472, 320
-1.00006, 37, 129, 68, 375
-1.00015, 41, 121, 104, 184
-1.00015, 121, 305, 184, 368
-1.00024, 1, 25, 128, 88
-1.00025, 337, 305, 464, 368
-1.0003, 77, 33, 108, 288
-1.0003, 129, 289, 384, 352
-1.00034, 117, 33, 148, 288
-1.00034, 329, 225, 392, 288
-1.00034, 241, 313, 368, 375
-1.00035, 193, 313, 320, 375
-1.00044, 257, 289, 500, 352
-1.00045, 453, 65, 484, 320
-1.00048, 249, 97, 280, 224
-1.00052, 449, 65, 480, 192
-1.00057, 133, 1, 164, 256
-1.00058, 1, 57, 128, 120
-1.00059, 377, 217, 440, 280
-1.0006, 105, 1, 136, 256
-1.00061, 89, 33, 120, 288
-1.00067, 57, 33, 120, 288
-1.00069, 129, 313, 384, 375
-1.0007, 13, 129, 44, 375
-1.00071, 9, 33, 40, 288
-1.00071, 449, 129, 480, 256
-1.00075, 1, 1, 128, 64
-1.00078, 57, 33, 88, 288
-1.00081, 5, 1, 36, 128
-1.00088, 353, 241, 480, 368
-1.00089, 101, 65, 132, 192
-1.00089, 1, 129, 32, 375
-1.00091, 469, 1, 500, 256
-1.00092, 25, 129, 56, 375
-1.00094, 465, 97, 496, 352
-1.00107, 257, 265, 500, 328
-1.00118, 437, 145, 468, 272
-1.0012, 377, 209, 440, 336
-1.00123, 225, 313, 480, 375
-1.00127, 21, 33, 52, 288
-1.00128, 49, 9, 176, 72
-1.00141, 33, 33, 64, 288
-1.00141, 45, 33, 76, 288
-1.00144, 17, 177, 48, 304
-1.0015, 425, 49, 456, 176
-1.002, 125, 49, 156, 176
-1.00201, 417, 161, 480, 288
-1.00209, 461, 81, 492, 208
-1.00215, 65, 65, 128, 192
-1.00226, 17, 33, 80, 288
-1.00256, 1, 33, 128, 160
-1.00279, 1, 17, 64, 144
-1.00298, 1, 129, 64, 256
-1.00393, 409, 209, 472, 336
-1.00416, 353, 225, 416, 352
-1.00436, 113, 1, 176, 128
-1.00574, 433, 209, 496, 336
-1.006, 289, 241, 352, 368
-1.00665, 25, 1, 88, 128
-1.0072, 1, 65, 64, 192
-1.01052, 25, 49, 88, 176
-1.01146, 81, 17, 144, 144
-1.0138, 57, 17, 120, 144
