1850
-0.257105, 1, 1, 500, 302
-0.267793, 1, 33, 500, 288
-0.381269, 193, 1, 448, 302
-0.412524, 97, 1, 352, 302
-0.446942, 193, 33, 448, 288
-0.583405, 65, 33, 320, 288
-0.592956, 1, 1, 256, 302
-0.822696, 289, 33, 416, 288
-0.830786, 209, 33, 336, 288
-0.843289, 129, 1, 256, 302
-0.847104, 209, 1, 336, 302
-0.84791, 1, 65, 500, 192
-0.860262, 369, 1, 496, 302
-0.865084, 1, 129, 500, 256
-0.86533, 369, 1, 496, 256
-0.8687, 129, 33, 256, 288
-0.877204, 305, 1, 432, 302
-0.882197, 1, 177, 500, 302
-0.887267, 193, 65, 448, 192
-0.893456, 257, 1, 384, 302
-0.894414, 193, 129, 448, 256
-0.8948, 81, 1, 208, 302
-0.901021, 65, 81, 320, 208
-0.902937, 97, 33, 352, 160
-0.905505, 193, 177, 448, 302
-0.909229, 65, 33, 192, 288
-0.910073, 1, 17, 500, 144
-0.918401, 1, 1, 128, 302
-0.920453, 321, 129, 448, 256
-0.920535, 305, 65, 432, 192
-0.921154, 209, 161, 336, 288
-0.921194, 225, 145, 288, 272
-0.921682, 273, 129, 400, 256
-0.923723, 369, 113, 432, 240
-0.923927, 17, 33, 144, 288
-0.924431, 209, 49, 336, 176
-0.926837, 273, 161, 336, 288
-0.926918, 257, 81, 384, 208
-0.927016, 225, 1, 480, 128
-0.927537, 337, 129, 400, 256
-0.930936, 313, 145, 376, 272
-0.931901, 33, 177, 288, 302
-0.932292, 209, 97, 336, 224
-0.93279, 249, 161, 312, 288
-0.932885, 369, 161, 496, 288
-0.932991, 257, 177, 384, 302
-0.933069, 113, 49, 240, 176
-0.933761, 297, 81, 360, 208
-0.934782, 33, 129, 288, 256
-0.934787, 265, 97, 328, 224
-0.934811, 241, 81, 304, 208
-0.938289, 385, 161, 448, 288
-0.938295, 305, 177, 432, 302
-0.938732, 353, 65, 416, 192
-0.939625, 161, 33, 288, 160
-0.939824, 201, 113, 264, 240
-0.940155, 233, 33, 296, 160
-0.94085, 337, 177, 400, 302
-0.941739, 273, 49, 336, 176
-0.942133, 369, 33, 496, 160
-0.94248, 161, 129, 288, 256
-0.943299, 361, 161, 424, 288
-0.944543, 209, 33, 272, 160
-0.944719, 345, 73, 408, 136
-0.944896, 161, 81, 288, 208
-0.945053, 273, 217, 336, 280
-0.945247, 321, 81, 384, 208
-0.945345, 305, 185, 368, 248
-0.945411, 425, 1, 488, 128
-0.946294, 241, 1, 368, 128
-0.946339, 345, 193, 408, 256
-0.946951, 225, 201, 288, 264
-0.947753, 353, 81, 480, 208
-0.947895, 177, 33, 240, 160
-0.948212, 393, 17, 456, 144
-0.948588, 409, 161, 472, 288
-0.949285, 369, 113, 432, 176
-0.949369, 33, 97, 160, 224
-0.950117, 305, 153, 368, 216
-0.951192, 345, 137, 408, 200
-0.951535, 305, 65, 368, 128
-0.951583, 17, 129, 80, 256
-0.952327, 121, 49, 184, 176
-0.952456, 385, 169, 448, 232
-0.952468, 273, 193, 336, 256
-0.953335, 217, 41, 280, 104
-0.953547, 377, 209, 440, 272
-0.95378, 369, 81, 432, 144
-0.953997, 273, 1, 336, 128
-0.954154, 153, 33, 216, 160
-0.955048, 281, 57, 344, 120
-0.955089, 337, 217, 400, 280
-0.955129, 225, 129, 288, 192
-0.955298, 241, 153, 304, 216
-0.955502, 209, 89, 272, 152
-0.956138, 257, 49, 320, 112
-0.956483, 265, 161, 328, 224
-0.957002, 201, 177, 264, 302
-0.957081, 297, 33, 360, 160
-0.957113, 161, 177, 288, 302
-0.957468, 409, 193, 472, 256
-0.957849, 337, 17, 400, 144
-0.958022, 249, 129, 312, 192
-0.958833, 353, 33, 416, 288
-0.9589, 289, 17, 416, 144
-0.959085, 1, 33, 256, 160
-0.959181, 377, 65, 440, 192
-0.959195, 297, 225, 360, 288
-0.959379, 1, 201, 64, 264
-0.959425, 321, 105, 384, 168
-0.959425, 337, 161, 400, 224
-0.9602, 409, 65, 472, 192
-0.960312, 377, 145, 440, 208
-0.960678, 1, 145, 128, 272
-0.96086, 1, 177, 64, 240
-0.96121, 393, 113, 456, 240
-0.961331, 201, 129, 264, 192
-0.961639, 249, 185, 312, 248
-0.961642, 49, 97, 112, 224
-0.961675, 281, 137, 344, 200
-0.962134, 81, 81, 144, 208
-0.962245, 209, 209, 336, 272
-0.962477, 177, 81, 240, 208
-0.962734, 225, 177, 288, 240
-0.962762, 1, 225, 64, 288
-0.963037, 409, 1, 472, 64
-0.963099, 297, 33, 360, 288
-0.963201, 345, 113, 408, 176
-0.964043, 233, 241, 296, 302
-0.964839, 361, 129, 392, 256
-0.965033, 217, 1, 280, 256
-0.965183, 433, 33, 496, 96
-0.965477, 33, 177, 96, 302
-0.965587, 177, 41, 240, 104
-0.965723, 233, 161, 264, 288
-0.965754, 1, 177, 64, 302
-0.965937, 249, 209, 312, 272
-0.965963, 293, 201, 324, 264
-0.965999, 245, 161, 276, 288
-0.966071, 113, 97, 240, 224
-0.966308, 65, 49, 192, 176
-0.966558, 377, 193, 408, 256
-0.96684, 409, 49, 472, 112
-0.96693, 433, 161, 496, 288
-0.966944, 321, 161, 448, 224
-0.966977, 321, 113, 448, 176
-0.967224, 377, 97, 408, 224
-0.967325, 217, 17, 280, 80
-0.967434, 277, 217, 308, 280
-0.967441, 321, 129, 384, 192
-0.967457, 225, 57, 352, 120
-0.967675, 321, 33, 384, 288
-0.967992, 177, 129, 240, 256
-0.968065, 321, 137, 448, 200
-0.968092, 129, 49, 192, 112
-0.968109, 265, 161, 296, 288
-0.968198, 401, 113, 432, 240
-0.968201, 433, 49, 496, 176
-0.968265, 265, 33, 328, 288
-0.968289, 241, 25, 304, 88
-0.968316, 297, 97, 360, 160
-0.96846, 289, 193, 416, 256
-0.968505, 273, 65, 400, 128
-0.96851, 81, 89, 144, 152
-0.968515, 17, 209, 48, 272
-0.968561, 285, 145, 316, 272
-0.968689, 409, 25, 472, 88
-0.968693, 241, 33, 304, 288
-0.969146, 169, 105, 232, 168
-0.96922, 349, 129, 380, 256
-0.969522, 241, 89, 304, 152
-0.969627, 313, 145, 344, 272
-0.969634, 337, 193, 464, 256
-0.969975, 321, 49, 352, 176
-0.9701, 265, 97, 328, 160
-0.970413, 121, 97, 184, 224
-0.970463, 273, 81, 304, 208
-0.970478, 309, 193, 340, 256
-0.970537, 273, 225, 400, 288
-0.970621, 257, 1, 288, 128
-0.970711, 281, 185, 312, 248
-0.970849, 433, 193, 496, 256
-0.970892, 209, 177, 336, 240
-0.970892, 313, 153, 344, 216
-0.97096, 25, 177, 88, 240
-0.970968, 273, 137, 400, 200
-0.971147, 301, 97, 332, 224
-0.971158, 333, 137, 364, 200
-0.971438, 113, 145, 240, 272
-0.971473, 361, 193, 392, 256
-0.971512, 1, 217, 32, 280
-0.971582, 401, 73, 464, 136
-0.971591, 381, 145, 412, 272
-0.971737, 309, 49, 340, 176
-0.971744, 449, 9, 480, 72
-0.971791, 225, 81, 256, 208
-0.971824, 129, 49, 256, 112
-0.971942, 333, 129, 364, 256
-0.972067, 329, 49, 392, 112
-0.972188, 417, 169, 480, 232
-0.972221, 361, 49, 424, 112
-0.972229, 57, 105, 120, 168
-0.972335, 389, 201, 420, 264
-0.972554, 349, 177, 380, 302
-0.972557, 193, 89, 320, 152
-0.972643, 245, 129, 276, 192
-0.972652, 333, 81, 364, 208
-0.972653, 393, 81, 424, 144
-0.972744, 341, 65, 372, 128
-0.972766, 201, 177, 264, 240
-0.972773, 217, 65, 280, 128
-0.972854, 377, 145, 408, 208
-0.972867, 305, 57, 336, 120
-0.972944, 417, 113, 480, 240
-0.972981, 321, 217, 448, 280
-0.973046, 361, 169, 424, 232
-0.973189, 449, 1, 480, 128
-0.973235, 177, 41, 304, 104
-0.973251, 225, 153, 352, 216
-0.973305, 201, 201, 264, 264
-0.973315, 361, 177, 392, 302
-0.973489, 297, 49, 328, 176
-0.973615, 321, 97, 352, 224
-0.97384, 33, 209, 96, 272
-0.973869, 369, 49, 400, 176
-0.97388, 325, 65, 356, 128
-0.97394, 261, 81, 292, 208
-0.973986, 349, 193, 380, 256
-0.974059, 245, 1, 276, 128
-0.974078, 145, 97, 208, 224
-0.974159, 273, 169, 400, 232
-0.974252, 1, 121, 64, 184
-0.974281, 433, 9, 496, 72
-0.974357, 301, 153, 332, 216
-0.974393, 209, 241, 272, 302
-0.974439, 373, 73, 404, 136
-0.97452, 261, 201, 292, 264
-0.974553, 289, 97, 320, 224
-0.974625, 177, 217, 240, 280
-0.97464, 269, 49, 300, 112
-0.974699, 325, 177, 356, 302
-0.974748, 185, 33, 248, 288
-0.974778, 249, 1, 312, 64
-0.974804, 353, 137, 384, 200
-0.97497, 213, 113, 244, 240
-0.975026, 153, 49, 216, 112
-0.975029, 349, 81, 380, 208
-0.975056, 389, 65, 420, 192
-0.975257, 301, 177, 332, 302
-0.97529, 161, 129, 288, 192
-0.975325, 237, 81, 268, 208
-0.975325, 241, 105, 368, 168
-0.975341, 281, 49, 312, 112
-0.975391, 397, 113, 428, 176
-0.975413, 397, 177, 428, 240
-0.9755, 269, 33, 300, 160
-0.975538, 321, 81, 448, 144
-0.975592, 293, 49, 324, 112
-0.975763, 241, 41, 272, 104
-0.975876, 297, 225, 328, 288
-0.975957, 209, 33, 240, 160
-0.975992, 225, 193, 256, 256
-0.976017, 353, 73, 384, 136
-0.976034, 305, 41, 368, 104
-0.976072, 121, 73, 184, 136
-0.976099, 341, 105, 372, 168
-0.976153, 293, 177, 324, 240
-0.976265, 409, 129, 472, 192
-0.976347, 5, 193, 36, 256
-0.97635, 273, 153, 304, 216
-0.976639, 349, 217, 380, 280
-0.976642, 29, 177, 60, 240
-0.976689, 25, 161, 56, 288
-0.97678, 405, 209, 436, 272
-0.976783, 265, 177, 296, 240
-0.976871, 129, 105, 256, 168
-0.976883, 369, 113, 400, 176
-0.977009, 257, 49, 288, 112
-0.977012, 209, 129, 336, 192
-0.977096, 1, 161, 32, 288
-0.977178, 437, 1, 468, 64
-0.977213, 225, 33, 256, 160
-0.977215, 25, 137, 88, 200
-0.977399, 369, 153, 496, 216
-0.97741, 249, 81, 280, 208
-0.977415, 1, 209, 128, 272
-0.977519, 285, 49, 316, 176
-0.977589, 253, 9, 284, 72
-0.977681, 217, 153, 280, 216
-0.977738, 333, 177, 364, 240
-0.977766, 329, 225, 360, 288
-0.977801, 245, 153, 276, 216
-0.977899, 177, 177, 240, 302
-0.977904, 289, 153, 320, 216
-0.977911, 237, 177, 268, 240
-0.977944, 225, 129, 256, 192
-0.97801, 265, 129, 296, 192
-0.978031, 353, 113, 384, 176
-0.978035, 217, 1, 280, 302
-0.97807, 377, 1, 440, 256
-0.978103, 225, 33, 352, 96
-0.978283, 337, 177, 368, 302
-0.978489, 129, 105, 192, 168
-0.978514, 177, 129, 240, 192
-0.978522, 369, 49, 496, 112
-0.978646, 273, 25, 336, 88
-0.978661, 369, 129, 496, 192
-0.978816, 225, 233, 352, 296
-0.978841, 413, 185, 444, 248
-0.978869, 33, 105, 160, 168
-0.978907, 177, 241, 304, 302
-0.979084, 417, 161, 448, 288
-0.979095, 257, 241, 320, 302
-0.979132, 49, 185, 112, 248
-0.979132, 469, 201, 500, 264
-0.979183, 317, 225, 348, 288
-0.979219, 97, 81, 224, 144
-0.979245, 249, 1, 312, 302
-0.979273, 1, 153, 64, 216
-0.979274, 457, 49, 488, 112
-0.979314, 377, 217, 408, 280
-0.979326, 393, 161, 424, 288
-0.979482, 121, 33, 184, 288
-0.979493, 409, 105, 472, 168
-0.979589, 37, 145, 68, 208
-0.979592, 401, 217, 464, 280
-0.979699, 261, 241, 292, 302
-0.979753, 221, 49, 252, 112
-0.979798, 425, 193, 456, 256
-0.979909, 145, 217, 272, 280
-0.979962, 357, 161, 388, 224
-0.979979, 385, 49, 448, 112
-0.980129, 45, 129, 76, 256
-0.980157, 365, 217, 396, 280
-0.980346, 29, 217, 60, 280
-0.980362, 409, 33, 472, 288
-0.980373, 425, 1, 456, 128
-0.980404, 1, 185, 128, 248
-0.980409, 133, 65, 164, 192
-0.980425, 385, 113, 416, 176
-0.980501, 249, 241, 280, 302
-0.98062, 113, 1, 240, 128
-0.980622, 129, 185, 256, 248
-0.980623, 469, 49, 500, 112
-0.980714, 177, 193, 240, 256
-0.980731, 433, 57, 496, 120
-0.980779, 177, 81, 240, 144
-0.980836, 241, 1, 368, 64
-0.980899, 337, 201, 368, 264
-0.980985, 209, 89, 240, 152
-0.981068, 305, 41, 432, 104
-0.98109, 353, 1, 480, 64
-0.981112, 65, 145, 192, 272
-0.981124, 433, 1, 496, 256
-0.981164, 369, 89, 496, 152
-0.981171, 441, 49, 472, 112
-0.981202, 453, 177, 484, 302
-0.981218, 369, 17, 432, 144
-0.981397, 321, 129, 352, 192
-0.981413, 97, 193, 160, 256
-0.981473, 437, 25, 468, 88
-0.981559, 17, 185, 48, 248
-0.981654, 261, 153, 292, 216
-0.981663, 405, 161, 436, 288
-0.981691, 433, 1, 496, 302
-0.981777, 281, 129, 312, 192
-0.981862, 33, 113, 96, 176
-0.981913, 197, 49, 228, 176
-0.982206, 241, 89, 272, 152
-0.982327, 253, 177, 284, 240
-0.982419, 405, 145, 436, 208
-0.982424, 221, 177, 252, 302
-0.982452, 369, 169, 400, 232
-0.982473, 1, 49, 128, 176
-0.982591, 329, 105, 360, 168
-0.982689, 461, 1, 492, 128
-0.982695, 185, 33, 216, 160
-0.982698, 177, 17, 304, 80
-0.982724, 369, 25, 432, 88
-0.982799, 449, 193, 480, 256
-0.982838, 321, 177, 352, 240
-0.982895, 145, 25, 208, 88
-0.98294, 405, 89, 436, 152
-0.982974, 209, 41, 240, 104
-0.982977, 193, 17, 256, 80
-0.983022, 249, 201, 280, 264
-0.983103, 313, 1, 344, 128
-0.983199, 177, 1, 240, 302
-0.983208, 149, 49, 180, 176
-0.983222, 401, 49, 432, 176
-0.983238, 309, 129, 340, 192
-0.983312, 261, 89, 292, 152
-0.983316, 229, 89, 260, 152
-0.983318, 333, 33, 364, 160
-0.983334, 61, 113, 92, 240
-0.983397, 369, 217, 496, 280
-0.98344, 49, 193, 176, 256
-0.98346, 425, 169, 456, 232
-0.983497, 409, 121, 440, 184
-0.983607, 425, 1, 456, 64
-0.983629, 437, 193, 468, 256
-0.983653, 237, 241, 268, 302
-0.983658, 41, 169, 72, 232
-0.983675, 97, 33, 160, 160
-0.983727, 441, 161, 472, 288
-0.98382, 469, 49, 500, 176
-0.983858, 437, 1, 468, 128
-0.983895, 361, 49, 392, 112
-0.983968, 17, 233, 48, 296
-0.984023, 173, 33, 204, 160
-0.984037, 1, 169, 32, 232
-0.984073, 89, 65, 152, 128
-0.984089, 161, 1, 224, 256
-0.984155, 293, 73, 324, 136
-0.984174, 281, 241, 312, 302
-0.984191, 325, 201, 356, 264
-0.984251, 133, 57, 164, 120
-0.984305, 265, 1, 296, 64
-0.984347, 369, 1, 432, 302
-0.98435, 345, 161, 376, 224
-0.984417, 365, 137, 396, 200
-0.984451, 353, 25, 480, 88
-0.984514, 121, 1, 184, 128
-0.984558, 1, 129, 32, 192
-0.984579, 41, 209, 72, 272
-0.984648, 185, 153, 248, 216
-0.984673, 17, 113, 48, 240
-0.984794, 57, 177, 120, 302
-0.984795, 425, 225, 488, 288
-0.984797, 209, 121, 240, 184
-0.984861, 369, 233, 432, 296
-0.984906, 409, 1, 472, 302
-0.984962, 241, 17, 272, 80
-0.984986, 429, 177, 460, 302
-0.985086, 225, 169, 256, 232
-0.985107, 145, 81, 272, 144
-0.985165, 149, 49, 180, 112
-0.985171, 317, 89, 348, 152
-0.985323, 49, 1, 176, 128
-0.985362, 145, 73, 208, 136
-0.985381, 13, 177, 44, 302
-0.985408, 73, 193, 136, 256
-0.985471, 161, 49, 192, 176
-0.985563, 293, 129, 324, 192
-0.985574, 109, 89, 140, 152
-0.985598, 425, 233, 456, 296
-0.985623, 17, 129, 48, 192
-0.985641, 49, 81, 176, 144
-0.985746, 321, 241, 384, 302
-0.985758, 245, 65, 276, 128
-0.985763, 97, 209, 224, 272
-0.985768, 273, 1, 336, 302
-0.985847, 213, 209, 244, 272
-0.985863, 273, 89, 304, 152
-0.985903, 129, 193, 192, 256
-0.985919, 193, 193, 448, 256
-0.986053, 225, 241, 256, 302
-0.986062, 1, 113, 32, 240
-0.986091, 177, 153, 304, 216
-0.986146, 461, 25, 492, 88
-0.986187, 145, 1, 208, 302
-0.986329, 401, 241, 464, 302
-0.98635, 49, 177, 80, 302
-0.986353, 97, 129, 160, 256
-0.986438, 197, 105, 228, 168
-0.986717, 237, 201, 268, 264
-0.986779, 129, 145, 192, 272
-0.986793, 25, 233, 88, 296
-0.986859, 69, 105, 100, 168
-0.986874, 21, 153, 52, 216
-0.986926, 49, 137, 112, 200
-0.987029, 345, 1, 408, 302
-0.987048, 17, 81, 80, 208
-0.987155, 465, 161, 496, 288
-0.987197, 17, 129, 144, 192
-0.987274, 289, 97, 320, 160
-0.987275, 1, 161, 128, 224
-0.987364, 185, 49, 216, 112
-0.987372, 97, 49, 352, 112
-0.98742, 121, 65, 152, 192
-0.987473, 293, 25, 324, 88
-0.987527, 265, 25, 296, 88
-0.987532, 105, 97, 168, 160
-0.987575, 281, 1, 312, 128
-0.987595, 389, 57, 420, 120
-0.987647, 357, 33, 388, 160
-0.987678, 301, 1, 332, 128
-0.987735, 413, 113, 444, 240
-0.98779, 225, 105, 480, 168
-0.987806, 425, 145, 456, 208
-0.987819, 17, 89, 80, 152
-0.987882, 441, 49, 472, 176
-0.987955, 73, 33, 136, 288
-0.987976, 321, 1, 384, 302
-0.988026, 257, 161, 500, 224
-0.988051, 385, 1, 448, 64
-0.98808, 1, 233, 128, 296
-0.988102, 73, 97, 104, 224
-0.988119, 49, 161, 112, 224
-0.988135, 193, 65, 448, 128
-0.988237, 97, 177, 160, 302
-0.988242, 289, 17, 416, 80
-0.988253, 273, 221, 336, 252
-0.988413, 201, 97, 232, 224
-0.988425, 321, 241, 448, 302
-0.988599, 377, 185, 440, 216
-0.988721, 337, 221, 400, 252
-0.988743, 1, 97, 500, 160
-0.988744, 273, 233, 336, 264
-0.988753, 217, 45, 280, 76
-0.988756, 109, 81, 140, 208
-0.988781, 273, 53, 336, 84
-0.988805, 217, 89, 280, 120
-0.988834, 373, 1, 404, 128
-0.988932, 313, 69, 376, 100
-0.988953, 241, 53, 304, 84
-0.989004, 113, 129, 240, 192
-0.98902, 209, 161, 240, 288
-0.989034, 241, 189, 304, 220
-0.98906, 185, 241, 248, 302
-0.989113, 145, 217, 208, 280
-0.989137, 345, 17, 376, 144
-0.989149, 305, 229, 368, 260
-0.989151, 409, 193, 472, 224
-0.989158, 377, 213, 440, 244
-0.989169, 1, 217, 64, 248
-0.989249, 289, 65, 352, 96
-0.989281, 241, 137, 304, 168
-0.989311, 189, 97, 220, 224
-0.989313, 209, 133, 272, 164
-0.989372, 1, 229, 64, 260
-0.989375, 121, 1, 184, 302
-0.98941, 345, 197, 408, 228
-0.989418, 153, 185, 216, 248
-0.989419, 345, 145, 408, 176
-0.989424, 129, 137, 192, 200
-0.989447, 1, 193, 500, 256
-0.989517, 385, 173, 448, 204
-0.989532, 305, 141, 368, 172
-0.989592, 97, 217, 160, 280
-0.989616, 33, 97, 288, 160
-0.989652, 241, 241, 304, 272
-0.989679, 257, 85, 320, 116
-0.989726, 361, 81, 424, 112
-0.989732, 281, 141, 344, 172
-0.98976, 85, 97, 116, 224
-0.989765, 297, 201, 360, 232
-0.989773, 345, 181, 408, 212
-0.989789, 273, 185, 336, 216
-0.989813, 225, 201, 288, 232
-0.989814, 297, 1, 360, 302
-0.989815, 1, 205, 64, 236
-0.989816, 353, 209, 416, 240
-0.989859, 361, 225, 424, 256
-0.989879, 337, 73, 400, 104
-0.989915, 1, 33, 64, 288
-0.989989, 81, 105, 208, 168
-0.990003, 289, 93, 352, 124
-0.990004, 257, 209, 320, 240
-0.990004, 369, 117, 432, 148
-0.99001, 305, 177, 368, 208
-0.990095, 217, 189, 280, 220
-0.990155, 377, 101, 440, 132
-0.990176, 377, 201, 440, 232
-0.990223, 377, 157, 440, 188
-0.990296, 249, 153, 312, 184
-0.990313, 157, 97, 188, 224
-0.990322, 281, 157, 344, 188
-0.990327, 257, 137, 500, 200
-0.990328, 37, 177, 68, 302
-0.990358, 401, 77, 464, 108
-0.990405, 57, 49, 120, 176
-0.990409, 417, 205, 480, 236
-0.990422, 193, 41, 256, 72
-0.99043, 305, 157, 368, 188
-0.990433, 305, 217, 368, 248
-0.990437, 345, 101, 408, 132
-0.990448, 425, 5, 488, 36
-0.99045, 377, 145, 440, 176
-0.990458, 49, 217, 176, 280
-0.990468, 425, 41, 488, 72
-0.990487, 129, 241, 256, 302
-0.990521, 241, 41, 304, 72
-0.990522, 225, 153, 288, 184
-0.990537, 129, 25, 256, 88
-0.990539, 137, 53, 200, 84
-0.990557, 97, 81, 128, 208
-0.99056, 273, 197, 336, 228
-0.990599, 313, 97, 376, 128
-0.990624, 33, 209, 96, 240
-0.99063, 185, 133, 248, 164
-0.990661, 257, 225, 500, 288
-0.990678, 329, 233, 392, 264
-0.990687, 377, 133, 440, 164
-0.990691, 421, 49, 452, 176
-0.990703, 409, 29, 472, 60
-0.99075, 361, 1, 424, 64
-0.990763, 169, 49, 232, 80
-0.990769, 297, 241, 360, 272
-0.99077, 273, 169, 336, 200
-0.990772, 249, 169, 312, 200
-0.990773, 257, 33, 500, 96
-0.990815, 201, 233, 264, 264
-0.990829, 81, 97, 144, 128
-0.990859, 105, 121, 168, 184
-0.990885, 265, 97, 328, 128
-0.990887, 425, 53, 488, 84
-0.990892, 177, 113, 240, 144
-0.990895, 225, 177, 288, 208
-0.990898, 201, 145, 264, 176
-0.990914, 169, 17, 232, 80
-0.990933, 369, 69, 432, 100
-0.990942, 401, 217, 464, 248
-0.990956, 345, 113, 408, 144
-0.990966, 297, 53, 360, 84
-0.991006, 153, 145, 216, 272
-0.99106, 209, 245, 272, 276
-0.99108, 265, 41, 328, 72
-0.99108, 161, 125, 224, 156
-0.991089, 409, 181, 472, 212
-0.991117, 193, 85, 256, 116
-0.991124, 217, 33, 280, 64
-0.991126, 425, 17, 488, 48
-0.991147, 273, 245, 336, 276
-0.99115, 385, 17, 416, 144
-0.991161, 409, 145, 472, 176
-0.991168, 257, 65, 320, 96
-0.991172, 329, 25, 392, 88
-0.991187, 33, 225, 96, 256
-0.99119, 217, 77, 280, 108
-0.991222, 433, 193, 496, 224
-0.991275, 401, 89, 464, 120
-0.991282, 225, 9, 480, 72
-0.991284, 329, 85, 392, 116
-0.991293, 401, 5, 464, 36
-0.991294, 105, 89, 168, 120
-0.991307, 361, 169, 424, 200
-0.991314, 1, 241, 64, 272
-0.991314, 401, 17, 464, 48
-0.991326, 1, 217, 500, 280
-0.991329, 185, 189, 248, 220
-0.991334, 161, 101, 224, 132
-0.991339, 1, 129, 64, 160
-0.991342, 25, 197, 88, 228
-0.991352, 337, 61, 400, 92
-0.991354, 1, 185, 64, 216
-0.991387, 81, 193, 144, 224
-0.991396, 105, 169, 168, 232
-0.991406, 121, 73, 184, 104
-0.991414, 409, 169, 472, 200
-0.991424, 425, 113, 456, 240
-0.991425, 337, 161, 400, 192
-0.991442, 129, 121, 192, 152
-0.991453, 321, 109, 384, 140
-0.99146, 201, 201, 264, 232
-0.991479, 409, 113, 472, 144
-0.991479, 161, 129, 416, 192
-0.991498, 33, 193, 288, 256
-0.991499, 281, 81, 344, 112
-0.991503, 433, 29, 496, 60
-0.991512, 201, 121, 264, 152
-0.991551, 409, 133, 472, 164
-0.991568, 297, 189, 360, 220
-0.991604, 121, 109, 184, 140
-0.991619, 185, 213, 248, 244
-0.99163, 321, 197, 384, 228
-0.991633, 97, 33, 160, 288
-0.991653, 1, 73, 500, 136
-0.991662, 417, 233, 480, 264
-0.99167, 61, 161, 92, 288
-0.991673, 409, 157, 472, 188
-0.991691, 25, 145, 88, 176
-0.991719, 401, 65, 464, 96
-0.991741, 233, 253, 296, 284
-0.991747, 385, 229, 448, 260
-0.991755, 285, 209, 316, 240
-0.991786, 81, 57, 208, 120
-0.991801, 401, 53, 464, 84
-0.991808, 289, 105, 352, 136
-0.991824, 25, 121, 88, 152
-0.991829, 177, 201, 240, 232
-0.991916, 161, 217, 416, 280
-0.991932, 289, 225, 320, 256
-0.991968, 33, 217, 288, 280
-0.991984, 129, 97, 384, 160
-0.992018, 257, 49, 288, 80
-0.99207, 277, 233, 308, 264
-0.992074, 385, 213, 416, 244
-0.992103, 13, 213, 44, 244
-0.992104, 161, 153, 416, 216
-0.992151, 65, 217, 128, 280
-0.992153, 65, 241, 192, 302
-0.992172, 33, 121, 288, 184
-0.992217, 297, 57, 328, 88
-0.99223, 173, 81, 204, 208
-0.992234, 129, 161, 256, 224
-0.992235, 385, 201, 416, 232
-0.992299, 273, 53, 304, 84
-0.992304, 1, 201, 32, 232
-0.992309, 437, 193, 468, 224
-0.992313, 245, 45, 276, 76
-0.992328, 397, 213, 428, 244
-0.992337, 145, 97, 176, 224
-0.992352, 373, 221, 404, 252
-0.992355, 425, 193, 456, 224
-0.992361, 313, 61, 344, 92
-0.992362, 49, 33, 112, 288
-0.992366, 233, 133, 264, 164
-0.992374, 333, 69, 364, 100
-0.992401, 285, 53, 316, 84
-0.992402, 285, 89, 316, 120
-0.992403, 1, 229, 32, 260
-0.992414, 273, 189, 304, 220
-0.992424, 245, 153, 276, 184
-0.992431, 129, 113, 160, 240
-0.992449, 449, 29, 480, 60
-0.99245, 349, 221, 380, 252
-0.992452, 393, 85, 424, 116
-0.992457, 377, 81, 408, 112
-0.992464, 301, 233, 332, 264
-0.992471, 273, 137, 304, 168
-0.992476, 49, 169, 176, 232
-0.992489, 349, 73, 380, 104
-0.992496, 377, 145, 408, 176
-0.992498, 385, 225, 416, 256
-0.992499, 1, 137, 500, 200
-0.992512, 1, 217, 32, 248
-0.992515, 273, 89, 304, 120
-0.992517, 361, 77, 392, 108
-0.992518, 249, 81, 280, 112
-0.992526, 29, 221, 60, 252
-0.992531, 253, 137, 284, 168
-0.992536, 333, 141, 364, 172
-0.992536, 245, 189, 276, 220
-0.99254, 213, 133, 244, 164
-0.992544, 17, 229, 48, 260
-0.99255, 233, 41, 264, 72
-0.992553, 257, 241, 288, 272
-0.992556, 313, 229, 344, 260
-0.992559, 441, 9, 472, 40
-0.992572, 265, 153, 296, 184
-0.992573, 405, 157, 436, 188
-0.992582, 361, 221, 392, 252
-0.992599, 229, 189, 260, 220
-0.992604, 401, 109, 432, 140
-0.99261, 13, 201, 44, 232
-0.99261, 325, 229, 356, 260
-0.992616, 277, 221, 308, 252
-0.992617, 225, 85, 256, 116
-0.992618, 285, 209, 300, 272
-0.99262, 229, 201, 260, 232
-0.992633, 397, 97, 428, 128
-0.992635, 25, 209, 56, 240
-0.992647, 449, 45, 480, 76
-0.992659, 409, 217, 440, 248
-0.992661, 429, 9, 460, 40
-0.992664, 285, 197, 316, 228
-0.992666, 313, 181, 344, 212
-0.992678, 301, 89, 332, 120
-0.992682, 337, 225, 368, 256
-0.992693, 29, 233, 60, 264
-0.992694, 65, 73, 320, 136
-0.992697, 321, 141, 352, 172
-0.992699, 357, 145, 388, 176
-0.992703, 449, 193, 480, 224
-0.992703, 425, 181, 456, 212
-0.99271, 369, 193, 400, 224
-0.992717, 245, 241, 276, 272
-0.992718, 265, 205, 296, 236
-0.992719, 261, 85, 292, 116
-0.992723, 325, 177, 356, 208
-0.992726, 433, 69, 464, 100
-0.992733, 401, 121, 432, 152
-0.992733, 353, 105, 384, 136
-0.992741, 433, 89, 496, 152
-0.992745, 353, 193, 480, 224
-0.992748, 221, 41, 252, 72
-0.992764, 285, 137, 316, 168
-0.992773, 453, 49, 484, 176
-0.992774, 293, 185, 324, 216
-0.992778, 281, 169, 312, 200
-0.992784, 297, 45, 328, 76
-0.992791, 209, 93, 240, 124
-0.992802, 309, 165, 340, 196
-0.992807, 281, 245, 312, 276
-0.992812, 305, 201, 336, 232
-0.992815, 317, 93, 348, 124
-0.992817, 225, 145, 256, 176
-0.992827, 261, 185, 292, 216
-0.992829, 345, 141, 376, 172
-0.992831, 373, 209, 404, 240
-0.992835, 285, 41, 316, 72
-0.99285, 409, 177, 440, 208
-0.992861, 369, 181, 400, 212
-0.992861, 381, 105, 412, 136
-0.992875, 449, 233, 480, 264
-0.992875, 353, 209, 384, 240
-0.992876, 297, 213, 328, 244
-0.992886, 289, 153, 320, 184
-0.992887, 161, 41, 288, 72
-0.992889, 341, 153, 372, 184
-0.992895, 133, 57, 164, 88
-0.992897, 405, 141, 436, 172
-0.992901, 453, 73, 484, 104
-0.992903, 333, 197, 364, 228
-0.992904, 309, 141, 340, 172
-0.992917, 325, 165, 356, 196
-0.992917, 441, 57, 472, 88
-0.992918, 421, 205, 452, 236
-0.992923, 341, 185, 372, 216
-0.992929, 297, 137, 328, 168
-0.992937, 365, 41, 396, 72
-0.992939, 237, 177, 268, 208
-0.992941, 333, 97, 364, 128
-0.992943, 277, 153, 308, 184
-0.992944, 397, 225, 428, 256
-0.992951, 305, 101, 336, 132
-0.992953, 393, 73, 424, 104
-0.992953, 209, 45, 240, 76
-0.992957, 217, 189, 248, 220
-0.992963, 365, 233, 396, 264
-0.992963, 381, 173, 412, 204
-0.992967, 357, 177, 388, 208
-0.992968, 153, 53, 184, 84
-0.992971, 357, 161, 388, 192
-0.992974, 365, 105, 396, 136
-0.992974, 401, 201, 432, 232
-0.992978, 77, 105, 108, 136
-0.992983, 233, 245, 264, 276
-0.992987, 301, 69, 332, 100
-0.993017, 321, 145, 448, 176
-0.993046, 273, 201, 400, 232
-0.993047, 391, 193, 406, 256
-0.993105, 225, 57, 352, 88
-0.99317, 369, 241, 496, 302
-0.993176, 297, 17, 360, 80
-0.993181, 413, 1, 444, 128
-0.993215, 97, 25, 352, 88
-0.993262, 193, 93, 320, 124
-0.993265, 273, 141, 400, 172
-0.993277, 321, 181, 448, 212
-0.993327, 21, 201, 36, 264
-0.99333, 405, 81, 420, 144
-0.993338, 369, 137, 384, 200
-0.993375, 301, 209, 316, 272
-0.993447, 121, 217, 184, 280
-0.993447, 1, 49, 500, 112
-0.993506, 209, 221, 336, 252
-0.993525, 321, 165, 448, 196
-0.993527, 305, 229, 432, 260
-0.993536, 359, 137, 374, 200
-0.993565, 9, 1, 72, 302
-0.993606, 311, 193, 326, 256
-0.993606, 1, 169, 500, 232
-0.993616, 209, 209, 336, 240
-0.993635, 379, 193, 394, 256
-0.993641, 33, 113, 64, 240
-0.993686, 209, 137, 336, 168
-0.993712, 353, 213, 480, 244
-0.99374, 385, 193, 400, 256
-0.993757, 295, 185, 310, 248
-0.993781, 257, 69, 384, 100
-0.993812, 209, 185, 336, 216
-0.993815, 333, 153, 348, 216
-0.993821, 97, 1, 160, 302
-0.993841, 401, 1, 432, 128
-0.993881, 287, 185, 302, 248
-0.993886, 77, 177, 108, 302
-0.993909, 381, 73, 396, 136
-0.993918, 453, 1, 468, 64
-0.993926, 161, 241, 416, 302
-0.993929, 351, 65, 366, 128
-0.993944, 371, 193, 386, 256
-0.993955, 327, 153, 342, 216
-0.993992, 257, 237, 384, 268
-0.994068, 177, 129, 208, 256
-0.994073, 315, 153, 330, 216
-0.994081, 297, 49, 312, 112
-0.994085, 257, 185, 384, 216
-0.994155, 277, 185, 292, 248
-0.994178, 369, 161, 384, 224
-0.994195, 65, 1, 128, 302
-0.994197, 353, 137, 368, 200
-0.994205, 395, 73, 410, 136
-0.994209, 397, 201, 412, 264
-0.994212, 267, 161, 282, 224
-0.99423, 411, 89, 426, 152
-0.994239, 365, 193, 380, 256
-0.994239, 447, 1, 462, 64
-0.994249, 303, 161, 318, 224
-0.994257, 417, 129, 432, 192
-0.994267, 289, 57, 304, 120
-0.994287, 129, 53, 256, 84
-0.994288, 343, 137, 358, 200
-0.99429, 153, 145, 216, 208
-0.994296, 387, 81, 402, 144
-0.994302, 197, 1, 228, 128
-0.994322, 17, 205, 144, 236
-0.994322, 145, 133, 272, 164
-0.994342, 451, 25, 466, 88
-0.994353, 305, 85, 432, 116
-0.994366, 357, 73, 372, 136
-0.994438, 73, 169, 136, 232
-0.994448, 353, 201, 368, 264
-0.994478, 361, 113, 376, 176
-0.994501, 307, 49, 322, 112
-0.994511, 321, 133, 448, 164
-0.994534, 31, 209, 46, 272
-0.994558, 257, 41, 272, 104
-0.994559, 369, 173, 496, 204
-0.994562, 267, 41, 282, 104
-0.994566, 321, 153, 336, 216
-0.994571, 301, 137, 316, 200
-0.994591, 239, 169, 254, 232
-0.994593, 327, 65, 342, 128
-0.994597, 209, 45, 336, 76
-0.994613, 209, 241, 336, 272
-0.994621, 261, 17, 276, 80
-0.99463, 13, 193, 28, 256
-0.99466, 229, 193, 244, 256
-0.994695, 5, 209, 20, 272
-0.994736, 385, 113, 400, 176
-0.994739, 257, 129, 272, 192
-0.994748, 281, 161, 296, 224
-0.99476, 237, 129, 252, 192
-0.994768, 33, 49, 160, 112
-0.994802, 369, 77, 496, 108
-0.994818, 359, 193, 374, 256
-0.994835, 341, 193, 356, 256
-0.99484, 321, 117, 448, 148
-0.994844, 361, 161, 376, 224
-0.99487, 15, 217, 30, 280
-0.994878, 461, 1, 476, 64
-0.994892, 33, 1, 96, 302
-0.994906, 249, 129, 264, 192
-0.99491, 377, 113, 392, 176
-0.994911, 375, 73, 390, 136
-0.994923, 41, 169, 56, 232
-0.994927, 371, 113, 386, 176
-0.994933, 227, 49, 242, 112
-0.994943, 275, 209, 290, 272
-0.994948, 247, 177, 262, 240
-0.994962, 463, 25, 478, 88
-0.994978, 343, 225, 358, 288
-0.994982, 347, 105, 362, 168
-0.994987, 277, 233, 292, 296
-0.994995, 1, 145, 256, 208
-0.994999, 391, 113, 406, 176
-0.99501, 271, 233, 286, 296
-0.99502, 35, 185, 50, 248
-0.995029, 309, 153, 324, 216
-0.995063, 319, 193, 334, 256
-0.995068, 109, 33, 140, 160
-0.995073, 423, 169, 438, 232
-0.995093, 337, 225, 352, 288
-0.995096, 377, 33, 408, 288
-0.995104, 257, 225, 384, 256
-0.995134, 349, 33, 380, 288
-0.995136, 381, 217, 396, 280
-0.995138, 465, 113, 496, 240
-0.995143, 265, 129, 280, 192
-0.995143, 231, 129, 246, 192
-0.995156, 259, 65, 274, 128
-0.995158, 365, 33, 396, 288
-0.995161, 429, 193, 444, 256
-0.995169, 367, 73, 382, 136
-0.995181, 275, 137, 290, 200
-0.995206, 365, 217, 380, 280
-0.995209, 295, 153, 310, 216
-0.99521, 137, 17, 168, 144
-0.99522, 331, 225, 346, 288
-0.995221, 379, 137, 394, 200
-0.995225, 97, 93, 224, 124
-0.995228, 257, 213, 384, 244
-0.995234, 243, 49, 258, 112
-0.995263, 419, 209, 434, 272
-0.995264, 313, 49, 328, 112
-0.995267, 341, 65, 356, 128
-0.995271, 291, 209, 306, 272
-0.995278, 321, 57, 336, 120
-0.995283, 237, 49, 252, 112
-0.995305, 301, 185, 316, 248
-0.995305, 255, 17, 270, 80
-0.995307, 209, 197, 336, 228
-0.995311, 129, 233, 256, 264
-0.995311, 353, 113, 368, 176
-0.995313, 41, 209, 56, 272
-0.995314, 439, 1, 454, 64
-0.995325, 393, 145, 408, 208
-0.995326, 337, 129, 352, 192
-0.995327, 305, 73, 432, 104
-0.995335, 401, 113, 416, 176
-0.995338, 353, 225, 480, 256
-0.995338, 25, 33, 88, 288
-0.995344, 265, 233, 280, 296
-0.995348, 325, 225, 340, 288
-0.995382, 353, 177, 368, 240
-0.995388, 369, 161, 496, 192
-0.995392, 279, 57, 294, 120
-0.995408, 347, 201, 362, 264
-0.995408, 317, 225, 332, 288
-0.995412, 273, 157, 400, 188
-0.995439, 409, 209, 424, 272
-0.995439, 259, 241, 274, 302
-0.995445, 461, 193, 476, 256
-0.995459, 65, 137, 192, 200
-0.99546, 251, 241, 266, 302
-0.995473, 369, 149, 496, 180
-0.995509, 335, 65, 350, 128
-0.995513, 33, 129, 160, 160
-0.995516, 273, 161, 288, 224
-0.995517, 341, 105, 356, 168
-0.995531, 333, 193, 348, 256
-0.995541, 259, 177, 274, 240
-0.995552, 375, 217, 390, 280
-0.995554, 1, 217, 128, 248
-0.995567, 245, 241, 260, 302
-0.99557, 417, 105, 432, 168
-0.995571, 481, 201, 496, 264
-0.995582, 81, 25, 208, 88
-0.995586, 49, 73, 112, 136
-0.995601, 263, 201, 278, 264
-0.995606, 327, 129, 342, 192
-0.995628, 411, 113, 426, 176
-0.995632, 369, 93, 496, 124
-0.995633, 453, 49, 468, 112
-0.995637, 253, 89, 268, 152
-0.995646, 329, 33, 360, 288
-0.995657, 65, 241, 320, 302
-0.995659, 343, 161, 358, 224
-0.995666, 261, 33, 292, 288
-0.995682, 251, 57, 266, 120
-0.995692, 289, 33, 320, 288
-0.995719, 329, 1, 392, 64
-0.995768, 1, 169, 256, 232
-0.99577, 1, 233, 128, 264
-0.995781, 1, 241, 500, 302
-0.99581, 277, 33, 308, 288
-0.995813, 273, 1, 336, 64
-0.995816, 105, 177, 136, 302
-0.995818, 129, 221, 256, 252
-0.995826, 105, 33, 168, 96
-0.995863, 49, 109, 176, 140
-0.995873, 129, 169, 192, 232
-0.995874, 309, 33, 340, 288
-0.995921, 225, 1, 256, 256
-0.99593, 353, 5, 480, 36
-0.995935, 129, 201, 256, 232
-0.99594, 225, 153, 352, 184
-0.995944, 113, 113, 240, 144
-0.995949, 197, 145, 228, 272
-0.99596, 225, 33, 352, 64
-0.995973, 321, 241, 448, 272
-0.995989, 241, 101, 368, 132
-0.996019, 153, 1, 184, 128
-0.99604, 305, 217, 432, 248
-0.996084, 113, 81, 240, 112
-0.996094, 177, 81, 304, 112
-0.996107, 337, 61, 464, 92
-0.996144, 257, 81, 384, 112
-0.996189, 1, 189, 128, 220
-0.996205, 81, 49, 112, 176
-0.996241, 305, 97, 432, 128
-0.996332, 1, 73, 128, 136
-0.996354, 369, 41, 496, 72
-0.996376, 177, 149, 304, 180
-0.996388, 273, 173, 400, 204
-0.996394, 245, 1, 276, 256
-0.996399, 369, 137, 496, 168
-0.996402, 213, 33, 244, 288
-0.996446, 177, 57, 304, 88
-0.996487, 89, 177, 120, 302
-0.996517, 125, 177, 156, 302
-0.996531, 401, 33, 432, 288
-0.99658, 161, 245, 288, 276
-0.996596, 1, 49, 256, 112
-0.996599, 289, 53, 416, 84
-0.996601, 145, 93, 272, 124
-0.996744, 157, 145, 188, 272
-0.996754, 81, 41, 144, 104
-0.996761, 241, 5, 368, 36
-0.996797, 193, 125, 320, 156
-0.996798, 299, 209, 314, 240
-0.996866, 393, 201, 408, 232
-0.996881, 49, 97, 176, 128
-0.996884, 287, 205, 302, 236
-0.996925, 65, 241, 128, 302
-0.996928, 345, 241, 408, 302
-0.99693, 259, 45, 274, 76
-0.99696, 129, 189, 256, 220
-0.996965, 49, 193, 176, 224
-0.996969, 225, 169, 352, 200
-0.996973, 391, 213, 406, 244
-0.996979, 1, 177, 128, 208
-0.996983, 285, 233, 300, 264
-0.996997, 293, 225, 308, 256
-0.997007, 33, 141, 160, 172
-0.997011, 469, 33, 500, 288
-0.997024, 1, 117, 128, 148
-0.997034, 353, 29, 480, 60
-0.99707, 451, 193, 466, 224
-0.997073, 17, 213, 32, 244
-0.997091, 441, 113, 472, 240
-0.997104, 309, 57, 324, 88
-0.997114, 273, 37, 400, 68
-0.997117, 7, 217, 22, 248
-0.997133, 401, 217, 416, 248
-0.997136, 97, 129, 224, 160
-0.997138, 369, 157, 384, 188
-0.99714, 273, 49, 288, 80
-0.997141, 299, 89, 314, 120
-0.997149, 1, 209, 16, 240
-0.997152, 353, 17, 480, 48
-0.997193, 113, 41, 240, 72
-0.997195, 329, 65, 344, 96
-0.997224, 289, 53, 304, 84
-0.997234, 315, 57, 330, 88
-0.997237, 49, 217, 176, 248
-0.997269, 117, 129, 148, 256
-0.997271, 9, 201, 24, 232
-0.997277, 385, 221, 400, 252
-0.997282, 409, 89, 424, 120
-0.997291, 455, 73, 470, 104
-0.997296, 265, 49, 280, 80
-0.9973, 303, 53, 318, 84
-0.997302, 161, 29, 288, 60
-0.997309, 443, 189, 458, 220
-0.997326, 209, 253, 336, 284
-0.997334, 225, 21, 352, 52
-0.997337, 65, 205, 192, 236
-0.997337, 283, 53, 298, 84
-0.99734, 387, 81, 402, 112
-0.997341, 287, 221, 302, 252
-0.997344, 375, 221, 390, 252
-0.997358, 293, 201, 308, 232
-0.99736, 321, 61, 336, 92
-0.997364, 357, 73, 372, 104
-0.997368, 449, 1, 480, 256
-0.997378, 297, 57, 312, 88
-0.997387, 325, 181, 340, 212
-0.997389, 359, 145, 374, 176
-0.997389, 275, 185, 290, 216
-0.997394, 411, 101, 426, 132
-0.997407, 403, 85, 418, 116
-0.997412, 145, 145, 176, 272
-0.997423, 373, 77, 388, 108
-0.997426, 297, 45, 312, 76
-0.997436, 339, 177, 354, 208
-0.99744, 273, 249, 400, 280
-0.997441, 301, 221, 316, 252
-0.997447, 445, 9, 460, 40
-0.997456, 283, 137, 298, 168
-0.997459, 9, 229, 24, 260
-0.997464, 239, 133, 254, 164
-0.997466, 369, 105, 496, 136
-0.997476, 261, 81, 276, 112
-0.997484, 249, 41, 264, 72
-0.997484, 265, 137, 280, 168
-0.997489, 283, 89, 298, 120
-0.997505, 41, 221, 56, 252
-0.997515, 277, 137, 292, 168
-0.997525, 463, 33, 478, 64
-0.997529, 365, 225, 380, 256
-0.997533, 277, 205, 292, 236
-0.997535, 347, 69, 362, 100
-0.997538, 453, 25, 468, 56
-0.997545, 369, 125, 496, 156
-0.997564, 125, 17, 156, 144
-0.997564, 369, 145, 384, 176
-0.997568, 29, 233, 44, 264
-0.997574, 315, 233, 330, 264
-0.997582, 349, 141, 364, 172
-0.997583, 395, 85, 410, 116
-0.997583, 343, 141, 358, 172
-0.997592, 201, 1, 232, 256
-0.997598, 129, 145, 256, 176
-0.997599, 275, 153, 290, 184
-0.9976, 415, 121, 430, 152
-0.9976, 233, 189, 248, 220
-0.997601, 35, 221, 50, 252
-0.997604, 209, 69, 336, 100
-0.997611, 335, 65, 350, 96
-0.997615, 281, 189, 296, 220
-0.997616, 419, 153, 434, 184
-0.997616, 381, 81, 396, 112
-0.997617, 335, 165, 350, 196
-0.997619, 343, 229, 358, 260
-0.997626, 357, 105, 372, 136
-0.997628, 407, 217, 422, 248
-0.99763, 129, 69, 256, 100
-0.99763, 249, 137, 264, 168
-0.997636, 401, 105, 416, 136
-0.997638, 389, 33, 420, 288
-0.997642, 275, 237, 290, 268
-0.997646, 461, 5, 476, 36
-0.997646, 363, 73, 378, 104
-0.997651, 337, 229, 352, 260
-0.997652, 293, 137, 308, 168
-0.997654, 3, 197, 18, 228
-0.997667, 453, 13, 468, 44
-0.997668, 309, 201, 324, 232
-0.997668, 369, 237, 496, 268
-0.99768, 331, 229, 346, 260
-0.997682, 49, 65, 80, 192
-0.997684, 353, 217, 368, 248
-0.997687, 337, 141, 352, 172
-0.997698, 369, 181, 384, 212
-0.997707, 273, 129, 400, 160
-0.997712, 359, 225, 374, 256
-0.997714, 349, 229, 364, 260
-0.997724, 257, 137, 272, 168
-0.997727, 307, 181, 322, 212
-0.997727, 229, 133, 244, 164
-0.997731, 287, 189, 302, 220
-0.997736, 269, 241, 284, 272
-0.997736, 289, 85, 304, 116
-0.997743, 293, 189, 308, 220
-0.997745, 351, 97, 366, 128
-0.997752, 429, 197, 444, 228
-0.997752, 385, 109, 400, 140
-0.997756, 241, 177, 256, 208
-0.997763, 395, 105, 410, 136
-0.997766, 259, 241, 274, 272
-0.997776, 393, 189, 408, 220
-0.997777, 247, 245, 262, 276
-0.997779, 303, 233, 318, 264
-0.997783, 235, 85, 250, 116
-0.997784, 305, 93, 320, 124
-0.997794, 237, 41, 252, 72
-0.997794, 153, 33, 184, 288
-0.997796, 49, 237, 176, 268
-0.997796, 381, 193, 396, 224
-0.997804, 247, 189, 262, 220
-0.997804, 269, 169, 284, 200
-0.997817, 15, 201, 30, 232
-0.997819, 321, 233, 336, 264
-0.99782, 25, 205, 40, 236
-0.997824, 277, 89, 292, 120
-0.997825, 419, 217, 434, 248
-0.997831, 267, 85, 282, 116
-0.997832, 329, 157, 344, 188
-0.997832, 193, 105, 320, 136
-0.997836, 229, 85, 244, 116
-0.997838, 341, 65, 356, 96
-0.997839, 331, 141, 346, 172
-0.99784, 461, 197, 476, 228
-0.997847, 437, 1, 452, 32
-0.997851, 379, 97, 394, 128
-0.997858, 253, 241, 268, 272
-0.997874, 223, 133, 238, 164
-0.997879, 421, 173, 436, 204
-0.997949, 81, 53, 208, 84
-0.998067, 1, 25, 500, 88
-0.998111, 133, 33, 164, 288
-0.998164, 273, 113, 400, 144
-0.998255, 371, 129, 386, 256
-0.998284, 173, 1, 204, 256
-0.998284, 161, 17, 288, 48
-0.998303, 81, 141, 208, 172
-0.998319, 1, 161, 128, 192
-0.998326, 177, 165, 304, 196
-0.998333, 129, 1, 384, 64
-0.998343, 413, 1, 444, 256
-0.998347, 1, 105, 128, 136
-0.998369, 379, 129, 394, 256
-0.99837, 69, 49, 100, 176
-0.998381, 49, 69, 176, 100
-0.998382, 361, 129, 376, 256
-0.998412, 185, 177, 216, 302
-0.998422, 241, 53, 304, 68
-0.998424, 273, 235, 336, 250
-0.998424, 281, 63, 344, 78
-0.998426, 217, 89, 280, 104
-0.998426, 229, 245, 260, 260
-0.998426, 9, 225, 40, 240
-0.998428, 357, 145, 388, 160
-0.998428, 349, 217, 380, 232
-0.998428, 337, 223, 400, 238
-0.998429, 233, 189, 264, 204
-0.998429, 405, 207, 436, 222
-0.99843, 385, 185, 448, 200
-0.998432, 37, 177, 68, 192
-0.998433, 217, 47, 280, 62
-0.998434, 305, 229, 368, 244
-0.998434, 1, 211, 64, 226
-0.998435, 13, 217, 44, 232
-0.998435, 297, 221, 328, 236
-0.998435, 273, 225, 336, 240
-0.998436, 13, 237, 44, 252
-0.998436, 445, 11, 476, 26
-0.998437, 453, 53, 484, 68
-0.998438, 225, 135, 256, 150
-0.998438, 425, 205, 456, 220
-0.99844, 209, 47, 240, 62
-0.998442, 265, 161, 296, 176
-0.998442, 325, 73, 356, 88
-0.998443, 437, 203, 468, 218
-0.998444, 305, 157, 368, 172
-0.998444, 449, 23, 480, 38
-0.998444, 289, 161, 320, 176
-0.998445, 361, 225, 392, 240
-0.998445, 345, 157, 376, 172
-0.998445, 313, 163, 344, 178
-0.998446, 409, 171, 440, 186
-0.998447, 65, 81, 192, 112
-0.998448, 357, 157, 388, 172
-0.998449, 397, 95, 428, 110
-0.998449, 29, 227, 60, 242
-0.998449, 261, 155, 292, 170
-0.998451, 449, 41, 480, 56
-0.998451, 385, 191, 448, 206
-0.998452, 289, 49, 320, 64
-0.998453, 1, 231, 64, 246
-0.998453, 313, 69, 344, 84
-0.998453, 245, 51, 276, 66
-0.998455, 253, 85, 284, 100
-0.998455, 281, 247, 312, 262
-0.998456, 261, 1, 276, 128
-0.998458, 333, 227, 364, 242
-0.998459, 349, 223, 380, 238
-0.99846, 329, 177, 360, 192
-0.998461, 265, 87, 296, 102
-0.998462, 1, 199, 32, 214
-0.998462, 397, 225, 428, 240
-0.998463, 237, 183, 268, 198
-0.998465, 305, 69, 368, 84
-0.998465, 49, 181, 176, 212
-0.998469, 441, 73, 472, 88
-0.998469, 33, 209, 64, 224
-0.99847, 129, 173, 256, 204
-0.99847, 233, 43, 264, 58
-0.998471, 289, 203, 320, 218
-0.998472, 313, 179, 344, 194
-0.998473, 269, 235, 300, 250
-0.998473, 381, 193, 412, 208
-0.998473, 361, 87, 424, 102
-0.998473, 273, 57, 336, 72
-0.998474, 241, 245, 272, 260
-0.998475, 417, 195, 480, 210
-0.998476, 1, 241, 32, 256
-0.998477, 213, 133, 244, 148
-0.998477, 289, 63, 320, 78
-0.998477, 373, 111, 404, 126
-0.998477, 329, 77, 392, 92
-0.998478, 405, 157, 436, 172
-0.99848, 409, 181, 440, 196
-0.998481, 289, 155, 320, 170
-0.998481, 301, 201, 332, 216
-0.998482, 361, 81, 392, 96
-0.998482, 465, 203, 496, 218
-0.998482, 1, 211, 32, 226
-0.998483, 29, 219, 60, 234
-0.998484, 221, 49, 252, 64
-0.998484, 225, 205, 288, 220
-0.998487, 297, 97, 328, 112
-0.998487, 193, 49, 256, 64
-0.998488, 449, 5, 480, 20
-0.998488, 265, 205, 296, 220
-0.998489, 233, 243, 296, 258
-0.998489, 449, 35, 480, 50
-0.998489, 21, 205, 52, 220
-0.998491, 345, 111, 408, 126
-0.998492, 249, 155, 312, 170
-0.998492, 321, 157, 352, 172
-0.998493, 321, 107, 384, 122
-0.998495, 261, 181, 292, 196
-0.998496, 317, 101, 348, 116
-0.998497, 241, 89, 304, 104
-0.998497, 333, 105, 364, 120
-0.998497, 257, 211, 320, 226
-0.9985, 401, 119, 432, 134
-0.9985, 277, 227, 308, 242
-0.998501, 257, 55, 288, 70
-0.998505, 305, 179, 368, 194
-0.998506, 369, 119, 432, 134
-0.998506, 275, 177, 290, 302
-0.998506, 233, 51, 264, 66
-0.998507, 289, 97, 352, 112
-0.998507, 385, 179, 448, 194
-0.998508, 205, 219, 236, 234
-0.998511, 353, 147, 416, 162
-0.998511, 229, 89, 260, 104
-0.998511, 369, 107, 432, 122
-0.998512, 385, 201, 416, 216
-0.998512, 361, 219, 424, 234
-0.998512, 209, 135, 272, 150
-0.998512, 449, 29, 480, 44
-0.998515, 337, 195, 400, 210
-0.998516, 281, 89, 312, 104
-0.998516, 265, 93, 328, 108
-0.998516, 241, 89, 272, 104
-0.998518, 409, 23, 472, 38
-0.998518, 293, 241, 324, 256
-0.998518, 9, 205, 72, 220
-0.998519, 281, 157, 344, 172
-0.99852, 1, 217, 64, 232
-0.998522, 225, 189, 288, 204
-0.998522, 385, 169, 448, 184
-0.998524, 249, 129, 264, 256
-0.998524, 389, 113, 420, 128
-0.998525, 309, 157, 340, 172
-0.998526, 217, 199, 280, 214
-0.998528, 261, 241, 292, 256
-0.998528, 377, 149, 440, 164
-0.99853, 377, 157, 440, 172
-0.998531, 241, 95, 304, 110
-0.998532, 393, 203, 456, 218
-0.998532, 377, 147, 408, 162
-0.998533, 225, 153, 288, 168
-0.998533, 285, 221, 316, 236
-0.998534, 377, 141, 440, 156
-0.998535, 273, 219, 336, 234
-0.998535, 249, 205, 312, 220
-0.998536, 429, 193, 460, 208
-0.998536, 433, 53, 496, 68
-0.998536, 409, 189, 472, 204
-0.998538, 385, 227, 416, 242
-0.998538, 265, 93, 296, 108
-0.998538, 313, 63, 344, 78
-0.998539, 449, 47, 480, 62
-0.998539, 281, 163, 344, 178
-0.99854, 277, 203, 308, 218
-0.99854, 281, 95, 312, 110
-0.99854, 217, 95, 280, 110
-0.998541, 281, 69, 344, 84
-0.998543, 253, 91, 284, 106
-0.998543, 281, 241, 312, 256
-0.998545, 429, 33, 460, 288
-0.998545, 345, 183, 408, 198
-0.998545, 373, 221, 404, 236
-0.998545, 397, 217, 428, 232
-0.998545, 209, 41, 272, 56
-0.998545, 361, 225, 424, 240
-0.998546, 241, 47, 304, 62
-0.998546, 1, 245, 128, 276
-0.998546, 353, 81, 416, 96
-0.998547, 337, 71, 368, 86
-0.998547, 257, 145, 272, 272
-0.998547, 345, 233, 408, 248
-0.998548, 1, 239, 64, 254
-0.998548, 229, 201, 260, 216
-0.998548, 245, 45, 276, 60
-0.998548, 289, 57, 320, 72
-0.998549, 309, 233, 340, 248
-0.998549, 297, 221, 360, 236
-0.998549, 297, 103, 360, 118
-0.99855, 249, 177, 264, 302
-0.99855, 349, 107, 380, 122
-0.998551, 369, 231, 432, 246
-0.998552, 369, 195, 400, 210
-0.998552, 333, 157, 364, 172
-0.998553, 305, 163, 368, 178
-0.998555, 217, 53, 280, 68
-0.998556, 377, 213, 440, 228
-0.998556, 5, 231, 36, 246
-0.998556, 373, 81, 404, 96
-0.998558, 281, 203, 344, 218
-0.998559, 409, 209, 472, 224
-0.998559, 393, 87, 424, 102
-0.998559, 385, 221, 416, 236
-0.998559, 385, 207, 416, 222
-0.998559, 233, 137, 296, 152
-0.99856, 169, 51, 232, 66
-0.998562, 425, 17, 488, 32
-0.998562, 361, 109, 392, 124
-0.998563, 353, 75, 384, 90
-0.998563, 305, 241, 368, 256
-0.998564, 241, 199, 304, 214
-0.998565, 21, 211, 52, 226
-0.998565, 1, 225, 64, 240
-0.998566, 345, 105, 408, 120
-0.998566, 273, 155, 304, 170
-0.998567, 129, 1, 256, 64
-0.998567, 293, 235, 324, 250
-0.998567, 327, 81, 342, 208
-0.998567, 321, 173, 384, 188
-0.998568, 193, 95, 256, 110
-0.998568, 325, 67, 356, 82
-0.998568, 353, 153, 416, 168
-0.998571, 281, 179, 344, 194
-0.998572, 249, 59, 312, 74
-0.998574, 393, 197, 456, 212
-0.998574, 285, 215, 316, 230
-0.998576, 121, 33, 152, 288
-0.998576, 245, 153, 276, 168
-0.998577, 249, 181, 312, 196
-0.998577, 377, 113, 440, 128
-0.998578, 225, 181, 288, 196
-0.998579, 329, 145, 392, 160
-0.998579, 1, 199, 64, 214
-0.99858, 353, 211, 416, 226
-0.998581, 305, 143, 368, 158
-0.998581, 185, 1, 216, 256
-0.998582, 265, 49, 328, 64
-0.998582, 265, 139, 328, 154
-0.998583, 441, 195, 472, 210
-0.998583, 277, 55, 308, 70
-0.998583, 257, 49, 288, 64
-0.998584, 417, 201, 480, 216
-0.998584, 243, 129, 258, 256
-0.998584, 281, 209, 344, 224
-0.998585, 185, 133, 248, 148
-0.998585, 209, 237, 272, 252
-0.998585, 137, 55, 200, 70
-0.998586, 385, 221, 448, 236
-0.998588, 273, 247, 336, 262
-0.99859, 257, 241, 320, 256
-0.99859, 433, 59, 496, 74
-0.998591, 193, 89, 256, 104
-0.998591, 265, 99, 328, 114
-0.998592, 193, 199, 256, 214
-0.998592, 425, 3, 488, 18
-0.998593, 385, 163, 448, 178
-0.998593, 225, 83, 288, 98
-0.998594, 321, 185, 384, 200
-0.998595, 33, 211, 96, 226
-0.998595, 161, 129, 224, 144
-0.998595, 17, 133, 80, 148
-0.998596, 97, 97, 160, 112
-0.998596, 417, 235, 480, 250
-0.998597, 305, 215, 368, 230
-0.998598, 169, 97, 232, 112
-0.998598, 177, 1, 304, 32
-0.998598, 425, 43, 488, 58
-0.998598, 185, 217, 248, 232
-0.998599, 401, 91, 464, 106
-0.9986, 353, 177, 416, 192
-0.9986, 401, 85, 464, 100
-0.9986, 353, 129, 368, 256
-0.998601, 9, 177, 72, 192
-0.998604, 433, 31, 496, 46
-0.998604, 289, 173, 352, 188
-0.998604, 281, 151, 344, 166
-0.998605, 385, 213, 416, 228
-0.998605, 305, 199, 368, 214
-0.998606, 327, 145, 342, 272
-0.998607, 41, 203, 104, 218
-0.998607, 369, 81, 384, 208
-0.998608, 409, 9, 472, 24
-0.998608, 409, 29, 472, 44
-0.998608, 25, 233, 56, 248
-0.998608, 233, 177, 248, 302
-0.998611, 401, 97, 416, 224
-0.998611, 329, 71, 392, 86
-0.998611, 419, 129, 434, 256
-0.998619, 301, 59, 332, 74
-0.99862, 311, 129, 326, 256
-0.998624, 425, 187, 456, 202
-0.998639, 357, 81, 372, 208
-0.998639, 1, 205, 32, 220
-0.998642, 281, 81, 296, 208
-0.998648, 295, 81, 310, 208
-0.998654, 241, 177, 256, 302
-0.998654, 265, 161, 280, 288
-0.998657, 277, 129, 292, 256
-0.998662, 313, 177, 328, 302
-0.998666, 285, 145, 300, 272
-0.998666, 237, 129, 252, 256
-0.998669, 281, 235, 312, 250
-0.99867, 363, 177, 378, 302
-0.998677, 393, 145, 408, 272
-0.998694, 335, 49, 350, 176
-0.998696, 347, 129, 362, 256
-0.998697, 267, 81, 282, 208
-0.998701, 285, 209, 316, 224
-0.998704, 349, 81, 364, 208
-0.998709, 255, 1, 270, 128
-0.998709, 289, 227, 320, 242
-0.998711, 337, 97, 352, 224
-0.998715, 393, 65, 408, 192
-0.998718, 321, 97, 336, 224
-0.998722, 227, 81, 242, 208
-0.998725, 289, 97, 304, 224
-0.998725, 375, 49, 390, 176
-0.99873, 241, 81, 256, 208
-0.998732, 233, 49, 248, 176
-0.998732, 231, 129, 246, 256
-0.998732, 321, 145, 336, 272
-0.998732, 267, 1, 282, 128
-0.998737, 339, 145, 354, 272
-0.998743, 109, 33, 140, 288
-0.998743, 303, 97, 318, 224
-0.998744, 371, 177, 386, 302
-0.998747, 311, 49, 326, 176
-0.998757, 297, 129, 312, 256
-0.998773, 279, 33, 294, 160
-0.998776, 321, 49, 336, 176
-0.998777, 271, 129, 286, 256
-0.998781, 303, 161, 318, 288
-0.998783, 31, 161, 46, 288
-0.998788, 379, 177, 394, 302
-0.998795, 333, 177, 348, 302
-0.998812, 413, 97, 428, 224
-0.998813, 387, 65, 402, 192
-0.998819, 33, 1, 288, 64
-0.998822, 353, 177, 368, 302
-0.998835, 343, 65, 358, 192
-0.998847, 255, 81, 270, 208
-0.998848, 363, 81, 378, 208
-0.998853, 461, 1, 476, 128
-0.998857, 225, 129, 240, 256
-0.998865, 301, 49, 316, 176
-0.998869, 249, 81, 264, 208
-0.998875, 447, 1, 462, 128
-0.998876, 435, 1, 450, 128
-0.998878, 65, 41, 192, 72
-0.998887, 261, 49, 276, 176
-0.998896, 381, 65, 396, 192
-0.998901, 225, 33, 240, 160
-0.998906, 217, 33, 232, 160
-0.998914, 425, 161, 440, 288
-0.998923, 385, 129, 400, 256
-0.998932, 37, 161, 52, 288
-0.998933, 275, 81, 290, 208
-0.99894, 385, 177, 400, 302
-0.998951, 73, 33, 104, 288
-0.998954, 459, 177, 474, 302
-0.998973, 219, 81, 234, 208
-0.99899, 289, 49, 304, 176
-0.998991, 345, 177, 360, 302
-0.998994, 329, 33, 344, 160
-0.999013, 453, 1, 468, 128
-0.999022, 19, 177, 34, 302
-0.999028, 441, 1, 456, 128
-0.999043, 291, 145, 306, 272
-0.999055, 273, 1, 288, 128
-0.999061, 1, 177, 16, 302
-0.999064, 1, 33, 32, 288
-0.999067, 135, 65, 150, 192
-0.999075, 1, 85, 128, 116
-0.999076, 211, 33, 226, 160
-0.999076, 57, 129, 72, 256
-0.999094, 289, 25, 416, 56
-0.999096, 93, 33, 124, 288
-0.999096, 399, 49, 414, 176
-0.999099, 65, 113, 80, 240
-0.999099, 47, 129, 62, 256
-0.999104, 205, 49, 220, 176
-0.99911, 401, 161, 416, 288
-0.99912, 407, 113, 422, 240
-0.999121, 1, 113, 16, 240
-0.999133, 317, 1, 332, 128
-0.999134, 199, 33, 214, 160
-0.999141, 227, 177, 242, 302
-0.999146, 113, 245, 240, 276
-0.999151, 183, 33, 198, 160
-0.999156, 7, 161, 22, 288
-0.999157, 151, 49, 166, 176
-0.999159, 1, 265, 128, 296
-0.999159, 25, 161, 40, 288
-0.999166, 295, 33, 310, 160
-0.999181, 483, 49, 498, 176
-0.999183, 239, 33, 254, 160
-0.999186, 13, 161, 28, 288
-0.999193, 289, 1, 416, 32
-0.999194, 471, 33, 486, 160
-0.999196, 407, 161, 422, 288
-0.999199, 369, 33, 384, 160
-0.9992, 419, 81, 434, 208
-0.999204, 225, 265, 352, 296
-0.999205, 193, 33, 208, 160
-0.999215, 249, 33, 264, 160
-0.999215, 413, 161, 428, 288
-0.999216, 411, 49, 426, 176
-0.99922, 37, 65, 68, 192
-0.999225, 431, 161, 446, 288
-0.999232, 163, 49, 178, 176
-0.999234, 213, 81, 228, 208
-0.999236, 29, 113, 44, 240
-0.99924, 205, 97, 220, 224
-0.999245, 439, 177, 454, 302
-0.999254, 405, 33, 420, 160
-0.999257, 129, 65, 144, 192
-0.999259, 477, 33, 492, 160
-0.99926, 453, 177, 468, 302
-0.999263, 65, 249, 192, 280
-0.99927, 297, 177, 312, 302
-0.999271, 157, 49, 172, 176
-0.999287, 177, 33, 192, 160
-0.999304, 61, 33, 92, 288
-0.999306, 73, 129, 136, 256
-0.999324, 29, 33, 60, 288
-0.999328, 113, 29, 240, 60
-0.999352, 49, 165, 176, 196
-0.999369, 321, 41, 448, 72
-0.999387, 169, 177, 200, 302
-0.999432, 321, 253, 448, 284
-0.999447, 369, 273, 496, 302
-0.999484, 25, 33, 88, 160
-0.999486, 161, 257, 288, 288
-0.999488, 97, 33, 128, 160
-0.99949, 369, 249, 496, 280
-0.999568, 453, 113, 484, 240
-0.999579, 273, 261, 400, 292
-0.999593, 17, 33, 48, 288
-0.999603, 289, 13, 416, 44
-0.999604, 49, 33, 80, 288
-0.999628, 445, 9, 460, 24
-0.999629, 437, 5, 452, 20
-0.99963, 455, 87, 470, 102
-0.99963, 299, 91, 314, 106
-0.99963, 427, 185, 442, 200
-0.99963, 461, 21, 476, 36
-0.99963, 459, 9, 474, 24
-0.999631, 303, 237, 318, 252
-0.999631, 401, 227, 416, 242
-0.999632, 293, 241, 308, 256
-0.999633, 393, 115, 408, 130
-0.999633, 203, 131, 218, 146
-0.999633, 321, 101, 336, 116
-0.999633, 287, 155, 302, 170
-0.999633, 267, 157, 282, 172
-0.999634, 15, 201, 30, 216
-0.999634, 249, 45, 264, 60
-0.999634, 341, 107, 356, 122
-0.999634, 419, 171, 434, 186
-0.999634, 1, 25, 256, 88
-0.999635, 259, 181, 274, 196
-0.999635, 245, 51, 260, 66
-0.999636, 319, 157, 334, 172
-0.999636, 299, 215, 314, 230
-0.999636, 239, 153, 254, 168
-0.999637, 9, 209, 24, 224
-0.999638, 243, 91, 258, 106
-0.999638, 25, 213, 40, 228
-0.999639, 331, 103, 346, 118
-0.99964, 259, 55, 274, 70
-0.999642, 287, 219, 302, 234
-0.999643, 377, 109, 392, 124
-0.999643, 391, 205, 406, 220
-0.999643, 277, 239, 292, 254
-0.999644, 1, 209, 16, 224
-0.999644, 463, 31, 478, 46
-0.999645, 235, 87, 250, 102
-0.999645, 387, 227, 402, 242
-0.999645, 261, 89, 276, 104
-0.999646, 415, 111, 430, 126
-0.999647, 383, 195, 398, 210
-0.999647, 449, 47, 464, 62
-0.999648, 325, 179, 340, 194
-0.999649, 303, 201, 318, 216
-0.999649, 313, 235, 328, 250
-0.999649, 363, 107, 378, 122
-0.999651, 325, 157, 340, 172
-0.999652, 369, 165, 384, 180
-0.999652, 279, 207, 294, 222
-0.999653, 289, 209, 304, 224
-0.999653, 41, 229, 56, 244
-0.999653, 399, 115, 414, 130
-0.999653, 295, 155, 310, 170
-0.999653, 369, 173, 384, 188
-0.999654, 271, 95, 286, 110
-0.999655, 359, 157, 374, 172
-0.999655, 411, 119, 426, 134
-0.999656, 369, 109, 384, 124
-0.99966, 343, 157, 358, 172
-0.999661, 463, 37, 478, 52
-0.999661, 457, 195, 472, 210
-0.999661, 347, 105, 362, 120
-0.999661, 7, 219, 22, 234
-0.999662, 275, 181, 290, 196
-0.999663, 291, 97, 306, 112
-0.999665, 233, 199, 248, 214
-0.999666, 393, 193, 408, 208
-0.999667, 391, 147, 406, 162
-0.999667, 315, 61, 330, 76
-0.999668, 237, 49, 252, 64
-0.999673, 481, 203, 496, 218
-0.999674, 311, 157, 326, 172
-0.999674, 295, 209, 310, 224
-0.999674, 293, 235, 308, 250
-0.999674, 385, 221, 400, 236
-0.999677, 463, 43, 478, 58
-0.999679, 301, 57, 316, 72
-0.999679, 405, 217, 420, 232
-0.99968, 333, 157, 348, 172
-0.99968, 303, 231, 318, 246
-0.999681, 39, 177, 54, 192
-0.999681, 15, 207, 30, 222
-0.999682, 301, 221, 316, 236
-0.999689, 289, 57, 304, 72
-0.999689, 281, 93, 296, 108
-0.99969, 269, 179, 284, 194
-0.99969, 255, 45, 270, 60
-0.99969, 451, 195, 466, 210
-0.999692, 433, 187, 448, 202
-0.999692, 285, 237, 300, 252
-0.999692, 383, 111, 398, 126
-0.999694, 357, 107, 372, 122
-0.999694, 261, 49, 276, 64
-0.999695, 275, 155, 290, 170
-0.999695, 267, 51, 282, 66
-0.999696, 335, 69, 350, 84
-0.999696, 337, 177, 352, 192
-0.999697, 393, 85, 408, 100
-0.999698, 305, 157, 320, 172
-0.999699, 443, 189, 458, 204
-0.999699, 397, 221, 412, 236
-0.999701, 369, 157, 384, 172
-0.999702, 293, 203, 308, 218
-0.999704, 295, 59, 310, 74
-0.999704, 287, 225, 302, 240
-0.999708, 273, 53, 288, 68
-0.999708, 299, 97, 314, 112
-0.999709, 407, 89, 422, 104
-0.99971, 309, 59, 324, 74
-0.99971, 405, 113, 420, 128
-0.999711, 25, 205, 40, 220
-0.999711, 35, 209, 50, 224
-0.999711, 321, 63, 336, 78
-0.999712, 283, 55, 298, 70
-0.999713, 371, 79, 386, 94
-0.999715, 395, 211, 410, 226
-0.999715, 347, 73, 362, 88
-0.999717, 365, 77, 380, 92
-0.999717, 391, 219, 406, 234
-0.999721, 9, 227, 24, 242
-0.999723, 341, 71, 356, 86
-0.999726, 377, 81, 392, 96
-0.99973, 399, 87, 414, 102
-0.999737, 385, 83, 400, 98
-0.999738, 293, 229, 308, 244
-0.999738, 285, 203, 300, 218
-0.999739, 329, 67, 344, 82
-0.999744, 355, 75, 370, 90
-0.999745, 31, 231, 46, 246
-0.99975, 285, 231, 300, 246
-0.999767, 33, 53, 160, 84
-0.999827, 393, 199, 408, 214
-0.999843, 49, 261, 176, 292
-0.999919, 305, 273, 432, 302
-0.999929, 177, 273, 304, 302
-0.999939, 81, 153, 208, 184
-1.00006, 1, 1, 500, 64
-1.0001, 33, 25, 160, 88
-1.00015, 105, 129, 136, 256
-1.00031, 13, 65, 44, 192
-1.00077, 1, 65, 32, 192
-1.00115, 1, 1, 128, 64
-1.00174, 25, 65, 56, 192
-1.0019, 57, 1, 120, 128
-1.00195, 49, 1, 176, 64
-1.00494, 1, 1, 128, 128
-1.00531, 85, 1, 116, 128
-1.00676, 57, 17, 88, 144
-1.0084, 73, 1, 104, 128
-1.00907, 1, 17, 32, 144
-1.00917, 17, 17, 48, 144
-1.00981, 45, 17, 76, 144
-1.01286, 1, 33, 64, 160
