2031
-0.466379, 1, 65, 500, 320
-0.474211, 225, 1, 480, 428
-0.517269, 1, 1, 500, 428
-0.567522, 129, 1, 384, 428
-0.584383, 1, 161, 500, 416
-0.626112, 225, 65, 480, 320
-0.662381, 129, 65, 384, 320
-0.706997, 1, 1, 256, 428
-0.726802, 225, 161, 480, 416
-0.790742, 33, 65, 288, 320
-0.854474, 129, 161, 384, 416
-0.85926, 273, 129, 400, 384
-0.875291, 257, 1, 384, 428
-0.876023, 1, 81, 500, 208
-0.880041, 241, 1, 368, 256
-0.88619, 321, 65, 448, 320
-0.889935, 193, 65, 320, 320
-0.892963, 337, 1, 464, 428
-0.905014, 209, 1, 336, 428
-0.909428, 225, 65, 480, 192
-0.91127, 1, 129, 500, 256
-0.912127, 17, 97, 144, 352
-0.912926, 145, 65, 272, 320
-0.913216, 161, 1, 288, 428
-0.913387, 225, 113, 480, 240
-0.915877, 193, 161, 320, 416
-0.917115, 17, 1, 144, 428
-0.917558, 97, 97, 352, 224
-0.9178, 97, 1, 224, 256
-0.920654, 369, 65, 496, 320
-0.921223, 49, 1, 176, 256
-0.924595, 65, 1, 192, 428
-0.926966, 1, 1, 128, 256
-0.929009, 321, 161, 448, 416
-0.93517, 241, 129, 368, 256
-0.935806, 369, 161, 496, 416
-0.936499, 65, 97, 192, 352
-0.936676, 113, 1, 240, 428
-0.938045, 1, 193, 500, 320
-0.938352, 257, 209, 500, 336
-0.938644, 257, 49, 384, 176
-0.939653, 177, 81, 304, 208
-0.940418, 193, 161, 448, 288
-0.942808, 257, 305, 500, 428
-0.943688, 97, 145, 352, 272
-0.94387, 1, 241, 500, 368
-0.946512, 273, 209, 400, 336
-0.947571, 257, 257, 500, 384
-0.949441, 257, 113, 320, 240
-0.951896, 329, 97, 392, 224
-0.952048, 321, 65, 448, 192
-0.952162, 1, 81, 256, 208
-0.95252, 225, 17, 480, 144
-0.953038, 1, 129, 256, 256
-0.953049, 1, 1, 500, 128
-0.955236, 129, 49, 384, 176
-0.955278, 265, 193, 328, 320
-0.955454, 321, 129, 448, 256
-0.956078, 345, 49, 408, 176
-0.956207, 1, 305, 500, 428
-0.958189, 281, 145, 344, 272
-0.95933, 281, 65, 344, 192
-0.959374, 369, 81, 432, 208
-0.960221, 369, 97, 496, 224
-0.960415, 217, 81, 280, 208
-0.962719, 97, 257, 352, 384
-0.963191, 249, 65, 312, 192
-0.963566, 321, 209, 384, 336
-0.964851, 337, 97, 400, 160
-0.964952, 81, 81, 208, 208
-0.965185, 361, 129, 424, 256
-0.965323, 337, 17, 464, 144
-0.965789, 305, 113, 368, 240
-0.965902, 225, 177, 352, 304
-0.96623, 129, 113, 256, 240
-0.966252, 273, 273, 400, 400
-0.966774, 161, 209, 416, 336
-0.966799, 281, 241, 344, 368
-0.966953, 17, 97, 144, 224
-0.967207, 265, 233, 328, 296
-0.967693, 97, 305, 352, 428
-0.967749, 369, 97, 432, 160
-0.967964, 209, 241, 336, 368
-0.968197, 313, 1, 376, 128
-0.968332, 393, 81, 456, 208
-0.968611, 225, 97, 288, 160
-0.968996, 193, 129, 320, 256
-0.969163, 305, 49, 368, 176
-0.969665, 289, 1, 416, 128
-0.969723, 321, 241, 448, 368
-0.970318, 177, 97, 304, 160
-0.970448, 193, 81, 256, 208
-0.970779, 417, 81, 480, 208
-0.970861, 289, 193, 352, 320
-0.971055, 97, 1, 352, 128
-0.971351, 329, 121, 392, 184
-0.971631, 257, 137, 320, 200
-0.971701, 257, 121, 384, 184
-0.972027, 249, 113, 312, 176
-0.972156, 321, 193, 448, 320
-0.972205, 177, 177, 304, 304
-0.972272, 153, 113, 216, 240
-0.972389, 241, 161, 304, 288
-0.972442, 1, 161, 256, 416
-0.972526, 369, 129, 432, 192
-0.97263, 65, 129, 192, 256
-0.972813, 369, 209, 496, 336
-0.972847, 177, 113, 240, 176
-0.972961, 113, 161, 240, 416
-0.972963, 265, 209, 328, 272
-0.973101, 265, 257, 328, 320
-0.973203, 281, 289, 344, 416
-0.973313, 289, 209, 352, 272
-0.973326, 1, 145, 128, 272
-0.973333, 393, 113, 456, 176
-0.973539, 345, 209, 408, 336
-0.973561, 305, 121, 368, 184
-0.973637, 257, 97, 288, 224
-0.973674, 193, 89, 256, 152
-0.973691, 1, 33, 256, 160
-0.973891, 57, 113, 120, 240
-0.974112, 337, 89, 464, 152
-0.974302, 257, 65, 384, 128
-0.974395, 257, 241, 320, 368
-0.974415, 321, 217, 384, 280
-0.97519, 369, 33, 432, 160
-0.975416, 257, 185, 320, 248
-0.975662, 81, 81, 144, 208
-0.97568, 33, 97, 96, 224
-0.975793, 321, 129, 448, 192
-0.975795, 257, 65, 320, 320
-0.975993, 81, 129, 144, 256
-0.97601, 313, 97, 376, 352
-0.976214, 193, 289, 320, 416
-0.976236, 313, 65, 376, 128
-0.976353, 177, 33, 304, 160
-0.976385, 105, 81, 168, 208
-0.97652, 1, 129, 64, 256
-0.976671, 345, 225, 408, 288
-0.97669, 129, 129, 192, 256
-0.976838, 269, 113, 300, 176
-0.977519, 273, 209, 400, 272
-0.977561, 281, 185, 344, 248
-0.977581, 145, 65, 208, 192
-0.977586, 265, 73, 328, 136
-0.97769, 353, 289, 480, 416
-0.977782, 289, 129, 352, 384
-0.977785, 145, 129, 272, 192
-0.977839, 393, 89, 456, 152
-0.977847, 273, 233, 400, 296
-0.978204, 105, 129, 168, 256
-0.978224, 273, 217, 304, 280
-0.978235, 417, 97, 480, 160
-0.97826, 289, 249, 352, 312
-0.978329, 289, 1, 352, 256
-0.97839, 313, 145, 376, 208
-0.978409, 225, 209, 288, 336
-0.978444, 269, 113, 300, 240
-0.978721, 321, 241, 384, 304
-0.978757, 337, 257, 400, 384
-0.978757, 345, 73, 408, 136
-0.978799, 65, 121, 128, 184
-0.978863, 153, 113, 216, 176
-0.979191, 321, 161, 384, 288
-0.97921, 241, 217, 304, 280
-0.979259, 273, 177, 304, 304
-0.97934, 217, 161, 280, 288
-0.979476, 385, 129, 448, 256
-0.979597, 369, 209, 432, 336
-0.979845, 241, 1, 368, 128
-0.979904, 241, 145, 368, 208
-0.979923, 393, 241, 456, 368
-0.980038, 25, 145, 88, 272
-0.98031, 249, 161, 312, 224
-0.980353, 321, 193, 384, 256
-0.98037, 357, 81, 388, 208
-0.98058, 257, 97, 384, 160
-0.981099, 217, 129, 280, 192
-0.981307, 257, 17, 320, 144
-0.981315, 345, 105, 376, 168
-0.981382, 281, 113, 344, 176
-0.981441, 281, 337, 344, 400
-0.981498, 393, 33, 456, 160
-0.981517, 305, 257, 368, 384
-0.981735, 241, 73, 304, 136
-0.981867, 1, 49, 128, 176
-0.981884, 369, 225, 432, 288
-0.981914, 357, 97, 388, 160
-0.981927, 25, 145, 88, 208
-0.981986, 281, 17, 344, 144
-0.982116, 57, 65, 120, 192
-0.98222, 289, 305, 352, 368
-0.98229, 49, 1, 176, 128
-0.982367, 377, 81, 408, 208
-0.982375, 273, 65, 304, 192
-0.982505, 81, 145, 144, 208
-0.982608, 137, 137, 200, 200
-0.982612, 261, 145, 292, 208
-0.982622, 1, 81, 64, 208
-0.982923, 97, 33, 224, 160
-0.982926, 345, 145, 408, 208
-0.983127, 289, 49, 352, 112
-0.983375, 333, 121, 364, 184
-0.983418, 433, 225, 496, 352
-0.983504, 1, 145, 64, 208
-0.983573, 225, 169, 352, 232
-0.983603, 273, 329, 400, 392
-0.983652, 233, 193, 296, 256
-0.983779, 345, 49, 376, 176
-0.983822, 313, 41, 376, 104
-0.983865, 337, 97, 400, 352
-0.983936, 269, 193, 300, 256
-0.983955, 41, 121, 104, 184
-0.983962, 225, 153, 288, 216
-0.984069, 289, 145, 352, 208
-0.984154, 49, 113, 176, 176
-0.984174, 281, 113, 312, 240
-0.984253, 337, 1, 400, 128
-0.984281, 353, 49, 416, 112
-0.984283, 105, 137, 168, 200
-0.984308, 265, 281, 328, 344
-0.984338, 257, 257, 384, 320
-0.984366, 345, 97, 376, 224
-0.984448, 225, 1, 288, 256
-0.984474, 285, 225, 316, 352
-0.984484, 233, 17, 296, 144
-0.984552, 201, 97, 232, 160
-0.98458, 321, 1, 384, 64
-0.984669, 369, 113, 496, 176
-0.984679, 353, 257, 416, 320
-0.984694, 417, 33, 480, 160
-0.984701, 353, 233, 480, 296
-0.984769, 433, 273, 496, 400
-0.984783, 169, 369, 232, 428
-0.98479, 281, 241, 312, 304
-0.984883, 209, 249, 336, 312
-0.984891, 389, 81, 420, 208
-0.984894, 353, 193, 416, 256
-0.985072, 257, 161, 320, 416
-0.985084, 293, 177, 324, 304
-0.985089, 285, 65, 316, 192
-0.985149, 257, 97, 288, 160
-0.985189, 209, 121, 336, 184
-0.985193, 273, 177, 400, 240
-0.985297, 257, 369, 320, 428
-0.985309, 377, 33, 440, 288
-0.985423, 193, 369, 320, 428
-0.985433, 273, 1, 336, 428
-0.985458, 129, 113, 192, 176
-0.985627, 385, 97, 416, 160
-0.985637, 289, 273, 352, 336
-0.985638, 421, 113, 452, 176
-0.985652, 193, 145, 320, 208
-0.985686, 49, 145, 112, 208
-0.985744, 313, 169, 376, 232
-0.985751, 281, 25, 344, 88
-0.985839, 373, 129, 404, 256
-0.986014, 409, 97, 440, 224
-0.986031, 249, 161, 280, 288
-0.986101, 9, 121, 72, 184
-0.986116, 385, 65, 448, 128
-0.986131, 293, 249, 324, 312
-0.986182, 97, 137, 224, 200
-0.986215, 309, 145, 340, 272
-0.986236, 241, 241, 304, 304
-0.986318, 241, 289, 304, 416
-0.986327, 305, 305, 368, 428
-0.986399, 349, 209, 380, 336
-0.986429, 321, 209, 448, 272
-0.986431, 241, 97, 272, 224
-0.986432, 225, 201, 352, 264
-0.98645, 289, 1, 352, 64
-0.986558, 97, 113, 160, 176
-0.986565, 65, 193, 320, 320
-0.98657, 333, 113, 364, 240
-0.986616, 145, 89, 208, 152
-0.986672, 409, 121, 440, 184
-0.986686, 97, 97, 224, 160
-0.986702, 289, 153, 416, 216
-0.986712, 337, 65, 464, 128
-0.98679, 433, 73, 496, 136
-0.986824, 273, 257, 304, 384
-0.986893, 373, 97, 404, 160
-0.986921, 373, 137, 404, 200
-0.986932, 57, 369, 120, 428
-0.98695, 421, 89, 452, 152
-0.986957, 201, 369, 264, 428
-0.98702, 357, 129, 388, 192
-0.987071, 401, 289, 464, 416
-0.987072, 361, 169, 424, 232
-0.987136, 361, 257, 424, 384
-0.987241, 49, 161, 112, 288
-0.987332, 49, 65, 112, 320
-0.987378, 261, 169, 292, 232
-0.987381, 177, 73, 304, 136
-0.98746, 1, 121, 128, 184
-0.987537, 357, 33, 388, 160
-0.987557, 321, 185, 448, 248
-0.987609, 233, 97, 296, 352
-0.98764, 325, 65, 356, 192
-0.987652, 281, 121, 312, 184
-0.987678, 393, 233, 456, 296
-0.987683, 257, 281, 384, 344
-0.987735, 249, 201, 280, 264
-0.987781, 249, 49, 280, 176
-0.987812, 305, 41, 432, 104
-0.987877, 297, 241, 328, 368
-0.987902, 321, 1, 384, 256
-0.987927, 257, 209, 288, 336
-0.98796, 161, 137, 224, 200
-0.987965, 397, 97, 428, 160
-0.988096, 257, 353, 384, 416
-0.98811, 257, 345, 320, 408
-0.988117, 73, 113, 104, 240
-0.988119, 369, 161, 496, 288
-0.98816, 305, 257, 432, 320
-0.988342, 321, 273, 384, 336
-0.988419, 193, 33, 256, 160
-0.988427, 209, 273, 336, 336
-0.988487, 185, 33, 248, 288
-0.988589, 313, 97, 376, 160
-0.98863, 161, 113, 416, 176
-0.988659, 225, 225, 352, 288
-0.988677, 361, 129, 392, 256
-0.988698, 49, 145, 176, 208
-0.988742, 189, 105, 220, 168
-0.988777, 197, 81, 228, 208
-0.988846, 329, 1, 392, 428
-0.988852, 25, 97, 88, 352
-0.988898, 1, 145, 128, 208
-0.988929, 173, 129, 204, 192
-0.988947, 169, 65, 232, 192
-0.988956, 337, 1, 368, 128
-0.988968, 285, 209, 316, 272
-0.988991, 421, 81, 452, 208
-0.989119, 325, 209, 356, 336
-0.989123, 257, 1, 384, 64
-0.989227, 209, 17, 336, 80
-0.989233, 369, 225, 400, 288
-0.989354, 361, 129, 424, 384
-0.98936, 85, 129, 116, 256
-0.98938, 409, 89, 440, 152
-0.989521, 361, 177, 392, 304
-0.98953, 289, 305, 416, 368
-0.989566, 357, 73, 388, 136
-0.989681, 345, 217, 376, 280
-0.989699, 393, 289, 456, 352
-0.989764, 49, 81, 112, 144
-0.989765, 225, 89, 480, 152
-0.989817, 249, 305, 312, 368
-0.989822, 1, 1, 128, 128
-0.989844, 297, 1, 360, 428
-0.989916, 305, 1, 432, 64
-0.989934, 397, 129, 428, 192
-0.989935, 393, 25, 456, 88
-0.989967, 177, 125, 240, 156
-0.989999, 385, 201, 448, 264
-0.990039, 85, 121, 116, 184
-0.990047, 277, 73, 308, 136
-0.990097, 229, 97, 260, 160
-0.99011, 353, 25, 416, 88
-0.990138, 425, 225, 488, 288
-0.990145, 433, 97, 464, 160
-0.990159, 249, 129, 280, 192
-0.990164, 273, 265, 304, 328
-0.990189, 257, 41, 384, 104
-0.990191, 257, 41, 320, 104
-0.990252, 329, 129, 392, 160
-0.990265, 369, 209, 496, 272
-0.990277, 345, 1, 408, 256
-0.990288, 21, 145, 52, 208
-0.99029, 241, 305, 368, 368
-0.990324, 261, 49, 292, 176
-0.990331, 245, 105, 276, 168
-0.990382, 217, 73, 280, 136
-0.990422, 297, 177, 328, 240
-0.990429, 249, 137, 312, 168
-0.990465, 289, 89, 352, 152
-0.990497, 1, 1, 64, 256
-0.990516, 393, 93, 456, 124
-0.99053, 13, 129, 44, 256
-0.99053, 313, 153, 344, 216
-0.990575, 257, 113, 500, 176
-0.990607, 385, 129, 416, 192
-0.990607, 41, 137, 72, 200
-0.99063, 233, 273, 296, 336
-0.990665, 385, 1, 448, 428
-0.990669, 265, 249, 328, 280
-0.99067, 393, 137, 456, 200
-0.990677, 341, 65, 372, 128
-0.990706, 337, 153, 464, 216
-0.990713, 265, 1, 328, 64
-0.990728, 265, 237, 328, 268
-0.990733, 209, 345, 336, 408
-0.990773, 145, 1, 208, 256
-0.990777, 361, 1, 424, 428
-0.990788, 193, 97, 256, 128
-0.990791, 369, 137, 432, 168
-0.990853, 25, 1, 88, 256
-0.990861, 249, 1, 312, 428
-0.990903, 353, 153, 384, 216
-0.990904, 225, 101, 288, 132
-0.990914, 225, 133, 288, 164
-0.990929, 177, 225, 304, 288
-0.990937, 281, 201, 344, 232
-0.99094, 345, 101, 408, 132
-0.991016, 233, 1, 296, 64
-0.991019, 97, 81, 128, 208
-0.991027, 161, 169, 288, 232
-0.991056, 257, 225, 288, 288
-0.99107, 181, 113, 212, 240
-0.991078, 369, 17, 496, 80
-0.991083, 1, 97, 64, 352
-0.991098, 277, 145, 308, 208
-0.9911, 329, 209, 360, 272
-0.9911, 97, 129, 128, 256
-0.991113, 313, 193, 344, 320
-0.991125, 377, 73, 408, 136
-0.991125, 153, 137, 184, 200
-0.991136, 1, 97, 128, 160
-0.991164, 313, 241, 344, 368
-0.991166, 101, 145, 132, 208
-0.991202, 321, 129, 352, 256
-0.991212, 309, 257, 340, 320
-0.991227, 401, 321, 464, 384
-0.991231, 61, 145, 92, 272
-0.991247, 293, 129, 324, 256
-0.991254, 257, 225, 320, 256
-0.991288, 169, 345, 232, 408
-0.991309, 257, 125, 320, 156
-0.991318, 329, 141, 392, 172
-0.99132, 249, 189, 312, 220
-0.991335, 281, 217, 344, 248
-0.991356, 353, 257, 480, 320
-0.991363, 329, 297, 392, 360
-0.991376, 157, 129, 188, 256
-0.991401, 317, 41, 348, 104
-0.991427, 85, 145, 116, 208
-0.991448, 417, 113, 480, 144
-0.991461, 73, 97, 136, 352
-0.991466, 321, 245, 384, 276
-0.991487, 193, 313, 320, 376
-0.991496, 9, 145, 40, 208
-0.99151, 249, 149, 312, 180
-0.991521, 381, 225, 412, 288
-0.991553, 9, 97, 72, 160
-0.991565, 321, 217, 384, 248
-0.991583, 369, 329, 496, 392
-0.991587, 261, 161, 292, 288
-0.991613, 97, 89, 160, 152
-0.991615, 289, 61, 352, 92
-0.991655, 353, 89, 416, 120
-0.991689, 257, 201, 320, 232
-0.991689, 257, 213, 320, 244
-0.991694, 1, 129, 32, 256
-0.99171, 273, 137, 336, 168
-0.99171, 305, 145, 368, 176
-0.991724, 397, 129, 428, 256
-0.991727, 217, 145, 280, 176
-0.991766, 273, 341, 336, 372
-0.991767, 113, 129, 144, 256
-0.991772, 161, 113, 224, 144
-0.991814, 297, 229, 360, 260
-0.991839, 401, 65, 464, 320
-0.99184, 241, 113, 304, 144
-0.991849, 25, 49, 88, 176
-0.991881, 297, 57, 328, 120
-0.991882, 321, 205, 384, 236
-0.991884, 177, 41, 304, 104
-0.991885, 177, 97, 208, 160
-0.991887, 277, 369, 308, 428
-0.991905, 297, 49, 328, 176
-0.991911, 113, 1, 176, 128
-0.991914, 329, 117, 392, 148
-0.991924, 321, 233, 384, 264
-0.99195, 305, 133, 368, 164
-0.991958, 393, 193, 456, 320
-0.991964, 293, 145, 324, 208
-0.991966, 425, 297, 488, 360
-0.991978, 49, 1, 176, 64
-0.991979, 289, 121, 352, 152
-0.991982, 401, 125, 464, 156
-0.99201, 113, 137, 176, 168
-0.992018, 65, 153, 96, 216
-0.992026, 289, 249, 352, 280
-0.992027, 385, 257, 448, 320
-0.992032, 25, 145, 56, 272
-0.992065, 153, 133, 216, 164
-0.992067, 289, 325, 352, 356
-0.992069, 281, 189, 344, 220
-0.992078, 401, 49, 432, 176
-0.99208, 193, 137, 256, 200
-0.992089, 81, 369, 208, 428
-0.992091, 369, 33, 400, 160
-0.992102, 17, 149, 80, 180
-0.992134, 337, 297, 464, 360
-0.99214, 265, 97, 328, 128
-0.992146, 273, 169, 304, 232
-0.99215, 249, 161, 312, 192
-0.992162, 25, 137, 88, 168
-0.992212, 177, 129, 240, 256
-0.992212, 289, 337, 320, 400
-0.992224, 225, 137, 480, 200
-0.992228, 233, 81, 296, 112
-0.992241, 249, 177, 312, 208
-0.992243, 325, 17, 356, 144
-0.992246, 357, 225, 388, 288
-0.99225, 145, 129, 176, 256
-0.992252, 65, 1, 128, 428
-0.99226, 353, 229, 416, 260
-0.992262, 85, 81, 116, 208
-0.992281, 81, 145, 144, 176
-0.992283, 321, 193, 384, 224
-0.992284, 217, 121, 280, 152
-0.992348, 37, 145, 68, 272
-0.992357, 241, 237, 304, 268
-0.992362, 129, 137, 384, 200
-0.992369, 41, 149, 104, 180
-0.992372, 377, 125, 440, 156
-0.99239, 265, 261, 328, 292
-0.992418, 425, 101, 488, 132
-0.992435, 233, 369, 296, 428
-0.992445, 305, 157, 368, 188
-0.992457, 49, 113, 80, 240
-0.992474, 161, 81, 192, 208
-0.992479, 73, 1, 136, 256
-0.992492, 377, 105, 440, 136
-0.99252, 273, 177, 336, 208
-0.992523, 313, 77, 376, 108
-0.992535, 353, 77, 416, 108
-0.992538, 289, 313, 352, 344
-0.992546, 345, 145, 376, 272
-0.992585, 273, 157, 336, 188
-0.992588, 141, 129, 172, 192
-0.99259, 65, 1, 128, 128
-0.992592, 233, 221, 296, 252
-0.992593, 281, 293, 344, 324
-0.992598, 133, 129, 164, 256
-0.9926, 321, 181, 384, 212
-0.992611, 113, 81, 144, 208
-0.992611, 1, 133, 64, 164
-0.992615, 377, 209, 408, 336
-0.992628, 185, 137, 248, 168
-0.992629, 233, 393, 296, 424
-0.992647, 125, 81, 156, 208
-0.992648, 329, 89, 392, 120
-0.992649, 257, 133, 288, 164
-0.99265, 341, 145, 372, 208
-0.99265, 257, 249, 288, 312
-0.992659, 177, 193, 304, 256
-0.992677, 265, 373, 328, 404
-0.992679, 409, 1, 472, 428
-0.992681, 265, 77, 328, 108
-0.992683, 97, 129, 160, 384
-0.99269, 173, 65, 204, 192
-0.992698, 185, 369, 248, 400
-0.992705, 225, 1, 288, 428
-0.992706, 193, 113, 256, 144
-0.992715, 313, 65, 376, 96
-0.992718, 145, 369, 272, 428
-0.992721, 201, 121, 232, 152
-0.992729, 277, 345, 308, 408
-0.992741, 333, 233, 364, 296
-0.992744, 1, 105, 500, 168
-0.992745, 417, 121, 480, 184
-0.992747, 225, 209, 288, 240
-0.992747, 105, 149, 168, 180
-0.992755, 257, 385, 320, 416
-0.992758, 265, 113, 328, 144
-0.992759, 269, 117, 300, 148
-0.992765, 273, 353, 336, 384
-0.992773, 353, 257, 416, 288
-0.992776, 269, 129, 300, 160
-0.992785, 345, 217, 408, 248
-0.992789, 117, 129, 148, 192
-0.992796, 57, 389, 120, 420
-0.992801, 357, 201, 388, 264
-0.992804, 265, 65, 328, 96
-0.992805, 385, 129, 416, 256
-0.992818, 337, 225, 368, 352
-0.992828, 273, 233, 304, 264
-0.992836, 329, 153, 392, 184
-0.99286, 357, 97, 388, 128
-0.992862, 145, 353, 208, 416
-0.992885, 249, 333, 312, 364
-0.992893, 225, 65, 480, 128
-0.992896, 361, 193, 424, 224
-0.992896, 53, 145, 84, 208
-0.992899, 433, 81, 464, 208
-0.99292, 217, 345, 280, 408
-0.992922, 281, 273, 344, 304
-0.992936, 353, 125, 416, 156
-0.992938, 161, 101, 224, 132
-0.992939, 129, 125, 192, 156
-0.992946, 253, 97, 284, 128
-0.992948, 269, 241, 300, 304
-0.992953, 261, 145, 292, 176
-0.99296, 361, 177, 424, 208
-0.992982, 269, 205, 300, 236
-0.992986, 313, 101, 376, 132
-0.992991, 373, 137, 404, 168
-0.992992, 269, 217, 300, 248
-0.992995, 313, 329, 376, 392
-0.993003, 425, 113, 456, 144
-0.993009, 393, 81, 456, 112
-0.993014, 313, 209, 344, 272
-0.993027, 297, 177, 360, 208
-0.993028, 225, 173, 288, 204
-0.993028, 345, 57, 408, 88
-0.993029, 357, 129, 388, 160
-0.99303, 369, 41, 496, 104
-0.99303, 353, 141, 384, 172
-0.993031, 193, 385, 256, 416
-0.993033, 189, 117, 220, 148
-0.993033, 341, 129, 372, 160
-0.993046, 201, 85, 264, 116
-0.993049, 273, 397, 336, 428
-0.993049, 233, 249, 296, 280
-0.993054, 341, 117, 372, 148
-0.99306, 265, 193, 296, 224
-0.993064, 321, 129, 352, 192
-0.99307, 329, 165, 392, 196
-0.993071, 97, 121, 128, 184
-0.993075, 289, 109, 352, 140
-0.993082, 433, 89, 496, 120
-0.993082, 57, 377, 120, 408
-0.993084, 409, 185, 472, 248
-0.993085, 353, 205, 416, 236
-0.993091, 257, 273, 320, 304
-0.993093, 177, 397, 240, 428
-0.993094, 137, 145, 200, 176
-0.993097, 113, 73, 240, 136
-0.993103, 413, 121, 444, 152
-0.993109, 289, 1, 352, 32
-0.993109, 57, 109, 120, 140
-0.993114, 241, 357, 304, 388
-0.993128, 321, 289, 384, 320
-0.993132, 177, 353, 240, 384
-0.993134, 225, 189, 288, 220
-0.993139, 265, 73, 296, 136
-0.993148, 273, 141, 304, 172
-0.993159, 65, 157, 128, 188
-0.993164, 421, 97, 452, 128
-0.993168, 285, 185, 316, 248
-0.993171, 241, 345, 304, 376
-0.993173, 281, 45, 344, 76
-0.993177, 217, 157, 280, 188
-0.993177, 197, 101, 228, 132
-0.99318, 261, 177, 292, 208
-0.993191, 277, 245, 308, 276
-0.993197, 113, 17, 240, 80
-0.9932, 297, 253, 328, 284
-0.993201, 285, 233, 316, 264
-0.993202, 313, 53, 376, 84
-0.993205, 293, 197, 324, 228
-0.993208, 281, 129, 312, 160
-0.99321, 169, 381, 232, 412
-0.99321, 361, 241, 424, 272
-0.993212, 361, 257, 392, 320
-0.993215, 329, 141, 360, 172
-0.99322, 417, 49, 480, 112
-0.993225, 241, 137, 272, 168
-0.993239, 153, 89, 216, 120
-0.993243, 397, 133, 428, 164
-0.993247, 257, 157, 288, 188
-0.993252, 209, 397, 272, 428
-0.993256, 285, 217, 316, 248
-0.99326, 305, 261, 368, 292
-0.993262, 49, 137, 112, 168
-0.993275, 249, 321, 312, 352
-0.993275, 437, 101, 468, 132
-0.993282, 225, 129, 256, 160
-0.993285, 365, 85, 396, 116
-0.993285, 285, 141, 316, 172
-0.993293, 345, 45, 408, 76
-0.993295, 317, 201, 348, 232
-0.993298, 337, 97, 464, 128
-0.993298, 25, 149, 56, 180
-0.993299, 309, 253, 340, 284
-0.9933, 13, 145, 44, 176
-0.993301, 249, 205, 280, 236
-0.993304, 89, 1, 152, 128
-0.993305, 277, 285, 308, 316
-0.993305, 341, 149, 372, 180
-0.993306, 377, 85, 408, 116
-0.993306, 189, 129, 220, 160
-0.993315, 301, 61, 332, 92
-0.993318, 353, 153, 384, 184
-0.993324, 145, 97, 208, 352
-0.99333, 213, 125, 244, 156
-0.993332, 309, 237, 340, 268
-0.993332, 33, 137, 64, 168
-0.993333, 329, 229, 360, 260
-0.993337, 173, 133, 204, 164
-0.993337, 377, 101, 408, 132
-0.993338, 345, 221, 376, 252
-0.99334, 281, 201, 312, 232
-0.993347, 313, 61, 344, 92
-0.993347, 209, 365, 240, 396
-0.993353, 113, 145, 144, 176
-0.993354, 345, 105, 376, 136
-0.993363, 245, 189, 276, 220
-0.993369, 1, 145, 32, 176
-0.993377, 273, 93, 304, 124
-0.993381, 269, 105, 300, 136
-0.993383, 285, 345, 316, 376
-0.993385, 277, 373, 308, 404
-0.993389, 329, 129, 360, 160
-0.993389, 325, 249, 356, 280
-0.99339, 41, 149, 72, 180
-0.9934, 253, 233, 284, 264
-0.9934, 289, 65, 320, 96
-0.993403, 277, 185, 308, 216
-0.993406, 73, 121, 104, 184
-0.993407, 253, 221, 284, 252
-0.993409, 345, 73, 376, 104
-0.993412, 241, 85, 272, 116
-0.993412, 33, 129, 288, 192
-0.99342, 317, 157, 348, 188
-0.99342, 389, 97, 420, 128
-0.993426, 297, 237, 328, 268
-0.993427, 333, 217, 364, 248
-0.993441, 349, 241, 380, 272
-0.993442, 177, 117, 208, 148
-0.993447, 45, 137, 76, 168
-0.993448, 213, 137, 244, 168
-0.993448, 409, 133, 440, 164
-0.993448, 241, 101, 272, 132
-0.993451, 273, 153, 304, 184
-0.993452, 277, 257, 308, 288
-0.993452, 193, 65, 256, 128
-0.993457, 265, 269, 296, 300
-0.993461, 53, 149, 84, 180
-0.993465, 385, 133, 416, 164
-0.993467, 257, 109, 288, 140
-0.993468, 145, 137, 176, 168
-0.993469, 161, 137, 192, 168
-0.993479, 257, 245, 288, 276
-0.993484, 89, 1, 152, 64
-0.993485, 49, 169, 176, 232
-0.993485, 393, 121, 424, 152
-0.993489, 245, 393, 276, 424
-0.993489, 301, 173, 332, 204
-0.99349, 69, 149, 100, 180
-0.993492, 85, 149, 116, 180
-0.993493, 97, 149, 128, 180
-0.993494, 289, 185, 320, 216
-0.993495, 129, 89, 384, 152
-0.993497, 329, 205, 360, 236
-0.993497, 229, 97, 260, 128
-0.993502, 297, 145, 328, 176
-0.993504, 317, 145, 348, 176
-0.993504, 1, 73, 128, 136
-0.993509, 281, 117, 312, 148
-0.993512, 277, 73, 308, 104
-0.993513, 241, 169, 272, 200
-0.993515, 285, 173, 316, 204
-0.993516, 261, 389, 292, 420
-0.993521, 353, 85, 384, 116
-0.993521, 365, 257, 396, 288
-0.993523, 369, 1, 432, 64
-0.993528, 293, 389, 324, 420
-0.993529, 365, 233, 396, 264
-0.993532, 317, 221, 348, 252
-0.993536, 301, 185, 332, 216
-0.993538, 241, 149, 272, 180
-0.99354, 5, 133, 36, 164
-0.99354, 297, 157, 328, 188
-0.99354, 357, 221, 388, 252
-0.993541, 261, 257, 292, 288
-0.993545, 169, 129, 200, 256
-0.99355, 409, 93, 440, 124
-0.993553, 225, 141, 256, 172
-0.993556, 245, 125, 276, 156
-0.99356, 253, 85, 284, 116
-0.993563, 341, 197, 372, 228
-0.993564, 85, 109, 116, 140
-0.993565, 81, 377, 112, 408
-0.993566, 373, 125, 404, 156
-0.993569, 273, 345, 304, 376
-0.993577, 81, 305, 208, 428
-0.993591, 317, 233, 348, 296
-0.993601, 369, 297, 432, 360
-0.993604, 425, 329, 488, 392
-0.993666, 281, 369, 344, 428
-0.993702, 225, 161, 480, 224
-0.993712, 233, 49, 296, 112
-0.993732, 241, 169, 272, 232
-0.993789, 253, 73, 284, 136
-0.993813, 373, 257, 404, 320
-0.993823, 1, 1, 128, 64
-0.993842, 229, 81, 260, 208
-0.993856, 169, 89, 232, 152
-0.993876, 177, 101, 304, 132
-0.993938, 33, 97, 64, 224
-0.993965, 285, 17, 316, 144
-0.994016, 185, 129, 216, 192
-0.994076, 61, 81, 92, 208
-0.994104, 309, 49, 340, 176
-0.994108, 337, 169, 400, 232
-0.994155, 177, 1, 240, 428
-0.994168, 293, 305, 324, 428
-0.994179, 441, 273, 472, 400
-0.994194, 21, 81, 52, 208
-0.994209, 9, 81, 40, 208
-0.994224, 421, 241, 452, 368
-0.99423, 1, 129, 500, 192
-0.994232, 257, 329, 500, 392
-0.99425, 49, 33, 176, 96
-0.994254, 333, 33, 364, 96
-0.994256, 325, 257, 356, 384
-0.994257, 113, 1, 176, 428
-0.994258, 205, 121, 236, 184
-0.994272, 129, 17, 192, 80
-0.994285, 105, 1, 168, 256
-0.994304, 257, 125, 384, 156
-0.994318, 329, 1, 360, 64
-0.994349, 41, 1, 104, 428
-0.994351, 49, 89, 176, 152
-0.99439, 41, 1, 104, 64
-0.994399, 9, 1, 72, 428
-0.99443, 1, 369, 128, 428
-0.994446, 145, 1, 208, 428
-0.994459, 273, 289, 304, 352
-0.994467, 225, 217, 480, 280
-0.994469, 433, 257, 496, 320
-0.994519, 409, 257, 472, 320
-0.994557, 153, 17, 216, 144
-0.994612, 209, 1, 272, 64
-0.994629, 225, 129, 256, 192
-0.994652, 257, 305, 500, 368
-0.99466, 161, 113, 192, 176
-0.994684, 177, 113, 304, 144
-0.994686, 137, 81, 168, 208
-0.994705, 209, 369, 240, 428
-0.994726, 393, 1, 456, 64
-0.994726, 233, 25, 296, 88
-0.994737, 149, 81, 180, 208
-0.994762, 225, 185, 480, 248
-0.9948, 257, 101, 384, 132
-0.994811, 357, 41, 388, 104
-0.994816, 241, 137, 368, 168
-0.994819, 257, 249, 384, 280
-0.994841, 453, 241, 484, 368
-0.994858, 417, 161, 480, 288
-0.994896, 273, 305, 304, 428
-0.994901, 421, 33, 452, 160
-0.994923, 313, 297, 344, 360
-0.994933, 345, 177, 376, 240
-0.994952, 305, 97, 336, 224
-0.994973, 425, 33, 488, 288
-0.995015, 1, 25, 128, 88
-0.995037, 321, 109, 448, 140
-0.995058, 361, 337, 424, 400
-0.995091, 241, 233, 368, 264
-0.99512, 289, 273, 320, 336
-0.995128, 305, 1, 336, 128
-0.995164, 373, 257, 404, 384
-0.995201, 389, 65, 420, 128
-0.99523, 321, 137, 448, 168
-0.99525, 225, 257, 480, 320
-0.995261, 397, 225, 428, 288
-0.995268, 89, 1, 152, 428
-0.995291, 1, 305, 256, 428
-0.995301, 73, 81, 136, 144
-0.995311, 385, 33, 416, 160
-0.995341, 213, 89, 244, 152
-0.99536, 1, 169, 128, 232
-0.995362, 321, 337, 448, 400
-0.995362, 177, 125, 304, 156
-0.995385, 369, 305, 432, 428
-0.995412, 437, 289, 468, 352
-0.995418, 285, 41, 316, 104
-0.995428, 261, 369, 292, 428
-0.995431, 317, 1, 348, 64
-0.995461, 257, 113, 384, 144
-0.995462, 305, 25, 336, 88
-0.995533, 269, 1, 300, 128
-0.995561, 417, 17, 480, 80
-0.995564, 225, 149, 352, 180
-0.995589, 33, 105, 288, 168
-0.995596, 361, 241, 392, 368
-0.995629, 237, 129, 268, 192
-0.995655, 121, 97, 184, 352
-0.995663, 161, 1, 288, 64
-0.995721, 279, 113, 294, 176
-0.995737, 1, 1, 64, 128
-0.995737, 53, 121, 84, 184
-0.995748, 273, 217, 400, 248
-0.995751, 161, 137, 288, 168
-0.995768, 49, 57, 176, 120
-0.995787, 273, 105, 288, 168
-0.995804, 345, 249, 376, 312
-0.995815, 97, 369, 352, 428
-0.995843, 333, 161, 364, 288
-0.995854, 201, 1, 264, 428
-0.995864, 97, 161, 352, 224
-0.995876, 345, 1, 408, 64
-0.995876, 321, 125, 448, 156
-0.995904, 209, 177, 272, 240
-0.995922, 29, 113, 60, 176
-0.995923, 409, 161, 472, 416
-0.995934, 347, 113, 362, 176
-0.995954, 25, 169, 88, 232
-0.995975, 401, 161, 464, 224
-0.995976, 389, 209, 420, 336
-0.995989, 275, 257, 290, 320
-0.995991, 161, 345, 288, 408
-0.995994, 297, 209, 328, 272
-0.996015, 41, 113, 72, 176
-0.996034, 309, 177, 340, 240
-0.996035, 273, 205, 400, 236
-0.996058, 313, 289, 344, 416
-0.996083, 65, 177, 192, 304
-0.996102, 369, 185, 496, 248
-0.996105, 269, 129, 284, 192
-0.99612, 365, 177, 396, 240
-0.996129, 129, 137, 160, 200
-0.996154, 429, 289, 460, 416
-0.996174, 353, 105, 368, 168
-0.996179, 129, 193, 384, 256
-0.99619, 329, 305, 392, 428
-0.996217, 73, 65, 104, 192
-0.996226, 289, 209, 304, 272
-0.996235, 81, 81, 112, 144
-0.99625, 453, 289, 484, 416
-0.996275, 113, 161, 240, 288
-0.996278, 305, 233, 336, 296
-0.996316, 387, 97, 402, 160
-0.996318, 277, 217, 292, 280
-0.996322, 1, 9, 64, 72
-0.996326, 321, 257, 352, 320
-0.996327, 257, 89, 384, 120
-0.996335, 433, 1, 496, 428
-0.996341, 285, 121, 300, 184
-0.996343, 225, 161, 352, 192
-0.996357, 129, 125, 256, 156
-0.996387, 261, 201, 276, 264
-0.99642, 433, 161, 496, 416
-0.996421, 13, 121, 44, 184
-0.996429, 273, 97, 304, 352
-0.996457, 305, 361, 432, 424
-0.996469, 301, 1, 332, 64
-0.996476, 429, 113, 444, 176
-0.996487, 401, 241, 432, 368
-0.996519, 469, 273, 500, 400
-0.996523, 359, 97, 374, 160
-0.996529, 1, 113, 32, 176
-0.996532, 273, 149, 400, 180
-0.996552, 421, 121, 436, 184
-0.996571, 263, 137, 278, 200
-0.996576, 257, 65, 384, 96
-0.996584, 97, 345, 224, 408
-0.996588, 201, 97, 216, 160
-0.996592, 429, 89, 444, 152
-0.996596, 261, 257, 292, 384
-0.996597, 1, 81, 256, 144
-0.996616, 377, 105, 392, 168
-0.996616, 269, 241, 284, 304
-0.996638, 1, 73, 500, 136
-0.996641, 261, 273, 292, 336
-0.99668, 177, 89, 304, 120
-0.996682, 341, 1, 372, 64
-0.996684, 209, 81, 240, 208
-0.996686, 377, 137, 392, 200
-0.996713, 305, 121, 336, 184
-0.996728, 357, 137, 372, 200
-0.996742, 393, 97, 408, 160
-0.996748, 273, 189, 400, 220
-0.996772, 413, 129, 428, 192
-0.996776, 441, 73, 472, 136
-0.99681, 275, 145, 290, 208
-0.996819, 113, 137, 240, 168
-0.996829, 373, 49, 404, 112
-0.996841, 97, 161, 224, 224
-0.996849, 257, 77, 384, 108
-0.99685, 385, 161, 448, 416
-0.996872, 445, 81, 476, 208
-0.996887, 269, 185, 284, 248
-0.996887, 337, 85, 464, 116
-0.996898, 267, 217, 282, 280
-0.996905, 1, 193, 128, 256
-0.996906, 289, 241, 304, 304
-0.996907, 289, 233, 416, 264
-0.996922, 421, 89, 436, 152
-0.996957, 295, 201, 310, 264
-0.996968, 1, 49, 128, 112
-0.99697, 293, 113, 324, 176
-0.99698, 225, 173, 352, 204
-0.996981, 325, 329, 356, 392
-0.996987, 273, 329, 400, 360
-0.996989, 341, 121, 356, 184
-0.997004, 241, 1, 272, 128
-0.997006, 257, 261, 384, 292
-0.997006, 257, 349, 384, 380
-0.997007, 355, 73, 370, 136
-0.997027, 49, 161, 112, 416
-0.997039, 399, 97, 414, 160
-0.997045, 349, 273, 380, 400
-0.997051, 193, 25, 448, 88
-0.997053, 321, 185, 352, 248
-0.997057, 465, 225, 496, 352
-0.997058, 241, 1, 272, 64
-0.997068, 345, 41, 376, 104
-0.997072, 129, 345, 384, 408
-0.997072, 275, 81, 290, 144
-0.997077, 283, 241, 298, 304
-0.997079, 273, 161, 400, 192
-0.997087, 113, 113, 240, 144
-0.997097, 261, 97, 276, 160
-0.997111, 309, 129, 340, 384
-0.997135, 33, 145, 48, 208
-0.997142, 435, 89, 450, 152
-0.997149, 267, 105, 282, 168
-0.997155, 365, 121, 380, 184
-0.997158, 225, 201, 352, 232
-0.99716, 1, 153, 256, 216
-0.997166, 97, 313, 352, 376
-0.997186, 193, 1, 448, 64
-0.99719, 289, 305, 320, 368
-0.997198, 387, 129, 402, 192
-0.997203, 145, 149, 272, 180
-0.997204, 149, 105, 180, 168
-0.997209, 369, 117, 496, 148
-0.997218, 283, 201, 298, 264
-0.997223, 257, 281, 384, 312
-0.997233, 195, 113, 210, 176
-0.997251, 407, 129, 422, 192
-0.997257, 337, 273, 368, 400
-0.997279, 257, 281, 500, 344
-0.99729, 433, 225, 464, 352
-0.997291, 435, 113, 450, 176
-0.997294, 369, 129, 496, 160
-0.99731, 161, 249, 288, 312
-0.997314, 97, 121, 112, 184
-0.997318, 209, 249, 336, 280
-0.997324, 369, 233, 384, 296
-0.997332, 369, 97, 384, 160
-0.997342, 161, 225, 288, 352
-0.997344, 257, 353, 500, 416
-0.997355, 97, 281, 352, 344
-0.997374, 253, 161, 268, 224
-0.997388, 15, 145, 30, 208
-0.99739, 107, 145, 122, 208
-0.997395, 49, 193, 176, 256
-0.997396, 305, 249, 320, 312
-0.997403, 23, 145, 38, 208
-0.997408, 311, 249, 326, 312
-0.997411, 359, 209, 374, 272
-0.997426, 281, 145, 296, 208
-0.99743, 297, 249, 312, 312
-0.997442, 433, 33, 464, 160
-0.997444, 365, 193, 380, 256
-0.997445, 49, 145, 176, 176
-0.997447, 337, 209, 352, 272
-0.997452, 261, 65, 292, 320
-0.997453, 51, 137, 66, 200
-0.997455, 189, 129, 204, 192
-0.997458, 329, 97, 360, 352
-0.997463, 297, 129, 328, 384
-0.997466, 49, 161, 80, 288
-0.997467, 173, 129, 188, 192
-0.997471, 269, 129, 284, 160
-0.997478, 379, 225, 394, 288
-0.997483, 405, 97, 420, 160
-0.99749, 1, 133, 128, 164
-0.997494, 73, 161, 104, 288
-0.997497, 1, 149, 128, 180
-0.997508, 393, 129, 408, 192
-0.997511, 193, 377, 320, 408
-0.997518, 263, 161, 278, 224
-0.997521, 193, 237, 320, 268
-0.997536, 281, 273, 296, 336
-0.997539, 89, 121, 104, 184
-0.997539, 285, 161, 316, 416
-0.997542, 273, 177, 400, 208
-0.997555, 179, 129, 194, 192
-0.997572, 247, 97, 262, 160
-0.997582, 41, 1, 104, 128
-0.997589, 413, 89, 428, 152
-0.997594, 255, 185, 270, 248
-0.9976, 321, 149, 448, 180
-0.997601, 321, 221, 448, 252
-0.997601, 285, 65, 316, 320
-0.997603, 225, 189, 352, 220
-0.997609, 87, 145, 102, 208
-0.997617, 97, 17, 352, 80
-0.997623, 399, 129, 414, 192
-0.997624, 321, 249, 448, 280
-0.997627, 351, 137, 366, 200
-0.997632, 291, 121, 306, 184
-0.997634, 43, 129, 58, 192
-0.99764, 165, 137, 180, 200
-0.997643, 207, 97, 222, 160
-0.997645, 341, 97, 372, 352
-0.99765, 225, 217, 352, 248
-0.997657, 367, 73, 382, 136
-0.997657, 315, 153, 330, 216
-0.997658, 361, 73, 376, 136
-0.99766, 321, 153, 336, 216
-0.99767, 129, 41, 256, 104
-0.997674, 1, 161, 500, 224
-0.997677, 363, 145, 378, 208
-0.997695, 289, 345, 304, 408
-0.997708, 253, 129, 268, 192
-0.997709, 371, 137, 386, 200
-0.997712, 377, 65, 392, 128
-0.997725, 61, 145, 76, 208
-0.997726, 281, 89, 296, 152
-0.997734, 159, 137, 174, 200
-0.997739, 189, 97, 204, 160
-0.99774, 103, 121, 118, 184
-0.997752, 311, 57, 326, 120
-0.997754, 441, 97, 456, 160
-0.997756, 373, 257, 388, 320
-0.997766, 285, 369, 300, 428
-0.997767, 329, 41, 344, 104
-0.997773, 385, 225, 400, 288
-0.997791, 215, 97, 230, 160
-0.997796, 283, 177, 298, 240
-0.997798, 219, 129, 234, 192
-0.997808, 193, 361, 320, 392
-0.997812, 353, 233, 480, 264
-0.997822, 97, 257, 352, 320
-0.997854, 129, 65, 384, 128
-0.997856, 161, 397, 288, 428
-0.997864, 255, 105, 270, 168
-0.997876, 141, 1, 172, 128
-0.99788, 225, 129, 240, 192
-0.997889, 73, 153, 88, 216
-0.99789, 97, 41, 352, 104
-0.997903, 241, 97, 256, 160
-0.997907, 81, 389, 208, 420
-0.99791, 289, 185, 304, 248
-0.997916, 209, 393, 336, 424
-0.997924, 283, 345, 298, 408
-0.997926, 143, 137, 158, 200
-0.997927, 5, 137, 20, 200
-0.99793, 309, 145, 324, 208
-0.99794, 81, 121, 96, 184
-0.997949, 349, 233, 364, 296
-0.997951, 321, 1, 352, 256
-0.997951, 329, 209, 344, 272
-0.997957, 321, 205, 448, 236
-0.997958, 99, 145, 114, 208
-0.997964, 257, 361, 384, 392
-0.997965, 349, 65, 364, 128
-0.997967, 305, 49, 432, 80
-0.997976, 297, 177, 312, 240
-0.997991, 225, 97, 240, 160
-0.997994, 331, 249, 346, 312
-0.997995, 81, 153, 96, 216
-0.997995, 379, 257, 394, 320
-0.997999, 193, 261, 320, 292
-0.998002, 273, 149, 288, 180
-0.998013, 331, 129, 346, 192
-0.998014, 113, 101, 240, 132
-0.998016, 113, 145, 128, 208
-0.99804, 307, 169, 322, 232
-0.998043, 391, 225, 406, 288
-0.998044, 305, 57, 320, 120
-0.998047, 323, 57, 338, 120
-0.998055, 275, 133, 290, 164
-0.998058, 319, 257, 334, 320
-0.998062, 123, 137, 138, 200
-0.998093, 263, 133, 278, 164
-0.998094, 321, 193, 448, 224
-0.998106, 275, 369, 290, 428
-0.998115, 275, 169, 290, 232
-0.998123, 49, 313, 176, 376
-0.998128, 237, 145, 268, 272
-0.998142, 199, 117, 214, 148
-0.998145, 287, 201, 302, 232
-0.998145, 445, 33, 476, 160
-0.998159, 287, 229, 302, 260
-0.99819, 377, 137, 392, 168
-0.99823, 273, 317, 400, 348
-0.998235, 217, 125, 232, 156
-0.998237, 437, 97, 452, 128
-0.998263, 97, 217, 352, 280
-0.99827, 193, 333, 320, 364
-0.998275, 253, 209, 284, 224
-0.998275, 181, 113, 212, 128
-0.998276, 293, 201, 308, 232
-0.998277, 1, 193, 500, 256
-0.998277, 401, 131, 432, 146
-0.998277, 213, 139, 244, 154
-0.998277, 17, 345, 144, 408
-0.998277, 249, 223, 280, 238
-0.998279, 353, 161, 384, 176
-0.998279, 253, 243, 284, 258
-0.998279, 325, 219, 356, 234
-0.99828, 389, 131, 420, 146
-0.99828, 277, 265, 308, 280
-0.998281, 341, 153, 372, 168
-0.998281, 249, 217, 280, 232
-0.998282, 273, 155, 304, 170
-0.998282, 45, 151, 76, 166
-0.998282, 273, 99, 304, 114
-0.998283, 273, 295, 304, 310
-0.998284, 93, 151, 124, 166
-0.998285, 409, 93, 440, 108
-0.998286, 277, 383, 308, 398
-0.998286, 329, 245, 360, 260
-0.998286, 293, 67, 324, 82
-0.998286, 249, 195, 280, 210
-0.998287, 279, 249, 294, 280
-0.998287, 33, 143, 64, 158
-0.998287, 281, 125, 312, 140
-0.998287, 313, 157, 344, 172
-0.998289, 281, 271, 312, 286
-0.998289, 1, 389, 128, 420
-0.998289, 221, 133, 252, 148
-0.998289, 249, 203, 280, 218
-0.99829, 269, 281, 300, 296
-0.99829, 277, 373, 308, 388
-0.998291, 273, 105, 304, 120
-0.998292, 257, 177, 288, 192
-0.998292, 277, 187, 308, 202
-0.998293, 333, 233, 364, 248
-0.998293, 329, 127, 360, 142
-0.998295, 5, 141, 36, 156
-0.998295, 121, 145, 152, 160
-0.998296, 285, 343, 316, 358
-0.998297, 345, 113, 376, 128
-0.998298, 317, 203, 348, 218
-0.998299, 185, 49, 216, 176
-0.998299, 253, 95, 284, 110
-0.998299, 345, 229, 376, 244
-0.998299, 353, 33, 384, 288
-0.998301, 329, 149, 360, 164
-0.998301, 105, 147, 136, 162
-0.998301, 285, 181, 316, 196
-0.998302, 333, 227, 364, 242
-0.998302, 393, 137, 424, 152
-0.998303, 185, 133, 216, 148
-0.998303, 313, 253, 344, 268
-0.998304, 209, 131, 240, 146
-0.998304, 309, 245, 340, 260
-0.998304, 241, 147, 272, 162
-0.998305, 49, 65, 80, 192
-0.998305, 257, 171, 288, 186
-0.998305, 285, 235, 316, 250
-0.998305, 317, 63, 348, 78
-0.998305, 277, 259, 308, 274
-0.998306, 281, 193, 312, 208
-0.998307, 217, 365, 248, 380
-0.998307, 341, 121, 372, 136
-0.998307, 289, 213, 304, 244
-0.998307, 357, 93, 388, 108
-0.998308, 201, 99, 232, 114
-0.998308, 253, 237, 284, 252
-0.998309, 325, 251, 356, 266
-0.99831, 277, 201, 308, 216
-0.99831, 437, 107, 468, 122
-0.99831, 337, 173, 464, 204
-0.998311, 249, 229, 280, 244
-0.998312, 275, 225, 290, 256
-0.998313, 197, 111, 228, 126
-0.998314, 373, 103, 404, 118
-0.998314, 283, 137, 298, 168
-0.998314, 275, 113, 290, 144
-0.998315, 377, 33, 408, 288
-0.998315, 241, 301, 368, 332
-0.998315, 241, 95, 272, 110
-0.998316, 417, 125, 432, 156
-0.998316, 401, 193, 432, 320
-0.998316, 277, 209, 308, 224
-0.998319, 357, 105, 388, 120
-0.998319, 173, 137, 204, 152
-0.998319, 359, 129, 374, 160
-0.998319, 253, 107, 284, 122
-0.998319, 33, 151, 64, 166
-0.998319, 269, 115, 300, 130
-0.99832, 289, 201, 320, 216
-0.998321, 357, 129, 388, 144
-0.998321, 267, 145, 282, 176
-0.998322, 337, 143, 368, 158
-0.998323, 297, 253, 328, 268
-0.998324, 261, 155, 292, 170
-0.998325, 5, 147, 36, 162
-0.998326, 397, 97, 428, 112
-0.998327, 413, 131, 444, 146
-0.998328, 241, 103, 272, 118
-0.998328, 355, 145, 370, 176
-0.998331, 261, 191, 292, 206
-0.998332, 257, 161, 288, 176
-0.998334, 289, 207, 320, 222
-0.998334, 425, 99, 456, 114
-0.998335, 417, 125, 448, 140
-0.998336, 305, 63, 336, 78
-0.998336, 229, 99, 260, 114
-0.998338, 269, 121, 300, 136
-0.99834, 373, 95, 404, 110
-0.998341, 261, 183, 292, 198
-0.998345, 273, 251, 304, 266
-0.998348, 285, 249, 316, 264
-0.998348, 197, 117, 228, 132
-0.998348, 17, 225, 144, 288
-0.998349, 229, 139, 260, 154
-0.998352, 261, 197, 292, 212
-0.998353, 281, 145, 312, 160
-0.998354, 255, 137, 270, 168
-0.998356, 277, 133, 308, 148
-0.998357, 353, 151, 384, 166
-0.998357, 17, 149, 48, 164
-0.998358, 197, 131, 228, 146
-0.998358, 433, 113, 464, 128
-0.998359, 385, 101, 416, 116
-0.99836, 285, 229, 316, 244
-0.998361, 373, 139, 404, 154
-0.998361, 253, 133, 284, 148
-0.998362, 177, 161, 304, 192
-0.998362, 273, 215, 304, 230
-0.998364, 189, 123, 220, 138
-0.998367, 341, 127, 372, 142
-0.998368, 427, 117, 442, 148
-0.998369, 353, 143, 384, 158
-0.998371, 249, 141, 280, 156
-0.998373, 341, 137, 372, 152
-0.998374, 425, 119, 456, 134
-0.998374, 289, 297, 416, 328
-0.998375, 273, 245, 304, 260
-0.998377, 269, 127, 300, 142
-0.998381, 437, 109, 452, 140
-0.998388, 337, 61, 464, 92
-0.998388, 353, 135, 384, 150
-0.99839, 245, 33, 276, 288
-0.998393, 273, 239, 304, 254
-0.998399, 365, 129, 380, 160
-0.998401, 265, 205, 296, 220
-0.998401, 289, 17, 416, 48
-0.998403, 369, 29, 496, 60
-0.998406, 353, 133, 368, 164
-0.998407, 273, 139, 304, 154
-0.99841, 269, 225, 300, 240
-0.99841, 209, 277, 336, 308
-0.998411, 193, 117, 208, 148
-0.998418, 205, 121, 220, 152
-0.998422, 261, 149, 292, 164
-0.998423, 227, 133, 242, 164
-0.998425, 347, 117, 362, 148
-0.99843, 201, 125, 232, 140
-0.99843, 49, 133, 176, 164
-0.998433, 281, 121, 296, 152
-0.998435, 193, 349, 320, 380
-0.998441, 253, 101, 284, 116
-0.998445, 265, 133, 296, 148
-0.998449, 325, 305, 356, 428
-0.998453, 261, 139, 292, 154
-0.998453, 257, 161, 288, 416
-0.998458, 309, 33, 340, 288
-0.99846, 361, 99, 392, 114
-0.998471, 269, 233, 300, 248
-0.998473, 209, 21, 336, 52
-0.998479, 367, 93, 382, 124
-0.998489, 411, 133, 426, 164
-0.99849, 287, 241, 302, 272
-0.998501, 61, 65, 92, 320
-0.998504, 297, 1, 328, 256
-0.998517, 333, 1, 364, 256
-0.998518, 257, 373, 384, 404
-0.998519, 161, 189, 288, 220
-0.998519, 211, 121, 226, 152
-0.998522, 443, 101, 458, 132
-0.998531, 201, 101, 216, 132
-0.998531, 369, 329, 496, 360
-0.998536, 265, 93, 280, 124
-0.998537, 305, 265, 432, 296
-0.998539, 81, 377, 208, 408
-0.998543, 1, 373, 128, 404
-0.998552, 393, 97, 456, 112
-0.998556, 329, 135, 392, 150
-0.998563, 225, 139, 288, 154
-0.998566, 145, 385, 272, 416
-0.998567, 353, 113, 368, 144
-0.998569, 249, 137, 312, 152
-0.998574, 193, 99, 256, 114
-0.998575, 257, 235, 320, 250
-0.998579, 385, 273, 416, 400
-0.998582, 265, 251, 328, 266
-0.998583, 185, 131, 248, 146
-0.998586, 345, 103, 408, 118
-0.998593, 177, 1, 208, 256
-0.998602, 329, 141, 392, 156
-0.998602, 249, 201, 312, 216
-0.998605, 389, 33, 420, 288
-0.998606, 257, 229, 320, 244
-0.998608, 353, 93, 416, 108
-0.998609, 357, 101, 372, 132
-0.99861, 225, 103, 288, 118
-0.99861, 281, 203, 344, 218
-0.998612, 289, 135, 352, 150
-0.998613, 209, 77, 336, 108
-0.998613, 265, 217, 328, 232
-0.998614, 329, 129, 392, 144
-0.998614, 277, 237, 292, 268
-0.998617, 369, 137, 432, 152
-0.998619, 295, 217, 310, 248
-0.998619, 201, 33, 232, 160
-0.998622, 281, 209, 344, 224
-0.998623, 169, 137, 232, 152
-0.998623, 321, 249, 384, 264
-0.998625, 1, 9, 256, 72
-0.998625, 265, 245, 328, 260
-0.998626, 289, 33, 416, 64
-0.998627, 265, 257, 328, 272
-0.998629, 289, 141, 352, 156
-0.998629, 345, 129, 360, 160
-0.99863, 307, 253, 322, 284
-0.998633, 249, 191, 312, 206
-0.998633, 249, 157, 312, 172
-0.998636, 281, 223, 344, 238
-0.998637, 321, 205, 384, 220
-0.998638, 177, 225, 304, 256
-0.998638, 257, 223, 320, 238
-0.998639, 249, 147, 312, 162
-0.998639, 281, 229, 344, 244
-0.99864, 169, 123, 232, 138
-0.998642, 289, 5, 416, 36
-0.998645, 269, 201, 284, 232
-0.998647, 217, 133, 280, 148
-0.998647, 289, 65, 352, 80
-0.998647, 65, 121, 192, 152
-0.998648, 249, 211, 312, 226
-0.998648, 1, 1, 128, 32
-0.998651, 417, 119, 480, 134
-0.998652, 265, 105, 328, 120
-0.998653, 369, 99, 432, 114
-0.998654, 233, 95, 296, 110
-0.998654, 289, 243, 352, 258
-0.998655, 305, 153, 368, 168
-0.998655, 257, 131, 320, 146
-0.998656, 9, 149, 72, 164
-0.998658, 273, 345, 336, 360
-0.998659, 233, 109, 296, 124
-0.998661, 225, 1, 352, 32
-0.998662, 193, 125, 256, 140
-0.998663, 257, 181, 320, 196
-0.998663, 289, 251, 352, 266
-0.998663, 321, 147, 384, 162
-0.998664, 409, 127, 472, 142
-0.998666, 265, 263, 328, 278
-0.998667, 361, 131, 424, 146
-0.99867, 321, 199, 384, 214
-0.99867, 321, 223, 384, 238
-0.998672, 217, 145, 280, 160
-0.998673, 257, 163, 320, 178
-0.998673, 361, 145, 376, 176
-0.998673, 267, 241, 282, 272
-0.998674, 425, 113, 488, 128
-0.998674, 321, 229, 384, 244
-0.998674, 337, 111, 400, 126
-0.998676, 49, 65, 80, 320
-0.998677, 321, 243, 384, 258
-0.998678, 365, 97, 396, 352
-0.998678, 305, 159, 368, 174
-0.998679, 97, 89, 224, 120
-0.99868, 289, 327, 352, 342
-0.998681, 33, 149, 48, 180
-0.998682, 265, 111, 328, 126
-0.998684, 289, 197, 352, 212
-0.998684, 283, 213, 298, 244
-0.998685, 249, 173, 312, 188
-0.998685, 145, 137, 208, 152
-0.998686, 265, 269, 328, 284
-0.998686, 329, 97, 392, 112
-0.998687, 105, 147, 168, 162
-0.998687, 385, 133, 400, 164
-0.998688, 281, 147, 344, 162
-0.998689, 241, 119, 304, 134
-0.998689, 273, 191, 336, 206
-0.998689, 321, 217, 384, 232
-0.998689, 153, 113, 216, 128
-0.998689, 321, 211, 384, 226
-0.99869, 289, 129, 352, 144
-0.998691, 233, 227, 296, 242
-0.998692, 281, 237, 344, 252
-0.998692, 293, 189, 308, 220
-0.998693, 289, 217, 352, 232
-0.998694, 321, 235, 384, 250
-0.998696, 193, 113, 256, 128
-0.998696, 33, 151, 96, 166
-0.998696, 121, 141, 184, 156
-0.998697, 393, 91, 456, 106
-0.998697, 337, 117, 400, 132
-0.998697, 401, 133, 464, 148
-0.998697, 405, 137, 420, 168
-0.998698, 161, 131, 224, 146
-0.998698, 65, 151, 128, 166
-0.998699, 345, 231, 408, 246
-0.998699, 233, 185, 296, 200
-0.998699, 265, 97, 328, 112
-0.9987, 289, 321, 352, 336
-0.998702, 297, 123, 360, 138
-0.998702, 225, 89, 288, 104
-0.998703, 25, 143, 88, 158
-0.998703, 417, 289, 448, 416
-0.998703, 273, 339, 336, 354
-0.998704, 241, 217, 304, 232
-0.998704, 281, 193, 296, 224
-0.998705, 273, 351, 336, 366
-0.998706, 257, 125, 320, 140
-0.998706, 337, 1, 464, 32
-0.998706, 321, 187, 384, 202
-0.998707, 275, 273, 290, 304
-0.998707, 329, 245, 344, 276
-0.998707, 185, 393, 200, 424
-0.998708, 329, 123, 392, 138
-0.998709, 369, 125, 432, 140
-0.99871, 193, 93, 256, 108
-0.99871, 233, 235, 296, 250
-0.99871, 433, 107, 496, 122
-0.998711, 313, 103, 376, 118
-0.998711, 329, 153, 392, 168
-0.998713, 193, 139, 256, 154
-0.998714, 297, 117, 360, 132
-0.998714, 273, 369, 336, 384
-0.998714, 121, 135, 184, 150
-0.998714, 281, 301, 344, 316
-0.998715, 265, 377, 328, 392
-0.998715, 217, 151, 280, 166
-0.998716, 1, 143, 64, 158
-0.998716, 263, 229, 278, 260
-0.998716, 221, 361, 236, 392
-0.998717, 185, 107, 248, 122
-0.998717, 321, 193, 384, 208
-0.998718, 329, 163, 392, 178
-0.998718, 185, 375, 248, 390
-0.998718, 305, 111, 368, 126
-0.998718, 289, 315, 352, 330
-0.998719, 209, 313, 336, 344
-0.998719, 289, 333, 352, 348
-0.99872, 259, 205, 274, 236
-0.99872, 169, 401, 232, 416
-0.99872, 369, 221, 496, 252
-0.998721, 281, 157, 344, 172
-0.998721, 281, 279, 344, 294
-0.998722, 265, 91, 328, 106
-0.998723, 313, 91, 376, 106
-0.998723, 273, 117, 336, 132
-0.998723, 105, 153, 168, 168
-0.998729, 273, 261, 288, 292
-0.998731, 245, 133, 260, 164
-0.998733, 23, 145, 38, 176
-0.998733, 431, 97, 446, 128
-0.998734, 379, 89, 394, 120
-0.998734, 339, 233, 354, 264
-0.998735, 385, 101, 400, 132
-0.998736, 9, 145, 24, 176
-0.998739, 263, 177, 278, 208
-0.99874, 261, 145, 276, 176
-0.998743, 269, 213, 284, 244
-0.998743, 47, 137, 62, 168
-0.998743, 119, 145, 134, 176
-0.998744, 367, 141, 382, 172
-0.998747, 1, 105, 128, 136
-0.998747, 55, 149, 70, 180
-0.998752, 221, 137, 236, 168
-0.998753, 305, 73, 432, 104
-0.998753, 335, 205, 350, 236
-0.998753, 173, 133, 188, 164
-0.998754, 317, 157, 332, 188
-0.998758, 321, 253, 336, 284
-0.998761, 17, 129, 48, 384
-0.998766, 161, 173, 288, 204
-0.998767, 401, 33, 432, 288
-0.998769, 47, 149, 62, 180
-0.998771, 265, 189, 280, 220
-0.998771, 261, 157, 276, 188
-0.998772, 29, 65, 60, 320
-0.998773, 289, 341, 304, 372
-0.998774, 73, 1, 104, 256
-0.998778, 369, 245, 496, 276
-0.998783, 297, 233, 312, 264
-0.998786, 41, 137, 56, 168
-0.998787, 315, 61, 330, 92
-0.998793, 183, 133, 198, 164
-0.998795, 197, 129, 212, 160
-0.998798, 311, 153, 326, 184
-0.998799, 259, 97, 274, 128
-0.998807, 373, 97, 388, 128
-0.998809, 313, 253, 328, 284
-0.99881, 255, 189, 270, 220
-0.998813, 379, 101, 394, 132
-0.998814, 321, 313, 448, 344
-0.998815, 245, 101, 260, 132
-0.998817, 369, 17, 496, 48
-0.998818, 53, 137, 68, 168
-0.998821, 167, 133, 182, 164
-0.998827, 145, 373, 272, 404
-0.99883, 299, 201, 314, 232
-0.99883, 3, 145, 18, 176
-0.998833, 209, 49, 336, 80
-0.998836, 397, 97, 412, 128
-0.998836, 15, 145, 30, 176
-0.998851, 251, 101, 266, 132
-0.998851, 277, 285, 292, 316
-0.998853, 329, 201, 344, 232
-0.998855, 315, 241, 330, 272
-0.998855, 399, 137, 414, 168
-0.998855, 303, 65, 318, 96
-0.998855, 385, 89, 400, 120
-0.998855, 391, 137, 406, 168
-0.998858, 365, 81, 380, 112
-0.998861, 255, 397, 270, 428
-0.998862, 357, 77, 372, 108
-0.998863, 65, 149, 80, 180
-0.998864, 97, 185, 224, 248
-0.998871, 305, 285, 432, 316
-0.998872, 209, 289, 336, 320
-0.998876, 325, 61, 340, 92
-0.998876, 271, 101, 286, 132
-0.998878, 87, 149, 102, 180
-0.998879, 255, 153, 270, 184
-0.998881, 39, 149, 54, 180
-0.998881, 65, 157, 192, 188
-0.998886, 337, 161, 464, 192
-0.998889, 283, 373, 298, 404
-0.99889, 191, 129, 206, 160
-0.99889, 323, 201, 338, 232
-0.998895, 251, 89, 266, 120
-0.998905, 359, 217, 374, 248
-0.998905, 285, 393, 300, 424
-0.998905, 279, 153, 294, 184
-0.998908, 261, 217, 276, 248
-0.998909, 293, 129, 308, 160
-0.998912, 237, 97, 252, 128
-0.998913, 101, 149, 116, 180
-0.998914, 353, 161, 384, 416
-0.998915, 391, 97, 406, 128
-0.998916, 273, 397, 400, 428
-0.998918, 349, 149, 364, 180
-0.998934, 97, 365, 224, 396
-0.998952, 49, 37, 176, 68
-0.998968, 369, 353, 496, 416
-0.998971, 33, 345, 288, 408
-0.99898, 1, 37, 128, 68
-0.998997, 267, 129, 282, 256
-0.999002, 263, 81, 278, 208
-0.999005, 65, 17, 192, 48
-0.999029, 413, 33, 444, 288
-0.999054, 1, 249, 500, 312
-0.999055, 1, 93, 128, 124
-0.999058, 257, 53, 384, 84
-0.999062, 273, 1, 304, 256
-0.999063, 369, 41, 496, 72
-0.999072, 273, 385, 400, 416
-0.99908, 377, 97, 392, 224
-0.999085, 225, 33, 352, 64
-0.99909, 281, 65, 296, 192
-0.999097, 369, 257, 496, 288
-0.999103, 65, 109, 192, 140
-0.999104, 273, 97, 288, 224
-0.999105, 361, 289, 392, 416
-0.999111, 189, 65, 220, 320
-0.999111, 1, 369, 256, 428
-0.999124, 273, 145, 288, 272
-0.999124, 367, 81, 382, 208
-0.999133, 129, 25, 256, 56
-0.999133, 85, 1, 116, 256
-0.999138, 263, 193, 278, 320
-0.99914, 279, 113, 294, 240
-0.999151, 17, 193, 144, 320
-0.99916, 17, 121, 144, 152
-0.999161, 355, 49, 370, 176
-0.999164, 1, 57, 256, 120
-0.999165, 261, 129, 276, 256
-0.999166, 1, 1, 32, 256
-0.999167, 383, 81, 398, 208
-0.999179, 289, 193, 304, 320
-0.999181, 81, 217, 208, 280
-0.999186, 1, 1, 500, 64
-0.999189, 193, 301, 320, 332
-0.999191, 233, 1, 264, 256
-0.999196, 253, 97, 268, 224
-0.999217, 295, 193, 310, 320
-0.999222, 245, 129, 276, 384
-0.999223, 353, 73, 480, 104
-0.999228, 177, 97, 208, 352
-0.999231, 285, 113, 300, 240
-0.999232, 65, 181, 192, 212
-0.999235, 419, 81, 434, 208
-0.999239, 405, 81, 420, 208
-0.999243, 177, 201, 304, 232
-0.999254, 97, 97, 128, 352
-0.999255, 277, 193, 292, 320
-0.999256, 287, 65, 302, 192
-0.999257, 389, 81, 404, 208
-0.999257, 217, 305, 280, 428
-0.999261, 225, 33, 256, 160
-0.999272, 17, 1, 48, 256
-0.999274, 369, 209, 496, 240
-0.999276, 69, 1, 100, 128
-0.999277, 1, 217, 500, 280
-0.999279, 1, 369, 500, 428
-0.99928, 1, 97, 32, 352
-0.999281, 395, 81, 410, 208
-0.999292, 73, 97, 104, 352
-0.999293, 201, 33, 232, 288
-0.999303, 425, 97, 440, 224
-0.999304, 361, 49, 376, 176
-0.999308, 49, 89, 176, 120
-0.999309, 361, 97, 376, 224
-0.99931, 413, 81, 428, 208
-0.999312, 349, 49, 364, 176
-0.999316, 321, 145, 336, 272
-0.99933, 1, 189, 128, 220
-0.99933, 255, 145, 270, 272
-0.99934, 351, 97, 366, 224
-0.999349, 269, 209, 284, 336
-0.999353, 315, 145, 330, 272
-0.99936, 283, 209, 298, 336
-0.999365, 321, 333, 448, 364
-0.999369, 293, 65, 308, 192
-0.999372, 87, 113, 102, 240
-0.999372, 343, 113, 358, 240
-0.999375, 97, 129, 112, 256
-0.999382, 367, 177, 382, 304
-0.999387, 97, 1, 128, 128
-0.999388, 343, 65, 358, 192
-0.999389, 457, 49, 488, 176
-0.999397, 275, 49, 290, 176
-0.9994, 431, 97, 446, 224
-0.999406, 81, 289, 208, 352
-0.999406, 301, 177, 316, 304
-0.999407, 1, 33, 256, 96
-0.999409, 269, 49, 284, 176
-0.999415, 1, 77, 128, 108
-0.999419, 177, 61, 304, 92
-0.999423, 377, 49, 392, 176
-0.999424, 365, 1, 396, 256
-0.999425, 295, 145, 310, 272
-0.999429, 277, 257, 292, 384
-0.999442, 143, 129, 158, 256
-0.999447, 119, 129, 134, 256
-0.999448, 121, 129, 152, 384
-0.999458, 93, 81, 108, 208
-0.999459, 309, 241, 324, 368
-0.999463, 433, 1, 464, 256
-0.999463, 369, 129, 384, 256
-0.999464, 361, 209, 376, 336
-0.999466, 195, 97, 210, 224
-0.999466, 79, 145, 94, 272
-0.999477, 383, 129, 398, 256
-0.999477, 69, 145, 84, 272
-0.999482, 293, 289, 308, 416
-0.999482, 335, 65, 350, 192
-0.999482, 99, 81, 114, 208
-0.999483, 307, 145, 322, 272
-0.999483, 323, 157, 338, 172
-0.999483, 369, 33, 384, 160
-0.999484, 5, 129, 20, 256
-0.999484, 273, 229, 288, 244
-0.999484, 165, 1, 196, 256
-0.999484, 261, 181, 276, 196
-0.999484, 257, 201, 272, 216
-0.999485, 379, 209, 394, 336
-0.999485, 281, 149, 296, 164
-0.999485, 279, 277, 294, 292
-0.999485, 447, 105, 462, 120
-0.999485, 279, 113, 294, 128
-0.999486, 295, 339, 310, 354
-0.999487, 367, 149, 382, 164
-0.999487, 247, 145, 262, 160
-0.999487, 203, 101, 218, 116
-0.999487, 51, 145, 66, 272
-0.999487, 405, 97, 420, 112
-0.999487, 125, 141, 140, 156
-0.999487, 269, 211, 284, 226
-0.999487, 185, 407, 200, 422
-0.999488, 259, 213, 274, 228
-0.999488, 193, 133, 208, 148
-0.999488, 291, 303, 306, 318
-0.999488, 253, 97, 268, 112
-0.999488, 283, 257, 298, 384
-0.999489, 235, 139, 250, 154
-0.999489, 293, 135, 308, 150
-0.999489, 281, 129, 296, 144
-0.999489, 321, 63, 336, 78
-0.999489, 39, 151, 54, 166
-0.999489, 299, 201, 314, 216
-0.999489, 283, 265, 298, 280
-0.99949, 193, 123, 208, 138
-0.99949, 263, 231, 278, 246
-0.99949, 189, 81, 204, 208
-0.99949, 253, 163, 268, 178
-0.999491, 283, 249, 298, 264
-0.999491, 339, 209, 354, 336
-0.999492, 307, 253, 322, 268
-0.999492, 253, 105, 268, 120
-0.999492, 9, 145, 24, 160
-0.999492, 329, 129, 344, 256
-0.999492, 285, 117, 300, 132
-0.999493, 271, 111, 286, 126
-0.999494, 47, 151, 62, 166
-0.999495, 317, 157, 332, 172
-0.999495, 265, 237, 280, 252
-0.999495, 267, 245, 282, 260
-0.999497, 119, 145, 134, 160
-0.999497, 357, 143, 372, 158
-0.999497, 305, 65, 320, 80
-0.999497, 263, 191, 278, 206
-0.999498, 323, 253, 338, 268
-0.999498, 297, 193, 312, 208
-0.999499, 259, 145, 274, 160
-0.999499, 373, 99, 388, 114
-0.999499, 283, 231, 298, 246
-0.9995, 3, 141, 18, 156
-0.9995, 247, 97, 262, 224
-0.999501, 311, 65, 326, 80
-0.999501, 277, 155, 292, 170
-0.999501, 329, 251, 344, 266
-0.999501, 37, 145, 52, 272
-0.999502, 259, 207, 274, 222
-0.999503, 291, 211, 306, 226
-0.999503, 331, 205, 346, 220
-0.999504, 289, 343, 304, 358
-0.999505, 221, 139, 236, 154
-0.999506, 385, 135, 400, 150
-0.999506, 265, 95, 280, 110
-0.999506, 15, 147, 30, 162
-0.999506, 311, 161, 326, 176
-0.999506, 263, 161, 278, 176
-0.999506, 379, 95, 394, 110
-0.999508, 345, 125, 360, 140
-0.999508, 1, 49, 500, 112
-0.999509, 175, 137, 190, 152
-0.999509, 33, 151, 48, 166
-0.999509, 109, 129, 124, 256
-0.99951, 391, 101, 406, 116
-0.999512, 321, 225, 336, 352
-0.999512, 245, 139, 260, 154
-0.999512, 205, 129, 220, 144
-0.999512, 43, 145, 58, 272
-0.999513, 221, 365, 236, 380
-0.999514, 417, 125, 432, 140
-0.999514, 295, 241, 310, 368
-0.999514, 399, 99, 414, 114
-0.999515, 359, 149, 374, 164
-0.999515, 353, 153, 368, 168
-0.999515, 281, 199, 296, 214
-0.999516, 409, 135, 424, 150
-0.999516, 303, 241, 318, 368
-0.999517, 439, 99, 454, 114
-0.999518, 219, 131, 234, 146
-0.999519, 299, 49, 314, 176
-0.99952, 287, 217, 302, 232
-0.999521, 265, 101, 280, 116
-0.999521, 391, 129, 406, 256
-0.999521, 225, 133, 240, 148
-0.999522, 267, 203, 282, 218
-0.999523, 437, 97, 452, 224
-0.999523, 365, 143, 380, 158
-0.999524, 165, 97, 196, 352
-0.999525, 201, 81, 216, 208
-0.999525, 103, 129, 118, 256
-0.999525, 379, 103, 394, 118
-0.999525, 329, 241, 344, 368
-0.999525, 263, 155, 278, 170
-0.999526, 21, 147, 36, 162
-0.999526, 399, 129, 414, 256
-0.999526, 161, 129, 176, 256
-0.999526, 279, 255, 294, 270
-0.999528, 385, 103, 400, 118
-0.999528, 335, 113, 350, 240
-0.999529, 289, 245, 304, 260
-0.999529, 265, 197, 280, 212
-0.999529, 239, 101, 254, 116
-0.99953, 259, 99, 274, 114
-0.99953, 323, 65, 338, 192
-0.99953, 269, 217, 284, 232
-0.999531, 279, 143, 294, 158
-0.999532, 247, 103, 262, 118
-0.999533, 339, 1, 354, 128
-0.999533, 281, 135, 296, 150
-0.999533, 283, 161, 298, 288
-0.999535, 199, 113, 214, 128
-0.999535, 291, 199, 306, 214
-0.999535, 375, 145, 390, 272
-0.999536, 271, 127, 286, 142
-0.999537, 257, 49, 272, 176
-0.999537, 357, 137, 372, 152
-0.999538, 367, 133, 382, 148
-0.999538, 133, 145, 148, 272
-0.999539, 283, 237, 298, 252
-0.999541, 283, 207, 298, 222
-0.999541, 27, 149, 42, 164
-0.999543, 271, 223, 286, 238
-0.999544, 385, 209, 400, 336
-0.999545, 75, 81, 90, 208
-0.999547, 359, 145, 374, 272
-0.999547, 181, 81, 196, 208
-0.999548, 315, 241, 330, 368
-0.999549, 275, 243, 290, 258
-0.99955, 359, 131, 374, 146
-0.999552, 27, 129, 42, 256
-0.999552, 227, 139, 242, 154
-0.999555, 377, 139, 392, 154
-0.999555, 273, 149, 288, 164
-0.999556, 177, 129, 192, 256
-0.999558, 11, 129, 26, 256
-0.999559, 265, 133, 280, 148
-0.999562, 441, 109, 456, 124
-0.999563, 329, 65, 344, 192
-0.999563, 253, 145, 268, 160
-0.999563, 409, 129, 424, 256
-0.999564, 415, 131, 430, 146
-0.999566, 189, 129, 204, 256
-0.999568, 199, 123, 214, 138
-0.999568, 373, 209, 388, 336
-0.999569, 443, 241, 458, 368
-0.999569, 155, 129, 170, 256
-0.99957, 129, 81, 144, 208
-0.99957, 349, 225, 364, 352
-0.99957, 213, 125, 228, 140
-0.99957, 287, 305, 302, 428
-0.999571, 1, 289, 500, 352
-0.999572, 423, 123, 438, 138
-0.999573, 367, 95, 382, 110
-0.999573, 171, 129, 186, 256
-0.999575, 205, 123, 220, 138
-0.999575, 289, 229, 304, 244
-0.999576, 289, 241, 304, 368
-0.999577, 309, 193, 324, 320
-0.999579, 265, 145, 280, 160
-0.999581, 57, 145, 72, 272
-0.999583, 291, 205, 306, 220
-0.999583, 435, 113, 450, 128
-0.999585, 277, 249, 292, 264
-0.999586, 327, 17, 342, 144
-0.999591, 65, 97, 80, 224
-0.999591, 111, 81, 126, 208
-0.999592, 447, 289, 462, 416
-0.999592, 363, 1, 378, 128
-0.999593, 383, 33, 398, 160
-0.999593, 165, 81, 180, 208
-0.999593, 255, 139, 270, 154
-0.999594, 63, 145, 78, 272
-0.999596, 419, 33, 434, 160
-0.999596, 429, 117, 444, 132
-0.999597, 143, 81, 158, 208
-0.999599, 87, 65, 102, 192
-0.999601, 3, 81, 18, 208
-0.999602, 391, 209, 406, 336
-0.999604, 119, 81, 134, 208
-0.999604, 19, 129, 34, 256
-0.999604, 125, 129, 140, 256
-0.999605, 349, 1, 364, 128
-0.999605, 171, 81, 186, 208
-0.999607, 151, 81, 166, 208
-0.999622, 385, 129, 416, 384
-0.999622, 273, 139, 288, 154
-0.999634, 453, 193, 484, 320
-0.999639, 265, 139, 280, 154
-0.999641, 117, 1, 148, 256
-0.999642, 271, 133, 286, 148
-0.999643, 401, 129, 432, 384
-0.999658, 461, 161, 492, 416
-0.999661, 413, 129, 444, 384
-0.99967, 133, 129, 164, 384
-0.999681, 97, 1, 128, 256
-0.99969, 113, 1, 144, 128
-0.999691, 85, 97, 116, 352
-0.999698, 89, 305, 152, 428
-0.999705, 221, 33, 252, 288
-0.999721, 17, 281, 144, 344
-0.999725, 405, 289, 436, 416
-0.999737, 17, 249, 144, 312
-0.999767, 109, 97, 140, 352
-0.999784, 153, 33, 184, 288
-0.999827, 137, 33, 168, 288
-0.999839, 425, 97, 456, 352
-0.999887, 53, 161, 84, 416
-0.999898, 41, 161, 72, 416
-0.999913, 449, 161, 480, 416
-0.999971, 437, 161, 468, 416
-0.999974, 65, 241, 192, 304
-1.00004, 213, 1, 244, 128
-1.00006, 145, 129, 176, 384
-1.0001, 81, 265, 208, 328
-1.00015, 1, 25, 500, 88
-1.00016, 185, 1, 216, 128
-1.00017, 129, 321, 256, 384
-1.00031, 33, 185, 288, 248
-1.00031, 469, 65, 500, 320
-1.00032, 1, 313, 500, 376
-1.00033, 161, 289, 288, 352
-1.00036, 29, 161, 60, 416
-1.00039, 1, 345, 500, 408
-1.00046, 457, 65, 488, 320
-1.00055, 33, 241, 160, 368
-1.00055, 445, 65, 476, 320
-1.00059, 233, 97, 264, 352
-1.00061, 1, 217, 256, 280
-1.00067, 161, 305, 224, 428
-1.00081, 73, 177, 136, 304
-1.00083, 221, 129, 252, 384
-1.00092, 145, 305, 272, 428
-1.00096, 1, 305, 128, 428
-1.00103, 193, 161, 224, 416
-1.00103, 209, 129, 272, 384
-1.00105, 1, 321, 128, 384
-1.00106, 1, 257, 256, 320
-1.00113, 1, 281, 256, 344
-1.00125, 129, 225, 256, 288
-1.0013, 209, 161, 240, 416
-1.00131, 1, 313, 256, 376
-1.00159, 1, 193, 64, 320
-1.00261, 1, 257, 256, 384
-1.00301, 65, 305, 128, 428
-1.00312, 49, 209, 112, 336
-1.00314, 41, 305, 104, 428
-1.0035, 169, 129, 232, 384
-1.00367, 97, 177, 160, 304
-1.00432, 25, 193, 88, 320
-1.00467, 129, 273, 192, 400
-1.0047, 81, 225, 208, 352
-1.00479, 185, 305, 248, 428
-1.00526, 25, 241, 88, 368
-1.00646, 49, 257, 112, 384
-1.00701, 81, 257, 144, 384
-1.00796, 137, 177, 200, 304
-1.0085, 105, 257, 168, 384
-1.00882, 177, 257, 240, 384
-1.009, 193, 177, 256, 304
-1.00905, 17, 305, 80, 428
-1.00997, 1, 257, 64, 384
-1.01042, 137, 225, 200, 352
-1.01107, 201, 225, 264, 352
-1.01224, 169, 177, 232, 304
