1948
-0.0956332, 1, 1, 480, 385
-0.34526, 33, 1, 288, 385
-0.3463, 1, 33, 480, 288
-0.378822, 129, 1, 384, 385
-0.409354, 1, 129, 480, 384
-0.428728, 225, 1, 480, 385
-0.543389, 225, 33, 480, 288
-0.551876, 65, 1, 320, 256
-0.629299, 97, 129, 352, 384
-0.65998, 193, 129, 448, 384
-0.737819, 1, 97, 256, 352
-0.82708, 81, 1, 208, 385
-0.828029, 161, 1, 288, 256
-0.830411, 257, 1, 384, 385
-0.831892, 161, 1, 288, 385
-0.836959, 209, 1, 336, 385
-0.844977, 177, 97, 304, 352
-0.853519, 33, 1, 160, 385
-0.858303, 225, 1, 352, 256
-0.858399, 321, 1, 448, 385
-0.858903, 353, 129, 480, 384
-0.865175, 225, 97, 352, 352
-0.86696, 1, 129, 480, 256
-0.867668, 97, 1, 224, 256
-0.868945, 1, 49, 480, 176
-0.874461, 33, 65, 160, 320
-0.87604, 81, 129, 208, 384
-0.880716, 289, 33, 416, 288
-0.882386, 1, 257, 480, 384
-0.89241, 129, 97, 256, 352
-0.895696, 289, 129, 416, 384
-0.899422, 33, 257, 288, 384
-0.903738, 1, 177, 480, 304
-0.911537, 353, 33, 480, 288
-0.912342, 225, 241, 480, 368
-0.913424, 97, 33, 352, 160
-0.91393, 65, 97, 320, 224
-0.915248, 129, 257, 384, 384
-0.919045, 225, 81, 480, 208
-0.922177, 209, 33, 336, 160
-0.922573, 177, 129, 304, 256
-0.924395, 385, 193, 448, 320
-0.925016, 233, 49, 296, 176
-0.926164, 193, 129, 448, 256
-0.926222, 1, 49, 256, 176
-0.926844, 193, 177, 448, 304
-0.928236, 97, 209, 352, 336
-0.928537, 177, 81, 304, 208
-0.931708, 145, 257, 272, 384
-0.932695, 385, 241, 448, 368
-0.933078, 257, 97, 384, 224
-0.933378, 81, 225, 208, 352
-0.933621, 417, 225, 480, 352
-0.933866, 193, 33, 448, 160
-0.934338, 161, 17, 288, 144
-0.934409, 153, 225, 216, 352
-0.935576, 193, 257, 320, 384
-0.935691, 289, 257, 416, 384
-0.936686, 209, 97, 272, 224
-0.93709, 113, 225, 176, 352
-0.937413, 337, 257, 464, 384
-0.937573, 153, 249, 216, 312
-0.937927, 185, 257, 248, 384
-0.938011, 337, 209, 464, 336
-0.938153, 97, 49, 160, 176
-0.938473, 257, 49, 384, 176
-0.938954, 233, 97, 296, 224
-0.939192, 153, 273, 216, 336
-0.940242, 321, 281, 384, 344
-0.940881, 209, 17, 272, 144
-0.941459, 241, 257, 368, 384
-0.941587, 409, 177, 472, 304
-0.941713, 97, 249, 160, 312
-0.941858, 385, 145, 448, 272
-0.941952, 193, 273, 256, 336
-0.941996, 153, 177, 216, 304
-0.942613, 345, 273, 408, 336
-0.942733, 313, 257, 376, 384
-0.942972, 113, 33, 240, 160
-0.94339, 129, 97, 256, 224
-0.943743, 1, 209, 256, 336
-0.944422, 353, 257, 416, 384
-0.94503, 65, 161, 320, 288
-0.945469, 1, 1, 480, 128
-0.945604, 209, 193, 336, 320
-0.945758, 281, 49, 344, 176
-0.945961, 385, 257, 448, 320
-0.94613, 97, 161, 224, 288
-0.946314, 129, 273, 192, 336
-0.946684, 225, 265, 288, 328
-0.947221, 73, 113, 136, 240
-0.947275, 345, 313, 408, 376
-0.948107, 145, 177, 272, 304
-0.94819, 177, 249, 240, 312
-0.948233, 313, 305, 376, 368
-0.948387, 377, 281, 440, 344
-0.948809, 185, 113, 248, 240
-0.949699, 249, 137, 312, 200
-0.949759, 81, 81, 208, 208
-0.949831, 225, 241, 288, 368
-0.950106, 89, 241, 152, 368
-0.950305, 185, 177, 248, 304
-0.950498, 257, 97, 320, 224
-0.950624, 129, 97, 192, 224
-0.950746, 113, 177, 176, 304
-0.950939, 217, 33, 280, 96
-0.951071, 377, 305, 440, 368
-0.951189, 273, 273, 336, 336
-0.951806, 49, 129, 176, 256
-0.952553, 233, 145, 296, 272
-0.953076, 385, 217, 448, 280
-0.953409, 289, 161, 416, 288
-0.953615, 17, 65, 144, 192
-0.953772, 321, 65, 448, 192
-0.953792, 265, 241, 328, 368
-0.953939, 33, 241, 160, 368
-0.95403, 257, 209, 384, 336
-0.95452, 97, 97, 160, 224
-0.954723, 217, 65, 280, 128
-0.954839, 97, 289, 160, 352
-0.954851, 321, 49, 384, 176
-0.95529, 257, 33, 320, 160
-0.955542, 409, 97, 472, 224
-0.956145, 129, 249, 192, 312
-0.956225, 89, 161, 152, 288
-0.956532, 225, 289, 288, 352
-0.956822, 177, 33, 240, 160
-0.956913, 361, 209, 424, 336
-0.956958, 201, 121, 264, 184
-0.957119, 345, 81, 408, 208
-0.957975, 417, 241, 480, 304
-0.958323, 337, 161, 464, 288
-0.958327, 145, 225, 208, 288
-0.958847, 233, 97, 296, 160
-0.958867, 1, 193, 128, 320
-0.959094, 377, 81, 440, 208
-0.959365, 1, 81, 64, 208
-0.959703, 57, 49, 120, 176
-0.959813, 305, 113, 432, 240
-0.959899, 353, 113, 480, 240
-0.959935, 209, 97, 272, 160
-0.960025, 113, 217, 176, 280
-0.960361, 297, 273, 360, 336
-0.960746, 249, 273, 312, 336
-0.960799, 129, 169, 192, 232
-0.960885, 241, 65, 304, 128
-0.960981, 289, 313, 352, 376
-0.961012, 225, 153, 288, 216
-0.961077, 73, 129, 136, 192
-0.961849, 417, 49, 480, 176
-0.962155, 233, 1, 296, 256
-0.962162, 193, 297, 256, 360
-0.96227, 385, 193, 448, 256
-0.962276, 137, 49, 200, 176
-0.962316, 217, 193, 280, 320
-0.962395, 233, 1, 296, 128
-0.962453, 129, 273, 256, 336
-0.962737, 265, 49, 328, 112
-0.962759, 385, 145, 448, 208
-0.962931, 181, 249, 212, 312
-0.963207, 289, 241, 352, 368
-0.963578, 65, 257, 128, 384
-0.963912, 169, 297, 232, 360
-0.963945, 177, 153, 240, 216
-0.964252, 161, 129, 224, 256
-0.964723, 225, 17, 256, 144
-0.964735, 345, 161, 408, 288
-0.964752, 289, 273, 416, 336
-0.964878, 177, 273, 304, 336
-0.964898, 121, 297, 184, 360
-0.964999, 201, 65, 264, 320
-0.965002, 361, 249, 424, 312
-0.965016, 257, 1, 384, 128
-0.965022, 225, 73, 256, 136
-0.965175, 49, 177, 176, 304
-0.965454, 417, 129, 480, 384
-0.965501, 225, 273, 352, 336
-0.965513, 97, 89, 160, 152
-0.965593, 385, 129, 448, 384
-0.965606, 145, 249, 176, 312
-0.965673, 385, 169, 448, 232
-0.965788, 409, 209, 472, 272
-0.965805, 357, 281, 388, 344
-0.96606, 221, 273, 252, 336
-0.966091, 161, 201, 224, 264
-0.966374, 149, 273, 180, 336
-0.966446, 129, 249, 256, 312
-0.966523, 337, 273, 464, 336
-0.966604, 57, 193, 120, 320
-0.966664, 321, 257, 384, 320
-0.966672, 177, 33, 240, 96
-0.966697, 225, 129, 288, 192
-0.96678, 81, 273, 208, 336
-0.966799, 25, 65, 88, 192
-0.96691, 425, 225, 456, 352
-0.966994, 409, 185, 472, 248
-0.967217, 241, 41, 304, 104
-0.967347, 177, 113, 240, 176
-0.967589, 201, 273, 232, 336
-0.967668, 65, 249, 128, 312
-0.967819, 249, 161, 312, 224
-0.967906, 357, 305, 388, 368
-0.967933, 129, 137, 192, 200
-0.967983, 409, 129, 472, 192
-0.968026, 185, 65, 248, 128
-0.968061, 97, 313, 160, 376
-0.968128, 225, 145, 352, 272
-0.968305, 181, 273, 212, 336
-0.968347, 341, 273, 372, 336
-0.968373, 241, 97, 304, 352
-0.96843, 133, 265, 164, 328
-0.968598, 341, 305, 372, 368
-0.968799, 305, 97, 368, 224
-0.968901, 257, 177, 320, 304
-0.968932, 257, 113, 320, 176
-0.968954, 113, 193, 176, 256
-0.969014, 369, 265, 400, 328
-0.969104, 321, 17, 448, 144
-0.969139, 165, 233, 196, 296
-0.969222, 417, 97, 480, 160
-0.96925, 265, 313, 328, 376
-0.96956, 385, 113, 448, 176
-0.969662, 161, 273, 192, 336
-0.969829, 273, 81, 336, 144
-0.969938, 249, 185, 312, 248
-0.969998, 193, 89, 320, 152
-0.970022, 325, 273, 356, 336
-0.970028, 161, 81, 224, 208
-0.970054, 281, 249, 344, 312
-0.97007, 57, 281, 120, 344
-0.970076, 289, 305, 416, 368
-0.970136, 373, 305, 404, 368
-0.970493, 97, 121, 160, 184
-0.970549, 89, 153, 152, 216
-0.97056, 145, 1, 208, 128
-0.97077, 225, 97, 256, 160
-0.970785, 105, 49, 168, 112
-0.970833, 113, 129, 176, 384
-0.970945, 245, 33, 276, 160
-0.971161, 153, 177, 216, 240
-0.971201, 1, 113, 128, 240
-0.971204, 209, 145, 272, 272
-0.971383, 89, 65, 152, 320
-0.971393, 81, 241, 208, 304
-0.971504, 89, 225, 152, 288
-0.971515, 221, 65, 252, 192
-0.971532, 177, 1, 240, 256
-0.971537, 425, 241, 456, 304
-0.971869, 345, 33, 408, 160
-0.971934, 153, 137, 216, 200
-0.972008, 193, 65, 320, 128
-0.972023, 405, 193, 436, 320
-0.972034, 237, 265, 268, 328
-0.972076, 65, 33, 192, 160
-0.972127, 1, 129, 64, 256
-0.972157, 417, 161, 480, 224
-0.972195, 345, 121, 408, 184
-0.972249, 201, 9, 264, 72
-0.972602, 321, 73, 384, 136
-0.972646, 337, 313, 464, 376
-0.972745, 177, 9, 240, 72
-0.972799, 201, 145, 264, 208
-0.972842, 177, 241, 208, 368
-0.972879, 201, 241, 264, 304
-0.972973, 193, 121, 320, 184
-0.973015, 237, 81, 268, 208
-0.973049, 209, 41, 336, 104
-0.973103, 417, 281, 480, 344
-0.973112, 1, 1, 256, 128
-0.973119, 265, 33, 328, 288
-0.973144, 129, 233, 160, 296
-0.973162, 409, 321, 472, 384
-0.973173, 393, 145, 424, 272
-0.973182, 241, 97, 368, 160
-0.973233, 25, 193, 88, 320
-0.973235, 113, 297, 240, 360
-0.973271, 369, 33, 432, 160
-0.973323, 89, 185, 152, 248
-0.97338, 305, 1, 368, 128
-0.973416, 313, 49, 376, 112
-0.973481, 313, 209, 376, 336
-0.973499, 385, 89, 448, 152
-0.97351, 249, 129, 280, 192
-0.973523, 257, 65, 288, 192
-0.973552, 81, 49, 144, 112
-0.973598, 289, 49, 352, 112
-0.973639, 313, 273, 344, 336
-0.973655, 281, 97, 344, 224
-0.973656, 417, 33, 480, 288
-0.973659, 249, 249, 312, 312
-0.97366, 161, 25, 288, 88
-0.973676, 241, 305, 368, 368
-0.973686, 165, 209, 196, 336
-0.9737, 129, 1, 192, 256
-0.974007, 177, 225, 240, 288
-0.974024, 49, 97, 112, 224
-0.974059, 137, 41, 200, 104
-0.974068, 389, 257, 420, 320
-0.974079, 105, 225, 136, 352
-0.974098, 361, 89, 424, 152
-0.974202, 153, 97, 216, 352
-0.974265, 121, 177, 152, 304
-0.974328, 421, 161, 452, 288
-0.974491, 121, 89, 184, 152
-0.974494, 145, 297, 208, 360
-0.974562, 361, 209, 424, 272
-0.974577, 97, 49, 128, 176
-0.97464, 325, 305, 356, 368
-0.974654, 117, 49, 148, 176
-0.974748, 265, 113, 296, 240
-0.974798, 257, 265, 288, 328
-0.974812, 129, 209, 160, 272
-0.974824, 385, 33, 448, 288
-0.974856, 233, 313, 296, 376
-0.97497, 185, 185, 248, 248
-0.975034, 417, 57, 480, 120
-0.975163, 177, 97, 240, 352
-0.975282, 161, 297, 288, 360
-0.975295, 153, 1, 216, 256
-0.975331, 65, 97, 128, 352
-0.975366, 185, 89, 248, 152
-0.975376, 237, 97, 268, 160
-0.975409, 361, 129, 424, 384
-0.975474, 65, 201, 128, 264
-0.975619, 129, 289, 160, 352
-0.975628, 237, 57, 268, 120
-0.975693, 389, 281, 420, 344
-0.975778, 313, 313, 344, 376
-0.975795, 161, 161, 288, 224
-0.975863, 337, 249, 464, 312
-0.975966, 225, 249, 352, 312
-0.976053, 345, 145, 408, 208
-0.976148, 145, 241, 176, 368
-0.976158, 409, 241, 440, 368
-0.976201, 65, 321, 128, 384
-0.976284, 241, 129, 272, 256
-0.9763, 409, 201, 440, 264
-0.976348, 241, 33, 272, 96
-0.976383, 57, 225, 120, 288
-0.976398, 73, 105, 136, 168
-0.976417, 241, 289, 272, 352
-0.976515, 181, 177, 212, 304
-0.976562, 409, 321, 440, 384
-0.976568, 437, 177, 468, 304
-0.976657, 109, 225, 140, 288
-0.976673, 213, 65, 244, 128
-0.976679, 201, 249, 232, 312
-0.976683, 121, 1, 184, 128
-0.976733, 281, 105, 344, 168
-0.976749, 241, 129, 368, 192
-0.976786, 129, 49, 256, 112
-0.976794, 97, 217, 224, 280
-0.976811, 281, 169, 344, 232
-0.97685, 409, 273, 440, 336
-0.976902, 393, 193, 424, 320
-0.977011, 17, 89, 80, 152
-0.977061, 337, 49, 400, 112
-0.977064, 153, 17, 216, 80
-0.97709, 269, 137, 300, 200
-0.977274, 89, 97, 120, 224
-0.977296, 149, 217, 180, 280
-0.977301, 177, 129, 208, 256
-0.977351, 237, 241, 268, 368
-0.977355, 25, 129, 88, 256
-0.977401, 277, 273, 308, 336
-0.977418, 145, 89, 272, 152
-0.977497, 209, 177, 272, 240
-0.977513, 389, 241, 420, 368
-0.977558, 49, 129, 112, 192
-0.977572, 185, 217, 216, 280
-0.977587, 397, 177, 428, 240
-0.977666, 65, 153, 128, 216
-0.977682, 205, 17, 236, 144
-0.977682, 189, 241, 220, 368
-0.977796, 145, 137, 272, 200
-0.977817, 357, 257, 388, 384
-0.977929, 245, 153, 276, 216
-0.978005, 401, 233, 432, 296
-0.978039, 89, 113, 120, 176
-0.978066, 129, 97, 160, 224
-0.978078, 257, 49, 384, 112
-0.978096, 225, 25, 256, 88
-0.978154, 1, 113, 64, 176
-0.978161, 145, 105, 208, 168
-0.978185, 409, 145, 440, 272
-0.978205, 33, 249, 160, 312
-0.978257, 137, 201, 200, 264
-0.97834, 217, 241, 248, 368
-0.978408, 121, 113, 184, 176
-0.978453, 253, 65, 284, 128
-0.978582, 221, 297, 252, 360
-0.978622, 377, 57, 440, 120
-0.978633, 145, 113, 272, 176
-0.978645, 345, 33, 408, 288
-0.978708, 105, 97, 136, 224
-0.978762, 397, 201, 428, 264
-0.978822, 393, 145, 424, 208
-0.978841, 113, 49, 144, 112
-0.978866, 117, 201, 148, 264
-0.978884, 289, 241, 416, 304
-0.978897, 25, 161, 88, 224
-0.978916, 321, 73, 448, 136
-0.979042, 425, 177, 456, 240
-0.979159, 129, 241, 160, 368
-0.979175, 409, 297, 440, 360
-0.979281, 177, 241, 304, 304
-0.979299, 109, 145, 140, 272
-0.979321, 449, 193, 480, 320
-0.979334, 253, 289, 284, 352
-0.979336, 293, 273, 324, 336
-0.97944, 417, 33, 480, 96
-0.97953, 161, 161, 192, 288
-0.979576, 397, 321, 428, 384
-0.979587, 129, 1, 192, 385
-0.979591, 225, 241, 288, 304
-0.979666, 113, 153, 144, 216
-0.979677, 89, 1, 152, 385
-0.979764, 253, 129, 284, 256
-0.979802, 1, 81, 128, 144
-0.979955, 33, 289, 160, 352
-0.980054, 357, 257, 388, 320
-0.980081, 129, 65, 192, 128
-0.98009, 385, 185, 416, 248
-0.980116, 209, 113, 240, 176
-0.980139, 197, 193, 228, 320
-0.980204, 361, 185, 424, 248
-0.98025, 265, 105, 296, 168
-0.980263, 377, 161, 408, 288
-0.980304, 317, 257, 348, 384
-0.980304, 333, 257, 364, 384
-0.980312, 237, 129, 268, 192
-0.980343, 265, 25, 328, 88
-0.980393, 345, 1, 408, 385
-0.980453, 281, 177, 344, 304
-0.980492, 57, 65, 120, 128
-0.980532, 97, 161, 224, 224
-0.980536, 129, 137, 160, 200
-0.980613, 33, 241, 96, 304
-0.980689, 81, 73, 208, 136
-0.980699, 297, 25, 360, 88
-0.980716, 185, 1, 248, 385
-0.980904, 121, 177, 152, 240
-0.980907, 265, 305, 296, 368
-0.980915, 241, 9, 304, 72
-0.980939, 377, 241, 408, 368
-0.980944, 201, 297, 232, 360
-0.980953, 17, 185, 80, 248
-0.980988, 337, 225, 464, 288
-0.980996, 297, 81, 360, 144
-0.981058, 425, 113, 456, 240
-0.981073, 269, 33, 300, 160
-0.98109, 233, 1, 296, 385
-0.981133, 449, 65, 480, 192
-0.981152, 1, 113, 128, 176
-0.98117, 25, 209, 88, 272
-0.981172, 353, 97, 480, 160
-0.981223, 181, 193, 212, 256
-0.981267, 433, 209, 464, 272
-0.981273, 197, 225, 228, 288
-0.981312, 1, 177, 64, 304
-0.981336, 97, 97, 224, 160
-0.981366, 405, 81, 436, 208
-0.981378, 289, 161, 416, 224
-0.981387, 165, 193, 196, 256
-0.981447, 257, 73, 384, 136
-0.98146, 249, 241, 280, 368
-0.981485, 161, 169, 192, 232
-0.981525, 445, 241, 476, 368
-0.981554, 385, 1, 448, 385
-0.981565, 225, 113, 256, 240
-0.981642, 377, 241, 408, 304
-0.981684, 437, 113, 468, 240
-0.981728, 177, 1, 208, 128
-0.981777, 97, 137, 224, 200
-0.981847, 209, 113, 240, 240
-0.98189, 405, 113, 436, 176
-0.98192, 49, 145, 112, 272
-0.981932, 417, 1, 480, 128
-0.981999, 273, 1, 336, 385
-0.982002, 289, 209, 416, 272
-0.982031, 209, 17, 336, 80
-0.982079, 289, 33, 352, 288
-0.982129, 289, 105, 416, 168
-0.982165, 209, 65, 240, 192
-0.982217, 281, 49, 312, 176
-0.982257, 273, 241, 304, 368
-0.98235, 177, 185, 304, 248
-0.982382, 257, 153, 288, 216
-0.982432, 133, 177, 164, 304
-0.982468, 25, 65, 88, 320
-0.982481, 449, 17, 480, 144
-0.982496, 389, 233, 420, 296
-0.982502, 265, 41, 296, 104
-0.982536, 17, 57, 144, 120
-0.982579, 297, 313, 328, 376
-0.98258, 261, 177, 292, 304
-0.982596, 177, 137, 208, 200
-0.982653, 33, 257, 96, 384
-0.982662, 353, 137, 480, 200
-0.982683, 21, 81, 52, 208
-0.982775, 209, 153, 336, 216
-0.982838, 261, 257, 292, 384
-0.982977, 177, 161, 208, 224
-0.982993, 109, 249, 140, 312
-0.983056, 321, 1, 384, 256
-0.983062, 85, 265, 116, 328
-0.983064, 185, 297, 216, 360
-0.983105, 49, 145, 176, 208
-0.983131, 177, 209, 304, 272
-0.983149, 81, 321, 208, 384
-0.983261, 121, 265, 152, 328
-0.983271, 205, 33, 236, 96
-0.983303, 201, 257, 232, 384
-0.983304, 65, 1, 128, 385
-0.983323, 449, 49, 480, 112
-0.983344, 65, 49, 192, 112
-0.98336, 109, 177, 140, 240
-0.983376, 213, 89, 244, 152
-0.983377, 353, 33, 480, 96
-0.9834, 385, 305, 416, 368
-0.983424, 377, 97, 408, 224
-0.983426, 105, 321, 136, 384
-0.983464, 405, 153, 436, 216
-0.983468, 129, 193, 256, 256
-0.983479, 161, 1, 224, 385
-0.983572, 445, 113, 476, 176
-0.983642, 449, 145, 480, 208
-0.983658, 253, 41, 284, 104
-0.983661, 281, 1, 344, 128
-0.983679, 389, 105, 420, 168
-0.983682, 21, 89, 52, 152
-0.983691, 337, 209, 400, 336
-0.983694, 405, 73, 436, 136
-0.983802, 1, 65, 64, 320
-0.983806, 197, 113, 228, 240
-0.983825, 33, 225, 160, 288
-0.983849, 97, 145, 128, 272
-0.983849, 101, 81, 132, 144
-0.983852, 209, 1, 272, 385
-0.983896, 129, 49, 160, 176
-0.983898, 225, 49, 256, 112
-0.983917, 213, 249, 244, 312
-0.983984, 105, 129, 136, 192
-0.984058, 229, 177, 260, 304
-0.984103, 265, 129, 328, 384
-0.984113, 337, 201, 464, 264
-0.984114, 409, 1, 472, 385
-0.984129, 297, 33, 328, 160
-0.984129, 345, 49, 376, 176
-0.984144, 49, 201, 176, 264
-0.98417, 81, 241, 112, 304
-0.984184, 305, 1, 368, 385
-0.984283, 209, 193, 240, 320
-0.984285, 449, 113, 480, 240
-0.984304, 325, 49, 356, 176
-0.984324, 85, 193, 116, 320
-0.984359, 297, 257, 328, 384
-0.984381, 141, 33, 172, 160
-0.984415, 277, 97, 308, 224
-0.984448, 113, 73, 144, 136
-0.984465, 449, 73, 480, 136
-0.984492, 421, 217, 452, 280
-0.984507, 73, 49, 104, 176
-0.98454, 437, 241, 468, 304
-0.984652, 365, 81, 396, 208
-0.984708, 17, 17, 144, 144
-0.984735, 257, 17, 288, 144
-0.984767, 133, 169, 164, 232
-0.984892, 149, 81, 180, 208
-0.98491, 413, 177, 444, 240
-0.984948, 125, 313, 156, 376
-0.985005, 441, 169, 472, 232
-0.985037, 1, 137, 128, 200
-0.985043, 153, 297, 184, 360
-0.985058, 389, 97, 420, 224
-0.985061, 345, 257, 376, 384
-0.985072, 225, 129, 256, 192
-0.98509, 49, 105, 176, 168
-0.985112, 85, 49, 116, 176
-0.985184, 77, 137, 108, 200
-0.985237, 425, 145, 456, 208
-0.985271, 345, 57, 376, 120
-0.985392, 309, 49, 340, 176
-0.985506, 305, 49, 432, 112
-0.985598, 353, 177, 480, 240
-0.985611, 377, 161, 408, 224
-0.985621, 385, 209, 416, 272
-0.985666, 77, 129, 108, 256
-0.985675, 185, 9, 216, 72
-0.985683, 277, 297, 308, 360
-0.985714, 97, 57, 128, 120
-0.985762, 345, 249, 376, 312
-0.985828, 197, 113, 228, 176
-0.985828, 413, 241, 444, 304
-0.985902, 437, 65, 468, 192
-0.985903, 433, 113, 464, 176
-0.985911, 297, 57, 328, 120
-0.985941, 165, 257, 196, 384
-0.985944, 309, 249, 340, 312
-0.985946, 193, 153, 224, 216
-0.986085, 193, 321, 320, 384
-0.986189, 161, 1, 288, 64
-0.986254, 33, 313, 160, 376
-0.986314, 41, 1, 104, 385
-0.986355, 49, 169, 176, 232
-0.986457, 33, 273, 288, 336
-0.986495, 193, 273, 448, 336
-0.986603, 385, 49, 416, 176
-0.986625, 257, 25, 384, 88
-0.986736, 145, 193, 176, 320
-0.986751, 117, 225, 148, 352
-0.986776, 321, 97, 384, 352
-0.986841, 289, 129, 416, 192
-0.986851, 225, 177, 352, 240
-0.986851, 249, 177, 280, 304
-0.987013, 185, 269, 248, 300
-0.987024, 113, 25, 240, 88
-0.987063, 49, 193, 80, 320
-0.987234, 165, 97, 196, 224
-0.987283, 289, 185, 416, 248
-0.987343, 65, 1, 128, 256
-0.987435, 73, 1, 136, 128
-0.987534, 153, 269, 216, 300
-0.987557, 161, 257, 224, 288
-0.987741, 1, 201, 128, 264
-0.987809, 273, 177, 304, 304
-0.987963, 321, 277, 384, 308
-0.988021, 345, 277, 408, 308
-0.988104, 345, 333, 408, 364
-0.988114, 345, 289, 408, 320
-0.988151, 153, 281, 216, 312
-0.988199, 285, 241, 316, 368
-0.988209, 97, 1, 160, 128
-0.988278, 153, 245, 216, 276
-0.988289, 385, 257, 448, 288
-0.988362, 345, 305, 408, 336
-0.988392, 377, 285, 440, 316
-0.9884, 217, 273, 280, 304
-0.98845, 313, 341, 376, 372
-0.988463, 85, 241, 116, 368
-0.988492, 241, 133, 304, 164
-0.98853, 305, 297, 368, 328
-0.988574, 357, 33, 388, 160
-0.98861, 385, 309, 448, 340
-0.98861, 5, 113, 36, 240
-0.988613, 193, 301, 256, 332
-0.988667, 177, 281, 240, 312
-0.98868, 1, 281, 480, 344
-0.988732, 129, 269, 192, 300
-0.988739, 201, 121, 264, 152
-0.988767, 385, 273, 448, 304
-0.98877, 121, 257, 184, 288
-0.988793, 97, 253, 160, 284
-0.988797, 393, 33, 456, 160
-0.98881, 273, 349, 336, 380
-0.988845, 385, 241, 448, 272
-0.988846, 9, 241, 72, 368
-0.988858, 193, 17, 224, 144
-0.988869, 385, 321, 448, 352
-0.988874, 161, 301, 224, 332
-0.988884, 337, 97, 368, 224
-0.988896, 233, 109, 296, 140
-0.988915, 417, 245, 480, 276
-0.988916, 273, 297, 336, 328
-0.988918, 105, 241, 168, 272
-0.988948, 161, 305, 416, 368
-0.988948, 225, 297, 288, 328
-0.988998, 289, 281, 352, 312
-0.988999, 185, 81, 216, 208
-0.989007, 265, 277, 328, 308
-0.989041, 385, 297, 448, 328
-0.989068, 225, 285, 288, 316
-0.989087, 129, 281, 192, 312
-0.989092, 353, 9, 480, 72
-0.989094, 121, 297, 184, 328
-0.989125, 97, 265, 160, 296
-0.989159, 209, 109, 272, 140
-0.989185, 333, 209, 364, 336
-0.989193, 117, 97, 148, 224
-0.989232, 161, 33, 192, 160
-0.989245, 97, 289, 160, 320
-0.989268, 201, 285, 264, 316
-0.989272, 129, 225, 192, 256
-0.989316, 225, 69, 288, 100
-0.98939, 41, 65, 72, 192
-0.989423, 233, 353, 296, 384
-0.989516, 345, 321, 408, 352
-0.989562, 385, 229, 448, 260
-0.989582, 193, 253, 256, 284
-0.989668, 241, 145, 304, 176
-0.989669, 385, 337, 448, 368
-0.989672, 217, 37, 280, 68
-0.989688, 121, 309, 184, 340
-0.989692, 241, 121, 304, 152
-0.989697, 149, 145, 180, 272
-0.989718, 321, 309, 384, 340
-0.989738, 305, 353, 368, 384
-0.98975, 129, 237, 192, 268
-0.989783, 113, 213, 176, 244
-0.989807, 97, 277, 160, 308
-0.98982, 29, 177, 60, 304
-0.989827, 81, 137, 144, 168
-0.989831, 201, 141, 264, 172
-0.989882, 385, 145, 448, 176
-0.989885, 97, 313, 160, 344
-0.989899, 129, 321, 256, 384
-0.989904, 297, 129, 360, 384
-0.989914, 353, 345, 416, 376
-0.98995, 233, 97, 296, 128
-0.989952, 33, 249, 288, 312
-0.990001, 209, 97, 272, 128
-0.990143, 33, 297, 288, 360
-0.990169, 385, 169, 448, 200
-0.990203, 57, 281, 120, 312
-0.990229, 265, 141, 328, 172
-0.990252, 385, 213, 448, 244
-0.990261, 161, 213, 224, 244
-0.990291, 385, 85, 448, 116
-0.990302, 129, 177, 192, 208
-0.990313, 241, 273, 304, 304
-0.990316, 401, 193, 464, 224
-0.990329, 305, 265, 368, 296
-0.99035, 145, 197, 208, 228
-0.990388, 281, 1, 312, 128
-0.990394, 249, 289, 312, 320
-0.990396, 273, 93, 336, 124
-0.99042, 353, 265, 416, 296
-0.990444, 385, 133, 448, 164
-0.99045, 385, 181, 448, 212
-0.990482, 417, 285, 480, 316
-0.990486, 105, 93, 168, 124
-0.99049, 97, 345, 160, 376
-0.990512, 89, 217, 152, 248
-0.990515, 185, 105, 248, 136
-0.99053, 97, 329, 160, 360
-0.990546, 217, 57, 280, 88
-0.99059, 385, 157, 448, 188
-0.990598, 81, 125, 144, 156
-0.990614, 89, 153, 152, 184
-0.990616, 209, 161, 272, 192
-0.990625, 169, 165, 232, 196
-0.99067, 201, 73, 264, 104
-0.990683, 97, 229, 160, 260
-0.990689, 241, 161, 304, 192
-0.990691, 97, 301, 160, 332
-0.990714, 265, 129, 328, 160
-0.990715, 1, 169, 128, 232
-0.990715, 169, 201, 232, 232
-0.990716, 177, 233, 240, 264
-0.990745, 129, 165, 192, 196
-0.990745, 57, 265, 120, 296
-0.990745, 249, 301, 312, 332
-0.990772, 417, 105, 480, 136
-0.990777, 305, 209, 336, 336
-0.990783, 265, 61, 328, 92
-0.990787, 385, 117, 448, 148
-0.990791, 257, 1, 384, 64
-0.990797, 305, 329, 368, 360
-0.99081, 265, 265, 328, 296
-0.990831, 385, 97, 448, 128
-0.990833, 225, 309, 288, 340
-0.990836, 345, 153, 408, 184
-0.990841, 217, 85, 280, 116
-0.990846, 169, 185, 232, 216
-0.990886, 417, 121, 480, 152
-0.990889, 129, 153, 192, 184
-0.990904, 9, 1, 72, 385
-0.990923, 417, 77, 480, 108
-0.99093, 417, 65, 480, 96
-0.990936, 177, 145, 240, 176
-0.990939, 425, 65, 456, 192
-0.990954, 249, 45, 312, 76
-0.990976, 417, 297, 480, 328
-0.991013, 225, 181, 288, 212
-0.99103, 113, 201, 176, 232
-0.991033, 225, 225, 352, 288
-0.991033, 57, 137, 120, 168
-0.991043, 97, 105, 160, 136
-0.991051, 121, 133, 184, 164
-0.991053, 417, 137, 480, 168
-0.991069, 377, 197, 440, 228
-0.99107, 113, 189, 176, 220
-0.991078, 153, 153, 216, 184
-0.991179, 69, 241, 100, 368
-0.991193, 1, 305, 480, 368
-0.99122, 65, 25, 192, 88
-0.991314, 193, 73, 448, 136
-0.991361, 321, 161, 384, 288
-0.991478, 29, 129, 60, 256
-0.991664, 289, 277, 416, 308
-0.99167, 57, 49, 88, 176
-0.991687, 1, 121, 480, 184
-0.991715, 285, 193, 316, 320
-0.991819, 113, 1, 144, 128
-0.991821, 181, 273, 212, 304
-0.99184, 197, 265, 228, 296
-0.99189, 173, 49, 204, 176
-0.991905, 65, 97, 96, 224
-0.991953, 221, 273, 252, 304
-0.991976, 97, 41, 352, 104
-0.991979, 129, 277, 256, 308
-0.992041, 225, 73, 256, 104
-0.992046, 193, 129, 448, 192
-0.992046, 151, 249, 166, 312
-0.992052, 353, 277, 384, 308
-0.992075, 313, 97, 344, 224
-0.992081, 181, 257, 212, 288
-0.992095, 325, 277, 356, 308
-0.992095, 369, 17, 400, 144
-0.992115, 161, 265, 192, 296
-0.992128, 305, 25, 432, 88
-0.992133, 357, 333, 388, 364
-0.992133, 225, 153, 480, 216
-0.992141, 141, 265, 172, 296
-0.992151, 161, 281, 192, 312
-0.992159, 373, 289, 404, 320
-0.992164, 49, 145, 80, 272
-0.992168, 217, 101, 248, 132
-0.992177, 193, 249, 448, 312
-0.992182, 209, 273, 336, 304
-0.992191, 337, 277, 368, 308
-0.992196, 201, 281, 232, 312
-0.992235, 425, 245, 456, 276
-0.992241, 369, 277, 400, 308
-0.992251, 337, 305, 464, 336
-0.992274, 201, 301, 232, 332
-0.992287, 241, 289, 272, 320
-0.992289, 373, 329, 404, 360
-0.992302, 97, 113, 352, 176
-0.992305, 149, 277, 180, 308
-0.992318, 357, 301, 388, 332
-0.992321, 253, 137, 284, 168
-0.992323, 313, 281, 344, 312
-0.992328, 229, 109, 260, 140
-0.992329, 141, 297, 172, 328
-0.992334, 265, 285, 296, 316
-0.992339, 229, 285, 260, 316
-0.992339, 1, 153, 480, 216
-0.992352, 353, 289, 384, 320
-0.992354, 337, 341, 368, 372
-0.992358, 149, 253, 180, 284
-0.992362, 317, 345, 348, 376
-0.992364, 373, 301, 404, 332
-0.992365, 233, 273, 264, 304
-0.992377, 129, 297, 160, 328
-0.992384, 289, 305, 416, 336
-0.992385, 325, 301, 356, 332
-0.992388, 325, 289, 356, 320
-0.992389, 169, 245, 200, 276
-0.992402, 401, 257, 432, 288
-0.992409, 181, 285, 212, 316
-0.992412, 389, 269, 420, 300
-0.992413, 209, 269, 240, 300
-0.992413, 217, 301, 248, 332
-0.992414, 381, 341, 412, 372
-0.992425, 245, 65, 276, 96
-0.992427, 145, 301, 272, 332
-0.992428, 129, 285, 160, 316
-0.99243, 129, 273, 160, 304
-0.992439, 337, 337, 464, 368
-0.992446, 81, 297, 208, 328
-0.992448, 193, 253, 224, 284
-0.992448, 357, 177, 388, 304
-0.992454, 213, 289, 244, 320
-0.992467, 301, 349, 332, 380
-0.992475, 371, 281, 386, 344
-0.992478, 89, 129, 120, 160
-0.992478, 245, 149, 276, 180
-0.99249, 401, 245, 432, 276
-0.992498, 193, 249, 208, 312
-0.992504, 155, 273, 170, 336
-0.992506, 137, 253, 168, 284
-0.99251, 405, 285, 436, 316
-0.992517, 129, 221, 160, 252
-0.992521, 233, 121, 264, 152
-0.992523, 325, 113, 356, 240
-0.992532, 397, 201, 428, 232
-0.992533, 133, 241, 164, 272
-0.992534, 145, 265, 272, 296
-0.992535, 121, 201, 152, 232
-0.992539, 409, 337, 440, 368
-0.992548, 337, 289, 368, 320
-0.992553, 389, 289, 420, 320
-0.992558, 409, 325, 440, 356
-0.992558, 229, 97, 260, 128
-0.992559, 253, 297, 284, 328
-0.992568, 241, 301, 272, 332
-0.992578, 253, 273, 284, 304
-0.992583, 93, 109, 124, 140
-0.99259, 109, 237, 140, 268
-0.992593, 337, 305, 368, 336
-0.992597, 261, 353, 292, 384
-0.992597, 157, 229, 188, 260
-0.992599, 165, 297, 196, 328
-0.992603, 129, 309, 160, 340
-0.992609, 277, 349, 308, 380
-0.992612, 409, 297, 440, 328
-0.992617, 229, 301, 260, 332
-0.992625, 301, 285, 332, 316
-0.992625, 309, 1, 340, 128
-0.992631, 149, 273, 164, 336
-0.992634, 189, 301, 220, 332
-0.992635, 365, 317, 396, 348
-0.992636, 153, 301, 184, 332
-0.992642, 253, 285, 284, 316
-0.992644, 409, 309, 440, 340
-0.992647, 277, 301, 308, 332
-0.992651, 169, 197, 200, 228
-0.992658, 249, 161, 280, 192
-0.992659, 349, 317, 380, 348
-0.992662, 337, 277, 464, 308
-0.992665, 313, 297, 344, 328
-0.992671, 177, 297, 208, 328
-0.992675, 359, 305, 374, 368
-0.99268, 277, 277, 308, 308
-0.992682, 225, 61, 256, 92
-0.992684, 105, 141, 136, 172
-0.992697, 405, 273, 436, 304
-0.9927, 397, 185, 428, 216
-0.9927, 389, 225, 420, 256
-0.992703, 105, 345, 136, 376
-0.992705, 221, 121, 252, 152
-0.992711, 117, 225, 148, 256
-0.992713, 65, 89, 320, 152
-0.992717, 269, 145, 300, 176
-0.992718, 393, 149, 424, 180
-0.99272, 389, 257, 420, 288
-0.992721, 349, 345, 380, 376
-0.992727, 241, 109, 272, 140
-0.992729, 313, 309, 344, 340
-0.992729, 301, 297, 332, 328
-0.992733, 113, 185, 144, 216
-0.992747, 245, 353, 276, 384
-0.992756, 113, 165, 144, 196
-0.99276, 329, 265, 360, 296
-0.992763, 241, 173, 272, 204
-0.992769, 209, 301, 336, 332
-0.992769, 421, 285, 452, 316
-0.99277, 377, 281, 392, 344
-0.992773, 197, 201, 228, 232
-0.992776, 113, 89, 144, 120
-0.992779, 209, 121, 240, 152
-0.992785, 377, 181, 408, 212
-0.992788, 225, 85, 256, 116
-0.992793, 225, 49, 480, 112
-0.992797, 393, 169, 424, 200
-0.992798, 397, 213, 428, 244
-0.992799, 421, 105, 452, 136
-0.992801, 289, 273, 320, 304
-0.992805, 61, 193, 92, 320
-0.992807, 265, 273, 296, 304
-0.992808, 181, 245, 212, 276
-0.992809, 393, 309, 424, 340
-0.992811, 213, 69, 244, 100
-0.992812, 85, 141, 116, 172
-0.992815, 393, 345, 424, 376
-0.992819, 397, 325, 428, 356
-0.992821, 409, 133, 440, 164
-0.992822, 269, 133, 300, 164
-0.992822, 177, 289, 304, 320
-0.992875, 321, 209, 352, 336
-0.99289, 193, 105, 448, 168
-0.992905, 1, 257, 480, 320
-0.992926, 1, 233, 480, 296
-0.99296, 145, 249, 160, 312
-0.993033, 81, 273, 208, 304
-0.993041, 113, 253, 240, 284
-0.993044, 257, 353, 384, 384
-0.993055, 157, 249, 172, 312
-0.993058, 357, 273, 372, 336
-0.993075, 97, 137, 352, 200
-0.993096, 209, 97, 336, 128
-0.993153, 1, 97, 480, 160
-0.993189, 183, 249, 198, 312
-0.993212, 365, 281, 380, 344
-0.993221, 289, 289, 416, 320
-0.993239, 163, 273, 178, 336
-0.993241, 143, 273, 158, 336
-0.993254, 227, 65, 242, 128
-0.993264, 135, 265, 150, 328
-0.993277, 371, 305, 386, 368
-0.993311, 13, 193, 44, 320
-0.993318, 33, 225, 64, 352
-0.993367, 81, 241, 208, 272
-0.993427, 349, 273, 364, 336
-0.993436, 343, 273, 358, 336
-0.993442, 231, 273, 246, 336
-0.993448, 377, 305, 392, 368
-0.993493, 353, 113, 384, 240
-0.993494, 241, 201, 368, 264
-0.99352, 161, 161, 288, 192
-0.993537, 239, 265, 254, 328
-0.993539, 203, 257, 218, 320
-0.993543, 329, 273, 344, 336
-0.993563, 1, 57, 480, 120
-0.99359, 247, 113, 262, 176
-0.993592, 383, 265, 398, 328
-0.993608, 365, 305, 380, 368
-0.993635, 221, 273, 236, 336
-0.993676, 193, 121, 320, 152
-0.993682, 129, 289, 256, 320
-0.993716, 351, 305, 366, 368
-0.99372, 427, 241, 442, 304
-0.993751, 241, 285, 368, 316
-0.99376, 1, 113, 256, 176
-0.99378, 97, 169, 352, 232
-0.993807, 289, 341, 416, 372
-0.993813, 1, 57, 256, 120
-0.993817, 337, 293, 464, 324
-0.993824, 293, 81, 324, 208
-0.993828, 161, 149, 288, 180
-0.993843, 195, 273, 210, 336
-0.993904, 337, 317, 464, 348
-0.993943, 213, 273, 228, 336
-0.99398, 209, 85, 336, 116
-0.993987, 193, 109, 320, 140
-0.994003, 337, 265, 464, 296
-0.994006, 235, 97, 250, 160
-0.994019, 269, 273, 284, 336
-0.994042, 225, 153, 352, 184
-0.994098, 81, 285, 208, 316
-0.994106, 205, 289, 220, 352
-0.994116, 193, 137, 320, 168
-0.994119, 241, 113, 256, 176
-0.994123, 183, 273, 198, 336
-0.994132, 97, 209, 352, 272
-0.994134, 113, 1, 240, 64
-0.994144, 335, 273, 350, 336
-0.994154, 389, 273, 404, 336
-0.994221, 193, 73, 320, 104
-0.99426, 125, 1, 156, 128
-0.994267, 131, 289, 146, 352
-0.994269, 383, 305, 398, 368
-0.994287, 33, 321, 288, 384
-0.994311, 267, 145, 282, 208
-0.994322, 225, 209, 480, 272
-0.994329, 333, 313, 348, 376
-0.994332, 161, 29, 288, 60
-0.994351, 259, 121, 274, 184
-0.994363, 81, 309, 208, 340
-0.994369, 257, 265, 272, 328
-0.994395, 319, 273, 334, 336
-0.994449, 193, 177, 448, 240
-0.994472, 341, 313, 356, 376
-0.9945, 255, 153, 270, 216
-0.994501, 177, 233, 192, 296
-0.994516, 245, 65, 260, 128
-0.994517, 245, 265, 260, 328
-0.994543, 325, 297, 340, 360
-0.99461, 163, 249, 178, 312
-0.994614, 169, 257, 184, 320
-0.994622, 289, 265, 416, 296
-0.994631, 289, 317, 416, 348
-0.994636, 239, 289, 254, 352
-0.994647, 189, 273, 204, 336
-0.994654, 1, 209, 256, 272
-0.994677, 1, 177, 480, 240
-0.994718, 17, 17, 80, 144
-0.994729, 145, 117, 272, 148
-0.994759, 261, 161, 276, 224
-0.994768, 277, 105, 292, 168
-0.994774, 439, 217, 454, 280
-0.994785, 257, 117, 384, 148
-0.994791, 247, 89, 262, 152
-0.994797, 177, 273, 192, 336
-0.994808, 145, 77, 272, 108
-0.99482, 97, 105, 112, 168
-0.994828, 237, 73, 252, 136
-0.994843, 257, 101, 384, 132
-0.994855, 389, 305, 404, 368
-0.994879, 217, 105, 232, 168
-0.994891, 125, 153, 140, 216
-0.994899, 377, 257, 392, 320
-0.994907, 249, 41, 264, 104
-0.994922, 183, 225, 198, 288
-0.994944, 65, 261, 192, 292
-0.994952, 145, 225, 160, 288
-0.994968, 225, 33, 240, 96
-0.994996, 177, 41, 304, 72
-0.995007, 399, 137, 414, 200
-0.995031, 307, 273, 322, 336
-0.995038, 1, 113, 128, 144
-0.99506, 107, 249, 122, 312
-0.995089, 389, 177, 404, 240
-0.995089, 251, 265, 266, 328
-0.995097, 253, 1, 284, 256
-0.995111, 417, 289, 432, 352
-0.995112, 223, 89, 238, 152
-0.995118, 279, 273, 294, 336
-0.995119, 91, 121, 106, 184
-0.995123, 419, 321, 434, 384
-0.995141, 139, 241, 154, 304
-0.995145, 249, 137, 264, 200
-0.995148, 289, 329, 416, 360
-0.995153, 225, 25, 480, 88
-0.995184, 161, 89, 288, 120
-0.995211, 433, 209, 448, 272
-0.99522, 153, 225, 168, 288
-0.995229, 229, 297, 244, 360
-0.995249, 257, 33, 272, 96
-0.995257, 263, 41, 278, 104
-0.995262, 241, 137, 256, 200
-0.995291, 81, 145, 208, 176
-0.9953, 225, 49, 352, 80
-0.995311, 211, 249, 226, 312
-0.995312, 97, 17, 352, 80
-0.995312, 113, 233, 128, 296
-0.995334, 263, 265, 278, 328
-0.995363, 241, 141, 368, 172
-0.995366, 1, 209, 480, 272
-0.995367, 209, 353, 336, 384
-0.995367, 175, 193, 190, 256
-0.995368, 123, 217, 138, 280
-0.995368, 1, 153, 256, 216
-0.995378, 145, 105, 272, 136
-0.995386, 181, 153, 196, 216
-0.995416, 137, 289, 152, 352
-0.995445, 117, 49, 132, 112
-0.995449, 109, 33, 140, 288
-0.99545, 129, 313, 256, 344
-0.99545, 337, 241, 464, 272
-0.995452, 229, 89, 244, 152
-0.995455, 33, 277, 160, 308
-0.995472, 173, 169, 188, 232
-0.995483, 319, 313, 334, 376
-0.995487, 81, 161, 208, 192
-0.995517, 365, 41, 380, 104
-0.995523, 449, 113, 464, 176
-0.995528, 81, 93, 208, 124
-0.995538, 129, 265, 144, 328
-0.995541, 259, 289, 274, 352
-0.995552, 1, 177, 256, 240
-0.995566, 245, 289, 260, 352
-0.995567, 233, 1, 264, 256
-0.995568, 459, 33, 474, 96
-0.995573, 1, 129, 128, 160
-0.995585, 257, 61, 384, 92
-0.995593, 289, 161, 416, 192
-0.995601, 277, 297, 292, 360
-0.995602, 221, 297, 236, 360
-0.995616, 257, 129, 384, 160
-0.995624, 395, 265, 410, 328
-0.995639, 193, 261, 320, 292
-0.995639, 97, 273, 112, 336
-0.995641, 217, 81, 232, 144
-0.995646, 133, 225, 148, 288
-0.995646, 201, 233, 216, 296
-0.995662, 33, 73, 160, 104
-0.995683, 401, 209, 416, 272
-0.995696, 97, 65, 352, 128
-0.99573, 177, 61, 304, 92
-0.995755, 81, 325, 208, 356
-0.995756, 221, 57, 236, 120
-0.995757, 1, 261, 128, 292
-0.995761, 241, 341, 368, 372
-0.995767, 337, 85, 464, 116
-0.995793, 399, 161, 414, 224
-0.995798, 367, 257, 382, 320
-0.9958, 221, 65, 252, 320
-0.995812, 243, 33, 258, 96
-0.995813, 459, 113, 474, 176
-0.995814, 123, 193, 138, 256
-0.995827, 309, 313, 324, 376
-0.995828, 107, 81, 122, 144
-0.995831, 445, 201, 460, 264
-0.995839, 457, 73, 472, 136
-0.995842, 257, 89, 384, 120
-0.995852, 289, 173, 416, 204
-0.995853, 401, 241, 416, 304
-0.995856, 237, 49, 252, 112
-0.995856, 33, 301, 160, 332
-0.995857, 133, 137, 148, 200
-0.995859, 269, 305, 284, 368
-0.99587, 209, 313, 336, 344
-0.995874, 113, 49, 240, 80
-0.995887, 299, 265, 314, 328
-0.995888, 425, 177, 440, 240
-0.995892, 289, 241, 416, 272
-0.995902, 113, 129, 144, 384
-0.995908, 177, 245, 304, 276
-0.995913, 1, 93, 128, 124
-0.995931, 193, 1, 224, 256
-0.995948, 337, 113, 464, 144
-0.995958, 145, 137, 272, 168
-0.995962, 193, 193, 320, 224
-0.995972, 321, 97, 448, 128
-0.995981, 337, 349, 464, 380
-0.996023, 337, 153, 464, 184
-0.996034, 353, 57, 480, 88
-0.99604, 161, 173, 288, 204
-0.996044, 129, 65, 256, 96
-0.996059, 449, 65, 480, 320
-0.996061, 33, 289, 160, 320
-0.996125, 241, 73, 368, 104
-0.996137, 209, 181, 336, 212
-0.99616, 33, 241, 160, 272
-0.996162, 425, 97, 456, 352
-0.9962, 337, 133, 464, 164
-0.996201, 33, 333, 160, 364
-0.996209, 49, 201, 176, 232
-0.99624, 129, 65, 160, 320
-0.996255, 409, 97, 440, 352
-0.996273, 205, 1, 236, 256
-0.996299, 269, 33, 300, 288
-0.996306, 113, 353, 240, 384
-0.996317, 241, 261, 368, 292
-0.996344, 193, 265, 208, 296
-0.996365, 389, 129, 420, 384
-0.996368, 209, 97, 240, 352
-0.996375, 289, 185, 416, 216
-0.996394, 337, 253, 464, 284
-0.996399, 97, 105, 224, 136
-0.996404, 33, 313, 160, 344
-0.996407, 81, 129, 208, 160
-0.996423, 289, 221, 416, 252
-0.996469, 353, 169, 480, 200
-0.996499, 197, 97, 228, 352
-0.996504, 257, 97, 288, 352
-0.996519, 65, 57, 192, 88
-0.996563, 81, 229, 208, 260
-0.99659, 97, 173, 224, 204
-0.99661, 81, 81, 208, 112
-0.996637, 129, 237, 256, 268
-0.996638, 245, 97, 276, 352
-0.996641, 321, 73, 448, 104
-0.996646, 97, 193, 224, 224
-0.996646, 193, 253, 208, 284
-0.996667, 185, 97, 216, 352
-0.996677, 379, 289, 394, 320
-0.996707, 33, 229, 160, 260
-0.996716, 337, 229, 464, 260
-0.996729, 145, 197, 272, 228
-0.996729, 321, 197, 448, 228
-0.996732, 1, 33, 256, 96
-0.996744, 129, 217, 256, 248
-0.996754, 305, 61, 432, 92
-0.996769, 327, 277, 342, 308
-0.996781, 89, 65, 120, 320
-0.996786, 151, 253, 166, 284
-0.996789, 209, 169, 336, 200
-0.996789, 33, 345, 160, 376
-0.996806, 203, 269, 218, 300
-0.99681, 227, 69, 242, 100
-0.996824, 49, 109, 176, 140
-0.996846, 305, 1, 432, 64
-0.996873, 165, 1, 196, 256
-0.99689, 183, 273, 198, 304
-0.996898, 209, 265, 224, 296
-0.996909, 155, 265, 170, 296
-0.996912, 209, 29, 336, 60
-0.996919, 221, 273, 236, 304
-0.996931, 161, 17, 288, 48
-0.996932, 199, 257, 214, 288
-0.996937, 289, 253, 416, 284
-0.996955, 357, 277, 372, 308
-0.996965, 193, 233, 320, 264
-0.996982, 161, 353, 288, 384
-0.99699, 237, 285, 252, 316
-0.996997, 81, 337, 208, 368
-0.997005, 33, 145, 160, 176
-0.997015, 347, 277, 362, 308
-0.997023, 375, 277, 390, 308
-0.997026, 387, 273, 402, 304
-0.997038, 173, 129, 204, 384
-0.997049, 231, 273, 246, 304
-0.99705, 321, 209, 448, 240
-0.997064, 181, 241, 196, 272
-0.997068, 427, 241, 442, 272
-0.99711, 359, 333, 374, 364
-0.997129, 437, 129, 468, 384
-0.997136, 187, 257, 202, 288
-0.997137, 211, 281, 226, 312
-0.99714, 155, 285, 170, 316
-0.997149, 229, 297, 244, 328
-0.997162, 17, 157, 144, 188
-0.997166, 367, 277, 382, 308
-0.997167, 231, 285, 246, 316
-0.99717, 237, 105, 252, 136
-0.997171, 161, 277, 176, 308
-0.997174, 387, 329, 402, 360
-0.997176, 49, 217, 176, 248
-0.997188, 93, 129, 108, 160
-0.997189, 389, 289, 404, 320
-0.997207, 237, 273, 252, 304
-0.997212, 49, 181, 176, 212
-0.997235, 157, 253, 172, 284
-0.997235, 181, 1, 212, 256
-0.997239, 131, 297, 146, 328
-0.997242, 319, 345, 334, 376
-0.997248, 165, 265, 180, 296
-0.997249, 329, 289, 344, 320
-0.99725, 339, 277, 354, 308
-0.997252, 149, 265, 164, 296
-0.997277, 381, 277, 396, 308
-0.997277, 281, 33, 312, 288
-0.997278, 149, 237, 164, 268
-0.997288, 153, 297, 168, 328
-0.99729, 327, 301, 342, 332
-0.997291, 243, 289, 258, 320
-0.997292, 289, 141, 416, 172
-0.997298, 193, 341, 320, 372
-0.997307, 373, 289, 388, 320
-0.997308, 1, 33, 128, 96
-0.997311, 193, 281, 208, 312
-0.997317, 145, 185, 272, 216
-0.997318, 321, 277, 336, 308
-0.997323, 239, 301, 254, 332
-0.997328, 269, 289, 284, 320
-0.997329, 233, 97, 264, 352
-0.997331, 381, 305, 396, 336
-0.997343, 377, 329, 392, 360
-0.997344, 377, 97, 408, 352
-0.997346, 153, 1, 184, 256
-0.997357, 289, 197, 304, 228
-0.997362, 203, 301, 218, 332
-0.997364, 419, 305, 434, 336
-0.997366, 323, 289, 338, 320
-0.997367, 333, 277, 348, 308
-0.997367, 327, 341, 342, 372
-0.997373, 335, 289, 350, 320
-0.997374, 145, 253, 160, 284
-0.997381, 365, 333, 380, 364
-0.997385, 349, 341, 364, 372
-0.997397, 199, 285, 214, 316
-0.997397, 29, 65, 60, 320
-0.997421, 375, 305, 390, 336
-0.997422, 397, 33, 428, 288
-0.997423, 247, 141, 262, 172
-0.997438, 367, 289, 382, 320
-0.99744, 225, 1, 480, 64
-0.997442, 149, 285, 164, 316
-0.99746, 245, 109, 260, 140
-0.997462, 359, 305, 374, 336
-0.997465, 243, 269, 258, 300
-0.997469, 353, 1, 384, 256
-0.997471, 225, 101, 240, 132
-0.997473, 239, 73, 254, 104
-0.99749, 393, 273, 408, 304
-0.997492, 143, 297, 158, 328
-0.997493, 265, 277, 280, 308
-0.997493, 165, 297, 180, 328
-0.997496, 171, 265, 186, 296
-0.997496, 275, 353, 290, 384
-0.9975, 261, 165, 276, 196
-0.997506, 215, 301, 230, 332
-0.997507, 133, 269, 148, 300
-0.997509, 143, 285, 158, 316
-0.997509, 231, 101, 246, 132
-0.997517, 315, 285, 330, 316
-0.997519, 277, 277, 292, 308
-0.997537, 143, 273, 158, 304
-0.997539, 371, 333, 386, 364
-0.997541, 239, 117, 254, 148
-0.997544, 219, 105, 234, 136
-0.997554, 253, 157, 268, 188
-0.997554, 137, 297, 152, 328
-0.997572, 249, 289, 264, 320
-0.997576, 279, 297, 294, 328
-0.997582, 419, 325, 434, 356
-0.997591, 313, 349, 328, 380
-0.997596, 159, 297, 174, 328
-0.997599, 333, 341, 348, 372
-0.997599, 221, 301, 236, 332
-0.997599, 191, 241, 206, 272
-0.997601, 399, 141, 414, 172
-0.997603, 319, 301, 334, 332
-0.997603, 231, 121, 246, 152
-0.997604, 393, 341, 408, 372
-0.997609, 209, 301, 224, 332
-0.997609, 87, 137, 102, 168
-0.99761, 293, 33, 324, 288
-0.997622, 369, 301, 384, 332
-0.997624, 387, 301, 402, 332
-0.997633, 99, 101, 114, 132
-0.997641, 127, 145, 142, 176
-0.997641, 349, 305, 364, 336
-0.997648, 349, 289, 364, 320
-0.997649, 153, 97, 184, 352
-0.997655, 223, 289, 238, 320
-0.997655, 343, 341, 358, 372
-0.99766, 269, 301, 284, 332
-0.997661, 247, 129, 262, 160
-0.997661, 97, 281, 112, 312
-0.997662, 259, 289, 274, 320
-0.997662, 241, 137, 256, 168
-0.997667, 133, 285, 148, 316
-0.997668, 191, 297, 206, 328
-0.99767, 371, 317, 386, 348
-0.997671, 205, 281, 220, 312
-0.997671, 259, 277, 274, 308
-0.997675, 107, 105, 122, 136
-0.997699, 245, 89, 260, 120
-0.997708, 197, 301, 212, 332
-0.99771, 183, 285, 198, 316
-0.997714, 305, 277, 320, 308
-0.997731, 173, 229, 188, 260
-0.997737, 221, 121, 236, 152
-0.997743, 141, 97, 172, 352
-0.997743, 101, 129, 132, 384
-0.997752, 1, 97, 32, 352
-0.997758, 365, 97, 396, 352
-0.99789, 17, 97, 48, 352
-0.997946, 41, 65, 72, 320
-0.997965, 141, 1, 172, 256
-0.998019, 61, 33, 92, 288
-0.998069, 269, 129, 300, 384
-0.998124, 1, 33, 480, 96
-0.998133, 309, 65, 340, 320
-0.99823, 329, 33, 360, 288
-0.998261, 353, 97, 384, 352
-0.998314, 193, 279, 256, 294
-0.998314, 1, 9, 256, 72
-0.998315, 369, 1, 400, 256
-0.998321, 229, 49, 244, 176
-0.99833, 153, 279, 216, 294
-0.99836, 193, 303, 256, 318
-0.998373, 153, 271, 216, 286
-0.998375, 385, 245, 448, 260
-0.998377, 313, 345, 376, 360
-0.99838, 153, 257, 216, 272
-0.99839, 201, 367, 264, 382
-0.998391, 345, 277, 408, 292
-0.998394, 409, 1, 440, 256
-0.998401, 233, 361, 296, 376
-0.998401, 417, 249, 480, 264
-0.998405, 225, 277, 288, 292
-0.998407, 313, 279, 376, 294
-0.998407, 233, 307, 296, 322
-0.998411, 385, 271, 448, 286
-0.998414, 345, 347, 408, 362
-0.998422, 345, 307, 408, 322
-0.998424, 153, 307, 216, 322
-0.998425, 385, 251, 448, 266
-0.998425, 177, 273, 240, 288
-0.998425, 265, 353, 328, 368
-0.998427, 385, 257, 448, 272
-0.998428, 385, 301, 448, 316
-0.998428, 153, 263, 216, 278
-0.998429, 385, 313, 448, 328
-0.99843, 105, 247, 168, 262
-0.99843, 313, 307, 376, 322
-0.998434, 241, 135, 304, 150
-0.998437, 209, 111, 272, 126
-0.99844, 385, 289, 448, 304
-0.99844, 265, 277, 328, 292
-0.998441, 289, 351, 352, 366
-0.998444, 385, 307, 448, 322
-0.998445, 121, 311, 184, 326
-0.998445, 153, 251, 216, 266
-0.998453, 345, 335, 408, 350
-0.998454, 121, 259, 184, 274
-0.998455, 313, 351, 376, 366
-0.998456, 217, 73, 280, 88
-0.998457, 193, 285, 256, 300
-0.998461, 73, 33, 104, 288
-0.998462, 253, 277, 284, 292
-0.998462, 233, 129, 296, 144
-0.998462, 121, 167, 152, 182
-0.998463, 97, 263, 160, 278
-0.998464, 325, 301, 356, 316
-0.998464, 233, 369, 296, 384
-0.998465, 205, 121, 236, 136
-0.998465, 405, 157, 436, 172
-0.998465, 273, 277, 304, 292
-0.998466, 377, 295, 440, 310
-0.998467, 153, 285, 216, 300
-0.998468, 197, 285, 228, 300
-0.998468, 373, 305, 404, 320
-0.998468, 153, 301, 216, 316
-0.998469, 293, 171, 324, 186
-0.998469, 229, 123, 260, 138
-0.998471, 229, 109, 260, 124
-0.998471, 133, 225, 164, 240
-0.998471, 213, 107, 244, 122
-0.998473, 161, 265, 192, 280
-0.998473, 385, 239, 448, 254
-0.998474, 217, 363, 248, 378
-0.998475, 225, 283, 288, 298
-0.998476, 113, 273, 176, 288
-0.998477, 385, 325, 448, 340
-0.998477, 401, 295, 432, 310
-0.998477, 181, 307, 212, 322
-0.998478, 97, 253, 160, 268
-0.998478, 345, 301, 408, 316
-0.998478, 385, 263, 448, 278
-0.998478, 357, 301, 388, 316
-0.998478, 377, 277, 408, 292
-0.998478, 357, 307, 388, 322
-0.998478, 313, 313, 376, 328
-0.998479, 209, 137, 272, 152
-0.998479, 129, 257, 160, 272
-0.998479, 113, 219, 176, 234
-0.998479, 249, 145, 312, 160
-0.99848, 349, 289, 380, 304
-0.99848, 121, 173, 152, 188
-0.998481, 97, 101, 128, 116
-0.998481, 389, 237, 420, 252
-0.998482, 177, 267, 240, 282
-0.998482, 105, 357, 136, 372
-0.998483, 337, 283, 368, 298
-0.998483, 233, 107, 296, 122
-0.998484, 149, 281, 180, 296
-0.998484, 385, 319, 448, 334
-0.998485, 369, 343, 400, 358
-0.998485, 393, 153, 424, 168
-0.998486, 213, 283, 244, 298
-0.998486, 121, 179, 152, 194
-0.998486, 121, 253, 184, 268
-0.998486, 93, 109, 124, 124
-0.998488, 121, 193, 152, 208
-0.998488, 293, 129, 324, 384
-0.998488, 397, 213, 428, 228
-0.998489, 321, 291, 384, 306
-0.998489, 345, 341, 408, 356
-0.998489, 105, 241, 168, 256
-0.998489, 129, 287, 192, 302
-0.99849, 129, 265, 192, 280
-0.99849, 397, 207, 428, 222
-0.998491, 313, 285, 376, 300
-0.998492, 97, 291, 160, 306
-0.998492, 133, 133, 164, 148
-0.998492, 401, 301, 432, 316
-0.998493, 165, 255, 196, 270
-0.998494, 89, 147, 120, 162
-0.998494, 377, 299, 408, 314
-0.998494, 417, 291, 480, 306
-0.998494, 273, 305, 336, 320
-0.998494, 317, 307, 348, 322
-0.998494, 225, 145, 288, 160
-0.998495, 93, 115, 124, 130
-0.998495, 313, 279, 344, 294
-0.998495, 205, 367, 236, 382
-0.998496, 113, 225, 176, 240
-0.998496, 265, 363, 328, 378
-0.998496, 385, 277, 448, 292
-0.998497, 237, 277, 268, 292
-0.998497, 121, 229, 152, 244
-0.998497, 237, 305, 268, 320
-0.998497, 193, 309, 256, 324
-0.998498, 257, 307, 288, 322
-0.998498, 121, 223, 152, 238
-0.998498, 405, 279, 436, 294
-0.998498, 89, 129, 120, 144
-0.9985, 145, 301, 176, 316
-0.998501, 305, 357, 368, 372
-0.998501, 385, 283, 448, 298
-0.998502, 265, 365, 296, 380
-0.998502, 345, 291, 408, 306
-0.998505, 409, 311, 440, 326
-0.998506, 225, 67, 288, 82
-0.998506, 121, 301, 184, 316
-0.998506, 241, 119, 304, 134
-0.998507, 133, 243, 164, 258
-0.998508, 337, 353, 368, 368
-0.998508, 153, 245, 216, 260
-0.998508, 237, 369, 268, 384
-0.998509, 385, 145, 448, 160
-0.998509, 245, 163, 276, 178
-0.998509, 109, 239, 140, 254
-0.99851, 113, 233, 176, 248
-0.998511, 113, 199, 144, 214
-0.998511, 397, 243, 428, 258
-0.998511, 409, 347, 440, 362
-0.998512, 217, 79, 280, 94
-0.998512, 253, 141, 284, 156
-0.998512, 225, 117, 256, 132
-0.998513, 209, 123, 272, 138
-0.998513, 225, 153, 288, 168
-0.998513, 109, 249, 140, 264
-0.998513, 129, 239, 192, 254
-0.998514, 245, 69, 276, 84
-0.998514, 105, 343, 136, 358
-0.998514, 397, 193, 428, 208
-0.998516, 429, 225, 444, 352
-0.998516, 89, 137, 152, 152
-0.998518, 97, 313, 160, 328
-0.998519, 437, 33, 468, 288
-0.99852, 385, 219, 448, 234
-0.99852, 165, 303, 196, 318
-0.998521, 209, 103, 272, 118
-0.998521, 237, 129, 268, 144
-0.998521, 225, 85, 256, 100
-0.998521, 409, 319, 440, 334
-0.998522, 173, 247, 204, 262
-0.998522, 229, 287, 260, 302
-0.998522, 389, 271, 420, 286
-0.998522, 385, 339, 448, 354
-0.998523, 241, 113, 304, 128
-0.998523, 397, 199, 428, 214
-0.998524, 201, 303, 232, 318
-0.998524, 321, 339, 384, 354
-0.998524, 225, 77, 256, 92
-0.998525, 385, 187, 448, 202
-0.998525, 421, 291, 452, 306
-0.998525, 121, 209, 152, 224
-0.998526, 97, 331, 160, 346
-0.998526, 401, 209, 464, 224
-0.998527, 209, 131, 272, 146
-0.998527, 225, 97, 256, 112
-0.998527, 141, 273, 172, 288
-0.998528, 129, 171, 192, 186
-0.998529, 201, 273, 264, 288
-0.998529, 217, 39, 280, 54
-0.998529, 305, 301, 368, 316
-0.998529, 377, 331, 440, 346
-0.99853, 405, 271, 436, 286
-0.998531, 185, 255, 248, 270
-0.998532, 389, 297, 420, 312
-0.998532, 409, 325, 440, 340
-0.998533, 213, 113, 244, 128
-0.998533, 385, 347, 448, 362
-0.998533, 149, 249, 180, 264
-0.998535, 373, 291, 404, 306
-0.998535, 113, 213, 176, 228
-0.998536, 169, 369, 232, 384
-0.998537, 385, 195, 448, 210
-0.998538, 253, 151, 284, 166
-0.99854, 193, 75, 256, 90
-0.99854, 409, 289, 440, 304
-0.998541, 125, 217, 156, 232
-0.998541, 341, 65, 372, 320
-0.998541, 405, 255, 436, 270
-0.998542, 313, 355, 344, 370
-0.998542, 249, 135, 280, 150
-0.998543, 89, 269, 152, 284
-0.998543, 129, 179, 192, 194
-0.998545, 233, 301, 296, 316
-0.998545, 385, 161, 448, 176
-0.998545, 241, 157, 272, 172
-0.998545, 113, 365, 144, 380
-0.998546, 137, 251, 168, 266
-0.998546, 129, 237, 160, 252
-0.998546, 81, 247, 144, 262
-0.998546, 97, 355, 160, 370
-0.998547, 405, 265, 436, 280
-0.998547, 329, 277, 360, 292
-0.998547, 129, 281, 192, 296
-0.998547, 217, 85, 280, 100
-0.998548, 225, 289, 288, 304
-0.998549, 373, 331, 404, 346
-0.998549, 233, 101, 296, 116
-0.998549, 73, 143, 136, 158
-0.99855, 345, 321, 408, 336
-0.99855, 129, 245, 192, 260
-0.998551, 89, 131, 152, 146
-0.998551, 385, 173, 448, 188
-0.998553, 57, 273, 120, 288
-0.998553, 89, 283, 152, 298
-0.998554, 353, 347, 384, 362
-0.998554, 345, 283, 408, 298
-0.998554, 97, 347, 160, 362
-0.998555, 229, 1, 244, 128
-0.998555, 161, 313, 224, 328
-0.998556, 381, 343, 412, 358
-0.998557, 353, 277, 384, 292
-0.998557, 239, 1, 254, 128
-0.998558, 177, 253, 208, 268
-0.998562, 85, 135, 116, 150
-0.998563, 149, 263, 180, 278
-0.998563, 201, 271, 232, 286
-0.998564, 181, 281, 212, 296
-0.998564, 257, 359, 288, 374
-0.998568, 353, 337, 384, 352
-0.998575, 221, 71, 252, 86
-0.998575, 189, 265, 220, 280
-0.998576, 401, 249, 432, 264
-0.998577, 297, 351, 328, 366
-0.998581, 161, 277, 192, 292
-0.998585, 149, 257, 180, 272
-0.998585, 337, 343, 368, 358
-0.998585, 277, 357, 308, 372
-0.998596, 241, 363, 272, 378
-0.998602, 245, 65, 260, 192
-0.998607, 189, 257, 220, 272
-0.998609, 381, 1, 412, 256
-0.998609, 421, 1, 452, 256
-0.998612, 225, 103, 256, 118
-0.998613, 161, 271, 192, 286
-0.998635, 425, 245, 456, 260
-0.99865, 317, 349, 348, 364
-0.998657, 235, 49, 250, 176
-0.998657, 161, 283, 192, 298
-0.998679, 281, 129, 312, 384
-0.998683, 197, 279, 228, 294
-0.99869, 217, 277, 248, 292
-0.998703, 107, 65, 122, 192
-0.99872, 427, 177, 442, 304
-0.99872, 181, 275, 212, 290
-0.99872, 223, 49, 238, 176
-0.998741, 193, 241, 208, 368
-0.998745, 185, 225, 200, 352
-0.998751, 73, 129, 104, 384
-0.998753, 245, 17, 260, 144
-0.998772, 251, 17, 266, 144
-0.998777, 123, 145, 138, 272
-0.998801, 259, 129, 274, 256
-0.998811, 107, 241, 122, 368
-0.998819, 449, 177, 464, 304
-0.998821, 265, 129, 280, 256
-0.998825, 157, 241, 172, 368
-0.998829, 437, 161, 452, 288
-0.998836, 269, 81, 284, 208
-0.99884, 175, 177, 190, 304
-0.998853, 245, 113, 260, 240
-0.998854, 277, 97, 292, 224
-0.99886, 391, 241, 406, 368
-0.998861, 91, 113, 106, 240
-0.998863, 391, 177, 406, 304
-0.998868, 99, 97, 114, 224
-0.998881, 243, 241, 258, 368
-0.998881, 235, 97, 250, 224
-0.998912, 463, 65, 478, 192
-0.998917, 257, 17, 272, 144
-0.998918, 399, 129, 414, 256
-0.99892, 65, 1, 192, 64
-0.99892, 327, 241, 342, 368
-0.998928, 465, 1, 480, 128
-0.998933, 223, 1, 238, 128
-0.998934, 443, 193, 458, 320
-0.998935, 261, 65, 276, 192
-0.998936, 187, 177, 202, 304
-0.998947, 201, 241, 216, 368
-0.998948, 255, 65, 270, 192
-0.998954, 95, 49, 110, 176
-0.99896, 229, 113, 244, 240
-0.998966, 271, 129, 286, 256
-0.998967, 217, 17, 232, 144
-0.998969, 277, 33, 292, 160
-0.99897, 455, 193, 470, 320
-0.99897, 417, 193, 432, 320
-0.998974, 421, 145, 436, 272
-0.998991, 437, 225, 452, 352
-0.998992, 167, 225, 182, 352
-0.998994, 179, 225, 194, 352
-0.998999, 131, 241, 146, 368
-0.999, 115, 49, 130, 176
-0.999, 123, 193, 138, 320
-0.999001, 181, 129, 196, 256
-0.999015, 269, 241, 284, 368
-0.999018, 459, 17, 474, 144
-0.999018, 181, 177, 196, 304
-0.999023, 151, 241, 166, 368
-0.999025, 283, 49, 298, 176
-0.999026, 451, 241, 466, 368
-0.999028, 253, 129, 268, 256
-0.999034, 407, 145, 422, 272
-0.999036, 419, 257, 434, 384
-0.999045, 287, 193, 302, 320
-0.999047, 399, 177, 414, 304
-0.999052, 271, 33, 286, 160
-0.999054, 445, 241, 460, 368
-0.999054, 201, 193, 216, 320
-0.999056, 283, 113, 298, 240
-0.999056, 173, 225, 188, 352
-0.999058, 347, 257, 362, 384
-0.999058, 131, 49, 146, 176
-0.99906, 195, 177, 210, 304
-0.999062, 251, 241, 266, 368
-0.999062, 357, 257, 372, 384
-0.999065, 141, 241, 156, 368
-0.999072, 221, 257, 236, 384
-0.999074, 321, 129, 352, 384
-0.999078, 277, 241, 292, 368
-0.999088, 457, 241, 472, 368
-0.99909, 463, 225, 478, 352
-0.999092, 113, 225, 128, 352
-0.999092, 117, 97, 132, 224
-0.999095, 229, 241, 244, 368
-0.999095, 125, 49, 140, 176
-0.999095, 237, 241, 252, 368
-0.999098, 341, 49, 356, 176
-0.999099, 411, 193, 426, 320
-0.9991, 465, 177, 480, 304
-0.999104, 313, 49, 328, 176
-0.99911, 257, 241, 272, 368
-0.999112, 401, 225, 416, 352
-0.999112, 133, 177, 148, 304
-0.999118, 157, 177, 172, 304
-0.999119, 429, 113, 444, 240
-0.999122, 137, 81, 152, 208
-0.999123, 333, 241, 348, 368
-0.999125, 263, 241, 278, 368
-0.999128, 223, 193, 238, 320
-0.99913, 447, 113, 462, 240
-0.999132, 189, 129, 204, 256
-0.999137, 211, 193, 226, 320
-0.999138, 101, 49, 116, 176
-0.999139, 149, 193, 164, 320
-0.999146, 169, 177, 184, 304
-0.999151, 351, 49, 366, 176
-0.999154, 53, 129, 84, 384
-0.999165, 453, 113, 468, 240
-0.999165, 185, 1, 200, 128
-0.999173, 143, 33, 158, 160
-0.999174, 265, 177, 280, 304
-0.999177, 221, 97, 236, 224
-0.999183, 457, 65, 472, 192
-0.999183, 299, 33, 314, 160
-0.999186, 461, 113, 476, 240
-0.999187, 439, 113, 454, 240
-0.999192, 117, 145, 132, 272
-0.999194, 111, 177, 126, 304
-0.999202, 319, 241, 334, 368
-0.999202, 133, 129, 148, 256
-0.999208, 385, 257, 400, 384
-0.999219, 217, 193, 232, 320
-0.99922, 95, 225, 110, 352
-0.999222, 89, 49, 104, 176
-0.999223, 319, 49, 334, 176
-0.999228, 307, 257, 322, 384
-0.999228, 279, 177, 294, 304
-0.999229, 331, 49, 346, 176
-0.999233, 415, 113, 430, 240
-0.999238, 293, 33, 308, 160
-0.999626, 147, 251, 162, 266
-0.999626, 219, 105, 234, 120
-0.999627, 125, 177, 140, 192
-0.999628, 187, 265, 202, 280
-0.999628, 191, 303, 206, 318
-0.999628, 395, 347, 410, 362
-0.999628, 399, 197, 414, 212
-0.999628, 223, 111, 238, 126
-0.999628, 249, 127, 264, 142
-0.999629, 239, 73, 254, 88
-0.999629, 425, 285, 440, 300
-0.999629, 241, 303, 256, 318
-0.99963, 185, 259, 200, 274
-0.999631, 183, 253, 198, 268
-0.999631, 399, 189, 414, 204
-0.999631, 197, 277, 212, 292
-0.999632, 241, 119, 256, 134
-0.999632, 237, 113, 252, 128
-0.999632, 113, 369, 128, 384
-0.999632, 131, 311, 146, 326
-0.999632, 389, 289, 404, 304
-0.999633, 231, 271, 246, 286
-0.999633, 237, 369, 252, 384
-0.999633, 9, 1, 40, 256
-0.999633, 325, 349, 340, 364
-0.999635, 247, 149, 262, 164
-0.999636, 311, 357, 326, 372
-0.999636, 237, 79, 252, 94
-0.999637, 127, 219, 142, 234
-0.999637, 269, 283, 284, 298
-0.999638, 123, 139, 138, 154
-0.99964, 387, 341, 402, 356
-0.99964, 205, 369, 220, 384
-0.99964, 381, 299, 396, 314
-0.999641, 427, 291, 442, 306
-0.999641, 177, 247, 192, 262
-0.999642, 421, 291, 436, 306
-0.999642, 87, 139, 102, 154
-0.999644, 247, 139, 262, 154
-0.999645, 389, 301, 404, 316
-0.999646, 129, 137, 144, 152
-0.999646, 193, 309, 208, 324
-0.999646, 173, 273, 188, 288
-0.999646, 285, 197, 300, 212
-0.999646, 135, 133, 150, 148
-0.999646, 175, 279, 190, 294
-0.999647, 159, 257, 174, 272
-0.999647, 399, 143, 414, 158
-0.999647, 327, 301, 342, 316
-0.999648, 159, 227, 174, 242
-0.99965, 207, 267, 222, 282
-0.99965, 357, 307, 372, 322
-0.999652, 349, 313, 364, 328
-0.999652, 277, 365, 292, 380
-0.999652, 291, 203, 306, 218
-0.999653, 427, 159, 442, 174
-0.999653, 143, 237, 158, 252
-0.999653, 193, 283, 208, 298
-0.999653, 237, 285, 252, 300
-0.999654, 175, 195, 190, 210
-0.999654, 349, 287, 364, 302
-0.999657, 165, 275, 180, 290
-0.999658, 417, 303, 432, 318
-0.999658, 277, 307, 292, 322
-0.999659, 227, 77, 242, 92
-0.99966, 389, 277, 404, 292
-0.99966, 419, 327, 434, 342
-0.999661, 97, 285, 112, 300
-0.999664, 229, 85, 244, 100
-0.999664, 235, 93, 250, 108
-0.999666, 317, 281, 332, 296
-0.999666, 323, 279, 338, 294
-0.999667, 203, 273, 218, 288
-0.999667, 123, 229, 138, 244
-0.999667, 261, 153, 276, 168
-0.999667, 191, 275, 206, 290
-0.999668, 221, 275, 236, 290
-0.999669, 279, 357, 294, 372
-0.99967, 165, 303, 180, 318
-0.99967, 231, 287, 246, 302
-0.99967, 191, 249, 206, 264
-0.99967, 355, 349, 370, 364
-0.99967, 251, 155, 266, 170
-0.999672, 203, 303, 218, 318
-0.999673, 147, 257, 162, 272
-0.999674, 155, 273, 170, 288
-0.999674, 229, 277, 244, 292
-0.999674, 239, 309, 254, 324
-0.999675, 359, 337, 374, 352
-0.999675, 243, 127, 258, 142
-0.999676, 419, 311, 434, 326
-0.999677, 155, 301, 170, 316
-0.999678, 199, 261, 214, 276
-0.999682, 317, 355, 332, 370
-0.999682, 217, 113, 232, 128
-0.999684, 213, 271, 228, 286
-0.999685, 347, 277, 362, 292
-0.999685, 269, 309, 284, 324
-0.999689, 101, 107, 116, 122
-0.99969, 157, 263, 172, 278
-0.999691, 377, 293, 392, 308
-0.999694, 395, 341, 410, 356
-0.999695, 271, 361, 286, 376
-0.999696, 163, 267, 178, 282
-0.999698, 249, 133, 264, 148
-0.999699, 193, 265, 208, 280
-0.999699, 103, 101, 118, 116
-0.9997, 349, 345, 364, 360
-0.9997, 239, 277, 254, 292
-0.999702, 211, 283, 226, 298
-0.999702, 319, 307, 334, 322
-0.999703, 419, 369, 434, 384
-0.999704, 183, 275, 198, 290
-0.999713, 235, 103, 250, 118
-0.999717, 229, 97, 244, 112
-0.99972, 91, 133, 106, 148
-0.999729, 149, 245, 164, 260
-0.999731, 419, 317, 434, 332
-0.999735, 357, 277, 372, 292
-0.999735, 149, 239, 164, 254
-0.999738, 243, 365, 258, 380
-0.999738, 185, 247, 200, 262
-0.999738, 165, 281, 180, 296
-0.999747, 151, 265, 166, 280
-0.999747, 427, 245, 442, 260
-0.999752, 227, 71, 242, 86
-0.999755, 153, 253, 168, 268
-0.999761, 181, 241, 196, 256
-0.999769, 319, 349, 334, 364
-0.999794, 203, 279, 218, 294
-0.999845, 193, 255, 208, 270
-1.00102, 17, 9, 144, 72
-1.00163, 49, 1, 112, 128
-1.00174, 1, 9, 480, 72
