1958
-0.471903, 1, 1, 500, 375
-0.479311, 1, 1, 500, 256
-0.529326, 1, 97, 500, 352
-0.559533, 65, 1, 320, 375
-0.695785, 129, 97, 384, 352
-0.698449, 161, 1, 416, 375
-0.757131, 1, 33, 256, 288
-0.792774, 257, 1, 500, 375
-0.813865, 129, 1, 384, 256
-0.849814, 225, 65, 480, 320
-0.868422, 33, 129, 288, 375
-0.87386, 81, 1, 208, 375
-0.883128, 225, 97, 352, 352
-0.891814, 81, 33, 208, 288
-0.895013, 225, 1, 352, 375
-0.89898, 161, 1, 288, 375
-0.901271, 33, 1, 160, 256
-0.902586, 129, 33, 256, 288
-0.904086, 1, 97, 128, 352
-0.910553, 225, 1, 352, 256
-0.912604, 1, 81, 500, 208
-0.915162, 97, 129, 224, 375
-0.91559, 177, 65, 304, 320
-0.917857, 33, 1, 160, 375
-0.920932, 273, 129, 400, 375
-0.924166, 1, 81, 256, 208
-0.925338, 1, 241, 500, 368
-0.925845, 1, 33, 500, 160
-0.925977, 1, 129, 500, 256
-0.927675, 65, 129, 320, 256
-0.929684, 49, 129, 176, 375
-0.932971, 97, 241, 352, 368
-0.935405, 1, 193, 500, 320
-0.936177, 273, 33, 400, 288
-0.938318, 241, 113, 368, 240
-0.939673, 65, 177, 320, 304
-0.940292, 161, 113, 416, 240
-0.947948, 193, 161, 448, 288
-0.948124, 273, 1, 400, 375
-0.949623, 209, 225, 336, 352
-0.949684, 321, 129, 448, 375
-0.950314, 97, 33, 352, 160
-0.951403, 249, 97, 312, 224
-0.9518, 97, 81, 160, 208
-0.952679, 81, 81, 208, 208
-0.953197, 193, 241, 448, 368
-0.954634, 241, 161, 304, 288
-0.955365, 193, 81, 320, 208
-0.9563, 217, 145, 280, 272
-0.9565, 241, 177, 368, 304
-0.957677, 321, 33, 448, 288
-0.959327, 1, 33, 256, 160
-0.960483, 1, 113, 128, 240
-0.961063, 273, 129, 336, 256
-0.961809, 193, 129, 320, 256
-0.961954, 217, 97, 280, 224
-0.9624, 145, 113, 272, 240
-0.962869, 297, 97, 360, 224
-0.962969, 217, 153, 280, 216
-0.963356, 321, 1, 448, 375
-0.96342, 33, 65, 160, 192
-0.964611, 57, 129, 120, 256
-0.965261, 233, 177, 296, 240
-0.965458, 97, 65, 160, 128
-0.965808, 273, 241, 336, 368
-0.965822, 177, 177, 304, 304
-0.966639, 233, 241, 296, 368
-0.967152, 57, 65, 120, 192
-0.967693, 249, 153, 312, 216
-0.967905, 193, 113, 256, 240
-0.968283, 217, 129, 280, 192
-0.968409, 249, 113, 312, 176
-0.96883, 33, 1, 160, 128
-0.969097, 209, 193, 272, 320
-0.969517, 97, 225, 224, 352
-0.969671, 297, 113, 360, 176
-0.970584, 113, 33, 240, 160
-0.971092, 121, 81, 184, 208
-0.971206, 225, 33, 352, 160
-0.971248, 97, 33, 160, 160
-0.971262, 97, 145, 160, 272
-0.97153, 193, 65, 448, 192
-0.971877, 81, 161, 208, 288
-0.972826, 57, 137, 120, 200
-0.972869, 161, 225, 288, 352
-0.973062, 253, 153, 284, 216
-0.973397, 257, 161, 288, 288
-0.973805, 105, 97, 168, 160
-0.974473, 265, 225, 328, 288
-0.974653, 257, 113, 500, 240
-0.974996, 257, 17, 500, 144
-0.975437, 121, 57, 184, 120
-0.975487, 193, 145, 256, 208
-0.975633, 97, 169, 160, 232
-0.976288, 241, 137, 368, 200
-0.976375, 105, 225, 168, 352
-0.976564, 185, 297, 248, 360
-0.976588, 33, 129, 96, 192
-0.976702, 185, 241, 248, 368
-0.97683, 193, 113, 320, 176
-0.976994, 129, 33, 192, 160
-0.977157, 273, 137, 336, 200
-0.97746, 169, 97, 232, 224
-0.977773, 273, 33, 336, 160
-0.977948, 1, 225, 256, 352
-0.977952, 257, 241, 384, 368
-0.977995, 273, 97, 336, 352
-0.978139, 89, 137, 152, 200
-0.978153, 25, 81, 88, 208
-0.978196, 241, 233, 304, 296
-0.978262, 113, 297, 240, 360
-0.978374, 313, 177, 376, 304
-0.978478, 305, 177, 432, 304
-0.978597, 273, 113, 336, 176
-0.978814, 273, 81, 336, 144
-0.979135, 273, 177, 336, 304
-0.979157, 73, 105, 136, 168
-0.979312, 245, 145, 276, 272
-0.979336, 105, 33, 168, 96
-0.979414, 273, 65, 400, 192
-0.979559, 105, 313, 168, 375
-0.979879, 209, 241, 272, 368
-0.979969, 1, 129, 128, 192
-0.980031, 161, 33, 288, 160
-0.980092, 241, 113, 368, 176
-0.980157, 57, 17, 120, 144
-0.980162, 225, 185, 352, 248
-0.98018, 97, 81, 128, 208
-0.98021, 105, 273, 168, 336
-0.980245, 113, 57, 240, 120
-0.980255, 81, 241, 144, 368
-0.980255, 297, 305, 360, 368
-0.980359, 217, 129, 280, 375
-0.980376, 161, 153, 288, 216
-0.980693, 33, 81, 160, 144
-0.980703, 129, 89, 192, 152
-0.98098, 109, 57, 140, 120
-0.981118, 89, 33, 152, 288
-0.981289, 237, 177, 268, 240
-0.981337, 185, 49, 248, 176
-0.981488, 145, 57, 208, 120
-0.981553, 169, 121, 232, 184
-0.981594, 129, 305, 192, 368
-0.981724, 285, 121, 316, 184
-0.981795, 289, 129, 416, 256
-0.981862, 129, 33, 192, 96
-0.981869, 225, 305, 288, 368
-0.982062, 305, 225, 432, 352
-0.982135, 49, 57, 176, 120
-0.982153, 57, 97, 120, 352
-0.982166, 129, 281, 192, 344
-0.982244, 121, 57, 152, 120
-0.982268, 253, 177, 284, 240
-0.982344, 369, 1, 496, 375
-0.982399, 133, 57, 164, 120
-0.982406, 57, 73, 120, 136
-0.982589, 225, 161, 352, 224
-0.982665, 241, 49, 304, 176
-0.982759, 209, 177, 272, 240
-0.982799, 225, 225, 352, 288
-0.9828, 9, 33, 72, 160
-0.982871, 209, 289, 336, 352
-0.982982, 273, 81, 336, 208
-0.983226, 129, 161, 256, 288
-0.983271, 153, 49, 216, 176
-0.983382, 249, 65, 312, 320
-0.983436, 161, 273, 224, 336
-0.983488, 253, 97, 284, 224
-0.983568, 17, 241, 144, 368
-0.983887, 273, 185, 336, 248
-0.984013, 229, 129, 260, 192
-0.984084, 145, 129, 272, 192
-0.984089, 233, 153, 264, 216
-0.984097, 17, 105, 80, 168
-0.984141, 49, 105, 176, 168
-0.984181, 113, 81, 144, 144
-0.98428, 229, 97, 260, 224
-0.984295, 233, 201, 296, 264
-0.984351, 201, 209, 264, 272
-0.984391, 177, 177, 304, 240
-0.984454, 33, 33, 160, 96
-0.984598, 101, 81, 132, 144
-0.984603, 65, 177, 128, 304
-0.984809, 313, 129, 376, 375
-0.984941, 109, 81, 140, 208
-0.984951, 185, 169, 248, 232
-0.984963, 81, 129, 112, 256
-0.985019, 265, 233, 296, 296
-0.985021, 145, 97, 208, 224
-0.985052, 49, 105, 112, 168
-0.985141, 309, 113, 340, 176
-0.985144, 233, 145, 264, 272
-0.985156, 225, 89, 352, 152
-0.985163, 273, 97, 304, 224
-0.985204, 217, 1, 280, 375
-0.985218, 113, 89, 240, 152
-0.985229, 273, 289, 336, 352
-0.985266, 97, 1, 160, 375
-0.985294, 161, 297, 288, 360
-0.985321, 81, 161, 208, 224
-0.985365, 297, 137, 360, 200
-0.985405, 265, 145, 296, 208
-0.985482, 265, 225, 296, 352
-0.985534, 193, 121, 256, 184
-0.985547, 113, 129, 176, 192
-0.985726, 217, 113, 248, 240
-0.985922, 97, 201, 160, 264
-0.985993, 153, 297, 216, 360
-0.986169, 105, 249, 168, 312
-0.986193, 273, 265, 336, 328
-0.98623, 249, 89, 312, 152
-0.986364, 177, 201, 304, 264
-0.986366, 225, 57, 352, 120
-0.986369, 209, 49, 272, 176
-0.986457, 145, 1, 208, 256
-0.986614, 1, 129, 64, 192
-0.986773, 65, 137, 192, 200
-0.98681, 129, 241, 192, 368
-0.986872, 97, 273, 224, 336
-0.98691, 161, 145, 224, 272
-0.986913, 101, 129, 132, 256
-0.987076, 73, 137, 104, 200
-0.987111, 101, 137, 132, 200
-0.987125, 217, 153, 248, 216
-0.987144, 217, 105, 280, 168
-0.987245, 261, 201, 292, 264
-0.987247, 57, 41, 120, 104
-0.98725, 105, 129, 168, 375
-0.98726, 97, 225, 160, 288
-0.987328, 249, 297, 312, 360
-0.987349, 305, 49, 368, 176
-0.98735, 313, 281, 376, 344
-0.987405, 105, 9, 168, 72
-0.987436, 217, 249, 280, 312
-0.987524, 297, 129, 328, 192
-0.987544, 265, 113, 296, 176
-0.987572, 33, 129, 96, 256
-0.987622, 289, 305, 416, 368
-0.987661, 253, 225, 284, 288
-0.987699, 273, 33, 336, 96
-0.987746, 185, 273, 248, 336
-0.987766, 249, 241, 280, 368
-0.987789, 313, 241, 376, 368
-0.987801, 113, 33, 144, 96
-0.987839, 289, 121, 416, 184
-0.987888, 113, 33, 240, 96
-0.987901, 209, 249, 336, 312
-0.987907, 273, 313, 336, 375
-0.988135, 81, 193, 208, 256
-0.988182, 137, 129, 200, 192
-0.988198, 121, 129, 184, 256
-0.988293, 177, 97, 240, 160
-0.988296, 33, 97, 96, 352
-0.988328, 169, 1, 232, 128
-0.988396, 17, 177, 144, 304
-0.988454, 49, 289, 176, 352
-0.988501, 265, 177, 296, 240
-0.988525, 121, 161, 184, 224
-0.988564, 321, 129, 384, 256
-0.988583, 109, 33, 140, 160
-0.988639, 281, 161, 344, 224
-0.988662, 245, 193, 276, 320
-0.988667, 33, 9, 160, 72
-0.988695, 73, 297, 136, 360
-0.988735, 153, 153, 216, 216
-0.988745, 273, 17, 400, 144
-0.988795, 1, 113, 64, 240
-0.988824, 305, 193, 368, 256
-0.988924, 241, 97, 272, 224
-0.988925, 1, 57, 128, 120
-0.988983, 177, 225, 304, 288
-0.98901, 273, 57, 336, 120
-0.989074, 241, 313, 368, 375
-0.989116, 297, 105, 328, 168
-0.989142, 121, 289, 152, 352
-0.989307, 81, 25, 144, 88
-0.98936, 317, 113, 348, 240
-0.989373, 85, 65, 116, 192
-0.989526, 161, 1, 224, 375
-0.989588, 57, 177, 120, 240
-0.989599, 241, 161, 304, 192
-0.989631, 97, 57, 128, 120
-0.989634, 53, 97, 84, 224
-0.989639, 209, 33, 272, 288
-0.989672, 161, 89, 288, 152
-0.989676, 201, 129, 232, 192
-0.989678, 153, 97, 216, 160
-0.989689, 145, 9, 208, 72
-0.989696, 253, 129, 284, 192
-0.989706, 65, 209, 128, 272
-0.989725, 281, 121, 344, 152
-0.989726, 93, 105, 124, 168
-0.989788, 125, 81, 156, 208
-0.989805, 65, 313, 192, 375
-0.989822, 125, 81, 156, 144
-0.989884, 217, 161, 280, 192
-0.989918, 249, 117, 312, 148
-0.989925, 49, 17, 112, 80
-0.989941, 129, 185, 256, 248
-0.989978, 321, 169, 384, 232
-0.990032, 217, 281, 280, 344
-0.990059, 301, 225, 332, 352
-0.990061, 317, 177, 348, 304
-0.990109, 225, 181, 288, 212
-0.990132, 97, 77, 160, 108
-0.990135, 9, 1, 72, 256
-0.990155, 297, 33, 360, 288
-0.990163, 169, 57, 232, 120
-0.990185, 73, 273, 136, 336
-0.990292, 57, 129, 88, 192
-0.99031, 41, 65, 72, 192
-0.990344, 229, 297, 260, 360
-0.990393, 277, 145, 308, 208
-0.990434, 225, 1, 352, 64
-0.990473, 225, 33, 352, 96
-0.990498, 193, 113, 224, 240
-0.990504, 289, 97, 416, 160
-0.990536, 105, 65, 168, 96
-0.990571, 1, 105, 128, 168
-0.990604, 145, 273, 272, 336
-0.99063, 17, 49, 80, 112
-0.990654, 209, 289, 240, 352
-0.990669, 273, 209, 400, 272
-0.9907, 241, 237, 304, 268
-0.990702, 213, 129, 244, 192
-0.990775, 205, 241, 236, 368
-0.99079, 273, 241, 336, 272
-0.990802, 161, 49, 288, 112
-0.990823, 169, 33, 232, 288
-0.990826, 141, 65, 172, 192
-0.990911, 141, 89, 172, 152
-0.990944, 121, 1, 184, 256
-0.990972, 333, 129, 364, 192
-0.990977, 97, 113, 224, 176
-0.990982, 97, 93, 160, 124
-0.990997, 185, 161, 248, 288
-0.990998, 65, 241, 128, 304
-0.991063, 317, 201, 348, 264
-0.991087, 329, 113, 360, 240
-0.991094, 1, 153, 128, 216
-0.991102, 153, 113, 184, 240
-0.991123, 249, 173, 312, 204
-0.991125, 41, 133, 104, 164
-0.991134, 173, 113, 204, 240
-0.991149, 177, 297, 240, 328
-0.991196, 81, 129, 144, 375
-0.991202, 133, 313, 164, 375
-0.991202, 9, 25, 72, 88
-0.991212, 257, 149, 320, 180
-0.991271, 209, 65, 240, 192
-0.991273, 305, 217, 368, 280
-0.991286, 273, 1, 336, 375
-0.991302, 129, 89, 192, 120
-0.991309, 129, 77, 192, 108
-0.991313, 217, 149, 280, 180
-0.991333, 273, 105, 336, 136
-0.991359, 193, 1, 256, 375
-0.991363, 241, 253, 304, 284
-0.991415, 101, 169, 132, 232
-0.991429, 109, 177, 140, 304
-0.991456, 105, 301, 168, 332
-0.991461, 305, 129, 368, 160
-0.991497, 89, 177, 152, 208
-0.991534, 225, 193, 288, 224
-0.991537, 117, 313, 148, 375
-0.99156, 17, 133, 80, 164
-0.991594, 217, 129, 280, 160
-0.991594, 121, 313, 184, 344
-0.991604, 161, 17, 288, 80
-0.991608, 273, 169, 400, 232
-0.991611, 217, 237, 280, 268
-0.991613, 257, 137, 320, 168
-0.991617, 133, 33, 164, 96
-0.991621, 249, 249, 280, 312
-0.99163, 241, 113, 272, 176
-0.991676, 153, 241, 216, 368
-0.991688, 265, 225, 328, 256
-0.991691, 233, 49, 296, 112
-0.991709, 129, 33, 160, 160
-0.991712, 201, 173, 264, 204
-0.99172, 285, 97, 316, 224
-0.991724, 81, 249, 208, 312
-0.991763, 153, 169, 216, 200
-0.991765, 305, 281, 432, 344
-0.991773, 57, 1, 120, 256
-0.991807, 241, 225, 272, 288
-0.991825, 225, 337, 288, 368
-0.991826, 73, 1, 136, 375
-0.991854, 281, 137, 344, 168
-0.991854, 305, 309, 368, 340
-0.991882, 297, 65, 328, 192
-0.991894, 193, 161, 256, 192
-0.991917, 89, 189, 152, 220
-0.991928, 89, 141, 152, 172
-0.991971, 121, 173, 184, 204
-0.991985, 97, 297, 352, 360
-0.991996, 129, 61, 192, 92
-0.992013, 97, 105, 160, 136
-0.992045, 81, 129, 144, 160
-0.992054, 221, 185, 252, 248
-0.992061, 85, 137, 116, 200
-0.992083, 369, 33, 496, 288
-0.992109, 249, 161, 280, 192
-0.992109, 129, 101, 192, 132
-0.992118, 145, 305, 208, 336
-0.992125, 177, 133, 240, 164
-0.992145, 137, 45, 200, 76
-0.992148, 89, 161, 152, 192
-0.992164, 221, 177, 252, 304
-0.992171, 49, 1, 112, 375
-0.992178, 257, 329, 320, 360
-0.992187, 217, 249, 280, 280
-0.992198, 305, 113, 336, 240
-0.992206, 225, 321, 288, 352
-0.992214, 281, 321, 344, 352
-0.992223, 321, 129, 384, 192
-0.992225, 69, 129, 100, 256
-0.992228, 273, 1, 336, 256
-0.992268, 81, 217, 208, 280
-0.99227, 105, 33, 168, 64
-0.992274, 73, 77, 136, 108
-0.992275, 241, 225, 304, 256
-0.992285, 193, 149, 256, 180
-0.992298, 209, 117, 272, 148
-0.992328, 1, 97, 256, 160
-0.99236, 41, 105, 72, 168
-0.992369, 205, 113, 236, 240
-0.992383, 49, 145, 112, 176
-0.992387, 273, 213, 336, 244
-0.99241, 57, 117, 120, 148
-0.992411, 129, 289, 192, 320
-0.992414, 273, 253, 336, 284
-0.992416, 161, 129, 416, 192
-0.992418, 105, 281, 136, 344
-0.99242, 97, 321, 160, 352
-0.992428, 149, 57, 180, 120
-0.992446, 257, 241, 288, 272
-0.992446, 97, 45, 160, 76
-0.992455, 273, 93, 336, 124
-0.992481, 57, 101, 120, 132
-0.992485, 369, 129, 496, 375
-0.992501, 57, 57, 120, 88
-0.992501, 249, 105, 312, 136
-0.992506, 185, 185, 248, 216
-0.992514, 117, 241, 148, 368
-0.99252, 105, 269, 168, 300
-0.992548, 253, 173, 284, 204
-0.992549, 249, 185, 312, 216
-0.992551, 65, 153, 320, 216
-0.992551, 233, 205, 296, 236
-0.992555, 97, 201, 160, 232
-0.992555, 33, 265, 160, 328
-0.992565, 129, 137, 192, 168
-0.992588, 177, 173, 240, 204
-0.992601, 81, 65, 144, 96
-0.992605, 273, 77, 336, 108
-0.992606, 121, 21, 184, 52
-0.992614, 17, 177, 144, 240
-0.992615, 209, 225, 272, 256
-0.992616, 265, 161, 328, 192
-0.992626, 289, 125, 320, 156
-0.992638, 129, 273, 384, 336
-0.992653, 305, 141, 368, 172
-0.992655, 169, 121, 232, 152
-0.992665, 17, 121, 80, 152
-0.99267, 57, 89, 120, 120
-0.992683, 305, 117, 368, 148
-0.99269, 129, 125, 192, 156
-0.992691, 105, 77, 136, 108
-0.992701, 9, 1, 72, 64
-0.992703, 145, 29, 208, 60
-0.992708, 201, 297, 264, 328
-0.992712, 129, 81, 160, 112
-0.99272, 241, 173, 272, 204
-0.992735, 73, 309, 136, 340
-0.992748, 1, 145, 64, 176
-0.992756, 281, 145, 312, 272
-0.992757, 269, 145, 300, 272
-0.992758, 97, 257, 160, 288
-0.992767, 145, 157, 208, 188
-0.99277, 185, 281, 248, 312
-0.992776, 249, 257, 312, 320
-0.992778, 201, 205, 264, 236
-0.992791, 273, 201, 336, 232
-0.992803, 173, 153, 204, 216
-0.992812, 261, 229, 292, 260
-0.99283, 233, 185, 264, 216
-0.992835, 97, 21, 160, 52
-0.992837, 117, 65, 148, 96
-0.992841, 273, 53, 336, 84
-0.992846, 253, 185, 284, 216
-0.992847, 121, 1, 184, 375
-0.992854, 57, 157, 120, 188
-0.992861, 273, 293, 336, 324
-0.992879, 169, 157, 232, 188
-0.992883, 117, 77, 148, 108
-0.992889, 249, 149, 280, 180
-0.992891, 273, 65, 336, 96
-0.992895, 81, 9, 208, 72
-0.992895, 273, 265, 336, 296
-0.992905, 113, 161, 176, 192
-0.992922, 129, 185, 192, 216
-0.992929, 161, 281, 224, 312
-0.992929, 289, 249, 416, 312
-0.992934, 157, 281, 188, 344
-0.992936, 85, 177, 116, 304
-0.992949, 133, 65, 164, 96
-0.99295, 161, 61, 224, 92
-0.992952, 101, 33, 132, 96
-0.992966, 305, 121, 336, 152
-0.992971, 49, 33, 112, 64
-0.992973, 153, 181, 216, 212
-0.992975, 149, 305, 180, 368
-0.992976, 233, 161, 264, 192
-0.992979, 101, 65, 132, 96
-0.992982, 277, 121, 308, 152
-0.992985, 233, 201, 264, 264
-0.992989, 285, 137, 316, 168
-0.992999, 261, 161, 292, 192
-0.993011, 185, 325, 248, 356
-0.993012, 153, 133, 216, 164
-0.993015, 97, 245, 160, 276
-0.993015, 245, 241, 276, 272
-0.993027, 273, 189, 336, 220
-0.993031, 105, 217, 136, 280
-0.993035, 229, 149, 260, 180
-0.993037, 33, 129, 288, 192
-0.993041, 225, 105, 256, 168
-0.993044, 249, 317, 312, 348
-0.993052, 313, 205, 376, 236
-0.993052, 225, 289, 288, 320
-0.99306, 109, 97, 140, 128
-0.993065, 253, 253, 284, 284
-0.993076, 117, 301, 148, 332
-0.99308, 105, 281, 168, 312
-0.993085, 97, 233, 160, 264
-0.993091, 97, 213, 160, 244
-0.993097, 129, 93, 160, 124
-0.993099, 145, 13, 208, 44
-0.993111, 49, 133, 80, 164
-0.993116, 273, 9, 336, 72
-0.993117, 305, 221, 368, 252
-0.993131, 265, 253, 296, 284
-0.993133, 273, 33, 336, 64
-0.993133, 261, 149, 292, 180
-0.99314, 77, 141, 108, 172
-0.993142, 305, 89, 368, 152
-0.993149, 273, 21, 336, 52
-0.99316, 49, 69, 112, 100
-0.993161, 269, 241, 300, 272
-0.993163, 277, 97, 308, 160
-0.993168, 169, 49, 200, 176
-0.99317, 97, 149, 128, 180
-0.993171, 49, 21, 112, 52
-0.993179, 297, 141, 328, 172
-0.99318, 221, 201, 252, 232
-0.993184, 273, 277, 336, 308
-0.993185, 265, 181, 296, 212
-0.993198, 57, 193, 120, 224
-0.993201, 81, 33, 144, 64
-0.993201, 153, 173, 184, 204
-0.993202, 105, 125, 168, 156
-0.993206, 233, 57, 296, 88
-0.99321, 297, 157, 360, 188
-0.993211, 141, 93, 172, 124
-0.99322, 229, 173, 260, 204
-0.993226, 225, 301, 288, 332
-0.993227, 313, 105, 376, 136
-0.993233, 225, 125, 256, 156
-0.993235, 101, 173, 132, 204
-0.993239, 133, 177, 164, 208
-0.993249, 201, 165, 232, 196
-0.993266, 257, 217, 288, 248
-0.993269, 249, 229, 280, 260
-0.993271, 297, 109, 328, 140
-0.993273, 177, 169, 208, 200
-0.993277, 161, 153, 416, 216
-0.993281, 149, 81, 180, 112
-0.993287, 261, 113, 292, 144
-0.993289, 221, 189, 252, 220
-0.993292, 317, 121, 348, 152
-0.993293, 25, 1, 88, 375
-0.993293, 233, 113, 264, 144
-0.993299, 17, 133, 48, 164
-0.9933, 233, 337, 264, 368
-0.993309, 33, 129, 64, 160
-0.993309, 205, 297, 236, 328
-0.993315, 301, 321, 332, 352
-0.993315, 237, 197, 268, 228
-0.993318, 165, 169, 196, 200
-0.993319, 217, 177, 248, 208
-0.993332, 97, 89, 128, 120
-0.993338, 93, 137, 124, 168
-0.993341, 117, 321, 148, 352
-0.993344, 209, 133, 240, 164
-0.99335, 1, 137, 32, 168
-0.993352, 125, 105, 156, 136
-0.993353, 189, 273, 220, 336
-0.993367, 153, 49, 184, 176
-0.993372, 113, 289, 144, 320
-0.993374, 321, 309, 352, 340
-0.993377, 281, 241, 312, 272
-0.993379, 273, 149, 304, 180
-0.993386, 93, 77, 124, 108
-0.993389, 149, 185, 180, 216
-0.993389, 129, 317, 160, 348
-0.993397, 273, 137, 304, 168
-0.993397, 65, 137, 96, 168
-0.993406, 217, 165, 248, 196
-0.993407, 149, 57, 180, 88
-0.993411, 101, 309, 132, 340
-0.993413, 233, 209, 264, 240
-0.993414, 217, 153, 248, 184
-0.993418, 129, 33, 160, 64
-0.993418, 189, 121, 220, 184
-0.993423, 109, 33, 140, 64
-0.993433, 141, 313, 172, 344
-0.993443, 253, 197, 284, 228
-0.993447, 185, 157, 216, 188
-0.993448, 337, 133, 368, 164
-0.993448, 137, 189, 168, 220
-0.993449, 113, 269, 144, 300
-0.993453, 285, 149, 316, 180
-0.993454, 113, 177, 144, 208
-0.993454, 133, 45, 164, 76
-0.993456, 245, 117, 276, 148
-0.993458, 97, 105, 128, 136
-0.993461, 45, 121, 76, 152
-0.993467, 165, 305, 196, 336
-0.993467, 273, 165, 304, 196
-0.993469, 181, 181, 212, 212
-0.993469, 289, 329, 320, 360
-0.993476, 153, 309, 184, 340
-0.993477, 233, 137, 264, 168
-0.99348, 325, 297, 356, 328
-0.993483, 165, 181, 196, 212
-0.993485, 97, 161, 128, 192
-0.993486, 261, 333, 292, 364
-0.993489, 109, 241, 140, 272
-0.993495, 101, 201, 132, 232
-0.993496, 273, 109, 304, 140
-0.993499, 237, 241, 268, 368
-0.9935, 165, 121, 196, 152
-0.993506, 277, 329, 308, 360
-0.993509, 309, 109, 340, 140
-0.99351, 209, 117, 240, 148
-0.993513, 105, 213, 136, 244
-0.993513, 141, 165, 172, 196
-0.993513, 265, 197, 296, 228
-0.993515, 105, 129, 136, 160
-0.993522, 61, 121, 92, 152
-0.993522, 133, 297, 164, 328
-0.993525, 229, 325, 260, 356
-0.993528, 205, 185, 236, 216
-0.993531, 185, 301, 216, 332
-0.993532, 161, 157, 192, 188
-0.993532, 81, 153, 112, 184
-0.993533, 105, 229, 136, 260
-0.993535, 241, 253, 272, 284
-0.993535, 225, 301, 256, 332
-0.993542, 245, 129, 276, 160
-0.993543, 109, 253, 140, 284
-0.993543, 129, 97, 192, 352
-0.993545, 129, 21, 160, 52
-0.993551, 149, 69, 180, 100
-0.993552, 185, 121, 216, 152
-0.993561, 97, 289, 128, 320
-0.993598, 185, 17, 248, 80
-0.9936, 257, 281, 384, 344
-0.993628, 173, 281, 204, 344
-0.993641, 157, 161, 188, 224
-0.993654, 345, 145, 408, 208
-0.993669, 137, 113, 168, 240
-0.993677, 97, 1, 128, 128
-0.99369, 125, 105, 156, 168
-0.993715, 117, 161, 148, 224
-0.993744, 101, 193, 132, 256
-0.993773, 233, 193, 264, 320
-0.993775, 305, 281, 336, 344
-0.993801, 249, 1, 312, 375
-0.99381, 133, 289, 164, 352
-0.99383, 161, 177, 224, 240
-0.993886, 129, 185, 384, 248
-0.993894, 321, 161, 448, 224
-0.993935, 255, 153, 270, 216
-0.993954, 273, 73, 400, 136
-0.993957, 109, 241, 140, 304
-0.99398, 281, 225, 312, 288
-0.993992, 33, 177, 288, 240
-0.993994, 305, 41, 368, 104
-0.994028, 261, 153, 276, 216
-0.994103, 321, 65, 448, 192
-0.994115, 209, 97, 240, 160
-0.994133, 161, 33, 224, 96
-0.99414, 193, 129, 256, 375
-0.994157, 317, 305, 348, 368
-0.994208, 173, 129, 204, 192
-0.994292, 117, 265, 148, 328
-0.994378, 201, 153, 232, 216
-0.994381, 289, 33, 416, 96
-0.994551, 269, 49, 300, 176
-0.994568, 105, 225, 136, 352
-0.994569, 105, 305, 136, 368
-0.994571, 53, 105, 84, 168
-0.994629, 129, 161, 160, 224
-0.994662, 305, 17, 368, 80
-0.99468, 33, 1, 96, 256
-0.994682, 1, 57, 256, 120
-0.994693, 225, 121, 352, 152
-0.994705, 321, 305, 384, 368
-0.994716, 153, 129, 184, 192
-0.994716, 217, 81, 280, 144
-0.994749, 113, 137, 144, 200
-0.994752, 93, 225, 124, 352
-0.994776, 313, 249, 376, 312
-0.994822, 209, 49, 272, 112
-0.994834, 45, 129, 76, 192
-0.994847, 229, 49, 260, 176
-0.994894, 301, 313, 332, 375
-0.994914, 1, 133, 128, 164
-0.994941, 193, 313, 448, 375
-0.994956, 145, 249, 272, 312
-0.994964, 149, 33, 180, 96
-0.994984, 299, 121, 314, 184
-0.995016, 209, 177, 240, 240
-0.995031, 17, 225, 144, 288
-0.995032, 189, 33, 220, 160
-0.995064, 329, 177, 360, 240
-0.995094, 305, 65, 368, 128
-0.995109, 161, 105, 416, 168
-0.995118, 49, 81, 176, 112
-0.995137, 17, 81, 80, 144
-0.995148, 289, 1, 416, 64
-0.995207, 37, 17, 68, 144
-0.995209, 1, 121, 500, 184
-0.995229, 1, 33, 256, 96
-0.995241, 277, 241, 308, 368
-0.99525, 313, 1, 376, 128
-0.995281, 57, 49, 88, 176
-0.995283, 417, 313, 480, 375
-0.995283, 129, 225, 160, 352
-0.995285, 333, 161, 364, 288
-0.995323, 141, 161, 172, 224
-0.995346, 161, 305, 192, 368
-0.995366, 289, 113, 304, 176
-0.995463, 97, 177, 128, 304
-0.995471, 141, 17, 172, 144
-0.995476, 209, 193, 240, 320
-0.995507, 141, 137, 172, 200
-0.995521, 267, 161, 282, 224
-0.995559, 317, 33, 348, 160
-0.995561, 33, 65, 160, 96
-0.995571, 17, 201, 144, 264
-0.995572, 97, 249, 352, 312
-0.995586, 105, 105, 136, 168
-0.995586, 189, 161, 220, 224
-0.995592, 97, 73, 352, 136
-0.995628, 153, 1, 184, 128
-0.995647, 225, 241, 256, 368
-0.995653, 9, 129, 40, 192
-0.9957, 129, 209, 256, 272
-0.995707, 241, 169, 368, 200
-0.995714, 193, 133, 320, 164
-0.995778, 241, 141, 368, 172
-0.995792, 369, 305, 496, 368
-0.995854, 129, 305, 256, 336
-0.995859, 113, 61, 240, 92
-0.995869, 251, 177, 266, 240
-0.99587, 1, 305, 256, 368
-0.995875, 125, 57, 140, 120
-0.995897, 321, 121, 352, 184
-0.995912, 109, 57, 124, 120
-0.995912, 263, 185, 278, 248
-0.995914, 89, 217, 120, 280
-0.995943, 145, 281, 176, 344
-0.995953, 309, 89, 340, 152
-0.995954, 225, 253, 352, 284
-0.995966, 137, 257, 200, 320
-0.996002, 135, 57, 150, 120
-0.996008, 121, 161, 152, 288
-0.996044, 225, 193, 352, 224
-0.996067, 241, 237, 368, 268
-0.996148, 245, 305, 276, 368
-0.996166, 305, 129, 320, 192
-0.996183, 245, 201, 276, 264
-0.996197, 161, 129, 224, 375
-0.99622, 85, 177, 116, 240
-0.996222, 93, 249, 124, 312
-0.996241, 161, 57, 192, 120
-0.996241, 161, 177, 288, 208
-0.996268, 129, 33, 384, 96
-0.996279, 1, 281, 500, 344
-0.996284, 241, 157, 368, 188
-0.996297, 73, 81, 104, 208
-0.996321, 105, 81, 120, 144
-0.996326, 227, 121, 242, 184
-0.996328, 117, 81, 132, 144
-0.996337, 257, 305, 288, 368
-0.996349, 161, 157, 288, 188
-0.996361, 89, 137, 104, 200
-0.996363, 97, 289, 224, 320
-0.996371, 137, 185, 200, 248
-0.996376, 85, 73, 116, 136
-0.996393, 249, 153, 264, 216
-0.996404, 129, 225, 384, 288
-0.99644, 277, 193, 292, 256
-0.996456, 257, 185, 272, 248
-0.996514, 33, 129, 64, 192
-0.996521, 225, 109, 352, 140
-0.996532, 273, 129, 400, 160
-0.996536, 259, 225, 274, 288
-0.996538, 141, 57, 156, 120
-0.996542, 209, 329, 336, 360
-0.996545, 115, 57, 130, 120
-0.996558, 205, 265, 236, 328
-0.996593, 273, 153, 288, 216
-0.996609, 257, 145, 500, 208
-0.996613, 231, 153, 246, 216
-0.99663, 281, 201, 312, 264
-0.996639, 469, 289, 500, 352
-0.996639, 271, 225, 286, 288
-0.996639, 1, 9, 256, 72
-0.996646, 385, 313, 448, 375
-0.996659, 241, 181, 368, 212
-0.996667, 337, 113, 464, 176
-0.996676, 139, 97, 154, 160
-0.99669, 225, 213, 352, 244
-0.996704, 33, 97, 160, 128
-0.996714, 313, 241, 344, 368
-0.996719, 49, 45, 176, 76
-0.996738, 253, 129, 268, 192
-0.996764, 65, 145, 192, 176
-0.996773, 113, 73, 240, 104
-0.996779, 313, 1, 376, 375
-0.996779, 225, 177, 480, 240
-0.996783, 113, 133, 240, 164
-0.996797, 169, 33, 200, 96
-0.996799, 259, 121, 274, 184
-0.996809, 1, 145, 500, 208
-0.996812, 125, 81, 140, 144
-0.996816, 313, 105, 328, 168
-0.996824, 121, 281, 136, 344
-0.996832, 177, 241, 304, 272
-0.99685, 49, 33, 176, 64
-0.996858, 193, 313, 320, 344
-0.996866, 321, 185, 448, 248
-0.996887, 193, 73, 256, 136
-0.996888, 277, 217, 292, 280
-0.996892, 129, 9, 384, 72
-0.996919, 341, 153, 372, 216
-0.996923, 9, 113, 40, 240
-0.996926, 257, 289, 500, 352
-0.99693, 113, 93, 240, 124
-0.996931, 301, 225, 332, 288
-0.996934, 325, 225, 356, 352
-0.996935, 177, 177, 208, 240
-0.996952, 255, 157, 270, 188
-0.996952, 181, 57, 212, 120
-0.99696, 161, 105, 192, 168
-0.996963, 193, 145, 320, 176
-0.996974, 289, 313, 320, 375
-0.996975, 177, 121, 304, 152
-0.996976, 161, 249, 224, 312
-0.996984, 241, 225, 368, 256
-0.996984, 81, 181, 208, 212
-0.996985, 185, 297, 216, 360
-0.996995, 147, 57, 162, 120
-0.996999, 337, 137, 464, 200
-0.997006, 225, 297, 352, 328
-0.997016, 289, 313, 416, 344
-0.997025, 193, 209, 224, 336
-0.997041, 291, 137, 306, 200
-0.997073, 107, 105, 122, 168
-0.997079, 281, 193, 312, 320
-0.997083, 33, 21, 160, 52
-0.997084, 225, 61, 352, 92
-0.997096, 33, 121, 160, 152
-0.997103, 1, 241, 500, 304
-0.997125, 233, 177, 248, 240
-0.997136, 103, 57, 118, 120
-0.997142, 41, 81, 72, 144
-0.997156, 131, 97, 146, 160
-0.997164, 301, 97, 316, 160
-0.997173, 81, 169, 208, 200
-0.997174, 111, 81, 126, 144
-0.997188, 99, 129, 114, 192
-0.997193, 303, 125, 318, 156
-0.997214, 261, 241, 276, 272
-0.997242, 213, 57, 244, 120
-0.997244, 283, 217, 298, 280
-0.997245, 261, 169, 276, 200
-0.997254, 129, 297, 144, 360
-0.997257, 41, 113, 72, 240
-0.997261, 245, 177, 260, 240
-0.997291, 1, 9, 500, 72
-0.997292, 33, 209, 288, 272
-0.997303, 269, 185, 284, 248
-0.997308, 261, 257, 292, 320
-0.997309, 243, 153, 258, 216
-0.997314, 213, 313, 244, 375
-0.997316, 225, 145, 240, 208
-0.99732, 297, 81, 328, 144
-0.997327, 319, 209, 334, 272
-0.997343, 233, 113, 248, 176
-0.997344, 129, 317, 256, 348
-0.99735, 1, 305, 500, 368
-0.997353, 1, 145, 128, 176
-0.997358, 261, 157, 276, 188
-0.997361, 113, 121, 240, 152
-0.997384, 257, 249, 500, 312
-0.997384, 135, 289, 150, 352
-0.997396, 255, 169, 270, 200
-0.997401, 225, 93, 352, 124
-0.997407, 135, 33, 150, 96
-0.997408, 265, 233, 280, 296
-0.997421, 277, 241, 292, 304
-0.997423, 49, 109, 176, 140
-0.997428, 1, 97, 500, 160
-0.997433, 117, 33, 132, 96
-0.997436, 219, 145, 234, 208
-0.997453, 161, 209, 224, 272
-0.997476, 193, 229, 320, 260
-0.997494, 177, 241, 208, 368
-0.997495, 267, 241, 282, 272
-0.997497, 81, 309, 208, 340
-0.997501, 265, 89, 296, 152
-0.997515, 239, 185, 254, 248
-0.997517, 257, 325, 384, 356
-0.997523, 283, 145, 298, 208
-0.997542, 257, 49, 288, 176
-0.997542, 177, 297, 304, 328
-0.997543, 221, 169, 236, 232
-0.997548, 105, 169, 120, 232
-0.997551, 113, 105, 128, 168
-0.997553, 141, 33, 156, 96
-0.997564, 345, 121, 408, 184
-0.997569, 283, 113, 298, 176
-0.997605, 197, 297, 228, 360
-0.997621, 81, 197, 208, 228
-0.99763, 123, 33, 138, 96
-0.997651, 109, 145, 124, 208
-0.997652, 65, 157, 192, 188
-0.997657, 369, 281, 496, 344
-0.997658, 93, 281, 124, 344
-0.99767, 59, 121, 74, 184
-0.997671, 337, 113, 464, 240
-0.997686, 111, 281, 126, 344
-0.99769, 145, 145, 272, 176
-0.997694, 119, 313, 134, 375
-0.997706, 95, 153, 110, 216
-0.997717, 49, 297, 176, 328
-0.997718, 81, 113, 112, 176
-0.997718, 1, 41, 500, 104
-0.997726, 33, 273, 288, 336
-0.997726, 177, 253, 304, 284
-0.997727, 247, 209, 262, 272
-0.997731, 177, 217, 304, 248
-0.997734, 71, 129, 86, 192
-0.997753, 129, 33, 144, 96
-0.997756, 119, 137, 134, 200
-0.997759, 297, 125, 312, 156
-0.997761, 213, 129, 228, 192
-0.997763, 273, 117, 400, 148
-0.997765, 65, 133, 192, 164
-0.997768, 37, 33, 68, 96
-0.997769, 225, 285, 352, 316
-0.997772, 55, 97, 70, 160
-0.997777, 299, 137, 314, 168
-0.99778, 217, 289, 232, 352
-0.997785, 259, 229, 274, 260
-0.997792, 253, 225, 268, 288
-0.997793, 225, 49, 352, 80
-0.997794, 1, 209, 500, 272
-0.997806, 225, 73, 352, 104
-0.997808, 141, 241, 172, 368
-0.997809, 99, 105, 114, 168
-0.99781, 135, 313, 150, 375
-0.997815, 273, 241, 288, 272
-0.99782, 109, 77, 124, 108
-0.997824, 153, 81, 184, 144
-0.997837, 161, 189, 288, 220
-0.997839, 145, 81, 160, 144
-0.997849, 291, 121, 306, 152
-0.997857, 271, 121, 286, 184
-0.997858, 129, 77, 144, 108
-0.997858, 319, 281, 334, 344
-0.997861, 155, 305, 170, 368
-0.997864, 85, 129, 116, 375
-0.997867, 109, 9, 140, 72
-0.997868, 433, 289, 496, 352
-0.99787, 145, 105, 272, 136
-0.997871, 183, 281, 198, 344
-0.997874, 261, 185, 276, 216
-0.997889, 141, 313, 156, 375
-0.9979, 169, 129, 184, 192
-0.997907, 317, 281, 348, 344
-0.997908, 245, 121, 260, 184
-0.997911, 245, 173, 260, 204
-0.997913, 135, 65, 150, 96
-0.997915, 231, 297, 246, 360
-0.997922, 205, 161, 220, 224
-0.997923, 97, 45, 224, 76
-0.997928, 97, 193, 112, 256
-0.99793, 253, 65, 284, 320
-0.997933, 169, 281, 184, 344
-0.997938, 99, 81, 114, 144
-0.99794, 141, 81, 156, 112
-0.997942, 135, 77, 150, 108
-0.997953, 257, 209, 500, 272
-0.997957, 65, 129, 80, 192
-0.997961, 145, 329, 272, 360
-0.997961, 161, 57, 288, 88
-0.997968, 319, 305, 334, 368
-0.997969, 1, 185, 500, 248
-0.997973, 257, 113, 500, 176
-0.997977, 173, 161, 188, 224
-0.99798, 259, 249, 274, 312
-0.997984, 181, 25, 212, 88
-0.997985, 347, 129, 362, 192
-0.997992, 345, 129, 376, 256
-0.997992, 161, 281, 176, 344
-0.997998, 37, 57, 68, 120
-0.998001, 17, 313, 144, 375
-0.998004, 235, 189, 250, 220
-0.998005, 271, 181, 286, 212
-0.998012, 77, 137, 92, 200
-0.998031, 277, 297, 308, 360
-0.998044, 101, 33, 132, 288
-0.998044, 103, 33, 118, 96
-0.998045, 107, 65, 122, 96
-0.998054, 81, 269, 208, 300
-0.998057, 255, 241, 270, 272
-0.998061, 277, 113, 292, 176
-0.998062, 141, 289, 156, 352
-0.998067, 117, 65, 132, 96
-0.998074, 101, 225, 116, 288
-0.998077, 273, 193, 400, 224
-0.998078, 189, 273, 204, 336
-0.998091, 125, 65, 140, 96
-0.998091, 33, 1, 64, 64
-0.998103, 149, 305, 164, 368
-0.99811, 131, 93, 146, 124
-0.998128, 265, 209, 280, 272
-0.998133, 1, 77, 128, 108
-0.99814, 193, 1, 256, 128
-0.998148, 169, 161, 200, 288
-0.998149, 117, 257, 132, 320
-0.998156, 225, 29, 352, 60
-0.998156, 319, 113, 334, 176
-0.998161, 203, 121, 218, 184
-0.998164, 257, 1, 500, 64
-0.998165, 33, 1, 160, 32
-0.998166, 253, 185, 268, 216
-0.998173, 179, 137, 194, 200
-0.998176, 123, 77, 138, 108
-0.998178, 293, 141, 308, 172
-0.998179, 157, 49, 172, 112
-0.998185, 305, 141, 320, 172
-0.998193, 221, 113, 236, 176
-0.998197, 83, 137, 98, 200
-0.998211, 189, 161, 204, 224
-0.998223, 171, 57, 186, 120
-0.998227, 11, 129, 26, 192
-0.998229, 271, 153, 286, 184
-0.998236, 101, 65, 116, 96
-0.998245, 273, 229, 288, 260
-0.998251, 203, 273, 218, 336
-0.998253, 229, 193, 244, 224
-0.998254, 225, 17, 352, 48
-0.998255, 121, 161, 136, 224
-0.99826, 253, 229, 268, 260
-0.998261, 233, 33, 264, 288
-0.998263, 145, 65, 160, 96
-0.998269, 177, 201, 304, 232
-0.99827, 239, 129, 254, 192
-0.998273, 197, 273, 212, 336
-0.998275, 161, 305, 176, 368
-0.99828, 143, 169, 158, 232
-0.998284, 105, 249, 120, 312
-0.998289, 271, 165, 286, 196
-0.998292, 99, 137, 114, 168
-0.998295, 121, 145, 152, 160
-0.998295, 285, 151, 316, 166
-0.998295, 33, 133, 64, 148
-0.998295, 165, 163, 196, 178
-0.998295, 149, 93, 180, 108
-0.998295, 209, 155, 240, 170
-0.998295, 173, 169, 204, 184
-0.998296, 273, 253, 304, 268
-0.998296, 229, 211, 260, 226
-0.998296, 101, 203, 132, 218
-0.998298, 277, 127, 308, 142
-0.998298, 145, 99, 176, 114
-0.9983, 185, 159, 216, 174
-0.9983, 197, 299, 228, 314
-0.998301, 113, 295, 144, 310
-0.998301, 77, 149, 108, 164
-0.998302, 237, 305, 252, 368
-0.998303, 253, 221, 284, 236
-0.998303, 117, 105, 148, 120
-0.998304, 97, 165, 128, 180
-0.998305, 117, 85, 148, 100
-0.998305, 269, 143, 300, 158
-0.998306, 173, 305, 204, 320
-0.998307, 181, 175, 212, 190
-0.998307, 1, 145, 32, 160
-0.998307, 105, 37, 136, 52
-0.998308, 127, 273, 142, 336
-0.998309, 225, 129, 256, 144
-0.998309, 301, 325, 332, 340
-0.998309, 193, 131, 224, 146
-0.998309, 113, 303, 144, 318
-0.99831, 197, 157, 228, 172
-0.99831, 225, 145, 256, 160
-0.998311, 149, 313, 180, 328
-0.998311, 261, 193, 292, 208
-0.998311, 277, 333, 308, 348
-0.998312, 161, 131, 192, 146
-0.998312, 133, 317, 164, 332
-0.998313, 105, 105, 136, 120
-0.998313, 167, 105, 182, 168
-0.998315, 141, 87, 172, 102
-0.998315, 161, 171, 192, 186
-0.998315, 265, 227, 296, 242
-0.998316, 117, 35, 148, 50
-0.998319, 45, 131, 76, 146
-0.998319, 101, 69, 132, 84
-0.998319, 161, 309, 192, 324
-0.99832, 99, 149, 114, 180
-0.998321, 33, 169, 160, 200
-0.998321, 261, 113, 292, 128
-0.998321, 237, 247, 268, 262
-0.998322, 265, 253, 280, 284
-0.998323, 233, 339, 264, 354
-0.998324, 225, 137, 256, 152
-0.998325, 229, 157, 260, 172
-0.998326, 133, 161, 148, 224
-0.998326, 101, 99, 132, 114
-0.998327, 269, 175, 300, 190
-0.998327, 121, 319, 152, 334
-0.998328, 305, 127, 336, 142
-0.998328, 149, 173, 180, 188
-0.998328, 141, 139, 172, 154
-0.99833, 253, 199, 284, 214
-0.998332, 217, 185, 248, 200
-0.998333, 261, 155, 292, 170
-0.998333, 201, 175, 232, 190
-0.998333, 115, 77, 130, 108
-0.998334, 33, 309, 160, 340
-0.998334, 221, 179, 252, 194
-0.998334, 173, 133, 204, 148
-0.998338, 265, 187, 296, 202
-0.998338, 289, 329, 320, 344
-0.998338, 97, 157, 128, 172
-0.998339, 97, 93, 128, 108
-0.998339, 139, 97, 154, 128
-0.99834, 347, 161, 362, 224
-0.998341, 185, 183, 216, 198
-0.998341, 241, 209, 272, 224
-0.998343, 197, 121, 212, 184
-0.998343, 243, 297, 258, 360
-0.998345, 297, 117, 328, 132
-0.998345, 241, 309, 368, 340
-0.998346, 137, 185, 168, 200
-0.998346, 105, 149, 136, 164
-0.998347, 249, 155, 280, 170
-0.998347, 113, 25, 240, 56
-0.998348, 209, 167, 240, 182
-0.998348, 101, 173, 132, 188
-0.998349, 153, 137, 184, 152
-0.99835, 225, 313, 240, 375
-0.99835, 121, 93, 136, 124
-0.99835, 313, 241, 328, 304
-0.998352, 305, 301, 432, 332
-0.998353, 161, 179, 192, 194
-0.998353, 117, 99, 148, 114
-0.998353, 233, 201, 264, 216
-0.998353, 149, 191, 180, 206
-0.998354, 161, 189, 192, 204
-0.998354, 221, 173, 252, 188
-0.998354, 237, 191, 268, 206
-0.998355, 113, 157, 240, 188
-0.998355, 133, 99, 164, 114
-0.998355, 149, 181, 180, 196
-0.998356, 249, 235, 280, 250
-0.998357, 105, 87, 136, 102
-0.998358, 129, 87, 160, 102
-0.998358, 253, 257, 284, 272
-0.998358, 117, 313, 148, 328
-0.998358, 297, 145, 328, 160
-0.998359, 233, 121, 264, 136
-0.998361, 185, 249, 248, 312
-0.998362, 261, 169, 292, 184
-0.998362, 261, 119, 292, 134
-0.998363, 253, 229, 284, 244
-0.998363, 221, 129, 252, 375
-0.998366, 173, 185, 204, 200
-0.998366, 217, 205, 248, 220
-0.998366, 109, 143, 140, 158
-0.998366, 325, 311, 356, 326
-0.998371, 133, 179, 164, 194
-0.998372, 261, 161, 292, 176
-0.998373, 209, 297, 240, 312
-0.998373, 73, 141, 104, 156
-0.998378, 57, 137, 88, 152
-0.998382, 225, 1, 352, 32
-0.998382, 257, 89, 500, 152
-0.998386, 117, 91, 148, 106
-0.998388, 249, 243, 280, 258
-0.99839, 261, 181, 292, 196
-0.99839, 281, 145, 312, 160
-0.998393, 209, 265, 336, 296
-0.998394, 289, 217, 416, 248
-0.9984, 1, 1, 64, 375
-0.998403, 93, 149, 124, 164
-0.998403, 261, 145, 276, 176
-0.998409, 181, 169, 196, 200
-0.998409, 277, 205, 292, 236
-0.99841, 293, 133, 324, 148
-0.99841, 249, 249, 280, 264
-0.99841, 321, 129, 352, 375
-0.998411, 87, 141, 102, 172
-0.998413, 233, 163, 264, 178
-0.998413, 289, 245, 416, 276
-0.998418, 279, 221, 294, 252
-0.998422, 273, 105, 400, 136
-0.998424, 117, 79, 148, 94
-0.998424, 273, 119, 304, 134
-0.998424, 293, 127, 324, 142
-0.998425, 309, 121, 340, 136
-0.998429, 237, 129, 268, 375
-0.998431, 285, 117, 300, 148
-0.998434, 233, 179, 264, 194
-0.998438, 297, 113, 312, 144
-0.998439, 285, 121, 316, 136
-0.998442, 119, 301, 134, 332
-0.998443, 105, 81, 136, 96
-0.998443, 93, 141, 124, 156
-0.998445, 233, 169, 264, 184
-0.998446, 129, 93, 160, 108
-0.998456, 133, 77, 164, 92
-0.998461, 253, 187, 284, 202
-0.998463, 309, 125, 324, 156
-0.998463, 37, 1, 68, 256
-0.998464, 237, 185, 268, 200
-0.99847, 257, 253, 272, 284
-0.998472, 289, 139, 320, 154
-0.998476, 261, 235, 292, 250
-0.998481, 185, 161, 216, 288
-0.998483, 227, 173, 242, 204
-0.998483, 29, 113, 60, 240
-0.998494, 147, 85, 162, 116
-0.998496, 81, 209, 208, 240
-0.998496, 217, 161, 280, 176
-0.9985, 241, 167, 304, 182
-0.998502, 229, 125, 244, 156
-0.998507, 225, 177, 288, 192
-0.998509, 281, 123, 344, 138
-0.998513, 97, 105, 224, 136
-0.998514, 101, 77, 116, 108
-0.998518, 289, 273, 416, 304
-0.998522, 289, 141, 416, 172
-0.998522, 249, 121, 312, 136
-0.998524, 273, 205, 400, 236
-0.998525, 273, 253, 288, 284
-0.998525, 305, 97, 336, 352
-0.998529, 241, 161, 304, 176
-0.998533, 97, 93, 160, 108
-0.998533, 279, 241, 294, 272
-0.998543, 169, 1, 200, 128
-0.998543, 261, 245, 292, 260
-0.998543, 113, 77, 176, 92
-0.998546, 145, 281, 272, 312
-0.998552, 217, 171, 280, 186
-0.998555, 249, 177, 280, 192
-0.998555, 217, 183, 280, 198
-0.998556, 161, 73, 288, 104
-0.998559, 261, 251, 292, 266
-0.998569, 313, 113, 328, 144
-0.99857, 249, 171, 280, 186
-0.998571, 345, 81, 408, 208
-0.998576, 185, 299, 248, 314
-0.998579, 1, 73, 500, 136
-0.998582, 161, 45, 288, 76
-0.998582, 33, 181, 160, 212
-0.998585, 273, 243, 336, 258
-0.998587, 233, 189, 296, 204
-0.998589, 209, 155, 272, 170
-0.998591, 249, 177, 312, 192
-0.998591, 97, 99, 160, 114
-0.998595, 103, 93, 118, 124
-0.998597, 81, 33, 112, 288
-0.998598, 249, 157, 264, 188
-0.998598, 49, 139, 112, 154
-0.998601, 297, 129, 360, 144
-0.998602, 59, 133, 74, 164
-0.998607, 241, 245, 304, 260
-0.998608, 257, 251, 320, 266
-0.998614, 233, 251, 296, 266
-0.998614, 265, 229, 280, 260
-0.998614, 249, 183, 312, 198
-0.998617, 129, 95, 192, 110
-0.998617, 81, 249, 208, 280
-0.998617, 287, 137, 302, 168
-0.99862, 157, 169, 172, 200
-0.998621, 89, 171, 152, 186
-0.998623, 81, 143, 144, 158
-0.998624, 105, 87, 168, 102
-0.998625, 273, 117, 336, 132
-0.998625, 177, 133, 240, 148
-0.998625, 25, 133, 88, 148
-0.998626, 89, 79, 152, 94
-0.998628, 257, 235, 320, 250
-0.998629, 149, 177, 164, 208
-0.998629, 305, 181, 432, 212
-0.998631, 241, 127, 304, 142
-0.998633, 201, 177, 264, 192
-0.998634, 101, 165, 116, 196
-0.998634, 233, 235, 296, 250
-0.998636, 105, 307, 168, 322
-0.998636, 105, 35, 168, 50
-0.998639, 113, 317, 176, 332
-0.998639, 97, 69, 160, 84
-0.998639, 121, 137, 184, 152
-0.99864, 265, 139, 328, 154
-0.99864, 257, 155, 320, 170
-0.998642, 81, 137, 144, 152
-0.998643, 1, 33, 128, 64
-0.998643, 225, 337, 288, 352
-0.998644, 57, 97, 88, 352
-0.998645, 249, 161, 280, 176
-0.998647, 227, 153, 242, 184
-0.998647, 97, 105, 160, 120
-0.998648, 209, 125, 272, 140
-0.998648, 129, 85, 192, 100
-0.998648, 305, 319, 368, 334
-0.998649, 217, 147, 280, 162
-0.99865, 221, 165, 236, 196
-0.99865, 241, 257, 304, 272
-0.998653, 305, 139, 368, 154
-0.998655, 81, 221, 208, 252
-0.998655, 89, 185, 152, 200
-0.998655, 237, 201, 252, 232
-0.998655, 265, 129, 328, 144
-0.998657, 273, 111, 336, 126
-0.998659, 233, 199, 296, 214
-0.99866, 249, 145, 264, 176
-0.998661, 241, 133, 304, 148
-0.998661, 241, 149, 304, 164
-0.998662, 105, 143, 168, 158
-0.998662, 257, 33, 500, 96
-0.998663, 209, 247, 272, 262
-0.998663, 249, 333, 312, 348
-0.998663, 89, 149, 152, 164
-0.998664, 1, 53, 128, 84
-0.998664, 241, 229, 304, 244
-0.998665, 215, 165, 230, 196
-0.998666, 89, 195, 152, 210
-0.998667, 89, 177, 152, 192
-0.998667, 135, 317, 150, 348
-0.998667, 121, 321, 136, 352
-0.998667, 273, 229, 336, 244
-0.998668, 57, 75, 120, 90
-0.998668, 197, 169, 212, 200
-0.998668, 1, 137, 64, 152
-0.998669, 121, 101, 184, 116
-0.998673, 153, 169, 216, 184
-0.998673, 105, 43, 168, 58
-0.998674, 225, 329, 288, 344
-0.998674, 249, 115, 312, 130
-0.998674, 81, 237, 208, 268
-0.998675, 217, 131, 280, 146
-0.998676, 193, 183, 256, 198
-0.998676, 273, 257, 336, 272
-0.998677, 169, 161, 232, 176
-0.998677, 153, 307, 216, 322
-0.998678, 265, 167, 328, 182
-0.998679, 89, 163, 152, 178
-0.998679, 121, 173, 184, 188
-0.998681, 279, 193, 294, 224
-0.998681, 57, 99, 120, 114
-0.998683, 217, 137, 280, 152
-0.998683, 185, 167, 248, 182
-0.998685, 145, 133, 208, 148
-0.998685, 137, 57, 200, 72
-0.998686, 153, 127, 216, 142
-0.998688, 89, 313, 152, 328
-0.998689, 57, 89, 120, 104
-0.99869, 273, 93, 336, 108
-0.99869, 281, 327, 344, 342
-0.998691, 273, 103, 336, 118
-0.998693, 273, 223, 336, 238
-0.998693, 129, 179, 192, 194
-0.998694, 241, 141, 304, 156
-0.998694, 265, 161, 328, 176
-0.998695, 241, 223, 304, 238
-0.998695, 273, 217, 336, 232
-0.998696, 153, 183, 216, 198
-0.998697, 273, 87, 336, 102
-0.998697, 209, 189, 272, 204
-0.998697, 105, 297, 168, 312
-0.998698, 177, 305, 240, 320
-0.998698, 89, 205, 152, 220
-0.998698, 129, 105, 144, 136
-0.998698, 313, 311, 376, 326
-0.998698, 145, 33, 208, 48
-0.998698, 209, 199, 272, 214
-0.998699, 209, 255, 272, 270
-0.998699, 255, 145, 270, 176
-0.998699, 57, 169, 120, 184
-0.998701, 145, 77, 208, 92
-0.998701, 137, 313, 200, 328
-0.998701, 57, 149, 120, 164
-0.998702, 145, 43, 208, 58
-0.998702, 217, 241, 280, 256
-0.998702, 185, 153, 248, 168
-0.998702, 257, 189, 320, 204
-0.998702, 289, 233, 416, 264
-0.998702, 9, 145, 72, 160
-0.998702, 57, 105, 120, 120
-0.998703, 185, 189, 248, 204
-0.998703, 129, 107, 192, 122
-0.998703, 289, 261, 416, 292
-0.998703, 153, 241, 184, 368
-0.998704, 113, 167, 176, 182
-0.998706, 81, 35, 144, 50
-0.998706, 225, 205, 288, 220
-0.998706, 145, 25, 208, 40
-0.998707, 161, 189, 224, 204
-0.998708, 305, 145, 368, 160
-0.998708, 193, 161, 256, 176
-0.998709, 201, 207, 264, 222
-0.99871, 89, 321, 152, 336
-0.998711, 201, 215, 264, 230
-0.998711, 273, 63, 336, 78
-0.998712, 233, 217, 296, 232
-0.998713, 141, 33, 156, 64
-0.998713, 131, 177, 146, 208
-0.998714, 235, 337, 250, 368
-0.998715, 133, 33, 148, 64
-0.998716, 151, 61, 166, 92
-0.998721, 143, 177, 158, 208
-0.998723, 259, 117, 274, 148
-0.998725, 57, 121, 72, 152
-0.998728, 1, 157, 128, 188
-0.998728, 241, 49, 272, 176
-0.998729, 119, 289, 134, 320
-0.998729, 251, 217, 266, 248
-0.998736, 241, 213, 256, 244
-0.998737, 115, 101, 130, 132
-0.998743, 247, 185, 262, 216
-0.998746, 105, 105, 120, 136
-0.998754, 257, 217, 272, 248
-0.998756, 269, 193, 284, 224
-0.998757, 237, 177, 252, 208
-0.998762, 263, 161, 278, 288
-0.998765, 123, 33, 138, 64
-0.998767, 243, 157, 258, 188
-0.998773, 321, 313, 336, 344
-0.998774, 173, 1, 204, 256
-0.998774, 121, 1, 152, 256
-0.998777, 5, 141, 20, 172
-0.99878, 241, 189, 256, 220
-0.99878, 133, 45, 148, 76
-0.99879, 235, 117, 250, 148
-0.99879, 319, 213, 334, 244
-0.998795, 257, 145, 272, 272
-0.998799, 1, 241, 256, 304
-0.998808, 321, 157, 448, 188
-0.998809, 209, 341, 336, 372
-0.998809, 153, 77, 168, 108
-0.998809, 251, 253, 266, 284
-0.99881, 231, 205, 246, 236
-0.998811, 279, 253, 294, 284
-0.998812, 133, 161, 164, 288
-0.998815, 203, 165, 218, 196
-0.99882, 17, 281, 144, 312
-0.998822, 163, 177, 178, 208
-0.998824, 247, 205, 262, 236
-0.998827, 161, 85, 288, 116
-0.99883, 129, 317, 144, 348
-0.99883, 333, 129, 364, 375
-0.998833, 349, 137, 364, 168
-0.998838, 205, 33, 236, 288
-0.998843, 221, 285, 236, 316
-0.998846, 13, 137, 28, 168
-0.998852, 29, 133, 44, 164
-0.998852, 307, 321, 322, 352
-0.998853, 19, 133, 34, 164
-0.998854, 175, 173, 190, 204
-0.998858, 157, 181, 172, 212
-0.998859, 319, 121, 334, 152
-0.99886, 269, 217, 284, 248
-0.998862, 303, 113, 318, 144
-0.998868, 107, 149, 122, 180
-0.99887, 281, 145, 296, 176
-0.998872, 229, 337, 244, 368
-0.998874, 265, 65, 296, 320
-0.998878, 37, 129, 52, 160
-0.998884, 253, 121, 268, 152
-0.998885, 1, 97, 64, 352
-0.99889, 221, 153, 236, 184
-0.998894, 101, 129, 132, 375
-0.998898, 77, 137, 92, 168
-0.998919, 251, 161, 266, 288
-0.998934, 317, 33, 348, 288
-0.998947, 113, 129, 144, 375
-0.99896, 153, 161, 184, 288
-0.998976, 305, 285, 432, 316
-0.998982, 277, 97, 308, 352
-0.999037, 99, 81, 114, 208
-0.999039, 137, 33, 168, 288
-0.999043, 289, 41, 416, 72
-0.999043, 129, 341, 256, 372
-0.999056, 161, 29, 288, 60
-0.999059, 321, 169, 448, 200
-0.999061, 217, 25, 280, 88
-0.999083, 257, 97, 272, 224
-0.999088, 289, 1, 416, 32
-0.999088, 17, 257, 144, 288
-0.999091, 321, 129, 448, 160
-0.999094, 129, 201, 256, 232
-0.999114, 273, 53, 400, 84
-0.999114, 33, 193, 160, 224
-0.999117, 269, 161, 284, 288
-0.999122, 107, 97, 122, 224
-0.999125, 149, 1, 180, 256
-0.999142, 289, 81, 416, 112
-0.999162, 161, 193, 224, 320
-0.999167, 297, 161, 328, 288
-0.999168, 73, 129, 104, 375
-0.999178, 17, 237, 144, 268
-0.999183, 369, 313, 496, 344
-0.999189, 289, 69, 416, 100
-0.999191, 137, 81, 152, 208
-0.999199, 229, 113, 244, 240
-0.999202, 131, 81, 146, 208
-0.999203, 17, 213, 144, 244
-0.999209, 305, 93, 432, 124
-0.999215, 259, 209, 274, 336
-0.999218, 289, 29, 416, 60
-0.99922, 221, 33, 252, 288
-0.999229, 113, 81, 128, 208
-0.99923, 113, 13, 240, 44
-0.999232, 17, 225, 144, 256
-0.999243, 49, 1, 80, 256
-0.999243, 293, 97, 324, 352
-0.999244, 289, 17, 416, 48
-0.999244, 257, 57, 500, 120
-0.99925, 263, 113, 278, 240
-0.999258, 289, 97, 304, 224
-0.999273, 85, 17, 116, 144
-0.999283, 49, 325, 176, 356
-0.999288, 223, 113, 238, 240
-0.9993, 133, 33, 148, 160
-0.999302, 125, 129, 156, 375
-0.999308, 165, 225, 196, 352
-0.999308, 271, 97, 286, 224
-0.999315, 95, 129, 110, 256
-0.99933, 337, 141, 464, 172
-0.999336, 275, 177, 290, 304
-0.999349, 253, 241, 268, 368
-0.99935, 245, 129, 260, 256
-0.999352, 105, 49, 120, 176
-0.999356, 283, 97, 298, 224
-0.999358, 321, 117, 448, 148
-0.999358, 17, 269, 144, 300
-0.999358, 161, 1, 192, 256
-0.999369, 353, 241, 480, 368
-0.999375, 121, 241, 136, 368
-0.999381, 89, 129, 104, 256
-0.999389, 289, 241, 352, 304
-0.999395, 315, 241, 330, 368
-0.999405, 121, 33, 136, 160
-0.999407, 275, 241, 290, 368
-0.999409, 139, 33, 154, 160
-0.99941, 105, 145, 120, 272
-0.999411, 143, 81, 158, 208
-0.999412, 99, 177, 114, 304
-0.999415, 59, 97, 74, 224
-0.999421, 251, 113, 266, 240
-0.999422, 53, 65, 68, 192
-0.999424, 193, 1, 224, 256
-0.999436, 65, 113, 80, 240
-0.999441, 1, 289, 128, 352
-0.999447, 313, 65, 328, 192
-0.999449, 113, 177, 128, 304
-0.999457, 225, 1, 288, 64
-0.999461, 45, 97, 76, 352
-0.99947, 209, 129, 240, 375
-0.999475, 295, 113, 310, 240
-0.999476, 115, 33, 130, 160
-0.99948, 301, 97, 316, 224
-0.999481, 235, 113, 250, 240
-0.999486, 335, 113, 350, 240
-0.999492, 145, 33, 160, 160
-0.999499, 127, 33, 142, 160
-0.999501, 265, 241, 280, 368
-0.999502, 239, 161, 254, 288
-0.999509, 109, 241, 124, 368
-0.999511, 233, 125, 248, 140
-0.999511, 65, 137, 80, 152
-0.999511, 279, 213, 294, 228
-0.999512, 133, 177, 148, 192
-0.999512, 189, 167, 204, 182
-0.999512, 285, 147, 300, 162
-0.999513, 277, 229, 292, 244
-0.999513, 291, 127, 306, 142
-0.999514, 265, 259, 280, 274
-0.999514, 253, 255, 268, 270
-0.999514, 109, 95, 124, 110
-0.999515, 167, 133, 182, 148
-0.999515, 325, 113, 340, 240
-0.999515, 139, 179, 154, 194
-0.999516, 149, 137, 164, 152
-0.999516, 189, 181, 204, 196
-0.999517, 321, 193, 336, 320
-0.999517, 239, 193, 254, 208
-0.999517, 107, 143, 122, 158
-0.999518, 273, 259, 288, 274
-0.999519, 259, 229, 274, 244
-0.99952, 281, 119, 296, 134
-0.999521, 73, 129, 88, 256
-0.999521, 279, 201, 294, 216
-0.999521, 245, 157, 260, 172
-0.999521, 247, 225, 262, 240
-0.999522, 119, 37, 134, 52
-0.999522, 137, 105, 152, 120
-0.999523, 119, 301, 134, 316
-0.999523, 101, 99, 116, 114
-0.999523, 181, 169, 196, 184
-0.999524, 113, 147, 128, 162
-0.999524, 259, 121, 274, 136
-0.999524, 223, 167, 238, 182
-0.999524, 249, 209, 264, 224
-0.999525, 59, 135, 74, 150
-0.999527, 185, 133, 200, 148
-0.999527, 291, 147, 306, 162
-0.999528, 207, 113, 222, 240
-0.999529, 101, 79, 116, 94
-0.999529, 217, 167, 232, 182
-0.99953, 145, 93, 160, 108
-0.99953, 271, 155, 286, 170
-0.99953, 229, 171, 244, 186
-0.999531, 253, 227, 268, 242
-0.999532, 159, 135, 174, 150
-0.999532, 99, 157, 114, 172
-0.999533, 227, 65, 242, 192
-0.999533, 315, 321, 330, 336
-0.999534, 139, 85, 154, 100
-0.999536, 237, 205, 252, 220
-0.999537, 163, 97, 178, 224
-0.999537, 83, 129, 98, 256
-0.999537, 321, 123, 336, 138
-0.999537, 221, 175, 236, 190
-0.999537, 125, 81, 140, 208
-0.999538, 121, 323, 136, 338
-0.999539, 279, 207, 294, 222
-0.999541, 167, 139, 182, 154
-0.999541, 123, 85, 138, 100
-0.999541, 279, 253, 294, 268
-0.999542, 279, 219, 294, 234
-0.999543, 243, 219, 258, 234
-0.999543, 125, 35, 140, 50
-0.999543, 123, 99, 138, 114
-0.999545, 97, 143, 112, 158
-0.999547, 175, 133, 190, 148
-0.999548, 197, 129, 228, 375
-0.999548, 147, 87, 162, 102
-0.999549, 281, 225, 296, 352
-0.99955, 101, 69, 116, 84
-0.99955, 271, 177, 286, 192
-0.99955, 231, 181, 246, 196
-0.99955, 189, 113, 204, 240
-0.99955, 109, 1, 124, 128
-0.999551, 261, 155, 276, 170
-0.999552, 271, 163, 286, 178
-0.999555, 299, 119, 314, 134
-0.999557, 87, 143, 102, 158
-0.999557, 259, 257, 274, 272
-0.999558, 233, 1, 296, 128
-0.999559, 123, 79, 138, 94
-0.999559, 129, 79, 144, 94
-0.999559, 255, 155, 270, 170
-0.999559, 149, 81, 164, 208
-0.99956, 255, 183, 270, 198
-0.99956, 237, 187, 252, 202
-0.999561, 245, 163, 260, 178
-0.999561, 271, 169, 286, 184
-0.999561, 195, 97, 210, 224
-0.999561, 263, 179, 278, 194
-0.999563, 341, 113, 356, 240
-0.999563, 251, 65, 266, 192
-0.999564, 107, 149, 122, 164
-0.999565, 253, 175, 268, 190
-0.999565, 289, 141, 304, 156
-0.999565, 295, 139, 310, 154
-0.999566, 269, 189, 284, 204
-0.999567, 101, 169, 116, 184
-0.999568, 119, 81, 134, 208
-0.999569, 237, 211, 252, 226
-0.999569, 313, 121, 328, 136
-0.999569, 245, 171, 260, 186
-0.99957, 307, 139, 322, 154
-0.999572, 257, 235, 272, 250
-0.999574, 249, 187, 264, 202
-0.999576, 245, 81, 260, 208
-0.999577, 117, 79, 132, 94
-0.999579, 133, 99, 148, 114
-0.999579, 139, 91, 154, 106
-0.999579, 231, 205, 246, 220
-0.999579, 99, 151, 114, 166
-0.999582, 123, 93, 138, 108
-0.999585, 215, 97, 230, 224
-0.999587, 251, 247, 266, 262
-0.999587, 139, 97, 154, 112
-0.999588, 133, 89, 148, 104
-0.999589, 147, 77, 162, 92
-0.999591, 141, 79, 156, 94
-0.999593, 255, 189, 270, 204
-0.999594, 265, 237, 280, 252
-0.999596, 329, 97, 392, 160
-0.999597, 303, 147, 318, 162
-0.999599, 275, 235, 290, 250
-0.999599, 247, 209, 262, 336
-0.999601, 255, 241, 270, 256
-0.999603, 135, 77, 150, 92
-0.999603, 297, 133, 312, 148
-0.999604, 319, 113, 334, 240
-0.999607, 267, 245, 282, 260
-0.999607, 211, 193, 226, 320
-0.999611, 61, 1, 92, 256
-0.999617, 109, 79, 124, 94
-0.999617, 275, 245, 290, 260
-0.999618, 245, 181, 260, 196
-0.999619, 297, 145, 312, 160
-0.99962, 103, 1, 118, 128
-0.99962, 287, 119, 302, 134
-0.99962, 233, 193, 248, 208
-0.999621, 155, 49, 170, 176
-0.999621, 277, 129, 292, 256
-0.999622, 213, 17, 244, 144
-0.999622, 153, 129, 184, 375
-0.999622, 173, 113, 188, 240
-0.999625, 51, 17, 66, 144
-0.999625, 293, 121, 308, 136
-0.999626, 225, 201, 240, 216
-0.999627, 261, 171, 276, 186
-0.999627, 273, 251, 288, 266
-0.999628, 271, 183, 286, 198
-0.999629, 63, 49, 78, 176
-0.99963, 127, 241, 142, 368
-0.999631, 277, 81, 292, 208
-0.999632, 261, 189, 276, 204
-0.999635, 257, 249, 272, 264
-0.999636, 233, 65, 248, 192
-0.999637, 103, 225, 118, 352
-0.999638, 347, 113, 362, 240
-0.99964, 227, 193, 242, 320
-0.999641, 123, 145, 138, 272
-0.999642, 233, 177, 248, 304
-0.999643, 235, 199, 250, 214
-0.999648, 93, 65, 108, 192
-0.999653, 303, 133, 318, 148
-0.999653, 305, 1, 336, 256
-0.999654, 281, 177, 296, 304
-0.999654, 297, 127, 312, 142
-0.999663, 115, 225, 130, 352
-0.999664, 263, 65, 278, 192
-0.999666, 321, 33, 336, 160
-0.999666, 263, 251, 278, 266
-0.999667, 179, 113, 194, 240
-0.999669, 255, 169, 270, 184
-0.999672, 221, 65, 236, 192
-0.999675, 261, 243, 276, 258
-0.999677, 167, 49, 182, 176
-0.999678, 217, 145, 232, 272
-0.999678, 189, 1, 204, 128
-0.99968, 157, 113, 172, 240
-0.999681, 301, 139, 316, 154
-0.999682, 201, 97, 216, 224
-0.999685, 203, 49, 218, 176
-0.999687, 239, 65, 254, 192
-0.999691, 303, 125, 318, 140
-0.999697, 129, 161, 144, 288
-0.999701, 179, 49, 194, 176
-0.999703, 205, 241, 220, 368
-0.999704, 221, 193, 236, 320
-0.999705, 309, 113, 324, 240
-0.999707, 173, 49, 188, 176
-0.999709, 287, 49, 302, 176
-0.999709, 195, 17, 210, 144
-0.999711, 153, 1, 168, 128
-0.999714, 229, 241, 244, 368
-0.999716, 211, 241, 226, 368
-0.999718, 327, 177, 342, 304
-0.999718, 261, 161, 276, 176
-0.999719, 13, 113, 28, 240
-0.99972, 211, 49, 226, 176
-0.999721, 171, 161, 186, 288
-0.999721, 75, 81, 90, 208
-0.999722, 299, 49, 314, 176
-0.999722, 189, 49, 204, 176
-0.999723, 223, 241, 238, 368
-0.999725, 217, 241, 232, 368
-0.999728, 81, 81, 96, 208
-0.999731, 141, 129, 156, 256
-0.999733, 195, 241, 210, 368
-0.999734, 335, 161, 350, 288
-0.999734, 287, 161, 302, 288
-0.99974, 293, 49, 308, 176
-0.99974, 133, 225, 148, 352
-0.999742, 189, 241, 204, 368
-0.999742, 255, 161, 270, 176
-0.999743, 141, 241, 156, 368
-0.999745, 315, 193, 330, 320
-0.99975, 309, 225, 324, 352
-0.999761, 155, 241, 170, 368
-0.999763, 343, 161, 358, 288
-0.999767, 285, 49, 316, 176
-0.999807, 177, 129, 208, 375
-0.999854, 129, 193, 192, 320
-0.999876, 141, 129, 172, 375
-0.999895, 57, 1, 88, 128
-0.999936, 337, 1, 400, 375
-0.99994, 277, 1, 308, 256
-0.99999, 57, 225, 120, 352
-1.00001, 329, 33, 360, 288
-1.00008, 29, 97, 60, 352
-1.00014, 293, 1, 324, 256
-1.00025, 1, 97, 32, 352
-1.00025, 17, 97, 48, 352
-1.00028, 345, 129, 376, 375
-1.00032, 165, 129, 196, 375
-1.00044, 13, 1, 44, 256
-1.00051, 81, 1, 144, 64
-1.00057, 25, 1, 56, 256
-1.00071, 361, 313, 424, 375
-1.00074, 341, 33, 372, 288
-1.00074, 329, 33, 392, 288
-1.00076, 1, 1, 32, 256
-1.00085, 353, 1, 480, 64
-1.00091, 297, 17, 328, 144
-1.00096, 345, 289, 408, 352
-1.0011, 353, 33, 384, 288
-1.00111, 25, 65, 56, 192
-1.00115, 369, 249, 496, 312
-1.00123, 201, 17, 232, 144
-1.0013, 337, 89, 464, 152
-1.0013, 369, 129, 400, 375
-1.00131, 33, 33, 96, 160
-1.00141, 337, 129, 400, 375
-1.00142, 397, 129, 428, 375
-1.00143, 197, 161, 228, 288
-1.00154, 329, 65, 360, 192
-1.00157, 365, 33, 396, 288
-1.0016, 357, 129, 388, 375
-1.0016, 409, 129, 440, 375
-1.0016, 121, 209, 184, 272
-1.00162, 465, 129, 496, 375
-1.00163, 385, 129, 416, 375
-1.00163, 393, 33, 424, 288
-1.00165, 377, 33, 408, 288
-1.00165, 441, 129, 472, 375
-1.00167, 425, 129, 456, 375
-1.00169, 417, 1, 448, 256
-1.0017, 465, 1, 496, 256
-1.00172, 337, 33, 464, 96
-1.00172, 9, 65, 40, 192
-1.00172, 453, 1, 484, 256
-1.00174, 453, 97, 484, 352
-1.00176, 321, 57, 448, 120
-1.00178, 433, 33, 464, 288
-1.00179, 405, 1, 436, 256
-1.00181, 225, 1, 256, 128
-1.00192, 409, 289, 472, 352
-1.002, 289, 241, 320, 368
-1.0021, 321, 225, 448, 288
-1.00215, 369, 161, 496, 224
-1.0023, 369, 185, 496, 248
-1.0024, 401, 1, 464, 375
-1.00248, 361, 1, 424, 375
-1.00251, 369, 65, 496, 128
-1.00262, 249, 25, 312, 88
-1.00262, 469, 241, 500, 368
-1.00267, 369, 225, 496, 288
-1.00268, 137, 233, 200, 296
-1.00271, 353, 81, 384, 208
-1.00274, 1, 153, 64, 216
-1.00292, 249, 1, 280, 128
-1.00302, 433, 1, 496, 375
-1.00321, 433, 265, 496, 328
-1.00341, 345, 129, 408, 256
-1.00406, 261, 1, 292, 128
-1.00419, 377, 289, 440, 352
-1.00429, 337, 241, 400, 368
-1.0046, 277, 1, 308, 128
-1.00476, 345, 241, 376, 368
-1.00477, 341, 81, 372, 208
-1.00529, 329, 193, 392, 256
-1.0053, 321, 17, 448, 144
-1.0053, 449, 241, 480, 368
-1.00573, 249, 1, 312, 64
-1.00574, 237, 1, 268, 128
-1.0059, 417, 241, 480, 368
-1.00604, 57, 145, 88, 272
-1.00617, 369, 241, 400, 368
-1.00618, 389, 241, 420, 368
-1.0062, 369, 1, 496, 128
-1.00637, 357, 241, 388, 368
-1.00648, 405, 241, 436, 368
-1.00653, 409, 265, 472, 328
-1.00661, 433, 241, 496, 304
-1.00685, 425, 241, 456, 368
-1.00685, 369, 177, 496, 304
-1.00687, 73, 33, 104, 160
-1.00703, 25, 153, 88, 216
-1.00722, 77, 225, 108, 352
-1.00734, 345, 33, 376, 160
-1.00743, 1, 161, 32, 288
-1.00749, 469, 193, 500, 320
-1.0075, 361, 241, 424, 368
-1.00757, 13, 1, 44, 128
-1.00764, 361, 129, 424, 375
-1.00768, 353, 33, 416, 288
-1.00768, 1, 1, 32, 128
-1.00807, 437, 241, 468, 368
-1.00813, 73, 177, 104, 304
-1.00823, 401, 129, 464, 375
-1.00848, 381, 1, 412, 128
-1.0085, 377, 33, 440, 288
-1.00861, 417, 1, 480, 256
-1.00862, 61, 193, 92, 320
-1.00872, 357, 145, 388, 272
-1.00875, 457, 193, 488, 320
-1.00883, 397, 65, 428, 192
-1.00886, 45, 161, 76, 288
-1.00889, 369, 1, 400, 128
-1.00891, 369, 49, 496, 176
-1.00895, 337, 33, 400, 160
-1.00904, 461, 1, 492, 128
-1.01009, 393, 241, 456, 368
-1.01017, 425, 129, 488, 375
-1.01208, 377, 1, 440, 128
-1.01221, 401, 1, 464, 128
-1.0125, 433, 1, 496, 128
-1.01286, 377, 65, 440, 192
-1.01315, 1, 161, 64, 288
-1.01321, 425, 193, 488, 320
-1.01322, 353, 177, 416, 304
-1.01358, 401, 49, 464, 176
-1.01358, 25, 177, 88, 304
-1.01387, 393, 177, 456, 304
-1.01422, 385, 129, 448, 256
-1.01435, 425, 49, 488, 176
-1.01442, 425, 129, 488, 256
-1.01458, 9, 241, 72, 368
-1.01474, 33, 241, 96, 368
