1970
-0.362979, 1, 1, 500, 375
-0.393684, 1, 129, 500, 375
-0.428902, 161, 1, 416, 375
-0.45512, 1, 33, 500, 288
-0.577556, 257, 1, 500, 375
-0.578709, 33, 1, 288, 375
-0.601548, 1, 129, 256, 375
-0.632614, 161, 97, 416, 352
-0.638859, 129, 1, 384, 256
-0.703487, 257, 129, 500, 375
-0.743648, 225, 1, 480, 256
-0.762608, 1, 33, 256, 288
-0.858916, 113, 97, 240, 352
-0.860995, 193, 1, 320, 375
-0.864487, 65, 1, 192, 375
-0.86615, 65, 65, 192, 320
-0.867581, 241, 1, 368, 375
-0.8747, 17, 1, 144, 375
-0.87712, 161, 97, 288, 352
-0.879935, 241, 1, 368, 256
-0.883416, 145, 1, 272, 375
-0.886115, 353, 129, 480, 375
-0.887945, 17, 65, 144, 320
-0.888958, 1, 145, 500, 272
-0.893777, 305, 97, 432, 352
-0.894593, 305, 1, 432, 375
-0.895355, 1, 161, 256, 288
-0.899886, 193, 1, 320, 256
-0.906626, 1, 241, 500, 368
-0.909476, 225, 97, 352, 352
-0.90949, 113, 1, 240, 256
-0.909603, 1, 97, 500, 224
-0.914376, 1, 193, 500, 320
-0.917023, 1, 49, 500, 176
-0.917902, 129, 129, 384, 256
-0.918906, 353, 1, 480, 375
-0.920036, 289, 1, 416, 256
-0.920499, 153, 177, 216, 304
-0.921148, 353, 1, 480, 256
-0.926811, 161, 193, 416, 320
-0.927682, 145, 193, 272, 320
-0.928971, 129, 81, 384, 208
-0.931319, 113, 145, 240, 272
-0.934549, 225, 145, 480, 272
-0.936705, 121, 145, 184, 272
-0.937526, 177, 145, 240, 272
-0.937647, 33, 113, 288, 240
-0.937676, 169, 201, 232, 264
-0.938648, 1, 1, 500, 128
-0.938867, 161, 1, 416, 128
-0.940014, 353, 241, 480, 368
-0.941656, 65, 97, 192, 224
-0.941901, 225, 81, 480, 208
-0.942426, 65, 145, 192, 272
-0.943892, 161, 129, 288, 256
-0.945163, 177, 193, 240, 320
-0.946026, 65, 33, 320, 160
-0.94674, 257, 241, 500, 368
-0.947592, 1, 209, 256, 336
-0.948714, 249, 1, 312, 128
-0.948954, 193, 193, 320, 320
-0.94996, 241, 97, 368, 224
-0.950137, 409, 241, 472, 368
-0.950678, 153, 225, 216, 352
-0.951147, 201, 193, 264, 320
-0.951186, 281, 1, 344, 128
-0.951978, 257, 33, 500, 160
-0.952305, 161, 241, 416, 368
-0.952714, 209, 145, 336, 272
-0.953197, 73, 97, 136, 224
-0.954189, 201, 145, 264, 272
-0.955348, 321, 129, 448, 256
-0.955893, 137, 225, 200, 288
-0.956075, 129, 161, 192, 224
-0.956762, 385, 241, 448, 368
-0.957213, 241, 1, 368, 128
-0.957741, 97, 145, 160, 272
-0.957846, 361, 129, 424, 256
-0.958369, 321, 129, 384, 256
-0.958628, 433, 225, 496, 352
-0.959652, 305, 17, 368, 144
-0.959726, 17, 161, 144, 288
-0.959878, 113, 81, 240, 208
-0.959899, 129, 97, 192, 224
-0.95993, 369, 193, 496, 320
-0.959944, 385, 177, 448, 304
-0.960739, 97, 81, 160, 208
-0.960934, 193, 1, 320, 128
-0.961429, 257, 193, 500, 320
-0.961546, 297, 97, 360, 224
-0.961792, 97, 193, 224, 320
-0.962093, 241, 49, 368, 176
-0.962365, 369, 145, 496, 272
-0.96237, 41, 145, 104, 272
-0.962559, 49, 97, 112, 224
-0.962594, 129, 241, 256, 368
-0.962638, 225, 65, 288, 192
-0.962697, 153, 249, 216, 312
-0.962716, 281, 1, 344, 64
-0.963294, 209, 209, 272, 272
-0.96331, 305, 193, 432, 320
-0.963391, 265, 65, 328, 192
-0.963788, 361, 209, 424, 336
-0.963993, 177, 225, 240, 288
-0.964175, 225, 145, 288, 272
-0.964768, 249, 33, 312, 96
-0.964919, 225, 17, 288, 144
-0.965003, 153, 129, 216, 256
-0.965667, 165, 193, 196, 320
-0.966235, 257, 145, 384, 272
-0.96658, 33, 49, 160, 176
-0.966634, 65, 33, 128, 160
-0.966643, 185, 177, 216, 304
-0.966693, 17, 97, 144, 224
-0.966757, 129, 225, 192, 352
-0.967192, 193, 65, 320, 192
-0.967683, 257, 1, 320, 64
-0.967804, 105, 129, 168, 192
-0.967854, 281, 97, 344, 160
-0.96796, 361, 273, 424, 336
-0.968031, 321, 65, 384, 192
-0.968713, 41, 169, 104, 232
-0.968821, 393, 265, 456, 328
-0.969443, 305, 97, 368, 160
-0.969718, 417, 305, 480, 368
-0.969911, 353, 49, 480, 176
-0.970236, 129, 233, 256, 296
-0.97034, 257, 241, 384, 368
-0.970446, 145, 201, 272, 264
-0.970581, 281, 25, 344, 88
-0.97061, 113, 33, 240, 160
-0.970668, 249, 281, 312, 344
-0.970809, 385, 177, 448, 240
-0.971124, 193, 185, 256, 248
-0.971245, 73, 153, 136, 216
-0.971631, 161, 153, 224, 216
-0.971718, 177, 193, 208, 256
-0.971789, 249, 145, 312, 272
-0.971826, 113, 153, 240, 216
-0.97191, 157, 225, 188, 288
-0.972027, 345, 81, 408, 208
-0.972065, 409, 193, 472, 320
-0.972079, 129, 137, 192, 200
-0.972095, 289, 65, 416, 192
-0.972216, 201, 233, 264, 296
-0.972324, 361, 145, 424, 208
-0.972403, 201, 217, 232, 280
-0.972435, 161, 81, 224, 208
-0.972552, 273, 73, 336, 136
-0.972704, 273, 145, 336, 272
-0.972898, 197, 193, 228, 320
-0.97298, 225, 9, 288, 72
-0.972995, 385, 153, 448, 216
-0.973042, 17, 193, 80, 320
-0.973064, 97, 177, 160, 240
-0.97328, 345, 297, 408, 360
-0.973305, 409, 241, 472, 304
-0.973487, 81, 1, 144, 256
-0.973552, 121, 97, 184, 352
-0.973665, 225, 193, 288, 320
-0.973702, 161, 65, 224, 320
-0.973947, 385, 129, 448, 256
-0.973985, 369, 129, 432, 375
-0.973997, 249, 89, 312, 152
-0.974306, 73, 177, 136, 304
-0.974401, 369, 265, 496, 328
-0.974483, 225, 49, 288, 112
-0.974617, 201, 1, 264, 128
-0.974655, 305, 65, 368, 128
-0.974659, 173, 145, 204, 272
-0.974701, 197, 145, 228, 272
-0.974708, 289, 17, 416, 144
-0.974724, 177, 241, 240, 368
-0.974736, 361, 177, 424, 240
-0.974797, 305, 33, 368, 96
-0.97485, 157, 145, 188, 272
-0.97493, 113, 241, 176, 304
-0.974986, 305, 121, 368, 184
-0.975001, 369, 97, 496, 224
-0.975092, 433, 97, 496, 224
-0.975186, 145, 225, 176, 288
-0.975333, 281, 121, 344, 184
-0.975421, 137, 249, 168, 312
-0.975425, 225, 153, 288, 216
-0.975548, 125, 113, 156, 176
-0.975555, 249, 65, 312, 128
-0.975596, 89, 33, 152, 160
-0.97585, 433, 233, 496, 296
-0.976015, 81, 89, 144, 152
-0.976197, 145, 209, 176, 336
-0.976605, 337, 305, 464, 368
-0.976715, 241, 105, 368, 168
-0.976729, 137, 201, 200, 264
-0.976864, 65, 177, 192, 240
-0.976945, 209, 97, 272, 352
-0.976971, 225, 281, 288, 344
-0.976999, 249, 137, 312, 200
-0.977178, 49, 97, 112, 160
-0.97732, 409, 129, 472, 256
-0.977377, 177, 249, 240, 312
-0.977407, 249, 33, 312, 288
-0.977463, 141, 137, 172, 200
-0.977468, 433, 273, 496, 336
-0.977517, 169, 177, 232, 240
-0.977556, 113, 265, 176, 328
-0.977907, 105, 153, 168, 216
-0.977948, 193, 209, 320, 272
-0.97818, 257, 1, 288, 128
-0.978235, 305, 9, 368, 72
-0.978426, 337, 209, 400, 336
-0.978441, 313, 1, 344, 128
-0.97855, 337, 121, 400, 184
-0.97856, 33, 1, 160, 128
-0.978607, 225, 73, 288, 136
-0.978725, 185, 97, 248, 224
-0.978853, 257, 113, 320, 176
-0.978918, 41, 49, 104, 176
-0.978999, 269, 25, 300, 88
-0.97902, 273, 1, 336, 256
-0.979076, 65, 137, 192, 200
-0.979137, 73, 193, 136, 256
-0.979151, 189, 201, 220, 264
-0.979178, 81, 57, 144, 120
-0.979268, 225, 113, 288, 176
-0.979391, 437, 241, 468, 368
-0.9794, 133, 113, 164, 240
-0.979492, 289, 121, 416, 184
-0.979567, 413, 225, 444, 352
-0.97985, 185, 129, 248, 375
-0.979989, 401, 129, 464, 375
-0.980022, 337, 97, 400, 352
-0.980091, 61, 161, 92, 224
-0.98011, 249, 193, 312, 320
-0.980114, 241, 129, 368, 192
-0.980187, 145, 145, 176, 272
-0.980249, 321, 185, 384, 248
-0.980268, 165, 201, 196, 264
-0.980327, 209, 1, 336, 64
-0.980336, 185, 153, 248, 216
-0.980424, 281, 49, 344, 112
-0.980441, 161, 161, 288, 224
-0.980462, 257, 193, 384, 320
-0.980472, 213, 145, 244, 272
-0.980491, 305, 1, 368, 256
-0.980509, 269, 1, 300, 128
-0.980603, 105, 89, 168, 152
-0.980732, 193, 185, 320, 248
-0.980743, 169, 161, 200, 224
-0.980834, 297, 25, 328, 88
-0.980853, 73, 1, 136, 375
-0.980908, 381, 265, 412, 328
-0.980973, 209, 193, 240, 320
-0.98101, 97, 129, 160, 375
-0.981025, 25, 97, 88, 224
-0.9811, 309, 97, 340, 160
-0.981309, 273, 289, 336, 352
-0.981452, 221, 201, 252, 264
-0.981496, 149, 249, 180, 312
-0.981557, 329, 97, 360, 160
-0.981616, 121, 161, 152, 288
-0.981636, 449, 297, 480, 360
-0.981724, 257, 89, 288, 152
-0.981772, 373, 129, 404, 256
-0.981809, 273, 281, 304, 344
-0.981849, 217, 177, 280, 240
-0.981959, 369, 209, 400, 336
-0.982003, 65, 129, 128, 192
-0.982093, 257, 25, 288, 88
-0.982175, 121, 81, 152, 208
-0.982194, 309, 1, 340, 64
-0.98223, 433, 97, 496, 160
-0.982257, 329, 97, 392, 160
-0.982259, 177, 241, 304, 368
-0.982278, 113, 177, 240, 240
-0.982295, 369, 217, 432, 280
-0.982412, 1, 209, 128, 336
-0.982507, 265, 1, 328, 375
-0.982527, 57, 73, 120, 136
-0.98258, 17, 193, 144, 256
-0.982581, 145, 129, 272, 192
-0.982592, 189, 225, 220, 288
-0.98262, 81, 33, 144, 96
-0.982628, 337, 145, 464, 208
-0.982645, 225, 1, 288, 256
-0.982648, 257, 65, 288, 192
-0.98266, 201, 49, 264, 176
-0.982727, 345, 113, 376, 176
-0.982843, 257, 281, 384, 344
-0.98289, 61, 129, 92, 256
-0.982892, 281, 1, 312, 64
-0.98293, 81, 241, 208, 368
-0.982942, 193, 137, 320, 200
-0.98311, 425, 193, 456, 320
-0.983142, 97, 201, 224, 264
-0.983176, 309, 73, 340, 136
-0.983189, 249, 305, 312, 368
-0.983241, 393, 121, 456, 184
-0.983365, 205, 241, 236, 304
-0.983441, 297, 1, 328, 128
-0.983491, 137, 97, 200, 160
-0.983492, 353, 113, 384, 240
-0.983497, 49, 65, 112, 320
-0.983503, 101, 97, 132, 224
-0.983504, 169, 225, 200, 288
-0.983559, 381, 137, 412, 200
-0.983596, 257, 1, 288, 64
-0.983636, 353, 305, 384, 368
-0.983637, 201, 241, 264, 368
-0.983651, 309, 33, 340, 96
-0.983696, 185, 129, 216, 256
-0.983713, 297, 1, 328, 64
-0.983723, 201, 129, 264, 192
-0.983855, 201, 193, 232, 256
-0.983896, 241, 81, 368, 144
-0.983912, 193, 113, 320, 176
-0.983937, 305, 281, 368, 344
-0.983957, 157, 169, 188, 232
-0.984076, 33, 145, 96, 208
-0.984115, 185, 33, 248, 288
-0.984155, 17, 153, 144, 216
-0.984204, 93, 1, 124, 128
-0.984273, 409, 201, 472, 264
-0.984273, 385, 241, 448, 304
-0.984273, 385, 305, 448, 368
-0.984363, 201, 41, 264, 104
-0.984374, 249, 49, 280, 112
-0.984484, 241, 1, 304, 375
-0.984539, 57, 81, 88, 208
-0.984554, 41, 1, 104, 128
-0.984556, 257, 1, 384, 64
-0.984631, 305, 241, 432, 368
-0.984658, 353, 193, 480, 256
-0.984698, 169, 1, 232, 375
-0.984713, 297, 145, 360, 272
-0.984715, 193, 281, 320, 344
-0.98474, 121, 137, 152, 200
-0.984845, 245, 17, 276, 144
-0.984849, 317, 49, 348, 176
-0.984853, 209, 1, 272, 375
-0.984857, 81, 97, 112, 224
-0.98487, 201, 17, 264, 80
-0.984933, 353, 105, 480, 168
-0.984976, 249, 185, 312, 248
-0.985087, 69, 81, 100, 208
-0.985102, 321, 145, 384, 208
-0.985245, 245, 97, 276, 224
-0.985259, 249, 257, 312, 320
-0.985264, 305, 65, 336, 192
-0.985284, 113, 177, 144, 240
-0.985294, 385, 129, 416, 256
-0.985362, 265, 49, 296, 112
-0.985362, 137, 113, 168, 176
-0.985407, 65, 81, 192, 144
-0.985459, 385, 81, 448, 208
-0.985683, 429, 305, 460, 368
-0.985713, 317, 97, 348, 224
-0.985736, 145, 97, 176, 224
-0.985802, 453, 209, 484, 336
-0.985816, 241, 161, 368, 224
-0.985824, 289, 193, 416, 256
-0.985842, 345, 201, 408, 264
-0.985869, 269, 1, 300, 64
-0.985908, 321, 281, 448, 344
-0.985964, 313, 97, 376, 352
-0.98598, 333, 97, 364, 224
-0.986045, 321, 1, 384, 375
-0.986103, 185, 249, 216, 312
-0.986171, 185, 241, 216, 368
-0.986193, 345, 1, 408, 256
-0.986266, 353, 169, 480, 232
-0.986397, 409, 153, 472, 216
-0.986399, 97, 1, 160, 375
-0.986408, 129, 1, 192, 375
-0.986413, 261, 281, 292, 344
-0.986426, 113, 97, 240, 160
-0.986426, 241, 305, 368, 368
-0.986445, 173, 97, 204, 224
-0.986478, 277, 65, 308, 192
-0.986551, 273, 257, 400, 320
-0.986567, 409, 177, 440, 304
-0.986602, 425, 97, 488, 352
-0.986623, 233, 145, 264, 272
-0.986667, 425, 241, 456, 368
-0.98672, 133, 161, 164, 224
-0.986737, 33, 113, 160, 176
-0.986771, 369, 177, 400, 240
-0.986775, 421, 249, 452, 312
-0.986836, 353, 65, 384, 192
-0.986838, 321, 73, 352, 136
-0.986913, 193, 25, 320, 88
-0.986932, 161, 129, 224, 192
-0.986935, 193, 73, 320, 136
-0.986961, 145, 281, 176, 344
-0.986977, 365, 129, 396, 192
-0.987018, 297, 89, 328, 152
-0.987061, 133, 161, 164, 288
-0.987063, 305, 97, 432, 160
-0.987089, 289, 1, 352, 375
-0.987124, 197, 241, 228, 368
-0.987125, 285, 1, 316, 128
-0.987162, 221, 193, 252, 320
-0.987183, 121, 33, 184, 160
-0.987192, 321, 305, 384, 368
-0.987241, 113, 257, 240, 320
-0.987268, 105, 1, 168, 256
-0.987277, 109, 161, 140, 288
-0.987283, 273, 73, 304, 136
-0.987347, 313, 121, 344, 184
-0.987359, 169, 197, 232, 228
-0.987416, 133, 225, 164, 352
-0.987432, 153, 145, 184, 208
-0.987471, 389, 177, 420, 304
-0.98752, 433, 273, 464, 336
-0.987577, 33, 57, 160, 120
-0.987595, 81, 225, 208, 288
-0.987603, 201, 257, 264, 320
-0.987618, 393, 145, 424, 208
-0.987686, 105, 65, 168, 128
-0.987692, 241, 193, 272, 320
-0.987701, 241, 185, 368, 248
-0.987706, 245, 281, 276, 344
-0.987707, 245, 145, 276, 272
-0.98773, 261, 113, 292, 240
-0.987759, 177, 233, 304, 296
-0.987799, 137, 281, 200, 344
-0.98781, 1, 241, 64, 368
-0.987846, 193, 49, 320, 112
-0.987873, 401, 241, 432, 368
-0.987884, 241, 169, 272, 232
-0.987903, 57, 137, 88, 200
-0.987909, 285, 281, 316, 344
-0.987993, 1, 233, 64, 296
-0.988124, 25, 193, 56, 320
-0.988147, 257, 33, 384, 96
-0.988151, 57, 97, 88, 160
-0.988214, 241, 129, 304, 375
-0.988226, 365, 281, 396, 344
-0.98823, 25, 129, 88, 375
-0.988231, 25, 201, 88, 264
-0.98824, 49, 49, 112, 112
-0.988274, 193, 65, 256, 128
-0.98834, 169, 229, 232, 260
-0.988342, 1, 305, 64, 368
-0.988366, 121, 89, 152, 152
-0.988426, 329, 49, 360, 176
-0.988534, 305, 241, 368, 368
-0.988546, 41, 9, 104, 72
-0.988547, 325, 121, 356, 184
-0.988581, 181, 153, 212, 216
-0.988632, 381, 225, 412, 352
-0.988692, 453, 225, 484, 288
-0.988694, 425, 169, 456, 232
-0.988706, 433, 177, 496, 304
-0.988718, 169, 209, 232, 240
-0.988718, 137, 237, 200, 268
-0.988765, 129, 1, 192, 256
-0.988794, 429, 145, 460, 272
-0.988807, 45, 113, 76, 240
-0.988854, 165, 249, 196, 312
-0.988855, 437, 193, 468, 320
-0.988867, 289, 65, 320, 192
-0.988926, 105, 49, 136, 176
-0.988982, 9, 225, 40, 352
-0.989001, 257, 137, 288, 200
-0.98904, 285, 97, 316, 160
-0.989077, 249, 241, 312, 368
-0.989144, 101, 97, 132, 160
-0.989209, 393, 273, 424, 336
-0.989214, 265, 113, 296, 176
-0.989235, 353, 1, 480, 128
-0.989293, 245, 9, 276, 72
-0.989307, 25, 105, 88, 168
-0.989322, 361, 121, 424, 184
-0.989349, 345, 1, 408, 375
-0.989384, 321, 49, 352, 112
-0.989444, 413, 313, 444, 375
-0.989474, 273, 209, 336, 336
-0.989484, 213, 137, 244, 200
-0.989502, 297, 57, 328, 120
-0.989523, 81, 57, 208, 120
-0.989532, 93, 169, 124, 232
-0.989539, 105, 225, 168, 352
-0.989543, 161, 1, 288, 64
-0.989626, 41, 1, 104, 375
-0.989647, 137, 89, 168, 152
-0.989692, 353, 81, 480, 144
-0.989738, 249, 113, 280, 176
-0.989742, 81, 9, 144, 72
-0.989804, 105, 125, 168, 156
-0.989817, 229, 145, 260, 208
-0.989822, 5, 241, 36, 304
-0.989832, 409, 257, 440, 320
-0.989833, 353, 217, 480, 280
-0.989863, 17, 89, 144, 152
-0.989882, 329, 1, 392, 128
-0.989892, 157, 81, 188, 208
-0.989918, 73, 129, 104, 192
-0.98993, 369, 241, 496, 304
-0.989935, 449, 265, 480, 328
-0.989946, 249, 97, 312, 128
-0.990011, 85, 177, 116, 304
-0.99003, 129, 161, 192, 192
-0.990031, 177, 241, 240, 272
-0.990048, 85, 193, 116, 256
-0.990057, 209, 213, 272, 244
-0.9901, 257, 289, 320, 320
-0.990127, 73, 97, 136, 352
-0.990136, 465, 241, 496, 368
-0.99014, 265, 29, 328, 60
-0.990167, 345, 89, 376, 152
-0.990174, 17, 289, 48, 352
-0.990174, 417, 345, 480, 375
-0.990177, 289, 73, 416, 136
-0.990177, 153, 201, 184, 264
-0.990182, 269, 137, 300, 200
-0.990183, 233, 1, 264, 128
-0.990206, 257, 161, 320, 224
-0.990213, 169, 17, 232, 144
-0.990224, 129, 173, 192, 204
-0.99024, 373, 225, 404, 288
-0.99027, 189, 177, 220, 240
-0.990273, 153, 249, 216, 280
-0.990279, 321, 257, 448, 320
-0.990281, 433, 137, 496, 200
-0.990281, 353, 293, 416, 324
-0.990284, 81, 161, 112, 224
-0.990357, 345, 137, 408, 168
-0.990375, 281, 97, 344, 128
-0.990379, 217, 145, 280, 176
-0.990417, 281, 161, 344, 224
-0.990425, 125, 241, 156, 304
-0.990437, 285, 33, 316, 96
-0.990486, 241, 57, 368, 120
-0.990487, 81, 73, 112, 136
-0.99052, 249, 77, 312, 108
-0.990538, 193, 193, 256, 224
-0.990539, 417, 177, 480, 240
-0.99056, 49, 181, 112, 212
-0.990561, 289, 145, 416, 208
-0.990566, 393, 185, 424, 248
-0.990577, 337, 265, 400, 328
-0.99059, 217, 225, 248, 288
-0.990593, 313, 105, 376, 136
-0.990646, 285, 65, 316, 128
-0.990654, 81, 129, 144, 160
-0.990696, 197, 153, 228, 216
-0.990696, 429, 209, 460, 272
-0.990714, 289, 33, 352, 64
-0.990718, 105, 137, 168, 168
-0.990743, 245, 145, 276, 208
-0.990746, 241, 145, 304, 176
-0.990774, 153, 157, 216, 188
-0.990809, 73, 85, 136, 116
-0.99081, 225, 121, 256, 184
-0.990811, 305, 137, 368, 168
-0.990814, 249, 53, 312, 84
-0.990832, 109, 137, 140, 200
-0.990843, 465, 281, 496, 344
-0.990862, 233, 209, 296, 272
-0.990885, 417, 305, 480, 336
-0.990886, 281, 13, 344, 44
-0.990886, 73, 173, 136, 204
-0.990922, 361, 181, 424, 212
-0.990923, 81, 49, 112, 176
-0.990957, 433, 233, 464, 296
-0.990963, 385, 189, 448, 220
-0.990976, 409, 249, 472, 280
-0.990997, 281, 61, 344, 92
-0.991039, 129, 225, 192, 256
-0.99105, 129, 149, 192, 180
-0.991055, 213, 1, 244, 128
-0.991062, 265, 137, 328, 168
-0.991074, 273, 97, 336, 352
-0.991091, 1, 281, 64, 344
-0.991094, 257, 265, 500, 328
-0.991117, 305, 169, 432, 232
-0.991137, 377, 273, 440, 304
-0.99115, 353, 137, 384, 200
-0.99115, 201, 237, 264, 268
-0.991156, 401, 261, 464, 292
-0.991165, 273, 113, 336, 144
-0.991175, 241, 29, 304, 60
-0.991203, 333, 145, 364, 272
-0.991214, 57, 133, 120, 164
-0.991221, 385, 33, 448, 288
-0.991241, 297, 113, 328, 176
-0.991272, 165, 241, 196, 368
-0.991284, 249, 17, 312, 48
-0.991291, 1, 217, 128, 280
-0.991312, 281, 45, 344, 76
-0.991337, 249, 41, 312, 72
-0.991362, 425, 229, 488, 260
-0.99138, 321, 17, 352, 80
-0.99143, 233, 285, 296, 316
-0.991435, 213, 177, 244, 240
-0.991446, 281, 305, 312, 368
-0.991466, 225, 17, 288, 48
-0.991468, 445, 97, 476, 224
-0.99147, 41, 185, 72, 248
-0.991471, 305, 77, 368, 108
-0.991479, 225, 77, 288, 108
-0.99148, 105, 157, 168, 188
-0.99149, 305, 21, 368, 52
-0.991492, 225, 61, 288, 92
-0.991499, 337, 345, 400, 375
-0.991528, 401, 289, 464, 320
-0.99153, 281, 81, 344, 112
-0.991531, 321, 125, 384, 156
-0.991535, 193, 225, 256, 256
-0.991562, 249, 65, 312, 96
-0.991599, 145, 193, 208, 224
-0.991602, 1, 169, 256, 232
-0.99162, 225, 41, 288, 72
-0.991624, 65, 117, 128, 148
-0.991631, 41, 193, 104, 224
-0.991632, 121, 185, 184, 216
-0.991633, 129, 209, 384, 272
-0.991668, 393, 97, 456, 160
-0.991694, 153, 121, 184, 184
-0.991702, 305, 113, 336, 240
-0.991708, 321, 37, 384, 68
-0.991712, 185, 157, 248, 188
-0.991713, 305, 53, 368, 84
-0.991722, 1, 201, 256, 264
-0.991725, 193, 145, 256, 176
-0.991746, 305, 93, 368, 124
-0.991761, 65, 257, 192, 320
-0.991773, 417, 333, 480, 364
-0.991791, 385, 153, 448, 184
-0.991791, 321, 193, 384, 224
-0.991798, 177, 253, 240, 284
-0.991799, 129, 137, 384, 200
-0.991811, 233, 49, 264, 176
-0.991823, 225, 133, 288, 164
-0.99184, 393, 345, 456, 375
-0.991842, 245, 73, 276, 136
-0.991842, 89, 185, 152, 216
-0.99185, 209, 157, 272, 188
-0.991851, 97, 113, 160, 144
-0.991851, 433, 245, 496, 276
-0.991854, 49, 97, 112, 128
-0.991863, 377, 289, 408, 352
-0.991863, 397, 129, 428, 256
-0.991864, 49, 81, 112, 112
-0.991871, 385, 1, 448, 375
-0.991871, 241, 209, 272, 272
-0.991896, 305, 217, 432, 280
-0.991914, 137, 137, 200, 168
-0.991937, 45, 129, 76, 192
-0.991938, 129, 249, 192, 280
-0.991939, 225, 93, 288, 124
-0.991943, 385, 177, 448, 208
-0.991951, 97, 177, 128, 304
-0.991956, 361, 193, 424, 224
-0.991963, 313, 193, 376, 320
-0.991964, 433, 269, 496, 300
-0.991978, 237, 41, 268, 104
-0.991991, 81, 197, 144, 228
-0.992004, 49, 169, 112, 200
-0.99201, 89, 97, 152, 128
-0.992011, 17, 33, 144, 96
-0.992014, 89, 9, 120, 72
-0.992037, 265, 305, 296, 368
-0.992044, 305, 65, 368, 96
-0.992064, 5, 265, 36, 328
-0.992074, 285, 121, 316, 184
-0.992075, 97, 33, 224, 96
-0.992079, 113, 277, 176, 308
-0.992088, 249, 113, 312, 144
-0.992109, 97, 85, 160, 116
-0.992115, 249, 5, 312, 36
-0.99212, 225, 297, 288, 328
-0.992124, 17, 49, 80, 176
-0.992141, 189, 193, 220, 224
-0.992144, 157, 229, 188, 260
-0.992154, 209, 285, 272, 316
-0.992161, 217, 193, 280, 224
-0.992169, 393, 133, 456, 164
-0.992174, 113, 237, 176, 268
-0.99218, 201, 249, 264, 280
-0.992181, 425, 281, 488, 312
-0.992183, 169, 185, 232, 216
-0.992201, 225, 105, 288, 136
-0.992201, 241, 157, 304, 188
-0.992217, 361, 169, 424, 200
-0.992218, 345, 313, 408, 344
-0.992234, 121, 33, 152, 160
-0.992236, 289, 149, 352, 180
-0.992236, 337, 329, 400, 360
-0.99224, 173, 193, 204, 224
-0.992242, 297, 117, 360, 148
-0.992259, 81, 57, 144, 88
-0.992274, 201, 221, 232, 252
-0.992291, 265, 149, 328, 180
-0.992292, 201, 181, 264, 212
-0.992292, 145, 237, 176, 268
-0.992295, 257, 289, 500, 352
-0.992297, 145, 157, 176, 188
-0.992308, 377, 261, 440, 292
-0.992314, 129, 213, 192, 244
-0.992317, 385, 165, 448, 196
-0.992318, 233, 9, 264, 72
-0.992344, 361, 205, 424, 236
-0.992356, 105, 265, 168, 296
-0.992362, 41, 117, 104, 148
-0.992366, 149, 249, 180, 280
-0.992368, 433, 293, 496, 324
-0.992369, 33, 153, 96, 184
-0.992385, 161, 241, 192, 272
-0.992385, 241, 201, 304, 232
-0.992387, 209, 29, 272, 60
-0.992387, 321, 9, 384, 40
-0.992398, 425, 57, 488, 120
-0.992403, 129, 121, 192, 152
-0.992405, 173, 205, 204, 236
-0.992415, 277, 145, 308, 272
-0.992421, 209, 5, 272, 36
-0.992444, 125, 125, 156, 156
-0.992489, 205, 233, 236, 264
-0.99258, 129, 161, 384, 224
-0.99259, 369, 57, 496, 120
-0.992592, 257, 97, 288, 128
-0.992594, 205, 245, 236, 276
-0.992623, 297, 29, 328, 60
-0.992624, 109, 129, 140, 160
-0.992652, 29, 201, 60, 264
-0.992663, 17, 9, 144, 72
-0.992672, 157, 157, 188, 188
-0.992688, 369, 201, 400, 264
-0.992743, 305, 1, 432, 64
-0.992752, 269, 29, 300, 60
-0.992772, 305, 93, 336, 124
-0.992774, 213, 25, 244, 88
-0.992781, 193, 205, 224, 236
-0.992784, 141, 145, 172, 176
-0.992792, 161, 257, 288, 320
-0.992796, 61, 169, 92, 200
-0.992798, 141, 169, 172, 200
-0.992803, 193, 237, 224, 268
-0.992804, 137, 265, 168, 296
-0.992814, 125, 137, 156, 168
-0.992816, 257, 177, 288, 304
-0.992818, 133, 249, 164, 280
-0.992821, 185, 81, 216, 208
-0.99284, 121, 181, 152, 212
-0.992842, 169, 137, 200, 200
-0.99285, 249, 145, 280, 176
-0.992853, 309, 81, 340, 112
-0.99286, 329, 105, 360, 136
-0.99286, 425, 249, 456, 280
-0.992861, 137, 121, 168, 152
-0.992871, 269, 289, 300, 320
-0.992875, 97, 105, 352, 168
-0.99288, 225, 145, 256, 176
-0.992886, 157, 217, 188, 248
-0.992887, 33, 129, 288, 192
-0.992887, 257, 81, 288, 112
-0.992888, 393, 249, 424, 312
-0.992889, 245, 281, 276, 312
-0.992908, 169, 221, 200, 252
-0.992917, 433, 337, 464, 368
-0.992928, 205, 209, 236, 240
-0.992942, 269, 81, 300, 112
-0.992943, 361, 297, 392, 328
-0.992949, 65, 137, 96, 168
-0.992951, 89, 81, 120, 112
-0.992955, 237, 141, 268, 172
-0.992955, 141, 281, 172, 312
-0.992955, 317, 53, 348, 84
-0.992958, 377, 285, 408, 316
-0.992963, 269, 97, 300, 128
-0.99297, 269, 137, 300, 168
-0.992981, 305, 113, 336, 144
-0.992981, 181, 233, 212, 264
-0.992985, 129, 73, 192, 136
-0.992994, 221, 209, 252, 240
-0.993, 249, 65, 280, 96
-0.993, 73, 161, 104, 288
-0.993002, 445, 301, 476, 332
-0.993004, 413, 253, 444, 284
-0.993005, 253, 45, 284, 76
-0.993006, 333, 137, 364, 168
-0.993019, 309, 65, 340, 96
-0.99302, 133, 157, 164, 188
-0.993029, 257, 29, 288, 60
-0.993032, 421, 345, 452, 375
-0.993037, 285, 97, 316, 128
-0.993038, 185, 253, 216, 284
-0.993038, 329, 65, 392, 128
-0.993041, 201, 193, 232, 224
-0.993042, 321, 137, 352, 168
-0.993049, 317, 93, 348, 124
-0.993059, 217, 237, 248, 268
-0.993062, 297, 81, 328, 112
-0.993069, 373, 205, 404, 236
-0.993073, 309, 29, 340, 60
-0.993075, 265, 53, 296, 84
-0.993076, 381, 269, 412, 300
-0.993082, 125, 113, 156, 144
-0.993086, 249, 17, 280, 48
-0.993093, 345, 129, 376, 160
-0.993093, 373, 137, 404, 168
-0.993093, 369, 189, 400, 220
-0.993095, 453, 341, 484, 372
-0.993102, 273, 265, 336, 328
-0.993109, 269, 69, 300, 100
-0.993111, 317, 41, 348, 72
-0.993114, 257, 285, 288, 316
-0.993116, 313, 13, 344, 44
-0.993119, 305, 137, 336, 168
-0.99312, 213, 97, 244, 224
-0.993126, 445, 269, 476, 300
-0.993127, 197, 81, 228, 208
-0.993134, 449, 225, 480, 256
-0.993135, 213, 145, 244, 176
-0.993138, 385, 145, 416, 176
-0.993139, 145, 201, 272, 232
-0.993141, 97, 125, 128, 156
-0.993142, 293, 137, 324, 168
-0.993147, 161, 201, 192, 232
-0.993154, 289, 57, 320, 88
-0.993157, 285, 29, 316, 60
-0.993158, 281, 137, 312, 168
-0.993158, 169, 161, 200, 192
-0.993161, 377, 173, 408, 204
-0.993162, 105, 85, 136, 116
-0.993162, 437, 249, 468, 280
-0.993162, 281, 289, 312, 320
-0.993164, 137, 133, 168, 164
-0.993165, 345, 117, 376, 148
-0.993168, 237, 157, 268, 188
-0.993169, 145, 33, 208, 160
-0.993187, 297, 13, 328, 44
-0.993188, 225, 133, 256, 164
-0.993192, 213, 189, 244, 220
-0.993192, 265, 149, 296, 180
-0.993206, 345, 345, 376, 375
-0.993206, 421, 177, 452, 208
-0.993208, 149, 261, 180, 292
-0.993209, 329, 149, 360, 180
-0.993216, 321, 77, 352, 108
-0.993218, 285, 13, 316, 44
-0.993224, 121, 161, 152, 192
-0.993225, 389, 161, 420, 192
-0.993225, 345, 101, 376, 132
-0.993226, 393, 277, 424, 308
-0.993232, 329, 117, 360, 148
-0.993234, 301, 45, 332, 76
-0.993241, 77, 81, 108, 112
-0.993247, 249, 157, 280, 188
-0.99325, 285, 81, 316, 112
-0.993254, 217, 225, 248, 256
-0.99326, 173, 181, 204, 212
-0.993263, 261, 13, 292, 44
-0.993271, 253, 301, 284, 332
-0.993271, 77, 165, 108, 196
-0.993281, 213, 157, 244, 188
-0.993285, 349, 325, 380, 356
-0.993291, 397, 181, 428, 212
-0.993293, 413, 265, 444, 296
-0.993331, 321, 145, 352, 272
-0.993337, 17, 1, 80, 375
-0.993366, 257, 313, 500, 375
-0.99337, 425, 1, 488, 375
-0.993376, 49, 193, 112, 256
-0.993381, 225, 257, 288, 320
-0.993402, 145, 229, 272, 260
-0.993409, 329, 33, 392, 96
-0.993544, 341, 49, 372, 176
-0.993544, 159, 225, 174, 288
-0.993561, 225, 113, 480, 176
-0.9936, 145, 65, 272, 128
-0.993606, 193, 233, 448, 296
-0.993621, 433, 17, 496, 144
-0.993626, 33, 73, 96, 136
-0.993687, 213, 209, 228, 272
-0.993762, 169, 17, 232, 80
-0.993762, 171, 209, 186, 272
-0.993786, 113, 9, 240, 72
-0.993801, 257, 137, 500, 200
-0.993828, 161, 289, 416, 352
-0.993865, 257, 81, 500, 144
-0.993946, 357, 209, 388, 336
-0.993968, 147, 129, 162, 192
-0.993972, 345, 225, 408, 288
-0.993975, 151, 233, 166, 296
-0.993993, 129, 249, 256, 280
-0.993994, 169, 65, 232, 128
-0.994019, 1, 209, 64, 272
-0.994019, 1, 257, 128, 320
-0.994024, 97, 185, 352, 248
-0.994133, 161, 1, 416, 64
-0.994142, 1, 297, 128, 360
-0.994148, 329, 9, 392, 72
-0.994251, 179, 193, 194, 256
-0.994313, 141, 121, 156, 184
-0.994366, 65, 81, 320, 144
-0.994367, 145, 217, 272, 248
-0.994369, 81, 185, 208, 216
-0.994391, 157, 249, 172, 312
-0.994481, 205, 217, 220, 280
-0.994537, 289, 305, 416, 368
-0.994547, 225, 257, 352, 320
-0.994601, 151, 257, 166, 320
-0.994603, 113, 157, 240, 188
-0.994611, 293, 145, 324, 272
-0.994632, 21, 241, 52, 368
-0.994649, 1, 225, 256, 288
-0.994664, 25, 1, 88, 256
-0.994679, 193, 305, 320, 368
-0.994685, 1, 105, 500, 168
-0.994772, 305, 49, 432, 112
-0.994796, 225, 137, 352, 168
-0.994812, 225, 113, 352, 144
-0.994817, 65, 1, 192, 64
-0.994825, 65, 161, 192, 192
-0.994825, 1, 129, 500, 192
-0.994841, 97, 201, 160, 264
-0.994852, 409, 129, 440, 256
-0.99486, 333, 1, 364, 128
-0.99487, 1, 153, 500, 216
-0.994872, 65, 149, 192, 180
-0.994873, 193, 185, 448, 248
-0.99494, 225, 305, 288, 368
-0.994945, 173, 161, 188, 224
-0.994949, 193, 213, 320, 244
-0.994967, 1, 273, 500, 336
-0.995041, 297, 313, 360, 375
-0.995055, 161, 73, 416, 136
-0.995094, 201, 193, 216, 256
-0.995096, 353, 293, 480, 324
-0.995107, 45, 161, 76, 288
-0.995132, 273, 209, 336, 272
-0.99522, 313, 25, 328, 88
-0.995226, 321, 97, 336, 160
-0.995255, 133, 65, 164, 192
-0.995278, 257, 289, 384, 320
-0.995283, 1, 193, 500, 256
-0.995286, 177, 145, 304, 176
-0.995303, 65, 249, 320, 312
-0.995307, 145, 281, 272, 344
-0.995313, 433, 209, 496, 272
-0.995332, 145, 41, 272, 104
-0.995337, 365, 81, 396, 208
-0.995383, 289, 137, 416, 168
-0.995392, 233, 97, 264, 224
-0.995393, 33, 193, 160, 224
-0.995415, 143, 241, 158, 304
-0.995416, 49, 137, 176, 168
-0.995421, 261, 9, 276, 72
-0.995433, 337, 305, 464, 336
-0.99544, 161, 189, 288, 220
-0.995444, 97, 197, 224, 228
-0.995484, 225, 161, 480, 224
-0.995492, 173, 185, 188, 248
-0.995501, 33, 173, 160, 204
-0.99551, 93, 49, 124, 176
-0.995515, 113, 17, 176, 80
-0.995532, 67, 153, 82, 216
-0.995533, 331, 97, 346, 160
-0.995534, 135, 129, 150, 192
-0.995555, 45, 65, 76, 192
-0.99563, 265, 225, 296, 352
-0.995631, 241, 97, 368, 128
-0.995651, 323, 9, 338, 72
-0.995657, 273, 281, 288, 344
-0.995658, 271, 25, 286, 88
-0.995658, 345, 1, 376, 128
-0.995661, 215, 233, 230, 296
-0.995678, 323, 57, 338, 120
-0.995709, 353, 281, 480, 312
-0.99575, 193, 89, 256, 152
-0.995819, 401, 145, 416, 208
-0.995819, 309, 1, 324, 64
-0.995821, 299, 1, 314, 64
-0.995827, 167, 153, 182, 216
-0.995861, 33, 313, 96, 375
-0.995872, 67, 129, 82, 192
-0.99588, 153, 129, 168, 192
-0.995898, 65, 57, 320, 120
-0.9959, 461, 65, 492, 192
-0.995902, 193, 289, 320, 320
-0.995928, 337, 333, 464, 364
-0.995938, 353, 305, 368, 368
-0.995943, 261, 73, 276, 136
-0.995947, 209, 241, 224, 304
-0.99597, 283, 281, 298, 344
-0.995991, 323, 33, 338, 96
-0.996002, 207, 193, 222, 256
-0.996002, 369, 265, 496, 296
-0.996003, 315, 97, 330, 160
-0.996013, 287, 1, 302, 64
-0.996014, 57, 33, 88, 160
-0.996017, 381, 265, 396, 328
-0.996066, 381, 81, 412, 208
-0.996079, 161, 33, 416, 96
-0.996091, 195, 185, 210, 248
-0.996092, 113, 125, 240, 156
-0.996128, 273, 301, 400, 332
-0.996137, 113, 145, 240, 176
-0.996139, 145, 153, 160, 216
-0.99615, 463, 305, 478, 368
-0.996214, 225, 209, 480, 272
-0.99622, 189, 185, 204, 248
-0.996231, 167, 185, 182, 248
-0.996271, 97, 237, 224, 268
-0.996282, 193, 201, 320, 232
-0.996297, 65, 125, 192, 156
-0.996318, 163, 249, 178, 312
-0.996337, 387, 265, 402, 328
-0.996339, 275, 1, 290, 64
-0.996347, 441, 265, 456, 328
-0.996353, 305, 149, 432, 180
-0.996353, 185, 97, 216, 352
-0.996377, 193, 249, 208, 312
-0.996392, 193, 233, 320, 264
-0.996396, 455, 297, 470, 360
-0.99641, 155, 281, 170, 344
-0.996417, 131, 97, 146, 160
-0.996431, 1, 233, 500, 296
-0.996452, 161, 157, 288, 188
-0.996453, 241, 13, 368, 44
-0.996474, 289, 281, 304, 344
-0.996492, 241, 149, 368, 180
-0.996492, 73, 137, 88, 200
-0.996499, 369, 345, 496, 375
-0.996515, 305, 25, 432, 88
-0.996526, 161, 313, 416, 375
-0.996531, 261, 281, 276, 344
-0.996532, 391, 137, 406, 200
-0.99654, 375, 273, 390, 336
-0.99654, 145, 129, 176, 375
-0.996543, 309, 1, 340, 256
-0.996553, 113, 169, 240, 200
-0.99656, 323, 121, 338, 184
-0.996562, 127, 177, 142, 240
-0.996565, 161, 233, 176, 264
-0.996565, 241, 209, 368, 272
-0.996568, 267, 281, 282, 344
-0.996571, 1, 305, 500, 368
-0.996573, 259, 49, 274, 112
-0.996584, 313, 73, 328, 136
-0.996585, 267, 89, 282, 152
-0.996589, 441, 145, 472, 272
-0.996589, 257, 57, 500, 120
-0.996602, 281, 1, 296, 64
-0.996609, 361, 297, 376, 360
-0.99662, 187, 249, 202, 312
-0.996621, 179, 153, 194, 216
-0.996626, 203, 241, 218, 304
-0.996632, 259, 105, 274, 168
-0.99666, 139, 153, 154, 216
-0.996663, 1, 105, 256, 168
-0.996668, 147, 105, 162, 168
-0.99667, 273, 125, 400, 156
-0.996675, 289, 201, 416, 232
-0.996678, 353, 185, 480, 216
-0.996683, 105, 1, 136, 128
-0.996685, 353, 141, 480, 172
-0.996703, 171, 229, 186, 260
-0.996712, 321, 345, 448, 375
-0.996716, 315, 1, 330, 64
-0.996718, 293, 1, 308, 64
-0.996723, 269, 1, 284, 64
-0.996734, 433, 249, 448, 312
-0.996736, 49, 85, 176, 116
-0.996744, 169, 97, 200, 352
-0.996747, 389, 129, 420, 375
-0.996757, 133, 97, 164, 352
-0.996771, 5, 177, 36, 304
-0.996771, 251, 273, 266, 336
-0.99678, 435, 305, 450, 368
-0.996781, 269, 65, 284, 128
-0.996785, 437, 169, 452, 232
-0.996786, 421, 97, 452, 224
-0.996787, 275, 97, 290, 160
-0.996787, 301, 89, 316, 152
-0.996792, 175, 233, 190, 296
-0.996821, 297, 25, 312, 88
-0.996822, 383, 233, 398, 296
-0.996823, 291, 97, 306, 160
-0.996824, 427, 241, 442, 304
-0.996831, 357, 113, 372, 176
-0.996833, 283, 25, 298, 88
-0.996838, 203, 193, 218, 224
-0.99685, 65, 97, 192, 128
-0.996857, 331, 65, 346, 128
-0.996872, 285, 89, 300, 152
-0.996877, 197, 129, 228, 375
-0.996884, 75, 169, 90, 232
-0.996888, 257, 1, 288, 256
-0.996891, 257, 17, 500, 80
-0.996892, 65, 1, 320, 64
-0.996896, 449, 257, 464, 320
-0.996905, 209, 49, 240, 176
-0.996913, 221, 233, 236, 296
-0.996913, 199, 153, 214, 216
-0.99692, 69, 33, 100, 160
-0.996924, 121, 137, 136, 200
-0.99693, 307, 89, 322, 152
-0.996934, 251, 65, 266, 128
-0.996939, 225, 121, 240, 184
-0.996946, 273, 81, 400, 112
-0.996949, 375, 129, 390, 192
-0.996951, 343, 97, 358, 160
-0.996952, 97, 209, 224, 240
-0.996952, 219, 209, 234, 272
-0.996956, 199, 217, 214, 280
-0.996961, 149, 209, 164, 272
-0.996963, 225, 201, 240, 264
-0.996968, 321, 317, 448, 348
-0.996972, 441, 241, 456, 304
-0.996975, 121, 177, 136, 240
-0.996978, 403, 273, 418, 336
-0.997005, 165, 225, 180, 288
-0.997011, 257, 313, 384, 344
-0.997014, 125, 105, 140, 168
-0.997031, 181, 249, 196, 312
-0.997032, 145, 265, 160, 328
-0.997046, 383, 129, 398, 192
-0.99705, 353, 121, 480, 152
-0.997051, 305, 105, 432, 136
-0.997052, 347, 121, 362, 184
-0.997058, 273, 277, 400, 308
-0.997061, 261, 145, 276, 208
-0.997065, 277, 25, 292, 88
-0.99707, 225, 85, 352, 116
-0.99707, 157, 129, 188, 375
-0.997072, 185, 209, 200, 272
-0.997086, 461, 273, 476, 336
-0.997097, 395, 273, 410, 336
-0.997102, 417, 249, 432, 312
-0.997106, 133, 153, 148, 216
-0.997107, 369, 289, 384, 352
-0.997122, 307, 113, 322, 176
-0.997125, 449, 289, 464, 352
-0.997129, 193, 153, 208, 216
-0.997137, 269, 113, 284, 176
-0.99714, 449, 233, 464, 296
-0.997148, 295, 281, 310, 344
-0.997154, 185, 193, 200, 224
-0.997155, 329, 121, 344, 184
-0.997158, 189, 1, 220, 128
-0.997162, 149, 249, 164, 280
-0.997165, 291, 73, 306, 136
-0.997167, 177, 193, 192, 224
-0.997178, 193, 97, 320, 128
-0.997178, 301, 209, 332, 336
-0.997183, 97, 225, 224, 256
-0.997185, 209, 29, 336, 60
-0.997187, 97, 1, 128, 256
-0.997195, 177, 205, 192, 236
-0.997213, 353, 161, 480, 192
-0.997223, 353, 173, 480, 204
-0.997233, 147, 261, 162, 292
-0.997236, 361, 129, 392, 375
-0.997247, 163, 157, 178, 188
-0.99727, 361, 17, 424, 144
-0.997273, 81, 1, 112, 128
-0.997274, 225, 125, 352, 156
-0.997288, 77, 33, 108, 288
-0.997331, 113, 105, 240, 136
-0.997335, 209, 189, 336, 220
-0.997337, 161, 177, 288, 208
-0.997344, 353, 109, 480, 140
-0.997348, 117, 33, 148, 288
-0.997379, 141, 241, 156, 272
-0.997389, 69, 161, 84, 192
-0.997395, 157, 249, 172, 280
-0.997416, 193, 193, 208, 224
-0.997423, 167, 217, 182, 248
-0.997425, 369, 317, 496, 348
-0.997432, 305, 289, 432, 320
-0.997433, 151, 237, 166, 268
-0.997441, 373, 97, 404, 352
-0.997447, 353, 33, 480, 96
-0.997454, 353, 197, 480, 228
-0.997455, 321, 1, 352, 256
-0.997474, 225, 65, 352, 96
-0.997482, 153, 277, 168, 308
-0.997491, 209, 301, 336, 332
-0.997491, 461, 17, 492, 144
-0.997509, 353, 253, 480, 284
-0.997511, 211, 209, 226, 240
-0.997514, 365, 33, 396, 160
-0.997531, 215, 225, 230, 256
-0.997566, 125, 125, 140, 156
-0.99757, 201, 1, 232, 128
-0.997581, 245, 1, 276, 256
-0.997596, 147, 157, 162, 188
-0.997612, 217, 97, 248, 352
-0.997621, 145, 121, 160, 152
-0.997625, 137, 129, 152, 160
-0.997635, 209, 233, 224, 264
-0.997639, 177, 81, 304, 112
-0.997649, 97, 85, 224, 116
-0.99765, 345, 33, 376, 288
-0.997651, 305, 189, 432, 220
-0.997656, 177, 245, 304, 276
-0.997669, 17, 205, 144, 236
-0.997673, 257, 29, 384, 60
-0.99768, 205, 245, 220, 276
-0.997685, 177, 17, 304, 48
-0.997687, 65, 65, 96, 320
-0.997689, 33, 73, 160, 104
-0.997706, 145, 137, 160, 168
-0.997719, 321, 85, 336, 116
-0.997738, 225, 277, 352, 308
-0.997748, 65, 25, 320, 88
-0.997769, 269, 1, 300, 256
-0.9978, 401, 129, 432, 375
-0.997801, 153, 261, 168, 292
-0.997805, 257, 337, 384, 368
-0.997808, 429, 129, 460, 375
-0.997838, 65, 273, 320, 336
-0.997842, 297, 29, 312, 60
-0.997881, 119, 125, 134, 156
-0.997896, 353, 9, 480, 72
-0.997908, 145, 33, 176, 288
-0.99793, 49, 109, 176, 140
-0.997934, 235, 137, 250, 168
-0.997937, 97, 73, 224, 104
-0.997938, 271, 97, 286, 128
-0.997945, 261, 93, 276, 124
-0.997952, 241, 201, 368, 232
-0.997956, 81, 249, 208, 280
-0.99796, 441, 97, 472, 352
-0.997968, 271, 29, 286, 60
-0.99797, 207, 221, 222, 252
-0.99798, 177, 1, 208, 128
-0.997981, 381, 285, 396, 316
-0.997999, 157, 157, 172, 188
-0.998, 33, 61, 160, 92
-0.998003, 205, 205, 220, 236
-0.998008, 141, 253, 156, 284
-0.998009, 297, 1, 328, 256
-0.998013, 171, 201, 186, 232
-0.998015, 241, 1, 368, 32
-0.998018, 1, 81, 500, 144
-0.998025, 161, 1, 288, 32
-0.998036, 241, 145, 256, 176
-0.998037, 277, 225, 308, 352
-0.998037, 177, 53, 304, 84
-0.998044, 241, 161, 368, 192
-0.998046, 331, 101, 346, 132
-0.998051, 223, 237, 238, 268
-0.998057, 169, 161, 184, 192
-0.99806, 1, 117, 128, 148
-0.998061, 241, 97, 272, 352
-0.998086, 139, 117, 154, 148
-0.998086, 427, 245, 442, 276
-0.998087, 217, 237, 232, 268
-0.998094, 313, 97, 328, 128
-0.998094, 161, 133, 288, 164
-0.998095, 429, 345, 444, 375
-0.998096, 361, 161, 392, 288
-0.998098, 261, 77, 276, 108
-0.9981, 113, 125, 128, 156
-0.998103, 199, 241, 214, 272
-0.998103, 361, 301, 376, 332
-0.99811, 415, 257, 430, 288
-0.998115, 173, 217, 188, 248
-0.998117, 151, 129, 166, 160
-0.998122, 323, 41, 338, 72
-0.99813, 323, 17, 338, 48
-0.998133, 453, 297, 468, 328
-0.998133, 1, 25, 500, 88
-0.998133, 321, 113, 336, 144
-0.998135, 313, 29, 328, 60
-0.998138, 177, 41, 304, 72
-0.998144, 333, 1, 364, 256
-0.998145, 131, 121, 146, 152
-0.998145, 353, 89, 480, 120
-0.99816, 65, 261, 192, 292
-0.998165, 33, 49, 160, 80
-0.99817, 323, 61, 338, 92
-0.99817, 345, 137, 360, 168
-0.998171, 145, 289, 272, 320
-0.998173, 177, 69, 304, 100
-0.998174, 161, 257, 416, 320
-0.998179, 271, 137, 286, 168
-0.998183, 147, 273, 162, 304
-0.998183, 435, 345, 450, 375
-0.998197, 257, 325, 384, 356
-0.998201, 227, 137, 242, 168
-0.998201, 409, 49, 472, 176
-0.998202, 269, 77, 284, 108
-0.998205, 69, 137, 84, 168
-0.998206, 247, 141, 262, 172
-0.998213, 299, 97, 314, 128
-0.998216, 397, 145, 412, 176
-0.998216, 259, 145, 274, 176
-0.998218, 313, 77, 328, 108
-0.998223, 323, 137, 338, 168
-0.998232, 113, 261, 240, 292
-0.998233, 193, 253, 208, 284
-0.998237, 321, 265, 448, 296
-0.998237, 183, 253, 198, 284
-0.998239, 257, 189, 384, 220
-0.998239, 211, 197, 226, 228
-0.99824, 273, 57, 400, 88
-0.998245, 293, 97, 308, 128
-0.998252, 367, 297, 382, 328
-0.998254, 197, 33, 228, 288
-0.998258, 261, 13, 276, 44
-0.998261, 245, 281, 260, 312
-0.998265, 255, 281, 270, 312
-0.998276, 209, 241, 240, 368
-0.998276, 381, 273, 396, 304
-0.998278, 375, 293, 390, 324
-0.998281, 369, 237, 496, 268
-0.998285, 429, 333, 444, 364
-0.998287, 213, 1, 244, 256
-0.998292, 17, 97, 144, 128
-0.998307, 277, 97, 292, 128
-0.998308, 129, 181, 144, 212
-0.998312, 171, 185, 186, 216
-0.998315, 317, 137, 332, 168
-0.998317, 285, 97, 300, 128
-0.998317, 241, 173, 368, 204
-0.99833, 103, 81, 118, 112
-0.998331, 307, 97, 322, 128
-0.998335, 305, 93, 432, 124
-0.998336, 163, 245, 178, 276
-0.99834, 237, 241, 268, 368
-0.998344, 461, 305, 476, 336
-0.998344, 323, 73, 338, 104
-0.998345, 335, 137, 350, 168
-0.998346, 269, 149, 284, 180
-0.998348, 173, 241, 188, 272
-0.998349, 301, 41, 316, 72
-0.998351, 53, 97, 84, 352
-0.998352, 221, 239, 252, 254
-0.998352, 209, 195, 240, 210
-0.998353, 307, 29, 322, 60
-0.998353, 441, 299, 472, 314
-0.998353, 417, 347, 448, 362
-0.998354, 285, 137, 300, 168
-0.998355, 309, 33, 340, 48
-0.998355, 265, 63, 296, 78
-0.998355, 101, 87, 132, 102
-0.998356, 453, 345, 484, 360
-0.998356, 129, 119, 160, 134
-0.998357, 325, 113, 356, 128
-0.998358, 345, 115, 376, 130
-0.998358, 345, 347, 376, 362
-0.998359, 89, 127, 120, 142
-0.998359, 85, 83, 116, 98
-0.99836, 253, 113, 284, 128
-0.998361, 345, 105, 376, 120
-0.998361, 121, 137, 152, 152
-0.998361, 149, 267, 180, 282
-0.998364, 221, 231, 252, 246
-0.998365, 369, 191, 400, 206
-0.998366, 317, 89, 348, 104
-0.998366, 145, 139, 176, 154
-0.998366, 317, 83, 348, 98
-0.998366, 301, 45, 332, 60
-0.998367, 429, 247, 460, 262
-0.998367, 153, 285, 184, 300
-0.998369, 287, 29, 302, 60
-0.99837, 317, 41, 348, 56
-0.99837, 161, 205, 224, 220
-0.998371, 413, 259, 444, 274
-0.998372, 79, 157, 94, 188
-0.998372, 133, 147, 164, 162
-0.998373, 169, 161, 200, 176
-0.998373, 125, 163, 156, 178
-0.998374, 141, 287, 172, 302
-0.998375, 249, 69, 280, 84
-0.998375, 289, 17, 416, 48
-0.998375, 121, 185, 152, 200
-0.998375, 159, 273, 174, 304
-0.998376, 253, 141, 268, 172
-0.998378, 95, 81, 110, 112
-0.998378, 169, 219, 200, 234
-0.998378, 145, 131, 176, 146
-0.998378, 325, 129, 356, 144
-0.998379, 369, 197, 400, 212
-0.998379, 153, 201, 184, 216
-0.99838, 323, 29, 338, 60
-0.99838, 361, 299, 392, 314
-0.99838, 373, 215, 404, 230
-0.998381, 369, 209, 400, 224
-0.998381, 157, 223, 188, 238
-0.998382, 313, 95, 344, 110
-0.998382, 437, 341, 468, 356
-0.998383, 291, 137, 306, 168
-0.998383, 269, 79, 300, 94
-0.998383, 445, 305, 476, 320
-0.998386, 333, 149, 364, 164
-0.998386, 253, 63, 284, 78
-0.998387, 249, 31, 280, 46
-0.998387, 285, 289, 316, 304
-0.998387, 269, 91, 300, 106
-0.998387, 65, 165, 96, 180
-0.998388, 249, 39, 280, 54
-0.99839, 117, 129, 148, 375
-0.998391, 317, 69, 348, 84
-0.998392, 257, 55, 288, 70
-0.998392, 161, 197, 224, 212
-0.998393, 197, 211, 228, 226
-0.998394, 353, 209, 480, 240
-0.998395, 221, 145, 236, 176
-0.998396, 149, 273, 180, 288
-0.998396, 273, 303, 304, 318
-0.998396, 285, 73, 300, 104
-0.998397, 17, 1, 80, 128
-0.998398, 1, 133, 128, 164
-0.998399, 441, 351, 472, 366
-0.998399, 61, 171, 92, 186
-0.998399, 317, 47, 348, 62
-0.998399, 181, 245, 212, 260
-0.998403, 249, 77, 280, 92
-0.998403, 253, 49, 284, 64
-0.998403, 377, 271, 408, 286
-0.998404, 241, 283, 272, 298
-0.998404, 265, 73, 296, 88
-0.998404, 193, 243, 224, 258
-0.998405, 257, 99, 288, 114
-0.998405, 61, 137, 92, 152
-0.998406, 155, 141, 170, 172
-0.998406, 261, 285, 276, 316
-0.998406, 157, 161, 188, 176
-0.998407, 261, 57, 276, 88
-0.998408, 259, 41, 274, 72
-0.998409, 157, 167, 188, 182
-0.99841, 137, 265, 168, 280
-0.99841, 309, 59, 340, 74
-0.998413, 169, 229, 232, 244
-0.998413, 235, 153, 250, 184
-0.998413, 349, 133, 380, 148
-0.998413, 249, 83, 280, 98
-0.998414, 301, 83, 332, 98
-0.998415, 317, 53, 348, 68
-0.998416, 157, 33, 188, 288
-0.998416, 141, 167, 172, 182
-0.998419, 329, 107, 360, 122
-0.998421, 115, 137, 130, 168
-0.998422, 209, 251, 240, 266
-0.998422, 309, 77, 340, 92
-0.998423, 375, 281, 390, 312
-0.998423, 319, 97, 334, 128
-0.998424, 305, 213, 432, 244
-0.998426, 133, 253, 164, 268
-0.998426, 199, 253, 214, 284
-0.998427, 169, 237, 200, 252
-0.998428, 89, 133, 152, 148
-0.998428, 141, 153, 172, 168
-0.99843, 421, 253, 452, 268
-0.99843, 217, 211, 248, 226
-0.998431, 117, 125, 148, 140
-0.998431, 199, 205, 214, 236
-0.998431, 389, 273, 404, 304
-0.998432, 135, 181, 150, 212
-0.998432, 353, 313, 368, 344
-0.998433, 1, 229, 128, 260
-0.998433, 137, 271, 168, 286
-0.998433, 177, 235, 240, 250
-0.998433, 299, 137, 314, 168
-0.998433, 61, 179, 92, 194
-0.998434, 141, 281, 172, 296
-0.998435, 177, 245, 240, 260
-0.998435, 269, 29, 300, 44
-0.998436, 271, 285, 286, 316
-0.998436, 89, 81, 104, 112
-0.998437, 209, 201, 240, 216
-0.998438, 303, 13, 318, 44
-0.99844, 81, 185, 96, 216
-0.99844, 105, 137, 136, 152
-0.998441, 295, 289, 310, 320
-0.998442, 145, 235, 176, 250
-0.998443, 169, 217, 232, 232
-0.998444, 153, 239, 216, 254
-0.998444, 309, 115, 340, 130
-0.99845, 373, 139, 404, 154
-0.998452, 165, 251, 196, 266
-0.998453, 249, 93, 280, 108
-0.998454, 377, 293, 408, 308
-0.998455, 129, 245, 160, 260
-0.998463, 89, 133, 120, 148
-0.998465, 129, 245, 192, 260
-0.998467, 201, 217, 232, 232
-0.998471, 141, 173, 172, 188
-0.998477, 133, 125, 164, 140
-0.998479, 129, 131, 160, 146
-0.998479, 183, 161, 198, 288
-0.998481, 197, 249, 228, 264
-0.998481, 129, 159, 192, 174
-0.998481, 133, 137, 164, 152
-0.998482, 185, 255, 216, 270
-0.998486, 77, 133, 108, 148
-0.998486, 265, 31, 328, 46
-0.998489, 257, 41, 384, 72
-0.998489, 113, 127, 176, 142
-0.998494, 297, 31, 328, 46
-0.9985, 153, 245, 216, 260
-0.998503, 201, 211, 264, 226
-0.998503, 209, 245, 240, 260
-0.998504, 169, 211, 232, 226
-0.998507, 429, 349, 460, 364
-0.998507, 273, 69, 400, 100
-0.99851, 169, 223, 232, 238
-0.998511, 205, 229, 236, 244
-0.998511, 417, 349, 480, 364
-0.998515, 161, 229, 192, 244
-0.998516, 161, 301, 288, 332
-0.998518, 413, 129, 444, 375
-0.998521, 137, 251, 200, 266
-0.998523, 129, 235, 192, 250
-0.998525, 189, 205, 220, 220
-0.998527, 145, 253, 176, 268
-0.998529, 57, 135, 120, 150
-0.99853, 171, 161, 186, 288
-0.99853, 17, 161, 144, 192
-0.998533, 113, 135, 176, 150
-0.998535, 41, 191, 104, 206
-0.998536, 129, 169, 192, 184
-0.99854, 233, 285, 296, 300
-0.998542, 81, 189, 144, 204
-0.998552, 173, 205, 204, 220
-0.998553, 201, 223, 232, 238
-0.998554, 249, 39, 312, 54
-0.998554, 145, 159, 176, 174
-0.998555, 189, 197, 220, 212
-0.998557, 161, 251, 224, 266
-0.998558, 345, 141, 408, 156
-0.99856, 101, 131, 132, 146
-0.99856, 353, 225, 480, 256
-0.998561, 129, 175, 192, 190
-0.998564, 353, 299, 416, 314
-0.998566, 149, 241, 180, 256
-0.998567, 193, 251, 256, 266
-0.998578, 377, 193, 440, 208
-0.99858, 249, 99, 312, 114
-0.998583, 273, 115, 336, 130
-0.998585, 81, 127, 144, 142
-0.998585, 185, 203, 248, 218
-0.998585, 417, 309, 480, 324
-0.998586, 117, 131, 148, 146
-0.998588, 249, 47, 312, 62
-0.998588, 249, 81, 312, 96
-0.99859, 73, 181, 136, 196
-0.998593, 201, 245, 264, 260
-0.998593, 185, 197, 248, 212
-0.998595, 281, 41, 344, 56
-0.998595, 305, 33, 368, 48
-0.998596, 305, 149, 368, 164
-0.998596, 369, 293, 432, 308
-0.998597, 401, 267, 464, 282
-0.998598, 409, 257, 472, 272
-0.998599, 205, 235, 236, 250
-0.998602, 189, 161, 204, 288
-0.998602, 313, 107, 376, 122
-0.998602, 41, 185, 104, 200
-0.998602, 257, 289, 320, 304
-0.998604, 201, 235, 264, 250
-0.998605, 313, 113, 376, 128
-0.998609, 225, 93, 288, 108
-0.998611, 209, 205, 272, 220
-0.998611, 409, 249, 472, 264
-0.998612, 105, 121, 168, 136
-0.998612, 425, 341, 488, 356
-0.998612, 161, 245, 192, 260
-0.998613, 73, 85, 136, 100
-0.998614, 199, 177, 214, 304
-0.998614, 141, 247, 172, 262
-0.998615, 281, 75, 344, 90
-0.998616, 281, 1, 312, 256
-0.998618, 97, 167, 160, 182
-0.998618, 321, 131, 384, 146
-0.998618, 249, 115, 312, 130
-0.998618, 369, 275, 432, 290
-0.998619, 173, 197, 204, 212
-0.998621, 289, 49, 352, 64
-0.998621, 209, 155, 272, 170
-0.998621, 401, 357, 464, 372
-0.998622, 249, 55, 312, 70
-0.998622, 209, 229, 272, 244
-0.998622, 257, 139, 320, 154
-0.998624, 225, 43, 288, 58
-0.998625, 281, 99, 344, 114
-0.998625, 249, 149, 312, 164
-0.998626, 305, 39, 368, 54
-0.998626, 305, 27, 368, 42
-0.998626, 153, 161, 216, 176
-0.998626, 49, 129, 112, 144
-0.998628, 193, 223, 256, 238
-0.998628, 257, 295, 320, 310
-0.998629, 209, 217, 272, 232
-0.99863, 137, 153, 200, 168
-0.99863, 353, 147, 416, 162
-0.99863, 361, 183, 424, 198
-0.99863, 217, 139, 280, 154
-0.99863, 93, 97, 124, 352
-0.998631, 337, 349, 400, 364
-0.998632, 97, 37, 224, 68
-0.998633, 225, 33, 288, 48
-0.998634, 129, 201, 192, 216
-0.998635, 305, 81, 368, 96
-0.998636, 249, 89, 312, 104
-0.998638, 225, 27, 288, 42
-0.998638, 157, 235, 188, 250
-0.998638, 225, 73, 288, 88
-0.998639, 321, 195, 384, 210
-0.998641, 361, 175, 424, 190
-0.998641, 281, 67, 344, 82
-0.998641, 321, 99, 384, 114
-0.998642, 249, 75, 312, 90
-0.998643, 273, 157, 336, 172
-0.998643, 137, 269, 200, 284
-0.998643, 401, 273, 464, 288
-0.998643, 321, 47, 384, 62
-0.998643, 121, 283, 184, 298
-0.998643, 281, 55, 344, 70
-0.998643, 33, 175, 96, 190
-0.998644, 81, 61, 208, 92
-0.998645, 121, 181, 184, 196
-0.998645, 401, 183, 464, 198
-0.998645, 159, 209, 174, 336
-0.998646, 321, 53, 384, 68
-0.998646, 57, 169, 120, 184
-0.998646, 97, 141, 160, 156
-0.998646, 225, 79, 288, 94
-0.998646, 225, 49, 288, 64
-0.998646, 217, 145, 280, 160
-0.998647, 305, 89, 368, 104
-0.998647, 305, 63, 368, 78
-0.998648, 177, 159, 240, 174
-0.998648, 249, 209, 312, 224
-0.99865, 129, 223, 192, 238
-0.99865, 207, 193, 222, 320
-0.99865, 321, 73, 384, 88
-0.99865, 161, 153, 224, 168
-0.998651, 385, 173, 448, 188
-0.998651, 209, 199, 272, 214
-0.998654, 65, 195, 128, 210
-0.998654, 1, 85, 128, 116
-0.998655, 425, 241, 488, 256
-0.998655, 353, 305, 416, 320
-0.998655, 377, 201, 440, 216
-0.998656, 249, 9, 312, 24
-0.998656, 249, 61, 312, 76
-0.998656, 225, 87, 288, 102
-0.998656, 281, 89, 344, 104
-0.998656, 209, 59, 272, 74
-0.998657, 73, 201, 136, 216
-0.998666, 177, 117, 304, 148
-0.99867, 177, 161, 192, 288
-0.998671, 17, 33, 144, 64
-0.998671, 305, 177, 432, 208
-0.9987, 259, 1, 274, 128
-0.998729, 229, 97, 260, 352
-0.998738, 257, 97, 288, 352
-0.998746, 365, 1, 396, 256
-0.998748, 369, 73, 496, 104
-0.99875, 305, 5, 432, 36
-0.998774, 349, 129, 380, 375
-0.998775, 209, 145, 224, 272
-0.998775, 323, 1, 338, 128
-0.998793, 165, 161, 180, 288
-0.998807, 41, 33, 72, 288
-0.998808, 17, 1, 144, 32
-0.998814, 97, 49, 224, 80
-0.998824, 81, 129, 112, 375
-0.998843, 305, 161, 432, 192
-0.998849, 233, 1, 264, 256
-0.998851, 177, 277, 304, 308
-0.998866, 105, 97, 136, 352
-0.998869, 225, 53, 352, 84
-0.998884, 133, 1, 164, 256
-0.998891, 17, 13, 144, 44
-0.998931, 53, 1, 84, 256
-0.99897, 1, 313, 256, 375
-0.998973, 213, 209, 228, 336
-0.998983, 427, 225, 442, 352
-0.998985, 215, 145, 230, 272
-0.998987, 333, 129, 364, 375
-0.998989, 153, 225, 168, 352
-0.998992, 159, 161, 174, 288
-0.999003, 383, 209, 398, 336
-0.999011, 271, 1, 286, 128
-0.999044, 143, 113, 158, 240
-0.999052, 433, 1, 496, 256
-0.999065, 433, 193, 448, 320
-0.999066, 151, 161, 166, 288
-0.999081, 259, 97, 274, 224
-0.999084, 169, 1, 200, 256
-0.999097, 175, 209, 190, 336
-0.999102, 313, 1, 328, 128
-0.999107, 69, 81, 84, 208
-0.999113, 323, 65, 338, 192
-0.99912, 305, 97, 336, 352
-0.999137, 269, 65, 284, 192
-0.999147, 383, 129, 398, 256
-0.999152, 377, 209, 392, 336
-0.999154, 321, 193, 352, 320
-0.999155, 137, 81, 152, 208
-0.999167, 425, 177, 440, 304
-0.999168, 1, 1, 500, 64
-0.999169, 321, 97, 352, 352
-0.999174, 189, 113, 204, 240
-0.999177, 221, 145, 236, 272
-0.999179, 143, 225, 158, 352
-0.999182, 175, 113, 190, 240
-0.999182, 203, 129, 218, 256
-0.999187, 433, 241, 448, 368
-0.999194, 165, 209, 180, 336
-0.999197, 197, 129, 212, 256
-0.999198, 461, 209, 476, 336
-0.999205, 131, 97, 146, 224
-0.999206, 201, 225, 216, 352
-0.999212, 421, 241, 436, 368
-0.999213, 315, 65, 330, 192
-0.999218, 451, 241, 466, 368
-0.999219, 435, 145, 450, 272
-0.999222, 191, 209, 206, 336
-0.999225, 441, 225, 456, 352
-0.999228, 123, 113, 138, 240
-0.999232, 235, 145, 250, 272
-0.999233, 287, 65, 302, 192
-0.999234, 137, 145, 152, 272
-0.999242, 131, 161, 146, 288
-0.999247, 27, 209, 42, 336
-0.999248, 329, 81, 344, 208
-0.999252, 81, 81, 96, 208
-0.999254, 253, 65, 268, 192
-0.999258, 185, 241, 200, 368
-0.999258, 377, 113, 392, 240
-0.99926, 393, 177, 408, 304
-0.999264, 75, 81, 90, 208
-0.999265, 181, 113, 196, 240
-0.999269, 149, 81, 164, 208
-0.999271, 357, 97, 372, 224
-0.999274, 115, 81, 130, 208
-0.999289, 301, 1, 316, 128
-0.999298, 367, 129, 382, 256
-0.9993, 105, 17, 120, 144
-0.999302, 59, 97, 74, 224
-0.999305, 229, 145, 244, 272
-0.999307, 125, 161, 140, 288
-0.999308, 371, 209, 386, 336
-0.999314, 295, 1, 310, 128
-0.999315, 347, 97, 362, 224
-0.999315, 401, 129, 416, 256
-0.999317, 111, 33, 126, 160
-0.999319, 253, 17, 268, 144
-0.999324, 261, 49, 276, 176
-0.999326, 293, 65, 308, 192
-0.999327, 279, 1, 294, 128
-0.999331, 411, 241, 426, 368
-0.999333, 389, 129, 404, 256
-0.999338, 69, 129, 84, 256
-0.999348, 117, 129, 132, 256
-0.999352, 225, 65, 240, 192
-0.999353, 307, 65, 322, 192
-0.999358, 241, 193, 256, 320
-0.999361, 329, 1, 344, 128
-0.999365, 307, 1, 322, 128
-0.999366, 219, 193, 234, 320
-0.999366, 285, 1, 300, 128
-0.999367, 265, 145, 280, 272
-0.999367, 281, 65, 296, 192
-0.999368, 335, 81, 350, 208
-0.999368, 247, 145, 262, 272
-0.999369, 323, 113, 338, 240
-0.999369, 255, 193, 270, 320
-0.999381, 75, 129, 90, 256
-0.999381, 395, 129, 410, 256
-0.999388, 253, 129, 268, 256
-0.999389, 415, 177, 430, 304
-0.999391, 87, 49, 102, 176
-0.999396, 447, 193, 462, 320
-0.999405, 249, 193, 264, 320
-0.999412, 105, 129, 120, 256
-0.999413, 97, 177, 112, 304
-0.999413, 441, 177, 456, 304
-0.999413, 87, 97, 102, 224
-0.999414, 93, 97, 108, 224
-0.999424, 207, 241, 222, 368
-0.999427, 389, 241, 404, 368
-0.999431, 467, 225, 482, 352
-0.999433, 333, 129, 348, 256
-0.999435, 21, 225, 36, 352
-0.999441, 265, 1, 280, 128
-0.999447, 357, 49, 372, 176
-0.999459, 345, 241, 376, 368
-0.99946, 121, 49, 136, 176
-0.999461, 221, 49, 252, 176
-0.999464, 341, 129, 356, 256
-0.999464, 235, 193, 250, 320
-0.999472, 225, 1, 240, 128
-0.999473, 275, 97, 290, 224
-0.999473, 473, 225, 488, 352
-0.999476, 111, 161, 126, 288
-0.999479, 61, 145, 76, 272
-0.999481, 301, 65, 316, 192
-0.999481, 143, 65, 158, 192
-0.999484, 155, 81, 170, 208
-0.999486, 99, 97, 114, 224
-0.999486, 241, 145, 256, 272
-0.999487, 405, 241, 420, 368
-0.999549, 449, 49, 480, 176
-0.999559, 169, 205, 184, 220
-0.999559, 139, 141, 154, 156
-0.99956, 253, 95, 268, 110
-0.999561, 205, 227, 220, 242
-0.999561, 181, 205, 196, 220
-0.999561, 269, 97, 300, 352
-0.999562, 323, 29, 338, 44
-0.999563, 453, 65, 484, 320
-0.999564, 153, 157, 168, 172
-0.999565, 171, 161, 186, 176
-0.999565, 129, 185, 144, 200
-0.999566, 147, 273, 162, 288
-0.999567, 193, 205, 208, 220
-0.999568, 385, 269, 400, 284
-0.999568, 261, 59, 276, 74
-0.999569, 211, 203, 226, 218
-0.99957, 271, 29, 286, 44
-0.999571, 93, 201, 108, 216
-0.999571, 427, 245, 442, 260
-0.999572, 295, 31, 310, 46
-0.999572, 433, 249, 448, 264
-0.999572, 97, 127, 112, 142
-0.999573, 199, 203, 214, 218
-0.999573, 261, 73, 276, 88
-0.999574, 137, 163, 152, 178
-0.999574, 73, 137, 88, 152
-0.999574, 151, 127, 166, 142
-0.999574, 261, 67, 276, 82
-0.999574, 183, 255, 198, 270
-0.999574, 323, 37, 338, 52
-0.999574, 201, 243, 216, 258
-0.999574, 465, 65, 496, 320
-0.999575, 437, 199, 452, 214
-0.999575, 261, 83, 276, 98
-0.999576, 417, 257, 432, 272
-0.999576, 329, 85, 344, 100
-0.999577, 313, 83, 328, 98
-0.999577, 297, 39, 312, 54
-0.999581, 323, 65, 338, 80
-0.999582, 323, 59, 338, 74
-0.999582, 145, 139, 160, 154
-0.999584, 159, 277, 174, 292
-0.999585, 383, 223, 398, 238
-0.999587, 323, 73, 338, 88
-0.999587, 313, 31, 328, 46
-0.999587, 323, 49, 338, 64
-0.999589, 113, 137, 128, 152
-0.99959, 221, 243, 236, 258
-0.999591, 301, 45, 316, 60
-0.999591, 161, 285, 176, 300
-0.999595, 361, 303, 376, 318
-0.999595, 323, 43, 338, 58
-0.999597, 451, 351, 466, 366
-0.999597, 329, 105, 344, 120
-0.999597, 169, 199, 184, 214
-0.999599, 65, 139, 80, 154
-0.999601, 261, 89, 276, 104
-0.999603, 133, 133, 148, 148
-0.999604, 375, 295, 390, 310
-0.999606, 145, 147, 160, 162
-0.999606, 159, 159, 174, 174
-0.999609, 81, 133, 96, 148
-0.999609, 161, 167, 176, 182
-0.999611, 367, 299, 382, 314
-0.999611, 123, 125, 138, 140
-0.999612, 321, 95, 336, 110
-0.999613, 323, 83, 338, 98
-0.999614, 193, 255, 208, 270
-0.999614, 441, 351, 456, 366
-0.999615, 143, 261, 158, 276
-0.999616, 87, 133, 102, 148
-0.999619, 149, 279, 164, 294
-0.999619, 155, 289, 170, 304
-0.999624, 205, 221, 220, 236
-0.999625, 149, 255, 164, 270
-0.999625, 173, 221, 188, 236
-0.999626, 165, 161, 180, 176
-0.999628, 167, 223, 182, 238
-0.999628, 381, 291, 396, 306
-0.999628, 199, 255, 214, 270
-0.999628, 455, 301, 470, 316
-0.999629, 141, 121, 156, 136
-0.99963, 321, 115, 336, 130
-0.99963, 187, 197, 202, 212
-0.999633, 209, 197, 224, 212
-0.999634, 215, 247, 230, 262
-0.999634, 147, 157, 162, 172
-0.999634, 261, 97, 276, 112
-0.999636, 139, 129, 154, 144
-0.999637, 155, 255, 170, 270
-0.999645, 105, 131, 120, 146
-0.999646, 225, 241, 256, 368
-0.999646, 113, 131, 128, 146
-0.999646, 427, 251, 442, 266
-0.999648, 163, 247, 178, 262
-0.99965, 131, 127, 146, 142
-0.99965, 171, 235, 186, 250
-0.999651, 69, 165, 84, 180
-0.999651, 157, 249, 172, 264
-0.999652, 433, 347, 448, 362
-0.999653, 209, 241, 224, 256
-0.999654, 197, 195, 212, 210
-0.999655, 123, 131, 138, 146
-0.999661, 173, 243, 188, 258
-0.999663, 99, 133, 114, 148
-0.999667, 211, 211, 226, 226
-0.999667, 215, 237, 230, 252
-0.99967, 323, 89, 338, 104
-0.99967, 281, 129, 312, 375
-0.999673, 149, 243, 164, 258
-0.999673, 143, 253, 158, 268
-0.999673, 469, 177, 500, 304
-0.999674, 93, 133, 108, 148
-0.999674, 205, 249, 220, 264
-0.999677, 205, 233, 220, 248
-0.999682, 293, 97, 324, 352
-0.999682, 155, 237, 170, 252
-0.999688, 181, 197, 196, 212
-0.9997, 163, 241, 178, 256
-0.999704, 175, 205, 190, 220
-0.999706, 213, 227, 228, 242
-0.999708, 139, 135, 154, 150
-0.999712, 149, 133, 164, 148
-0.999719, 149, 267, 164, 282
-0.999722, 149, 261, 164, 276
-0.999722, 205, 203, 220, 218
-0.999725, 155, 283, 170, 298
-0.999729, 145, 127, 160, 142
-0.999732, 203, 197, 218, 212
-0.999732, 151, 249, 166, 264
-0.999733, 29, 129, 60, 375
-0.999736, 153, 273, 168, 288
-0.99974, 211, 217, 226, 232
-0.999751, 185, 1, 216, 256
-0.999756, 175, 197, 190, 212
-0.999758, 171, 229, 186, 244
-0.999773, 141, 245, 156, 260
-0.999786, 157, 243, 172, 258
-0.99979, 393, 33, 424, 288
-0.999805, 1, 1, 64, 256
-0.999817, 161, 235, 176, 250
-0.999833, 289, 209, 320, 336
-0.999858, 41, 129, 72, 375
-0.999864, 409, 33, 440, 288
-0.999867, 1, 57, 500, 120
-0.999883, 421, 33, 452, 288
-0.999893, 137, 17, 168, 144
-0.999924, 225, 241, 288, 368
-0.999936, 381, 1, 412, 256
-0.99998, 1, 113, 64, 240
-0.999989, 5, 129, 36, 375
-1.00007, 241, 233, 368, 296
-1.00012, 129, 305, 256, 368
-1.00027, 441, 1, 472, 256
-1.00027, 29, 33, 60, 288
-1.00057, 409, 1, 472, 256
-1.0007, 97, 281, 224, 344
-1.0009, 17, 129, 48, 375
-1.00116, 13, 33, 44, 288
-1.00132, 49, 297, 176, 360
-1.00153, 1, 33, 32, 288
-1.00223, 33, 241, 96, 368
-1.00289, 1, 97, 64, 352
-1.00466, 409, 1, 472, 128
-1.0101, 385, 1, 448, 128
-1.01254, 65, 225, 128, 352
-1.01525, 41, 193, 104, 320
