1883
-0.270778, 1, 1, 500, 333
-0.331799, 33, 1, 288, 333
-0.414709, 257, 1, 500, 333
-0.432224, 129, 1, 384, 333
-0.439721, 1, 65, 500, 320
-0.504638, 33, 33, 288, 288
-0.519482, 129, 33, 384, 288
-0.576793, 257, 1, 500, 256
-0.834913, 49, 1, 176, 333
-0.83825, 129, 33, 256, 288
-0.841341, 161, 1, 288, 333
-0.848737, 97, 1, 224, 333
-0.84915, 33, 1, 160, 256
-0.860773, 257, 1, 384, 256
-0.865175, 193, 65, 320, 320
-0.865502, 81, 1, 208, 256
-0.865591, 1, 1, 128, 333
-0.867729, 209, 1, 336, 333
-0.874196, 305, 65, 432, 320
-0.874548, 337, 1, 464, 333
-0.876614, 273, 1, 400, 333
-0.884049, 1, 145, 500, 272
-0.888086, 97, 113, 352, 240
-0.889971, 1, 1, 500, 128
-0.892379, 353, 1, 480, 256
-0.897491, 193, 161, 448, 288
-0.899058, 1, 209, 500, 333
-0.900404, 1, 97, 500, 224
-0.901322, 1, 49, 256, 176
-0.909152, 1, 97, 256, 224
-0.911117, 1, 49, 500, 176
-0.913525, 97, 65, 352, 192
-0.913921, 1, 1, 256, 128
-0.916706, 97, 161, 352, 288
-0.917902, 225, 113, 480, 240
-0.919366, 193, 209, 448, 333
-0.920979, 97, 1, 352, 128
-0.925522, 161, 161, 224, 288
-0.925979, 137, 113, 200, 240
-0.927635, 97, 209, 352, 333
-0.930031, 145, 209, 272, 333
-0.930183, 161, 145, 288, 272
-0.930388, 137, 193, 200, 320
-0.930871, 113, 129, 240, 256
-0.930933, 1, 145, 256, 272
-0.931633, 241, 145, 368, 272
-0.931861, 1, 193, 256, 320
-0.933139, 17, 33, 144, 160
-0.934061, 81, 33, 208, 160
-0.934405, 153, 33, 216, 160
-0.934535, 113, 81, 240, 208
-0.934836, 41, 33, 104, 160
-0.935604, 201, 161, 264, 288
-0.937304, 65, 17, 128, 144
-0.938347, 161, 65, 288, 192
-0.938641, 113, 65, 176, 192
-0.938688, 193, 97, 256, 224
-0.938837, 113, 161, 176, 288
-0.939088, 321, 177, 448, 304
-0.939272, 225, 49, 480, 176
-0.940591, 1, 81, 64, 208
-0.942845, 225, 145, 288, 272
-0.943442, 33, 81, 160, 208
-0.943939, 169, 209, 232, 333
-0.944767, 113, 209, 176, 333
-0.945705, 193, 193, 320, 320
-0.946013, 153, 41, 216, 104
-0.946031, 329, 113, 392, 240
-0.946694, 193, 209, 256, 333
-0.947167, 97, 193, 224, 320
-0.947233, 161, 81, 224, 208
-0.94749, 369, 161, 496, 288
-0.947631, 209, 97, 336, 224
-0.94765, 257, 1, 500, 128
-0.94784, 161, 17, 288, 144
-0.947886, 185, 49, 248, 176
-0.948168, 89, 97, 152, 224
-0.948464, 113, 113, 176, 240
-0.9487, 33, 97, 96, 224
-0.948809, 241, 193, 368, 320
-0.949554, 305, 97, 368, 224
-0.949956, 49, 161, 176, 288
-0.950114, 145, 89, 208, 152
-0.95076, 337, 193, 400, 320
-0.951385, 289, 145, 352, 272
-0.951569, 369, 177, 432, 304
-0.952204, 217, 97, 280, 224
-0.952334, 89, 177, 152, 304
-0.952402, 289, 129, 416, 256
-0.952463, 297, 161, 360, 224
-0.95273, 137, 137, 200, 200
-0.952806, 41, 17, 104, 80
-0.953335, 249, 65, 312, 192
-0.953412, 25, 113, 88, 176
-0.953492, 241, 161, 304, 224
-0.953633, 33, 145, 96, 272
-0.953645, 249, 145, 312, 272
-0.954377, 1, 97, 64, 160
-0.954662, 137, 169, 200, 232
-0.954772, 89, 1, 152, 128
-0.95515, 113, 17, 176, 144
-0.955151, 257, 1, 384, 128
-0.955425, 337, 49, 400, 176
-0.955608, 113, 73, 176, 136
-0.955959, 113, 169, 176, 232
-0.956109, 257, 65, 384, 192
-0.956309, 425, 161, 488, 288
-0.95659, 153, 209, 216, 272
-0.956687, 1, 209, 64, 333
-0.956826, 65, 25, 128, 88
-0.956848, 17, 1, 80, 128
-0.957386, 129, 217, 192, 280
-0.957697, 49, 57, 112, 120
-0.95779, 169, 89, 232, 152
-0.957867, 225, 193, 288, 320
-0.958071, 177, 49, 240, 112
-0.958381, 273, 97, 336, 224
-0.958557, 185, 161, 248, 224
-0.958615, 1, 121, 64, 184
-0.959102, 337, 193, 400, 256
-0.959125, 1, 129, 128, 256
-0.959486, 265, 1, 328, 128
-0.959626, 153, 65, 216, 128
-0.959892, 129, 113, 192, 176
-0.959899, 305, 49, 368, 176
-0.959914, 161, 137, 224, 200
-0.960316, 265, 161, 328, 224
-0.960338, 41, 89, 104, 152
-0.960669, 425, 177, 488, 240
-0.960697, 369, 113, 496, 240
-0.960739, 1, 129, 64, 256
-0.960759, 161, 241, 224, 304
-0.960767, 257, 193, 320, 320
-0.960842, 305, 209, 368, 333
-0.960878, 217, 169, 280, 232
-0.961327, 193, 1, 256, 128
-0.961336, 113, 41, 176, 104
-0.96172, 113, 193, 176, 256
-0.961924, 81, 49, 144, 112
-0.961988, 161, 1, 224, 64
-0.962239, 25, 49, 88, 112
-0.962644, 201, 225, 264, 288
-0.962679, 1, 209, 128, 333
-0.962766, 153, 1, 216, 256
-0.963051, 89, 49, 152, 176
-0.96316, 209, 49, 336, 176
-0.963208, 297, 185, 360, 248
-0.963417, 313, 1, 376, 128
-0.964013, 17, 73, 80, 136
-0.964166, 65, 65, 128, 192
-0.964265, 369, 193, 432, 256
-0.96448, 33, 137, 96, 200
-0.964663, 401, 209, 464, 333
-0.964694, 401, 233, 464, 296
-0.964734, 209, 129, 272, 192
-0.965113, 161, 161, 224, 224
-0.965433, 313, 161, 376, 288
-0.965556, 89, 25, 152, 88
-0.965761, 305, 1, 432, 128
-0.965822, 369, 1, 496, 128
-0.965877, 177, 201, 240, 264
-0.966069, 265, 137, 328, 200
-0.966165, 113, 137, 176, 200
-0.966226, 241, 177, 272, 240
-0.966253, 265, 185, 328, 248
-0.96629, 193, 73, 256, 136
-0.966319, 201, 201, 264, 264
-0.966359, 17, 17, 80, 80
-0.966455, 129, 33, 192, 288
-0.966772, 105, 113, 168, 176
-0.966793, 225, 209, 288, 272
-0.967013, 1, 225, 64, 288
-0.967133, 289, 73, 352, 136
-0.967186, 89, 201, 152, 264
-0.967319, 177, 33, 240, 288
-0.967446, 361, 257, 424, 320
-0.9678, 57, 113, 120, 240
-0.967844, 65, 1, 128, 64
-0.967899, 121, 113, 152, 240
-0.967912, 1, 145, 64, 208
-0.967965, 185, 137, 248, 200
-0.968011, 241, 185, 368, 248
-0.968017, 73, 1, 136, 256
-0.968137, 289, 137, 352, 200
-0.968364, 129, 257, 192, 320
-0.968366, 161, 113, 224, 176
-0.968422, 137, 9, 200, 72
-0.96846, 249, 265, 312, 328
-0.968635, 217, 49, 280, 176
-0.968638, 145, 137, 176, 200
-0.968664, 337, 49, 400, 112
-0.968682, 217, 97, 280, 160
-0.968928, 305, 1, 368, 256
-0.969005, 337, 161, 400, 224
-0.969148, 89, 17, 120, 80
-0.969202, 241, 161, 368, 224
-0.969212, 77, 17, 108, 80
-0.969214, 401, 161, 464, 288
-0.969311, 49, 1, 112, 256
-0.969341, 313, 257, 376, 320
-0.969358, 1, 41, 64, 104
-0.969451, 241, 137, 304, 200
-0.969621, 305, 41, 368, 104
-0.969636, 337, 137, 400, 200
-0.969761, 321, 81, 448, 208
-0.969882, 185, 257, 248, 320
-0.970525, 161, 177, 288, 240
-0.970542, 273, 169, 304, 232
-0.970592, 49, 113, 112, 176
-0.970609, 65, 193, 128, 320
-0.970725, 369, 209, 496, 333
-0.970738, 145, 33, 272, 96
-0.970904, 113, 17, 176, 80
-0.970942, 49, 33, 80, 160
-0.970975, 253, 177, 284, 240
-0.971174, 49, 17, 176, 80
-0.971217, 433, 217, 496, 280
-0.971336, 337, 1, 400, 256
-0.971367, 241, 129, 272, 256
-0.971418, 201, 33, 264, 96
-0.971424, 377, 233, 440, 296
-0.971453, 433, 209, 496, 333
-0.971538, 337, 89, 400, 152
-0.971656, 337, 113, 400, 176
-0.971799, 289, 161, 416, 224
-0.971866, 257, 65, 320, 128
-0.971867, 189, 145, 220, 272
-0.971875, 145, 137, 272, 200
-0.971884, 209, 1, 336, 128
-0.971889, 113, 209, 240, 272
-0.971913, 233, 57, 296, 120
-0.971993, 137, 145, 168, 272
-0.972002, 97, 33, 224, 96
-0.972032, 45, 73, 76, 136
-0.972167, 1, 33, 128, 96
-0.972189, 157, 33, 188, 160
-0.972222, 49, 209, 176, 333
-0.972337, 97, 177, 224, 240
-0.972368, 201, 65, 264, 320
-0.97239, 369, 177, 496, 240
-0.97246, 73, 73, 136, 136
-0.972552, 81, 161, 144, 224
-0.972606, 121, 161, 152, 224
-0.972673, 281, 49, 344, 112
-0.972713, 313, 65, 376, 128
-0.972747, 329, 161, 360, 224
-0.972975, 33, 73, 160, 136
-0.972977, 181, 41, 212, 104
-0.973004, 161, 217, 288, 280
-0.973028, 73, 97, 136, 160
-0.973038, 85, 41, 116, 104
-0.973173, 173, 33, 204, 160
-0.973278, 1, 9, 128, 72
-0.973395, 157, 105, 188, 168
-0.973462, 241, 185, 304, 248
-0.973632, 81, 145, 208, 208
-0.973639, 165, 209, 196, 333
-0.973807, 157, 113, 188, 240
-0.973812, 9, 121, 40, 184
-0.973831, 81, 1, 112, 128
-0.97384, 409, 1, 472, 64
-0.973886, 97, 265, 160, 328
-0.973998, 29, 97, 60, 160
-0.97402, 73, 121, 136, 184
-0.974025, 161, 41, 192, 104
-0.974058, 257, 177, 288, 304
-0.974075, 281, 49, 344, 176
-0.974229, 337, 265, 400, 328
-0.974268, 157, 145, 188, 208
-0.974342, 89, 1, 152, 64
-0.974365, 153, 81, 184, 144
-0.97437, 141, 193, 172, 320
-0.974426, 297, 233, 360, 296
-0.974465, 49, 17, 80, 80
-0.974496, 49, 41, 176, 104
-0.974553, 189, 161, 220, 224
-0.974582, 353, 129, 416, 256
-0.97465, 121, 161, 152, 288
-0.975008, 337, 217, 400, 280
-0.97502, 369, 169, 432, 232
-0.975044, 249, 97, 312, 160
-0.975069, 225, 1, 288, 128
-0.975131, 297, 113, 360, 176
-0.975158, 97, 1, 224, 64
-0.975193, 249, 153, 280, 216
-0.975218, 161, 265, 224, 328
-0.975283, 285, 161, 316, 224
-0.975299, 205, 161, 236, 288
-0.975325, 153, 193, 184, 320
-0.975352, 193, 65, 320, 128
-0.975372, 281, 1, 344, 256
-0.975461, 337, 1, 400, 128
-0.975462, 249, 209, 312, 272
-0.975465, 193, 97, 256, 160
-0.975467, 297, 153, 328, 216
-0.975552, 65, 33, 96, 96
-0.97556, 177, 25, 240, 88
-0.975594, 105, 225, 168, 288
-0.975646, 97, 65, 160, 320
-0.975752, 65, 1, 96, 128
-0.975774, 113, 65, 144, 192
-0.975811, 1, 273, 64, 333
-0.975867, 261, 153, 292, 216
-0.976049, 137, 65, 168, 192
-0.97609, 401, 177, 464, 240
-0.976169, 261, 129, 292, 256
-0.976173, 17, 177, 80, 240
-0.976319, 281, 193, 344, 320
-0.97638, 433, 153, 496, 216
-0.976424, 385, 1, 448, 128
-0.976473, 345, 1, 408, 64
-0.976575, 217, 161, 248, 288
-0.976587, 25, 65, 88, 320
-0.976591, 145, 81, 272, 144
-0.976667, 177, 81, 208, 208
-0.976814, 17, 97, 144, 160
-0.976819, 53, 49, 84, 112
-0.976832, 385, 1, 448, 64
-0.976938, 329, 161, 360, 288
-0.977009, 41, 97, 72, 160
-0.977025, 177, 129, 208, 256
-0.977062, 97, 17, 128, 144
-0.977074, 1, 65, 64, 320
-0.97711, 425, 241, 488, 304
-0.97715, 165, 1, 196, 64
-0.977224, 169, 137, 200, 200
-0.977257, 149, 41, 180, 104
-0.977312, 233, 201, 264, 264
-0.97732, 177, 1, 208, 64
-0.977324, 53, 105, 84, 168
-0.977385, 361, 33, 424, 160
-0.977422, 153, 209, 184, 272
-0.977425, 101, 1, 132, 64
-0.977471, 193, 121, 320, 184
-0.977482, 225, 273, 288, 333
-0.977506, 101, 25, 132, 88
-0.977533, 189, 193, 220, 320
-0.977556, 113, 65, 144, 128
-0.977594, 161, 177, 192, 240
-0.977629, 273, 249, 336, 312
-0.977756, 189, 65, 220, 192
-0.977812, 457, 177, 488, 240
-0.97784, 177, 177, 208, 304
-0.977923, 121, 185, 152, 248
-0.978043, 65, 9, 96, 72
-0.978058, 145, 1, 272, 64
-0.978118, 113, 241, 240, 304
-0.978168, 33, 153, 160, 216
-0.978208, 145, 57, 272, 120
-0.978217, 133, 121, 164, 184
-0.978234, 229, 177, 260, 304
-0.978258, 37, 113, 68, 240
-0.978378, 321, 201, 448, 264
-0.978406, 57, 81, 88, 208
-0.978418, 137, 73, 168, 136
-0.978504, 209, 249, 272, 312
-0.978545, 377, 25, 440, 88
-0.978546, 97, 57, 224, 120
-0.978581, 181, 201, 212, 264
-0.978597, 333, 113, 364, 240
-0.978696, 433, 1, 496, 64
-0.97886, 409, 153, 472, 216
-0.978866, 317, 161, 348, 288
-0.978925, 9, 201, 72, 264
-0.978931, 1, 121, 128, 184
-0.97896, 237, 153, 268, 216
-0.978973, 29, 121, 60, 184
-0.979033, 249, 65, 312, 320
-0.979039, 313, 89, 376, 152
-0.979095, 317, 161, 348, 224
-0.979143, 121, 129, 152, 192
-0.979199, 41, 41, 72, 104
-0.979246, 313, 137, 376, 200
-0.97931, 185, 1, 216, 128
-0.979331, 289, 257, 416, 320
-0.979331, 225, 65, 288, 320
-0.979365, 37, 145, 68, 208
-0.979435, 21, 73, 52, 136
-0.979474, 161, 249, 288, 312
-0.979494, 121, 209, 152, 333
-0.979667, 321, 9, 384, 72
-0.979684, 369, 49, 496, 176
-0.979765, 257, 41, 320, 104
-0.979773, 241, 137, 368, 200
-0.979812, 257, 73, 384, 136
-0.979828, 313, 209, 376, 272
-0.979828, 177, 161, 208, 224
-0.979842, 173, 73, 204, 136
-0.979848, 209, 129, 240, 192
-0.979858, 409, 113, 472, 240
-0.979912, 241, 249, 368, 312
-0.979934, 273, 129, 304, 256
-0.979987, 337, 201, 368, 264
-0.980009, 141, 193, 172, 256
-0.98007, 369, 233, 496, 296
-0.98007, 265, 265, 296, 328
-0.980126, 193, 241, 224, 304
-0.98015, 433, 1, 496, 128
-0.980174, 49, 161, 112, 224
-0.98021, 205, 209, 236, 272
-0.98025, 97, 81, 224, 144
-0.980251, 13, 97, 44, 160
-0.980263, 225, 97, 256, 224
-0.980325, 65, 73, 96, 136
-0.980358, 209, 217, 336, 280
-0.980391, 125, 217, 156, 280
-0.980407, 133, 97, 164, 160
-0.980437, 221, 97, 252, 160
-0.980469, 221, 185, 252, 248
-0.980469, 145, 113, 272, 176
-0.980521, 133, 41, 164, 104
-0.980526, 369, 153, 496, 216
-0.980638, 173, 225, 204, 288
-0.98064, 285, 113, 316, 240
-0.980712, 25, 185, 56, 248
-0.980721, 193, 153, 320, 216
-0.980728, 81, 113, 208, 176
-0.980763, 253, 65, 284, 192
-0.98084, 289, 1, 352, 128
-0.980882, 125, 65, 156, 192
-0.980889, 385, 113, 448, 240
-0.98089, 1, 97, 32, 160
-0.98092, 385, 257, 448, 320
-0.980969, 409, 1, 472, 128
-0.980993, 225, 33, 288, 96
-0.981045, 273, 49, 400, 112
-0.981148, 349, 193, 380, 320
-0.981321, 329, 137, 360, 200
-0.98134, 5, 217, 36, 280
-0.981394, 153, 1, 216, 333
-0.981413, 273, 97, 336, 160
-0.981415, 209, 113, 240, 240
-0.981444, 301, 129, 332, 256
-0.981483, 245, 201, 276, 264
-0.981485, 17, 177, 144, 240
-0.981507, 9, 209, 40, 333
-0.981593, 413, 233, 444, 296
-0.981626, 241, 81, 272, 208
-0.981632, 153, 17, 184, 80
-0.981678, 365, 193, 396, 256
-0.981713, 49, 1, 112, 333
-0.981773, 217, 161, 248, 224
-0.981794, 337, 65, 368, 128
-0.981851, 21, 161, 52, 288
-0.981909, 109, 113, 140, 240
-0.981916, 101, 49, 132, 112
-0.981917, 281, 25, 344, 88
-0.981957, 393, 209, 456, 272
-0.982009, 113, 89, 144, 152
-0.982028, 345, 113, 376, 240
-0.982067, 53, 129, 84, 192
-0.982103, 89, 1, 152, 333
-0.982134, 189, 1, 220, 64
-0.98216, 193, 49, 224, 112
-0.982239, 193, 209, 224, 272
-0.98227, 245, 113, 276, 176
-0.982291, 73, 49, 104, 176
-0.9823, 377, 193, 408, 256
-0.982366, 341, 177, 372, 240
-0.982378, 9, 73, 40, 136
-0.982382, 253, 265, 284, 328
-0.98243, 273, 145, 304, 208
-0.982454, 105, 161, 136, 288
-0.982454, 289, 161, 320, 288
-0.982473, 65, 209, 192, 272
-0.982483, 305, 225, 432, 288
-0.982487, 209, 97, 336, 160
-0.982519, 13, 153, 44, 216
-0.982548, 349, 49, 380, 112
-0.982646, 221, 129, 252, 192
-0.982651, 189, 137, 220, 200
-0.982662, 141, 233, 172, 296
-0.982731, 133, 17, 164, 144
-0.982779, 217, 225, 248, 288
-0.982853, 257, 25, 384, 88
-0.982876, 37, 65, 68, 192
-0.982885, 181, 249, 212, 312
-0.982934, 25, 1, 88, 333
-0.98295, 201, 161, 232, 224
-0.982969, 229, 57, 260, 120
-0.982987, 29, 49, 60, 112
-0.983017, 337, 241, 400, 304
-0.98304, 269, 193, 300, 256
-0.983079, 177, 97, 208, 160
-0.983089, 321, 137, 448, 200
-0.983115, 37, 17, 68, 80
-0.983168, 329, 241, 360, 304
-0.983176, 369, 1, 496, 64
-0.983182, 257, 209, 288, 272
-0.983183, 273, 273, 336, 333
-0.983184, 9, 113, 40, 240
-0.983201, 321, 49, 448, 112
-0.983246, 353, 33, 384, 160
-0.983251, 445, 161, 476, 224
-0.983261, 37, 17, 68, 144
-0.983261, 241, 177, 272, 304
-0.983355, 453, 161, 484, 288
-0.983404, 193, 41, 320, 104
-0.983527, 241, 273, 368, 333
-0.983663, 109, 1, 140, 128
-0.98367, 413, 209, 444, 333
-0.983678, 101, 65, 132, 192
-0.983711, 353, 193, 384, 256
-0.983711, 105, 201, 136, 264
-0.983737, 349, 73, 380, 136
-0.983773, 317, 49, 348, 112
-0.983789, 313, 97, 344, 224
-0.983809, 145, 113, 176, 176
-0.983872, 321, 9, 448, 72
-0.983873, 161, 233, 192, 296
-0.983876, 361, 1, 424, 256
-0.983979, 137, 169, 168, 232
-0.984007, 101, 177, 132, 240
-0.984016, 465, 1, 496, 64
-0.984017, 65, 105, 96, 168
-0.984034, 209, 97, 240, 160
-0.984046, 237, 265, 268, 328
-0.984091, 337, 209, 368, 333
-0.984175, 397, 193, 428, 256
-0.984228, 333, 65, 364, 192
-0.984237, 281, 249, 312, 312
-0.984278, 341, 113, 372, 176
-0.984305, 65, 249, 128, 312
-0.984314, 25, 153, 56, 216
-0.984371, 409, 65, 472, 320
-0.984388, 205, 233, 236, 296
-0.984408, 33, 73, 64, 136
-0.984436, 165, 161, 196, 288
-0.984455, 369, 257, 400, 320
-0.984472, 305, 1, 368, 333
-0.984489, 125, 73, 156, 136
-0.984538, 25, 193, 88, 320
-0.984538, 37, 169, 68, 232
-0.984558, 201, 73, 232, 136
-0.984602, 1, 1, 64, 333
-0.984682, 113, 1, 176, 333
-0.984685, 433, 113, 496, 240
-0.984693, 285, 65, 316, 128
-0.984706, 341, 257, 372, 320
-0.984731, 337, 1, 400, 333
-0.984766, 317, 33, 348, 160
-0.984771, 145, 273, 272, 333
-0.984846, 285, 137, 316, 200
-0.984892, 361, 193, 392, 320
-0.984919, 337, 257, 464, 320
-0.98492, 169, 201, 200, 264
-0.984973, 5, 65, 36, 192
-0.985045, 269, 177, 300, 304
-0.985203, 209, 1, 272, 333
-0.985248, 273, 97, 400, 160
-0.985379, 265, 49, 296, 176
-0.98546, 177, 1, 240, 333
-0.985677, 369, 25, 496, 88
-0.985755, 193, 273, 320, 333
-0.98577, 201, 209, 232, 333
-0.985783, 421, 161, 452, 288
-0.985896, 25, 1, 56, 128
-0.985948, 25, 113, 56, 240
-0.986248, 249, 1, 312, 333
-0.98633, 65, 233, 192, 296
-0.986441, 373, 33, 404, 160
-0.986449, 201, 49, 232, 176
-0.986484, 197, 1, 228, 128
-0.986725, 1, 257, 128, 320
-0.986757, 85, 49, 116, 176
-0.986876, 1, 161, 32, 288
-0.986958, 369, 201, 496, 264
-0.987007, 301, 81, 332, 208
-0.987174, 293, 1, 324, 128
-0.987256, 397, 193, 428, 320
-0.987364, 229, 49, 260, 176
-0.98749, 377, 177, 408, 304
-0.987505, 441, 161, 472, 288
-0.98752, 17, 65, 48, 192
-0.987704, 17, 201, 144, 264
-0.98784, 417, 1, 480, 333
-0.987845, 153, 81, 216, 112
-0.987865, 305, 177, 336, 304
-0.987885, 237, 1, 268, 128
-0.987892, 385, 1, 448, 333
-0.987916, 469, 1, 500, 128
-0.988035, 145, 37, 208, 68
-0.988101, 433, 33, 496, 288
-0.988155, 277, 65, 308, 192
-0.988287, 357, 129, 388, 256
-0.988324, 93, 113, 124, 240
-0.988367, 17, 225, 144, 288
-0.988386, 109, 209, 140, 333
-0.988441, 369, 129, 496, 192
-0.988473, 305, 73, 432, 136
-0.988546, 81, 113, 112, 240
-0.988566, 161, 69, 224, 100
-0.988591, 333, 1, 364, 128
-0.9886, 457, 209, 488, 333
-0.988635, 337, 197, 400, 228
-0.988676, 137, 157, 200, 188
-0.988739, 469, 193, 500, 320
-0.988742, 97, 265, 224, 328
-0.988768, 129, 105, 192, 136
-0.988772, 193, 9, 320, 72
-0.988796, 129, 89, 192, 120
-0.988798, 193, 165, 256, 196
-0.988829, 281, 1, 344, 333
-0.988837, 153, 93, 216, 124
-0.988842, 129, 209, 192, 240
-0.988845, 41, 37, 104, 68
-0.988899, 61, 129, 92, 256
-0.988911, 177, 81, 240, 112
-0.988931, 161, 157, 224, 188
-0.989025, 1, 133, 64, 164
-0.989044, 281, 81, 344, 112
-0.989077, 129, 161, 384, 224
-0.989091, 65, 25, 128, 56
-0.989101, 129, 137, 384, 200
-0.989113, 17, 113, 80, 144
-0.989129, 113, 77, 176, 108
-0.98915, 169, 209, 232, 240
-0.989151, 193, 201, 448, 264
-0.989158, 321, 113, 448, 176
-0.989215, 265, 1, 296, 128
-0.989221, 57, 57, 120, 88
-0.989276, 1, 73, 256, 136
-0.989298, 161, 145, 224, 176
-0.989335, 233, 173, 296, 204
-0.989355, 145, 49, 208, 80
-0.98937, 225, 169, 480, 232
-0.989375, 297, 173, 360, 204
-0.989403, 265, 161, 328, 192
-0.989403, 41, 21, 104, 52
-0.989413, 33, 41, 288, 104
-0.989415, 1, 17, 256, 80
-0.989545, 297, 161, 360, 192
-0.989561, 177, 53, 240, 84
-0.989565, 81, 49, 144, 80
-0.989566, 113, 197, 176, 228
-0.989583, 129, 49, 384, 112
-0.989634, 429, 209, 460, 333
-0.98964, 129, 117, 192, 148
-0.989674, 161, 241, 224, 272
-0.989681, 305, 73, 368, 104
-0.9897, 41, 129, 104, 160
-0.989703, 1, 85, 64, 116
-0.989708, 241, 161, 304, 192
-0.989719, 209, 209, 272, 240
-0.989764, 361, 265, 424, 296
-0.989789, 265, 181, 328, 212
-0.98986, 121, 1, 152, 128
-0.989878, 445, 209, 476, 333
-0.989887, 41, 97, 104, 128
-0.989911, 137, 169, 200, 200
-0.989948, 445, 113, 476, 240
-0.989949, 201, 229, 264, 260
-0.989954, 385, 1, 448, 256
-0.989963, 65, 37, 128, 68
-0.989986, 113, 169, 176, 200
-0.990011, 361, 197, 424, 228
-0.990033, 25, 53, 88, 84
-0.990049, 325, 209, 356, 333
-0.990069, 65, 13, 128, 44
-0.990072, 161, 169, 224, 200
-0.990095, 193, 153, 256, 184
-0.990095, 185, 69, 248, 100
-0.990109, 41, 9, 104, 40
-0.990157, 297, 189, 360, 220
-0.99016, 41, 73, 104, 104
-0.990164, 97, 113, 352, 176
-0.990173, 113, 65, 176, 96
-0.990192, 321, 85, 384, 116
-0.9902, 121, 229, 184, 260
-0.990213, 409, 177, 472, 208
-0.990215, 177, 93, 240, 124
-0.990224, 401, 241, 464, 272
-0.990235, 169, 221, 232, 252
-0.990282, 153, 193, 216, 224
-0.990293, 385, 185, 448, 216
-0.990327, 257, 225, 384, 288
-0.990339, 337, 117, 400, 148
-0.990353, 25, 145, 88, 176
-0.990357, 105, 117, 168, 148
-0.990368, 145, 17, 176, 144
-0.990369, 25, 85, 88, 116
-0.990377, 369, 129, 400, 256
-0.99038, 137, 65, 200, 96
-0.990387, 137, 141, 200, 172
-0.990401, 177, 121, 240, 152
-0.990422, 105, 93, 168, 124
-0.990436, 41, 109, 104, 140
-0.990452, 257, 73, 320, 104
-0.990467, 213, 209, 244, 333
-0.990535, 113, 141, 176, 172
-0.990549, 217, 69, 280, 100
-0.990556, 81, 61, 144, 92
-0.990556, 337, 129, 400, 160
-0.990558, 137, 129, 200, 160
-0.990573, 17, 101, 80, 132
-0.99058, 153, 181, 216, 212
-0.990582, 337, 97, 400, 128
-0.990592, 445, 1, 476, 128
-0.990596, 297, 121, 360, 152
-0.990596, 201, 129, 264, 160
-0.990607, 193, 197, 256, 228
-0.990608, 177, 41, 240, 72
-0.990619, 105, 41, 168, 72
-0.990632, 169, 257, 232, 288
-0.99065, 337, 49, 400, 80
-0.99065, 17, 41, 80, 72
-0.99071, 89, 209, 152, 240
-0.990714, 289, 65, 320, 192
-0.990722, 105, 185, 168, 216
-0.990725, 105, 105, 168, 136
-0.990764, 361, 181, 424, 212
-0.990776, 217, 161, 280, 192
-0.990781, 273, 245, 336, 276
-0.99079, 249, 61, 312, 92
-0.990793, 225, 185, 288, 216
-0.990798, 233, 113, 296, 144
-0.990798, 433, 237, 496, 268
-0.990801, 9, 29, 72, 60
-0.990805, 321, 253, 384, 284
-0.990808, 209, 105, 272, 136
-0.990819, 169, 109, 232, 140
-0.990823, 1, 233, 64, 264
-0.990838, 73, 97, 136, 128
-0.99084, 329, 185, 392, 216
-0.990841, 281, 1, 312, 128
-0.990846, 417, 1, 448, 128
-0.990857, 305, 97, 368, 128
-0.990886, 225, 293, 288, 324
-0.990903, 249, 197, 312, 228
-0.99091, 417, 225, 480, 256
-0.990913, 433, 181, 496, 212
-0.990913, 385, 65, 448, 192
-0.990936, 1, 69, 64, 100
-0.990945, 161, 133, 224, 164
-0.990948, 257, 289, 320, 320
-0.990952, 1, 145, 64, 176
-0.990981, 81, 189, 144, 220
-0.990989, 129, 281, 192, 312
-0.990991, 49, 129, 80, 256
-0.991011, 1, 97, 256, 160
-0.991013, 193, 241, 256, 272
-0.991015, 1, 173, 64, 204
-0.991015, 201, 289, 264, 320
-0.991016, 33, 137, 288, 200
-0.991026, 361, 1, 424, 333
-0.991027, 353, 81, 480, 144
-0.991037, 361, 253, 424, 284
-0.991058, 121, 53, 184, 84
-0.99106, 97, 25, 160, 56
-0.991069, 137, 241, 200, 272
-0.991088, 145, 265, 208, 296
-0.991098, 81, 177, 144, 208
-0.991116, 89, 9, 152, 40
-0.991128, 337, 213, 400, 244
-0.991134, 201, 41, 264, 72
-0.991146, 65, 1, 128, 32
-0.99115, 337, 141, 400, 172
-0.991197, 253, 17, 284, 144
-0.991238, 33, 161, 288, 224
-0.991328, 409, 161, 440, 288
-0.991496, 65, 185, 320, 248
-0.991515, 33, 161, 64, 288
-0.991604, 217, 49, 248, 176
-0.991673, 97, 89, 352, 152
-0.991826, 129, 257, 384, 320
-0.991897, 393, 1, 424, 128
-0.992017, 85, 41, 116, 72
-0.992063, 97, 217, 352, 280
-0.992076, 129, 25, 384, 88
-0.992086, 1, 153, 500, 216
-0.992086, 173, 77, 204, 108
-0.992098, 153, 101, 184, 132
-0.992102, 269, 173, 300, 204
-0.992107, 1, 209, 256, 272
-0.992111, 49, 61, 80, 92
-0.992116, 237, 177, 268, 208
-0.992133, 157, 81, 188, 112
-0.992174, 269, 185, 300, 216
-0.992204, 1, 1, 32, 128
-0.992205, 189, 165, 220, 196
-0.992209, 29, 105, 60, 136
-0.992218, 241, 189, 272, 220
-0.992224, 361, 81, 424, 208
-0.992235, 253, 193, 284, 224
-0.992244, 169, 89, 200, 120
-0.992245, 297, 173, 328, 204
-0.992249, 181, 45, 212, 76
-0.992262, 253, 177, 284, 208
-0.992266, 97, 41, 224, 72
-0.992271, 77, 21, 108, 52
-0.992272, 153, 45, 184, 76
-0.992272, 169, 165, 200, 196
-0.992283, 165, 65, 196, 96
-0.992284, 185, 81, 216, 112
-0.992293, 281, 177, 312, 208
-0.992302, 9, 121, 40, 152
-0.992307, 13, 1, 44, 128
-0.992307, 93, 193, 124, 320
-0.992314, 49, 41, 80, 72
-0.992315, 157, 153, 188, 184
-0.992321, 49, 273, 176, 333
-0.992339, 145, 153, 176, 184
-0.992344, 1, 177, 500, 240
-0.992348, 169, 37, 200, 68
-0.992366, 41, 97, 72, 128
-0.992383, 61, 65, 92, 96
-0.992386, 65, 45, 96, 76
-0.992392, 309, 173, 340, 204
-0.992394, 277, 161, 308, 192
-0.992408, 89, 21, 120, 52
-0.992412, 189, 205, 220, 236
-0.992421, 25, 117, 56, 148
-0.992425, 65, 29, 96, 60
-0.992432, 193, 225, 448, 288
-0.992443, 133, 101, 164, 132
-0.992459, 369, 49, 496, 112
-0.992463, 173, 205, 204, 236
-0.992477, 153, 217, 184, 248
-0.9925, 329, 161, 360, 192
-0.9925, 125, 221, 156, 252
-0.992501, 37, 117, 68, 148
-0.992506, 245, 161, 276, 192
-0.992512, 113, 73, 144, 104
-0.992525, 305, 161, 336, 192
-0.992527, 237, 201, 268, 232
-0.992528, 193, 241, 224, 272
-0.99253, 357, 197, 388, 228
-0.992531, 141, 213, 172, 244
-0.992535, 157, 169, 188, 200
-0.992537, 121, 165, 152, 196
-0.992539, 321, 173, 352, 204
-0.992544, 337, 81, 368, 112
-0.992547, 53, 77, 84, 108
-0.99255, 185, 153, 216, 184
-0.992553, 177, 65, 208, 96
-0.992553, 133, 85, 164, 116
-0.992553, 293, 73, 324, 104
-0.992564, 317, 161, 348, 192
-0.992566, 133, 121, 164, 152
-0.992572, 225, 145, 480, 208
-0.992572, 393, 145, 424, 272
-0.99258, 341, 201, 372, 232
-0.992591, 85, 9, 116, 40
-0.992611, 97, 9, 128, 40
-0.992613, 121, 93, 152, 124
-0.99262, 145, 141, 176, 172
-0.992622, 245, 113, 276, 144
-0.992623, 313, 77, 344, 108
-0.992628, 205, 153, 236, 184
-0.99263, 53, 105, 84, 136
-0.99263, 153, 205, 184, 236
-0.992633, 133, 73, 164, 104
-0.992633, 85, 53, 116, 84
-0.992634, 373, 261, 404, 292
-0.992635, 29, 181, 60, 212
-0.992636, 145, 205, 272, 236
-0.99265, 337, 69, 368, 100
-0.99265, 97, 33, 128, 64
-0.992651, 145, 85, 176, 116
-0.992651, 457, 181, 488, 212
-0.992671, 369, 197, 400, 228
-0.992673, 29, 137, 60, 168
-0.992677, 153, 61, 184, 92
-0.992681, 33, 61, 64, 92
-0.992684, 181, 245, 212, 276
-0.992693, 289, 161, 320, 192
-0.992696, 177, 221, 208, 252
-0.992698, 237, 213, 268, 244
-0.992705, 297, 185, 328, 216
-0.992709, 29, 85, 60, 116
-0.992709, 253, 289, 284, 320
-0.992714, 1, 245, 32, 276
-0.992715, 233, 293, 264, 324
-0.992717, 121, 201, 152, 232
-0.992717, 189, 61, 220, 92
-0.992721, 65, 17, 96, 48
-0.992724, 53, 25, 84, 56
-0.992725, 33, 49, 64, 80
-0.992726, 361, 261, 392, 292
-0.99273, 201, 165, 232, 196
-0.992737, 333, 181, 364, 212
-0.992738, 169, 153, 200, 184
-0.992738, 17, 105, 48, 136
-0.99274, 41, 81, 72, 112
-0.99274, 193, 41, 224, 72
-0.99274, 257, 161, 288, 192
-0.99274, 165, 233, 196, 264
-0.992754, 53, 117, 84, 148
-0.992756, 153, 33, 184, 64
-0.99276, 381, 197, 412, 228
-0.992763, 325, 69, 356, 100
-0.992767, 225, 65, 256, 96
-0.992771, 225, 193, 256, 224
-0.992777, 201, 77, 232, 108
-0.992778, 245, 65, 276, 96
-0.992779, 121, 189, 152, 220
-0.992793, 165, 141, 196, 172
-0.992796, 137, 169, 168, 200
-0.992799, 109, 209, 140, 240
-0.9928, 393, 185, 424, 216
-0.992805, 205, 209, 236, 240
-0.992809, 181, 193, 212, 224
-0.99281, 157, 121, 188, 152
-0.992811, 133, 61, 164, 92
-0.992821, 353, 101, 384, 132
-0.992822, 73, 161, 104, 288
-0.992823, 413, 237, 444, 268
-0.992823, 165, 53, 196, 84
-0.992826, 217, 165, 248, 196
-0.992835, 113, 109, 144, 140
-0.992838, 389, 265, 420, 296
-0.992838, 225, 105, 256, 136
-0.992848, 165, 1, 196, 32
-0.992892, 221, 1, 252, 128
-0.992901, 1, 41, 500, 104
-0.992915, 253, 177, 268, 240
-0.992944, 257, 1, 384, 64
-0.992956, 357, 81, 388, 208
-0.993021, 1, 201, 500, 264
-0.993121, 289, 177, 416, 208
-0.993136, 193, 113, 448, 176
-0.993147, 465, 129, 496, 256
-0.993195, 93, 17, 108, 80
-0.993237, 65, 53, 192, 84
-0.993249, 1, 1, 500, 64
-0.993287, 161, 165, 288, 196
-0.993325, 1, 241, 256, 304
-0.99337, 129, 1, 384, 64
-0.993411, 281, 161, 296, 224
-0.993442, 457, 1, 488, 128
-0.993445, 241, 189, 368, 220
-0.993595, 177, 189, 304, 220
-0.993613, 287, 161, 302, 224
-0.993616, 247, 193, 262, 256
-0.993625, 369, 81, 400, 208
-0.993651, 17, 61, 144, 92
-0.993654, 167, 145, 182, 208
-0.993686, 257, 265, 500, 328
-0.993693, 99, 9, 114, 72
-0.9937, 257, 25, 500, 88
-0.993767, 225, 73, 480, 136
-0.993779, 369, 181, 496, 212
-0.993784, 17, 41, 144, 72
-0.993796, 293, 153, 308, 216
-0.9938, 175, 49, 190, 112
-0.993807, 97, 153, 224, 184
-0.993824, 141, 161, 156, 224
-0.993833, 239, 169, 254, 232
-0.99385, 335, 153, 350, 216
-0.99387, 341, 153, 356, 216
-0.993872, 173, 137, 188, 200
-0.993883, 261, 185, 276, 248
-0.993919, 87, 33, 102, 96
-0.993921, 159, 137, 174, 200
-0.993923, 433, 1, 464, 128
-0.993936, 225, 49, 480, 112
-0.993989, 145, 61, 272, 92
-0.994028, 71, 33, 86, 96
-0.994042, 17, 73, 144, 104
-0.994043, 65, 65, 192, 96
-0.994065, 241, 161, 368, 192
-0.994095, 33, 265, 288, 328
-0.994099, 155, 73, 170, 136
-0.994113, 49, 25, 176, 56
-0.994134, 129, 217, 256, 248
-0.994138, 161, 161, 176, 224
-0.994159, 39, 81, 54, 144
-0.994167, 241, 173, 368, 204
-0.994217, 305, 1, 336, 128
-0.994235, 145, 41, 272, 72
-0.994257, 65, 81, 192, 112
-0.994272, 45, 81, 60, 144
-0.994306, 113, 237, 240, 268
-0.99432, 323, 153, 338, 216
-0.994328, 271, 161, 286, 224
-0.994329, 145, 89, 272, 120
-0.994337, 405, 1, 436, 128
-0.994343, 181, 153, 196, 216
-0.99435, 127, 65, 142, 128
-0.994356, 155, 41, 170, 104
-0.994367, 155, 97, 170, 160
-0.994374, 247, 169, 262, 232
-0.994395, 425, 113, 456, 240
-0.994399, 147, 201, 162, 264
-0.994404, 145, 153, 272, 184
-0.994414, 97, 169, 224, 200
-0.994433, 343, 177, 358, 240
-0.994434, 417, 233, 432, 296
-0.99444, 189, 33, 204, 96
-0.994449, 59, 25, 74, 88
-0.994457, 259, 153, 274, 216
-0.994468, 173, 169, 188, 232
-0.994471, 1, 257, 500, 320
-0.994489, 151, 137, 166, 200
-0.994506, 257, 1, 500, 64
-0.994512, 265, 265, 280, 328
-0.994554, 49, 5, 176, 36
-0.994587, 171, 9, 186, 72
-0.994601, 321, 197, 448, 228
-0.994643, 193, 61, 320, 92
-0.994672, 153, 1, 184, 256
-0.994685, 203, 233, 218, 296
-0.994696, 1, 113, 128, 144
-0.994733, 33, 165, 160, 196
-0.994739, 193, 73, 320, 104
-0.994751, 179, 201, 194, 264
-0.994753, 95, 41, 110, 104
-0.99476, 57, 73, 72, 136
-0.994764, 141, 185, 156, 248
-0.994764, 299, 161, 314, 224
-0.994769, 29, 153, 44, 216
-0.994771, 179, 1, 194, 64
-0.994775, 105, 25, 120, 88
-0.994781, 59, 105, 74, 168
-0.994801, 329, 153, 344, 216
-0.99483, 65, 105, 80, 168
-0.99485, 265, 161, 280, 224
-0.994869, 1, 65, 500, 128
-0.994873, 187, 57, 202, 120
-0.994878, 81, 97, 208, 128
-0.994884, 321, 265, 448, 296
-0.994906, 63, 49, 78, 112
-0.994911, 9, 225, 24, 288
-0.994913, 239, 193, 254, 256
-0.994914, 195, 41, 210, 104
-0.994918, 37, 113, 52, 176
-0.994922, 177, 177, 304, 208
-0.994927, 161, 229, 288, 260
-0.994932, 241, 201, 368, 232
-0.994957, 17, 101, 144, 132
-0.995, 81, 225, 208, 256
-0.995004, 209, 217, 224, 280
-0.995006, 369, 105, 496, 168
-0.995014, 129, 141, 256, 172
-0.995016, 131, 161, 146, 224
-0.995022, 165, 73, 180, 136
-0.995031, 337, 177, 352, 240
-0.995039, 1, 29, 128, 60
-0.995063, 117, 65, 148, 320
-0.995078, 15, 209, 30, 272
-0.995082, 307, 161, 322, 224
-0.995083, 81, 205, 208, 236
-0.995084, 205, 169, 220, 232
-0.995118, 1, 129, 16, 192
-0.995152, 257, 265, 272, 328
-0.995158, 181, 33, 196, 96
-0.995161, 1, 125, 128, 156
-0.995161, 189, 169, 204, 232
-0.995171, 1, 233, 500, 296
-0.995201, 165, 33, 180, 96
-0.995208, 469, 177, 484, 240
-0.995213, 27, 73, 42, 136
-0.995215, 313, 161, 328, 224
-0.99523, 113, 185, 240, 216
-0.995252, 177, 253, 304, 284
-0.995257, 11, 121, 26, 184
-0.995264, 87, 1, 102, 64
-0.995281, 273, 261, 400, 292
-0.995286, 153, 177, 168, 240
-0.995301, 51, 113, 66, 176
-0.995305, 353, 249, 480, 280
-0.995312, 177, 133, 304, 164
-0.995324, 97, 29, 224, 60
-0.995334, 15, 89, 30, 152
-0.995349, 191, 1, 206, 64
-0.995351, 161, 109, 288, 140
-0.995353, 51, 17, 66, 80
-0.995375, 1, 121, 500, 184
-0.995376, 7, 97, 22, 160
-0.995382, 63, 73, 78, 136
-0.995387, 257, 49, 384, 80
-0.9954, 35, 57, 50, 120
-0.995405, 195, 65, 210, 128
-0.995411, 23, 97, 38, 160
-0.995417, 253, 153, 268, 216
-0.995422, 271, 265, 286, 328
-0.995432, 477, 209, 492, 272
-0.995437, 197, 249, 212, 312
-0.995447, 321, 165, 448, 196
-0.995448, 127, 89, 142, 152
-0.995451, 127, 137, 142, 200
-0.995457, 145, 77, 272, 108
-0.995468, 109, 1, 124, 64
-0.995476, 349, 49, 364, 112
-0.995491, 169, 105, 184, 168
-0.995493, 129, 121, 256, 152
-0.995493, 193, 201, 320, 232
-0.995497, 213, 137, 228, 200
-0.995515, 331, 177, 346, 240
-0.995517, 217, 97, 232, 160
-0.995524, 173, 1, 204, 256
-0.995526, 241, 289, 368, 320
-0.99554, 21, 73, 36, 136
-0.995548, 53, 41, 68, 104
-0.995551, 287, 65, 302, 128
-0.995551, 51, 73, 66, 136
-0.995564, 185, 1, 200, 64
-0.995569, 33, 81, 48, 144
-0.995573, 3, 241, 18, 304
-0.995578, 81, 9, 96, 72
-0.995578, 349, 113, 364, 176
-0.995588, 77, 49, 92, 112
-0.995594, 61, 129, 76, 192
-0.995594, 81, 137, 208, 168
-0.995603, 17, 89, 144, 120
-0.995609, 257, 77, 384, 108
-0.995611, 97, 1, 224, 32
-0.995641, 43, 105, 58, 168
-0.995644, 221, 121, 236, 184
-0.995661, 179, 73, 194, 136
-0.995662, 183, 177, 198, 240
-0.995662, 251, 265, 266, 328
-0.995664, 289, 185, 304, 248
-0.995684, 131, 193, 146, 256
-0.995704, 287, 137, 302, 200
-0.99571, 189, 225, 204, 288
-0.995726, 113, 261, 240, 292
-0.995728, 351, 201, 366, 264
-0.995733, 129, 217, 144, 280
-0.995741, 453, 1, 468, 64
-0.995741, 265, 137, 280, 200
-0.995745, 113, 249, 240, 280
-0.995747, 175, 233, 190, 296
-0.995752, 369, 193, 496, 224
-0.995767, 199, 1, 214, 64
-0.995767, 209, 273, 336, 304
-0.995768, 97, 1, 128, 256
-0.995769, 255, 201, 270, 264
-0.995777, 241, 97, 368, 128
-0.995781, 371, 193, 386, 256
-0.995784, 201, 41, 216, 104
-0.995801, 125, 161, 140, 224
-0.995806, 167, 209, 182, 272
-0.995813, 201, 201, 216, 264
-0.995817, 21, 193, 36, 256
-0.995826, 1, 17, 128, 48
-0.995833, 177, 217, 304, 248
-0.99585, 209, 113, 336, 144
-0.995862, 1, 141, 128, 172
-0.995863, 17, 177, 144, 208
-0.995921, 145, 289, 272, 320
-0.995923, 161, 265, 288, 296
-0.995967, 225, 213, 352, 244
-0.995972, 193, 33, 224, 288
-0.995998, 49, 121, 176, 152
-0.996001, 369, 261, 496, 292
-0.996076, 257, 61, 384, 92
-0.996124, 209, 149, 336, 180
-0.996127, 37, 1, 68, 256
-0.996158, 49, 1, 80, 256
-0.996172, 33, 153, 160, 184
-0.996173, 141, 33, 172, 288
-0.996177, 161, 277, 288, 308
-0.99618, 161, 241, 288, 272
-0.9963, 369, 169, 496, 200
-0.996322, 225, 245, 352, 276
-0.996348, 241, 65, 272, 320
-0.996378, 305, 65, 432, 96
-0.996383, 321, 153, 448, 184
-0.99645, 273, 249, 400, 280
-0.996477, 433, 49, 496, 176
-0.996483, 209, 33, 240, 288
-0.996486, 209, 229, 336, 260
-0.99649, 321, 1, 352, 256
-0.99649, 289, 277, 416, 308
-0.996494, 305, 53, 432, 84
-0.996494, 353, 1, 384, 256
-0.996502, 65, 193, 192, 224
-0.996508, 81, 109, 208, 140
-0.996509, 97, 13, 224, 44
-0.996615, 85, 1, 116, 256
-0.996618, 333, 1, 364, 256
-0.996636, 193, 89, 320, 120
-0.99664, 145, 1, 272, 32
-0.996642, 165, 89, 180, 120
-0.996651, 309, 1, 340, 256
-0.996678, 113, 273, 240, 304
-0.996684, 289, 93, 416, 124
-0.996694, 305, 209, 432, 240
-0.996702, 257, 149, 384, 180
-0.996702, 167, 157, 182, 188
-0.996713, 305, 81, 432, 112
-0.996739, 171, 89, 186, 120
-0.996789, 337, 41, 464, 72
-0.996792, 5, 65, 36, 320
-0.996801, 257, 37, 384, 68
-0.996844, 325, 173, 340, 204
-0.996879, 183, 165, 198, 196
-0.99689, 69, 1, 100, 256
-0.996894, 225, 65, 256, 320
-0.996902, 1, 89, 500, 152
-0.996909, 271, 173, 286, 204
-0.996918, 189, 41, 204, 72
-0.99694, 175, 77, 190, 108
-0.996941, 257, 109, 384, 140
-0.996955, 289, 129, 416, 160
-0.996975, 369, 233, 496, 264
-0.996979, 181, 205, 196, 236
-0.996985, 157, 85, 172, 116
-0.996991, 17, 1, 48, 256
-0.996994, 95, 41, 110, 72
-0.997015, 281, 173, 296, 204
-0.997017, 183, 37, 198, 68
-0.997039, 129, 1, 160, 256
-0.997049, 193, 41, 320, 72
-0.997055, 33, 105, 48, 136
-0.997078, 337, 1, 464, 32
-0.997087, 159, 97, 174, 128
-0.997129, 297, 173, 312, 204
-0.997144, 43, 97, 58, 128
-0.997144, 277, 185, 292, 216
-0.997145, 225, 261, 352, 292
-0.997158, 179, 93, 194, 124
-0.997158, 309, 173, 324, 204
-0.997161, 369, 141, 496, 172
-0.997169, 369, 1, 400, 256
-0.997173, 53, 61, 68, 92
-0.997181, 321, 237, 448, 268
-0.997182, 193, 297, 320, 328
-0.997198, 1, 5, 128, 36
-0.997212, 93, 29, 108, 60
-0.997214, 145, 29, 272, 60
-0.997218, 203, 157, 218, 188
-0.997224, 175, 157, 190, 188
-0.997225, 21, 117, 36, 148
-0.997225, 239, 193, 254, 224
-0.99723, 183, 77, 198, 108
-0.997231, 257, 181, 272, 212
-0.99724, 315, 161, 330, 192
-0.99724, 49, 81, 64, 112
-0.997243, 97, 13, 112, 44
-0.997251, 305, 225, 432, 256
-0.997256, 241, 125, 368, 156
-0.997259, 321, 17, 448, 48
-0.99726, 193, 165, 208, 196
-0.997277, 247, 185, 262, 216
-0.997278, 191, 85, 206, 116
-0.997288, 273, 161, 288, 192
-0.997297, 369, 153, 496, 184
-0.997312, 169, 101, 184, 132
-0.997315, 289, 161, 304, 192
-0.997317, 65, 65, 80, 96
-0.997342, 87, 41, 102, 72
-0.997343, 279, 161, 294, 192
-0.997349, 347, 125, 362, 156
-0.997356, 89, 13, 104, 44
-0.997365, 153, 97, 168, 128
-0.997369, 161, 157, 176, 188
-0.997375, 247, 205, 262, 236
-0.997376, 167, 41, 182, 72
-0.997378, 17, 217, 144, 248
-0.997386, 287, 177, 302, 208
-0.997401, 155, 37, 170, 68
-0.997412, 65, 181, 192, 212
-0.997415, 319, 173, 334, 204
-0.997417, 91, 53, 106, 84
-0.997421, 155, 73, 170, 104
-0.997424, 159, 169, 174, 200
-0.997427, 369, 205, 496, 236
-0.997427, 169, 169, 184, 200
-0.997431, 65, 237, 192, 268
-0.997443, 1, 269, 128, 300
-0.997444, 185, 65, 200, 96
-0.997444, 185, 89, 200, 120
-0.997453, 195, 41, 210, 72
-0.997456, 331, 157, 346, 188
-0.997457, 59, 77, 74, 108
-0.99746, 159, 141, 174, 172
-0.997464, 257, 193, 272, 224
-0.997467, 63, 53, 78, 84
-0.997475, 143, 193, 158, 224
-0.997476, 61, 121, 76, 152
-0.997484, 349, 113, 364, 144
-0.997484, 339, 173, 354, 204
-0.997486, 17, 201, 144, 232
-0.997493, 247, 173, 262, 204
-0.997494, 211, 153, 226, 184
-0.997498, 239, 177, 254, 208
-0.997503, 163, 77, 178, 108
-0.997506, 15, 121, 30, 152
-0.997513, 69, 121, 84, 152
-0.997525, 177, 37, 192, 68
-0.997525, 175, 209, 190, 240
-0.997526, 65, 105, 80, 136
-0.997528, 9, 129, 24, 160
-0.997537, 191, 69, 206, 100
-0.997546, 183, 217, 198, 248
-0.997549, 369, 29, 496, 60
-0.997549, 17, 213, 32, 244
-0.997552, 161, 41, 176, 72
-0.997552, 183, 49, 198, 80
-0.997559, 261, 161, 276, 192
-0.997561, 377, 197, 392, 228
-0.997564, 297, 1, 328, 256
-0.997569, 1, 137, 16, 168
-0.997583, 167, 1, 182, 32
-0.99759, 343, 201, 358, 232
-0.99759, 147, 213, 162, 244
-0.997593, 383, 197, 398, 228
-0.997594, 193, 153, 208, 184
-0.997596, 307, 161, 322, 192
-0.997599, 371, 197, 386, 228
-0.9976, 61, 137, 76, 168
-0.997608, 253, 209, 268, 240
-0.997614, 127, 217, 142, 248
-0.997617, 59, 109, 74, 140
-0.997618, 85, 29, 100, 60
-0.99762, 265, 177, 280, 208
-0.997626, 199, 145, 214, 176
-0.997626, 39, 85, 54, 116
-0.997626, 263, 193, 278, 224
-0.997636, 39, 117, 54, 148
-0.997637, 209, 241, 224, 272
-0.997641, 203, 237, 218, 268
-0.997647, 99, 25, 114, 56
-0.99765, 27, 117, 42, 148
-0.99765, 1, 249, 128, 280
-0.99765, 197, 81, 212, 112
-0.997651, 141, 181, 156, 212
-0.997657, 313, 77, 328, 108
-0.997663, 57, 45, 72, 76
-0.997665, 27, 181, 42, 212
-0.997669, 195, 205, 210, 236
-0.997669, 45, 61, 60, 92
-0.99767, 417, 229, 432, 260
-0.997672, 209, 205, 224, 236
-0.997674, 17, 229, 144, 260
-0.997675, 173, 65, 188, 96
-0.997679, 71, 49, 86, 80
-0.997682, 301, 73, 316, 104
-0.997686, 51, 117, 66, 148
-0.997694, 323, 161, 338, 192
-0.997694, 151, 141, 166, 172
-0.997694, 337, 277, 464, 308
-0.997696, 369, 221, 496, 252
-0.997696, 37, 137, 52, 168
-0.9977, 373, 261, 388, 292
-0.997707, 127, 69, 142, 100
-0.997716, 389, 197, 404, 228
-0.997717, 191, 53, 206, 84
-0.997721, 337, 69, 352, 100
-0.997721, 169, 77, 184, 108
-0.997722, 217, 117, 232, 148
-0.997723, 195, 245, 210, 276
-0.997725, 341, 157, 356, 188
-0.997729, 79, 73, 94, 104
-0.997747, 305, 109, 432, 140
-0.997756, 1, 301, 128, 332
-0.99779, 1, 281, 128, 312
-0.997849, 269, 1, 300, 256
-0.997892, 273, 237, 400, 268
-0.997893, 369, 13, 496, 44
-0.997901, 97, 289, 224, 320
-0.997923, 257, 65, 288, 320
-0.998212, 285, 1, 316, 256
-0.998214, 445, 65, 476, 320
-0.998391, 145, 143, 208, 158
-0.998402, 145, 41, 208, 56
-0.998403, 153, 175, 216, 190
-0.998407, 121, 171, 184, 186
-0.998412, 1, 87, 64, 102
-0.998414, 57, 51, 120, 66
-0.998415, 153, 87, 216, 102
-0.998417, 153, 167, 216, 182
-0.99842, 161, 47, 224, 62
-0.998426, 129, 213, 192, 228
-0.998436, 337, 201, 400, 216
-0.998439, 169, 209, 232, 224
-0.998441, 129, 107, 192, 122
-0.998441, 41, 45, 104, 60
-0.998445, 25, 103, 88, 118
-0.998446, 161, 149, 224, 164
-0.998449, 233, 177, 296, 192
-0.998454, 137, 47, 200, 62
-0.998456, 345, 265, 408, 280
-0.998457, 273, 79, 336, 94
-0.998459, 113, 87, 176, 102
-0.998459, 273, 187, 336, 202
-0.998467, 129, 113, 192, 128
-0.998468, 121, 163, 184, 178
-0.998474, 161, 155, 224, 170
-0.998477, 153, 81, 216, 96
-0.998477, 153, 53, 184, 68
-0.998477, 153, 97, 216, 112
-0.998478, 265, 175, 328, 190
-0.99848, 313, 79, 344, 94
-0.99848, 81, 63, 112, 78
-0.998481, 65, 31, 128, 46
-0.998481, 185, 55, 216, 70
-0.998481, 121, 93, 152, 108
-0.998481, 281, 251, 312, 266
-0.998482, 165, 241, 196, 256
-0.998482, 133, 121, 164, 136
-0.998482, 157, 149, 188, 164
-0.998482, 41, 37, 104, 52
-0.998483, 201, 167, 232, 182
-0.998483, 89, 35, 120, 50
-0.998484, 57, 61, 120, 76
-0.998484, 165, 211, 196, 226
-0.998485, 357, 265, 388, 280
-0.998485, 377, 199, 408, 214
-0.998485, 205, 209, 236, 224
-0.998485, 133, 89, 164, 104
-0.998486, 1, 141, 64, 156
-0.998486, 113, 69, 176, 84
-0.998487, 385, 263, 416, 278
-0.998488, 141, 211, 172, 226
-0.998488, 41, 25, 104, 40
-0.998489, 281, 191, 312, 206
-0.998489, 189, 155, 220, 170
-0.998489, 1, 247, 32, 262
-0.99849, 25, 87, 56, 102
-0.99849, 309, 175, 340, 190
-0.99849, 417, 237, 480, 252
-0.998491, 289, 175, 352, 190
-0.998492, 65, 43, 128, 58
-0.998492, 249, 293, 280, 308
-0.998493, 69, 51, 100, 66
-0.998493, 141, 143, 172, 158
-0.998493, 181, 75, 212, 90
-0.998494, 177, 89, 240, 104
-0.998494, 105, 111, 168, 126
-0.998495, 133, 127, 164, 142
-0.998495, 133, 103, 164, 118
-0.998495, 133, 217, 164, 232
-0.998495, 137, 125, 200, 140
-0.998495, 85, 55, 116, 70
-0.998495, 21, 121, 52, 136
-0.998496, 129, 219, 192, 234
-0.998496, 61, 137, 92, 152
-0.998497, 1, 133, 64, 148
-0.998498, 41, 135, 104, 150
-0.998499, 173, 87, 204, 102
-0.998499, 281, 87, 344, 102
-0.998501, 265, 195, 328, 210
-0.998501, 301, 189, 332, 204
-0.998501, 41, 17, 104, 32
-0.998502, 161, 53, 224, 68
-0.998502, 53, 129, 84, 144
-0.998503, 161, 71, 224, 86
-0.998503, 173, 219, 204, 234
-0.998504, 113, 81, 176, 96
-0.998504, 173, 63, 204, 78
-0.998504, 121, 207, 184, 222
-0.998505, 77, 17, 108, 32
-0.998506, 65, 25, 128, 40
-0.998507, 17, 127, 80, 142
-0.998507, 129, 225, 192, 240
-0.998507, 81, 51, 144, 66
-0.998508, 193, 247, 224, 262
-0.998508, 129, 177, 192, 192
-0.998509, 253, 179, 284, 194
-0.99851, 321, 91, 384, 106
-0.998511, 25, 81, 88, 96
-0.998511, 37, 181, 68, 196
-0.998512, 161, 159, 192, 174
-0.998512, 69, 57, 100, 72
-0.998512, 97, 27, 128, 42
-0.998513, 97, 11, 128, 26
-0.998513, 177, 175, 240, 190
-0.998513, 249, 185, 280, 200
-0.998513, 49, 37, 80, 52
-0.998514, 117, 113, 148, 128
-0.998515, 145, 61, 208, 76
-0.998516, 25, 87, 88, 102
-0.998516, 321, 181, 352, 196
-0.998517, 113, 97, 176, 112
-0.998517, 193, 81, 256, 96
-0.998517, 225, 67, 256, 82
-0.998518, 17, 121, 80, 136
-0.998518, 25, 111, 56, 126
-0.998518, 121, 147, 184, 162
-0.998519, 189, 149, 220, 164
-0.998519, 145, 201, 208, 216
-0.99852, 53, 115, 84, 130
-0.99852, 169, 141, 232, 156
-0.99852, 49, 57, 80, 72
-0.99852, 137, 157, 200, 172
-0.998521, 125, 231, 156, 246
-0.998521, 65, 37, 128, 52
-0.998522, 337, 131, 400, 146
-0.998522, 153, 47, 184, 62
-0.998522, 137, 133, 200, 148
-0.998523, 297, 183, 360, 198
-0.998524, 113, 75, 144, 90
-0.998524, 133, 115, 164, 130
-0.998524, 137, 119, 200, 134
-0.998524, 117, 163, 148, 178
-0.998524, 169, 145, 200, 160
-0.998525, 169, 235, 232, 250
-0.998527, 65, 19, 128, 34
-0.998527, 89, 19, 120, 34
-0.998527, 5, 87, 36, 102
-0.998528, 305, 81, 368, 96
-0.998529, 201, 229, 264, 244
-0.998529, 217, 295, 280, 310
-0.99853, 153, 183, 216, 198
-0.99853, 121, 75, 184, 90
-0.99853, 177, 163, 240, 178
-0.99853, 217, 213, 280, 228
-0.998531, 153, 83, 184, 98
-0.998531, 169, 41, 232, 56
-0.998534, 169, 229, 232, 244
-0.998535, 5, 129, 36, 144
-0.998535, 33, 117, 64, 132
-0.998536, 185, 207, 216, 222
-0.998536, 329, 173, 360, 188
-0.998536, 17, 43, 80, 58
-0.998537, 49, 137, 80, 152
-0.998538, 361, 197, 424, 212
-0.998538, 301, 183, 332, 198
-0.998539, 173, 69, 204, 84
-0.998539, 1, 93, 64, 108
-0.998539, 113, 235, 176, 250
-0.998539, 105, 117, 168, 132
-0.998539, 321, 49, 384, 64
-0.99854, 397, 263, 428, 278
-0.998541, 41, 97, 104, 112
-0.998541, 41, 129, 104, 144
-0.998541, 209, 207, 272, 222
-0.998542, 157, 97, 188, 112
-0.998542, 461, 1, 492, 256
-0.998542, 41, 99, 72, 114
-0.998542, 41, 31, 104, 46
-0.998543, 185, 55, 248, 70
-0.998543, 341, 201, 372, 216
-0.998544, 145, 207, 208, 222
-0.998544, 425, 181, 488, 196
-0.998544, 265, 181, 328, 196
-0.998545, 33, 111, 96, 126
-0.998545, 249, 131, 312, 146
-0.998545, 37, 107, 68, 122
-0.998546, 161, 77, 192, 92
-0.998546, 81, 189, 144, 204
-0.998546, 161, 245, 224, 260
-0.998547, 61, 73, 92, 88
-0.998548, 253, 197, 284, 212
-0.998548, 145, 153, 176, 168
-0.998549, 169, 215, 232, 230
-0.99855, 97, 45, 160, 60
-0.99855, 357, 271, 388, 286
-0.99855, 33, 141, 96, 156
-0.99855, 305, 73, 368, 88
-0.99855, 81, 61, 144, 76
-0.998551, 177, 61, 240, 76
-0.998551, 121, 183, 184, 198
-0.998552, 161, 167, 192, 182
-0.998552, 297, 161, 360, 176
-0.998553, 133, 109, 164, 124
-0.998555, 193, 71, 256, 86
-0.998555, 9, 109, 72, 124
-0.998556, 57, 1, 120, 16
-0.998556, 129, 165, 160, 180
-0.998557, 97, 229, 160, 244
-0.998557, 57, 11, 120, 26
-0.998557, 1, 155, 64, 170
-0.998558, 185, 149, 248, 164
-0.998558, 25, 149, 88, 164
-0.998558, 25, 67, 88, 82
-0.998558, 169, 223, 232, 238
-0.998559, 185, 49, 216, 64
-0.998559, 193, 95, 256, 110
-0.998559, 217, 67, 280, 82
-0.99856, 49, 75, 80, 90
-0.99856, 233, 75, 296, 90
-0.998561, 345, 271, 408, 286
-0.998561, 137, 67, 200, 82
-0.998562, 201, 87, 264, 102
-0.998563, 153, 41, 184, 56
-0.998564, 137, 237, 200, 252
-0.998564, 241, 291, 304, 306
-0.998565, 45, 81, 76, 96
-0.998565, 345, 259, 408, 274
-0.998566, 185, 155, 248, 170
-0.998566, 385, 193, 448, 208
-0.998566, 185, 41, 216, 56
-0.998567, 169, 93, 200, 108
-0.998567, 173, 39, 204, 54
-0.998568, 9, 121, 40, 136
-0.998569, 173, 177, 204, 192
-0.998574, 49, 65, 80, 80
-0.998574, 149, 173, 180, 188
-0.998575, 241, 205, 272, 220
-0.998578, 253, 191, 284, 206
-0.998578, 65, 45, 96, 60
-0.998578, 53, 109, 84, 124
-0.998581, 49, 43, 80, 58
-0.998581, 173, 55, 204, 70
-0.998582, 297, 175, 328, 190
-0.998582, 241, 177, 272, 192
-0.998582, 369, 265, 400, 280
-0.998584, 281, 179, 312, 194
-0.998584, 65, 35, 96, 50
-0.998585, 77, 33, 108, 48
-0.99859, 61, 67, 92, 82
-0.99859, 145, 163, 176, 178
-0.998592, 173, 81, 204, 96
-0.998593, 185, 89, 216, 104
-0.998596, 157, 89, 188, 104
-0.998597, 153, 105, 184, 120
-0.9986, 233, 197, 264, 212
-0.998608, 77, 23, 108, 38
-0.99861, 85, 49, 116, 64
-0.998613, 127, 129, 142, 256
-0.998615, 277, 185, 308, 200
-0.998616, 161, 173, 192, 188
-0.99862, 189, 167, 220, 182
-0.998625, 241, 191, 272, 206
-0.998629, 189, 173, 220, 188
-0.998633, 289, 185, 320, 200
-0.998636, 173, 45, 204, 60
-0.998638, 155, 33, 170, 160
-0.998639, 177, 169, 208, 184
-0.998641, 153, 143, 184, 158
-0.998643, 153, 213, 184, 228
-0.998649, 85, 41, 116, 56
-0.998651, 269, 191, 300, 206
-0.998653, 139, 145, 154, 272
-0.998664, 145, 193, 160, 320
-0.998671, 95, 1, 110, 128
-0.998671, 261, 185, 292, 200
-0.99868, 269, 175, 300, 190
-0.998684, 127, 65, 142, 192
-0.998711, 51, 49, 66, 176
-0.998713, 163, 33, 178, 160
-0.998716, 177, 177, 192, 304
-0.998723, 185, 129, 200, 256
-0.998732, 171, 193, 186, 320
-0.998754, 341, 161, 356, 288
-0.998757, 417, 65, 448, 320
-0.998763, 205, 161, 220, 288
-0.998778, 173, 33, 188, 160
-0.998782, 63, 1, 78, 128
-0.998802, 63, 49, 78, 176
-0.998803, 433, 65, 464, 320
-0.998809, 181, 81, 196, 208
-0.998821, 41, 81, 56, 208
-0.998831, 381, 1, 412, 256
-0.998837, 341, 113, 356, 240
-0.998845, 259, 145, 274, 272
-0.998848, 179, 33, 194, 160
-0.99886, 57, 33, 72, 160
-0.998866, 213, 129, 228, 256
-0.99888, 197, 1, 212, 128
-0.998882, 171, 81, 186, 208
-0.998885, 265, 113, 280, 240
-0.998888, 183, 193, 198, 320
-0.998889, 193, 65, 208, 192
-0.99889, 85, 1, 100, 128
-0.998897, 133, 161, 148, 288
-0.998899, 153, 145, 168, 272
-0.998907, 191, 177, 206, 304
-0.998909, 261, 193, 276, 320
-0.998933, 133, 209, 148, 333
-0.998944, 269, 177, 284, 304
-0.998945, 159, 113, 174, 240
-0.998952, 197, 145, 212, 272
-0.998968, 465, 177, 480, 304
-0.99897, 409, 65, 472, 192
-0.998972, 393, 1, 424, 256
-0.998982, 51, 1, 66, 128
-0.998984, 177, 129, 192, 256
-0.998985, 59, 97, 74, 224
-0.998988, 153, 209, 168, 333
-0.998988, 315, 97, 330, 224
-0.998993, 11, 209, 26, 333
-0.999003, 139, 193, 154, 320
-0.999004, 35, 113, 50, 240
-0.999006, 27, 113, 42, 240
-0.999006, 121, 113, 136, 240
-0.999007, 73, 17, 88, 144
-0.999009, 347, 97, 362, 224
-0.999009, 293, 161, 308, 288
-0.999011, 133, 113, 148, 240
-0.999012, 331, 161, 346, 288
-0.99902, 47, 97, 62, 224
-0.999023, 207, 113, 222, 240
-0.999023, 287, 161, 302, 288
-0.999026, 185, 33, 200, 160
-0.999032, 149, 97, 164, 224
-0.999033, 249, 129, 264, 256
-0.999036, 323, 129, 338, 256
-0.999039, 255, 97, 270, 224
-0.99904, 277, 145, 292, 272
-0.999041, 53, 97, 68, 224
-0.999041, 271, 113, 286, 240
-0.999052, 347, 161, 362, 288
-0.999057, 101, 1, 116, 128
-0.999057, 69, 65, 84, 192
-0.999062, 233, 161, 248, 288
-0.999063, 421, 161, 436, 288
-0.999067, 191, 129, 206, 256
-0.999071, 111, 1, 126, 128
-0.999076, 199, 193, 214, 320
-0.999079, 291, 97, 306, 224
-0.99908, 261, 49, 276, 176
-0.999081, 119, 161, 134, 288
-0.999082, 33, 161, 48, 288
-0.999084, 165, 81, 180, 208
-0.999085, 145, 145, 160, 272
-0.999086, 79, 1, 94, 128
-0.999093, 187, 81, 202, 208
-0.999094, 159, 193, 174, 320
-0.999105, 1, 129, 16, 256
-0.999106, 219, 161, 234, 288
-0.99912, 417, 209, 432, 333
-0.99912, 353, 193, 368, 320
-0.999124, 211, 177, 226, 304
-0.999131, 237, 97, 252, 224
-0.999136, 117, 65, 132, 192
-0.999137, 353, 113, 368, 240
-0.999152, 213, 81, 228, 208
-0.999153, 227, 161, 242, 288
-0.999154, 245, 49, 260, 176
-0.999157, 349, 49, 364, 176
-0.999157, 199, 81, 214, 208
-0.999159, 297, 113, 312, 240
-0.999164, 313, 145, 328, 272
-0.999169, 241, 177, 256, 304
-0.999171, 221, 81, 236, 208
-0.999176, 285, 113, 300, 240
-0.999177, 165, 209, 180, 333
-0.999201, 475, 1, 490, 128
-0.999202, 477, 209, 492, 333
-0.999208, 277, 193, 292, 320
-0.999211, 191, 1, 206, 128
-0.999215, 341, 209, 356, 333
-0.999216, 23, 161, 38, 288
-0.999229, 205, 209, 220, 333
-0.999229, 227, 97, 242, 224
-0.999231, 123, 209, 138, 333
-0.999236, 255, 209, 270, 333
-0.99924, 117, 1, 132, 128
-0.99924, 319, 177, 334, 304
-0.999246, 471, 161, 486, 288
-0.999247, 235, 209, 250, 333
-0.999256, 17, 177, 32, 304
-0.999258, 1, 65, 16, 192
-0.999261, 139, 97, 154, 224
-0.999263, 333, 97, 348, 224
-0.999267, 171, 129, 186, 256
-0.999268, 79, 49, 94, 176
-0.999269, 327, 1, 342, 128
-0.99927, 45, 17, 60, 144
-0.999275, 33, 65, 48, 192
-0.999277, 481, 161, 496, 288
-0.999282, 243, 129, 258, 256
-0.999285, 371, 193, 386, 320
-0.999286, 459, 177, 474, 304
-0.999298, 307, 129, 322, 256
-0.9993, 251, 49, 266, 176
-0.999301, 205, 49, 220, 176
-0.999662, 165, 77, 180, 92
-0.999663, 27, 63, 42, 78
-0.999664, 45, 119, 60, 134
-0.999664, 17, 87, 32, 102
-0.999664, 33, 177, 48, 192
-0.999666, 69, 109, 84, 124
-0.999667, 141, 189, 156, 204
-0.999668, 63, 103, 78, 118
-0.999668, 189, 53, 204, 68
-0.999669, 265, 195, 280, 210
-0.999669, 157, 85, 172, 100
-0.999669, 185, 203, 200, 218
-0.999669, 349, 201, 364, 216
-0.99967, 131, 165, 146, 180
-0.99967, 197, 247, 212, 262
-0.99967, 173, 45, 188, 60
-0.999671, 209, 209, 224, 224
-0.999672, 285, 187, 300, 202
-0.999672, 325, 181, 340, 196
-0.999672, 29, 153, 44, 168
-0.999674, 165, 97, 180, 112
-0.999674, 305, 189, 320, 204
-0.999676, 61, 129, 76, 144
-0.999677, 11, 127, 26, 142
-0.999677, 63, 67, 78, 82
-0.999678, 149, 159, 164, 174
-0.999678, 91, 15, 106, 30
-0.999678, 339, 181, 354, 196
-0.999679, 155, 39, 170, 54
-0.99968, 289, 129, 304, 144
-0.99968, 167, 11, 182, 26
-0.999681, 91, 47, 106, 62
-0.999681, 293, 191, 308, 206
-0.999681, 149, 143, 164, 158
-0.999681, 189, 63, 204, 78
-0.999682, 161, 175, 176, 190
-0.999682, 297, 175, 312, 190
-0.999683, 59, 79, 74, 94
-0.999683, 305, 79, 320, 94
-0.999683, 63, 41, 78, 56
-0.999683, 179, 211, 194, 226
-0.999684, 1, 87, 16, 102
-0.999684, 195, 43, 210, 58
-0.999684, 59, 123, 74, 138
-0.999684, 417, 233, 432, 248
-0.999685, 97, 45, 112, 60
-0.999685, 45, 97, 60, 112
-0.999686, 315, 79, 330, 94
-0.999686, 89, 53, 104, 68
-0.999687, 279, 185, 294, 200
-0.999687, 169, 39, 184, 54
-0.999687, 47, 111, 62, 126
-0.999688, 73, 73, 88, 88
-0.999689, 283, 177, 298, 192
-0.999689, 183, 47, 198, 62
-0.999689, 183, 67, 198, 82
-0.999689, 363, 269, 378, 284
-0.999689, 89, 21, 104, 36
-0.99969, 185, 181, 200, 196
-0.999692, 309, 175, 324, 190
-0.999692, 123, 163, 138, 178
-0.999694, 99, 51, 114, 66
-0.999694, 41, 87, 56, 102
-0.999694, 199, 175, 214, 190
-0.999695, 343, 203, 358, 218
-0.999697, 177, 39, 192, 54
-0.999698, 245, 207, 260, 222
-0.999699, 257, 183, 272, 198
-0.999699, 87, 33, 102, 48
-0.999699, 5, 121, 20, 136
-0.999699, 21, 215, 36, 230
-0.999699, 247, 195, 262, 210
-0.999702, 341, 173, 356, 188
-0.999702, 373, 265, 388, 280
-0.999703, 195, 87, 210, 102
-0.999704, 69, 121, 84, 136
-0.999704, 157, 169, 172, 184
-0.999705, 155, 79, 170, 94
-0.999705, 99, 25, 114, 40
-0.999708, 171, 89, 186, 104
-0.999709, 277, 191, 292, 206
-0.999709, 63, 109, 78, 124
-0.999709, 297, 185, 312, 200
-0.99971, 205, 241, 220, 256
-0.99971, 23, 87, 38, 102
-0.99971, 65, 73, 80, 88
-0.999711, 97, 15, 112, 30
-0.999712, 21, 121, 36, 136
-0.999712, 177, 93, 192, 108
-0.999713, 269, 187, 284, 202
-0.999714, 169, 177, 184, 192
-0.999715, 177, 87, 192, 102
-0.999715, 159, 97, 174, 112
-0.999716, 183, 39, 198, 54
-0.999716, 85, 39, 100, 54
-0.999717, 91, 41, 106, 56
-0.999718, 15, 121, 30, 136
-0.999718, 153, 105, 168, 120
-0.999719, 335, 173, 350, 188
-0.999719, 35, 87, 50, 102
-0.99972, 159, 163, 174, 178
-0.999721, 183, 167, 198, 182
-0.999721, 271, 175, 286, 190
-0.999722, 157, 153, 172, 168
-0.999722, 239, 197, 254, 212
-0.999724, 179, 177, 194, 192
-0.999727, 177, 169, 192, 184
-0.999731, 53, 75, 68, 90
-0.999731, 307, 183, 322, 198
-0.999733, 155, 143, 170, 158
-0.999734, 167, 143, 182, 158
-0.999734, 7, 85, 22, 100
-0.999735, 49, 81, 64, 96
-0.999739, 191, 177, 206, 192
-0.999741, 69, 129, 84, 144
-0.999745, 313, 183, 328, 198
-0.999746, 247, 189, 262, 204
-0.999748, 187, 89, 202, 104
-0.999749, 181, 57, 196, 72
-0.999753, 169, 169, 184, 184
-0.999755, 189, 41, 204, 56
-0.999758, 323, 175, 338, 190
-0.999762, 5, 127, 20, 142
-0.999762, 43, 105, 58, 120
-0.999765, 203, 167, 218, 182
-0.999767, 193, 167, 208, 182
-0.999767, 161, 143, 176, 158
-0.999787, 183, 219, 198, 234
-0.999802, 185, 175, 200, 190
-0.999813, 163, 169, 178, 184
-0.999895, 405, 65, 436, 320
