1975
-0.355834, 1, 1, 500, 256
-0.376673, 1, 1, 500, 375
-0.436956, 1, 97, 500, 352
-0.496621, 161, 1, 416, 375
-0.503176, 257, 1, 500, 375
-0.545327, 129, 1, 384, 256
-0.552454, 33, 1, 288, 375
-0.679772, 225, 1, 480, 256
-0.703279, 129, 97, 384, 352
-0.723872, 257, 129, 500, 375
-0.772935, 33, 129, 288, 375
-0.787876, 1, 1, 256, 256
-0.857732, 321, 1, 448, 375
-0.858364, 337, 1, 464, 256
-0.870294, 1, 65, 500, 192
-0.870486, 129, 33, 256, 288
-0.872316, 145, 1, 272, 375
-0.875127, 225, 1, 352, 256
-0.883471, 49, 1, 176, 375
-0.884485, 369, 1, 496, 375
-0.886379, 81, 1, 208, 256
-0.888839, 241, 1, 368, 375
-0.890027, 289, 1, 416, 256
-0.893493, 97, 1, 224, 375
-0.894633, 81, 129, 208, 375
-0.895365, 1, 1, 128, 375
-0.899957, 1, 129, 500, 256
-0.901457, 177, 1, 304, 256
-0.904738, 193, 1, 320, 375
-0.905418, 273, 97, 400, 352
-0.910142, 33, 1, 160, 256
-0.912682, 97, 65, 352, 192
-0.914287, 1, 17, 500, 144
-0.914306, 161, 129, 288, 375
-0.917403, 321, 97, 448, 352
-0.927081, 209, 97, 336, 352
-0.928629, 1, 209, 500, 336
-0.92877, 369, 97, 496, 352
-0.930191, 33, 97, 160, 352
-0.932912, 161, 241, 416, 368
-0.932983, 257, 17, 500, 144
-0.937289, 97, 145, 352, 272
-0.937672, 161, 17, 416, 144
-0.942651, 129, 65, 256, 192
-0.942909, 1, 17, 256, 144
-0.944721, 65, 241, 320, 368
-0.946912, 193, 193, 448, 320
-0.948518, 33, 193, 288, 320
-0.948806, 193, 65, 448, 192
-0.950503, 129, 65, 192, 192
-0.951926, 33, 33, 160, 160
-0.953376, 169, 257, 232, 320
-0.953533, 49, 97, 176, 224
-0.953906, 169, 241, 232, 368
-0.955029, 81, 33, 208, 160
-0.955532, 145, 241, 272, 368
-0.956596, 193, 33, 320, 160
-0.956937, 97, 241, 224, 368
-0.956949, 257, 129, 500, 256
-0.957056, 105, 33, 168, 160
-0.957189, 97, 113, 160, 240
-0.957485, 145, 241, 208, 368
-0.957559, 153, 33, 216, 160
-0.958461, 369, 17, 496, 144
-0.958499, 1, 113, 256, 240
-0.958973, 305, 17, 432, 144
-0.959917, 145, 281, 208, 344
-0.960357, 193, 241, 256, 368
-0.960998, 289, 17, 352, 144
-0.961004, 321, 113, 448, 240
-0.961133, 177, 17, 240, 144
-0.962405, 241, 65, 368, 192
-0.962714, 65, 193, 192, 320
-0.962977, 129, 17, 256, 144
-0.96331, 73, 33, 136, 160
-0.963476, 73, 289, 136, 352
-0.963685, 1, 65, 256, 192
-0.963884, 297, 81, 360, 208
-0.964616, 209, 17, 272, 144
-0.965459, 129, 129, 256, 256
-0.965736, 113, 81, 176, 144
-0.965858, 241, 17, 368, 144
-0.966016, 121, 273, 184, 336
-0.966719, 193, 241, 320, 368
-0.967971, 225, 265, 288, 328
-0.968213, 193, 257, 256, 320
-0.968324, 169, 281, 232, 344
-0.968379, 81, 145, 208, 272
-0.968694, 257, 33, 320, 160
-0.968696, 129, 17, 192, 144
-0.968719, 329, 17, 392, 144
-0.96923, 193, 281, 256, 344
-0.96966, 265, 49, 328, 112
-0.969709, 129, 177, 256, 304
-0.969834, 433, 17, 496, 144
-0.969865, 177, 65, 240, 192
-0.970117, 145, 257, 208, 320
-0.970418, 321, 65, 448, 192
-0.970652, 89, 113, 152, 176
-0.970653, 49, 33, 112, 160
-0.97072, 161, 273, 192, 336
-0.970744, 345, 1, 408, 256
-0.971023, 257, 193, 384, 320
-0.97105, 233, 17, 296, 144
-0.971239, 289, 49, 352, 112
-0.971752, 121, 209, 184, 336
-0.971936, 321, 97, 384, 224
-0.972489, 201, 161, 264, 288
-0.972584, 145, 1, 208, 256
-0.972791, 241, 33, 304, 96
-0.972883, 153, 193, 216, 320
-0.973023, 257, 241, 500, 368
-0.973033, 201, 41, 264, 104
-0.973351, 273, 313, 336, 375
-0.973444, 89, 89, 152, 152
-0.973464, 401, 17, 464, 144
-0.973793, 209, 193, 336, 320
-0.973925, 369, 97, 496, 224
-0.974426, 161, 41, 224, 104
-0.974515, 177, 257, 208, 320
-0.974569, 145, 305, 208, 368
-0.974824, 145, 257, 272, 320
-0.974962, 121, 145, 184, 272
-0.975133, 257, 113, 384, 240
-0.975568, 289, 81, 352, 144
-0.975687, 289, 1, 352, 256
-0.975797, 97, 281, 160, 344
-0.975918, 81, 209, 144, 336
-0.975919, 265, 1, 328, 256
-0.976155, 97, 81, 224, 144
-0.976193, 225, 209, 288, 336
-0.976198, 297, 313, 360, 375
-0.976239, 97, 273, 224, 336
-0.976336, 129, 33, 160, 160
-0.976378, 57, 313, 120, 375
-0.976499, 25, 33, 88, 160
-0.976746, 201, 65, 264, 192
-0.97691, 241, 57, 304, 120
-0.977059, 209, 145, 336, 272
-0.977108, 321, 161, 384, 288
-0.977194, 353, 17, 416, 144
-0.977278, 185, 65, 248, 128
-0.977321, 177, 241, 208, 368
-0.977385, 205, 257, 236, 320
-0.977563, 305, 161, 432, 288
-0.977578, 137, 81, 200, 144
-0.977865, 161, 281, 288, 344
-0.977917, 369, 145, 496, 272
-0.97809, 265, 25, 328, 88
-0.978153, 361, 129, 424, 192
-0.978174, 105, 129, 168, 375
-0.978477, 109, 33, 140, 160
-0.978552, 257, 193, 320, 320
-0.978666, 377, 17, 440, 144
-0.978689, 137, 81, 168, 208
-0.978702, 105, 1, 168, 256
-0.978703, 257, 241, 384, 368
-0.978734, 401, 1, 464, 256
-0.978827, 209, 65, 272, 128
-0.979036, 49, 241, 176, 368
-0.979195, 169, 305, 232, 368
-0.979275, 125, 81, 156, 208
-0.979296, 225, 145, 288, 272
-0.979514, 165, 33, 196, 160
-0.979542, 49, 289, 176, 352
-0.979543, 289, 25, 352, 88
-0.979664, 217, 241, 280, 304
-0.979788, 253, 265, 284, 328
-0.979859, 209, 49, 336, 112
-0.979867, 113, 89, 144, 152
-0.98002, 97, 313, 160, 375
-0.980217, 369, 1, 432, 256
-0.980417, 321, 1, 384, 256
-0.980439, 121, 297, 184, 360
-0.980537, 353, 81, 416, 208
-0.981099, 337, 113, 400, 176
-0.981266, 125, 89, 156, 152
-0.981268, 177, 33, 208, 160
-0.98133, 345, 145, 408, 272
-0.981374, 249, 273, 312, 336
-0.981557, 149, 281, 180, 344
-0.981562, 1, 225, 128, 352
-0.981672, 161, 81, 224, 144
-0.981738, 197, 281, 228, 344
-0.981815, 197, 225, 228, 352
-0.981818, 425, 81, 488, 208
-0.98191, 137, 41, 200, 104
-0.981941, 181, 289, 212, 352
-0.981954, 169, 233, 232, 296
-0.981982, 197, 33, 228, 160
-0.982004, 153, 81, 216, 208
-0.982069, 105, 137, 168, 200
-0.982125, 153, 33, 184, 160
-0.982165, 401, 81, 464, 208
-0.982179, 153, 97, 216, 352
-0.982199, 161, 241, 192, 368
-0.982277, 433, 1, 496, 256
-0.982348, 217, 257, 248, 320
-0.98238, 177, 33, 240, 288
-0.982382, 57, 193, 120, 320
-0.98248, 333, 97, 364, 224
-0.982558, 49, 113, 176, 176
-0.982619, 297, 49, 328, 112
-0.982634, 257, 313, 384, 375
-0.982714, 145, 41, 272, 104
-0.982718, 129, 153, 256, 216
-0.982774, 297, 97, 360, 352
-0.982944, 313, 97, 376, 160
-0.983, 133, 273, 164, 336
-0.983168, 177, 193, 240, 320
-0.983206, 225, 65, 288, 192
-0.983337, 321, 65, 384, 128
-0.983343, 161, 65, 288, 128
-0.983466, 313, 41, 376, 104
-0.983541, 345, 25, 408, 88
-0.983583, 125, 129, 156, 256
-0.98367, 141, 33, 172, 160
-0.983732, 193, 257, 224, 320
-0.983767, 273, 33, 400, 96
-0.983869, 241, 81, 368, 144
-0.983965, 345, 153, 408, 216
-0.984001, 145, 129, 208, 256
-0.984006, 81, 1, 144, 256
-0.984061, 97, 33, 128, 160
-0.98409, 369, 129, 432, 256
-0.984106, 97, 313, 224, 375
-0.984109, 105, 41, 168, 104
-0.984174, 249, 305, 312, 368
-0.984179, 65, 313, 96, 375
-0.984262, 101, 89, 132, 152
-0.984368, 241, 1, 304, 256
-0.984374, 129, 129, 192, 375
-0.984379, 57, 241, 120, 368
-0.984616, 49, 313, 176, 375
-0.984718, 321, 97, 384, 352
-0.984732, 345, 1, 408, 375
-0.984777, 209, 313, 336, 375
-0.98482, 369, 1, 432, 375
-0.984829, 297, 177, 360, 304
-0.984947, 137, 233, 200, 296
-0.984951, 49, 145, 176, 208
-0.98519, 285, 41, 316, 104
-0.985325, 217, 161, 280, 224
-0.985343, 113, 161, 176, 224
-0.985476, 105, 281, 136, 344
-0.98565, 33, 89, 160, 152
-0.985694, 225, 25, 352, 88
-0.985703, 221, 17, 252, 144
-0.985776, 289, 241, 352, 368
-0.985781, 321, 121, 448, 184
-0.985816, 321, 313, 384, 375
-0.985833, 393, 1, 456, 375
-0.985854, 49, 193, 112, 256
-0.98587, 297, 129, 360, 256
-0.985884, 113, 81, 144, 208
-0.985969, 209, 17, 240, 144
-0.986086, 117, 121, 148, 184
-0.986094, 337, 89, 400, 152
-0.986246, 201, 1, 264, 256
-0.986269, 73, 81, 136, 208
-0.986303, 33, 41, 160, 104
-0.986305, 193, 1, 256, 375
-0.986324, 273, 17, 304, 144
-0.986345, 225, 145, 256, 272
-0.986382, 33, 41, 96, 104
-0.986402, 193, 41, 224, 104
-0.986522, 145, 257, 176, 320
-0.986627, 17, 177, 144, 304
-0.986664, 193, 153, 256, 216
-0.98669, 193, 233, 256, 296
-0.986696, 113, 233, 240, 296
-0.986758, 433, 1, 496, 375
-0.986762, 209, 65, 240, 192
-0.986844, 165, 297, 196, 360
-0.986866, 1, 1, 64, 128
-0.986879, 49, 289, 112, 352
-0.986889, 193, 129, 256, 375
-0.986946, 85, 33, 116, 160
-0.986966, 229, 257, 260, 320
-0.986998, 229, 41, 260, 104
-0.987003, 81, 41, 208, 104
-0.987031, 145, 81, 176, 144
-0.987035, 73, 1, 136, 375
-0.987088, 337, 25, 464, 88
-0.987115, 433, 25, 496, 88
-0.987161, 401, 113, 464, 176
-0.987176, 209, 225, 240, 352
-0.987201, 105, 185, 168, 248
-0.987223, 309, 313, 340, 375
-0.987245, 297, 201, 360, 264
-0.98725, 89, 289, 120, 352
-0.987433, 137, 129, 200, 192
-0.987444, 321, 73, 448, 136
-0.987497, 161, 1, 224, 375
-0.987511, 329, 313, 360, 375
-0.98752, 49, 17, 112, 80
-0.987575, 145, 305, 272, 368
-0.987615, 305, 1, 368, 375
-0.987625, 73, 201, 136, 264
-0.987654, 217, 129, 280, 375
-0.987689, 249, 217, 312, 280
-0.987706, 265, 81, 328, 144
-0.987713, 105, 1, 168, 375
-0.987714, 369, 25, 432, 88
-0.987718, 401, 25, 464, 88
-0.987752, 217, 41, 248, 104
-0.987802, 65, 169, 192, 232
-0.987823, 193, 257, 320, 320
-0.987851, 113, 129, 240, 192
-0.987907, 297, 1, 328, 128
-0.987928, 65, 89, 128, 152
-0.988023, 273, 33, 304, 96
-0.988027, 337, 241, 464, 368
-0.988029, 269, 193, 300, 320
-0.988042, 465, 17, 496, 144
-0.988046, 205, 41, 236, 104
-0.98805, 193, 73, 224, 136
-0.988076, 49, 1, 112, 375
-0.988157, 137, 169, 200, 232
-0.988274, 33, 313, 96, 375
-0.988315, 325, 17, 356, 144
-0.988331, 137, 145, 168, 272
-0.988356, 321, 145, 448, 208
-0.988438, 401, 129, 464, 256
-0.988454, 273, 57, 400, 120
-0.988485, 321, 177, 384, 240
-0.988513, 173, 41, 204, 104
-0.988574, 9, 49, 72, 112
-0.988632, 449, 17, 480, 144
-0.988749, 81, 193, 208, 256
-0.988771, 149, 81, 180, 208
-0.988785, 57, 1, 120, 256
-0.98879, 221, 153, 252, 216
-0.988798, 261, 41, 292, 104
-0.988802, 273, 97, 336, 352
-0.98881, 33, 17, 160, 80
-0.98881, 309, 49, 340, 112
-0.988921, 1, 289, 128, 352
-0.988926, 49, 145, 112, 272
-0.988933, 317, 81, 348, 208
-0.988979, 137, 1, 200, 375
-0.988989, 233, 17, 264, 144
-0.988999, 145, 305, 176, 368
-0.98901, 337, 17, 368, 144
-0.989042, 265, 145, 328, 272
-0.989061, 425, 129, 488, 256
-0.98909, 177, 193, 208, 320
-0.989124, 209, 313, 272, 375
-0.989133, 313, 17, 376, 80
-0.989161, 329, 97, 360, 160
-0.989196, 425, 89, 488, 152
-0.989244, 261, 17, 292, 144
-0.989245, 401, 137, 464, 200
-0.989301, 157, 41, 188, 104
-0.989309, 129, 177, 256, 240
-0.989383, 57, 265, 120, 328
-0.989393, 65, 273, 320, 336
-0.989457, 161, 233, 288, 296
-0.989486, 213, 65, 244, 128
-0.98953, 305, 97, 432, 160
-0.989531, 157, 241, 188, 304
-0.989613, 265, 193, 328, 256
-0.98969, 245, 17, 276, 144
-0.989713, 81, 97, 144, 352
-0.989718, 257, 105, 384, 168
-0.989756, 73, 17, 136, 80
-0.989794, 121, 277, 184, 308
-0.989805, 177, 313, 208, 375
-0.989807, 241, 41, 272, 104
-0.989809, 353, 97, 384, 224
-0.989817, 433, 265, 496, 328
-0.989903, 145, 193, 208, 256
-0.989924, 153, 265, 216, 296
-0.989971, 161, 81, 192, 144
-0.990003, 209, 269, 272, 300
-0.990066, 429, 17, 460, 144
-0.990074, 81, 193, 112, 320
-0.990092, 305, 129, 368, 192
-0.990092, 249, 241, 312, 304
-0.990104, 273, 201, 400, 264
-0.990138, 345, 305, 408, 368
-0.9902, 81, 41, 144, 104
-0.990209, 145, 297, 208, 328
-0.990229, 145, 285, 208, 316
-0.990246, 129, 201, 256, 264
-0.990261, 185, 265, 248, 296
-0.990267, 369, 105, 496, 168
-0.99031, 41, 33, 72, 160
-0.990342, 129, 105, 192, 168
-0.990375, 217, 217, 280, 280
-0.990387, 257, 1, 320, 375
-0.990398, 161, 193, 192, 320
-0.990439, 241, 257, 272, 320
-0.990478, 113, 217, 176, 280
-0.99049, 217, 1, 280, 375
-0.990495, 369, 153, 432, 216
-0.990511, 97, 257, 160, 320
-0.990517, 313, 241, 376, 368
-0.990529, 173, 81, 204, 144
-0.990552, 433, 129, 496, 375
-0.990553, 65, 241, 192, 304
-0.990557, 405, 17, 436, 144
-0.990558, 193, 69, 256, 100
-0.990616, 273, 57, 304, 120
-0.990631, 49, 265, 176, 328
-0.990639, 241, 257, 368, 320
-0.990639, 105, 93, 168, 124
-0.99067, 105, 289, 168, 320
-0.990671, 321, 169, 448, 232
-0.990685, 185, 281, 248, 312
-0.990696, 329, 341, 392, 372
-0.990707, 73, 33, 104, 160
-0.990717, 217, 185, 280, 248
-0.990723, 105, 17, 168, 80
-0.990727, 209, 217, 336, 280
-0.990735, 81, 201, 112, 264
-0.990777, 297, 313, 328, 375
-0.990777, 1, 81, 128, 208
-0.990791, 297, 25, 328, 88
-0.990796, 97, 161, 160, 288
-0.990809, 221, 65, 252, 192
-0.990814, 285, 33, 316, 160
-0.990817, 233, 65, 296, 96
-0.990837, 65, 217, 192, 280
-0.990911, 1, 49, 64, 176
-0.990919, 321, 329, 384, 360
-0.990947, 257, 145, 384, 208
-0.990954, 113, 105, 240, 168
-0.990998, 33, 65, 160, 128
-0.991005, 105, 113, 136, 176
-0.991053, 33, 225, 96, 352
-0.99106, 65, 297, 128, 328
-0.99107, 81, 113, 144, 144
-0.991077, 145, 85, 208, 116
-0.991126, 169, 77, 232, 108
-0.991146, 129, 309, 192, 340
-0.991157, 141, 209, 172, 336
-0.991177, 233, 273, 296, 304
-0.991189, 361, 105, 424, 168
-0.991192, 273, 273, 336, 336
-0.991217, 281, 1, 344, 375
-0.991236, 209, 281, 336, 344
-0.991258, 25, 1, 88, 375
-0.991284, 49, 325, 112, 356
-0.991293, 313, 81, 344, 144
-0.991296, 81, 309, 144, 340
-0.991307, 129, 137, 160, 200
-0.991323, 369, 193, 496, 320
-0.991424, 273, 81, 336, 208
-0.991431, 89, 65, 152, 128
-0.991493, 281, 85, 344, 116
-0.99151, 349, 17, 380, 144
-0.99152, 213, 145, 244, 272
-0.991526, 297, 45, 360, 76
-0.991532, 169, 301, 232, 332
-0.991542, 121, 289, 152, 352
-0.991604, 257, 53, 320, 84
-0.991636, 253, 193, 284, 320
-0.991648, 145, 41, 176, 104
-0.991656, 129, 265, 192, 296
-0.991662, 313, 33, 344, 160
-0.991667, 337, 113, 400, 144
-0.991669, 433, 1, 496, 64
-0.991682, 297, 345, 360, 375
-0.991698, 281, 57, 344, 88
-0.991709, 153, 317, 216, 348
-0.991709, 365, 17, 396, 144
-0.991709, 249, 97, 312, 352
-0.991715, 297, 33, 360, 64
-0.99172, 449, 65, 480, 192
-0.991729, 53, 33, 84, 160
-0.991734, 265, 257, 296, 320
-0.99176, 161, 17, 288, 80
-0.991802, 1, 81, 500, 144
-0.991805, 81, 97, 144, 128
-0.991805, 81, 225, 144, 288
-0.99184, 369, 133, 432, 164
-0.991842, 1, 1, 64, 375
-0.99185, 321, 313, 448, 375
-0.991851, 105, 309, 168, 340
-0.991859, 273, 41, 336, 72
-0.99187, 25, 273, 88, 336
-0.99189, 89, 125, 152, 156
-0.991894, 129, 65, 384, 128
-0.991909, 369, 137, 496, 200
-0.991919, 345, 125, 408, 156
-0.991947, 297, 325, 360, 356
-0.991959, 97, 277, 160, 308
-0.991964, 73, 285, 136, 316
-0.992006, 177, 333, 240, 364
-0.992014, 277, 313, 308, 375
-0.992042, 385, 17, 416, 144
-0.992045, 309, 25, 340, 88
-0.99207, 177, 185, 304, 248
-0.992119, 225, 169, 352, 232
-0.992146, 249, 341, 312, 372
-0.992154, 273, 9, 400, 72
-0.99216, 197, 233, 228, 296
-0.992183, 297, 97, 360, 128
-0.992194, 1, 25, 64, 88
-0.992211, 273, 345, 336, 375
-0.992231, 305, 289, 368, 352
-0.992265, 433, 105, 496, 136
-0.992271, 57, 341, 120, 372
-0.992287, 393, 141, 456, 172
-0.992322, 89, 137, 152, 168
-0.992331, 233, 261, 296, 292
-0.992389, 369, 1, 496, 64
-0.992404, 161, 285, 192, 316
-0.992417, 297, 161, 360, 224
-0.992418, 249, 37, 312, 68
-0.992429, 185, 317, 248, 348
-0.992444, 29, 33, 60, 160
-0.992467, 469, 65, 500, 192
-0.992492, 201, 341, 264, 372
-0.992497, 433, 89, 496, 120
-0.992498, 409, 1, 472, 64
-0.992507, 77, 289, 108, 352
-0.992516, 249, 309, 312, 340
-0.992534, 237, 65, 268, 128
-0.992561, 217, 265, 248, 296
-0.992562, 245, 233, 276, 296
-0.992575, 97, 149, 160, 180
-0.992613, 145, 273, 176, 304
-0.992617, 129, 129, 192, 160
-0.992625, 217, 161, 280, 192
-0.99263, 233, 269, 264, 300
-0.992645, 353, 149, 416, 180
-0.992646, 245, 269, 276, 300
-0.992657, 369, 121, 432, 152
-0.992658, 321, 81, 384, 112
-0.992671, 65, 213, 128, 244
-0.992677, 345, 33, 408, 64
-0.992678, 105, 293, 136, 324
-0.992679, 105, 221, 168, 252
-0.99268, 353, 333, 416, 364
-0.992681, 157, 265, 188, 296
-0.992685, 193, 161, 256, 192
-0.99269, 137, 149, 200, 180
-0.992692, 105, 161, 168, 192
-0.992706, 289, 281, 416, 344
-0.99271, 209, 281, 240, 344
-0.992715, 145, 69, 208, 100
-0.992725, 345, 137, 408, 168
-0.992728, 257, 65, 320, 96
-0.992728, 121, 113, 184, 144
-0.992729, 401, 129, 432, 192
-0.99273, 1, 41, 256, 104
-0.992735, 249, 65, 280, 128
-0.992741, 433, 113, 496, 176
-0.992749, 81, 321, 144, 352
-0.992751, 337, 101, 400, 132
-0.992769, 113, 93, 144, 124
-0.99277, 101, 305, 132, 368
-0.992771, 321, 33, 384, 64
-0.99279, 337, 161, 368, 288
-0.992791, 129, 313, 160, 375
-0.992797, 305, 109, 368, 140
-0.9928, 205, 265, 236, 296
-0.992821, 341, 329, 372, 360
-0.992823, 129, 321, 192, 352
-0.99283, 257, 81, 320, 112
-0.992833, 401, 117, 464, 148
-0.992857, 197, 281, 228, 312
-0.992868, 97, 209, 160, 240
-0.99287, 57, 201, 120, 232
-0.992883, 133, 41, 164, 104
-0.99289, 221, 241, 252, 368
-0.992901, 157, 297, 188, 328
-0.992903, 357, 333, 388, 364
-0.992913, 225, 69, 256, 100
-0.992917, 301, 45, 332, 76
-0.99292, 121, 81, 184, 112
-0.992927, 417, 149, 480, 180
-0.992934, 177, 301, 208, 332
-0.992936, 341, 341, 372, 372
-0.992937, 177, 313, 208, 344
-0.99294, 181, 265, 212, 296
-0.992942, 137, 161, 200, 192
-0.992945, 97, 101, 128, 132
-0.992945, 185, 17, 248, 80
-0.992945, 49, 169, 112, 232
-0.99295, 113, 173, 176, 204
-0.992963, 133, 277, 164, 308
-0.99297, 177, 81, 304, 208
-0.992978, 201, 73, 232, 104
-0.992983, 433, 153, 496, 216
-0.992988, 213, 69, 244, 100
-0.992989, 321, 45, 384, 76
-0.99299, 209, 281, 272, 312
-0.992992, 225, 337, 288, 368
-0.992992, 65, 321, 96, 352
-0.992998, 117, 65, 148, 128
-0.993004, 221, 277, 252, 308
-0.993008, 181, 289, 212, 320
-0.993011, 81, 17, 208, 80
-0.993015, 417, 17, 448, 144
-0.993023, 57, 97, 120, 128
-0.993023, 257, 269, 320, 300
-0.993026, 225, 293, 288, 324
-0.99303, 85, 289, 116, 320
-0.993033, 321, 341, 352, 372
-0.993035, 225, 161, 256, 192
-0.99304, 105, 113, 136, 144
-0.993044, 345, 165, 408, 196
-0.993046, 253, 241, 284, 368
-0.993046, 145, 309, 176, 340
-0.993051, 249, 257, 280, 288
-0.993052, 33, 45, 96, 76
-0.993066, 121, 277, 152, 308
-0.993072, 225, 233, 256, 296
-0.993074, 201, 253, 264, 284
-0.993077, 193, 265, 224, 296
-0.993077, 233, 49, 296, 80
-0.993079, 309, 345, 340, 375
-0.993079, 189, 77, 220, 108
-0.993082, 353, 129, 416, 375
-0.993083, 241, 65, 272, 96
-0.993084, 273, 29, 336, 60
-0.993088, 265, 285, 328, 316
-0.99309, 289, 53, 320, 84
-0.993091, 57, 41, 120, 104
-0.993092, 217, 173, 280, 204
-0.9931, 209, 277, 240, 308
-0.993102, 265, 261, 296, 292
-0.993103, 133, 89, 164, 120
-0.993106, 153, 85, 184, 116
-0.993107, 153, 329, 216, 360
-0.99311, 377, 125, 408, 156
-0.993112, 65, 289, 96, 352
-0.993112, 357, 313, 388, 375
-0.993114, 273, 313, 336, 344
-0.993114, 249, 297, 312, 328
-0.993115, 81, 229, 144, 260
-0.993119, 1, 33, 64, 64
-0.993131, 169, 265, 200, 296
-0.993131, 193, 293, 256, 324
-0.993133, 369, 25, 432, 56
-0.99314, 41, 297, 104, 328
-0.993152, 57, 313, 120, 344
-0.993154, 137, 173, 200, 204
-0.993171, 161, 309, 192, 340
-0.993174, 273, 333, 336, 364
-0.993176, 329, 325, 360, 356
-0.993179, 401, 141, 432, 172
-0.993182, 169, 85, 200, 116
-0.993184, 321, 93, 352, 124
-0.993187, 257, 217, 320, 248
-0.993187, 433, 261, 496, 292
-0.99319, 393, 25, 456, 56
-0.993193, 281, 217, 344, 248
-0.993198, 281, 69, 344, 100
-0.993199, 185, 113, 248, 240
-0.9932, 105, 265, 168, 296
-0.993203, 137, 297, 168, 328
-0.993203, 49, 185, 112, 216
-0.993205, 349, 145, 380, 272
-0.993206, 337, 177, 400, 208
-0.993213, 181, 277, 212, 308
-0.993214, 81, 197, 144, 228
-0.993217, 313, 45, 344, 76
-0.993221, 433, 273, 496, 304
-0.993222, 113, 125, 144, 156
-0.993222, 105, 197, 168, 228
-0.99323, 321, 57, 352, 120
-0.993234, 193, 81, 256, 112
-0.993236, 93, 201, 124, 264
-0.993237, 257, 273, 288, 304
-0.993241, 101, 309, 132, 340
-0.99325, 417, 25, 480, 56
-0.993255, 469, 109, 500, 140
-0.993259, 209, 53, 272, 84
-0.993262, 117, 309, 148, 340
-0.993268, 121, 289, 152, 320
-0.99327, 149, 285, 180, 316
-0.993276, 101, 281, 132, 312
-0.993279, 73, 41, 136, 72
-0.993285, 273, 177, 400, 240
-0.993289, 393, 125, 424, 156
-0.993295, 157, 321, 188, 352
-0.9933, 309, 89, 340, 120
-0.993301, 81, 81, 144, 112
-0.993307, 449, 97, 480, 128
-0.993307, 197, 321, 228, 352
-0.993311, 469, 81, 500, 112
-0.993314, 121, 137, 152, 168
-0.993315, 113, 233, 176, 264
-0.993319, 289, 37, 320, 68
-0.993322, 273, 61, 304, 92
-0.993325, 169, 37, 232, 68
-0.993331, 121, 185, 184, 216
-0.993333, 129, 221, 192, 252
-0.993334, 285, 65, 316, 128
-0.993341, 229, 257, 260, 288
-0.993356, 161, 249, 224, 280
-0.993359, 253, 65, 284, 96
-0.993362, 233, 221, 296, 252
-0.993366, 277, 41, 308, 72
-0.993384, 73, 293, 104, 324
-0.993391, 81, 177, 144, 240
-0.993394, 193, 297, 224, 328
-0.993394, 141, 161, 172, 224
-0.993396, 217, 17, 280, 80
-0.993396, 89, 317, 120, 348
-0.993402, 125, 149, 156, 180
-0.993405, 89, 201, 120, 232
-0.993405, 273, 345, 304, 375
-0.993406, 329, 105, 360, 136
-0.993406, 305, 33, 336, 64
-0.993415, 457, 85, 488, 116
-0.99342, 89, 301, 120, 332
-0.99342, 129, 317, 160, 348
-0.993422, 293, 65, 324, 96
-0.993427, 125, 109, 156, 140
-0.993431, 297, 85, 328, 116
-0.993431, 353, 113, 384, 144
-0.993446, 365, 121, 396, 152
-0.993448, 469, 261, 500, 292
-0.993455, 133, 121, 164, 152
-0.993462, 25, 17, 88, 80
-0.993462, 321, 33, 352, 64
-0.993467, 449, 113, 480, 144
-0.993471, 225, 173, 256, 204
-0.993471, 265, 217, 296, 248
-0.993481, 81, 213, 112, 244
-0.993482, 185, 333, 216, 364
-0.993483, 253, 337, 284, 368
-0.993488, 165, 73, 196, 104
-0.993489, 77, 325, 108, 356
-0.993495, 385, 137, 416, 168
-0.993496, 97, 89, 352, 152
-0.993505, 129, 265, 256, 296
-0.993509, 97, 213, 128, 244
-0.993511, 289, 345, 320, 375
-0.993512, 77, 197, 108, 228
-0.993514, 297, 49, 328, 176
-0.993515, 141, 161, 172, 192
-0.993519, 273, 297, 304, 328
-0.993526, 213, 341, 244, 372
-0.993538, 285, 85, 316, 116
-0.993539, 141, 137, 172, 168
-0.99354, 437, 101, 468, 132
-0.993542, 177, 69, 208, 100
-0.993545, 273, 273, 304, 304
-0.993549, 277, 73, 308, 104
-0.993551, 253, 221, 284, 252
-0.993552, 341, 33, 372, 64
-0.993553, 145, 173, 176, 204
-0.993554, 341, 109, 372, 140
-0.993555, 193, 177, 256, 240
-0.993558, 77, 337, 108, 368
-0.993559, 241, 341, 272, 372
-0.993562, 229, 337, 260, 368
-0.993562, 189, 313, 220, 375
-0.993564, 469, 213, 500, 244
-0.993566, 141, 149, 172, 180
-0.993566, 201, 333, 232, 364
-0.993569, 341, 93, 372, 124
-0.993576, 421, 145, 452, 176
-0.993577, 257, 57, 500, 120
-0.993581, 221, 185, 252, 216
-0.993583, 381, 113, 412, 144
-0.993585, 161, 305, 416, 368
-0.993586, 317, 321, 348, 352
-0.993589, 85, 97, 116, 128
-0.993591, 137, 77, 168, 108
-0.993593, 281, 313, 312, 344
-0.993598, 321, 153, 384, 216
-0.993603, 89, 241, 120, 368
-0.993619, 17, 1, 48, 128
-0.993639, 337, 289, 464, 352
-0.993656, 285, 17, 316, 80
-0.993657, 369, 265, 496, 328
-0.993677, 341, 313, 372, 375
-0.993682, 129, 153, 384, 216
-0.993698, 357, 25, 388, 88
-0.99373, 1, 313, 256, 375
-0.993745, 1, 121, 500, 184
-0.993749, 1, 201, 128, 264
-0.993815, 249, 241, 312, 368
-0.993841, 225, 289, 288, 352
-0.993866, 225, 137, 288, 200
-0.993939, 225, 65, 256, 128
-0.993956, 369, 49, 496, 112
-0.993966, 461, 73, 492, 136
-0.993968, 345, 33, 376, 96
-0.993972, 273, 217, 336, 280
-0.994, 185, 233, 216, 296
-0.994027, 177, 161, 304, 224
-0.994063, 265, 217, 296, 280
-0.994069, 381, 121, 412, 184
-0.994089, 73, 241, 104, 368
-0.994093, 333, 65, 364, 128
-0.994111, 129, 17, 192, 80
-0.994135, 337, 241, 400, 368
-0.994136, 33, 1, 96, 256
-0.994158, 129, 177, 384, 240
-0.994247, 213, 233, 244, 296
-0.994277, 193, 33, 448, 96
-0.994292, 189, 177, 220, 304
-0.994318, 237, 65, 268, 192
-0.994331, 93, 97, 124, 224
-0.99437, 433, 209, 496, 336
-0.994374, 405, 97, 436, 224
-0.994376, 141, 129, 172, 192
-0.994389, 297, 81, 328, 144
-0.994459, 149, 145, 180, 272
-0.994459, 353, 145, 384, 208
-0.994485, 97, 33, 352, 96
-0.994554, 241, 81, 304, 144
-0.994604, 1, 265, 128, 328
-0.994605, 345, 281, 408, 344
-0.994613, 181, 81, 212, 208
-0.994628, 123, 89, 138, 152
-0.994698, 193, 65, 320, 96
-0.994705, 353, 1, 416, 64
-0.994716, 393, 89, 456, 152
-0.99472, 97, 281, 224, 312
-0.99473, 357, 113, 388, 176
-0.99476, 173, 265, 188, 328
-0.99476, 105, 209, 136, 336
-0.994769, 321, 193, 448, 256
-0.99477, 161, 257, 416, 320
-0.994772, 209, 137, 336, 200
-0.994794, 1, 161, 500, 224
-0.994801, 465, 257, 496, 320
-0.994821, 257, 65, 288, 192
-0.994833, 437, 97, 468, 224
-0.99486, 117, 89, 132, 152
-0.994875, 321, 201, 384, 264
-0.994877, 369, 81, 496, 144
-0.994878, 265, 281, 296, 344
-0.994892, 449, 81, 480, 144
-0.994915, 321, 49, 448, 112
-0.994935, 393, 25, 424, 88
-0.994943, 41, 89, 104, 152
-0.994983, 117, 313, 148, 375
-0.994988, 89, 89, 120, 152
-0.994989, 187, 257, 202, 320
-0.995007, 263, 257, 278, 320
-0.995016, 73, 177, 104, 240
-0.995019, 233, 193, 264, 320
-0.995027, 221, 257, 236, 320
-0.995036, 161, 129, 416, 192
-0.995054, 153, 9, 216, 72
-0.995064, 29, 49, 60, 112
-0.995074, 373, 25, 404, 88
-0.995081, 469, 177, 500, 304
-0.995083, 409, 129, 472, 375
-0.99512, 167, 281, 182, 344
-0.995125, 377, 1, 440, 64
-0.995127, 241, 9, 304, 72
-0.995136, 405, 25, 436, 88
-0.995164, 457, 129, 488, 256
-0.995191, 241, 313, 272, 375
-0.995227, 41, 41, 72, 104
-0.995249, 213, 257, 228, 320
-0.99529, 89, 177, 120, 240
-0.995312, 201, 257, 216, 320
-0.995323, 65, 293, 192, 324
-0.995335, 237, 145, 268, 272
-0.995341, 1, 313, 128, 375
-0.995352, 317, 177, 348, 304
-0.995381, 155, 281, 170, 344
-0.995431, 93, 193, 124, 320
-0.995486, 265, 305, 296, 368
-0.995493, 469, 217, 500, 280
-0.995502, 321, 1, 448, 64
-0.995513, 207, 257, 222, 320
-0.995524, 469, 25, 500, 88
-0.995543, 1, 129, 128, 256
-0.995556, 161, 281, 416, 344
-0.995573, 169, 225, 200, 288
-0.995596, 129, 89, 144, 152
-0.995614, 33, 153, 288, 216
-0.995633, 161, 257, 176, 320
-0.995651, 273, 49, 400, 80
-0.995661, 369, 241, 496, 304
-0.995697, 161, 277, 288, 308
-0.995708, 227, 257, 242, 320
-0.995712, 1, 273, 500, 336
-0.995735, 77, 313, 108, 375
-0.995739, 1, 313, 500, 375
-0.995746, 199, 281, 214, 344
-0.99577, 233, 153, 264, 216
-0.995776, 181, 289, 196, 352
-0.995809, 265, 241, 296, 368
-0.99582, 225, 177, 256, 240
-0.995835, 73, 145, 104, 272
-0.995861, 425, 201, 488, 264
-0.995867, 121, 41, 152, 104
-0.995898, 261, 17, 292, 80
-0.995913, 369, 161, 496, 224
-0.995922, 135, 89, 150, 152
-0.995926, 421, 25, 452, 88
-0.995947, 161, 81, 192, 208
-0.99595, 97, 89, 224, 120
-0.995991, 289, 209, 320, 336
-0.996026, 179, 257, 194, 320
-0.996031, 299, 41, 314, 104
-0.996034, 145, 185, 176, 248
-0.996036, 345, 169, 376, 232
-0.99604, 433, 241, 496, 304
-0.996048, 233, 153, 248, 216
-0.996051, 65, 313, 192, 344
-0.996051, 111, 89, 126, 152
-0.996068, 305, 177, 336, 304
-0.996094, 273, 65, 304, 192
-0.996102, 221, 193, 252, 320
-0.996122, 269, 257, 284, 320
-0.996149, 257, 137, 500, 200
-0.996175, 1, 177, 128, 240
-0.996179, 17, 225, 144, 288
-0.996179, 261, 65, 292, 128
-0.996196, 73, 17, 104, 80
-0.996218, 145, 77, 272, 108
-0.996222, 433, 25, 464, 88
-0.996234, 225, 85, 352, 116
-0.996255, 193, 81, 224, 208
-0.996289, 257, 113, 500, 176
-0.996311, 213, 313, 244, 375
-0.996331, 1, 129, 256, 192
-0.996342, 193, 257, 208, 320
-0.99635, 377, 129, 440, 375
-0.996354, 193, 289, 208, 352
-0.996395, 193, 89, 448, 152
-0.996407, 135, 137, 150, 200
-0.996426, 297, 1, 328, 256
-0.99644, 89, 145, 120, 272
-0.996441, 9, 1, 72, 256
-0.996442, 129, 161, 160, 224
-0.996451, 225, 193, 352, 256
-0.996456, 145, 233, 176, 296
-0.996456, 129, 225, 384, 288
-0.996457, 57, 17, 88, 80
-0.996467, 333, 129, 364, 192
-0.996476, 353, 1, 384, 256
-0.996512, 145, 273, 160, 336
-0.996512, 349, 89, 380, 152
-0.996522, 65, 201, 320, 264
-0.996538, 17, 297, 144, 328
-0.996546, 13, 25, 44, 88
-0.996584, 65, 249, 320, 312
-0.996585, 209, 41, 224, 104
-0.996591, 309, 49, 324, 112
-0.996618, 49, 129, 176, 160
-0.996622, 457, 25, 488, 88
-0.996635, 167, 257, 182, 320
-0.996637, 65, 65, 128, 128
-0.996639, 69, 41, 100, 104
-0.996653, 273, 345, 400, 375
-0.996656, 145, 81, 160, 144
-0.996662, 321, 129, 352, 256
-0.996665, 241, 193, 304, 256
-0.996668, 57, 41, 88, 104
-0.99668, 141, 1, 172, 256
-0.996713, 417, 113, 448, 176
-0.996726, 289, 57, 304, 120
-0.996739, 1, 25, 500, 88
-0.996758, 113, 149, 240, 180
-0.996768, 337, 313, 352, 375
-0.99678, 215, 41, 230, 104
-0.996796, 195, 41, 210, 104
-0.996806, 225, 169, 480, 232
-0.996808, 177, 293, 304, 324
-0.996812, 129, 301, 256, 332
-0.996838, 257, 325, 384, 356
-0.996848, 157, 1, 188, 256
-0.996857, 129, 129, 144, 192
-0.996861, 111, 273, 126, 336
-0.996862, 233, 257, 248, 320
-0.996864, 207, 281, 222, 344
-0.996868, 129, 161, 256, 192
-0.99687, 203, 41, 218, 104
-0.996871, 221, 41, 236, 104
-0.996876, 33, 113, 160, 144
-0.996883, 1, 81, 256, 144
-0.996897, 209, 33, 336, 64
-0.996904, 227, 153, 242, 216
-0.996908, 185, 41, 200, 104
-0.996911, 209, 1, 336, 64
-0.996917, 245, 41, 260, 104
-0.996925, 177, 1, 208, 256
-0.996936, 129, 173, 256, 204
-0.996949, 151, 257, 166, 320
-0.996978, 209, 273, 336, 304
-0.996986, 73, 313, 88, 375
-0.996987, 49, 141, 176, 172
-0.997001, 239, 41, 254, 104
-0.997001, 313, 313, 328, 375
-0.997002, 247, 257, 262, 320
-0.997008, 227, 41, 242, 104
-0.99701, 193, 341, 320, 372
-0.997015, 449, 1, 480, 256
-0.997024, 257, 193, 500, 256
-0.997032, 195, 73, 210, 136
-0.997036, 33, 97, 160, 128
-0.997037, 257, 273, 500, 336
-0.997041, 179, 41, 194, 104
-0.997048, 169, 41, 184, 104
-0.997048, 283, 41, 298, 104
-0.997052, 117, 281, 132, 344
-0.997056, 113, 317, 240, 348
-0.997069, 161, 41, 176, 104
-0.997083, 49, 157, 176, 188
-0.997096, 233, 41, 248, 104
-0.997096, 153, 41, 168, 104
-0.997097, 257, 61, 384, 92
-0.997099, 217, 65, 232, 128
-0.997101, 251, 41, 266, 104
-0.997111, 177, 313, 304, 344
-0.997127, 321, 337, 448, 368
-0.997134, 361, 241, 424, 368
-0.997136, 1, 185, 500, 248
-0.997136, 267, 281, 282, 344
-0.997142, 289, 33, 304, 96
-0.997142, 151, 81, 166, 144
-0.997144, 57, 129, 120, 375
-0.997146, 369, 109, 496, 140
-0.997149, 123, 121, 138, 184
-0.997151, 141, 153, 156, 216
-0.997165, 107, 297, 122, 360
-0.997167, 159, 81, 174, 144
-0.997171, 257, 41, 272, 104
-0.997178, 161, 289, 176, 352
-0.997187, 203, 73, 218, 136
-0.997198, 253, 145, 284, 272
-0.997199, 289, 37, 416, 68
-0.997201, 165, 81, 180, 144
-0.997201, 171, 81, 186, 144
-0.997201, 177, 81, 192, 144
-0.997213, 347, 313, 362, 375
-0.997216, 325, 313, 340, 375
-0.997219, 183, 81, 198, 144
-0.997221, 201, 177, 232, 304
-0.997222, 369, 193, 496, 256
-0.997231, 265, 41, 280, 104
-0.997264, 239, 257, 254, 320
-0.997276, 117, 113, 132, 176
-0.997282, 125, 1, 156, 256
-0.997296, 253, 257, 268, 320
-0.997299, 319, 313, 334, 375
-0.9973, 49, 277, 176, 308
-0.997303, 343, 105, 358, 168
-0.997312, 173, 241, 188, 304
-0.997313, 209, 73, 224, 136
-0.997313, 335, 97, 350, 160
-0.997316, 277, 41, 292, 104
-0.997332, 91, 185, 106, 248
-0.997337, 321, 121, 448, 152
-0.997341, 49, 329, 176, 360
-0.997361, 113, 137, 240, 168
-0.997368, 209, 53, 336, 84
-0.997377, 65, 313, 80, 375
-0.997396, 189, 73, 204, 136
-0.997405, 271, 41, 286, 104
-0.997415, 233, 265, 248, 296
-0.997423, 117, 209, 148, 336
-0.997428, 33, 177, 288, 240
-0.997431, 461, 1, 492, 256
-0.997453, 123, 289, 138, 352
-0.997454, 175, 305, 190, 368
-0.997469, 257, 225, 384, 288
-0.997477, 5, 1, 36, 128
-0.997481, 101, 289, 116, 352
-0.997505, 309, 25, 324, 88
-0.997507, 323, 49, 338, 112
-0.997507, 285, 1, 316, 256
-0.997508, 307, 313, 322, 375
-0.997518, 321, 97, 448, 128
-0.997528, 105, 89, 120, 152
-0.99753, 215, 233, 230, 296
-0.997531, 161, 269, 176, 300
-0.997535, 315, 57, 330, 120
-0.997538, 331, 57, 346, 120
-0.997551, 49, 173, 176, 204
-0.997555, 329, 89, 344, 152
-0.997557, 129, 333, 256, 364
-0.997563, 83, 289, 98, 352
-0.997564, 141, 97, 172, 352
-0.997567, 129, 185, 256, 216
-0.99758, 259, 233, 274, 296
-0.997582, 377, 1, 408, 256
-0.99759, 341, 1, 372, 256
-0.997597, 147, 41, 162, 104
-0.997611, 321, 153, 448, 184
-0.997622, 73, 145, 136, 272
-0.997637, 331, 313, 346, 375
-0.997647, 301, 313, 316, 375
-0.997648, 151, 269, 166, 300
-0.997649, 221, 233, 236, 296
-0.99765, 65, 205, 192, 236
-0.997662, 129, 241, 160, 368
-0.997675, 113, 121, 240, 152
-0.997689, 405, 1, 436, 256
-0.997689, 161, 9, 416, 72
-0.997696, 305, 129, 336, 256
-0.997703, 65, 217, 192, 248
-0.997704, 75, 289, 90, 352
-0.997704, 145, 313, 160, 375
-0.997713, 239, 269, 254, 300
-0.997716, 321, 133, 448, 164
-0.997717, 249, 65, 264, 128
-0.99772, 49, 345, 176, 375
-0.997721, 393, 1, 424, 256
-0.997727, 417, 1, 448, 256
-0.997729, 337, 33, 464, 64
-0.99773, 227, 265, 242, 296
-0.997731, 1, 49, 500, 112
-0.997734, 111, 97, 126, 128
-0.997735, 225, 309, 352, 340
-0.997736, 145, 129, 160, 192
-0.997745, 309, 1, 340, 256
-0.997752, 245, 269, 260, 300
-0.997755, 219, 265, 234, 296
-0.997756, 321, 109, 448, 140
-0.997758, 97, 201, 112, 264
-0.997768, 175, 285, 190, 316
-0.997776, 155, 305, 170, 368
-0.997778, 1, 153, 128, 216
-0.997783, 329, 65, 360, 320
-0.997784, 109, 293, 124, 324
-0.997786, 65, 193, 192, 224
-0.997786, 227, 65, 242, 128
-0.997792, 429, 1, 460, 256
-0.997794, 277, 241, 308, 368
-0.997809, 257, 105, 384, 136
-0.997811, 197, 233, 212, 296
-0.997812, 417, 65, 448, 192
-0.997825, 141, 41, 156, 104
-0.997826, 235, 65, 250, 128
-0.997828, 485, 201, 500, 264
-0.997837, 409, 121, 424, 184
-0.997841, 365, 1, 396, 256
-0.997851, 357, 25, 372, 88
-0.997854, 275, 265, 290, 328
-0.997859, 189, 33, 220, 288
-0.997869, 273, 145, 304, 272
-0.997871, 229, 233, 244, 296
-0.997876, 213, 281, 228, 344
-0.997894, 119, 93, 134, 124
-0.997897, 335, 341, 350, 372
-0.997899, 187, 281, 202, 344
-0.997899, 267, 261, 282, 292
-0.9979, 213, 265, 228, 296
-0.997904, 415, 137, 430, 200
-0.997916, 403, 121, 418, 184
-0.997922, 207, 233, 222, 296
-0.997928, 79, 313, 94, 375
-0.997934, 131, 281, 146, 344
-0.997943, 125, 97, 156, 352
-0.997946, 301, 65, 316, 128
-0.997956, 337, 241, 368, 368
-0.99796, 1, 113, 128, 176
-0.997967, 97, 109, 224, 140
-0.997968, 323, 81, 338, 144
-0.99799, 167, 265, 182, 296
-0.997993, 1, 341, 128, 372
-0.998006, 161, 201, 416, 264
-0.998019, 1, 17, 256, 80
-0.998025, 321, 165, 448, 196
-0.998035, 115, 293, 130, 324
-0.998065, 369, 313, 496, 375
-0.998068, 259, 269, 274, 300
-0.998077, 199, 285, 214, 316
-0.998085, 357, 329, 372, 360
-0.998086, 113, 1, 144, 256
-0.998089, 273, 1, 304, 256
-0.998101, 305, 81, 432, 112
-0.998106, 207, 265, 222, 296
-0.998108, 225, 69, 240, 100
-0.998115, 251, 269, 266, 300
-0.998116, 225, 261, 352, 292
-0.998118, 159, 281, 174, 312
-0.998127, 17, 45, 144, 76
-0.998128, 105, 97, 120, 128
-0.998137, 265, 277, 280, 308
-0.998137, 311, 41, 326, 72
-0.998143, 131, 133, 146, 164
-0.998145, 377, 65, 440, 192
-0.998147, 125, 125, 140, 156
-0.998163, 417, 129, 448, 256
-0.998177, 177, 265, 192, 296
-0.998192, 289, 161, 320, 288
-0.998196, 161, 97, 192, 352
-0.998205, 193, 161, 320, 192
-0.998215, 321, 257, 448, 320
-0.998228, 243, 65, 258, 96
-0.998229, 229, 157, 244, 188
-0.99823, 205, 1, 236, 256
-0.998235, 169, 281, 184, 312
-0.998247, 351, 329, 366, 360
-0.998247, 231, 69, 246, 100
-0.998248, 1, 329, 128, 360
-0.998254, 49, 261, 176, 292
-0.998268, 185, 289, 200, 320
-0.998271, 343, 341, 358, 372
-0.998273, 145, 269, 160, 300
-0.998277, 1, 225, 256, 288
-0.99828, 155, 293, 170, 324
-0.998286, 305, 49, 320, 80
-0.998287, 281, 85, 312, 100
-0.998288, 193, 297, 224, 312
-0.998288, 265, 221, 296, 236
-0.998288, 397, 131, 428, 146
-0.998288, 129, 125, 160, 140
-0.998289, 325, 325, 356, 340
-0.99829, 97, 289, 112, 320
-0.99829, 253, 261, 284, 276
-0.99829, 261, 307, 292, 322
-0.998291, 189, 315, 220, 330
-0.998291, 217, 337, 248, 352
-0.998291, 113, 107, 144, 122
-0.998293, 205, 339, 236, 354
-0.998294, 85, 205, 116, 220
-0.998294, 125, 119, 156, 134
-0.998295, 135, 89, 150, 120
-0.998295, 137, 145, 168, 160
-0.998297, 325, 103, 356, 118
-0.998297, 137, 139, 168, 154
-0.998298, 133, 133, 164, 148
-0.998298, 265, 263, 296, 278
-0.998298, 205, 279, 236, 294
-0.998298, 145, 297, 176, 312
-0.998298, 253, 353, 284, 368
-0.998299, 217, 343, 248, 358
-0.998299, 377, 133, 408, 148
-0.9983, 305, 53, 336, 68
-0.998301, 341, 339, 372, 354
-0.998301, 297, 87, 328, 102
-0.998302, 293, 349, 324, 364
-0.998303, 149, 319, 180, 334
-0.998303, 121, 143, 152, 158
-0.998303, 81, 317, 112, 332
-0.998304, 129, 317, 160, 332
-0.998306, 161, 279, 192, 294
-0.998306, 211, 73, 226, 104
-0.998306, 177, 265, 208, 280
-0.998307, 233, 341, 264, 356
-0.998307, 89, 1, 120, 256
-0.998308, 461, 93, 492, 108
-0.998309, 1, 105, 256, 168
-0.99831, 241, 349, 272, 364
-0.998311, 189, 265, 220, 280
-0.998311, 285, 61, 316, 76
-0.998312, 129, 309, 160, 324
-0.998314, 225, 179, 256, 194
-0.998314, 345, 333, 376, 348
-0.998317, 141, 307, 172, 322
-0.998318, 189, 323, 220, 338
-0.998318, 317, 97, 348, 112
-0.998319, 225, 169, 256, 184
-0.99832, 137, 285, 168, 300
-0.998321, 113, 129, 144, 144
-0.998321, 117, 137, 148, 152
-0.998321, 401, 155, 432, 170
-0.998321, 469, 111, 500, 126
-0.998321, 121, 291, 152, 306
-0.998321, 345, 111, 376, 126
-0.998321, 89, 211, 120, 226
-0.998322, 277, 351, 308, 366
-0.998323, 201, 265, 232, 280
-0.998324, 237, 69, 252, 100
-0.998324, 469, 263, 500, 278
-0.998326, 449, 103, 480, 118
-0.998327, 373, 125, 404, 140
-0.998328, 313, 43, 344, 58
-0.998328, 165, 317, 196, 332
-0.998329, 201, 77, 216, 108
-0.99833, 257, 297, 500, 360
-0.99833, 125, 279, 156, 294
-0.99833, 109, 123, 140, 138
-0.998331, 289, 357, 320, 372
-0.998331, 119, 117, 134, 148
-0.998333, 205, 281, 220, 312
-0.998333, 73, 295, 104, 310
-0.998334, 125, 93, 140, 124
-0.998334, 33, 77, 160, 108
-0.998335, 269, 357, 300, 372
-0.998339, 325, 343, 356, 358
-0.998341, 177, 321, 208, 336
-0.998341, 369, 217, 496, 280
-0.998341, 121, 293, 136, 324
-0.998343, 105, 117, 136, 132
-0.998344, 65, 229, 192, 260
-0.998348, 145, 291, 176, 306
-0.998351, 227, 277, 242, 308
-0.998351, 257, 9, 500, 72
-0.998351, 245, 279, 276, 294
-0.998354, 101, 311, 132, 326
-0.998355, 261, 63, 292, 78
-0.998355, 161, 323, 192, 338
-0.998357, 225, 161, 256, 176
-0.998357, 177, 307, 208, 322
-0.998359, 363, 329, 378, 360
-0.99836, 97, 289, 128, 304
-0.998361, 165, 267, 196, 282
-0.998365, 155, 305, 170, 336
-0.998366, 137, 277, 152, 308
-0.998367, 233, 277, 248, 308
-0.998368, 149, 87, 180, 102
-0.998369, 313, 345, 344, 360
-0.998372, 97, 111, 128, 126
-0.998374, 301, 47, 332, 62
-0.998377, 309, 89, 340, 104
-0.998377, 197, 265, 212, 296
-0.998377, 137, 89, 168, 104
-0.998378, 337, 101, 352, 132
-0.998378, 385, 125, 416, 140
-0.998379, 161, 301, 192, 316
-0.998379, 257, 275, 288, 290
-0.998381, 241, 67, 272, 82
-0.998382, 109, 289, 140, 304
-0.998383, 299, 53, 314, 84
-0.998384, 357, 335, 388, 350
-0.998384, 293, 55, 324, 70
-0.998384, 181, 281, 212, 296
-0.998384, 219, 69, 234, 100
-0.998384, 265, 269, 296, 284
-0.998385, 117, 313, 148, 328
-0.998386, 221, 71, 252, 86
-0.998386, 229, 277, 260, 292
-0.998388, 181, 301, 212, 316
-0.998388, 157, 85, 172, 116
-0.99839, 141, 313, 172, 328
-0.998391, 325, 345, 340, 375
-0.998391, 181, 295, 212, 310
-0.998392, 333, 355, 364, 370
-0.998395, 209, 73, 240, 88
-0.998398, 273, 61, 304, 76
-0.998398, 165, 293, 196, 308
-0.998399, 165, 87, 196, 102
-0.9984, 149, 281, 180, 296
-0.998401, 249, 65, 264, 96
-0.998402, 357, 341, 388, 356
-0.998405, 161, 311, 192, 326
-0.998405, 85, 293, 116, 308
-0.998405, 341, 345, 372, 360
-0.998406, 385, 209, 448, 336
-0.998407, 221, 269, 252, 284
-0.998409, 181, 289, 212, 304
-0.998409, 217, 279, 248, 294
-0.998412, 183, 265, 198, 296
-0.998413, 65, 323, 96, 338
-0.998417, 257, 25, 384, 56
-0.998419, 201, 285, 232, 300
-0.998419, 117, 95, 148, 110
-0.998421, 101, 99, 132, 114
-0.998421, 475, 101, 490, 132
-0.998421, 401, 145, 432, 272
-0.998423, 197, 77, 228, 92
-0.998423, 153, 269, 184, 284
-0.998426, 309, 351, 340, 366
-0.998426, 321, 225, 448, 288
-0.998428, 181, 301, 196, 332
-0.998428, 149, 281, 164, 312
-0.998428, 125, 285, 156, 300
-0.998436, 177, 315, 208, 330
-0.998437, 105, 299, 136, 314
-0.998438, 211, 281, 226, 312
-0.998442, 185, 81, 216, 96
-0.998443, 253, 267, 284, 282
-0.998444, 135, 145, 150, 176
-0.99845, 119, 309, 134, 340
-0.998455, 349, 241, 380, 368
-0.998457, 469, 129, 500, 256
-0.998461, 257, 169, 384, 200
-0.998464, 163, 85, 178, 116
-0.998466, 101, 301, 116, 332
-0.998469, 321, 351, 352, 366
-0.998475, 191, 81, 206, 112
-0.998477, 341, 129, 372, 375
-0.998479, 53, 225, 84, 352
-0.998487, 179, 85, 194, 116
-0.998489, 141, 273, 172, 288
-0.998496, 165, 287, 196, 302
-0.998496, 221, 129, 252, 375
-0.998499, 233, 271, 264, 286
-0.998506, 379, 121, 394, 152
-0.998517, 257, 249, 500, 312
-0.99852, 337, 321, 464, 352
-0.998522, 239, 257, 254, 288
-0.998523, 161, 45, 288, 76
-0.998525, 257, 285, 384, 316
-0.998527, 219, 277, 234, 308
-0.998529, 303, 37, 318, 68
-0.99853, 217, 279, 280, 294
-0.99853, 97, 65, 224, 96
-0.998532, 235, 157, 250, 188
-0.998532, 113, 113, 128, 144
-0.998535, 343, 325, 358, 356
-0.998536, 145, 295, 208, 310
-0.998537, 373, 337, 388, 368
-0.998541, 121, 283, 184, 298
-0.998543, 145, 287, 208, 302
-0.998544, 169, 85, 184, 116
-0.998547, 261, 1, 292, 256
-0.998547, 483, 213, 498, 244
-0.998552, 113, 281, 128, 312
-0.998556, 273, 273, 288, 304
-0.998557, 225, 273, 288, 288
-0.998557, 257, 217, 384, 248
-0.99856, 145, 301, 208, 316
-0.99856, 257, 181, 384, 212
-0.998567, 169, 285, 232, 300
-0.998567, 297, 351, 360, 366
-0.99857, 245, 257, 260, 288
-0.998571, 141, 89, 156, 120
-0.998573, 129, 311, 192, 326
-0.998574, 137, 279, 168, 294
-0.998576, 129, 197, 256, 228
-0.998577, 137, 87, 200, 102
-0.998577, 369, 97, 496, 128
-0.998577, 105, 289, 168, 304
-0.998579, 329, 93, 344, 124
-0.99858, 185, 81, 200, 112
-0.998581, 105, 295, 168, 310
-0.998582, 151, 85, 166, 116
-0.998583, 193, 283, 256, 298
-0.998584, 245, 273, 276, 288
-0.998587, 305, 45, 368, 60
-0.998588, 173, 97, 204, 352
-0.998589, 407, 141, 422, 172
-0.998589, 297, 97, 328, 352
-0.99859, 153, 315, 216, 330
-0.998591, 337, 21, 464, 52
-0.9986, 177, 79, 240, 94
-0.9986, 201, 269, 264, 284
-0.998603, 137, 269, 200, 284
-0.998603, 249, 63, 312, 78
-0.998604, 369, 149, 496, 180
-0.998607, 81, 289, 144, 304
-0.998608, 169, 265, 232, 280
-0.998612, 101, 1, 132, 256
-0.998612, 217, 67, 280, 82
-0.998613, 73, 295, 136, 310
-0.998615, 281, 57, 344, 72
-0.998617, 191, 265, 206, 296
-0.998617, 321, 345, 384, 360
-0.998618, 113, 317, 176, 332
-0.998618, 129, 277, 192, 292
-0.998621, 161, 279, 224, 294
-0.998624, 255, 65, 270, 96
-0.998624, 93, 317, 108, 348
-0.998626, 245, 1, 276, 256
-0.998626, 169, 321, 232, 336
-0.998627, 193, 73, 256, 88
-0.998627, 65, 301, 128, 316
-0.998629, 113, 91, 176, 106
-0.998633, 281, 87, 344, 102
-0.998633, 169, 291, 232, 306
-0.998635, 337, 119, 400, 134
-0.998636, 257, 257, 272, 288
-0.998637, 81, 115, 144, 130
-0.998637, 297, 51, 360, 66
-0.998638, 153, 309, 216, 324
-0.998639, 85, 325, 100, 356
-0.998642, 81, 121, 144, 136
-0.998643, 241, 313, 304, 328
-0.998645, 169, 299, 232, 314
-0.998645, 337, 125, 400, 140
-0.998646, 387, 121, 402, 152
-0.998646, 89, 309, 152, 324
-0.998647, 187, 277, 202, 308
-0.998647, 273, 353, 336, 368
-0.998649, 337, 325, 352, 356
-0.998652, 317, 41, 332, 72
-0.998653, 49, 329, 112, 344
-0.998654, 137, 323, 200, 338
-0.998655, 17, 309, 144, 340
-0.998656, 97, 301, 160, 316
-0.998656, 89, 127, 152, 142
-0.998656, 105, 275, 168, 290
-0.99866, 95, 201, 110, 232
-0.998663, 89, 137, 152, 152
-0.998667, 305, 39, 368, 54
-0.998667, 193, 341, 256, 356
-0.998668, 241, 73, 368, 104
-0.998668, 267, 217, 282, 248
-0.998669, 249, 269, 312, 284
-0.998669, 161, 85, 224, 100
-0.99867, 361, 127, 424, 142
-0.998671, 343, 109, 358, 140
-0.998671, 297, 323, 360, 338
-0.998673, 49, 337, 112, 352
-0.998675, 369, 133, 432, 148
-0.998675, 257, 57, 320, 72
-0.998675, 97, 97, 160, 112
-0.998676, 393, 97, 424, 224
-0.998677, 73, 319, 136, 334
-0.998677, 177, 335, 240, 350
-0.998678, 121, 129, 184, 144
-0.998679, 321, 329, 384, 344
-0.998679, 345, 135, 408, 150
-0.99868, 433, 101, 496, 116
-0.99868, 179, 313, 194, 344
-0.99868, 79, 321, 94, 352
-0.998681, 129, 137, 192, 152
-0.998682, 49, 323, 112, 338
-0.998682, 73, 99, 136, 114
-0.998683, 265, 315, 328, 330
-0.998684, 73, 109, 136, 124
-0.998684, 97, 143, 160, 158
-0.998685, 57, 343, 120, 358
-0.998686, 297, 101, 360, 116
-0.998686, 433, 107, 496, 122
-0.998686, 185, 311, 248, 326
-0.998688, 129, 143, 192, 158
-0.998689, 257, 85, 320, 100
-0.99869, 337, 339, 400, 354
-0.99869, 249, 275, 312, 290
-0.998691, 249, 345, 312, 360
-0.998691, 297, 41, 312, 72
-0.998691, 145, 253, 272, 284
-0.998692, 121, 123, 184, 138
-0.998694, 113, 117, 176, 132
-0.998694, 337, 107, 400, 122
-0.998695, 289, 95, 352, 110
-0.998695, 153, 329, 216, 344
-0.998695, 165, 305, 180, 336
-0.998695, 321, 351, 384, 366
-0.998697, 369, 139, 432, 154
-0.998697, 145, 33, 272, 64
-0.998697, 265, 41, 328, 56
-0.998698, 313, 97, 344, 352
-0.998699, 129, 149, 192, 164
-0.998699, 273, 347, 336, 362
-0.998699, 369, 155, 432, 170
-0.9987, 225, 263, 288, 278
-0.9987, 191, 317, 206, 348
-0.998702, 313, 241, 344, 368
-0.998703, 249, 357, 312, 372
-0.998703, 129, 221, 256, 252
-0.998703, 293, 57, 308, 88
-0.998704, 195, 301, 210, 332
-0.998705, 163, 321, 178, 352
-0.998705, 97, 103, 160, 118
-0.998708, 97, 149, 160, 164
-0.998708, 225, 339, 288, 354
-0.998708, 241, 307, 304, 322
-0.998709, 289, 205, 416, 236
-0.99871, 217, 347, 280, 362
-0.99871, 297, 343, 360, 358
-0.998711, 349, 341, 364, 372
-0.998711, 217, 313, 280, 328
-0.998711, 345, 151, 408, 166
-0.998712, 113, 111, 176, 126
-0.998712, 121, 305, 184, 320
-0.998713, 65, 321, 80, 352
-0.998714, 273, 47, 336, 62
-0.998714, 137, 155, 200, 170
-0.998714, 329, 99, 392, 114
-0.998714, 65, 307, 128, 322
-0.998715, 129, 281, 144, 312
-0.998715, 81, 209, 144, 224
-0.998715, 451, 97, 466, 128
-0.998715, 97, 155, 160, 170
-0.998716, 321, 93, 384, 108
-0.998716, 305, 111, 368, 126
-0.998716, 485, 97, 500, 128
-0.998717, 345, 157, 408, 172
-0.998719, 105, 161, 168, 176
-0.99872, 337, 113, 400, 128
-0.998723, 409, 151, 472, 166
-0.998723, 281, 359, 344, 374
-0.998723, 273, 63, 336, 78
-0.998723, 193, 277, 256, 292
-0.998723, 57, 207, 120, 222
-0.998724, 249, 221, 312, 236
-0.998724, 105, 229, 168, 244
-0.998724, 97, 283, 160, 298
-0.998724, 241, 69, 304, 84
-0.998724, 309, 29, 324, 60
-0.998724, 137, 161, 200, 176
-0.998725, 73, 91, 136, 106
-0.998725, 65, 41, 192, 72
-0.998725, 257, 117, 384, 148
-0.998726, 345, 37, 408, 52
-0.998726, 193, 263, 256, 278
-0.998726, 369, 161, 432, 176
-0.998727, 57, 355, 120, 370
-0.998728, 197, 321, 212, 352
-0.998728, 233, 65, 264, 320
-0.998741, 177, 325, 304, 356
-0.998747, 369, 121, 496, 152
-0.998749, 287, 61, 302, 92
-0.998752, 73, 1, 104, 256
-0.998752, 413, 133, 428, 164
-0.998755, 107, 109, 122, 140
-0.99876, 257, 217, 500, 280
-0.998762, 229, 177, 244, 208
-0.998765, 261, 65, 276, 96
-0.99877, 173, 313, 188, 344
-0.998776, 257, 149, 384, 180
-0.99878, 467, 109, 482, 140
-0.998784, 321, 89, 336, 120
-0.998785, 407, 129, 422, 160
-0.998788, 119, 281, 134, 312
-0.998789, 99, 97, 114, 128
-0.998795, 135, 313, 150, 344
-0.9988, 289, 301, 416, 332
-0.998805, 107, 309, 122, 340
-0.998805, 119, 105, 134, 136
-0.998814, 273, 129, 400, 160
-0.998818, 273, 93, 400, 124
-0.998823, 321, 177, 448, 208
-0.998827, 1, 281, 128, 312
-0.998836, 145, 345, 272, 375
-0.998845, 139, 81, 154, 208
-0.998852, 125, 33, 140, 160
-0.998862, 325, 241, 356, 368
-0.998863, 113, 233, 240, 264
-0.998868, 129, 209, 256, 240
-0.998872, 217, 1, 248, 256
-0.998884, 135, 33, 150, 160
-0.998895, 133, 81, 148, 208
-0.998913, 119, 33, 134, 160
-0.998914, 193, 173, 320, 204
-0.998917, 89, 129, 120, 375
-0.998918, 145, 81, 160, 208
-0.998925, 381, 65, 412, 192
-0.998934, 469, 97, 500, 352
-0.998944, 285, 97, 316, 352
-0.998967, 127, 81, 142, 208
-0.998968, 69, 193, 100, 320
-0.998971, 17, 201, 144, 232
-0.998979, 113, 97, 144, 352
-0.998987, 175, 33, 190, 160
-0.998991, 199, 241, 214, 368
-0.998997, 209, 225, 336, 256
-0.998998, 305, 69, 432, 100
-0.999006, 17, 213, 144, 244
-0.999011, 369, 69, 496, 100
-0.999014, 449, 129, 480, 375
-0.999028, 445, 145, 476, 272
-0.999037, 321, 189, 448, 220
-0.999037, 1, 1, 500, 64
-0.99904, 141, 33, 156, 160
-0.999041, 163, 33, 178, 160
-0.999041, 181, 33, 196, 160
-0.999043, 265, 97, 296, 352
-0.999045, 189, 33, 204, 160
-0.999059, 369, 277, 496, 308
-0.99906, 169, 33, 184, 160
-0.999067, 97, 77, 224, 108
-0.999075, 153, 33, 168, 160
-0.999076, 205, 225, 220, 352
-0.999078, 113, 33, 128, 160
-0.999079, 161, 145, 192, 272
-0.999084, 81, 249, 208, 280
-0.999089, 145, 65, 272, 96
-0.999092, 241, 297, 368, 328
-0.999097, 187, 241, 202, 368
-0.999103, 197, 33, 212, 160
-0.999108, 173, 241, 188, 368
-0.99911, 257, 193, 384, 224
-0.999112, 203, 33, 218, 160
-0.999129, 213, 33, 228, 160
-0.999133, 17, 225, 144, 256
-0.99914, 147, 33, 162, 160
-0.999142, 103, 33, 118, 160
-0.999142, 193, 241, 208, 368
-0.999148, 151, 81, 166, 208
-0.999151, 369, 81, 496, 112
-0.999152, 229, 145, 244, 272
-0.999162, 181, 241, 196, 368
-0.999174, 235, 145, 250, 272
-0.999192, 365, 241, 396, 368
-0.999196, 209, 205, 336, 236
-0.999196, 17, 17, 144, 48
-0.99921, 253, 97, 284, 352
-0.999213, 137, 129, 152, 256
-0.999215, 345, 97, 360, 224
-0.999223, 219, 17, 234, 144
-0.999231, 101, 97, 132, 352
-0.999244, 97, 29, 224, 60
-0.999254, 177, 185, 304, 216
-0.999262, 165, 225, 180, 352
-0.999272, 17, 33, 144, 64
-0.999274, 287, 17, 302, 144
-0.999288, 225, 17, 240, 144
-0.999295, 211, 225, 226, 352
-0.999298, 97, 33, 112, 160
-0.999312, 219, 65, 234, 192
-0.999332, 353, 97, 384, 352
-0.999336, 113, 45, 240, 76
-0.999337, 121, 81, 136, 208
-0.99934, 199, 193, 214, 320
-0.999341, 409, 193, 472, 320
-0.999349, 279, 17, 294, 144
-0.999351, 339, 97, 354, 224
-0.999352, 273, 193, 288, 320
-0.999354, 341, 17, 356, 144
-0.999357, 369, 133, 496, 164
-0.999362, 273, 17, 288, 144
-0.999369, 263, 193, 278, 320
-0.999384, 159, 241, 174, 368
-0.999388, 333, 81, 348, 208
-0.999392, 325, 17, 340, 144
-0.999394, 223, 145, 238, 272
-0.999395, 267, 17, 282, 144
-0.999396, 293, 33, 308, 160
-0.999398, 333, 17, 348, 144
-0.9994, 209, 129, 240, 375
-0.999402, 469, 241, 500, 368
-0.999402, 197, 129, 228, 375
-0.999403, 91, 177, 106, 304
-0.999407, 231, 17, 246, 144
-0.999407, 91, 33, 106, 160
-0.999408, 245, 17, 260, 144
-0.999412, 1, 209, 500, 272
-0.999415, 477, 17, 492, 144
-0.999423, 259, 17, 274, 144
-0.999423, 191, 193, 206, 320
-0.999426, 253, 17, 268, 144
-0.999427, 81, 97, 112, 224
-0.999432, 469, 17, 484, 144
-0.999432, 237, 17, 252, 144
-0.999433, 225, 65, 240, 192
-0.99945, 61, 1, 92, 256
-0.999451, 459, 17, 474, 144
-0.999454, 321, 277, 448, 308
-0.999456, 451, 17, 466, 144
-0.999458, 437, 97, 468, 352
-0.999459, 149, 129, 164, 256
-0.99946, 41, 33, 56, 160
-0.999461, 337, 289, 464, 320
-0.999465, 1, 233, 500, 296
-0.999467, 349, 17, 364, 144
-0.999469, 267, 241, 282, 368
-0.99947, 85, 33, 100, 160
-0.99947, 217, 225, 232, 352
-0.999474, 369, 165, 496, 196
-0.999475, 143, 145, 158, 272
-0.999475, 485, 17, 500, 144
-0.999476, 415, 17, 430, 144
-0.999477, 131, 129, 146, 256
-0.999481, 209, 249, 336, 280
-0.999489, 77, 129, 108, 375
-0.99949, 301, 1, 316, 128
-0.99949, 405, 17, 420, 144
-0.999491, 399, 17, 414, 144
-0.999491, 369, 265, 496, 296
-0.999491, 223, 225, 238, 352
-0.999493, 173, 193, 188, 320
-0.999501, 273, 313, 400, 344
-0.999502, 77, 33, 92, 160
-0.999504, 285, 359, 300, 374
-0.999505, 355, 17, 370, 144
-0.999506, 341, 341, 356, 356
-0.999506, 265, 225, 280, 240
-0.999506, 229, 181, 244, 196
-0.999506, 49, 33, 64, 160
-0.999507, 105, 109, 120, 124
-0.999507, 63, 33, 78, 160
-0.999507, 273, 63, 288, 78
-0.999507, 179, 267, 194, 282
-0.999507, 257, 273, 384, 304
-0.999507, 471, 111, 486, 126
-0.999507, 445, 17, 460, 144
-0.999507, 277, 351, 292, 366
-0.999508, 163, 323, 178, 338
-0.999508, 289, 79, 304, 94
-0.99951, 293, 357, 308, 372
-0.99951, 169, 325, 184, 340
-0.99951, 321, 81, 336, 208
-0.999511, 99, 103, 114, 118
-0.999511, 107, 311, 122, 326
-0.999513, 285, 353, 300, 368
-0.999514, 353, 339, 368, 354
-0.999514, 177, 321, 192, 336
-0.999514, 319, 89, 334, 104
-0.999514, 255, 65, 270, 80
-0.999515, 129, 315, 144, 330
-0.999515, 143, 271, 158, 286
-0.999515, 213, 265, 228, 280
-0.999516, 71, 33, 86, 160
-0.999516, 421, 17, 436, 144
-0.999516, 431, 17, 446, 144
-0.999516, 319, 33, 334, 160
-0.999517, 73, 321, 88, 336
-0.999517, 279, 359, 294, 374
-0.999517, 157, 81, 172, 208
-0.999519, 371, 335, 386, 350
-0.999519, 393, 125, 408, 140
-0.99952, 133, 143, 148, 158
-0.99952, 363, 17, 378, 144
-0.99952, 481, 103, 496, 118
-0.999522, 163, 277, 178, 292
-0.999522, 187, 287, 202, 302
-0.999523, 93, 225, 108, 352
-0.999524, 183, 303, 198, 318
-0.999527, 281, 61, 296, 76
-0.999527, 467, 261, 482, 276
-0.999528, 173, 267, 188, 282
-0.999529, 359, 333, 374, 348
-0.999529, 267, 219, 282, 234
-0.99953, 327, 345, 342, 360
-0.99953, 407, 97, 422, 224
-0.99953, 225, 267, 240, 282
-0.999531, 469, 267, 484, 282
-0.999531, 159, 297, 174, 312
-0.999531, 263, 281, 278, 296
-0.999531, 111, 113, 126, 128
-0.999531, 101, 291, 116, 306
-0.999532, 481, 263, 496, 278
-0.999532, 167, 269, 182, 284
-0.999533, 129, 137, 144, 152
-0.999533, 157, 87, 172, 102
-0.999533, 79, 323, 94, 338
-0.999534, 229, 71, 244, 86
-0.999534, 181, 313, 196, 328
-0.999534, 183, 85, 198, 100
-0.999534, 325, 91, 340, 106
-0.999535, 249, 67, 264, 82
-0.999535, 115, 313, 130, 328
-0.999535, 185, 295, 200, 310
-0.999535, 335, 103, 350, 118
-0.999536, 241, 277, 256, 292
-0.999537, 239, 69, 254, 84
-0.999537, 57, 33, 72, 160
-0.999539, 235, 159, 250, 174
-0.99954, 271, 275, 286, 290
-0.999542, 137, 275, 152, 290
-0.999543, 117, 117, 132, 132
-0.999543, 241, 145, 256, 272
-0.999543, 315, 45, 330, 60
-0.999545, 107, 289, 122, 304
-0.999545, 335, 345, 350, 360
-0.999546, 365, 333, 380, 348
-0.999546, 327, 81, 342, 208
-0.999547, 125, 129, 140, 144
-0.999547, 207, 283, 222, 298
-0.999548, 221, 73, 236, 88
-0.999548, 105, 101, 120, 116
-0.999549, 217, 281, 232, 296
-0.999552, 121, 311, 136, 326
-0.999552, 161, 291, 176, 306
-0.999552, 169, 87, 184, 102
-0.999553, 135, 91, 150, 106
-0.999554, 373, 341, 388, 356
-0.999554, 393, 17, 408, 144
-0.999555, 483, 177, 498, 304
-0.999555, 161, 269, 176, 284
-0.999557, 377, 125, 392, 140
-0.999557, 385, 125, 400, 140
-0.999557, 235, 277, 250, 292
-0.999558, 331, 97, 346, 112
-0.999558, 129, 93, 144, 108
-0.999558, 163, 87, 178, 102
-0.999559, 231, 193, 246, 320
-0.999559, 121, 123, 136, 138
-0.99956, 215, 75, 230, 90
-0.99956, 453, 81, 468, 208
-0.99956, 177, 87, 192, 102
-0.999561, 151, 89, 166, 104
-0.999561, 265, 263, 280, 278
-0.999562, 141, 91, 156, 106
-0.999562, 185, 129, 216, 375
-0.999563, 189, 83, 204, 98
-0.999563, 153, 313, 168, 328
-0.999563, 229, 159, 244, 174
-0.999564, 79, 225, 94, 352
-0.999564, 485, 213, 500, 228
-0.999567, 287, 61, 302, 76
-0.999568, 241, 241, 272, 368
-0.999568, 117, 295, 132, 310
-0.99957, 197, 79, 212, 94
-0.999571, 345, 347, 360, 362
-0.999572, 357, 97, 372, 224
-0.999572, 201, 285, 216, 300
-0.999572, 397, 129, 428, 375
-0.999574, 33, 33, 48, 160
-0.999574, 461, 81, 476, 208
-0.999575, 321, 49, 448, 80
-0.999575, 155, 307, 170, 322
-0.999576, 227, 279, 242, 294
-0.999577, 439, 17, 454, 144
-0.999577, 209, 77, 224, 92
-0.999578, 349, 161, 364, 288
-0.99958, 161, 283, 176, 298
-0.999582, 385, 17, 400, 144
-0.999583, 123, 289, 138, 304
-0.999583, 121, 95, 136, 110
-0.999583, 21, 1, 36, 128
-0.999585, 111, 99, 126, 114
-0.999585, 375, 17, 390, 144
-0.999585, 231, 269, 246, 284
-0.999586, 113, 289, 128, 304
-0.999586, 295, 57, 310, 72
-0.999587, 369, 17, 384, 144
-0.999587, 265, 275, 280, 290
-0.999589, 259, 269, 274, 284
-0.99959, 313, 33, 328, 160
-0.99959, 179, 193, 194, 320
-0.999591, 203, 79, 218, 94
-0.999591, 351, 97, 366, 224
-0.999592, 309, 49, 324, 64
-0.999594, 377, 129, 408, 256
-0.999594, 325, 351, 340, 366
-0.999595, 185, 81, 200, 208
-0.999596, 211, 177, 226, 304
-0.9996, 185, 193, 200, 320
-0.9996, 85, 241, 100, 368
-0.999601, 241, 65, 256, 192
-0.999602, 131, 285, 146, 300
-0.999604, 107, 297, 122, 312
-0.999604, 471, 65, 486, 192
-0.999605, 301, 53, 316, 68
-0.999606, 177, 287, 192, 302
-0.999609, 235, 65, 250, 192
-0.99961, 155, 271, 170, 286
-0.999611, 41, 1, 72, 256
-0.999613, 369, 129, 400, 375
-0.999616, 151, 281, 166, 296
-0.99962, 171, 285, 186, 300
-0.999622, 315, 81, 330, 208
-0.999626, 161, 237, 288, 268
-0.999629, 85, 161, 100, 288
-0.999632, 113, 13, 240, 44
-0.999634, 339, 177, 354, 304
-0.999635, 115, 81, 130, 208
-0.999635, 137, 281, 152, 296
-0.999639, 261, 65, 276, 192
-0.999642, 287, 209, 302, 336
-0.999643, 279, 209, 294, 336
-0.999644, 149, 273, 164, 288
-0.999645, 399, 129, 414, 256
-0.999652, 265, 269, 280, 284
-0.999655, 237, 269, 252, 284
-0.999656, 289, 13, 416, 44
-0.999658, 17, 189, 144, 220
-0.999662, 143, 277, 158, 292
-0.999663, 65, 17, 192, 48
-0.999663, 209, 149, 336, 180
-0.999669, 251, 273, 266, 288
-0.999669, 259, 275, 274, 290
-0.999703, 245, 271, 260, 286
-0.999734, 335, 351, 350, 366
-0.99976, 29, 1, 60, 256
-0.999806, 365, 145, 396, 272
-0.999894, 49, 97, 112, 224
-0.999903, 1, 225, 64, 352
-0.999947, 193, 89, 320, 152
-0.999953, 413, 129, 444, 375
-0.999961, 17, 1, 48, 256
-1.00001, 385, 129, 416, 375
-1.00006, 389, 145, 420, 272
-1.00009, 5, 33, 36, 288
-1.00014, 453, 193, 484, 320
-1.00014, 17, 49, 48, 176
-1.00026, 61, 129, 92, 375
-1.00027, 193, 113, 320, 176
-1.00028, 101, 145, 132, 272
-1.00035, 389, 209, 420, 336
-1.00035, 5, 49, 36, 176
-1.00052, 457, 241, 488, 368
-1.00053, 425, 129, 456, 375
-1.00063, 49, 129, 80, 375
-1.00075, 429, 145, 460, 272
-1.00077, 377, 241, 408, 368
-1.00087, 29, 129, 60, 375
-1.00091, 13, 129, 44, 375
-1.00092, 177, 145, 208, 272
-1.00096, 1, 129, 32, 375
-1.00104, 25, 129, 88, 375
-1.00107, 25, 97, 88, 224
-1.00108, 113, 129, 144, 256
-1.00158, 249, 81, 312, 208
-1.00382, 361, 193, 424, 320
-1.00396, 25, 145, 88, 272
-1.004, 1, 97, 64, 224
-1.00458, 1, 129, 64, 375
-1.00626, 409, 241, 472, 368
-1.00776, 1, 145, 64, 272
