1860
-0.308981, 1, 1, 500, 319
-0.489857, 97, 1, 352, 319
-0.536773, 193, 1, 448, 319
-0.537929, 1, 33, 500, 288
-0.672089, 1, 1, 256, 319
-0.711766, 129, 1, 384, 256
-0.725905, 1, 65, 256, 319
-0.777387, 225, 33, 480, 288
-0.86994, 225, 1, 352, 319
-0.87922, 65, 1, 192, 319
-0.881607, 17, 65, 144, 319
-0.892972, 113, 1, 240, 319
-0.894461, 273, 1, 400, 319
-0.897628, 81, 33, 208, 288
-0.897694, 129, 65, 256, 319
-0.897721, 225, 1, 352, 256
-0.898704, 161, 1, 288, 319
-0.901246, 17, 1, 144, 319
-0.913327, 273, 33, 400, 288
-0.915136, 177, 65, 304, 319
-0.918111, 1, 161, 500, 288
-0.920646, 1, 33, 500, 160
-0.920865, 97, 177, 352, 304
-0.926042, 321, 1, 448, 319
-0.93397, 97, 129, 352, 256
-0.934938, 1, 193, 256, 319
-0.937699, 33, 65, 288, 192
-0.940082, 81, 177, 208, 304
-0.940509, 121, 177, 184, 304
-0.940914, 129, 17, 384, 144
-0.942914, 1, 113, 500, 240
-0.943208, 321, 65, 448, 319
-0.943792, 97, 177, 160, 304
-0.944969, 225, 161, 480, 288
-0.94699, 145, 177, 208, 304
-0.950681, 1, 145, 256, 272
-0.95101, 145, 209, 208, 272
-0.951548, 121, 185, 184, 248
-0.951609, 129, 193, 256, 319
-0.952235, 369, 1, 496, 319
-0.952876, 33, 17, 288, 144
-0.953859, 129, 145, 256, 272
-0.953943, 81, 129, 208, 256
-0.954342, 33, 161, 160, 288
-0.954434, 369, 65, 496, 319
-0.957677, 297, 193, 360, 256
-0.957685, 57, 129, 120, 256
-0.9577, 145, 185, 208, 248
-0.958098, 1, 1, 128, 128
-0.95825, 145, 129, 208, 256
-0.95874, 177, 145, 304, 272
-0.958875, 97, 129, 160, 256
-0.958917, 273, 161, 336, 288
-0.959118, 281, 17, 344, 144
-0.959852, 81, 49, 208, 176
-0.959988, 1, 97, 128, 224
-0.960408, 273, 161, 400, 288
-0.960832, 9, 17, 72, 144
-0.960862, 105, 225, 168, 288
-0.960913, 225, 33, 352, 160
-0.961117, 193, 193, 320, 319
-0.961416, 33, 65, 96, 192
-0.961679, 97, 185, 160, 248
-0.961854, 73, 33, 136, 160
-0.962346, 169, 193, 232, 319
-0.962649, 161, 81, 416, 208
-0.962981, 273, 177, 336, 240
-0.96309, 121, 129, 184, 256
-0.964147, 177, 209, 240, 272
-0.964271, 321, 193, 384, 256
-0.964702, 233, 161, 296, 288
-0.965367, 225, 145, 352, 272
-0.965437, 57, 81, 120, 208
-0.965782, 65, 57, 128, 120
-0.965826, 169, 233, 232, 296
-0.966388, 273, 17, 400, 144
-0.966424, 225, 17, 480, 144
-0.967777, 89, 49, 152, 112
-0.967986, 297, 169, 360, 232
-0.968051, 33, 49, 160, 176
-0.968182, 129, 233, 192, 296
-0.968447, 121, 161, 184, 224
-0.968684, 145, 97, 272, 224
-0.968722, 97, 161, 160, 224
-0.968949, 81, 209, 144, 272
-0.968985, 305, 161, 368, 288
-0.969106, 33, 81, 96, 144
-0.969359, 113, 209, 240, 272
-0.970019, 257, 201, 320, 264
-0.970326, 81, 185, 208, 248
-0.970844, 257, 81, 500, 208
-0.971548, 281, 57, 344, 120
-0.971694, 209, 217, 272, 280
-0.972274, 9, 17, 72, 80
-0.972288, 33, 17, 96, 144
-0.972359, 17, 57, 80, 120
-0.972376, 321, 177, 448, 304
-0.972923, 153, 177, 184, 304
-0.973124, 169, 177, 232, 240
-0.973338, 241, 81, 368, 208
-0.973353, 41, 49, 104, 112
-0.973404, 281, 217, 344, 280
-0.973665, 257, 17, 320, 144
-0.973833, 57, 153, 120, 216
-0.974009, 133, 177, 164, 304
-0.974234, 177, 145, 240, 272
-0.974505, 73, 193, 136, 319
-0.974717, 193, 193, 256, 319
-0.974776, 313, 25, 376, 88
-0.974782, 209, 129, 272, 256
-0.974863, 257, 177, 384, 240
-0.974878, 89, 81, 152, 208
-0.975058, 41, 105, 104, 168
-0.975126, 137, 225, 168, 288
-0.975269, 113, 1, 240, 128
-0.975271, 161, 185, 192, 248
-0.975288, 321, 17, 384, 144
-0.975775, 313, 217, 376, 280
-0.975797, 281, 25, 344, 88
-0.976073, 289, 97, 416, 224
-0.976386, 257, 145, 320, 208
-0.97668, 73, 177, 136, 240
-0.976983, 145, 145, 208, 208
-0.977073, 113, 1, 176, 128
-0.977319, 193, 209, 320, 272
-0.977407, 73, 81, 136, 144
-0.977826, 249, 177, 312, 240
-0.977886, 81, 161, 208, 224
-0.978235, 257, 25, 320, 88
-0.978268, 21, 1, 52, 128
-0.978571, 121, 177, 152, 304
-0.978813, 305, 113, 368, 240
-0.978824, 113, 233, 240, 296
-0.979009, 289, 177, 320, 240
-0.979083, 65, 225, 192, 288
-0.979101, 125, 225, 156, 288
-0.979168, 321, 169, 384, 232
-0.97919, 289, 201, 416, 264
-0.979213, 129, 257, 192, 319
-0.979252, 249, 81, 312, 208
-0.979374, 345, 201, 408, 264
-0.979409, 49, 1, 176, 128
-0.979455, 301, 177, 332, 240
-0.979538, 193, 249, 256, 312
-0.979588, 69, 81, 100, 208
-0.979956, 189, 209, 220, 272
-0.980003, 273, 1, 336, 256
-0.980099, 57, 129, 120, 192
-0.980138, 177, 209, 208, 272
-0.980315, 209, 1, 272, 128
-0.98046, 57, 65, 120, 319
-0.980475, 329, 193, 360, 256
-0.980512, 177, 1, 304, 128
-0.980738, 185, 17, 248, 144
-0.980924, 113, 49, 176, 176
-0.981044, 69, 97, 100, 160
-0.981108, 125, 185, 156, 248
-0.981179, 89, 1, 152, 256
-0.98129, 337, 161, 400, 288
-0.981413, 33, 193, 160, 256
-0.981535, 53, 65, 84, 192
-0.981571, 209, 185, 336, 248
-0.981626, 17, 33, 144, 96
-0.981633, 161, 49, 288, 176
-0.981645, 309, 201, 340, 264
-0.981655, 109, 201, 140, 264
-0.981736, 153, 129, 184, 256
-0.981763, 313, 49, 376, 112
-0.981773, 33, 113, 96, 240
-0.981821, 337, 129, 464, 256
-0.981846, 201, 209, 232, 272
-0.981952, 321, 17, 448, 144
-0.981998, 401, 193, 464, 256
-0.982016, 113, 41, 176, 104
-0.98219, 273, 25, 400, 88
-0.982226, 9, 65, 72, 192
-0.982255, 313, 81, 376, 144
-0.98232, 169, 257, 232, 319
-0.982435, 165, 225, 196, 288
-0.982476, 65, 57, 192, 120
-0.982495, 129, 185, 256, 248
-0.9825, 97, 137, 160, 200
-0.982648, 197, 233, 228, 296
-0.982739, 233, 1, 296, 128
-0.98278, 257, 49, 320, 112
-0.982804, 281, 81, 344, 208
-0.982869, 137, 201, 168, 264
-0.983037, 149, 185, 180, 248
-0.983038, 97, 49, 128, 112
-0.983041, 141, 129, 172, 256
-0.983062, 57, 201, 120, 264
-0.983068, 241, 225, 304, 288
-0.983177, 33, 161, 160, 224
-0.983192, 241, 209, 368, 272
-0.983312, 233, 201, 296, 264
-0.983366, 165, 177, 196, 304
-0.98346, 65, 33, 128, 96
-0.983539, 297, 1, 360, 256
-0.983759, 345, 177, 408, 240
-0.983783, 77, 57, 108, 120
-0.983826, 305, 17, 336, 144
-0.983833, 305, 177, 432, 240
-0.983899, 185, 233, 216, 296
-0.983941, 1, 137, 128, 200
-0.984096, 53, 73, 84, 136
-0.984103, 101, 177, 132, 240
-0.984181, 145, 1, 208, 128
-0.984227, 345, 193, 376, 256
-0.984242, 149, 209, 180, 272
-0.98435, 149, 153, 180, 216
-0.984539, 369, 193, 496, 319
-0.984573, 161, 233, 288, 296
-0.984613, 201, 193, 264, 256
-0.984692, 41, 25, 104, 88
-0.984706, 89, 25, 152, 88
-0.984752, 81, 137, 208, 200
-0.984765, 289, 201, 320, 264
-0.984792, 297, 1, 360, 319
-0.984802, 225, 177, 288, 240
-0.984841, 289, 145, 352, 208
-0.984972, 17, 57, 144, 120
-0.985002, 209, 41, 336, 104
-0.98506, 149, 233, 180, 296
-0.985268, 113, 65, 176, 319
-0.985294, 105, 1, 168, 319
-0.985295, 333, 169, 364, 232
-0.985296, 109, 49, 140, 112
-0.985297, 161, 161, 288, 224
-0.98534, 217, 145, 280, 208
-0.985343, 273, 1, 336, 319
-0.985424, 85, 129, 116, 256
-0.985462, 289, 25, 320, 88
-0.985495, 249, 33, 312, 288
-0.985546, 65, 249, 192, 312
-0.985619, 137, 65, 200, 319
-0.985621, 293, 177, 324, 304
-0.985629, 153, 49, 216, 176
-0.985664, 209, 81, 272, 208
-0.985711, 37, 65, 68, 128
-0.985733, 273, 81, 336, 144
-0.985801, 137, 33, 200, 96
-0.98584, 137, 161, 168, 224
-0.985862, 25, 33, 56, 96
-0.985869, 329, 17, 360, 144
-0.985882, 145, 137, 272, 200
-0.985944, 241, 153, 368, 216
-0.986005, 361, 193, 424, 319
-0.986018, 369, 193, 432, 256
-0.986121, 129, 257, 256, 319
-0.986179, 33, 33, 96, 288
-0.986193, 313, 169, 344, 232
-0.986245, 33, 81, 160, 144
-0.986297, 213, 209, 244, 272
-0.986382, 337, 25, 400, 88
-0.986416, 9, 1, 72, 256
-0.986672, 73, 33, 104, 160
-0.986728, 309, 65, 340, 128
-0.986755, 109, 161, 140, 288
-0.986867, 337, 201, 464, 264
-0.986888, 85, 193, 116, 256
-0.986892, 241, 65, 368, 128
-0.986972, 297, 1, 360, 64
-0.987029, 173, 129, 204, 256
-0.987103, 173, 249, 204, 312
-0.987108, 37, 33, 68, 160
-0.987206, 113, 225, 144, 288
-0.987262, 393, 177, 456, 304
-0.987307, 1, 113, 128, 176
-0.98735, 81, 233, 144, 296
-0.987374, 173, 185, 204, 248
-0.987464, 193, 33, 256, 96
-0.987465, 285, 17, 316, 144
-0.98758, 177, 65, 240, 319
-0.987686, 241, 1, 304, 64
-0.98771, 113, 41, 240, 104
-0.987803, 49, 1, 112, 319
-0.987819, 301, 33, 332, 96
-0.987854, 1, 9, 128, 72
-0.987855, 81, 1, 144, 319
-0.987879, 49, 49, 80, 112
-0.987954, 185, 193, 216, 319
-0.988039, 217, 1, 280, 64
-0.988097, 277, 169, 308, 232
-0.988132, 409, 217, 472, 280
-0.988153, 241, 1, 304, 319
-0.98816, 105, 249, 168, 312
-0.988188, 249, 161, 280, 288
-0.988213, 369, 217, 432, 280
-0.988215, 169, 137, 232, 200
-0.988225, 289, 81, 416, 144
-0.988262, 289, 153, 416, 216
-0.988278, 113, 65, 176, 128
-0.988324, 65, 113, 192, 176
-0.98841, 233, 41, 296, 104
-0.988438, 193, 97, 320, 224
-0.98845, 9, 81, 72, 144
-0.988457, 193, 137, 256, 200
-0.988524, 17, 217, 144, 280
-0.98863, 9, 25, 40, 88
-0.988716, 161, 41, 288, 104
-0.988719, 261, 185, 292, 248
-0.98879, 133, 249, 164, 312
-0.988858, 81, 145, 112, 208
-0.988896, 305, 57, 432, 120
-0.988921, 161, 41, 224, 104
-0.988961, 237, 145, 268, 272
-0.988988, 225, 17, 352, 80
-0.989013, 209, 233, 240, 296
-0.989015, 161, 249, 192, 312
-0.989067, 297, 209, 360, 240
-0.989123, 281, 161, 312, 288
-0.989161, 161, 1, 224, 319
-0.98917, 89, 177, 120, 304
-0.989219, 125, 41, 156, 104
-0.9893, 57, 17, 88, 144
-0.989303, 65, 65, 96, 128
-0.989442, 65, 105, 128, 168
-0.989474, 129, 185, 192, 216
-0.989482, 85, 33, 116, 160
-0.989489, 193, 9, 256, 72
-0.989492, 25, 129, 88, 192
-0.989499, 217, 1, 280, 319
-0.989499, 1, 129, 64, 256
-0.989582, 129, 1, 192, 319
-0.989583, 321, 57, 352, 120
-0.989621, 185, 97, 248, 224
-0.989632, 9, 17, 40, 144
-0.98965, 273, 189, 336, 220
-0.989678, 325, 25, 356, 88
-0.989718, 129, 9, 192, 72
-0.98975, 313, 193, 376, 224
-0.989761, 1, 177, 64, 304
-0.989882, 97, 65, 128, 192
-0.989889, 301, 153, 332, 216
-0.989893, 65, 33, 192, 96
-0.989894, 217, 65, 280, 319
-0.989903, 153, 225, 216, 256
-0.989909, 113, 197, 176, 228
-0.989923, 265, 177, 296, 304
-0.989974, 153, 193, 216, 224
-0.989992, 321, 65, 384, 192
-0.99, 321, 33, 384, 288
-0.990011, 193, 1, 256, 319
-0.990042, 81, 81, 112, 208
-0.990048, 129, 129, 160, 256
-0.990071, 105, 229, 168, 260
-0.990125, 201, 193, 232, 319
-0.990172, 313, 221, 376, 252
-0.990174, 57, 105, 88, 168
-0.990265, 265, 169, 328, 200
-0.990281, 317, 17, 348, 144
-0.99035, 129, 233, 192, 264
-0.990396, 105, 113, 136, 240
-0.990466, 97, 209, 128, 272
-0.990489, 297, 177, 360, 208
-0.990492, 81, 57, 144, 88
-0.990496, 49, 177, 112, 240
-0.990513, 433, 217, 496, 280
-0.990521, 241, 113, 304, 176
-0.990547, 177, 1, 304, 64
-0.990555, 185, 185, 216, 248
-0.990555, 49, 69, 112, 100
-0.990592, 305, 177, 336, 304
-0.990607, 81, 169, 112, 232
-0.990613, 225, 217, 256, 280
-0.990618, 97, 177, 160, 208
-0.990634, 185, 217, 248, 248
-0.990717, 225, 129, 352, 192
-0.990728, 129, 209, 384, 272
-0.990742, 33, 85, 96, 116
-0.990794, 161, 161, 192, 224
-0.990802, 321, 217, 352, 280
-0.990815, 225, 193, 256, 319
-0.990822, 273, 193, 304, 256
-0.990862, 273, 201, 336, 232
-0.990866, 209, 233, 336, 296
-0.990876, 145, 257, 176, 319
-0.990901, 41, 57, 104, 88
-0.990911, 433, 177, 496, 304
-0.990921, 129, 173, 192, 204
-0.991006, 9, 1, 72, 319
-0.991031, 9, 25, 72, 56
-0.991062, 257, 213, 320, 244
-0.991072, 177, 257, 304, 319
-0.991078, 113, 213, 176, 244
-0.99113, 129, 249, 192, 280
-0.991131, 289, 145, 320, 208
-0.991138, 137, 41, 168, 104
-0.991155, 81, 217, 144, 248
-0.991179, 345, 17, 376, 80
-0.991183, 273, 105, 400, 168
-0.991186, 177, 237, 240, 268
-0.991187, 161, 205, 224, 236
-0.991195, 281, 29, 344, 60
-0.991212, 137, 213, 200, 244
-0.991214, 65, 9, 128, 72
-0.991217, 257, 233, 384, 296
-0.99123, 21, 9, 52, 72
-0.991236, 81, 81, 112, 144
-0.991245, 97, 165, 160, 196
-0.99126, 13, 49, 44, 112
-0.991266, 329, 1, 392, 319
-0.991284, 289, 221, 352, 252
-0.991285, 1, 129, 64, 192
-0.991285, 369, 177, 496, 240
-0.991286, 89, 189, 152, 220
-0.991315, 97, 241, 160, 272
-0.991315, 37, 41, 68, 104
-0.991342, 25, 49, 56, 176
-0.991343, 73, 201, 136, 232
-0.991364, 105, 49, 168, 80
-0.991374, 57, 81, 120, 112
-0.991374, 273, 1, 336, 64
-0.991385, 17, 69, 80, 100
-0.991427, 353, 213, 416, 244
-0.991427, 153, 253, 216, 284
-0.991449, 337, 201, 400, 232
-0.991452, 289, 73, 352, 104
-0.991495, 33, 101, 96, 132
-0.991539, 265, 225, 328, 256
-0.99154, 57, 93, 120, 124
-0.991548, 137, 161, 200, 192
-0.991592, 249, 201, 312, 232
-0.99169, 129, 169, 384, 232
-0.991695, 281, 61, 344, 92
-0.991707, 317, 161, 348, 288
-0.991739, 169, 181, 232, 212
-0.99174, 285, 49, 316, 112
-0.99177, 305, 61, 368, 92
-0.991774, 1, 153, 64, 216
-0.991807, 209, 221, 272, 252
-0.991808, 169, 273, 232, 304
-0.991827, 1, 57, 64, 88
-0.99183, 313, 105, 376, 168
-0.991836, 357, 201, 388, 264
-0.991848, 225, 193, 480, 256
-0.991854, 113, 9, 240, 72
-0.991861, 249, 189, 312, 220
-0.991878, 329, 145, 360, 272
-0.991882, 341, 17, 372, 144
-0.991906, 97, 1, 160, 64
-0.991917, 273, 1, 400, 64
-0.991946, 57, 109, 120, 140
-0.991952, 81, 229, 144, 260
-0.991973, 57, 169, 120, 200
-0.991988, 193, 65, 320, 128
-0.992009, 313, 25, 344, 88
-0.992023, 297, 165, 360, 196
-0.992041, 313, 25, 376, 56
-0.992045, 153, 237, 216, 268
-0.992074, 433, 193, 496, 256
-0.99208, 249, 41, 312, 72
-0.992084, 269, 145, 300, 208
-0.992088, 73, 121, 104, 184
-0.992104, 305, 85, 368, 116
-0.992109, 57, 157, 120, 188
-0.992115, 129, 261, 192, 292
-0.992121, 25, 45, 88, 76
-0.992122, 141, 1, 172, 128
-0.992126, 73, 69, 136, 100
-0.992128, 297, 49, 360, 80
-0.99214, 49, 137, 112, 168
-0.992153, 25, 57, 56, 120
-0.992164, 321, 65, 352, 192
-0.992166, 153, 185, 184, 216
-0.992169, 249, 161, 280, 224
-0.99223, 321, 181, 384, 212
-0.99223, 185, 249, 248, 280
-0.992233, 313, 73, 376, 104
-0.99229, 41, 121, 104, 152
-0.992294, 281, 89, 344, 120
-0.992304, 57, 185, 120, 216
-0.99232, 89, 113, 152, 176
-0.99234, 241, 169, 304, 200
-0.992344, 1, 37, 64, 68
-0.992351, 121, 37, 184, 68
-0.992365, 97, 153, 160, 184
-0.992378, 113, 25, 144, 88
-0.992383, 321, 33, 448, 96
-0.992383, 337, 225, 400, 288
-0.992387, 137, 233, 168, 264
-0.992406, 53, 113, 84, 240
-0.992414, 305, 97, 368, 128
-0.992447, 257, 29, 320, 60
-0.992472, 337, 25, 400, 56
-0.992477, 225, 257, 352, 319
-0.992492, 257, 57, 320, 88
-0.992501, 257, 157, 320, 188
-0.992505, 297, 177, 328, 208
-0.99254, 293, 129, 324, 256
-0.992546, 57, 217, 120, 248
-0.992547, 313, 189, 344, 220
-0.992549, 301, 201, 332, 232
-0.992553, 273, 45, 336, 76
-0.992554, 129, 49, 192, 80
-0.992559, 161, 17, 224, 80
-0.992567, 277, 17, 308, 80
-0.992569, 209, 89, 336, 152
-0.992581, 93, 25, 124, 88
-0.992592, 277, 225, 308, 288
-0.992593, 81, 81, 144, 112
-0.992596, 217, 289, 280, 319
-0.99261, 193, 281, 256, 312
-0.992619, 321, 81, 352, 144
-0.99262, 233, 225, 296, 256
-0.992637, 185, 205, 248, 236
-0.992653, 297, 13, 360, 44
-0.992665, 105, 253, 168, 284
-0.992668, 353, 185, 416, 216
-0.992684, 65, 41, 128, 72
-0.992697, 105, 153, 136, 216
-0.992702, 49, 197, 112, 228
-0.992706, 193, 141, 256, 172
-0.992712, 125, 225, 156, 256
-0.992727, 281, 237, 344, 268
-0.992732, 129, 1, 192, 32
-0.992757, 289, 193, 320, 224
-0.992758, 49, 81, 80, 112
-0.992761, 325, 193, 356, 224
-0.992772, 333, 57, 364, 120
-0.992773, 265, 73, 328, 104
-0.992781, 161, 45, 224, 76
-0.992789, 33, 209, 288, 272
-0.992798, 337, 229, 400, 260
-0.9928, 313, 201, 344, 232
-0.992807, 329, 93, 392, 124
-0.992817, 105, 1, 168, 32
-0.992818, 205, 129, 236, 256
-0.99284, 1, 185, 256, 248
-0.992842, 293, 221, 324, 252
-0.992843, 113, 213, 144, 244
-0.992844, 101, 197, 132, 228
-0.992846, 317, 217, 348, 248
-0.992847, 289, 129, 416, 192
-0.992848, 17, 117, 80, 148
-0.992849, 65, 93, 96, 124
-0.992856, 9, 13, 72, 44
-0.992866, 81, 129, 144, 160
-0.992867, 145, 149, 208, 180
-0.992869, 93, 61, 124, 92
-0.99288, 289, 29, 320, 60
-0.992883, 37, 65, 68, 96
-0.992888, 121, 65, 184, 96
-0.992891, 153, 249, 184, 280
-0.992897, 161, 197, 192, 228
-0.992902, 129, 189, 160, 220
-0.992902, 133, 177, 164, 208
-0.992909, 301, 189, 332, 220
-0.992918, 209, 241, 240, 272
-0.992921, 225, 181, 288, 212
-0.992923, 217, 145, 280, 176
-0.992928, 377, 221, 440, 252
-0.992944, 329, 209, 360, 240
-0.992944, 225, 197, 288, 228
-0.992945, 217, 157, 280, 188
-0.992949, 169, 169, 232, 200
-0.99296, 181, 213, 212, 244
-0.992963, 105, 1, 136, 128
-0.992964, 81, 81, 208, 144
-0.992967, 217, 121, 280, 184
-0.992976, 209, 249, 272, 280
-0.992976, 193, 261, 256, 292
-0.992984, 321, 37, 384, 68
-0.992985, 237, 209, 268, 272
-0.992986, 353, 225, 480, 288
-0.992987, 105, 53, 136, 84
-0.992991, 289, 165, 320, 196
-0.992998, 273, 33, 304, 160
-0.993, 145, 273, 208, 304
-0.993003, 49, 177, 112, 304
-0.99301, 101, 185, 132, 216
-0.993013, 257, 89, 320, 120
-0.993013, 385, 201, 448, 232
-0.993021, 225, 133, 288, 164
-0.993023, 25, 61, 56, 92
-0.99303, 17, 21, 48, 52
-0.993034, 189, 233, 220, 264
-0.993038, 97, 69, 160, 100
-0.993044, 337, 197, 368, 228
-0.993046, 73, 145, 136, 176
-0.993047, 157, 221, 188, 252
-0.993049, 169, 209, 200, 240
-0.99305, 77, 81, 108, 112
-0.993056, 145, 169, 176, 200
-0.993059, 345, 113, 408, 240
-0.99306, 125, 161, 156, 224
-0.993068, 273, 169, 304, 200
-0.99307, 153, 61, 216, 92
-0.993071, 69, 105, 100, 136
-0.993071, 281, 153, 344, 184
-0.993072, 277, 181, 308, 212
-0.993078, 281, 213, 312, 244
-0.993091, 433, 217, 496, 248
-0.993091, 25, 177, 88, 240
-0.993099, 97, 141, 160, 172
-0.9931, 165, 181, 196, 212
-0.993109, 257, 145, 320, 176
-0.993116, 141, 245, 172, 276
-0.993118, 209, 233, 272, 264
-0.993123, 349, 21, 380, 52
-0.993132, 113, 237, 144, 268
-0.99314, 165, 253, 196, 284
-0.993142, 77, 69, 108, 100
-0.993145, 345, 217, 376, 248
-0.993145, 297, 57, 328, 120
-0.993148, 305, 213, 336, 244
-0.99315, 233, 273, 296, 304
-0.993171, 313, 173, 344, 204
-0.993178, 25, 49, 56, 80
-0.993181, 369, 209, 400, 272
-0.993183, 209, 217, 240, 248
-0.993193, 313, 73, 344, 104
-0.993196, 177, 193, 208, 224
-0.993208, 193, 213, 224, 244
-0.993209, 37, 77, 68, 108
-0.993215, 81, 201, 112, 232
-0.993218, 177, 181, 208, 212
-0.993221, 117, 53, 148, 84
-0.993225, 53, 57, 84, 88
-0.993225, 5, 45, 36, 76
-0.993228, 129, 249, 160, 280
-0.993233, 337, 81, 400, 144
-0.993258, 41, 53, 72, 84
-0.993261, 25, 37, 56, 68
-0.993262, 49, 105, 80, 136
-0.993277, 349, 205, 380, 236
-0.993278, 101, 229, 132, 260
-0.993291, 33, 1, 96, 64
-0.993294, 305, 33, 336, 64
-0.993294, 5, 25, 36, 56
-0.993296, 313, 85, 344, 116
-0.993302, 145, 209, 176, 240
-0.993304, 289, 53, 320, 84
-0.993304, 305, 225, 336, 256
-0.993304, 65, 69, 96, 100
-0.993307, 149, 233, 180, 264
-0.993309, 157, 169, 188, 200
-0.993313, 337, 1, 464, 64
-0.993315, 93, 217, 124, 248
-0.993316, 169, 225, 200, 256
-0.993319, 13, 57, 44, 88
-0.993322, 301, 45, 332, 76
-0.993326, 113, 225, 144, 256
-0.993327, 281, 41, 312, 72
-0.993329, 181, 257, 212, 288
-0.99333, 301, 65, 332, 96
-0.993331, 109, 41, 140, 72
-0.993337, 117, 193, 148, 224
-0.993338, 49, 69, 80, 100
-0.993339, 213, 193, 244, 319
-0.99334, 313, 57, 344, 88
-0.993343, 77, 141, 108, 172
-0.993352, 369, 213, 400, 244
-0.993354, 141, 257, 172, 288
-0.99336, 337, 29, 368, 60
-0.993361, 329, 73, 360, 104
-0.993362, 145, 157, 176, 188
-0.993363, 85, 153, 116, 184
-0.993371, 141, 189, 172, 220
-0.993376, 325, 33, 356, 64
-0.993378, 213, 17, 244, 144
-0.99338, 269, 33, 300, 64
-0.993382, 153, 49, 184, 80
-0.993383, 29, 17, 60, 48
-0.993388, 329, 221, 360, 252
-0.993393, 193, 257, 224, 288
-0.993394, 257, 177, 288, 208
-0.993398, 133, 165, 164, 196
-0.993406, 277, 197, 308, 228
-0.99341, 325, 177, 356, 208
-0.993415, 233, 221, 264, 252
-0.993418, 137, 49, 168, 80
-0.993418, 345, 185, 376, 216
-0.99342, 221, 249, 252, 280
-0.993424, 177, 273, 208, 304
-0.993425, 329, 93, 360, 124
-0.993429, 61, 81, 92, 112
-0.993445, 169, 169, 200, 200
-0.993445, 329, 57, 360, 88
-0.99345, 49, 93, 80, 124
-0.993454, 193, 277, 224, 308
-0.993454, 73, 117, 104, 148
-0.993456, 125, 37, 156, 68
-0.993456, 85, 49, 116, 80
-0.993457, 269, 229, 300, 260
-0.993457, 289, 233, 320, 264
-0.99346, 237, 289, 268, 319
-0.993461, 53, 117, 84, 148
-0.993465, 297, 77, 328, 108
-0.993466, 273, 41, 304, 104
-0.993471, 269, 45, 300, 76
-0.993472, 305, 157, 336, 188
-0.993478, 221, 217, 252, 248
-0.993479, 125, 237, 156, 268
-0.99348, 97, 41, 128, 72
-0.993536, 69, 129, 100, 256
-0.993573, 337, 81, 464, 144
-0.993583, 113, 225, 240, 256
-0.993595, 225, 145, 256, 272
-0.993598, 249, 73, 312, 136
-0.993624, 289, 225, 320, 288
-0.993666, 25, 161, 88, 288
-0.99373, 217, 249, 280, 312
-0.993856, 125, 17, 156, 144
-0.993866, 273, 121, 336, 184
-0.993878, 1, 249, 256, 312
-0.993878, 349, 177, 380, 304
-0.993887, 237, 137, 268, 200
-0.993894, 129, 65, 256, 128
-0.993908, 129, 145, 384, 208
-0.993947, 113, 237, 240, 268
-0.993956, 237, 193, 268, 319
-0.993966, 373, 185, 404, 248
-0.993968, 181, 49, 212, 176
-0.99397, 177, 113, 304, 176
-0.993985, 353, 1, 384, 128
-0.994013, 173, 161, 204, 224
-0.994013, 345, 1, 408, 128
-0.994024, 345, 217, 376, 280
-0.994033, 433, 201, 464, 264
-0.994045, 313, 145, 376, 208
-0.994072, 337, 65, 464, 192
-0.994076, 147, 225, 162, 288
-0.994141, 129, 233, 384, 296
-0.994145, 81, 193, 208, 224
-0.994181, 269, 129, 300, 256
-0.994199, 197, 185, 228, 248
-0.994216, 369, 161, 432, 224
-0.994222, 109, 49, 140, 176
-0.994283, 129, 41, 384, 104
-0.994285, 49, 1, 176, 64
-0.99433, 241, 213, 368, 244
-0.994356, 453, 209, 484, 272
-0.994358, 345, 1, 408, 64
-0.994362, 1, 193, 500, 256
-0.994394, 257, 217, 500, 280
-0.994475, 313, 145, 344, 208
-0.994476, 193, 113, 256, 176
-0.994478, 333, 193, 364, 319
-0.994486, 45, 97, 76, 160
-0.994522, 217, 65, 280, 128
-0.994551, 309, 81, 340, 208
-0.994582, 177, 217, 304, 248
-0.994598, 249, 217, 280, 280
-0.99461, 185, 257, 216, 319
-0.994629, 65, 65, 320, 128
-0.994664, 185, 129, 216, 256
-0.994679, 333, 217, 364, 280
-0.994683, 137, 57, 200, 120
-0.994747, 337, 153, 464, 216
-0.994757, 345, 169, 376, 232
-0.994763, 257, 257, 320, 319
-0.994766, 135, 225, 150, 288
-0.994782, 181, 1, 212, 128
-0.994844, 357, 177, 388, 240
-0.994868, 397, 193, 428, 256
-0.994876, 153, 1, 184, 128
-0.994977, 289, 1, 320, 64
-0.995, 205, 257, 236, 319
-0.995, 1, 41, 256, 104
-0.995009, 141, 225, 156, 288
-0.995029, 301, 225, 332, 288
-0.995043, 81, 209, 208, 240
-0.995046, 1, 89, 256, 152
-0.995052, 193, 209, 208, 272
-0.995056, 353, 105, 480, 168
-0.995058, 305, 225, 432, 288
-0.995072, 17, 105, 80, 168
-0.995074, 225, 193, 256, 256
-0.995128, 129, 113, 256, 176
-0.995136, 303, 177, 318, 240
-0.995165, 169, 113, 232, 176
-0.995212, 273, 197, 400, 228
-0.995222, 153, 225, 168, 288
-0.995243, 81, 177, 208, 208
-0.995251, 393, 169, 456, 232
-0.995275, 193, 49, 224, 176
-0.995284, 173, 185, 188, 248
-0.995294, 253, 41, 284, 104
-0.995309, 167, 177, 182, 240
-0.995338, 193, 169, 256, 232
-0.995341, 161, 137, 192, 200
-0.995358, 73, 89, 88, 152
-0.995369, 141, 49, 172, 176
-0.995401, 237, 81, 268, 208
-0.995415, 65, 233, 192, 264
-0.995415, 345, 57, 408, 120
-0.995416, 169, 49, 200, 176
-0.995451, 193, 1, 224, 128
-0.995458, 205, 209, 220, 272
-0.99547, 121, 137, 184, 200
-0.995475, 325, 185, 340, 248
-0.995498, 125, 217, 140, 280
-0.995499, 33, 137, 288, 200
-0.995515, 13, 65, 44, 192
-0.995528, 305, 213, 432, 244
-0.995537, 1, 217, 500, 280
-0.995563, 199, 209, 214, 272
-0.995582, 85, 121, 116, 184
-0.995585, 129, 213, 256, 244
-0.995663, 33, 97, 64, 160
-0.995676, 41, 233, 104, 296
-0.995688, 261, 1, 292, 128
-0.995707, 33, 61, 160, 92
-0.99571, 221, 249, 252, 312
-0.995713, 189, 41, 220, 104
-0.995725, 229, 1, 260, 64
-0.995726, 185, 209, 200, 272
-0.995735, 229, 1, 260, 128
-0.995749, 157, 185, 172, 248
-0.995794, 311, 185, 326, 248
-0.995795, 73, 33, 104, 96
-0.995798, 241, 185, 368, 216
-0.995802, 145, 249, 272, 280
-0.995822, 273, 225, 400, 256
-0.995843, 209, 233, 224, 296
-0.995854, 261, 225, 292, 288
-0.995862, 93, 153, 124, 216
-0.995901, 225, 169, 480, 232
-0.995911, 81, 53, 208, 84
-0.995926, 335, 193, 350, 256
-0.995943, 19, 17, 34, 80
-0.995947, 217, 97, 280, 160
-0.995956, 211, 209, 226, 272
-0.995961, 149, 161, 164, 224
-0.995962, 345, 153, 408, 216
-0.99597, 201, 233, 216, 296
-0.995982, 249, 113, 280, 240
-0.99599, 249, 193, 280, 256
-0.996008, 81, 165, 208, 196
-0.996015, 17, 41, 144, 72
-0.996021, 93, 81, 124, 144
-0.996022, 185, 57, 248, 120
-0.996036, 161, 17, 416, 80
-0.996039, 257, 81, 500, 144
-0.996041, 129, 185, 144, 248
-0.996048, 179, 209, 194, 272
-0.996058, 225, 201, 352, 232
-0.99606, 297, 169, 312, 232
-0.996068, 257, 173, 384, 204
-0.99607, 209, 229, 336, 260
-0.996085, 289, 65, 320, 192
-0.996088, 159, 209, 174, 272
-0.996089, 393, 129, 456, 256
-0.99609, 1, 201, 64, 264
-0.996115, 353, 193, 368, 256
-0.996115, 153, 41, 184, 104
-0.996148, 81, 253, 208, 284
-0.996163, 217, 209, 232, 272
-0.996164, 353, 1, 416, 319
-0.996166, 159, 241, 174, 304
-0.996172, 257, 29, 384, 60
-0.996185, 305, 185, 432, 216
-0.996193, 1, 161, 256, 224
-0.996212, 145, 121, 208, 184
-0.996213, 389, 193, 420, 319
-0.996223, 103, 185, 118, 248
-0.99624, 33, 189, 160, 220
-0.996249, 33, 121, 64, 184
-0.996251, 357, 17, 388, 80
-0.99628, 125, 65, 156, 192
-0.99629, 119, 201, 134, 264
-0.996297, 353, 129, 480, 192
-0.9963, 353, 105, 416, 168
-0.996301, 297, 193, 312, 256
-0.996303, 345, 193, 360, 256
-0.996315, 113, 49, 128, 112
-0.996337, 157, 49, 188, 176
-0.996361, 309, 97, 340, 160
-0.996363, 221, 41, 252, 104
-0.996365, 1, 41, 500, 104
-0.996377, 61, 73, 76, 136
-0.996397, 143, 161, 158, 224
-0.996427, 37, 17, 68, 80
-0.996431, 33, 221, 160, 252
-0.996438, 233, 41, 264, 104
-0.996439, 409, 81, 472, 144
-0.996442, 33, 209, 160, 240
-0.996455, 317, 201, 332, 264
-0.996455, 373, 193, 404, 319
-0.996477, 147, 193, 162, 256
-0.996481, 221, 129, 252, 192
-0.99649, 1, 161, 500, 224
-0.996497, 61, 41, 92, 104
-0.996502, 245, 33, 276, 160
-0.996505, 215, 233, 230, 296
-0.996534, 41, 97, 72, 224
-0.996535, 179, 185, 194, 248
-0.996571, 33, 173, 160, 204
-0.996636, 41, 57, 56, 120
-0.996641, 225, 49, 480, 112
-0.996648, 189, 233, 204, 296
-0.996661, 25, 153, 88, 216
-0.996673, 107, 49, 122, 112
-0.996674, 335, 169, 350, 232
-0.996696, 195, 233, 210, 296
-0.996699, 325, 57, 340, 120
-0.996706, 97, 193, 112, 256
-0.996732, 129, 201, 256, 232
-0.996747, 291, 177, 306, 240
-0.996755, 65, 9, 320, 72
-0.996756, 217, 65, 248, 192
-0.996758, 1, 113, 256, 176
-0.996764, 49, 65, 64, 128
-0.996796, 97, 49, 112, 112
-0.996806, 295, 17, 310, 80
-0.996813, 313, 161, 328, 224
-0.996815, 223, 209, 238, 272
-0.996824, 385, 1, 448, 319
-0.996838, 193, 257, 448, 319
-0.99684, 81, 149, 208, 180
-0.996854, 87, 57, 102, 120
-0.99686, 129, 161, 256, 192
-0.996863, 305, 25, 320, 88
-0.996866, 145, 277, 272, 308
-0.996881, 161, 161, 176, 224
-0.996903, 129, 181, 256, 212
-0.996903, 161, 81, 416, 144
-0.996915, 97, 153, 112, 216
-0.996916, 193, 173, 320, 204
-0.996931, 303, 201, 318, 264
-0.996932, 97, 257, 352, 319
-0.996933, 25, 17, 40, 80
-0.996947, 173, 225, 188, 288
-0.996956, 257, 25, 500, 88
-0.996966, 365, 1, 396, 128
-0.996967, 319, 65, 334, 128
-0.996969, 165, 217, 180, 280
-0.996976, 273, 185, 288, 248
-0.996991, 49, 77, 176, 108
-0.996998, 321, 197, 448, 228
-0.997009, 129, 89, 256, 152
-0.997017, 121, 49, 136, 112
-0.997018, 281, 241, 344, 304
-0.997019, 55, 65, 70, 128
-0.997029, 135, 185, 150, 248
-0.997032, 53, 161, 84, 288
-0.997033, 321, 1, 384, 64
-0.99704, 67, 89, 82, 152
-0.997045, 445, 193, 476, 319
-0.997068, 79, 97, 94, 160
-0.997081, 303, 153, 318, 216
-0.997087, 155, 145, 170, 208
-0.99711, 77, 65, 92, 128
-0.997117, 19, 49, 34, 112
-0.997127, 209, 29, 336, 60
-0.997133, 225, 45, 352, 76
-0.997139, 141, 249, 156, 312
-0.997142, 281, 201, 296, 264
-0.997146, 337, 25, 352, 88
-0.997148, 67, 65, 82, 128
-0.997165, 141, 185, 156, 248
-0.997172, 181, 249, 196, 312
-0.997178, 289, 209, 304, 272
-0.997184, 309, 217, 324, 280
-0.99719, 329, 209, 344, 272
-0.9972, 241, 69, 368, 100
-0.997206, 105, 217, 120, 280
-0.99723, 321, 225, 448, 256
-0.997232, 131, 41, 146, 104
-0.997237, 129, 241, 144, 304
-0.99724, 319, 177, 334, 240
-0.997248, 1, 73, 128, 104
-0.997251, 177, 205, 304, 236
-0.997256, 193, 113, 448, 176
-0.997263, 1, 17, 500, 80
-0.997267, 191, 185, 206, 248
-0.99727, 1, 137, 128, 168
-0.997274, 257, 145, 500, 208
-0.99728, 359, 193, 374, 256
-0.997301, 315, 25, 330, 88
-0.997317, 13, 25, 28, 88
-0.997319, 73, 193, 104, 319
-0.997321, 241, 161, 368, 192
-0.997321, 353, 213, 480, 244
-0.997321, 153, 257, 168, 319
-0.99733, 145, 141, 272, 172
-0.997334, 185, 185, 200, 248
-0.997344, 25, 49, 40, 112
-0.997349, 17, 157, 144, 188
-0.997352, 325, 25, 340, 88
-0.997379, 367, 201, 382, 264
-0.997389, 147, 249, 162, 312
-0.997392, 193, 189, 320, 220
-0.997396, 173, 249, 188, 312
-0.99741, 267, 177, 282, 240
-0.997417, 301, 1, 332, 256
-0.997419, 341, 169, 356, 232
-0.997431, 55, 41, 70, 104
-0.997441, 111, 225, 126, 288
-0.997444, 17, 233, 144, 264
-0.997457, 353, 57, 480, 120
-0.997462, 305, 173, 432, 204
-0.997471, 161, 229, 288, 260
-0.997479, 139, 41, 154, 104
-0.997485, 193, 145, 320, 176
-0.997511, 241, 57, 368, 88
-0.997539, 299, 49, 314, 112
-0.997547, 303, 177, 318, 208
-0.997556, 49, 33, 64, 96
-0.997563, 295, 145, 310, 208
-0.99759, 117, 25, 132, 88
-0.99759, 289, 17, 304, 80
-0.99759, 343, 25, 358, 88
-0.997592, 233, 217, 248, 280
-0.997596, 197, 185, 212, 248
-0.997597, 193, 157, 320, 188
-0.997598, 113, 193, 128, 256
-0.997602, 169, 185, 184, 216
-0.997609, 93, 73, 108, 136
-0.99761, 103, 161, 118, 224
-0.997627, 161, 289, 288, 319
-0.997629, 17, 241, 144, 304
-0.997629, 35, 49, 50, 112
-0.99764, 281, 113, 312, 240
-0.997644, 61, 49, 76, 112
-0.997659, 133, 229, 148, 260
-0.997659, 349, 169, 364, 232
-0.99766, 385, 81, 448, 144
-0.997669, 313, 73, 328, 136
-0.997674, 313, 1, 344, 256
-0.997675, 289, 153, 304, 216
-0.997679, 113, 113, 176, 176
-0.997686, 453, 209, 468, 272
-0.997687, 119, 233, 134, 296
-0.997696, 221, 233, 236, 296
-0.997696, 165, 241, 180, 304
-0.997696, 273, 41, 400, 72
-0.997707, 161, 65, 224, 128
-0.99771, 169, 145, 184, 208
-0.997713, 297, 177, 312, 208
-0.997714, 29, 97, 60, 224
-0.997718, 83, 129, 98, 192
-0.997726, 289, 77, 416, 108
-0.997728, 89, 137, 104, 200
-0.997745, 301, 193, 316, 224
-0.997745, 1, 21, 128, 52
-0.997749, 157, 185, 172, 216
-0.997756, 135, 249, 150, 312
-0.997757, 241, 89, 368, 120
-0.997771, 305, 129, 336, 256
-0.997773, 1, 117, 128, 148
-0.997785, 297, 217, 312, 280
-0.997787, 33, 245, 160, 276
-0.997805, 149, 233, 164, 264
-0.997805, 87, 33, 102, 96
-0.997814, 323, 217, 338, 280
-0.997815, 441, 193, 456, 256
-0.997816, 313, 185, 328, 216
-0.997822, 97, 41, 224, 72
-0.997824, 41, 33, 56, 96
-0.997844, 71, 89, 86, 120
-0.997856, 369, 225, 496, 256
-0.997859, 97, 65, 224, 96
-0.997869, 319, 189, 334, 220
-0.997877, 81, 137, 208, 168
-0.997888, 1, 257, 500, 319
-0.997895, 289, 1, 320, 256
-0.9979, 65, 121, 192, 152
-0.997921, 333, 97, 364, 224
-0.99793, 1, 65, 500, 128
-0.997931, 313, 201, 328, 232
-0.997934, 369, 201, 496, 232
-0.997934, 177, 41, 304, 72
-0.997957, 159, 249, 174, 280
-0.99797, 425, 129, 488, 256
-0.997987, 65, 109, 192, 140
-0.99799, 327, 205, 342, 236
-0.997993, 81, 265, 208, 296
-0.998016, 73, 33, 104, 288
-0.998026, 39, 61, 54, 92
-0.998031, 183, 213, 198, 244
-0.99805, 1, 89, 500, 152
-0.998052, 151, 181, 166, 212
-0.998058, 329, 193, 344, 224
-0.998059, 169, 1, 200, 128
-0.998079, 289, 93, 416, 124
-0.998115, 127, 225, 142, 256
-0.998121, 269, 81, 300, 208
-0.998124, 299, 221, 314, 252
-0.998135, 213, 241, 228, 272
-0.998144, 177, 261, 304, 292
-0.998159, 307, 205, 322, 236
-0.998162, 191, 213, 206, 244
-0.998163, 61, 81, 76, 112
-0.998171, 1, 89, 128, 120
-0.998176, 289, 65, 416, 96
-0.99818, 17, 25, 32, 56
-0.998182, 155, 237, 170, 268
-0.998192, 89, 1, 120, 256
-0.998203, 193, 245, 320, 276
-0.998203, 295, 165, 310, 196
-0.998205, 49, 69, 64, 100
-0.998209, 307, 225, 322, 256
-0.99821, 55, 77, 70, 108
-0.998214, 319, 201, 334, 232
-0.998223, 293, 189, 308, 220
-0.998235, 143, 229, 158, 260
-0.998236, 333, 209, 348, 240
-0.998242, 1, 137, 500, 200
-0.99825, 1, 105, 128, 136
-0.998251, 323, 217, 338, 248
-0.998258, 339, 197, 354, 228
-0.998275, 209, 17, 336, 48
-0.998276, 225, 129, 352, 160
-0.99829, 165, 223, 196, 238
-0.998291, 253, 227, 284, 242
-0.998291, 341, 229, 372, 244
-0.998292, 205, 217, 236, 232
-0.998292, 307, 189, 322, 220
-0.998293, 133, 257, 164, 272
-0.998294, 45, 73, 76, 88
-0.998295, 57, 137, 88, 152
-0.998295, 293, 217, 308, 248
-0.998296, 137, 43, 168, 58
-0.998296, 49, 97, 80, 112
-0.998297, 5, 41, 36, 56
-0.998298, 325, 91, 356, 106
-0.998298, 269, 167, 300, 182
-0.9983, 325, 99, 356, 114
-0.9983, 317, 33, 348, 48
-0.998301, 185, 215, 216, 230
-0.998301, 125, 175, 156, 190
-0.998302, 313, 87, 344, 102
-0.998302, 177, 273, 208, 288
-0.998303, 349, 31, 380, 46
-0.998303, 101, 189, 116, 220
-0.998304, 273, 209, 304, 224
-0.998304, 221, 285, 252, 300
-0.998304, 85, 213, 116, 228
-0.998304, 217, 217, 248, 232
-0.998304, 61, 85, 92, 100
-0.998305, 77, 147, 108, 162
-0.998305, 161, 253, 192, 268
-0.998305, 205, 243, 236, 258
-0.998305, 93, 225, 124, 240
-0.998305, 81, 201, 112, 216
-0.998306, 289, 175, 320, 190
-0.998307, 77, 85, 108, 100
-0.998307, 273, 177, 304, 192
-0.998308, 337, 221, 368, 236
-0.998309, 65, 111, 96, 126
-0.99831, 329, 33, 360, 48
-0.99831, 325, 75, 356, 90
-0.998311, 133, 185, 164, 200
-0.998312, 165, 193, 196, 208
-0.998314, 69, 135, 100, 150
-0.998315, 125, 251, 156, 266
-0.998315, 289, 163, 320, 178
-0.998319, 21, 37, 52, 52
-0.998319, 325, 225, 356, 240
-0.99832, 89, 219, 120, 234
-0.998322, 301, 47, 332, 62
-0.998322, 133, 227, 164, 242
-0.998323, 313, 93, 344, 108
-0.998323, 237, 223, 268, 238
-0.998324, 77, 59, 108, 74
-0.998324, 153, 227, 184, 242
-0.998325, 177, 195, 208, 210
-0.998325, 177, 181, 208, 196
-0.998326, 301, 73, 332, 88
-0.998326, 101, 231, 132, 246
-0.998327, 125, 193, 140, 224
-0.998327, 305, 231, 336, 246
-0.998328, 69, 91, 100, 106
-0.998329, 9, 55, 40, 70
-0.998329, 57, 79, 88, 94
-0.998329, 121, 65, 152, 319
-0.998331, 309, 175, 340, 190
-0.998332, 341, 199, 372, 214
-0.998335, 213, 249, 244, 264
-0.998335, 153, 65, 184, 319
-0.998336, 175, 185, 190, 216
-0.998337, 281, 45, 312, 60
-0.998338, 117, 245, 148, 260
-0.99834, 353, 25, 384, 40
-0.998342, 197, 237, 228, 252
-0.998342, 161, 207, 192, 222
-0.998346, 185, 233, 216, 248
-0.99835, 99, 61, 114, 92
-0.99835, 205, 81, 236, 208
-0.99835, 177, 209, 192, 240
-0.998351, 109, 239, 140, 254
-0.998352, 13, 29, 44, 44
-0.998353, 137, 179, 168, 194
-0.998354, 285, 221, 316, 236
-0.998355, 317, 69, 348, 84
-0.998356, 145, 167, 176, 182
-0.998356, 173, 229, 204, 244
-0.998356, 169, 187, 200, 202
-0.998357, 125, 235, 156, 250
-0.998359, 129, 261, 256, 292
-0.998359, 289, 203, 320, 218
-0.998359, 21, 57, 52, 72
-0.998363, 305, 215, 336, 230
-0.998366, 85, 65, 116, 80
-0.998367, 297, 169, 328, 184
-0.998367, 113, 55, 144, 70
-0.998367, 281, 215, 312, 230
-0.998368, 37, 79, 68, 94
-0.99837, 305, 67, 336, 82
-0.998371, 25, 201, 88, 264
-0.998371, 349, 223, 380, 238
-0.998372, 297, 189, 328, 204
-0.998372, 313, 75, 344, 90
-0.998373, 157, 241, 188, 256
-0.998373, 273, 187, 304, 202
-0.998376, 101, 209, 132, 224
-0.998376, 289, 29, 320, 44
-0.998377, 101, 59, 132, 74
-0.998377, 321, 211, 352, 226
-0.998377, 207, 237, 222, 268
-0.99838, 37, 65, 68, 80
-0.99838, 33, 71, 64, 86
-0.998381, 107, 221, 122, 252
-0.998382, 305, 203, 336, 218
-0.998384, 153, 177, 184, 192
-0.998385, 121, 213, 136, 244
-0.998385, 131, 185, 146, 216
-0.998386, 139, 173, 154, 204
-0.998387, 105, 189, 136, 204
-0.998389, 49, 85, 80, 100
-0.998389, 149, 253, 180, 268
-0.99839, 281, 169, 312, 184
-0.998391, 289, 109, 416, 140
-0.998392, 147, 165, 162, 196
-0.998392, 317, 219, 348, 234
-0.998392, 97, 201, 128, 216
-0.998394, 109, 217, 140, 232
-0.998398, 65, 105, 96, 120
-0.998398, 157, 201, 188, 216
-0.998399, 171, 173, 186, 204
-0.9984, 57, 91, 88, 106
-0.998402, 317, 213, 332, 244
-0.998402, 21, 63, 52, 78
-0.998404, 21, 23, 52, 38
-0.998405, 61, 97, 92, 112
-0.998406, 329, 1, 360, 256
-0.998409, 257, 1, 500, 64
-0.998409, 137, 241, 168, 256
-0.99841, 325, 195, 356, 210
-0.998412, 257, 17, 384, 48
-0.998412, 101, 195, 132, 210
-0.998416, 281, 193, 312, 208
-0.998417, 301, 165, 316, 196
-0.998417, 297, 225, 328, 240
-0.998418, 121, 237, 136, 268
-0.998419, 349, 217, 364, 248
-0.998419, 45, 1, 76, 256
-0.998423, 163, 189, 178, 220
-0.998425, 241, 141, 368, 172
-0.998426, 113, 1, 240, 32
-0.998427, 339, 209, 354, 240
-0.998427, 289, 169, 304, 200
-0.998427, 349, 129, 380, 256
-0.998428, 277, 1, 308, 256
-0.998429, 333, 215, 364, 230
-0.998434, 113, 223, 144, 238
-0.998436, 113, 229, 128, 260
-0.998437, 141, 247, 172, 262
-0.99844, 153, 193, 184, 208
-0.998448, 267, 177, 282, 208
-0.99845, 313, 229, 328, 260
-0.998451, 163, 177, 178, 208
-0.998451, 317, 61, 332, 92
-0.998454, 369, 1, 496, 128
-0.998455, 309, 189, 340, 204
-0.998455, 317, 205, 348, 220
-0.998455, 297, 209, 328, 224
-0.998464, 297, 197, 328, 212
-0.998464, 49, 89, 176, 120
-0.998464, 121, 229, 152, 244
-0.998465, 289, 211, 352, 226
-0.99847, 225, 277, 352, 308
-0.998472, 137, 233, 168, 248
-0.998475, 117, 53, 132, 84
-0.998477, 145, 185, 176, 200
-0.998477, 219, 241, 234, 272
-0.998482, 57, 65, 88, 319
-0.998486, 197, 213, 212, 244
-0.998486, 71, 101, 86, 132
-0.998493, 113, 231, 176, 246
-0.998495, 201, 233, 216, 264
-0.998499, 157, 187, 188, 202
-0.998499, 293, 181, 324, 196
-0.998499, 113, 195, 176, 210
-0.998501, 145, 177, 160, 208
-0.998503, 129, 191, 160, 206
-0.998505, 129, 187, 192, 202
-0.998507, 187, 253, 202, 284
-0.998511, 29, 49, 44, 80
-0.998515, 145, 227, 208, 242
-0.998516, 161, 29, 288, 60
-0.99852, 171, 197, 186, 228
-0.998521, 257, 289, 384, 319
-0.998524, 147, 193, 162, 224
-0.998533, 95, 197, 110, 228
-0.998534, 273, 197, 336, 212
-0.998536, 299, 53, 314, 84
-0.998539, 297, 191, 360, 206
-0.998543, 129, 249, 192, 264
-0.998547, 193, 61, 320, 92
-0.998549, 145, 129, 272, 160
-0.998549, 165, 253, 180, 284
-0.998551, 107, 57, 122, 88
-0.998554, 249, 217, 312, 232
-0.998555, 113, 201, 176, 216
-0.998556, 49, 75, 112, 90
-0.998557, 101, 213, 116, 244
-0.998557, 97, 173, 160, 188
-0.998558, 265, 181, 328, 196
-0.998559, 289, 205, 352, 220
-0.998563, 113, 237, 176, 252
-0.998563, 297, 217, 360, 232
-0.998564, 137, 193, 200, 208
-0.998566, 127, 241, 142, 272
-0.998568, 289, 161, 416, 192
-0.99857, 257, 169, 320, 184
-0.99857, 291, 25, 306, 56
-0.998571, 121, 243, 184, 258
-0.998573, 313, 225, 376, 240
-0.998574, 313, 197, 376, 212
-0.99858, 21, 45, 36, 76
-0.998584, 177, 253, 192, 284
-0.998584, 33, 63, 96, 78
-0.998585, 149, 245, 164, 276
-0.998586, 265, 223, 328, 238
-0.998586, 325, 73, 340, 104
-0.998588, 97, 189, 160, 204
-0.998588, 309, 169, 324, 200
-0.99859, 41, 69, 104, 84
-0.998591, 153, 233, 216, 248
-0.998592, 41, 135, 104, 150
-0.998593, 91, 65, 106, 96
-0.998594, 177, 197, 192, 228
-0.998595, 273, 187, 336, 202
-0.998595, 347, 197, 362, 228
-0.998595, 297, 177, 360, 192
-0.998597, 105, 225, 168, 240
-0.998597, 157, 173, 172, 204
-0.998598, 61, 93, 76, 124
-0.998598, 57, 83, 120, 98
-0.998599, 121, 217, 184, 232
-0.998601, 409, 1, 472, 319
-0.998601, 153, 207, 216, 222
-0.998602, 81, 197, 144, 212
-0.998604, 145, 255, 208, 270
-0.998605, 33, 103, 96, 118
-0.998608, 145, 199, 208, 214
-0.998608, 9, 25, 72, 40
-0.998608, 27, 17, 42, 48
-0.998611, 311, 73, 326, 104
-0.998613, 313, 203, 376, 218
-0.998613, 77, 97, 92, 128
-0.998614, 81, 215, 144, 230
-0.998615, 289, 223, 352, 238
-0.998617, 49, 141, 112, 156
-0.998617, 97, 179, 160, 194
-0.998619, 41, 109, 104, 124
-0.99862, 249, 189, 312, 204
-0.998622, 33, 91, 96, 106
-0.998623, 305, 231, 368, 246
-0.998624, 81, 221, 144, 236
-0.998624, 169, 215, 232, 230
-0.998624, 113, 207, 176, 222
-0.998625, 81, 63, 144, 78
-0.998626, 161, 189, 224, 204
-0.998627, 281, 169, 344, 184
-0.998629, 73, 203, 136, 218
-0.99863, 329, 211, 392, 226
-0.99863, 273, 229, 336, 244
-0.998633, 121, 181, 184, 196
-0.998633, 137, 169, 200, 184
-0.998633, 97, 163, 160, 178
-0.998633, 281, 33, 344, 48
-0.998635, 9, 1, 40, 256
-0.998636, 25, 57, 88, 72
-0.998638, 169, 197, 232, 212
-0.998641, 257, 175, 320, 190
-0.998642, 301, 209, 316, 240
-0.998643, 105, 53, 168, 68
-0.998643, 281, 73, 344, 88
-0.998643, 89, 245, 152, 260
-0.998643, 159, 213, 174, 244
-0.998644, 137, 175, 200, 190
-0.998644, 135, 249, 150, 280
-0.998644, 73, 189, 136, 204
-0.998647, 289, 93, 352, 108
-0.998649, 225, 245, 240, 276
-0.998649, 265, 207, 328, 222
-0.998649, 1, 65, 64, 80
-0.998651, 33, 17, 48, 48
-0.998651, 1, 59, 64, 74
-0.998653, 151, 1, 166, 32
-0.998653, 185, 247, 248, 262
-0.998656, 81, 237, 144, 252
-0.998656, 17, 85, 80, 100
-0.998657, 33, 97, 96, 112
-0.998657, 209, 219, 272, 234
-0.998659, 289, 121, 416, 152
-0.998659, 1, 37, 64, 52
-0.998659, 355, 217, 370, 248
-0.998661, 329, 219, 392, 234
-0.998662, 115, 41, 130, 72
-0.998663, 305, 67, 368, 82
-0.998663, 321, 29, 384, 44
-0.998663, 297, 87, 360, 102
-0.998664, 293, 201, 308, 232
-0.998665, 49, 57, 112, 72
-0.998665, 67, 77, 82, 108
-0.998665, 353, 215, 416, 230
-0.998667, 9, 31, 72, 46
-0.998668, 281, 79, 344, 94
-0.998669, 281, 67, 344, 82
-0.99867, 249, 163, 312, 178
-0.998671, 33, 115, 96, 130
-0.998671, 153, 243, 216, 258
-0.998671, 81, 209, 144, 224
-0.998671, 97, 251, 160, 266
-0.998672, 169, 277, 232, 292
-0.998674, 361, 221, 424, 236
-0.998674, 89, 231, 152, 246
-0.998674, 91, 145, 106, 176
-0.998675, 329, 189, 392, 204
-0.998676, 57, 181, 120, 196
-0.998677, 57, 93, 120, 108
-0.998678, 57, 103, 120, 118
-0.998678, 305, 75, 368, 90
-0.998678, 225, 225, 288, 240
-0.998679, 57, 163, 120, 178
-0.99868, 65, 227, 128, 242
-0.998681, 57, 213, 120, 228
-0.998681, 9, 75, 72, 90
-0.998681, 169, 183, 232, 198
-0.998683, 145, 269, 208, 284
-0.998683, 201, 289, 264, 304
-0.998683, 303, 29, 318, 60
-0.998684, 25, 51, 88, 66
-0.998684, 81, 69, 144, 84
-0.998685, 353, 25, 368, 56
-0.998685, 125, 41, 140, 72
-0.998685, 97, 155, 160, 170
-0.998685, 313, 183, 376, 198
-0.998686, 289, 51, 352, 66
-0.998686, 57, 115, 120, 130
-0.998687, 273, 235, 336, 250
-0.998687, 249, 195, 312, 210
-0.998687, 297, 23, 360, 38
-0.998688, 289, 61, 352, 76
-0.998689, 305, 29, 432, 60
-0.998689, 57, 195, 120, 210
-0.99869, 177, 237, 240, 252
-0.99869, 297, 99, 360, 114
-0.99869, 73, 57, 136, 72
-0.99869, 249, 231, 312, 246
-0.998691, 129, 51, 192, 66
-0.998693, 1, 53, 64, 68
-0.998693, 21, 57, 36, 88
-0.998693, 115, 209, 130, 240
-0.998694, 9, 45, 72, 60
-0.998694, 145, 181, 208, 196
-0.998695, 105, 1, 136, 256
-0.998695, 89, 77, 152, 92
-0.998696, 49, 147, 112, 162
-0.998696, 273, 27, 336, 42
-0.998699, 195, 233, 210, 264
-0.9987, 171, 253, 186, 284
-0.998703, 141, 241, 156, 272
-0.998705, 45, 57, 60, 88
-0.998708, 101, 201, 116, 232
-0.998717, 15, 41, 30, 72
-0.998718, 305, 53, 432, 84
-0.99872, 63, 105, 78, 136
-0.998723, 317, 85, 332, 116
-0.998725, 355, 201, 370, 232
-0.99873, 293, 41, 308, 72
-0.998735, 245, 33, 276, 288
-0.998737, 285, 209, 300, 240
-0.998755, 33, 61, 48, 92
-0.998759, 361, 21, 376, 52
-0.99876, 189, 229, 204, 260
-0.99876, 123, 53, 138, 84
-0.998765, 205, 213, 220, 244
-0.998769, 365, 205, 380, 236
-0.998773, 331, 221, 346, 252
-0.998777, 181, 225, 196, 256
-0.998777, 271, 189, 286, 220
-0.998779, 193, 73, 320, 104
-0.998782, 361, 225, 376, 256
-0.998786, 261, 169, 276, 200
-0.998786, 229, 217, 244, 248
-0.9988, 177, 1, 304, 32
-0.998807, 1, 113, 500, 176
-0.998816, 139, 177, 154, 304
-0.998829, 349, 65, 380, 192
-0.99884, 257, 237, 384, 268
-0.998849, 185, 65, 216, 319
-0.998855, 209, 289, 336, 319
-0.998891, 257, 33, 288, 288
-0.998897, 129, 53, 256, 84
-0.998903, 75, 81, 90, 208
-0.998903, 369, 85, 496, 116
-0.998904, 145, 177, 160, 304
-0.998918, 17, 9, 144, 40
-0.998939, 65, 1, 192, 32
-0.998967, 133, 177, 148, 304
-0.998987, 369, 189, 496, 220
-0.998999, 337, 113, 464, 144
-0.999005, 337, 17, 464, 48
-0.999006, 97, 77, 224, 108
-0.999009, 141, 65, 172, 319
-0.99901, 49, 29, 176, 60
-0.999013, 151, 161, 166, 288
-0.999019, 369, 81, 432, 208
-0.999022, 157, 161, 172, 288
-0.999027, 225, 101, 352, 132
-0.999035, 165, 33, 196, 288
-0.999035, 113, 29, 240, 60
-0.999042, 209, 117, 336, 148
-0.999049, 337, 73, 464, 104
-0.999053, 127, 177, 142, 304
-0.999114, 31, 1, 46, 128
-0.99912, 425, 65, 488, 192
-0.999126, 257, 49, 288, 176
-0.999145, 369, 125, 496, 156
-0.999147, 289, 149, 416, 180
-0.999153, 167, 177, 182, 304
-0.999154, 165, 129, 180, 256
-0.999158, 21, 1, 36, 128
-0.999165, 353, 29, 480, 60
-0.999169, 421, 177, 452, 304
-0.999171, 337, 41, 464, 72
-0.999173, 273, 257, 400, 319
-0.999182, 361, 161, 392, 288
-0.999189, 69, 81, 84, 208
-0.9992, 33, 1, 64, 256
-0.999205, 161, 17, 288, 48
-0.999223, 209, 33, 240, 288
-0.999238, 229, 33, 260, 288
-0.99924, 321, 17, 336, 144
-0.99925, 173, 177, 188, 304
-0.999252, 15, 17, 30, 144
-0.999259, 369, 177, 496, 208
-0.999261, 63, 49, 78, 176
-0.999265, 225, 265, 352, 296
-0.999265, 95, 145, 110, 272
-0.999291, 1, 129, 32, 256
-0.999295, 341, 1, 372, 256
-0.999298, 369, 137, 496, 168
-0.999301, 37, 1, 52, 128
-0.999304, 197, 65, 228, 319
-0.999307, 225, 1, 352, 32
-0.999314, 145, 129, 160, 256
-0.999315, 305, 17, 320, 144
-0.999326, 271, 177, 286, 304
-0.999345, 293, 17, 308, 144
-0.999346, 327, 17, 342, 144
-0.999348, 69, 33, 84, 160
-0.99935, 81, 49, 96, 176
-0.999355, 103, 161, 118, 288
-0.999355, 321, 133, 448, 164
-0.999356, 121, 177, 136, 304
-0.999363, 273, 5, 400, 36
-0.999364, 179, 145, 194, 272
-0.999375, 299, 17, 314, 144
-0.999376, 335, 1, 350, 128
-0.99938, 263, 161, 278, 288
-0.999381, 255, 145, 270, 272
-0.999384, 193, 89, 320, 120
-0.999384, 369, 97, 496, 128
-0.999389, 95, 81, 110, 208
-0.9994, 97, 277, 224, 308
-0.9994, 193, 1, 208, 128
-0.999401, 297, 161, 312, 288
-0.999404, 21, 1, 52, 256
-0.999404, 75, 33, 90, 160
-0.999405, 151, 1, 166, 128
-0.999408, 187, 193, 202, 319
-0.999413, 313, 17, 328, 144
-0.999413, 145, 65, 272, 96
-0.999415, 179, 193, 194, 319
-0.999417, 281, 161, 296, 288
-0.999419, 45, 49, 60, 176
-0.999421, 219, 193, 234, 319
-0.999424, 57, 65, 72, 192
-0.999425, 287, 17, 302, 144
-0.999435, 157, 113, 172, 240
-0.999437, 291, 161, 306, 288
-0.999439, 193, 193, 208, 319
-0.999441, 101, 65, 116, 192
-0.999446, 309, 177, 324, 304
-0.999448, 91, 1, 106, 128
-0.999452, 249, 129, 264, 256
-0.999452, 39, 49, 54, 176
-0.999469, 87, 113, 102, 240
-0.999478, 231, 193, 246, 319
-0.99948, 243, 145, 258, 272
-0.999482, 89, 49, 104, 176
-0.999487, 201, 193, 216, 319
-0.999496, 51, 17, 66, 144
-0.999497, 71, 129, 86, 256
-0.999499, 213, 193, 228, 319
-0.999504, 139, 129, 154, 256
-0.999506, 117, 53, 132, 68
-0.999506, 345, 17, 360, 144
-0.999506, 151, 249, 166, 264
-0.999507, 165, 253, 180, 268
-0.999507, 17, 31, 32, 46
-0.999507, 295, 213, 310, 228
-0.999507, 353, 201, 368, 216
-0.999507, 31, 55, 46, 70
-0.999508, 225, 219, 240, 234
-0.999508, 51, 141, 66, 156
-0.999508, 369, 25, 496, 88
-0.999509, 61, 105, 76, 120
-0.999509, 17, 57, 32, 72
-0.99951, 237, 193, 252, 319
-0.99951, 91, 205, 106, 220
-0.99951, 107, 1, 122, 128
-0.99951, 233, 287, 248, 302
-0.999511, 177, 209, 192, 224
-0.999511, 113, 17, 240, 48
-0.999511, 315, 193, 330, 319
-0.999511, 33, 285, 160, 316
-0.999511, 185, 229, 200, 244
-0.999512, 349, 219, 364, 234
-0.999513, 163, 191, 178, 206
-0.999513, 207, 193, 222, 319
-0.999513, 145, 1, 160, 128
-0.999514, 275, 199, 290, 214
-0.999515, 141, 255, 156, 270
-0.999516, 183, 213, 198, 228
-0.999516, 305, 203, 320, 218
-0.999517, 225, 249, 240, 264
-0.999517, 43, 145, 58, 160
-0.999517, 131, 229, 146, 244
-0.999517, 303, 161, 318, 288
-0.999518, 289, 217, 304, 232
-0.999518, 151, 243, 166, 258
-0.999518, 19, 51, 34, 66
-0.999518, 291, 205, 306, 220
-0.999518, 63, 97, 78, 112
-0.999519, 71, 135, 86, 150
-0.999519, 135, 251, 150, 266
-0.99952, 155, 195, 170, 210
-0.99952, 295, 183, 310, 198
-0.999521, 237, 145, 252, 272
-0.999521, 23, 21, 38, 36
-0.999521, 321, 33, 336, 48
-0.999521, 61, 79, 76, 94
-0.999522, 171, 129, 186, 256
-0.999523, 107, 223, 122, 238
-0.999523, 57, 87, 72, 102
-0.999523, 327, 65, 342, 192
-0.999523, 179, 189, 194, 204
-0.999523, 127, 193, 142, 208
-0.999524, 309, 185, 324, 200
-0.999524, 343, 33, 358, 48
-0.999524, 361, 225, 376, 240
-0.999524, 191, 231, 206, 246
-0.999524, 33, 21, 48, 36
-0.999526, 23, 59, 38, 74
-0.999526, 171, 201, 186, 216
-0.999526, 331, 195, 346, 210
-0.999526, 327, 213, 342, 228
-0.999528, 157, 249, 172, 264
-0.999529, 309, 67, 324, 82
-0.99953, 305, 169, 320, 184
-0.999531, 265, 181, 280, 196
-0.999531, 101, 219, 116, 234
-0.999531, 299, 169, 314, 184
-0.999531, 99, 63, 114, 78
-0.999531, 137, 17, 152, 144
-0.999532, 315, 229, 330, 244
-0.999532, 401, 161, 432, 288
-0.999533, 341, 219, 356, 234
-0.999533, 129, 129, 144, 256
-0.999534, 111, 229, 126, 244
-0.999535, 323, 193, 338, 208
-0.999535, 71, 103, 86, 118
-0.999537, 129, 1, 144, 128
-0.999537, 101, 197, 116, 212
-0.999538, 129, 245, 144, 260
-0.999538, 111, 57, 126, 72
-0.99954, 327, 219, 342, 234
-0.99954, 303, 191, 318, 206
-0.999541, 269, 189, 284, 204
-0.999541, 97, 213, 112, 228
-0.999542, 109, 145, 124, 272
-0.999543, 317, 211, 332, 226
-0.999543, 287, 167, 302, 182
-0.999545, 297, 199, 312, 214
-0.999545, 335, 93, 350, 108
-0.999545, 187, 129, 202, 256
-0.999546, 145, 195, 160, 210
-0.999546, 157, 177, 172, 192
-0.999547, 147, 169, 162, 184
-0.999547, 301, 211, 316, 226
-0.999547, 53, 75, 68, 90
-0.999547, 63, 91, 78, 106
-0.999548, 169, 179, 184, 194
-0.999548, 101, 1, 116, 128
-0.999549, 337, 161, 464, 192
-0.999549, 291, 189, 306, 204
-0.999549, 135, 241, 150, 256
-0.99955, 21, 49, 36, 176
-0.99955, 17, 25, 32, 40
-0.99955, 257, 253, 384, 284
-0.99955, 321, 75, 336, 90
-0.999551, 105, 61, 120, 76
-0.999551, 295, 219, 310, 234
-0.999551, 93, 65, 108, 80
-0.999551, 353, 27, 368, 42
-0.999551, 329, 71, 344, 86
-0.999554, 303, 225, 318, 240
-0.999556, 315, 73, 330, 88
-0.999556, 97, 193, 112, 319
-0.999557, 47, 75, 62, 90
-0.999559, 225, 193, 240, 319
-0.999559, 159, 239, 174, 254
-0.99956, 151, 185, 166, 200
-0.999561, 149, 5, 164, 20
-0.999561, 315, 189, 330, 204
-0.999562, 47, 69, 62, 84
-0.999562, 137, 231, 152, 246
-0.999563, 295, 49, 310, 64
-0.999565, 203, 237, 218, 252
-0.999567, 117, 235, 132, 250
-0.999568, 177, 197, 192, 212
-0.999569, 63, 85, 78, 100
-0.999569, 145, 113, 272, 144
-0.999569, 55, 81, 70, 96
-0.999569, 195, 145, 210, 272
-0.999569, 63, 97, 78, 224
-0.99957, 113, 1, 128, 128
-0.999573, 143, 229, 158, 244
-0.999574, 157, 187, 172, 202
-0.999575, 71, 91, 86, 106
-0.999577, 57, 17, 72, 144
-0.999577, 171, 49, 186, 176
-0.999578, 309, 227, 324, 242
-0.99958, 31, 61, 46, 76
-0.999581, 133, 189, 148, 204
-0.999585, 317, 145, 332, 272
-0.999588, 333, 211, 348, 226
-0.999591, 225, 17, 240, 144
-0.999595, 123, 241, 138, 256
-0.999596, 41, 69, 56, 84
-0.999596, 295, 65, 310, 192
-0.999596, 81, 97, 96, 224
-0.999599, 339, 213, 354, 228
-0.999599, 319, 67, 334, 82
-0.999601, 211, 241, 226, 256
-0.999601, 71, 97, 86, 112
-0.999601, 293, 173, 308, 188
-0.999604, 333, 217, 348, 232
-0.999604, 293, 167, 308, 182
-0.999606, 341, 145, 356, 272
-0.999608, 313, 199, 328, 214
-0.999609, 353, 161, 368, 288
-0.99961, 187, 1, 202, 128
-0.99961, 151, 113, 166, 240
-0.99961, 305, 113, 320, 240
-0.999611, 201, 129, 216, 256
-0.999612, 163, 183, 178, 198
-0.999612, 115, 161, 130, 288
-0.999615, 215, 129, 230, 256
-0.999617, 347, 177, 362, 304
-0.999618, 297, 193, 312, 208
-0.99962, 325, 207, 340, 222
-0.999621, 325, 145, 340, 272
-0.999622, 39, 63, 54, 78
-0.999622, 43, 1, 58, 128
-0.999622, 231, 145, 246, 272
-0.999625, 303, 179, 318, 194
-0.999625, 119, 33, 134, 160
-0.999625, 193, 49, 208, 176
-0.999627, 109, 193, 124, 319
-0.999627, 321, 97, 336, 224
-0.999628, 319, 203, 334, 218
-0.999629, 365, 1, 380, 128
-0.99963, 97, 105, 352, 168
-0.999632, 433, 1, 496, 319
-0.999633, 207, 129, 222, 256
-0.999633, 295, 113, 310, 240
-0.999638, 303, 197, 318, 212
-0.99964, 85, 1, 100, 128
-0.99964, 311, 207, 326, 222
-0.999642, 107, 65, 122, 192
-0.999646, 249, 81, 264, 208
-0.999646, 219, 1, 234, 128
-0.999646, 221, 129, 236, 256
-0.999647, 333, 161, 348, 288
-0.999649, 245, 193, 260, 319
-0.999656, 281, 33, 296, 160
-0.999658, 165, 49, 180, 176
-0.99966, 185, 49, 200, 176
-0.999662, 149, 233, 164, 248
-0.999664, 345, 1, 408, 256
-0.999665, 355, 17, 370, 144
-0.999668, 113, 49, 128, 176
-0.999673, 199, 49, 214, 176
-0.999675, 361, 113, 392, 240
-0.999677, 177, 97, 192, 224
-0.999679, 199, 1, 214, 128
-0.999679, 127, 49, 142, 176
-0.999686, 9, 1, 24, 128
-0.999686, 251, 193, 266, 319
-0.999688, 63, 1, 78, 128
-0.999694, 51, 65, 66, 192
-0.999694, 31, 49, 46, 176
-0.999695, 171, 187, 186, 202
-0.999815, 321, 249, 448, 312
-0.999859, 369, 129, 432, 256
-1.00001, 441, 145, 472, 272
-1.00003, 409, 65, 472, 319
-1.00003, 357, 1, 388, 256
-1.0001, 381, 129, 412, 256
-1.00013, 1, 65, 32, 192
-1.00014, 437, 65, 468, 319
-1.00019, 377, 65, 408, 319
-1.00027, 433, 1, 496, 256
-1.0003, 453, 1, 484, 256
-1.00031, 1, 193, 32, 319
-1.00031, 369, 257, 496, 319
-1.00043, 13, 129, 44, 256
-1.00043, 389, 65, 420, 319
-1.00045, 369, 17, 432, 144
-1.00045, 417, 65, 448, 319
-1.00054, 369, 65, 432, 319
-1.00059, 405, 65, 436, 319
-1.0006, 117, 113, 148, 240
-1.00066, 465, 193, 496, 319
-1.00072, 465, 1, 496, 256
-1.00085, 41, 193, 72, 319
-1.00152, 433, 193, 464, 319
-1.00159, 37, 145, 68, 272
-1.00185, 409, 1, 472, 128
-1.00189, 377, 65, 408, 192
-1.00192, 25, 177, 56, 304
-1.00197, 461, 145, 492, 272
-1.00208, 401, 65, 464, 192
-1.00244, 437, 1, 468, 128
-1.0025, 397, 1, 428, 128
-1.00254, 13, 177, 44, 304
-1.00277, 361, 49, 392, 176
-1.00282, 345, 49, 408, 176
-1.00299, 445, 81, 476, 208
-1.00323, 385, 1, 416, 128
-1.0033, 433, 1, 496, 128
-1.00358, 449, 1, 480, 128
-1.00363, 461, 65, 492, 192
-1.0037, 405, 65, 436, 192
-1.00388, 393, 81, 424, 208
-1.00394, 429, 129, 460, 256
-1.00398, 413, 129, 444, 256
-1.00427, 461, 17, 492, 144
-1.00456, 425, 65, 456, 192
-1.00505, 413, 1, 444, 128
-1.00591, 425, 1, 456, 128
