1584
-0.598866, 1, 1, 500, 200
-0.87353, 1, 1, 256, 200
-0.876813, 129, 1, 384, 200
-0.915818, 1, 65, 500, 192
-0.929754, 33, 1, 160, 200
-0.937034, 97, 65, 352, 192
-0.938528, 145, 1, 272, 200
-0.943548, 97, 1, 224, 200
-0.948748, 1, 65, 256, 192
-0.94927, 193, 121, 256, 184
-0.950363, 193, 1, 320, 200
-0.951752, 97, 113, 160, 176
-0.95207, 49, 121, 112, 184
-0.955001, 97, 65, 224, 192
-0.955475, 249, 121, 312, 184
-0.956029, 105, 65, 168, 192
-0.956894, 257, 1, 500, 200
-0.957511, 153, 105, 216, 168
-0.958328, 49, 65, 176, 192
-0.958713, 89, 137, 152, 200
-0.959031, 217, 129, 280, 192
-0.96082, 121, 121, 184, 184
-0.961155, 9, 121, 72, 184
-0.962106, 225, 65, 288, 192
-0.962267, 153, 65, 216, 192
-0.962499, 193, 65, 320, 192
-0.962722, 289, 129, 352, 192
-0.962964, 257, 65, 500, 192
-0.96313, 161, 129, 224, 192
-0.964382, 273, 1, 400, 200
-0.964732, 1, 49, 128, 176
-0.9648, 257, 65, 320, 192
-0.965802, 121, 97, 184, 160
-0.966354, 129, 65, 192, 192
-0.966517, 145, 65, 272, 192
-0.966566, 241, 65, 368, 192
-0.966972, 73, 113, 136, 176
-0.968409, 65, 65, 128, 192
-0.968705, 81, 121, 208, 184
-0.969636, 281, 65, 344, 192
-0.969993, 185, 65, 248, 192
-0.97027, 17, 113, 144, 176
-0.970317, 209, 121, 336, 184
-0.97092, 17, 97, 80, 160
-0.971452, 1, 17, 500, 144
-0.972086, 101, 121, 132, 184
-0.972697, 225, 105, 288, 168
-0.973494, 129, 129, 256, 192
-0.97369, 41, 65, 104, 192
-0.973802, 17, 65, 80, 192
-0.973998, 369, 1, 496, 200
-0.97411, 217, 121, 248, 184
-0.974299, 185, 97, 248, 160
-0.974499, 97, 97, 224, 160
-0.974525, 25, 105, 56, 168
-0.975279, 121, 97, 152, 160
-0.975331, 229, 121, 260, 184
-0.975502, 321, 1, 448, 200
-0.975662, 173, 97, 204, 160
-0.976589, 269, 121, 300, 184
-0.976744, 81, 129, 112, 192
-0.977089, 329, 121, 392, 184
-0.977542, 185, 121, 216, 184
-0.977809, 197, 129, 228, 192
-0.97783, 273, 105, 336, 168
-0.977877, 305, 65, 432, 192
-0.97834, 145, 105, 272, 168
-0.978616, 145, 129, 176, 192
-0.978731, 117, 65, 148, 192
-0.97892, 305, 121, 336, 184
-0.979336, 169, 121, 200, 184
-0.97944, 73, 89, 136, 152
-0.979521, 33, 137, 160, 200
-0.980586, 17, 89, 144, 152
-0.980635, 297, 105, 360, 168
-0.980789, 113, 121, 144, 184
-0.980795, 257, 129, 384, 192
-0.981229, 29, 129, 60, 192
-0.981276, 317, 129, 348, 192
-0.981369, 133, 113, 164, 176
-0.981568, 13, 113, 44, 176
-0.981593, 157, 121, 188, 184
-0.981818, 41, 97, 104, 160
-0.981839, 49, 121, 80, 184
-0.98201, 109, 97, 140, 160
-0.982117, 305, 113, 432, 176
-0.98215, 257, 121, 288, 184
-0.98245, 285, 121, 316, 184
-0.982472, 97, 89, 160, 152
-0.983165, 65, 121, 96, 184
-0.983166, 129, 73, 192, 136
-0.983274, 65, 17, 320, 144
-0.983283, 305, 65, 368, 192
-0.983524, 245, 121, 276, 184
-0.983733, 161, 97, 192, 160
-0.983898, 141, 65, 172, 192
-0.984354, 97, 97, 128, 160
-0.984402, 249, 97, 312, 160
-0.985169, 97, 65, 128, 192
-0.985468, 329, 65, 392, 192
-0.985634, 129, 137, 160, 200
-0.986093, 149, 97, 180, 160
-0.986176, 161, 65, 192, 192
-0.986462, 273, 65, 304, 192
-0.986568, 97, 17, 224, 144
-0.986581, 225, 81, 288, 144
-0.986801, 185, 97, 216, 160
-0.987257, 213, 65, 244, 192
-0.987394, 241, 65, 272, 192
-0.987407, 129, 65, 160, 192
-0.987576, 205, 105, 236, 168
-0.987702, 209, 129, 272, 160
-0.987715, 25, 49, 56, 176
-0.987726, 1, 113, 256, 176
-0.987772, 37, 105, 68, 168
-0.987813, 233, 97, 264, 160
-0.987819, 261, 65, 292, 192
-0.987898, 293, 65, 324, 192
-0.987979, 121, 17, 184, 144
-0.988187, 225, 97, 352, 160
-0.988219, 217, 141, 280, 172
-0.9885, 145, 101, 208, 132
-0.988535, 85, 65, 116, 192
-0.988548, 161, 81, 224, 144
-0.988595, 129, 129, 384, 192
-0.988612, 161, 133, 224, 164
-0.98866, 177, 145, 240, 176
-0.988662, 177, 81, 304, 144
-0.988836, 173, 65, 204, 192
-0.988845, 33, 121, 96, 152
-0.988939, 285, 97, 316, 160
-0.989087, 97, 133, 160, 164
-0.989184, 233, 121, 296, 152
-0.989303, 185, 121, 248, 152
-0.98932, 81, 121, 144, 152
-0.989342, 85, 105, 116, 168
-0.989392, 257, 125, 320, 156
-0.989521, 137, 133, 200, 164
-0.989573, 49, 133, 112, 164
-0.989588, 317, 65, 348, 192
-0.9896, 49, 145, 112, 176
-0.989644, 185, 133, 248, 164
-0.989671, 305, 137, 432, 200
-0.989709, 145, 113, 208, 144
-0.989749, 229, 65, 260, 192
-0.989768, 49, 65, 80, 192
-0.9898, 281, 129, 344, 160
-0.989805, 353, 65, 480, 192
-0.989876, 81, 149, 144, 180
-0.989908, 317, 105, 348, 168
-0.990003, 153, 149, 216, 180
-0.990105, 105, 145, 168, 176
-0.990127, 209, 117, 272, 148
-0.990133, 105, 117, 168, 148
-0.990174, 169, 101, 232, 132
-0.990251, 9, 109, 72, 140
-0.990412, 161, 17, 416, 144
-0.990429, 113, 105, 176, 136
-0.990429, 73, 137, 136, 168
-0.99048, 1, 113, 32, 176
-0.990481, 9, 133, 72, 164
-0.990502, 289, 149, 352, 180
-0.990514, 305, 65, 336, 192
-0.990535, 217, 153, 280, 184
-0.990591, 273, 81, 336, 144
-0.990627, 217, 97, 248, 160
-0.990627, 189, 65, 220, 192
-0.990634, 129, 145, 192, 176
-0.990853, 1, 137, 256, 200
-0.990877, 9, 121, 72, 152
-0.99088, 161, 17, 288, 144
-0.991026, 241, 137, 304, 168
-0.991067, 329, 129, 360, 192
-0.991134, 353, 121, 416, 184
-0.991195, 57, 121, 120, 152
-0.991255, 241, 153, 304, 184
-0.9914, 49, 97, 80, 160
-0.99147, 257, 113, 320, 144
-0.991526, 33, 109, 96, 140
-0.991532, 73, 109, 136, 140
-0.991535, 217, 105, 280, 136
-0.99157, 61, 65, 92, 192
-0.991659, 177, 157, 240, 188
-0.991724, 49, 17, 176, 144
-0.991755, 425, 121, 488, 184
-0.991799, 169, 1, 232, 200
-0.991812, 305, 137, 368, 168
-0.991919, 17, 145, 80, 176
-0.991947, 265, 149, 328, 180
-0.99195, 137, 89, 168, 152
-0.991974, 313, 149, 376, 180
-0.992113, 297, 117, 360, 148
-0.992125, 37, 65, 68, 192
-0.99213, 145, 89, 208, 120
-0.992229, 97, 73, 224, 136
-0.992252, 173, 97, 204, 128
-0.992283, 229, 137, 260, 168
-0.992301, 329, 133, 392, 164
-0.992331, 273, 161, 336, 192
-0.992336, 129, 105, 384, 168
-0.992376, 105, 93, 168, 124
-0.992384, 25, 157, 88, 188
-0.992388, 113, 157, 176, 188
-0.99243, 197, 145, 228, 176
-0.992433, 217, 129, 248, 160
-0.992434, 273, 89, 400, 152
-0.992437, 109, 133, 140, 164
-0.992456, 165, 133, 196, 164
-0.992457, 201, 165, 264, 196
-0.992469, 217, 145, 248, 176
-0.99247, 89, 133, 120, 164
-0.992474, 149, 133, 180, 164
-0.992484, 153, 101, 184, 132
-0.992487, 17, 137, 48, 200
-0.992517, 41, 1, 104, 200
-0.992519, 153, 149, 184, 180
-0.992522, 89, 165, 152, 196
-0.992531, 25, 125, 56, 156
-0.992542, 245, 133, 276, 164
-0.992543, 93, 149, 124, 180
-0.992545, 177, 141, 208, 172
-0.992567, 21, 105, 52, 136
-0.992575, 101, 121, 132, 152
-0.99259, 129, 129, 160, 160
-0.9926, 257, 125, 288, 156
-0.992602, 209, 117, 240, 148
-0.992603, 97, 133, 224, 164
-0.992625, 181, 129, 212, 160
-0.992628, 237, 117, 268, 148
-0.992641, 89, 121, 120, 152
-0.992645, 193, 133, 224, 164
-0.992651, 57, 157, 120, 188
-0.992658, 105, 145, 136, 176
-0.992671, 177, 117, 208, 148
-0.992678, 313, 161, 376, 192
-0.99268, 317, 133, 348, 164
-0.992683, 1, 113, 500, 176
-0.992687, 133, 141, 164, 172
-0.992707, 17, 97, 80, 128
-0.992708, 33, 109, 64, 140
-0.992748, 229, 149, 260, 180
-0.992751, 129, 1, 192, 200
-0.992769, 377, 121, 440, 184
-0.992773, 297, 129, 328, 160
-0.992775, 329, 121, 392, 152
-0.992784, 165, 149, 196, 180
-0.992785, 197, 121, 228, 152
-0.992794, 45, 121, 76, 152
-0.992797, 225, 165, 288, 196
-0.992806, 193, 105, 256, 136
-0.992815, 341, 113, 372, 176
-0.992825, 249, 165, 312, 196
-0.992836, 205, 133, 236, 164
-0.992842, 137, 113, 168, 144
-0.992845, 29, 137, 60, 168
-0.992852, 81, 145, 112, 176
-0.992858, 65, 125, 96, 156
-0.992868, 117, 105, 148, 136
-0.992872, 321, 145, 352, 176
-0.992879, 113, 121, 144, 152
-0.992882, 241, 145, 272, 176
-0.992885, 13, 89, 44, 152
-0.992907, 265, 89, 296, 152
-0.992909, 329, 105, 360, 168
-0.992918, 269, 117, 300, 148
-0.992935, 13, 117, 44, 148
-0.992942, 177, 153, 208, 184
-0.992957, 225, 117, 256, 148
-0.992965, 285, 125, 316, 156
-0.992968, 369, 121, 496, 184
-0.992975, 253, 149, 284, 180
-0.992977, 189, 105, 220, 136
-0.992979, 249, 113, 280, 144
-0.99299, 77, 117, 108, 148
-0.992998, 77, 129, 108, 160
-0.993007, 257, 137, 288, 168
-0.993016, 49, 145, 80, 176
-0.993026, 185, 89, 248, 120
-0.993032, 165, 117, 196, 148
-0.993036, 97, 109, 128, 140
-0.993055, 153, 161, 216, 192
-0.993062, 337, 149, 400, 180
-0.993063, 17, 129, 144, 160
-0.993077, 209, 157, 240, 188
-0.993081, 141, 153, 172, 184
-0.993102, 149, 121, 180, 152
-0.993132, 241, 157, 272, 188
-0.993146, 121, 73, 152, 136
-0.993147, 141, 101, 172, 132
-0.993147, 129, 101, 160, 132
-0.993149, 9, 105, 40, 136
-0.993162, 269, 157, 300, 188
-0.993169, 309, 121, 340, 152
-0.993215, 49, 133, 80, 164
-0.993226, 129, 153, 160, 184
-0.993253, 325, 157, 356, 188
-0.99326, 289, 113, 320, 144
-0.993263, 121, 141, 152, 172
-0.99327, 45, 157, 76, 188
-0.993287, 309, 149, 340, 180
-0.993289, 329, 133, 360, 164
-0.993303, 65, 113, 96, 144
-0.993305, 17, 93, 48, 124
-0.99332, 117, 153, 148, 184
-0.993325, 13, 133, 44, 164
-0.993343, 153, 89, 184, 120
-0.993344, 297, 157, 328, 188
-0.993344, 1, 117, 32, 148
-0.993354, 125, 117, 156, 148
-0.993375, 285, 161, 316, 192
-0.993375, 231, 121, 246, 184
-0.993378, 321, 97, 384, 160
-0.993384, 229, 105, 260, 136
-0.993388, 257, 161, 288, 192
-0.993391, 69, 145, 100, 176
-0.993399, 217, 105, 248, 136
-0.993407, 269, 129, 300, 160
-0.993411, 281, 149, 312, 180
-0.993414, 33, 149, 64, 180
-0.99343, 73, 97, 136, 128
-0.993434, 221, 165, 252, 196
-0.993437, 337, 157, 368, 188
-0.993443, 93, 165, 124, 196
-0.993457, 81, 157, 112, 188
-0.993479, 269, 145, 300, 176
-0.993492, 197, 161, 228, 192
-0.9935, 169, 85, 200, 116
-0.993501, 97, 117, 224, 148
-0.993511, 37, 97, 68, 128
-0.993519, 105, 165, 136, 196
-0.993524, 45, 109, 76, 140
-0.993531, 57, 165, 88, 196
-0.99356, 69, 165, 100, 196
-0.993564, 129, 89, 160, 120
-0.993567, 253, 97, 284, 160
-0.99357, 249, 101, 312, 132
-0.993576, 401, 121, 464, 184
-0.993576, 117, 165, 148, 196
-0.993594, 225, 121, 480, 184
-0.993599, 85, 105, 116, 136
-0.993605, 321, 121, 352, 152
-0.993609, 285, 137, 316, 168
-0.993612, 1, 157, 64, 188
-0.993619, 261, 105, 292, 136
-0.993626, 273, 105, 304, 136
-0.993636, 97, 97, 128, 128
-0.993639, 297, 141, 328, 172
-0.99365, 57, 169, 120, 200
-0.993654, 117, 93, 148, 124
-0.993667, 345, 145, 376, 176
-0.993673, 189, 93, 220, 124
-0.993682, 161, 161, 192, 192
-0.993684, 5, 93, 36, 124
-0.993687, 141, 89, 172, 120
-0.99369, 313, 161, 344, 192
-0.993691, 273, 169, 304, 200
-0.993694, 1, 129, 32, 160
-0.993695, 341, 133, 372, 164
-0.993706, 337, 121, 368, 152
-0.993708, 201, 101, 232, 132
-0.993712, 129, 165, 160, 196
-0.993721, 337, 161, 400, 192
-0.993723, 333, 145, 364, 176
-0.993724, 281, 105, 344, 136
-0.993742, 17, 65, 144, 128
-0.993743, 241, 101, 272, 132
-0.993784, 33, 145, 160, 176
-0.993804, 81, 169, 112, 200
-0.993812, 141, 165, 172, 196
-0.993815, 73, 65, 104, 192
-0.993821, 325, 169, 356, 200
-0.993851, 49, 97, 112, 128
-0.993857, 177, 165, 208, 196
-0.993907, 305, 97, 336, 160
-0.993911, 385, 117, 448, 148
-0.993935, 433, 129, 496, 160
-0.993941, 321, 109, 384, 140
-0.993965, 113, 121, 128, 184
-0.993998, 33, 169, 96, 200
-0.994002, 35, 113, 50, 176
-0.994008, 361, 125, 424, 156
-0.994027, 23, 113, 38, 176
-0.994028, 161, 149, 288, 180
-0.994036, 5, 65, 36, 192
-0.994041, 193, 121, 320, 152
-0.994066, 241, 89, 304, 120
-0.994075, 121, 81, 184, 112
-0.994082, 225, 133, 352, 164
-0.994104, 121, 105, 136, 168
-0.994105, 113, 169, 176, 200
-0.994116, 409, 117, 472, 148
-0.994135, 101, 129, 116, 192
-0.994138, 17, 85, 80, 116
-0.99419, 145, 133, 272, 164
-0.994197, 409, 129, 472, 160
-0.9942, 1, 109, 128, 140
-0.994208, 1, 89, 256, 152
-0.994215, 361, 113, 424, 144
-0.994233, 433, 117, 496, 148
-0.994247, 73, 17, 136, 144
-0.99426, 385, 133, 448, 164
-0.99426, 169, 77, 232, 108
-0.994358, 29, 81, 60, 144
-0.994359, 177, 169, 240, 200
-0.994364, 9, 69, 72, 100
-0.994388, 257, 77, 320, 108
-0.994416, 177, 29, 240, 60
-0.994431, 281, 93, 344, 124
-0.994445, 201, 33, 264, 64
-0.994446, 97, 145, 224, 176
-0.994447, 73, 85, 136, 116
-0.994462, 173, 73, 204, 136
-0.994484, 233, 77, 296, 108
-0.994504, 1, 1, 64, 200
-0.994515, 73, 69, 136, 100
-0.994534, 177, 45, 240, 76
-0.994546, 345, 101, 408, 132
-0.994562, 353, 137, 416, 168
-0.994565, 209, 81, 272, 112
-0.994577, 217, 93, 280, 124
-0.994578, 225, 21, 288, 52
-0.994591, 369, 165, 432, 196
-0.994595, 29, 113, 44, 176
-0.994604, 201, 21, 264, 52
-0.994606, 57, 53, 120, 84
-0.994614, 273, 65, 336, 96
-0.994615, 433, 165, 496, 196
-0.994617, 41, 65, 104, 96
-0.994619, 25, 53, 88, 84
-0.99463, 409, 165, 472, 196
-0.994633, 121, 57, 184, 88
-0.994635, 105, 69, 168, 100
-0.994636, 417, 141, 480, 172
-0.994638, 97, 17, 160, 48
-0.99464, 95, 129, 110, 192
-0.994655, 145, 77, 208, 108
-0.994658, 425, 105, 488, 136
-0.994664, 1, 57, 64, 88
-0.994664, 361, 153, 424, 184
-0.994682, 281, 77, 344, 108
-0.994687, 145, 65, 208, 96
-0.994692, 189, 105, 204, 168
-0.994695, 241, 37, 304, 68
-0.994696, 175, 105, 190, 168
-0.9947, 385, 105, 448, 136
-0.994702, 321, 97, 384, 128
-0.994703, 41, 25, 104, 56
-0.994703, 153, 37, 216, 68
-0.994705, 17, 41, 80, 72
-0.994711, 97, 81, 160, 112
-0.994718, 41, 77, 104, 108
-0.994723, 107, 137, 122, 200
-0.994726, 177, 57, 240, 88
-0.994729, 409, 153, 472, 184
-0.994734, 185, 17, 248, 144
-0.994739, 201, 49, 264, 80
-0.994742, 73, 13, 136, 44
-0.994747, 1, 17, 64, 48
-0.994812, 1, 137, 500, 200
-0.994843, 113, 101, 240, 132
-0.994914, 185, 73, 248, 136
-0.995027, 193, 1, 256, 200
-0.995065, 199, 121, 214, 184
-0.995071, 183, 121, 198, 184
-0.995088, 181, 89, 196, 152
-0.995105, 153, 73, 184, 136
-0.99511, 241, 145, 368, 176
-0.995138, 169, 121, 184, 184
-0.995211, 273, 121, 288, 184
-0.995227, 237, 121, 252, 184
-0.995256, 279, 121, 294, 184
-0.995285, 305, 129, 320, 192
-0.995328, 209, 121, 224, 184
-0.995339, 225, 129, 240, 192
-0.995373, 369, 97, 496, 160
-0.995383, 161, 17, 224, 144
-0.995396, 145, 117, 272, 148
-0.995398, 125, 137, 140, 200
-0.995404, 17, 113, 32, 176
-0.995407, 317, 121, 332, 184
-0.995412, 43, 129, 58, 192
-0.995422, 89, 1, 152, 200
-0.995439, 49, 113, 176, 144
-0.99544, 163, 137, 178, 200
-0.995455, 107, 113, 122, 176
-0.995491, 157, 129, 172, 192
-0.995604, 97, 17, 160, 144
-0.995616, 147, 129, 162, 192
-0.995659, 289, 121, 304, 184
-0.995753, 135, 105, 150, 168
-0.995817, 263, 121, 278, 184
-0.995819, 23, 89, 38, 152
-0.995843, 329, 65, 360, 192
-0.995847, 425, 65, 488, 192
-0.995869, 201, 65, 232, 192
-0.995925, 331, 121, 346, 184
-0.995927, 53, 121, 68, 184
-0.995973, 225, 73, 352, 136
-0.995973, 401, 65, 464, 192
-0.995976, 87, 129, 102, 192
-0.995983, 299, 129, 314, 192
-0.996001, 193, 137, 208, 200
-0.996019, 177, 129, 192, 192
-0.996067, 245, 121, 260, 184
-0.996087, 311, 121, 326, 184
-0.996161, 161, 57, 288, 120
-0.996219, 217, 121, 232, 184
-0.996221, 47, 105, 62, 168
-0.996227, 225, 17, 288, 144
-0.996232, 115, 97, 130, 160
-0.996248, 131, 137, 146, 200
-0.996274, 89, 65, 152, 128
-0.996308, 323, 121, 338, 184
-0.996315, 17, 97, 144, 128
-0.99634, 151, 97, 166, 160
-0.99634, 119, 129, 134, 192
-0.996368, 101, 105, 116, 168
-0.996424, 37, 89, 52, 152
-0.99643, 141, 105, 156, 168
-0.996452, 79, 121, 94, 184
-0.996454, 1, 89, 32, 152
-0.996472, 167, 97, 182, 160
-0.996503, 305, 121, 432, 152
-0.996526, 237, 97, 252, 160
-0.996531, 257, 121, 272, 184
-0.996543, 127, 105, 142, 168
-0.996591, 353, 65, 416, 192
-0.996594, 197, 81, 228, 144
-0.996608, 129, 81, 384, 144
-0.996645, 17, 73, 80, 136
-0.996657, 141, 129, 156, 192
-0.996675, 223, 105, 238, 168
-0.996732, 21, 109, 36, 140
-0.996738, 61, 97, 92, 160
-0.996745, 67, 121, 82, 184
-0.996786, 27, 105, 42, 136
-0.996789, 251, 121, 266, 184
-0.996816, 219, 141, 234, 172
-0.996902, 177, 161, 304, 192
-0.99692, 33, 105, 48, 136
-0.996926, 73, 121, 88, 184
-0.996931, 241, 117, 368, 148
-0.996983, 29, 89, 44, 152
-0.996986, 1, 89, 500, 152
-0.997, 179, 97, 194, 128
-0.997007, 257, 157, 384, 188
-0.997014, 409, 97, 472, 160
-0.997068, 65, 101, 192, 132
-0.997069, 37, 117, 52, 148
-0.997091, 1, 1, 128, 128
-0.99721, 105, 133, 120, 164
-0.997214, 73, 97, 104, 160
-0.997231, 231, 125, 246, 156
-0.997236, 113, 157, 240, 188
-0.997244, 161, 101, 288, 132
-0.997265, 29, 117, 44, 148
-0.997312, 249, 129, 264, 160
-0.997325, 185, 141, 200, 172
-0.997353, 95, 105, 110, 168
-0.997354, 59, 121, 74, 184
-0.997365, 187, 81, 202, 144
-0.997381, 107, 145, 122, 176
-0.997386, 11, 105, 26, 168
-0.997393, 223, 153, 238, 184
-0.997395, 185, 109, 200, 140
-0.997395, 257, 97, 500, 160
-0.997401, 175, 81, 190, 144
-0.997432, 231, 97, 246, 160
-0.997452, 341, 65, 372, 192
-0.997456, 273, 133, 400, 164
-0.99747, 125, 81, 140, 144
-0.997477, 327, 133, 342, 164
-0.997486, 337, 129, 352, 192
-0.99749, 217, 1, 280, 200
-0.99749, 157, 97, 172, 160
-0.997491, 21, 121, 36, 152
-0.997509, 211, 145, 226, 176
-0.997522, 95, 129, 110, 160
-0.997524, 239, 117, 254, 148
-0.997529, 287, 97, 302, 160
-0.997538, 189, 121, 204, 152
-0.997544, 169, 133, 184, 164
-0.997545, 179, 141, 194, 172
-0.997564, 385, 97, 448, 160
-0.997568, 199, 97, 214, 160
-0.997609, 125, 133, 140, 164
-0.997613, 195, 141, 210, 172
-0.997621, 153, 17, 184, 144
-0.997622, 129, 33, 256, 96
-0.99764, 97, 149, 112, 180
-0.997646, 217, 153, 232, 184
-0.997649, 263, 121, 278, 152
-0.997651, 47, 121, 62, 152
-0.997651, 299, 97, 314, 160
-0.997684, 309, 97, 324, 160
-0.997686, 65, 1, 128, 200
-0.997688, 117, 129, 132, 160
-0.997701, 223, 129, 238, 160
-0.997701, 1, 157, 128, 188
-0.997706, 373, 121, 404, 184
-0.997707, 21, 137, 36, 200
-0.997733, 279, 89, 294, 152
-0.997733, 333, 137, 348, 168
-0.997733, 149, 141, 164, 172
-0.997741, 165, 149, 180, 180
-0.997747, 273, 97, 288, 160
-0.997751, 129, 17, 160, 144
-0.997752, 35, 137, 50, 200
-0.997755, 89, 105, 104, 168
-0.997761, 185, 97, 200, 128
-0.997762, 241, 105, 368, 136
-0.997784, 257, 137, 272, 168
-0.997786, 321, 137, 448, 168
-0.997792, 177, 25, 304, 88
-0.997793, 241, 1, 304, 200
-0.997795, 321, 89, 448, 152
-0.997807, 321, 133, 336, 164
-0.997812, 159, 137, 174, 168
-0.997816, 211, 125, 226, 156
-0.997816, 179, 117, 194, 148
-0.997821, 135, 129, 150, 160
-0.997841, 223, 117, 238, 148
-0.997844, 27, 137, 42, 200
-0.99785, 183, 129, 198, 160
-0.997857, 91, 117, 106, 148
-0.997858, 205, 141, 220, 172
-0.99786, 343, 113, 358, 176
-0.99787, 191, 105, 206, 136
-0.997872, 81, 33, 208, 96
-0.997882, 251, 145, 266, 176
-0.997887, 169, 73, 184, 136
-0.997894, 111, 133, 126, 164
-0.997896, 247, 97, 262, 160
-0.9979, 229, 149, 244, 180
-0.997901, 177, 153, 192, 184
-0.997902, 149, 109, 164, 140
-0.99791, 173, 113, 188, 144
-0.997923, 237, 129, 252, 160
-0.997923, 89, 133, 104, 164
-0.997924, 111, 113, 126, 144
-0.997928, 53, 149, 68, 180
-0.99793, 195, 121, 210, 152
-0.997933, 307, 129, 322, 160
-0.997935, 145, 129, 160, 160
-0.997935, 243, 133, 258, 164
-0.997939, 39, 129, 54, 160
-0.997943, 131, 81, 146, 144
-0.99796, 245, 145, 260, 176
-0.99796, 171, 149, 186, 180
-0.997972, 49, 165, 176, 196
-0.997976, 187, 153, 202, 184
-0.997983, 39, 105, 54, 136
-0.997993, 113, 145, 128, 176
-0.998004, 141, 109, 156, 140
-0.998007, 249, 117, 264, 148
-0.99801, 315, 129, 330, 160
-0.998013, 173, 17, 204, 144
-0.998019, 129, 121, 144, 152
-0.998019, 201, 121, 216, 152
-0.99802, 81, 125, 96, 156
-0.998056, 105, 121, 120, 152
-0.998064, 107, 89, 122, 152
-0.998067, 143, 73, 158, 136
-0.998071, 17, 89, 32, 152
-0.998072, 173, 97, 188, 128
-0.998078, 121, 105, 136, 136
-0.998079, 273, 125, 288, 156
-0.99808, 193, 153, 208, 184
-0.998085, 293, 97, 308, 160
-0.998089, 257, 117, 272, 148
-0.998101, 231, 137, 246, 168
-0.998104, 209, 97, 224, 160
-0.998104, 299, 125, 314, 156
-0.998124, 101, 73, 132, 136
-0.998132, 217, 117, 232, 148
-0.998133, 175, 129, 190, 160
-0.998134, 159, 149, 174, 180
-0.998146, 125, 145, 140, 176
-0.998172, 163, 101, 178, 132
-0.998179, 153, 97, 168, 128
-0.998183, 117, 117, 132, 148
-0.998185, 217, 129, 232, 160
-0.998196, 305, 149, 432, 180
-0.998228, 269, 113, 284, 144
-0.998249, 53, 133, 68, 164
-0.998257, 323, 97, 338, 160
-0.998259, 143, 145, 158, 176
-0.998264, 327, 145, 342, 176
-0.998268, 339, 153, 354, 184
-0.998269, 153, 129, 168, 160
-0.998278, 361, 121, 392, 184
-0.998281, 1, 41, 128, 104
-0.998282, 5, 137, 36, 200
-0.998286, 259, 149, 274, 180
-0.998287, 21, 97, 36, 128
-0.998294, 91, 149, 106, 180
-0.998297, 193, 81, 208, 144
-0.998303, 265, 89, 280, 152
-0.998316, 47, 109, 62, 140
-0.998317, 97, 17, 128, 144
-0.998318, 263, 133, 278, 164
-0.998318, 213, 165, 244, 180
-0.998319, 177, 161, 208, 176
-0.998322, 109, 103, 140, 118
-0.998325, 237, 161, 268, 176
-0.998325, 231, 109, 246, 140
-0.998325, 125, 149, 156, 164
-0.998327, 185, 111, 216, 126
-0.998327, 41, 139, 72, 154
-0.998331, 37, 115, 68, 130
-0.998332, 45, 137, 60, 168
-0.998333, 197, 129, 228, 144
-0.998333, 165, 117, 196, 132
-0.998334, 165, 163, 196, 178
-0.998334, 197, 111, 228, 126
-0.998335, 305, 151, 336, 166
-0.998336, 329, 163, 360, 178
-0.998336, 137, 163, 168, 178
-0.99834, 149, 161, 180, 176
-0.998342, 249, 127, 280, 142
-0.998343, 81, 149, 112, 164
-0.998344, 185, 103, 216, 118
-0.998345, 315, 97, 330, 160
-0.998346, 109, 121, 140, 136
-0.998347, 201, 163, 232, 178
-0.998347, 133, 101, 164, 116
-0.998349, 135, 141, 150, 172
-0.99835, 285, 121, 316, 136
-0.998351, 273, 157, 304, 172
-0.998353, 193, 117, 224, 132
-0.998353, 65, 129, 96, 144
-0.998355, 289, 125, 304, 156
-0.998355, 285, 161, 316, 176
-0.998356, 97, 115, 128, 130
-0.998358, 73, 119, 104, 134
-0.998359, 49, 153, 80, 168
-0.998359, 257, 165, 288, 180
-0.998362, 5, 123, 36, 138
-0.998364, 185, 129, 216, 144
-0.998364, 137, 121, 168, 136
-0.998365, 9, 107, 40, 122
-0.998365, 17, 137, 48, 152
-0.998368, 21, 103, 52, 118
-0.998369, 29, 141, 60, 156
-0.998372, 85, 123, 116, 138
-0.998372, 97, 89, 224, 120
-0.998373, 97, 117, 112, 148
-0.998374, 257, 133, 288, 148
-0.998374, 269, 131, 300, 146
-0.998374, 261, 155, 292, 170
-0.998374, 265, 149, 280, 180
-0.998379, 45, 159, 76, 174
-0.998379, 333, 153, 348, 184
-0.998382, 241, 149, 272, 164
-0.998383, 217, 155, 248, 170
-0.998384, 137, 81, 152, 144
-0.998385, 45, 121, 76, 136
-0.998385, 197, 153, 228, 168
-0.998386, 329, 141, 360, 156
-0.998386, 205, 121, 236, 136
-0.998386, 109, 17, 140, 144
-0.998395, 321, 151, 352, 166
-0.998396, 109, 151, 140, 166
-0.998397, 297, 161, 328, 176
-0.998399, 261, 125, 292, 140
-0.998399, 193, 137, 256, 152
-0.998399, 49, 147, 80, 162
-0.998405, 93, 129, 124, 144
-0.998405, 97, 151, 128, 166
-0.998408, 169, 153, 200, 168
-0.998411, 13, 115, 44, 130
-0.998413, 281, 117, 296, 148
-0.998413, 145, 97, 160, 128
-0.998414, 269, 163, 300, 178
-0.998414, 161, 135, 224, 150
-0.998415, 121, 125, 152, 140
-0.998415, 15, 109, 30, 140
-0.998416, 77, 97, 92, 160
-0.998417, 149, 153, 164, 184
-0.99842, 209, 129, 240, 144
-0.998421, 81, 137, 144, 152
-0.998421, 177, 119, 208, 134
-0.998422, 59, 149, 74, 180
-0.998422, 129, 131, 160, 146
-0.998422, 229, 149, 260, 164
-0.998424, 229, 123, 260, 138
-0.998424, 161, 143, 224, 158
-0.998424, 117, 115, 148, 130
-0.998425, 281, 127, 312, 142
-0.998425, 117, 143, 148, 158
-0.998425, 257, 139, 288, 154
-0.998429, 17, 131, 48, 146
-0.99843, 217, 123, 248, 138
-0.998434, 181, 153, 212, 168
-0.998435, 273, 121, 304, 136
-0.998436, 109, 131, 140, 146
-0.998437, 217, 149, 248, 164
-0.998437, 121, 101, 152, 116
-0.998441, 249, 119, 280, 134
-0.998442, 97, 121, 128, 136
-0.998443, 81, 143, 112, 158
-0.998444, 33, 109, 64, 124
-0.998445, 177, 89, 304, 120
-0.998446, 217, 143, 280, 158
-0.998446, 325, 157, 356, 172
-0.998447, 237, 117, 268, 132
-0.998447, 121, 137, 184, 152
-0.998447, 173, 105, 204, 120
-0.998447, 137, 151, 168, 166
-0.998453, 239, 145, 254, 176
-0.998454, 153, 109, 184, 124
-0.998455, 113, 143, 176, 158
-0.998455, 81, 131, 112, 146
-0.998456, 305, 129, 336, 144
-0.998456, 157, 153, 188, 168
-0.998457, 129, 137, 160, 152
-0.998459, 137, 111, 200, 126
-0.99846, 25, 117, 56, 132
-0.99846, 135, 117, 150, 148
-0.998461, 233, 121, 296, 136
-0.998462, 129, 107, 160, 122
-0.998463, 209, 149, 272, 164
-0.998463, 145, 101, 208, 116
-0.998464, 345, 89, 408, 152
-0.998465, 189, 141, 220, 156
-0.998468, 193, 143, 256, 158
-0.998471, 45, 127, 76, 142
-0.998471, 261, 119, 292, 134
-0.998472, 245, 133, 276, 148
-0.998474, 317, 145, 348, 160
-0.998475, 45, 133, 76, 148
-0.998475, 49, 145, 112, 160
-0.998475, 27, 93, 42, 124
-0.998476, 29, 1, 60, 200
-0.998476, 241, 143, 272, 158
-0.998476, 173, 111, 204, 126
-0.998476, 199, 153, 214, 184
-0.998477, 17, 123, 48, 138
-0.998479, 249, 159, 280, 174
-0.99848, 81, 137, 112, 152
-0.998484, 225, 131, 256, 146
-0.998485, 89, 143, 152, 158
-0.998488, 217, 117, 248, 132
-0.998488, 93, 145, 124, 160
-0.998488, 165, 143, 196, 158
-0.998489, 433, 97, 496, 160
-0.998489, 31, 129, 46, 160
-0.998489, 137, 143, 200, 158
-0.998492, 185, 135, 216, 150
-0.998494, 165, 135, 196, 150
-0.998494, 297, 81, 360, 144
-0.998495, 137, 113, 168, 128
-0.998496, 193, 131, 256, 146
-0.998498, 145, 135, 176, 150
-0.998499, 257, 127, 320, 142
-0.998499, 33, 123, 96, 138
-0.9985, 177, 145, 208, 160
-0.998503, 293, 127, 324, 142
-0.998504, 105, 107, 168, 122
-0.998505, 119, 145, 134, 176
-0.998505, 113, 137, 144, 152
-0.998508, 29, 135, 60, 150
-0.998511, 225, 169, 352, 200
-0.998513, 281, 133, 344, 148
-0.998516, 317, 135, 348, 150
-0.998523, 217, 135, 280, 150
-0.998523, 133, 143, 164, 158
-0.998524, 119, 73, 134, 136
-0.998526, 271, 157, 286, 188
-0.998528, 121, 101, 184, 116
-0.998528, 81, 113, 96, 144
-0.99853, 185, 151, 248, 166
-0.998531, 121, 131, 184, 146
-0.998532, 193, 123, 256, 138
-0.998536, 209, 117, 272, 132
-0.998536, 83, 137, 98, 168
-0.998537, 25, 117, 88, 132
-0.998539, 117, 109, 148, 124
-0.998542, 229, 143, 260, 158
-0.998542, 149, 147, 180, 162
-0.998542, 81, 131, 144, 146
-0.998543, 105, 145, 136, 160
-0.998543, 153, 153, 216, 168
-0.998546, 49, 139, 112, 154
-0.998549, 169, 111, 232, 126
-0.99855, 197, 147, 228, 162
-0.998552, 49, 151, 112, 166
-0.998553, 273, 17, 400, 144
-0.998554, 9, 125, 72, 140
-0.998555, 105, 115, 168, 130
-0.998556, 385, 121, 416, 184
-0.998557, 41, 133, 104, 148
-0.99856, 205, 135, 236, 150
-0.998561, 121, 149, 184, 164
-0.998563, 123, 121, 138, 152
-0.998568, 81, 151, 144, 166
-0.998569, 57, 121, 72, 152
-0.998569, 217, 129, 280, 144
-0.998569, 29, 125, 60, 140
-0.998572, 281, 127, 344, 142
-0.998572, 169, 117, 232, 132
-0.998572, 73, 119, 136, 134
-0.998577, 225, 161, 288, 176
-0.998577, 225, 137, 256, 152
-0.998578, 13, 121, 28, 152
-0.998578, 161, 129, 224, 144
-0.998579, 343, 137, 358, 200
-0.99858, 149, 103, 180, 118
-0.99858, 97, 123, 160, 138
-0.998581, 21, 109, 52, 124
-0.998583, 289, 109, 416, 140
-0.998583, 297, 157, 360, 172
-0.998585, 249, 133, 312, 148
-0.998588, 9, 137, 72, 152
-0.998591, 257, 121, 320, 136
-0.998592, 129, 117, 192, 132
-0.998593, 297, 157, 312, 188
-0.998596, 253, 157, 268, 188
-0.998597, 259, 97, 274, 160
-0.9986, 145, 141, 176, 156
-0.998605, 241, 139, 304, 154
-0.998605, 1, 119, 64, 134
-0.998609, 249, 157, 312, 172
-0.998611, 93, 139, 124, 154
-0.998611, 337, 105, 352, 168
-0.998612, 73, 125, 136, 140
-0.998613, 265, 163, 328, 178
-0.998614, 297, 151, 360, 166
-0.998616, 209, 155, 272, 170
-0.99862, 9, 131, 72, 146
-0.998621, 321, 161, 448, 192
-0.998621, 47, 149, 62, 180
-0.998623, 289, 163, 352, 178
-0.998624, 177, 161, 240, 176
-0.998624, 129, 9, 256, 72
-0.998625, 319, 149, 334, 180
-0.998631, 1, 109, 64, 124
-0.998632, 433, 121, 464, 184
-0.998632, 71, 97, 86, 160
-0.998636, 277, 157, 292, 188
-0.998637, 115, 101, 130, 132
-0.998638, 169, 103, 232, 118
-0.99864, 97, 101, 160, 116
-0.998642, 49, 159, 112, 174
-0.998643, 75, 125, 90, 156
-0.998644, 233, 115, 296, 130
-0.998645, 169, 99, 200, 114
-0.998646, 129, 163, 192, 178
-0.998647, 297, 143, 360, 158
-0.99865, 211, 113, 226, 144
-0.99865, 209, 143, 240, 158
-0.99865, 49, 117, 112, 132
-0.99865, 9, 143, 72, 158
-0.998658, 97, 163, 160, 178
-0.998659, 321, 137, 384, 152
-0.998665, 153, 163, 216, 178
-0.998667, 201, 165, 264, 180
-0.998671, 121, 157, 184, 172
-0.998674, 321, 145, 384, 160
-0.998674, 17, 161, 80, 176
-0.998675, 321, 161, 384, 176
-0.998677, 73, 163, 136, 178
-0.998677, 129, 125, 192, 140
-0.998681, 25, 111, 88, 126
-0.998684, 57, 97, 72, 160
-0.998685, 97, 157, 160, 172
-0.99869, 73, 113, 136, 128
-0.99869, 209, 111, 272, 126
-0.998691, 289, 121, 352, 136
-0.998693, 25, 105, 88, 120
-0.998693, 121, 95, 184, 110
-0.998699, 169, 123, 232, 138
-0.9987, 241, 145, 304, 160
-0.998701, 225, 167, 288, 182
-0.998701, 257, 115, 320, 130
-0.998703, 329, 153, 392, 168
-0.998703, 281, 169, 344, 184
-0.998704, 81, 107, 144, 122
-0.998704, 17, 149, 80, 164
-0.998705, 49, 167, 112, 182
-0.998705, 273, 139, 336, 154
-0.998705, 313, 167, 376, 182
-0.998713, 177, 167, 240, 182
-0.998713, 249, 169, 312, 184
-0.998716, 9, 155, 72, 170
-0.998718, 321, 129, 384, 144
-0.998721, 273, 147, 336, 162
-0.998729, 169, 97, 232, 112
-0.998731, 81, 169, 144, 184
-0.998733, 153, 169, 216, 184
-0.998735, 113, 169, 176, 184
-0.998739, 25, 167, 88, 182
-0.998739, 145, 95, 208, 110
-0.998744, 73, 101, 136, 116
-0.998745, 49, 111, 112, 126
-0.998748, 383, 121, 398, 184
-0.998749, 43, 81, 58, 144
-0.998757, 281, 115, 344, 130
-0.998759, 273, 157, 336, 172
-0.998764, 249, 151, 312, 166
-0.998768, 313, 123, 376, 138
-0.998772, 17, 99, 80, 114
-0.998773, 193, 99, 256, 114
-0.998777, 73, 157, 136, 172
-0.998779, 249, 109, 312, 124
-0.998796, 433, 129, 496, 144
-0.9988, 177, 91, 240, 106
-0.9988, 371, 121, 386, 184
-0.9988, 193, 105, 256, 120
-0.998802, 83, 97, 98, 160
-0.998802, 453, 121, 484, 184
-0.998802, 345, 133, 408, 148
-0.998807, 11, 129, 26, 192
-0.998808, 321, 115, 384, 130
-0.998808, 385, 169, 448, 184
-0.998809, 337, 167, 400, 182
-0.99881, 377, 131, 440, 146
-0.998813, 353, 115, 416, 130
-0.998814, 409, 131, 472, 146
-0.998815, 353, 127, 416, 142
-0.998816, 409, 169, 472, 184
-0.998818, 257, 17, 500, 144
-0.998818, 97, 95, 160, 110
-0.998843, 181, 65, 196, 128
-0.998848, 469, 121, 500, 184
-0.998861, 389, 121, 404, 184
-0.998876, 377, 121, 392, 184
-0.998876, 49, 1, 176, 64
-0.99888, 253, 97, 268, 160
-0.998903, 395, 121, 410, 184
-0.998909, 447, 121, 462, 184
-0.99891, 193, 25, 256, 88
-0.998913, 365, 121, 380, 184
-0.99893, 465, 121, 480, 184
-0.998941, 217, 97, 232, 160
-0.998946, 485, 121, 500, 184
-0.998958, 471, 121, 486, 184
-0.998966, 1, 17, 128, 80
-0.998988, 405, 121, 420, 184
-0.998989, 25, 1, 88, 128
-0.998994, 455, 121, 470, 184
-0.998997, 155, 73, 170, 136
-0.998997, 477, 121, 492, 184
-0.999016, 441, 121, 456, 184
-0.999031, 435, 121, 450, 184
-0.999043, 329, 97, 344, 160
-0.999053, 341, 137, 372, 200
-0.999058, 223, 81, 238, 144
-0.999089, 359, 121, 374, 184
-0.999101, 5, 113, 20, 176
-0.999101, 411, 121, 426, 184
-0.999102, 9, 1, 40, 200
-0.999107, 175, 57, 190, 120
-0.99911, 119, 65, 134, 192
-0.999129, 155, 65, 170, 192
-0.999129, 107, 65, 122, 192
-0.999177, 143, 65, 158, 192
-0.999185, 273, 169, 400, 200
-0.999206, 233, 65, 248, 192
-0.999216, 175, 65, 190, 192
-0.99922, 149, 65, 164, 192
-0.999259, 185, 65, 200, 192
-0.999262, 137, 65, 152, 192
-0.999279, 289, 65, 304, 192
-0.999288, 113, 65, 128, 192
-0.999288, 1, 57, 256, 120
-0.999298, 41, 1, 72, 200
-0.999306, 223, 65, 238, 192
-0.999306, 129, 65, 144, 192
-0.99932, 277, 65, 292, 192
-0.999328, 95, 65, 110, 192
-0.999336, 239, 65, 254, 192
-0.999364, 283, 65, 298, 192
-0.999368, 17, 85, 144, 116
-0.999371, 149, 1, 180, 200
-0.999372, 45, 65, 60, 192
-0.999378, 297, 65, 312, 192
-0.999386, 263, 65, 278, 192
-0.999387, 129, 1, 160, 200
-0.99939, 249, 73, 312, 136
-0.999396, 161, 65, 176, 192
-0.999397, 101, 65, 116, 192
-0.999397, 317, 65, 332, 192
-0.999409, 167, 65, 182, 192
-0.999411, 225, 93, 352, 124
-0.999436, 185, 1, 216, 200
-0.999438, 369, 117, 496, 148
-0.999448, 331, 65, 346, 192
-0.999448, 217, 65, 232, 192
-0.999451, 309, 65, 324, 192
-0.999463, 247, 65, 262, 192
-0.999469, 61, 65, 76, 192
-0.999471, 55, 65, 70, 192
-0.999481, 25, 65, 40, 192
-0.999488, 87, 65, 102, 192
-0.999488, 303, 65, 318, 192
-0.999489, 269, 65, 284, 192
-0.999496, 191, 65, 206, 192
-0.999498, 323, 65, 338, 192
-0.999505, 257, 65, 272, 192
-0.999511, 377, 65, 440, 192
-0.999523, 203, 65, 218, 192
-0.999534, 421, 129, 452, 192
-0.999536, 39, 65, 54, 192
-0.999537, 177, 1, 304, 64
-0.999541, 211, 65, 226, 192
-0.999542, 1, 169, 128, 200
-0.999551, 31, 65, 46, 192
-0.99957, 75, 65, 90, 192
-0.999572, 179, 111, 194, 126
-0.999573, 165, 1, 196, 200
-0.999574, 297, 161, 312, 176
-0.999575, 155, 145, 170, 160
-0.999575, 191, 115, 206, 130
-0.999575, 271, 125, 286, 140
-0.999575, 279, 121, 294, 136
-0.999576, 195, 135, 210, 150
-0.999577, 223, 155, 238, 170
-0.999578, 207, 149, 222, 164
-0.999578, 159, 103, 174, 118
-0.999579, 311, 127, 326, 142
-0.999579, 147, 115, 162, 130
-0.99958, 173, 135, 188, 150
-0.99958, 267, 163, 282, 178
-0.999581, 143, 151, 158, 166
-0.999581, 233, 143, 248, 158
-0.999582, 39, 109, 54, 124
-0.999583, 291, 165, 306, 180
-0.999584, 167, 107, 182, 122
-0.999584, 177, 155, 192, 170
-0.999584, 263, 133, 278, 148
-0.999585, 23, 133, 38, 148
-0.999585, 231, 117, 246, 132
-0.999586, 187, 153, 202, 168
-0.999586, 31, 133, 46, 148
-0.999586, 31, 127, 46, 142
-0.999586, 95, 145, 110, 160
-0.999587, 159, 151, 174, 166
-0.999589, 335, 139, 350, 154
-0.999589, 279, 165, 294, 180
-0.999589, 213, 121, 228, 136
-0.99959, 207, 131, 222, 146
-0.999593, 155, 133, 170, 148
-0.999594, 17, 109, 32, 124
-0.999594, 257, 159, 272, 174
-0.999594, 225, 129, 240, 144
-0.999594, 179, 119, 194, 134
-0.999595, 213, 143, 228, 158
-0.999595, 53, 145, 68, 160
-0.999596, 165, 151, 180, 166
-0.999597, 239, 125, 254, 140
-0.999597, 179, 145, 194, 160
-0.999597, 125, 101, 140, 116
-0.9996, 291, 125, 306, 140
-0.999601, 223, 149, 238, 164
-0.999601, 103, 153, 118, 168
-0.999602, 119, 135, 134, 150
-0.999602, 41, 139, 56, 154
-0.999602, 15, 115, 30, 130
-0.999603, 19, 65, 34, 192
-0.999603, 185, 147, 200, 162
-0.999604, 323, 135, 338, 150
-0.999605, 137, 109, 152, 124
-0.999606, 139, 103, 154, 118
-0.999607, 111, 141, 126, 156
-0.999608, 47, 133, 62, 148
-0.999609, 169, 95, 184, 110
-0.999609, 195, 145, 210, 160
-0.99961, 123, 143, 138, 158
-0.999612, 257, 117, 272, 132
-0.999612, 153, 103, 168, 118
-0.999613, 141, 141, 156, 156
-0.999616, 271, 119, 286, 134
-0.999617, 369, 129, 496, 160
-0.999617, 199, 151, 214, 166
-0.999618, 131, 109, 146, 124
-0.999618, 173, 113, 188, 128
-0.999618, 193, 153, 208, 168
-0.999619, 13, 49, 28, 176
-0.999619, 149, 149, 164, 164
-0.999619, 321, 147, 336, 162
-0.999619, 85, 137, 100, 152
-0.99962, 305, 131, 320, 146
-0.99962, 39, 133, 54, 148
-0.999621, 21, 127, 36, 142
-0.999623, 197, 65, 212, 192
-0.999623, 273, 165, 288, 180
-0.999624, 339, 157, 354, 172
-0.999626, 191, 105, 206, 120
-0.999626, 245, 143, 260, 158
-0.999627, 217, 149, 232, 164
-0.999629, 331, 151, 346, 166
-0.99963, 171, 153, 186, 168
-0.999632, 265, 119, 280, 134
-0.999635, 81, 65, 96, 192
-0.999637, 39, 127, 54, 142
-0.999637, 249, 133, 264, 148
-0.999637, 397, 121, 428, 184
-0.999639, 329, 145, 344, 160
-0.999641, 109, 1, 140, 200
-0.999642, 231, 131, 246, 146
-0.999644, 67, 65, 82, 192
-0.999644, 263, 157, 278, 172
-0.999644, 117, 143, 132, 158
-0.999645, 95, 139, 110, 154
-0.999647, 237, 131, 252, 146
-0.999649, 221, 117, 236, 132
-0.999651, 141, 115, 156, 130
-0.999653, 119, 107, 134, 122
-0.999654, 171, 143, 186, 158
-0.999655, 95, 131, 110, 146
-0.999655, 145, 103, 160, 118
-0.999656, 165, 101, 180, 116
-0.999656, 135, 139, 150, 154
-0.999657, 185, 111, 200, 126
-0.999659, 111, 119, 126, 134
-0.99966, 101, 145, 116, 160
-0.999661, 231, 123, 246, 138
-0.999662, 231, 137, 246, 152
-0.999664, 53, 151, 68, 166
-0.999664, 185, 99, 200, 114
-0.999666, 47, 123, 62, 138
-0.999668, 223, 137, 238, 152
-0.99967, 297, 127, 312, 142
-0.999671, 177, 101, 192, 116
-0.999673, 159, 139, 174, 154
-0.999674, 111, 147, 126, 162
-0.999678, 97, 169, 224, 200
-0.999678, 329, 135, 344, 150
-0.999679, 149, 109, 164, 124
-0.99968, 211, 137, 226, 152
-0.99968, 27, 121, 42, 136
-0.999682, 341, 65, 356, 192
-0.999694, 125, 137, 140, 152
-0.999696, 39, 121, 54, 136
-0.9997, 21, 121, 36, 136
-0.999706, 207, 143, 222, 158
-0.999707, 167, 137, 182, 152
-0.999709, 145, 77, 272, 108
-0.999712, 201, 137, 216, 152
-0.999714, 179, 17, 194, 144
-0.999718, 161, 145, 176, 160
-0.999719, 143, 17, 158, 144
-0.99972, 21, 115, 36, 130
-0.999735, 143, 109, 158, 124
-0.999737, 113, 17, 128, 144
-0.999737, 33, 121, 48, 136
-0.999743, 141, 17, 172, 144
-0.999743, 105, 137, 120, 152
-0.999749, 149, 143, 164, 158
-0.999756, 33, 109, 48, 124
-0.999757, 245, 1, 276, 200
-0.999763, 185, 17, 200, 144
-0.999765, 221, 143, 236, 158
-0.999765, 23, 109, 38, 124
-0.999767, 125, 17, 140, 144
-0.999781, 53, 1, 84, 200
-0.999784, 37, 115, 52, 130
-0.999785, 7, 49, 22, 176
-0.999801, 27, 115, 42, 130
-0.999808, 33, 33, 288, 96
-0.999815, 1, 17, 64, 144
-0.999825, 289, 57, 416, 120
-0.999835, 157, 17, 172, 144
-0.999837, 1, 49, 16, 176
-0.999837, 119, 17, 134, 144
-0.999839, 171, 17, 186, 144
-0.999844, 133, 1, 148, 128
-0.999847, 347, 65, 362, 192
-0.999866, 225, 17, 352, 80
-0.999872, 201, 1, 232, 200
-0.99988, 165, 17, 180, 144
-0.99988, 107, 17, 122, 144
-0.999889, 25, 17, 40, 144
-0.999895, 435, 65, 450, 192
-0.999896, 445, 65, 460, 192
-0.999896, 221, 1, 252, 200
-0.999897, 191, 17, 206, 144
-0.999897, 475, 65, 490, 192
-0.999898, 409, 121, 440, 184
-0.999899, 151, 17, 166, 144
-0.999904, 45, 17, 60, 144
-0.999905, 209, 49, 336, 112
-0.999908, 453, 65, 468, 192
-0.999912, 337, 105, 464, 136
-0.999914, 65, 77, 192, 108
-0.999915, 407, 65, 422, 192
-0.999916, 429, 65, 444, 192
-0.999918, 415, 65, 430, 192
-0.999919, 369, 65, 384, 192
-0.999919, 55, 17, 70, 144
-0.999921, 353, 65, 368, 192
-0.999922, 387, 65, 402, 192
-0.999926, 459, 65, 474, 192
-0.999926, 401, 65, 416, 192
-0.999926, 101, 1, 116, 128
-0.999927, 37, 1, 52, 128
-0.999931, 359, 65, 374, 192
-0.999931, 421, 65, 436, 192
-0.999933, 13, 1, 28, 128
-0.999937, 381, 65, 396, 192
-0.999939, 395, 65, 410, 192
-0.999939, 227, 17, 242, 144
-0.999941, 483, 65, 498, 192
-0.999947, 375, 65, 390, 192
-0.999956, 269, 17, 284, 144
-0.999957, 465, 65, 480, 192
-0.999957, 91, 1, 106, 128
-0.999965, 233, 17, 248, 144
-0.999966, 85, 1, 100, 128
-0.999969, 277, 17, 292, 144
-0.99997, 353, 149, 480, 180
-0.999973, 19, 1, 34, 128
-0.999982, 61, 17, 76, 144
-0.999983, 203, 17, 218, 144
-0.999989, 69, 1, 84, 128
-0.999989, 197, 1, 212, 128
-0.999993, 217, 17, 232, 144
-0.999993, 209, 17, 336, 144
-1, 283, 17, 298, 144
-1, 5, 1, 20, 128
-1.00002, 31, 17, 46, 144
-1.00002, 241, 17, 256, 144
-1.00002, 209, 17, 224, 144
-1.00002, 79, 1, 94, 128
-1.00003, 193, 29, 320, 60
-1.00004, 177, 57, 304, 88
-1.00004, 129, 37, 256, 68
-1.00004, 97, 57, 352, 120
-1.00005, 257, 17, 272, 144
-1.00008, 293, 17, 308, 144
-1.00008, 323, 17, 338, 144
-1.00008, 247, 17, 262, 144
-1.00009, 263, 17, 278, 144
-1.00009, 97, 1, 128, 200
-1.0001, 129, 17, 256, 48
-1.0001, 307, 17, 322, 144
-1.00011, 337, 17, 352, 144
-1.00013, 69, 1, 100, 200
-1.00013, 317, 17, 332, 144
-1.00014, 1, 53, 128, 84
-1.00015, 349, 17, 364, 144
-1.00015, 425, 17, 440, 144
-1.00015, 361, 17, 376, 144
-1.00016, 193, 41, 320, 72
-1.00016, 431, 17, 446, 144
-1.00016, 419, 17, 434, 144
-1.00017, 355, 17, 370, 144
-1.00018, 273, 1, 304, 200
-1.00018, 437, 17, 452, 144
-1.00019, 443, 17, 458, 144
-1.00019, 369, 17, 384, 144
-1.0002, 299, 17, 314, 144
-1.0002, 413, 17, 428, 144
-1.0002, 377, 17, 392, 144
-1.00021, 405, 17, 420, 144
-1.00022, 1, 69, 128, 100
-1.00022, 129, 65, 256, 96
-1.00022, 397, 17, 412, 144
-1.00022, 449, 17, 464, 144
-1.00024, 305, 93, 432, 124
-1.00024, 257, 77, 384, 108
-1.00025, 177, 17, 304, 48
-1.00026, 233, 1, 264, 200
-1.00027, 85, 1, 116, 200
-1.00027, 261, 1, 292, 200
-1.00029, 113, 49, 240, 80
-1.00031, 49, 65, 176, 96
-1.00032, 41, 73, 72, 136
-1.00039, 369, 169, 496, 200
-1.0004, 41, 73, 104, 136
-1.00041, 49, 53, 176, 84
-1.00041, 49, 33, 176, 64
-1.00041, 1, 17, 128, 48
-1.00042, 209, 77, 336, 108
-1.00049, 161, 57, 224, 120
-1.00049, 1, 41, 128, 72
-1.0005, 193, 1, 320, 32
-1.00052, 137, 33, 200, 96
-1.00053, 49, 21, 176, 52
-1.00053, 273, 21, 400, 52
-1.00053, 49, 9, 176, 40
-1.00055, 305, 81, 432, 112
-1.00057, 285, 1, 316, 200
-1.00057, 33, 1, 288, 64
-1.00058, 305, 1, 336, 200
-1.00058, 185, 73, 216, 136
-1.00058, 225, 65, 352, 96
-1.00059, 273, 53, 400, 84
-1.00059, 353, 37, 480, 68
-1.0006, 129, 33, 384, 96
-1.00061, 257, 5, 384, 36
-1.00062, 241, 41, 368, 72
-1.00063, 337, 1, 464, 32
-1.00064, 369, 85, 496, 116
-1.00065, 353, 65, 480, 96
-1.00065, 225, 17, 352, 48
-1.00065, 1, 5, 128, 36
-1.00067, 97, 1, 224, 32
-1.00067, 273, 65, 400, 96
-1.00069, 137, 65, 168, 128
-1.0007, 369, 49, 496, 80
-1.00071, 225, 53, 352, 84
-1.00072, 337, 17, 464, 48
-1.00075, 445, 65, 476, 192
-1.00076, 145, 5, 272, 36
-1.00076, 337, 1, 368, 200
-1.00077, 429, 1, 460, 200
-1.00077, 1, 29, 128, 60
-1.00078, 289, 37, 416, 68
-1.0008, 257, 57, 500, 120
-1.00081, 317, 1, 348, 200
-1.00082, 441, 1, 472, 200
-1.00087, 417, 1, 448, 200
-1.00087, 353, 1, 384, 200
-1.00088, 225, 25, 480, 88
-1.0009, 321, 53, 448, 84
-1.00094, 425, 65, 456, 192
-1.00095, 377, 1, 408, 200
-1.00095, 273, 33, 400, 96
-1.00097, 393, 1, 424, 200
-1.00098, 461, 1, 492, 200
-1.00099, 365, 1, 396, 200
-1.00102, 353, 33, 480, 96
-1.0011, 405, 1, 436, 200
-1.00111, 281, 1, 344, 200
-1.00112, 113, 25, 176, 88
-1.00113, 129, 9, 384, 72
-1.00114, 321, 1, 448, 64
-1.00119, 257, 1, 500, 64
-1.00119, 1, 25, 500, 88
-1.00126, 385, 65, 416, 192
-1.00126, 421, 105, 452, 168
-1.00129, 193, 17, 224, 144
-1.00132, 273, 1, 400, 64
-1.00133, 217, 17, 280, 80
-1.00144, 1, 41, 64, 104
-1.00158, 369, 73, 496, 136
-1.00162, 369, 1, 496, 64
-1.00165, 369, 65, 400, 192
-1.00165, 413, 65, 444, 192
-1.00167, 357, 65, 388, 192
-1.00179, 169, 17, 232, 80
-1.00183, 329, 1, 392, 200
-1.00186, 57, 25, 120, 88
-1.00189, 45, 17, 76, 144
-1.00196, 469, 65, 500, 192
-1.00196, 17, 65, 48, 128
-1.00198, 1, 65, 500, 128
-1.00201, 269, 17, 300, 144
-1.00203, 25, 1, 56, 128
-1.00208, 9, 1, 40, 128
-1.00215, 1, 1, 500, 64
-1.00217, 273, 17, 336, 144
-1.00218, 217, 49, 280, 112
-1.00224, 397, 65, 428, 192
-1.00226, 365, 97, 396, 160
-1.00236, 457, 65, 488, 192
-1.00237, 241, 25, 304, 88
-1.00241, 81, 25, 144, 88
-1.00243, 433, 97, 464, 160
-1.00247, 213, 17, 244, 144
-1.00256, 409, 97, 440, 160
-1.00262, 353, 97, 384, 160
-1.00268, 341, 89, 372, 152
-1.00274, 57, 1, 120, 64
-1.00277, 65, 57, 128, 120
-1.00278, 85, 1, 116, 128
-1.00279, 385, 97, 416, 160
-1.00281, 73, 1, 104, 128
-1.00287, 241, 17, 272, 144
-1.00288, 49, 1, 112, 128
-1.00288, 85, 81, 116, 144
-1.00299, 193, 1, 256, 64
-1.00301, 5, 65, 36, 128
-1.00303, 25, 25, 88, 88
-1.00312, 401, 1, 464, 200
-1.00313, 257, 49, 320, 112
-1.00316, 449, 97, 480, 160
-1.00316, 57, 1, 88, 128
-1.00326, 329, 81, 360, 144
-1.0034, 9, 1, 72, 64
-1.0034, 105, 1, 168, 64
-1.00341, 425, 1, 488, 200
-1.00342, 25, 49, 88, 112
-1.00347, 221, 73, 252, 136
-1.00348, 305, 1, 368, 200
-1.00353, 397, 97, 428, 160
-1.0037, 469, 97, 500, 160
-1.0037, 81, 1, 144, 64
-1.00372, 253, 73, 284, 136
-1.00401, 209, 25, 240, 88
-1.00403, 145, 9, 208, 72
-1.00413, 257, 17, 288, 144
-1.00421, 197, 25, 228, 88
-1.00434, 165, 33, 196, 96
-1.0044, 285, 73, 316, 136
-1.00441, 317, 81, 348, 144
-1.00446, 369, 1, 432, 200
-1.0046, 185, 49, 216, 112
-1.0047, 293, 17, 324, 144
-1.00471, 89, 25, 120, 88
-1.00472, 241, 1, 304, 64
-1.00472, 57, 25, 88, 88
-1.00477, 149, 33, 180, 96
-1.00478, 57, 65, 88, 128
-1.00482, 221, 25, 252, 88
-1.00487, 353, 17, 480, 144
-1.00493, 77, 1, 108, 64
-1.00497, 289, 49, 352, 112
-1.005, 137, 33, 168, 96
-1.00505, 101, 25, 132, 88
-1.00507, 225, 17, 256, 144
-1.0051, 209, 1, 240, 64
-1.00513, 65, 1, 96, 64
-1.00523, 185, 25, 216, 88
-1.00523, 1, 33, 32, 96
-1.00525, 265, 1, 328, 64
-1.00527, 121, 25, 152, 88
-1.00528, 17, 33, 48, 96
-1.00528, 41, 41, 72, 104
-1.00531, 77, 25, 108, 88
-1.00536, 233, 73, 264, 136
-1.00542, 249, 17, 312, 144
-1.00545, 273, 25, 336, 88
-1.00548, 301, 65, 332, 128
-1.0057, 101, 1, 132, 64
-1.00571, 265, 49, 296, 112
-1.00573, 233, 25, 264, 88
-1.00577, 185, 49, 248, 112
-1.00578, 109, 49, 140, 112
-1.00583, 33, 1, 96, 64
-1.00587, 313, 57, 376, 120
-1.0059, 281, 17, 312, 144
-1.00594, 249, 17, 280, 80
-1.00594, 265, 25, 296, 88
-1.00596, 89, 1, 120, 64
-1.00602, 73, 49, 104, 112
-1.00603, 29, 57, 60, 120
-1.00606, 321, 17, 352, 144
-1.0061, 197, 1, 228, 64
-1.0061, 309, 17, 340, 144
-1.00611, 29, 33, 60, 96
-1.00621, 233, 49, 264, 112
-1.00624, 385, 33, 448, 96
-1.00627, 113, 49, 176, 112
-1.00627, 233, 1, 264, 64
-1.00631, 385, 1, 448, 64
-1.00634, 417, 41, 480, 104
-1.00638, 117, 1, 148, 64
-1.00641, 277, 33, 308, 96
-1.00648, 417, 17, 448, 144
-1.00653, 145, 1, 176, 64
-1.00654, 297, 25, 360, 88
-1.00655, 9, 1, 40, 64
-1.00657, 421, 81, 452, 144
-1.00661, 245, 49, 276, 112
-1.00664, 433, 9, 496, 72
-1.00668, 409, 9, 472, 72
-1.00687, 429, 17, 460, 144
-1.0069, 369, 73, 432, 136
-1.00702, 401, 73, 464, 136
-1.00705, 297, 1, 360, 64
-1.00705, 329, 25, 392, 88
-1.0072, 425, 73, 488, 136
-1.00722, 353, 17, 384, 144
-1.00723, 337, 65, 400, 128
-1.00731, 297, 17, 360, 144
-1.00754, 361, 41, 424, 104
-1.00756, 405, 17, 436, 144
-1.00761, 337, 17, 368, 144
-1.0077, 329, 1, 392, 64
-1.00812, 365, 17, 396, 144
-1.00848, 361, 1, 424, 64
-1.00858, 389, 17, 420, 144
-1.00871, 441, 17, 472, 144
-1.00915, 457, 17, 488, 144
-1.00923, 377, 17, 408, 144
-1.00959, 385, 17, 448, 144
-1.00982, 469, 17, 500, 144
-1.01004, 353, 17, 416, 144
-1.01057, 409, 17, 472, 144
-1.01095, 321, 17, 384, 144
-1.01138, 433, 17, 496, 144
