1833
-0.250419, 1, 1, 294, 480
-0.423525, 1, 33, 294, 288
-0.424901, 1, 161, 294, 416
-0.460769, 1, 1, 256, 480
-0.528753, 33, 161, 288, 416
-0.534469, 33, 33, 288, 288
-0.853014, 97, 1, 224, 480
-0.85608, 33, 129, 160, 384
-0.859188, 49, 1, 176, 480
-0.864106, 1, 1, 128, 480
-0.867769, 113, 1, 240, 256
-0.870698, 81, 129, 208, 384
-0.872864, 33, 1, 160, 256
-0.877124, 1, 161, 294, 288
-0.886845, 1, 97, 294, 224
-0.89208, 1, 1, 294, 128
-0.892493, 49, 225, 176, 480
-0.898564, 145, 1, 272, 480
-0.900658, 129, 161, 256, 416
-0.902641, 1, 337, 294, 464
-0.903091, 1, 273, 294, 400
-0.912765, 1, 49, 294, 176
-0.916017, 33, 177, 288, 304
-0.919467, 161, 33, 288, 288
-0.920182, 1, 129, 256, 256
-0.920338, 1, 337, 256, 464
-0.922946, 1, 1, 256, 128
-0.923842, 65, 113, 128, 240
-0.926808, 1, 225, 128, 480
-0.926845, 1, 209, 294, 336
-0.930044, 1, 273, 256, 400
-0.9305, 49, 113, 176, 240
-0.935223, 33, 49, 288, 176
-0.935972, 97, 113, 160, 240
-0.939404, 33, 177, 160, 304
-0.939848, 113, 337, 240, 464
-0.940292, 65, 129, 128, 192
-0.940892, 145, 337, 208, 464
-0.941902, 233, 145, 294, 272
-0.942285, 121, 337, 184, 464
-0.942719, 81, 177, 144, 304
-0.943136, 1, 129, 128, 256
-0.943507, 33, 65, 160, 192
-0.944354, 65, 337, 192, 464
-0.945149, 17, 337, 144, 464
-0.94571, 65, 1, 192, 128
-0.946178, 145, 337, 208, 400
-0.94665, 97, 113, 224, 240
-0.947482, 121, 1, 184, 128
-0.948623, 169, 337, 232, 464
-0.94954, 97, 65, 160, 192
-0.95006, 49, 193, 112, 320
-0.950249, 113, 1, 240, 128
-0.950267, 201, 337, 264, 464
-0.950438, 121, 113, 184, 240
-0.950806, 65, 65, 128, 192
-0.951337, 33, 225, 288, 352
-0.952281, 97, 145, 160, 208
-0.953448, 81, 65, 208, 192
-0.953545, 97, 337, 160, 464
-0.953608, 209, 393, 272, 456
-0.953615, 209, 145, 272, 272
-0.953741, 33, 1, 96, 128
-0.954415, 81, 1, 144, 128
-0.954448, 129, 361, 192, 424
-0.954905, 97, 225, 224, 352
-0.954924, 169, 321, 232, 384
-0.954938, 105, 257, 168, 384
-0.954976, 81, 161, 208, 288
-0.955248, 97, 121, 160, 184
-0.955775, 185, 273, 248, 400
-0.955851, 97, 361, 160, 424
-0.955882, 9, 337, 72, 464
-0.956219, 113, 273, 240, 400
-0.956522, 225, 353, 288, 480
-0.956767, 65, 193, 128, 256
-0.956797, 121, 337, 184, 400
-0.956937, 25, 145, 88, 272
-0.957091, 225, 153, 288, 216
-0.957321, 17, 1, 144, 128
-0.957347, 129, 49, 256, 176
-0.957617, 169, 361, 232, 424
-0.957732, 105, 161, 168, 288
-0.957806, 17, 393, 80, 456
-0.958478, 161, 145, 288, 272
-0.958489, 97, 169, 160, 232
-0.959197, 105, 313, 168, 376
-0.95933, 57, 1, 120, 128
-0.959636, 73, 377, 136, 440
-0.960121, 97, 337, 160, 400
-0.960235, 185, 145, 248, 272
-0.960439, 73, 329, 136, 392
-0.960487, 97, 393, 160, 456
-0.960517, 129, 385, 192, 448
-0.960783, 81, 257, 144, 384
-0.961357, 65, 153, 128, 216
-0.961511, 177, 1, 240, 128
-0.961673, 201, 417, 264, 480
-0.961831, 33, 33, 96, 96
-0.961854, 121, 49, 184, 176
-0.962204, 217, 193, 280, 320
-0.962252, 105, 217, 168, 280
-0.962679, 49, 289, 176, 416
-0.962778, 153, 1, 216, 128
-0.963095, 121, 121, 184, 184
-0.963402, 73, 9, 136, 72
-0.963801, 185, 393, 248, 456
-0.96394, 129, 169, 192, 232
-0.964059, 33, 321, 96, 384
-0.964272, 129, 313, 192, 376
-0.9643, 161, 321, 288, 448
-0.964477, 97, 193, 160, 256
-0.964612, 65, 129, 128, 384
-0.964789, 97, 161, 160, 416
-0.96487, 73, 337, 136, 464
-0.965024, 233, 377, 294, 440
-0.96503, 161, 273, 288, 400
-0.965071, 41, 49, 104, 176
-0.965225, 129, 177, 192, 304
-0.965279, 9, 417, 72, 480
-0.965345, 113, 377, 240, 440
-0.965569, 97, 417, 160, 480
-0.965612, 225, 185, 288, 248
-0.965729, 153, 193, 216, 320
-0.965797, 33, 1, 96, 64
-0.965862, 193, 337, 256, 400
-0.965933, 9, 329, 72, 392
-0.966066, 41, 377, 104, 440
-0.966406, 209, 361, 272, 424
-0.966427, 17, 369, 80, 432
-0.966861, 81, 281, 144, 344
-0.966957, 129, 1, 192, 64
-0.966966, 225, 321, 288, 384
-0.967028, 33, 137, 160, 200
-0.967333, 225, 417, 288, 480
-0.967486, 145, 97, 272, 224
-0.967499, 225, 97, 288, 224
-0.967703, 65, 329, 192, 392
-0.967754, 169, 297, 232, 360
-0.968267, 193, 193, 256, 320
-0.968279, 33, 337, 96, 464
-0.968342, 89, 241, 152, 304
-0.968376, 81, 97, 144, 160
-0.969163, 105, 289, 168, 352
-0.969325, 73, 73, 136, 136
-0.969359, 105, 209, 168, 336
-0.969875, 169, 337, 200, 400
-0.970169, 161, 1, 288, 128
-0.970302, 121, 89, 184, 152
-0.970376, 125, 361, 156, 424
-0.970464, 145, 49, 208, 176
-0.970525, 17, 377, 144, 440
-0.970809, 113, 41, 176, 104
-0.970816, 1, 17, 64, 144
-0.970847, 125, 385, 156, 448
-0.971007, 97, 1, 160, 64
-0.971146, 161, 385, 224, 448
-0.971181, 161, 289, 224, 416
-0.971199, 81, 49, 144, 112
-0.971473, 213, 393, 244, 456
-0.971495, 57, 33, 120, 96
-0.97166, 97, 1, 160, 256
-0.971702, 105, 265, 168, 328
-0.971949, 65, 225, 128, 288
-0.972034, 185, 169, 248, 232
-0.972183, 97, 353, 224, 416
-0.972294, 65, 33, 128, 288
-0.972585, 17, 225, 144, 352
-0.972599, 73, 417, 136, 480
-0.972907, 201, 17, 264, 144
-0.972925, 145, 289, 208, 352
-0.972953, 17, 321, 144, 384
-0.972954, 129, 401, 256, 464
-0.972995, 49, 297, 112, 360
-0.973124, 33, 417, 96, 480
-0.973302, 265, 145, 294, 272
-0.973354, 141, 377, 172, 440
-0.973377, 33, 161, 160, 224
-0.973382, 93, 193, 124, 320
-0.973397, 129, 33, 192, 288
-0.973434, 57, 273, 120, 400
-0.973467, 57, 353, 120, 416
-0.973512, 193, 33, 256, 96
-0.973561, 109, 153, 140, 216
-0.973588, 121, 145, 184, 208
-0.973619, 157, 361, 188, 424
-0.973626, 25, 57, 88, 120
-0.973836, 145, 329, 176, 392
-0.97392, 21, 393, 52, 456
-0.973983, 33, 185, 160, 248
-0.974073, 233, 153, 264, 216
-0.974111, 69, 113, 100, 240
-0.974166, 57, 105, 120, 168
-0.974178, 225, 129, 288, 192
-0.974184, 145, 337, 176, 464
-0.974191, 113, 321, 240, 384
-0.974284, 161, 193, 288, 320
-0.974324, 125, 121, 156, 184
-0.974445, 65, 129, 96, 192
-0.97458, 225, 377, 256, 440
-0.974669, 105, 129, 136, 256
-0.974792, 81, 121, 208, 184
-0.974904, 17, 65, 80, 192
-0.974927, 129, 337, 160, 464
-0.975003, 157, 337, 188, 400
-0.975076, 153, 9, 216, 72
-0.975128, 1, 273, 128, 400
-0.975255, 73, 193, 104, 320
-0.975517, 81, 169, 208, 232
-0.975618, 33, 377, 64, 440
-0.975644, 177, 417, 240, 480
-0.975697, 101, 377, 132, 440
-0.975736, 253, 145, 284, 272
-0.975772, 137, 353, 168, 416
-0.975793, 209, 225, 272, 288
-0.975815, 137, 193, 200, 256
-0.975836, 1, 33, 64, 96
-0.975847, 97, 297, 224, 360
-0.975852, 153, 1, 216, 256
-0.975982, 97, 193, 128, 256
-0.976045, 49, 353, 176, 416
-0.976136, 25, 153, 88, 216
-0.976163, 41, 129, 104, 384
-0.976244, 233, 145, 264, 272
-0.976292, 85, 113, 116, 240
-0.976305, 121, 409, 184, 472
-0.976487, 97, 329, 128, 392
-0.976584, 93, 241, 124, 304
-0.976584, 169, 361, 200, 424
-0.976628, 41, 193, 104, 256
-0.976643, 65, 257, 128, 320
-0.976961, 137, 33, 200, 96
-0.977025, 65, 1, 192, 64
-0.977044, 265, 153, 294, 216
-0.977122, 193, 9, 256, 72
-0.977542, 209, 417, 240, 480
-0.977576, 81, 305, 144, 368
-0.977639, 193, 193, 256, 256
-0.977664, 33, 329, 64, 392
-0.977707, 225, 17, 288, 144
-0.977733, 93, 257, 124, 384
-0.97778, 129, 257, 192, 384
-0.977808, 17, 297, 144, 360
-0.977842, 113, 121, 144, 184
-0.977845, 97, 73, 160, 136
-0.97792, 65, 393, 192, 456
-0.978194, 85, 185, 116, 248
-0.978217, 217, 33, 280, 96
-0.9783, 245, 153, 276, 216
-0.978325, 225, 417, 256, 480
-0.978406, 185, 361, 216, 424
-0.978442, 49, 73, 176, 136
-0.978507, 33, 49, 160, 112
-0.97852, 217, 129, 280, 384
-0.978529, 121, 65, 184, 128
-0.978579, 113, 353, 144, 416
-0.978663, 209, 337, 240, 464
-0.978755, 145, 353, 272, 416
-0.978775, 65, 1, 128, 480
-0.978852, 161, 321, 288, 384
-0.978865, 17, 401, 144, 464
-0.978883, 33, 345, 96, 408
-0.978917, 157, 313, 188, 376
-0.978954, 177, 305, 208, 432
-0.978968, 225, 297, 288, 360
-0.978975, 117, 113, 148, 240
-0.978981, 133, 321, 164, 384
-0.979022, 113, 393, 144, 456
-0.979065, 33, 113, 160, 176
-0.979095, 185, 97, 248, 224
-0.979191, 145, 97, 208, 224
-0.979193, 233, 345, 294, 408
-0.979262, 265, 337, 294, 400
-0.979338, 49, 25, 176, 88
-0.979372, 161, 161, 288, 224
-0.979382, 25, 89, 88, 152
-0.97943, 65, 1, 96, 128
-0.979479, 1, 337, 32, 464
-0.979527, 169, 225, 232, 480
-0.979543, 113, 241, 176, 304
-0.979544, 233, 33, 294, 288
-0.979547, 105, 177, 136, 304
-0.979562, 25, 193, 88, 320
-0.979573, 89, 129, 120, 192
-0.979634, 45, 321, 76, 384
-0.979707, 169, 33, 232, 96
-0.979711, 121, 129, 184, 384
-0.979722, 237, 393, 268, 456
-0.979723, 1, 225, 64, 288
-0.979749, 189, 337, 220, 464
-0.979781, 65, 417, 192, 480
-0.979782, 117, 177, 148, 240
-0.979784, 17, 417, 48, 480
-0.979821, 109, 321, 140, 384
-0.979947, 105, 81, 136, 208
-0.97996, 49, 73, 112, 136
-0.979963, 53, 1, 84, 64
-0.980008, 105, 241, 136, 304
-0.980155, 113, 9, 240, 72
-0.980189, 145, 145, 208, 208
-0.980215, 157, 337, 188, 464
-0.980227, 145, 65, 208, 128
-0.980247, 21, 369, 52, 432
-0.980289, 125, 417, 156, 480
-0.980314, 65, 49, 96, 176
-0.980372, 17, 1, 144, 64
-0.980446, 1, 209, 64, 336
-0.980477, 13, 337, 44, 464
-0.980523, 237, 417, 268, 480
-0.980569, 81, 145, 208, 208
-0.980617, 113, 417, 144, 480
-0.980652, 249, 393, 280, 456
-0.980756, 73, 225, 136, 480
-0.980762, 201, 393, 232, 456
-0.980837, 105, 225, 136, 352
-0.980887, 153, 1, 184, 64
-0.980953, 221, 161, 252, 224
-0.980975, 149, 1, 180, 128
-0.980975, 213, 337, 244, 400
-0.981042, 1, 297, 64, 360
-0.981055, 85, 321, 116, 384
-0.981099, 233, 209, 294, 272
-0.981151, 89, 1, 152, 480
-0.981207, 1, 377, 32, 440
-0.981213, 213, 361, 244, 424
-0.981242, 117, 65, 148, 192
-0.981246, 193, 281, 256, 344
-0.981296, 25, 129, 88, 192
-0.981314, 161, 377, 288, 440
-0.981323, 137, 1, 168, 128
-0.981414, 261, 377, 292, 440
-0.981465, 177, 313, 208, 376
-0.981557, 249, 417, 280, 480
-0.981571, 177, 145, 240, 208
-0.981583, 137, 1, 168, 64
-0.981596, 201, 145, 264, 208
-0.981614, 221, 145, 252, 272
-0.981682, 221, 337, 252, 464
-0.98173, 53, 145, 84, 272
-0.981813, 93, 265, 124, 328
-0.981827, 169, 353, 200, 480
-0.981835, 89, 377, 120, 440
-0.981899, 61, 33, 92, 96
-0.981916, 185, 33, 248, 288
-0.981921, 117, 337, 148, 464
-0.981949, 101, 129, 132, 192
-0.981992, 77, 49, 108, 176
-0.982121, 145, 33, 272, 96
-0.982186, 145, 161, 176, 224
-0.982205, 69, 193, 100, 256
-0.982234, 1, 25, 128, 88
-0.982249, 201, 361, 232, 424
-0.982282, 69, 377, 100, 440
-0.982323, 161, 233, 224, 296
-0.98236, 133, 81, 164, 208
-0.982378, 101, 417, 132, 480
-0.982395, 97, 169, 128, 232
-0.982427, 113, 241, 240, 304
-0.982452, 193, 249, 256, 312
-0.982476, 81, 193, 208, 256
-0.982548, 113, 273, 144, 400
-0.982558, 109, 201, 140, 264
-0.982637, 193, 129, 256, 384
-0.982757, 125, 1, 156, 128
-0.98284, 57, 377, 88, 440
-0.982935, 85, 417, 116, 480
-0.982957, 265, 193, 294, 256
-0.982961, 161, 185, 288, 248
-0.982966, 233, 9, 294, 72
-0.98298, 97, 273, 224, 336
-0.982993, 129, 81, 160, 144
-0.982995, 145, 193, 208, 448
-0.983009, 1, 57, 64, 120
-0.983092, 9, 9, 72, 72
-0.983142, 113, 89, 240, 152
-0.983142, 161, 1, 192, 128
-0.983155, 65, 1, 96, 64
-0.983166, 25, 297, 88, 360
-0.983172, 129, 145, 160, 208
-0.983227, 165, 153, 196, 216
-0.983291, 97, 41, 224, 104
-0.983345, 121, 1, 184, 480
-0.983364, 45, 377, 76, 440
-0.983374, 89, 65, 120, 192
-0.983441, 37, 417, 68, 480
-0.983443, 113, 97, 144, 160
-0.983457, 33, 1, 96, 256
-0.983497, 233, 273, 294, 400
-0.983532, 33, 337, 64, 464
-0.983552, 85, 1, 116, 128
-0.983635, 41, 97, 104, 224
-0.98364, 209, 257, 272, 384
-0.983648, 265, 401, 294, 464
-0.98365, 105, 337, 136, 464
-0.983738, 225, 193, 256, 256
-0.983747, 181, 337, 212, 400
-0.983807, 209, 33, 272, 288
-0.983844, 185, 225, 248, 288
-0.983845, 253, 185, 284, 248
-0.98385, 1, 273, 64, 400
-0.983939, 133, 129, 164, 256
-0.983998, 109, 297, 140, 360
-0.984031, 113, 65, 240, 128
-0.984069, 77, 17, 108, 80
-0.98416, 93, 297, 124, 360
-0.984191, 117, 193, 148, 320
-0.984218, 73, 417, 104, 480
-0.984261, 145, 297, 272, 360
-0.984319, 57, 321, 88, 384
-0.98434, 249, 361, 280, 424
-0.984415, 69, 321, 100, 384
-0.984489, 165, 129, 196, 256
-0.984493, 93, 217, 124, 280
-0.984493, 237, 361, 268, 424
-0.984506, 113, 217, 240, 280
-0.984568, 221, 193, 252, 320
-0.984792, 169, 17, 200, 80
-0.984823, 253, 97, 284, 224
-0.984854, 81, 41, 112, 104
-0.984862, 49, 353, 80, 416
-0.984898, 193, 113, 256, 176
-0.984899, 181, 1, 212, 128
-0.984943, 57, 417, 88, 480
-0.984962, 69, 97, 100, 160
-0.985001, 41, 1, 104, 480
-0.98501, 53, 1, 84, 128
-0.985026, 49, 225, 112, 480
-0.985032, 137, 121, 168, 184
-0.985127, 261, 337, 292, 464
-0.985262, 65, 353, 96, 416
-0.985347, 201, 337, 232, 400
-0.985372, 77, 353, 108, 416
-0.985512, 13, 41, 44, 104
-0.98554, 1, 353, 32, 416
-0.985542, 89, 353, 120, 416
-0.985601, 89, 105, 120, 168
-0.985755, 33, 209, 160, 272
-0.985906, 225, 353, 256, 416
-0.986079, 225, 33, 256, 96
-0.986095, 33, 353, 64, 416
-0.986174, 33, 1, 64, 128
-0.986236, 253, 321, 284, 384
-0.986298, 17, 177, 80, 240
-0.986346, 241, 185, 272, 248
-0.986375, 145, 1, 208, 480
-0.986389, 21, 329, 52, 392
-0.986407, 33, 41, 64, 104
-0.986429, 253, 129, 284, 192
-0.986501, 1, 89, 128, 152
-0.986587, 105, 265, 136, 328
-0.986595, 1, 353, 128, 416
-0.986602, 129, 137, 256, 200
-0.986603, 81, 297, 112, 360
-0.986666, 5, 209, 36, 272
-0.986686, 153, 145, 216, 272
-0.986703, 1, 33, 32, 96
-0.986813, 61, 193, 92, 320
-0.986815, 161, 169, 224, 232
-0.986848, 129, 169, 160, 232
-0.986864, 249, 353, 280, 480
-0.986903, 57, 89, 88, 152
-0.986908, 1, 1, 64, 256
-0.986927, 49, 153, 80, 216
-0.986977, 165, 185, 196, 248
-0.987001, 129, 49, 160, 112
-0.987034, 117, 17, 148, 80
-0.987036, 145, 113, 176, 240
-0.987106, 225, 321, 256, 384
-0.987206, 185, 225, 216, 288
-0.987219, 141, 89, 172, 152
-0.98722, 153, 289, 184, 416
-0.987285, 169, 385, 200, 448
-0.987322, 129, 297, 160, 360
-0.987348, 233, 105, 294, 168
-0.987353, 265, 97, 294, 224
-0.987452, 101, 353, 132, 416
-0.987454, 153, 49, 184, 176
-0.98751, 65, 133, 128, 164
-0.987523, 65, 153, 96, 216
-0.987554, 1, 33, 32, 160
-0.987607, 169, 265, 232, 328
-0.987618, 33, 233, 160, 296
-0.98764, 145, 105, 208, 168
-0.987697, 217, 225, 280, 480
-0.987882, 193, 1, 224, 128
-0.987959, 265, 193, 294, 320
-0.987982, 193, 257, 224, 384
-0.987994, 233, 353, 264, 480
-0.988057, 253, 193, 284, 320
-0.988064, 209, 73, 272, 136
-0.988088, 229, 97, 260, 224
-0.98809, 241, 97, 272, 224
-0.988103, 129, 257, 160, 384
-0.988129, 1, 201, 64, 264
-0.988174, 209, 145, 240, 272
-0.988183, 1, 321, 256, 384
-0.988323, 177, 1, 240, 480
-0.988516, 9, 145, 40, 272
-0.988544, 229, 17, 260, 144
-0.988566, 153, 241, 216, 368
-0.988585, 1, 145, 64, 272
-0.988593, 169, 57, 232, 120
-0.9886, 81, 273, 112, 400
-0.988651, 137, 333, 200, 364
-0.988676, 177, 49, 240, 176
-0.988777, 105, 325, 168, 356
-0.988842, 1, 377, 256, 440
-0.988862, 161, 1, 288, 64
-0.988971, 97, 177, 160, 208
-0.989004, 17, 401, 80, 432
-0.989023, 97, 149, 160, 180
-0.989033, 225, 177, 288, 208
-0.989037, 201, 405, 264, 436
-0.989047, 41, 225, 104, 288
-0.989078, 217, 165, 280, 196
-0.98908, 97, 161, 160, 192
-0.989101, 49, 325, 112, 356
-0.989175, 225, 329, 288, 360
-0.989206, 129, 113, 256, 176
-0.989225, 53, 49, 84, 176
-0.989249, 5, 193, 36, 320
-0.989261, 129, 365, 192, 396
-0.989296, 145, 161, 176, 288
-0.989309, 45, 97, 76, 224
-0.989365, 97, 401, 160, 432
-0.989469, 129, 193, 160, 320
-0.98947, 57, 165, 120, 196
-0.989471, 177, 329, 240, 360
-0.989504, 65, 185, 128, 216
-0.989516, 161, 217, 288, 280
-0.989527, 193, 313, 256, 376
-0.989565, 13, 17, 44, 144
-0.989578, 1, 401, 294, 464
-0.989602, 97, 125, 160, 156
-0.989659, 97, 233, 160, 264
-0.989665, 97, 417, 160, 448
-0.989687, 169, 369, 232, 400
-0.989688, 17, 257, 144, 320
-0.989757, 145, 409, 208, 472
-0.989761, 101, 33, 132, 160
-0.989802, 65, 197, 128, 228
-0.989814, 121, 405, 184, 436
-0.98988, 201, 417, 264, 448
-0.989897, 225, 401, 288, 432
-0.989997, 89, 273, 152, 304
-0.990012, 9, 193, 72, 448
-0.990029, 225, 189, 288, 220
-0.990031, 65, 145, 128, 176
-0.990034, 145, 349, 208, 380
-0.990049, 105, 365, 168, 396
-0.990066, 81, 77, 144, 108
-0.990071, 165, 289, 196, 416
-0.990109, 1, 401, 256, 464
-0.990119, 177, 405, 240, 436
-0.990257, 73, 401, 136, 432
-0.990268, 161, 201, 224, 264
-0.990279, 97, 189, 160, 220
-0.990344, 1, 297, 256, 360
-0.990427, 105, 137, 168, 168
-0.990443, 89, 261, 152, 292
-0.99045, 73, 25, 136, 56
-0.990454, 185, 381, 248, 412
-0.990455, 9, 413, 72, 444
-0.990467, 73, 329, 136, 360
-0.990475, 1, 97, 64, 160
-0.990492, 129, 9, 192, 40
-0.99051, 161, 241, 288, 304
-0.990517, 121, 153, 184, 184
-0.990535, 213, 97, 244, 224
-0.990569, 217, 153, 280, 184
-0.990602, 33, 169, 288, 232
-0.990621, 205, 273, 236, 400
-0.990627, 113, 1, 144, 128
-0.990638, 177, 193, 208, 320
-0.990664, 1, 325, 64, 356
-0.990702, 145, 377, 208, 408
-0.990739, 1, 377, 294, 440
-0.99082, 177, 417, 240, 448
-0.99084, 129, 45, 192, 76
-0.990849, 129, 189, 192, 220
-0.990872, 97, 201, 160, 232
-0.990881, 201, 369, 264, 400
-0.990895, 97, 221, 160, 252
-0.990903, 225, 413, 288, 444
-0.990905, 81, 65, 144, 96
-0.99091, 233, 29, 294, 60
-0.990918, 113, 61, 176, 92
-0.99092, 181, 113, 212, 240
-0.990923, 201, 1, 264, 480
-0.990939, 105, 73, 168, 104
-0.990948, 201, 181, 264, 212
-0.990969, 25, 329, 88, 360
-0.990981, 193, 33, 256, 64
-0.991017, 129, 173, 192, 204
-0.991019, 225, 369, 288, 400
-0.99104, 113, 381, 176, 412
-0.991048, 161, 265, 288, 328
-0.99105, 33, 37, 96, 68
-0.991066, 169, 349, 232, 380
-0.991067, 65, 229, 128, 260
-0.991073, 57, 77, 120, 108
-0.99112, 121, 117, 184, 148
-0.991138, 121, 349, 184, 380
-0.991144, 97, 13, 160, 44
-0.991151, 153, 33, 216, 64
-0.99117, 89, 113, 152, 144
-0.991182, 113, 85, 176, 116
-0.991198, 73, 241, 136, 272
-0.991205, 97, 337, 160, 368
-0.991216, 165, 177, 196, 304
-0.991229, 65, 269, 128, 300
-0.991251, 165, 49, 196, 176
-0.99126, 249, 273, 280, 400
-0.991268, 1, 365, 64, 396
-0.991275, 33, 353, 288, 416
-0.991278, 217, 141, 280, 172
-0.991281, 105, 313, 168, 344
-0.991281, 121, 417, 184, 448
-0.99131, 201, 333, 264, 364
-0.991313, 153, 321, 216, 352
-0.991329, 33, 413, 96, 444
-0.991333, 105, 245, 168, 276
-0.991348, 25, 365, 88, 396
-0.991349, 25, 273, 88, 400
-0.99137, 81, 285, 144, 316
-0.991376, 137, 389, 200, 420
-0.991391, 65, 369, 128, 400
-0.991405, 73, 49, 136, 80
-0.991408, 193, 165, 256, 196
-0.99143, 25, 141, 88, 172
-0.99146, 97, 349, 160, 380
-0.991476, 41, 1, 104, 32
-0.991484, 161, 17, 224, 48
-0.991491, 33, 57, 96, 88
-0.991534, 73, 13, 136, 44
-0.991535, 129, 25, 192, 56
-0.991538, 105, 45, 168, 76
-0.991544, 177, 317, 240, 348
-0.991545, 169, 393, 232, 424
-0.991553, 81, 381, 144, 412
-0.991569, 81, 1, 144, 32
-0.991572, 105, 33, 168, 64
-0.991597, 25, 185, 88, 216
-0.991614, 65, 89, 128, 120
-0.991645, 1, 49, 64, 80
-0.991658, 205, 1, 236, 128
-0.99167, 193, 17, 256, 48
-0.991675, 73, 413, 136, 444
-0.991694, 121, 225, 184, 480
-0.991701, 73, 217, 136, 248
-0.991702, 209, 193, 240, 320
-0.991707, 233, 193, 264, 320
-0.991708, 25, 157, 88, 188
-0.991712, 57, 121, 120, 152
-0.991723, 145, 157, 208, 188
-0.991725, 193, 45, 256, 76
-0.991728, 217, 385, 280, 416
-0.99175, 1, 225, 64, 256
-0.991785, 185, 193, 248, 224
-0.991793, 41, 401, 104, 432
-0.991803, 1, 201, 256, 264
-0.991809, 145, 401, 208, 432
-0.99181, 25, 85, 88, 116
-0.991811, 217, 41, 280, 72
-0.991819, 129, 141, 192, 172
-0.991833, 57, 37, 120, 68
-0.991845, 41, 13, 104, 44
-0.991845, 113, 273, 176, 304
-0.991846, 105, 285, 168, 316
-0.991849, 233, 425, 294, 456
-0.991857, 9, 381, 72, 412
-0.991859, 1, 321, 294, 384
-0.99188, 217, 1, 248, 128
-0.991888, 169, 249, 232, 280
-0.991889, 9, 425, 72, 456
-0.991898, 153, 297, 216, 328
-0.991899, 1, 233, 256, 296
-0.991927, 225, 317, 288, 348
-0.991933, 93, 337, 124, 464
-0.991934, 25, 49, 56, 176
-0.991954, 121, 401, 152, 432
-0.991972, 161, 57, 288, 120
-0.99199, 17, 1, 80, 480
-0.99202, 113, 401, 240, 432
-0.992098, 217, 249, 280, 312
-0.992111, 33, 129, 288, 192
-0.992127, 209, 401, 240, 432
-0.992137, 17, 329, 144, 360
-0.992157, 177, 337, 192, 400
-0.992166, 157, 329, 188, 360
-0.992207, 17, 401, 48, 432
-0.992221, 129, 265, 192, 328
-0.99224, 1, 185, 294, 248
-0.992256, 225, 165, 256, 196
-0.992337, 169, 369, 200, 400
-0.992406, 1, 129, 294, 192
-0.992424, 145, 329, 176, 360
-0.992468, 109, 161, 140, 192
-0.99247, 229, 177, 260, 208
-0.992474, 45, 325, 76, 356
-0.992477, 245, 181, 276, 212
-0.992482, 121, 117, 152, 148
-0.992491, 97, 261, 128, 292
-0.992522, 185, 369, 216, 400
-0.992531, 133, 365, 164, 396
-0.992531, 105, 177, 136, 208
-0.992536, 101, 205, 132, 236
-0.992538, 105, 149, 136, 180
-0.992542, 237, 157, 268, 188
-0.992552, 157, 369, 188, 400
-0.992555, 93, 329, 124, 360
-0.992561, 65, 133, 96, 164
-0.992564, 209, 413, 240, 444
-0.992569, 49, 133, 176, 164
-0.992575, 89, 133, 120, 164
-0.992592, 233, 189, 264, 220
-0.992623, 97, 329, 224, 360
-0.992624, 173, 329, 204, 360
-0.992628, 265, 157, 294, 188
-0.992629, 17, 413, 48, 444
-0.992637, 1, 161, 294, 224
-0.992643, 261, 185, 292, 216
-0.992645, 93, 241, 124, 272
-0.992652, 229, 401, 260, 432
-0.992653, 33, 329, 64, 360
-0.992656, 117, 177, 148, 208
-0.992658, 265, 333, 294, 364
-0.992666, 33, 401, 64, 432
-0.99268, 113, 257, 144, 288
-0.992687, 105, 189, 136, 220
-0.992702, 93, 189, 124, 220
-0.992704, 193, 225, 256, 480
-0.992707, 253, 165, 284, 196
-0.992726, 121, 413, 152, 444
-0.992733, 105, 273, 136, 304
-0.992734, 265, 169, 294, 200
-0.992737, 105, 401, 136, 432
-0.99274, 121, 149, 152, 180
-0.992741, 93, 273, 124, 304
-0.992744, 165, 177, 196, 208
-0.992759, 173, 349, 204, 380
-0.992764, 221, 329, 252, 360
-0.992764, 253, 329, 284, 360
-0.992764, 109, 125, 140, 156
-0.992765, 105, 329, 136, 360
-0.992766, 145, 365, 176, 396
-0.992768, 233, 1, 294, 480
-0.992778, 153, 157, 184, 188
-0.992789, 133, 329, 164, 360
-0.992795, 149, 321, 164, 384
-0.992802, 141, 169, 172, 200
-0.992802, 81, 325, 112, 356
-0.992803, 129, 217, 192, 280
-0.992817, 117, 365, 148, 396
-0.992822, 177, 381, 208, 412
-0.992823, 105, 417, 136, 448
-0.992827, 137, 121, 168, 152
-0.992835, 113, 77, 144, 108
-0.992837, 109, 137, 140, 168
-0.992839, 157, 381, 188, 412
-0.992842, 109, 317, 140, 348
-0.992862, 165, 193, 196, 224
-0.992875, 205, 333, 236, 364
-0.992876, 105, 241, 136, 272
-0.992881, 153, 317, 184, 348
-0.992885, 253, 153, 284, 184
-0.992887, 93, 225, 124, 256
-0.992899, 225, 417, 256, 448
-0.992899, 141, 401, 172, 432
-0.992901, 225, 145, 256, 176
-0.992901, 89, 201, 120, 232
-0.992903, 69, 77, 100, 108
-0.992914, 233, 305, 264, 432
-0.992914, 85, 77, 116, 108
-0.992916, 65, 33, 96, 64
-0.99292, 129, 169, 160, 200
-0.99292, 17, 401, 144, 432
-0.992926, 133, 149, 164, 180
-0.992929, 137, 381, 168, 412
-0.99293, 113, 201, 144, 232
-0.992932, 93, 285, 124, 316
-0.992943, 113, 229, 144, 260
-0.992943, 125, 389, 156, 420
-0.99295, 241, 169, 272, 200
-0.992952, 17, 97, 80, 352
-0.992961, 77, 25, 108, 56
-0.992962, 233, 369, 264, 400
-0.992963, 217, 177, 248, 208
-0.992964, 185, 237, 216, 268
-0.992968, 253, 369, 284, 400
-0.992969, 133, 417, 164, 448
-0.992976, 153, 145, 184, 176
-0.992977, 193, 409, 224, 440
-0.992982, 165, 157, 196, 188
-0.992984, 29, 413, 60, 444
-0.992986, 221, 369, 252, 400
-0.992987, 201, 369, 232, 400
-0.99299, 225, 33, 256, 64
-0.99299, 125, 129, 156, 160
-0.992992, 129, 85, 160, 116
-0.992995, 133, 9, 164, 40
-0.993, 153, 45, 184, 76
-0.993011, 265, 369, 294, 400
-0.993017, 245, 193, 276, 224
-0.993017, 137, 109, 168, 140
-0.993018, 1, 365, 32, 396
-0.993019, 109, 113, 140, 144
-0.993023, 65, 201, 96, 232
-0.993026, 117, 189, 148, 220
-0.993029, 57, 325, 88, 356
-0.993041, 25, 365, 56, 396
-0.993042, 125, 349, 156, 380
-0.993052, 205, 25, 236, 56
-0.993053, 221, 189, 252, 220
-0.993055, 209, 425, 240, 456
-0.993061, 121, 13, 152, 44
-0.993064, 145, 181, 176, 212
-0.993065, 157, 9, 188, 40
-0.993065, 105, 369, 136, 400
-0.993069, 245, 141, 276, 172
-0.99307, 21, 325, 52, 356
-0.993071, 109, 285, 140, 316
-0.993072, 9, 221, 40, 252
-0.993075, 1, 401, 32, 432
-0.993075, 29, 49, 60, 80
-0.993076, 221, 381, 252, 412
-0.993077, 137, 137, 168, 168
-0.993077, 17, 209, 48, 336
-0.993079, 85, 369, 116, 400
-0.993083, 13, 365, 44, 396
-0.993086, 141, 45, 172, 76
-0.993134, 177, 49, 208, 176
-0.993199, 129, 413, 256, 444
-0.993216, 135, 361, 150, 424
-0.993267, 1, 121, 64, 184
-0.993273, 177, 89, 240, 152
-0.993278, 33, 161, 160, 192
-0.993288, 1, 297, 294, 360
-0.993514, 1, 17, 256, 80
-0.993518, 33, 149, 160, 180
-0.99352, 33, 181, 160, 212
-0.993547, 141, 361, 156, 424
-0.993616, 1, 49, 256, 112
-0.99365, 217, 393, 232, 456
-0.993669, 25, 249, 88, 312
-0.993734, 233, 65, 294, 128
-0.993781, 153, 97, 216, 352
-0.993851, 141, 289, 172, 416
-0.993856, 25, 377, 40, 440
-0.993879, 105, 241, 120, 304
-0.993922, 109, 137, 124, 200
-0.993929, 33, 257, 288, 320
-0.993953, 193, 161, 224, 288
-0.99397, 33, 105, 288, 168
-0.993984, 53, 353, 84, 480
-0.994161, 249, 49, 280, 176
-0.994212, 231, 153, 246, 216
-0.994245, 129, 353, 144, 416
-0.994254, 171, 321, 186, 384
-0.994263, 127, 377, 142, 440
-0.99427, 97, 369, 224, 400
-0.994339, 169, 121, 232, 184
-0.99434, 69, 129, 84, 192
-0.994343, 147, 361, 162, 424
-0.994373, 145, 369, 272, 400
-0.994392, 161, 81, 288, 144
-0.994439, 103, 201, 118, 264
-0.994456, 265, 49, 294, 176
-0.994488, 227, 377, 242, 440
-0.99452, 135, 385, 150, 448
-0.994535, 81, 181, 208, 212
-0.994561, 43, 321, 58, 384
-0.994565, 261, 153, 276, 216
-0.994571, 249, 153, 264, 216
-0.994592, 115, 377, 130, 440
-0.994612, 57, 97, 88, 224
-0.994613, 111, 193, 126, 256
-0.994617, 169, 361, 184, 424
-0.994648, 97, 317, 224, 348
-0.994655, 65, 353, 96, 480
-0.994659, 145, 329, 272, 360
-0.994665, 143, 337, 158, 400
-0.994679, 1, 81, 256, 144
-0.994681, 21, 273, 52, 400
-0.994696, 135, 121, 150, 184
-0.994731, 37, 377, 52, 440
-0.994739, 81, 149, 208, 180
-0.99475, 103, 329, 118, 392
-0.994751, 187, 353, 202, 416
-0.994784, 273, 329, 288, 392
-0.994799, 1, 137, 128, 168
-0.994813, 129, 121, 144, 184
-0.994819, 49, 77, 176, 108
-0.994839, 243, 153, 258, 216
-0.99484, 1, 289, 32, 416
-0.994841, 179, 361, 194, 424
-0.994849, 197, 209, 228, 336
-0.994877, 81, 353, 112, 480
-0.994889, 267, 153, 282, 216
-0.994908, 217, 273, 248, 400
-0.994915, 81, 193, 208, 224
-0.994956, 121, 393, 136, 456
-0.994967, 1, 9, 294, 72
-0.994973, 273, 161, 288, 224
-0.994981, 101, 177, 116, 240
-0.994982, 223, 417, 238, 480
-0.99499, 177, 313, 192, 376
-0.995011, 113, 389, 240, 420
-0.99502, 255, 153, 270, 216
-0.995026, 261, 273, 292, 400
-0.995077, 33, 193, 160, 224
-0.995081, 13, 97, 44, 224
-0.995083, 81, 169, 208, 200
-0.995123, 99, 129, 114, 192
-0.995139, 33, 413, 160, 444
-0.99514, 155, 361, 170, 424
-0.995148, 31, 393, 46, 456
-0.995152, 127, 89, 142, 152
-0.995196, 69, 1, 84, 64
-0.995199, 239, 377, 254, 440
-0.995223, 93, 129, 124, 384
-0.995248, 245, 377, 260, 440
-0.995251, 97, 357, 224, 388
-0.995252, 229, 417, 244, 480
-0.995268, 127, 417, 142, 480
-0.995269, 49, 321, 64, 384
-0.995278, 49, 89, 176, 120
-0.995291, 1, 353, 294, 416
-0.995292, 119, 145, 134, 208
-0.995292, 121, 417, 136, 480
-0.995309, 251, 377, 266, 440
-0.995309, 97, 329, 112, 392
-0.995333, 257, 377, 272, 440
-0.995348, 271, 193, 286, 256
-0.995349, 165, 337, 180, 400
-0.995356, 145, 385, 160, 448
-0.995362, 215, 369, 230, 432
-0.995364, 113, 13, 240, 44
-0.995376, 109, 377, 124, 440
-0.995379, 37, 329, 52, 392
-0.99539, 33, 317, 160, 348
-0.995391, 49, 365, 176, 396
-0.995393, 97, 129, 224, 160
-0.995397, 233, 377, 248, 440
-0.995431, 123, 337, 138, 400
-0.99544, 211, 393, 226, 456
-0.995444, 261, 401, 276, 464
-0.995446, 103, 377, 118, 440
-0.995456, 237, 417, 252, 480
-0.995462, 1, 33, 294, 96
-0.99547, 263, 377, 278, 440
-0.99547, 41, 273, 72, 400
-0.995471, 35, 41, 50, 104
-0.995474, 253, 417, 268, 480
-0.995485, 279, 153, 294, 216
-0.995491, 141, 241, 172, 368
-0.9955, 183, 321, 198, 384
-0.995505, 129, 165, 256, 196
-0.995515, 25, 161, 56, 288
-0.995524, 107, 169, 122, 232
-0.995528, 45, 377, 60, 440
-0.995529, 105, 265, 120, 328
-0.995536, 267, 337, 282, 400
-0.995552, 225, 153, 240, 216
-0.995553, 243, 417, 258, 480
-0.995563, 65, 9, 192, 40
-0.995587, 217, 337, 232, 400
-0.995589, 97, 377, 112, 440
-0.995595, 167, 153, 182, 216
-0.995607, 69, 97, 100, 352
-0.995614, 65, 381, 192, 412
-0.995617, 133, 417, 148, 480
-0.995626, 87, 377, 102, 440
-0.995627, 161, 181, 288, 212
-0.995634, 65, 341, 192, 372
-0.995634, 81, 377, 96, 440
-0.995655, 221, 361, 236, 424
-0.995656, 65, 401, 192, 432
-0.995657, 115, 417, 130, 480
-0.995665, 29, 417, 44, 480
-0.995668, 69, 377, 84, 440
-0.99567, 109, 321, 124, 384
-0.995674, 81, 413, 208, 444
-0.995684, 257, 185, 272, 248
-0.995693, 73, 193, 88, 256
-0.995697, 129, 33, 256, 64
-0.9957, 271, 393, 286, 456
-0.995713, 237, 153, 252, 216
-0.995716, 103, 289, 118, 352
-0.995732, 15, 377, 30, 440
-0.995735, 37, 49, 68, 176
-0.995751, 113, 241, 240, 272
-0.995755, 155, 329, 170, 392
-0.995759, 59, 377, 74, 440
-0.995798, 177, 257, 208, 384
-0.995802, 113, 225, 128, 288
-0.99582, 75, 377, 90, 440
-0.995822, 95, 193, 110, 256
-0.995841, 51, 377, 66, 440
-0.995843, 73, 25, 88, 88
-0.995846, 31, 369, 46, 432
-0.995854, 109, 417, 124, 480
-0.995866, 135, 81, 150, 144
-0.995887, 277, 377, 292, 440
-0.995902, 279, 321, 294, 384
-0.995918, 207, 361, 222, 424
-0.995918, 215, 417, 230, 480
-0.995932, 277, 185, 292, 248
-0.995934, 99, 257, 114, 320
-0.995936, 223, 185, 238, 248
-0.995937, 121, 369, 136, 432
-0.995959, 91, 321, 106, 384
-0.99596, 121, 121, 136, 184
-0.995961, 23, 417, 38, 480
-0.995969, 97, 417, 112, 480
-0.995979, 67, 193, 82, 256
-0.995986, 263, 177, 278, 240
-0.996002, 5, 33, 20, 96
-0.996008, 55, 321, 70, 384
-0.996019, 249, 1, 280, 128
-0.996038, 69, 97, 84, 160
-0.996047, 167, 1, 182, 64
-0.996048, 97, 65, 224, 96
-0.996049, 217, 49, 248, 176
-0.99605, 113, 97, 144, 352
-0.996057, 145, 349, 272, 380
-0.996058, 49, 121, 176, 152
-0.996062, 63, 1, 78, 64
-0.996069, 71, 321, 86, 384
-0.996073, 79, 417, 94, 480
-0.996074, 113, 253, 240, 284
-0.996077, 201, 241, 216, 304
-0.996086, 115, 121, 130, 184
-0.996088, 83, 337, 98, 400
-0.996091, 103, 417, 118, 480
-0.996094, 49, 45, 176, 76
-0.996107, 113, 257, 128, 320
-0.996116, 49, 29, 176, 60
-0.996127, 1, 105, 294, 168
-0.99613, 1, 217, 294, 280
-0.996138, 153, 1, 184, 256
-0.99616, 97, 305, 224, 336
-0.996167, 129, 153, 256, 184
-0.996197, 81, 97, 112, 352
-0.99625, 49, 65, 176, 96
-0.996259, 161, 401, 288, 432
-0.996306, 33, 225, 160, 256
-0.996323, 137, 33, 168, 288
-0.996344, 161, 425, 288, 456
-0.99635, 97, 293, 224, 324
-0.996399, 1, 369, 128, 400
-0.996521, 97, 225, 224, 256
-0.996549, 85, 1, 116, 256
-0.996553, 97, 77, 224, 108
-0.9966, 73, 1, 104, 256
-0.996633, 161, 317, 288, 348
-0.99664, 17, 341, 144, 372
-0.996649, 161, 193, 288, 224
-0.996664, 145, 45, 272, 76
-0.996686, 105, 193, 136, 448
-0.996714, 177, 193, 208, 448
-0.996733, 1, 57, 128, 88
-0.996768, 1, 241, 294, 304
-0.996819, 65, 425, 192, 456
-0.996821, 161, 381, 288, 412
-0.996838, 149, 329, 164, 360
-0.996845, 97, 117, 224, 148
-0.996871, 33, 213, 160, 244
-0.996914, 49, 193, 80, 320
-0.996926, 1, 13, 128, 44
-0.996936, 113, 425, 240, 456
-0.996937, 161, 17, 288, 48
-0.996941, 1, 81, 294, 144
-0.996947, 1, 33, 128, 64
-0.996962, 97, 53, 224, 84
-0.99698, 81, 213, 208, 244
-0.997005, 45, 325, 60, 356
-0.997012, 97, 89, 224, 120
-0.997013, 173, 329, 188, 360
-0.997051, 17, 389, 144, 420
-0.997053, 271, 329, 286, 360
-0.997058, 125, 1, 156, 256
-0.99708, 179, 369, 194, 400
-0.997104, 1, 81, 32, 208
-0.997145, 107, 269, 122, 300
-0.997154, 81, 281, 208, 312
-0.997184, 215, 401, 230, 432
-0.997187, 25, 401, 40, 432
-0.99719, 49, 241, 176, 272
-0.997203, 231, 177, 246, 208
-0.997213, 129, 129, 160, 384
-0.997228, 127, 113, 142, 144
-0.997237, 229, 33, 260, 288
-0.997242, 103, 329, 118, 360
-0.997253, 231, 165, 246, 196
-0.997254, 1, 1, 128, 32
-0.99728, 257, 165, 272, 196
-0.997289, 105, 209, 120, 240
-0.997297, 49, 105, 176, 136
-0.997298, 243, 181, 258, 212
-0.997301, 247, 157, 262, 188
-0.997306, 279, 165, 294, 196
-0.997315, 113, 1, 144, 256
-0.997318, 165, 1, 196, 256
-0.997322, 265, 157, 280, 188
-0.997323, 1, 125, 128, 156
-0.997334, 279, 181, 294, 212
-0.997343, 135, 117, 150, 148
-0.997348, 69, 273, 100, 400
-0.997348, 221, 129, 252, 384
-0.997353, 17, 289, 144, 320
-0.997372, 169, 369, 184, 400
-0.997374, 93, 225, 124, 480
-0.997376, 233, 189, 248, 220
-0.997382, 81, 193, 112, 448
-0.997393, 241, 153, 256, 184
-0.997393, 57, 97, 88, 352
-0.997395, 113, 265, 240, 296
-0.997403, 187, 369, 202, 400
-0.997417, 105, 181, 120, 212
-0.997432, 239, 165, 254, 196
-0.997456, 1, 45, 128, 76
-0.997458, 17, 449, 144, 480
-0.99746, 217, 333, 232, 364
-0.997467, 249, 181, 264, 212
-0.997468, 143, 365, 158, 396
-0.997491, 251, 169, 266, 200
-0.997516, 33, 257, 160, 288
-0.997517, 69, 133, 84, 164
-0.997522, 153, 225, 184, 480
-0.997531, 273, 169, 288, 200
-0.997535, 97, 273, 112, 304
-0.99754, 217, 33, 248, 288
-0.997543, 137, 369, 152, 400
-0.997544, 111, 201, 126, 232
-0.997549, 263, 181, 278, 212
-0.997563, 109, 149, 124, 180
-0.997581, 107, 257, 122, 288
-0.997582, 1, 69, 128, 100
-0.997594, 97, 33, 128, 288
-0.997605, 181, 1, 212, 256
-0.997608, 97, 449, 224, 480
-0.99761, 237, 177, 252, 208
-0.997612, 109, 241, 124, 272
-0.997615, 129, 105, 256, 136
-0.997629, 1, 89, 128, 120
-0.997629, 125, 401, 140, 432
-0.997631, 165, 185, 180, 216
-0.997646, 1, 57, 294, 120
-0.997649, 135, 401, 150, 432
-0.997652, 161, 221, 288, 252
-0.997666, 131, 365, 146, 396
-0.99767, 279, 329, 294, 360
-0.997701, 227, 401, 242, 432
-0.997715, 53, 325, 68, 356
-0.997719, 103, 197, 118, 228
-0.997725, 37, 401, 52, 432
-0.997735, 235, 145, 250, 176
-0.997739, 273, 181, 288, 212
-0.997739, 1, 265, 294, 328
-0.997741, 161, 245, 288, 276
-0.997743, 137, 129, 152, 160
-0.997745, 167, 329, 182, 360
-0.997769, 197, 193, 228, 448
-0.997775, 177, 345, 192, 376
-0.997782, 169, 165, 184, 196
-0.997783, 161, 57, 288, 88
-0.997788, 201, 97, 232, 224
-0.997788, 115, 401, 130, 432
-0.99779, 255, 181, 270, 212
-0.997795, 107, 281, 122, 312
-0.997804, 103, 241, 118, 272
-0.997807, 129, 125, 144, 156
-0.997816, 273, 157, 288, 188
-0.99782, 225, 181, 240, 212
-0.997825, 93, 325, 108, 356
-0.997828, 101, 133, 116, 164
-0.99783, 65, 269, 192, 300
-0.997833, 173, 193, 188, 224
-0.997837, 117, 193, 148, 448
-0.997843, 65, 193, 96, 448
-0.997843, 17, 425, 144, 456
-0.997851, 145, 141, 272, 172
-0.997852, 143, 329, 158, 360
-0.997867, 241, 97, 272, 352
-0.997873, 29, 417, 44, 448
-0.997874, 221, 401, 236, 432
-0.997877, 265, 97, 294, 352
-0.997899, 121, 161, 136, 192
-0.997907, 155, 325, 170, 356
-0.997913, 225, 157, 240, 188
-0.997915, 149, 317, 164, 348
-0.997922, 91, 273, 106, 304
-0.997928, 265, 169, 280, 200
-0.997929, 97, 193, 112, 224
-0.997929, 265, 329, 280, 360
-0.99794, 109, 137, 124, 168
-0.997946, 165, 129, 196, 384
-0.997962, 143, 405, 158, 436
-0.997963, 119, 417, 134, 448
-0.997963, 99, 253, 114, 284
-0.997974, 225, 329, 240, 360
-0.997975, 109, 169, 124, 200
-0.997981, 103, 221, 118, 252
-0.998, 233, 369, 248, 400
-0.998001, 161, 233, 288, 264
-0.998003, 149, 365, 164, 396
-0.998005, 111, 325, 126, 356
-0.998006, 145, 381, 160, 412
-0.998014, 73, 29, 88, 60
-0.998015, 45, 1, 76, 256
-0.998029, 179, 381, 194, 412
-0.99803, 259, 153, 274, 184
-0.998041, 227, 417, 242, 448
-0.998047, 173, 181, 188, 212
-0.998051, 207, 405, 222, 436
-0.998057, 239, 369, 254, 400
-0.998061, 39, 325, 54, 356
-0.998067, 49, 353, 176, 384
-0.99807, 253, 97, 284, 352
-0.998073, 175, 149, 190, 180
-0.998074, 161, 329, 176, 360
-0.998078, 179, 329, 194, 360
-0.998079, 245, 169, 260, 200
-0.998081, 71, 201, 86, 232
-0.998088, 271, 193, 286, 224
-0.998088, 35, 413, 50, 444
-0.998088, 149, 341, 164, 372
-0.998088, 135, 417, 150, 448
-0.99809, 145, 117, 272, 148
-0.9981, 131, 173, 146, 204
-0.998101, 227, 369, 242, 400
-0.998107, 43, 337, 58, 368
-0.998109, 113, 229, 128, 260
-0.998109, 187, 381, 202, 412
-0.99811, 125, 417, 140, 448
-0.998112, 275, 369, 290, 400
-0.998113, 145, 1, 272, 32
-0.998114, 137, 381, 152, 412
-0.998116, 227, 193, 242, 224
-0.998118, 67, 33, 82, 64
-0.998125, 211, 369, 226, 400
-0.998133, 31, 401, 46, 432
-0.998136, 221, 417, 236, 448
-0.99814, 33, 49, 48, 80
-0.998141, 113, 189, 128, 220
-0.998144, 179, 357, 194, 388
-0.998146, 145, 149, 160, 180
-0.998158, 137, 161, 152, 192
-0.998158, 101, 285, 116, 316
-0.998159, 157, 369, 172, 400
-0.998164, 1, 277, 128, 308
-0.998166, 267, 369, 282, 400
-0.998167, 189, 357, 204, 388
-0.998167, 221, 369, 236, 400
-0.998174, 1, 237, 128, 268
-0.998178, 163, 153, 178, 184
-0.99818, 129, 205, 256, 236
-0.998186, 201, 369, 216, 400
-0.99819, 227, 33, 242, 64
-0.998237, 161, 293, 288, 324
-0.998237, 33, 305, 160, 336
-0.998275, 209, 129, 240, 384
-0.998282, 53, 193, 84, 448
-0.998288, 1, 113, 128, 144
-0.998297, 129, 225, 160, 480
-0.998304, 145, 73, 272, 104
-0.998316, 61, 1, 92, 256
-0.998388, 65, 135, 128, 150
-0.998388, 257, 193, 288, 448
-0.998392, 33, 401, 64, 416
-0.998394, 105, 403, 136, 418
-0.998395, 121, 115, 152, 130
-0.998395, 153, 41, 184, 56
-0.998395, 265, 183, 294, 198
-0.998395, 129, 367, 160, 382
-0.998396, 217, 337, 248, 352
-0.998396, 113, 463, 144, 478
-0.998397, 177, 365, 208, 380
-0.998399, 137, 331, 200, 346
-0.998399, 165, 365, 196, 380
-0.998401, 129, 361, 160, 376
-0.998402, 229, 465, 260, 480
-0.998403, 45, 463, 76, 478
-0.998403, 109, 85, 140, 100
-0.998403, 253, 177, 284, 192
-0.998403, 205, 333, 236, 348
-0.998404, 93, 261, 124, 276
-0.998405, 129, 169, 160, 184
-0.998405, 105, 423, 136, 438
-0.998405, 33, 413, 64, 428
-0.998407, 153, 159, 184, 174
-0.998409, 173, 347, 204, 362
-0.998411, 93, 289, 124, 304
-0.998412, 145, 171, 176, 186
-0.998413, 5, 1, 36, 256
-0.998414, 145, 343, 176, 358
-0.998416, 117, 153, 148, 168
-0.998416, 225, 417, 256, 432
-0.998417, 125, 425, 156, 440
-0.998417, 69, 89, 100, 104
-0.998418, 253, 183, 284, 198
-0.998419, 225, 35, 256, 50
-0.998419, 93, 245, 124, 260
-0.998419, 97, 251, 128, 266
-0.99842, 129, 153, 160, 168
-0.998421, 205, 339, 236, 354
-0.998423, 65, 35, 96, 50
-0.998423, 93, 233, 124, 248
-0.998423, 25, 459, 56, 474
-0.998423, 105, 337, 136, 352
-0.998424, 165, 189, 196, 204
-0.998424, 113, 329, 144, 344
-0.998424, 109, 141, 140, 156
-0.998425, 165, 177, 196, 192
-0.998426, 105, 191, 136, 206
-0.998426, 225, 403, 256, 418
-0.998427, 69, 201, 100, 216
-0.998428, 129, 89, 160, 104
-0.998428, 105, 241, 136, 256
-0.998431, 117, 205, 148, 220
-0.998433, 105, 169, 136, 184
-0.998433, 137, 337, 168, 352
-0.998435, 165, 197, 196, 212
-0.998436, 53, 329, 84, 344
-0.99844, 217, 167, 280, 182
-0.99844, 105, 281, 136, 296
-0.99844, 265, 177, 294, 192
-0.998441, 225, 335, 288, 350
-0.998441, 125, 419, 156, 434
-0.998442, 245, 167, 276, 182
-0.998442, 105, 153, 168, 168
-0.998444, 265, 167, 294, 182
-0.998444, 145, 179, 176, 194
-0.998448, 85, 279, 116, 294
-0.998452, 165, 371, 196, 386
-0.998453, 97, 333, 160, 348
-0.998456, 133, 119, 164, 134
-0.998457, 221, 161, 252, 176
-0.998459, 117, 169, 148, 184
-0.998459, 5, 241, 36, 368
-0.99846, 133, 125, 164, 140
-0.99846, 21, 421, 52, 436
-0.99846, 85, 195, 116, 210
-0.998464, 1, 357, 128, 388
-0.998465, 149, 325, 180, 340
-0.998465, 113, 199, 144, 214
-0.998466, 165, 379, 196, 394
-0.998469, 49, 329, 112, 344
-0.998469, 265, 193, 294, 208
-0.998469, 97, 179, 160, 194
-0.998471, 217, 331, 248, 346
-0.998471, 97, 129, 160, 144
-0.998473, 241, 177, 272, 192
-0.998473, 109, 147, 140, 162
-0.998474, 241, 183, 272, 198
-0.998474, 217, 177, 280, 192
-0.998475, 29, 329, 60, 344
-0.998476, 225, 193, 288, 208
-0.998477, 133, 331, 164, 346
-0.998478, 89, 135, 120, 150
-0.998478, 97, 163, 160, 178
-0.998479, 213, 465, 244, 480
-0.99848, 233, 161, 264, 176
-0.99848, 57, 191, 120, 206
-0.99848, 97, 169, 160, 184
-0.998481, 253, 193, 284, 208
-0.998481, 209, 421, 240, 436
-0.998481, 29, 335, 60, 350
-0.998483, 113, 127, 144, 142
-0.998483, 129, 175, 160, 190
-0.998484, 17, 465, 80, 480
-0.998487, 97, 423, 160, 438
-0.998488, 65, 143, 128, 158
-0.998488, 81, 273, 144, 288
-0.998489, 65, 153, 128, 168
-0.99849, 173, 329, 204, 344
-0.998491, 225, 169, 256, 184
-0.998491, 101, 211, 132, 226
-0.998492, 9, 403, 72, 418
-0.998492, 137, 339, 200, 354
-0.998492, 201, 405, 264, 420
-0.998493, 177, 371, 208, 386
-0.998494, 101, 185, 132, 200
-0.998498, 209, 415, 240, 430
-0.998498, 93, 339, 124, 354
-0.998498, 97, 403, 160, 418
-0.998499, 109, 159, 140, 174
-0.998499, 65, 135, 96, 150
-0.998501, 65, 175, 128, 190
-0.998504, 261, 339, 292, 354
-0.998504, 105, 273, 136, 288
-0.998504, 105, 153, 136, 168
-0.998504, 117, 181, 148, 196
-0.998504, 201, 411, 264, 426
-0.998504, 97, 327, 160, 342
-0.998505, 177, 379, 208, 394
-0.998505, 113, 263, 144, 278
-0.998506, 65, 163, 128, 178
-0.998507, 265, 161, 294, 176
-0.998508, 261, 333, 292, 348
-0.998509, 225, 183, 288, 198
-0.99851, 245, 161, 276, 176
-0.998514, 105, 147, 168, 162
-0.998515, 205, 33, 236, 288
-0.998516, 33, 335, 96, 350
-0.998517, 225, 189, 256, 204
-0.998517, 113, 413, 176, 428
-0.998517, 9, 413, 72, 428
-0.998518, 161, 337, 192, 352
-0.998518, 97, 235, 160, 250
-0.998519, 105, 135, 168, 150
-0.998519, 109, 175, 140, 190
-0.998519, 225, 177, 256, 192
-0.99852, 93, 239, 124, 254
-0.998522, 149, 337, 180, 352
-0.998523, 217, 161, 280, 176
-0.998523, 129, 465, 160, 480
-0.998524, 41, 337, 72, 352
-0.998525, 97, 465, 160, 480
-0.998525, 93, 267, 124, 282
-0.998526, 57, 169, 120, 184
-0.998528, 57, 181, 120, 196
-0.998529, 97, 185, 160, 200
-0.99853, 17, 413, 48, 428
-0.99853, 129, 361, 192, 376
-0.998531, 121, 413, 152, 428
-0.998531, 73, 201, 136, 216
-0.998534, 89, 329, 120, 344
-0.998537, 101, 331, 132, 346
-0.998538, 201, 421, 264, 436
-0.998538, 165, 225, 196, 480
-0.998539, 9, 331, 72, 346
-0.998539, 145, 367, 208, 382
-0.99854, 241, 193, 272, 208
-0.998541, 161, 329, 224, 344
-0.998541, 177, 97, 208, 352
-0.998542, 73, 235, 136, 250
-0.998542, 93, 201, 124, 216
-0.998542, 121, 121, 152, 136
-0.998542, 177, 405, 240, 420
-0.998543, 97, 201, 160, 216
-0.998543, 65, 337, 128, 352
-0.998544, 97, 339, 160, 354
-0.998545, 225, 183, 256, 198
-0.998545, 73, 69, 136, 84
-0.99855, 9, 337, 72, 352
-0.99855, 97, 191, 160, 206
-0.998551, 193, 37, 256, 52
-0.998551, 225, 329, 288, 344
-0.998553, 129, 11, 192, 26
-0.998555, 121, 403, 184, 418
-0.998556, 105, 205, 136, 220
-0.998557, 177, 337, 240, 352
-0.998559, 145, 379, 208, 394
-0.998559, 169, 379, 232, 394
-0.99856, 209, 409, 240, 424
-0.998563, 89, 415, 152, 430
-0.998564, 89, 267, 152, 282
-0.998565, 41, 329, 72, 344
-0.998566, 225, 403, 288, 418
-0.998567, 81, 23, 144, 38
-0.998568, 81, 85, 144, 100
-0.998569, 17, 419, 80, 434
-0.998569, 209, 465, 272, 480
-0.99857, 177, 415, 240, 430
-0.998571, 145, 347, 208, 362
-0.998571, 81, 281, 144, 296
-0.998573, 65, 79, 128, 94
-0.998574, 233, 31, 294, 46
-0.998574, 185, 331, 248, 346
-0.998574, 169, 369, 232, 384
-0.998575, 121, 465, 184, 480
-0.998577, 53, 273, 84, 400
-0.998577, 97, 241, 160, 256
-0.998578, 121, 175, 184, 190
-0.998579, 97, 193, 112, 320
-0.99858, 93, 273, 124, 288
-0.998581, 121, 403, 152, 418
-0.998581, 105, 141, 168, 156
-0.998583, 17, 403, 48, 418
-0.998583, 209, 403, 240, 418
-0.998584, 121, 121, 184, 136
-0.998585, 73, 331, 136, 346
-0.998586, 25, 465, 56, 480
-0.998588, 185, 343, 248, 358
-0.99859, 33, 225, 64, 352
-0.99859, 121, 419, 184, 434
-0.99859, 89, 261, 152, 276
-0.99859, 41, 463, 104, 478
-0.998591, 217, 37, 280, 52
-0.998592, 129, 157, 192, 172
-0.998592, 65, 241, 128, 256
-0.998594, 129, 193, 192, 208
-0.998595, 145, 331, 176, 346
-0.998597, 129, 169, 192, 184
-0.998599, 177, 421, 240, 436
-0.998599, 25, 143, 88, 158
-0.998601, 33, 401, 96, 416
-0.998601, 113, 45, 176, 60
-0.998601, 153, 39, 216, 54
-0.998601, 33, 341, 96, 356
-0.998602, 113, 63, 176, 78
-0.998602, 137, 409, 200, 424
-0.998602, 73, 63, 136, 78
-0.998604, 193, 45, 256, 60
-0.998605, 73, 401, 136, 416
-0.998605, 267, 145, 282, 272
-0.998605, 169, 363, 232, 378
-0.998606, 169, 399, 232, 414
-0.998607, 97, 207, 160, 222
-0.998607, 73, 17, 136, 32
-0.998607, 121, 163, 184, 178
-0.998608, 121, 345, 184, 360
-0.998609, 105, 77, 168, 92
-0.998609, 225, 341, 288, 356
-0.99861, 161, 261, 288, 292
-0.998611, 137, 55, 200, 70
-0.998612, 201, 191, 264, 206
-0.998612, 73, 29, 136, 44
-0.998612, 193, 173, 256, 188
-0.998613, 185, 465, 248, 480
-0.998613, 97, 123, 160, 138
-0.998616, 145, 373, 208, 388
-0.998619, 81, 11, 144, 26
-0.998619, 97, 219, 160, 234
-0.998619, 121, 367, 184, 382
-0.998619, 157, 331, 188, 346
-0.998619, 161, 19, 224, 34
-0.99862, 129, 353, 192, 368
-0.99862, 245, 1, 276, 256
-0.99862, 129, 187, 192, 202
-0.998621, 65, 91, 128, 106
-0.998622, 73, 55, 136, 70
-0.998623, 33, 413, 96, 428
-0.998624, 121, 129, 184, 144
-0.998624, 201, 239, 264, 254
-0.998625, 217, 155, 280, 170
-0.998625, 65, 129, 128, 144
-0.998625, 33, 37, 96, 52
-0.998625, 225, 415, 288, 430
-0.998632, 149, 129, 180, 384
-0.998651, 107, 129, 122, 256
-0.998654, 145, 89, 272, 120
-0.998658, 33, 1, 64, 256
-0.998685, 1, 101, 128, 132
-0.998757, 145, 337, 160, 464
-0.998768, 161, 445, 288, 476
-0.998769, 255, 145, 270, 272
-0.99877, 161, 305, 288, 336
-0.998772, 275, 145, 290, 272
-0.998792, 41, 145, 72, 272
-0.998793, 135, 337, 150, 464
-0.998805, 69, 129, 84, 256
-0.998814, 161, 281, 288, 312
-0.998832, 145, 129, 272, 160
-0.998841, 127, 337, 142, 464
-0.998843, 265, 1, 294, 256
-0.998851, 151, 305, 166, 432
-0.99886, 227, 145, 242, 272
-0.998881, 91, 193, 106, 320
-0.998891, 261, 129, 276, 256
-0.9989, 167, 337, 182, 464
-0.998902, 233, 145, 248, 272
-0.998911, 97, 113, 112, 240
-0.998917, 13, 337, 28, 464
-0.998931, 103, 193, 118, 320
-0.998933, 243, 145, 258, 272
-0.998937, 1, 193, 32, 448
-0.998943, 85, 193, 100, 320
-0.998943, 135, 113, 150, 240
-0.998948, 109, 225, 124, 352
-0.998958, 217, 337, 232, 464
-0.998972, 249, 145, 264, 272
-0.998977, 23, 337, 38, 464
-0.998997, 69, 1, 84, 128
-0.999007, 177, 305, 192, 432
-0.999011, 233, 193, 264, 448
-0.999014, 77, 113, 92, 240
-0.999026, 159, 337, 174, 464
-0.999033, 189, 305, 204, 432
-0.999043, 5, 337, 20, 464
-0.999044, 73, 49, 88, 176
-0.999049, 87, 113, 102, 240
-0.999054, 103, 273, 118, 400
-0.999055, 93, 257, 108, 384
-0.999066, 221, 225, 252, 480
-0.999082, 125, 113, 140, 240
-0.999091, 121, 337, 136, 464
-0.999093, 137, 1, 152, 128
-0.999098, 225, 337, 240, 464
-0.999101, 79, 193, 94, 320
-0.999103, 163, 1, 178, 128
-0.999104, 71, 193, 86, 320
-0.999105, 131, 65, 146, 192
-0.999111, 115, 257, 130, 384
-0.999115, 157, 1, 172, 128
-0.99912, 145, 1, 160, 128
-0.999121, 113, 81, 128, 208
-0.999124, 211, 337, 226, 464
-0.999144, 29, 193, 60, 448
-0.999155, 101, 65, 116, 192
-0.999157, 193, 33, 224, 288
-0.999158, 81, 49, 96, 176
-0.99917, 157, 113, 172, 240
-0.999172, 167, 129, 182, 256
-0.999173, 231, 97, 246, 224
-0.999174, 203, 337, 218, 464
-0.999184, 115, 337, 130, 464
-0.999186, 137, 65, 152, 192
-0.999191, 29, 337, 44, 464
-0.999192, 151, 1, 166, 128
-0.999199, 117, 209, 132, 336
-0.999204, 125, 161, 140, 288
-0.999213, 179, 353, 194, 480
-0.999229, 63, 145, 78, 272
-0.99923, 197, 337, 212, 464
-0.999231, 17, 1, 48, 256
-0.999235, 75, 1, 90, 128
-0.999236, 109, 177, 124, 304
-0.999236, 131, 1, 146, 128
-0.99924, 173, 17, 188, 144
-0.999242, 89, 49, 104, 176
-0.999243, 173, 129, 188, 256
-0.999244, 35, 337, 50, 464
-0.99925, 221, 145, 236, 272
-0.999257, 189, 353, 204, 480
-0.99926, 39, 1, 54, 128
-0.999261, 5, 17, 20, 144
-0.999263, 67, 49, 82, 176
-0.999274, 125, 65, 140, 192
-0.999276, 11, 145, 26, 272
-0.999279, 263, 337, 278, 464
-0.99928, 109, 273, 124, 400
-0.99928, 173, 353, 188, 480
-0.999282, 179, 1, 194, 128
-0.999282, 129, 209, 144, 336
-0.999291, 263, 193, 278, 320
-0.999291, 227, 193, 242, 320
-0.999294, 197, 257, 212, 384
-0.999294, 179, 145, 194, 272
-0.999304, 119, 161, 134, 288
-0.999314, 87, 273, 102, 400
-0.999315, 95, 33, 110, 160
-0.999315, 231, 337, 246, 464
-0.999319, 119, 97, 134, 224
-0.999319, 251, 97, 266, 224
-0.999321, 257, 193, 272, 320
-0.999322, 63, 1, 78, 128
-0.999336, 243, 337, 258, 464
-0.999339, 157, 49, 172, 176
-0.99934, 251, 353, 266, 480
-0.999342, 113, 129, 128, 256
-0.99935, 185, 1, 200, 128
-0.99935, 279, 97, 294, 224
-0.999357, 267, 97, 282, 224
-0.999358, 273, 97, 288, 224
-0.999359, 13, 193, 28, 320
-0.999367, 125, 1, 140, 128
-0.999369, 237, 97, 252, 224
-0.999374, 107, 33, 122, 160
-0.999377, 147, 81, 162, 208
-0.999378, 107, 81, 122, 208
-0.999384, 237, 337, 252, 464
-0.999387, 269, 337, 284, 464
-0.999391, 257, 353, 272, 480
-0.999392, 33, 1, 48, 128
-0.999393, 123, 273, 138, 400
-0.9994, 131, 161, 146, 288
-0.999401, 191, 1, 206, 128
-0.999406, 161, 161, 176, 288
-0.999407, 83, 1, 98, 128
-0.999408, 243, 97, 258, 224
-0.999409, 237, 17, 252, 144
-0.999414, 1, 97, 32, 352
-0.999423, 139, 289, 154, 416
-0.999425, 101, 1, 116, 128
-0.999427, 225, 97, 240, 224
-0.999429, 3, 65, 18, 192
-0.999434, 41, 193, 72, 448
-0.999435, 61, 81, 76, 208
-0.999435, 19, 209, 34, 336
-0.999437, 163, 289, 178, 416
-0.999438, 109, 337, 124, 464
-0.99944, 227, 1, 242, 128
-0.99944, 191, 209, 206, 336
-0.999445, 173, 65, 188, 192
-0.999465, 81, 437, 208, 468
-0.999478, 245, 193, 276, 448
-0.999555, 45, 97, 76, 352
-0.999588, 145, 383, 160, 398
-0.999589, 51, 335, 66, 350
-0.999589, 225, 337, 240, 352
-0.99959, 241, 155, 256, 170
-0.99959, 143, 413, 158, 428
-0.99959, 173, 159, 188, 174
-0.999591, 25, 415, 40, 430
-0.999591, 109, 147, 124, 162
-0.999592, 71, 201, 86, 216
-0.999592, 145, 407, 160, 422
-0.999594, 159, 183, 174, 198
-0.999595, 113, 211, 128, 226
-0.999595, 227, 417, 242, 432
-0.999597, 279, 331, 294, 346
-0.999597, 263, 337, 278, 352
-0.999597, 279, 161, 294, 176
-0.999597, 109, 169, 124, 184
-0.999599, 109, 159, 124, 174
-0.999599, 137, 177, 152, 192
-0.999599, 103, 289, 118, 304
-0.9996, 173, 193, 188, 208
-0.9996, 95, 331, 110, 346
-0.999601, 105, 233, 120, 248
-0.999602, 29, 463, 44, 478
-0.999603, 135, 149, 150, 164
-0.999603, 169, 169, 184, 184
-0.999603, 45, 341, 60, 356
-0.999606, 173, 337, 188, 352
-0.999607, 239, 167, 254, 182
-0.999609, 183, 329, 198, 344
-0.99961, 225, 183, 240, 198
-0.999611, 173, 199, 188, 214
-0.999612, 99, 259, 114, 274
-0.999613, 103, 133, 118, 148
-0.999613, 167, 177, 182, 192
-0.999616, 35, 335, 50, 350
-0.999617, 103, 203, 118, 218
-0.999617, 177, 365, 192, 380
-0.999618, 261, 183, 276, 198
-0.999618, 135, 401, 150, 416
-0.999619, 131, 131, 146, 146
-0.999619, 139, 333, 154, 348
-0.99962, 109, 265, 124, 280
-0.999624, 111, 233, 126, 248
-0.999624, 225, 173, 240, 188
-0.999624, 131, 173, 146, 188
-0.999625, 107, 283, 122, 298
-0.999626, 273, 183, 288, 198
-0.999626, 105, 197, 120, 212
-0.999626, 115, 205, 130, 220
-0.999628, 267, 193, 282, 208
-0.999628, 165, 189, 180, 204
-0.999628, 257, 177, 272, 192
-0.99963, 253, 183, 268, 198
-0.99963, 247, 193, 262, 208
-0.999631, 273, 193, 288, 208
-0.999632, 215, 403, 230, 418
-0.999632, 123, 121, 138, 136
-0.999632, 109, 255, 124, 270
-0.999633, 265, 177, 280, 192
-0.999633, 91, 277, 106, 292
-0.999634, 251, 167, 266, 182
-0.999634, 271, 343, 286, 358
-0.999635, 103, 243, 118, 258
-0.999639, 279, 183, 294, 198
-0.999639, 225, 191, 240, 206
-0.99964, 273, 161, 288, 176
-0.999643, 169, 369, 184, 384
-0.999644, 103, 251, 118, 266
-0.999644, 53, 329, 68, 344
-0.999644, 159, 329, 174, 344
-0.999644, 149, 325, 164, 340
-0.999644, 97, 271, 112, 286
-0.999645, 25, 401, 40, 416
-0.999645, 227, 161, 242, 176
-0.999646, 217, 465, 232, 480
-0.999648, 109, 249, 124, 264
-0.99965, 149, 337, 164, 352
-0.999652, 237, 161, 252, 176
-0.999653, 255, 161, 270, 176
-0.999654, 187, 369, 202, 384
-0.999654, 273, 173, 288, 188
-0.999655, 265, 167, 280, 182
-0.999655, 105, 185, 120, 200
-0.999658, 137, 465, 152, 480
-0.999661, 109, 175, 124, 190
-0.999662, 279, 191, 294, 206
-0.999662, 217, 337, 232, 352
-0.999662, 233, 167, 248, 182
-0.999662, 257, 167, 272, 182
-0.999664, 253, 193, 268, 208
-0.999664, 237, 177, 252, 192
-0.999664, 69, 135, 84, 150
-0.999664, 251, 177, 266, 192
-0.999667, 237, 191, 252, 206
-0.999667, 99, 197, 114, 212
-0.999667, 107, 277, 122, 292
-0.999667, 103, 339, 118, 354
-0.999671, 111, 335, 126, 350
-0.999672, 243, 177, 258, 192
-0.999672, 273, 167, 288, 182
-0.999673, 247, 161, 262, 176
-0.999675, 247, 183, 262, 198
-0.999676, 109, 243, 124, 258
-0.99968, 13, 193, 44, 448
-0.999683, 129, 125, 144, 140
-0.999683, 127, 115, 142, 130
-0.999686, 231, 177, 246, 192
-0.999687, 279, 173, 294, 188
-0.999688, 109, 153, 124, 168
-0.999689, 45, 335, 60, 350
-0.999689, 217, 331, 232, 346
-0.999689, 265, 161, 280, 176
-0.999692, 241, 183, 256, 198
-0.999705, 107, 209, 122, 224
-0.999709, 233, 257, 264, 384
-0.999709, 271, 337, 286, 352
-0.999709, 179, 373, 194, 388
-0.99971, 133, 119, 148, 134
-0.999714, 97, 277, 112, 292
-0.999715, 179, 379, 194, 394
-0.999717, 231, 183, 246, 198
-0.999719, 231, 191, 246, 206
-0.999737, 137, 127, 152, 142
-0.999748, 103, 331, 118, 346
-0.99975, 141, 225, 172, 480
-0.999752, 279, 167, 294, 182
-0.999758, 107, 271, 122, 286
-0.999767, 13, 97, 44, 352
-0.99977, 109, 203, 124, 218
-0.999773, 173, 329, 188, 344
-0.999776, 45, 329, 60, 344
-0.999786, 271, 331, 286, 346
-0.999835, 149, 331, 164, 346
-1.00002, 1, 437, 128, 468
-1.00004, 205, 49, 236, 176
-1.00005, 261, 1, 292, 128
-1.0003, 209, 225, 240, 480
-1.00046, 33, 97, 64, 352
-1.00071, 193, 49, 224, 176
-1.00078, 153, 241, 184, 368
-1.00109, 33, 97, 64, 224
-1.00269, 165, 241, 196, 368
