1968
-0.475482, 1, 97, 500, 352
-0.580806, 1, 1, 500, 375
-0.601185, 1, 1, 500, 256
-0.6229, 257, 1, 500, 375
-0.638859, 161, 1, 416, 375
-0.680604, 97, 129, 352, 375
-0.691125, 257, 129, 500, 375
-0.752884, 65, 1, 320, 375
-0.775594, 225, 33, 480, 288
-0.793976, 1, 129, 256, 375
-0.877111, 289, 1, 416, 375
-0.877837, 97, 33, 352, 288
-0.884611, 209, 129, 336, 375
-0.887941, 289, 97, 416, 352
-0.897836, 1, 161, 500, 288
-0.905321, 97, 129, 224, 375
-0.906303, 225, 1, 352, 375
-0.908425, 337, 1, 464, 375
-0.9102, 257, 241, 500, 368
-0.921197, 337, 33, 464, 288
-0.923204, 273, 1, 400, 256
-0.924068, 369, 129, 496, 375
-0.925652, 1, 225, 500, 352
-0.926097, 257, 193, 500, 320
-0.929781, 113, 1, 240, 375
-0.929816, 145, 33, 272, 288
-0.93028, 1, 33, 256, 288
-0.936629, 33, 1, 160, 375
-0.937831, 225, 33, 352, 288
-0.941307, 49, 97, 176, 352
-0.942785, 289, 225, 416, 352
-0.944038, 177, 1, 304, 375
-0.944072, 145, 129, 272, 375
-0.945877, 297, 241, 360, 368
-0.946384, 1, 97, 128, 352
-0.946455, 97, 145, 352, 272
-0.946569, 257, 145, 500, 272
-0.947716, 97, 33, 224, 288
-0.948531, 297, 241, 360, 304
-0.949482, 1, 97, 500, 224
-0.950078, 369, 193, 432, 320
-0.951404, 33, 1, 160, 256
-0.953868, 321, 177, 448, 304
-0.95644, 129, 209, 384, 336
-0.956981, 225, 209, 352, 336
-0.957619, 353, 241, 416, 304
-0.96034, 385, 241, 448, 368
-0.960601, 329, 233, 392, 296
-0.960993, 345, 177, 408, 304
-0.961026, 385, 241, 448, 304
-0.961181, 225, 65, 480, 192
-0.961185, 377, 217, 440, 280
-0.961349, 1, 49, 500, 176
-0.962656, 297, 217, 360, 280
-0.963748, 353, 217, 416, 280
-0.96381, 289, 97, 416, 224
-0.964638, 1, 209, 128, 336
-0.96499, 369, 241, 496, 368
-0.965225, 321, 193, 384, 320
-0.965842, 1, 161, 256, 288
-0.96602, 289, 177, 352, 304
-0.966899, 289, 241, 416, 304
-0.966899, 273, 177, 400, 304
-0.967284, 321, 209, 384, 272
-0.967739, 401, 217, 464, 280
-0.967776, 113, 145, 240, 272
-0.967828, 193, 129, 320, 256
-0.968815, 97, 81, 352, 208
-0.969212, 401, 193, 464, 320
-0.969547, 1, 209, 256, 336
-0.969561, 321, 49, 448, 176
-0.970026, 337, 33, 400, 160
-0.971411, 369, 145, 432, 272
-0.971549, 113, 129, 176, 256
-0.972645, 1, 1, 500, 128
-0.972879, 353, 193, 416, 256
-0.972965, 57, 209, 120, 336
-0.973558, 389, 241, 420, 304
-0.973641, 113, 81, 240, 208
-0.97377, 145, 81, 208, 208
-0.973926, 273, 241, 336, 368
-0.973949, 329, 233, 360, 296
-0.974196, 1, 81, 256, 208
-0.974228, 325, 209, 356, 272
-0.974356, 289, 217, 416, 280
-0.974404, 361, 241, 424, 368
-0.974559, 377, 241, 408, 304
-0.974571, 337, 225, 464, 288
-0.974708, 345, 129, 408, 256
-0.974796, 305, 33, 368, 160
-0.975714, 385, 217, 416, 280
-0.975836, 305, 41, 368, 104
-0.975848, 161, 17, 416, 144
-0.975926, 369, 193, 496, 320
-0.975982, 273, 49, 400, 176
-0.976517, 33, 161, 160, 288
-0.976646, 265, 193, 328, 320
-0.977177, 393, 193, 456, 256
-0.97719, 345, 169, 408, 232
-0.977286, 257, 273, 320, 336
-0.977417, 369, 33, 496, 160
-0.977612, 385, 177, 416, 304
-0.977726, 33, 193, 96, 320
-0.977798, 409, 209, 440, 272
-0.978018, 309, 241, 340, 368
-0.978106, 265, 297, 328, 360
-0.978111, 309, 241, 340, 304
-0.978134, 33, 209, 96, 272
-0.97834, 357, 233, 388, 296
-0.978372, 345, 217, 376, 280
-0.978571, 385, 193, 416, 256
-0.97859, 433, 313, 496, 375
-0.978714, 137, 113, 200, 176
-0.978748, 397, 217, 428, 280
-0.978842, 113, 153, 176, 216
-0.978927, 249, 129, 312, 256
-0.979119, 201, 241, 264, 368
-0.979243, 313, 217, 344, 280
-0.979531, 241, 129, 368, 256
-0.979649, 297, 289, 360, 352
-0.979758, 401, 129, 464, 256
-0.979846, 425, 217, 488, 280
-0.979863, 257, 17, 500, 144
-0.979921, 305, 193, 432, 256
-0.980166, 73, 225, 136, 288
-0.980336, 393, 313, 456, 375
-0.980577, 249, 137, 312, 200
-0.981082, 193, 81, 320, 208
-0.981102, 337, 41, 400, 104
-0.981306, 273, 225, 336, 288
-0.981337, 373, 217, 404, 280
-0.981372, 329, 257, 392, 320
-0.981446, 193, 289, 320, 352
-0.981457, 345, 129, 408, 375
-0.981466, 113, 129, 176, 192
-0.981527, 353, 129, 480, 256
-0.981561, 225, 129, 288, 256
-0.981728, 297, 193, 360, 256
-0.981831, 297, 265, 360, 328
-0.98207, 329, 241, 392, 368
-0.982149, 401, 193, 432, 320
-0.982177, 49, 209, 176, 336
-0.982215, 201, 273, 264, 336
-0.982412, 373, 161, 404, 288
-0.982419, 225, 137, 288, 200
-0.982434, 209, 265, 336, 328
-0.982459, 265, 249, 328, 312
-0.982611, 433, 241, 496, 368
-0.982698, 225, 217, 352, 280
-0.982716, 289, 265, 416, 328
-0.982748, 113, 153, 240, 216
-0.982822, 33, 113, 160, 240
-0.982882, 401, 241, 432, 304
-0.983063, 17, 217, 144, 280
-0.983132, 369, 177, 400, 240
-0.983243, 265, 129, 328, 375
-0.983259, 321, 177, 384, 240
-0.983499, 193, 137, 320, 200
-0.983514, 345, 241, 376, 304
-0.983572, 89, 161, 152, 288
-0.984074, 297, 249, 328, 312
-0.984101, 385, 129, 448, 375
-0.984343, 289, 241, 320, 368
-0.98439, 325, 177, 356, 304
-0.984441, 113, 97, 176, 352
-0.98446, 309, 193, 340, 320
-0.984579, 425, 225, 456, 288
-0.984672, 297, 65, 360, 128
-0.984716, 225, 241, 352, 304
-0.984738, 9, 193, 72, 320
-0.984885, 337, 249, 464, 312
-0.98502, 289, 1, 416, 128
-0.985024, 289, 273, 320, 336
-0.985087, 337, 137, 400, 200
-0.985198, 393, 241, 424, 368
-0.985266, 385, 169, 416, 232
-0.985408, 281, 49, 344, 176
-0.985415, 169, 153, 232, 216
-0.985543, 409, 241, 440, 368
-0.98556, 113, 225, 240, 352
-0.985585, 413, 193, 444, 320
-0.985628, 369, 201, 496, 264
-0.985829, 73, 193, 136, 256
-0.985839, 353, 33, 384, 160
-0.985871, 273, 313, 400, 375
-0.985879, 409, 241, 472, 304
-0.98588, 297, 169, 360, 232
-0.985908, 273, 289, 400, 352
-0.986384, 273, 201, 336, 264
-0.986466, 193, 313, 320, 375
-0.986609, 169, 81, 232, 208
-0.986808, 321, 145, 384, 272
-0.986834, 337, 33, 400, 288
-0.986894, 137, 145, 200, 272
-0.986989, 357, 177, 388, 304
-0.987058, 129, 113, 256, 176
-0.987154, 369, 153, 432, 216
-0.987279, 337, 65, 400, 128
-0.987333, 337, 1, 400, 375
-0.987379, 345, 81, 408, 208
-0.987407, 97, 209, 160, 336
-0.987426, 409, 241, 472, 368
-0.987433, 161, 113, 224, 176
-0.987462, 369, 265, 432, 328
-0.987511, 129, 89, 192, 152
-0.987545, 377, 81, 440, 208
-0.987601, 413, 241, 444, 304
-0.987623, 321, 225, 352, 352
-0.987662, 233, 97, 296, 352
-0.987742, 137, 145, 200, 208
-0.98785, 469, 313, 500, 375
-0.987915, 289, 97, 352, 224
-0.987923, 297, 1, 360, 375
-0.988029, 289, 297, 320, 360
-0.988051, 169, 145, 232, 272
-0.988089, 281, 41, 344, 104
-0.988198, 345, 193, 376, 256
-0.988274, 9, 209, 72, 272
-0.988328, 249, 241, 312, 368
-0.988334, 437, 217, 468, 280
-0.98845, 297, 313, 360, 375
-0.988462, 85, 217, 116, 280
-0.988467, 153, 89, 216, 152
-0.988487, 429, 193, 460, 320
-0.988599, 97, 201, 160, 264
-0.988604, 257, 81, 320, 208
-0.988625, 297, 241, 360, 272
-0.988634, 425, 193, 488, 320
-0.988658, 353, 245, 416, 276
-0.988745, 369, 81, 496, 208
-0.98878, 357, 209, 388, 272
-0.98878, 289, 65, 352, 320
-0.988856, 257, 249, 500, 312
-0.988901, 85, 209, 116, 336
-0.988902, 321, 105, 448, 168
-0.988978, 33, 193, 160, 256
-0.988991, 57, 161, 120, 288
-0.988996, 1, 17, 256, 144
-0.989148, 305, 253, 368, 284
-0.98917, 289, 137, 416, 200
-0.989191, 321, 237, 384, 268
-0.989246, 401, 337, 464, 368
-0.989335, 353, 197, 416, 228
-0.989356, 201, 249, 264, 312
-0.989401, 225, 169, 352, 232
-0.989507, 365, 257, 396, 320
-0.989534, 97, 233, 128, 296
-0.989571, 289, 57, 416, 120
-0.989582, 377, 337, 440, 368
-0.989615, 337, 177, 368, 304
-0.989657, 305, 161, 432, 224
-0.989659, 377, 33, 408, 160
-0.989705, 369, 209, 400, 336
-0.989805, 193, 145, 256, 272
-0.989865, 385, 213, 448, 244
-0.989877, 121, 65, 184, 192
-0.989998, 369, 81, 496, 144
-0.990074, 297, 177, 328, 304
-0.990089, 133, 129, 164, 192
-0.990177, 121, 113, 152, 240
-0.990201, 393, 265, 456, 328
-0.990234, 369, 113, 400, 240
-0.99025, 425, 341, 488, 372
-0.990277, 301, 217, 332, 280
-0.990306, 417, 217, 480, 248
-0.990347, 329, 249, 392, 280
-0.990463, 213, 241, 244, 368
-0.990488, 249, 113, 312, 176
-0.990489, 377, 253, 440, 284
-0.990491, 193, 153, 256, 216
-0.990506, 361, 121, 424, 184
-0.990532, 257, 193, 384, 256
-0.990538, 81, 73, 208, 136
-0.990579, 81, 201, 208, 264
-0.990584, 161, 81, 192, 144
-0.9906, 305, 185, 336, 248
-0.990653, 129, 89, 256, 152
-0.990663, 369, 313, 496, 375
-0.990676, 381, 97, 412, 224
-0.99069, 361, 209, 424, 240
-0.990762, 345, 185, 408, 216
-0.990862, 297, 229, 360, 260
-0.990897, 321, 81, 384, 208
-0.99096, 393, 241, 456, 272
-0.990985, 377, 225, 440, 256
-0.990991, 161, 81, 192, 208
-0.991001, 321, 201, 384, 232
-0.99111, 65, 129, 192, 192
-0.991161, 73, 217, 104, 280
-0.991251, 265, 1, 328, 375
-0.991273, 353, 221, 416, 252
-0.991274, 257, 225, 500, 288
-0.9913, 377, 197, 440, 228
-0.991329, 105, 241, 136, 368
-0.991346, 313, 33, 376, 288
-0.991363, 113, 177, 176, 240
-0.991409, 329, 261, 392, 292
-0.99146, 273, 237, 336, 268
-0.991526, 265, 293, 328, 324
-0.991578, 289, 197, 352, 228
-0.991584, 297, 217, 360, 248
-0.991603, 353, 257, 416, 288
-0.991611, 285, 129, 316, 256
-0.991709, 313, 189, 376, 220
-0.99173, 257, 281, 320, 312
-0.991733, 321, 213, 384, 244
-0.99174, 201, 281, 264, 312
-0.991745, 73, 225, 136, 256
-0.991778, 241, 137, 368, 200
-0.991837, 113, 161, 176, 192
-0.991843, 297, 289, 360, 320
-0.991878, 449, 313, 480, 375
-0.991905, 313, 241, 344, 272
-0.991913, 225, 273, 256, 336
-0.991915, 265, 309, 328, 340
-0.991927, 121, 153, 152, 216
-0.991933, 425, 229, 488, 260
-0.991948, 209, 297, 272, 360
-0.991959, 33, 217, 96, 248
-0.991973, 113, 141, 176, 172
-0.991984, 401, 253, 464, 284
-0.992026, 265, 269, 328, 300
-0.99204, 97, 233, 160, 296
-0.992052, 249, 137, 312, 168
-0.992074, 289, 145, 352, 208
-0.992081, 209, 33, 336, 160
-0.992099, 297, 301, 360, 332
-0.992105, 305, 289, 336, 352
-0.992107, 225, 225, 288, 352
-0.992122, 297, 269, 360, 300
-0.99214, 401, 145, 432, 272
-0.992145, 209, 129, 272, 375
-0.992149, 273, 225, 336, 256
-0.992151, 425, 329, 488, 360
-0.99216, 313, 41, 376, 72
-0.992175, 369, 185, 432, 216
-0.992181, 313, 17, 376, 80
-0.992214, 345, 173, 408, 204
-0.992231, 273, 177, 336, 240
-0.99225, 401, 337, 432, 368
-0.992256, 329, 237, 360, 268
-0.992285, 385, 265, 448, 296
-0.992307, 345, 233, 408, 264
-0.992322, 1, 221, 64, 252
-0.992325, 377, 245, 408, 276
-0.992329, 353, 341, 416, 372
-0.992341, 281, 253, 344, 284
-0.992354, 341, 241, 372, 272
-0.992361, 313, 53, 376, 84
-0.992399, 97, 233, 160, 264
-0.992428, 241, 65, 368, 128
-0.992429, 321, 225, 384, 256
-0.992434, 289, 33, 416, 96
-0.992438, 337, 225, 368, 352
-0.99244, 321, 81, 448, 144
-0.992449, 385, 197, 416, 228
-0.992455, 305, 69, 368, 100
-0.992459, 169, 161, 232, 192
-0.99246, 73, 169, 136, 232
-0.992482, 105, 257, 136, 320
-0.992495, 213, 273, 244, 336
-0.992513, 385, 325, 448, 356
-0.992525, 381, 241, 412, 368
-0.992541, 397, 193, 428, 256
-0.992559, 217, 249, 248, 312
-0.992567, 157, 113, 188, 176
-0.992568, 301, 245, 332, 276
-0.992579, 137, 141, 200, 172
-0.992583, 345, 153, 408, 184
-0.992586, 289, 245, 416, 276
-0.992591, 273, 209, 336, 240
-0.992597, 377, 173, 440, 204
-0.9926, 353, 241, 384, 272
-0.992605, 433, 273, 496, 336
-0.992614, 389, 249, 420, 280
-0.992619, 241, 129, 272, 192
-0.992622, 337, 61, 400, 92
-0.992626, 353, 329, 416, 360
-0.992627, 97, 217, 160, 248
-0.992635, 89, 129, 152, 375
-0.992636, 73, 245, 136, 276
-0.992638, 401, 229, 464, 260
-0.99264, 429, 337, 460, 368
-0.992641, 209, 297, 272, 328
-0.992645, 297, 177, 360, 208
-0.992665, 113, 177, 240, 240
-0.99267, 265, 321, 328, 352
-0.992671, 413, 345, 444, 375
-0.992671, 429, 313, 460, 375
-0.992682, 353, 33, 416, 64
-0.992688, 37, 209, 68, 272
-0.992693, 209, 193, 336, 256
-0.992695, 297, 313, 360, 344
-0.992698, 201, 269, 264, 300
-0.992698, 201, 129, 264, 192
-0.992699, 257, 257, 320, 288
-0.9927, 281, 137, 312, 200
-0.992721, 17, 225, 48, 288
-0.992723, 73, 305, 136, 368
-0.99273, 457, 341, 488, 372
-0.99273, 73, 201, 136, 232
-0.992733, 61, 209, 92, 272
-0.992733, 309, 229, 340, 260
-0.99276, 365, 201, 396, 232
-0.992768, 313, 253, 344, 284
-0.992777, 433, 217, 464, 248
-0.992778, 401, 245, 432, 276
-0.992792, 297, 325, 360, 356
-0.992794, 337, 45, 400, 76
-0.992807, 389, 333, 420, 364
-0.99281, 325, 249, 356, 280
-0.992815, 289, 257, 416, 288
-0.992817, 389, 209, 420, 240
-0.99282, 225, 137, 288, 168
-0.992826, 361, 33, 424, 288
-0.992834, 161, 217, 416, 280
-0.992839, 65, 225, 192, 288
-0.992842, 389, 33, 420, 160
-0.992863, 401, 257, 432, 288
-0.992863, 273, 113, 400, 176
-0.992864, 373, 185, 404, 216
-0.992881, 365, 245, 396, 276
-0.992882, 105, 193, 136, 320
-0.992887, 241, 297, 304, 328
-0.99289, 73, 249, 136, 312
-0.992892, 297, 345, 360, 375
-0.992899, 417, 333, 448, 364
-0.9929, 369, 153, 400, 216
-0.992907, 425, 97, 488, 352
-0.992914, 337, 253, 368, 284
-0.992915, 257, 201, 500, 264
-0.992918, 73, 213, 136, 244
-0.992918, 409, 129, 472, 192
-0.992923, 97, 245, 160, 276
-0.99293, 33, 169, 160, 232
-0.992936, 385, 221, 416, 252
-0.992946, 409, 225, 440, 256
-0.99295, 337, 73, 400, 104
-0.992955, 381, 345, 412, 375
-0.992956, 209, 153, 272, 184
-0.992958, 389, 265, 420, 328
-0.992965, 409, 213, 440, 244
-0.992982, 361, 257, 392, 288
-0.992986, 353, 197, 384, 228
-0.992997, 85, 225, 116, 256
-0.993, 289, 225, 320, 288
-0.993007, 369, 153, 496, 216
-0.993012, 233, 285, 296, 316
-0.993014, 293, 281, 324, 312
-0.993028, 445, 341, 476, 372
-0.993034, 265, 333, 328, 364
-0.99304, 297, 233, 328, 264
-0.993053, 433, 317, 496, 348
-0.993054, 297, 81, 360, 112
-0.99307, 361, 141, 424, 172
-0.993079, 373, 173, 404, 204
-0.993081, 37, 193, 68, 320
-0.993083, 161, 93, 224, 124
-0.993084, 425, 205, 488, 236
-0.993085, 297, 165, 360, 196
-0.99309, 397, 233, 428, 264
-0.993095, 381, 265, 412, 296
-0.993096, 417, 241, 480, 272
-0.993096, 265, 185, 328, 216
-0.993101, 377, 209, 408, 240
-0.993107, 137, 161, 200, 192
-0.993112, 265, 345, 328, 375
-0.993119, 321, 29, 384, 60
-0.99313, 105, 237, 136, 268
-0.993138, 337, 57, 464, 120
-0.993144, 73, 281, 136, 344
-0.993146, 229, 281, 260, 312
-0.99315, 97, 281, 128, 344
-0.99315, 377, 157, 440, 188
-0.993155, 289, 45, 352, 76
-0.993165, 349, 253, 380, 284
-0.993168, 469, 325, 500, 356
-0.993176, 289, 293, 320, 324
-0.993197, 321, 225, 352, 256
-0.993212, 421, 217, 452, 248
-0.993217, 425, 269, 488, 300
-0.993219, 129, 141, 160, 172
-0.993222, 385, 185, 416, 216
-0.993235, 305, 197, 336, 228
-0.993238, 289, 245, 320, 276
-0.993241, 297, 153, 360, 184
-0.993245, 457, 221, 488, 252
-0.993246, 469, 345, 500, 375
-0.993248, 361, 181, 392, 212
-0.99325, 161, 105, 224, 136
-0.993269, 305, 209, 336, 240
-0.993272, 401, 201, 432, 232
-0.993274, 233, 81, 296, 208
-0.993279, 413, 245, 444, 276
-0.99328, 233, 289, 296, 352
-0.993283, 377, 129, 440, 160
-0.993285, 161, 65, 288, 128
-0.99329, 333, 225, 364, 256
-0.993294, 289, 305, 320, 336
-0.993299, 137, 113, 200, 144
-0.993309, 289, 57, 352, 88
-0.993309, 325, 213, 356, 244
-0.993322, 257, 165, 320, 196
-0.993323, 341, 197, 372, 228
-0.993324, 49, 65, 176, 192
-0.99333, 405, 325, 436, 356
-0.993333, 105, 253, 136, 284
-0.993338, 257, 149, 320, 180
-0.99334, 141, 141, 172, 172
-0.993343, 137, 129, 200, 160
-0.993348, 365, 213, 396, 244
-0.993348, 293, 269, 324, 300
-0.993349, 73, 217, 104, 248
-0.993353, 301, 257, 332, 288
-0.993357, 161, 149, 224, 180
-0.993359, 385, 165, 416, 196
-0.993364, 309, 285, 340, 316
-0.993367, 445, 217, 476, 248
-0.993377, 177, 257, 240, 288
-0.99338, 349, 185, 380, 216
-0.993384, 365, 233, 396, 264
-0.993386, 73, 113, 136, 240
-0.993386, 121, 157, 152, 188
-0.993397, 97, 257, 160, 288
-0.993401, 321, 177, 384, 208
-0.993402, 237, 129, 268, 256
-0.993404, 137, 101, 200, 132
-0.993407, 169, 129, 232, 375
-0.993409, 73, 309, 136, 340
-0.993409, 105, 225, 136, 256
-0.993411, 153, 81, 216, 112
-0.993413, 193, 141, 256, 172
-0.993417, 309, 273, 340, 304
-0.993419, 17, 225, 48, 256
-0.993422, 397, 221, 428, 252
-0.993422, 37, 217, 68, 248
-0.993424, 97, 293, 128, 324
-0.993425, 345, 229, 376, 260
-0.993431, 165, 85, 196, 116
-0.993433, 289, 317, 320, 348
-0.993437, 9, 205, 72, 236
-0.99344, 73, 289, 136, 320
-0.993442, 321, 197, 352, 228
-0.993444, 165, 101, 196, 132
-0.993446, 105, 273, 136, 304
-0.993449, 101, 213, 132, 244
-0.993452, 213, 265, 244, 296
-0.993454, 469, 225, 500, 256
-0.993458, 433, 257, 496, 288
-0.993462, 281, 137, 312, 168
-0.993464, 357, 37, 388, 68
-0.993466, 285, 229, 316, 260
-0.993468, 217, 277, 248, 308
-0.993469, 341, 33, 372, 160
-0.99347, 385, 233, 416, 264
-0.993471, 301, 297, 332, 328
-0.993472, 201, 257, 264, 288
-0.993472, 73, 277, 136, 308
-0.993472, 193, 165, 256, 196
-0.993474, 73, 325, 136, 356
-0.993482, 97, 269, 160, 300
-0.993484, 41, 205, 104, 236
-0.993485, 241, 137, 272, 168
-0.993491, 429, 229, 460, 260
-0.993491, 93, 305, 124, 336
-0.993504, 217, 177, 248, 304
-0.993504, 193, 113, 320, 176
-0.993504, 353, 217, 384, 248
-0.993512, 113, 173, 176, 204
-0.993518, 1, 213, 32, 244
-0.993518, 1, 225, 32, 256
-0.993518, 105, 193, 168, 224
-0.993521, 305, 325, 336, 356
-0.993528, 1, 241, 32, 272
-0.993528, 305, 185, 336, 216
-0.993529, 265, 33, 328, 288
-0.993538, 201, 161, 232, 192
-0.993538, 357, 177, 388, 240
-0.993539, 385, 33, 416, 64
-0.993539, 185, 297, 248, 328
-0.993539, 465, 241, 496, 368
-0.99354, 213, 305, 244, 336
-0.993545, 469, 313, 500, 344
-0.993549, 281, 69, 344, 100
-0.993558, 61, 217, 92, 248
-0.993559, 413, 257, 444, 288
-0.993564, 381, 33, 412, 96
-0.993565, 457, 209, 488, 240
-0.993568, 309, 313, 340, 344
-0.99357, 225, 165, 288, 196
-0.993574, 89, 241, 120, 272
-0.99358, 289, 329, 320, 360
-0.993587, 341, 213, 372, 244
-0.993596, 369, 41, 400, 72
-0.993599, 297, 221, 328, 252
-0.993602, 421, 205, 452, 236
-0.993604, 257, 313, 500, 375
-0.993611, 281, 281, 312, 312
-0.993611, 233, 297, 264, 328
-0.993612, 93, 253, 124, 284
-0.993613, 377, 333, 408, 364
-0.993617, 217, 161, 248, 192
-0.993617, 173, 149, 204, 180
-0.993617, 433, 205, 464, 236
-0.993618, 145, 161, 176, 192
-0.99362, 105, 309, 136, 340
-0.993621, 177, 97, 208, 128
-0.993624, 217, 249, 248, 280
-0.993625, 369, 161, 400, 192
-0.993627, 305, 337, 336, 368
-0.993633, 97, 265, 160, 328
-0.993634, 177, 241, 304, 368
-0.993682, 105, 209, 136, 272
-0.993761, 1, 145, 64, 272
-0.993773, 369, 341, 496, 372
-0.993842, 133, 113, 164, 240
-0.993849, 329, 177, 360, 240
-0.993868, 357, 33, 388, 96
-0.993947, 273, 65, 336, 128
-0.994065, 361, 1, 424, 375
-0.994067, 309, 265, 340, 328
-0.994192, 225, 241, 256, 368
-0.994194, 117, 161, 148, 288
-0.99422, 391, 241, 406, 304
-0.99422, 425, 193, 456, 256
-0.994281, 397, 241, 412, 304
-0.994361, 353, 177, 480, 240
-0.994371, 33, 249, 160, 312
-0.994371, 145, 281, 272, 344
-0.99438, 433, 193, 496, 256
-0.99438, 1, 217, 500, 280
-0.994408, 81, 49, 208, 112
-0.994425, 97, 153, 352, 216
-0.994483, 433, 105, 496, 168
-0.994484, 257, 89, 384, 152
-0.99451, 193, 81, 256, 208
-0.994516, 241, 1, 304, 375
-0.994545, 409, 313, 440, 375
-0.994554, 149, 153, 180, 216
-0.994561, 1, 185, 500, 248
-0.994567, 241, 41, 368, 104
-0.994572, 193, 137, 448, 200
-0.994619, 399, 201, 414, 264
-0.994631, 379, 241, 394, 304
-0.994632, 289, 217, 416, 248
-0.99467, 369, 33, 496, 96
-0.99468, 1, 185, 64, 248
-0.994687, 161, 241, 416, 304
-0.994692, 257, 273, 500, 336
-0.994694, 313, 233, 328, 296
-0.994697, 161, 33, 224, 160
-0.9947, 289, 233, 416, 264
-0.994722, 197, 145, 228, 272
-0.994782, 149, 81, 180, 144
-0.994782, 129, 273, 384, 336
-0.994786, 61, 193, 92, 320
-0.994797, 353, 17, 416, 80
-0.99481, 381, 217, 396, 280
-0.994834, 403, 233, 418, 296
-0.994869, 347, 233, 362, 296
-0.994884, 367, 217, 382, 280
-0.994923, 369, 129, 496, 192
-0.994954, 421, 241, 452, 368
-0.995019, 173, 81, 204, 208
-0.995033, 153, 33, 216, 288
-0.995049, 393, 1, 456, 375
-0.995069, 385, 241, 400, 304
-0.99507, 113, 305, 240, 368
-0.995091, 121, 129, 152, 192
-0.9951, 303, 241, 318, 304
-0.995104, 365, 17, 396, 144
-0.995131, 385, 169, 400, 232
-0.995167, 109, 233, 140, 296
-0.995203, 73, 1, 136, 375
-0.995207, 329, 209, 344, 272
-0.995218, 129, 297, 384, 360
-0.995218, 177, 257, 240, 320
-0.995236, 341, 233, 356, 296
-0.995239, 121, 1, 184, 375
-0.995261, 33, 185, 96, 248
-0.99528, 25, 193, 56, 320
-0.995281, 409, 225, 424, 288
-0.995316, 169, 113, 200, 176
-0.995328, 1, 241, 500, 304
-0.995352, 145, 121, 176, 184
-0.995358, 337, 209, 352, 272
-0.995361, 337, 249, 464, 280
-0.995377, 369, 313, 432, 375
-0.995385, 165, 145, 196, 208
-0.995394, 377, 97, 440, 160
-0.995409, 319, 225, 334, 288
-0.995416, 161, 1, 288, 128
-0.995431, 393, 41, 408, 104
-0.995443, 391, 217, 406, 280
-0.995492, 81, 105, 208, 168
-0.9955, 353, 233, 368, 296
-0.995508, 209, 281, 336, 312
-0.995516, 181, 153, 212, 216
-0.995528, 237, 281, 268, 344
-0.995532, 145, 81, 176, 208
-0.995543, 371, 241, 386, 304
-0.995552, 305, 205, 432, 236
-0.995586, 225, 161, 288, 224
-0.995591, 185, 1, 248, 375
-0.995618, 483, 313, 498, 375
-0.995622, 337, 237, 464, 268
-0.995635, 97, 33, 224, 160
-0.995641, 345, 97, 376, 224
-0.995652, 431, 225, 446, 288
-0.995663, 217, 1, 280, 375
-0.995666, 257, 177, 500, 240
-0.995667, 81, 249, 208, 312
-0.995671, 173, 73, 204, 136
-0.995676, 177, 81, 240, 144
-0.995697, 385, 129, 448, 192
-0.995702, 1, 313, 500, 375
-0.995704, 385, 41, 400, 104
-0.995713, 381, 57, 412, 120
-0.995715, 225, 113, 288, 176
-0.995716, 289, 189, 416, 220
-0.99572, 375, 217, 390, 280
-0.995721, 353, 209, 480, 240
-0.995737, 393, 153, 456, 216
-0.995742, 469, 273, 500, 336
-0.995743, 161, 1, 224, 375
-0.995747, 385, 33, 448, 288
-0.995793, 149, 145, 180, 272
-0.995828, 241, 245, 368, 276
-0.995854, 1, 221, 128, 252
-0.995856, 161, 41, 288, 104
-0.995869, 361, 233, 376, 296
-0.995877, 377, 265, 408, 328
-0.995882, 321, 129, 384, 375
-0.995884, 321, 313, 448, 375
-0.995901, 273, 97, 336, 160
-0.995901, 201, 153, 232, 216
-0.995912, 433, 97, 496, 224
-0.995922, 391, 65, 406, 128
-0.995955, 305, 313, 336, 375
-0.996, 345, 89, 408, 152
-0.996037, 309, 145, 340, 272
-0.996096, 369, 41, 400, 104
-0.996099, 405, 201, 420, 264
-0.996113, 97, 185, 352, 248
-0.996116, 209, 293, 336, 324
-0.996119, 13, 193, 44, 320
-0.996122, 281, 81, 312, 208
-0.99613, 241, 249, 304, 312
-0.996154, 345, 209, 360, 272
-0.996158, 433, 249, 496, 312
-0.996179, 357, 81, 388, 144
-0.996187, 345, 41, 376, 104
-0.9962, 333, 257, 364, 320
-0.996214, 97, 289, 160, 352
-0.996216, 209, 89, 336, 152
-0.996268, 413, 145, 444, 272
-0.996277, 209, 309, 336, 340
-0.996278, 387, 193, 402, 256
-0.996279, 153, 65, 216, 128
-0.99628, 335, 233, 350, 296
-0.996282, 373, 105, 404, 168
-0.996285, 225, 177, 288, 304
-0.99629, 25, 145, 88, 272
-0.99631, 17, 137, 144, 200
-0.996314, 337, 221, 464, 252
-0.996317, 241, 229, 368, 260
-0.996332, 329, 233, 344, 296
-0.99634, 89, 121, 152, 184
-0.996352, 113, 225, 240, 288
-0.996361, 73, 193, 104, 320
-0.996366, 49, 193, 80, 320
-0.996416, 1, 209, 256, 272
-0.996433, 321, 333, 448, 364
-0.996433, 361, 41, 376, 104
-0.996445, 379, 193, 394, 256
-0.996456, 225, 113, 480, 176
-0.996456, 385, 65, 400, 128
-0.996474, 225, 269, 352, 300
-0.99648, 177, 161, 304, 224
-0.996482, 439, 209, 454, 272
-0.996483, 395, 177, 410, 240
-0.996515, 355, 41, 370, 104
-0.996524, 411, 249, 426, 312
-0.996539, 303, 289, 318, 352
-0.996547, 357, 81, 388, 208
-0.996575, 361, 41, 424, 104
-0.996577, 423, 217, 438, 280
-0.996608, 345, 313, 408, 375
-0.996612, 361, 1, 424, 128
-0.996618, 33, 273, 160, 336
-0.996623, 361, 193, 376, 256
-0.99663, 81, 273, 208, 336
-0.996633, 357, 241, 388, 368
-0.996635, 369, 329, 496, 360
-0.996691, 49, 209, 80, 272
-0.996699, 93, 305, 124, 368
-0.996702, 351, 209, 366, 272
-0.99671, 289, 269, 416, 300
-0.99672, 1, 1, 64, 375
-0.996729, 117, 209, 148, 336
-0.996765, 445, 209, 460, 272
-0.996767, 357, 129, 388, 256
-0.996771, 415, 217, 430, 280
-0.996776, 337, 113, 400, 176
-0.996814, 341, 169, 372, 232
-0.996818, 377, 41, 392, 104
-0.996849, 1, 161, 500, 224
-0.996869, 303, 265, 318, 328
-0.996872, 289, 121, 352, 184
-0.996879, 345, 257, 360, 320
-0.996893, 113, 161, 240, 192
-0.996897, 109, 225, 124, 288
-0.996908, 185, 33, 248, 288
-0.996913, 385, 145, 416, 208
-0.996929, 331, 233, 346, 264
-0.996934, 313, 257, 328, 320
-0.99695, 57, 129, 120, 375
-0.99696, 221, 137, 252, 200
-0.996976, 105, 145, 136, 272
-0.996976, 453, 209, 484, 272
-0.996978, 371, 185, 386, 248
-0.996991, 97, 121, 352, 184
-0.996997, 209, 141, 336, 172
-0.997005, 421, 241, 436, 304
-0.997025, 201, 193, 264, 320
-0.997026, 369, 289, 496, 352
-0.99703, 217, 97, 248, 224
-0.997037, 165, 73, 180, 136
-0.997044, 273, 177, 400, 208
-0.99706, 273, 301, 400, 332
-0.997098, 337, 265, 464, 296
-0.997104, 391, 89, 406, 152
-0.997106, 357, 257, 372, 320
-0.99711, 337, 237, 352, 268
-0.997111, 329, 49, 360, 176
-0.997124, 381, 97, 412, 352
-0.997133, 311, 209, 326, 272
-0.997144, 385, 89, 400, 152
-0.997148, 405, 257, 420, 320
-0.997149, 289, 285, 416, 316
-0.997171, 273, 321, 400, 352
-0.997187, 73, 33, 136, 288
-0.9972, 371, 33, 386, 96
-0.997201, 325, 241, 340, 272
-0.997222, 351, 257, 366, 320
-0.99723, 105, 305, 136, 368
-0.997232, 303, 217, 318, 280
-0.997233, 379, 169, 394, 232
-0.997251, 397, 313, 428, 375
-0.997253, 385, 197, 400, 228
-0.997261, 349, 41, 364, 104
-0.997265, 249, 161, 312, 224
-0.997271, 99, 217, 114, 280
-0.997279, 1, 305, 128, 368
-0.997284, 123, 153, 138, 216
-0.997293, 241, 257, 368, 288
-0.997304, 217, 193, 248, 256
-0.997311, 403, 341, 418, 372
-0.997314, 401, 253, 416, 284
-0.997328, 323, 201, 338, 264
-0.997335, 289, 345, 416, 375
-0.997337, 353, 65, 368, 128
-0.99735, 425, 249, 456, 312
-0.997368, 345, 73, 376, 136
-0.997382, 395, 249, 410, 280
-0.997401, 433, 1, 496, 375
-0.997401, 477, 313, 492, 375
-0.997429, 359, 73, 374, 136
-0.997432, 397, 153, 428, 216
-0.997439, 295, 137, 310, 200
-0.997449, 97, 97, 352, 160
-0.997451, 313, 237, 328, 268
-0.997467, 243, 129, 258, 192
-0.997478, 109, 257, 124, 320
-0.997483, 365, 257, 380, 320
-0.997493, 1, 153, 256, 216
-0.997494, 85, 161, 116, 288
-0.997496, 177, 241, 304, 304
-0.9975, 237, 273, 252, 336
-0.997502, 397, 265, 412, 328
-0.997518, 429, 337, 444, 368
-0.997519, 1, 201, 32, 264
-0.99752, 381, 177, 396, 208
-0.997538, 209, 321, 336, 352
-0.997542, 137, 121, 152, 184
-0.997543, 145, 201, 272, 264
-0.997543, 401, 265, 432, 328
-0.997544, 343, 241, 358, 272
-0.997546, 321, 89, 384, 152
-0.997551, 337, 249, 352, 280
-0.997555, 399, 201, 414, 232
-0.997558, 407, 249, 422, 280
-0.997559, 365, 245, 380, 276
-0.997559, 423, 345, 438, 375
-0.997561, 331, 245, 346, 276
-0.997578, 273, 333, 400, 364
-0.997585, 225, 217, 352, 248
-0.997585, 415, 333, 430, 364
-0.997589, 375, 201, 390, 232
-0.99759, 1, 185, 256, 248
-0.99759, 375, 73, 390, 136
-0.997596, 161, 193, 288, 320
-0.997615, 391, 193, 406, 224
-0.997619, 437, 233, 452, 296
-0.997621, 347, 73, 362, 136
-0.997624, 225, 41, 480, 104
-0.997637, 313, 249, 328, 280
-0.997637, 357, 57, 388, 120
-0.997643, 65, 313, 192, 375
-0.997656, 143, 129, 158, 192
-0.997656, 319, 237, 334, 268
-0.997661, 97, 73, 352, 136
-0.997666, 163, 121, 178, 184
-0.99767, 441, 337, 456, 368
-0.997688, 225, 205, 352, 236
-0.997689, 1, 225, 32, 288
-0.997694, 229, 177, 260, 304
-0.997699, 177, 33, 208, 160
-0.997704, 373, 185, 388, 216
-0.997705, 355, 241, 370, 272
-0.997707, 1, 129, 256, 192
-0.997723, 395, 345, 410, 375
-0.997735, 89, 217, 104, 280
-0.997735, 333, 65, 364, 128
-0.997741, 213, 153, 228, 216
-0.997743, 389, 245, 404, 276
-0.997751, 379, 245, 394, 276
-0.997752, 363, 197, 378, 228
-0.997755, 131, 121, 146, 184
-0.997761, 1, 265, 500, 328
-0.997764, 1, 73, 256, 136
-0.997768, 369, 57, 384, 120
-0.997768, 73, 209, 88, 272
-0.997772, 129, 65, 192, 128
-0.997791, 303, 245, 318, 276
-0.997796, 471, 341, 486, 372
-0.997803, 409, 337, 424, 368
-0.997813, 273, 165, 400, 196
-0.997815, 391, 265, 406, 328
-0.997816, 129, 141, 256, 172
-0.997824, 101, 185, 132, 248
-0.997827, 373, 245, 388, 276
-0.997833, 277, 289, 308, 352
-0.997842, 395, 153, 410, 216
-0.997847, 225, 181, 352, 212
-0.99785, 39, 209, 54, 272
-0.997857, 1, 177, 32, 304
-0.997862, 393, 37, 408, 68
-0.997872, 311, 289, 326, 352
-0.997873, 409, 185, 440, 248
-0.997873, 389, 341, 404, 372
-0.997881, 129, 49, 384, 112
-0.997884, 379, 145, 394, 208
-0.997885, 441, 313, 456, 375
-0.997888, 193, 161, 320, 192
-0.997897, 269, 137, 300, 200
-0.997901, 387, 37, 402, 68
-0.997909, 369, 33, 400, 288
-0.997912, 299, 313, 314, 375
-0.997914, 33, 209, 160, 240
-0.997919, 369, 17, 400, 80
-0.997923, 329, 185, 344, 248
-0.997929, 307, 185, 322, 248
-0.997938, 213, 297, 244, 360
-0.997939, 381, 209, 396, 240
-0.997939, 257, 33, 320, 160
-0.997944, 169, 225, 232, 352
-0.997954, 1, 233, 128, 264
-0.997959, 397, 329, 412, 360
-0.99796, 17, 113, 144, 176
-0.997963, 93, 257, 124, 320
-0.997973, 171, 145, 186, 208
-0.997979, 353, 153, 384, 216
-0.997981, 25, 1, 88, 375
-0.997985, 209, 225, 272, 288
-0.997992, 435, 341, 450, 372
-0.997993, 323, 249, 338, 312
-0.997994, 293, 273, 308, 336
-0.998002, 317, 201, 332, 264
-0.998004, 169, 97, 184, 160
-0.998007, 169, 121, 184, 184
-0.998017, 397, 189, 412, 220
-0.99802, 369, 129, 400, 192
-0.998021, 435, 217, 450, 248
-0.998026, 3, 209, 18, 272
-0.998028, 297, 89, 360, 152
-0.99803, 431, 201, 446, 264
-0.99803, 341, 65, 372, 320
-0.998034, 161, 145, 176, 208
-0.998038, 305, 77, 432, 108
-0.998044, 387, 181, 402, 212
-0.998045, 387, 137, 402, 200
-0.998052, 81, 225, 208, 256
-0.998054, 349, 241, 364, 272
-0.998058, 97, 1, 160, 375
-0.998064, 307, 161, 322, 224
-0.998064, 365, 81, 380, 144
-0.998074, 373, 261, 388, 292
-0.998075, 117, 209, 148, 272
-0.998078, 483, 321, 498, 352
-0.998081, 387, 17, 402, 80
-0.998085, 357, 1, 388, 256
-0.998101, 411, 193, 426, 256
-0.998101, 403, 329, 418, 360
-0.998105, 471, 313, 486, 375
-0.998108, 387, 209, 402, 240
-0.998109, 305, 97, 336, 224
-0.998111, 423, 333, 438, 364
-0.998112, 483, 273, 498, 336
-0.998116, 405, 209, 420, 240
-0.998118, 29, 225, 44, 288
-0.998119, 109, 281, 124, 344
-0.998122, 355, 105, 370, 168
-0.998123, 465, 341, 480, 372
-0.998123, 337, 181, 464, 212
-0.998129, 337, 185, 352, 248
-0.998129, 129, 129, 256, 160
-0.998131, 347, 253, 362, 284
-0.998135, 401, 241, 416, 272
-0.998146, 81, 213, 208, 244
-0.99815, 415, 345, 430, 375
-0.99815, 347, 185, 362, 248
-0.998156, 311, 313, 326, 375
-0.998162, 231, 273, 246, 336
-0.998169, 149, 129, 164, 192
-0.99817, 81, 217, 96, 280
-0.998175, 409, 225, 424, 256
-0.998178, 363, 185, 378, 216
-0.998181, 371, 161, 386, 224
-0.998187, 81, 141, 208, 172
-0.998194, 369, 197, 384, 228
-0.998194, 451, 217, 466, 280
-0.998195, 425, 217, 440, 248
-0.998199, 129, 257, 256, 320
-0.9982, 393, 49, 408, 80
-0.998202, 397, 265, 412, 296
-0.998212, 197, 97, 228, 224
-0.998217, 49, 1, 112, 375
-0.998217, 471, 221, 486, 252
-0.998217, 17, 225, 32, 288
-0.998219, 369, 93, 496, 124
-0.99822, 429, 113, 460, 240
-0.99822, 241, 1, 304, 256
-0.998223, 399, 217, 414, 248
-0.998226, 395, 17, 410, 80
-0.998234, 343, 41, 358, 104
-0.998234, 343, 97, 358, 160
-0.998234, 413, 245, 428, 276
-0.998235, 325, 229, 340, 260
-0.998236, 365, 169, 380, 232
-0.998241, 459, 345, 474, 375
-0.998245, 355, 197, 370, 228
-0.998245, 209, 185, 272, 248
-0.99825, 289, 153, 416, 184
-0.998256, 361, 105, 376, 168
-0.998258, 111, 201, 126, 264
-0.998259, 391, 85, 406, 116
-0.998261, 465, 313, 480, 375
-0.998268, 101, 229, 116, 260
-0.998273, 483, 333, 498, 364
-0.998279, 303, 233, 318, 264
-0.998294, 285, 193, 316, 320
-0.998297, 355, 37, 370, 68
-0.998299, 113, 173, 240, 204
-0.998306, 293, 239, 324, 254
-0.998307, 349, 195, 380, 210
-0.998308, 389, 225, 420, 240
-0.998309, 377, 261, 408, 276
-0.998309, 97, 297, 128, 312
-0.998309, 293, 277, 324, 292
-0.998309, 309, 281, 340, 296
-0.99831, 303, 281, 318, 312
-0.998311, 281, 141, 312, 156
-0.998312, 357, 211, 388, 226
-0.998313, 289, 317, 320, 332
-0.998314, 177, 93, 208, 108
-0.998316, 469, 333, 500, 348
-0.998316, 391, 61, 406, 92
-0.998317, 421, 235, 452, 250
-0.998317, 229, 283, 260, 298
-0.998317, 341, 213, 372, 228
-0.998318, 105, 233, 136, 248
-0.998318, 413, 333, 444, 348
-0.998319, 105, 253, 136, 268
-0.998321, 177, 111, 208, 126
-0.998322, 77, 221, 108, 236
-0.998323, 309, 287, 340, 302
-0.998324, 101, 221, 132, 236
-0.998324, 421, 225, 452, 240
-0.998325, 325, 209, 356, 224
-0.998325, 117, 129, 148, 375
-0.998326, 293, 297, 324, 312
-0.998327, 37, 219, 68, 234
-0.998327, 173, 81, 204, 96
-0.998328, 305, 201, 336, 216
-0.998328, 209, 333, 336, 364
-0.99833, 111, 233, 126, 264
-0.99833, 377, 205, 408, 220
-0.998331, 289, 305, 320, 320
-0.998331, 321, 217, 352, 232
-0.998333, 469, 353, 500, 368
-0.998333, 297, 49, 328, 176
-0.998335, 289, 249, 320, 264
-0.998336, 121, 159, 152, 174
-0.998338, 293, 291, 324, 306
-0.998338, 337, 207, 368, 222
-0.99834, 359, 253, 374, 284
-0.99834, 285, 169, 316, 232
-0.998342, 377, 219, 408, 234
-0.998344, 387, 49, 402, 80
-0.998345, 361, 187, 392, 202
-0.998345, 161, 115, 192, 130
-0.998345, 305, 213, 336, 228
-0.998346, 469, 347, 500, 362
-0.998347, 177, 101, 208, 116
-0.998348, 377, 353, 408, 368
-0.998349, 405, 235, 436, 250
-0.998349, 89, 229, 120, 244
-0.998351, 433, 347, 464, 362
-0.998353, 303, 297, 318, 328
-0.998353, 385, 243, 416, 258
-0.998354, 447, 341, 462, 372
-0.998355, 457, 361, 488, 375
-0.998357, 309, 233, 340, 248
-0.998357, 401, 229, 416, 260
-0.998359, 373, 241, 404, 256
-0.998361, 381, 193, 412, 208
-0.998362, 433, 339, 464, 354
-0.998366, 105, 243, 136, 258
-0.998368, 457, 223, 488, 238
-0.998372, 385, 255, 416, 270
-0.998375, 161, 85, 192, 100
-0.998377, 433, 227, 464, 242
-0.998378, 225, 193, 352, 224
-0.99838, 297, 251, 360, 266
-0.998381, 381, 267, 412, 282
-0.998381, 305, 61, 432, 92
-0.998383, 217, 161, 248, 224
-0.998385, 365, 257, 396, 272
-0.998386, 485, 309, 500, 340
-0.998387, 361, 205, 392, 220
-0.998388, 369, 181, 400, 196
-0.998389, 365, 265, 396, 280
-0.998389, 353, 239, 384, 254
-0.998391, 369, 199, 400, 214
-0.998392, 409, 229, 440, 244
-0.998393, 389, 339, 420, 354
-0.998393, 349, 201, 380, 216
-0.998397, 407, 261, 422, 292
-0.998397, 385, 249, 416, 264
-0.998398, 165, 109, 196, 124
-0.998399, 405, 129, 436, 375
-0.998399, 391, 265, 406, 296
-0.998402, 353, 249, 384, 264
-0.998404, 413, 345, 444, 360
-0.998404, 385, 77, 400, 108
-0.998406, 389, 1, 420, 256
-0.998407, 401, 335, 432, 350
-0.998408, 293, 283, 324, 298
-0.998411, 385, 265, 400, 296
-0.998411, 389, 219, 420, 234
-0.998413, 401, 257, 432, 272
-0.998414, 369, 211, 400, 226
-0.998414, 165, 93, 196, 108
-0.998414, 397, 241, 428, 256
-0.998414, 421, 219, 452, 234
-0.998416, 453, 341, 468, 372
-0.998418, 161, 101, 192, 116
-0.998418, 397, 359, 428, 374
-0.998421, 321, 89, 448, 120
-0.998422, 353, 261, 384, 276
-0.998425, 409, 223, 440, 238
-0.998425, 301, 253, 332, 268
-0.998425, 377, 361, 408, 375
-0.998426, 289, 129, 320, 375
-0.998426, 329, 257, 360, 272
-0.998427, 129, 139, 160, 154
-0.998427, 387, 169, 402, 200
-0.998428, 411, 213, 426, 244
-0.998428, 377, 187, 408, 202
-0.998428, 321, 245, 384, 260
-0.998433, 409, 359, 440, 374
-0.998434, 337, 237, 368, 252
-0.998434, 297, 241, 360, 256
-0.998436, 297, 257, 360, 272
-0.998437, 421, 339, 452, 354
-0.998438, 389, 205, 420, 220
-0.998439, 433, 353, 464, 368
-0.998439, 445, 221, 476, 236
-0.99844, 409, 241, 440, 256
-0.998441, 353, 255, 384, 270
-0.998443, 389, 261, 420, 276
-0.998444, 193, 233, 320, 264
-0.998445, 305, 225, 336, 240
-0.998446, 385, 65, 400, 96
-0.998446, 389, 333, 420, 348
-0.998451, 367, 257, 382, 288
-0.998451, 373, 247, 404, 262
-0.998451, 385, 93, 400, 124
-0.998453, 421, 357, 452, 372
-0.998453, 457, 345, 488, 360
-0.998454, 401, 247, 432, 262
-0.998455, 353, 253, 368, 284
-0.998458, 457, 355, 488, 370
-0.998459, 389, 353, 420, 368
-0.998459, 391, 73, 406, 104
-0.998462, 379, 189, 394, 220
-0.998462, 1, 137, 500, 200
-0.998464, 341, 243, 372, 258
-0.998467, 137, 153, 168, 216
-0.998468, 445, 355, 476, 370
-0.998468, 377, 37, 392, 68
-0.99847, 381, 213, 412, 228
-0.998475, 381, 347, 412, 362
-0.998477, 401, 353, 464, 368
-0.998477, 409, 215, 440, 230
-0.998482, 393, 213, 424, 228
-0.998482, 401, 263, 432, 278
-0.998483, 337, 251, 368, 266
-0.998486, 433, 359, 464, 374
-0.998491, 421, 351, 452, 366
-0.998492, 393, 209, 408, 240
-0.998492, 385, 343, 448, 358
-0.998494, 321, 235, 352, 250
-0.998495, 341, 257, 372, 272
-0.998502, 369, 361, 432, 375
-0.998503, 477, 345, 492, 375
-0.998506, 381, 199, 412, 214
-0.998506, 425, 225, 488, 240
-0.998507, 365, 193, 396, 208
-0.998512, 319, 249, 334, 280
-0.998514, 361, 255, 424, 270
-0.998517, 385, 215, 448, 230
-0.998526, 353, 97, 384, 352
-0.998532, 377, 243, 440, 258
-0.998534, 313, 255, 344, 270
-0.998536, 329, 239, 392, 254
-0.998537, 361, 211, 424, 226
-0.998538, 409, 359, 472, 374
-0.99854, 319, 225, 334, 256
-0.99854, 369, 129, 400, 375
-0.998541, 369, 355, 432, 370
-0.998543, 361, 201, 424, 216
-0.998547, 277, 241, 308, 368
-0.998548, 305, 239, 336, 254
-0.998549, 401, 353, 432, 368
-0.998554, 379, 261, 394, 292
-0.998554, 321, 251, 384, 266
-0.998555, 433, 361, 496, 375
-0.998556, 417, 341, 480, 356
-0.998556, 383, 341, 398, 372
-0.998556, 273, 137, 400, 168
-0.998558, 337, 97, 368, 160
-0.99856, 169, 129, 200, 256
-0.99856, 393, 221, 456, 236
-0.998563, 321, 259, 384, 274
-0.998563, 353, 249, 416, 264
-0.998564, 417, 213, 432, 244
-0.998565, 361, 41, 376, 72
-0.998565, 141, 141, 156, 172
-0.998568, 391, 97, 406, 128
-0.998569, 433, 221, 464, 236
-0.998569, 369, 105, 496, 168
-0.998572, 273, 249, 336, 264
-0.998572, 353, 105, 480, 136
-0.998573, 297, 235, 360, 250
-0.998577, 433, 355, 496, 370
-0.99858, 301, 247, 332, 262
-0.998584, 181, 145, 212, 272
-0.998584, 327, 213, 342, 244
-0.998584, 433, 347, 496, 362
-0.998585, 305, 49, 432, 80
-0.998588, 445, 361, 476, 375
-0.998588, 377, 349, 440, 364
-0.998589, 193, 73, 448, 136
-0.99859, 353, 265, 416, 280
-0.998591, 353, 185, 368, 216
-0.998594, 425, 219, 488, 234
-0.998595, 369, 169, 496, 200
-0.998596, 407, 237, 422, 268
-0.998602, 353, 349, 416, 364
-0.998603, 377, 335, 440, 350
-0.998603, 249, 65, 312, 128
-0.998604, 401, 335, 464, 350
-0.998607, 111, 221, 126, 252
-0.998607, 33, 219, 96, 234
-0.998608, 273, 241, 336, 256
-0.998608, 371, 37, 386, 68
-0.998608, 353, 241, 416, 256
-0.998609, 325, 251, 356, 266
-0.998612, 385, 263, 448, 278
-0.998612, 273, 235, 336, 250
-0.998616, 135, 137, 150, 168
-0.998616, 355, 49, 370, 80
-0.998617, 149, 141, 164, 172
-0.998618, 449, 217, 464, 248
-0.998618, 313, 217, 376, 232
-0.998618, 329, 245, 360, 260
-0.998619, 391, 329, 406, 360
-0.998619, 1, 105, 256, 168
-0.99862, 353, 195, 416, 210
-0.998622, 393, 257, 456, 272
-0.998623, 297, 225, 360, 240
-0.998624, 409, 347, 472, 362
-0.998625, 381, 49, 396, 80
-0.998627, 393, 233, 456, 248
-0.998627, 161, 289, 288, 320
-0.998627, 257, 301, 320, 316
-0.998629, 421, 245, 436, 276
-0.99863, 401, 227, 464, 242
-0.998631, 401, 343, 432, 358
-0.998631, 185, 177, 248, 240
-0.998634, 265, 283, 328, 298
-0.998638, 113, 161, 176, 176
-0.998641, 361, 217, 424, 232
-0.998644, 265, 291, 328, 306
-0.998645, 429, 233, 444, 264
-0.998645, 393, 81, 424, 208
-0.998645, 153, 109, 216, 124
-0.998648, 337, 179, 400, 194
-0.998648, 337, 211, 400, 226
-0.998648, 385, 251, 448, 266
-0.998648, 331, 257, 346, 288
-0.998649, 317, 243, 348, 258
-0.998649, 257, 307, 320, 322
-0.998649, 297, 299, 360, 314
-0.998652, 297, 289, 360, 304
-0.998652, 297, 275, 360, 290
-0.998654, 297, 183, 360, 198
-0.998656, 161, 89, 288, 120
-0.998656, 409, 325, 424, 356
-0.998656, 1, 49, 256, 112
-0.998658, 337, 201, 400, 216
-0.998661, 361, 235, 424, 250
-0.998661, 233, 139, 296, 154
-0.998662, 387, 225, 402, 256
-0.998662, 265, 313, 328, 328
-0.998663, 33, 281, 288, 344
-0.998665, 297, 265, 360, 280
-0.998666, 265, 277, 328, 292
-0.998666, 401, 241, 464, 256
-0.998667, 73, 227, 136, 242
-0.998668, 353, 185, 416, 200
-0.99867, 425, 231, 488, 246
-0.99867, 289, 211, 352, 226
-0.998671, 169, 161, 232, 176
-0.998671, 113, 185, 240, 216
-0.998671, 113, 201, 240, 232
-0.998671, 289, 197, 352, 212
-0.998672, 153, 101, 216, 116
-0.998672, 297, 307, 360, 322
-0.998676, 321, 39, 384, 54
-0.998676, 273, 223, 336, 238
-0.998676, 201, 281, 264, 296
-0.998678, 321, 233, 384, 248
-0.998678, 297, 281, 360, 296
-0.998679, 257, 265, 320, 280
-0.998679, 349, 37, 364, 68
-0.998679, 369, 317, 496, 348
-0.998682, 419, 229, 434, 260
-0.998682, 313, 249, 344, 264
-0.998683, 297, 177, 360, 192
-0.998683, 361, 343, 424, 358
-0.998685, 73, 215, 136, 230
-0.998685, 297, 313, 360, 328
-0.998686, 265, 271, 328, 286
-0.998686, 121, 145, 184, 160
-0.998687, 329, 187, 392, 202
-0.998688, 161, 91, 224, 106
-0.998688, 105, 139, 168, 154
-0.998688, 361, 223, 424, 238
-0.998689, 289, 217, 352, 232
-0.998691, 201, 287, 264, 302
-0.998692, 345, 39, 408, 54
-0.998692, 217, 217, 248, 280
-0.998693, 261, 129, 292, 256
-0.998695, 305, 75, 368, 90
-0.998696, 137, 91, 200, 106
-0.998696, 257, 259, 320, 274
-0.998696, 265, 319, 328, 334
-0.998696, 313, 277, 328, 308
-0.998697, 137, 155, 200, 170
-0.998697, 385, 203, 448, 218
-0.998699, 161, 83, 224, 98
-0.998699, 257, 137, 288, 200
-0.998699, 321, 195, 384, 210
-0.9987, 313, 53, 376, 68
-0.9987, 289, 203, 352, 218
-0.9987, 353, 335, 416, 350
-0.998701, 57, 221, 120, 236
-0.998701, 89, 221, 152, 236
-0.998702, 97, 243, 160, 258
-0.998702, 129, 139, 192, 154
-0.998702, 313, 65, 376, 80
-0.998702, 385, 209, 448, 224
-0.998703, 321, 45, 384, 60
-0.998703, 313, 59, 376, 74
-0.998707, 297, 325, 360, 340
-0.998707, 209, 345, 336, 375
-0.998707, 153, 119, 216, 134
-0.998708, 337, 217, 400, 232
-0.998709, 87, 221, 102, 252
-0.998709, 313, 211, 376, 226
-0.998709, 257, 53, 384, 84
-0.998709, 297, 319, 360, 334
-0.99871, 345, 361, 408, 375
-0.998711, 209, 303, 272, 318
-0.998711, 73, 249, 136, 264
-0.998711, 257, 141, 320, 156
-0.998711, 273, 229, 336, 244
-0.998712, 289, 189, 352, 204
-0.998714, 337, 225, 352, 256
-0.998715, 209, 157, 272, 172
-0.998716, 201, 293, 264, 308
-0.998716, 129, 101, 192, 116
-0.998716, 325, 253, 340, 284
-0.998717, 65, 233, 320, 296
-0.998717, 265, 325, 328, 340
-0.998718, 57, 237, 120, 252
-0.998719, 345, 159, 408, 174
-0.998719, 345, 229, 360, 260
-0.99872, 353, 89, 368, 120
-0.99872, 297, 331, 360, 346
-0.998721, 425, 271, 488, 286
-0.998721, 123, 157, 138, 188
-0.998725, 353, 9, 480, 72
-0.998726, 243, 137, 258, 168
-0.998729, 303, 257, 318, 288
-0.998774, 265, 81, 296, 208
-0.998783, 161, 301, 288, 332
-0.998783, 129, 101, 256, 132
-0.99879, 277, 129, 308, 375
-0.998796, 241, 69, 368, 100
-0.998822, 81, 241, 208, 272
-0.998825, 321, 169, 448, 200
-0.998829, 33, 193, 160, 224
-0.998835, 301, 97, 332, 352
-0.998837, 285, 249, 316, 312
-0.998853, 33, 245, 160, 276
-0.998857, 73, 145, 136, 208
-0.998863, 169, 289, 232, 352
-0.998892, 65, 161, 192, 192
-0.998908, 193, 245, 320, 276
-0.99891, 97, 313, 160, 375
-0.998914, 237, 153, 268, 216
-0.998922, 85, 193, 116, 256
-0.998931, 303, 225, 318, 352
-0.998936, 257, 97, 384, 128
-0.998941, 393, 33, 424, 96
-0.998948, 393, 33, 408, 160
-0.998957, 289, 37, 416, 68
-0.998966, 313, 241, 328, 368
-0.998976, 281, 113, 312, 176
-0.99898, 65, 345, 192, 375
-0.998984, 385, 33, 400, 160
-0.998988, 383, 177, 398, 304
-0.999003, 399, 177, 414, 304
-0.999006, 137, 169, 200, 232
-0.999012, 305, 105, 432, 136
-0.999023, 361, 33, 376, 160
-0.999025, 241, 81, 368, 112
-0.99903, 109, 281, 140, 344
-0.999033, 225, 129, 352, 160
-0.999039, 441, 193, 472, 320
-0.999041, 33, 181, 160, 212
-0.999045, 145, 129, 208, 375
-0.99906, 81, 253, 208, 284
-0.99906, 253, 81, 284, 208
-0.99907, 393, 97, 424, 352
-0.999084, 369, 149, 496, 180
-0.999091, 273, 125, 400, 156
-0.999101, 161, 77, 288, 108
-0.999115, 281, 1, 344, 128
-0.999124, 389, 161, 404, 288
-0.999128, 437, 193, 468, 256
-0.999143, 375, 33, 390, 160
-0.999144, 355, 33, 370, 160
-0.999153, 317, 97, 348, 352
-0.999153, 133, 97, 164, 352
-0.999161, 321, 129, 448, 160
-0.999165, 285, 33, 316, 160
-0.999171, 385, 81, 400, 208
-0.999172, 193, 105, 256, 168
-0.999176, 349, 33, 364, 160
-0.999179, 113, 117, 240, 148
-0.999196, 33, 145, 160, 176
-0.9992, 313, 145, 376, 208
-0.999205, 1, 1, 128, 64
-0.999212, 405, 225, 420, 352
-0.999213, 353, 49, 480, 80
-0.999215, 345, 265, 376, 328
-0.999218, 327, 177, 342, 304
-0.999219, 97, 89, 224, 120
-0.99922, 413, 193, 428, 320
-0.999221, 461, 233, 492, 296
-0.999228, 1, 289, 500, 352
-0.999232, 197, 129, 228, 375
-0.999234, 321, 209, 336, 336
-0.999237, 237, 97, 268, 352
-0.999242, 145, 97, 176, 352
-0.999247, 369, 65, 496, 96
-0.999248, 427, 209, 442, 336
-0.999256, 185, 313, 248, 375
-0.999263, 421, 193, 436, 320
-0.999263, 113, 277, 240, 308
-0.999263, 315, 193, 330, 320
-0.999267, 33, 89, 160, 152
-0.999268, 377, 177, 392, 304
-0.999271, 329, 65, 360, 320
-0.999274, 333, 177, 348, 304
-0.999275, 369, 197, 496, 228
-0.999279, 289, 9, 416, 72
-0.999282, 303, 177, 318, 304
-0.99929, 327, 225, 342, 352
-0.999294, 161, 61, 288, 92
-0.9993, 277, 33, 308, 288
-0.999302, 189, 129, 220, 192
-0.999305, 433, 97, 464, 352
-0.999309, 369, 81, 496, 112
-0.999314, 33, 257, 160, 288
-0.999315, 367, 33, 382, 160
-0.999315, 217, 129, 248, 375
-0.999323, 185, 81, 216, 208
-0.999324, 417, 129, 448, 375
-0.999336, 33, 129, 160, 160
-0.99934, 339, 177, 354, 304
-0.99935, 33, 305, 288, 368
-0.999354, 411, 241, 426, 368
-0.999355, 405, 177, 420, 304
-0.999357, 391, 81, 406, 208
-0.999368, 1, 97, 500, 160
-0.999369, 113, 309, 240, 340
-0.999369, 169, 65, 184, 192
-0.999377, 393, 241, 408, 368
-0.999382, 351, 177, 366, 304
-0.999383, 399, 225, 414, 352
-0.999385, 257, 41, 320, 104
-0.999387, 129, 17, 384, 80
-0.999389, 375, 81, 390, 208
-0.999392, 161, 33, 192, 288
-0.999395, 49, 17, 176, 144
-0.999404, 101, 209, 116, 336
-0.99941, 353, 81, 368, 208
-0.999411, 419, 241, 434, 368
-0.999423, 123, 145, 138, 272
-0.999428, 381, 129, 396, 256
-0.999432, 129, 1, 192, 256
-0.999438, 17, 193, 48, 256
-0.999448, 395, 129, 410, 256
-0.999457, 81, 77, 208, 108
-0.999459, 297, 129, 312, 256
-0.999463, 371, 209, 386, 336
-0.999464, 113, 297, 240, 328
-0.999465, 359, 177, 374, 304
-0.999465, 371, 161, 386, 288
-0.999466, 337, 117, 464, 148
-0.999472, 111, 225, 126, 352
-0.999475, 309, 177, 324, 304
-0.999481, 345, 177, 360, 304
-0.999482, 353, 105, 384, 168
-0.999483, 1, 25, 128, 88
-0.999486, 133, 113, 148, 240
-0.999489, 333, 225, 348, 352
-0.999489, 367, 97, 382, 224
-0.999498, 387, 241, 402, 368
-0.999499, 81, 101, 208, 132
-0.999504, 377, 241, 392, 368
-0.999511, 321, 141, 448, 172
-0.999515, 1, 269, 128, 300
-0.999521, 361, 81, 376, 208
-0.999526, 265, 97, 296, 352
-0.999528, 339, 225, 354, 352
-0.999535, 365, 193, 380, 320
-0.99955, 175, 81, 190, 208
-0.999553, 41, 193, 56, 320
-0.999559, 343, 33, 358, 160
-0.99956, 485, 241, 500, 368
-0.999564, 387, 55, 402, 70
-0.999565, 365, 187, 380, 202
-0.999565, 479, 347, 494, 362
-0.999565, 345, 225, 360, 352
-0.999565, 463, 361, 478, 375
-0.999565, 467, 343, 482, 358
-0.999565, 387, 43, 402, 58
-0.999566, 211, 145, 226, 272
-0.999566, 343, 235, 358, 250
-0.999566, 419, 215, 434, 230
-0.999567, 387, 49, 402, 64
-0.999567, 387, 177, 402, 192
-0.999567, 471, 359, 486, 374
-0.999567, 383, 193, 398, 208
-0.999567, 471, 225, 486, 240
-0.999568, 357, 39, 372, 54
-0.999568, 389, 267, 404, 282
-0.999569, 377, 247, 392, 262
-0.999569, 409, 265, 424, 280
-0.999569, 405, 219, 420, 234
-0.999571, 437, 225, 452, 240
-0.999571, 353, 239, 368, 254
-0.999571, 109, 243, 124, 258
-0.999572, 347, 81, 362, 208
-0.999573, 391, 91, 406, 106
-0.999573, 465, 353, 480, 368
-0.999573, 353, 261, 368, 276
-0.999573, 359, 201, 374, 216
-0.999574, 165, 111, 180, 126
-0.999575, 165, 85, 180, 100
-0.999575, 379, 359, 394, 374
-0.999576, 317, 233, 332, 248
-0.999576, 133, 137, 148, 152
-0.999578, 443, 349, 458, 364
-0.999579, 229, 241, 244, 368
-0.999579, 399, 219, 414, 234
-0.99958, 393, 45, 408, 60
-0.99958, 399, 347, 414, 362
-0.999581, 303, 243, 318, 258
-0.999582, 97, 333, 224, 364
-0.999582, 393, 51, 408, 66
-0.999582, 433, 193, 448, 320
-0.999583, 373, 257, 388, 272
-0.999584, 241, 153, 368, 184
-0.999585, 173, 107, 188, 122
-0.999585, 393, 57, 408, 72
-0.999585, 321, 161, 336, 288
-0.999585, 413, 359, 428, 374
-0.999587, 431, 349, 446, 364
-0.999587, 401, 333, 416, 348
-0.999587, 435, 359, 450, 374
-0.999588, 345, 249, 360, 264
-0.999588, 101, 231, 116, 246
-0.999588, 457, 221, 472, 236
-0.999588, 379, 185, 394, 200
-0.999589, 81, 265, 208, 296
-0.999589, 423, 337, 438, 352
-0.999589, 95, 209, 110, 336
-0.99959, 381, 265, 396, 280
-0.999591, 353, 37, 480, 68
-0.999592, 373, 81, 404, 144
-0.999592, 397, 251, 412, 266
-0.999592, 339, 257, 354, 272
-0.999593, 385, 33, 448, 160
-0.999595, 425, 349, 440, 364
-0.999595, 33, 293, 160, 324
-0.999595, 471, 353, 486, 368
-0.999595, 307, 97, 322, 224
-0.999595, 397, 197, 412, 212
-0.999596, 347, 241, 362, 256
-0.999596, 389, 217, 404, 232
-0.999598, 425, 217, 440, 232
-0.999598, 337, 235, 352, 250
-0.999598, 421, 361, 436, 375
-0.999598, 359, 257, 374, 272
-0.999599, 173, 99, 188, 114
-0.999599, 387, 37, 402, 52
-0.9996, 393, 37, 408, 52
-0.999601, 415, 353, 430, 368
-0.999601, 375, 209, 390, 224
-0.999601, 221, 177, 236, 304
-0.999602, 365, 199, 380, 214
-0.999602, 165, 93, 180, 108
-0.999604, 413, 215, 428, 230
-0.999604, 389, 211, 404, 226
-0.999607, 243, 129, 258, 256
-0.999608, 217, 225, 232, 352
-0.999608, 171, 83, 186, 98
-0.99961, 479, 241, 494, 368
-0.999611, 433, 219, 448, 234
-0.999614, 413, 335, 428, 350
-0.999614, 165, 101, 180, 116
-0.999614, 295, 241, 310, 368
-0.999616, 427, 343, 442, 358
-0.999617, 387, 345, 402, 360
-0.999618, 367, 259, 382, 274
-0.999619, 407, 251, 422, 266
-0.99962, 105, 129, 136, 375
-0.99962, 327, 255, 342, 270
-0.99962, 109, 177, 124, 304
-0.999621, 395, 265, 410, 280
-0.999621, 397, 355, 412, 370
-0.999621, 295, 81, 310, 208
-0.999622, 163, 65, 178, 192
-0.999623, 395, 213, 410, 228
-0.999624, 239, 241, 254, 368
-0.999625, 407, 343, 422, 358
-0.999626, 171, 91, 186, 106
-0.999629, 393, 347, 408, 362
-0.999629, 427, 223, 442, 238
-0.999631, 331, 237, 346, 252
-0.999631, 407, 333, 422, 348
-0.999633, 409, 353, 424, 368
-0.999635, 381, 179, 396, 194
-0.999635, 117, 185, 148, 248
-0.999635, 377, 193, 392, 208
-0.999636, 399, 33, 414, 160
-0.999639, 407, 259, 422, 274
-0.999639, 193, 257, 320, 288
-0.999639, 451, 353, 466, 368
-0.999641, 323, 33, 338, 160
-0.999641, 279, 49, 294, 176
-0.999642, 441, 241, 472, 368
-0.999642, 333, 255, 348, 270
-0.999643, 427, 161, 442, 288
-0.999643, 411, 145, 426, 272
-0.999644, 403, 213, 418, 228
-0.999644, 367, 193, 382, 208
-0.999645, 303, 249, 318, 264
-0.999647, 457, 353, 472, 368
-0.999649, 437, 353, 452, 368
-0.99965, 249, 129, 280, 256
-0.999651, 373, 187, 388, 202
-0.999651, 301, 49, 316, 176
-0.999652, 341, 241, 356, 256
-0.999655, 285, 49, 300, 176
-0.999655, 317, 251, 332, 266
-0.999659, 413, 343, 428, 358
-0.999659, 237, 129, 252, 256
-0.99966, 339, 251, 354, 266
-0.99966, 351, 255, 366, 270
-0.999662, 403, 245, 418, 260
-0.999664, 457, 359, 472, 374
-0.999664, 1, 281, 128, 312
-0.999665, 1, 305, 128, 336
-0.999665, 385, 187, 400, 202
-0.999666, 375, 203, 390, 218
-0.999666, 485, 321, 500, 336
-0.999666, 369, 301, 496, 332
-0.999667, 177, 101, 304, 132
-0.999668, 391, 187, 406, 202
-0.999671, 399, 203, 414, 218
-0.999671, 35, 193, 50, 320
-0.999672, 59, 193, 74, 320
-0.999673, 225, 129, 240, 256
-0.999673, 17, 165, 144, 196
-0.999673, 335, 243, 350, 258
-0.999674, 345, 255, 360, 270
-0.999674, 47, 193, 62, 320
-0.999674, 77, 193, 92, 320
-0.999675, 313, 239, 328, 254
-0.99968, 53, 193, 68, 320
-0.999682, 447, 219, 462, 234
-0.999682, 85, 209, 100, 336
-0.999682, 381, 209, 396, 224
-0.999682, 389, 203, 404, 218
-0.999685, 323, 237, 338, 252
-0.999686, 473, 345, 488, 360
-0.999687, 447, 193, 462, 320
-0.999689, 233, 177, 248, 304
-0.99969, 161, 313, 288, 344
-0.99969, 381, 199, 396, 214
-0.999693, 97, 57, 224, 88
-0.999696, 307, 49, 322, 176
-0.999696, 333, 129, 364, 256
-0.999696, 249, 129, 264, 256
-0.999696, 351, 225, 366, 352
-0.999697, 313, 33, 328, 160
-0.999698, 311, 251, 326, 266
-0.999698, 355, 129, 370, 256
-0.999699, 439, 177, 454, 304
-0.999701, 401, 261, 416, 276
-0.999703, 1, 193, 16, 320
-0.999705, 417, 145, 432, 272
-0.999707, 447, 359, 462, 374
-0.999708, 403, 353, 418, 368
-0.999712, 65, 193, 80, 320
-0.999714, 405, 129, 420, 256
-0.999714, 301, 1, 332, 256
-0.999716, 113, 321, 240, 352
-0.999719, 209, 49, 336, 80
-0.999721, 191, 81, 206, 208
-0.99973, 163, 145, 178, 272
-0.999735, 71, 193, 86, 320
-0.999738, 331, 33, 346, 160
-0.99974, 19, 209, 34, 336
-0.999745, 283, 129, 298, 256
-0.999746, 177, 129, 304, 160
-0.999748, 295, 33, 310, 160
-0.999749, 119, 225, 134, 352
-0.999749, 391, 197, 406, 212
-0.999751, 93, 129, 124, 375
-0.999751, 29, 209, 44, 336
-0.999751, 155, 145, 170, 272
-0.999753, 329, 243, 344, 258
-0.999753, 271, 81, 286, 208
-0.999754, 337, 33, 352, 160
-0.999755, 223, 225, 238, 352
-0.999755, 181, 97, 196, 224
-0.999755, 365, 145, 380, 272
-0.999755, 143, 129, 158, 256
-0.999756, 127, 97, 142, 224
-0.999758, 277, 97, 292, 224
-0.999764, 313, 245, 328, 260
-0.999769, 347, 129, 362, 256
-0.999771, 341, 81, 356, 208
-0.999776, 9, 193, 24, 320
-0.999778, 289, 129, 304, 256
-0.99978, 323, 243, 338, 258
-0.999781, 179, 33, 194, 160
-0.999781, 397, 81, 412, 208
-0.999786, 361, 241, 376, 368
-0.999788, 469, 241, 484, 368
-0.999794, 433, 241, 448, 368
-0.9998, 333, 249, 348, 264
-0.9998, 271, 129, 286, 256
-0.999804, 161, 277, 288, 308
-0.999805, 323, 249, 338, 264
-0.999806, 313, 113, 376, 176
-0.999813, 217, 33, 248, 288
-0.999837, 33, 65, 160, 128
-0.999848, 229, 241, 260, 304
-0.99987, 1, 25, 256, 88
-0.99987, 177, 173, 304, 204
-0.999872, 145, 213, 272, 244
-0.999874, 65, 281, 192, 312
-0.999885, 245, 225, 276, 352
-0.999906, 1, 257, 256, 320
-0.99992, 253, 97, 284, 352
-0.999927, 85, 281, 116, 344
-0.999938, 145, 345, 272, 375
-0.999941, 369, 137, 496, 168
-0.999944, 257, 113, 384, 144
-0.999951, 65, 305, 192, 336
-0.999954, 209, 1, 272, 256
-0.99996, 177, 233, 240, 296
-0.999963, 209, 117, 336, 148
-0.999964, 157, 129, 188, 375
-0.999964, 137, 1, 168, 256
-0.999966, 241, 37, 368, 68
-0.999979, 173, 33, 204, 288
-0.999985, 49, 17, 176, 80
-0.999996, 165, 33, 196, 160
-0.999996, 317, 33, 348, 160
-1.00002, 121, 17, 184, 144
-1.00004, 289, 33, 320, 288
-1.00005, 257, 1, 288, 256
-1.00006, 273, 129, 304, 256
-1.00007, 241, 17, 368, 80
-1.00014, 81, 129, 112, 375
-1.00016, 425, 49, 488, 176
-1.00018, 101, 33, 132, 288
-1.00018, 249, 89, 312, 152
-1.00018, 149, 1, 180, 256
-1.00019, 197, 33, 228, 288
-1.0002, 9, 241, 72, 304
-1.00024, 173, 129, 204, 375
-1.00027, 465, 65, 496, 320
-1.00028, 201, 241, 232, 368
-1.00029, 193, 17, 320, 80
-1.0003, 241, 1, 272, 256
-1.00032, 1, 97, 32, 352
-1.00032, 125, 1, 156, 256
-1.00036, 1, 1, 256, 64
-1.00038, 401, 1, 432, 256
-1.00039, 257, 17, 500, 80
-1.00039, 185, 33, 216, 288
-1.00039, 69, 129, 100, 375
-1.0004, 185, 129, 216, 375
-1.0004, 17, 129, 48, 375
-1.0004, 1, 97, 64, 352
-1.00042, 281, 17, 344, 80
-1.00044, 45, 97, 76, 352
-1.00045, 57, 97, 88, 352
-1.00047, 453, 1, 484, 256
-1.00047, 313, 1, 344, 256
-1.00047, 17, 145, 48, 272
-1.00049, 45, 145, 76, 272
-1.00053, 249, 225, 312, 288
-1.00054, 33, 97, 64, 352
-1.00055, 413, 33, 444, 288
-1.00056, 453, 97, 484, 352
-1.00061, 461, 97, 492, 224
-1.00068, 1, 17, 500, 80
-1.00071, 229, 1, 260, 256
-1.00073, 425, 1, 456, 256
-1.00077, 185, 209, 248, 272
-1.00081, 1, 1, 128, 128
-1.00087, 113, 1, 144, 256
-1.00088, 69, 33, 100, 288
-1.00093, 17, 33, 48, 288
-1.00095, 1, 73, 500, 136
-1.00096, 133, 65, 164, 192
-1.00097, 57, 145, 88, 272
-1.00099, 1, 41, 500, 104
-1.00103, 441, 1, 472, 256
-1.00105, 1, 225, 32, 352
-1.00108, 241, 81, 272, 208
-1.00111, 89, 33, 120, 288
-1.00117, 453, 241, 484, 368
-1.00121, 97, 9, 224, 72
-1.00128, 1, 1, 32, 256
-1.00129, 273, 33, 304, 160
-1.0013, 205, 193, 236, 320
-1.00135, 25, 97, 88, 352
-1.00141, 249, 185, 312, 248
-1.00146, 29, 1, 60, 256
-1.00146, 445, 113, 476, 240
-1.00148, 153, 41, 216, 104
-1.0015, 49, 1, 80, 256
-1.00167, 425, 1, 488, 256
-1.00184, 433, 73, 496, 136
-1.00185, 177, 57, 240, 120
-1.00191, 29, 145, 60, 272
-1.00194, 145, 17, 272, 80
-1.00195, 401, 97, 464, 160
-1.00197, 317, 97, 348, 224
-1.00202, 153, 33, 184, 160
-1.00202, 265, 241, 296, 368
-1.00202, 457, 49, 488, 176
-1.00205, 73, 145, 104, 272
-1.00241, 329, 1, 360, 128
-1.00248, 297, 1, 328, 128
-1.00253, 9, 265, 72, 328
-1.00255, 109, 81, 140, 208
-1.00269, 97, 1, 160, 256
-1.00271, 41, 289, 104, 352
-1.00273, 9, 241, 72, 368
-1.00293, 401, 1, 432, 128
-1.00294, 49, 313, 112, 375
-1.00294, 161, 313, 224, 375
-1.00298, 437, 49, 468, 176
-1.00301, 97, 81, 160, 208
-1.00306, 433, 129, 496, 192
-1.00353, 469, 17, 500, 144
-1.0037, 1, 129, 32, 256
-1.00394, 21, 241, 52, 368
-1.00402, 453, 177, 484, 304
-1.00412, 229, 81, 260, 208
-1.00415, 321, 289, 448, 352
-1.00434, 121, 65, 152, 192
-1.00436, 189, 241, 220, 368
-1.00453, 1, 49, 128, 176
-1.00459, 413, 81, 444, 208
-1.00463, 49, 33, 112, 288
-1.00465, 137, 161, 168, 288
-1.00482, 193, 193, 224, 320
-1.005, 1, 1, 64, 128
-1.00503, 465, 193, 496, 320
-1.00523, 253, 1, 284, 128
-1.00532, 425, 65, 456, 192
-1.00538, 273, 193, 304, 320
-1.00543, 193, 17, 224, 144
-1.00558, 5, 1, 36, 128
-1.00564, 169, 177, 200, 304
-1.00565, 73, 241, 104, 368
-1.00577, 425, 145, 488, 272
-1.00581, 433, 1, 496, 128
-1.00598, 33, 241, 64, 368
-1.00602, 153, 193, 184, 320
-1.00608, 401, 81, 464, 208
-1.00612, 1, 1, 64, 256
-1.00639, 185, 1, 248, 128
-1.00678, 33, 241, 96, 368
-1.00705, 137, 193, 200, 320
-1.00756, 233, 1, 296, 128
-1.00794, 25, 1, 88, 256
-1.00853, 121, 241, 184, 368
-1.00897, 25, 1, 88, 128
-1.00913, 1, 49, 64, 176
-1.00927, 73, 65, 136, 192
-1.00968, 49, 1, 112, 128
-1.01013, 409, 1, 472, 128
-1.01081, 145, 241, 208, 368
-1.01121, 1, 97, 64, 224
-1.01179, 25, 49, 88, 176
-1.01192, 89, 1, 152, 128
-1.01242, 209, 33, 272, 160
-1.01293, 49, 49, 112, 176
-1.01414, 49, 113, 112, 240
-1.01875, 25, 97, 88, 224
