1977
-0.319388, 1, 1, 374, 500
-0.382128, 1, 65, 374, 320
-0.382684, 97, 1, 352, 500
-0.504628, 1, 1, 256, 500
-0.512969, 1, 161, 374, 416
-0.517324, 1, 257, 374, 500
-0.560427, 65, 65, 320, 320
-0.727395, 1, 257, 256, 500
-0.73585, 1, 161, 256, 416
-0.814617, 97, 225, 352, 480
-0.83469, 129, 33, 256, 288
-0.849229, 113, 1, 240, 500
-0.868395, 161, 1, 288, 500
-0.868501, 1, 257, 128, 500
-0.876404, 1, 81, 374, 208
-0.877535, 1, 129, 128, 384
-0.877658, 209, 1, 336, 500
-0.879242, 209, 65, 336, 320
-0.880768, 65, 1, 192, 500
-0.883111, 49, 129, 176, 384
-0.890222, 49, 257, 176, 500
-0.897533, 17, 1, 144, 500
-0.89769, 81, 33, 208, 288
-0.899533, 161, 129, 288, 384
-0.903083, 1, 337, 374, 464
-0.903318, 97, 257, 224, 500
-0.907325, 1, 129, 374, 256
-0.90949, 1, 273, 374, 400
-0.912463, 145, 225, 272, 480
-0.91408, 1, 289, 256, 416
-0.916685, 97, 81, 352, 208
-0.917235, 113, 129, 240, 384
-0.917258, 97, 129, 352, 256
-0.919542, 33, 33, 160, 288
-0.923256, 193, 257, 320, 500
-0.923605, 33, 337, 288, 464
-0.928711, 1, 113, 256, 240
-0.930451, 129, 49, 256, 176
-0.930737, 97, 321, 224, 448
-0.931703, 33, 289, 160, 416
-0.936553, 121, 321, 184, 448
-0.936952, 145, 49, 208, 176
-0.938051, 49, 129, 176, 256
-0.93821, 241, 257, 368, 500
-0.939682, 1, 65, 256, 192
-0.939877, 1, 225, 374, 352
-0.940113, 145, 337, 272, 464
-0.940528, 113, 97, 240, 224
-0.941195, 41, 273, 104, 400
-0.941818, 209, 65, 272, 192
-0.943758, 241, 97, 368, 224
-0.943831, 89, 305, 152, 432
-0.944292, 129, 33, 374, 160
-0.944391, 177, 49, 240, 176
-0.94451, 57, 129, 120, 256
-0.945205, 9, 289, 72, 416
-0.94646, 65, 305, 128, 432
-0.947213, 225, 161, 352, 416
-0.947975, 97, 273, 352, 400
-0.948297, 129, 337, 374, 464
-0.948489, 177, 65, 304, 192
-0.948784, 145, 321, 208, 448
-0.950354, 193, 353, 320, 480
-0.950687, 1, 337, 128, 464
-0.950738, 33, 337, 96, 464
-0.951006, 1, 129, 128, 256
-0.951349, 49, 353, 176, 480
-0.951422, 113, 129, 176, 256
-0.952236, 65, 81, 192, 208
-0.952327, 193, 337, 256, 464
-0.952992, 137, 273, 200, 400
-0.953026, 57, 137, 120, 200
-0.953265, 137, 337, 200, 400
-0.95594, 313, 113, 374, 240
-0.955965, 161, 129, 288, 256
-0.956665, 185, 49, 248, 112
-0.956706, 185, 97, 248, 224
-0.956914, 1, 33, 374, 160
-0.957158, 177, 289, 240, 416
-0.957389, 241, 337, 304, 464
-0.957436, 1, 177, 374, 304
-0.957611, 145, 97, 208, 224
-0.957837, 289, 97, 352, 224
-0.957927, 209, 81, 272, 144
-0.958136, 113, 273, 176, 400
-0.958168, 1, 129, 64, 256
-0.958203, 249, 129, 312, 256
-0.958213, 81, 353, 144, 480
-0.958575, 25, 145, 88, 208
-0.959435, 81, 273, 208, 400
-0.959813, 121, 65, 184, 192
-0.959917, 161, 337, 224, 400
-0.960106, 121, 297, 184, 360
-0.960197, 145, 289, 272, 416
-0.960288, 97, 113, 160, 176
-0.960293, 81, 145, 144, 272
-0.960972, 217, 145, 280, 272
-0.961013, 97, 145, 224, 272
-0.961132, 153, 49, 216, 112
-0.961224, 9, 337, 72, 464
-0.961392, 81, 313, 144, 376
-0.961416, 169, 337, 232, 464
-0.961531, 1, 313, 64, 376
-0.961768, 89, 97, 152, 224
-0.961838, 33, 129, 96, 256
-0.961952, 113, 137, 176, 200
-0.962055, 97, 369, 224, 496
-0.962337, 233, 65, 296, 192
-0.962391, 113, 329, 176, 392
-0.962919, 137, 105, 200, 168
-0.963818, 217, 337, 280, 464
-0.96424, 57, 353, 120, 480
-0.964893, 81, 145, 144, 208
-0.96495, 193, 145, 256, 272
-0.96568, 129, 81, 192, 144
-0.965782, 201, 361, 264, 424
-0.966112, 1, 129, 64, 192
-0.966522, 1, 161, 256, 288
-0.967371, 161, 361, 224, 424
-0.9676, 41, 281, 104, 344
-0.967813, 129, 57, 256, 120
-0.968213, 305, 113, 368, 176
-0.968255, 137, 369, 200, 496
-0.969086, 193, 337, 256, 400
-0.969297, 225, 49, 352, 176
-0.96965, 209, 57, 272, 120
-0.969999, 73, 129, 104, 192
-0.970021, 169, 73, 232, 136
-0.970207, 165, 337, 196, 400
-0.970351, 137, 105, 168, 168
-0.970705, 145, 33, 208, 288
-0.970811, 149, 289, 180, 416
-0.970898, 81, 257, 144, 384
-0.971291, 57, 257, 120, 500
-0.971328, 25, 305, 88, 368
-0.97133, 133, 129, 164, 192
-0.97154, 265, 81, 328, 208
-0.971622, 113, 105, 240, 168
-0.971625, 193, 33, 256, 288
-0.971663, 185, 113, 248, 176
-0.971684, 281, 105, 344, 168
-0.971707, 129, 345, 256, 408
-0.971872, 113, 129, 240, 192
-0.971975, 1, 241, 256, 368
-0.971989, 49, 137, 176, 200
-0.972087, 137, 137, 200, 200
-0.972106, 81, 329, 208, 392
-0.972106, 33, 257, 96, 500
-0.972212, 161, 321, 192, 448
-0.97234, 57, 321, 120, 384
-0.972388, 217, 65, 280, 320
-0.972392, 145, 81, 176, 144
-0.972466, 81, 289, 144, 352
-0.972515, 185, 337, 216, 400
-0.972607, 1, 137, 128, 200
-0.972866, 249, 129, 312, 192
-0.972975, 217, 57, 248, 120
-0.97307, 133, 81, 164, 144
-0.973289, 193, 305, 320, 432
-0.973331, 17, 241, 144, 368
-0.973424, 129, 177, 374, 304
-0.973555, 137, 145, 200, 272
-0.973629, 209, 145, 272, 208
-0.973688, 201, 17, 264, 144
-0.973987, 153, 313, 216, 376
-0.974206, 41, 289, 72, 416
-0.974236, 1, 241, 64, 368
-0.974404, 189, 49, 220, 176
-0.97459, 225, 65, 256, 192
-0.974668, 209, 385, 272, 448
-0.974685, 177, 97, 304, 160
-0.974701, 65, 345, 128, 408
-0.974994, 113, 81, 240, 144
-0.975013, 133, 321, 164, 448
-0.97502, 1, 153, 64, 216
-0.975104, 141, 289, 172, 352
-0.975223, 265, 337, 328, 464
-0.975224, 213, 65, 244, 192
-0.975361, 169, 385, 232, 448
-0.975364, 33, 129, 96, 384
-0.975397, 49, 161, 112, 224
-0.975452, 17, 305, 48, 432
-0.975465, 169, 33, 232, 288
-0.975537, 177, 321, 208, 448
-0.975608, 137, 361, 200, 424
-0.975908, 153, 329, 184, 392
-0.975979, 125, 105, 156, 168
-0.976028, 241, 177, 304, 304
-0.976067, 81, 305, 112, 432
-0.97607, 25, 121, 88, 184
-0.97611, 65, 129, 128, 384
-0.976114, 29, 289, 60, 416
-0.976172, 65, 113, 192, 176
-0.976286, 157, 49, 188, 112
-0.976393, 177, 337, 304, 400
-0.976472, 209, 145, 336, 272
-0.976594, 65, 273, 96, 400
-0.97669, 105, 369, 168, 496
-0.97674, 201, 57, 232, 120
-0.976753, 41, 353, 104, 416
-0.976776, 201, 49, 232, 176
-0.97683, 141, 65, 172, 192
-0.976898, 1, 305, 32, 432
-0.976968, 97, 289, 128, 416
-0.976989, 177, 1, 240, 128
-0.977035, 17, 81, 144, 208
-0.977046, 37, 137, 68, 200
-0.97715, 221, 337, 252, 464
-0.977378, 241, 113, 368, 176
-0.977435, 165, 273, 196, 400
-0.977621, 113, 169, 176, 232
-0.977671, 17, 313, 144, 376
-0.977757, 69, 113, 100, 240
-0.977796, 17, 289, 144, 352
-0.977801, 1, 289, 64, 352
-0.977802, 121, 321, 152, 448
-0.977822, 9, 129, 72, 384
-0.977823, 145, 1, 272, 128
-0.977907, 229, 65, 260, 128
-0.977924, 161, 241, 288, 368
-0.977975, 209, 113, 272, 176
-0.97799, 125, 113, 156, 240
-0.978026, 145, 57, 176, 120
-0.978047, 241, 97, 304, 352
-0.978054, 9, 257, 72, 500
-0.978131, 241, 337, 368, 464
-0.978211, 113, 353, 176, 416
-0.978303, 249, 345, 312, 408
-0.978306, 145, 337, 176, 464
-0.978352, 125, 329, 156, 392
-0.978358, 65, 193, 192, 320
-0.978424, 153, 49, 184, 176
-0.978473, 33, 225, 96, 352
-0.978532, 81, 313, 112, 376
-0.978652, 137, 273, 168, 400
-0.978688, 61, 137, 92, 200
-0.978714, 145, 281, 208, 344
-0.978769, 105, 129, 168, 384
-0.978808, 225, 289, 288, 416
-0.978873, 169, 49, 200, 176
-0.978912, 129, 57, 192, 120
-0.978928, 1, 337, 64, 400
-0.978935, 241, 385, 304, 448
-0.979153, 161, 129, 224, 192
-0.979245, 157, 81, 188, 144
-0.979277, 37, 337, 68, 464
-0.979306, 53, 273, 84, 400
-0.979485, 201, 345, 232, 408
-0.979547, 193, 73, 320, 136
-0.979561, 109, 305, 140, 432
-0.979626, 149, 105, 180, 168
-0.979661, 97, 225, 352, 352
-0.97967, 137, 113, 168, 240
-0.979683, 209, 241, 272, 368
-0.979714, 173, 361, 204, 424
-0.979756, 185, 137, 248, 200
-0.979772, 289, 97, 352, 352
-0.979783, 113, 369, 240, 432
-0.979977, 237, 65, 268, 192
-0.979988, 225, 361, 288, 424
-0.980162, 41, 81, 104, 208
-0.98019, 85, 137, 116, 200
-0.980201, 57, 225, 120, 352
-0.980209, 217, 81, 248, 144
-0.980417, 57, 129, 88, 256
-0.980422, 185, 49, 216, 112
-0.980435, 109, 153, 140, 216
-0.980449, 177, 313, 240, 376
-0.980455, 145, 193, 272, 320
-0.980542, 137, 329, 168, 392
-0.980657, 161, 1, 224, 500
-0.980701, 81, 257, 144, 500
-0.98081, 93, 337, 124, 464
-0.980813, 189, 321, 220, 448
-0.980849, 17, 313, 48, 376
-0.98092, 81, 169, 144, 232
-0.980973, 193, 361, 320, 424
-0.980977, 161, 297, 192, 360
-0.980977, 209, 337, 240, 464
-0.981092, 121, 225, 184, 352
-0.981177, 81, 129, 112, 256
-0.981416, 169, 49, 200, 112
-0.981447, 49, 113, 112, 176
-0.981448, 49, 353, 176, 416
-0.981463, 337, 113, 368, 240
-0.981529, 201, 97, 232, 224
-0.981542, 345, 121, 374, 184
-0.981673, 161, 145, 224, 272
-0.981712, 73, 113, 136, 176
-0.981788, 1, 177, 64, 240
-0.981894, 129, 65, 160, 192
-0.981896, 57, 337, 88, 464
-0.981948, 25, 169, 88, 232
-0.982192, 177, 385, 304, 448
-0.982226, 105, 353, 136, 480
-0.982228, 45, 145, 76, 272
-0.982235, 225, 337, 288, 400
-0.982273, 49, 409, 112, 472
-0.982305, 137, 161, 200, 224
-0.982401, 333, 113, 364, 176
-0.982413, 313, 65, 374, 192
-0.98243, 125, 273, 156, 400
-0.982523, 161, 145, 288, 208
-0.98254, 97, 153, 128, 216
-0.98255, 113, 321, 144, 384
-0.982712, 21, 161, 52, 224
-0.982717, 5, 329, 36, 392
-0.982811, 97, 305, 224, 368
-0.982815, 193, 129, 256, 384
-0.982828, 9, 129, 40, 256
-0.982885, 233, 337, 264, 464
-0.982952, 29, 129, 60, 256
-0.983035, 297, 105, 328, 168
-0.98307, 97, 265, 160, 328
-0.983109, 121, 1, 184, 500
-0.983128, 153, 241, 184, 368
-0.983176, 245, 129, 276, 256
-0.983294, 5, 129, 36, 192
-0.983301, 201, 193, 264, 320
-0.983306, 17, 129, 48, 192
-0.983457, 101, 305, 132, 368
-0.983458, 17, 81, 80, 208
-0.983514, 225, 361, 256, 424
-0.98356, 161, 241, 224, 368
-0.983619, 289, 49, 352, 176
-0.98364, 89, 361, 152, 424
-0.983654, 1, 353, 128, 416
-0.983674, 313, 97, 374, 352
-0.983684, 153, 137, 184, 200
-0.983687, 173, 305, 204, 368
-0.983744, 129, 297, 160, 360
-0.983889, 105, 65, 168, 128
-0.983916, 165, 369, 196, 496
-0.983983, 1, 201, 64, 264
-0.983999, 161, 313, 288, 376
-0.98401, 17, 161, 144, 224
-0.98405, 205, 369, 236, 432
-0.984146, 137, 153, 168, 216
-0.984187, 233, 57, 296, 120
-0.984235, 137, 257, 200, 500
-0.98427, 49, 145, 80, 208
-0.984344, 89, 337, 152, 400
-0.98438, 113, 145, 144, 272
-0.984452, 225, 209, 352, 336
-0.984501, 209, 137, 336, 200
-0.984509, 221, 129, 252, 256
-0.984519, 241, 17, 304, 144
-0.984531, 73, 353, 104, 480
-0.984546, 209, 1, 272, 500
-0.984771, 265, 65, 328, 320
-0.984791, 81, 161, 208, 224
-0.984796, 241, 1, 304, 256
-0.984833, 121, 137, 152, 200
-0.984849, 161, 121, 288, 184
-0.984879, 73, 417, 136, 480
-0.984881, 297, 97, 328, 224
-0.984892, 217, 225, 280, 480
-0.985022, 33, 329, 96, 392
-0.98506, 121, 33, 184, 288
-0.98507, 185, 369, 216, 432
-0.985098, 65, 33, 192, 160
-0.985119, 113, 257, 176, 500
-0.985167, 213, 17, 244, 144
-0.985198, 145, 1, 208, 128
-0.985252, 1, 177, 128, 304
-0.985282, 289, 145, 352, 272
-0.985311, 149, 113, 180, 240
-0.985312, 305, 89, 368, 152
-0.98532, 161, 105, 224, 168
-0.985342, 169, 193, 232, 320
-0.985424, 201, 113, 232, 176
-0.98554, 241, 361, 368, 424
-0.985559, 57, 257, 120, 320
-0.985572, 105, 409, 168, 472
-0.985593, 317, 113, 348, 176
-0.985791, 249, 81, 312, 144
-0.985866, 125, 169, 156, 232
-0.985918, 169, 273, 232, 336
-0.985999, 313, 97, 344, 224
-0.986029, 173, 81, 204, 144
-0.986071, 185, 1, 248, 500
-0.986218, 201, 249, 264, 312
-0.986268, 85, 161, 116, 224
-0.986276, 233, 105, 296, 168
-0.986305, 93, 145, 124, 272
-0.986362, 325, 97, 356, 224
-0.986365, 161, 105, 192, 168
-0.986404, 201, 289, 264, 416
-0.986409, 249, 321, 280, 448
-0.986427, 185, 313, 216, 376
-0.986477, 5, 289, 36, 352
-0.98656, 17, 113, 144, 176
-0.986563, 5, 257, 36, 384
-0.986565, 161, 409, 224, 472
-0.986572, 57, 1, 120, 500
-0.98664, 69, 313, 100, 376
-0.98676, 161, 97, 192, 224
-0.986773, 69, 281, 100, 344
-0.986795, 121, 273, 184, 336
-0.986829, 37, 305, 68, 368
-0.986845, 177, 369, 208, 496
-0.986876, 241, 1, 304, 500
-0.986954, 65, 353, 96, 416
-0.986971, 41, 177, 104, 304
-0.986997, 49, 385, 112, 448
-0.987018, 89, 281, 120, 344
-0.987091, 1, 265, 64, 328
-0.987115, 9, 409, 72, 472
-0.987136, 265, 129, 296, 256
-0.987207, 273, 353, 336, 416
-0.987217, 97, 33, 160, 288
-0.98726, 217, 209, 280, 272
-0.987285, 225, 329, 352, 392
-0.987285, 225, 145, 256, 208
-0.987396, 273, 129, 336, 192
-0.987402, 85, 257, 116, 384
-0.987428, 53, 353, 84, 416
-0.987471, 97, 89, 352, 152
-0.987644, 1, 409, 128, 472
-0.987647, 161, 273, 192, 336
-0.987652, 177, 273, 208, 400
-0.987774, 233, 129, 264, 256
-0.987789, 137, 417, 200, 480
-0.987868, 33, 17, 288, 144
-0.987938, 49, 81, 176, 144
-0.987971, 41, 353, 72, 416
-0.987974, 281, 377, 344, 440
-0.988046, 225, 393, 256, 456
-0.988089, 5, 353, 36, 480
-0.988114, 1, 193, 64, 320
-0.988117, 49, 141, 112, 172
-0.988125, 113, 177, 144, 240
-0.988135, 57, 281, 88, 344
-0.988149, 113, 97, 144, 224
-0.988154, 249, 137, 280, 200
-0.988202, 25, 1, 88, 500
-0.988255, 201, 313, 264, 376
-0.988267, 9, 153, 40, 216
-0.988292, 129, 129, 192, 384
-0.988312, 101, 281, 132, 344
-0.988343, 181, 97, 212, 224
-0.988443, 257, 105, 320, 168
-0.988467, 193, 49, 320, 112
-0.988508, 285, 105, 316, 168
-0.988551, 177, 225, 240, 480
-0.988561, 97, 281, 224, 344
-0.988582, 149, 353, 180, 416
-0.98861, 225, 385, 352, 448
-0.988636, 89, 385, 152, 448
-0.988649, 237, 361, 268, 424
-0.988669, 197, 89, 228, 152
-0.988715, 201, 289, 232, 416
-0.988721, 197, 369, 228, 496
-0.988861, 49, 417, 176, 480
-0.988866, 241, 193, 304, 448
-0.988891, 253, 321, 284, 384
-0.988905, 225, 17, 256, 144
-0.988939, 213, 145, 244, 208
-0.989028, 85, 345, 116, 408
-0.989038, 105, 177, 168, 304
-0.989078, 1, 1, 64, 500
-0.989111, 17, 353, 48, 480
-0.989128, 33, 265, 160, 328
-0.989158, 269, 337, 300, 464
-0.989172, 185, 53, 248, 84
-0.989191, 241, 289, 368, 416
-0.989193, 225, 337, 256, 400
-0.989206, 97, 1, 160, 500
-0.989222, 281, 209, 344, 336
-0.989237, 145, 57, 208, 88
-0.98925, 241, 65, 272, 128
-0.989282, 9, 385, 72, 448
-0.989282, 257, 225, 320, 352
-0.989285, 17, 257, 48, 384
-0.989305, 33, 121, 288, 184
-0.989307, 129, 385, 192, 448
-0.989311, 285, 81, 316, 208
-0.989347, 129, 33, 256, 96
-0.989359, 217, 33, 248, 96
-0.989371, 201, 65, 264, 96
-0.989424, 121, 109, 184, 140
-0.989467, 249, 321, 312, 384
-0.989474, 249, 81, 280, 208
-0.989501, 281, 81, 344, 144
-0.989523, 137, 353, 168, 416
-0.989555, 209, 89, 272, 120
-0.989572, 229, 41, 260, 104
-0.989573, 245, 385, 276, 448
-0.989576, 201, 1, 232, 128
-0.989604, 97, 149, 160, 180
-0.989656, 273, 1, 336, 500
-0.989761, 81, 317, 144, 348
-0.989769, 181, 129, 212, 192
-0.989771, 49, 153, 112, 184
-0.989782, 1, 313, 256, 376
-0.989797, 209, 145, 240, 272
-0.989803, 9, 141, 72, 172
-0.989825, 121, 145, 184, 176
-0.989834, 37, 161, 68, 224
-0.98984, 297, 1, 360, 256
-0.989878, 137, 341, 200, 372
-0.98988, 177, 353, 240, 384
-0.989956, 185, 409, 248, 472
-0.989973, 161, 361, 192, 424
-0.989978, 41, 33, 104, 288
-0.98998, 65, 385, 192, 448
-0.990054, 65, 225, 96, 352
-0.990072, 1, 209, 128, 272
-0.99009, 105, 89, 168, 152
-0.990166, 33, 305, 96, 336
-0.99019, 161, 381, 224, 412
-0.990252, 25, 153, 88, 184
-0.990299, 161, 161, 224, 224
-0.990391, 113, 393, 240, 456
-0.990395, 81, 209, 144, 336
-0.9904, 161, 365, 224, 396
-0.990423, 169, 97, 232, 128
-0.99045, 145, 101, 208, 132
-0.990453, 289, 113, 352, 144
-0.990463, 125, 353, 156, 416
-0.990478, 201, 381, 264, 412
-0.990516, 1, 317, 64, 348
-0.990531, 225, 185, 288, 248
-0.990586, 73, 141, 136, 172
-0.990609, 265, 129, 296, 192
-0.990612, 65, 57, 192, 120
-0.990633, 121, 97, 184, 128
-0.990652, 109, 257, 140, 384
-0.990658, 121, 133, 184, 164
-0.990684, 137, 69, 200, 100
-0.990699, 169, 81, 232, 112
-0.990712, 89, 161, 152, 192
-0.990735, 129, 169, 256, 232
-0.990735, 177, 25, 240, 88
-0.990735, 97, 353, 128, 416
-0.990741, 9, 361, 72, 424
-0.990785, 209, 77, 272, 108
-0.990836, 313, 121, 374, 152
-0.99088, 209, 217, 336, 280
-0.990882, 97, 129, 128, 192
-0.990893, 277, 129, 308, 256
-0.990907, 113, 113, 144, 176
-0.990938, 97, 133, 160, 164
-0.990954, 49, 113, 80, 176
-0.990977, 241, 89, 368, 152
-0.99098, 205, 393, 236, 456
-0.991038, 1, 193, 32, 256
-0.991038, 201, 313, 232, 376
-0.991057, 145, 293, 208, 324
-0.991063, 121, 157, 184, 188
-0.991111, 145, 145, 208, 176
-0.991113, 161, 341, 224, 372
-0.991121, 113, 297, 176, 328
-0.991126, 153, 133, 216, 164
-0.99113, 81, 301, 144, 332
-0.991146, 25, 165, 88, 196
-0.991181, 169, 161, 200, 224
-0.991193, 25, 357, 88, 388
-0.991194, 137, 365, 200, 396
-0.991194, 97, 65, 352, 128
-0.991226, 49, 129, 112, 160
-0.991234, 237, 257, 268, 384
-0.991243, 237, 257, 268, 320
-0.991248, 1, 385, 128, 448
-0.991267, 249, 353, 280, 416
-0.991289, 57, 165, 120, 196
-0.991307, 89, 49, 152, 176
-0.991313, 209, 369, 272, 400
-0.991317, 209, 101, 272, 132
-0.99133, 97, 417, 224, 480
-0.991335, 209, 1, 336, 128
-0.991345, 145, 193, 208, 320
-0.991379, 205, 33, 236, 96
-0.991382, 193, 153, 224, 216
-0.991385, 49, 185, 176, 248
-0.991388, 145, 89, 208, 120
-0.991389, 129, 369, 160, 496
-0.991391, 305, 137, 368, 200
-0.991393, 145, 25, 208, 88
-0.991397, 41, 293, 104, 324
-0.991431, 281, 321, 344, 384
-0.991445, 273, 289, 336, 416
-0.991449, 25, 129, 88, 160
-0.991452, 193, 225, 256, 288
-0.99146, 121, 309, 184, 340
-0.991473, 113, 85, 176, 116
-0.991475, 209, 185, 336, 248
-0.991477, 249, 409, 312, 472
-0.991479, 169, 109, 232, 140
-0.991502, 265, 177, 328, 240
-0.991505, 213, 345, 244, 408
-0.991512, 65, 353, 128, 384
-0.991513, 145, 121, 208, 152
-0.991525, 121, 329, 184, 360
-0.991531, 137, 381, 200, 412
-0.991541, 137, 353, 200, 384
-0.991542, 89, 121, 152, 152
-0.991544, 1, 153, 64, 184
-0.991558, 177, 69, 240, 100
-0.991606, 289, 337, 352, 464
-0.991619, 209, 53, 272, 84
-0.991625, 25, 97, 88, 160
-0.991632, 185, 121, 248, 152
-0.991634, 25, 193, 88, 256
-0.991663, 161, 265, 288, 328
-0.991666, 89, 329, 152, 360
-0.991691, 233, 257, 296, 320
-0.991701, 21, 289, 52, 352
-0.991716, 97, 337, 352, 400
-0.991752, 41, 97, 72, 224
-0.991759, 201, 393, 264, 424
-0.99176, 185, 141, 248, 172
-0.991767, 237, 145, 268, 208
-0.991768, 249, 141, 312, 172
-0.99177, 57, 305, 120, 336
-0.991771, 201, 345, 264, 376
-0.99182, 141, 161, 172, 288
-0.991826, 101, 97, 132, 224
-0.991829, 1, 361, 64, 392
-0.991831, 97, 181, 160, 212
-0.991838, 197, 145, 228, 272
-0.991843, 209, 141, 272, 172
-0.991846, 97, 409, 128, 472
-0.991867, 265, 129, 328, 160
-0.991867, 113, 369, 176, 400
-0.991883, 165, 129, 196, 192
-0.99191, 161, 329, 224, 360
-0.991927, 109, 361, 140, 424
-0.991956, 21, 353, 52, 416
-0.991966, 1, 345, 64, 376
-0.991971, 53, 81, 84, 208
-0.991998, 1, 297, 64, 328
-0.991998, 81, 109, 144, 140
-0.992008, 217, 153, 280, 184
-0.992012, 233, 341, 296, 372
-0.992015, 129, 109, 160, 140
-0.992038, 337, 65, 368, 192
-0.992042, 241, 389, 304, 420
-0.992056, 189, 273, 220, 400
-0.992065, 285, 81, 316, 144
-0.992087, 121, 121, 184, 152
-0.992103, 309, 81, 340, 144
-0.992119, 289, 101, 352, 132
-0.992125, 73, 137, 104, 168
-0.99215, 173, 105, 204, 168
-0.992153, 241, 73, 304, 104
-0.992165, 1, 185, 128, 248
-0.992166, 49, 185, 112, 248
-0.992169, 273, 345, 304, 408
-0.992188, 29, 329, 60, 392
-0.992202, 25, 317, 88, 348
-0.99221, 141, 265, 172, 328
-0.992215, 61, 145, 92, 176
-0.992219, 97, 201, 160, 264
-0.99222, 313, 1, 374, 500
-0.992221, 13, 185, 44, 248
-0.992226, 145, 93, 176, 124
-0.992229, 105, 353, 168, 384
-0.992241, 245, 369, 276, 496
-0.992242, 161, 393, 224, 424
-0.992246, 229, 217, 260, 280
-0.992251, 181, 1, 212, 128
-0.99226, 229, 121, 260, 184
-0.992262, 121, 177, 184, 208
-0.992262, 281, 401, 344, 464
-0.992268, 177, 409, 304, 472
-0.992272, 73, 153, 104, 216
-0.992275, 169, 297, 232, 328
-0.992281, 57, 169, 88, 232
-0.992282, 1, 105, 64, 168
-0.992299, 241, 377, 304, 408
-0.992337, 145, 157, 208, 188
-0.992357, 133, 137, 164, 168
-0.992367, 265, 105, 328, 136
-0.992368, 209, 129, 272, 160
-0.992372, 113, 73, 176, 104
-0.99238, 193, 153, 256, 184
-0.992386, 233, 265, 296, 296
-0.992387, 1, 329, 64, 360
-0.992391, 97, 177, 128, 240
-0.992392, 313, 401, 374, 464
-0.992392, 81, 289, 144, 320
-0.992396, 97, 145, 352, 208
-0.9924, 209, 33, 272, 96
-0.992402, 233, 353, 296, 384
-0.992413, 41, 281, 72, 344
-0.992414, 193, 253, 256, 284
-0.992418, 1, 353, 32, 416
-0.992418, 105, 341, 168, 372
-0.992422, 81, 89, 144, 152
-0.992423, 177, 185, 240, 248
-0.992424, 153, 57, 184, 88
-0.992424, 9, 33, 72, 288
-0.992435, 185, 345, 216, 376
-0.99245, 129, 149, 160, 180
-0.992452, 193, 81, 224, 112
-0.992465, 41, 345, 104, 376
-0.992466, 73, 193, 136, 256
-0.992474, 185, 57, 216, 88
-0.992492, 213, 57, 244, 88
-0.99251, 165, 341, 196, 372
-0.992517, 1, 337, 256, 400
-0.992526, 81, 417, 112, 480
-0.992528, 57, 233, 120, 296
-0.992529, 197, 61, 228, 92
-0.992531, 145, 45, 208, 76
-0.992533, 17, 181, 80, 212
-0.992546, 49, 153, 80, 184
-0.992547, 265, 361, 328, 392
-0.992563, 137, 73, 168, 104
-0.992573, 225, 65, 256, 96
-0.992577, 157, 293, 188, 324
-0.992579, 213, 113, 244, 176
-0.992583, 57, 181, 120, 212
-0.992588, 209, 269, 272, 300
-0.992589, 37, 149, 68, 180
-0.992604, 45, 225, 76, 352
-0.992617, 289, 221, 352, 252
-0.992623, 113, 285, 176, 316
-0.992623, 241, 365, 304, 396
-0.992627, 233, 85, 296, 116
-0.99263, 233, 153, 296, 216
-0.992634, 145, 141, 176, 172
-0.992637, 177, 365, 208, 396
-0.992637, 209, 117, 272, 148
-0.992639, 265, 93, 328, 124
-0.992644, 185, 365, 248, 396
-0.992646, 337, 121, 368, 152
-0.992647, 265, 81, 296, 208
-0.992655, 145, 129, 176, 160
-0.992658, 145, 105, 176, 136
-0.992677, 165, 57, 196, 88
-0.992705, 249, 181, 312, 212
-0.992709, 113, 61, 176, 92
-0.992711, 57, 321, 120, 352
-0.992716, 1, 137, 374, 200
-0.992721, 41, 281, 104, 312
-0.992724, 145, 305, 208, 336
-0.992724, 133, 89, 164, 120
-0.99273, 157, 89, 188, 120
-0.992735, 313, 109, 374, 140
-0.992742, 141, 297, 172, 328
-0.992744, 201, 405, 264, 436
-0.992745, 165, 365, 196, 396
-0.992747, 193, 101, 224, 132
-0.992749, 185, 41, 248, 72
-0.992751, 25, 409, 88, 440
-0.992752, 217, 85, 248, 116
-0.992766, 241, 217, 304, 280
-0.992768, 33, 361, 288, 424
-0.992771, 305, 137, 368, 168
-0.992773, 49, 141, 80, 172
-0.992781, 129, 57, 256, 88
-0.992784, 153, 337, 184, 368
-0.992788, 205, 81, 236, 112
-0.992791, 5, 321, 36, 352
-0.992801, 1, 165, 64, 196
-0.992807, 65, 405, 128, 436
-0.992813, 17, 397, 80, 428
-0.992817, 81, 421, 144, 452
-0.992818, 169, 285, 232, 316
-0.992821, 97, 313, 128, 344
-0.992821, 141, 153, 172, 184
-0.992828, 117, 297, 148, 360
-0.992828, 105, 193, 168, 224
-0.99283, 177, 69, 208, 100
-0.992835, 313, 445, 374, 476
-0.992844, 193, 221, 256, 252
-0.992872, 9, 137, 40, 168
-0.992873, 21, 141, 52, 172
-0.99289, 17, 317, 48, 348
-0.992896, 229, 81, 260, 112
-0.992901, 113, 105, 240, 136
-0.992901, 213, 69, 244, 100
-0.992902, 61, 157, 92, 188
-0.992933, 217, 409, 280, 472
-0.992942, 145, 289, 272, 352
-0.992944, 317, 117, 348, 148
-0.992952, 205, 381, 236, 412
-0.992954, 189, 381, 220, 412
-0.992963, 125, 121, 156, 152
-0.992967, 185, 73, 216, 136
-0.992967, 17, 153, 48, 184
-0.992981, 77, 125, 108, 156
-0.992983, 77, 157, 108, 188
-0.992986, 179, 337, 194, 400
-0.992986, 33, 137, 64, 168
-0.993003, 45, 357, 76, 388
-0.993007, 133, 105, 148, 168
-0.993014, 157, 145, 188, 176
-0.993017, 1, 289, 256, 352
-0.993017, 197, 117, 228, 148
-0.993042, 117, 157, 148, 188
-0.993045, 205, 353, 236, 384
-0.993053, 205, 93, 236, 124
-0.993059, 33, 149, 160, 180
-0.993063, 89, 161, 120, 192
-0.993065, 1, 145, 256, 208
-0.993066, 85, 301, 116, 332
-0.993069, 209, 273, 272, 336
-0.993076, 49, 165, 80, 196
-0.993077, 157, 105, 188, 136
-0.993079, 89, 149, 120, 180
-0.993084, 141, 61, 172, 92
-0.993086, 173, 381, 204, 412
-0.993101, 301, 101, 332, 132
-0.993108, 345, 97, 374, 160
-0.993112, 149, 161, 180, 224
-0.99312, 113, 113, 144, 144
-0.993125, 125, 333, 156, 364
-0.993128, 169, 89, 200, 120
-0.993129, 237, 69, 268, 100
-0.993129, 169, 297, 200, 328
-0.993136, 161, 381, 192, 412
-0.993142, 85, 321, 116, 352
-0.993144, 297, 113, 328, 144
-0.99315, 37, 309, 68, 340
-0.993151, 65, 125, 96, 156
-0.993152, 153, 157, 184, 188
-0.993153, 129, 161, 160, 192
-0.993164, 313, 353, 374, 480
-0.993166, 149, 73, 180, 104
-0.993175, 145, 117, 176, 148
-0.993176, 173, 353, 204, 384
-0.99318, 189, 357, 220, 388
-0.993185, 241, 433, 368, 496
-0.993193, 5, 157, 36, 188
-0.993198, 237, 261, 268, 292
-0.9932, 137, 337, 168, 368
-0.993201, 121, 177, 152, 208
-0.993203, 197, 341, 228, 372
-0.993205, 233, 193, 264, 320
-0.99321, 117, 145, 148, 176
-0.993216, 37, 161, 68, 192
-0.993217, 181, 101, 212, 132
-0.993217, 229, 349, 260, 380
-0.993219, 105, 161, 136, 192
-0.993222, 193, 369, 224, 400
-0.993231, 225, 397, 256, 428
-0.993233, 161, 77, 192, 108
-0.993234, 237, 273, 268, 304
-0.993235, 85, 349, 116, 380
-0.993235, 57, 357, 88, 388
-0.993236, 221, 209, 252, 240
-0.993236, 113, 325, 144, 356
-0.99324, 149, 369, 180, 400
-0.99324, 245, 389, 276, 420
-0.993244, 5, 305, 36, 336
-0.993245, 213, 397, 244, 428
-0.993251, 73, 309, 104, 340
-0.993257, 253, 141, 284, 172
-0.993259, 1, 341, 32, 372
-0.993259, 277, 133, 308, 164
-0.99326, 25, 81, 56, 208
-0.993263, 185, 45, 216, 76
-0.993267, 185, 333, 216, 364
-0.993269, 117, 369, 148, 496
-0.993273, 221, 149, 252, 180
-0.993281, 157, 133, 188, 164
-0.993281, 101, 301, 132, 332
-0.993282, 225, 369, 256, 400
-0.993285, 181, 89, 212, 120
-0.993298, 157, 117, 188, 148
-0.993298, 157, 281, 188, 312
-0.993305, 21, 189, 52, 220
-0.993305, 225, 53, 256, 84
-0.993309, 229, 221, 260, 252
-0.993313, 69, 241, 100, 272
-0.993316, 233, 141, 264, 172
-0.993328, 241, 213, 272, 244
-0.993344, 61, 289, 92, 320
-0.993346, 145, 325, 176, 356
-0.993349, 129, 297, 160, 328
-0.993349, 81, 289, 112, 320
-0.99335, 73, 33, 136, 288
-0.993355, 45, 129, 76, 160
-0.993357, 121, 133, 152, 164
-0.99336, 141, 285, 172, 316
-0.99336, 173, 329, 204, 360
-0.993365, 1, 113, 374, 176
-0.993369, 225, 289, 256, 416
-0.993456, 129, 73, 256, 104
-0.993487, 313, 377, 374, 440
-0.993517, 313, 433, 374, 496
-0.993584, 129, 113, 374, 176
-0.993597, 139, 105, 154, 168
-0.993634, 145, 257, 208, 320
-0.993701, 173, 337, 188, 400
-0.993708, 121, 17, 184, 144
-0.993778, 313, 49, 344, 176
-0.993828, 1, 97, 256, 160
-0.993833, 49, 137, 176, 168
-0.993843, 141, 81, 156, 144
-0.993871, 301, 49, 332, 176
-0.993878, 249, 289, 312, 416
-0.99389, 65, 65, 128, 192
-0.993899, 213, 289, 244, 416
-0.993906, 145, 241, 272, 304
-0.993907, 281, 225, 344, 480
-0.993964, 147, 81, 162, 144
-0.99397, 281, 337, 312, 464
-0.993975, 113, 141, 240, 172
-0.99399, 265, 33, 328, 160
-0.994027, 257, 369, 288, 496
-0.994058, 313, 329, 374, 392
-0.994059, 5, 81, 36, 208
-0.994078, 1, 433, 128, 496
-0.994094, 223, 49, 238, 112
-0.9941, 97, 341, 224, 372
-0.994111, 145, 105, 160, 168
-0.994126, 193, 25, 320, 88
-0.99416, 225, 313, 288, 376
-0.994182, 185, 337, 200, 400
-0.99419, 161, 145, 192, 272
-0.994228, 145, 85, 272, 116
-0.994279, 49, 33, 176, 96
-0.994303, 135, 129, 150, 192
-0.994337, 79, 129, 94, 192
-0.994342, 145, 201, 272, 264
-0.99438, 1, 433, 64, 496
-0.9944, 43, 137, 58, 200
-0.994467, 133, 225, 164, 352
-0.99449, 97, 297, 352, 360
-0.994493, 159, 329, 174, 392
-0.994516, 165, 1, 196, 128
-0.994537, 167, 337, 182, 400
-0.99455, 195, 337, 210, 400
-0.994582, 17, 313, 144, 344
-0.994619, 71, 129, 86, 192
-0.994625, 129, 377, 374, 440
-0.994636, 225, 241, 352, 304
-0.994666, 213, 57, 228, 120
-0.994719, 151, 289, 166, 352
-0.994721, 127, 121, 142, 184
-0.994748, 1, 89, 374, 152
-0.994767, 147, 329, 162, 392
-0.994788, 81, 257, 208, 320
-0.994794, 1, 169, 256, 232
-0.994813, 91, 137, 106, 200
-0.994834, 17, 129, 32, 192
-0.994845, 49, 161, 176, 192
-0.994869, 177, 121, 304, 152
-0.99487, 1, 137, 128, 168
-0.994935, 153, 97, 168, 160
-0.994983, 139, 329, 154, 392
-0.994985, 81, 81, 112, 208
-0.994985, 153, 329, 168, 392
-0.995008, 113, 117, 240, 148
-0.995014, 1, 313, 374, 376
-0.995025, 1, 361, 374, 424
-0.995026, 169, 129, 232, 384
-0.995032, 325, 49, 356, 176
-0.995038, 181, 145, 212, 272
-0.995044, 65, 209, 192, 272
-0.995073, 241, 65, 368, 128
-0.995078, 149, 57, 164, 120
-0.995079, 1, 337, 374, 400
-0.995087, 165, 297, 180, 360
-0.995102, 193, 97, 320, 128
-0.995156, 229, 57, 244, 120
-0.995171, 91, 313, 106, 376
-0.995175, 69, 161, 100, 288
-0.995189, 145, 129, 160, 192
-0.995206, 179, 49, 194, 112
-0.995207, 113, 129, 240, 160
-0.995209, 221, 81, 236, 144
-0.995209, 1, 65, 256, 128
-0.995222, 33, 241, 160, 304
-0.995244, 177, 353, 304, 384
-0.995285, 165, 49, 180, 112
-0.995323, 65, 137, 80, 200
-0.99533, 157, 297, 172, 360
-0.995352, 135, 81, 150, 144
-0.995354, 159, 81, 174, 144
-0.995407, 173, 305, 188, 368
-0.995409, 235, 57, 250, 120
-0.995414, 85, 129, 100, 192
-0.995414, 57, 257, 88, 500
-0.995415, 129, 357, 256, 388
-0.995423, 177, 373, 304, 404
-0.995427, 133, 329, 148, 392
-0.995428, 199, 49, 214, 112
-0.995446, 357, 121, 372, 184
-0.995512, 301, 161, 332, 288
-0.995524, 127, 145, 142, 208
-0.995531, 179, 361, 194, 424
-0.99556, 171, 57, 186, 120
-0.995581, 33, 145, 48, 208
-0.995595, 77, 209, 108, 336
-0.995612, 201, 345, 216, 408
-0.995622, 205, 57, 220, 120
-0.995659, 85, 313, 100, 376
-0.995676, 139, 297, 154, 360
-0.995702, 17, 313, 32, 376
-0.995722, 7, 329, 22, 392
-0.99573, 221, 33, 252, 288
-0.995767, 193, 109, 320, 140
-0.995795, 129, 41, 374, 104
-0.995797, 129, 385, 256, 416
-0.99581, 127, 329, 142, 392
-0.995815, 155, 57, 170, 120
-0.995817, 241, 57, 256, 120
-0.99586, 23, 137, 38, 200
-0.995893, 237, 1, 268, 128
-0.995923, 97, 153, 224, 184
-0.995924, 33, 325, 160, 356
-0.995956, 5, 129, 20, 192
-0.995964, 209, 161, 336, 224
-0.995965, 157, 137, 172, 200
-0.995971, 187, 361, 202, 424
-0.995971, 241, 137, 368, 168
-0.996001, 25, 161, 40, 224
-0.996019, 17, 301, 144, 332
-0.996022, 241, 305, 368, 368
-0.996028, 351, 113, 366, 176
-0.996039, 41, 129, 72, 384
-0.996051, 245, 177, 276, 304
-0.996057, 207, 345, 222, 408
-0.996072, 199, 369, 214, 432
-0.996083, 343, 113, 358, 176
-0.996093, 17, 357, 144, 388
-0.996101, 97, 369, 224, 400
-0.996101, 191, 49, 206, 112
-0.996118, 177, 341, 304, 372
-0.996121, 97, 241, 128, 368
-0.996122, 179, 305, 194, 368
-0.996133, 57, 161, 72, 224
-0.996134, 319, 105, 334, 168
-0.99614, 161, 141, 288, 172
-0.996142, 69, 97, 100, 352
-0.996144, 193, 85, 320, 116
-0.996164, 121, 321, 136, 384
-0.996167, 1, 313, 16, 376
-0.996174, 1, 65, 374, 128
-0.996213, 97, 313, 112, 376
-0.996215, 329, 113, 344, 176
-0.99622, 65, 125, 192, 156
-0.996232, 145, 433, 272, 496
-0.99625, 185, 49, 200, 112
-0.99625, 99, 137, 114, 200
-0.996263, 185, 313, 200, 376
-0.996263, 1, 281, 374, 344
-0.996273, 151, 121, 166, 184
-0.996302, 239, 361, 254, 424
-0.996324, 1, 385, 256, 448
-0.996335, 49, 145, 64, 208
-0.996337, 177, 385, 304, 416
-0.99635, 215, 81, 230, 144
-0.996371, 23, 313, 38, 376
-0.996385, 97, 93, 224, 124
-0.996385, 7, 289, 22, 352
-0.996401, 145, 289, 160, 352
-0.996409, 127, 169, 142, 232
-0.996421, 335, 113, 350, 176
-0.996425, 11, 121, 26, 184
-0.996425, 305, 193, 368, 320
-0.996433, 299, 105, 314, 168
-0.996444, 121, 153, 136, 216
-0.996467, 13, 337, 28, 400
-0.996487, 209, 113, 224, 176
-0.996559, 241, 117, 368, 148
-0.996562, 59, 137, 74, 200
-0.996567, 45, 257, 76, 500
-0.996567, 233, 33, 264, 288
-0.996569, 127, 97, 142, 160
-0.996596, 177, 69, 304, 100
-0.996611, 65, 353, 192, 384
-0.996644, 207, 81, 222, 144
-0.996651, 97, 317, 224, 348
-0.996654, 133, 297, 148, 360
-0.996657, 193, 361, 208, 424
-0.996659, 1, 209, 32, 336
-0.996668, 161, 105, 176, 168
-0.996669, 77, 353, 92, 416
-0.996685, 93, 161, 108, 224
-0.996714, 31, 313, 46, 376
-0.996728, 177, 225, 208, 352
-0.996731, 141, 57, 156, 120
-0.996744, 41, 305, 56, 368
-0.996753, 69, 353, 84, 416
-0.996757, 11, 145, 26, 208
-0.996762, 209, 65, 240, 320
-0.996768, 313, 305, 374, 432
-0.99677, 241, 409, 368, 472
-0.996782, 129, 129, 160, 384
-0.996784, 227, 353, 242, 416
-0.996792, 77, 321, 92, 384
-0.996796, 241, 81, 256, 144
-0.996797, 111, 153, 126, 216
-0.9968, 153, 353, 168, 416
-0.996808, 97, 169, 352, 232
-0.99683, 219, 361, 234, 424
-0.996835, 91, 281, 106, 344
-0.996853, 253, 137, 268, 200
-0.996853, 85, 257, 116, 500
-0.996856, 51, 353, 66, 416
-0.996859, 145, 33, 176, 288
-0.99688, 209, 273, 336, 336
-0.996895, 99, 161, 114, 224
-0.996898, 245, 361, 260, 424
-0.996908, 57, 353, 72, 416
-0.996911, 179, 341, 194, 372
-0.996916, 97, 329, 224, 360
-0.996931, 223, 145, 238, 208
-0.996939, 101, 289, 116, 352
-0.996958, 1, 161, 374, 224
-0.996974, 63, 353, 78, 416
-0.996998, 69, 257, 100, 500
-0.997011, 69, 145, 84, 176
-0.997012, 231, 145, 246, 208
-0.997015, 289, 161, 320, 288
-0.997022, 63, 161, 78, 224
-0.997027, 21, 129, 52, 384
-0.997034, 1, 165, 128, 196
-0.997042, 177, 33, 208, 288
-0.997046, 173, 361, 188, 424
-0.997067, 213, 385, 228, 448
-0.997079, 155, 93, 170, 124
-0.997086, 159, 353, 174, 416
-0.99709, 227, 81, 242, 144
-0.997093, 309, 113, 324, 176
-0.997101, 171, 89, 186, 152
-0.997104, 53, 129, 84, 384
-0.997104, 1, 89, 128, 152
-0.997112, 121, 113, 136, 176
-0.997116, 147, 265, 162, 328
-0.997116, 39, 161, 54, 224
-0.997125, 201, 113, 216, 176
-0.99713, 79, 129, 94, 160
-0.997133, 97, 305, 224, 336
-0.997137, 131, 109, 146, 140
-0.997191, 149, 125, 164, 156
-0.99721, 165, 33, 196, 288
-0.997226, 153, 141, 168, 172
-0.997244, 29, 257, 60, 500
-0.997261, 81, 129, 112, 384
-0.997267, 197, 33, 228, 288
-0.997272, 145, 153, 272, 184
-0.997273, 225, 365, 352, 396
-0.997281, 65, 257, 320, 320
-0.997286, 81, 65, 208, 96
-0.997287, 63, 145, 78, 176
-0.997293, 135, 133, 150, 164
-0.997311, 33, 289, 160, 320
-0.997312, 149, 1, 180, 128
-0.997328, 141, 133, 156, 164
-0.997328, 145, 397, 272, 428
-0.997334, 1, 193, 256, 256
-0.997338, 101, 129, 132, 384
-0.997374, 145, 77, 160, 108
-0.997378, 221, 129, 252, 384
-0.997386, 189, 341, 204, 372
-0.997394, 225, 385, 352, 416
-0.997398, 43, 141, 58, 172
-0.997398, 149, 89, 164, 120
-0.997406, 89, 141, 104, 172
-0.997413, 1, 97, 32, 352
-0.997415, 191, 53, 206, 84
-0.997416, 33, 337, 160, 368
-0.997431, 139, 113, 154, 144
-0.997432, 97, 233, 224, 296
-0.997449, 49, 81, 176, 112
-0.997459, 205, 65, 220, 96
-0.997462, 69, 133, 84, 164
-0.997479, 277, 177, 308, 304
-0.997479, 199, 57, 214, 88
-0.997487, 113, 165, 240, 196
-0.997493, 131, 145, 146, 176
-0.9975, 1, 385, 374, 448
-0.997523, 147, 101, 162, 132
-0.997526, 161, 325, 288, 356
-0.997538, 221, 193, 252, 320
-0.997541, 189, 353, 204, 384
-0.997552, 155, 293, 170, 324
-0.997553, 179, 365, 194, 396
-0.997581, 117, 129, 148, 384
-0.997583, 233, 129, 264, 384
-0.997589, 109, 257, 140, 500
-0.997633, 147, 137, 162, 168
-0.997633, 141, 89, 156, 120
-0.997638, 215, 57, 230, 88
-0.99764, 165, 193, 196, 320
-0.997646, 181, 57, 196, 88
-0.997648, 49, 113, 176, 144
-0.997657, 57, 153, 72, 184
-0.997662, 269, 289, 300, 416
-0.997664, 81, 381, 208, 412
-0.99767, 225, 73, 352, 104
-0.997675, 193, 397, 320, 428
-0.997686, 97, 401, 352, 464
-0.99769, 209, 149, 336, 180
-0.997698, 177, 57, 304, 88
-0.997704, 49, 181, 176, 212
-0.997729, 301, 97, 332, 352
-0.997744, 207, 101, 222, 132
-0.997754, 129, 129, 144, 160
-0.997754, 201, 345, 216, 376
-0.997757, 97, 257, 128, 500
-0.997759, 1, 417, 256, 480
-0.99777, 1, 193, 32, 448
-0.997789, 241, 105, 368, 136
-0.997808, 47, 153, 62, 184
-0.997812, 189, 65, 204, 96
-0.997812, 175, 57, 190, 88
-0.997814, 97, 177, 224, 208
-0.997827, 125, 161, 156, 288
-0.997829, 137, 145, 152, 176
-0.997838, 161, 89, 176, 120
-0.997841, 133, 33, 164, 288
-0.997843, 1, 185, 128, 216
-0.997851, 223, 53, 238, 84
-0.997857, 153, 57, 168, 88
-0.997866, 341, 97, 372, 352
-0.997868, 17, 125, 144, 156
-0.997877, 349, 121, 364, 152
-0.99788, 63, 161, 78, 192
-0.99788, 289, 65, 320, 320
-0.997884, 151, 73, 166, 104
-0.997889, 163, 57, 178, 88
-0.997902, 239, 69, 254, 100
-0.997911, 15, 133, 30, 164
-0.997919, 329, 97, 360, 352
-0.997924, 233, 69, 248, 100
-0.997925, 245, 65, 276, 320
-0.997929, 195, 341, 210, 372
-0.997946, 155, 153, 170, 184
-0.997954, 163, 337, 178, 368
-0.997956, 185, 241, 248, 368
-0.997956, 357, 125, 372, 156
-0.997959, 339, 121, 354, 152
-0.997965, 317, 97, 348, 352
-0.997967, 9, 321, 24, 352
-0.997969, 1, 233, 128, 264
-0.997974, 331, 117, 346, 148
-0.997987, 241, 33, 368, 96
-0.997987, 257, 193, 288, 320
-0.997987, 229, 257, 260, 500
-0.997994, 173, 341, 188, 372
-0.997997, 13, 145, 28, 176
-0.997999, 163, 105, 178, 136
-0.998, 23, 149, 38, 180
-0.998018, 33, 389, 160, 420
-0.998028, 153, 113, 168, 144
-0.998041, 33, 41, 288, 104
-0.998043, 215, 77, 230, 108
-0.998046, 3, 137, 18, 168
-0.998064, 99, 149, 114, 180
-0.998073, 23, 137, 38, 168
-0.998082, 209, 221, 336, 252
-0.99809, 69, 161, 84, 192
-0.998098, 17, 225, 48, 480
-0.998099, 149, 289, 164, 320
-0.9981, 129, 45, 256, 76
-0.998105, 93, 165, 108, 196
-0.998106, 37, 145, 52, 176
-0.998107, 81, 293, 208, 324
-0.998111, 169, 97, 184, 128
-0.998114, 31, 153, 46, 184
-0.998115, 149, 257, 180, 500
-0.998117, 1, 429, 128, 460
-0.998119, 173, 297, 188, 328
-0.99812, 193, 433, 320, 496
-0.998125, 139, 77, 154, 108
-0.998126, 323, 113, 338, 144
-0.998133, 289, 209, 320, 336
-0.998133, 187, 373, 202, 404
-0.998136, 125, 149, 140, 180
-0.998163, 221, 77, 236, 108
-0.998169, 145, 65, 160, 96
-0.998171, 161, 225, 192, 480
-0.998177, 169, 57, 184, 88
-0.99818, 325, 161, 356, 288
-0.998182, 75, 141, 90, 172
-0.998183, 121, 257, 152, 500
-0.998194, 193, 373, 208, 404
-0.998196, 91, 153, 106, 184
-0.998202, 199, 381, 214, 412
-0.998205, 235, 221, 250, 252
-0.99821, 125, 109, 140, 140
-0.998218, 229, 57, 244, 88
-0.998221, 217, 257, 248, 500
-0.998223, 81, 197, 208, 228
-0.998223, 185, 225, 216, 480
-0.998225, 153, 129, 184, 384
-0.998228, 161, 293, 176, 324
-0.998228, 91, 305, 106, 336
-0.998237, 131, 161, 146, 192
-0.998238, 139, 333, 154, 364
-0.998238, 157, 333, 172, 364
-0.99824, 193, 81, 208, 112
-0.998243, 227, 69, 242, 100
-0.998247, 171, 369, 186, 400
-0.998249, 9, 341, 24, 372
-0.99826, 3, 149, 18, 180
-0.998261, 25, 161, 40, 192
-0.998267, 149, 153, 164, 184
-0.998282, 225, 353, 352, 384
-0.998287, 215, 93, 230, 124
-0.998293, 241, 465, 368, 496
-0.998295, 307, 101, 322, 132
-0.998297, 159, 141, 174, 172
-0.998303, 233, 209, 248, 240
-0.998303, 199, 81, 214, 112
-0.998307, 7, 125, 22, 156
-0.998308, 91, 325, 106, 356
-0.998316, 59, 357, 74, 388
-0.998316, 137, 257, 168, 500
-0.998319, 99, 161, 114, 192
-0.998319, 1, 233, 16, 264
-0.998319, 317, 113, 332, 144
-0.998321, 81, 421, 208, 452
-0.998323, 169, 385, 184, 416
-0.998329, 289, 33, 320, 160
-0.99833, 195, 353, 210, 384
-0.998334, 129, 201, 256, 232
-0.99834, 299, 225, 314, 256
-0.998341, 143, 149, 158, 180
-0.998342, 183, 353, 198, 384
-0.998343, 49, 369, 176, 400
-0.998348, 97, 397, 224, 428
-0.998349, 141, 129, 172, 384
-0.998349, 207, 81, 222, 112
-0.998359, 85, 321, 116, 336
-0.998359, 145, 333, 176, 348
-0.99836, 229, 61, 260, 76
-0.998362, 185, 339, 216, 354
-0.998363, 181, 103, 212, 118
-0.998364, 133, 295, 164, 310
-0.998364, 61, 151, 92, 166
-0.998365, 5, 317, 36, 332
-0.998365, 189, 373, 220, 388
-0.998366, 81, 305, 112, 320
-0.998366, 149, 127, 180, 142
-0.998367, 29, 135, 60, 150
-0.998367, 157, 85, 188, 100
-0.998368, 309, 117, 340, 132
-0.998369, 157, 291, 188, 306
-0.998371, 193, 107, 224, 122
-0.998371, 57, 359, 88, 374
-0.998373, 125, 337, 156, 352
-0.998373, 125, 131, 156, 146
-0.998375, 309, 109, 340, 124
-0.998377, 297, 109, 328, 124
-0.998377, 97, 313, 128, 328
-0.998378, 185, 71, 216, 86
-0.998379, 197, 91, 228, 106
-0.998379, 197, 123, 228, 138
-0.998382, 1, 125, 16, 156
-0.998382, 145, 71, 176, 86
-0.998383, 205, 383, 236, 398
-0.998384, 169, 297, 200, 312
-0.998385, 85, 157, 116, 172
-0.998386, 169, 103, 200, 118
-0.998386, 225, 209, 352, 240
-0.998387, 19, 321, 34, 352
-0.998387, 113, 181, 144, 196
-0.998387, 221, 223, 252, 238
-0.998388, 147, 113, 162, 144
-0.998391, 233, 259, 264, 274
-0.998394, 161, 369, 192, 384
-0.998395, 205, 391, 236, 406
-0.998398, 333, 123, 364, 138
-0.998399, 173, 63, 204, 78
-0.998401, 193, 101, 208, 132
-0.998403, 133, 337, 148, 368
-0.998403, 217, 91, 248, 106
-0.998404, 1, 153, 32, 168
-0.998405, 29, 141, 44, 172
-0.998406, 17, 321, 48, 336
-0.998407, 237, 265, 268, 280
-0.998409, 225, 77, 256, 92
-0.99841, 175, 381, 190, 412
-0.998412, 165, 111, 196, 126
-0.998413, 185, 385, 216, 400
-0.998413, 51, 357, 66, 388
-0.998414, 173, 373, 204, 388
-0.998414, 165, 365, 180, 396
-0.998414, 297, 115, 328, 130
-0.998415, 243, 261, 258, 292
-0.998416, 77, 315, 108, 330
-0.998416, 97, 155, 128, 170
-0.998417, 65, 131, 96, 146
-0.998418, 121, 159, 152, 174
-0.998419, 229, 85, 260, 100
-0.998419, 141, 83, 172, 98
-0.998419, 89, 163, 120, 178
-0.998419, 129, 143, 160, 158
-0.99842, 197, 67, 228, 82
-0.998421, 147, 337, 162, 368
-0.998422, 45, 359, 76, 374
-0.998422, 5, 323, 36, 338
-0.998422, 153, 151, 184, 166
-0.998423, 161, 377, 192, 392
-0.998423, 221, 89, 236, 120
-0.998423, 201, 85, 232, 100
-0.998423, 201, 101, 216, 132
-0.998424, 197, 113, 228, 128
-0.998424, 13, 153, 44, 168
-0.998425, 5, 333, 36, 348
-0.998425, 189, 81, 220, 96
-0.998425, 157, 91, 188, 106
-0.998426, 129, 117, 160, 132
-0.998428, 49, 143, 112, 158
-0.998428, 197, 61, 228, 76
-0.998429, 133, 137, 164, 152
-0.99843, 145, 293, 176, 308
-0.998431, 41, 309, 56, 340
-0.998432, 57, 137, 88, 152
-0.998433, 157, 105, 188, 120
-0.998434, 157, 303, 188, 318
-0.998434, 77, 163, 108, 178
-0.998434, 185, 57, 248, 72
-0.998435, 9, 143, 40, 158
-0.998438, 153, 143, 184, 158
-0.99844, 121, 147, 184, 162
-0.998442, 141, 77, 172, 92
-0.998443, 201, 377, 232, 392
-0.998444, 145, 133, 176, 148
-0.998445, 201, 349, 232, 364
-0.998445, 245, 77, 260, 108
-0.998446, 217, 71, 248, 86
-0.998447, 15, 161, 30, 192
-0.998447, 77, 131, 108, 146
-0.998448, 197, 357, 228, 372
-0.998448, 21, 159, 52, 174
-0.998448, 145, 61, 208, 76
-0.998448, 141, 101, 156, 132
-0.998448, 141, 155, 172, 170
-0.998449, 185, 63, 216, 78
-0.99845, 121, 153, 184, 168
-0.99845, 225, 341, 352, 372
-0.998452, 41, 161, 72, 176
-0.998452, 97, 319, 128, 334
-0.998453, 169, 345, 200, 360
-0.998454, 205, 77, 236, 92
-0.998455, 177, 351, 240, 366
-0.998455, 137, 109, 168, 124
-0.998461, 217, 85, 248, 100
-0.998464, 157, 99, 188, 114
-0.998464, 53, 167, 84, 182
-0.998468, 137, 93, 168, 108
-0.998469, 321, 117, 352, 132
-0.998469, 213, 63, 244, 78
-0.99847, 153, 339, 184, 354
-0.99847, 197, 101, 228, 116
-0.99847, 49, 155, 112, 170
-0.998471, 69, 157, 100, 172
-0.998472, 173, 363, 204, 378
-0.998473, 9, 137, 40, 152
-0.998473, 161, 409, 288, 440
-0.998478, 141, 149, 172, 164
-0.998479, 153, 111, 184, 126
-0.998481, 345, 125, 374, 140
-0.998482, 33, 409, 160, 440
-0.998485, 141, 301, 172, 316
-0.998489, 133, 125, 164, 140
-0.998492, 57, 161, 88, 176
-0.998493, 29, 141, 60, 156
-0.998497, 97, 149, 160, 164
-0.998497, 229, 67, 260, 82
-0.998501, 169, 105, 232, 120
-0.998501, 25, 155, 88, 170
-0.998502, 169, 379, 232, 394
-0.998503, 121, 113, 184, 128
-0.998504, 169, 57, 200, 72
-0.998504, 49, 143, 80, 158
-0.998508, 77, 145, 108, 160
-0.998509, 233, 241, 296, 368
-0.998513, 57, 149, 120, 164
-0.998513, 25, 149, 88, 164
-0.998517, 241, 449, 368, 480
-0.998522, 89, 161, 152, 176
-0.998523, 29, 147, 60, 162
-0.998525, 201, 67, 264, 82
-0.998526, 149, 61, 180, 76
-0.998527, 137, 343, 200, 358
-0.998528, 189, 379, 220, 394
-0.998529, 209, 233, 336, 264
-0.998529, 177, 379, 208, 394
-0.99853, 81, 321, 144, 336
-0.998531, 65, 145, 96, 160
-0.998531, 213, 57, 244, 72
-0.998531, 201, 75, 264, 90
-0.998531, 177, 357, 240, 372
-0.998532, 185, 359, 216, 374
-0.998533, 49, 151, 80, 166
-0.998533, 145, 103, 176, 118
-0.998534, 161, 55, 224, 70
-0.998534, 37, 155, 68, 170
-0.998536, 97, 155, 160, 170
-0.99854, 209, 89, 272, 104
-0.998541, 165, 321, 180, 448
-0.998548, 121, 107, 184, 122
-0.998549, 153, 97, 216, 112
-0.998552, 289, 117, 352, 132
-0.998553, 25, 141, 88, 156
-0.998553, 185, 81, 248, 96
-0.998555, 137, 79, 200, 94
-0.998556, 25, 165, 88, 180
-0.998556, 49, 161, 112, 176
-0.998558, 73, 315, 136, 330
-0.998559, 33, 311, 96, 326
-0.99856, 161, 345, 224, 360
-0.998561, 121, 141, 184, 156
-0.998561, 145, 147, 208, 162
-0.998562, 153, 371, 216, 386
-0.998565, 49, 137, 112, 152
-0.998566, 185, 57, 216, 72
-0.998566, 157, 297, 188, 312
-0.998568, 161, 385, 224, 400
-0.998568, 313, 123, 374, 138
-0.99857, 25, 359, 88, 374
-0.998573, 185, 353, 216, 368
-0.998574, 177, 363, 240, 378
-0.998577, 1, 153, 64, 168
-0.998584, 1, 315, 64, 330
-0.998585, 169, 113, 232, 128
-0.998585, 185, 345, 216, 360
-0.998586, 201, 393, 264, 408
-0.998586, 137, 297, 200, 312
-0.998587, 145, 103, 208, 118
-0.998595, 145, 73, 208, 88
-0.998596, 41, 305, 104, 320
-0.998596, 177, 99, 240, 114
-0.998596, 209, 95, 272, 110
-0.998598, 141, 143, 172, 158
-0.998599, 171, 289, 186, 416
-0.9986, 1, 221, 128, 252
-0.998601, 209, 101, 272, 116
-0.998601, 201, 351, 264, 366
-0.998603, 177, 63, 240, 78
-0.998603, 153, 351, 216, 366
-0.998603, 153, 365, 216, 380
-0.998605, 113, 301, 176, 316
-0.998607, 57, 167, 120, 182
-0.998607, 145, 141, 208, 156
-0.998608, 73, 143, 136, 158
-0.998608, 145, 133, 208, 148
-0.998611, 145, 261, 272, 292
-0.998612, 1, 333, 64, 348
-0.998613, 73, 139, 104, 154
-0.998614, 289, 111, 352, 126
-0.998615, 209, 61, 272, 76
-0.998615, 25, 135, 88, 150
-0.998616, 129, 125, 192, 140
-0.998617, 201, 257, 232, 500
-0.998617, 209, 83, 272, 98
-0.998618, 1, 321, 64, 336
-0.998619, 201, 383, 264, 398
-0.998619, 145, 67, 208, 82
-0.99862, 1, 159, 64, 174
-0.998621, 145, 379, 208, 394
-0.998622, 49, 359, 112, 374
-0.998623, 185, 51, 248, 66
-0.998624, 145, 303, 208, 318
-0.998624, 161, 397, 224, 412
-0.998624, 81, 309, 144, 324
-0.998625, 177, 373, 240, 388
-0.998626, 97, 143, 160, 158
-0.998626, 121, 337, 184, 352
-0.998626, 121, 161, 184, 176
-0.998626, 241, 409, 368, 440
-0.998627, 193, 161, 320, 192
-0.998627, 33, 197, 160, 228
-0.998627, 81, 327, 144, 342
-0.998629, 113, 89, 176, 104
-0.998629, 177, 93, 240, 108
-0.998631, 209, 111, 272, 126
-0.998632, 25, 317, 88, 332
-0.998636, 81, 121, 144, 136
-0.998637, 121, 119, 184, 134
-0.998638, 145, 153, 208, 168
-0.99864, 177, 87, 240, 102
-0.998641, 201, 377, 264, 392
-0.998643, 177, 299, 240, 314
-0.998645, 1, 137, 64, 152
-0.998645, 125, 111, 156, 126
-0.998647, 185, 127, 248, 142
-0.998648, 145, 89, 208, 104
-0.998649, 209, 147, 272, 162
-0.99865, 161, 79, 224, 94
-0.998651, 1, 309, 64, 324
-0.998652, 89, 333, 152, 348
-0.998652, 129, 149, 160, 164
-0.998652, 209, 117, 272, 132
-0.998654, 157, 321, 172, 448
-0.998654, 81, 183, 144, 198
-0.998654, 73, 155, 136, 170
-0.998655, 81, 297, 144, 312
-0.998657, 241, 81, 304, 96
-0.998657, 209, 55, 272, 70
-0.998657, 217, 371, 280, 386
-0.998658, 201, 345, 264, 360
-0.998658, 1, 145, 64, 160
-0.998662, 153, 357, 216, 372
-0.998662, 49, 353, 112, 368
-0.998662, 1, 327, 64, 342
-0.998663, 113, 135, 176, 150
-0.998663, 177, 391, 240, 406
-0.998663, 49, 429, 112, 444
-0.998664, 57, 299, 120, 314
-0.998664, 97, 175, 160, 190
-0.998664, 169, 119, 232, 134
-0.998665, 241, 391, 304, 406
-0.998665, 97, 315, 160, 330
-0.998666, 73, 363, 136, 378
-0.998666, 1, 363, 64, 378
-0.998666, 121, 331, 184, 346
-0.998667, 201, 401, 264, 416
-0.998667, 145, 291, 208, 306
-0.998668, 41, 293, 104, 308
-0.998669, 121, 175, 184, 190
-0.998669, 65, 131, 128, 146
-0.998669, 209, 265, 272, 280
-0.998669, 121, 101, 184, 116
-0.998677, 249, 273, 280, 400
-0.998688, 147, 321, 162, 448
-0.998689, 225, 57, 352, 88
-0.99871, 181, 321, 196, 448
-0.998713, 277, 65, 308, 320
-0.998715, 145, 217, 272, 248
-0.998728, 209, 45, 336, 76
-0.99873, 49, 93, 176, 124
-0.998752, 97, 193, 352, 256
-0.998757, 141, 321, 156, 448
-0.998759, 39, 289, 54, 416
-0.998775, 29, 33, 60, 288
-0.998795, 193, 425, 320, 456
-0.99882, 77, 113, 92, 240
-0.998821, 189, 321, 204, 448
-0.998821, 151, 273, 166, 400
-0.99883, 203, 65, 218, 192
-0.99884, 15, 305, 30, 432
-0.998846, 145, 181, 272, 212
-0.998853, 217, 65, 232, 192
-0.998866, 261, 33, 292, 288
-0.998868, 1, 289, 16, 416
-0.998868, 241, 65, 256, 192
-0.998869, 231, 337, 246, 464
-0.998879, 45, 289, 60, 416
-0.998885, 65, 437, 192, 468
-0.998888, 1, 185, 374, 248
-0.998894, 99, 289, 114, 416
-0.998897, 49, 49, 176, 80
-0.998902, 57, 289, 72, 416
-0.998902, 21, 305, 36, 432
-0.998903, 197, 49, 212, 176
-0.998908, 93, 305, 108, 432
-0.998914, 29, 305, 44, 432
-0.998919, 135, 321, 150, 448
-0.998928, 241, 89, 368, 120
-0.998929, 65, 273, 80, 400
-0.998929, 235, 65, 250, 192
-0.998932, 1, 245, 128, 276
-0.998933, 7, 321, 22, 448
-0.998935, 85, 305, 100, 432
-0.998938, 309, 1, 340, 256
-0.998941, 125, 305, 140, 432
-0.998941, 91, 129, 106, 256
-0.998942, 129, 421, 256, 452
-0.998945, 225, 329, 352, 360
-0.998946, 225, 65, 240, 192
-0.998949, 145, 65, 160, 192
-0.998951, 33, 217, 288, 280
-0.998953, 17, 33, 48, 288
-0.998955, 153, 49, 168, 176
-0.998977, 53, 33, 84, 288
-0.99898, 241, 181, 368, 212
-0.99898, 209, 265, 336, 296
-0.998985, 121, 33, 152, 288
-0.998985, 173, 225, 204, 480
-0.998989, 177, 205, 304, 236
-0.998989, 83, 113, 98, 240
-0.99899, 237, 337, 252, 464
-0.998991, 151, 113, 166, 240
-0.998992, 191, 33, 206, 160
-0.998993, 51, 289, 66, 416
-0.999003, 157, 273, 172, 400
-0.999008, 113, 409, 240, 440
-0.999009, 209, 161, 240, 416
-0.999013, 163, 49, 178, 176
-0.999017, 245, 161, 276, 416
-0.999017, 183, 49, 198, 176
-0.999025, 1, 257, 374, 320
-0.999025, 249, 257, 280, 500
-0.999027, 65, 273, 192, 304
-0.999028, 175, 337, 190, 464
-0.999031, 243, 337, 258, 464
-0.999034, 197, 337, 212, 464
-0.999038, 165, 273, 180, 400
-0.99905, 211, 65, 226, 192
-0.999051, 119, 305, 134, 432
-0.999051, 169, 49, 184, 176
-0.999062, 129, 217, 374, 280
-0.999071, 247, 65, 262, 192
-0.999076, 79, 305, 94, 432
-0.999078, 145, 249, 272, 280
-0.999079, 43, 129, 58, 256
-0.99908, 1, 209, 374, 272
-0.999087, 141, 113, 156, 240
-0.999088, 129, 293, 256, 324
-0.999093, 351, 113, 366, 240
-0.999094, 65, 233, 192, 264
-0.999095, 145, 273, 160, 400
-0.999095, 9, 273, 24, 400
-0.999096, 129, 425, 374, 488
-0.999099, 261, 129, 292, 384
-0.9991, 105, 289, 120, 416
-0.9991, 51, 337, 66, 464
-0.999107, 39, 337, 54, 464
-0.999108, 165, 369, 180, 496
-0.999111, 129, 457, 256, 488
-0.999113, 225, 337, 240, 464
-0.999113, 345, 113, 360, 240
-0.999114, 21, 129, 36, 256
-0.999116, 113, 289, 128, 416
-0.999116, 357, 113, 372, 240
-0.999117, 71, 113, 86, 240
-0.999119, 177, 193, 304, 224
-0.99912, 129, 97, 144, 224
-0.999123, 193, 449, 320, 480
-0.999123, 7, 129, 22, 256
-0.999127, 71, 273, 86, 400
-0.999128, 113, 353, 128, 480
-0.99913, 177, 49, 192, 176
-0.999136, 45, 337, 60, 464
-0.99914, 337, 113, 352, 240
-0.999148, 337, 1, 368, 256
-0.999152, 61, 337, 76, 464
-0.999155, 113, 437, 240, 468
-0.999158, 13, 113, 28, 240
-0.999159, 177, 273, 192, 400
-0.999161, 29, 129, 44, 256
-0.999163, 251, 129, 266, 256
-0.99917, 119, 353, 134, 480
-0.99917, 127, 145, 142, 272
-0.999173, 331, 97, 346, 224
-0.999173, 249, 337, 264, 464
-0.999175, 51, 145, 66, 272
-0.999201, 57, 145, 72, 272
-0.999211, 135, 97, 150, 224
-0.999215, 129, 353, 144, 480
-0.999215, 131, 273, 146, 400
-0.999215, 103, 337, 118, 464
-0.999216, 197, 97, 212, 224
-0.999218, 37, 129, 52, 256
-0.999218, 219, 337, 234, 464
-0.999223, 65, 129, 80, 256
-0.999224, 157, 97, 172, 224
-0.999225, 229, 145, 244, 272
-0.999228, 325, 97, 340, 224
-0.999231, 225, 17, 240, 144
-0.999234, 209, 245, 336, 276
-0.999238, 17, 441, 144, 472
-0.99924, 239, 145, 254, 272
-0.999242, 139, 273, 154, 400
-0.999245, 157, 369, 172, 496
-0.999247, 79, 353, 94, 480
-0.999248, 121, 129, 136, 256
-0.99925, 223, 129, 238, 256
-0.999263, 193, 173, 320, 204
-0.999266, 199, 289, 214, 416
-0.999268, 321, 1, 352, 256
-0.999276, 189, 273, 204, 400
-0.999278, 89, 353, 104, 480
-0.999278, 257, 129, 272, 256
-0.999283, 71, 337, 86, 464
-0.999296, 151, 369, 166, 496
-0.999302, 1, 129, 16, 256
-0.999306, 311, 97, 326, 224
-0.999306, 181, 369, 196, 496
-0.999307, 263, 129, 278, 256
-0.999308, 157, 145, 172, 272
-0.999315, 205, 337, 220, 464
-0.999319, 115, 145, 130, 272
-0.999319, 145, 313, 272, 344
-0.99932, 197, 129, 228, 384
-0.999322, 89, 257, 104, 384
-0.999323, 49, 249, 176, 280
-0.999327, 17, 469, 144, 500
-0.999333, 145, 229, 272, 260
-0.999336, 109, 33, 140, 288
-0.999337, 165, 113, 180, 240
-0.99934, 217, 129, 232, 256
-0.999348, 25, 353, 40, 480
-0.999351, 85, 33, 116, 288
-0.999352, 241, 397, 368, 428
-0.999356, 99, 145, 114, 272
-0.999358, 19, 353, 34, 480
-0.999358, 107, 145, 122, 272
-0.99936, 1, 353, 16, 480
-0.999366, 219, 17, 234, 144
-0.999368, 213, 337, 228, 464
-0.99937, 171, 241, 186, 368
-0.999377, 319, 97, 334, 224
-0.999387, 97, 253, 224, 284
-0.99939, 17, 457, 144, 488
-0.999392, 299, 81, 314, 208
-0.999396, 185, 129, 216, 384
-0.999398, 245, 145, 260, 272
-0.9994, 97, 213, 224, 244
-0.9994, 211, 17, 226, 144
-0.999403, 255, 81, 270, 208
-0.999422, 49, 209, 176, 240
-0.999431, 177, 437, 304, 468
-0.999433, 1, 277, 128, 308
-0.999437, 225, 197, 352, 228
-0.999445, 177, 461, 304, 492
-0.999463, 145, 281, 272, 312
-0.999504, 97, 33, 128, 288
-0.999524, 1, 113, 128, 144
-0.99953, 241, 421, 368, 452
-0.999549, 1, 417, 374, 480
-0.999567, 41, 33, 72, 288
-0.99958, 171, 111, 186, 126
-0.99958, 215, 71, 230, 86
-0.999581, 199, 375, 214, 390
-0.999581, 193, 63, 208, 78
-0.999582, 99, 155, 114, 170
-0.999582, 3, 145, 18, 160
-0.999582, 141, 117, 156, 132
-0.999582, 65, 141, 80, 156
-0.999583, 329, 117, 344, 132
-0.999583, 207, 107, 222, 122
-0.999583, 151, 73, 166, 88
-0.999583, 171, 377, 186, 392
-0.999584, 169, 341, 184, 356
-0.999585, 91, 319, 106, 334
-0.999585, 57, 167, 72, 182
-0.999586, 131, 121, 146, 136
-0.999586, 195, 363, 210, 378
-0.999586, 221, 91, 236, 106
-0.999586, 155, 93, 170, 108
-0.999587, 301, 109, 316, 124
-0.999588, 139, 133, 154, 148
-0.999588, 157, 307, 172, 322
-0.999589, 7, 327, 22, 342
-0.99959, 43, 137, 58, 152
-0.999591, 341, 123, 356, 138
-0.999591, 247, 265, 262, 280
-0.999592, 145, 151, 160, 166
-0.999592, 147, 295, 162, 310
-0.999592, 137, 127, 152, 142
-0.999592, 35, 145, 50, 160
-0.999592, 145, 71, 160, 86
-0.999592, 143, 301, 158, 316
-0.999593, 177, 381, 192, 396
-0.999593, 215, 85, 230, 100
-0.999594, 241, 85, 256, 100
-0.999596, 161, 297, 176, 312
-0.999596, 69, 157, 84, 172
-0.999597, 201, 103, 216, 118
-0.999597, 13, 155, 28, 170
-0.999597, 225, 317, 352, 348
-0.999598, 57, 359, 72, 374
-0.999599, 227, 69, 242, 84
-0.9996, 215, 57, 230, 72
-0.9996, 23, 141, 38, 156
-0.9996, 163, 339, 178, 354
-0.999601, 3, 133, 18, 148
-0.999601, 351, 123, 366, 138
-0.999602, 297, 231, 312, 246
-0.999602, 169, 59, 184, 74
-0.999604, 323, 115, 338, 130
-0.999605, 129, 159, 144, 174
-0.999605, 13, 145, 28, 160
-0.999606, 47, 159, 62, 174
-0.999607, 237, 67, 252, 82
-0.99961, 199, 81, 214, 96
-0.99961, 131, 131, 146, 146
-0.999612, 65, 163, 80, 178
-0.999612, 9, 333, 24, 348
-0.999613, 137, 111, 152, 126
-0.999613, 65, 469, 192, 500
-0.999615, 153, 87, 168, 102
-0.999616, 147, 109, 162, 124
-0.999618, 161, 151, 176, 166
-0.99962, 359, 127, 374, 142
-0.999621, 1, 153, 16, 168
-0.999622, 53, 157, 68, 172
-0.999623, 221, 55, 236, 70
-0.999623, 89, 161, 104, 176
-0.999624, 137, 149, 152, 164
-0.999625, 149, 131, 164, 146
-0.999625, 161, 95, 176, 110
-0.999625, 141, 139, 156, 154
-0.999625, 155, 155, 170, 170
-0.999626, 13, 137, 28, 152
-0.999626, 209, 101, 224, 116
-0.999626, 207, 113, 222, 128
-0.999627, 25, 153, 40, 168
-0.999627, 227, 53, 242, 68
-0.999627, 163, 57, 178, 72
-0.999628, 187, 377, 202, 392
-0.999628, 41, 149, 56, 164
-0.999629, 1, 257, 128, 288
-0.999629, 209, 61, 224, 76
-0.99963, 47, 153, 62, 168
-0.999632, 201, 381, 216, 396
-0.999634, 187, 361, 202, 376
-0.999636, 247, 259, 262, 274
-0.999636, 235, 223, 250, 238
-0.999638, 89, 141, 104, 156
-0.999638, 207, 75, 222, 90
-0.99964, 149, 93, 164, 108
-0.99964, 59, 151, 74, 166
-0.99964, 165, 113, 180, 128
-0.999641, 195, 355, 210, 370
-0.999642, 187, 63, 202, 78
-0.999645, 183, 57, 198, 72
-0.999646, 201, 355, 216, 370
-0.999647, 229, 63, 244, 78
-0.999647, 177, 57, 192, 72
-0.999647, 155, 107, 170, 122
-0.999648, 203, 67, 218, 82
-0.999649, 35, 157, 50, 172
-0.999649, 3, 139, 18, 154
-0.999649, 167, 103, 182, 118
-0.999654, 181, 363, 196, 378
-0.999657, 151, 61, 166, 76
-0.99966, 195, 349, 210, 364
-0.99966, 159, 101, 174, 116
-0.999661, 155, 291, 170, 306
-0.999672, 81, 137, 96, 152
-0.999673, 43, 143, 58, 158
-0.999673, 173, 297, 188, 312
-0.999675, 151, 137, 166, 152
-0.999679, 191, 55, 206, 70
-0.999682, 197, 57, 212, 72
-0.999684, 61, 157, 76, 172
-0.999687, 141, 79, 156, 94
-0.999698, 151, 301, 166, 316
-0.999704, 161, 107, 176, 122
-0.999708, 153, 149, 168, 164
-0.999709, 71, 139, 86, 154
-0.999709, 189, 355, 204, 370
-0.99971, 201, 349, 216, 364
-0.99971, 1, 233, 374, 296
-0.99971, 165, 129, 196, 384
-0.999711, 69, 1, 100, 256
-0.999713, 181, 345, 196, 360
-0.999714, 193, 379, 208, 394
-0.999715, 149, 103, 164, 118
-0.999721, 189, 345, 204, 360
-0.999729, 143, 145, 158, 160
-0.999732, 69, 147, 84, 162
-0.999758, 131, 147, 146, 162
-0.999761, 129, 111, 144, 126
-0.999777, 5, 1, 36, 256
-0.999778, 79, 131, 94, 146
-0.999782, 153, 143, 168, 158
-1.00001, 289, 225, 320, 480
-1.00012, 269, 257, 300, 500
-1.00019, 273, 161, 304, 416
-1.00039, 309, 257, 340, 500
-1.00056, 129, 17, 374, 80
-1.00056, 129, 9, 256, 72
-1.00057, 345, 257, 374, 500
-1.00068, 325, 225, 356, 480
-1.00072, 33, 17, 288, 80
-1.00101, 81, 9, 208, 72
-1.00112, 241, 9, 368, 72
-1.00126, 17, 33, 144, 160
-1.00151, 97, 1, 160, 128
-1.00197, 17, 57, 144, 120
-1.0021, 1, 41, 374, 104
-1.00245, 313, 257, 374, 500
-1.00274, 1, 33, 128, 96
-1.00283, 177, 1, 304, 64
-1.00288, 1, 9, 128, 72
-1.0032, 1, 1, 374, 64
-1.00529, 305, 257, 368, 384
-1.00684, 313, 17, 374, 144
-1.00745, 289, 1, 352, 128
-1.01167, 65, 17, 128, 144
-1.0125, 33, 33, 96, 160
-1.01533, 9, 1, 72, 128
