1952
-0.197787, 1, 1, 500, 368
-0.302893, 1, 97, 500, 352
-0.343757, 33, 1, 288, 368
-0.347514, 129, 1, 384, 368
-0.382628, 1, 1, 500, 256
-0.412454, 225, 1, 480, 368
-0.564398, 129, 65, 384, 320
-0.587955, 1, 33, 256, 288
-0.603902, 225, 33, 480, 288
-0.622894, 33, 129, 288, 368
-0.653223, 225, 129, 480, 368
-0.826803, 49, 1, 176, 256
-0.834333, 209, 65, 336, 320
-0.837059, 337, 1, 464, 256
-0.838388, 353, 1, 480, 368
-0.839454, 129, 97, 256, 352
-0.83947, 209, 1, 336, 368
-0.840614, 257, 65, 384, 320
-0.842233, 33, 1, 160, 368
-0.844855, 257, 1, 384, 368
-0.845606, 113, 1, 240, 368
-0.849833, 1, 1, 128, 256
-0.855938, 161, 1, 288, 368
-0.858409, 97, 1, 224, 256
-0.860444, 1, 17, 500, 144
-0.873217, 305, 97, 432, 352
-0.874293, 49, 97, 176, 352
-0.87703, 305, 1, 432, 368
-0.878739, 161, 1, 288, 256
-0.887152, 353, 97, 480, 352
-0.887638, 65, 1, 320, 128
-0.890682, 1, 129, 500, 256
-0.89212, 1, 241, 500, 368
-0.893373, 1, 81, 500, 208
-0.898568, 1, 97, 128, 352
-0.899609, 225, 17, 480, 144
-0.900341, 129, 113, 384, 240
-0.901432, 1, 193, 500, 320
-0.906418, 129, 241, 384, 368
-0.907518, 129, 193, 384, 320
-0.913253, 129, 65, 384, 192
-0.91665, 257, 81, 384, 208
-0.918377, 33, 97, 288, 224
-0.918698, 1, 1, 128, 128
-0.919714, 241, 17, 368, 144
-0.920881, 225, 241, 480, 368
-0.921926, 33, 161, 288, 288
-0.922168, 225, 161, 480, 288
-0.92328, 217, 1, 280, 128
-0.924359, 289, 17, 416, 144
-0.924678, 113, 81, 240, 208
-0.925008, 1, 1, 64, 128
-0.925109, 65, 1, 192, 128
-0.925137, 353, 65, 480, 192
-0.925316, 161, 65, 288, 192
-0.925557, 209, 65, 336, 192
-0.926034, 161, 17, 288, 144
-0.926523, 33, 49, 288, 176
-0.927458, 121, 1, 184, 128
-0.928806, 33, 241, 288, 368
-0.928904, 329, 1, 392, 128
-0.92952, 257, 65, 500, 192
-0.929795, 177, 49, 240, 176
-0.929879, 281, 1, 344, 128
-0.930197, 209, 113, 336, 240
-0.930301, 33, 1, 96, 128
-0.932548, 257, 17, 320, 144
-0.932972, 177, 1, 240, 128
-0.933291, 337, 17, 464, 144
-0.934197, 225, 241, 352, 368
-0.934444, 169, 241, 232, 368
-0.935895, 113, 17, 240, 144
-0.935951, 305, 33, 368, 160
-0.936045, 113, 129, 240, 256
-0.936082, 169, 177, 232, 304
-0.936089, 89, 1, 152, 128
-0.936188, 65, 81, 192, 208
-0.936521, 177, 241, 304, 368
-0.938149, 153, 1, 216, 128
-0.938198, 57, 1, 120, 128
-0.939786, 257, 65, 320, 192
-0.940099, 193, 241, 256, 368
-0.940237, 129, 241, 256, 368
-0.940999, 233, 241, 296, 368
-0.941173, 289, 241, 416, 368
-0.941667, 121, 1, 184, 64
-0.941924, 161, 129, 288, 256
-0.94224, 129, 81, 192, 208
-0.942382, 225, 113, 480, 240
-0.942532, 145, 129, 208, 256
-0.942558, 217, 49, 280, 176
-0.943099, 169, 129, 232, 256
-0.943134, 33, 49, 96, 176
-0.943442, 33, 241, 160, 368
-0.943936, 209, 177, 336, 304
-0.944138, 129, 177, 256, 304
-0.944593, 17, 65, 144, 192
-0.944762, 337, 1, 400, 64
-0.944795, 305, 81, 432, 208
-0.945252, 265, 241, 328, 368
-0.945442, 289, 161, 416, 288
-0.945474, 321, 241, 384, 368
-0.945615, 89, 1, 152, 64
-0.945758, 353, 17, 416, 144
-0.945907, 177, 81, 240, 144
-0.946768, 257, 1, 320, 64
-0.946878, 1, 49, 64, 176
-0.946961, 177, 1, 240, 64
-0.946985, 73, 81, 136, 208
-0.947113, 265, 81, 328, 144
-0.947158, 225, 1, 288, 64
-0.948173, 81, 241, 208, 368
-0.948651, 289, 1, 352, 64
-0.94957, 289, 241, 352, 368
-0.949583, 33, 161, 160, 288
-0.949585, 201, 1, 264, 64
-0.949775, 137, 193, 200, 320
-0.950543, 153, 1, 216, 64
-0.951639, 433, 113, 496, 240
-0.951742, 145, 241, 208, 368
-0.951996, 17, 113, 144, 240
-0.952334, 201, 193, 264, 320
-0.952423, 289, 177, 352, 304
-0.952504, 233, 177, 296, 304
-0.952644, 233, 129, 296, 256
-0.952735, 1, 1, 64, 64
-0.952738, 113, 25, 176, 88
-0.953258, 209, 129, 272, 256
-0.953265, 353, 241, 416, 368
-0.953449, 1, 33, 64, 96
-0.953911, 393, 1, 456, 128
-0.953916, 289, 129, 352, 256
-0.953944, 49, 1, 112, 64
-0.954084, 33, 241, 96, 368
-0.954411, 257, 25, 320, 88
-0.954727, 81, 193, 208, 320
-0.954865, 329, 97, 392, 224
-0.955147, 337, 25, 400, 88
-0.955246, 9, 241, 72, 368
-0.955378, 393, 49, 456, 176
-0.955462, 313, 1, 376, 64
-0.955735, 257, 129, 320, 256
-0.955837, 337, 241, 464, 368
-0.956222, 137, 25, 200, 88
-0.956307, 377, 1, 440, 64
-0.956754, 353, 113, 480, 240
-0.957725, 305, 249, 368, 312
-0.957828, 353, 65, 416, 192
-0.957902, 33, 129, 96, 256
-0.958196, 1, 257, 64, 320
-0.958903, 249, 249, 312, 312
-0.959044, 433, 1, 496, 64
-0.959107, 201, 241, 264, 304
-0.959296, 217, 57, 280, 120
-0.959603, 57, 241, 120, 368
-0.959667, 193, 25, 256, 88
-0.959944, 433, 1, 496, 128
-0.96022, 289, 225, 352, 288
-0.960252, 97, 241, 160, 368
-0.960273, 25, 257, 88, 320
-0.960356, 1, 57, 64, 120
-0.960732, 97, 97, 160, 224
-0.960783, 121, 129, 184, 256
-0.960852, 169, 137, 232, 200
-0.960882, 25, 1, 88, 64
-0.961099, 169, 185, 232, 248
-0.961763, 169, 217, 232, 280
-0.961803, 273, 249, 336, 312
-0.961896, 129, 65, 192, 128
-0.961903, 257, 177, 320, 304
-0.962477, 177, 249, 240, 312
-0.962573, 233, 25, 296, 88
-0.962615, 121, 241, 184, 368
-0.962881, 377, 241, 440, 368
-0.963187, 33, 1, 96, 256
-0.963566, 169, 161, 232, 224
-0.963605, 433, 113, 496, 176
-0.963809, 177, 289, 240, 352
-0.964048, 313, 25, 376, 88
-0.964155, 81, 1, 208, 64
-0.964162, 145, 129, 208, 192
-0.96442, 181, 1, 212, 128
-0.964789, 153, 65, 216, 192
-0.964991, 137, 257, 200, 320
-0.964991, 225, 289, 288, 352
-0.96509, 149, 1, 180, 64
-0.965093, 329, 249, 392, 312
-0.965248, 401, 241, 464, 368
-0.965257, 41, 57, 104, 120
-0.965286, 129, 1, 160, 64
-0.965349, 257, 81, 384, 144
-0.965388, 353, 193, 480, 320
-0.965449, 305, 81, 368, 208
-0.965466, 161, 25, 224, 88
-0.965501, 145, 1, 272, 64
-0.965547, 265, 289, 328, 352
-0.965566, 289, 25, 352, 88
-0.965662, 137, 289, 200, 352
-0.96578, 325, 9, 356, 72
-0.965836, 181, 1, 212, 64
-0.96585, 361, 25, 424, 88
-0.965894, 25, 25, 88, 88
-0.965975, 357, 1, 388, 128
-0.966041, 201, 201, 264, 264
-0.966056, 273, 161, 336, 224
-0.96624, 285, 1, 316, 64
-0.966323, 89, 41, 152, 104
-0.966336, 49, 25, 112, 88
-0.966464, 97, 161, 160, 288
-0.966528, 329, 89, 392, 152
-0.966557, 225, 1, 256, 64
-0.966562, 221, 1, 252, 128
-0.966636, 265, 1, 296, 64
-0.966667, 401, 1, 464, 64
-0.966762, 237, 1, 268, 64
-0.966771, 297, 1, 360, 256
-0.966818, 33, 153, 96, 216
-0.967001, 273, 1, 400, 64
-0.96711, 129, 193, 192, 256
-0.967133, 197, 1, 228, 64
-0.967135, 305, 1, 336, 64
-0.967343, 217, 97, 280, 160
-0.967381, 433, 249, 496, 312
-0.967593, 265, 225, 328, 288
-0.967623, 117, 1, 148, 128
-0.967769, 241, 1, 272, 128
-0.96785, 113, 257, 176, 320
-0.967872, 305, 289, 368, 352
-0.967959, 257, 97, 320, 352
-0.968013, 357, 81, 388, 144
-0.968061, 89, 81, 152, 144
-0.968094, 1, 9, 128, 72
-0.968203, 149, 1, 180, 128
-0.968225, 433, 241, 496, 368
-0.968256, 341, 1, 372, 64
-0.968281, 113, 1, 144, 64
-0.968361, 65, 129, 128, 192
-0.968482, 385, 25, 448, 88
-0.968565, 353, 193, 416, 320
-0.968649, 249, 137, 312, 200
-0.968722, 225, 1, 288, 256
-0.968766, 321, 161, 384, 288
-0.968843, 49, 249, 112, 312
-0.968859, 225, 17, 352, 80
-0.969065, 129, 89, 192, 152
-0.969073, 161, 65, 224, 320
-0.969135, 241, 25, 272, 88
-0.969348, 273, 137, 336, 200
-0.969484, 209, 129, 272, 368
-0.969547, 361, 1, 392, 64
-0.969613, 201, 297, 264, 360
-0.96966, 361, 265, 424, 328
-0.969808, 249, 1, 280, 64
-0.969853, 145, 225, 208, 288
-0.969959, 161, 89, 288, 152
-0.969996, 33, 129, 96, 192
-0.970024, 121, 129, 184, 192
-0.970039, 257, 249, 384, 312
-0.970046, 401, 249, 464, 312
-0.970079, 113, 81, 240, 144
-0.970107, 49, 1, 80, 128
-0.970114, 233, 225, 296, 288
-0.970148, 161, 17, 192, 80
-0.970247, 41, 193, 104, 320
-0.970257, 233, 129, 296, 368
-0.970444, 257, 1, 320, 256
-0.970571, 305, 57, 368, 120
-0.97065, 145, 153, 208, 216
-0.970731, 1, 1, 64, 256
-0.970744, 209, 81, 336, 144
-0.970785, 89, 257, 152, 320
-0.970821, 193, 1, 224, 128
-0.970923, 93, 1, 124, 64
-0.970966, 325, 1, 356, 128
-0.971046, 209, 121, 336, 184
-0.971057, 353, 113, 416, 240
-0.971124, 205, 17, 236, 144
-0.971124, 225, 249, 288, 312
-0.971186, 133, 25, 164, 88
-0.971204, 177, 49, 240, 112
-0.971396, 353, 241, 416, 304
-0.9714, 433, 193, 496, 320
-0.971434, 29, 1, 60, 128
-0.971457, 1, 281, 64, 344
-0.97156, 345, 289, 408, 352
-0.971573, 105, 161, 168, 224
-0.9716, 1, 193, 64, 320
-0.971627, 9, 1, 40, 128
-0.971635, 257, 57, 320, 120
-0.971702, 433, 1, 496, 256
-0.971719, 129, 25, 256, 88
-0.971723, 185, 1, 248, 256
-0.971745, 289, 105, 416, 168
-0.971778, 129, 1, 192, 256
-0.971785, 209, 1, 240, 64
-0.971816, 25, 1, 56, 64
-0.971863, 309, 1, 340, 128
-0.971942, 353, 81, 480, 144
-0.971992, 193, 161, 256, 224
-0.972027, 361, 57, 424, 120
-0.972067, 353, 1, 480, 64
-0.972181, 321, 225, 384, 288
-0.972205, 281, 81, 344, 208
-0.972302, 153, 49, 216, 112
-0.972309, 337, 113, 400, 176
-0.972418, 129, 1, 160, 128
-0.97244, 185, 97, 248, 352
-0.972519, 401, 97, 464, 224
-0.97259, 289, 129, 352, 368
-0.972647, 253, 1, 284, 128
-0.972857, 373, 17, 404, 144
-0.972905, 33, 81, 96, 144
-0.973004, 269, 17, 300, 144
-0.973037, 1, 33, 128, 96
-0.973062, 285, 1, 316, 128
-0.973101, 377, 297, 440, 360
-0.973137, 249, 185, 312, 248
-0.973165, 393, 57, 456, 120
-0.973217, 169, 105, 232, 168
-0.973233, 353, 89, 416, 152
-0.973242, 113, 305, 176, 368
-0.973291, 77, 1, 108, 128
-0.973346, 97, 1, 128, 128
-0.973582, 17, 249, 144, 312
-0.973588, 401, 1, 464, 256
-0.973749, 409, 281, 472, 344
-0.973853, 65, 81, 192, 144
-0.974018, 113, 121, 240, 184
-0.974159, 61, 1, 92, 128
-0.974244, 249, 161, 312, 224
-0.974553, 285, 241, 316, 368
-0.974622, 165, 1, 196, 128
-0.974624, 89, 281, 152, 344
-0.974625, 1, 81, 64, 144
-0.974661, 65, 129, 128, 256
-0.97487, 113, 281, 176, 344
-0.974916, 177, 57, 304, 120
-0.974934, 137, 97, 200, 352
-0.974939, 329, 49, 392, 176
-0.974952, 193, 121, 256, 184
-0.974964, 345, 1, 376, 128
-0.97498, 161, 249, 288, 312
-0.975038, 305, 81, 368, 144
-0.975049, 121, 25, 152, 88
-0.975083, 209, 241, 240, 368
-0.975121, 361, 1, 424, 256
-0.975199, 265, 113, 328, 176
-0.975249, 113, 145, 240, 208
-0.975258, 273, 201, 336, 264
-0.975306, 269, 81, 300, 144
-0.97535, 353, 57, 480, 120
-0.975455, 205, 25, 236, 88
-0.975456, 433, 49, 496, 176
-0.975538, 165, 241, 196, 368
-0.975541, 25, 281, 88, 344
-0.975624, 229, 241, 260, 368
-0.975642, 273, 25, 400, 88
-0.975681, 257, 225, 384, 288
-0.975814, 41, 9, 72, 72
-0.975828, 1, 57, 128, 120
-0.975865, 337, 249, 464, 312
-0.975878, 345, 249, 376, 312
-0.975994, 81, 25, 208, 88
-0.975998, 149, 33, 180, 96
-0.976077, 177, 25, 208, 88
-0.97616, 241, 241, 272, 368
-0.976177, 177, 241, 208, 368
-0.976184, 81, 1, 144, 256
-0.976222, 97, 49, 160, 176
-0.976248, 193, 289, 320, 352
-0.976274, 209, 241, 336, 304
-0.976291, 353, 113, 384, 240
-0.976404, 349, 241, 380, 368
-0.976412, 29, 25, 60, 88
-0.976476, 73, 105, 136, 168
-0.976524, 409, 25, 472, 88
-0.97664, 33, 105, 96, 168
-0.97664, 433, 161, 496, 224
-0.976656, 405, 1, 436, 64
-0.976683, 401, 193, 464, 320
-0.976724, 357, 49, 388, 176
-0.976773, 161, 121, 288, 184
-0.976839, 5, 25, 36, 88
-0.976857, 57, 1, 120, 256
-0.976879, 341, 25, 372, 88
-0.976906, 165, 177, 196, 304
-0.977037, 261, 113, 292, 240
-0.977092, 165, 65, 196, 192
-0.977109, 13, 1, 44, 64
-0.977148, 41, 97, 104, 352
-0.977152, 285, 25, 316, 88
-0.977225, 49, 161, 176, 224
-0.97731, 253, 25, 284, 88
-0.977329, 433, 137, 496, 200
-0.977364, 5, 49, 36, 112
-0.977379, 281, 49, 344, 112
-0.977401, 289, 57, 416, 120
-0.977401, 117, 113, 148, 240
-0.977403, 385, 1, 416, 64
-0.97743, 297, 1, 328, 128
-0.977455, 385, 273, 448, 336
-0.97746, 461, 1, 492, 64
-0.977467, 369, 25, 400, 88
-0.977491, 241, 289, 368, 352
-0.977523, 401, 305, 464, 368
-0.977542, 229, 25, 260, 88
-0.977608, 289, 113, 352, 176
-0.977631, 353, 25, 384, 88
-0.97764, 321, 25, 448, 88
-0.977774, 273, 241, 304, 304
-0.977815, 121, 233, 184, 296
-0.977836, 17, 97, 144, 160
-0.977947, 177, 129, 208, 256
-0.977951, 49, 289, 112, 352
-0.977983, 297, 241, 328, 368
-0.978071, 257, 161, 384, 224
-0.978104, 113, 185, 240, 248
-0.978126, 253, 241, 284, 368
-0.978157, 329, 241, 360, 304
-0.978166, 217, 297, 248, 360
-0.978282, 265, 241, 296, 368
-0.978293, 433, 281, 496, 344
-0.978336, 17, 137, 144, 200
-0.978363, 197, 241, 228, 368
-0.978371, 289, 81, 320, 144
-0.978413, 73, 97, 136, 352
-0.978439, 213, 129, 244, 256
-0.978447, 361, 241, 392, 368
-0.978506, 433, 97, 496, 352
-0.978516, 165, 257, 196, 320
-0.978516, 209, 217, 336, 280
-0.97856, 37, 241, 68, 368
-0.978573, 313, 241, 344, 368
-0.978589, 81, 257, 208, 320
-0.978638, 169, 121, 200, 184
-0.97865, 329, 65, 392, 320
-0.978676, 277, 65, 308, 192
-0.978686, 53, 1, 84, 64
-0.978801, 17, 233, 80, 296
-0.978868, 269, 25, 300, 88
-0.978868, 329, 49, 392, 112
-0.978984, 81, 57, 208, 120
-0.979021, 177, 145, 304, 208
-0.979029, 89, 305, 152, 368
-0.979034, 445, 249, 476, 312
-0.979046, 121, 81, 152, 144
-0.979046, 181, 81, 212, 144
-0.97907, 449, 1, 480, 64
-0.979153, 145, 1, 208, 368
-0.979221, 177, 33, 304, 96
-0.979274, 97, 289, 224, 352
-0.979289, 249, 1, 312, 368
-0.979318, 433, 1, 464, 64
-0.979332, 129, 49, 256, 112
-0.979363, 257, 129, 384, 192
-0.9794, 433, 81, 496, 144
-0.979415, 29, 249, 60, 312
-0.97944, 225, 201, 288, 264
-0.97949, 281, 145, 312, 208
-0.979614, 129, 81, 160, 208
-0.979622, 329, 241, 360, 368
-0.979654, 45, 33, 76, 96
-0.979707, 45, 257, 76, 320
-0.979719, 189, 25, 220, 88
-0.979779, 177, 249, 208, 312
-0.979834, 145, 305, 272, 368
-0.979844, 217, 33, 248, 96
-0.979849, 113, 129, 176, 368
-0.97986, 93, 25, 124, 88
-0.979902, 401, 81, 464, 144
-0.979935, 73, 1, 104, 64
-0.979945, 401, 145, 464, 272
-0.980007, 297, 113, 328, 240
-0.980012, 217, 1, 280, 368
-0.980016, 353, 105, 480, 168
-0.980019, 305, 225, 432, 288
-0.980035, 197, 249, 228, 312
-0.980097, 357, 257, 388, 320
-0.980107, 317, 249, 348, 312
-0.980121, 305, 25, 336, 88
-0.980157, 21, 49, 52, 112
-0.980202, 405, 1, 436, 128
-0.980233, 169, 1, 232, 368
-0.980298, 261, 249, 292, 312
-0.98043, 285, 249, 316, 312
-0.980499, 257, 185, 384, 248
-0.9805, 241, 57, 368, 120
-0.980501, 113, 225, 240, 288
-0.980534, 385, 241, 416, 368
-0.980545, 25, 241, 56, 368
-0.9806, 41, 1, 104, 368
-0.980657, 205, 81, 236, 144
-0.980721, 9, 257, 40, 320
-0.980763, 305, 81, 432, 144
-0.980771, 193, 1, 256, 368
-0.980785, 285, 193, 316, 320
-0.980822, 261, 129, 292, 192
-0.980853, 281, 145, 312, 272
-0.980865, 105, 25, 136, 88
-0.980898, 161, 225, 288, 288
-0.98092, 73, 177, 136, 304
-0.980982, 325, 33, 356, 96
-0.981017, 209, 169, 336, 232
-0.981062, 229, 289, 260, 352
-0.981093, 145, 249, 176, 312
-0.981138, 69, 97, 100, 224
-0.981189, 373, 1, 404, 64
-0.981189, 205, 289, 236, 352
-0.981454, 289, 289, 416, 352
-0.981466, 345, 65, 376, 192
-0.981509, 213, 177, 244, 304
-0.981556, 369, 25, 496, 88
-0.981587, 421, 1, 452, 64
-0.981769, 165, 297, 196, 360
-0.981778, 181, 49, 212, 176
-0.981875, 121, 1, 184, 368
-0.981968, 165, 113, 196, 240
-0.982009, 265, 177, 296, 304
-0.982022, 181, 289, 212, 352
-0.982033, 33, 305, 160, 368
-0.982157, 433, 1, 496, 368
-0.982197, 177, 177, 208, 304
-0.982224, 145, 281, 272, 344
-0.982308, 365, 97, 396, 224
-0.982366, 193, 145, 224, 208
-0.982396, 273, 1, 336, 368
-0.982421, 285, 289, 316, 352
-0.982476, 65, 121, 192, 184
-0.982505, 69, 129, 100, 192
-0.982562, 241, 289, 272, 352
-0.982598, 297, 257, 328, 320
-0.982629, 145, 289, 176, 352
-0.982638, 417, 1, 448, 128
-0.982703, 285, 225, 316, 288
-0.982708, 281, 49, 312, 112
-0.98272, 345, 177, 376, 304
-0.982745, 177, 161, 208, 224
-0.982765, 113, 241, 144, 368
-0.98277, 145, 145, 176, 272
-0.982778, 57, 241, 88, 368
-0.982801, 357, 57, 388, 120
-0.982829, 125, 241, 156, 368
-0.982847, 249, 249, 280, 312
-0.982885, 193, 65, 224, 192
-0.98296, 365, 281, 396, 344
-0.98299, 269, 57, 300, 120
-0.983009, 225, 49, 256, 176
-0.983056, 465, 97, 496, 224
-0.98306, 33, 281, 160, 344
-0.983084, 393, 281, 424, 344
-0.98312, 81, 81, 112, 208
-0.983139, 129, 257, 160, 320
-0.983151, 253, 289, 284, 352
-0.98318, 65, 1, 128, 368
-0.983213, 297, 289, 328, 352
-0.983215, 433, 249, 464, 312
-0.983245, 1, 1, 64, 368
-0.983259, 77, 241, 108, 368
-0.98328, 209, 265, 336, 328
-0.983317, 57, 25, 88, 88
-0.983347, 345, 225, 376, 288
-0.983366, 449, 113, 480, 240
-0.983369, 309, 289, 340, 352
-0.983404, 297, 161, 328, 288
-0.983454, 81, 81, 112, 144
-0.98346, 121, 49, 152, 112
-0.983555, 161, 169, 288, 232
-0.983563, 213, 241, 244, 304
-0.983742, 113, 65, 144, 192
-0.983752, 165, 225, 196, 288
-0.983769, 361, 1, 424, 368
-0.983773, 381, 25, 412, 88
-0.983806, 297, 1, 360, 368
-0.983896, 33, 193, 160, 256
-0.983902, 149, 193, 180, 256
-0.983932, 253, 49, 284, 176
-0.983953, 161, 41, 192, 104
-0.983976, 109, 257, 140, 320
-0.983982, 249, 49, 280, 112
-0.98399, 425, 49, 456, 176
-0.984003, 293, 49, 324, 112
-0.984034, 281, 185, 312, 248
-0.984036, 337, 281, 464, 344
-0.98408, 265, 65, 296, 192
-0.984091, 349, 289, 380, 352
-0.984102, 385, 17, 416, 144
-0.98413, 209, 193, 336, 256
-0.984151, 317, 225, 348, 288
-0.984248, 149, 193, 180, 320
-0.984282, 77, 249, 108, 312
-0.98431, 89, 241, 120, 368
-0.984314, 401, 1, 464, 368
-0.98433, 165, 89, 196, 152
-0.984352, 153, 241, 184, 368
-0.984357, 229, 241, 260, 304
-0.984388, 197, 193, 228, 320
-0.984417, 193, 289, 224, 352
-0.984469, 25, 49, 56, 176
-0.984536, 333, 265, 364, 328
-0.984574, 97, 249, 128, 312
-0.984626, 89, 1, 152, 368
-0.984627, 1, 49, 32, 176
-0.984651, 297, 225, 328, 288
-0.984666, 273, 289, 304, 352
-0.98468, 365, 193, 396, 320
-0.984697, 333, 177, 364, 304
-0.984774, 289, 49, 320, 176
-0.984857, 197, 225, 228, 288
-0.984884, 65, 225, 192, 288
-0.9849, 177, 49, 208, 112
-0.984939, 17, 225, 144, 288
-0.984964, 1, 113, 64, 240
-0.985033, 397, 25, 428, 88
-0.98506, 225, 57, 256, 120
-0.985065, 229, 193, 260, 320
-0.985118, 369, 305, 496, 368
-0.985124, 469, 249, 500, 312
-0.98514, 121, 121, 152, 184
-0.98517, 429, 1, 460, 128
-0.985206, 309, 161, 340, 288
-0.985215, 205, 65, 236, 192
-0.985224, 105, 1, 168, 256
-0.985231, 137, 241, 168, 368
-0.985264, 353, 161, 480, 224
-0.98542, 377, 193, 440, 320
-0.985464, 309, 49, 340, 176
-0.985584, 373, 241, 404, 368
-0.985597, 401, 97, 464, 352
-0.985805, 41, 49, 72, 176
-0.985881, 445, 1, 476, 128
-0.985916, 329, 129, 360, 256
-0.985939, 241, 177, 272, 304
-0.985965, 57, 49, 88, 176
-0.986201, 353, 137, 480, 200
-0.986267, 13, 241, 44, 368
-0.986422, 125, 161, 156, 288
-0.986498, 161, 193, 288, 256
-0.986556, 101, 241, 132, 368
-0.986607, 341, 113, 372, 240
-0.986772, 101, 49, 132, 176
-0.986917, 353, 97, 416, 352
-0.987127, 1, 169, 128, 232
-0.987158, 329, 1, 392, 368
-0.987197, 141, 65, 172, 192
-0.987212, 445, 241, 476, 368
-0.987245, 353, 225, 480, 288
-0.987321, 409, 241, 440, 368
-0.987362, 77, 161, 108, 288
-0.987426, 309, 97, 340, 224
-0.987466, 433, 241, 464, 368
-0.987502, 13, 49, 44, 176
-0.987507, 321, 177, 352, 304
-0.987577, 397, 241, 428, 368
-0.987668, 65, 161, 96, 288
-0.98782, 65, 1, 320, 64
-0.987849, 369, 185, 496, 248
-0.988018, 241, 49, 272, 176
-0.988018, 245, 129, 276, 256
-0.988035, 225, 97, 256, 224
-0.988285, 137, 193, 168, 320
-0.988324, 377, 65, 408, 192
-0.988385, 177, 85, 240, 116
-0.988431, 25, 193, 56, 320
-0.988495, 297, 13, 360, 44
-0.988514, 129, 249, 384, 312
-0.988566, 273, 25, 336, 56
-0.988589, 265, 85, 328, 116
-0.988694, 217, 13, 280, 44
-0.988694, 81, 5, 144, 36
-0.988768, 337, 25, 400, 56
-0.988806, 177, 9, 240, 40
-0.988817, 193, 17, 448, 80
-0.988825, 129, 129, 384, 192
-0.988865, 273, 13, 336, 44
-0.988876, 121, 17, 184, 48
-0.988877, 337, 5, 400, 36
-0.988958, 305, 161, 432, 224
-0.988991, 129, 153, 384, 216
-0.989028, 1, 53, 64, 84
-0.989095, 17, 9, 80, 40
-0.989125, 129, 29, 192, 60
-0.989128, 49, 1, 112, 32
-0.989131, 89, 161, 120, 288
-0.989158, 249, 5, 312, 36
-0.989246, 345, 269, 408, 300
-0.989261, 1, 269, 64, 300
-0.989289, 253, 177, 284, 304
-0.989304, 185, 249, 248, 280
-0.989319, 153, 97, 184, 224
-0.98943, 169, 205, 232, 236
-0.989461, 169, 157, 232, 188
-0.989488, 257, 37, 320, 68
-0.989541, 469, 193, 500, 320
-0.989549, 1, 25, 64, 56
-0.989571, 137, 5, 200, 36
-0.989583, 233, 25, 296, 56
-0.989669, 49, 13, 112, 44
-0.989676, 129, 77, 192, 108
-0.989739, 169, 145, 232, 176
-0.989745, 185, 225, 248, 256
-0.989748, 129, 177, 384, 240
-0.989753, 169, 193, 232, 224
-0.989772, 1, 249, 500, 312
-0.989778, 433, 117, 496, 148
-0.989786, 33, 277, 96, 308
-0.989814, 1, 65, 64, 96
-0.989825, 369, 13, 432, 44
-0.989849, 369, 277, 432, 308
-0.989884, 313, 277, 376, 308
-0.989901, 1, 97, 64, 352
-0.989914, 313, 37, 376, 68
-0.989921, 249, 249, 312, 280
-0.989957, 145, 161, 208, 192
-0.99003, 161, 25, 224, 56
-0.99004, 185, 237, 248, 268
-0.99005, 1, 37, 64, 68
-0.990051, 397, 49, 428, 176
-0.990069, 445, 193, 476, 320
-0.99007, 89, 25, 152, 56
-0.990086, 113, 5, 176, 36
-0.990098, 169, 265, 232, 296
-0.990123, 305, 265, 368, 296
-0.990144, 129, 201, 192, 232
-0.990169, 249, 269, 312, 300
-0.990182, 49, 25, 112, 56
-0.990189, 289, 165, 352, 196
-0.99021, 289, 37, 352, 68
-0.990236, 257, 109, 320, 140
-0.990256, 105, 113, 136, 240
-0.990285, 33, 265, 96, 296
-0.990306, 305, 193, 432, 256
-0.99031, 169, 169, 232, 200
-0.990312, 105, 37, 168, 68
-0.990317, 177, 105, 240, 136
-0.990338, 225, 269, 288, 300
-0.990346, 225, 93, 288, 124
-0.990348, 1, 329, 64, 360
-0.990379, 129, 93, 192, 124
-0.990389, 145, 257, 208, 288
-0.990408, 297, 317, 360, 348
-0.990408, 169, 181, 232, 212
-0.990414, 33, 157, 96, 188
-0.990415, 281, 261, 344, 292
-0.990423, 201, 317, 264, 348
-0.990426, 129, 89, 384, 152
-0.990506, 1, 81, 64, 112
-0.990519, 329, 85, 392, 116
-0.990523, 105, 329, 168, 360
-0.990527, 217, 105, 280, 136
-0.990528, 161, 221, 224, 252
-0.99053, 329, 257, 392, 288
-0.990537, 201, 1, 264, 32
-0.990538, 265, 281, 328, 312
-0.990538, 265, 317, 328, 348
-0.990566, 177, 317, 240, 348
-0.990567, 289, 1, 352, 32
-0.990577, 297, 25, 360, 56
-0.990588, 337, 281, 400, 312
-0.990597, 169, 125, 232, 156
-0.990618, 257, 97, 320, 128
-0.99062, 233, 165, 296, 196
-0.990634, 233, 317, 296, 348
-0.990635, 57, 277, 120, 308
-0.990639, 129, 113, 192, 144
-0.990643, 9, 281, 72, 312
-0.990648, 33, 329, 96, 360
-0.990655, 225, 253, 288, 284
-0.990655, 9, 257, 72, 288
-0.990674, 377, 25, 440, 56
-0.990693, 329, 97, 392, 128
-0.990698, 89, 277, 152, 308
-0.990702, 129, 225, 384, 288
-0.990703, 329, 109, 392, 140
-0.990704, 273, 245, 336, 276
-0.990705, 185, 277, 248, 308
-0.990706, 233, 285, 296, 316
-0.990722, 193, 265, 256, 296
-0.990724, 209, 241, 272, 272
-0.990725, 25, 41, 88, 72
-0.990729, 209, 25, 272, 56
-0.990733, 137, 41, 200, 72
-0.990745, 401, 277, 464, 308
-0.990747, 193, 37, 256, 68
-0.990751, 201, 209, 264, 240
-0.99077, 1, 249, 256, 312
-0.99077, 225, 249, 480, 312
-0.990778, 121, 277, 184, 308
-0.99078, 433, 9, 496, 40
-0.990787, 25, 21, 88, 52
-0.990792, 145, 317, 208, 348
-0.990806, 145, 277, 208, 308
-0.990822, 233, 37, 296, 68
-0.990824, 81, 329, 144, 360
-0.990826, 217, 117, 280, 148
-0.990828, 313, 289, 376, 320
-0.990841, 73, 89, 136, 120
-0.990842, 145, 145, 208, 176
-0.990846, 33, 161, 288, 224
-0.990849, 201, 165, 264, 196
-0.990857, 1, 1, 500, 64
-0.990858, 433, 133, 496, 164
-0.990858, 217, 305, 280, 336
-0.990872, 249, 153, 312, 184
-0.990895, 417, 329, 480, 360
-0.990909, 393, 61, 456, 92
-0.990911, 265, 125, 328, 156
-0.99092, 33, 129, 288, 192
-0.990921, 385, 329, 448, 360
-0.990943, 273, 149, 336, 180
-0.990959, 377, 1, 440, 32
-0.990963, 281, 297, 344, 328
-0.990965, 1, 33, 256, 96
-0.990972, 433, 101, 496, 132
-0.990977, 145, 329, 208, 360
-0.991007, 57, 329, 120, 360
-0.991022, 169, 37, 232, 68
-0.991573, 129, 201, 384, 264
-0.99162, 225, 153, 480, 216
-0.991895, 225, 41, 480, 104
-0.991927, 129, 41, 384, 104
-0.991929, 257, 65, 500, 128
-0.99202, 245, 25, 276, 56
-0.992026, 33, 105, 288, 168
-0.992037, 249, 9, 280, 40
-0.992043, 149, 13, 180, 44
-0.992044, 217, 9, 248, 40
-0.992062, 305, 137, 432, 200
-0.992063, 357, 81, 388, 112
-0.992064, 305, 9, 336, 40
-0.992145, 237, 9, 268, 40
-0.992185, 185, 13, 216, 44
-0.992189, 369, 25, 400, 56
-0.992194, 33, 273, 64, 304
-0.992202, 125, 17, 156, 48
-0.992208, 265, 17, 296, 48
-0.992212, 321, 13, 352, 44
-0.992259, 165, 17, 196, 48
-0.992287, 281, 5, 312, 36
-0.992293, 65, 9, 192, 40
-0.992294, 285, 25, 316, 56
-0.992305, 341, 21, 372, 52
-0.992306, 165, 29, 196, 60
-0.992321, 93, 1, 124, 32
-0.992327, 125, 5, 156, 36
-0.992329, 137, 25, 168, 56
-0.992339, 201, 13, 232, 44
-0.992367, 357, 25, 388, 56
-0.992368, 249, 37, 280, 68
-0.992376, 149, 25, 180, 56
-0.992384, 457, 13, 488, 44
-0.992391, 133, 37, 164, 68
-0.992393, 385, 9, 416, 40
-0.992393, 185, 25, 216, 56
-0.992412, 361, 13, 392, 44
-0.992416, 33, 225, 288, 288
-0.99242, 241, 85, 368, 116
-0.992423, 147, 9, 162, 72
-0.992434, 293, 9, 324, 40
-0.992438, 121, 37, 152, 68
-0.99244, 177, 113, 304, 144
-0.992445, 161, 5, 192, 36
-0.99245, 325, 25, 356, 56
-0.992462, 21, 5, 52, 36
-0.992465, 261, 5, 292, 36
-0.992466, 261, 29, 292, 60
-0.992468, 437, 9, 468, 40
-0.992477, 337, 37, 368, 68
-0.992479, 233, 25, 264, 56
-0.99248, 173, 5, 204, 36
-0.992487, 105, 5, 136, 36
-0.992493, 337, 9, 368, 40
-0.992494, 153, 37, 184, 68
-0.992501, 237, 37, 268, 68
-0.992504, 325, 37, 356, 68
-0.992504, 13, 17, 44, 48
-0.992521, 305, 25, 336, 56
-0.992523, 13, 261, 44, 292
-0.992541, 201, 25, 232, 56
-0.992547, 41, 17, 72, 48
-0.992547, 5, 53, 36, 84
-0.992554, 373, 37, 404, 68
-0.992555, 345, 277, 376, 308
-0.992559, 221, 21, 252, 52
-0.992569, 365, 277, 396, 308
-0.992592, 33, 81, 288, 144
-0.992593, 113, 17, 144, 48
-0.992595, 357, 101, 388, 132
-0.992599, 93, 37, 124, 68
-0.992607, 173, 257, 204, 288
-0.992608, 1, 37, 32, 68
-0.99261, 57, 1, 88, 32
-0.99261, 1, 17, 32, 48
-0.99261, 389, 277, 420, 308
-0.992612, 137, 9, 168, 40
-0.992615, 185, 37, 216, 68
-0.992619, 353, 261, 384, 292
-0.992621, 269, 81, 300, 112
-0.992626, 273, 249, 304, 280
-0.992631, 405, 9, 436, 40
-0.992639, 289, 85, 416, 116
-0.99264, 377, 277, 408, 308
-0.99265, 349, 37, 380, 68
-0.992652, 49, 277, 80, 308
-0.992657, 281, 37, 312, 68
-0.992657, 193, 149, 224, 180
-0.992659, 77, 9, 108, 40
-0.992662, 5, 273, 36, 304
-0.992671, 97, 305, 352, 368
-0.992675, 457, 1, 488, 32
-0.992677, 93, 25, 124, 56
-0.992679, 177, 161, 208, 192
-0.99268, 361, 41, 392, 72
-0.992681, 197, 249, 228, 280
-0.992689, 25, 57, 56, 88
-0.992692, 121, 85, 152, 116
-0.9927, 237, 285, 268, 316
-0.992716, 181, 85, 212, 116
-0.992717, 289, 285, 320, 316
-0.992718, 221, 297, 252, 328
-0.992718, 277, 265, 308, 296
-0.99272, 177, 269, 208, 300
-0.992729, 313, 37, 344, 68
-0.99273, 45, 265, 76, 296
-0.992732, 1, 57, 256, 120
-0.99274, 425, 9, 456, 40
-0.992756, 127, 1, 142, 64
-0.992762, 53, 13, 84, 44
-0.992764, 257, 269, 288, 300
-0.992766, 21, 277, 52, 308
-0.992769, 109, 277, 140, 308
-0.99277, 193, 261, 224, 292
-0.992773, 309, 285, 340, 316
-0.992778, 61, 277, 92, 308
-0.992779, 149, 1, 180, 32
-0.99278, 173, 129, 204, 160
-0.99278, 265, 41, 296, 72
-0.992782, 33, 257, 64, 288
-0.992785, 353, 165, 384, 196
-0.992786, 29, 29, 60, 60
-0.99279, 77, 277, 108, 308
-0.992802, 197, 37, 228, 68
-0.992802, 281, 149, 312, 180
-0.992803, 185, 1, 216, 32
-0.992806, 365, 289, 396, 320
-0.992809, 213, 277, 244, 308
-0.99281, 161, 109, 192, 140
-0.992815, 1, 65, 32, 96
-0.992816, 93, 277, 124, 308
-0.992817, 161, 161, 192, 192
-0.992818, 349, 5, 380, 36
-0.992821, 245, 269, 276, 300
-0.992821, 165, 285, 196, 316
-0.992822, 129, 329, 160, 360
-0.992823, 37, 45, 68, 76
-0.992826, 253, 253, 284, 284
-0.992829, 469, 13, 500, 44
-0.992834, 333, 277, 364, 308
-0.992835, 105, 37, 136, 68
-0.992836, 241, 317, 272, 348
-0.992836, 261, 133, 292, 164
-0.992837, 289, 81, 320, 112
-0.992838, 205, 1, 236, 32
-0.992841, 225, 313, 256, 344
-0.992886, 33, 201, 288, 264
-0.992891, 1, 41, 500, 104
-0.992934, 1, 9, 128, 40
-0.992936, 241, 97, 368, 128
-0.992983, 253, 9, 268, 72
-0.99299, 117, 1, 132, 64
-0.993021, 41, 1, 56, 64
-0.993052, 225, 225, 480, 288
-0.993096, 225, 89, 480, 152
-0.993124, 161, 281, 416, 344
-0.99317, 213, 1, 228, 64
-0.99318, 225, 185, 480, 248
-0.993185, 247, 1, 262, 64
-0.993243, 287, 1, 302, 64
-0.993251, 289, 101, 416, 132
-0.993294, 337, 1, 352, 64
-0.993313, 319, 1, 334, 64
-0.993322, 185, 1, 200, 64
-0.993324, 241, 21, 368, 52
-0.993335, 263, 1, 278, 64
-0.993339, 157, 1, 172, 64
-0.99334, 99, 1, 114, 64
-0.993376, 257, 297, 500, 360
-0.993416, 231, 1, 246, 64
-0.993427, 141, 1, 156, 64
-0.993435, 225, 129, 480, 192
-0.993457, 161, 97, 288, 128
-0.993477, 161, 85, 288, 116
-0.993489, 1, 305, 256, 368
-0.993499, 353, 97, 480, 128
-0.993507, 177, 125, 304, 156
-0.99352, 377, 17, 392, 80
-0.993533, 1, 89, 500, 152
-0.993543, 383, 25, 398, 88
-0.993577, 161, 21, 288, 52
-0.993583, 257, 261, 384, 292
-0.993587, 145, 5, 272, 36
-0.993606, 327, 17, 342, 80
-0.993606, 257, 9, 384, 40
-0.993624, 297, 17, 312, 80
-0.99363, 113, 85, 240, 116
-0.993651, 203, 1, 218, 64
-0.993683, 307, 1, 322, 64
-0.993684, 365, 1, 380, 64
-0.9937, 1, 305, 500, 368
-0.993745, 105, 1, 120, 64
-0.993759, 163, 1, 178, 64
-0.99378, 81, 21, 208, 52
-0.993812, 1, 161, 500, 224
-0.993819, 17, 29, 144, 60
-0.993848, 241, 1, 256, 64
-0.993885, 313, 1, 328, 64
-0.993902, 193, 1, 208, 64
-0.993942, 305, 5, 432, 36
-0.993977, 289, 113, 416, 144
-0.993988, 209, 9, 336, 40
-0.994008, 377, 129, 440, 368
-0.994014, 305, 277, 432, 308
-0.994053, 247, 25, 262, 88
-0.994058, 1, 281, 256, 344
-0.99407, 371, 1, 386, 64
-0.994093, 135, 1, 150, 64
-0.994103, 221, 9, 236, 72
-0.994117, 177, 249, 304, 280
-0.994123, 153, 33, 168, 96
-0.994148, 129, 109, 256, 140
-0.994151, 369, 9, 496, 40
-0.994155, 289, 21, 416, 52
-0.994158, 353, 85, 480, 116
-0.994193, 349, 1, 364, 64
-0.994195, 179, 17, 194, 80
-0.994207, 33, 277, 160, 308
-0.99422, 147, 33, 162, 96
-0.994245, 355, 1, 370, 64
-0.994278, 339, 25, 354, 88
-0.99429, 177, 137, 304, 168
-0.994298, 1, 129, 500, 192
-0.994301, 129, 65, 384, 128
-0.994322, 1, 41, 128, 72
-0.994327, 173, 1, 188, 64
-0.99434, 367, 81, 382, 144
-0.994373, 1, 225, 500, 288
-0.994375, 89, 1, 104, 64
-0.994387, 477, 1, 492, 64
-0.994416, 113, 121, 240, 152
-0.994435, 257, 273, 500, 336
-0.994435, 257, 249, 384, 280
-0.994472, 241, 109, 368, 140
-0.994472, 353, 109, 480, 140
-0.994545, 113, 161, 240, 192
-0.994546, 275, 1, 290, 64
-0.994548, 45, 257, 60, 320
-0.994553, 209, 37, 336, 68
-0.994558, 273, 81, 288, 144
-0.994562, 337, 21, 464, 52
-0.994565, 39, 249, 54, 312
-0.994609, 49, 9, 64, 72
-0.994646, 405, 1, 420, 64
-0.994648, 239, 25, 254, 88
-0.994655, 169, 25, 184, 88
-0.994661, 189, 137, 204, 200
-0.994667, 61, 1, 76, 64
-0.994676, 31, 1, 46, 64
-0.994695, 7, 17, 22, 80
-0.994709, 177, 265, 304, 296
-0.994716, 111, 1, 126, 64
-0.994729, 299, 41, 314, 104
-0.994766, 371, 33, 386, 96
-0.994773, 33, 329, 160, 360
-0.994778, 383, 1, 398, 64
-0.99478, 359, 249, 374, 312
-0.994783, 161, 33, 288, 64
-0.994794, 463, 1, 478, 64
-0.994799, 131, 25, 146, 88
-0.994799, 141, 25, 156, 88
-0.9948, 65, 97, 192, 128
-0.994817, 127, 121, 142, 184
-0.994852, 189, 225, 204, 288
-0.994853, 275, 137, 290, 200
-0.994862, 257, 161, 384, 192
-0.994862, 343, 1, 358, 64
-0.994866, 5, 57, 20, 120
-0.994866, 81, 41, 208, 72
-0.994881, 97, 261, 224, 292
-0.994885, 447, 1, 462, 64
-0.994905, 189, 161, 204, 224
-0.994906, 97, 25, 112, 88
-0.994923, 435, 1, 450, 64
-0.994926, 353, 249, 368, 312
-0.994946, 357, 25, 372, 88
-0.994951, 285, 41, 300, 104
-0.994968, 161, 149, 288, 180
-0.99499, 1, 273, 500, 336
-0.994993, 277, 249, 292, 312
-0.995012, 163, 25, 178, 88
-0.995019, 65, 85, 192, 116
-0.995023, 39, 25, 54, 88
-0.995024, 333, 241, 348, 304
-0.99503, 17, 265, 144, 296
-0.995039, 123, 33, 138, 96
-0.995046, 337, 265, 464, 296
-0.99505, 353, 73, 480, 104
-0.995057, 17, 9, 32, 72
-0.995061, 117, 25, 132, 88
-0.995069, 125, 81, 140, 144
-0.995077, 347, 249, 362, 312
-0.995092, 107, 25, 122, 88
-0.995112, 291, 41, 306, 104
-0.995123, 361, 81, 376, 144
-0.995153, 289, 73, 416, 104
-0.995173, 25, 1, 40, 64
-0.995179, 231, 289, 246, 352
-0.995189, 113, 201, 240, 232
-0.995191, 183, 249, 198, 312
-0.995192, 261, 25, 276, 88
-0.995194, 17, 117, 144, 148
-0.9952, 113, 133, 240, 164
-0.995227, 305, 41, 320, 104
-0.995244, 51, 257, 66, 320
-0.99525, 257, 277, 384, 308
-0.995255, 287, 289, 302, 352
-0.995283, 71, 129, 86, 192
-0.99531, 293, 289, 308, 352
-0.995312, 289, 33, 416, 64
-0.995322, 327, 241, 342, 304
-0.99533, 1, 65, 500, 128
-0.99533, 177, 173, 304, 204
-0.995334, 193, 33, 208, 96
-0.995342, 113, 97, 240, 128
-0.995359, 301, 289, 316, 352
-0.99536, 449, 249, 464, 312
-0.995366, 269, 17, 284, 80
-0.995371, 321, 25, 336, 88
-0.995372, 427, 1, 442, 64
-0.995374, 1, 77, 128, 108
-0.995377, 353, 277, 480, 308
-0.995389, 17, 101, 144, 132
-0.995392, 157, 249, 172, 312
-0.995397, 333, 33, 348, 96
-0.995397, 193, 277, 320, 308
-0.9954, 267, 249, 282, 312
-0.995401, 297, 249, 312, 312
-0.995417, 203, 25, 218, 88
-0.995424, 365, 257, 380, 320
-0.995426, 213, 25, 228, 88
-0.995428, 221, 41, 236, 104
-0.995429, 209, 161, 336, 192
-0.995431, 217, 129, 232, 192
-0.995435, 81, 109, 208, 140
-0.995437, 471, 1, 486, 64
-0.995437, 179, 41, 194, 104
-0.995441, 339, 249, 354, 312
-0.995441, 219, 289, 234, 352
-0.995459, 175, 257, 190, 320
-0.995461, 363, 41, 378, 104
-0.995467, 257, 237, 384, 268
-0.995469, 303, 81, 318, 144
-0.99547, 415, 1, 430, 64
-0.99548, 169, 257, 184, 320
-0.995481, 161, 313, 288, 344
-0.995488, 225, 297, 352, 328
-0.995497, 219, 81, 234, 144
-0.995501, 35, 49, 50, 112
-0.995505, 283, 249, 298, 312
-0.995506, 19, 41, 34, 104
-0.995518, 189, 201, 204, 264
-0.995519, 113, 277, 240, 308
-0.995538, 321, 249, 336, 312
-0.995551, 49, 165, 176, 196
-0.995561, 51, 33, 66, 96
-0.995563, 257, 149, 384, 180
-0.995563, 261, 249, 276, 312
-0.995574, 281, 1, 296, 64
-0.995575, 229, 41, 244, 104
-0.995627, 113, 149, 240, 180
-0.995637, 129, 329, 256, 360
-0.995658, 305, 45, 432, 76
-0.995686, 1, 57, 128, 88
-0.9957, 273, 65, 304, 320
-0.995708, 261, 129, 292, 368
-0.995726, 241, 125, 368, 156
-0.995727, 209, 233, 336, 264
-0.995732, 113, 177, 240, 208
-0.995762, 337, 61, 464, 92
-0.995764, 353, 329, 480, 360
-0.995775, 129, 249, 256, 280
-0.995869, 17, 89, 144, 120
-0.995881, 161, 161, 288, 192
-0.995897, 241, 317, 368, 348
-0.995954, 113, 317, 240, 348
-0.995966, 49, 149, 176, 180
-0.995994, 113, 189, 240, 220
-0.995998, 161, 45, 288, 76
-0.996025, 273, 289, 400, 320
-0.99603, 209, 189, 336, 220
-0.996068, 209, 149, 336, 180
-0.996071, 209, 217, 336, 248
-0.996081, 257, 225, 384, 256
-0.996125, 17, 253, 144, 284
-0.996184, 257, 173, 384, 204
-0.9962, 305, 237, 432, 268
-0.996213, 81, 329, 208, 360
-0.996218, 81, 73, 208, 104
-0.996234, 33, 197, 160, 228
-0.996239, 161, 73, 288, 104
-0.996244, 285, 33, 316, 288
-0.996284, 313, 1, 344, 256
-0.996308, 177, 297, 304, 328
-0.996335, 241, 73, 368, 104
-0.996368, 305, 249, 432, 280
-0.996383, 257, 201, 384, 232
-0.996399, 49, 289, 176, 320
-0.996416, 41, 1, 72, 256
-0.996424, 157, 1, 188, 256
-0.996461, 113, 289, 240, 320
-0.996461, 261, 1, 292, 256
-0.996461, 353, 149, 480, 180
-0.996469, 145, 1, 176, 256
-0.996526, 17, 137, 144, 168
-0.996535, 297, 65, 328, 320
-0.996562, 213, 129, 244, 368
-0.996581, 33, 185, 160, 216
-0.996585, 1, 185, 500, 248
-0.996587, 193, 65, 224, 320
-0.996602, 429, 1, 460, 256
-0.996622, 33, 209, 160, 240
-0.996625, 161, 237, 288, 268
-0.996633, 305, 165, 432, 196
-0.996638, 257, 189, 384, 220
-0.996649, 177, 325, 304, 356
-0.996659, 449, 1, 480, 256
-0.996662, 353, 1, 384, 256
-0.996688, 217, 1, 248, 256
-0.996691, 129, 1, 160, 256
-0.996692, 65, 121, 192, 152
-0.99671, 353, 121, 480, 152
-0.996737, 69, 1, 100, 256
-0.996738, 257, 137, 384, 168
-0.99674, 193, 205, 320, 236
-0.996755, 257, 45, 384, 76
-0.996762, 373, 1, 404, 256
-0.996774, 117, 1, 148, 256
-0.996776, 305, 329, 432, 360
-0.996783, 249, 1, 280, 256
-0.996792, 113, 213, 240, 244
-0.996804, 465, 1, 496, 256
-0.996806, 1, 1, 32, 256
-0.996808, 57, 1, 88, 256
-0.996863, 257, 213, 384, 244
-0.99687, 81, 1, 112, 256
-0.996872, 263, 9, 278, 40
-0.996873, 229, 1, 260, 256
-0.996886, 241, 329, 368, 360
-0.996905, 81, 249, 208, 280
-0.996909, 161, 185, 288, 216
-0.996912, 21, 1, 52, 256
-0.996917, 337, 33, 464, 64
-0.996925, 335, 13, 350, 44
-0.996932, 325, 1, 356, 256
-0.99697, 173, 1, 204, 256
-0.997024, 323, 9, 338, 40
-0.997037, 147, 17, 162, 48
-0.997038, 139, 17, 154, 48
-0.997088, 379, 25, 394, 56
-0.997099, 433, 9, 448, 40
-0.997114, 139, 5, 154, 36
-0.997117, 353, 253, 480, 284
-0.997118, 255, 13, 270, 44
-0.997134, 321, 289, 448, 320
-0.997153, 173, 9, 188, 40
-0.997158, 285, 129, 316, 368
-0.997164, 49, 57, 176, 88
-0.997167, 145, 57, 272, 88
-0.997182, 165, 97, 196, 352
-0.997182, 139, 37, 154, 68
-0.99719, 249, 9, 264, 40
-0.997195, 349, 17, 364, 48
-0.9972, 95, 1, 110, 32
-0.997212, 413, 9, 428, 40
-0.99722, 289, 317, 416, 348
-0.997229, 275, 5, 290, 36
-0.997251, 245, 129, 276, 368
-0.997259, 127, 9, 142, 40
-0.997261, 423, 13, 438, 44
-0.997261, 297, 5, 312, 36
-0.997264, 25, 5, 40, 36
-0.99727, 147, 37, 162, 68
-0.997281, 309, 9, 324, 40
-0.997281, 327, 21, 342, 52
-0.997291, 213, 9, 228, 40
-0.997297, 385, 33, 400, 64
-0.997301, 183, 5, 198, 36
-0.997317, 53, 13, 68, 44
-0.997324, 239, 25, 254, 56
-0.997333, 213, 21, 228, 52
-0.997343, 247, 29, 262, 60
-0.997344, 223, 13, 238, 44
-0.997352, 317, 5, 332, 36
-0.997352, 357, 25, 372, 56
-0.997352, 43, 277, 58, 308
-0.997365, 253, 25, 268, 56
-0.997368, 189, 161, 204, 192
-0.997369, 451, 9, 466, 40
-0.997371, 229, 9, 244, 40
-0.997392, 285, 25, 300, 56
-0.997392, 179, 25, 194, 56
-0.997398, 299, 25, 314, 56
-0.997399, 287, 5, 302, 36
-0.997411, 403, 9, 418, 40
-0.997415, 203, 5, 218, 36
-0.997428, 359, 81, 374, 112
-0.997431, 95, 37, 110, 68
-0.997435, 117, 25, 132, 56
-0.997441, 341, 97, 372, 352
-0.997449, 131, 25, 146, 56
-0.997454, 117, 5, 132, 36
-0.997456, 127, 37, 142, 68
-0.997456, 163, 5, 178, 36
-0.997457, 77, 97, 108, 352
-0.997458, 189, 249, 204, 280
-0.99746, 157, 5, 172, 36
-0.997463, 153, 37, 168, 68
-0.997477, 337, 1, 368, 256
-0.997493, 87, 5, 102, 36
-0.997505, 441, 9, 456, 40
-0.997511, 97, 25, 112, 56
-0.997512, 239, 5, 254, 36
-0.997513, 263, 29, 278, 60
-0.997518, 15, 17, 30, 48
-0.997519, 63, 5, 78, 36
-0.997522, 337, 37, 352, 68
-0.997528, 149, 5, 164, 36
-0.997536, 349, 37, 364, 68
-0.997537, 41, 9, 56, 40
-0.997538, 5, 25, 20, 56
-0.997541, 225, 285, 240, 316
-0.997552, 423, 1, 438, 32
-0.997554, 241, 37, 256, 68
-0.997561, 385, 277, 400, 308
-0.997568, 343, 37, 358, 68
-0.997572, 39, 29, 54, 60
-0.997572, 53, 277, 68, 308
-0.997576, 213, 33, 228, 64
-0.997578, 329, 33, 344, 64
-0.997581, 373, 25, 388, 56
-0.997589, 369, 81, 384, 112
-0.997595, 9, 37, 24, 68
-0.997606, 133, 37, 148, 68
-0.997618, 361, 257, 376, 288
-0.997622, 445, 97, 476, 352
-0.997623, 357, 281, 372, 312
-0.99763, 401, 1, 432, 256
-0.997631, 219, 25, 234, 56
-0.997635, 203, 25, 218, 56
-0.997636, 31, 37, 46, 68
-0.997639, 31, 13, 46, 44
-0.99764, 357, 5, 372, 36
-0.997641, 339, 25, 354, 56
-0.997641, 99, 13, 114, 44
-0.997649, 365, 269, 380, 300
-0.997655, 163, 25, 178, 56
-0.997656, 193, 5, 208, 36
-0.997658, 291, 25, 306, 56
-0.99766, 69, 1, 84, 32
-0.99766, 467, 9, 482, 40
-0.997665, 379, 37, 394, 68
-0.997667, 277, 249, 292, 280
-0.997667, 129, 97, 160, 352
-0.997669, 323, 37, 338, 68
-0.997673, 235, 37, 250, 68
-0.997677, 107, 5, 122, 36
-0.997681, 21, 25, 36, 56
-0.997692, 273, 17, 288, 48
-0.997698, 179, 261, 194, 292
-0.997699, 235, 281, 250, 312
-0.997701, 207, 37, 222, 68
-0.997703, 61, 277, 76, 308
-0.99771, 189, 173, 204, 204
-0.997715, 143, 329, 158, 360
-0.997715, 365, 281, 380, 312
-0.997718, 107, 29, 122, 60
-0.997722, 177, 97, 208, 352
-0.997724, 411, 277, 426, 308
-0.997727, 347, 5, 362, 36
-0.997735, 367, 9, 382, 40
-0.997739, 79, 277, 94, 308
-0.997744, 305, 81, 320, 112
-0.997747, 289, 269, 304, 300
-0.997749, 303, 9, 318, 40
-0.99775, 347, 277, 362, 308
-0.99775, 21, 49, 36, 80
-0.99775, 271, 81, 286, 112
-0.997754, 379, 277, 394, 308
-0.997759, 241, 317, 256, 348
-0.99776, 377, 13, 392, 44
-0.997762, 183, 297, 198, 328
-0.997762, 167, 37, 182, 68
-0.997768, 393, 277, 408, 308
-0.997772, 47, 9, 62, 40
-0.997772, 231, 25, 246, 56
-0.997773, 477, 9, 492, 40
-0.997773, 157, 25, 172, 56
-0.997777, 21, 37, 36, 68
-0.997795, 97, 1, 128, 256
-0.997823, 233, 129, 264, 368
-0.997858, 65, 129, 96, 368
-0.997859, 329, 129, 360, 368
-0.997863, 149, 97, 180, 352
-0.997956, 205, 1, 236, 256
-0.998027, 389, 1, 420, 256
-0.998038, 309, 97, 340, 352
-0.998093, 413, 1, 444, 256
-0.998135, 377, 129, 440, 256
-0.998149, 353, 129, 384, 368
-0.998153, 117, 97, 148, 352
-0.99825, 469, 97, 500, 352
-0.998267, 105, 97, 136, 352
-0.998309, 365, 129, 396, 368
-0.998403, 265, 85, 328, 100
-0.998409, 265, 17, 328, 32
-0.998423, 177, 85, 240, 100
-0.998427, 297, 11, 360, 26
-0.998436, 337, 281, 400, 296
-0.998444, 337, 9, 400, 24
-0.998449, 361, 281, 424, 296
-0.998453, 225, 11, 288, 26
-0.998453, 257, 27, 320, 42
-0.998458, 33, 281, 96, 296
-0.998458, 273, 33, 336, 48
-0.998459, 169, 261, 232, 276
-0.998461, 137, 11, 200, 26
-0.998461, 161, 9, 224, 24
-0.998463, 129, 33, 192, 48
-0.998464, 169, 161, 232, 176
-0.998466, 169, 141, 232, 156
-0.998467, 89, 9, 152, 24
-0.998468, 1, 35, 64, 50
-0.998471, 291, 1, 306, 128
-0.998473, 1, 283, 64, 298
-0.998473, 433, 281, 496, 296
-0.998473, 129, 23, 192, 38
-0.998475, 305, 17, 368, 32
-0.998477, 1, 61, 64, 76
-0.998477, 137, 261, 200, 276
-0.998477, 257, 39, 320, 54
-0.998479, 337, 21, 400, 36
-0.998479, 201, 9, 264, 24
-0.998479, 375, 1, 390, 128
-0.998481, 345, 37, 408, 52
-0.998483, 41, 11, 104, 26
-0.998484, 49, 5, 112, 20
-0.998486, 169, 205, 232, 220
-0.998486, 217, 23, 248, 38
-0.998487, 217, 31, 248, 46
-0.998487, 237, 281, 268, 296
-0.998487, 169, 213, 232, 228
-0.998487, 209, 257, 272, 272
-0.998487, 45, 21, 76, 36
-0.998487, 49, 17, 112, 32
-0.998487, 381, 17, 412, 32
-0.998487, 157, 281, 188, 296
-0.998487, 185, 281, 216, 296
-0.998488, 393, 281, 456, 296
-0.998489, 265, 7, 296, 22
-0.998489, 137, 17, 168, 32
-0.998489, 5, 53, 36, 68
-0.99849, 177, 261, 208, 276
-0.99849, 177, 163, 208, 178
-0.99849, 125, 281, 156, 296
-0.998491, 273, 9, 336, 24
-0.998491, 129, 81, 192, 96
-0.998491, 341, 263, 372, 278
-0.998492, 337, 271, 400, 286
-0.998493, 145, 163, 208, 178
-0.998493, 1, 67, 64, 82
-0.998493, 169, 281, 200, 296
-0.998493, 313, 39, 376, 54
-0.998495, 337, 31, 400, 46
-0.998496, 261, 17, 292, 32
-0.998496, 129, 39, 192, 54
-0.998497, 203, 1, 218, 128
-0.998498, 21, 23, 52, 38
-0.998498, 357, 105, 388, 120
-0.998498, 365, 23, 396, 38
-0.998499, 153, 163, 184, 178
-0.998499, 105, 39, 168, 54
-0.9985, 281, 39, 312, 54
-0.998501, 233, 257, 296, 272
-0.998501, 193, 155, 224, 170
-0.998501, 249, 9, 312, 24
-0.998501, 321, 21, 352, 36
-0.998502, 145, 281, 176, 296
-0.998502, 301, 281, 332, 296
-0.998502, 249, 263, 312, 278
-0.998502, 329, 33, 360, 48
-0.998502, 105, 17, 168, 32
-0.998503, 225, 281, 256, 296
-0.998503, 1, 277, 64, 292
-0.998503, 9, 21, 40, 36
-0.998504, 265, 27, 296, 42
-0.998504, 313, 279, 376, 294
-0.998504, 1, 43, 64, 58
-0.998506, 177, 129, 240, 144
-0.998506, 33, 11, 64, 26
-0.998506, 169, 199, 232, 214
-0.998506, 169, 219, 232, 234
-0.998506, 97, 281, 128, 296
-0.998506, 249, 257, 280, 272
-0.998507, 249, 281, 312, 296
-0.998507, 1, 13, 64, 28
-0.998507, 217, 33, 280, 48
-0.998507, 265, 255, 296, 270
-0.998508, 105, 39, 136, 54
-0.998508, 185, 235, 248, 250
-0.998509, 285, 23, 316, 38
-0.99851, 65, 5, 96, 20
-0.99851, 269, 281, 300, 296
-0.998511, 357, 111, 388, 126
-0.998511, 9, 19, 72, 34
-0.998512, 433, 119, 496, 134
-0.998513, 133, 25, 164, 40
-0.998513, 305, 263, 368, 278
-0.998513, 253, 281, 284, 296
-0.998513, 201, 17, 232, 32
-0.998513, 281, 281, 312, 296
-0.998514, 353, 33, 384, 48
-0.998514, 9, 63, 40, 78
-0.998515, 165, 163, 196, 178
-0.998516, 177, 33, 208, 48
-0.998516, 281, 281, 344, 296
-0.998516, 217, 37, 248, 52
-0.998517, 121, 281, 184, 296
-0.998517, 137, 17, 200, 32
-0.998517, 195, 1, 210, 128
-0.998518, 225, 281, 288, 296
-0.998518, 341, 9, 372, 24
-0.998518, 273, 261, 336, 276
-0.998518, 169, 175, 232, 190
-0.99852, 429, 13, 460, 28
-0.99852, 185, 13, 216, 28
-0.99852, 233, 165, 296, 180
-0.998521, 269, 85, 300, 100
-0.998522, 165, 25, 196, 40
-0.998522, 193, 39, 224, 54
-0.998522, 305, 23, 368, 38
-0.998523, 1, 47, 32, 62
-0.998524, 217, 27, 280, 42
-0.998524, 1, 53, 64, 68
-0.998524, 341, 279, 372, 294
-0.998524, 17, 281, 48, 296
-0.998525, 1, 27, 32, 42
-0.998525, 161, 193, 224, 208
-0.998525, 145, 169, 208, 184
-0.998525, 89, 281, 152, 296
-0.998525, 249, 27, 280, 42
-0.998525, 17, 29, 80, 44
-0.998525, 169, 281, 232, 296
-0.998526, 361, 39, 392, 54
-0.998526, 217, 17, 280, 32
-0.998527, 149, 21, 180, 36
-0.998527, 185, 229, 248, 244
-0.998527, 93, 39, 124, 54
-0.998528, 169, 169, 232, 184
-0.998528, 177, 115, 240, 130
-0.998529, 453, 281, 484, 296
-0.998529, 201, 281, 264, 296
-0.99853, 169, 255, 232, 270
-0.99853, 441, 13, 472, 28
-0.99853, 289, 39, 352, 54
-0.99853, 233, 41, 296, 56
-0.998531, 289, 169, 352, 184
-0.998531, 21, 11, 52, 26
-0.998532, 145, 281, 208, 296
-0.998532, 433, 23, 496, 38
-0.998532, 161, 39, 192, 54
-0.998532, 225, 95, 288, 110
-0.998533, 233, 15, 264, 30
-0.998533, 201, 23, 232, 38
-0.998534, 65, 281, 128, 296
-0.998534, 377, 17, 440, 32
-0.998534, 177, 123, 240, 138
-0.998534, 273, 13, 304, 28
-0.998534, 361, 23, 424, 38
-0.998534, 129, 1, 144, 128
-0.998535, 257, 119, 320, 134
-0.998535, 217, 119, 280, 134
-0.998535, 185, 21, 216, 36
-0.998536, 149, 41, 180, 56
-0.998536, 365, 281, 396, 296
-0.998536, 181, 27, 212, 42
-0.998536, 193, 263, 256, 278
-0.998536, 285, 29, 316, 44
-0.998537, 409, 281, 440, 296
-0.998537, 161, 29, 224, 44
-0.998537, 237, 39, 268, 54
-0.998537, 201, 251, 264, 266
-0.998538, 1, 91, 64, 106
-0.998538, 359, 1, 374, 128
-0.998539, 233, 31, 264, 46
-0.998539, 265, 33, 296, 48
-0.99854, 173, 9, 204, 24
-0.99854, 41, 279, 72, 294
-0.99854, 117, 85, 148, 100
-0.99854, 185, 241, 248, 256
-0.998541, 169, 147, 232, 162
-0.998541, 217, 17, 248, 32
-0.998542, 121, 163, 184, 178
-0.998542, 249, 1, 264, 128
-0.998542, 185, 1, 200, 128
-0.998542, 37, 31, 68, 46
-0.998544, 113, 11, 144, 26
-0.998544, 133, 31, 164, 46
-0.998545, 113, 9, 176, 24
-0.998545, 89, 85, 152, 100
-0.998545, 437, 281, 468, 296
-0.998546, 365, 29, 396, 44
-0.998547, 217, 113, 280, 128
-0.998547, 193, 31, 224, 46
-0.998547, 425, 281, 456, 296
-0.998547, 129, 91, 192, 106
-0.998547, 265, 95, 328, 110
-0.998548, 201, 165, 264, 180
-0.998548, 329, 263, 392, 278
-0.998548, 325, 39, 356, 54
-0.998548, 1, 279, 32, 294
-0.998548, 225, 105, 288, 120
-0.998549, 197, 11, 228, 26
-0.99855, 225, 89, 288, 104
-0.99855, 33, 167, 96, 182
-0.998551, 113, 45, 176, 60
-0.998552, 369, 275, 432, 290
-0.998552, 337, 15, 400, 30
-0.998552, 397, 281, 428, 296
-0.998554, 177, 17, 240, 32
-0.998554, 185, 193, 248, 208
-0.998554, 193, 261, 224, 276
-0.998555, 165, 31, 196, 46
-0.998555, 345, 87, 408, 102
-0.998555, 285, 17, 316, 32
-0.998555, 273, 163, 336, 178
-0.998555, 9, 265, 72, 280
-0.998556, 77, 15, 108, 30
-0.998556, 169, 183, 232, 198
-0.998557, 257, 113, 320, 128
-0.998557, 341, 23, 372, 38
-0.998558, 469, 279, 500, 294
-0.998558, 81, 15, 144, 30
-0.998558, 265, 129, 328, 144
-0.998559, 321, 287, 384, 302
-0.998559, 341, 33, 372, 48
-0.998559, 129, 111, 192, 126
-0.99856, 105, 27, 168, 42
-0.99856, 153, 41, 216, 56
-0.998561, 329, 165, 392, 180
-0.998561, 125, 17, 156, 32
-0.998561, 193, 39, 256, 54
-0.998565, 353, 281, 384, 296
-0.998566, 337, 39, 368, 54
-0.998567, 285, 9, 316, 24
-0.998568, 93, 7, 124, 22
-0.998569, 165, 261, 196, 276
-0.998572, 145, 35, 176, 50
-0.998572, 263, 1, 278, 128
-0.998574, 325, 11, 356, 26
-0.998577, 249, 19, 280, 34
-0.998577, 29, 279, 60, 294
-0.998577, 151, 1, 166, 128
-0.998578, 285, 1, 300, 128
-0.998578, 165, 17, 196, 32
-0.99858, 237, 23, 268, 38
-0.998581, 35, 1, 50, 128
-0.998581, 377, 281, 408, 296
-0.998582, 273, 19, 304, 34
-0.998583, 213, 11, 244, 26
-0.998584, 333, 17, 364, 32
-0.998586, 265, 39, 296, 54
-0.998587, 277, 261, 308, 276
-0.998589, 121, 39, 152, 54
-0.998589, 253, 11, 284, 26
-0.998592, 233, 9, 264, 24
-0.998596, 373, 37, 404, 52
-0.998597, 457, 13, 488, 28
-0.998598, 149, 15, 180, 30
-0.99861, 305, 11, 336, 26
-0.998614, 153, 9, 184, 24
-0.998615, 121, 1, 136, 128
-0.998618, 249, 39, 280, 54
-0.998622, 89, 129, 120, 368
-0.998626, 15, 1, 30, 128
-0.998628, 183, 113, 198, 240
-0.998629, 245, 33, 276, 48
-0.998631, 49, 1, 64, 128
-0.998635, 133, 11, 164, 26
-0.998636, 223, 1, 238, 128
-0.998648, 357, 85, 388, 100
-0.998652, 57, 1, 72, 128
-0.998659, 163, 1, 178, 128
-0.99866, 369, 1, 384, 128
-0.998661, 331, 1, 346, 128
-0.998669, 275, 129, 290, 256
-0.998678, 133, 39, 164, 54
-0.998688, 317, 1, 332, 128
-0.998705, 233, 1, 248, 128
-0.998718, 9, 1, 24, 128
-0.998735, 107, 1, 122, 128
-0.998741, 157, 1, 172, 128
-0.998751, 337, 1, 352, 128
-0.998755, 309, 1, 324, 128
-0.998758, 367, 49, 382, 176
-0.998767, 43, 1, 58, 128
-0.998769, 239, 1, 254, 128
-0.998772, 63, 1, 78, 128
-0.998772, 99, 1, 114, 128
-0.998776, 457, 97, 488, 352
-0.998779, 233, 241, 248, 368
-0.99878, 245, 241, 260, 368
-0.998781, 299, 241, 314, 368
-0.998784, 115, 1, 130, 128
-0.998788, 189, 129, 204, 256
-0.998789, 255, 1, 270, 128
-0.998792, 187, 241, 202, 368
-0.998793, 323, 1, 338, 128
-0.998795, 93, 1, 108, 128
-0.998797, 359, 113, 374, 240
-0.998802, 189, 193, 204, 320
-0.998817, 179, 241, 194, 368
-0.998818, 171, 241, 186, 368
-0.998827, 365, 241, 380, 368
-0.998834, 179, 177, 194, 304
-0.99884, 145, 1, 160, 128
-0.998848, 79, 1, 94, 128
-0.998851, 177, 97, 192, 224
-0.998866, 361, 49, 376, 176
-0.998884, 209, 1, 224, 128
-0.998889, 303, 113, 318, 240
-0.998892, 139, 17, 154, 144
-0.998894, 291, 241, 306, 368
-0.998901, 277, 241, 292, 368
-0.998906, 273, 49, 288, 176
-0.998908, 179, 1, 194, 128
-0.998909, 303, 1, 318, 128
-0.998909, 239, 241, 254, 368
-0.998911, 405, 1, 420, 128
-0.998914, 185, 49, 200, 176
-0.998923, 43, 241, 58, 368
-0.998923, 305, 241, 320, 368
-0.998927, 359, 241, 374, 368
-0.998932, 129, 113, 144, 240
-0.998935, 313, 241, 328, 368
-0.998953, 29, 1, 44, 128
-0.998958, 255, 241, 270, 368
-0.998964, 125, 65, 140, 192
-0.998966, 225, 241, 240, 368
-0.998967, 217, 129, 232, 256
-0.998967, 215, 241, 230, 368
-0.998971, 381, 17, 396, 144
-0.998972, 269, 1, 284, 128
-0.998977, 169, 177, 184, 304
-0.998979, 3, 17, 18, 144
-0.99898, 365, 113, 380, 240
-0.998986, 85, 1, 100, 128
-0.998988, 49, 241, 64, 368
-0.99899, 343, 1, 358, 128
-0.998993, 325, 241, 340, 368
-0.998994, 193, 241, 208, 368
-0.998996, 169, 1, 184, 128
-0.999005, 21, 1, 36, 128
-0.999006, 209, 241, 224, 368
-0.999011, 135, 81, 150, 208
-0.999019, 73, 1, 88, 128
-0.999024, 299, 177, 314, 304
-0.999028, 301, 65, 316, 192
-0.999029, 283, 241, 298, 368
-0.99903, 73, 113, 88, 240
-0.999031, 353, 241, 368, 368
-0.999031, 269, 113, 284, 240
-0.999041, 123, 113, 138, 240
-0.999055, 349, 17, 364, 144
-0.99906, 217, 17, 232, 144
-0.999062, 261, 241, 276, 368
-0.999064, 319, 241, 334, 368
-0.999067, 435, 1, 450, 128
-0.999078, 415, 1, 430, 128
-0.999082, 297, 1, 312, 128
-0.999083, 279, 1, 294, 128
-0.999083, 223, 81, 238, 208
-0.999085, 277, 177, 292, 304
-0.999089, 373, 81, 388, 208
-0.99909, 79, 241, 94, 368
-0.999095, 309, 81, 324, 208
-0.999101, 335, 241, 350, 368
-0.999102, 217, 65, 232, 192
-0.999102, 267, 241, 282, 368
-0.999103, 119, 241, 134, 368
-0.999105, 425, 1, 440, 128
-0.99911, 45, 49, 60, 176
-0.999111, 151, 145, 166, 272
-0.999113, 263, 81, 278, 208
-0.999121, 353, 97, 368, 224
-0.999121, 83, 81, 98, 208
-0.999123, 171, 129, 186, 256
-0.999124, 165, 241, 180, 368
-0.999141, 125, 241, 140, 368
-0.999142, 371, 241, 386, 368
-0.99915, 59, 241, 74, 368
-0.999157, 19, 241, 34, 368
-0.999157, 441, 49, 456, 176
-0.999158, 343, 177, 358, 304
-0.999166, 161, 145, 176, 272
-0.999168, 389, 241, 404, 368
-0.999169, 433, 97, 464, 352
-0.99919, 389, 129, 420, 368
-0.99922, 41, 97, 72, 352
-0.999394, 25, 129, 56, 368
-0.999439, 53, 129, 84, 368
-0.999494, 377, 97, 408, 352
-0.999579, 405, 129, 436, 368
-0.999666, 267, 9, 282, 24
-0.999666, 155, 281, 170, 296
-0.999666, 145, 281, 160, 296
-0.999666, 213, 281, 228, 296
-0.999666, 345, 281, 360, 296
-0.999667, 457, 13, 472, 28
-0.999667, 167, 281, 182, 296
-0.999668, 343, 39, 358, 54
-0.999668, 335, 281, 350, 296
-0.999668, 121, 39, 136, 54
-0.999668, 163, 163, 178, 178
-0.999668, 9, 51, 24, 66
-0.999669, 243, 7, 258, 22
-0.99967, 233, 281, 248, 296
-0.99967, 187, 281, 202, 296
-0.999671, 239, 25, 254, 40
-0.999671, 309, 281, 324, 296
-0.999671, 473, 23, 488, 38
-0.999672, 161, 281, 176, 296
-0.999672, 177, 9, 192, 24
-0.999672, 213, 39, 228, 54
-0.999672, 271, 85, 286, 100
-0.999674, 299, 9, 314, 24
-0.999674, 149, 19, 164, 34
-0.999674, 257, 281, 272, 296
-0.999674, 173, 261, 188, 276
-0.999675, 29, 277, 44, 292
-0.999675, 431, 15, 446, 30
-0.999675, 241, 281, 256, 296
-0.999676, 189, 251, 204, 266
-0.999676, 121, 9, 136, 24
-0.999676, 171, 163, 186, 178
-0.999676, 273, 281, 288, 296
-0.999677, 297, 281, 312, 296
-0.999677, 93, 7, 108, 22
-0.999678, 283, 281, 298, 296
-0.999678, 183, 163, 198, 178
-0.999678, 251, 281, 266, 296
-0.999679, 327, 33, 342, 48
-0.99968, 405, 9, 420, 24
-0.999681, 49, 11, 64, 26
-0.999681, 253, 19, 268, 34
-0.999681, 111, 281, 126, 296
-0.999683, 263, 281, 278, 296
-0.999683, 5, 45, 20, 60
-0.999683, 179, 169, 194, 184
-0.999683, 189, 171, 204, 186
-0.999683, 35, 279, 50, 294
-0.999684, 139, 29, 154, 44
-0.999684, 93, 39, 108, 54
-0.999684, 183, 9, 198, 24
-0.999684, 417, 281, 432, 296
-0.999685, 347, 17, 362, 32
-0.999685, 415, 11, 430, 26
-0.999685, 343, 9, 358, 24
-0.999685, 5, 27, 20, 42
-0.999685, 249, 39, 264, 54
-0.999686, 461, 281, 476, 296
-0.999686, 259, 9, 274, 24
-0.999686, 249, 33, 264, 48
-0.999686, 289, 281, 304, 296
-0.999687, 189, 163, 204, 178
-0.999688, 319, 9, 334, 24
-0.999689, 153, 37, 168, 52
-0.999689, 175, 17, 190, 32
-0.99969, 327, 11, 342, 26
-0.999692, 207, 39, 222, 54
-0.999692, 247, 27, 262, 42
-0.999692, 357, 281, 372, 296
-0.999693, 415, 17, 430, 32
-0.999693, 357, 37, 372, 52
-0.999693, 241, 31, 256, 46
-0.999694, 467, 281, 482, 296
-0.999694, 275, 17, 290, 32
-0.999696, 427, 281, 442, 296
-0.999696, 209, 9, 224, 24
-0.999697, 39, 21, 54, 36
-0.999697, 87, 11, 102, 26
-0.999698, 153, 9, 168, 24
-0.999699, 455, 281, 470, 296
-0.9997, 425, 23, 440, 38
-0.999701, 263, 39, 278, 54
-0.999701, 477, 279, 492, 294
-0.999701, 483, 279, 498, 294
-0.999701, 189, 257, 204, 272
-0.999701, 287, 261, 302, 276
-0.999701, 127, 39, 142, 54
-0.999702, 405, 281, 420, 296
-0.999703, 283, 39, 298, 54
-0.999703, 41, 279, 56, 294
-0.999705, 351, 281, 366, 296
-0.999705, 133, 37, 148, 52
-0.999706, 411, 281, 426, 296
-0.999707, 129, 11, 144, 26
-0.999707, 373, 281, 388, 296
-0.999709, 449, 281, 464, 296
-0.99971, 231, 11, 246, 26
-0.99971, 437, 21, 452, 36
-0.99971, 405, 21, 420, 36
-0.999712, 145, 39, 160, 54
-0.999713, 213, 19, 228, 34
-0.999714, 25, 7, 40, 22
-0.999714, 297, 17, 312, 32
-0.999715, 433, 281, 448, 296
-0.999718, 381, 31, 396, 46
-0.999718, 367, 281, 382, 296
-0.999719, 141, 9, 156, 24
-0.999719, 443, 281, 458, 296
-0.99972, 215, 11, 230, 26
-0.999722, 307, 11, 322, 26
-0.999723, 135, 9, 150, 24
-0.999725, 179, 261, 194, 276
-0.999728, 397, 281, 412, 296
-0.99973, 43, 9, 58, 24
-0.99973, 383, 281, 398, 296
-0.999731, 389, 279, 404, 294
-0.999735, 263, 17, 278, 32
-0.999737, 5, 345, 20, 360
-0.999739, 349, 39, 364, 54
-0.999739, 379, 25, 394, 40
-0.99974, 221, 15, 236, 30
-0.999745, 147, 13, 162, 28
-0.999747, 387, 37, 402, 52
-0.99975, 335, 39, 350, 54
-0.999756, 441, 13, 456, 28
-0.999762, 139, 17, 154, 32
-0.999763, 337, 13, 352, 28
-0.999766, 423, 13, 438, 28
-0.99979, 253, 13, 268, 28
-0.999802, 139, 39, 154, 54
-0.999995, 421, 129, 452, 368
-1.00052, 5, 97, 36, 352
