1969
-0.326019, 1, 129, 375, 384
-0.392687, 1, 1, 375, 256
-0.419854, 1, 1, 375, 500
-0.431751, 1, 225, 375, 480
-0.436733, 129, 1, 375, 500
-0.626432, 129, 1, 375, 256
-0.626993, 129, 129, 375, 384
-0.650624, 1, 1, 256, 500
-0.664496, 129, 225, 375, 480
-0.688195, 33, 193, 288, 448
-0.735225, 33, 97, 288, 352
-0.778573, 33, 1, 288, 256
-0.84135, 209, 1, 336, 500
-0.852846, 241, 97, 368, 352
-0.860782, 241, 193, 368, 448
-0.864549, 193, 1, 320, 256
-0.869291, 17, 65, 144, 320
-0.877628, 81, 193, 208, 448
-0.884073, 193, 97, 320, 352
-0.886612, 1, 17, 375, 144
-0.887962, 1, 177, 375, 304
-0.89054, 145, 1, 272, 500
-0.891517, 1, 225, 375, 352
-0.892255, 81, 97, 208, 352
-0.892815, 145, 193, 272, 448
-0.894602, 129, 1, 256, 256
-0.895974, 241, 1, 368, 256
-0.897362, 1, 65, 375, 192
-0.898696, 1, 129, 375, 256
-0.902167, 193, 257, 320, 500
-0.904147, 1, 305, 375, 432
-0.90443, 17, 161, 144, 416
-0.905854, 97, 1, 224, 500
-0.906503, 49, 1, 176, 500
-0.917769, 129, 97, 256, 352
-0.918638, 1, 1, 128, 500
-0.924432, 97, 177, 352, 304
-0.926202, 1, 353, 375, 480
-0.927099, 17, 257, 144, 500
-0.930049, 33, 113, 160, 240
-0.93229, 129, 65, 375, 192
-0.932768, 129, 129, 375, 256
-0.933924, 1, 113, 256, 240
-0.934601, 1, 193, 256, 320
-0.937338, 129, 225, 375, 352
-0.93751, 129, 161, 192, 288
-0.937684, 97, 337, 352, 464
-0.93855, 297, 209, 360, 336
-0.939468, 193, 17, 320, 144
-0.940003, 209, 177, 336, 304
-0.940776, 33, 65, 288, 192
-0.941265, 113, 113, 176, 240
-0.941415, 81, 225, 208, 352
-0.942602, 113, 177, 240, 304
-0.942805, 129, 17, 375, 144
-0.944058, 241, 113, 368, 240
-0.944307, 81, 1, 208, 256
-0.945356, 17, 161, 144, 288
-0.945658, 273, 65, 336, 192
-0.946458, 241, 1, 304, 128
-0.947181, 153, 161, 216, 288
-0.947483, 225, 65, 352, 192
-0.947538, 153, 209, 216, 336
-0.947645, 97, 273, 224, 400
-0.947804, 153, 289, 216, 416
-0.948763, 113, 241, 176, 368
-0.948991, 297, 97, 360, 224
-0.949313, 89, 113, 152, 240
-0.949322, 129, 225, 256, 352
-0.950234, 1, 241, 256, 368
-0.950235, 241, 225, 368, 352
-0.950249, 105, 177, 168, 304
-0.950706, 25, 81, 88, 208
-0.951347, 193, 129, 320, 256
-0.951921, 265, 17, 328, 144
-0.952388, 193, 225, 320, 352
-0.952922, 1, 1, 256, 128
-0.953722, 313, 145, 375, 272
-0.953743, 145, 113, 208, 240
-0.953964, 65, 289, 320, 416
-0.954016, 81, 97, 208, 224
-0.954204, 129, 129, 256, 256
-0.95442, 145, 33, 272, 160
-0.955164, 265, 177, 328, 304
-0.955343, 185, 305, 248, 432
-0.955661, 73, 161, 136, 288
-0.955764, 65, 161, 192, 288
-0.955886, 161, 177, 288, 304
-0.956645, 33, 129, 96, 256
-0.956922, 305, 209, 368, 272
-0.957401, 265, 113, 328, 240
-0.958096, 17, 65, 144, 192
-0.958299, 201, 1, 264, 128
-0.958579, 97, 321, 224, 448
-0.958908, 185, 161, 248, 288
-0.959071, 129, 145, 192, 208
-0.959129, 177, 209, 240, 336
-0.959435, 153, 297, 216, 360
-0.959467, 153, 241, 216, 304
-0.959506, 73, 129, 136, 192
-0.959561, 201, 49, 264, 176
-0.959654, 121, 65, 184, 192
-0.959664, 257, 217, 320, 280
-0.960085, 17, 353, 144, 480
-0.96034, 225, 9, 288, 72
-0.960357, 97, 369, 224, 496
-0.960631, 241, 289, 368, 416
-0.960648, 233, 49, 296, 176
-0.960776, 9, 129, 72, 256
-0.96093, 113, 249, 176, 312
-0.96104, 65, 97, 128, 224
-0.96141, 161, 273, 288, 400
-0.961721, 281, 257, 344, 384
-0.961738, 289, 89, 352, 152
-0.962043, 257, 241, 320, 368
-0.96219, 233, 209, 296, 336
-0.962248, 201, 33, 264, 96
-0.962621, 1, 337, 256, 464
-0.962694, 1, 65, 64, 192
-0.962729, 289, 161, 352, 288
-0.962808, 169, 321, 232, 384
-0.963166, 105, 113, 168, 176
-0.963312, 265, 33, 328, 96
-0.963441, 297, 177, 360, 240
-0.963809, 209, 129, 272, 256
-0.963941, 161, 321, 288, 448
-0.964063, 97, 161, 160, 224
-0.964394, 57, 161, 120, 224
-0.964755, 257, 241, 320, 304
-0.964812, 161, 337, 224, 464
-0.96484, 185, 257, 248, 384
-0.965244, 153, 145, 216, 208
-0.96552, 49, 305, 176, 432
-0.965589, 233, 129, 296, 256
-0.965664, 305, 97, 368, 352
-0.965694, 305, 193, 368, 448
-0.966169, 305, 121, 368, 184
-0.96648, 113, 129, 176, 384
-0.966851, 297, 49, 360, 176
-0.967275, 305, 145, 368, 208
-0.967284, 105, 137, 168, 200
-0.967429, 121, 209, 184, 272
-0.967433, 273, 57, 336, 120
-0.967433, 257, 193, 320, 256
-0.967779, 25, 153, 88, 216
-0.967826, 169, 113, 232, 240
-0.967946, 281, 225, 344, 288
-0.968318, 137, 177, 200, 240
-0.968482, 257, 273, 320, 336
-0.968611, 161, 345, 224, 408
-0.968753, 281, 201, 344, 264
-0.96906, 185, 345, 248, 408
-0.969124, 145, 321, 208, 384
-0.969171, 33, 97, 96, 160
-0.9693, 49, 121, 112, 184
-0.969361, 9, 121, 72, 184
-0.969633, 281, 65, 344, 320
-0.969848, 281, 281, 344, 344
-0.969932, 153, 161, 216, 416
-0.970011, 233, 33, 296, 96
-0.970113, 297, 65, 328, 192
-0.970803, 161, 113, 224, 176
-0.971088, 185, 265, 248, 328
-0.971109, 177, 33, 240, 96
-0.971157, 209, 33, 336, 96
-0.971174, 73, 185, 136, 248
-0.971204, 73, 49, 136, 176
-0.971225, 177, 369, 304, 496
-0.971378, 161, 169, 224, 232
-0.971691, 113, 321, 176, 448
-0.971743, 241, 1, 368, 128
-0.97183, 273, 121, 336, 184
-0.971872, 153, 161, 184, 288
-0.971873, 33, 113, 160, 176
-0.971888, 265, 97, 328, 160
-0.971929, 281, 193, 344, 448
-0.972023, 177, 33, 240, 160
-0.972102, 137, 337, 200, 464
-0.97212, 129, 81, 192, 144
-0.972228, 193, 313, 256, 376
-0.972475, 33, 225, 160, 352
-0.972738, 81, 97, 144, 160
-0.973162, 169, 209, 232, 272
-0.973172, 281, 153, 344, 216
-0.973352, 305, 369, 368, 496
-0.973499, 89, 241, 152, 368
-0.973502, 193, 217, 256, 280
-0.973567, 321, 177, 352, 240
-0.973613, 145, 81, 272, 208
-0.973658, 117, 97, 148, 224
-0.973689, 201, 9, 264, 72
-0.973748, 17, 65, 80, 320
-0.973851, 193, 9, 320, 72
-0.973878, 301, 209, 332, 336
-0.97388, 65, 49, 192, 176
-0.973928, 157, 145, 188, 208
-0.973969, 217, 225, 280, 288
-0.973992, 81, 145, 208, 208
-0.97408, 249, 97, 312, 352
-0.974127, 153, 169, 184, 232
-0.974372, 129, 185, 160, 248
-0.974402, 281, 249, 344, 312
-0.974646, 1, 153, 128, 216
-0.974764, 185, 369, 248, 432
-0.974943, 209, 241, 272, 368
-0.974998, 233, 57, 296, 120
-0.975074, 209, 177, 272, 304
-0.975084, 129, 113, 192, 176
-0.975337, 285, 241, 316, 304
-0.97537, 73, 321, 136, 448
-0.97545, 249, 121, 312, 184
-0.975596, 221, 33, 252, 96
-0.975753, 97, 409, 160, 472
-0.975897, 17, 17, 144, 144
-0.975993, 241, 105, 368, 168
-0.97607, 185, 169, 248, 232
-0.976188, 137, 161, 168, 288
-0.976505, 81, 209, 208, 272
-0.976711, 1, 161, 64, 224
-0.976772, 201, 129, 264, 192
-0.976772, 145, 209, 208, 272
-0.976776, 309, 129, 340, 256
-0.976971, 249, 9, 312, 72
-0.976989, 297, 105, 328, 168
-0.977029, 257, 1, 320, 256
-0.977032, 81, 249, 208, 312
-0.977033, 73, 369, 136, 496
-0.977048, 193, 1, 256, 256
-0.977049, 285, 193, 316, 320
-0.977139, 33, 177, 96, 240
-0.977159, 209, 289, 272, 416
-0.977216, 1, 273, 128, 400
-0.977234, 281, 305, 344, 432
-0.977309, 113, 257, 176, 500
-0.977319, 129, 241, 256, 304
-0.977339, 177, 129, 240, 384
-0.977342, 241, 217, 368, 280
-0.977375, 177, 273, 208, 400
-0.977398, 297, 129, 328, 256
-0.977407, 1, 17, 64, 144
-0.977407, 241, 145, 304, 208
-0.977458, 285, 241, 316, 368
-0.977576, 1, 73, 64, 136
-0.977728, 113, 321, 176, 384
-0.97777, 161, 225, 192, 352
-0.977916, 73, 73, 136, 136
-0.97795, 145, 65, 208, 192
-0.977965, 33, 89, 160, 152
-0.978004, 33, 177, 160, 240
-0.978007, 105, 185, 168, 248
-0.978078, 201, 57, 264, 120
-0.978114, 89, 97, 152, 352
-0.978135, 325, 113, 356, 176
-0.978138, 145, 257, 208, 500
-0.978183, 25, 177, 88, 304
-0.978295, 201, 305, 232, 432
-0.978363, 25, 33, 88, 160
-0.978364, 113, 177, 240, 240
-0.978385, 281, 17, 312, 144
-0.978411, 57, 113, 88, 240
-0.978453, 157, 113, 188, 240
-0.978497, 185, 225, 248, 480
-0.97852, 73, 225, 136, 288
-0.978543, 49, 33, 112, 160
-0.978569, 169, 161, 200, 288
-0.97857, 73, 161, 104, 224
-0.978572, 153, 273, 216, 336
-0.978585, 73, 393, 136, 456
-0.978644, 237, 1, 268, 64
-0.978661, 197, 321, 228, 384
-0.978663, 117, 185, 148, 248
-0.978767, 121, 401, 184, 464
-0.978791, 333, 193, 364, 320
-0.978832, 185, 353, 248, 480
-0.978835, 237, 1, 268, 128
-0.978842, 209, 241, 336, 304
-0.978923, 49, 97, 112, 352
-0.979009, 113, 369, 176, 496
-0.979044, 309, 89, 340, 152
-0.979062, 225, 193, 352, 256
-0.979114, 225, 1, 288, 256
-0.979168, 177, 217, 304, 280
-0.97918, 137, 65, 200, 320
-0.979262, 117, 193, 148, 320
-0.979285, 33, 113, 64, 240
-0.979302, 145, 385, 208, 448
-0.979332, 137, 161, 168, 224
-0.979367, 313, 321, 375, 384
-0.979372, 321, 97, 352, 224
-0.97943, 117, 105, 148, 168
-0.979466, 49, 177, 112, 304
-0.979538, 281, 305, 344, 368
-0.979571, 317, 193, 348, 320
-0.979703, 105, 89, 168, 152
-0.97975, 129, 281, 192, 344
-0.979753, 305, 209, 336, 272
-0.979833, 97, 209, 160, 272
-0.979992, 225, 249, 288, 312
-0.980242, 141, 185, 172, 248
-0.98056, 177, 265, 304, 328
-0.980569, 129, 113, 160, 240
-0.980583, 309, 177, 340, 240
-0.980638, 209, 57, 336, 120
-0.980657, 241, 369, 368, 496
-0.980667, 273, 1, 304, 64
-0.980669, 161, 73, 192, 136
-0.980716, 269, 1, 300, 128
-0.980732, 97, 353, 224, 416
-0.980834, 125, 161, 156, 224
-0.980893, 9, 97, 72, 160
-0.980911, 153, 209, 184, 272
-0.980914, 193, 137, 320, 200
-0.980928, 305, 265, 368, 328
-0.980999, 273, 1, 336, 64
-0.981024, 285, 209, 316, 272
-0.98108, 257, 297, 320, 360
-0.981081, 309, 145, 340, 208
-0.981112, 285, 25, 316, 88
-0.981148, 89, 249, 152, 312
-0.98121, 269, 249, 300, 312
-0.981306, 145, 137, 176, 200
-0.981342, 217, 201, 280, 264
-0.981388, 129, 265, 256, 328
-0.981415, 333, 145, 364, 272
-0.981427, 285, 265, 316, 328
-0.981506, 233, 281, 296, 344
-0.981517, 257, 289, 320, 416
-0.981521, 1, 177, 64, 304
-0.981625, 189, 225, 220, 352
-0.981732, 189, 345, 220, 408
-0.981735, 177, 241, 240, 304
-0.981816, 161, 49, 288, 112
-0.981825, 309, 65, 340, 192
-0.98188, 109, 153, 140, 216
-0.981896, 321, 145, 352, 272
-0.98192, 273, 1, 336, 500
-0.981969, 73, 121, 104, 184
-0.982017, 49, 89, 80, 152
-0.98204, 169, 145, 200, 208
-0.982067, 285, 81, 316, 208
-0.982105, 333, 209, 364, 272
-0.982152, 105, 377, 168, 440
-0.982159, 209, 81, 336, 144
-0.982287, 169, 169, 200, 232
-0.982289, 297, 65, 328, 128
-0.982298, 345, 209, 375, 336
-0.982399, 333, 185, 364, 248
-0.982428, 33, 113, 64, 176
-0.98243, 257, 193, 320, 448
-0.982443, 249, 1, 280, 128
-0.982623, 189, 321, 220, 448
-0.982723, 169, 1, 232, 256
-0.982724, 181, 177, 212, 240
-0.982755, 233, 49, 264, 176
-0.982782, 53, 121, 84, 184
-0.982798, 241, 129, 368, 192
-0.982807, 25, 73, 88, 136
-0.982832, 85, 161, 116, 224
-0.982846, 113, 145, 144, 272
-0.982858, 117, 249, 148, 312
-0.98287, 65, 361, 128, 424
-0.98294, 173, 209, 204, 272
-0.982994, 345, 161, 375, 288
-0.983014, 257, 169, 320, 232
-0.983018, 161, 345, 288, 408
-0.983055, 345, 217, 375, 280
-0.98308, 137, 209, 168, 336
-0.983109, 145, 145, 272, 208
-0.983121, 117, 241, 148, 368
-0.983185, 193, 193, 256, 256
-0.983191, 217, 177, 280, 240
-0.983199, 57, 153, 88, 216
-0.983207, 45, 169, 76, 232
-0.98324, 149, 209, 180, 336
-0.983301, 129, 217, 256, 280
-0.983307, 69, 113, 100, 240
-0.983311, 37, 137, 68, 200
-0.983351, 81, 121, 208, 184
-0.983418, 313, 273, 375, 400
-0.983577, 45, 97, 76, 224
-0.983598, 21, 113, 52, 176
-0.983634, 73, 313, 136, 376
-0.983634, 193, 161, 320, 224
-0.983668, 265, 193, 296, 320
-0.983704, 185, 281, 216, 344
-0.983716, 305, 233, 368, 296
-0.983748, 241, 81, 304, 144
-0.983865, 129, 297, 256, 360
-0.98389, 221, 33, 252, 160
-0.983891, 317, 209, 348, 272
-0.98395, 117, 209, 148, 272
-0.98399, 185, 313, 216, 376
-0.984016, 241, 145, 272, 272
-0.984031, 81, 281, 208, 344
-0.984122, 201, 129, 264, 384
-0.984146, 189, 273, 220, 400
-0.984154, 201, 345, 232, 408
-0.984189, 297, 65, 360, 128
-0.984214, 121, 17, 184, 144
-0.984223, 57, 97, 120, 160
-0.984228, 21, 113, 52, 240
-0.984236, 185, 161, 216, 288
-0.984253, 65, 241, 128, 368
-0.984258, 137, 249, 168, 312
-0.984259, 141, 113, 172, 240
-0.984272, 173, 225, 204, 352
-0.984272, 205, 33, 236, 96
-0.984333, 241, 169, 368, 232
-0.984407, 49, 369, 112, 496
-0.984452, 153, 65, 216, 128
-0.984511, 1, 201, 128, 264
-0.984554, 205, 225, 236, 352
-0.984562, 201, 1, 264, 500
-0.984595, 225, 105, 288, 168
-0.984652, 197, 161, 228, 288
-0.984676, 125, 137, 156, 200
-0.984678, 165, 121, 196, 184
-0.984755, 105, 297, 168, 360
-0.984793, 305, 377, 368, 440
-0.984826, 73, 225, 136, 480
-0.984871, 333, 145, 364, 208
-0.984904, 197, 217, 228, 280
-0.984906, 177, 137, 240, 200
-0.98496, 105, 177, 136, 240
-0.985029, 233, 41, 264, 104
-0.985056, 161, 65, 192, 192
-0.985072, 5, 113, 36, 176
-0.985084, 273, 25, 304, 88
-0.985094, 97, 377, 224, 440
-0.985097, 177, 97, 208, 224
-0.985165, 193, 145, 224, 208
-0.985252, 201, 289, 264, 352
-0.985386, 209, 353, 272, 416
-0.985398, 233, 257, 296, 384
-0.985399, 17, 385, 144, 448
-0.985439, 101, 161, 132, 288
-0.985465, 173, 289, 204, 352
-0.985476, 61, 97, 92, 160
-0.98549, 285, 145, 316, 272
-0.985524, 65, 329, 192, 392
-0.985527, 173, 313, 204, 376
-0.985562, 65, 337, 128, 400
-0.985563, 129, 209, 160, 272
-0.985571, 97, 1, 224, 128
-0.98559, 161, 193, 288, 256
-0.985615, 73, 289, 136, 352
-0.985639, 289, 185, 320, 248
-0.985645, 145, 25, 272, 88
-0.985662, 29, 81, 60, 144
-0.985691, 269, 129, 300, 256
-0.985702, 145, 369, 272, 432
-0.985811, 241, 305, 368, 368
-0.985829, 241, 329, 368, 392
-0.985918, 17, 225, 144, 288
-0.985938, 25, 161, 56, 224
-0.985975, 17, 201, 80, 264
-0.98615, 281, 401, 344, 464
-0.986162, 209, 153, 272, 216
-0.986172, 45, 145, 76, 272
-0.986217, 129, 321, 256, 384
-0.986239, 161, 289, 192, 416
-0.98624, 177, 337, 208, 400
-0.986259, 5, 33, 36, 160
-0.986289, 81, 305, 208, 368
-0.986292, 277, 105, 308, 168
-0.986298, 97, 225, 128, 352
-0.986338, 81, 97, 208, 160
-0.986415, 13, 161, 44, 224
-0.986421, 161, 321, 192, 384
-0.986429, 65, 161, 96, 288
-0.986438, 125, 409, 156, 472
-0.986502, 145, 113, 272, 176
-0.986608, 113, 33, 176, 288
-0.986627, 297, 1, 360, 500
-0.986647, 141, 209, 172, 272
-0.986726, 157, 297, 188, 360
-0.986757, 181, 145, 212, 208
-0.986785, 225, 273, 352, 336
-0.986794, 97, 225, 128, 288
-0.986796, 17, 33, 80, 96
-0.986798, 177, 289, 240, 352
-0.986812, 197, 169, 228, 232
-0.986843, 345, 185, 375, 248
-0.986874, 137, 65, 168, 192
-0.986902, 245, 145, 276, 208
-0.986908, 269, 217, 300, 280
-0.986911, 17, 161, 80, 416
-0.986922, 253, 1, 284, 64
-0.986932, 225, 129, 288, 384
-0.986947, 97, 65, 160, 192
-0.98695, 17, 65, 48, 192
-0.986972, 145, 97, 176, 160
-0.987068, 57, 177, 88, 240
-0.987072, 41, 329, 104, 392
-0.987123, 193, 105, 320, 168
-0.987204, 269, 289, 300, 352
-0.987204, 113, 1, 176, 500
-0.987233, 201, 265, 232, 328
-0.98727, 49, 361, 176, 424
-0.987281, 101, 81, 132, 208
-0.987294, 113, 353, 176, 416
-0.987384, 161, 241, 192, 304
-0.987432, 57, 65, 88, 192
-0.987473, 101, 121, 132, 184
-0.987496, 209, 297, 240, 360
-0.987554, 73, 417, 136, 480
-0.987656, 217, 249, 248, 312
-0.987685, 265, 241, 296, 368
-0.987756, 153, 1, 216, 500
-0.987792, 177, 305, 304, 368
-0.987795, 21, 137, 52, 200
-0.987806, 113, 401, 240, 464
-0.987816, 137, 401, 168, 464
-0.987836, 309, 65, 340, 128
-0.98788, 77, 161, 108, 288
-0.987894, 277, 73, 308, 136
-0.987903, 41, 49, 104, 112
-0.98795, 145, 1, 272, 64
-0.987965, 185, 241, 216, 304
-0.987977, 93, 97, 124, 160
-0.988026, 25, 1, 88, 500
-0.988062, 141, 257, 172, 384
-0.988111, 97, 145, 128, 208
-0.988177, 49, 321, 112, 448
-0.988179, 249, 209, 280, 336
-0.988211, 217, 225, 248, 352
-0.98823, 221, 137, 252, 200
-0.988269, 297, 129, 328, 192
-0.988303, 97, 433, 160, 496
-0.988371, 213, 289, 244, 416
-0.988416, 197, 297, 228, 360
-0.988457, 265, 425, 328, 488
-0.988465, 113, 57, 176, 120
-0.98848, 105, 273, 168, 336
-0.988493, 17, 329, 144, 392
-0.988525, 49, 201, 112, 264
-0.988559, 209, 161, 240, 288
-0.988561, 229, 129, 260, 256
-0.988564, 313, 97, 375, 160
-0.988582, 105, 89, 136, 152
-0.988597, 33, 65, 64, 192
-0.988628, 309, 121, 340, 184
-0.988664, 25, 361, 88, 424
-0.988704, 225, 321, 288, 384
-0.988712, 293, 17, 324, 144
-0.988715, 257, 97, 288, 224
-0.988753, 193, 377, 320, 440
-0.988767, 65, 401, 192, 464
-0.988781, 281, 369, 344, 496
-0.988841, 161, 73, 288, 136
-0.988855, 209, 353, 336, 416
-0.988893, 297, 233, 328, 296
-0.988952, 73, 1, 136, 256
-0.988963, 345, 241, 375, 304
-0.988967, 49, 193, 112, 448
-0.988992, 177, 105, 208, 168
-0.988993, 225, 65, 256, 128
-0.988998, 225, 257, 288, 500
-0.989073, 1, 321, 64, 448
-0.989078, 9, 137, 40, 200
-0.989096, 33, 65, 160, 128
-0.989161, 137, 345, 200, 408
-0.989186, 41, 1, 104, 256
-0.989214, 265, 137, 296, 200
-0.98926, 173, 241, 204, 304
-0.989317, 249, 321, 312, 384
-0.989322, 93, 185, 124, 248
-0.989397, 33, 249, 160, 312
-0.989399, 249, 1, 312, 500
-0.9894, 225, 1, 288, 500
-0.989401, 205, 145, 236, 208
-0.989443, 1, 1, 64, 500
-0.989462, 189, 113, 220, 240
-0.989476, 169, 9, 232, 72
-0.98959, 25, 369, 88, 496
-0.989595, 169, 393, 232, 456
-0.989597, 233, 225, 264, 352
-0.989604, 257, 337, 320, 464
-0.989606, 97, 169, 160, 200
-0.989647, 253, 289, 284, 352
-0.989651, 285, 289, 316, 416
-0.989671, 137, 169, 200, 200
-0.989745, 233, 137, 264, 200
-0.989767, 305, 217, 368, 248
-0.989852, 9, 113, 40, 240
-0.989853, 89, 117, 152, 148
-0.989863, 209, 321, 240, 384
-0.989879, 253, 161, 284, 288
-0.989882, 289, 105, 352, 136
-0.989909, 209, 33, 240, 160
-0.989911, 17, 121, 80, 152
-0.989923, 5, 89, 36, 152
-0.98996, 193, 33, 224, 96
-0.98996, 197, 377, 228, 440
-0.989973, 297, 1, 360, 128
-0.989978, 41, 121, 104, 152
-0.989987, 69, 185, 100, 248
-0.989988, 113, 257, 176, 288
-0.989997, 241, 1, 304, 32
-0.990098, 129, 157, 192, 188
-0.990099, 177, 361, 208, 424
-0.990125, 97, 289, 128, 416
-0.990133, 289, 297, 320, 360
-0.99015, 257, 221, 320, 252
-0.99016, 25, 161, 56, 288
-0.990175, 297, 189, 360, 220
-0.990181, 205, 241, 236, 304
-0.990185, 9, 141, 72, 172
-0.990186, 265, 105, 328, 136
-0.990239, 113, 137, 176, 168
-0.990246, 153, 157, 216, 188
-0.990253, 209, 369, 272, 496
-0.990258, 253, 25, 284, 88
-0.990297, 201, 53, 264, 84
-0.990318, 221, 9, 252, 72
-0.990368, 85, 129, 116, 192
-0.99037, 169, 341, 232, 372
-0.990372, 177, 1, 240, 500
-0.990374, 161, 209, 224, 240
-0.990382, 177, 321, 208, 448
-0.990389, 169, 321, 232, 352
-0.99039, 113, 129, 144, 192
-0.990421, 129, 113, 192, 144
-0.990531, 281, 209, 344, 240
-0.990554, 89, 129, 152, 160
-0.990568, 113, 417, 144, 480
-0.990589, 265, 241, 328, 272
-0.990593, 289, 93, 352, 124
-0.9906, 217, 113, 248, 240
-0.990605, 265, 253, 328, 284
-0.990611, 97, 305, 128, 368
-0.990633, 265, 37, 328, 68
-0.990662, 153, 245, 216, 276
-0.990673, 233, 53, 296, 84
-0.990698, 225, 37, 288, 68
-0.9907, 193, 41, 256, 72
-0.99071, 145, 325, 208, 356
-0.990762, 65, 105, 128, 136
-0.990783, 265, 77, 328, 108
-0.990791, 65, 121, 128, 152
-0.990797, 305, 129, 368, 160
-0.990816, 85, 113, 116, 240
-0.990818, 169, 229, 232, 260
-0.990849, 105, 97, 168, 128
-0.990853, 137, 197, 200, 228
-0.990908, 57, 169, 120, 200
-0.990936, 49, 133, 112, 164
-0.990939, 169, 177, 232, 208
-0.99094, 265, 53, 328, 84
-0.990943, 121, 213, 184, 244
-0.990953, 257, 285, 320, 316
-0.990955, 81, 181, 144, 212
-0.99096, 121, 181, 184, 212
-0.990961, 281, 225, 344, 256
-0.990993, 265, 89, 328, 120
-0.991001, 9, 161, 40, 288
-0.991028, 233, 13, 296, 44
-0.991048, 101, 353, 132, 480
-0.991049, 33, 105, 96, 136
-0.991058, 241, 233, 304, 264
-0.991089, 161, 145, 224, 176
-0.991119, 265, 65, 328, 96
-0.991132, 33, 157, 96, 188
-0.991138, 209, 1, 272, 32
-0.991153, 153, 1, 216, 128
-0.991154, 257, 201, 320, 232
-0.991155, 149, 65, 180, 192
-0.991163, 257, 265, 320, 296
-0.991167, 113, 125, 176, 156
-0.991201, 105, 417, 168, 448
-0.991211, 121, 405, 184, 436
-0.991218, 105, 153, 168, 184
-0.991225, 153, 309, 216, 340
-0.991229, 305, 17, 336, 144
-0.991241, 65, 1, 128, 500
-0.991252, 305, 157, 368, 188
-0.991265, 9, 153, 72, 184
-0.991268, 129, 101, 192, 132
-0.991285, 1, 305, 128, 368
-0.991308, 305, 229, 368, 260
-0.991308, 273, 65, 304, 192
-0.991333, 153, 353, 216, 384
-0.991339, 193, 29, 256, 60
-0.991342, 25, 173, 88, 204
-0.991351, 297, 117, 360, 148
-0.99136, 193, 341, 256, 372
-0.991363, 145, 181, 208, 212
-0.991372, 193, 169, 256, 200
-0.991385, 169, 293, 232, 324
-0.991415, 81, 193, 144, 224
-0.991427, 161, 197, 224, 228
-0.991432, 145, 401, 208, 432
-0.991442, 265, 117, 328, 148
-0.99146, 241, 253, 304, 284
-0.991461, 1, 105, 64, 136
-0.991464, 185, 381, 248, 412
-0.991479, 241, 69, 304, 100
-0.991502, 185, 241, 248, 272
-0.991502, 161, 337, 192, 464
-0.991528, 257, 297, 320, 328
-0.99153, 297, 177, 360, 208
-0.991536, 185, 353, 248, 384
-0.991547, 297, 257, 328, 384
-0.99156, 281, 277, 344, 308
-0.991562, 217, 237, 280, 268
-0.991591, 57, 189, 120, 220
-0.991624, 145, 337, 208, 368
-0.991635, 225, 25, 288, 56
-0.991663, 73, 145, 136, 176
-0.991665, 193, 221, 256, 252
-0.991666, 273, 129, 336, 160
-0.991666, 153, 265, 216, 296
-0.991674, 25, 185, 88, 216
-0.991674, 25, 89, 88, 120
-0.991678, 81, 73, 208, 136
-0.991681, 217, 209, 280, 240
-0.991694, 257, 25, 320, 56
-0.991703, 305, 145, 368, 176
-0.991709, 185, 365, 248, 396
-0.991723, 241, 417, 368, 480
-0.991736, 249, 129, 312, 160
-0.991741, 281, 265, 344, 296
-0.991744, 113, 325, 176, 356
-0.99176, 241, 145, 304, 176
-0.991761, 73, 329, 136, 360
-0.991768, 45, 49, 76, 176
-0.991768, 81, 405, 144, 436
-0.99177, 1, 169, 64, 200
-0.991782, 185, 393, 248, 424
-0.991785, 273, 173, 336, 204
-0.991786, 217, 221, 280, 252
-0.991794, 209, 253, 272, 284
-0.991816, 221, 177, 252, 304
-0.991821, 201, 65, 264, 96
-0.991823, 193, 329, 256, 360
-0.991834, 193, 209, 256, 240
-0.99184, 273, 185, 336, 216
-0.991845, 193, 317, 256, 348
-0.991846, 97, 217, 352, 280
-0.99185, 141, 369, 172, 496
-0.991851, 289, 253, 352, 284
-0.991857, 169, 53, 232, 84
-0.991875, 193, 269, 256, 300
-0.99188, 137, 145, 200, 176
-0.991888, 153, 281, 216, 312
-0.991917, 305, 205, 368, 236
-0.99193, 289, 241, 352, 272
-0.99193, 105, 393, 168, 424
-0.991932, 265, 145, 328, 176
-0.991936, 145, 293, 208, 324
-0.991942, 1, 361, 128, 424
-0.991942, 113, 269, 176, 300
-0.991948, 281, 289, 344, 320
-0.991949, 273, 289, 304, 416
-0.991951, 17, 281, 144, 344
-0.991985, 241, 9, 368, 72
-0.992023, 1, 169, 375, 232
-0.992083, 89, 161, 120, 288
-0.992108, 1, 177, 256, 240
-0.992158, 341, 353, 372, 480
-0.992196, 81, 321, 112, 448
-0.992229, 233, 321, 296, 448
-0.992291, 285, 241, 316, 272
-0.992323, 113, 113, 144, 144
-0.992354, 285, 253, 316, 284
-0.992414, 217, 45, 248, 76
-0.99242, 25, 321, 88, 448
-0.992458, 129, 145, 375, 208
-0.992462, 137, 137, 168, 168
-0.992475, 285, 265, 316, 296
-0.992493, 153, 145, 184, 176
-0.992523, 229, 57, 260, 88
-0.992535, 141, 157, 172, 188
-0.992545, 1, 433, 128, 496
-0.992586, 69, 121, 100, 152
-0.992589, 49, 117, 80, 148
-0.9926, 305, 89, 336, 120
-0.992615, 97, 193, 352, 256
-0.992635, 153, 161, 184, 192
-0.992636, 305, 205, 336, 236
-0.992644, 317, 213, 348, 244
-0.992678, 125, 177, 156, 208
-0.992681, 1, 241, 64, 368
-0.992687, 245, 49, 276, 176
-0.992696, 241, 289, 272, 416
-0.992701, 25, 121, 56, 152
-0.992708, 297, 221, 328, 252
-0.992712, 37, 125, 68, 156
-0.992712, 113, 97, 144, 128
-0.992712, 273, 13, 304, 44
-0.992723, 337, 217, 368, 248
-0.992725, 297, 109, 328, 140
-0.99276, 137, 169, 168, 200
-0.992762, 197, 337, 228, 368
-0.992766, 285, 277, 316, 308
-0.992768, 1, 153, 256, 216
-0.99278, 121, 145, 152, 176
-0.992781, 193, 349, 224, 380
-0.992782, 325, 121, 356, 152
-0.992784, 129, 189, 160, 220
-0.992791, 237, 5, 268, 36
-0.992793, 153, 173, 184, 204
-0.992796, 281, 25, 312, 56
-0.9928, 45, 137, 76, 168
-0.992806, 197, 321, 228, 352
-0.992812, 41, 241, 104, 368
-0.992814, 297, 77, 328, 108
-0.992851, 157, 129, 188, 160
-0.992853, 173, 117, 204, 148
-0.992862, 301, 233, 332, 264
-0.992867, 57, 129, 88, 160
-0.992871, 209, 333, 240, 364
-0.992872, 317, 193, 348, 224
-0.992881, 297, 121, 328, 152
-0.992894, 229, 45, 260, 76
-0.992895, 169, 161, 200, 192
-0.992896, 205, 33, 236, 64
-0.9929, 97, 17, 224, 80
-0.992908, 317, 133, 348, 164
-0.992923, 173, 225, 204, 256
-0.992923, 305, 185, 336, 216
-0.992926, 309, 101, 340, 132
-0.992938, 93, 109, 124, 140
-0.99294, 237, 33, 268, 64
-0.99294, 265, 241, 296, 272
-0.992952, 133, 121, 164, 152
-0.992955, 333, 177, 364, 208
-0.992956, 117, 257, 148, 288
-0.992956, 69, 181, 100, 212
-0.992957, 173, 173, 204, 204
-0.992957, 285, 229, 316, 260
-0.992958, 109, 165, 140, 196
-0.992961, 101, 125, 132, 156
-0.992965, 121, 157, 152, 188
-0.992967, 133, 409, 164, 440
-0.992987, 293, 205, 324, 236
-0.99299, 273, 257, 304, 288
-0.992994, 117, 133, 148, 164
-0.992997, 13, 105, 44, 136
-0.993001, 161, 77, 192, 108
-0.993003, 329, 205, 360, 236
-0.99301, 85, 169, 116, 200
-0.993019, 97, 173, 128, 204
-0.993021, 345, 229, 375, 260
-0.993024, 285, 289, 316, 320
-0.993028, 109, 189, 140, 220
-0.993031, 269, 25, 300, 56
-0.993032, 129, 101, 160, 132
-0.993036, 197, 169, 228, 200
-0.993037, 57, 161, 88, 192
-0.993039, 177, 205, 208, 236
-0.993041, 277, 121, 308, 152
-0.993042, 125, 205, 156, 236
-0.993043, 1, 105, 32, 136
-0.993043, 141, 257, 172, 288
-0.993048, 141, 205, 172, 236
-0.99305, 145, 81, 176, 112
-0.993061, 277, 105, 308, 136
-0.993063, 221, 25, 252, 56
-0.993064, 321, 177, 352, 208
-0.993065, 181, 105, 212, 136
-0.993066, 145, 113, 176, 144
-0.993069, 181, 357, 212, 388
-0.99307, 113, 49, 240, 112
-0.993071, 285, 185, 316, 216
-0.993077, 177, 341, 208, 372
-0.993077, 269, 293, 300, 324
-0.993081, 217, 253, 248, 284
-0.993081, 305, 137, 336, 168
-0.993082, 153, 213, 184, 244
-0.993082, 285, 37, 316, 68
-0.993083, 165, 205, 196, 236
-0.993085, 13, 141, 44, 172
-0.993087, 269, 1, 300, 32
-0.993087, 197, 17, 228, 144
-0.993089, 309, 153, 340, 184
-0.993089, 33, 137, 64, 168
-0.993091, 309, 173, 340, 204
-0.993095, 197, 233, 228, 264
-0.993101, 253, 1, 284, 32
-0.993101, 41, 169, 72, 200
-0.993102, 49, 181, 80, 212
-0.99311, 69, 161, 100, 192
-0.993111, 285, 217, 316, 248
-0.993112, 121, 417, 152, 448
-0.993113, 13, 165, 44, 196
-0.993114, 197, 389, 228, 420
-0.993116, 321, 109, 352, 140
-0.993118, 181, 157, 212, 188
-0.993127, 257, 289, 288, 320
-0.993129, 109, 177, 140, 208
-0.99313, 329, 133, 360, 164
-0.993136, 69, 109, 100, 140
-0.993139, 53, 201, 84, 232
-0.993139, 245, 233, 276, 264
-0.993143, 293, 97, 324, 128
-0.993147, 161, 349, 192, 380
-0.99315, 65, 197, 96, 228
-0.993154, 129, 169, 375, 232
-0.993156, 261, 13, 292, 44
-0.993157, 189, 213, 220, 244
-0.993159, 281, 85, 312, 116
-0.993163, 49, 105, 80, 136
-0.993163, 293, 65, 324, 96
-0.993163, 161, 305, 192, 336
-0.993166, 117, 49, 148, 176
-0.993168, 77, 369, 108, 496
-0.993188, 253, 257, 284, 384
-0.993209, 33, 121, 288, 184
-0.993292, 1, 129, 375, 192
-0.993389, 17, 33, 144, 96
-0.99343, 177, 401, 304, 464
-0.993433, 173, 49, 204, 176
-0.993528, 189, 369, 220, 496
-0.99362, 89, 1, 152, 500
-0.993705, 1, 233, 375, 296
-0.993718, 209, 41, 336, 72
-0.993781, 333, 97, 364, 224
-0.993845, 129, 121, 375, 184
-0.993864, 165, 137, 180, 200
-0.993889, 209, 53, 336, 84
-0.993902, 1, 217, 256, 280
-0.993916, 33, 121, 160, 152
-0.993935, 241, 377, 368, 440
-0.993936, 149, 321, 180, 448
-0.993938, 61, 321, 92, 448
-0.993938, 1, 313, 256, 376
-0.993953, 201, 353, 232, 480
-0.99398, 341, 273, 372, 400
-0.993989, 201, 313, 216, 376
-0.993996, 97, 249, 352, 312
-0.994003, 25, 17, 56, 144
-0.994081, 1, 105, 375, 168
-0.994095, 77, 65, 108, 192
-0.994118, 1, 281, 375, 344
-0.994128, 125, 353, 156, 480
-0.994138, 257, 49, 288, 176
-0.994173, 97, 33, 128, 160
-0.994226, 329, 353, 360, 480
-0.994271, 193, 29, 320, 60
-0.9943, 305, 321, 368, 448
-0.994336, 297, 233, 312, 296
-0.994346, 129, 97, 375, 160
-0.994364, 33, 109, 160, 140
-0.994395, 65, 433, 192, 496
-0.994413, 129, 337, 375, 400
-0.99447, 233, 369, 296, 496
-0.994474, 185, 1, 216, 128
-0.994508, 159, 137, 174, 200
-0.994533, 205, 113, 236, 240
-0.994541, 193, 425, 320, 488
-0.994597, 65, 189, 192, 220
-0.994607, 241, 129, 368, 160
-0.99462, 1, 177, 128, 208
-0.994666, 129, 65, 375, 128
-0.994683, 225, 289, 256, 416
-0.994727, 209, 253, 336, 284
-0.994743, 147, 177, 162, 240
-0.994745, 17, 409, 144, 472
-0.99477, 171, 145, 186, 208
-0.994784, 327, 177, 342, 240
-0.994788, 277, 9, 292, 72
-0.994815, 137, 177, 152, 240
-0.994818, 1, 241, 256, 304
-0.994834, 33, 337, 288, 400
-0.994883, 53, 193, 84, 320
-0.994884, 241, 97, 272, 224
-0.994907, 131, 177, 146, 240
-0.994936, 167, 169, 182, 232
-0.994967, 147, 145, 162, 208
-0.995023, 221, 337, 252, 464
-0.995045, 65, 273, 320, 336
-0.995062, 129, 245, 256, 276
-0.995074, 1, 65, 375, 128
-0.995121, 129, 297, 375, 360
-0.995122, 117, 89, 132, 152
-0.995176, 33, 97, 288, 160
-0.995193, 283, 1, 298, 64
-0.995216, 69, 153, 84, 216
-0.995245, 59, 169, 74, 232
-0.99528, 81, 177, 208, 208
-0.995285, 175, 169, 190, 232
-0.995285, 237, 49, 252, 112
-0.99533, 299, 89, 314, 152
-0.995332, 209, 241, 336, 272
-0.995348, 157, 1, 188, 128
-0.995354, 81, 229, 208, 260
-0.995357, 1, 25, 256, 88
-0.995362, 97, 17, 160, 144
-0.99537, 241, 109, 368, 140
-0.995395, 49, 137, 176, 168
-0.995398, 305, 89, 320, 152
-0.995406, 307, 217, 322, 280
-0.995416, 65, 369, 96, 496
-0.995434, 1, 1, 375, 64
-0.99544, 17, 9, 144, 72
-0.995447, 307, 65, 322, 128
-0.995458, 153, 177, 168, 240
-0.995463, 113, 369, 144, 496
-0.995487, 243, 1, 258, 64
-0.995504, 37, 193, 68, 320
-0.995513, 129, 33, 375, 96
-0.99552, 241, 217, 368, 248
-0.995539, 209, 69, 336, 100
-0.995559, 185, 49, 216, 176
-0.995562, 1, 193, 375, 256
-0.995567, 289, 217, 304, 280
-0.995579, 49, 137, 64, 200
-0.995585, 319, 153, 334, 216
-0.995586, 163, 81, 178, 144
-0.995623, 301, 193, 316, 256
-0.995637, 337, 113, 352, 176
-0.995668, 1, 1, 256, 64
-0.995682, 319, 185, 334, 248
-0.995693, 193, 13, 320, 44
-0.995696, 87, 121, 102, 184
-0.995699, 231, 33, 246, 96
-0.995719, 119, 249, 134, 312
-0.995725, 33, 65, 288, 128
-0.995727, 97, 385, 352, 448
-0.995732, 113, 117, 240, 148
-0.995739, 127, 113, 142, 176
-0.995744, 17, 189, 144, 220
-0.995748, 241, 229, 368, 260
-0.995749, 187, 177, 202, 240
-0.995768, 125, 169, 140, 232
-0.995789, 301, 97, 332, 352
-0.995832, 65, 165, 192, 196
-0.995833, 1, 369, 375, 432
-0.995843, 191, 281, 206, 344
-0.995856, 49, 97, 176, 128
-0.995866, 317, 89, 332, 152
-0.995866, 145, 41, 272, 72
-0.995867, 199, 337, 214, 400
-0.995875, 305, 1, 368, 256
-0.995899, 49, 257, 176, 288
-0.995915, 137, 121, 152, 184
-0.995915, 1, 157, 128, 188
-0.995926, 157, 129, 188, 384
-0.995942, 45, 113, 60, 176
-0.995945, 269, 9, 284, 72
-0.995951, 177, 201, 192, 264
-0.995952, 177, 1, 304, 32
-0.995965, 341, 209, 356, 272
-0.995971, 217, 33, 232, 96
-0.995976, 313, 65, 344, 320
-0.99598, 129, 261, 256, 292
-0.996, 57, 121, 72, 184
-0.996002, 29, 113, 44, 176
-0.996004, 129, 273, 256, 304
-0.996041, 125, 145, 140, 208
-0.996045, 139, 209, 154, 272
-0.99606, 193, 141, 320, 172
-0.996061, 49, 89, 64, 152
-0.996064, 129, 9, 375, 72
-0.996079, 171, 121, 186, 184
-0.996084, 159, 161, 174, 224
-0.996084, 357, 217, 372, 280
-0.996087, 141, 153, 156, 216
-0.996092, 79, 161, 94, 224
-0.996094, 191, 337, 206, 400
-0.996113, 167, 201, 182, 264
-0.996115, 225, 41, 240, 104
-0.996121, 87, 161, 102, 224
-0.996132, 243, 57, 258, 120
-0.996134, 115, 161, 130, 224
-0.996136, 145, 221, 272, 252
-0.996136, 193, 221, 320, 252
-0.996147, 213, 241, 228, 304
-0.996151, 241, 201, 368, 232
-0.99616, 161, 233, 288, 264
-0.996162, 173, 65, 188, 128
-0.996163, 301, 193, 332, 448
-0.996165, 97, 209, 224, 240
-0.99617, 207, 313, 222, 376
-0.996174, 65, 177, 80, 240
-0.996186, 21, 113, 36, 176
-0.996203, 177, 145, 192, 208
-0.996222, 113, 157, 240, 188
-0.996227, 315, 129, 330, 192
-0.996231, 351, 185, 366, 248
-0.996239, 241, 97, 368, 128
-0.996255, 181, 169, 196, 232
-0.996258, 299, 33, 314, 96
-0.996262, 1, 305, 375, 368
-0.99627, 29, 161, 44, 224
-0.996273, 145, 209, 160, 272
-0.996278, 161, 53, 288, 84
-0.996294, 333, 177, 348, 240
-0.996308, 309, 113, 324, 176
-0.996309, 97, 357, 224, 388
-0.996313, 283, 289, 298, 352
-0.996314, 129, 361, 375, 424
-0.996318, 97, 373, 224, 404
-0.996319, 65, 409, 320, 472
-0.996324, 145, 209, 272, 240
-0.99633, 1, 89, 128, 120
-0.996335, 343, 145, 358, 208
-0.996337, 97, 401, 224, 432
-0.996338, 181, 281, 196, 344
-0.996344, 205, 337, 220, 400
-0.99635, 161, 69, 288, 100
-0.996351, 19, 137, 34, 200
-0.996364, 81, 389, 208, 420
-0.996365, 191, 241, 206, 304
-0.99637, 203, 289, 218, 352
-0.996374, 1, 257, 375, 320
-0.996378, 113, 189, 240, 220
-0.996395, 177, 273, 304, 304
-0.996405, 331, 105, 346, 168
-0.996413, 155, 89, 170, 152
-0.996414, 101, 161, 116, 224
-0.996417, 167, 57, 182, 120
-0.996447, 291, 105, 306, 168
-0.996458, 337, 193, 368, 448
-0.996466, 1, 25, 375, 88
-0.996468, 209, 81, 336, 112
-0.99647, 153, 249, 168, 312
-0.996475, 263, 209, 278, 272
-0.996476, 1, 337, 375, 400
-0.996484, 195, 145, 210, 208
-0.996484, 277, 33, 292, 96
-0.996495, 39, 121, 54, 184
-0.996497, 131, 209, 146, 272
-0.996502, 95, 161, 110, 224
-0.996502, 81, 121, 96, 184
-0.996503, 325, 97, 340, 160
-0.996508, 201, 161, 216, 224
-0.996516, 295, 193, 310, 256
-0.99652, 297, 257, 312, 320
-0.99652, 195, 313, 210, 376
-0.996522, 61, 145, 76, 208
-0.996531, 123, 89, 138, 152
-0.996535, 343, 185, 358, 248
-0.996538, 145, 145, 272, 176
-0.99654, 319, 209, 334, 272
-0.996542, 249, 137, 264, 200
-0.996542, 313, 201, 328, 264
-0.996551, 1, 141, 128, 172
-0.996553, 97, 145, 224, 176
-0.996554, 351, 217, 366, 280
-0.996567, 343, 121, 358, 184
-0.996581, 129, 177, 256, 208
-0.996589, 193, 169, 320, 200
-0.996595, 219, 233, 234, 296
-0.996596, 39, 161, 54, 224
-0.996602, 69, 129, 84, 192
-0.996608, 119, 185, 134, 248
-0.996609, 135, 145, 150, 208
-0.996611, 193, 177, 208, 240
-0.996616, 117, 225, 132, 288
-0.996618, 161, 209, 176, 272
-0.996632, 197, 281, 212, 344
-0.996632, 281, 1, 312, 256
-0.996634, 129, 289, 256, 320
-0.996637, 333, 209, 348, 272
-0.996641, 121, 417, 136, 480
-0.996642, 291, 241, 306, 304
-0.996666, 157, 65, 172, 128
-0.996688, 209, 285, 336, 316
-0.9967, 211, 25, 226, 88
-0.996703, 17, 397, 144, 428
-0.996705, 285, 249, 300, 312
-0.996719, 283, 209, 298, 272
-0.996721, 81, 273, 208, 304
-0.996724, 317, 193, 348, 448
-0.996731, 249, 57, 264, 120
-0.996734, 253, 1, 268, 64
-0.996738, 209, 185, 336, 216
-0.996747, 185, 201, 200, 264
-0.996747, 193, 153, 320, 184
-0.996748, 145, 365, 272, 396
-0.996751, 359, 241, 374, 304
-0.996759, 153, 137, 168, 200
-0.996792, 33, 361, 288, 424
-0.9968, 329, 97, 360, 352
-0.996802, 177, 349, 304, 380
-0.996829, 113, 425, 240, 488
-0.996836, 145, 129, 176, 384
-0.996843, 221, 1, 252, 256
-0.996844, 81, 297, 208, 328
-0.996846, 33, 201, 160, 232
-0.996861, 29, 65, 60, 320
-0.996889, 193, 129, 224, 384
-0.996903, 129, 29, 256, 60
-0.996929, 65, 41, 192, 104
-0.996931, 241, 149, 368, 180
-0.996955, 173, 193, 204, 448
-0.996964, 289, 97, 320, 352
-0.996965, 113, 97, 144, 352
-0.996974, 241, 29, 368, 60
-0.99698, 129, 329, 256, 360
-0.996983, 81, 241, 208, 272
-0.997015, 205, 1, 236, 256
-0.997026, 125, 97, 156, 352
-0.997035, 129, 317, 256, 348
-0.997043, 81, 285, 208, 316
-0.997045, 289, 257, 320, 500
-0.997046, 49, 65, 80, 320
-0.997047, 161, 225, 192, 480
-0.997074, 297, 241, 312, 272
-0.99709, 49, 149, 176, 180
-0.99709, 49, 333, 176, 364
-0.997101, 17, 65, 48, 320
-0.997107, 193, 109, 320, 140
-0.997168, 97, 129, 224, 160
-0.99719, 177, 301, 304, 332
-0.997204, 225, 1, 352, 32
-0.997212, 161, 197, 288, 228
-0.997223, 161, 129, 288, 160
-0.997257, 193, 333, 320, 364
-0.997261, 293, 1, 324, 256
-0.997313, 17, 245, 144, 276
-0.997325, 129, 301, 256, 332
-0.997326, 5, 33, 36, 288
-0.997327, 165, 33, 196, 288
-0.997333, 297, 253, 312, 284
-0.997341, 65, 413, 192, 444
-0.997346, 97, 89, 224, 120
-0.997359, 49, 321, 176, 352
-0.997364, 239, 57, 254, 88
-0.9974, 1, 337, 128, 368
-0.997417, 129, 345, 256, 376
-0.99742, 145, 377, 272, 408
-0.997421, 299, 97, 314, 128
-0.997429, 165, 145, 180, 176
-0.997431, 81, 345, 208, 376
-0.99744, 117, 97, 132, 128
-0.997444, 241, 1, 256, 32
-0.997455, 1, 257, 64, 500
-0.997477, 177, 97, 304, 128
-0.997502, 225, 265, 352, 296
-0.997503, 145, 397, 272, 428
-0.997519, 113, 1, 240, 32
-0.997541, 25, 257, 88, 500
-0.997542, 241, 161, 368, 192
-0.997599, 317, 133, 332, 164
-0.997599, 279, 13, 294, 44
-0.997603, 241, 309, 368, 340
-0.99761, 171, 157, 186, 188
-0.997619, 307, 221, 322, 252
-0.997622, 1, 385, 256, 448
-0.997661, 49, 121, 64, 152
-0.997663, 341, 97, 372, 352
-0.997697, 97, 105, 224, 136
-0.997712, 81, 309, 208, 340
-0.997715, 69, 121, 84, 152
-0.99772, 241, 173, 368, 204
-0.997757, 125, 177, 140, 208
-0.997759, 201, 317, 216, 348
-0.997775, 61, 65, 92, 320
-0.997781, 117, 225, 148, 480
-0.997786, 77, 97, 108, 352
-0.997795, 117, 257, 132, 288
-0.997798, 59, 137, 74, 168
-0.9978, 241, 345, 368, 376
-0.997803, 161, 129, 176, 160
-0.997804, 305, 233, 320, 264
-0.997805, 233, 45, 248, 76
-0.997807, 17, 385, 144, 416
-0.997816, 159, 161, 174, 192
-0.997818, 97, 433, 352, 496
-0.997819, 129, 17, 256, 48
-0.997827, 193, 321, 320, 352
-0.997828, 133, 177, 148, 208
-0.997843, 319, 213, 334, 244
-0.997849, 49, 357, 176, 388
-0.997849, 159, 145, 174, 176
-0.997853, 17, 373, 144, 404
-0.997854, 145, 161, 160, 192
-0.997857, 245, 61, 260, 92
-0.997857, 137, 153, 152, 184
-0.997859, 165, 73, 180, 104
-0.997862, 161, 81, 288, 112
-0.997865, 279, 1, 294, 32
-0.997876, 49, 81, 176, 112
-0.997882, 193, 209, 320, 240
-0.997885, 327, 193, 342, 224
-0.997885, 63, 113, 78, 144
-0.997886, 287, 253, 302, 284
-0.997896, 147, 149, 162, 180
-0.997897, 241, 357, 368, 388
-0.997911, 193, 1, 224, 256
-0.99792, 299, 81, 314, 112
-0.997927, 227, 45, 242, 76
-0.99793, 305, 101, 320, 132
-0.997931, 1, 409, 128, 440
-0.997937, 1, 417, 375, 480
-0.997954, 37, 121, 52, 152
-0.997955, 49, 141, 64, 172
-0.99797, 309, 85, 324, 116
-0.99798, 61, 177, 76, 208
-0.997983, 223, 253, 238, 284
-0.997983, 297, 265, 312, 296
-0.997983, 277, 29, 292, 60
-0.997984, 341, 125, 356, 156
-0.997986, 165, 165, 180, 196
-0.99799, 97, 65, 128, 320
-0.998, 123, 109, 138, 140
-0.998016, 343, 217, 358, 248
-0.998017, 97, 257, 128, 500
-0.998021, 185, 201, 200, 232
-0.998029, 1, 393, 375, 456
-0.998034, 177, 173, 192, 204
-0.998045, 215, 257, 230, 288
-0.998046, 17, 233, 144, 264
-0.998048, 171, 69, 186, 100
-0.99805, 117, 113, 132, 144
-0.998056, 131, 193, 146, 224
-0.99806, 139, 169, 154, 200
-0.998069, 273, 13, 288, 44
-0.99807, 317, 201, 332, 232
-0.998071, 269, 161, 300, 416
-0.998074, 295, 29, 310, 60
-0.998076, 311, 145, 326, 176
-0.998076, 177, 109, 192, 140
-0.99808, 129, 165, 144, 196
-0.998081, 285, 21, 300, 52
-0.998081, 329, 205, 344, 236
-0.998082, 29, 113, 44, 144
-0.998085, 115, 133, 130, 164
-0.998087, 63, 125, 78, 156
-0.998089, 297, 109, 312, 140
-0.99809, 157, 81, 172, 112
-0.998096, 205, 129, 236, 384
-0.998096, 287, 265, 302, 296
-0.998098, 359, 249, 374, 280
-0.998101, 221, 41, 236, 72
-0.998106, 297, 229, 312, 260
-0.998111, 291, 225, 306, 256
-0.998113, 77, 117, 92, 148
-0.998114, 71, 161, 86, 192
-0.998119, 169, 125, 184, 156
-0.99812, 247, 5, 262, 36
-0.998121, 315, 89, 330, 120
-0.998121, 349, 213, 364, 244
-0.998124, 141, 189, 156, 220
-0.998126, 241, 297, 368, 328
-0.998133, 17, 213, 144, 244
-0.998134, 17, 281, 144, 312
-0.998138, 141, 257, 172, 500
-0.998138, 237, 1, 268, 256
-0.998147, 1, 325, 128, 356
-0.998159, 285, 9, 300, 40
-0.998164, 125, 205, 140, 236
-0.998167, 199, 329, 214, 360
-0.998172, 55, 121, 70, 152
-0.998174, 233, 57, 248, 88
-0.99818, 189, 225, 220, 480
-0.998181, 61, 161, 92, 416
-0.998182, 195, 353, 210, 384
-0.998183, 97, 41, 224, 72
-0.998197, 185, 177, 200, 208
-0.998199, 113, 53, 240, 84
-0.998213, 113, 1, 144, 256
-0.998214, 165, 213, 180, 244
-0.99822, 107, 109, 122, 140
-0.998222, 69, 109, 84, 140
-0.998225, 333, 113, 348, 144
-0.998225, 159, 93, 174, 124
-0.998226, 89, 125, 104, 156
-0.998226, 223, 237, 238, 268
-0.998228, 301, 217, 316, 248
-0.998236, 139, 141, 154, 172
-0.998237, 321, 185, 336, 216
-0.998238, 201, 349, 216, 380
-0.998239, 241, 333, 368, 364
-0.998244, 327, 173, 342, 204
-0.998244, 191, 181, 206, 212
-0.998247, 141, 209, 156, 240
-0.99825, 17, 105, 32, 136
-0.99825, 355, 225, 370, 256
-0.998251, 117, 165, 132, 196
-0.998253, 151, 181, 166, 212
-0.998254, 165, 85, 180, 116
-0.998257, 61, 165, 76, 196
-0.998268, 149, 137, 164, 168
-0.998269, 19, 137, 34, 168
-0.99827, 253, 1, 268, 32
-0.99827, 67, 193, 82, 224
-0.998273, 183, 105, 198, 136
-0.998276, 43, 137, 58, 168
-0.998277, 327, 217, 342, 248
-0.998277, 313, 217, 328, 248
-0.998279, 291, 241, 306, 272
-0.998281, 253, 97, 284, 352
-0.998284, 171, 173, 186, 204
-0.998287, 249, 233, 264, 264
-0.998293, 285, 233, 300, 264
-0.998295, 177, 65, 208, 320
-0.998297, 193, 341, 208, 372
-0.998299, 1, 421, 128, 452
-0.998299, 155, 129, 170, 160
-0.998301, 123, 193, 138, 224
-0.998301, 327, 101, 342, 132
-0.998303, 213, 325, 228, 356
-0.998306, 131, 125, 146, 156
-0.998312, 221, 129, 252, 384
-0.998316, 71, 177, 86, 208
-0.998316, 153, 253, 168, 284
-0.998317, 201, 225, 232, 480
-0.99832, 213, 245, 228, 276
-0.99832, 1, 461, 128, 492
-0.998324, 97, 161, 128, 416
-0.998325, 269, 1, 300, 256
-0.998326, 23, 113, 38, 144
-0.998332, 109, 121, 124, 152
-0.998333, 225, 369, 352, 400
-0.998335, 321, 93, 336, 124
-0.998343, 113, 413, 240, 444
-0.998347, 241, 321, 368, 352
-0.998352, 237, 129, 268, 384
-0.998358, 209, 385, 336, 416
-0.998385, 9, 141, 40, 156
-0.998387, 273, 261, 304, 276
-0.998389, 297, 149, 328, 164
-0.998391, 165, 171, 196, 186
-0.998391, 13, 169, 44, 184
-0.998391, 13, 111, 44, 126
-0.998392, 181, 217, 212, 232
-0.998392, 285, 291, 316, 306
-0.998393, 233, 59, 264, 74
-0.998394, 285, 201, 316, 216
-0.998394, 101, 101, 132, 116
-0.998395, 209, 335, 240, 350
-0.998395, 129, 415, 160, 430
-0.998396, 201, 37, 232, 52
-0.998396, 169, 125, 200, 140
-0.998397, 197, 327, 228, 342
-0.998398, 217, 249, 248, 264
-0.998399, 325, 127, 356, 142
-0.9984, 153, 217, 184, 232
-0.9984, 25, 125, 56, 140
-0.998402, 129, 153, 160, 168
-0.998402, 297, 133, 328, 148
-0.998402, 273, 245, 304, 260
-0.998403, 313, 107, 344, 122
-0.998403, 73, 129, 104, 144
-0.998403, 61, 123, 92, 138
-0.998403, 117, 181, 148, 196
-0.998403, 121, 167, 152, 182
-0.998406, 317, 209, 348, 224
-0.998406, 41, 173, 72, 188
-0.998407, 333, 211, 364, 226
-0.998408, 301, 235, 332, 250
-0.998409, 121, 137, 152, 152
-0.998409, 101, 135, 132, 150
-0.99841, 201, 393, 232, 408
-0.99841, 297, 109, 328, 124
-0.998411, 177, 361, 208, 376
-0.998412, 53, 203, 84, 218
-0.998412, 161, 355, 192, 370
-0.998414, 197, 333, 228, 348
-0.998415, 157, 77, 188, 92
-0.998416, 137, 137, 168, 152
-0.998416, 49, 119, 80, 134
-0.998417, 13, 117, 44, 132
-0.998417, 189, 339, 220, 354
-0.998417, 173, 355, 204, 370
-0.998417, 129, 107, 160, 122
-0.998417, 129, 215, 160, 230
-0.998417, 109, 175, 140, 190
-0.998418, 157, 165, 188, 180
-0.998418, 153, 87, 184, 102
-0.998418, 189, 345, 220, 360
-0.998419, 249, 1, 280, 16
-0.99842, 65, 201, 96, 216
-0.99842, 289, 215, 320, 230
-0.998422, 285, 85, 316, 100
-0.998422, 117, 259, 148, 274
-0.998423, 345, 227, 375, 242
-0.998425, 93, 125, 124, 140
-0.998425, 125, 209, 156, 224
-0.998425, 325, 219, 356, 234
-0.998425, 289, 189, 320, 204
-0.998426, 321, 187, 352, 202
-0.998429, 285, 285, 316, 300
-0.99843, 297, 223, 328, 238
-0.998431, 177, 211, 208, 226
-0.998433, 137, 209, 168, 224
-0.998433, 221, 37, 252, 52
-0.998434, 333, 189, 364, 204
-0.998434, 201, 169, 232, 184
-0.998434, 317, 133, 348, 148
-0.998434, 169, 119, 200, 134
-0.998435, 125, 187, 156, 202
-0.998436, 297, 127, 328, 142
-0.998436, 281, 27, 312, 42
-0.998437, 149, 139, 180, 154
-0.998438, 113, 99, 144, 114
-0.998439, 197, 321, 228, 336
-0.99844, 221, 49, 252, 64
-0.998441, 137, 257, 168, 272
-0.998444, 133, 179, 164, 194
-0.998445, 309, 101, 340, 116
-0.998446, 237, 51, 268, 66
-0.998448, 253, 1, 284, 256
-0.998448, 265, 3, 296, 18
-0.998449, 229, 65, 260, 80
-0.99845, 57, 175, 88, 190
-0.998451, 285, 241, 316, 256
-0.998453, 221, 55, 252, 70
-0.998454, 229, 43, 260, 58
-0.998454, 293, 103, 324, 118
-0.998457, 61, 133, 92, 148
-0.998461, 49, 125, 80, 140
-0.998461, 113, 111, 144, 126
-0.99847, 141, 153, 172, 168
-0.998473, 241, 3, 304, 18
-0.998473, 137, 173, 168, 188
-0.998473, 117, 147, 148, 162
-0.998475, 37, 139, 68, 154
-0.998475, 165, 177, 196, 192
-0.998475, 145, 159, 176, 174
-0.998476, 309, 187, 340, 202
-0.998477, 337, 217, 368, 232
-0.99848, 305, 209, 336, 224
-0.99848, 45, 131, 76, 146
-0.99848, 137, 167, 168, 182
-0.998481, 237, 1, 268, 16
-0.998482, 117, 127, 148, 142
-0.998483, 237, 7, 268, 22
-0.998483, 285, 259, 316, 274
-0.998485, 193, 353, 224, 368
-0.998485, 149, 145, 180, 160
-0.998485, 157, 159, 188, 174
-0.998489, 153, 179, 184, 194
-0.998489, 209, 43, 240, 58
-0.998491, 285, 279, 316, 294
-0.998492, 25, 119, 56, 134
-0.998492, 129, 153, 192, 168
-0.998495, 297, 81, 328, 96
-0.998496, 73, 123, 104, 138
-0.998499, 305, 93, 336, 108
-0.998503, 129, 175, 192, 190
-0.998503, 73, 133, 136, 148
-0.998503, 113, 259, 176, 274
-0.998506, 285, 265, 316, 280
-0.998507, 169, 327, 232, 342
-0.998509, 309, 215, 340, 230
-0.99851, 113, 105, 144, 120
-0.99851, 89, 127, 152, 142
-0.998513, 153, 171, 184, 186
-0.998513, 285, 247, 316, 262
-0.998517, 53, 139, 84, 154
-0.998517, 1, 349, 128, 380
-0.998518, 33, 433, 160, 464
-0.99852, 113, 129, 176, 144
-0.998522, 129, 169, 192, 184
-0.998523, 9, 139, 72, 154
-0.998525, 157, 151, 188, 166
-0.998525, 113, 137, 176, 152
-0.998527, 105, 173, 168, 188
-0.998529, 233, 9, 296, 24
-0.99853, 273, 87, 336, 102
-0.99853, 193, 45, 256, 60
-0.99853, 257, 253, 320, 268
-0.998534, 141, 33, 172, 288
-0.998534, 241, 445, 368, 476
-0.998537, 313, 221, 375, 236
-0.998538, 265, 103, 328, 118
-0.998539, 113, 145, 176, 160
-0.998542, 129, 163, 192, 178
-0.998544, 105, 181, 168, 196
-0.998544, 289, 101, 352, 116
-0.998546, 265, 243, 328, 258
-0.998546, 169, 343, 232, 358
-0.998546, 89, 121, 152, 136
-0.998548, 285, 273, 316, 288
-0.998548, 137, 145, 168, 160
-0.99855, 125, 1, 156, 256
-0.998551, 41, 129, 104, 144
-0.998553, 41, 135, 104, 150
-0.998554, 297, 87, 328, 102
-0.998556, 297, 189, 360, 204
-0.998556, 161, 161, 224, 176
-0.998557, 113, 119, 144, 134
-0.998558, 169, 337, 232, 352
-0.998558, 185, 355, 248, 370
-0.99856, 257, 231, 320, 246
-0.99856, 281, 253, 344, 268
-0.998562, 297, 195, 360, 210
-0.998564, 225, 43, 288, 58
-0.998565, 145, 329, 208, 344
-0.998566, 289, 107, 352, 122
-0.998567, 265, 39, 328, 54
-0.998568, 201, 63, 264, 78
-0.998569, 65, 107, 128, 122
-0.998569, 281, 215, 344, 230
-0.998572, 33, 117, 96, 132
-0.998573, 233, 51, 296, 66
-0.998573, 257, 261, 320, 276
-0.998574, 65, 125, 128, 140
-0.998574, 49, 161, 80, 416
-0.998575, 161, 167, 224, 182
-0.998575, 193, 51, 256, 66
-0.998577, 285, 253, 316, 268
-0.998577, 209, 7, 272, 22
-0.998578, 201, 57, 264, 72
-0.998578, 265, 49, 328, 64
-0.998579, 281, 95, 344, 110
-0.99858, 81, 189, 144, 204
-0.998581, 145, 181, 208, 196
-0.998583, 105, 109, 168, 124
-0.998584, 153, 175, 216, 190
-0.998585, 113, 115, 176, 130
-0.998585, 297, 123, 360, 138
-0.998585, 17, 37, 144, 68
-0.998586, 17, 133, 80, 148
-0.998587, 153, 217, 216, 232
-0.998588, 265, 285, 328, 300
-0.998588, 153, 151, 216, 166
-0.998589, 105, 153, 168, 168
-0.998589, 265, 75, 328, 90
-0.998589, 169, 231, 232, 246
-0.99859, 9, 149, 72, 164
-0.998591, 241, 67, 304, 82
-0.998591, 169, 321, 232, 336
-0.998594, 17, 125, 80, 140
-0.998594, 153, 357, 216, 372
-0.998595, 1, 119, 64, 134
-0.998596, 265, 109, 328, 124
-0.998596, 289, 221, 352, 236
-0.998597, 113, 121, 176, 136
-0.998597, 121, 217, 184, 232
-0.998597, 153, 349, 216, 364
-0.998597, 193, 37, 256, 52
-0.998597, 265, 65, 328, 80
-0.998598, 145, 335, 208, 350
-0.998599, 265, 81, 328, 96
-0.998599, 89, 115, 152, 130
-0.998599, 313, 231, 375, 246
-0.998599, 137, 125, 200, 140
-0.9986, 233, 57, 296, 72
-0.9986, 193, 241, 256, 256
-0.9986, 41, 123, 104, 138
-0.998602, 257, 267, 320, 282
-0.998602, 249, 223, 312, 238
-0.998602, 185, 381, 248, 396
-0.998603, 281, 279, 344, 294
-0.998603, 145, 207, 208, 222
-0.998603, 105, 167, 168, 182
-0.998603, 225, 15, 288, 30
-0.998604, 233, 249, 296, 264
-0.998606, 257, 295, 320, 310
-0.998607, 9, 169, 72, 184
-0.998607, 257, 279, 320, 294
-0.998608, 57, 141, 120, 156
-0.998608, 57, 177, 120, 192
-0.998609, 81, 175, 144, 190
-0.99861, 257, 237, 320, 252
-0.99861, 265, 55, 328, 70
-0.998611, 81, 183, 144, 198
-0.998613, 305, 135, 368, 150
-0.998613, 249, 15, 312, 30
-0.998614, 193, 339, 256, 354
-0.998614, 185, 373, 248, 388
-0.998614, 265, 129, 328, 144
-0.998615, 33, 111, 96, 126
-0.998615, 185, 349, 248, 364
-0.998615, 129, 413, 192, 428
-0.998617, 209, 1, 272, 16
-0.998617, 201, 143, 264, 158
-0.998618, 161, 239, 224, 254
-0.998619, 289, 113, 352, 128
-0.99862, 225, 37, 288, 52
-0.99862, 89, 139, 152, 154
-0.998621, 177, 217, 240, 232
-0.998621, 281, 227, 344, 242
-0.998622, 265, 117, 328, 132
-0.998622, 113, 329, 176, 344
-0.998622, 57, 201, 120, 216
-0.998623, 153, 291, 216, 306
-0.998623, 169, 301, 232, 316
-0.998623, 225, 73, 288, 88
-0.998624, 113, 419, 176, 434
-0.998624, 225, 257, 288, 272
-0.998625, 145, 145, 208, 160
-0.998626, 153, 79, 216, 94
-0.998626, 257, 301, 320, 316
-0.998627, 233, 21, 296, 36
-0.998653, 241, 13, 368, 44
-0.998656, 277, 257, 308, 500
-0.99869, 17, 445, 144, 476
-0.998716, 193, 409, 320, 440
-0.998718, 153, 1, 184, 256
-0.998726, 33, 161, 64, 416
-0.998731, 123, 97, 138, 224
-0.998746, 153, 161, 168, 288
-0.998751, 241, 461, 368, 492
-0.998766, 307, 209, 322, 336
-0.998771, 295, 241, 310, 368
-0.998808, 213, 225, 244, 480
-0.998821, 299, 33, 314, 160
-0.998828, 257, 193, 288, 448
-0.998828, 127, 161, 142, 288
-0.99885, 307, 49, 322, 176
-0.998854, 241, 225, 272, 480
-0.998886, 5, 129, 36, 384
-0.99889, 117, 81, 132, 208
-0.998906, 295, 193, 310, 320
-0.998918, 191, 273, 206, 400
-0.998921, 145, 161, 160, 288
-0.998926, 317, 129, 332, 256
-0.998931, 313, 65, 328, 192
-0.998951, 351, 161, 366, 288
-0.998964, 85, 1, 116, 256
-0.998967, 291, 17, 306, 144
-0.998975, 199, 321, 214, 448
-0.998975, 129, 97, 144, 224
-0.998977, 161, 129, 176, 256
-0.998981, 177, 161, 192, 288
-0.99899, 317, 193, 332, 320
-0.998994, 343, 145, 358, 272
-0.998995, 301, 81, 316, 208
-0.999003, 247, 1, 262, 128
-0.999004, 119, 241, 134, 368
-0.999005, 139, 161, 154, 288
-0.999028, 201, 257, 216, 384
-0.999039, 133, 161, 148, 288
-0.999041, 157, 81, 172, 208
-0.999041, 311, 129, 326, 256
-0.999054, 225, 225, 256, 480
-0.999058, 119, 161, 134, 288
-0.999059, 301, 177, 316, 304
-0.99906, 289, 241, 304, 368
-0.999069, 51, 81, 66, 208
-0.999074, 163, 209, 178, 336
-0.99908, 135, 113, 150, 240
-0.99908, 323, 145, 338, 272
-0.99908, 325, 81, 340, 208
-0.999088, 275, 1, 290, 128
-0.999089, 287, 177, 302, 304
-0.999093, 71, 97, 86, 224
-0.999096, 113, 161, 128, 288
-0.999097, 241, 1, 256, 128
-0.999107, 319, 81, 334, 208
-0.999109, 171, 161, 186, 288
-0.999119, 357, 145, 372, 272
-0.99912, 185, 225, 200, 352
-0.999127, 205, 305, 220, 432
-0.999128, 41, 113, 56, 240
-0.999132, 177, 241, 192, 368
-0.999133, 345, 193, 360, 320
-0.999133, 33, 113, 48, 240
-0.999138, 295, 113, 310, 240
-0.999152, 65, 97, 80, 224
-0.999152, 75, 145, 90, 272
-0.999164, 283, 1, 298, 128
-0.999169, 183, 161, 198, 288
-0.999174, 233, 33, 248, 160
-0.999177, 153, 241, 168, 368
-0.999184, 211, 177, 226, 304
-0.999187, 323, 193, 338, 320
-0.999192, 339, 209, 354, 336
-0.999196, 175, 289, 190, 416
-0.999197, 191, 193, 206, 320
-0.999202, 59, 113, 74, 240
-0.99921, 213, 241, 228, 368
-0.999218, 243, 49, 258, 176
-0.999231, 169, 81, 184, 208
-0.999234, 257, 145, 272, 272
-0.999235, 253, 1, 268, 128
-0.99924, 333, 193, 348, 320
-0.999241, 185, 273, 200, 400
-0.999241, 45, 65, 60, 192
-0.999243, 69, 161, 84, 288
-0.999259, 337, 145, 352, 272
-0.99926, 329, 145, 344, 272
-0.999263, 147, 209, 162, 336
-0.999264, 21, 161, 52, 416
-0.999271, 269, 161, 284, 288
-0.999273, 79, 97, 94, 224
-0.999275, 287, 97, 302, 224
-0.999275, 211, 289, 226, 416
-0.99928, 281, 257, 296, 384
-0.999281, 301, 241, 316, 368
-0.999282, 19, 113, 34, 240
-0.999284, 351, 209, 366, 336
-0.999286, 357, 209, 372, 336
-0.999288, 227, 225, 242, 352
-0.99929, 185, 113, 200, 240
-0.99929, 47, 129, 62, 256
-0.999294, 247, 129, 262, 256
-0.999296, 169, 209, 184, 336
-0.9993, 275, 129, 290, 256
-0.999304, 147, 113, 162, 240
-0.999304, 3, 65, 18, 192
-0.999305, 109, 209, 124, 336
-0.999307, 269, 1, 284, 128
-0.999309, 221, 209, 236, 336
-0.99931, 249, 49, 264, 176
-0.99931, 25, 65, 40, 192
-0.999318, 27, 113, 42, 240
-0.999342, 135, 209, 150, 336
-0.999344, 179, 97, 194, 224
-0.999345, 267, 113, 282, 240
-0.999345, 129, 225, 160, 480
-0.999346, 241, 129, 256, 256
-0.999348, 193, 145, 208, 272
-0.999354, 279, 209, 294, 336
-0.999356, 111, 369, 126, 496
-0.999359, 201, 161, 216, 288
-0.99936, 257, 193, 272, 320
-0.999362, 263, 193, 278, 320
-0.999363, 201, 209, 216, 336
-0.99937, 219, 145, 234, 272
-0.999379, 207, 225, 222, 352
-0.99938, 331, 97, 346, 224
-0.99938, 87, 113, 102, 240
-0.999383, 193, 321, 208, 448
-0.999384, 275, 49, 290, 176
-0.999385, 163, 65, 178, 192
-0.999388, 53, 129, 68, 256
-0.99939, 31, 65, 46, 192
-0.999394, 165, 289, 180, 416
-0.999396, 141, 209, 156, 336
-0.999405, 37, 161, 52, 288
-0.999413, 337, 97, 352, 224
-0.999413, 109, 321, 124, 448
-0.999414, 19, 65, 34, 192
-0.999416, 293, 65, 308, 192
-0.999422, 235, 209, 250, 336
-0.999424, 111, 113, 126, 240
-0.999425, 73, 193, 104, 448
-0.999425, 129, 209, 144, 336
-0.99943, 107, 161, 122, 288
-0.99958, 35, 125, 50, 140
-0.99958, 253, 147, 268, 162
-0.999581, 89, 131, 104, 146
-0.999581, 303, 79, 318, 94
-0.999582, 199, 343, 214, 358
-0.999582, 347, 141, 362, 156
-0.999582, 165, 153, 180, 168
-0.999583, 57, 145, 72, 160
-0.999583, 157, 171, 172, 186
-0.999583, 41, 137, 56, 152
-0.999584, 283, 13, 298, 28
-0.999584, 361, 261, 375, 276
-0.999584, 323, 215, 338, 230
-0.999584, 43, 143, 58, 158
-0.999585, 25, 141, 40, 156
-0.999585, 233, 47, 248, 62
-0.999585, 157, 135, 172, 150
-0.999585, 247, 145, 262, 160
-0.999585, 161, 217, 176, 232
-0.999585, 123, 177, 138, 192
-0.999585, 149, 149, 164, 164
-0.999586, 201, 353, 216, 368
-0.999586, 77, 165, 92, 180
-0.999586, 319, 123, 334, 138
-0.999587, 171, 185, 186, 200
-0.999588, 167, 179, 182, 194
-0.999589, 307, 219, 322, 234
-0.999589, 145, 409, 160, 424
-0.999589, 63, 119, 78, 134
-0.999589, 133, 209, 148, 224
-0.99959, 159, 207, 174, 222
-0.99959, 353, 231, 368, 246
-0.99959, 319, 149, 334, 164
-0.999591, 139, 143, 154, 158
-0.999591, 73, 1, 104, 256
-0.999591, 285, 271, 300, 286
-0.999592, 167, 215, 182, 230
-0.999592, 55, 173, 70, 188
-0.999592, 117, 147, 132, 162
-0.999592, 297, 273, 312, 288
-0.999593, 309, 107, 324, 122
-0.999593, 317, 215, 332, 230
-0.999593, 133, 167, 148, 182
-0.999593, 163, 89, 178, 104
-0.999594, 171, 127, 186, 142
-0.999595, 131, 181, 146, 196
-0.999596, 165, 171, 180, 186
-0.999596, 231, 41, 246, 56
-0.999597, 187, 355, 202, 370
-0.999598, 69, 111, 84, 126
-0.999598, 285, 243, 300, 258
-0.9996, 115, 117, 130, 132
-0.9996, 291, 251, 306, 266
-0.999601, 61, 139, 76, 154
-0.999601, 195, 349, 210, 364
-0.999601, 25, 121, 40, 136
-0.999601, 89, 125, 104, 140
-0.999601, 311, 79, 326, 94
-0.999602, 317, 143, 332, 158
-0.999602, 79, 121, 94, 136
-0.999602, 171, 119, 186, 134
-0.999603, 205, 317, 220, 332
-0.999603, 329, 211, 344, 226
-0.999603, 329, 221, 344, 236
-0.999603, 309, 151, 324, 166
-0.999604, 251, 1, 266, 16
-0.999604, 289, 265, 304, 280
-0.999605, 73, 1, 136, 128
-0.999605, 227, 49, 242, 64
-0.999606, 303, 241, 318, 256
-0.999606, 351, 217, 366, 232
-0.999606, 291, 243, 306, 258
-0.999606, 307, 91, 322, 106
-0.999606, 235, 57, 250, 72
-0.999607, 241, 7, 256, 22
-0.999607, 201, 335, 216, 350
-0.999607, 117, 259, 132, 274
-0.999609, 351, 225, 366, 240
-0.999609, 313, 131, 328, 146
-0.99961, 199, 397, 214, 412
-0.99961, 37, 119, 52, 134
-0.999611, 161, 129, 176, 144
-0.999612, 129, 175, 144, 190
-0.999613, 49, 133, 64, 148
-0.999614, 301, 91, 316, 106
-0.999614, 185, 179, 200, 194
-0.999615, 155, 151, 170, 166
-0.999615, 317, 137, 332, 152
-0.999616, 141, 211, 156, 226
-0.999618, 275, 17, 290, 32
-0.999619, 163, 79, 178, 94
-0.99962, 49, 123, 64, 138
-0.999621, 309, 225, 324, 240
-0.999622, 195, 355, 210, 370
-0.999622, 335, 217, 350, 232
-0.999623, 169, 75, 184, 90
-0.999624, 243, 65, 258, 80
-0.999625, 69, 121, 84, 136
-0.999625, 63, 133, 78, 148
-0.999626, 69, 127, 84, 142
-0.999628, 297, 267, 312, 282
-0.999629, 171, 159, 186, 174
-0.999629, 297, 259, 312, 274
-0.999633, 123, 183, 138, 198
-0.999633, 281, 7, 296, 22
-0.999633, 313, 87, 328, 102
-0.999634, 115, 105, 130, 120
-0.999635, 141, 157, 156, 172
-0.999636, 147, 165, 162, 180
-0.999638, 157, 85, 172, 100
-0.999639, 157, 165, 172, 180
-0.999641, 55, 137, 70, 152
-0.999644, 175, 175, 190, 190
-0.999648, 123, 109, 138, 124
-0.999649, 297, 253, 312, 268
-0.999651, 159, 159, 174, 174
-0.999652, 61, 175, 76, 190
-0.999653, 31, 119, 46, 134
-0.999657, 147, 159, 162, 174
-0.999657, 297, 85, 312, 100
-0.999665, 341, 217, 356, 232
-0.999668, 165, 147, 180, 162
-0.999672, 169, 165, 184, 180
-0.999672, 67, 201, 82, 216
-0.999674, 307, 85, 322, 100
-0.999682, 301, 101, 316, 116
-0.999683, 49, 139, 64, 154
-0.999683, 297, 241, 312, 256
-0.999685, 159, 141, 174, 156
-0.999685, 117, 99, 132, 114
-0.999691, 13, 257, 44, 500
-0.999693, 85, 193, 116, 448
-0.999701, 297, 247, 312, 262
-0.999707, 241, 1, 256, 16
-0.999885, 1, 433, 256, 496
-0.999927, 329, 1, 360, 256
-0.999947, 1, 257, 32, 500
-1.00011, 1, 369, 64, 496
-1.00016, 25, 257, 56, 500
-1.00018, 45, 257, 76, 500
-1.00026, 61, 257, 92, 500
-1.00092, 345, 1, 375, 256
