1856
-0.494576, 1, 1, 336, 448
-0.529029, 1, 1, 336, 256
-0.552978, 33, 1, 288, 448
-0.576373, 1, 129, 336, 384
-0.662798, 65, 129, 320, 384
-0.714344, 33, 1, 288, 256
-0.874311, 97, 161, 224, 416
-0.878133, 145, 1, 272, 448
-0.884863, 193, 1, 320, 448
-0.892016, 1, 321, 336, 448
-0.892979, 161, 129, 288, 384
-0.893349, 97, 1, 224, 448
-0.899004, 209, 129, 336, 384
-0.902184, 145, 33, 272, 288
-0.903098, 193, 1, 320, 256
-0.906825, 1, 1, 128, 448
-0.906835, 1, 257, 336, 384
-0.91008, 49, 1, 176, 448
-0.91509, 1, 81, 336, 208
-0.917509, 97, 1, 224, 256
-0.919373, 65, 273, 320, 400
-0.920252, 33, 33, 160, 288
-0.921012, 1, 321, 256, 448
-0.92491, 81, 305, 208, 432
-0.925484, 33, 193, 160, 448
-0.932421, 1, 33, 336, 160
-0.933336, 137, 305, 200, 432
-0.934152, 177, 321, 304, 448
-0.937741, 97, 289, 160, 416
-0.937826, 161, 257, 288, 384
-0.937896, 209, 257, 336, 384
-0.939508, 129, 305, 256, 432
-0.939689, 265, 321, 328, 448
-0.940736, 1, 97, 256, 224
-0.941197, 113, 257, 240, 384
-0.942149, 161, 257, 224, 384
-0.943388, 1, 209, 336, 336
-0.946659, 257, 257, 320, 384
-0.947837, 65, 49, 320, 176
-0.948394, 233, 321, 296, 448
-0.948725, 225, 257, 288, 384
-0.950886, 201, 257, 264, 384
-0.951199, 33, 289, 160, 416
-0.953643, 73, 289, 136, 416
-0.955402, 97, 313, 160, 376
-0.956565, 137, 345, 200, 408
-0.959076, 177, 321, 240, 448
-0.959826, 1, 161, 336, 288
-0.960404, 97, 97, 224, 224
-0.96058, 65, 161, 320, 288
-0.960684, 177, 345, 240, 408
-0.961213, 273, 385, 336, 448
-0.961809, 33, 1, 288, 128
-0.961819, 81, 345, 144, 408
-0.96184, 137, 257, 200, 384
-0.961888, 209, 113, 336, 240
-0.962487, 177, 49, 304, 176
-0.962784, 265, 337, 328, 400
-0.962799, 145, 97, 272, 224
-0.964323, 129, 321, 192, 384
-0.964586, 161, 273, 224, 336
-0.965133, 233, 353, 296, 416
-0.967309, 265, 313, 328, 376
-0.967788, 81, 321, 208, 384
-0.967797, 17, 113, 144, 240
-0.968339, 233, 329, 296, 392
-0.968753, 89, 289, 152, 352
-0.969153, 129, 145, 256, 272
-0.969252, 105, 353, 168, 416
-0.969657, 105, 241, 168, 368
-0.970385, 201, 305, 264, 432
-0.97046, 265, 361, 328, 424
-0.970785, 101, 289, 132, 416
-0.971152, 161, 385, 224, 448
-0.971208, 177, 353, 304, 416
-0.971439, 113, 97, 176, 224
-0.97171, 137, 177, 200, 304
-0.97246, 145, 297, 208, 360
-0.97262, 81, 161, 208, 288
-0.972748, 121, 153, 184, 216
-0.972798, 209, 321, 272, 384
-0.97328, 177, 321, 240, 384
-0.973434, 153, 113, 216, 240
-0.973523, 277, 321, 308, 448
-0.973573, 209, 265, 272, 328
-0.973721, 257, 65, 320, 192
-0.973749, 113, 305, 144, 432
-0.974234, 65, 225, 192, 352
-0.974276, 153, 137, 216, 200
-0.974413, 65, 345, 192, 408
-0.974526, 233, 265, 296, 328
-0.97464, 65, 289, 128, 352
-0.974795, 49, 49, 176, 176
-0.974918, 9, 377, 72, 440
-0.975014, 277, 353, 308, 416
-0.975484, 57, 49, 120, 176
-0.975855, 169, 257, 200, 384
-0.975883, 73, 313, 136, 376
-0.976121, 265, 265, 328, 328
-0.976938, 73, 97, 136, 224
-0.977004, 293, 321, 324, 448
-0.977017, 257, 113, 320, 240
-0.977077, 153, 289, 184, 416
-0.97719, 145, 265, 272, 328
-0.977212, 141, 305, 172, 432
-0.977404, 97, 113, 160, 176
-0.977424, 33, 225, 288, 352
-0.97746, 1, 241, 128, 368
-0.977626, 233, 385, 296, 448
-0.977785, 1, 321, 64, 448
-0.977903, 177, 1, 304, 128
-0.978109, 269, 257, 300, 384
-0.97812, 113, 281, 176, 344
-0.978295, 117, 321, 148, 384
-0.97835, 97, 281, 128, 344
-0.978403, 89, 153, 152, 216
-0.978577, 221, 257, 252, 384
-0.978612, 81, 281, 208, 344
-0.978612, 209, 385, 336, 448
-0.978621, 209, 329, 336, 392
-0.978621, 129, 345, 256, 408
-0.978696, 257, 129, 320, 192
-0.978784, 233, 257, 264, 384
-0.978802, 209, 257, 240, 384
-0.978978, 57, 337, 120, 400
-0.978981, 153, 321, 216, 384
-0.979051, 293, 257, 324, 384
-0.979105, 161, 161, 224, 288
-0.979175, 185, 265, 248, 328
-0.979331, 129, 321, 256, 384
-0.97937, 281, 257, 312, 384
-0.979431, 233, 33, 296, 160
-0.979467, 89, 329, 120, 392
-0.979474, 133, 329, 164, 392
-0.97951, 209, 209, 336, 336
-0.979515, 41, 97, 104, 224
-0.979625, 181, 345, 212, 408
-0.979627, 97, 33, 224, 160
-0.979639, 137, 369, 200, 432
-0.979675, 245, 257, 276, 384
-0.979707, 177, 161, 240, 416
-0.979833, 305, 257, 336, 384
-0.979862, 105, 177, 168, 240
-0.97991, 17, 337, 144, 400
-0.97997, 49, 105, 112, 168
-0.980007, 129, 121, 192, 184
-0.980053, 9, 337, 72, 400
-0.980188, 265, 337, 296, 400
-0.980208, 97, 385, 224, 448
-0.98023, 129, 321, 160, 448
-0.980296, 145, 289, 272, 352
-0.980392, 105, 161, 168, 416
-0.980532, 17, 369, 48, 432
-0.980618, 33, 297, 160, 360
-0.980621, 165, 257, 196, 320
-0.980671, 73, 89, 136, 152
-0.980708, 105, 313, 136, 376
-0.980768, 217, 81, 280, 208
-0.980791, 257, 321, 288, 448
-0.980798, 49, 289, 112, 416
-0.980857, 1, 361, 32, 424
-0.980893, 209, 265, 336, 328
-0.98106, 293, 337, 324, 400
-0.981113, 89, 289, 120, 416
-0.981114, 197, 257, 228, 384
-0.981228, 181, 385, 212, 448
-0.981295, 81, 49, 144, 176
-0.9813, 161, 209, 288, 336
-0.981317, 153, 113, 216, 176
-0.981364, 1, 313, 64, 376
-0.981538, 153, 161, 216, 224
-0.981622, 113, 145, 176, 272
-0.981671, 181, 257, 212, 384
-0.981853, 233, 129, 296, 256
-0.981876, 257, 257, 288, 384
-0.98188, 161, 377, 288, 440
-0.981898, 137, 193, 200, 448
-0.981935, 1, 361, 128, 424
-0.982057, 277, 377, 308, 440
-0.982227, 65, 129, 128, 192
-0.982335, 161, 249, 224, 312
-0.982338, 57, 65, 120, 128
-0.982348, 125, 353, 156, 416
-0.982545, 33, 321, 96, 384
-0.982581, 185, 321, 216, 448
-0.982823, 145, 89, 208, 152
-0.982941, 273, 65, 336, 128
-0.983068, 177, 145, 240, 208
-0.983309, 253, 353, 284, 416
-0.983313, 217, 1, 280, 256
-0.983322, 1, 65, 128, 192
-0.983362, 105, 49, 168, 176
-0.983566, 305, 321, 336, 448
-0.983766, 13, 321, 44, 448
-0.983775, 145, 65, 208, 192
-0.983863, 89, 145, 152, 272
-0.983873, 101, 345, 132, 408
-0.984031, 81, 129, 208, 192
-0.984069, 153, 289, 184, 352
-0.984101, 113, 377, 176, 440
-0.984118, 1, 337, 32, 400
-0.984157, 209, 161, 336, 288
-0.984195, 177, 113, 240, 240
-0.984211, 193, 33, 256, 160
-0.984233, 197, 305, 228, 432
-0.984409, 245, 321, 276, 384
-0.984512, 201, 129, 264, 384
-0.984548, 81, 105, 208, 168
-0.984706, 1, 273, 64, 400
-0.984816, 177, 49, 304, 112
-0.98485, 25, 305, 88, 432
-0.984874, 269, 313, 300, 376
-0.984986, 177, 209, 240, 336
-0.984989, 129, 177, 192, 240
-0.985001, 165, 305, 196, 432
-0.985113, 193, 385, 256, 448
-0.985178, 209, 137, 336, 200
-0.985198, 33, 345, 96, 408
-0.985204, 241, 49, 304, 112
-0.985368, 161, 121, 288, 184
-0.985372, 81, 153, 208, 216
-0.985559, 185, 161, 248, 288
-0.985608, 257, 209, 320, 336
-0.985681, 225, 161, 288, 224
-0.9857, 17, 129, 144, 192
-0.985723, 145, 321, 176, 384
-0.985738, 209, 305, 336, 368
-0.985747, 293, 313, 324, 376
-0.985751, 217, 289, 280, 352
-0.985764, 233, 137, 296, 200
-0.985932, 5, 385, 36, 448
-0.986045, 33, 161, 160, 288
-0.986058, 217, 265, 248, 328
-0.98606, 81, 257, 208, 320
-0.98614, 121, 97, 184, 160
-0.986174, 13, 345, 44, 408
-0.98623, 305, 257, 336, 320
-0.986268, 41, 129, 104, 192
-0.986282, 181, 321, 212, 384
-0.986345, 161, 161, 288, 224
-0.9864, 193, 289, 256, 352
-0.986402, 113, 113, 144, 176
-0.986477, 217, 1, 280, 448
-0.986518, 177, 57, 240, 120
-0.986579, 137, 273, 200, 336
-0.986618, 161, 1, 224, 448
-0.986649, 57, 361, 120, 424
-0.986676, 65, 41, 128, 104
-0.9867, 305, 345, 336, 408
-0.986711, 229, 265, 260, 328
-0.986728, 137, 249, 200, 312
-0.986784, 9, 129, 72, 256
-0.986861, 77, 345, 108, 408
-0.986871, 109, 97, 140, 224
-0.986938, 1, 321, 32, 448
-0.986997, 201, 353, 264, 416
-0.987009, 229, 305, 260, 432
-0.987036, 241, 265, 272, 328
-0.987074, 1, 385, 128, 448
-0.987149, 113, 345, 144, 408
-0.987185, 297, 385, 328, 448
-0.987205, 177, 81, 304, 144
-0.987215, 65, 73, 192, 136
-0.987232, 217, 41, 280, 104
-0.987378, 177, 249, 208, 312
-0.987408, 97, 89, 160, 152
-0.987416, 197, 321, 228, 384
-0.987423, 209, 209, 272, 336
-0.987441, 233, 321, 264, 384
-0.987446, 281, 329, 312, 392
-0.987492, 305, 313, 336, 376
-0.987512, 65, 49, 96, 176
-0.987535, 153, 65, 216, 128
-0.987552, 241, 305, 304, 368
-0.987575, 245, 321, 276, 448
-0.987656, 101, 153, 132, 216
-0.987675, 113, 193, 176, 320
-0.987704, 149, 113, 180, 240
-0.987717, 125, 113, 156, 240
-0.98772, 17, 153, 144, 216
-0.987741, 209, 161, 272, 288
-0.987749, 201, 161, 264, 224
-0.987783, 57, 1, 120, 448
-0.9878, 49, 1, 176, 128
-0.987805, 125, 145, 156, 208
-0.987815, 193, 1, 256, 448
-0.987825, 201, 129, 264, 192
-0.98783, 217, 321, 248, 384
-0.987843, 305, 81, 336, 208
-0.987912, 137, 113, 168, 240
-0.98792, 193, 33, 256, 288
-0.987936, 269, 265, 300, 328
-0.987938, 257, 129, 320, 384
-0.987977, 105, 89, 136, 152
-0.987979, 129, 97, 160, 160
-0.987989, 273, 241, 336, 304
-0.98801, 225, 129, 288, 384
-0.988011, 33, 105, 160, 168
-0.988033, 169, 369, 200, 432
-0.988046, 289, 265, 320, 328
-0.988186, 133, 305, 164, 368
-0.988196, 185, 241, 248, 304
-0.988197, 253, 265, 284, 328
-0.988295, 89, 353, 120, 416
-0.9883, 81, 305, 112, 368
-0.988351, 121, 73, 184, 136
-0.988369, 217, 305, 248, 432
-0.988398, 165, 281, 196, 344
-0.98849, 133, 257, 164, 384
-0.988576, 21, 313, 52, 376
-0.988582, 29, 353, 60, 416
-0.988634, 113, 161, 144, 224
-0.988711, 145, 345, 176, 408
-0.988717, 193, 345, 224, 408
-0.98879, 233, 209, 296, 336
-0.9888, 157, 113, 188, 176
-0.988937, 49, 369, 176, 432
-0.988959, 145, 137, 176, 200
-0.988962, 145, 241, 272, 304
-0.98897, 257, 153, 320, 216
-0.98899, 257, 313, 288, 376
-0.989053, 265, 337, 328, 368
-0.989085, 153, 97, 216, 352
-0.989127, 81, 1, 144, 256
-0.98915, 129, 97, 256, 160
-0.989292, 113, 1, 176, 448
-0.989363, 1, 273, 128, 336
-0.989386, 97, 97, 128, 224
-0.989414, 273, 289, 336, 352
-0.989415, 265, 361, 296, 424
-0.989419, 81, 177, 208, 240
-0.989451, 161, 321, 192, 384
-0.989454, 1, 313, 32, 376
-0.989547, 97, 357, 160, 388
-0.989569, 33, 49, 96, 176
-0.98958, 137, 349, 200, 380
-0.989616, 97, 321, 160, 352
-0.989647, 113, 65, 240, 128
-0.989687, 169, 145, 200, 208
-0.989728, 61, 73, 92, 136
-0.989746, 177, 81, 240, 144
-0.989804, 241, 1, 304, 256
-0.98985, 273, 105, 336, 168
-0.98985, 165, 345, 196, 408
-0.989855, 145, 385, 176, 448
-0.989857, 113, 257, 144, 384
-0.98987, 17, 137, 80, 200
-0.989873, 165, 97, 196, 224
-0.989906, 257, 385, 288, 448
-0.989923, 113, 145, 144, 272
-0.989972, 273, 393, 336, 424
-0.989973, 169, 49, 232, 176
-0.989982, 129, 97, 192, 352
-0.98999, 257, 1, 320, 448
-0.990016, 205, 265, 236, 328
-0.990018, 181, 129, 212, 192
-0.990049, 269, 65, 300, 192
-0.990076, 193, 265, 224, 328
-0.990143, 81, 345, 144, 376
-0.990153, 137, 1, 200, 448
-0.990228, 49, 49, 176, 112
-0.990258, 153, 1, 216, 256
-0.990283, 113, 257, 176, 320
-0.990283, 285, 65, 316, 192
-0.990297, 145, 377, 208, 408
-0.99031, 301, 121, 332, 184
-0.990319, 181, 273, 212, 336
-0.990323, 265, 381, 328, 412
-0.990338, 89, 1, 152, 448
-0.990342, 65, 361, 128, 392
-0.99037, 65, 153, 128, 216
-0.990371, 177, 353, 240, 384
-0.99049, 177, 121, 240, 184
-0.990518, 161, 273, 224, 304
-0.990528, 89, 57, 152, 120
-0.990536, 93, 305, 124, 368
-0.99054, 153, 393, 216, 424
-0.99055, 265, 349, 328, 380
-0.990556, 113, 209, 240, 336
-0.990614, 157, 161, 188, 288
-0.990654, 97, 113, 128, 176
-0.99067, 249, 241, 312, 304
-0.990754, 137, 365, 200, 396
-0.99078, 113, 305, 176, 336
-0.990811, 85, 97, 116, 224
-0.990823, 225, 353, 288, 384
-0.990849, 113, 177, 176, 208
-0.990934, 137, 321, 200, 352
-0.99094, 141, 105, 172, 168
-0.990988, 97, 333, 160, 364
-0.991018, 157, 241, 188, 368
-0.991059, 89, 309, 152, 340
-0.991074, 161, 405, 224, 436
-0.991092, 241, 341, 304, 372
-0.991101, 233, 405, 296, 436
-0.991109, 145, 301, 208, 332
-0.991123, 145, 17, 208, 144
-0.991133, 105, 293, 168, 324
-0.991174, 157, 89, 188, 152
-0.991189, 153, 289, 216, 320
-0.991239, 89, 49, 120, 176
-0.991342, 209, 241, 336, 304
-0.991393, 257, 145, 320, 176
-0.991407, 193, 273, 256, 304
-0.991425, 97, 189, 160, 220
-0.991425, 93, 89, 124, 152
-0.991439, 121, 337, 184, 368
-0.991477, 25, 97, 88, 160
-0.991485, 225, 273, 288, 304
-0.991501, 265, 325, 328, 356
-0.991526, 65, 293, 128, 324
-0.991539, 89, 125, 152, 156
-0.991542, 161, 417, 224, 448
-0.991552, 81, 185, 144, 248
-0.99156, 209, 161, 336, 224
-0.991568, 265, 121, 296, 184
-0.991573, 65, 97, 96, 160
-0.991579, 105, 137, 168, 168
-0.99159, 121, 165, 184, 196
-0.991643, 137, 153, 200, 184
-0.991659, 225, 241, 288, 304
-0.991663, 241, 81, 304, 144
-0.991677, 105, 377, 168, 408
-0.991693, 169, 297, 232, 360
-0.991697, 129, 121, 192, 152
-0.991726, 33, 177, 160, 240
-0.991728, 193, 417, 256, 448
-0.991754, 57, 345, 120, 376
-0.991765, 169, 121, 200, 184
-0.991803, 85, 281, 116, 344
-0.991819, 233, 417, 296, 448
-0.991833, 241, 365, 304, 396
-0.991867, 9, 357, 72, 388
-0.991895, 257, 133, 320, 164
-0.991895, 1, 353, 256, 416
-0.99191, 33, 321, 288, 384
-0.991911, 265, 269, 328, 300
-0.991923, 137, 133, 200, 164
-0.991929, 65, 305, 128, 336
-0.991934, 1, 337, 64, 368
-0.991978, 265, 369, 328, 400
-0.99198, 193, 405, 256, 436
-0.991983, 41, 357, 104, 388
-0.991999, 177, 25, 304, 88
-0.992002, 169, 165, 232, 196
-0.992004, 33, 345, 96, 376
-0.992012, 25, 373, 88, 404
-0.992019, 273, 405, 336, 436
-0.992033, 181, 81, 212, 208
-0.992036, 97, 157, 160, 188
-0.992068, 1, 413, 64, 444
-0.992076, 1, 381, 64, 412
-0.992084, 57, 241, 120, 368
-0.992085, 109, 185, 140, 248
-0.992124, 237, 353, 268, 416
-0.992137, 153, 121, 216, 152
-0.99214, 9, 393, 72, 424
-0.992201, 129, 413, 192, 444
-0.992202, 65, 89, 128, 120
-0.992208, 233, 393, 296, 424
-0.992237, 113, 389, 176, 420
-0.99226, 49, 105, 112, 136
-0.992265, 93, 289, 124, 320
-0.992292, 73, 113, 136, 144
-0.992299, 85, 345, 116, 376
-0.992302, 273, 257, 336, 288
-0.992306, 201, 353, 264, 384
-0.992311, 73, 101, 136, 132
-0.992332, 137, 105, 200, 136
-0.992349, 113, 281, 176, 312
-0.992361, 217, 165, 280, 196
-0.992372, 225, 321, 288, 352
-0.992377, 129, 401, 192, 432
-0.992387, 89, 169, 152, 200
-0.992388, 161, 261, 224, 292
-0.992417, 137, 181, 200, 212
-0.992428, 65, 373, 128, 404
-0.992432, 65, 125, 128, 156
-0.992452, 161, 149, 224, 180
-0.99246, 97, 101, 160, 132
-0.99249, 277, 377, 308, 408
-0.992503, 101, 241, 132, 368
-0.992505, 249, 313, 312, 344
-0.992507, 89, 85, 152, 116
-0.992513, 41, 129, 104, 160
-0.992513, 57, 317, 120, 348
-0.992526, 273, 73, 336, 104
-0.992542, 141, 169, 172, 232
-0.992545, 249, 157, 312, 188
-0.992551, 293, 337, 324, 368
-0.992557, 289, 129, 320, 192
-0.992558, 97, 113, 160, 144
-0.992589, 161, 313, 224, 344
-0.99259, 273, 417, 336, 448
-0.992598, 269, 337, 300, 368
-0.992617, 49, 77, 112, 108
-0.99262, 273, 33, 336, 288
-0.992624, 193, 393, 256, 424
-0.992628, 153, 85, 216, 116
-0.99264, 81, 369, 144, 432
-0.992646, 217, 45, 280, 76
-0.992654, 217, 337, 280, 368
-0.992662, 185, 313, 248, 344
-0.992669, 221, 353, 252, 416
-0.992677, 89, 137, 120, 200
-0.99269, 177, 169, 240, 232
-0.992693, 193, 157, 256, 188
-0.992697, 161, 133, 224, 164
-0.9927, 157, 169, 188, 232
-0.992701, 169, 341, 232, 372
-0.992707, 137, 257, 200, 288
-0.992717, 17, 377, 48, 408
-0.992729, 241, 61, 304, 92
-0.992729, 53, 97, 84, 160
-0.992733, 121, 93, 184, 124
-0.992735, 137, 277, 200, 308
-0.992745, 5, 273, 36, 400
-0.992752, 241, 377, 304, 408
-0.992757, 133, 281, 164, 344
-0.992757, 89, 281, 152, 312
-0.992769, 33, 73, 96, 136
-0.99277, 273, 313, 336, 344
-0.992775, 1, 377, 256, 440
-0.992778, 65, 333, 128, 364
-0.992778, 169, 273, 200, 304
-0.992778, 101, 313, 132, 344
-0.99279, 1, 389, 32, 420
-0.992802, 181, 353, 212, 384
-0.992807, 273, 365, 304, 396
-0.992811, 17, 365, 48, 396
-0.992815, 81, 97, 112, 160
-0.992819, 281, 353, 312, 384
-0.992825, 41, 117, 104, 148
-0.992827, 101, 301, 132, 332
-0.992827, 145, 165, 208, 196
-0.99283, 73, 145, 136, 176
-0.992841, 273, 101, 336, 132
-0.992849, 161, 177, 224, 208
-0.992854, 261, 353, 292, 384
-0.992866, 185, 381, 248, 412
-0.992869, 257, 121, 320, 152
-0.992872, 293, 361, 324, 424
-0.99289, 113, 81, 176, 112
-0.992897, 57, 65, 120, 96
-0.992898, 177, 365, 240, 396
-0.992907, 57, 1, 120, 256
-0.992915, 1, 325, 64, 356
-0.992923, 145, 69, 208, 100
-0.992929, 185, 261, 248, 292
-0.99294, 173, 261, 204, 292
-0.992941, 145, 333, 208, 364
-0.992947, 133, 309, 164, 340
-0.992949, 281, 337, 312, 368
-0.992963, 89, 361, 120, 392
-0.99298, 9, 405, 40, 436
-0.992992, 1, 273, 64, 336
-0.992998, 117, 321, 148, 352
-0.993006, 105, 353, 136, 384
-0.993011, 133, 333, 164, 364
-0.993023, 153, 301, 184, 332
-0.993028, 41, 93, 104, 124
-0.993028, 229, 273, 260, 304
-0.99303, 65, 281, 128, 312
-0.993034, 113, 177, 144, 208
-0.993039, 297, 141, 328, 172
-0.993043, 193, 169, 256, 200
-0.993045, 257, 341, 288, 372
-0.993071, 5, 361, 36, 392
-0.993076, 225, 261, 288, 292
-0.993079, 217, 145, 280, 176
-0.993085, 305, 341, 336, 372
-0.993088, 65, 173, 128, 204
-0.99309, 149, 325, 180, 356
-0.993091, 177, 117, 240, 148
-0.993093, 141, 181, 172, 212
-0.993096, 157, 409, 188, 440
-0.993099, 161, 253, 192, 284
-0.993101, 1, 65, 128, 128
-0.993104, 249, 353, 280, 384
-0.993105, 117, 353, 148, 384
-0.993105, 217, 273, 248, 304
-0.993106, 129, 161, 160, 288
-0.993121, 305, 261, 336, 292
-0.993124, 13, 393, 44, 424
-0.993124, 241, 273, 272, 304
-0.993132, 145, 149, 176, 180
-0.993132, 97, 125, 128, 156
-0.993135, 185, 413, 216, 444
-0.993137, 145, 137, 176, 168
-0.993138, 97, 337, 128, 368
-0.993139, 73, 353, 104, 384
-0.993139, 145, 169, 176, 200
-0.99314, 305, 153, 336, 184
-0.993141, 77, 365, 108, 396
-0.993161, 133, 161, 164, 192
-0.993162, 145, 109, 176, 140
-0.993173, 165, 149, 196, 180
-0.993175, 205, 273, 236, 304
-0.993178, 133, 149, 164, 180
-0.99318, 1, 345, 32, 376
-0.993181, 137, 345, 168, 376
-0.993182, 129, 117, 160, 148
-0.993185, 81, 305, 112, 336
-0.993189, 261, 417, 292, 448
-0.993198, 305, 129, 336, 160
-0.993199, 289, 325, 320, 356
-0.993199, 113, 153, 144, 184
-0.9932, 145, 125, 176, 156
-0.9932, 1, 373, 32, 404
-0.993202, 93, 93, 124, 124
-0.993204, 101, 181, 132, 212
-0.993211, 301, 393, 332, 424
-0.993211, 137, 97, 168, 128
-0.993213, 149, 397, 180, 428
-0.993218, 17, 329, 48, 360
-0.99322, 253, 273, 284, 304
-0.993223, 181, 273, 212, 304
-0.993225, 285, 137, 316, 168
-0.993232, 17, 353, 48, 384
-0.993237, 25, 321, 56, 448
-0.993239, 285, 149, 316, 180
-0.993242, 149, 313, 180, 344
-0.993244, 165, 137, 196, 168
-0.993247, 133, 133, 164, 164
-0.993253, 293, 349, 324, 380
-0.993255, 261, 365, 292, 396
-0.993256, 193, 273, 224, 304
-0.993257, 137, 321, 168, 352
-0.993261, 125, 97, 156, 128
-0.993265, 1, 325, 32, 356
-0.993266, 157, 117, 188, 148
-0.993266, 93, 109, 124, 140
-0.993269, 109, 97, 140, 128
-0.993269, 169, 169, 200, 200
-0.993272, 65, 105, 96, 136
-0.993272, 289, 385, 320, 416
-0.993273, 129, 173, 160, 204
-0.993274, 117, 189, 148, 220
-0.993275, 257, 389, 288, 420
-0.993279, 29, 365, 60, 396
-0.993284, 1, 417, 32, 448
-0.993285, 109, 109, 140, 140
-0.99329, 161, 289, 192, 320
-0.993291, 77, 97, 108, 128
-0.993296, 157, 101, 188, 132
-0.993299, 121, 133, 152, 164
-0.993304, 177, 397, 208, 428
-0.993306, 157, 353, 188, 384
-0.993307, 265, 273, 296, 304
-0.993307, 293, 269, 324, 300
-0.993309, 277, 325, 308, 356
-0.99331, 301, 93, 332, 124
-0.993312, 125, 365, 156, 396
-0.993317, 305, 353, 336, 384
-0.99332, 21, 341, 52, 372
-0.993323, 177, 157, 208, 188
-0.993326, 33, 353, 64, 384
-0.993335, 137, 385, 168, 416
-0.993338, 109, 129, 140, 160
-0.99334, 261, 401, 292, 432
-0.993344, 177, 117, 208, 148
-0.993347, 169, 373, 200, 404
-0.99335, 13, 317, 44, 348
-0.993361, 117, 49, 148, 176
-0.993361, 281, 65, 312, 128
-0.993362, 277, 273, 308, 304
-0.993362, 61, 85, 92, 116
-0.993366, 301, 105, 332, 136
-0.993374, 257, 321, 288, 352
-0.993375, 145, 85, 176, 116
-0.993379, 33, 129, 288, 192
-0.993384, 129, 185, 160, 216
-0.993386, 77, 113, 108, 144
-0.993386, 185, 257, 216, 288
-0.993387, 221, 353, 252, 384
-0.993388, 133, 85, 164, 116
-0.993388, 65, 117, 96, 148
-0.993392, 305, 173, 336, 204
-0.993393, 277, 313, 308, 344
-0.993428, 145, 1, 272, 64
-0.993456, 269, 57, 300, 120
-0.993496, 253, 129, 284, 256
-0.993497, 105, 49, 136, 176
-0.9935, 221, 289, 252, 352
-0.993502, 193, 33, 256, 96
-0.993505, 49, 265, 112, 328
-0.993527, 217, 17, 280, 80
-0.993531, 129, 41, 256, 104
-0.993596, 129, 1, 192, 256
-0.993647, 33, 289, 288, 352
-0.993716, 77, 289, 108, 416
-0.993717, 97, 1, 160, 128
-0.993778, 81, 193, 144, 448
-0.99379, 1, 321, 336, 384
-0.993797, 53, 65, 84, 192
-0.99382, 137, 65, 168, 192
-0.993821, 81, 345, 208, 376
-0.993841, 225, 113, 288, 176
-0.993847, 105, 65, 168, 320
-0.993874, 117, 89, 148, 152
-0.993876, 297, 129, 328, 256
-0.993933, 257, 33, 288, 160
-0.993962, 89, 265, 152, 328
-0.994014, 125, 169, 156, 232
-0.994018, 229, 161, 260, 224
-0.99406, 113, 137, 144, 200
-0.994075, 125, 121, 156, 184
-0.994216, 113, 49, 176, 112
-0.994222, 145, 257, 176, 320
-0.994272, 233, 289, 264, 352
-0.99428, 121, 65, 152, 128
-0.99433, 301, 97, 332, 160
-0.994332, 209, 345, 240, 408
-0.99437, 21, 369, 36, 432
-0.99437, 1, 137, 32, 200
-0.994371, 113, 281, 144, 344
-0.994375, 65, 161, 320, 224
-0.99439, 173, 145, 204, 272
-0.994392, 177, 81, 208, 144
-0.994402, 265, 113, 296, 240
-0.994461, 89, 193, 152, 320
-0.99447, 121, 1, 184, 128
-0.994531, 65, 49, 96, 112
-0.994557, 301, 161, 332, 224
-0.994584, 145, 41, 208, 104
-0.994589, 1, 377, 336, 440
-0.99465, 65, 97, 128, 352
-0.994658, 209, 289, 240, 352
-0.994706, 277, 345, 292, 408
-0.994718, 65, 57, 320, 120
-0.994718, 121, 201, 184, 264
-0.994743, 49, 357, 176, 388
-0.994755, 1, 345, 336, 408
-0.994759, 161, 353, 288, 384
-0.994784, 97, 145, 128, 272
-0.994787, 65, 265, 320, 328
-0.994836, 95, 337, 110, 400
-0.994842, 81, 333, 208, 364
-0.994844, 145, 401, 272, 432
-0.994878, 257, 49, 288, 112
-0.994904, 165, 65, 196, 128
-0.994939, 33, 1, 96, 448
-0.994945, 157, 145, 188, 208
-0.994946, 65, 25, 192, 88
-0.994972, 209, 337, 336, 368
-0.994976, 161, 273, 288, 304
-0.994979, 245, 121, 276, 184
-0.99499, 1, 345, 128, 376
-0.995017, 65, 81, 320, 144
-0.995027, 177, 249, 192, 312
-0.995051, 81, 321, 208, 352
-0.995077, 233, 113, 264, 240
-0.995135, 33, 105, 288, 168
-0.995141, 183, 345, 198, 408
-0.995238, 103, 281, 118, 344
-0.995243, 289, 209, 320, 336
-0.995256, 289, 345, 304, 408
-0.995263, 285, 113, 316, 240
-0.995267, 161, 413, 288, 444
-0.995271, 249, 289, 280, 352
-0.995275, 73, 97, 104, 224
-0.995287, 81, 73, 112, 136
-0.995298, 87, 345, 102, 408
-0.995305, 81, 309, 208, 340
-0.995306, 93, 65, 124, 128
-0.995308, 241, 209, 272, 336
-0.995318, 57, 193, 120, 448
-0.995329, 161, 233, 192, 296
-0.99533, 15, 377, 30, 440
-0.995336, 281, 369, 296, 432
-0.995345, 141, 81, 172, 144
-0.995347, 25, 289, 88, 352
-0.995357, 97, 357, 224, 388
-0.99539, 133, 377, 164, 440
-0.995413, 281, 305, 312, 368
-0.995472, 181, 105, 212, 168
-0.995483, 81, 173, 208, 204
-0.995483, 301, 353, 316, 416
-0.99549, 95, 305, 110, 368
-0.995497, 65, 1, 128, 128
-0.995524, 133, 321, 148, 384
-0.995532, 273, 17, 336, 144
-0.995536, 261, 289, 292, 352
-0.995544, 5, 289, 36, 352
-0.995557, 29, 377, 60, 440
-0.995562, 177, 209, 208, 336
-0.99559, 65, 233, 192, 296
-0.9956, 9, 97, 72, 352
-0.995604, 101, 329, 116, 392
-0.995633, 313, 249, 328, 312
-0.995637, 1, 281, 336, 344
-0.99564, 295, 345, 310, 408
-0.99567, 193, 401, 320, 432
-0.995671, 33, 33, 96, 288
-0.995685, 119, 313, 134, 376
-0.995692, 281, 105, 312, 168
-0.995707, 1, 129, 32, 256
-0.995713, 93, 177, 124, 240
-0.995715, 271, 337, 286, 400
-0.995724, 225, 17, 256, 144
-0.995725, 129, 313, 256, 344
-0.995729, 209, 1, 336, 64
-0.995729, 81, 161, 208, 192
-0.995802, 17, 313, 144, 344
-0.995817, 177, 385, 304, 416
-0.995826, 273, 41, 336, 104
-0.995836, 177, 373, 304, 404
-0.995839, 185, 161, 216, 288
-0.995848, 33, 33, 288, 96
-0.995848, 77, 49, 108, 176
-0.995855, 97, 385, 224, 416
-0.995864, 33, 49, 96, 112
-0.995894, 305, 313, 320, 376
-0.995895, 209, 209, 240, 336
-0.995965, 65, 289, 192, 320
-0.99597, 27, 361, 42, 424
-0.995976, 225, 209, 256, 336
-0.995991, 265, 209, 296, 336
-0.995993, 127, 321, 142, 384
-0.995999, 97, 281, 112, 344
-0.996004, 157, 49, 188, 176
-0.996019, 1, 41, 128, 104
-0.996027, 145, 241, 176, 368
-0.996094, 1, 121, 336, 184
-0.996118, 1, 161, 64, 224
-0.996118, 1, 365, 128, 396
-0.996134, 245, 81, 276, 208
-0.996151, 109, 289, 124, 352
-0.996157, 1, 313, 16, 376
-0.996194, 201, 161, 232, 288
-0.996214, 1, 241, 256, 304
-0.996231, 237, 1, 268, 128
-0.996244, 139, 329, 154, 392
-0.996246, 147, 321, 162, 384
-0.996247, 153, 305, 168, 368
-0.996255, 193, 113, 224, 240
-0.996292, 259, 321, 274, 384
-0.996302, 97, 397, 224, 428
-0.996309, 169, 273, 184, 336
-0.996313, 283, 345, 298, 408
-0.996322, 1, 89, 336, 152
-0.996323, 145, 169, 272, 200
-0.996324, 145, 301, 272, 332
-0.996341, 235, 265, 250, 328
-0.996347, 153, 121, 168, 184
-0.996347, 265, 353, 280, 416
-0.99635, 97, 373, 224, 404
-0.996352, 225, 161, 256, 288
-0.996354, 33, 325, 160, 356
-0.996399, 307, 249, 322, 312
-0.996414, 189, 345, 204, 408
-0.996414, 269, 313, 284, 376
-0.99642, 297, 313, 312, 376
-0.996438, 141, 193, 172, 320
-0.996451, 105, 113, 120, 176
-0.996452, 129, 157, 256, 188
-0.99648, 117, 345, 132, 408
-0.996482, 1, 385, 16, 448
-0.996486, 209, 273, 336, 304
-0.996505, 241, 265, 256, 328
-0.996539, 113, 413, 240, 444
-0.996541, 209, 157, 336, 188
-0.996546, 317, 313, 332, 376
-0.996551, 169, 1, 232, 128
-0.996553, 115, 89, 130, 152
-0.996555, 307, 337, 322, 400
-0.996577, 13, 345, 28, 408
-0.996583, 137, 153, 152, 216
-0.996591, 183, 321, 198, 384
-0.996596, 229, 265, 244, 328
-0.996606, 113, 313, 128, 376
-0.996606, 121, 153, 136, 216
-0.996618, 17, 129, 48, 256
-0.996623, 237, 161, 268, 288
-0.996642, 143, 161, 158, 224
-0.996674, 125, 113, 140, 176
-0.996695, 111, 345, 126, 408
-0.996704, 175, 137, 190, 200
-0.996705, 113, 113, 128, 176
-0.996707, 305, 209, 336, 336
-0.996709, 247, 265, 262, 328
-0.996714, 321, 113, 336, 176
-0.99672, 311, 313, 326, 376
-0.99672, 189, 385, 204, 448
-0.996723, 223, 265, 238, 328
-0.99673, 249, 321, 264, 384
-0.996732, 197, 321, 212, 384
-0.996733, 271, 369, 286, 432
-0.996741, 27, 337, 42, 400
-0.996767, 213, 161, 244, 288
-0.996784, 217, 265, 232, 328
-0.996791, 269, 265, 284, 328
-0.9968, 129, 153, 144, 216
-0.996814, 97, 137, 224, 168
-0.996822, 21, 273, 52, 400
-0.996824, 303, 385, 318, 448
-0.996826, 217, 313, 232, 376
-0.996827, 255, 265, 270, 328
-0.996829, 207, 321, 222, 384
-0.996833, 321, 137, 336, 200
-0.996844, 101, 353, 116, 416
-0.996857, 115, 161, 130, 224
-0.996857, 21, 345, 36, 408
-0.996869, 137, 129, 152, 192
-0.996881, 33, 329, 48, 392
-0.996895, 241, 321, 256, 384
-0.996896, 33, 137, 160, 168
-0.996897, 263, 265, 278, 328
-0.996916, 297, 265, 312, 328
-0.996917, 101, 89, 116, 152
-0.996923, 147, 137, 162, 200
-0.996925, 97, 97, 224, 128
-0.996934, 283, 265, 298, 328
-0.996939, 145, 289, 272, 320
-0.996943, 277, 265, 292, 328
-0.996963, 107, 89, 122, 152
-0.996965, 231, 321, 246, 384
-0.996966, 33, 301, 160, 332
-0.996976, 7, 345, 22, 408
-0.996989, 291, 265, 306, 328
-0.996993, 97, 113, 224, 144
-0.996998, 127, 345, 142, 408
-0.996999, 115, 137, 130, 200
-0.997, 209, 349, 336, 380
-0.997021, 49, 109, 176, 140
-0.997026, 223, 321, 238, 384
-0.997028, 305, 129, 320, 192
-0.997031, 161, 341, 288, 372
-0.997031, 171, 249, 186, 312
-0.997044, 291, 321, 306, 384
-0.997048, 143, 97, 158, 160
-0.997049, 153, 153, 168, 216
-0.997058, 139, 361, 154, 424
-0.997065, 209, 113, 336, 176
-0.997066, 177, 345, 192, 408
-0.997066, 145, 325, 272, 356
-0.997069, 49, 97, 176, 128
-0.997072, 191, 321, 206, 384
-0.997074, 145, 261, 272, 292
-0.997079, 195, 345, 210, 408
-0.997085, 73, 81, 88, 144
-0.997086, 1, 113, 64, 176
-0.997106, 183, 377, 198, 440
-0.997107, 319, 257, 334, 320
-0.997111, 81, 149, 208, 180
-0.99712, 97, 77, 224, 108
-0.997126, 81, 345, 96, 408
-0.997137, 163, 281, 178, 344
-0.99714, 211, 273, 226, 336
-0.997152, 97, 277, 224, 308
-0.997174, 281, 313, 296, 376
-0.997176, 159, 97, 174, 160
-0.997185, 133, 353, 148, 416
-0.997186, 1, 377, 128, 408
-0.997188, 209, 413, 336, 444
-0.997194, 185, 145, 200, 208
-0.997204, 183, 265, 198, 328
-0.997225, 49, 369, 176, 400
-0.997228, 171, 113, 186, 176
-0.99723, 27, 385, 42, 448
-0.997246, 163, 137, 178, 200
-0.997247, 33, 149, 160, 180
-0.997257, 173, 321, 188, 384
-0.997277, 315, 129, 330, 192
-0.997285, 133, 89, 148, 152
-0.99729, 33, 353, 48, 416
-0.997292, 177, 125, 304, 156
-0.997292, 175, 89, 190, 152
-0.997295, 1, 1, 64, 448
-0.99732, 161, 193, 192, 448
-0.997321, 177, 57, 304, 88
-0.997322, 131, 113, 146, 176
-0.997325, 123, 89, 138, 152
-0.997328, 167, 81, 182, 144
-0.997337, 149, 385, 164, 448
-0.99734, 217, 113, 248, 240
-0.997344, 297, 385, 312, 448
-0.997344, 309, 385, 324, 448
-0.997355, 81, 1, 208, 64
-0.997356, 193, 145, 320, 176
-0.99738, 87, 81, 102, 144
-0.997386, 105, 145, 120, 208
-0.997394, 135, 177, 150, 240
-0.997396, 9, 385, 24, 448
-0.997403, 1, 345, 16, 408
-0.997423, 33, 9, 288, 72
-0.997441, 1, 393, 128, 424
-0.997483, 185, 161, 216, 416
-0.997492, 81, 125, 208, 156
-0.997506, 21, 377, 36, 408
-0.99751, 273, 353, 288, 384
-0.997523, 193, 317, 320, 348
-0.997553, 189, 209, 220, 336
-0.997557, 49, 381, 176, 412
-0.997589, 9, 249, 72, 312
-0.997594, 177, 113, 304, 144
-0.997597, 277, 365, 292, 396
-0.997617, 305, 337, 320, 368
-0.997667, 277, 209, 308, 336
-0.997695, 87, 349, 102, 380
-0.997703, 97, 253, 224, 284
-0.997705, 1, 145, 336, 208
-0.997705, 81, 185, 208, 216
-0.997744, 1, 249, 128, 312
-0.997748, 177, 85, 304, 116
-0.997748, 197, 193, 228, 448
-0.997766, 29, 365, 44, 396
-0.997767, 93, 345, 108, 376
-0.997773, 177, 45, 304, 76
-0.997777, 177, 97, 304, 128
-0.997778, 253, 209, 284, 336
-0.997796, 201, 81, 264, 144
-0.997806, 271, 341, 286, 372
-0.997808, 17, 289, 144, 320
-0.997824, 1, 161, 128, 192
-0.997836, 1, 405, 128, 436
-0.997843, 313, 253, 328, 284
-0.997855, 177, 257, 192, 288
-0.997879, 89, 33, 152, 96
-0.997881, 173, 129, 204, 384
-0.99789, 113, 161, 144, 416
-0.997907, 1, 41, 336, 104
-0.997948, 17, 389, 32, 420
-0.99796, 297, 337, 312, 368
-0.997974, 83, 365, 98, 396
-0.997991, 209, 161, 240, 416
-0.997993, 305, 193, 336, 448
-0.997998, 291, 337, 306, 368
-0.997998, 197, 49, 228, 176
-0.997999, 145, 161, 176, 416
-0.998019, 317, 153, 332, 184
-0.998022, 169, 413, 184, 444
-0.998036, 33, 125, 160, 156
-0.998045, 33, 181, 160, 212
-0.998049, 99, 285, 114, 316
-0.998057, 103, 357, 118, 388
-0.998059, 281, 353, 296, 384
-0.99806, 33, 81, 160, 112
-0.998063, 183, 353, 198, 384
-0.998067, 135, 141, 150, 172
-0.998075, 209, 257, 336, 288
-0.998076, 237, 1, 268, 256
-0.998098, 95, 309, 110, 340
-0.998103, 205, 113, 236, 240
-0.998104, 129, 177, 144, 208
-0.998112, 171, 277, 186, 308
-0.998112, 139, 165, 154, 196
-0.998116, 129, 125, 256, 156
-0.998125, 321, 121, 336, 152
-0.998126, 129, 141, 144, 172
-0.998142, 125, 129, 140, 160
-0.998145, 151, 149, 166, 180
-0.998148, 157, 169, 172, 200
-0.99815, 33, 65, 160, 96
-0.998163, 233, 273, 248, 304
-0.99817, 13, 361, 28, 392
-0.998171, 265, 349, 280, 380
-0.998176, 143, 149, 158, 180
-0.998177, 209, 33, 240, 160
-0.998185, 145, 185, 160, 216
-0.998187, 285, 333, 300, 364
-0.998189, 135, 185, 150, 216
-0.998201, 133, 193, 164, 448
-0.998204, 151, 133, 166, 164
-0.998205, 35, 337, 50, 368
-0.998207, 143, 121, 158, 152
-0.998212, 13, 409, 28, 440
-0.998214, 287, 353, 302, 384
-0.998216, 23, 353, 38, 384
-0.998225, 185, 257, 200, 288
-0.998241, 109, 125, 124, 156
-0.998256, 239, 273, 254, 304
-0.998257, 193, 1, 256, 64
-0.998258, 137, 129, 152, 160
-0.998258, 309, 141, 324, 172
-0.998259, 81, 353, 96, 384
-0.998268, 193, 397, 208, 428
-0.99827, 155, 301, 170, 332
-0.998271, 279, 337, 294, 368
-0.998275, 317, 133, 332, 164
-0.998281, 129, 161, 144, 192
-0.998285, 227, 273, 242, 304
-0.998292, 177, 269, 192, 300
-0.998293, 169, 125, 184, 156
-0.998295, 221, 129, 252, 384
-0.998302, 177, 141, 192, 172
-0.998303, 167, 157, 182, 188
-0.998306, 89, 365, 104, 396
-0.998307, 161, 137, 176, 168
-0.998311, 305, 129, 320, 160
-0.998312, 99, 345, 114, 376
-0.998313, 113, 177, 128, 208
-0.998317, 135, 97, 150, 128
-0.998319, 145, 105, 160, 136
-0.998326, 163, 405, 178, 436
-0.998329, 301, 105, 332, 120
-0.998329, 269, 155, 300, 170
-0.99833, 273, 331, 304, 346
-0.99833, 305, 129, 336, 144
-0.99833, 65, 127, 96, 142
-0.99833, 311, 341, 326, 372
-0.998331, 261, 427, 292, 442
-0.998331, 89, 139, 120, 154
-0.998332, 141, 331, 172, 346
-0.998333, 81, 265, 208, 296
-0.998333, 105, 125, 136, 140
-0.998333, 265, 433, 296, 448
-0.998334, 289, 433, 320, 448
-0.998336, 277, 387, 308, 402
-0.998336, 17, 331, 48, 346
-0.998336, 161, 269, 192, 284
-0.998336, 105, 93, 136, 108
-0.998336, 245, 273, 260, 304
-0.998336, 7, 417, 22, 448
-0.998337, 305, 161, 336, 176
-0.998337, 121, 137, 152, 152
-0.998338, 113, 175, 144, 190
-0.998339, 261, 403, 292, 418
-0.99834, 1, 337, 32, 352
-0.998341, 133, 349, 164, 364
-0.998341, 141, 183, 172, 198
-0.998342, 321, 409, 336, 440
-0.998344, 149, 319, 180, 334
-0.998344, 117, 323, 148, 338
-0.998345, 1, 355, 32, 370
-0.998345, 65, 105, 96, 120
-0.998346, 107, 109, 122, 140
-0.998346, 129, 331, 160, 346
-0.998347, 89, 363, 120, 378
-0.998347, 153, 181, 184, 196
-0.998347, 121, 91, 152, 106
-0.998348, 81, 95, 112, 110
-0.998348, 105, 101, 136, 116
-0.998348, 109, 193, 140, 208
-0.998348, 125, 105, 156, 120
-0.998348, 157, 397, 172, 428
-0.998349, 149, 145, 180, 160
-0.998349, 1, 429, 32, 444
-0.998349, 161, 129, 192, 144
-0.99835, 173, 169, 204, 184
-0.99835, 161, 121, 192, 136
-0.998351, 81, 125, 112, 140
-0.998351, 201, 417, 216, 448
-0.998351, 79, 101, 94, 132
-0.998352, 145, 145, 272, 176
-0.998353, 37, 305, 68, 432
-0.998353, 105, 109, 136, 124
-0.998353, 81, 109, 112, 124
-0.998353, 249, 357, 280, 372
-0.998353, 1, 193, 64, 448
-0.998353, 165, 151, 196, 166
-0.998354, 293, 155, 324, 170
-0.998354, 157, 415, 188, 430
-0.998355, 109, 181, 140, 196
-0.998355, 103, 125, 118, 156
-0.998355, 1, 363, 32, 378
-0.998355, 115, 133, 130, 164
-0.998356, 97, 361, 112, 392
-0.998356, 181, 275, 212, 290
-0.998357, 5, 375, 36, 390
-0.998358, 305, 145, 336, 160
-0.998359, 93, 345, 124, 360
-0.998362, 1, 65, 336, 128
-0.998365, 133, 133, 164, 148
-0.998365, 161, 135, 192, 150
-0.998365, 157, 159, 188, 174
-0.998367, 137, 109, 168, 124
-0.998367, 105, 321, 136, 336
-0.998369, 269, 361, 300, 376
-0.99837, 113, 155, 144, 170
-0.998371, 145, 125, 176, 140
-0.998371, 153, 301, 184, 316
-0.998373, 89, 119, 120, 134
-0.998373, 125, 171, 156, 186
-0.998373, 149, 105, 180, 120
-0.998373, 177, 433, 208, 448
-0.998374, 301, 135, 332, 150
-0.998374, 165, 255, 196, 270
-0.998375, 149, 99, 180, 114
-0.998376, 113, 161, 144, 176
-0.998376, 137, 149, 168, 164
-0.998377, 141, 165, 172, 180
-0.998377, 319, 261, 334, 292
-0.998377, 297, 345, 328, 360
-0.998378, 1, 241, 336, 304
-0.998378, 85, 103, 116, 118
-0.998379, 17, 363, 48, 378
-0.998379, 299, 145, 314, 176
-0.99838, 105, 139, 136, 154
-0.998381, 109, 137, 124, 168
-0.998381, 153, 185, 216, 248
-0.998382, 221, 273, 236, 304
-0.998382, 143, 317, 158, 348
-0.998382, 145, 155, 176, 170
-0.998382, 109, 353, 124, 384
-0.998384, 145, 93, 176, 108
-0.998385, 93, 287, 124, 302
-0.998385, 13, 395, 44, 410
-0.998387, 17, 337, 48, 352
-0.998387, 145, 69, 272, 100
-0.998388, 105, 115, 136, 130
-0.998389, 133, 93, 164, 108
-0.998389, 93, 109, 124, 124
-0.998389, 183, 273, 198, 304
-0.99839, 149, 175, 180, 190
-0.998391, 305, 155, 336, 170
-0.998391, 177, 117, 192, 148
-0.998392, 141, 139, 172, 154
-0.998395, 173, 269, 204, 284
-0.998395, 23, 365, 38, 396
-0.998395, 129, 123, 160, 138
-0.998396, 185, 157, 200, 188
-0.998397, 269, 369, 300, 384
-0.998398, 157, 351, 188, 366
-0.998398, 93, 289, 108, 320
-0.998399, 129, 185, 160, 200
-0.998403, 121, 191, 152, 206
-0.998403, 137, 195, 168, 210
-0.998404, 109, 187, 140, 202
-0.998404, 137, 153, 152, 184
-0.998404, 97, 187, 128, 202
-0.998406, 293, 141, 324, 156
-0.998408, 117, 131, 148, 146
-0.998409, 137, 325, 168, 340
-0.99841, 129, 99, 160, 114
-0.99841, 97, 133, 128, 148
-0.99841, 157, 113, 188, 128
-0.998411, 1, 397, 32, 412
-0.998411, 13, 385, 44, 400
-0.998417, 141, 337, 156, 368
-0.998419, 93, 299, 124, 314
-0.998419, 149, 325, 180, 340
-0.99842, 157, 167, 188, 182
-0.998422, 285, 149, 316, 164
-0.998423, 129, 155, 160, 170
-0.998424, 281, 353, 312, 368
-0.998424, 257, 351, 288, 366
-0.998425, 145, 119, 176, 134
-0.998427, 169, 277, 200, 292
-0.998429, 101, 161, 132, 416
-0.99843, 121, 185, 136, 216
-0.99843, 97, 309, 128, 324
-0.99843, 123, 173, 138, 204
-0.998434, 109, 353, 140, 368
-0.998436, 177, 353, 208, 368
-0.998441, 17, 369, 48, 384
-0.998442, 13, 345, 28, 376
-0.998445, 109, 97, 124, 128
-0.998447, 97, 65, 224, 96
-0.998451, 133, 319, 164, 334
-0.998451, 233, 161, 264, 416
-0.998451, 153, 321, 168, 352
-0.998452, 315, 401, 330, 432
-0.998452, 289, 339, 320, 354
-0.998458, 285, 347, 316, 362
-0.99846, 159, 153, 174, 184
-0.99846, 307, 253, 322, 284
-0.998462, 3, 345, 18, 376
-0.998462, 149, 389, 164, 420
-0.998463, 147, 329, 162, 360
-0.998463, 131, 129, 146, 160
-0.998465, 269, 339, 300, 354
-0.998466, 133, 325, 148, 356
-0.998468, 133, 109, 148, 140
-0.998468, 41, 81, 72, 208
-0.998471, 81, 357, 112, 372
-0.998472, 27, 377, 42, 408
-0.998474, 269, 353, 300, 368
-0.998475, 181, 377, 196, 408
-0.998476, 265, 339, 328, 354
-0.998479, 253, 273, 268, 304
-0.998479, 289, 377, 304, 408
-0.99848, 313, 117, 328, 148
-0.998481, 103, 333, 118, 364
-0.998481, 97, 357, 160, 372
-0.998481, 293, 129, 324, 384
-0.998482, 277, 381, 308, 396
-0.998484, 129, 351, 192, 366
-0.998485, 297, 351, 328, 366
-0.998488, 151, 173, 166, 204
-0.998489, 265, 345, 328, 360
-0.998489, 85, 351, 116, 366
-0.99849, 307, 393, 322, 424
-0.998492, 65, 409, 192, 440
-0.998495, 145, 169, 160, 200
-0.998495, 17, 377, 48, 392
-0.998497, 119, 149, 134, 180
-0.998497, 297, 133, 312, 164
-0.998497, 319, 105, 334, 136
-0.998499, 169, 113, 184, 144
-0.9985, 215, 273, 230, 304
-0.998501, 101, 315, 132, 330
-0.998503, 15, 321, 30, 352
-0.998506, 93, 293, 124, 308
-0.998508, 269, 347, 300, 362
-0.998509, 259, 273, 274, 304
-0.998509, 143, 133, 158, 164
-0.99852, 167, 137, 182, 168
-0.99852, 299, 321, 314, 352
-0.99852, 225, 1, 256, 256
-0.99852, 163, 181, 178, 212
-0.998522, 99, 109, 114, 140
-0.998524, 29, 389, 44, 420
-0.998526, 25, 333, 40, 364
-0.998527, 289, 145, 304, 176
-0.998527, 81, 351, 144, 366
-0.998527, 97, 327, 160, 342
-0.998529, 27, 317, 42, 348
-0.998532, 161, 403, 224, 418
-0.998532, 257, 353, 320, 368
-0.998533, 265, 389, 328, 404
-0.99854, 105, 321, 168, 336
-0.99854, 209, 69, 336, 100
-0.998542, 153, 395, 216, 410
-0.998544, 161, 409, 224, 424
-0.998553, 145, 387, 208, 402
-0.998554, 273, 375, 304, 390
-0.998558, 273, 405, 336, 420
-0.99856, 97, 363, 160, 378
-0.998564, 265, 383, 328, 398
-0.998565, 145, 379, 208, 394
-0.998566, 137, 371, 200, 386
-0.998566, 265, 395, 328, 410
-0.998568, 169, 353, 232, 368
-0.998576, 105, 307, 168, 322
-0.998577, 169, 421, 232, 436
-0.998581, 129, 325, 192, 340
-0.998583, 137, 363, 200, 378
-0.998584, 241, 347, 304, 362
-0.998588, 97, 333, 160, 348
-0.998589, 105, 155, 168, 170
-0.998591, 113, 313, 176, 328
-0.998592, 97, 195, 160, 210
-0.998592, 209, 361, 336, 392
-0.998592, 137, 357, 200, 372
-0.998593, 161, 277, 224, 292
-0.998596, 73, 357, 136, 372
-0.998598, 161, 415, 224, 430
-0.998599, 169, 427, 232, 442
-0.998602, 121, 177, 184, 192
-0.998603, 97, 115, 160, 130
-0.998603, 145, 155, 208, 170
-0.998609, 105, 299, 168, 314
-0.998609, 129, 319, 192, 334
-0.99861, 81, 127, 144, 142
-0.998611, 105, 377, 168, 392
-0.998611, 129, 133, 192, 148
-0.998612, 153, 299, 216, 314
-0.998614, 89, 137, 152, 152
-0.998616, 81, 297, 144, 312
-0.998616, 265, 377, 328, 392
-0.998619, 89, 313, 152, 328
-0.998619, 97, 121, 160, 136
-0.998619, 1, 343, 64, 358
-0.998621, 113, 183, 176, 198
-0.998624, 169, 433, 232, 448
-0.998626, 257, 157, 320, 172
-0.998626, 129, 169, 192, 184
-0.998629, 97, 341, 160, 356
-0.998629, 137, 161, 200, 176
-0.99863, 73, 119, 136, 134
-0.998632, 145, 313, 208, 328
-0.998633, 81, 319, 144, 334
-0.998634, 113, 189, 176, 204
-0.998639, 245, 161, 276, 416
-0.998639, 65, 109, 128, 124
-0.998639, 121, 125, 184, 140
-0.998639, 233, 407, 296, 422
-0.99864, 257, 433, 320, 448
-0.99864, 73, 307, 136, 322
-0.998641, 193, 405, 256, 420
-0.998641, 233, 355, 296, 370
-0.998641, 57, 351, 120, 366
-0.998641, 129, 99, 192, 114
-0.998642, 89, 291, 152, 306
-0.998642, 145, 307, 208, 322
-0.998643, 129, 117, 192, 132
-0.998644, 257, 145, 320, 160
-0.998644, 201, 429, 264, 444
-0.998644, 209, 305, 336, 336
-0.998646, 65, 291, 128, 306
-0.998648, 105, 145, 168, 160
-0.998648, 185, 275, 248, 290
-0.998649, 105, 97, 168, 112
-0.99865, 193, 417, 256, 432
-0.99865, 161, 291, 224, 306
-0.998651, 89, 171, 152, 186
-0.998652, 257, 151, 320, 166
-0.998652, 161, 1, 192, 256
-0.998653, 193, 411, 256, 426
-0.998654, 161, 173, 224, 188
-0.998656, 273, 137, 336, 152
-0.998656, 9, 375, 72, 390
-0.998657, 73, 99, 136, 114
-0.998659, 225, 325, 288, 340
-0.998659, 121, 139, 184, 154
-0.99866, 129, 111, 192, 126
-0.998661, 105, 105, 168, 120
-0.998662, 105, 383, 168, 398
-0.998662, 241, 369, 304, 384
-0.998663, 177, 165, 240, 180
-0.998663, 153, 145, 216, 160
-0.998664, 225, 273, 288, 288
-0.998665, 265, 333, 328, 348
-0.998665, 57, 363, 120, 378
-0.998665, 33, 349, 96, 364
-0.998666, 105, 273, 120, 400
-0.998667, 129, 85, 192, 100
-0.998669, 129, 149, 192, 164
-0.998669, 241, 375, 304, 390
-0.998669, 89, 89, 152, 104
-0.99867, 241, 427, 304, 442
-0.99867, 41, 357, 104, 372
-0.99867, 201, 423, 264, 438
-0.998671, 25, 381, 88, 396
-0.998673, 257, 273, 320, 288
-0.998673, 233, 413, 296, 428
-0.998674, 145, 33, 272, 64
-0.998674, 153, 167, 216, 182
-0.998674, 41, 119, 104, 134
-0.998674, 113, 293, 176, 308
-0.998676, 129, 331, 192, 346
-0.998676, 129, 413, 192, 428
-0.998676, 153, 123, 216, 138
-0.998676, 145, 139, 208, 154
-0.998677, 41, 105, 104, 120
-0.998677, 105, 161, 168, 176
-0.998678, 1, 423, 64, 438
-0.998678, 1, 349, 64, 364
-0.998678, 105, 351, 168, 366
-0.998679, 73, 377, 136, 392
-0.998679, 105, 131, 168, 146
-0.99868, 257, 317, 320, 332
-0.99868, 153, 129, 216, 144
-0.99868, 105, 371, 168, 386
-0.99868, 193, 399, 256, 414
-0.99868, 49, 303, 112, 318
-0.998681, 233, 401, 296, 416
-0.998683, 89, 189, 152, 204
-0.998683, 233, 421, 296, 436
-0.998734, 197, 33, 228, 288
-0.998753, 161, 97, 192, 352
-0.998791, 1, 185, 256, 248
-0.998798, 145, 249, 272, 280
-0.998803, 33, 193, 160, 224
-0.998818, 185, 65, 216, 320
-0.998823, 9, 81, 72, 208
-0.998831, 281, 321, 296, 448
-0.998832, 269, 193, 300, 448
-0.998843, 209, 169, 336, 200
-0.998849, 89, 193, 120, 448
-0.998861, 193, 289, 320, 320
-0.998865, 289, 321, 304, 448
-0.998871, 249, 1, 280, 256
-0.998892, 129, 305, 144, 432
-0.998911, 259, 257, 274, 384
-0.998914, 111, 289, 126, 416
-0.998917, 33, 201, 160, 264
-0.99893, 271, 257, 286, 384
-0.998931, 243, 257, 258, 384
-0.998938, 153, 305, 168, 432
-0.998943, 233, 257, 248, 384
-0.998944, 319, 257, 334, 384
-0.998954, 1, 109, 128, 140
-0.998955, 297, 257, 312, 384
-0.998955, 225, 257, 240, 384
-0.998958, 145, 9, 272, 40
-0.998961, 117, 305, 132, 432
-0.998963, 211, 257, 226, 384
-0.998965, 281, 193, 312, 448
-0.998974, 281, 257, 296, 384
-0.998976, 147, 305, 162, 432
-0.998978, 295, 321, 310, 448
-0.998987, 249, 257, 264, 384
-0.998988, 219, 257, 234, 384
-0.998989, 313, 257, 328, 384
-0.998994, 133, 97, 164, 352
-0.998994, 123, 305, 138, 432
-0.998999, 57, 177, 120, 240
-0.999, 95, 289, 110, 416
-0.999005, 145, 21, 272, 52
-0.999007, 129, 185, 256, 248
-0.99901, 145, 65, 176, 320
-0.999018, 121, 33, 152, 288
-0.99902, 303, 257, 318, 384
-0.999021, 175, 241, 190, 368
-0.999027, 129, 181, 256, 212
-0.999034, 191, 305, 206, 432
-0.999038, 275, 321, 290, 448
-0.999039, 129, 53, 256, 84
-0.99904, 1, 93, 128, 124
-0.999042, 305, 33, 336, 288
-0.999043, 65, 45, 192, 76
-0.999046, 287, 257, 302, 384
-0.999067, 169, 257, 184, 384
-0.999069, 265, 257, 280, 384
-0.999073, 307, 321, 322, 448
-0.999074, 205, 257, 220, 384
-0.999076, 137, 321, 152, 448
-0.999076, 183, 257, 198, 384
-0.999077, 213, 33, 244, 288
-0.999078, 199, 257, 214, 384
-0.999081, 65, 241, 192, 272
-0.999095, 13, 321, 28, 448
-0.999119, 109, 97, 124, 224
-0.999121, 257, 129, 288, 384
-0.999128, 163, 273, 178, 400
-0.999129, 101, 1, 132, 256
-0.999134, 137, 113, 152, 240
-0.999136, 1, 417, 128, 448
-0.999139, 191, 257, 206, 384
-0.999171, 301, 305, 316, 432
-0.999179, 185, 305, 200, 432
-0.999185, 313, 321, 328, 448
-0.999189, 281, 97, 312, 352
-0.999195, 17, 277, 144, 308
-0.999197, 23, 321, 38, 448
-0.999216, 269, 305, 284, 432
-0.999236, 151, 113, 166, 240
-0.999244, 197, 321, 212, 448
-0.999248, 123, 97, 138, 224
-0.99925, 179, 321, 194, 448
-0.99925, 209, 17, 336, 48
-0.999251, 209, 1, 336, 32
-0.999256, 303, 97, 318, 224
-0.99926, 143, 129, 158, 256
-0.999266, 203, 305, 218, 432
-0.999269, 169, 49, 200, 176
-0.999273, 309, 81, 324, 208
-0.999281, 249, 305, 264, 432
-0.999291, 319, 321, 334, 448
-0.999298, 161, 97, 176, 224
-0.999301, 263, 305, 278, 432
-0.999303, 241, 305, 256, 432
-0.999304, 1, 305, 16, 432
-0.999307, 119, 257, 134, 384
-0.999314, 171, 97, 186, 224
-0.999315, 115, 97, 130, 224
-0.999317, 101, 321, 116, 448
-0.999326, 255, 305, 270, 432
-0.999333, 101, 97, 116, 224
-0.999334, 321, 81, 336, 208
-0.999334, 1, 1, 128, 64
-0.99934, 235, 305, 250, 432
-0.999356, 159, 321, 174, 448
-0.999356, 81, 1, 112, 256
-0.999372, 227, 305, 242, 432
-0.999374, 89, 289, 104, 416
-0.999379, 29, 305, 44, 432
-0.99938, 135, 273, 150, 400
-0.99938, 167, 321, 182, 448
-0.999386, 221, 305, 236, 432
-0.999387, 313, 129, 328, 256
-0.999392, 269, 33, 300, 288
-0.999399, 215, 305, 230, 432
-0.999408, 29, 129, 60, 256
-0.999421, 291, 65, 306, 192
-0.999427, 209, 305, 224, 432
-0.999428, 157, 257, 172, 384
-0.999429, 173, 1, 204, 256
-0.999431, 125, 257, 140, 384
-0.999432, 9, 193, 40, 448
-0.999435, 33, 377, 96, 440
-0.999438, 69, 49, 84, 176
-0.999439, 91, 97, 106, 224
-0.999442, 173, 321, 188, 448
-0.999443, 249, 105, 312, 168
-0.999452, 119, 145, 134, 272
-0.999459, 7, 305, 22, 432
-0.99946, 127, 145, 142, 272
-0.999462, 95, 49, 110, 176
-0.999466, 83, 81, 98, 208
-0.999467, 133, 1, 164, 256
-0.999467, 129, 97, 144, 224
-0.999468, 81, 197, 208, 228
-0.999483, 81, 201, 208, 264
-0.999485, 171, 145, 186, 272
-0.999486, 177, 97, 192, 224
-0.999497, 135, 65, 150, 192
-0.999507, 109, 49, 124, 176
-0.999511, 13, 273, 28, 400
-0.999513, 145, 65, 160, 192
-0.999516, 321, 177, 336, 304
-0.999524, 209, 29, 336, 60
-0.999524, 149, 161, 164, 288
-0.999529, 119, 49, 134, 176
-0.999529, 315, 81, 330, 208
-0.999532, 1, 17, 336, 80
-0.999535, 105, 145, 120, 272
-0.99954, 97, 1, 128, 128
-0.999541, 297, 81, 312, 208
-0.999542, 151, 65, 166, 192
-0.999542, 65, 1, 96, 256
-0.999544, 141, 273, 156, 400
-0.999547, 1, 81, 32, 208
-0.999555, 283, 65, 298, 192
-0.999559, 275, 49, 290, 176
-0.99956, 313, 209, 328, 336
-0.999561, 159, 145, 174, 272
-0.999564, 159, 151, 174, 166
-0.999565, 111, 145, 126, 272
-0.999565, 155, 103, 170, 118
-0.999566, 23, 359, 38, 374
-0.999566, 163, 135, 178, 150
-0.999566, 75, 105, 90, 120
-0.999566, 111, 133, 126, 148
-0.999566, 157, 129, 172, 144
-0.999567, 121, 187, 136, 202
-0.999567, 317, 405, 332, 420
-0.999567, 101, 49, 116, 176
-0.999567, 17, 395, 32, 410
-0.999568, 147, 165, 162, 180
-0.999568, 321, 123, 336, 138
-0.999568, 153, 117, 168, 132
-0.999568, 319, 135, 334, 150
-0.999568, 171, 279, 186, 294
-0.999568, 321, 149, 336, 164
-0.999569, 147, 157, 162, 172
-0.999569, 287, 377, 302, 392
-0.999569, 163, 103, 178, 118
-0.999569, 99, 111, 114, 126
-0.99957, 133, 121, 148, 136
-0.99957, 127, 111, 142, 126
-0.99957, 89, 117, 104, 132
-0.999571, 139, 161, 154, 176
-0.999571, 177, 143, 192, 158
-0.999571, 313, 133, 328, 148
-0.999571, 125, 139, 140, 154
-0.999571, 133, 193, 148, 208
-0.999572, 99, 101, 114, 116
-0.999572, 169, 415, 184, 430
-0.999572, 1, 431, 16, 446
-0.999572, 129, 179, 144, 194
-0.999573, 119, 153, 134, 168
-0.999573, 139, 145, 154, 160
-0.999573, 135, 167, 150, 182
-0.999574, 3, 129, 18, 256
-0.999574, 313, 123, 328, 138
-0.999574, 169, 113, 184, 128
-0.999574, 257, 129, 272, 256
-0.999574, 29, 371, 44, 386
-0.999574, 317, 141, 332, 156
-0.999574, 23, 367, 38, 382
-0.999575, 185, 33, 216, 160
-0.999575, 145, 127, 160, 142
-0.999575, 169, 123, 184, 138
-0.999576, 305, 131, 320, 146
-0.999576, 145, 101, 160, 116
-0.999576, 119, 131, 134, 146
-0.999576, 147, 175, 162, 190
-0.999577, 297, 151, 312, 166
-0.999577, 295, 139, 310, 154
-0.999578, 165, 145, 180, 272
-0.999578, 79, 121, 94, 136
-0.999578, 127, 49, 142, 176
-0.999578, 169, 157, 184, 172
-0.999579, 147, 139, 162, 154
-0.999579, 131, 187, 146, 202
-0.999579, 93, 103, 108, 118
-0.999579, 147, 121, 162, 136
-0.999579, 305, 139, 320, 154
-0.999579, 271, 343, 286, 358
-0.999579, 135, 95, 150, 110
-0.999579, 125, 153, 140, 168
-0.999579, 181, 161, 196, 176
-0.99958, 173, 137, 188, 152
-0.99958, 113, 101, 128, 116
-0.999581, 317, 155, 332, 170
-0.999581, 113, 185, 128, 200
-0.999581, 177, 123, 192, 138
-0.999581, 95, 127, 110, 142
-0.999582, 159, 157, 174, 172
-0.999582, 141, 139, 156, 154
-0.999582, 179, 155, 194, 170
-0.999583, 163, 111, 178, 126
-0.999584, 111, 139, 126, 154
-0.999584, 141, 185, 156, 200
-0.999584, 281, 339, 296, 354
-0.999584, 309, 153, 324, 168
-0.999586, 131, 137, 146, 152
-0.999587, 157, 135, 172, 150
-0.999587, 85, 1, 116, 128
-0.999587, 153, 187, 168, 202
-0.999589, 169, 131, 184, 146
-0.99959, 115, 111, 130, 126
-0.999591, 127, 105, 142, 120
-0.999591, 81, 105, 96, 120
-0.999591, 109, 111, 124, 126
-0.999592, 313, 263, 328, 278
-0.999592, 99, 117, 114, 132
-0.999593, 163, 129, 178, 144
-0.999593, 303, 345, 318, 360
-0.999593, 105, 103, 120, 118
-0.999593, 153, 157, 168, 172
-0.999593, 289, 353, 304, 368
-0.999594, 133, 103, 148, 118
-0.999594, 107, 121, 122, 136
-0.999595, 321, 129, 336, 144
-0.999595, 181, 353, 196, 368
-0.999595, 311, 255, 326, 270
-0.999595, 307, 339, 322, 354
-0.999596, 171, 151, 186, 166
-0.999596, 113, 121, 128, 136
-0.999596, 165, 151, 180, 166
-0.999596, 317, 163, 332, 178
-0.999596, 63, 49, 78, 176
-0.999597, 287, 339, 302, 354
-0.999597, 293, 33, 324, 288
-0.999597, 153, 149, 168, 164
-0.999597, 143, 151, 158, 166
-0.999598, 143, 193, 158, 208
-0.999599, 183, 81, 198, 208
-0.9996, 301, 353, 316, 368
-0.9996, 35, 321, 50, 448
-0.9996, 103, 129, 118, 144
-0.999601, 281, 357, 296, 372
-0.999601, 143, 177, 158, 304
-0.999602, 135, 155, 150, 170
-0.999602, 57, 81, 72, 208
-0.999604, 137, 173, 152, 188
-0.999606, 137, 133, 152, 148
-0.999606, 105, 135, 120, 150
-0.999607, 159, 169, 174, 184
-0.999607, 101, 287, 116, 302
-0.999609, 29, 377, 44, 392
-0.99961, 177, 269, 192, 284
-0.999611, 295, 353, 310, 368
-0.999613, 279, 345, 294, 360
-0.999613, 177, 255, 192, 270
-0.999614, 265, 351, 280, 366
-0.999614, 181, 177, 196, 304
-0.999614, 131, 131, 146, 146
-0.999614, 1, 225, 64, 352
-0.999614, 271, 357, 286, 372
-0.999615, 159, 179, 174, 194
-0.999616, 109, 127, 124, 142
-0.999619, 89, 49, 104, 176
-0.999624, 175, 49, 190, 176
-0.999624, 161, 49, 176, 176
-0.999625, 277, 373, 292, 388
-0.999626, 75, 33, 90, 160
-0.999634, 191, 113, 206, 240
-0.999639, 83, 321, 98, 448
-0.999642, 307, 351, 322, 366
-0.999642, 149, 195, 164, 210
-0.999643, 237, 209, 252, 336
-0.999644, 291, 347, 306, 362
-0.999644, 279, 351, 294, 366
-0.999644, 53, 65, 84, 320
-0.999645, 275, 365, 290, 380
-0.999646, 163, 225, 178, 352
-0.999648, 319, 129, 334, 256
-0.999651, 255, 209, 270, 336
-0.999653, 297, 347, 312, 362
-0.999658, 147, 257, 162, 384
-0.99966, 49, 241, 112, 304
-0.999661, 285, 347, 300, 362
-0.999684, 271, 351, 286, 366
-0.999708, 1, 1, 64, 256
-0.999717, 49, 393, 176, 424
-0.99972, 89, 97, 120, 352
-0.999766, 129, 193, 256, 224
-0.999795, 1, 241, 128, 272
-0.999808, 281, 1, 312, 256
-0.999816, 1, 265, 128, 296
-0.999839, 233, 65, 264, 192
-0.999848, 1, 45, 128, 76
-0.999852, 305, 33, 336, 160
-0.999864, 65, 33, 192, 64
-0.999878, 81, 1, 208, 32
-0.999879, 1, 65, 32, 320
-0.999911, 21, 97, 52, 352
-0.999957, 81, 241, 144, 368
-0.999985, 17, 225, 144, 288
-1.00004, 49, 253, 176, 284
-1.00007, 177, 237, 304, 268
-1.00008, 169, 25, 232, 88
-1.00011, 1, 1, 128, 128
-1.00012, 241, 25, 304, 88
-1.00014, 137, 225, 200, 288
-1.00018, 81, 13, 208, 44
-1.00027, 77, 97, 108, 352
-1.0003, 161, 1, 192, 128
-1.0003, 41, 97, 72, 352
-1.00033, 1, 253, 128, 284
-1.00034, 21, 193, 52, 448
-1.00035, 1, 29, 128, 60
-1.00035, 1, 13, 128, 44
-1.00036, 33, 193, 96, 448
-1.00036, 1, 1, 128, 32
-1.00037, 33, 241, 96, 368
-1.00042, 81, 209, 208, 240
-1.00043, 113, 237, 240, 268
-1.00048, 1, 229, 128, 260
-1.0005, 89, 209, 120, 336
-1.00051, 77, 193, 108, 448
-1.00054, 65, 229, 192, 260
-1.00054, 9, 225, 40, 352
-1.00055, 37, 193, 68, 448
-1.00056, 85, 145, 116, 272
-1.00056, 1, 209, 128, 240
-1.00059, 129, 17, 160, 144
-1.00061, 145, 17, 176, 144
-1.00069, 129, 205, 256, 236
-1.00073, 17, 1, 48, 256
-1.00074, 33, 1, 64, 256
-1.00076, 61, 113, 92, 240
-1.00081, 113, 25, 176, 88
-1.00082, 65, 217, 320, 280
-1.00086, 269, 17, 300, 144
-1.00092, 129, 225, 256, 256
-1.00093, 285, 17, 316, 144
-1.00096, 209, 181, 336, 212
-1.00097, 65, 193, 96, 448
-1.001, 161, 217, 288, 280
-1.00104, 65, 97, 96, 352
-1.00106, 177, 213, 304, 244
-1.00107, 209, 201, 336, 232
-1.00108, 1, 185, 336, 248
-1.00108, 209, 225, 336, 256
-1.00117, 73, 1, 104, 128
-1.00118, 1, 177, 32, 304
-1.00119, 17, 217, 80, 280
-1.00121, 241, 1, 304, 64
-1.00132, 57, 17, 120, 80
-1.00153, 109, 1, 140, 128
-1.00154, 53, 193, 84, 448
-1.00157, 13, 81, 44, 208
-1.00161, 77, 241, 108, 368
-1.00162, 65, 321, 96, 448
-1.00162, 65, 145, 128, 272
-1.00184, 109, 193, 140, 320
-1.00204, 121, 1, 184, 64
-1.00205, 21, 209, 52, 336
-1.00213, 9, 33, 72, 160
-1.0022, 9, 65, 72, 128
-1.00226, 33, 241, 64, 368
-1.00233, 221, 65, 252, 192
-1.00248, 29, 81, 60, 208
-1.00254, 173, 1, 204, 128
-1.00257, 61, 1, 92, 128
-1.00257, 97, 1, 160, 64
-1.0027, 1, 217, 336, 280
-1.00284, 265, 17, 328, 80
-1.00288, 273, 177, 336, 240
-1.00294, 41, 153, 104, 216
-1.00299, 49, 129, 80, 256
-1.00305, 193, 185, 320, 248
-1.00326, 65, 273, 96, 400
-1.00327, 209, 217, 336, 280
-1.00333, 273, 161, 336, 288
-1.00409, 25, 193, 88, 320
-1.00516, 33, 145, 96, 272
-1.00592, 65, 193, 128, 320
-1.00697, 1, 177, 64, 304
-1.00742, 41, 1, 104, 128
