1958
-0.333667, 1, 1, 500, 375
-0.469738, 1, 129, 500, 375
-0.473082, 1, 1, 500, 256
-0.502617, 257, 1, 500, 375
-0.564831, 65, 1, 320, 375
-0.573174, 65, 129, 320, 375
-0.671013, 161, 65, 416, 320
-0.681739, 161, 1, 416, 375
-0.689508, 257, 65, 500, 320
-0.700621, 1, 1, 256, 256
-0.859282, 113, 129, 240, 375
-0.85937, 1, 1, 128, 375
-0.859409, 49, 1, 176, 375
-0.860641, 225, 129, 352, 375
-0.86252, 81, 1, 208, 256
-0.870191, 1, 1, 128, 256
-0.877824, 113, 1, 240, 375
-0.878254, 49, 129, 176, 375
-0.882873, 273, 97, 400, 352
-0.884668, 353, 1, 480, 375
-0.886929, 225, 1, 352, 375
-0.890175, 305, 1, 432, 375
-0.895886, 1, 97, 128, 352
-0.897588, 145, 1, 272, 256
-0.902119, 1, 193, 500, 320
-0.90608, 177, 129, 304, 375
-0.909667, 1, 33, 500, 160
-0.910363, 321, 97, 448, 352
-0.910884, 1, 113, 500, 240
-0.911309, 225, 129, 480, 256
-0.911867, 209, 33, 336, 288
-0.914964, 273, 1, 400, 256
-0.915076, 129, 177, 384, 304
-0.915827, 1, 129, 256, 256
-0.91594, 129, 97, 384, 224
-0.916979, 1, 241, 500, 368
-0.919467, 353, 1, 480, 256
-0.91989, 177, 1, 304, 375
-0.924187, 65, 241, 320, 368
-0.926749, 1, 1, 256, 128
-0.927073, 49, 49, 176, 176
-0.92811, 1, 81, 256, 208
-0.928795, 89, 1, 152, 128
-0.931947, 33, 193, 288, 320
-0.932966, 369, 129, 496, 375
-0.934307, 49, 1, 176, 128
-0.935716, 105, 49, 168, 176
-0.937047, 81, 97, 208, 224
-0.938628, 225, 129, 352, 256
-0.939882, 129, 49, 384, 176
-0.940083, 129, 81, 192, 208
-0.940913, 65, 65, 128, 192
-0.941597, 281, 97, 344, 224
-0.942778, 161, 241, 416, 368
-0.944059, 225, 193, 480, 320
-0.944199, 113, 241, 240, 368
-0.945079, 193, 193, 320, 320
-0.945625, 89, 1, 152, 64
-0.945732, 105, 113, 168, 240
-0.945947, 137, 97, 200, 160
-0.947, 1, 49, 128, 176
-0.947045, 129, 129, 256, 256
-0.947237, 225, 81, 480, 208
-0.947792, 137, 129, 200, 256
-0.948107, 257, 241, 500, 368
-0.948759, 145, 177, 272, 304
-0.949501, 273, 97, 400, 224
-0.949941, 113, 1, 176, 128
-0.950333, 57, 1, 120, 128
-0.951016, 193, 193, 256, 320
-0.951215, 1, 97, 128, 224
-0.952538, 65, 145, 192, 272
-0.953657, 1, 1, 128, 128
-0.953991, 257, 33, 500, 160
-0.954315, 281, 97, 344, 160
-0.954708, 193, 241, 320, 368
-0.955203, 217, 209, 280, 336
-0.955357, 105, 113, 168, 176
-0.955761, 73, 129, 136, 256
-0.956031, 49, 209, 176, 336
-0.956087, 281, 137, 344, 200
-0.956353, 193, 185, 256, 248
-0.956575, 25, 17, 88, 144
-0.956766, 33, 113, 96, 240
-0.95728, 233, 161, 296, 288
-0.957511, 281, 145, 344, 272
-0.958154, 313, 113, 376, 240
-0.95856, 97, 193, 224, 320
-0.959139, 257, 129, 320, 256
-0.959177, 241, 193, 368, 320
-0.959481, 217, 177, 280, 240
-0.96028, 97, 1, 352, 128
-0.960322, 281, 209, 344, 336
-0.960683, 313, 241, 376, 368
-0.960974, 65, 105, 128, 168
-0.961094, 1, 65, 64, 192
-0.961415, 305, 225, 432, 352
-0.96142, 289, 289, 352, 352
-0.961929, 169, 129, 232, 256
-0.96219, 57, 9, 120, 72
-0.962977, 337, 129, 464, 256
-0.962999, 153, 81, 216, 208
-0.96317, 105, 57, 168, 120
-0.963234, 241, 153, 304, 216
-0.963291, 65, 129, 128, 192
-0.963359, 297, 313, 360, 375
-0.963402, 241, 241, 368, 368
-0.963463, 129, 81, 256, 208
-0.963608, 113, 1, 240, 128
-0.963852, 209, 81, 336, 208
-0.96386, 41, 65, 104, 192
-0.964155, 1, 209, 128, 336
-0.964588, 153, 177, 216, 304
-0.964819, 249, 81, 312, 208
-0.964903, 25, 225, 88, 352
-0.96491, 113, 209, 176, 336
-0.964938, 337, 177, 464, 304
-0.964962, 89, 33, 152, 96
-0.965188, 65, 81, 128, 144
-0.965283, 137, 17, 200, 144
-0.965683, 273, 313, 336, 375
-0.965872, 201, 297, 264, 360
-0.966181, 305, 49, 432, 176
-0.966282, 209, 145, 272, 272
-0.966843, 249, 297, 312, 360
-0.966879, 313, 281, 376, 344
-0.967285, 169, 201, 232, 264
-0.967488, 97, 89, 160, 152
-0.967496, 113, 1, 176, 64
-0.967565, 153, 241, 216, 368
-0.967733, 249, 129, 312, 192
-0.967747, 89, 241, 152, 368
-0.967842, 313, 65, 376, 192
-0.967851, 225, 185, 256, 248
-0.967872, 153, 81, 184, 208
-0.96788, 17, 161, 144, 288
-0.968064, 145, 129, 208, 192
-0.968118, 257, 241, 320, 368
-0.968493, 169, 169, 232, 232
-0.968642, 313, 137, 376, 200
-0.968667, 121, 297, 184, 360
-0.968889, 129, 65, 192, 320
-0.969078, 145, 193, 208, 256
-0.969343, 81, 57, 144, 120
-0.969433, 361, 113, 424, 240
-0.969474, 145, 297, 208, 360
-0.96959, 89, 1, 152, 256
-0.969715, 49, 209, 112, 336
-0.969784, 369, 49, 496, 176
-0.969907, 177, 241, 240, 368
-0.970181, 241, 177, 304, 240
-0.970185, 329, 313, 392, 375
-0.970229, 361, 33, 424, 160
-0.970244, 273, 145, 400, 272
-0.970271, 425, 1, 488, 128
-0.970375, 117, 1, 148, 64
-0.970493, 41, 97, 104, 160
-0.970596, 81, 273, 144, 336
-0.97066, 313, 161, 376, 288
-0.970776, 193, 185, 320, 248
-0.970822, 93, 1, 124, 64
-0.970877, 33, 129, 96, 192
-0.970983, 145, 185, 272, 248
-0.971022, 409, 49, 472, 176
-0.971053, 121, 265, 184, 328
-0.971208, 49, 73, 176, 136
-0.97152, 113, 25, 176, 88
-0.971641, 105, 137, 168, 200
-0.972191, 65, 33, 128, 96
-0.972375, 17, 177, 80, 304
-0.972423, 265, 161, 328, 224
-0.972677, 257, 49, 384, 176
-0.972688, 313, 105, 376, 168
-0.97275, 81, 97, 208, 160
-0.972816, 225, 297, 288, 360
-0.972963, 193, 297, 320, 360
-0.97302, 49, 1, 176, 64
-0.973224, 1, 89, 64, 152
-0.973299, 25, 1, 88, 256
-0.973315, 257, 177, 320, 304
-0.97339, 337, 113, 400, 240
-0.97361, 57, 129, 120, 375
-0.97375, 217, 201, 280, 264
-0.973778, 137, 33, 168, 160
-0.973854, 289, 49, 352, 176
-0.973876, 177, 297, 240, 360
-0.973976, 177, 129, 304, 256
-0.973982, 409, 161, 472, 288
-0.974002, 117, 1, 148, 128
-0.974006, 273, 97, 336, 352
-0.97403, 89, 305, 152, 368
-0.974047, 225, 273, 288, 336
-0.974172, 49, 121, 176, 184
-0.974376, 165, 81, 196, 208
-0.974554, 301, 81, 332, 208
-0.974556, 289, 169, 352, 232
-0.974814, 337, 1, 464, 128
-0.974885, 137, 81, 168, 208
-0.9749, 153, 65, 216, 320
-0.974962, 377, 185, 440, 248
-0.975044, 33, 65, 96, 128
-0.975182, 257, 313, 384, 375
-0.975684, 273, 265, 336, 328
-0.975741, 401, 1, 464, 128
-0.976108, 285, 137, 316, 200
-0.976179, 313, 193, 376, 256
-0.976354, 369, 161, 432, 288
-0.976464, 257, 129, 384, 192
-0.976635, 225, 177, 256, 304
-0.976738, 257, 105, 384, 168
-0.976767, 145, 297, 272, 360
-0.976782, 185, 265, 248, 328
-0.976824, 165, 129, 196, 256
-0.976829, 25, 25, 88, 88
-0.97696, 289, 129, 320, 256
-0.976962, 49, 33, 112, 288
-0.977079, 145, 169, 208, 232
-0.977355, 1, 225, 64, 352
-0.977358, 97, 297, 224, 360
-0.9774, 289, 81, 320, 208
-0.977475, 249, 273, 312, 336
-0.977546, 201, 225, 264, 288
-0.977636, 273, 289, 400, 352
-0.977723, 93, 81, 124, 208
-0.977726, 1, 81, 128, 144
-0.977944, 313, 81, 376, 144
-0.977961, 1, 137, 128, 200
-0.978068, 249, 105, 312, 168
-0.978071, 57, 57, 120, 120
-0.978123, 297, 145, 328, 208
-0.978174, 149, 89, 180, 152
-0.97819, 125, 49, 156, 176
-0.978284, 97, 121, 224, 184
-0.978315, 241, 201, 368, 264
-0.978507, 149, 129, 180, 256
-0.978582, 1, 113, 64, 240
-0.97865, 17, 201, 80, 264
-0.978664, 297, 97, 360, 352
-0.978775, 49, 273, 176, 336
-0.978801, 129, 65, 192, 128
-0.978889, 1, 97, 32, 160
-0.978969, 1, 17, 64, 144
-0.979049, 113, 265, 240, 328
-0.979085, 353, 241, 480, 368
-0.979095, 385, 81, 448, 208
-0.979205, 281, 73, 344, 136
-0.97937, 241, 201, 304, 264
-0.979446, 225, 273, 352, 336
-0.979472, 313, 257, 376, 320
-0.979544, 305, 121, 432, 184
-0.979546, 153, 265, 216, 328
-0.979667, 241, 177, 368, 240
-0.979717, 17, 281, 80, 344
-0.979732, 297, 225, 360, 288
-0.979738, 73, 153, 136, 216
-0.979775, 337, 289, 400, 352
-0.979806, 177, 129, 240, 375
-0.979846, 113, 233, 176, 296
-0.979914, 401, 225, 464, 352
-0.979916, 289, 1, 416, 128
-0.979975, 137, 17, 200, 80
-0.980095, 165, 89, 196, 152
-0.980106, 17, 241, 80, 304
-0.980165, 321, 281, 352, 344
-0.980171, 241, 161, 272, 288
-0.98037, 49, 49, 176, 112
-0.980375, 337, 129, 400, 192
-0.980383, 309, 129, 340, 256
-0.980397, 97, 81, 128, 144
-0.980474, 361, 9, 424, 72
-0.980502, 409, 49, 472, 112
-0.980506, 97, 129, 128, 192
-0.980614, 325, 313, 356, 375
-0.980681, 41, 153, 104, 216
-0.980742, 65, 153, 192, 216
-0.980749, 169, 121, 232, 184
-0.980799, 353, 105, 416, 168
-0.980803, 93, 33, 124, 96
-0.981007, 277, 297, 308, 360
-0.98102, 49, 161, 112, 288
-0.981126, 97, 17, 128, 144
-0.981129, 305, 313, 432, 375
-0.981163, 337, 217, 400, 280
-0.981227, 229, 225, 260, 352
-0.981234, 1, 113, 64, 176
-0.981257, 121, 33, 152, 96
-0.981284, 205, 185, 236, 248
-0.981499, 53, 1, 84, 128
-0.981509, 417, 161, 480, 224
-0.981516, 205, 297, 236, 360
-0.981528, 1, 105, 128, 168
-0.981559, 193, 145, 320, 208
-0.981597, 161, 209, 288, 272
-0.981667, 393, 297, 456, 360
-0.981674, 105, 1, 136, 64
-0.981743, 369, 241, 432, 368
-0.981753, 393, 1, 456, 256
-0.981803, 133, 129, 164, 192
-0.981812, 149, 17, 180, 144
-0.981831, 313, 169, 376, 232
-0.981887, 57, 305, 120, 368
-0.981892, 109, 113, 140, 176
-0.981947, 53, 65, 84, 192
-0.981959, 305, 97, 336, 160
-0.982009, 77, 105, 108, 168
-0.98202, 25, 177, 88, 240
-0.982047, 17, 249, 144, 312
-0.982053, 193, 161, 256, 224
-0.982095, 73, 177, 136, 304
-0.982143, 49, 313, 176, 375
-0.982303, 305, 97, 432, 160
-0.982386, 129, 97, 256, 160
-0.982431, 369, 161, 432, 224
-0.982436, 97, 105, 128, 168
-0.982444, 105, 97, 168, 352
-0.982473, 361, 1, 424, 256
-0.982476, 185, 193, 216, 256
-0.982493, 1, 81, 32, 208
-0.982577, 297, 241, 328, 368
-0.982659, 1, 33, 128, 96
-0.982686, 213, 177, 244, 304
-0.982708, 193, 297, 224, 360
-0.982714, 217, 153, 280, 216
-0.98277, 153, 145, 184, 208
-0.982808, 129, 241, 160, 368
-0.982906, 1, 65, 64, 128
-0.982986, 337, 209, 400, 336
-0.98303, 1, 57, 128, 120
-0.983088, 321, 241, 352, 368
-0.983094, 337, 289, 464, 352
-0.983172, 273, 153, 304, 216
-0.9832, 17, 97, 80, 352
-0.983204, 249, 129, 312, 375
-0.983342, 93, 57, 124, 120
-0.983397, 237, 185, 268, 248
-0.983411, 401, 1, 464, 64
-0.983453, 185, 241, 216, 368
-0.983598, 133, 49, 164, 112
-0.983598, 289, 89, 320, 152
-0.983632, 133, 297, 164, 360
-0.983689, 273, 153, 400, 216
-0.983703, 81, 137, 112, 200
-0.983767, 49, 25, 176, 88
-0.983776, 77, 113, 108, 240
-0.983789, 153, 121, 184, 184
-0.983794, 361, 65, 424, 128
-0.98387, 113, 65, 144, 192
-0.983892, 21, 65, 52, 192
-0.983897, 129, 73, 160, 136
-0.983898, 81, 1, 144, 375
-0.983919, 81, 97, 144, 352
-0.983971, 337, 65, 400, 192
-0.983983, 53, 25, 84, 88
-0.983993, 65, 129, 96, 256
-0.984001, 401, 193, 464, 256
-0.984049, 113, 209, 240, 272
-0.984101, 385, 49, 448, 112
-0.984106, 117, 313, 148, 375
-0.984113, 273, 121, 304, 184
-0.984152, 109, 241, 140, 368
-0.98416, 325, 113, 356, 176
-0.984185, 177, 265, 304, 328
-0.984187, 25, 1, 88, 64
-0.984206, 433, 161, 496, 288
-0.984221, 185, 177, 216, 304
-0.98423, 57, 233, 120, 296
-0.984275, 217, 129, 280, 375
-0.984298, 345, 169, 408, 232
-0.984322, 25, 1, 88, 375
-0.984324, 105, 25, 136, 88
-0.98433, 177, 97, 208, 224
-0.98433, 145, 161, 272, 224
-0.98433, 117, 89, 148, 152
-0.984342, 129, 265, 160, 328
-0.984349, 241, 209, 272, 336
-0.984388, 53, 89, 84, 152
-0.984388, 309, 137, 340, 200
-0.984405, 65, 177, 192, 240
-0.984477, 289, 193, 352, 256
-0.984477, 81, 249, 144, 312
-0.98453, 321, 193, 448, 256
-0.984536, 129, 9, 160, 72
-0.984546, 121, 1, 184, 375
-0.984622, 321, 97, 384, 352
-0.984641, 225, 225, 288, 288
-0.984641, 361, 281, 424, 344
-0.98465, 205, 241, 236, 368
-0.98466, 1, 161, 128, 224
-0.984673, 161, 33, 288, 160
-0.98473, 313, 313, 344, 375
-0.984776, 409, 97, 472, 224
-0.984778, 217, 297, 248, 360
-0.98479, 241, 73, 304, 136
-0.984815, 425, 1, 488, 64
-0.984876, 1, 137, 64, 200
-0.984902, 57, 129, 88, 192
-0.984934, 73, 1, 104, 128
-0.984962, 249, 177, 280, 240
-0.984994, 121, 201, 184, 264
-0.985029, 173, 129, 204, 192
-0.985047, 33, 305, 96, 368
-0.985069, 33, 225, 160, 288
-0.985113, 129, 105, 160, 168
-0.985128, 73, 9, 104, 72
-0.985138, 97, 1, 224, 64
-0.985211, 417, 305, 480, 368
-0.985272, 393, 137, 456, 200
-0.98529, 345, 305, 376, 368
-0.98529, 57, 281, 120, 344
-0.985379, 77, 65, 108, 192
-0.98543, 145, 121, 272, 184
-0.985433, 173, 201, 204, 264
-0.985464, 313, 81, 344, 208
-0.985479, 401, 233, 464, 296
-0.985534, 265, 297, 296, 360
-0.985616, 305, 73, 432, 136
-0.985656, 221, 161, 252, 224
-0.985675, 97, 233, 224, 296
-0.985687, 273, 233, 400, 296
-0.985741, 177, 33, 240, 288
-0.985773, 361, 41, 424, 104
-0.985804, 321, 217, 448, 280
-0.985805, 273, 265, 400, 328
-0.985859, 109, 273, 140, 336
-0.98589, 401, 177, 432, 240
-0.985892, 313, 1, 376, 256
-0.985916, 273, 161, 304, 288
-0.985938, 285, 161, 316, 224
-0.986029, 65, 81, 96, 208
-0.986054, 225, 81, 352, 144
-0.986096, 345, 161, 408, 288
-0.986106, 173, 241, 204, 368
-0.986128, 249, 33, 312, 288
-0.986205, 297, 281, 328, 344
-0.986234, 97, 73, 224, 136
-0.986261, 221, 209, 252, 272
-0.986264, 401, 1, 464, 375
-0.986397, 121, 169, 184, 232
-0.986441, 137, 129, 168, 256
-0.986471, 225, 225, 352, 288
-0.986472, 361, 305, 424, 368
-0.986481, 177, 81, 240, 208
-0.986493, 1, 281, 128, 344
-0.986513, 169, 145, 232, 208
-0.98656, 161, 233, 288, 296
-0.986585, 369, 49, 496, 112
-0.986608, 369, 209, 432, 272
-0.986678, 289, 305, 320, 368
-0.9867, 209, 121, 336, 184
-0.986734, 237, 273, 268, 336
-0.986753, 1, 1, 128, 64
-0.986787, 337, 241, 400, 304
-0.986794, 109, 113, 140, 240
-0.986815, 65, 209, 128, 272
-0.986817, 229, 129, 260, 256
-0.986819, 53, 65, 84, 128
-0.986849, 321, 169, 448, 232
-0.98698, 253, 241, 284, 368
-0.987032, 13, 97, 44, 160
-0.987082, 149, 297, 180, 360
-0.987082, 233, 297, 264, 360
-0.987133, 385, 265, 448, 328
-0.987151, 177, 225, 240, 288
-0.987235, 385, 25, 448, 88
-0.987254, 261, 161, 292, 224
-0.98727, 409, 49, 440, 176
-0.987288, 173, 193, 204, 320
-0.9873, 209, 33, 336, 160
-0.987308, 1, 1, 64, 256
-0.98738, 237, 161, 268, 224
-0.987386, 73, 57, 104, 120
-0.987396, 177, 97, 304, 160
-0.98741, 241, 209, 272, 272
-0.987513, 253, 265, 284, 328
-0.987524, 433, 49, 496, 176
-0.987535, 113, 161, 176, 288
-0.987552, 117, 57, 148, 120
-0.987552, 253, 161, 284, 288
-0.987577, 225, 97, 288, 224
-0.987599, 293, 113, 324, 176
-0.987623, 393, 113, 424, 240
-0.987636, 241, 33, 304, 160
-0.987656, 201, 161, 232, 288
-0.987683, 273, 81, 304, 208
-0.987686, 361, 129, 424, 192
-0.987699, 49, 177, 112, 240
-0.987728, 49, 1, 112, 375
-0.987741, 1, 73, 32, 136
-0.987799, 377, 1, 440, 375
-0.987867, 209, 265, 240, 328
-0.987931, 97, 41, 224, 104
-0.987952, 421, 177, 452, 304
-0.987963, 413, 193, 444, 256
-0.98807, 21, 73, 52, 136
-0.988078, 277, 241, 308, 368
-0.988095, 169, 169, 200, 232
-0.988147, 141, 25, 172, 88
-0.988163, 41, 209, 104, 272
-0.988168, 337, 9, 464, 72
-0.98819, 137, 41, 200, 104
-0.988246, 153, 233, 216, 296
-0.988275, 97, 129, 128, 256
-0.988281, 201, 161, 232, 224
-0.988365, 317, 185, 348, 248
-0.988425, 345, 193, 408, 256
-0.988432, 425, 241, 488, 304
-0.988456, 253, 297, 284, 360
-0.988459, 425, 225, 488, 352
-0.988461, 145, 1, 208, 375
-0.988479, 265, 273, 296, 336
-0.988495, 41, 1, 72, 128
-0.988528, 329, 1, 392, 64
-0.988529, 409, 49, 440, 112
-0.98857, 21, 225, 52, 288
-0.988589, 265, 185, 328, 248
-0.988622, 177, 201, 240, 232
-0.98864, 33, 129, 64, 192
-0.988657, 277, 273, 308, 336
-0.988665, 73, 81, 104, 144
-0.988672, 265, 241, 296, 368
-0.98872, 145, 9, 272, 72
-0.988738, 337, 201, 368, 264
-0.988811, 325, 81, 356, 208
-0.988815, 17, 17, 48, 144
-0.988843, 109, 249, 140, 312
-0.988862, 149, 169, 180, 232
-0.988893, 173, 297, 204, 360
-0.988901, 225, 249, 352, 312
-0.988905, 33, 201, 160, 264
-0.988924, 97, 241, 128, 368
-0.988937, 301, 193, 332, 320
-0.988952, 301, 313, 332, 375
-0.988955, 453, 1, 484, 128
-0.988968, 69, 137, 100, 200
-0.989013, 273, 1, 336, 375
-0.989036, 353, 265, 480, 328
-0.989037, 409, 177, 440, 304
-0.989059, 41, 241, 72, 368
-0.989087, 125, 97, 156, 224
-0.98909, 321, 225, 352, 288
-0.989104, 137, 105, 200, 136
-0.989104, 349, 113, 380, 240
-0.989133, 321, 137, 352, 200
-0.98919, 89, 5, 152, 36
-0.989211, 281, 1, 344, 256
-0.989213, 257, 113, 288, 240
-0.989237, 21, 209, 52, 336
-0.989238, 369, 137, 496, 200
-0.989249, 361, 113, 392, 240
-0.989253, 261, 137, 292, 200
-0.989263, 1, 305, 128, 368
-0.989297, 225, 233, 256, 296
-0.989315, 73, 33, 104, 96
-0.989336, 53, 113, 84, 240
-0.989337, 177, 73, 304, 136
-0.989399, 97, 121, 160, 152
-0.989405, 153, 241, 184, 368
-0.98943, 369, 313, 496, 375
-0.989499, 145, 193, 176, 320
-0.989504, 397, 137, 428, 200
-0.989517, 225, 273, 256, 336
-0.98957, 57, 209, 88, 336
-0.989585, 189, 265, 220, 328
-0.989604, 281, 93, 344, 124
-0.989635, 89, 57, 152, 88
-0.989652, 137, 121, 200, 152
-0.989664, 349, 129, 380, 192
-0.989672, 105, 57, 136, 120
-0.989687, 217, 241, 248, 368
-0.9897, 209, 193, 272, 224
-0.989717, 301, 257, 332, 320
-0.989749, 57, 13, 120, 44
-0.989762, 137, 93, 200, 124
-0.989779, 281, 117, 344, 148
-0.989797, 241, 169, 304, 200
-0.989805, 397, 161, 428, 288
-0.98982, 1, 1, 64, 375
-0.989854, 113, 5, 176, 36
-0.989868, 89, 41, 152, 72
-0.989889, 325, 257, 356, 320
-0.989911, 321, 241, 448, 304
-0.989916, 321, 161, 352, 288
-0.989923, 105, 21, 168, 52
-0.989935, 249, 153, 280, 216
-0.98997, 121, 225, 152, 288
-0.989992, 353, 97, 416, 352
-0.990006, 53, 1, 84, 64
-0.990006, 65, 117, 128, 148
-0.990028, 141, 1, 172, 64
-0.990035, 185, 169, 216, 232
-0.990085, 281, 105, 344, 136
-0.990097, 125, 193, 156, 320
-0.990139, 369, 185, 496, 248
-0.990152, 209, 213, 272, 244
-0.990153, 121, 289, 152, 352
-0.990171, 89, 69, 152, 100
-0.990176, 237, 233, 268, 296
-0.990178, 13, 137, 44, 200
-0.990195, 265, 33, 328, 160
-0.990202, 273, 169, 336, 200
-0.990218, 65, 137, 128, 168
-0.990236, 357, 297, 388, 360
-0.99024, 309, 241, 340, 368
-0.990254, 249, 305, 312, 336
-0.990273, 57, 25, 120, 56
-0.990283, 353, 105, 480, 168
-0.990296, 121, 137, 184, 168
-0.99031, 113, 97, 176, 128
-0.990316, 289, 301, 352, 332
-0.990327, 209, 181, 272, 212
-0.990333, 241, 1, 304, 375
-0.990339, 289, 129, 352, 160
-0.990354, 345, 273, 376, 336
-0.990412, 289, 321, 352, 352
-0.990434, 65, 57, 128, 88
-0.99044, 321, 133, 384, 164
-0.990474, 277, 97, 308, 160
-0.990495, 65, 105, 128, 136
-0.990499, 285, 177, 316, 304
-0.990525, 313, 285, 376, 316
-0.990545, 409, 1, 440, 128
-0.990568, 157, 1, 188, 64
-0.990583, 225, 161, 480, 224
-0.990595, 281, 141, 344, 172
-0.990655, 213, 129, 244, 256
-0.990666, 129, 297, 384, 360
-0.990695, 273, 153, 336, 184
-0.990719, 13, 201, 44, 264
-0.990727, 425, 193, 456, 256
-0.990733, 65, 77, 128, 108
-0.990751, 113, 109, 176, 140
-0.990752, 81, 169, 112, 232
-0.990762, 41, 209, 72, 272
-0.990771, 241, 193, 304, 224
-0.990789, 145, 197, 208, 228
-0.990803, 337, 249, 368, 312
-0.990806, 313, 313, 376, 344
-0.990827, 65, 185, 320, 248
-0.99083, 177, 257, 208, 320
-0.990839, 273, 181, 336, 212
-0.990849, 337, 209, 368, 336
-0.990857, 225, 301, 288, 332
-0.990874, 313, 17, 376, 144
-0.990876, 397, 49, 428, 112
-0.990897, 233, 181, 296, 212
-0.990916, 337, 297, 400, 328
-0.990928, 309, 289, 340, 352
-0.990948, 169, 185, 232, 216
-0.990961, 157, 265, 188, 328
-0.991003, 297, 337, 360, 368
-0.991013, 121, 301, 184, 332
-0.991014, 301, 73, 332, 136
-0.991015, 73, 93, 136, 124
-0.991023, 145, 141, 208, 172
-0.991029, 405, 97, 436, 224
-0.991034, 177, 337, 240, 368
-0.991052, 89, 105, 152, 136
-0.991059, 65, 45, 128, 76
-0.991077, 41, 81, 104, 112
-0.991078, 1, 273, 500, 336
-0.99108, 313, 121, 376, 152
-0.991083, 201, 337, 264, 368
-0.991088, 433, 113, 496, 240
-0.991103, 97, 133, 160, 164
-0.991153, 141, 241, 172, 368
-0.991154, 61, 305, 92, 368
-0.991157, 81, 29, 144, 60
-0.991157, 85, 1, 116, 128
-0.99116, 33, 93, 96, 124
-0.99119, 105, 337, 168, 368
-0.991194, 25, 117, 88, 148
-0.991204, 73, 153, 136, 184
-0.991209, 209, 225, 272, 256
-0.991224, 417, 1, 480, 256
-0.99124, 249, 141, 312, 172
-0.991246, 249, 157, 312, 188
-0.991252, 377, 181, 440, 212
-0.99126, 65, 265, 320, 328
-0.991269, 337, 1, 400, 375
-0.991275, 321, 109, 384, 140
-0.991289, 129, 17, 192, 48
-0.991324, 201, 301, 264, 332
-0.991327, 313, 301, 376, 332
-0.991332, 97, 317, 160, 348
-0.991338, 169, 213, 232, 244
-0.991342, 153, 329, 216, 360
-0.991352, 369, 225, 496, 288
-0.991357, 121, 313, 184, 344
-0.991377, 113, 33, 176, 64
-0.991419, 97, 85, 160, 116
-0.991442, 97, 113, 352, 176
-0.991444, 41, 145, 72, 272
-0.991455, 121, 57, 184, 88
-0.991455, 265, 129, 328, 160
-0.991459, 369, 161, 496, 224
-0.99147, 25, 69, 88, 100
-0.991525, 57, 1, 120, 32
-0.991533, 313, 145, 376, 176
-0.991536, 241, 209, 304, 240
-0.991546, 121, 269, 184, 300
-0.991571, 161, 185, 416, 248
-0.991578, 33, 129, 96, 160
-0.991585, 337, 313, 400, 344
-0.991619, 297, 161, 360, 192
-0.991624, 185, 325, 248, 356
-0.991625, 177, 301, 240, 332
-0.991637, 273, 49, 400, 112
-0.991638, 137, 209, 200, 240
-0.991648, 321, 333, 384, 364
-0.991664, 17, 289, 80, 320
-0.991666, 273, 289, 336, 320
-0.991675, 1, 81, 64, 112
-0.991681, 337, 1, 400, 128
-0.991709, 57, 165, 120, 196
-0.991711, 25, 33, 88, 64
-0.991713, 297, 1, 360, 375
-0.991729, 313, 177, 376, 208
-0.991765, 305, 209, 368, 240
-0.991767, 97, 305, 160, 336
-0.991781, 41, 81, 72, 208
-0.991783, 225, 337, 288, 368
-0.991808, 121, 77, 184, 108
-0.991814, 241, 129, 304, 160
-0.991816, 185, 225, 248, 256
-0.991833, 81, 17, 144, 48
-0.991843, 153, 301, 216, 332
-0.991851, 81, 277, 144, 308
-0.991852, 321, 145, 448, 208
-0.991863, 313, 93, 376, 124
-0.991871, 145, 341, 208, 372
-0.991873, 313, 273, 376, 304
-0.991875, 273, 1, 400, 64
-0.991878, 377, 113, 408, 240
-0.991882, 121, 285, 184, 316
-0.991884, 33, 141, 96, 172
-0.991885, 313, 221, 376, 252
-0.991904, 273, 333, 336, 364
-0.99191, 417, 177, 480, 208
-0.991919, 345, 129, 408, 160
-0.991919, 385, 193, 448, 224
-0.991957, 397, 17, 428, 144
-0.991986, 1, 101, 64, 132
-0.991992, 25, 301, 88, 332
-0.991994, 25, 21, 88, 52
-0.992, 161, 173, 224, 204
-0.992004, 137, 1, 200, 32
-0.992005, 401, 1, 464, 32
-0.992012, 1, 33, 32, 160
-0.992013, 1, 297, 500, 360
-0.992018, 29, 17, 60, 144
-0.992032, 337, 285, 400, 316
-0.992034, 401, 57, 464, 88
-0.992034, 145, 317, 208, 348
-0.992056, 121, 325, 184, 356
-0.992059, 33, 153, 96, 184
-0.992065, 129, 153, 384, 216
-0.99208, 385, 325, 448, 356
-0.992088, 361, 321, 424, 352
-0.992106, 281, 193, 344, 224
-0.992108, 81, 345, 144, 375
-0.992133, 105, 153, 168, 184
-0.99215, 33, 297, 288, 360
-0.992195, 385, 97, 448, 352
-0.99228, 433, 1, 496, 375
-0.992282, 169, 1, 232, 375
-0.992287, 257, 289, 500, 352
-0.992299, 465, 1, 496, 128
-0.992308, 221, 185, 252, 216
-0.992384, 337, 129, 368, 256
-0.992424, 1, 1, 256, 64
-0.992467, 413, 241, 444, 368
-0.992468, 233, 181, 264, 212
-0.99247, 221, 213, 252, 244
-0.992522, 281, 169, 312, 200
-0.99253, 157, 89, 188, 120
-0.992545, 97, 109, 128, 140
-0.992552, 177, 197, 208, 228
-0.992559, 289, 145, 320, 176
-0.992606, 353, 81, 480, 144
-0.99261, 1, 101, 32, 132
-0.992619, 157, 177, 188, 304
-0.992668, 153, 149, 184, 180
-0.992683, 117, 5, 148, 36
-0.992684, 277, 305, 308, 336
-0.992685, 297, 89, 328, 120
-0.992735, 1, 105, 256, 168
-0.992748, 281, 157, 312, 188
-0.99275, 325, 337, 356, 368
-0.992751, 205, 197, 236, 228
-0.99276, 97, 129, 128, 160
-0.992785, 185, 329, 216, 360
-0.992793, 325, 125, 356, 156
-0.992794, 261, 173, 292, 204
-0.992796, 93, 57, 124, 88
-0.992801, 349, 209, 380, 336
-0.992802, 77, 121, 108, 152
-0.99281, 225, 137, 480, 200
-0.992813, 1, 89, 32, 120
-0.992827, 225, 201, 256, 232
-0.992828, 105, 5, 136, 36
-0.992831, 157, 133, 188, 164
-0.992834, 133, 133, 164, 164
-0.992843, 137, 5, 168, 36
-0.992849, 121, 117, 152, 148
-0.992871, 93, 37, 124, 68
-0.99288, 305, 125, 336, 156
-0.992887, 1, 73, 256, 136
-0.992889, 313, 141, 344, 172
-0.992909, 93, 5, 124, 36
-0.992912, 301, 149, 332, 180
-0.99293, 137, 29, 168, 60
-0.992931, 125, 41, 156, 72
-0.992931, 149, 117, 180, 148
-0.992932, 313, 321, 344, 352
-0.992932, 53, 21, 84, 52
-0.992933, 201, 185, 232, 216
-0.992934, 121, 57, 152, 88
-0.992935, 297, 309, 328, 340
-0.992945, 349, 129, 380, 160
-0.992949, 93, 69, 124, 100
-0.992964, 321, 281, 352, 312
-0.992968, 93, 25, 124, 56
-0.992974, 117, 325, 148, 356
-0.992976, 121, 17, 152, 48
-0.992976, 33, 157, 64, 188
-0.992976, 21, 93, 52, 124
-0.992976, 133, 345, 164, 375
-0.992986, 173, 137, 204, 168
-0.992989, 273, 181, 304, 212
-0.992991, 153, 197, 184, 228
-0.992991, 333, 317, 364, 348
-0.992993, 265, 161, 296, 192
-0.992993, 193, 341, 224, 372
-0.992997, 281, 133, 312, 164
-0.993009, 165, 105, 196, 136
-0.993011, 249, 181, 280, 212
-0.993012, 205, 337, 236, 368
-0.993021, 249, 193, 280, 224
-0.993021, 73, 77, 104, 108
-0.993036, 193, 1, 256, 375
-0.993043, 105, 57, 136, 88
-0.993049, 133, 309, 164, 340
-0.993053, 145, 93, 176, 124
-0.993059, 117, 345, 148, 375
-0.993061, 141, 105, 172, 136
-0.993064, 205, 301, 236, 332
-0.993068, 13, 105, 44, 136
-0.993071, 221, 173, 252, 204
-0.993071, 333, 181, 364, 212
-0.993073, 309, 113, 340, 144
-0.993079, 141, 145, 172, 176
-0.99308, 305, 101, 336, 132
-0.99309, 137, 41, 168, 72
-0.993092, 137, 17, 168, 48
-0.9931, 293, 129, 324, 160
-0.993104, 133, 297, 164, 328
-0.993105, 109, 41, 140, 72
-0.993107, 269, 149, 300, 180
-0.993109, 129, 105, 160, 136
-0.99311, 241, 169, 272, 200
-0.993114, 133, 333, 164, 364
-0.993117, 1, 137, 256, 200
-0.993117, 393, 65, 424, 192
-0.993119, 53, 65, 84, 96
-0.993121, 229, 301, 260, 332
-0.993122, 81, 141, 112, 172
-0.993122, 253, 161, 284, 192
-0.993124, 117, 105, 148, 136
-0.993126, 13, 157, 44, 188
-0.993126, 133, 53, 164, 84
-0.993127, 129, 85, 160, 116
-0.993128, 285, 181, 316, 212
-0.993128, 73, 65, 104, 96
-0.993128, 77, 161, 108, 288
-0.993128, 73, 89, 104, 120
-0.993129, 321, 293, 352, 324
-0.993138, 109, 117, 140, 148
-0.993139, 285, 113, 316, 144
-0.993141, 285, 97, 316, 128
-0.993141, 161, 197, 288, 228
-0.993143, 349, 293, 380, 324
-0.993145, 269, 121, 300, 152
-0.99315, 413, 181, 444, 212
-0.993159, 105, 29, 136, 60
-0.993159, 237, 193, 268, 224
-0.993163, 121, 69, 152, 100
-0.993164, 117, 29, 148, 60
-0.993168, 29, 129, 60, 256
-0.993172, 221, 225, 252, 256
-0.993172, 189, 201, 220, 232
-0.993174, 53, 49, 84, 80
-0.993175, 345, 305, 376, 336
-0.993178, 53, 77, 84, 108
-0.993179, 297, 173, 328, 204
-0.993184, 217, 301, 248, 332
-0.993185, 341, 141, 372, 172
-0.993188, 61, 129, 92, 160
-0.993191, 165, 201, 196, 232
-0.993192, 145, 133, 176, 164
-0.993195, 93, 81, 124, 112
-0.993196, 317, 193, 348, 224
-0.9932, 105, 69, 136, 100
-0.9932, 165, 117, 196, 148
-0.993201, 169, 93, 200, 124
-0.993203, 73, 29, 104, 60
-0.993204, 113, 305, 144, 336
-0.993205, 233, 225, 264, 256
-0.993209, 233, 213, 264, 244
-0.993213, 17, 81, 48, 112
-0.993214, 53, 97, 84, 128
-0.993215, 73, 45, 104, 76
-0.993216, 69, 1, 100, 32
-0.993266, 301, 33, 332, 160
-0.993311, 357, 65, 388, 192
-0.993392, 97, 89, 352, 152
-0.993419, 49, 125, 176, 156
-0.993427, 361, 161, 392, 288
-0.993484, 257, 113, 500, 176
-0.993598, 17, 129, 48, 256
-0.993598, 161, 273, 416, 336
-0.993642, 169, 33, 232, 160
-0.993668, 257, 185, 500, 248
-0.993681, 429, 241, 460, 368
-0.993832, 97, 209, 352, 272
-0.993985, 369, 65, 400, 192
-0.994009, 441, 1, 472, 128
-0.994009, 129, 209, 256, 240
-0.99405, 241, 113, 272, 240
-0.99405, 113, 193, 144, 320
-0.994084, 291, 137, 306, 200
-0.994091, 145, 33, 272, 96
-0.994131, 273, 25, 400, 88
-0.994254, 373, 241, 404, 368
-0.994281, 33, 193, 64, 320
-0.994302, 97, 1, 112, 64
-0.994353, 241, 185, 256, 248
-0.994423, 49, 113, 176, 144
-0.994431, 193, 305, 320, 336
-0.994444, 1, 209, 256, 272
-0.994457, 161, 185, 288, 216
-0.994469, 297, 137, 312, 200
-0.994479, 257, 125, 384, 156
-0.994513, 441, 241, 472, 368
-0.994522, 257, 265, 500, 328
-0.994542, 227, 185, 242, 248
-0.994545, 257, 313, 500, 375
-0.994572, 397, 241, 428, 368
-0.994602, 321, 33, 448, 96
-0.994604, 1, 105, 500, 168
-0.99462, 209, 209, 336, 240
-0.99462, 201, 97, 264, 224
-0.994645, 217, 1, 280, 375
-0.994677, 201, 113, 232, 240
-0.994686, 1, 161, 256, 224
-0.994698, 425, 129, 456, 256
-0.994705, 97, 57, 112, 120
-0.994738, 285, 129, 300, 192
-0.994744, 425, 129, 488, 375
-0.994758, 285, 153, 300, 216
-0.994778, 49, 85, 176, 116
-0.994794, 437, 161, 468, 288
-0.994806, 257, 293, 384, 324
-0.994837, 209, 181, 336, 212
-0.994858, 97, 117, 224, 148
-0.994877, 129, 1, 144, 64
-0.994914, 165, 33, 196, 160
-0.994943, 225, 217, 480, 280
-0.994961, 81, 101, 208, 132
-0.994999, 1, 25, 256, 88
-0.994999, 97, 57, 352, 120
-0.995039, 257, 113, 384, 144
-0.99509, 1, 49, 256, 112
-0.995128, 417, 177, 432, 240
-0.995133, 1, 97, 128, 128
-0.995158, 337, 1, 400, 256
-0.995208, 111, 1, 126, 64
-0.995211, 185, 49, 216, 176
-0.99524, 49, 5, 176, 36
-0.995248, 1, 49, 128, 80
-0.99525, 1, 249, 500, 312
-0.995255, 273, 313, 400, 344
-0.995264, 217, 33, 280, 288
-0.99527, 305, 125, 432, 156
-0.995283, 103, 1, 118, 64
-0.995286, 1, 145, 500, 208
-0.995306, 225, 221, 352, 252
-0.995314, 99, 81, 114, 144
-0.995315, 121, 1, 136, 64
-0.995316, 319, 97, 334, 160
-0.995333, 49, 69, 176, 100
-0.99535, 421, 33, 452, 160
-0.995354, 33, 233, 288, 296
-0.995363, 1, 61, 128, 92
-0.995388, 17, 137, 144, 168
-0.995397, 277, 33, 308, 160
-0.995401, 385, 161, 416, 288
-0.995469, 145, 301, 272, 332
-0.995477, 133, 25, 148, 88
-0.995486, 149, 97, 164, 160
-0.995512, 49, 293, 176, 324
-0.995544, 81, 137, 208, 168
-0.995545, 1, 209, 500, 272
-0.99555, 277, 161, 292, 224
-0.995582, 113, 337, 240, 368
-0.995608, 177, 89, 192, 152
-0.995616, 225, 197, 352, 228
-0.995621, 97, 301, 224, 332
-0.995633, 297, 305, 312, 368
-0.995634, 153, 137, 168, 200
-0.995643, 225, 57, 352, 120
-0.995659, 273, 141, 400, 172
-0.995675, 141, 105, 156, 168
-0.995676, 49, 53, 176, 84
-0.995694, 97, 265, 224, 296
-0.995709, 143, 49, 158, 112
-0.995724, 209, 297, 224, 360
-0.995767, 337, 313, 352, 375
-0.995782, 147, 129, 162, 192
-0.99579, 1, 161, 128, 192
-0.995797, 187, 193, 202, 256
-0.99582, 233, 185, 248, 248
-0.995825, 1, 177, 500, 240
-0.995863, 369, 1, 400, 128
-0.995878, 9, 193, 40, 320
-0.995889, 155, 89, 170, 152
-0.995889, 289, 97, 304, 160
-0.995941, 257, 169, 384, 200
-0.995946, 251, 177, 266, 240
-0.995947, 1, 1, 500, 64
-0.995958, 257, 325, 384, 356
-0.995987, 165, 65, 196, 320
-0.996007, 137, 33, 168, 288
-0.996016, 225, 137, 352, 168
-0.996017, 311, 145, 326, 208
-0.996018, 221, 185, 236, 248
-0.996021, 153, 65, 184, 320
-0.996029, 159, 145, 174, 208
-0.996049, 291, 169, 306, 232
-0.996052, 285, 297, 300, 360
-0.996054, 81, 149, 208, 180
-0.996054, 177, 337, 304, 368
-0.996055, 203, 297, 218, 360
-0.996062, 323, 129, 338, 192
-0.996161, 257, 101, 384, 132
-0.996168, 33, 149, 160, 180
-0.996174, 65, 317, 192, 348
-0.99618, 19, 97, 34, 160
-0.99618, 121, 273, 136, 336
-0.996181, 129, 133, 256, 164
-0.996186, 113, 197, 240, 228
-0.996191, 181, 129, 196, 192
-0.996202, 257, 89, 500, 152
-0.996216, 321, 309, 448, 340
-0.996218, 129, 101, 256, 132
-0.996218, 113, 325, 240, 356
-0.996221, 1, 109, 128, 140
-0.996224, 115, 121, 130, 184
-0.996224, 325, 273, 340, 336
-0.996225, 197, 193, 212, 256
-0.996235, 195, 297, 210, 360
-0.996235, 305, 113, 432, 144
-0.996246, 215, 297, 230, 360
-0.99625, 193, 169, 320, 200
-0.99627, 295, 89, 310, 152
-0.996271, 321, 313, 336, 375
-0.996283, 111, 25, 126, 88
-0.996312, 53, 161, 84, 288
-0.996326, 301, 65, 332, 320
-0.996332, 127, 297, 142, 360
-0.996338, 291, 297, 306, 360
-0.996341, 1, 85, 128, 116
-0.996344, 17, 305, 144, 336
-0.996346, 101, 33, 116, 96
-0.996353, 65, 57, 80, 120
-0.99636, 1, 81, 500, 144
-0.996362, 289, 65, 320, 320
-0.996371, 381, 65, 412, 192
-0.996378, 279, 297, 294, 360
-0.996385, 303, 145, 318, 208
-0.996396, 67, 97, 82, 160
-0.996402, 105, 57, 120, 120
-0.996403, 91, 137, 106, 200
-0.996405, 411, 177, 426, 240
-0.996416, 317, 145, 332, 208
-0.99642, 257, 265, 272, 328
-0.996429, 1, 121, 128, 152
-0.996436, 453, 49, 484, 176
-0.996437, 135, 49, 150, 112
-0.996447, 257, 181, 384, 212
-0.996479, 131, 265, 146, 328
-0.996484, 121, 113, 136, 176
-0.996484, 71, 129, 86, 192
-0.996493, 65, 33, 80, 96
-0.996497, 225, 161, 240, 224
-0.996505, 49, 41, 176, 72
-0.996513, 9, 73, 24, 136
-0.996517, 131, 89, 146, 152
-0.99652, 233, 225, 248, 288
-0.996523, 99, 129, 114, 192
-0.996534, 121, 145, 152, 272
-0.996536, 229, 297, 244, 360
-0.996547, 109, 129, 124, 192
-0.996548, 215, 185, 230, 248
-0.996551, 83, 137, 98, 200
-0.996551, 339, 289, 354, 352
-0.996563, 267, 297, 282, 360
-0.996575, 423, 193, 438, 256
-0.996578, 161, 249, 416, 312
-0.996588, 165, 137, 180, 200
-0.996591, 161, 221, 288, 252
-0.996595, 225, 341, 352, 372
-0.996599, 189, 297, 204, 360
-0.996611, 321, 185, 448, 216
-0.996619, 17, 261, 144, 292
-0.996623, 33, 281, 160, 312
-0.99663, 347, 313, 362, 375
-0.996632, 65, 185, 192, 216
-0.996636, 223, 297, 238, 360
-0.996665, 113, 177, 240, 208
-0.996679, 295, 113, 310, 176
-0.996689, 193, 157, 320, 188
-0.996693, 257, 49, 500, 112
-0.996693, 305, 101, 432, 132
-0.996697, 111, 97, 126, 160
-0.996706, 257, 241, 500, 304
-0.996714, 175, 145, 190, 208
-0.996715, 65, 169, 192, 200
-0.99672, 225, 265, 352, 296
-0.996731, 151, 25, 166, 88
-0.996736, 225, 281, 352, 312
-0.996749, 181, 193, 196, 256
-0.996751, 241, 225, 256, 288
-0.996753, 97, 1, 224, 32
-0.99677, 409, 49, 424, 112
-0.996771, 225, 25, 480, 88
-0.996774, 17, 317, 144, 348
-0.996776, 139, 25, 154, 88
-0.996787, 331, 313, 346, 375
-0.996788, 235, 297, 250, 360
-0.996791, 117, 25, 132, 88
-0.996792, 49, 17, 176, 48
-0.996797, 177, 121, 304, 152
-0.996807, 305, 217, 432, 248
-0.996822, 343, 201, 358, 264
-0.996824, 1, 37, 128, 68
-0.996832, 177, 109, 304, 140
-0.996833, 171, 89, 186, 152
-0.996836, 263, 265, 278, 328
-0.996838, 419, 49, 434, 112
-0.996852, 1, 129, 32, 256
-0.996857, 165, 81, 180, 144
-0.996858, 193, 293, 320, 324
-0.996871, 1, 177, 128, 208
-0.996874, 419, 153, 434, 216
-0.99689, 49, 29, 176, 60
-0.996904, 17, 73, 32, 136
-0.996908, 91, 97, 106, 160
-0.996921, 215, 265, 230, 328
-0.996939, 117, 89, 132, 152
-0.996944, 273, 89, 400, 120
-0.996945, 305, 325, 432, 356
-0.996971, 183, 105, 198, 168
-0.996974, 289, 281, 416, 312
-0.996975, 99, 105, 114, 168
-0.996976, 255, 297, 270, 360
-0.996979, 193, 317, 320, 348
-0.99698, 97, 1, 352, 64
-0.996986, 117, 241, 132, 304
-0.996986, 97, 289, 224, 320
-0.996997, 273, 297, 288, 360
-0.997003, 155, 113, 170, 176
-0.997005, 77, 1, 108, 256
-0.997014, 91, 1, 106, 64
-0.997022, 3, 81, 18, 144
-0.997022, 77, 137, 92, 200
-0.997032, 245, 273, 260, 336
-0.997036, 247, 153, 262, 216
-0.997037, 305, 81, 320, 144
-0.99704, 27, 73, 42, 136
-0.99704, 187, 169, 202, 232
-0.997044, 65, 329, 192, 360
-0.997047, 33, 249, 160, 280
-0.997048, 1, 73, 128, 104
-0.997054, 281, 105, 296, 168
-0.997057, 113, 221, 240, 252
-0.997062, 411, 25, 426, 88
-0.997063, 239, 273, 254, 336
-0.997066, 193, 9, 320, 72
-0.997071, 135, 113, 150, 176
-0.997072, 337, 197, 464, 228
-0.997075, 81, 241, 112, 368
-0.997078, 251, 273, 266, 336
-0.997084, 273, 157, 400, 188
-0.997085, 97, 33, 352, 96
-0.997091, 177, 129, 208, 375
-0.997091, 95, 25, 110, 88
-0.997096, 285, 177, 300, 240
-0.997103, 127, 41, 142, 104
-0.997107, 241, 297, 256, 360
-0.997119, 209, 265, 224, 328
-0.997119, 351, 121, 366, 184
-0.99712, 347, 289, 362, 352
-0.99713, 337, 1, 464, 32
-0.997134, 279, 265, 294, 328
-0.997149, 97, 89, 224, 120
-0.99715, 1, 25, 500, 88
-0.997161, 305, 169, 432, 200
-0.997193, 145, 161, 272, 192
-0.997194, 305, 337, 432, 368
-0.997196, 33, 229, 160, 260
-0.997209, 1, 1, 128, 32
-0.997214, 53, 1, 84, 256
-0.997268, 305, 13, 432, 44
-0.99728, 305, 229, 432, 260
-0.997281, 113, 313, 240, 344
-0.9973, 277, 169, 292, 200
-0.997304, 369, 57, 496, 88
-0.997306, 289, 161, 304, 192
-0.99731, 65, 197, 192, 228
-0.997323, 289, 265, 416, 296
-0.997341, 385, 241, 416, 368
-0.997346, 337, 297, 464, 328
-0.997348, 419, 185, 434, 216
-0.99739, 97, 1, 128, 256
-0.997395, 77, 129, 108, 375
-0.997396, 49, 341, 176, 372
-0.997403, 49, 209, 176, 240
-0.997415, 437, 49, 468, 176
-0.99742, 161, 265, 288, 296
-0.997428, 177, 133, 304, 164
-0.997451, 155, 141, 170, 172
-0.997463, 227, 185, 242, 216
-0.997491, 465, 49, 496, 176
-0.997503, 25, 1, 56, 256
-0.997517, 5, 65, 36, 320
-0.997522, 409, 33, 440, 288
-0.997529, 141, 129, 172, 375
-0.997545, 293, 305, 308, 336
-0.997584, 145, 9, 272, 40
-0.997591, 97, 253, 224, 284
-0.997611, 283, 169, 298, 200
-0.997634, 1, 293, 128, 324
-0.997637, 353, 325, 480, 356
-0.997638, 317, 97, 348, 352
-0.997639, 121, 1, 152, 256
-0.997655, 97, 73, 112, 104
-0.997656, 57, 97, 88, 352
-0.997665, 225, 89, 352, 120
-0.997688, 97, 277, 224, 308
-0.997703, 369, 185, 496, 216
-0.997704, 239, 181, 254, 212
-0.997715, 295, 145, 310, 176
-0.99772, 135, 53, 150, 84
-0.997735, 185, 197, 200, 228
-0.997738, 19, 105, 34, 136
-0.997746, 161, 85, 288, 116
-0.997748, 1, 189, 128, 220
-0.997771, 317, 145, 332, 176
-0.997776, 113, 49, 240, 80
-0.997781, 129, 145, 256, 176
-0.997792, 145, 289, 272, 320
-0.997798, 353, 233, 480, 264
-0.997799, 273, 129, 304, 375
-0.9978, 1, 49, 500, 112
-0.997806, 95, 9, 110, 40
-0.997819, 179, 137, 194, 168
-0.997823, 249, 181, 264, 212
-0.997829, 131, 5, 146, 36
-0.997855, 353, 173, 480, 204
-0.997863, 225, 129, 256, 375
-0.997868, 337, 37, 464, 68
-0.997869, 279, 181, 294, 212
-0.997869, 193, 1, 448, 64
-0.997874, 1, 13, 128, 44
-0.997888, 141, 125, 156, 156
-0.997889, 215, 189, 230, 220
-0.997901, 153, 93, 168, 124
-0.997903, 305, 253, 432, 284
-0.997914, 89, 97, 120, 352
-0.997921, 241, 201, 256, 232
-0.997923, 97, 237, 224, 268
-0.997928, 13, 101, 28, 132
-0.997959, 143, 105, 158, 136
-0.997969, 209, 337, 224, 368
-0.997974, 287, 181, 302, 212
-0.997974, 305, 241, 432, 272
-0.997982, 257, 209, 384, 240
-0.997984, 147, 137, 162, 168
-0.997987, 241, 233, 368, 264
-0.998002, 223, 217, 238, 248
-0.99801, 205, 129, 236, 375
-0.99801, 125, 97, 156, 352
-0.998012, 305, 145, 320, 176
-0.998014, 253, 193, 268, 224
-0.998017, 285, 149, 300, 180
-0.998029, 243, 225, 258, 256
-0.99803, 273, 77, 400, 108
-0.998031, 337, 137, 464, 168
-0.998038, 143, 57, 158, 88
-0.998041, 111, 109, 126, 140
-0.998044, 179, 201, 194, 232
-0.998054, 303, 133, 318, 164
-0.998055, 175, 93, 190, 124
-0.998055, 125, 5, 140, 36
-0.99806, 337, 25, 464, 56
-0.998062, 195, 325, 210, 356
-0.998075, 295, 165, 310, 196
-0.998081, 97, 21, 112, 52
-0.998092, 97, 73, 224, 104
-0.998098, 163, 89, 178, 120
-0.998107, 225, 33, 352, 96
-0.998113, 287, 305, 302, 336
-0.998122, 335, 317, 350, 348
-0.998127, 221, 189, 236, 220
-0.998129, 289, 137, 304, 168
-0.998138, 189, 329, 204, 360
-0.99814, 181, 109, 196, 140
-0.998143, 103, 29, 118, 60
-0.998147, 319, 101, 334, 132
-0.998148, 99, 105, 114, 136
-0.998155, 311, 133, 326, 164
-0.998162, 101, 117, 116, 148
-0.998169, 411, 177, 426, 208
-0.99817, 167, 149, 182, 180
-0.998179, 99, 53, 114, 84
-0.99818, 255, 173, 270, 204
-0.998184, 11, 89, 26, 120
-0.998191, 69, 129, 84, 160
-0.998192, 415, 197, 430, 228
-0.998193, 113, 25, 128, 56
-0.998195, 137, 41, 152, 72
-0.998196, 301, 89, 316, 120
-0.998203, 425, 189, 440, 220
-0.998219, 173, 205, 188, 236
-0.998225, 273, 181, 288, 212
-0.998231, 217, 201, 232, 232
-0.998233, 113, 5, 128, 36
-0.998238, 119, 5, 134, 36
-0.998241, 263, 173, 278, 204
-0.998247, 103, 5, 118, 36
-0.99825, 181, 97, 196, 128
-0.998252, 169, 89, 184, 120
-0.998256, 97, 85, 112, 116
-0.998257, 143, 45, 158, 76
-0.99826, 191, 197, 206, 228
-0.998261, 233, 173, 248, 204
-0.998261, 229, 213, 244, 244
-0.998269, 203, 337, 218, 368
-0.998271, 295, 93, 310, 124
-0.998274, 1, 93, 16, 124
-0.99828, 65, 61, 80, 92
-0.998282, 337, 333, 352, 364
-0.998283, 325, 277, 340, 308
-0.998287, 97, 33, 112, 64
-0.998294, 237, 129, 268, 375
-0.998298, 135, 117, 150, 148
-0.998298, 133, 29, 148, 60
-0.998303, 49, 161, 64, 192
-0.998304, 197, 201, 212, 232
-0.998306, 127, 57, 142, 88
-0.998312, 109, 1, 140, 256
-0.998321, 323, 137, 338, 168
-0.998328, 397, 97, 428, 352
-0.998329, 311, 153, 326, 184
-0.998329, 321, 321, 336, 352
-0.998332, 211, 177, 226, 208
-0.998333, 143, 29, 158, 60
-0.998334, 133, 65, 148, 96
-0.998338, 287, 105, 302, 136
-0.998338, 165, 137, 180, 168
-0.998344, 65, 49, 80, 80
-0.998345, 107, 57, 122, 88
-0.998347, 221, 173, 236, 204
-0.998348, 421, 205, 436, 236
-0.998348, 297, 133, 312, 164
-0.998351, 173, 145, 188, 176
-0.998354, 111, 129, 126, 160
-0.998357, 245, 169, 260, 200
-0.99837, 213, 301, 228, 332
-0.99837, 73, 85, 104, 100
-0.998371, 93, 45, 124, 60
-0.998371, 53, 21, 84, 36
-0.998372, 121, 31, 152, 46
-0.998372, 253, 175, 284, 190
-0.998372, 129, 319, 160, 334
-0.998373, 93, 81, 124, 96
-0.998374, 81, 137, 112, 152
-0.998374, 241, 177, 272, 192
-0.998375, 293, 135, 324, 150
-0.998375, 297, 309, 328, 324
-0.998375, 133, 347, 164, 362
-0.998376, 165, 105, 196, 120
-0.998376, 69, 7, 100, 22
-0.998376, 271, 169, 286, 200
-0.998377, 117, 37, 148, 52
-0.998377, 389, 325, 420, 340
-0.998378, 285, 157, 316, 172
-0.998378, 397, 319, 428, 334
-0.998378, 121, 57, 136, 88
-0.998378, 161, 197, 192, 212
-0.998379, 109, 103, 140, 118
-0.998379, 221, 181, 252, 196
-0.99838, 153, 155, 184, 170
-0.99838, 149, 125, 180, 140
-0.998381, 127, 317, 142, 348
-0.998381, 77, 123, 108, 138
-0.998381, 131, 101, 146, 132
-0.998382, 161, 143, 192, 158
-0.998382, 133, 303, 164, 318
-0.998382, 343, 313, 358, 344
-0.998382, 21, 97, 52, 352
-0.998383, 233, 185, 248, 216
-0.998383, 129, 313, 160, 328
-0.998383, 309, 105, 340, 120
-0.998384, 249, 199, 280, 214
-0.998386, 289, 103, 320, 118
-0.998386, 53, 63, 84, 78
-0.998386, 293, 163, 324, 178
-0.998386, 137, 135, 168, 150
-0.998386, 193, 343, 224, 358
-0.998387, 73, 71, 104, 86
-0.998388, 153, 203, 184, 218
-0.998388, 57, 135, 88, 150
-0.998388, 165, 129, 196, 144
-0.998388, 33, 161, 64, 176
-0.998389, 321, 279, 352, 294
-0.998389, 137, 115, 168, 130
-0.998389, 327, 321, 342, 352
-0.998389, 113, 59, 144, 74
-0.99839, 209, 303, 240, 318
-0.99839, 205, 213, 236, 228
-0.99839, 93, 9, 124, 24
-0.99839, 277, 139, 308, 154
-0.998391, 297, 175, 328, 190
-0.998392, 269, 305, 300, 320
-0.998392, 349, 309, 380, 324
-0.998392, 77, 131, 108, 146
-0.998393, 105, 77, 136, 92
-0.998393, 313, 145, 344, 160
-0.998394, 93, 107, 124, 122
-0.998394, 305, 131, 336, 146
-0.998395, 149, 103, 180, 118
-0.998396, 277, 157, 292, 188
-0.998396, 325, 139, 356, 154
-0.998396, 97, 127, 128, 142
-0.998397, 185, 329, 216, 344
-0.998397, 221, 207, 252, 222
-0.998397, 1, 99, 32, 114
-0.998397, 269, 133, 300, 148
-0.998397, 233, 201, 264, 216
-0.998397, 129, 103, 160, 118
-0.998397, 231, 301, 246, 332
-0.998398, 93, 51, 124, 66
-0.998398, 133, 55, 164, 70
-0.998399, 133, 341, 164, 356
-0.998401, 117, 339, 148, 354
-0.998402, 93, 67, 124, 82
-0.998403, 133, 61, 164, 76
-0.998404, 351, 129, 366, 160
-0.998404, 119, 117, 134, 148
-0.998405, 141, 3, 172, 18
-0.998405, 205, 183, 236, 198
-0.998405, 281, 307, 312, 322
-0.998406, 93, 57, 124, 72
-0.998406, 129, 361, 160, 375
-0.998407, 233, 209, 264, 224
-0.998408, 129, 49, 160, 64
-0.998408, 321, 319, 352, 334
-0.998408, 97, 121, 128, 136
-0.99841, 93, 29, 124, 44
-0.99841, 13, 159, 44, 174
-0.998411, 297, 317, 328, 332
-0.998413, 121, 25, 152, 40
-0.998413, 105, 29, 136, 44
-0.998415, 201, 203, 232, 218
-0.998415, 373, 13, 388, 44
-0.998415, 237, 229, 252, 260
-0.998417, 337, 315, 368, 330
-0.998419, 161, 149, 176, 180
-0.998421, 117, 73, 148, 88
-0.998422, 5, 111, 36, 126
-0.998423, 149, 143, 180, 158
-0.998423, 333, 191, 364, 206
-0.998424, 329, 339, 360, 354
-0.998424, 261, 181, 292, 196
-0.998425, 137, 33, 168, 48
-0.998425, 349, 135, 380, 150
-0.998425, 171, 133, 186, 164
-0.998426, 117, 7, 148, 22
-0.998426, 281, 181, 312, 196
-0.998428, 173, 193, 188, 224
-0.998428, 297, 91, 328, 106
-0.998428, 149, 131, 180, 146
-0.998432, 325, 133, 356, 148
-0.998432, 137, 141, 168, 156
-0.998433, 89, 9, 152, 24
-0.998434, 93, 39, 124, 54
-0.998437, 301, 141, 332, 156
-0.998437, 141, 9, 172, 24
-0.998437, 241, 193, 272, 208
-0.998439, 129, 41, 160, 56
-0.998439, 269, 175, 300, 190
-0.998439, 53, 27, 84, 42
-0.99844, 153, 1, 168, 32
-0.998441, 97, 115, 128, 130
-0.998441, 121, 67, 152, 82
-0.998443, 137, 19, 168, 34
-0.998445, 151, 125, 166, 156
-0.998446, 367, 293, 382, 324
-0.998447, 177, 203, 240, 218
-0.998447, 307, 89, 322, 120
-0.998449, 221, 223, 252, 238
-0.99845, 121, 119, 152, 134
-0.99845, 419, 57, 434, 88
-0.998451, 201, 325, 216, 356
-0.998453, 185, 337, 216, 352
-0.998455, 93, 75, 124, 90
-0.998459, 157, 149, 188, 164
-0.998462, 269, 165, 300, 180
-0.998462, 137, 27, 168, 42
-0.99847, 209, 197, 272, 212
-0.99847, 293, 147, 324, 162
-0.998473, 221, 193, 252, 208
-0.998473, 17, 105, 48, 120
-0.998476, 221, 201, 252, 216
-0.99848, 205, 197, 236, 212
-0.998481, 249, 171, 312, 186
-0.998487, 229, 215, 260, 230
-0.998488, 157, 137, 188, 152
-0.998488, 273, 33, 304, 288
-0.99849, 281, 105, 344, 120
-0.998497, 153, 201, 216, 216
-0.998499, 209, 203, 272, 218
-0.998504, 137, 115, 200, 130
-0.998505, 89, 77, 152, 92
-0.998507, 217, 191, 280, 206
-0.998509, 129, 93, 192, 108
-0.998509, 113, 9, 176, 24
-0.99851, 97, 125, 160, 140
-0.998511, 137, 109, 200, 124
-0.998513, 281, 135, 344, 150
-0.998513, 57, 21, 120, 36
-0.998514, 137, 135, 200, 150
-0.998514, 137, 121, 200, 136
-0.998515, 97, 113, 160, 128
-0.998516, 137, 129, 200, 144
-0.998516, 65, 129, 128, 144
-0.998516, 73, 115, 136, 130
-0.99852, 281, 127, 344, 142
-0.998523, 177, 209, 240, 224
-0.998524, 177, 203, 208, 218
-0.998524, 281, 163, 312, 178
-0.998524, 137, 99, 200, 114
-0.998524, 313, 137, 376, 152
-0.998525, 233, 183, 264, 198
-0.998528, 97, 119, 160, 134
-0.998529, 105, 31, 168, 46
-0.998529, 113, 107, 176, 122
-0.998532, 97, 135, 160, 150
-0.998533, 89, 59, 152, 74
-0.998535, 281, 119, 344, 134
-0.998536, 129, 141, 192, 156
-0.998538, 273, 177, 336, 192
-0.99854, 5, 105, 36, 120
-0.99854, 281, 99, 344, 114
-0.998541, 289, 311, 352, 326
-0.998542, 209, 225, 272, 240
-0.998545, 41, 1, 72, 256
-0.998545, 249, 165, 312, 180
-0.998546, 281, 111, 344, 126
-0.998546, 157, 93, 188, 108
-0.998546, 105, 25, 168, 40
-0.998547, 249, 305, 312, 320
-0.998548, 345, 129, 376, 375
-0.99855, 249, 97, 280, 352
-0.99855, 57, 27, 120, 42
-0.99855, 177, 197, 240, 212
-0.99855, 209, 215, 272, 230
-0.998554, 57, 11, 120, 26
-0.998555, 65, 135, 128, 150
-0.998556, 65, 77, 128, 92
-0.998556, 273, 143, 336, 158
-0.998557, 273, 163, 336, 178
-0.99856, 265, 183, 328, 198
-0.998561, 65, 71, 128, 86
-0.998563, 81, 103, 144, 118
-0.998563, 57, 33, 120, 48
-0.998564, 289, 321, 352, 336
-0.998566, 297, 305, 360, 320
-0.998567, 209, 185, 272, 200
-0.998571, 33, 87, 96, 102
-0.998571, 313, 143, 376, 158
-0.998573, 289, 149, 352, 164
-0.998573, 65, 123, 128, 138
-0.998574, 89, 71, 152, 86
-0.998576, 89, 41, 152, 56
-0.998576, 113, 101, 176, 116
-0.998577, 145, 207, 208, 222
-0.998578, 337, 313, 400, 328
-0.998579, 113, 19, 176, 34
-0.998581, 281, 171, 312, 186
-0.998581, 289, 171, 352, 186
-0.998582, 81, 97, 144, 112
-0.998582, 241, 177, 304, 192
-0.998585, 313, 317, 376, 332
-0.998585, 73, 109, 136, 124
-0.998587, 65, 63, 128, 78
-0.998588, 57, 95, 120, 110
-0.998589, 97, 53, 160, 68
-0.998589, 241, 203, 304, 218
-0.99859, 313, 131, 376, 146
-0.998591, 221, 187, 252, 202
-0.998591, 217, 179, 280, 194
-0.998591, 233, 185, 296, 200
-0.998593, 1, 109, 64, 124
-0.998595, 113, 3, 176, 18
-0.998597, 249, 139, 312, 154
-0.998597, 57, 41, 120, 56
-0.998598, 25, 101, 88, 116
-0.998598, 385, 191, 448, 206
-0.998598, 289, 93, 352, 108
-0.998599, 225, 305, 288, 320
-0.998599, 113, 147, 176, 162
-0.998599, 321, 117, 384, 132
-0.9986, 57, 1, 120, 16
-0.998602, 89, 17, 152, 32
-0.998603, 209, 209, 272, 224
-0.998603, 313, 289, 376, 304
-0.998603, 57, 55, 120, 70
-0.998606, 33, 135, 96, 150
-0.998607, 57, 141, 120, 156
-0.998608, 177, 183, 240, 198
-0.99861, 121, 317, 184, 332
-0.998611, 105, 341, 168, 356
-0.998611, 313, 283, 376, 298
-0.998611, 105, 47, 168, 62
-0.998612, 153, 93, 216, 108
-0.998612, 181, 33, 212, 288
-0.998612, 153, 145, 216, 160
-0.998613, 193, 191, 256, 206
-0.998614, 241, 191, 304, 206
-0.998614, 193, 303, 256, 318
-0.998615, 65, 159, 128, 174
-0.998615, 65, 83, 128, 98
-0.998616, 33, 81, 96, 96
-0.998617, 321, 111, 384, 126
-0.998618, 129, 35, 192, 50
-0.998618, 345, 307, 408, 322
-0.998618, 129, 25, 192, 40
-0.998618, 209, 231, 272, 246
-0.998619, 281, 155, 344, 170
-0.998619, 241, 197, 304, 212
-0.998619, 65, 49, 128, 64
-0.99862, 33, 93, 96, 108
-0.99862, 377, 181, 440, 196
-0.998621, 313, 193, 376, 208
-0.998621, 49, 113, 112, 128
-0.998622, 57, 89, 120, 104
-0.998622, 105, 141, 168, 156
-0.998622, 273, 301, 336, 316
-0.998622, 313, 295, 376, 310
-0.998622, 321, 339, 384, 354
-0.998623, 137, 11, 200, 26
-0.998625, 97, 321, 160, 336
-0.998625, 241, 209, 304, 224
-0.998626, 297, 339, 360, 354
-0.998626, 193, 347, 256, 362
-0.99864, 113, 97, 144, 352
-0.998643, 159, 81, 174, 208
-0.998661, 141, 49, 156, 176
-0.998695, 193, 129, 224, 375
-0.998709, 289, 1, 352, 128
-0.998717, 315, 81, 330, 208
-0.998732, 169, 81, 184, 208
-0.998736, 45, 129, 76, 375
-0.998756, 377, 1, 408, 256
-0.99876, 177, 81, 192, 208
-0.998761, 101, 129, 132, 375
-0.998763, 357, 65, 388, 320
-0.998774, 97, 1, 112, 128
-0.998794, 231, 177, 246, 304
-0.998841, 135, 1, 150, 128
-0.998859, 295, 81, 310, 208
-0.998863, 177, 129, 192, 256
-0.998885, 397, 1, 428, 256
-0.998893, 309, 81, 324, 208
-0.998899, 241, 177, 256, 304
-0.998902, 321, 97, 336, 224
-0.998918, 301, 81, 316, 208
-0.998929, 151, 81, 166, 208
-0.998933, 329, 65, 360, 320
-0.998953, 149, 33, 164, 160
-0.998969, 421, 33, 452, 288
-0.998971, 125, 1, 140, 128
-0.998983, 135, 49, 150, 176
-0.998983, 225, 161, 240, 288
-0.998994, 99, 49, 114, 176
-0.998998, 153, 129, 168, 256
-0.999013, 159, 129, 174, 256
-0.999025, 315, 129, 330, 256
-0.999036, 291, 129, 306, 256
-0.999043, 225, 209, 240, 336
-0.99905, 67, 65, 82, 192
-0.999089, 253, 161, 268, 288
-0.999095, 65, 1, 96, 256
-0.9991, 289, 81, 304, 208
-0.999103, 65, 17, 80, 144
-0.999112, 33, 97, 64, 352
-0.999126, 305, 129, 320, 256
-0.999126, 193, 241, 208, 368
-0.999138, 77, 129, 92, 256
-0.999139, 183, 97, 198, 224
-0.999144, 411, 1, 426, 128
-0.999157, 129, 65, 144, 192
-0.999165, 11, 65, 26, 192
-0.999168, 299, 129, 314, 256
-0.999173, 429, 129, 460, 375
-0.999175, 111, 49, 126, 176
-0.999181, 93, 97, 108, 224
-0.999189, 247, 177, 262, 304
-0.999193, 235, 225, 250, 352
-0.999196, 243, 225, 258, 352
-0.999205, 115, 97, 130, 224
-0.999207, 171, 129, 186, 256
-0.999214, 185, 241, 200, 368
-0.999225, 263, 241, 278, 368
-0.999225, 261, 65, 292, 320
-0.999232, 165, 129, 180, 256
-0.999233, 325, 241, 340, 368
-0.999233, 143, 97, 158, 224
-0.999235, 285, 129, 300, 256
-0.999243, 419, 177, 434, 304
-0.999244, 87, 129, 102, 256
-0.999245, 207, 241, 222, 368
-0.999253, 155, 1, 170, 128
-0.999254, 183, 193, 198, 320
-0.999258, 103, 1, 118, 128
-0.999263, 231, 129, 246, 256
-0.999264, 119, 1, 134, 128
-0.999269, 417, 49, 432, 176
-0.999269, 199, 241, 214, 368
-0.999277, 17, 81, 32, 208
-0.999281, 141, 1, 156, 128
-0.999284, 99, 97, 114, 224
-0.999284, 121, 225, 136, 352
-0.999287, 253, 241, 268, 368
-0.999291, 305, 241, 320, 368
-0.999293, 105, 81, 120, 208
-0.999293, 331, 225, 346, 352
-0.999294, 199, 193, 214, 320
-0.999307, 189, 177, 204, 304
-0.999313, 71, 113, 86, 240
-0.999321, 131, 209, 146, 336
-0.999323, 59, 1, 74, 128
-0.999327, 241, 129, 256, 256
-0.999327, 407, 113, 422, 240
-0.999329, 277, 241, 292, 368
-0.999331, 179, 241, 194, 368
-0.999338, 311, 241, 326, 368
-0.999338, 113, 241, 128, 368
-0.999345, 219, 161, 234, 288
-0.999349, 319, 241, 334, 368
-0.999351, 213, 241, 228, 368
-0.999351, 89, 1, 104, 128
-0.999353, 299, 241, 314, 368
-0.999357, 121, 65, 136, 192
-0.999359, 247, 129, 262, 256
-0.999362, 409, 129, 440, 375
-0.999363, 283, 81, 298, 208
-0.999368, 453, 1, 468, 128
-0.99937, 21, 33, 36, 160
-0.999374, 91, 49, 106, 176
-0.999375, 419, 129, 434, 256
-0.999376, 289, 241, 304, 368
-0.999377, 449, 33, 480, 288
-0.999377, 279, 161, 294, 288
-0.999381, 219, 241, 234, 368
-0.999381, 407, 49, 422, 176
-0.999388, 157, 241, 172, 368
-0.999389, 259, 177, 274, 304
-0.999402, 3, 81, 18, 208
-0.999403, 337, 241, 352, 368
-0.999404, 27, 49, 42, 176
-0.999407, 109, 129, 124, 256
-0.999408, 467, 1, 482, 128
-0.999409, 325, 161, 340, 288
-0.999411, 327, 113, 342, 240
-0.999424, 411, 161, 426, 288
-0.999425, 59, 225, 74, 352
-0.99943, 107, 241, 122, 368
-0.999431, 145, 193, 160, 320
-0.999432, 317, 1, 348, 256
-0.999433, 295, 193, 310, 320
-0.999433, 163, 241, 178, 368
-0.999435, 113, 1, 128, 128
-0.999438, 391, 129, 406, 256
-0.999439, 73, 1, 88, 128
-0.99944, 461, 1, 476, 128
-0.999441, 41, 81, 56, 208
-0.999443, 11, 17, 26, 144
-0.999446, 137, 113, 152, 240
-0.999447, 171, 241, 186, 368
-0.99945, 417, 1, 432, 128
-0.999451, 413, 113, 428, 240
-0.999451, 147, 241, 162, 368
-0.999452, 385, 97, 416, 352
-0.999454, 369, 97, 400, 352
-0.999465, 315, 193, 330, 320
-0.999466, 43, 225, 58, 352
-0.999467, 287, 177, 302, 304
-0.999469, 121, 113, 136, 240
-0.99947, 131, 129, 146, 256
-0.999471, 269, 209, 284, 336
-0.999476, 59, 65, 74, 192
-0.999477, 177, 193, 192, 320
-0.999477, 347, 129, 362, 256
-0.999489, 225, 33, 256, 288
-0.999557, 133, 45, 148, 60
-0.999559, 97, 69, 112, 84
-0.99956, 225, 303, 240, 318
-0.99956, 155, 95, 170, 110
-0.99956, 245, 227, 260, 242
-0.999561, 171, 209, 186, 224
-0.999561, 99, 121, 114, 136
-0.999561, 139, 125, 154, 140
-0.999561, 101, 127, 116, 142
-0.999562, 425, 201, 440, 216
-0.999562, 293, 157, 308, 172
-0.999562, 287, 109, 302, 124
-0.999563, 125, 67, 140, 82
-0.999563, 65, 59, 80, 74
-0.999563, 351, 309, 366, 324
-0.999564, 137, 73, 152, 88
-0.999564, 293, 177, 308, 192
-0.999564, 295, 313, 310, 328
-0.999564, 143, 37, 158, 52
-0.999565, 153, 9, 168, 24
-0.999566, 119, 73, 134, 88
-0.999566, 133, 37, 148, 52
-0.999566, 149, 105, 164, 120
-0.999566, 111, 33, 126, 48
-0.999567, 287, 115, 302, 130
-0.999567, 99, 55, 114, 70
-0.999567, 215, 199, 230, 214
-0.999567, 339, 317, 354, 332
-0.999568, 345, 313, 360, 328
-0.999568, 291, 143, 306, 158
-0.999569, 213, 181, 228, 196
-0.999569, 411, 181, 426, 196
-0.999569, 271, 169, 286, 184
-0.999569, 415, 199, 430, 214
-0.999569, 195, 209, 210, 224
-0.99957, 233, 183, 248, 198
-0.99957, 131, 73, 146, 88
-0.99957, 337, 335, 352, 350
-0.999571, 283, 305, 298, 320
-0.999572, 25, 107, 40, 122
-0.999573, 101, 9, 116, 24
-0.999573, 311, 153, 326, 168
-0.999573, 285, 153, 300, 168
-0.999574, 181, 109, 196, 124
-0.999575, 113, 71, 128, 86
-0.999575, 21, 197, 36, 212
-0.999575, 173, 93, 188, 108
-0.999575, 137, 51, 152, 66
-0.999575, 161, 1, 176, 16
-0.999576, 243, 205, 258, 220
-0.999577, 249, 193, 264, 208
-0.999577, 143, 57, 158, 72
-0.999577, 97, 33, 112, 48
-0.999578, 161, 91, 176, 106
-0.999579, 103, 29, 118, 44
-0.999579, 117, 29, 132, 44
-0.999581, 99, 111, 114, 126
-0.999582, 107, 21, 122, 36
-0.999582, 143, 43, 158, 58
-0.999583, 255, 191, 270, 206
-0.999584, 215, 193, 230, 208
-0.999584, 353, 133, 368, 148
-0.999584, 219, 211, 234, 226
-0.999586, 319, 105, 334, 120
-0.999586, 227, 207, 242, 222
-0.999587, 301, 149, 316, 164
-0.999587, 125, 7, 140, 22
-0.999588, 185, 201, 200, 216
-0.99959, 65, 65, 80, 80
-0.99959, 245, 185, 260, 200
-0.99959, 113, 77, 128, 92
-0.99959, 199, 203, 214, 218
-0.999591, 193, 327, 208, 342
-0.999592, 273, 183, 288, 198
-0.999593, 95, 81, 110, 96
-0.999593, 19, 111, 34, 126
-0.999595, 187, 331, 202, 346
-0.999595, 167, 149, 182, 164
-0.999596, 95, 21, 110, 36
-0.999596, 229, 213, 244, 228
-0.999596, 209, 341, 224, 356
-0.999598, 295, 171, 310, 186
-0.999599, 319, 147, 334, 162
-0.999599, 131, 67, 146, 82
-0.9996, 175, 133, 190, 148
-0.9996, 235, 233, 250, 248
-0.999601, 155, 149, 170, 164
-0.999601, 177, 145, 192, 160
-0.999602, 147, 141, 162, 156
-0.999603, 95, 9, 110, 24
-0.999604, 143, 49, 158, 64
-0.999606, 131, 7, 146, 22
-0.999607, 415, 189, 430, 204
-0.999607, 279, 169, 294, 184
-0.999609, 125, 73, 140, 88
-0.999609, 239, 191, 254, 206
-0.99961, 223, 225, 238, 240
-0.999612, 311, 145, 326, 160
-0.999613, 137, 63, 152, 78
-0.999619, 103, 75, 118, 90
-0.999619, 145, 135, 160, 150
-0.999619, 97, 27, 112, 42
-0.999624, 193, 201, 208, 216
-0.999629, 293, 163, 308, 178
-0.99963, 285, 181, 300, 196
-0.999631, 177, 205, 192, 220
-0.999631, 197, 337, 212, 352
-0.999631, 421, 195, 436, 210
-0.999631, 109, 27, 124, 42
-0.999635, 69, 133, 84, 148
-0.99964, 141, 115, 156, 130
-0.99964, 253, 185, 268, 200
-0.999643, 275, 163, 290, 178
-0.999647, 11, 105, 26, 120
-0.999651, 279, 185, 294, 200
-0.999657, 293, 307, 308, 322
-0.999659, 229, 189, 244, 204
-0.999663, 421, 189, 436, 204
-0.999663, 97, 75, 112, 90
-0.999664, 137, 57, 152, 72
-0.999664, 275, 175, 290, 190
-0.999664, 417, 183, 432, 198
-0.999669, 285, 159, 300, 174
-0.999669, 153, 143, 168, 158
-0.999676, 239, 185, 254, 200
-0.999676, 281, 175, 296, 190
-0.999688, 433, 33, 464, 288
-0.999698, 223, 187, 238, 202
-0.999715, 289, 171, 304, 186
-0.999749, 19, 105, 34, 120
-0.99977, 285, 165, 300, 180
-0.999801, 205, 33, 236, 288
-0.999948, 469, 33, 500, 288
-1.00011, 341, 1, 372, 256
-1.00017, 449, 129, 480, 375
-1.0003, 249, 1, 280, 256
-1.00046, 237, 33, 268, 288
-1.00053, 193, 33, 224, 288
-1.00062, 465, 129, 496, 375
-1.00104, 201, 1, 264, 128
-1.00333, 209, 49, 272, 176
