1972
-0.300697, 1, 1, 500, 375
-0.316242, 65, 1, 320, 375
-0.445613, 1, 97, 500, 352
-0.468227, 1, 1, 500, 256
-0.481595, 1, 1, 256, 256
-0.548481, 97, 33, 352, 288
-0.557383, 257, 1, 500, 375
-0.559183, 161, 1, 416, 375
-0.637065, 1, 97, 256, 352
-0.700797, 193, 1, 448, 256
-0.711141, 97, 129, 352, 375
-0.762207, 193, 97, 448, 352
-0.813847, 145, 1, 272, 256
-0.833861, 177, 1, 304, 375
-0.835907, 17, 33, 144, 288
-0.845958, 17, 1, 144, 375
-0.846401, 193, 33, 320, 288
-0.847848, 81, 1, 208, 256
-0.849441, 97, 1, 224, 375
-0.850111, 1, 129, 128, 375
-0.855166, 49, 129, 176, 375
-0.865982, 97, 97, 224, 352
-0.87229, 145, 97, 272, 352
-0.884833, 225, 1, 352, 375
-0.886997, 209, 129, 336, 375
-0.887596, 1, 1, 500, 128
-0.891356, 1, 17, 256, 144
-0.891666, 1, 65, 500, 192
-0.897635, 1, 65, 256, 192
-0.901763, 33, 129, 288, 256
-0.904944, 97, 33, 352, 160
-0.90563, 1, 113, 500, 240
-0.907874, 9, 97, 72, 224
-0.911055, 257, 1, 384, 256
-0.911132, 97, 81, 352, 208
-0.913742, 337, 1, 464, 256
-0.913899, 321, 1, 448, 375
-0.914527, 1, 177, 256, 304
-0.916741, 369, 1, 496, 375
-0.918381, 1, 209, 500, 336
-0.918553, 145, 17, 272, 144
-0.918965, 273, 1, 400, 375
-0.919275, 17, 65, 144, 192
-0.92031, 33, 1, 96, 128
-0.920453, 49, 49, 112, 176
-0.922078, 81, 33, 144, 160
-0.922093, 1, 1, 128, 128
-0.922956, 1, 113, 128, 240
-0.924873, 49, 113, 112, 240
-0.925431, 121, 1, 184, 128
-0.926243, 257, 129, 384, 375
-0.926266, 1, 161, 64, 288
-0.926472, 97, 81, 224, 208
-0.927662, 177, 113, 304, 240
-0.927866, 9, 17, 72, 144
-0.928738, 217, 33, 280, 160
-0.929268, 25, 145, 88, 272
-0.929534, 369, 97, 496, 352
-0.930397, 81, 17, 208, 144
-0.930709, 161, 65, 288, 192
-0.931176, 1, 161, 500, 288
-0.931518, 225, 49, 480, 176
-0.932165, 97, 177, 352, 304
-0.932686, 57, 1, 120, 128
-0.933725, 129, 129, 384, 256
-0.933936, 73, 129, 136, 256
-0.935058, 225, 145, 352, 272
-0.935214, 177, 1, 240, 128
-0.935357, 73, 81, 136, 208
-0.936127, 1, 161, 128, 288
-0.936152, 33, 225, 288, 352
-0.936399, 177, 49, 240, 176
-0.937813, 97, 97, 160, 224
-0.937952, 81, 129, 208, 256
-0.938936, 9, 177, 72, 240
-0.939822, 225, 49, 352, 176
-0.940776, 49, 169, 112, 232
-0.941566, 145, 33, 208, 160
-0.943185, 121, 49, 184, 176
-0.943472, 193, 1, 320, 128
-0.943477, 241, 49, 304, 176
-0.944178, 193, 193, 320, 320
-0.9443, 129, 145, 256, 272
-0.944481, 257, 129, 500, 256
-0.944696, 1, 105, 64, 168
-0.945002, 1, 145, 64, 208
-0.94514, 169, 113, 232, 240
-0.946155, 217, 81, 280, 208
-0.947169, 33, 73, 96, 136
-0.947403, 201, 129, 264, 256
-0.947706, 17, 241, 80, 368
-0.947865, 241, 113, 304, 240
-0.947883, 193, 1, 448, 128
-0.948056, 49, 161, 112, 288
-0.948357, 73, 177, 136, 304
-0.94854, 57, 49, 120, 112
-0.948574, 73, 185, 136, 248
-0.948718, 97, 161, 160, 288
-0.94939, 81, 89, 144, 152
-0.949476, 49, 145, 112, 208
-0.949844, 25, 33, 88, 96
-0.950922, 17, 209, 144, 336
-0.951277, 57, 89, 120, 152
-0.951352, 241, 161, 304, 288
-0.951454, 33, 105, 96, 168
-0.951514, 17, 1, 80, 64
-0.951539, 65, 113, 128, 176
-0.951604, 137, 161, 200, 288
-0.95184, 177, 1, 240, 64
-0.952022, 249, 1, 312, 128
-0.952054, 57, 9, 120, 72
-0.952127, 161, 161, 224, 288
-0.952256, 81, 49, 144, 112
-0.952745, 33, 201, 96, 264
-0.952823, 89, 113, 152, 176
-0.952998, 129, 193, 256, 320
-0.953267, 81, 25, 144, 88
-0.953403, 1, 313, 64, 375
-0.953527, 169, 65, 232, 128
-0.953878, 1, 65, 64, 128
-0.953996, 129, 49, 192, 112
-0.954198, 137, 1, 200, 64
-0.954559, 73, 145, 136, 208
-0.954567, 25, 137, 88, 200
-0.955026, 209, 33, 272, 96
-0.955217, 81, 193, 208, 320
-0.955707, 241, 1, 368, 128
-0.955749, 209, 193, 272, 320
-0.956812, 137, 25, 200, 88
-0.956933, 1, 33, 64, 96
-0.957076, 201, 105, 264, 168
-0.957515, 161, 225, 416, 352
-0.957589, 97, 177, 160, 240
-0.957807, 265, 129, 328, 256
-0.958092, 1, 65, 32, 192
-0.958439, 105, 25, 168, 88
-0.958518, 45, 113, 76, 240
-0.958675, 249, 129, 312, 192
-0.958852, 9, 65, 72, 320
-0.95905, 225, 97, 352, 224
-0.959259, 193, 177, 448, 304
-0.959693, 29, 33, 60, 160
-0.959795, 41, 153, 72, 216
-0.959982, 129, 89, 192, 152
-0.959995, 73, 209, 136, 272
-0.960231, 21, 129, 52, 256
-0.960608, 209, 1, 272, 256
-0.960808, 49, 1, 112, 256
-0.960828, 185, 193, 248, 320
-0.960953, 17, 273, 80, 336
-0.961218, 129, 217, 192, 280
-0.961355, 41, 33, 72, 160
-0.961599, 217, 137, 280, 200
-0.961634, 225, 201, 288, 264
-0.961881, 17, 1, 48, 128
-0.96193, 1, 129, 32, 256
-0.962154, 305, 97, 432, 352
-0.962176, 21, 185, 52, 248
-0.962298, 57, 1, 88, 128
-0.962482, 53, 161, 84, 224
-0.962523, 177, 105, 240, 168
-0.962551, 1, 105, 32, 168
-0.962862, 37, 49, 68, 112
-0.96294, 13, 65, 44, 192
-0.963334, 17, 65, 48, 128
-0.963415, 29, 81, 60, 144
-0.963415, 13, 89, 44, 152
-0.963469, 57, 161, 88, 288
-0.963494, 121, 113, 184, 240
-0.963577, 21, 129, 52, 192
-0.963584, 161, 161, 224, 224
-0.963654, 57, 185, 88, 248
-0.963723, 193, 201, 256, 264
-0.963895, 9, 209, 72, 272
-0.963899, 233, 89, 296, 152
-0.963903, 33, 185, 64, 248
-0.964069, 21, 161, 52, 224
-0.964071, 5, 1, 36, 128
-0.964117, 25, 193, 88, 320
-0.964389, 1, 57, 32, 120
-0.964766, 33, 145, 64, 272
-0.964856, 25, 25, 56, 88
-0.964947, 9, 233, 72, 296
-0.965057, 145, 81, 208, 208
-0.965156, 33, 81, 64, 208
-0.965276, 9, 201, 40, 264
-0.965334, 105, 65, 168, 128
-0.965583, 145, 241, 272, 368
-0.965691, 161, 41, 288, 104
-0.965738, 41, 241, 104, 368
-0.965827, 177, 1, 240, 256
-0.965827, 29, 1, 60, 64
-0.965877, 45, 185, 76, 248
-0.965911, 57, 113, 88, 240
-0.965935, 25, 105, 56, 168
-0.965958, 161, 137, 224, 200
-0.965985, 5, 169, 36, 232
-0.966091, 177, 25, 240, 88
-0.966162, 273, 129, 336, 192
-0.966169, 17, 65, 144, 128
-0.966205, 193, 73, 256, 136
-0.966207, 129, 209, 192, 336
-0.966209, 13, 177, 44, 304
-0.966339, 5, 129, 36, 192
-0.966422, 25, 305, 88, 368
-0.966565, 81, 1, 144, 256
-0.966654, 129, 177, 192, 240
-0.966662, 57, 129, 88, 192
-0.966699, 105, 209, 168, 336
-0.966907, 41, 25, 72, 88
-0.966957, 1, 177, 32, 304
-0.966965, 73, 113, 104, 240
-0.967027, 97, 1, 160, 64
-0.967093, 105, 89, 168, 152
-0.967198, 57, 73, 88, 136
-0.967215, 45, 129, 76, 192
-0.967263, 13, 41, 44, 104
-0.967494, 97, 145, 160, 208
-0.967496, 41, 225, 104, 288
-0.967512, 105, 129, 136, 256
-0.967519, 129, 145, 192, 208
-0.96769, 225, 57, 288, 120
-0.967853, 17, 105, 144, 168
-0.967908, 37, 105, 68, 168
-0.967953, 73, 97, 136, 352
-0.968022, 1, 81, 32, 144
-0.968048, 73, 161, 104, 224
-0.968061, 193, 145, 256, 208
-0.968167, 113, 81, 240, 144
-0.96823, 129, 1, 256, 64
-0.968521, 153, 113, 216, 176
-0.968558, 97, 201, 160, 264
-0.968732, 57, 49, 88, 176
-0.968942, 121, 1, 184, 256
-0.96895, 245, 33, 276, 160
-0.968985, 225, 113, 288, 176
-0.969271, 121, 1, 152, 128
-0.969275, 1, 177, 128, 240
-0.969304, 5, 1, 36, 64
-0.969387, 1, 137, 128, 200
-0.969421, 17, 1, 48, 64
-0.969486, 249, 57, 312, 120
-0.969489, 161, 209, 224, 336
-0.969579, 1, 1, 128, 64
-0.969694, 273, 81, 336, 208
-0.969925, 217, 17, 248, 144
-0.969986, 57, 25, 88, 88
-0.970001, 97, 105, 224, 168
-0.970012, 37, 193, 68, 320
-0.970021, 49, 41, 176, 104
-0.97004, 101, 9, 132, 72
-0.970173, 433, 113, 496, 240
-0.970196, 69, 57, 100, 120
-0.970499, 145, 1, 208, 256
-0.970607, 161, 73, 288, 136
-0.970758, 73, 185, 104, 248
-0.970844, 153, 217, 216, 280
-0.970862, 53, 49, 84, 112
-0.970867, 25, 313, 56, 375
-0.97088, 37, 313, 68, 375
-0.970921, 21, 209, 52, 272
-0.970924, 25, 225, 56, 352
-0.970967, 41, 73, 72, 136
-0.970991, 417, 1, 480, 128
-0.970992, 369, 81, 496, 208
-0.97101, 417, 65, 480, 192
-0.971023, 273, 145, 400, 272
-0.97106, 241, 161, 304, 224
-0.971098, 97, 241, 224, 368
-0.971214, 201, 177, 264, 240
-0.971303, 93, 97, 124, 224
-0.971313, 73, 89, 104, 152
-0.971317, 161, 97, 288, 160
-0.97139, 85, 169, 116, 232
-0.971423, 189, 17, 220, 144
-0.971449, 177, 145, 304, 208
-0.971461, 105, 49, 136, 176
-0.971476, 93, 137, 124, 200
-0.971523, 101, 1, 132, 128
-0.971575, 289, 145, 352, 272
-0.971724, 153, 185, 216, 248
-0.971775, 433, 209, 496, 336
-0.971802, 353, 33, 480, 160
-0.971857, 93, 65, 124, 128
-0.972014, 201, 1, 232, 64
-0.972015, 37, 289, 68, 352
-0.972016, 1, 25, 128, 88
-0.972227, 33, 209, 64, 272
-0.972347, 77, 17, 108, 144
-0.972539, 97, 161, 128, 224
-0.972603, 97, 33, 224, 96
-0.97269, 73, 129, 104, 192
-0.972782, 233, 65, 296, 320
-0.972839, 273, 65, 400, 192
-0.97295, 17, 201, 144, 264
-0.972953, 49, 17, 176, 80
-0.973008, 101, 113, 132, 176
-0.973109, 1, 241, 32, 368
-0.973213, 33, 97, 96, 352
-0.973294, 65, 225, 128, 352
-0.973297, 229, 17, 260, 144
-0.973459, 177, 33, 208, 160
-0.97346, 81, 161, 208, 224
-0.973523, 49, 97, 80, 160
-0.973575, 245, 81, 276, 208
-0.973646, 245, 41, 276, 104
-0.973793, 93, 33, 124, 96
-0.973801, 1, 25, 32, 88
-0.973894, 161, 97, 224, 352
-0.973994, 57, 281, 120, 344
-0.974017, 117, 113, 148, 240
-0.974022, 185, 241, 248, 368
-0.974146, 465, 209, 496, 272
-0.974167, 181, 1, 212, 64
-0.97417, 49, 137, 176, 200
-0.974272, 169, 1, 200, 64
-0.974292, 105, 57, 136, 120
-0.974406, 129, 209, 256, 272
-0.974443, 5, 225, 36, 288
-0.974491, 121, 113, 184, 176
-0.974539, 69, 1, 100, 64
-0.974595, 161, 121, 288, 184
-0.974603, 9, 313, 40, 375
-0.974768, 201, 225, 264, 288
-0.974816, 33, 129, 64, 192
-0.97503, 93, 145, 124, 272
-0.9751, 81, 41, 112, 104
-0.975173, 85, 113, 116, 176
-0.975253, 225, 129, 352, 192
-0.975259, 57, 281, 88, 344
-0.975266, 65, 73, 192, 136
-0.975266, 105, 137, 136, 200
-0.97531, 105, 81, 136, 144
-0.975329, 105, 33, 136, 96
-0.975344, 89, 1, 120, 128
-0.975348, 433, 73, 496, 136
-0.975401, 41, 241, 72, 368
-0.975578, 97, 97, 160, 352
-0.975597, 97, 129, 224, 192
-0.975754, 193, 241, 320, 368
-0.975889, 153, 241, 216, 304
-0.975914, 13, 241, 44, 368
-0.976013, 117, 113, 148, 176
-0.976141, 1, 265, 128, 328
-0.976154, 157, 1, 188, 64
-0.976195, 201, 105, 232, 168
-0.9762, 41, 1, 72, 64
-0.976223, 177, 97, 208, 224
-0.976259, 385, 17, 448, 144
-0.976264, 237, 193, 268, 256
-0.97631, 21, 265, 52, 328
-0.976351, 25, 289, 56, 352
-0.976385, 193, 97, 256, 352
-0.976639, 233, 193, 264, 320
-0.97665, 297, 1, 360, 64
-0.976767, 177, 201, 304, 264
-0.976848, 117, 177, 148, 240
-0.976925, 113, 57, 240, 120
-0.977021, 177, 225, 240, 288
-0.977022, 217, 33, 248, 96
-0.977036, 53, 209, 84, 272
-0.977121, 93, 89, 124, 152
-0.97714, 153, 89, 216, 152
-0.97726, 89, 49, 120, 176
-0.9774, 41, 265, 72, 328
-0.977437, 69, 25, 100, 88
-0.977454, 205, 65, 236, 192
-0.977502, 113, 9, 144, 72
-0.977523, 225, 105, 256, 168
-0.977538, 81, 185, 208, 248
-0.977581, 305, 137, 368, 200
-0.977661, 149, 1, 180, 128
-0.977688, 81, 65, 112, 128
-0.977786, 469, 233, 500, 296
-0.977801, 241, 89, 272, 152
-0.977805, 257, 33, 320, 96
-0.977824, 245, 137, 276, 200
-0.977904, 57, 1, 88, 64
-0.977995, 125, 1, 156, 64
-0.978022, 209, 9, 272, 72
-0.978095, 241, 113, 272, 176
-0.978145, 69, 209, 100, 272
-0.978151, 169, 137, 200, 200
-0.978157, 117, 41, 148, 104
-0.978215, 21, 233, 52, 296
-0.978227, 177, 17, 304, 80
-0.978246, 89, 1, 120, 64
-0.97838, 201, 1, 232, 128
-0.978403, 305, 1, 432, 128
-0.978419, 61, 97, 92, 160
-0.978423, 69, 65, 100, 192
-0.978483, 229, 129, 260, 256
-0.978547, 177, 73, 208, 136
-0.978552, 265, 169, 328, 232
-0.978594, 205, 73, 236, 136
-0.978641, 257, 33, 288, 160
-0.978698, 9, 1, 72, 375
-0.978771, 433, 201, 496, 264
-0.97881, 261, 129, 292, 192
-0.978862, 261, 113, 292, 240
-0.97893, 213, 105, 244, 168
-0.978954, 49, 1, 112, 375
-0.978975, 69, 161, 100, 288
-0.978982, 93, 193, 124, 256
-0.979018, 273, 1, 336, 128
-0.979106, 229, 33, 260, 96
-0.97929, 1, 289, 32, 352
-0.97932, 181, 121, 212, 184
-0.97933, 117, 73, 148, 136
-0.979361, 201, 25, 232, 88
-0.979379, 241, 49, 368, 112
-0.979409, 257, 225, 384, 352
-0.979413, 225, 201, 256, 264
-0.979427, 273, 129, 304, 192
-0.979483, 33, 233, 64, 296
-0.979543, 433, 161, 496, 224
-0.97967, 409, 73, 472, 136
-0.979742, 121, 241, 184, 304
-0.979803, 33, 249, 96, 312
-0.979858, 57, 257, 120, 320
-0.97999, 49, 225, 176, 288
-0.980075, 233, 81, 264, 208
-0.980087, 369, 129, 496, 256
-0.980231, 49, 313, 80, 375
-0.980258, 53, 257, 84, 320
-0.980263, 401, 49, 464, 112
-0.980332, 257, 225, 500, 352
-0.980371, 233, 209, 296, 336
-0.980383, 145, 177, 272, 240
-0.980419, 225, 161, 352, 224
-0.980517, 5, 249, 36, 312
-0.980517, 117, 49, 148, 176
-0.980617, 169, 25, 200, 88
-0.980648, 469, 193, 500, 320
-0.980659, 165, 193, 196, 320
-0.980779, 129, 209, 160, 272
-0.980819, 177, 225, 304, 288
-0.980884, 277, 113, 308, 240
-0.980892, 241, 145, 272, 272
-0.980917, 393, 65, 456, 192
-0.981027, 117, 137, 148, 200
-0.981076, 129, 41, 160, 104
-0.981105, 145, 9, 176, 72
-0.981111, 161, 17, 192, 144
-0.981114, 209, 105, 336, 168
-0.98118, 105, 177, 136, 304
-0.981195, 193, 65, 224, 192
-0.981224, 1, 305, 128, 368
-0.981311, 133, 1, 164, 128
-0.981355, 289, 161, 352, 224
-0.981364, 257, 33, 320, 288
-0.981375, 189, 25, 220, 88
-0.981424, 465, 185, 496, 248
-0.981462, 81, 161, 112, 288
-0.981466, 225, 225, 288, 288
-0.981488, 425, 97, 488, 160
-0.981521, 233, 33, 296, 96
-0.981548, 121, 161, 152, 288
-0.981552, 289, 129, 320, 256
-0.98167, 249, 209, 312, 272
-0.981803, 257, 105, 320, 168
-0.981808, 173, 145, 204, 272
-0.982025, 297, 65, 360, 192
-0.982143, 225, 81, 352, 144
-0.982226, 141, 217, 172, 280
-0.982242, 465, 145, 496, 272
-0.982267, 65, 233, 128, 296
-0.982428, 253, 73, 284, 136
-0.982686, 229, 225, 260, 288
-0.982692, 185, 1, 248, 375
-0.982695, 273, 137, 400, 200
-0.982716, 97, 233, 160, 296
-0.982799, 177, 161, 208, 224
-0.982847, 257, 49, 288, 112
-0.983063, 217, 177, 248, 304
-0.983065, 217, 1, 280, 375
-0.983124, 157, 49, 188, 112
-0.98314, 73, 1, 136, 375
-0.983176, 121, 1, 184, 375
-0.983202, 197, 113, 228, 240
-0.983212, 217, 97, 248, 224
-0.983231, 153, 1, 216, 375
-0.983313, 165, 65, 196, 192
-0.983352, 161, 177, 192, 240
-0.983384, 165, 217, 196, 280
-0.983411, 185, 249, 248, 312
-0.98349, 153, 161, 184, 288
-0.983553, 129, 153, 256, 216
-0.983576, 225, 217, 352, 280
-0.983631, 97, 1, 160, 375
-0.983705, 273, 1, 336, 64
-0.983711, 121, 129, 184, 375
-0.983773, 145, 41, 176, 104
-0.983862, 49, 313, 112, 375
-0.983884, 433, 137, 496, 200
-0.983937, 329, 33, 392, 96
-0.983938, 233, 137, 264, 200
-0.983954, 185, 161, 216, 288
-0.983986, 197, 137, 228, 200
-0.983998, 113, 241, 240, 304
-0.984201, 153, 209, 184, 272
-0.984221, 265, 129, 328, 375
-0.984265, 417, 1, 480, 64
-0.984305, 241, 25, 368, 88
-0.98436, 1, 241, 128, 304
-0.984614, 241, 1, 304, 375
-0.984654, 193, 305, 256, 368
-0.984825, 329, 17, 392, 144
-0.984983, 281, 1, 344, 256
-0.984987, 425, 25, 488, 88
-0.985035, 57, 209, 88, 336
-0.985268, 265, 177, 328, 304
-0.985294, 433, 161, 496, 288
-0.985474, 205, 193, 236, 320
-0.985552, 433, 49, 496, 112
-0.985625, 305, 225, 432, 352
-0.985741, 257, 81, 320, 144
-0.985869, 269, 1, 300, 128
-0.985893, 289, 105, 352, 168
-0.985897, 249, 297, 312, 360
-0.986091, 361, 33, 424, 160
-0.986138, 117, 209, 148, 336
-0.986193, 393, 1, 456, 64
-0.986296, 133, 49, 164, 176
-0.986327, 289, 241, 352, 368
-0.986377, 253, 161, 284, 288
-0.986524, 1, 1, 256, 64
-0.986525, 133, 193, 164, 320
-0.986561, 369, 177, 496, 304
-0.986655, 73, 209, 104, 336
-0.986734, 181, 225, 212, 352
-0.986955, 161, 249, 288, 312
-0.987083, 301, 129, 332, 256
-0.987127, 49, 273, 176, 336
-0.987215, 433, 49, 464, 176
-0.987249, 1, 65, 256, 128
-0.987279, 161, 289, 224, 352
-0.987367, 313, 113, 376, 240
-0.98745, 353, 225, 480, 352
-0.987526, 41, 173, 104, 204
-0.987557, 177, 289, 304, 352
-0.987582, 9, 181, 72, 212
-0.987647, 97, 41, 352, 104
-0.987676, 249, 9, 312, 72
-0.987726, 49, 297, 176, 360
-0.987779, 453, 113, 484, 240
-0.987848, 273, 161, 304, 288
-0.98797, 337, 57, 464, 120
-0.988, 169, 241, 200, 368
-0.988021, 81, 297, 144, 360
-0.988023, 445, 65, 476, 192
-0.988028, 225, 1, 352, 64
-0.988034, 1, 113, 64, 144
-0.988037, 297, 1, 360, 128
-0.988039, 281, 41, 344, 104
-0.988102, 49, 109, 112, 140
-0.988142, 369, 89, 496, 152
-0.988236, 1, 25, 256, 88
-0.988245, 33, 213, 96, 244
-0.988324, 57, 185, 120, 216
-0.988446, 97, 289, 224, 352
-0.988485, 329, 137, 392, 200
-0.988495, 289, 81, 320, 208
-0.988506, 225, 193, 352, 256
-0.988514, 33, 73, 96, 104
-0.988521, 265, 241, 328, 304
-0.988527, 433, 1, 464, 128
-0.988557, 33, 133, 96, 164
-0.988563, 33, 185, 288, 248
-0.988574, 377, 57, 440, 120
-0.988577, 89, 93, 152, 124
-0.988617, 113, 281, 176, 344
-0.98862, 265, 225, 328, 352
-0.988639, 281, 265, 344, 328
-0.988679, 57, 41, 120, 72
-0.988697, 289, 129, 352, 375
-0.988743, 17, 41, 80, 72
-0.988763, 9, 149, 72, 180
-0.988766, 161, 113, 192, 240
-0.988786, 49, 249, 176, 312
-0.988925, 25, 29, 88, 60
-0.98896, 337, 33, 464, 96
-0.988985, 17, 281, 80, 312
-0.989001, 33, 121, 96, 152
-0.98907, 193, 209, 224, 336
-0.989087, 73, 209, 136, 240
-0.989096, 433, 257, 496, 320
-0.989128, 1, 165, 64, 196
-0.989137, 81, 33, 144, 64
-0.98915, 177, 21, 240, 52
-0.989163, 1, 65, 64, 96
-0.989184, 137, 57, 200, 88
-0.98919, 33, 105, 288, 168
-0.989201, 89, 177, 152, 208
-0.989206, 73, 125, 136, 156
-0.989209, 221, 225, 252, 352
-0.989217, 209, 281, 272, 344
-0.989229, 41, 53, 104, 84
-0.989244, 153, 1, 216, 32
-0.989245, 353, 49, 416, 112
-0.989251, 1, 333, 64, 364
-0.989256, 17, 13, 80, 44
-0.989279, 9, 213, 72, 244
-0.98934, 25, 97, 88, 128
-0.989358, 93, 193, 124, 320
-0.989377, 1, 101, 64, 132
-0.98939, 81, 57, 144, 88
-0.989413, 9, 137, 72, 168
-0.989442, 1, 25, 64, 56
-0.989447, 465, 65, 496, 192
-0.989476, 49, 21, 112, 52
-0.989479, 97, 73, 352, 136
-0.989493, 169, 77, 232, 108
-0.989495, 73, 113, 136, 144
-0.989501, 25, 109, 88, 140
-0.98952, 49, 89, 112, 120
-0.989521, 257, 105, 384, 168
-0.989526, 1, 125, 64, 156
-0.989557, 361, 9, 424, 72
-0.989559, 129, 97, 160, 224
-0.989573, 141, 145, 172, 272
-0.989579, 177, 9, 240, 40
-0.989585, 17, 1, 80, 32
-0.989598, 257, 265, 384, 328
-0.989598, 17, 309, 80, 340
-0.989613, 1, 145, 256, 208
-0.989625, 9, 193, 72, 224
-0.989634, 73, 161, 136, 192
-0.989647, 65, 149, 128, 180
-0.989651, 1, 321, 64, 352
-0.989693, 193, 33, 256, 64
-0.989711, 65, 173, 128, 204
-0.989714, 113, 9, 176, 40
-0.989715, 217, 201, 280, 232
-0.98973, 97, 45, 160, 76
-0.989737, 65, 197, 128, 228
-0.989749, 233, 273, 296, 336
-0.989761, 97, 145, 352, 208
-0.989778, 369, 113, 496, 176
-0.989781, 137, 29, 200, 60
-0.98979, 129, 89, 192, 120
-0.989823, 113, 265, 240, 328
-0.98985, 401, 25, 464, 88
-0.989874, 17, 297, 80, 328
-0.989874, 49, 161, 112, 192
-0.989904, 177, 313, 304, 375
-0.989925, 57, 69, 120, 100
-0.989936, 41, 225, 104, 256
-0.989939, 241, 133, 304, 164
-0.989969, 269, 49, 300, 176
-0.989993, 445, 17, 476, 144
-0.989995, 89, 189, 152, 220
-0.989997, 129, 101, 192, 132
-0.990029, 73, 137, 136, 168
-0.990032, 145, 41, 208, 72
-0.990047, 225, 289, 352, 352
-0.990093, 33, 269, 96, 300
-0.9901, 193, 209, 256, 240
-0.990114, 153, 17, 216, 48
-0.990179, 305, 33, 368, 288
-0.990181, 9, 77, 72, 108
-0.990222, 281, 1, 312, 128
-0.990222, 265, 1, 328, 375
-0.990256, 41, 201, 104, 232
-0.990259, 369, 241, 432, 304
-0.990259, 113, 217, 176, 248
-0.990264, 89, 81, 152, 112
-0.990278, 169, 89, 232, 120
-0.990278, 337, 113, 400, 176
-0.990288, 9, 53, 72, 84
-0.990306, 113, 189, 176, 220
-0.990317, 305, 25, 368, 88
-0.990324, 25, 161, 88, 192
-0.990332, 233, 157, 296, 188
-0.990335, 169, 41, 232, 72
-0.990345, 209, 249, 272, 312
-0.990393, 321, 129, 448, 192
-0.990429, 81, 69, 144, 100
-0.990445, 177, 113, 240, 144
-0.990445, 161, 169, 224, 200
-0.990447, 121, 41, 184, 72
-0.990456, 433, 233, 496, 296
-0.990459, 177, 61, 240, 92
-0.990481, 337, 1, 464, 64
-0.990499, 25, 325, 88, 356
-0.990508, 33, 145, 96, 176
-0.990529, 9, 269, 72, 300
-0.990552, 41, 5, 104, 36
-0.990555, 193, 153, 256, 184
-0.990555, 217, 129, 280, 160
-0.990569, 113, 21, 176, 52
-0.990584, 217, 37, 280, 68
-0.990596, 97, 105, 160, 136
-0.990612, 113, 205, 176, 236
-0.990645, 257, 69, 320, 100
-0.990645, 73, 21, 136, 52
-0.990647, 217, 57, 280, 88
-0.990648, 337, 1, 400, 256
-0.990657, 201, 109, 264, 140
-0.990683, 97, 117, 160, 148
-0.990708, 129, 69, 192, 100
-0.990719, 233, 97, 296, 128
-0.99073, 245, 209, 276, 336
-0.990754, 1, 345, 64, 375
-0.990762, 33, 185, 96, 216
-0.990768, 369, 201, 496, 264
-0.990775, 301, 81, 332, 208
-0.990778, 1, 97, 500, 160
-0.990791, 9, 225, 72, 256
-0.990799, 201, 81, 264, 112
-0.990809, 289, 305, 352, 368
-0.990836, 97, 17, 352, 80
-0.990839, 149, 49, 180, 176
-0.990847, 153, 141, 216, 172
-0.990849, 81, 225, 144, 256
-0.990859, 129, 177, 192, 208
-0.990867, 157, 241, 188, 368
-0.990874, 1, 257, 64, 288
-0.990875, 97, 137, 160, 168
-0.990886, 1, 245, 64, 276
-0.990909, 433, 129, 496, 375
-0.990921, 273, 153, 336, 184
-0.990923, 33, 257, 96, 288
-0.990946, 193, 93, 256, 124
-0.990949, 241, 121, 304, 152
-0.990957, 41, 285, 104, 316
-0.990961, 241, 217, 304, 248
-0.990974, 465, 241, 496, 368
-0.990986, 425, 1, 488, 375
-0.99099, 81, 9, 144, 40
-0.990992, 297, 141, 360, 172
-0.991002, 33, 209, 288, 272
-0.991107, 381, 1, 412, 128
-0.991109, 249, 57, 312, 88
-0.991112, 217, 141, 280, 172
-0.991113, 201, 237, 264, 268
-0.991163, 105, 69, 168, 100
-0.991176, 177, 133, 240, 164
-0.991181, 97, 153, 160, 184
-0.991181, 145, 225, 176, 352
-0.991187, 25, 337, 88, 368
-0.991196, 241, 85, 304, 116
-0.991205, 217, 225, 280, 256
-0.991214, 321, 145, 384, 176
-0.991259, 153, 157, 216, 188
-0.991264, 273, 289, 400, 352
-0.991266, 1, 89, 64, 120
-0.991274, 177, 237, 240, 268
-0.991309, 41, 297, 104, 328
-0.991336, 369, 225, 496, 288
-0.991375, 209, 241, 272, 368
-0.991561, 7, 185, 22, 248
-0.991634, 337, 1, 400, 64
-0.991639, 21, 165, 52, 196
-0.991669, 23, 17, 38, 80
-0.991677, 5, 113, 36, 144
-0.991732, 1, 73, 32, 104
-0.991816, 5, 29, 36, 60
-0.991818, 273, 161, 400, 224
-0.991828, 37, 57, 68, 88
-0.991841, 9, 165, 40, 196
-0.991856, 289, 57, 416, 120
-0.991875, 5, 89, 36, 120
-0.991875, 21, 177, 52, 208
-0.991886, 9, 141, 40, 172
-0.991888, 29, 49, 44, 112
-0.991897, 33, 197, 64, 228
-0.991903, 25, 213, 56, 244
-0.991906, 61, 205, 92, 236
-0.991911, 13, 193, 44, 224
-0.99192, 41, 77, 72, 108
-0.991937, 1, 189, 32, 220
-0.991938, 1, 57, 32, 88
-0.99195, 41, 97, 72, 128
-0.991958, 41, 25, 72, 56
-0.99196, 13, 101, 44, 132
-0.991976, 9, 321, 40, 352
-0.991976, 17, 121, 48, 152
-0.991985, 45, 145, 76, 176
-0.991988, 41, 165, 72, 196
-0.991998, 1, 129, 32, 160
-0.992, 17, 153, 48, 184
-0.992001, 49, 193, 80, 224
-0.992002, 401, 1, 464, 375
-0.992008, 21, 133, 52, 164
-0.992012, 61, 153, 92, 184
-0.992018, 29, 29, 60, 60
-0.99202, 29, 13, 60, 44
-0.992026, 21, 313, 52, 344
-0.992042, 9, 177, 40, 208
-0.992043, 47, 161, 62, 224
-0.992053, 35, 113, 50, 176
-0.992074, 33, 153, 64, 184
-0.992076, 129, 121, 384, 184
-0.992082, 17, 69, 48, 100
-0.992093, 209, 249, 336, 312
-0.992096, 13, 49, 44, 80
-0.992118, 33, 313, 64, 344
-0.992121, 25, 49, 56, 80
-0.992128, 25, 109, 56, 140
-0.992129, 53, 21, 84, 52
-0.992129, 13, 221, 44, 252
-0.992137, 57, 141, 88, 172
-0.992141, 1, 201, 32, 232
-0.992151, 313, 129, 344, 256
-0.992158, 9, 5, 40, 36
-0.992165, 21, 85, 52, 116
-0.992167, 29, 97, 60, 128
-0.99217, 45, 209, 76, 240
-0.992175, 57, 73, 88, 104
-0.992176, 41, 117, 72, 148
-0.992182, 73, 189, 104, 220
-0.992192, 41, 129, 72, 160
-0.992197, 65, 121, 96, 152
-0.992207, 45, 181, 76, 212
-0.992218, 53, 165, 84, 196
-0.992224, 53, 45, 84, 76
-0.992228, 55, 185, 70, 248
-0.99223, 57, 181, 88, 212
-0.992251, 73, 173, 104, 204
-0.992253, 49, 61, 80, 92
-0.992268, 35, 81, 50, 144
-0.99227, 53, 109, 84, 140
-0.992271, 17, 37, 48, 68
-0.992271, 13, 209, 44, 240
-0.992271, 69, 141, 100, 172
-0.992281, 45, 289, 76, 320
-0.992284, 37, 325, 68, 356
-0.992286, 1, 153, 32, 184
-0.992294, 33, 241, 288, 304
-0.992296, 33, 185, 64, 216
-0.992298, 47, 137, 62, 200
-0.992302, 41, 45, 72, 76
-0.992302, 29, 73, 60, 104
-0.992305, 225, 65, 480, 128
-0.992306, 29, 81, 44, 144
-0.992321, 33, 225, 64, 256
-0.992326, 85, 109, 116, 140
-0.99233, 73, 161, 104, 192
-0.992344, 1, 17, 32, 48
-0.992344, 289, 1, 416, 64
-0.992346, 1, 45, 32, 76
-0.992351, 83, 57, 98, 120
-0.992363, 17, 25, 48, 56
-0.992366, 25, 301, 56, 332
-0.992367, 25, 333, 56, 364
-0.992379, 61, 97, 92, 128
-0.99238, 101, 101, 132, 132
-0.992393, 25, 1, 56, 32
-0.992397, 11, 153, 26, 216
-0.992405, 1, 101, 32, 132
-0.992411, 1, 213, 32, 244
-0.992416, 73, 109, 104, 140
-0.992421, 469, 181, 500, 212
-0.992427, 1, 169, 16, 232
-0.992433, 57, 277, 88, 308
-0.992433, 89, 165, 120, 196
-0.992435, 237, 197, 268, 228
-0.992442, 73, 209, 104, 240
-0.992443, 321, 1, 384, 375
-0.992447, 1, 73, 500, 136
-0.992459, 93, 121, 124, 152
-0.992468, 33, 141, 64, 172
-0.992471, 93, 145, 124, 176
-0.992474, 101, 21, 132, 52
-0.99248, 105, 37, 136, 68
-0.992489, 37, 341, 68, 372
-0.992491, 77, 61, 108, 92
-0.992493, 61, 193, 92, 224
-0.992493, 81, 97, 208, 128
-0.992503, 465, 225, 496, 256
-0.992508, 65, 57, 96, 88
-0.992508, 5, 113, 20, 176
-0.992513, 49, 301, 80, 332
-0.992516, 21, 249, 52, 280
-0.992518, 9, 257, 40, 288
-0.992521, 17, 233, 48, 264
-0.992522, 113, 101, 144, 132
-0.992525, 45, 273, 76, 304
-0.992526, 1, 289, 256, 352
-0.992532, 37, 301, 68, 332
-0.992533, 93, 77, 124, 108
-0.992533, 161, 97, 416, 160
-0.992534, 409, 1, 440, 128
-0.992537, 469, 237, 500, 268
-0.992538, 1, 49, 500, 112
-0.99254, 21, 269, 52, 300
-0.992542, 105, 141, 136, 172
-0.992542, 105, 65, 136, 96
-0.992559, 369, 249, 496, 312
-0.992559, 29, 121, 60, 152
-0.992562, 37, 1, 68, 32
-0.992569, 39, 49, 54, 112
-0.992573, 53, 33, 84, 64
-0.992575, 41, 13, 72, 44
-0.992575, 89, 177, 120, 208
-0.992576, 17, 177, 32, 240
-0.992577, 85, 33, 100, 96
-0.992578, 201, 25, 232, 56
-0.992582, 77, 81, 108, 112
-0.992588, 95, 145, 110, 208
-0.992591, 161, 45, 288, 76
-0.992596, 105, 9, 136, 40
-0.992597, 105, 117, 136, 148
-0.992601, 201, 1, 232, 32
-0.992606, 75, 177, 90, 240
-0.992608, 31, 9, 46, 72
-0.99261, 81, 93, 112, 124
-0.992611, 93, 89, 124, 120
-0.992621, 53, 129, 84, 160
-0.992621, 1, 145, 16, 208
-0.992639, 249, 125, 280, 156
-0.992641, 81, 141, 112, 172
-0.992646, 125, 1, 156, 32
-0.992653, 41, 185, 56, 248
-0.992654, 5, 333, 36, 364
-0.992655, 57, 85, 88, 116
-0.992655, 93, 49, 124, 80
-0.992658, 105, 153, 136, 184
-0.992658, 91, 121, 106, 184
-0.992672, 69, 1, 100, 32
-0.992673, 101, 185, 132, 216
-0.99277, 1, 81, 128, 112
-0.992777, 75, 33, 90, 96
-0.992798, 37, 137, 52, 200
-0.992812, 83, 1, 98, 64
-0.992822, 41, 73, 56, 136
-0.992827, 13, 201, 28, 264
-0.992871, 35, 161, 50, 224
-0.992874, 1, 113, 128, 144
-0.992907, 23, 49, 38, 112
-0.992923, 47, 185, 62, 248
-0.992926, 93, 1, 108, 64
-0.992928, 111, 41, 126, 104
-0.992965, 91, 49, 106, 112
-0.992979, 41, 113, 56, 176
-0.992984, 65, 25, 80, 88
-0.993011, 91, 97, 106, 160
-0.993029, 89, 161, 104, 224
-0.993042, 27, 193, 42, 256
-0.993047, 353, 209, 416, 336
-0.99306, 29, 161, 44, 224
-0.993072, 105, 33, 120, 96
-0.993074, 257, 137, 500, 200
-0.993083, 37, 305, 52, 368
-0.993097, 69, 185, 84, 248
-0.993099, 65, 161, 80, 224
-0.993131, 17, 141, 144, 172
-0.993139, 71, 9, 86, 72
-0.993139, 63, 65, 78, 128
-0.993141, 83, 185, 98, 248
-0.993187, 1, 57, 16, 120
-0.99319, 161, 69, 288, 100
-0.993195, 15, 1, 30, 64
-0.993216, 129, 25, 256, 56
-0.993222, 95, 25, 110, 88
-0.993227, 17, 201, 144, 232
-0.993234, 75, 73, 90, 136
-0.993246, 305, 249, 432, 312
-0.993248, 51, 113, 66, 176
-0.993268, 43, 25, 58, 88
-0.993271, 33, 93, 160, 124
-0.993276, 1, 57, 128, 88
-0.993277, 369, 153, 496, 216
-0.993291, 15, 25, 30, 88
-0.993304, 69, 49, 84, 112
-0.993305, 91, 73, 106, 136
-0.993309, 53, 161, 68, 224
-0.993316, 205, 241, 236, 368
-0.993318, 23, 137, 38, 200
-0.99332, 1, 145, 500, 208
-0.993353, 177, 57, 304, 88
-0.993357, 57, 25, 72, 88
-0.993358, 101, 73, 116, 136
-0.99336, 1, 5, 128, 36
-0.993383, 1, 29, 128, 60
-0.9934, 23, 169, 38, 232
-0.993412, 57, 137, 72, 200
-0.993421, 107, 1, 122, 64
-0.993452, 35, 185, 50, 248
-0.993476, 77, 9, 92, 72
-0.99349, 63, 1, 78, 64
-0.993522, 81, 81, 96, 144
-0.993526, 81, 109, 208, 140
-0.993532, 41, 161, 56, 224
-0.993535, 259, 41, 274, 104
-0.993558, 113, 113, 128, 176
-0.993574, 145, 85, 272, 116
-0.993577, 17, 225, 32, 288
-0.993583, 61, 185, 76, 248
-0.993614, 49, 41, 176, 72
-0.993623, 101, 9, 116, 72
-0.993625, 171, 1, 186, 64
-0.993641, 161, 109, 288, 140
-0.993642, 29, 105, 44, 168
-0.993652, 101, 169, 116, 232
-0.993663, 177, 153, 304, 184
-0.993682, 11, 121, 26, 184
-0.99369, 17, 161, 144, 192
-0.993704, 85, 137, 100, 200
-0.993719, 29, 137, 44, 200
-0.993729, 101, 121, 116, 184
-0.993734, 99, 49, 114, 112
-0.993747, 45, 33, 76, 288
-0.993756, 109, 73, 124, 136
-0.993757, 9, 73, 24, 136
-0.993822, 115, 81, 130, 144
-0.993823, 47, 89, 62, 152
-0.993839, 19, 201, 34, 264
-0.993855, 17, 145, 32, 208
-0.993857, 1, 201, 16, 264
-0.993877, 1, 181, 128, 212
-0.993887, 17, 121, 32, 184
-0.993897, 181, 1, 196, 64
-0.993902, 9, 9, 24, 72
-0.993912, 469, 1, 500, 128
-0.993913, 81, 113, 96, 176
-0.993929, 289, 25, 416, 88
-0.993942, 453, 209, 484, 336
-0.993956, 71, 153, 86, 216
-0.993968, 1, 125, 128, 156
-0.99397, 421, 49, 452, 176
-0.993992, 129, 209, 384, 272
-0.993998, 9, 1, 40, 256
-0.993998, 93, 185, 108, 248
-0.994006, 75, 201, 90, 264
-0.994006, 33, 1, 64, 256
-0.994017, 241, 193, 256, 256
-0.994023, 23, 97, 38, 160
-0.994062, 257, 241, 384, 304
-0.994073, 43, 313, 58, 375
-0.994086, 1, 41, 128, 72
-0.994107, 107, 137, 122, 200
-0.994108, 23, 73, 38, 136
-0.994133, 43, 225, 58, 288
-0.994142, 37, 209, 52, 272
-0.994143, 71, 113, 86, 176
-0.994144, 321, 65, 384, 192
-0.994144, 101, 145, 116, 208
-0.994147, 11, 97, 26, 160
-0.994152, 25, 233, 40, 296
-0.994157, 9, 49, 24, 112
-0.994174, 77, 153, 92, 216
-0.994177, 479, 185, 494, 248
-0.994182, 117, 41, 132, 104
-0.994188, 129, 9, 256, 40
-0.994197, 193, 1, 448, 64
-0.994197, 119, 105, 134, 168
-0.9942, 49, 17, 176, 48
-0.994204, 51, 209, 66, 272
-0.994207, 37, 9, 52, 72
-0.994223, 83, 209, 98, 272
-0.994229, 59, 161, 74, 224
-0.994239, 425, 1, 488, 256
-0.99425, 81, 57, 208, 88
-0.99425, 17, 69, 144, 100
-0.994251, 289, 1, 352, 375
-0.994264, 115, 17, 130, 80
-0.994264, 225, 313, 352, 375
-0.994266, 65, 129, 80, 192
-0.99427, 81, 81, 208, 112
-0.994281, 111, 161, 126, 224
-0.994283, 115, 137, 130, 200
-0.994284, 51, 57, 66, 120
-0.994291, 17, 81, 32, 144
-0.994292, 197, 1, 212, 64
-0.994311, 69, 273, 84, 336
-0.994333, 97, 97, 112, 160
-0.994336, 1, 217, 500, 280
-0.994339, 129, 169, 384, 232
-0.994346, 471, 201, 486, 264
-0.994352, 453, 161, 484, 288
-0.994383, 55, 1, 70, 64
-0.994385, 81, 173, 208, 204
-0.994401, 321, 81, 448, 208
-0.994417, 15, 57, 30, 120
-0.994429, 29, 313, 44, 375
-0.99444, 97, 141, 224, 172
-0.994482, 1, 9, 500, 72
-0.994486, 55, 273, 70, 336
-0.994504, 7, 209, 22, 272
-0.994504, 23, 305, 38, 368
-0.994512, 1, 121, 500, 184
-0.994523, 161, 97, 288, 128
-0.994608, 177, 33, 304, 64
-0.994612, 241, 141, 368, 172
-0.99462, 377, 1, 440, 375
-0.994662, 257, 41, 500, 104
-0.994671, 313, 225, 376, 352
-0.994671, 21, 129, 52, 375
-0.994723, 33, 233, 160, 264
-0.994765, 361, 1, 424, 256
-0.994781, 369, 177, 496, 240
-0.994784, 193, 1, 320, 32
-0.994807, 81, 121, 208, 152
-0.994843, 81, 69, 208, 100
-0.994884, 237, 1, 268, 256
-0.994927, 129, 221, 256, 252
-0.994946, 9, 97, 40, 352
-0.995011, 21, 1, 52, 256
-0.995019, 57, 1, 88, 256
-0.99504, 49, 185, 176, 216
-0.99507, 145, 209, 272, 240
-0.995074, 81, 29, 208, 60
-0.99511, 53, 129, 84, 375
-0.995124, 129, 241, 160, 368
-0.995128, 285, 177, 316, 304
-0.995128, 305, 105, 432, 168
-0.995167, 369, 1, 400, 128
-0.995171, 321, 81, 448, 144
-0.99522, 177, 125, 304, 156
-0.995221, 225, 157, 352, 188
-0.995225, 241, 49, 368, 80
-0.995263, 145, 137, 272, 168
-0.995275, 305, 1, 336, 128
-0.995287, 97, 41, 224, 72
-0.995309, 193, 233, 448, 296
-0.995367, 421, 1, 452, 128
-0.99541, 273, 217, 400, 280
-0.995411, 97, 161, 224, 192
-0.995413, 1, 313, 256, 375
-0.995443, 177, 165, 304, 196
-0.995446, 1, 17, 128, 48
-0.995462, 241, 69, 368, 100
-0.995481, 81, 1, 208, 32
-0.995493, 289, 313, 416, 375
-0.995518, 1, 325, 128, 356
-0.995552, 217, 1, 248, 256
-0.995554, 1, 257, 128, 288
-0.995607, 17, 309, 144, 340
-0.995625, 101, 33, 132, 288
-0.99566, 301, 177, 332, 304
-0.99567, 181, 1, 212, 256
-0.995724, 397, 1, 428, 128
-0.995726, 1, 193, 500, 256
-0.995727, 97, 313, 224, 375
-0.995754, 69, 1, 100, 256
-0.995769, 277, 241, 308, 368
-0.995778, 225, 129, 352, 160
-0.995834, 1, 277, 128, 308
-0.995851, 209, 105, 336, 136
-0.995858, 345, 1, 408, 375
-0.995891, 225, 169, 352, 200
-0.9959, 33, 129, 64, 375
-0.996004, 257, 113, 500, 176
-0.996017, 129, 57, 256, 88
-0.99602, 49, 293, 176, 324
-0.996028, 17, 221, 144, 252
-0.99603, 401, 1, 464, 256
-0.996034, 457, 17, 488, 144
-0.996045, 165, 1, 196, 256
-0.996072, 193, 205, 320, 236
-0.996084, 197, 1, 228, 256
-0.996092, 85, 1, 116, 256
-0.996096, 225, 225, 352, 256
-0.996117, 7, 137, 22, 168
-0.996124, 33, 265, 288, 328
-0.996142, 145, 233, 272, 264
-0.996159, 225, 93, 352, 124
-0.996164, 97, 189, 224, 220
-0.996192, 257, 161, 500, 224
-0.99621, 145, 177, 272, 208
-0.996218, 23, 25, 38, 56
-0.996242, 177, 21, 304, 52
-0.996251, 19, 181, 34, 212
-0.996263, 39, 109, 54, 140
-0.996275, 225, 81, 352, 112
-0.996283, 321, 225, 448, 288
-0.996354, 49, 161, 64, 192
-0.996373, 7, 201, 22, 232
-0.996386, 23, 145, 38, 176
-0.996406, 321, 81, 352, 208
-0.996412, 3, 125, 18, 156
-0.996438, 13, 157, 28, 188
-0.996446, 293, 33, 324, 160
-0.996447, 1, 245, 128, 276
-0.996474, 85, 97, 116, 352
-0.996475, 35, 89, 50, 120
-0.996482, 53, 189, 68, 220
-0.996493, 81, 213, 96, 244
-0.996495, 11, 185, 26, 216
-0.996498, 87, 109, 102, 140
-0.996503, 51, 177, 66, 208
-0.996507, 13, 121, 28, 152
-0.996519, 25, 161, 40, 192
-0.996525, 41, 121, 56, 152
-0.996528, 101, 129, 132, 375
-0.996539, 75, 193, 90, 224
-0.99654, 47, 149, 62, 180
-0.996556, 43, 25, 58, 56
-0.996558, 23, 41, 38, 72
-0.996562, 113, 1, 144, 256
-0.996571, 31, 65, 46, 96
-0.996583, 333, 1, 364, 128
-0.996592, 1, 305, 500, 368
-0.996602, 45, 89, 60, 120
-0.996641, 65, 201, 192, 232
-0.996642, 65, 129, 96, 375
-0.996643, 97, 289, 224, 320
-0.996661, 117, 97, 148, 352
-0.996662, 85, 37, 100, 68
-0.996663, 81, 57, 96, 88
-0.996666, 129, 125, 256, 156
-0.996667, 385, 49, 416, 176
-0.996673, 15, 5, 30, 36
-0.996674, 33, 77, 48, 108
-0.996675, 93, 241, 124, 368
-0.99668, 85, 85, 100, 116
-0.996689, 33, 37, 48, 68
-0.996698, 33, 121, 48, 152
-0.9967, 41, 333, 56, 364
-0.996701, 51, 213, 66, 244
-0.996706, 89, 69, 104, 100
-0.996707, 249, 33, 280, 288
-0.996717, 35, 133, 50, 164
-0.996723, 51, 113, 66, 144
-0.996728, 25, 57, 40, 88
-0.996732, 145, 197, 272, 228
-0.996738, 17, 141, 32, 172
-0.996741, 9, 109, 24, 140
-0.996741, 95, 157, 110, 188
-0.996745, 65, 25, 80, 56
-0.996768, 33, 157, 48, 188
-0.996772, 321, 273, 448, 336
-0.996773, 83, 73, 98, 104
-0.996774, 77, 181, 92, 212
-0.996777, 1, 61, 16, 92
-0.996778, 93, 141, 108, 172
-0.996794, 83, 21, 98, 52
-0.996806, 27, 93, 42, 124
-0.996812, 61, 129, 76, 160
-0.996814, 129, 289, 384, 352
-0.996817, 17, 337, 144, 368
-0.996823, 29, 105, 44, 136
-0.996825, 59, 181, 74, 212
-0.996828, 273, 157, 400, 188
-0.996834, 409, 113, 472, 240
-0.996834, 193, 237, 320, 268
-0.996839, 15, 221, 30, 252
-0.996839, 43, 169, 58, 200
-0.996839, 19, 105, 34, 136
-0.99684, 39, 73, 54, 104
-0.99684, 47, 193, 62, 224
-0.996843, 65, 193, 80, 224
-0.996848, 39, 57, 54, 88
-0.99685, 97, 177, 112, 208
-0.996852, 17, 17, 32, 48
-0.996853, 37, 145, 52, 176
-0.996857, 1, 181, 16, 212
-0.996867, 91, 129, 106, 160
-0.996872, 21, 69, 36, 100
-0.996872, 65, 213, 192, 244
-0.996872, 273, 81, 400, 144
-0.996873, 35, 313, 50, 344
-0.996875, 1, 205, 16, 236
-0.996879, 59, 61, 74, 92
-0.996897, 73, 213, 88, 244
-0.996897, 71, 69, 86, 100
-0.996902, 45, 205, 60, 236
-0.996907, 67, 41, 82, 72
-0.99691, 33, 17, 48, 48
-0.996913, 89, 97, 104, 128
-0.996913, 11, 69, 26, 100
-0.996916, 39, 213, 54, 244
-0.996923, 39, 157, 54, 188
-0.996927, 91, 53, 106, 84
-0.996929, 59, 205, 74, 236
-0.996932, 81, 193, 96, 224
-0.996942, 69, 53, 84, 84
-0.996945, 3, 77, 18, 108
-0.996947, 59, 169, 74, 200
-0.99695, 61, 73, 76, 104
-0.996953, 349, 1, 380, 128
-0.996956, 55, 149, 70, 180
-0.996956, 479, 193, 494, 224
-0.996964, 81, 9, 96, 40
-0.996965, 241, 37, 368, 68
-0.99697, 31, 169, 46, 200
-0.996973, 7, 53, 22, 84
-0.996982, 45, 181, 60, 212
-0.996988, 23, 1, 38, 32
-0.996988, 61, 281, 76, 312
-0.996995, 23, 201, 38, 232
-0.997003, 321, 57, 448, 88
-0.997013, 103, 45, 118, 76
-0.997015, 483, 213, 498, 244
-0.997017, 31, 253, 46, 284
-0.997018, 1, 145, 16, 176
-0.997031, 73, 9, 88, 40
-0.997032, 177, 97, 208, 352
-0.997033, 153, 1, 184, 256
-0.99704, 293, 241, 324, 368
-0.997043, 93, 37, 108, 68
-0.997045, 237, 97, 268, 352
-0.997048, 125, 1, 156, 256
-0.997048, 97, 245, 224, 276
-0.997052, 45, 101, 60, 132
-0.997059, 53, 21, 68, 52
-0.997059, 49, 245, 176, 276
-0.99706, 369, 69, 496, 100
-0.997062, 9, 329, 24, 360
-0.997064, 321, 153, 448, 216
-0.997074, 17, 209, 32, 240
-0.99709, 5, 1, 20, 32
-0.997093, 1, 289, 128, 320
-0.997097, 31, 205, 46, 236
-0.997099, 145, 245, 272, 276
-0.997101, 77, 37, 92, 68
-0.997102, 51, 137, 66, 168
-0.997105, 321, 129, 448, 256
-0.997106, 89, 193, 104, 224
-0.997108, 87, 181, 102, 212
-0.99711, 25, 81, 40, 112
-0.997112, 15, 49, 30, 80
-0.997113, 25, 173, 40, 204
-0.997117, 75, 25, 90, 56
-0.99712, 9, 25, 24, 56
-0.997131, 433, 97, 464, 224
-0.997135, 49, 61, 64, 92
-0.997138, 485, 245, 500, 276
-0.997157, 485, 177, 500, 208
-0.997158, 73, 149, 88, 180
-0.997166, 43, 137, 58, 168
-0.99717, 71, 137, 86, 168
-0.997172, 99, 189, 114, 220
-0.997178, 51, 293, 66, 324
-0.997178, 67, 181, 82, 212
-0.99718, 225, 97, 256, 352
-0.997183, 63, 89, 78, 120
-0.997187, 27, 217, 42, 248
-0.997203, 69, 125, 84, 156
-0.997211, 27, 189, 42, 220
-0.997213, 15, 93, 30, 124
-0.997216, 95, 85, 110, 116
-0.997222, 51, 77, 66, 108
-0.997222, 105, 225, 136, 352
-0.997228, 55, 45, 70, 76
-0.997233, 81, 233, 208, 264
-0.997251, 305, 145, 432, 176
-0.99727, 377, 225, 440, 352
-0.997391, 465, 129, 496, 375
-0.997424, 193, 141, 320, 172
-0.997436, 369, 233, 496, 264
-0.997458, 369, 101, 496, 132
-0.997465, 193, 297, 320, 328
-0.997471, 1, 169, 500, 232
-0.997482, 289, 193, 352, 320
-0.997502, 257, 265, 500, 328
-0.997514, 213, 97, 244, 352
-0.997516, 225, 209, 480, 272
-0.997535, 189, 97, 220, 352
-0.997585, 145, 285, 272, 316
-0.997591, 1, 249, 500, 312
-0.99761, 201, 97, 232, 352
-0.997659, 129, 97, 160, 352
-0.99771, 273, 1, 400, 32
-0.997755, 161, 313, 416, 375
-0.997756, 257, 185, 500, 248
-0.997773, 265, 241, 296, 368
-0.997783, 321, 133, 448, 164
-0.997832, 161, 257, 416, 320
-0.997832, 321, 69, 448, 100
-0.997841, 225, 25, 352, 56
-0.997845, 337, 45, 464, 76
-0.997845, 337, 297, 464, 360
-0.997883, 137, 1, 168, 256
-0.997885, 293, 97, 324, 352
-0.997919, 225, 117, 352, 148
-0.997953, 49, 277, 176, 308
-0.99796, 177, 221, 304, 252
-0.997996, 113, 301, 240, 332
-0.998, 177, 325, 304, 356
-0.998014, 369, 129, 496, 160
-0.998031, 193, 309, 320, 340
-0.998034, 257, 285, 384, 316
-0.998036, 369, 13, 496, 44
-0.998068, 305, 33, 432, 64
-0.998078, 13, 113, 28, 240
-0.998084, 49, 265, 176, 296
-0.998085, 165, 97, 196, 352
-0.998093, 7, 49, 22, 176
-0.998099, 23, 97, 38, 224
-0.998116, 273, 193, 400, 256
-0.998119, 33, 17, 48, 144
-0.998122, 35, 113, 50, 240
-0.998136, 293, 1, 324, 256
-0.99814, 409, 161, 472, 288
-0.998154, 369, 89, 496, 120
-0.998161, 465, 33, 496, 288
-0.998164, 13, 1, 28, 128
-0.998176, 41, 65, 56, 192
-0.998206, 281, 33, 312, 288
-0.998207, 97, 277, 224, 308
-0.99822, 225, 193, 352, 224
-0.998224, 27, 145, 42, 272
-0.998232, 55, 97, 70, 224
-0.998247, 209, 249, 336, 280
-0.998249, 21, 49, 36, 176
-0.998257, 29, 97, 44, 224
-0.998263, 1, 33, 16, 160
-0.99827, 369, 217, 496, 248
-0.998281, 241, 213, 368, 244
-0.998286, 261, 65, 292, 320
-0.998288, 45, 161, 60, 288
-0.998288, 3, 145, 18, 272
-0.998292, 63, 113, 78, 240
-0.998298, 369, 57, 496, 88
-0.998321, 39, 17, 54, 144
-0.998325, 273, 169, 400, 200
-0.99833, 49, 65, 64, 192
-0.998334, 47, 17, 62, 144
-0.998347, 93, 1, 108, 128
-0.998349, 1, 113, 64, 128
-0.99836, 23, 1, 38, 128
-0.998374, 369, 117, 496, 148
-0.998379, 257, 89, 500, 152
-0.998379, 153, 1, 216, 16
-0.998384, 35, 65, 50, 192
-0.998384, 87, 1, 102, 128
-0.998387, 25, 217, 88, 232
-0.998389, 1, 181, 64, 196
-0.998393, 41, 177, 104, 192
-0.998394, 69, 145, 84, 272
-0.998394, 73, 179, 136, 194
-0.998406, 111, 33, 126, 160
-0.998406, 193, 285, 320, 316
-0.998406, 7, 97, 22, 224
-0.998407, 21, 145, 36, 272
-0.998411, 41, 183, 104, 198
-0.998412, 369, 1, 496, 32
-0.998413, 41, 223, 104, 238
-0.998414, 49, 117, 112, 132
-0.998414, 7, 1, 22, 128
-0.998417, 71, 1, 86, 128
-0.998419, 55, 145, 70, 272
-0.998421, 105, 1, 120, 128
-0.998421, 225, 289, 480, 352
-0.998422, 49, 215, 112, 230
-0.998424, 369, 201, 496, 232
-0.998428, 49, 49, 112, 64
-0.99843, 1, 127, 64, 142
-0.998431, 41, 171, 104, 186
-0.998434, 9, 149, 72, 164
-0.998435, 11, 177, 26, 304
-0.998438, 17, 15, 80, 30
-0.998438, 257, 297, 384, 328
-0.998439, 33, 123, 96, 138
-0.998441, 17, 311, 80, 326
-0.998442, 9, 41, 72, 56
-0.998444, 177, 31, 240, 46
-0.998448, 57, 191, 120, 206
-0.998449, 1, 217, 64, 232
-0.99845, 25, 109, 88, 124
-0.998451, 1, 29, 64, 44
-0.998452, 89, 187, 152, 202
-0.998453, 25, 79, 88, 94
-0.998453, 65, 127, 128, 142
-0.998455, 25, 211, 88, 226
-0.99846, 25, 141, 88, 156
-0.99846, 169, 73, 232, 88
-0.998461, 177, 7, 240, 22
-0.998462, 17, 187, 80, 202
-0.998464, 177, 1, 240, 16
-0.998464, 73, 173, 136, 188
-0.998464, 59, 1, 74, 128
-0.998464, 33, 133, 96, 148
-0.998464, 17, 305, 80, 320
-0.998465, 89, 117, 152, 132
-0.998465, 1, 119, 64, 134
-0.998466, 73, 213, 136, 228
-0.998469, 89, 123, 152, 138
-0.998469, 15, 65, 30, 192
-0.99847, 1, 335, 64, 350
-0.99847, 9, 223, 72, 238
-0.998471, 33, 25, 96, 40
-0.998472, 145, 55, 208, 70
-0.998474, 27, 49, 42, 176
-0.998476, 193, 37, 256, 52
-0.998477, 41, 113, 56, 240
-0.998483, 25, 31, 88, 46
-0.998484, 89, 107, 152, 122
-0.998484, 1, 161, 64, 176
-0.998488, 65, 185, 128, 200
-0.998488, 9, 49, 72, 64
-0.998489, 1, 175, 64, 190
-0.99849, 1, 73, 64, 88
-0.998491, 177, 13, 240, 28
-0.998492, 129, 103, 192, 118
-0.998492, 49, 43, 112, 58
-0.998493, 49, 111, 112, 126
-0.998493, 49, 55, 112, 70
-0.998494, 25, 115, 88, 130
-0.998496, 49, 207, 112, 222
-0.998496, 153, 7, 216, 22
-0.998496, 1, 23, 64, 38
-0.998497, 153, 15, 216, 30
-0.998497, 129, 97, 192, 112
-0.998498, 49, 113, 64, 240
-0.998498, 137, 63, 200, 78
-0.9985, 25, 155, 88, 170
-0.998502, 73, 207, 136, 222
-0.998503, 1, 81, 16, 208
-0.998504, 57, 91, 120, 106
-0.998504, 177, 21, 240, 36
-0.998505, 17, 195, 80, 210
-0.998506, 17, 281, 80, 296
-0.998507, 17, 101, 80, 116
-0.998511, 65, 27, 128, 42
-0.998511, 73, 221, 136, 236
-0.998513, 201, 135, 264, 150
-0.998513, 95, 49, 110, 176
-0.998517, 9, 67, 72, 82
-0.998519, 209, 203, 272, 218
-0.99852, 321, 177, 448, 304
-0.998521, 249, 135, 312, 150
-0.998521, 25, 57, 88, 72
-0.998522, 153, 21, 216, 36
-0.998523, 39, 177, 54, 304
-0.998524, 73, 133, 136, 148
-0.998525, 87, 113, 102, 240
-0.998525, 89, 201, 152, 216
-0.998526, 1, 107, 64, 122
-0.998526, 369, 33, 496, 64
-0.998526, 233, 129, 296, 144
-0.998527, 81, 57, 144, 72
-0.998528, 49, 209, 64, 336
-0.998528, 99, 1, 114, 128
-0.998529, 129, 91, 192, 106
-0.99853, 73, 167, 136, 182
-0.998531, 77, 145, 92, 272
-0.998532, 17, 1, 80, 16
-0.998532, 33, 89, 96, 104
-0.998533, 25, 73, 88, 88
-0.998533, 169, 89, 232, 104
-0.998534, 113, 9, 176, 24
-0.998535, 97, 95, 160, 110
-0.998536, 255, 33, 270, 160
-0.998537, 81, 51, 144, 66
-0.998537, 121, 15, 184, 30
-0.998538, 81, 227, 144, 242
-0.998538, 1, 341, 64, 356
-0.998538, 97, 181, 160, 196
-0.998539, 89, 193, 152, 208
-0.998539, 57, 97, 120, 112
-0.998539, 153, 31, 216, 46
-0.99854, 1, 35, 64, 50
-0.99854, 65, 149, 128, 164
-0.99854, 81, 43, 144, 58
-0.99854, 81, 37, 144, 52
-0.998543, 17, 7, 80, 22
-0.998543, 137, 49, 200, 64
-0.998543, 1, 361, 64, 375
-0.998544, 65, 197, 128, 212
-0.998544, 105, 153, 136, 168
-0.998545, 113, 3, 176, 18
-0.998545, 25, 9, 56, 24
-0.998545, 1, 321, 64, 336
-0.998545, 57, 277, 88, 292
-0.998546, 73, 185, 104, 200
-0.998546, 1, 105, 32, 120
-0.998546, 57, 109, 88, 124
-0.998546, 33, 161, 48, 288
-0.998546, 81, 63, 144, 78
-0.998547, 79, 65, 94, 192
-0.998547, 129, 185, 192, 200
-0.998548, 1, 169, 64, 184
-0.998548, 177, 337, 304, 368
-0.998548, 273, 125, 400, 156
-0.998548, 33, 275, 96, 290
-0.99855, 129, 109, 192, 124
-0.99855, 89, 89, 152, 104
-0.99855, 185, 115, 248, 130
-0.99855, 31, 241, 46, 368
-0.99855, 45, 189, 76, 204
-0.998552, 87, 49, 102, 176
-0.998553, 225, 273, 352, 304
-0.998553, 225, 321, 352, 352
-0.998554, 201, 153, 264, 168
-0.998554, 13, 229, 44, 244
-0.998555, 49, 73, 112, 88
-0.998556, 29, 143, 60, 158
-0.998557, 1, 327, 64, 342
-0.998557, 13, 59, 44, 74
-0.998557, 137, 71, 200, 86
-0.998559, 29, 19, 60, 34
-0.998561, 13, 185, 44, 200
-0.998562, 61, 179, 92, 194
-0.998562, 1, 259, 64, 274
-0.998562, 225, 209, 288, 224
-0.998562, 1, 61, 32, 76
-0.998562, 1, 137, 64, 152
-0.998563, 41, 321, 72, 336
-0.998563, 33, 67, 96, 82
-0.998563, 29, 115, 60, 130
-0.998564, 49, 151, 80, 166
-0.998564, 1, 173, 32, 188
-0.998565, 81, 69, 144, 84
-0.998565, 105, 53, 168, 68
-0.998565, 41, 19, 104, 34
-0.998565, 89, 101, 152, 116
-0.998565, 33, 269, 96, 284
-0.998566, 57, 139, 88, 154
-0.998566, 37, 309, 68, 324
-0.998566, 233, 105, 296, 120
-0.998569, 41, 163, 72, 178
-0.99857, 49, 199, 80, 214
-0.998571, 13, 101, 44, 116
-0.998572, 61, 159, 92, 174
-0.998572, 321, 1, 448, 32
-0.998572, 61, 203, 92, 218
-0.998573, 45, 215, 76, 230
-0.998573, 25, 153, 56, 168
-0.998574, 201, 1, 232, 16
-0.998574, 37, 95, 68, 110
-0.998576, 57, 79, 88, 94
-0.998577, 277, 129, 308, 375
-0.998577, 45, 171, 76, 186
-0.998578, 103, 65, 118, 192
-0.998579, 453, 129, 484, 375
-0.998581, 53, 43, 84, 58
-0.998582, 45, 287, 76, 302
-0.998583, 9, 325, 40, 340
-0.998584, 53, 97, 84, 112
-0.998585, 29, 325, 60, 340
-0.998585, 465, 231, 496, 246
-0.998585, 49, 119, 80, 134
-0.998586, 1, 145, 32, 160
-0.998587, 45, 295, 76, 310
-0.998587, 55, 49, 70, 176
-0.998588, 9, 41, 40, 56
-0.998589, 41, 107, 72, 122
-0.998589, 9, 5, 40, 20
-0.998592, 49, 67, 80, 82
-0.998592, 45, 183, 76, 198
-0.998594, 1, 99, 32, 114
-0.998594, 17, 25, 48, 40
-0.998595, 79, 1, 94, 128
-0.998596, 113, 81, 128, 208
-0.998597, 61, 225, 92, 240
-0.998598, 5, 211, 36, 226
-0.998599, 1, 197, 32, 212
-0.998599, 53, 23, 84, 38
-0.998603, 21, 207, 52, 222
-0.998604, 73, 173, 104, 188
-0.998604, 119, 17, 134, 144
-0.998605, 21, 137, 52, 152
-0.998607, 369, 245, 496, 276
-0.998607, 61, 217, 92, 232
-0.998607, 29, 193, 60, 208
-0.998608, 41, 85, 72, 100
-0.998608, 29, 229, 60, 244
-0.998608, 9, 159, 40, 174
-0.998609, 33, 169, 64, 184
-0.998609, 257, 105, 384, 136
-0.998614, 21, 313, 52, 328
-0.998614, 49, 207, 80, 222
-0.998614, 37, 69, 68, 84
-0.998615, 53, 145, 84, 160
-0.998615, 63, 65, 78, 192
-0.998616, 41, 131, 72, 146
-0.998617, 69, 97, 84, 224
-0.998617, 49, 91, 80, 106
-0.998619, 161, 273, 288, 304
-0.998619, 65, 127, 96, 142
-0.998622, 57, 185, 88, 200
-0.998623, 25, 105, 56, 120
-0.998623, 25, 223, 56, 238
-0.998624, 33, 213, 64, 228
-0.998625, 5, 217, 36, 232
-0.998626, 63, 177, 78, 304
-0.998627, 41, 41, 72, 56
-0.998627, 1, 55, 32, 70
-0.998628, 1, 83, 32, 98
-0.99863, 45, 177, 76, 192
-0.998631, 41, 27, 72, 42
-0.998632, 37, 49, 68, 64
-0.998633, 53, 49, 84, 64
-0.998634, 53, 165, 84, 180
-0.998635, 369, 149, 496, 180
-0.998636, 17, 195, 48, 210
-0.998636, 41, 223, 72, 238
-0.998638, 17, 319, 48, 334
-0.998638, 17, 113, 48, 128
-0.998639, 41, 315, 72, 330
-0.998639, 21, 193, 36, 320
-0.99864, 25, 3, 56, 18
-0.998641, 13, 223, 44, 238
-0.998642, 17, 71, 48, 86
-0.998642, 29, 89, 60, 104
-0.998642, 1, 139, 32, 154
-0.998643, 13, 153, 44, 168
-0.998643, 29, 39, 60, 54
-0.998645, 73, 179, 104, 194
-0.998647, 29, 33, 60, 48
-0.998648, 41, 157, 72, 172
-0.998649, 29, 27, 60, 42
-0.99865, 61, 153, 92, 168
-0.998652, 5, 67, 36, 82
-0.998653, 21, 177, 52, 192
-0.998654, 235, 17, 250, 144
-0.998655, 185, 33, 200, 160
-0.998656, 25, 187, 56, 202
-0.998658, 241, 33, 256, 160
-0.998658, 29, 319, 60, 334
-0.998658, 41, 101, 72, 116
-0.998659, 37, 205, 68, 220
-0.998663, 21, 49, 52, 64
-0.998663, 1, 93, 32, 108
-0.998664, 247, 33, 262, 160
-0.998666, 65, 17, 80, 144
-0.998666, 21, 125, 52, 140
-0.998666, 61, 209, 92, 224
-0.998667, 49, 73, 80, 88
-0.998667, 5, 179, 36, 194
-0.998667, 41, 79, 72, 94
-0.998668, 37, 57, 68, 72
-0.998668, 95, 145, 110, 272
-0.998668, 29, 199, 60, 214
-0.99867, 17, 201, 48, 216
-0.99867, 33, 63, 64, 78
-0.998672, 5, 31, 36, 46
-0.998673, 1, 47, 32, 62
-0.998679, 21, 171, 52, 186
-0.998681, 9, 125, 40, 140
-0.998681, 13, 91, 44, 106
-0.998689, 5, 191, 36, 206
-0.99869, 21, 217, 52, 232
-0.998691, 41, 145, 72, 160
-0.998692, 21, 131, 52, 146
-0.998693, 13, 145, 44, 160
-0.998693, 305, 129, 336, 375
-0.9987, 105, 113, 120, 240
-0.99872, 227, 17, 242, 144
-0.998721, 21, 161, 52, 176
-0.998721, 119, 81, 134, 208
-0.998725, 219, 17, 234, 144
-0.998725, 9, 165, 40, 180
-0.998729, 265, 33, 280, 160
-0.99873, 5, 73, 36, 88
-0.998733, 5, 115, 36, 130
-0.998741, 5, 193, 20, 320
-0.998757, 9, 133, 40, 148
-0.998758, 483, 193, 498, 320
-0.998759, 13, 107, 44, 122
-0.998769, 37, 225, 52, 352
-0.998773, 93, 97, 108, 224
-0.998774, 145, 97, 176, 352
-0.998777, 143, 1, 158, 128
-0.998786, 55, 193, 70, 320
-0.99879, 177, 17, 192, 144
-0.998794, 209, 49, 224, 176
-0.998822, 191, 17, 206, 144
-0.998831, 477, 129, 492, 256
-0.998843, 73, 49, 88, 176
-0.998846, 125, 1, 140, 128
-0.998854, 43, 241, 58, 368
-0.998859, 27, 193, 42, 320
-0.998861, 53, 1, 68, 128
-0.998874, 483, 145, 498, 272
-0.998883, 71, 193, 86, 320
-0.998887, 89, 161, 104, 288
-0.99889, 241, 177, 256, 304
-0.998898, 137, 1, 152, 128
-0.998905, 183, 97, 198, 224
-0.998908, 111, 129, 126, 256
-0.998912, 79, 193, 94, 320
-0.998913, 247, 161, 262, 288
-0.99892, 11, 225, 26, 352
-0.998933, 231, 177, 246, 304
-0.998942, 127, 65, 142, 192
-0.99897, 247, 81, 262, 208
-0.998978, 477, 177, 492, 304
-0.998979, 171, 33, 186, 160
-0.998989, 121, 129, 136, 256
-0.998997, 203, 65, 218, 192
-0.999028, 309, 1, 340, 256
-0.99903, 189, 97, 204, 224
-0.999031, 197, 17, 212, 144
-0.999037, 55, 241, 70, 368
-0.999037, 177, 81, 192, 208
-0.999048, 215, 65, 230, 192
-0.999052, 237, 97, 252, 224
-0.999053, 153, 1, 168, 128
-0.99906, 25, 241, 40, 368
-0.999062, 471, 65, 486, 192
-0.999069, 471, 161, 486, 288
-0.99907, 1, 241, 16, 368
-0.999073, 17, 241, 32, 368
-0.999085, 279, 113, 294, 240
-0.999085, 101, 177, 116, 304
-0.999086, 249, 129, 280, 375
-0.999087, 129, 161, 144, 288
-0.999089, 459, 49, 474, 176
-0.9991, 197, 97, 212, 224
-0.999101, 231, 97, 246, 224
-0.999108, 127, 113, 142, 240
-0.99911, 295, 129, 310, 256
-0.999127, 269, 113, 284, 240
-0.999129, 253, 161, 268, 288
-0.99914, 285, 113, 300, 240
-0.999143, 173, 193, 188, 320
-0.999151, 131, 17, 146, 144
-0.999154, 161, 1, 176, 128
-0.999158, 463, 113, 478, 240
-0.99916, 61, 241, 76, 368
-0.999161, 181, 161, 196, 288
-0.99917, 257, 81, 272, 208
-0.999195, 453, 1, 484, 256
-0.999204, 373, 1, 404, 256
-0.99926, 1, 281, 500, 344
-0.999388, 357, 1, 388, 256
-0.999428, 345, 1, 376, 256
-0.999554, 441, 1, 472, 256
-0.999614, 321, 129, 384, 375
-0.999636, 321, 1, 352, 256
-0.999681, 317, 97, 348, 352
-0.999722, 385, 1, 416, 256
-0.999743, 321, 201, 448, 264
-0.999745, 17, 65, 32, 80
-0.999745, 45, 47, 60, 62
-0.999745, 77, 209, 92, 224
-0.999746, 65, 27, 80, 42
-0.999746, 41, 337, 56, 352
-0.999746, 97, 177, 112, 192
-0.999747, 27, 105, 42, 120
-0.999747, 75, 75, 90, 90
-0.999747, 19, 217, 34, 232
-0.999748, 75, 223, 90, 238
-0.999748, 7, 97, 22, 112
-0.999749, 485, 285, 500, 300
-0.999749, 49, 107, 64, 122
-0.99975, 53, 101, 68, 116
-0.99975, 21, 155, 36, 170
-0.99975, 13, 89, 28, 104
-0.99975, 33, 69, 48, 84
-0.99975, 17, 141, 32, 156
-0.999751, 91, 143, 106, 158
-0.999751, 35, 83, 50, 98
-0.999752, 17, 13, 32, 28
-0.999752, 39, 205, 54, 220
-0.999753, 13, 47, 28, 62
-0.999753, 1, 197, 16, 212
-0.999753, 57, 163, 72, 178
-0.999753, 23, 35, 38, 50
-0.999754, 19, 113, 34, 128
-0.999754, 23, 17, 38, 32
-0.999755, 65, 159, 80, 174
-0.999755, 47, 195, 62, 210
-0.999755, 99, 187, 114, 202
-0.999756, 93, 159, 108, 174
-0.999756, 9, 109, 24, 124
-0.999757, 7, 15, 22, 30
-0.999757, 11, 179, 26, 194
-0.999757, 13, 123, 28, 138
-0.999759, 37, 89, 52, 104
-0.999759, 95, 149, 110, 164
-0.999759, 37, 225, 52, 240
-0.99976, 25, 171, 40, 186
-0.999761, 35, 77, 50, 92
-0.999761, 23, 95, 38, 110
-0.999761, 9, 193, 24, 208
-0.999762, 75, 165, 90, 180
-0.999762, 75, 31, 90, 46
-0.999762, 1, 67, 16, 82
-0.999762, 9, 23, 24, 38
-0.999762, 83, 83, 98, 98
-0.999762, 29, 49, 44, 64
-0.999763, 31, 125, 46, 140
-0.999763, 37, 167, 52, 182
-0.999763, 313, 161, 376, 288
-0.999764, 43, 91, 58, 106
-0.999764, 37, 1, 52, 16
-0.999764, 57, 157, 72, 172
-0.999766, 47, 149, 62, 164
-0.999766, 31, 59, 46, 74
-0.999766, 81, 71, 96, 86
-0.999767, 79, 59, 94, 74
-0.999767, 31, 169, 46, 184
-0.999768, 67, 41, 82, 56
-0.999769, 53, 219, 68, 234
-0.99977, 75, 203, 90, 218
-0.99977, 49, 65, 64, 80
-0.999771, 9, 71, 24, 86
-0.999773, 1, 77, 16, 92
-0.999773, 43, 219, 58, 234
-0.999773, 27, 119, 42, 134
-0.999774, 55, 107, 70, 122
-0.999775, 81, 65, 96, 80
-0.999776, 35, 155, 50, 170
-0.999776, 71, 1, 86, 16
-0.999777, 13, 163, 28, 178
-0.999777, 87, 119, 102, 134
-0.999778, 61, 181, 76, 196
-0.999778, 73, 17, 88, 32
-0.999778, 77, 45, 92, 60
-0.99978, 3, 123, 18, 138
-0.999781, 49, 213, 64, 228
-0.999781, 87, 111, 102, 126
-0.999782, 33, 41, 48, 56
-0.999783, 61, 133, 76, 148
-0.999783, 23, 27, 38, 42
-0.999784, 29, 163, 44, 178
-0.999785, 19, 223, 34, 238
-0.999785, 27, 153, 42, 168
-0.999786, 15, 59, 30, 74
-0.999787, 37, 161, 52, 176
-0.999787, 5, 47, 20, 62
-0.999787, 43, 343, 58, 358
-0.99979, 27, 69, 42, 84
-0.99979, 65, 197, 80, 212
-0.999792, 23, 131, 38, 146
-0.999793, 45, 143, 60, 158
-0.999794, 19, 147, 34, 162
-0.999794, 81, 201, 96, 216
-0.999795, 5, 55, 20, 70
-0.999796, 51, 185, 66, 200
-0.999796, 55, 205, 70, 220
-0.999799, 83, 91, 98, 106
-0.999799, 53, 225, 68, 240
-0.999799, 83, 215, 98, 230
-0.999799, 49, 177, 64, 192
-0.999799, 47, 163, 62, 178
-0.999799, 31, 89, 46, 104
-0.9998, 9, 199, 24, 214
-0.999802, 15, 7, 30, 22
-0.999802, 41, 115, 56, 130
-0.999806, 17, 105, 32, 120
-0.999807, 45, 155, 60, 170
-0.999809, 53, 195, 68, 210
-0.999809, 9, 115, 24, 130
-0.99981, 45, 97, 60, 112
-0.999811, 35, 113, 50, 128
-0.999813, 37, 99, 52, 114
-0.999814, 17, 19, 32, 34
-0.999819, 41, 121, 56, 136
-0.999819, 51, 113, 66, 128
-0.999823, 23, 51, 38, 66
-0.999825, 29, 81, 44, 96
-0.999827, 35, 105, 50, 120
-0.999828, 23, 161, 38, 176
-0.999832, 33, 213, 48, 228
-0.999832, 25, 61, 40, 76
-0.999833, 9, 185, 24, 200
-0.999838, 23, 41, 38, 56
-0.999842, 41, 27, 56, 42
-0.999855, 3, 129, 18, 144
-0.99986, 17, 183, 32, 198
-0.999869, 7, 139, 22, 154
-0.999878, 397, 1, 428, 256
-0.999878, 425, 1, 456, 256
-0.999879, 25, 219, 40, 234
-0.999979, 257, 313, 500, 375
-1.00005, 441, 97, 472, 352
-1.00018, 369, 273, 496, 336
-1.00021, 409, 1, 440, 256
-1.0004, 333, 1, 364, 256
-1.00046, 345, 81, 408, 208
-1.00053, 329, 97, 360, 352
-1.00065, 361, 129, 392, 375
-1.00072, 345, 129, 376, 375
-1.00089, 401, 97, 432, 352
-1.00092, 381, 97, 412, 352
-1.00096, 429, 97, 460, 352
-1.00115, 409, 97, 472, 352
-1.00126, 413, 97, 444, 352
-1.00168, 401, 209, 464, 336
-1.00187, 353, 161, 416, 288
-1.00209, 345, 129, 408, 375
-1.00218, 321, 177, 448, 240
-1.00379, 385, 129, 448, 375
-1.00448, 369, 113, 432, 240
-1.00655, 385, 161, 448, 288
