1878
-0.528434, 161, 1, 416, 333
-0.53055, 1, 1, 256, 333
-0.590627, 1, 1, 500, 333
-0.592338, 1, 65, 500, 320
-0.605679, 193, 65, 448, 320
-0.619629, 257, 1, 500, 333
-0.723759, 97, 65, 352, 320
-0.798364, 1, 33, 256, 288
-0.861271, 209, 65, 336, 320
-0.878002, 177, 1, 304, 333
-0.883679, 225, 1, 352, 333
-0.885894, 161, 1, 288, 256
-0.89284, 273, 1, 400, 333
-0.899158, 97, 1, 224, 333
-0.90053, 289, 33, 416, 288
-0.908785, 49, 1, 176, 333
-0.910559, 1, 1, 128, 333
-0.913789, 1, 113, 500, 240
-0.914993, 321, 1, 448, 333
-0.916349, 113, 33, 240, 288
-0.919471, 161, 113, 416, 240
-0.924695, 1, 1, 500, 128
-0.927507, 1, 161, 500, 288
-0.927755, 193, 65, 448, 192
-0.927981, 369, 33, 496, 288
-0.932327, 129, 1, 384, 128
-0.932356, 369, 1, 496, 333
-0.939579, 1, 49, 500, 176
-0.941104, 193, 161, 448, 288
-0.945233, 33, 1, 160, 256
-0.945276, 193, 97, 320, 224
-0.946246, 193, 113, 256, 240
-0.948281, 65, 129, 320, 256
-0.9488, 33, 33, 288, 160
-0.951322, 257, 1, 500, 128
-0.953734, 305, 129, 368, 256
-0.954812, 281, 81, 344, 208
-0.95487, 257, 49, 384, 176
-0.955362, 241, 129, 368, 256
-0.955952, 177, 1, 240, 128
-0.956209, 201, 49, 264, 176
-0.956561, 225, 81, 288, 208
-0.957127, 289, 129, 416, 256
-0.957844, 129, 129, 256, 256
-0.959048, 337, 129, 400, 256
-0.95912, 201, 169, 264, 232
-0.959253, 185, 129, 248, 192
-0.96072, 249, 129, 312, 256
-0.96111, 353, 1, 480, 128
-0.96181, 313, 65, 376, 192
-0.961874, 145, 1, 272, 128
-0.962308, 1, 1, 128, 128
-0.96236, 209, 1, 336, 128
-0.962505, 281, 129, 344, 256
-0.962611, 65, 1, 192, 128
-0.963082, 305, 65, 432, 192
-0.963179, 129, 49, 256, 176
-0.963491, 177, 161, 304, 288
-0.964194, 353, 161, 416, 224
-0.964261, 217, 113, 280, 176
-0.964682, 209, 49, 336, 176
-0.965388, 337, 81, 400, 208
-0.96599, 177, 65, 240, 192
-0.966352, 369, 65, 496, 192
-0.966408, 153, 1, 216, 128
-0.966683, 201, 161, 264, 288
-0.966825, 201, 1, 264, 128
-0.967596, 273, 1, 400, 128
-0.967696, 321, 137, 384, 200
-0.968001, 225, 1, 288, 128
-0.968036, 257, 113, 500, 240
-0.968251, 97, 177, 352, 304
-0.968834, 17, 1, 80, 128
-0.96909, 241, 105, 304, 168
-0.969235, 233, 137, 296, 200
-0.969902, 257, 81, 320, 208
-0.970644, 169, 129, 232, 256
-0.970709, 225, 129, 288, 256
-0.970819, 297, 49, 360, 112
-0.970958, 329, 169, 392, 232
-0.971067, 65, 81, 320, 208
-0.971274, 337, 129, 464, 256
-0.971391, 289, 145, 352, 208
-0.971709, 345, 137, 408, 200
-0.971852, 145, 49, 208, 176
-0.972055, 9, 41, 72, 104
-0.972063, 1, 209, 500, 333
-0.972167, 361, 129, 424, 256
-0.972523, 377, 153, 440, 216
-0.972781, 209, 137, 272, 200
-0.972821, 193, 105, 256, 168
-0.973471, 201, 113, 232, 240
-0.973645, 1, 49, 128, 176
-0.973961, 209, 1, 272, 256
-0.974218, 177, 121, 304, 184
-0.974272, 177, 161, 240, 224
-0.974374, 305, 1, 368, 128
-0.974458, 265, 121, 328, 184
-0.975323, 217, 161, 248, 224
-0.975361, 193, 49, 256, 112
-0.975493, 329, 49, 392, 112
-0.975551, 189, 113, 220, 240
-0.975708, 233, 65, 296, 320
-0.976025, 41, 41, 104, 104
-0.976461, 161, 41, 224, 104
-0.976529, 41, 1, 104, 128
-0.976655, 201, 121, 232, 184
-0.976701, 209, 145, 336, 208
-0.976767, 265, 1, 328, 128
-0.976817, 385, 145, 416, 208
-0.977029, 193, 1, 256, 64
-0.977101, 321, 113, 384, 176
-0.977368, 333, 97, 364, 224
-0.977385, 225, 33, 288, 96
-0.977465, 433, 65, 496, 192
-0.977485, 297, 121, 360, 184
-0.977515, 433, 57, 496, 120
-0.977664, 257, 145, 320, 208
-0.977828, 257, 65, 320, 320
-0.978176, 189, 137, 220, 200
-0.978328, 81, 49, 208, 176
-0.978597, 205, 161, 236, 224
-0.97866, 317, 129, 348, 256
-0.97871, 225, 177, 352, 304
-0.979138, 265, 57, 328, 120
-0.979152, 305, 185, 368, 248
-0.979278, 273, 137, 400, 200
-0.979711, 213, 129, 244, 192
-0.979742, 1, 41, 128, 104
-0.979746, 177, 177, 240, 304
-0.979875, 341, 137, 372, 200
-0.97989, 213, 113, 244, 240
-0.979962, 225, 185, 288, 248
-0.980346, 201, 81, 264, 144
-0.980495, 289, 49, 416, 112
-0.980676, 305, 177, 432, 304
-0.980837, 185, 1, 248, 256
-0.980882, 233, 177, 296, 304
-0.980908, 305, 161, 432, 224
-0.980978, 313, 177, 376, 304
-0.981089, 289, 81, 352, 144
-0.981152, 153, 153, 216, 216
-0.981176, 409, 65, 472, 128
-0.981274, 209, 49, 336, 112
-0.981411, 353, 65, 480, 128
-0.981417, 185, 1, 216, 128
-0.981491, 65, 49, 128, 176
-0.981551, 137, 49, 200, 112
-0.981752, 361, 1, 424, 128
-0.981999, 361, 129, 392, 256
-0.982022, 225, 113, 256, 176
-0.982134, 357, 161, 388, 224
-0.982182, 225, 113, 352, 176
-0.982255, 145, 49, 272, 112
-0.98249, 321, 145, 352, 208
-0.982622, 273, 81, 400, 144
-0.982643, 265, 97, 328, 160
-0.982734, 225, 57, 288, 120
-0.982797, 353, 49, 384, 176
-0.982858, 261, 113, 292, 176
-0.98296, 201, 65, 232, 192
-0.982997, 177, 169, 304, 232
-0.983014, 241, 97, 272, 224
-0.98302, 253, 97, 284, 224
-0.983072, 365, 137, 396, 200
-0.983083, 229, 169, 260, 232
-0.983208, 129, 161, 256, 224
-0.983311, 65, 49, 192, 112
-0.983325, 313, 49, 344, 176
-0.983387, 273, 113, 400, 176
-0.983425, 329, 121, 360, 184
-0.983498, 353, 57, 416, 120
-0.983508, 265, 185, 328, 248
-0.98352, 225, 97, 256, 224
-0.983577, 129, 177, 256, 304
-0.983637, 73, 1, 136, 128
-0.983641, 381, 169, 412, 232
-0.983723, 241, 105, 272, 168
-0.983742, 345, 177, 408, 304
-0.983768, 1, 49, 64, 176
-0.983894, 113, 1, 176, 128
-0.983917, 233, 81, 296, 144
-0.983944, 225, 145, 256, 272
-0.984001, 201, 25, 264, 88
-0.984005, 161, 65, 224, 128
-0.984084, 289, 97, 320, 224
-0.984091, 217, 1, 280, 64
-0.98412, 401, 1, 464, 128
-0.984273, 161, 129, 224, 192
-0.98428, 225, 161, 288, 224
-0.984294, 449, 57, 480, 120
-0.984332, 213, 105, 244, 168
-0.984344, 345, 113, 408, 176
-0.984397, 301, 113, 332, 176
-0.984467, 349, 145, 380, 272
-0.984553, 385, 129, 416, 256
-0.984561, 297, 1, 360, 256
-0.98458, 65, 41, 128, 104
-0.984632, 373, 113, 404, 240
-0.984638, 329, 81, 392, 144
-0.984647, 369, 177, 432, 304
-0.984797, 369, 161, 400, 224
-0.984844, 193, 1, 256, 333
-0.984883, 129, 137, 256, 200
-0.984935, 21, 41, 52, 104
-0.984983, 301, 81, 332, 208
-0.985043, 193, 169, 224, 232
-0.985045, 305, 49, 336, 112
-0.985116, 145, 97, 208, 224
-0.985121, 337, 1, 400, 128
-0.985145, 273, 129, 304, 256
-0.985257, 349, 97, 380, 224
-0.985373, 397, 153, 428, 216
-0.985455, 153, 1, 216, 256
-0.985489, 81, 97, 208, 224
-0.985504, 113, 49, 176, 112
-0.985524, 273, 113, 304, 176
-0.985543, 409, 49, 472, 176
-0.985564, 369, 129, 432, 192
-0.985648, 425, 1, 488, 128
-0.985713, 193, 161, 224, 288
-0.985785, 345, 169, 376, 232
-0.985807, 369, 65, 432, 192
-0.986031, 237, 161, 268, 288
-0.986041, 225, 137, 256, 200
-0.986046, 377, 177, 440, 240
-0.986182, 257, 177, 384, 240
-0.986327, 145, 145, 208, 272
-0.98635, 237, 137, 268, 200
-0.986389, 9, 73, 72, 136
-0.986393, 189, 65, 220, 192
-0.986508, 209, 73, 336, 136
-0.986527, 305, 129, 336, 256
-0.986572, 205, 161, 236, 288
-0.9867, 153, 1, 216, 64
-0.986718, 145, 1, 272, 64
-0.986742, 213, 1, 244, 128
-0.986754, 237, 1, 268, 64
-0.986867, 309, 145, 340, 208
-0.986873, 285, 121, 316, 184
-0.986935, 165, 49, 196, 112
-0.987007, 325, 49, 356, 176
-0.987264, 177, 185, 240, 248
-0.987267, 433, 89, 496, 152
-0.987317, 229, 1, 260, 128
-0.987318, 353, 41, 480, 104
-0.987346, 345, 33, 408, 288
-0.987371, 89, 41, 152, 104
-0.987372, 289, 177, 352, 304
-0.98743, 209, 25, 336, 88
-0.987492, 129, 73, 192, 136
-0.987497, 173, 1, 204, 128
-0.987518, 265, 81, 296, 208
-0.987519, 121, 49, 184, 176
-0.987644, 145, 81, 272, 144
-0.987743, 321, 137, 448, 200
-0.987752, 217, 1, 280, 333
-0.987774, 277, 81, 308, 208
-0.98779, 373, 161, 404, 288
-0.987804, 337, 49, 368, 176
-0.987937, 1, 65, 128, 128
-0.987955, 265, 177, 328, 304
-0.987956, 321, 1, 384, 333
-0.987969, 313, 121, 344, 184
-0.987976, 177, 145, 208, 272
-0.987995, 129, 113, 256, 176
-0.988008, 45, 41, 76, 104
-0.988091, 273, 145, 304, 208
-0.988161, 337, 145, 368, 272
-0.988285, 241, 1, 272, 128
-0.988307, 385, 129, 448, 256
-0.988393, 453, 49, 484, 176
-0.988396, 221, 49, 252, 176
-0.988694, 225, 49, 256, 112
-0.988827, 161, 137, 416, 200
-0.988941, 325, 177, 356, 240
-0.98898, 21, 1, 52, 128
-0.98898, 253, 145, 284, 272
-0.988988, 41, 65, 104, 128
-0.989035, 201, 169, 264, 200
-0.989173, 1, 177, 256, 304
-0.989246, 281, 1, 344, 333
-0.989349, 201, 121, 264, 152
-0.98935, 401, 41, 464, 104
-0.989438, 225, 1, 352, 64
-0.989556, 333, 49, 364, 112
-0.989631, 361, 113, 392, 176
-0.989666, 369, 1, 432, 64
-0.989676, 349, 113, 380, 176
-0.989738, 297, 145, 328, 208
-0.989777, 353, 185, 416, 248
-0.989778, 205, 49, 236, 112
-0.989834, 229, 25, 260, 88
-0.98985, 193, 1, 224, 64
-0.989867, 297, 129, 360, 160
-0.989925, 97, 73, 224, 136
-0.989927, 321, 113, 448, 176
-0.989993, 241, 9, 304, 72
-0.990047, 209, 181, 272, 212
-0.990065, 225, 121, 288, 152
-0.990077, 193, 209, 448, 333
-0.990081, 249, 1, 312, 333
-0.990128, 469, 57, 500, 120
-0.990132, 361, 165, 424, 196
-0.99019, 253, 137, 284, 200
-0.990192, 453, 1, 484, 128
-0.990221, 185, 133, 248, 164
-0.990221, 257, 33, 320, 96
-0.990224, 329, 173, 392, 204
-0.990244, 81, 25, 208, 88
-0.990252, 345, 49, 376, 112
-0.990257, 61, 41, 92, 104
-0.990266, 297, 57, 360, 88
-0.990334, 145, 25, 272, 88
-0.990344, 169, 1, 232, 333
-0.990382, 129, 185, 256, 248
-0.990387, 153, 61, 216, 92
-0.990435, 185, 181, 248, 212
-0.990441, 233, 109, 296, 140
-0.990516, 137, 1, 200, 333
-0.990591, 353, 137, 384, 200
-0.990595, 177, 65, 208, 192
-0.99063, 185, 65, 248, 96
-0.990642, 273, 133, 336, 164
-0.990664, 169, 89, 232, 152
-0.99071, 377, 49, 440, 112
-0.99072, 353, 161, 480, 224
-0.99072, 177, 165, 240, 196
-0.990734, 297, 69, 360, 100
-0.990763, 249, 129, 312, 160
-0.990785, 49, 17, 112, 80
-0.990806, 321, 65, 384, 320
-0.990813, 57, 1, 120, 333
-0.990814, 257, 109, 320, 140
-0.990819, 321, 129, 384, 160
-0.990833, 281, 117, 344, 148
-0.990858, 161, 1, 192, 128
-0.990874, 9, 17, 72, 80
-0.990896, 305, 185, 432, 248
-0.990941, 313, 185, 344, 248
-0.990971, 41, 49, 104, 176
-0.991009, 193, 53, 256, 84
-0.991009, 153, 49, 216, 80
-0.991034, 329, 1, 360, 128
-0.991037, 201, 109, 264, 140
-0.99105, 41, 61, 104, 92
-0.991057, 329, 57, 392, 88
-0.991115, 293, 145, 324, 272
-0.991116, 285, 145, 316, 208
-0.991117, 469, 49, 500, 176
-0.991125, 321, 185, 384, 216
-0.991142, 9, 61, 72, 92
-0.991171, 9, 49, 72, 80
-0.991217, 349, 89, 380, 152
-0.991231, 45, 1, 76, 128
-0.991243, 213, 185, 244, 248
-0.991257, 185, 25, 216, 88
-0.991273, 65, 73, 128, 136
-0.991284, 41, 49, 104, 80
-0.991292, 257, 69, 320, 100
-0.991317, 369, 153, 432, 184
-0.991328, 369, 137, 496, 200
-0.991348, 177, 193, 304, 256
-0.991348, 321, 141, 384, 172
-0.991367, 1, 17, 128, 80
-0.991388, 345, 145, 408, 176
-0.991395, 369, 89, 496, 152
-0.991417, 225, 57, 288, 88
-0.991436, 329, 69, 392, 100
-0.991437, 401, 161, 464, 224
-0.991453, 5, 49, 36, 112
-0.991464, 353, 177, 416, 208
-0.99148, 201, 193, 264, 256
-0.991498, 65, 1, 192, 64
-0.991506, 233, 189, 296, 220
-0.991519, 433, 61, 496, 92
-0.991525, 365, 57, 396, 120
-0.991529, 469, 1, 500, 128
-0.991551, 73, 1, 104, 128
-0.991562, 289, 73, 320, 136
-0.991566, 177, 121, 240, 152
-0.991643, 337, 161, 400, 192
-0.991663, 221, 73, 252, 136
-0.991664, 433, 73, 496, 104
-0.991678, 281, 145, 344, 176
-0.991688, 249, 141, 312, 172
-0.991688, 289, 189, 352, 220
-0.991735, 265, 189, 328, 220
-0.991736, 401, 73, 464, 104
-0.991774, 337, 117, 400, 148
-0.991788, 193, 57, 448, 120
-0.9918, 113, 65, 176, 96
-0.991839, 289, 173, 352, 204
-0.991868, 233, 177, 296, 208
-0.991875, 217, 133, 280, 164
-0.991917, 193, 193, 256, 224
-0.991918, 153, 73, 216, 104
-0.991929, 441, 49, 472, 176
-0.991956, 145, 105, 208, 168
-0.991958, 81, 53, 144, 84
-0.991967, 201, 1, 232, 128
-0.991973, 361, 69, 424, 100
-0.991984, 281, 1, 344, 64
-0.992027, 177, 153, 240, 184
-0.99203, 177, 145, 208, 208
-0.992043, 1, 1, 64, 333
-0.992051, 437, 65, 468, 128
-0.992064, 193, 5, 256, 36
-0.992086, 161, 177, 224, 208
-0.992116, 241, 185, 272, 248
-0.992173, 225, 45, 288, 76
-0.992223, 257, 53, 320, 84
-0.992242, 377, 177, 440, 208
-0.992283, 153, 161, 216, 192
-0.992301, 401, 61, 464, 92
-0.992312, 161, 113, 416, 176
-0.992314, 201, 17, 264, 48
-0.99232, 169, 1, 232, 32
-0.992324, 333, 133, 364, 164
-0.992335, 217, 69, 280, 100
-0.992346, 353, 129, 416, 160
-0.992367, 369, 185, 400, 248
-0.992374, 369, 57, 432, 88
-0.992378, 165, 81, 196, 208
-0.992386, 201, 121, 232, 152
-0.9924, 209, 165, 240, 196
-0.992436, 321, 81, 352, 144
-0.992438, 397, 145, 428, 272
-0.992441, 353, 81, 416, 144
-0.992442, 221, 169, 252, 200
-0.992443, 289, 49, 320, 176
-0.992446, 361, 165, 392, 196
-0.992453, 73, 49, 104, 112
-0.992461, 433, 85, 496, 116
-0.992465, 301, 1, 332, 128
-0.992472, 121, 53, 184, 84
-0.992527, 237, 49, 268, 176
-0.992536, 185, 77, 248, 108
-0.992542, 213, 113, 244, 144
-0.992544, 229, 121, 260, 152
-0.99256, 321, 129, 352, 160
-0.992571, 409, 85, 472, 116
-0.992593, 313, 153, 376, 184
-0.992597, 1, 41, 256, 104
-0.992603, 217, 1, 280, 32
-0.992622, 345, 189, 408, 220
-0.992622, 297, 105, 360, 136
-0.992639, 345, 1, 408, 333
-0.992664, 129, 77, 192, 108
-0.992668, 225, 181, 256, 212
-0.992673, 257, 177, 320, 208
-0.99268, 201, 133, 232, 164
-0.992706, 185, 41, 248, 72
-0.992713, 297, 81, 360, 112
-0.992727, 305, 117, 368, 148
-0.992729, 329, 81, 392, 112
-0.992732, 81, 65, 144, 96
-0.992734, 389, 149, 420, 180
-0.992738, 369, 189, 432, 220
-0.992741, 297, 25, 360, 88
-0.992743, 213, 181, 244, 212
-0.992749, 381, 165, 412, 196
-0.992751, 365, 177, 396, 208
-0.992782, 285, 133, 316, 164
-0.992787, 177, 109, 240, 140
-0.992794, 349, 173, 380, 204
-0.992796, 201, 177, 232, 208
-0.992802, 365, 65, 396, 192
-0.992807, 189, 173, 220, 204
-0.992815, 9, 73, 72, 104
-0.992821, 353, 81, 416, 112
-0.992844, 213, 125, 244, 156
-0.992857, 241, 13, 304, 44
-0.992861, 309, 177, 340, 304
-0.992901, 237, 109, 268, 140
-0.992913, 385, 165, 448, 196
-0.992923, 193, 29, 256, 60
-0.992929, 217, 145, 280, 176
-0.99294, 33, 41, 64, 104
-0.992957, 321, 49, 352, 112
-0.992958, 249, 97, 312, 128
-0.992962, 249, 109, 280, 140
-0.992963, 161, 37, 224, 68
-0.992981, 265, 81, 328, 112
-0.992983, 309, 129, 340, 160
-0.992983, 273, 109, 304, 140
-0.992993, 297, 113, 328, 144
-0.993003, 153, 17, 216, 48
-0.993009, 353, 141, 384, 172
-0.993022, 241, 121, 272, 152
-0.993031, 185, 145, 216, 176
-0.993032, 197, 189, 228, 220
-0.993039, 273, 133, 304, 164
-0.993048, 305, 57, 336, 88
-0.99305, 449, 61, 480, 92
-0.993051, 337, 177, 368, 208
-0.993054, 397, 161, 428, 192
-0.993057, 137, 1, 200, 32
-0.993066, 153, 149, 216, 180
-0.99307, 185, 65, 216, 96
-0.993071, 345, 129, 376, 160
-0.993072, 233, 165, 296, 196
-0.993072, 321, 189, 352, 220
-0.993073, 329, 193, 392, 256
-0.993079, 377, 121, 408, 184
-0.993085, 45, 61, 76, 92
-0.993099, 105, 113, 168, 144
-0.993102, 229, 53, 260, 84
-0.993108, 393, 153, 456, 184
-0.993109, 225, 81, 288, 112
-0.99311, 341, 145, 372, 176
-0.99311, 301, 81, 332, 144
-0.99311, 369, 5, 432, 36
-0.993111, 237, 189, 268, 220
-0.993122, 261, 117, 292, 148
-0.993126, 205, 53, 236, 84
-0.993133, 297, 185, 328, 248
-0.993134, 225, 33, 288, 64
-0.993137, 313, 141, 344, 172
-0.993137, 81, 17, 144, 80
-0.993142, 65, 49, 96, 80
-0.993142, 201, 157, 264, 188
-0.993154, 165, 53, 196, 84
-0.993154, 469, 73, 500, 104
-0.993158, 349, 57, 380, 88
-0.99316, 285, 109, 316, 140
-0.993161, 385, 177, 416, 208
-0.993161, 241, 177, 272, 208
-0.993162, 49, 73, 112, 104
-0.993166, 249, 1, 312, 32
-0.993174, 301, 141, 332, 172
-0.993176, 313, 117, 344, 148
-0.993182, 253, 141, 284, 172
-0.993185, 377, 141, 408, 172
-0.99319, 285, 121, 316, 152
-0.993207, 333, 113, 364, 144
-0.993209, 309, 189, 340, 220
-0.993209, 357, 129, 388, 160
-0.993215, 329, 69, 360, 100
-0.993219, 177, 17, 240, 48
-0.993221, 313, 173, 344, 204
-0.993231, 21, 49, 52, 80
-0.993234, 433, 73, 464, 104
-0.993235, 217, 193, 248, 224
-0.993237, 229, 1, 260, 32
-0.993245, 329, 25, 392, 88
-0.993247, 297, 129, 328, 160
-0.993247, 73, 1, 136, 32
-0.993251, 153, 117, 216, 148
-0.993259, 253, 189, 284, 220
-0.993259, 225, 109, 256, 140
-0.993265, 333, 189, 364, 220
-0.993273, 273, 121, 304, 152
-0.99328, 297, 189, 328, 220
-0.993281, 241, 21, 272, 52
-0.993281, 185, 161, 216, 192
-0.993282, 449, 73, 480, 104
-0.993285, 261, 129, 292, 160
-0.993287, 353, 185, 384, 216
-0.993292, 393, 1, 456, 32
-0.993298, 325, 177, 356, 208
-0.993302, 145, 65, 176, 96
-0.993309, 145, 137, 208, 168
-0.993312, 33, 1, 96, 333
-0.993317, 469, 61, 500, 92
-0.993317, 285, 69, 316, 100
-0.99332, 373, 153, 404, 184
-0.993325, 261, 105, 292, 136
-0.993326, 189, 133, 220, 164
-0.993329, 241, 133, 272, 164
-0.993334, 221, 141, 252, 172
-0.993335, 273, 145, 304, 176
-0.993345, 305, 45, 368, 76
-0.993352, 345, 1, 408, 32
-0.993353, 241, 9, 272, 40
-0.993358, 113, 41, 176, 72
-0.993359, 81, 145, 208, 272
-0.99336, 325, 145, 356, 176
-0.993363, 149, 49, 180, 112
-0.993365, 265, 189, 296, 220
-0.993366, 1, 61, 32, 92
-0.99337, 45, 49, 76, 80
-0.993377, 189, 117, 220, 148
-0.993378, 321, 105, 384, 136
-0.993379, 229, 65, 260, 96
-0.993386, 189, 1, 220, 32
-0.993387, 329, 53, 360, 84
-0.993387, 197, 161, 228, 192
-0.993388, 469, 85, 500, 116
-0.993388, 33, 1, 96, 32
-0.99339, 393, 137, 456, 168
-0.993392, 197, 65, 228, 96
-0.993394, 213, 65, 244, 96
-0.9934, 301, 177, 332, 208
-0.993408, 365, 189, 396, 220
-0.993411, 401, 145, 432, 176
-0.993415, 89, 53, 120, 84
-0.993415, 361, 109, 392, 140
-0.993416, 185, 49, 216, 80
-0.99342, 201, 97, 264, 128
-0.99342, 397, 177, 428, 208
-0.993422, 345, 157, 376, 188
-0.993426, 73, 61, 104, 92
-0.99343, 361, 77, 392, 108
-0.993437, 277, 189, 308, 220
-0.993437, 345, 113, 376, 144
-0.993441, 281, 5, 344, 36
-0.993444, 369, 129, 400, 160
-0.993444, 81, 161, 208, 224
-0.993447, 229, 21, 260, 52
-0.993451, 81, 41, 144, 72
-0.993453, 377, 61, 408, 92
-0.993456, 17, 61, 48, 92
-0.993458, 369, 141, 432, 172
-0.993459, 353, 93, 384, 124
-0.993461, 145, 1, 176, 128
-0.993462, 169, 65, 200, 96
-0.993465, 333, 97, 364, 160
-0.993467, 233, 41, 264, 72
-0.993467, 157, 73, 188, 104
-0.993468, 185, 33, 216, 64
-0.993475, 289, 145, 320, 176
-0.993478, 221, 157, 252, 188
-0.99348, 253, 177, 284, 208
-0.99348, 189, 17, 220, 48
-0.993484, 249, 49, 280, 176
-0.993485, 209, 113, 336, 144
-0.993495, 441, 85, 472, 116
-0.993499, 181, 185, 212, 216
-0.993499, 297, 77, 328, 108
-0.993504, 217, 53, 248, 84
-0.993508, 365, 1, 396, 128
-0.993511, 57, 61, 88, 92
-0.993517, 341, 69, 372, 100
-0.99352, 209, 9, 240, 40
-0.99354, 153, 85, 216, 116
-0.99354, 353, 1, 480, 64
-0.993546, 113, 1, 176, 32
-0.993552, 305, 1, 368, 32
-0.993557, 377, 89, 440, 120
-0.993602, 433, 1, 496, 32
-0.993603, 17, 37, 80, 68
-0.993606, 225, 97, 288, 128
-0.993607, 273, 25, 400, 88
-0.993659, 313, 197, 376, 228
-0.993666, 97, 65, 160, 192
-0.993679, 245, 81, 276, 144
-0.993681, 329, 45, 392, 76
-0.993682, 289, 1, 416, 64
-0.993696, 285, 1, 316, 128
-0.993789, 97, 1, 160, 333
-0.993811, 81, 129, 208, 192
-0.993857, 97, 49, 352, 112
-0.993995, 129, 33, 192, 288
-0.99409, 153, 177, 216, 240
-0.994113, 1, 1, 32, 128
-0.994147, 433, 1, 464, 128
-0.99417, 381, 49, 412, 176
-0.99421, 249, 25, 280, 88
-0.994229, 393, 177, 424, 240
-0.994268, 65, 1, 128, 256
-0.994287, 49, 73, 176, 136
-0.994327, 393, 129, 456, 192
-0.994402, 225, 1, 256, 64
-0.994451, 177, 141, 304, 172
-0.994456, 161, 185, 416, 248
-0.994457, 377, 57, 408, 120
-0.994513, 209, 125, 336, 156
-0.994521, 353, 1, 384, 128
-0.994557, 253, 185, 284, 248
-0.994598, 235, 169, 250, 232
-0.994614, 193, 49, 224, 112
-0.994624, 33, 1, 64, 128
-0.994627, 225, 161, 240, 224
-0.99463, 217, 161, 232, 224
-0.994644, 207, 169, 222, 232
-0.994657, 193, 81, 448, 144
-0.994657, 1, 49, 500, 112
-0.994752, 225, 161, 480, 224
-0.994759, 233, 81, 264, 144
-0.994774, 321, 89, 448, 152
-0.994786, 17, 49, 48, 176
-0.994797, 93, 41, 124, 104
-0.994853, 397, 1, 428, 128
-0.994893, 61, 1, 92, 128
-0.994893, 145, 49, 176, 176
-0.994917, 213, 17, 244, 80
-0.994917, 321, 177, 352, 304
-0.994925, 313, 1, 344, 128
-0.994938, 177, 49, 208, 112
-0.99495, 65, 137, 320, 200
-0.994992, 285, 185, 316, 248
-0.995061, 203, 129, 218, 192
-0.995065, 145, 53, 272, 84
-0.995125, 105, 113, 168, 176
-0.995134, 433, 33, 496, 96
-0.995156, 369, 1, 432, 333
-0.995156, 209, 65, 336, 96
-0.995165, 377, 73, 440, 136
-0.995174, 229, 137, 244, 200
-0.995226, 1, 137, 500, 200
-0.995285, 1, 161, 500, 224
-0.995316, 273, 57, 400, 88
-0.995319, 241, 161, 272, 224
-0.995339, 1, 53, 128, 84
-0.99534, 193, 173, 320, 204
-0.995341, 65, 161, 320, 224
-0.995347, 289, 137, 416, 168
-0.995347, 137, 25, 200, 88
-0.995351, 105, 1, 168, 64
-0.995351, 353, 69, 480, 100
-0.995398, 351, 137, 366, 200
-0.995403, 193, 189, 320, 220
-0.995421, 257, 125, 384, 156
-0.995433, 65, 61, 192, 92
-0.995443, 373, 81, 404, 144
-0.9955, 409, 89, 472, 152
-0.995536, 173, 9, 204, 72
-0.995542, 201, 97, 232, 160
-0.995564, 223, 129, 238, 192
-0.995579, 137, 129, 200, 192
-0.995582, 357, 169, 372, 232
-0.995601, 129, 1, 192, 64
-0.995605, 149, 73, 180, 136
-0.995611, 257, 81, 288, 144
-0.995634, 97, 73, 352, 136
-0.995665, 361, 177, 392, 304
-0.995692, 209, 129, 224, 192
-0.995726, 235, 137, 250, 200
-0.995731, 367, 161, 382, 224
-0.995763, 65, 113, 320, 176
-0.995767, 399, 145, 414, 208
-0.995777, 49, 73, 80, 136
-0.99578, 193, 145, 208, 208
-0.995782, 449, 89, 480, 152
-0.99579, 321, 169, 448, 200
-0.995805, 289, 97, 320, 160
-0.995813, 145, 169, 272, 200
-0.99582, 369, 177, 496, 304
-0.99583, 289, 49, 320, 112
-0.99586, 145, 65, 272, 96
-0.995865, 273, 89, 304, 152
-0.9959, 1, 65, 256, 128
-0.995905, 397, 129, 428, 192
-0.99591, 273, 69, 400, 100
-0.995912, 341, 1, 372, 128
-0.995916, 209, 53, 336, 84
-0.995941, 145, 181, 272, 212
-0.995944, 1, 1, 64, 256
-0.995961, 37, 73, 68, 136
-0.995981, 267, 113, 282, 176
-0.995982, 215, 105, 230, 168
-0.995993, 347, 113, 362, 176
-0.996022, 241, 185, 368, 216
-0.996027, 233, 113, 248, 176
-0.996043, 65, 49, 96, 176
-0.996062, 321, 1, 384, 64
-0.996081, 161, 125, 288, 156
-0.996094, 385, 177, 416, 304
-0.996102, 257, 137, 500, 200
-0.996122, 93, 1, 124, 128
-0.996146, 369, 113, 496, 176
-0.996152, 389, 153, 404, 216
-0.996159, 323, 121, 338, 184
-0.996174, 335, 145, 350, 208
-0.996207, 105, 81, 168, 144
-0.996229, 379, 161, 394, 224
-0.996248, 257, 201, 384, 264
-0.996251, 409, 161, 440, 224
-0.996273, 257, 113, 500, 176
-0.996284, 237, 1, 268, 256
-0.996286, 327, 145, 342, 208
-0.996287, 181, 177, 212, 240
-0.99631, 357, 137, 372, 200
-0.99632, 265, 185, 296, 248
-0.996325, 259, 113, 274, 176
-0.996349, 161, 73, 192, 136
-0.996362, 377, 97, 440, 160
-0.996373, 425, 57, 456, 120
-0.996381, 369, 185, 496, 248
-0.996411, 273, 121, 288, 184
-0.996414, 253, 1, 284, 128
-0.996419, 353, 57, 480, 88
-0.996422, 377, 65, 440, 320
-0.996428, 381, 1, 412, 64
-0.996459, 5, 73, 36, 136
-0.996469, 65, 49, 192, 80
-0.996475, 89, 65, 152, 320
-0.996479, 225, 1, 480, 64
-0.996481, 319, 145, 334, 208
-0.996482, 345, 1, 408, 64
-0.996498, 241, 105, 256, 168
-0.996511, 229, 185, 244, 248
-0.99652, 145, 1, 272, 32
-0.996522, 329, 121, 344, 184
-0.99653, 227, 105, 242, 168
-0.9966, 379, 137, 394, 200
-0.996604, 287, 121, 302, 184
-0.996657, 217, 137, 232, 200
-0.99666, 279, 113, 294, 176
-0.996665, 249, 113, 264, 176
-0.996669, 1, 65, 128, 96
-0.996676, 353, 81, 480, 112
-0.996692, 189, 113, 220, 176
-0.996719, 315, 121, 330, 184
-0.996741, 381, 1, 412, 128
-0.996751, 17, 73, 48, 136
-0.996751, 363, 137, 378, 200
-0.996752, 371, 137, 386, 200
-0.996759, 361, 81, 392, 144
-0.996761, 137, 49, 168, 112
-0.99679, 273, 173, 400, 204
-0.996814, 393, 1, 456, 64
-0.996815, 313, 145, 328, 208
-0.99682, 243, 137, 258, 200
-0.996825, 277, 145, 292, 208
-0.996831, 201, 169, 216, 232
-0.996852, 239, 1, 254, 64
-0.996866, 353, 157, 480, 188
-0.996868, 113, 121, 240, 152
-0.996874, 293, 121, 308, 184
-0.996875, 225, 1, 256, 256
-0.996884, 129, 25, 384, 88
-0.996889, 347, 161, 362, 224
-0.996895, 451, 57, 466, 120
-0.996909, 341, 129, 356, 192
-0.99691, 265, 1, 296, 128
-0.996932, 241, 137, 368, 168
-0.996932, 33, 17, 288, 80
-0.996935, 465, 89, 496, 152
-0.996937, 317, 169, 332, 232
-0.996941, 187, 145, 202, 208
-0.996953, 97, 73, 224, 104
-0.996958, 485, 57, 500, 120
-0.996968, 93, 49, 124, 176
-0.99699, 113, 153, 240, 184
-0.997, 373, 113, 388, 176
-0.997013, 241, 169, 256, 232
-0.99702, 257, 33, 500, 96
-0.997024, 121, 81, 152, 144
-0.997026, 113, 25, 176, 88
-0.99703, 81, 105, 208, 168
-0.997031, 211, 125, 226, 156
-0.997035, 289, 109, 416, 140
-0.997049, 235, 169, 250, 200
-0.997051, 197, 121, 212, 184
-0.997092, 295, 145, 310, 208
-0.99711, 283, 145, 298, 208
-0.997112, 335, 121, 350, 184
-0.997148, 213, 185, 228, 248
-0.997157, 249, 65, 280, 320
-0.997162, 1, 185, 500, 248
-0.997169, 169, 49, 184, 112
-0.997176, 207, 169, 222, 200
-0.997181, 225, 1, 352, 32
-0.997183, 397, 97, 428, 224
-0.997191, 57, 41, 72, 104
-0.997203, 327, 185, 342, 248
-0.997209, 237, 49, 268, 112
-0.997216, 333, 73, 364, 136
-0.997234, 225, 165, 240, 196
-0.997261, 201, 193, 232, 256
-0.997262, 373, 161, 388, 224
-0.997265, 257, 149, 384, 180
-0.997265, 189, 25, 204, 88
-0.997284, 145, 77, 272, 108
-0.997289, 5, 49, 36, 176
-0.997295, 289, 185, 416, 216
-0.997298, 311, 49, 326, 112
-0.997302, 235, 25, 250, 88
-0.997304, 289, 145, 304, 208
-0.99731, 209, 77, 336, 108
-0.997313, 305, 145, 320, 208
-0.997328, 337, 129, 352, 160
-0.997329, 309, 113, 324, 176
-0.99733, 213, 165, 228, 196
-0.997334, 393, 1, 456, 333
-0.997334, 51, 41, 66, 104
-0.997337, 339, 49, 354, 112
-0.997362, 29, 9, 60, 72
-0.997365, 245, 1, 260, 64
-0.997365, 273, 81, 400, 112
-0.997368, 289, 65, 320, 320
-0.99737, 105, 113, 168, 240
-0.997372, 225, 125, 240, 156
-0.997374, 303, 113, 318, 176
-0.997388, 257, 185, 500, 248
-0.997388, 433, 33, 496, 288
-0.99739, 209, 41, 336, 72
-0.9974, 77, 49, 108, 176
-0.997405, 261, 137, 276, 200
-0.997415, 457, 57, 472, 120
-0.997415, 219, 177, 234, 208
-0.997415, 237, 181, 252, 212
-0.997417, 265, 177, 296, 304
-0.997428, 221, 105, 236, 168
-0.99745, 405, 1, 436, 64
-0.997456, 369, 93, 496, 124
-0.997467, 249, 57, 280, 120
-0.997469, 225, 177, 240, 208
-0.997478, 305, 125, 432, 156
-0.997482, 345, 133, 360, 164
-0.997485, 385, 129, 400, 192
-0.997485, 215, 81, 230, 144
-0.997486, 209, 105, 224, 168
-0.997488, 93, 17, 124, 80
-0.997491, 117, 1, 148, 128
-0.997496, 23, 41, 38, 104
-0.9975, 445, 65, 460, 128
-0.997513, 219, 165, 234, 196
-0.997514, 345, 49, 360, 112
-0.997519, 13, 49, 28, 112
-0.997528, 359, 177, 374, 208
-0.997532, 333, 49, 348, 112
-0.997533, 305, 81, 320, 144
-0.997537, 349, 185, 364, 248
-0.99754, 163, 49, 178, 112
-0.997541, 267, 137, 282, 200
-0.997548, 403, 169, 418, 232
-0.997553, 165, 129, 196, 256
-0.997557, 471, 57, 486, 120
-0.997561, 229, 49, 244, 112
-0.997573, 377, 161, 392, 192
-0.99759, 41, 41, 56, 104
-0.997592, 365, 165, 380, 196
-0.997594, 249, 1, 280, 64
-0.997607, 353, 105, 368, 168
-0.997608, 145, 109, 272, 140
-0.997613, 327, 129, 342, 160
-0.997616, 303, 57, 318, 120
-0.997625, 211, 49, 226, 112
-0.997627, 193, 101, 320, 132
-0.997638, 231, 185, 246, 216
-0.997645, 237, 49, 252, 112
-0.997647, 1, 113, 500, 176
-0.997653, 371, 57, 386, 120
-0.997656, 393, 177, 408, 240
-0.997667, 465, 57, 480, 120
-0.997671, 247, 185, 262, 248
-0.997678, 231, 121, 246, 152
-0.997678, 327, 49, 342, 112
-0.997688, 273, 97, 288, 160
-0.997691, 241, 25, 256, 88
-0.997692, 341, 105, 356, 168
-0.997697, 353, 33, 416, 96
-0.997701, 305, 149, 432, 180
-0.997707, 97, 1, 224, 32
-0.997712, 189, 73, 220, 136
-0.997718, 337, 177, 352, 240
-0.99772, 201, 1, 232, 256
-0.99772, 289, 1, 416, 32
-0.997727, 477, 57, 492, 120
-0.997733, 261, 65, 292, 320
-0.997739, 193, 1, 208, 64
-0.997742, 341, 153, 356, 216
-0.997755, 85, 49, 100, 112
-0.99776, 201, 129, 216, 160
-0.99777, 321, 49, 336, 112
-0.997777, 315, 193, 330, 256
-0.997797, 189, 141, 204, 172
-0.997797, 65, 185, 320, 248
-0.997799, 203, 105, 218, 168
-0.997809, 63, 41, 78, 104
-0.997831, 71, 41, 86, 104
-0.997833, 187, 1, 202, 64
-0.997833, 355, 49, 370, 112
-0.997833, 411, 153, 426, 216
-0.997834, 175, 49, 190, 112
-0.997843, 217, 113, 232, 144
-0.997844, 307, 185, 322, 248
-0.997846, 157, 49, 172, 112
-0.997849, 217, 49, 232, 112
-0.997864, 33, 41, 48, 104
-0.997871, 289, 129, 304, 160
-0.997872, 233, 1, 248, 64
-0.997884, 205, 117, 220, 148
-0.997887, 223, 41, 238, 104
-0.997896, 277, 65, 308, 320
-0.997905, 409, 33, 472, 288
-0.997916, 395, 149, 410, 180
-0.997919, 145, 41, 272, 72
-0.997923, 189, 1, 220, 256
-0.997928, 377, 57, 392, 120
-0.997932, 369, 177, 384, 208
-0.997935, 371, 161, 386, 192
-0.997941, 181, 49, 196, 112
-0.997946, 223, 185, 238, 248
-0.997962, 321, 125, 336, 156
-0.997969, 145, 193, 272, 224
-0.997981, 385, 165, 400, 196
-0.997991, 255, 137, 270, 200
-0.997993, 323, 81, 338, 144
-0.997997, 365, 49, 380, 112
-0.998, 1, 77, 128, 108
-0.998002, 117, 65, 148, 192
-0.998008, 367, 105, 382, 168
-0.998009, 213, 181, 228, 212
-0.998016, 351, 137, 366, 168
-0.998033, 225, 189, 240, 220
-0.998039, 33, 113, 160, 240
-0.998044, 209, 161, 336, 192
-0.998046, 73, 17, 104, 80
-0.998048, 165, 153, 196, 216
-0.998058, 273, 97, 400, 128
-0.998076, 195, 137, 210, 168
-0.998098, 369, 1, 496, 32
-0.998108, 129, 1, 384, 64
-0.998114, 129, 137, 256, 168
-0.998123, 109, 1, 140, 64
-0.998128, 1, 41, 128, 72
-0.998135, 237, 121, 252, 152
-0.99814, 295, 129, 310, 160
-0.998149, 49, 1, 176, 32
-0.998154, 269, 109, 284, 140
-0.99817, 243, 121, 258, 152
-0.998178, 377, 177, 392, 208
-0.998178, 305, 209, 432, 272
-0.998184, 359, 165, 374, 196
-0.998203, 219, 189, 234, 220
-0.998205, 33, 273, 160, 333
-0.998214, 297, 109, 312, 140
-0.998219, 315, 125, 330, 156
-0.998233, 251, 109, 266, 140
-0.998235, 237, 109, 252, 140
-0.99824, 33, 113, 160, 176
-0.998257, 173, 1, 204, 256
-0.998259, 325, 1, 356, 64
-0.998284, 263, 109, 278, 140
-0.998286, 317, 173, 332, 204
-0.998288, 265, 57, 296, 120
-0.998294, 345, 177, 360, 208
-0.998294, 301, 33, 332, 288
-0.998298, 197, 61, 212, 92
-0.998305, 229, 25, 260, 40
-0.998307, 363, 189, 378, 220
-0.998307, 445, 73, 476, 88
-0.998307, 17, 17, 48, 80
-0.998308, 189, 163, 220, 178
-0.998308, 29, 49, 60, 176
-0.99831, 453, 61, 484, 76
-0.99831, 409, 161, 440, 288
-0.998311, 265, 117, 296, 132
-0.998312, 309, 57, 340, 72
-0.998312, 349, 197, 380, 212
-0.998312, 233, 197, 264, 212
-0.998313, 245, 187, 276, 202
-0.998313, 161, 63, 192, 78
-0.998314, 217, 53, 248, 68
-0.998315, 197, 145, 228, 160
-0.998316, 397, 183, 428, 198
-0.998316, 389, 145, 404, 176
-0.998317, 373, 197, 404, 212
-0.998319, 397, 169, 428, 184
-0.998321, 245, 193, 276, 208
-0.998322, 293, 147, 324, 162
-0.998322, 245, 109, 260, 140
-0.998322, 185, 187, 216, 202
-0.998322, 325, 145, 340, 176
-0.998323, 301, 193, 332, 208
-0.998323, 401, 161, 416, 192
-0.998323, 1, 71, 32, 86
-0.998324, 381, 185, 412, 200
-0.998326, 289, 79, 320, 94
-0.998328, 305, 113, 336, 128
-0.998328, 273, 45, 400, 76
-0.998329, 353, 167, 384, 182
-0.998332, 285, 131, 316, 146
-0.998332, 173, 145, 204, 160
-0.998333, 283, 137, 298, 168
-0.998333, 313, 171, 344, 186
-0.998334, 257, 145, 288, 160
-0.998335, 385, 147, 416, 162
-0.998336, 353, 173, 368, 204
-0.998336, 433, 85, 464, 100
-0.998337, 277, 119, 308, 134
-0.998338, 61, 17, 92, 80
-0.998339, 345, 129, 376, 144
-0.99834, 305, 147, 336, 162
-0.998341, 209, 139, 240, 154
-0.998341, 293, 185, 324, 200
-0.998342, 223, 113, 238, 144
-0.998348, 273, 173, 304, 188
-0.998348, 185, 133, 216, 148
-0.998349, 325, 173, 356, 188
-0.998349, 397, 153, 428, 168
-0.99835, 241, 21, 272, 36
-0.998353, 289, 173, 320, 188
-0.998354, 353, 185, 384, 200
-0.998357, 201, 167, 232, 182
-0.998358, 221, 143, 252, 158
-0.998359, 205, 193, 236, 208
-0.99836, 469, 75, 500, 90
-0.99836, 333, 127, 364, 142
-0.998361, 391, 169, 406, 200
-0.998361, 229, 65, 260, 80
-0.998362, 209, 113, 240, 128
-0.998364, 269, 139, 300, 154
-0.998364, 315, 141, 330, 172
-0.998364, 353, 45, 480, 76
-0.998366, 289, 119, 320, 134
-0.998367, 353, 191, 384, 206
-0.998367, 389, 159, 420, 174
-0.998368, 483, 73, 498, 104
-0.998369, 237, 143, 268, 158
-0.99837, 193, 119, 224, 134
-0.998371, 221, 115, 252, 130
-0.998372, 325, 121, 356, 136
-0.998373, 257, 183, 288, 198
-0.998375, 281, 143, 312, 158
-0.998375, 389, 177, 420, 192
-0.998376, 245, 189, 260, 220
-0.998377, 329, 69, 360, 84
-0.998377, 189, 127, 220, 142
-0.998378, 269, 145, 300, 160
-0.998381, 361, 139, 392, 154
-0.998387, 341, 187, 372, 202
-0.998393, 201, 185, 232, 200
-0.998393, 335, 141, 350, 172
-0.998394, 185, 65, 216, 80
-0.998394, 371, 109, 386, 140
-0.998395, 325, 185, 356, 200
-0.998396, 321, 191, 352, 206
-0.998396, 301, 173, 332, 188
-0.998396, 317, 145, 348, 160
-0.998397, 257, 111, 288, 126
-0.9984, 369, 191, 400, 206
-0.998401, 279, 109, 294, 140
-0.998402, 237, 113, 268, 128
-0.998402, 313, 119, 344, 134
-0.998402, 221, 195, 252, 210
-0.998403, 257, 109, 272, 140
-0.998405, 351, 125, 366, 156
-0.998407, 253, 119, 284, 134
-0.998408, 241, 119, 272, 134
-0.998409, 225, 193, 256, 320
-0.998409, 185, 149, 216, 164
-0.998412, 213, 65, 244, 320
-0.998413, 377, 179, 408, 194
-0.998414, 241, 175, 272, 190
-0.998414, 329, 145, 360, 160
-0.998414, 361, 199, 392, 214
-0.998415, 377, 169, 408, 184
-0.998416, 45, 61, 76, 76
-0.998421, 393, 1, 424, 64
-0.998421, 483, 61, 498, 92
-0.998425, 365, 185, 396, 200
-0.998426, 185, 169, 216, 184
-0.998426, 291, 117, 306, 148
-0.998426, 337, 179, 368, 194
-0.998427, 213, 125, 244, 140
-0.998428, 277, 113, 308, 128
-0.998431, 231, 109, 246, 140
-0.998432, 225, 173, 256, 188
-0.998433, 185, 143, 216, 158
-0.998436, 213, 179, 244, 194
-0.998439, 161, 13, 288, 44
-0.998441, 201, 173, 216, 204
-0.998441, 229, 123, 260, 138
-0.998442, 301, 141, 332, 156
-0.998443, 197, 139, 228, 154
-0.998444, 357, 33, 388, 288
-0.998445, 341, 173, 372, 188
-0.998446, 357, 179, 388, 194
-0.998446, 323, 189, 338, 220
-0.998454, 195, 165, 210, 196
-0.998455, 357, 141, 372, 172
-0.998456, 193, 169, 256, 184
-0.998457, 309, 125, 340, 140
-0.998457, 209, 119, 240, 134
-0.998459, 273, 161, 400, 192
-0.99846, 313, 183, 344, 198
-0.998461, 185, 137, 248, 152
-0.998462, 189, 181, 220, 196
-0.998462, 233, 191, 264, 206
-0.998464, 205, 173, 236, 188
-0.998465, 293, 113, 324, 128
-0.998468, 213, 187, 244, 202
-0.998471, 257, 177, 288, 192
-0.998472, 273, 179, 304, 194
-0.998472, 285, 137, 316, 152
-0.998474, 189, 175, 220, 190
-0.998475, 401, 149, 416, 180
-0.998476, 225, 185, 256, 200
-0.998478, 221, 133, 252, 148
-0.998479, 249, 121, 264, 152
-0.998481, 285, 109, 300, 140
-0.998482, 345, 135, 376, 150
-0.998486, 305, 139, 368, 154
-0.998486, 239, 5, 254, 36
-0.998491, 265, 179, 328, 194
-0.998492, 345, 117, 360, 148
-0.998492, 349, 143, 380, 158
-0.998493, 315, 193, 330, 224
-0.998494, 273, 139, 336, 154
-0.998494, 225, 179, 256, 194
-0.998494, 313, 139, 344, 154
-0.998507, 305, 109, 320, 140
-0.998508, 255, 189, 270, 220
-0.998509, 293, 179, 324, 194
-0.998514, 325, 179, 356, 194
-0.998516, 345, 145, 360, 176
-0.998517, 225, 179, 288, 194
-0.998518, 281, 177, 312, 304
-0.998519, 357, 173, 388, 188
-0.99852, 365, 165, 396, 180
-0.998522, 333, 133, 364, 148
-0.998522, 257, 113, 320, 128
-0.998522, 261, 141, 276, 172
-0.998523, 193, 175, 256, 190
-0.998524, 297, 69, 360, 84
-0.998525, 277, 129, 292, 160
-0.998526, 313, 177, 344, 192
-0.998526, 429, 49, 460, 176
-0.998526, 65, 37, 192, 68
-0.998527, 353, 133, 480, 164
-0.998529, 61, 73, 92, 136
-0.99853, 321, 179, 384, 194
-0.998532, 55, 61, 70, 92
-0.998532, 353, 167, 416, 182
-0.998532, 201, 179, 232, 194
-0.998535, 289, 179, 352, 194
-0.998539, 201, 123, 264, 138
-0.998542, 245, 181, 276, 196
-0.998542, 201, 115, 264, 130
-0.998542, 321, 129, 352, 144
-0.998549, 409, 137, 440, 200
-0.998549, 261, 189, 276, 220
-0.998553, 193, 181, 256, 196
-0.998553, 269, 141, 284, 172
-0.998554, 345, 145, 408, 160
-0.998554, 195, 125, 210, 156
-0.998557, 209, 187, 272, 202
-0.998558, 273, 119, 336, 134
-0.998558, 193, 129, 256, 144
-0.998559, 153, 65, 216, 80
-0.998562, 421, 1, 452, 128
-0.998563, 201, 133, 232, 148
-0.998566, 225, 193, 288, 208
-0.998567, 329, 139, 392, 154
-0.998569, 225, 119, 288, 134
-0.998569, 329, 173, 392, 188
-0.998571, 339, 57, 354, 88
-0.998571, 409, 129, 472, 256
-0.998573, 55, 49, 70, 80
-0.998574, 249, 119, 312, 134
-0.998577, 249, 137, 312, 152
-0.998578, 201, 125, 232, 140
-0.998579, 289, 129, 352, 144
-0.998579, 105, 1, 136, 128
-0.998583, 193, 73, 208, 104
-0.998585, 213, 167, 244, 182
-0.998585, 357, 189, 372, 220
-0.998586, 41, 63, 104, 78
-0.998587, 289, 1, 320, 64
-0.998589, 85, 61, 100, 92
-0.99859, 321, 191, 384, 206
-0.998591, 289, 141, 304, 172
-0.998591, 443, 73, 458, 104
-0.998591, 241, 185, 304, 200
-0.998592, 185, 67, 248, 82
-0.998593, 157, 65, 172, 96
-0.998594, 301, 119, 332, 134
-0.998601, 259, 121, 274, 152
-0.998603, 369, 175, 432, 190
-0.998603, 169, 173, 232, 188
-0.998604, 217, 173, 280, 188
-0.998606, 227, 65, 242, 96
-0.998606, 185, 187, 248, 202
-0.998607, 289, 185, 352, 200
-0.998607, 321, 71, 384, 86
-0.998608, 477, 77, 492, 108
-0.998608, 9, 61, 72, 76
-0.998608, 289, 145, 352, 160
-0.99861, 243, 177, 258, 208
-0.998611, 409, 1, 440, 128
-0.998612, 185, 143, 248, 158
-0.998614, 353, 185, 416, 200
-0.998614, 251, 141, 266, 172
-0.998616, 201, 193, 264, 208
-0.998616, 323, 177, 338, 208
-0.998618, 281, 173, 344, 188
-0.998618, 277, 145, 292, 176
-0.99862, 233, 53, 248, 84
-0.998621, 225, 111, 288, 126
-0.998622, 301, 133, 316, 164
-0.998624, 203, 65, 218, 96
-0.998625, 313, 133, 376, 148
-0.998626, 217, 143, 280, 158
-0.998627, 217, 135, 280, 150
-0.998629, 345, 179, 408, 194
-0.99863, 217, 129, 232, 160
-0.99863, 249, 143, 312, 158
-0.99863, 161, 153, 288, 184
-0.99863, 241, 21, 256, 52
-0.998631, 313, 147, 376, 162
-0.998632, 177, 163, 240, 178
-0.998633, 201, 185, 216, 216
-0.998633, 361, 161, 424, 176
-0.998633, 297, 75, 360, 90
-0.998634, 169, 131, 232, 146
-0.998634, 307, 141, 322, 172
-0.998634, 49, 17, 80, 80
-0.998638, 305, 173, 368, 188
-0.998642, 231, 141, 246, 172
-0.998642, 177, 121, 240, 136
-0.998643, 451, 61, 466, 92
-0.998643, 257, 75, 320, 90
-0.998644, 329, 185, 392, 200
-0.998644, 305, 115, 368, 130
-0.998644, 49, 61, 64, 92
-0.998647, 225, 65, 288, 80
-0.998647, 265, 185, 328, 200
-0.998648, 269, 121, 284, 152
-0.998648, 307, 57, 322, 88
-0.998649, 257, 173, 320, 188
-0.99865, 217, 129, 280, 144
-0.99865, 185, 199, 248, 214
-0.99865, 121, 75, 184, 90
-0.998651, 191, 61, 206, 92
-0.998652, 401, 75, 464, 90
-0.998652, 297, 57, 360, 72
-0.998653, 169, 179, 232, 194
-0.998653, 161, 71, 224, 86
-0.998654, 297, 81, 360, 96
-0.998654, 297, 63, 360, 78
-0.998654, 153, 167, 216, 182
-0.998655, 225, 57, 288, 72
-0.998655, 327, 117, 342, 148
-0.998657, 433, 75, 496, 90
-0.998658, 153, 59, 216, 74
-0.998659, 307, 189, 322, 220
-0.99866, 357, 129, 372, 160
-0.99866, 17, 71, 80, 86
-0.998662, 361, 71, 424, 86
-0.998663, 335, 189, 350, 220
-0.998663, 161, 53, 224, 68
-0.998666, 341, 69, 356, 100
-0.998666, 11, 61, 26, 92
-0.998667, 265, 81, 328, 96
-0.998668, 185, 73, 248, 88
-0.998668, 299, 69, 314, 100
-0.998668, 49, 73, 176, 104
-0.998668, 193, 201, 320, 232
-0.998669, 185, 61, 248, 76
-0.998669, 329, 121, 392, 136
-0.998671, 185, 53, 248, 68
-0.998671, 321, 167, 384, 182
-0.998672, 371, 69, 386, 100
-0.998672, 145, 145, 208, 160
-0.998672, 201, 141, 216, 172
-0.998673, 401, 81, 464, 96
-0.998673, 297, 123, 360, 138
-0.998674, 265, 193, 328, 208
-0.998676, 221, 141, 236, 172
-0.998677, 17, 49, 80, 64
-0.998677, 257, 57, 320, 72
-0.998678, 201, 3, 264, 18
-0.998678, 41, 69, 104, 84
-0.998679, 337, 131, 400, 146
-0.998679, 169, 7, 232, 22
-0.99868, 195, 181, 210, 212
-0.998681, 201, 15, 264, 30
-0.998681, 353, 139, 416, 154
-0.998682, 329, 59, 392, 74
-0.998682, 409, 157, 424, 188
-0.998683, 113, 65, 176, 80
-0.998683, 165, 53, 180, 84
-0.998683, 49, 49, 64, 80
-0.998684, 401, 67, 464, 82
-0.998685, 409, 89, 472, 104
-0.998686, 377, 183, 440, 198
-0.998686, 257, 69, 320, 84
-0.998687, 81, 57, 144, 72
-0.998687, 161, 77, 224, 92
-0.998688, 217, 71, 280, 86
-0.998688, 41, 57, 104, 72
-0.998688, 361, 191, 424, 206
-0.998688, 477, 61, 492, 92
-0.998689, 81, 63, 144, 78
-0.998689, 217, 9, 280, 24
-0.998689, 177, 193, 240, 208
-0.998689, 297, 191, 360, 206
-0.99869, 177, 13, 240, 28
-0.99869, 177, 151, 240, 166
-0.998691, 257, 63, 320, 78
-0.998691, 161, 1, 224, 16
-0.998692, 433, 81, 496, 96
-0.998693, 321, 79, 384, 94
-0.998693, 361, 155, 424, 170
-0.998693, 377, 169, 440, 184
-0.998693, 121, 53, 184, 68
-0.998693, 245, 141, 260, 172
-0.998694, 225, 79, 288, 94
-0.998694, 337, 65, 400, 80
-0.998694, 369, 1, 432, 16
-0.998694, 433, 69, 496, 84
-0.998695, 9, 55, 72, 70
-0.998695, 281, 113, 344, 128
-0.998698, 361, 65, 424, 80
-0.9987, 337, 197, 400, 212
-0.998703, 337, 1, 400, 16
-0.998704, 41, 51, 104, 66
-0.998707, 97, 109, 224, 140
-0.998725, 1, 1, 128, 32
-0.998731, 289, 209, 352, 272
-0.998747, 333, 139, 364, 154
-0.998775, 97, 177, 224, 208
-0.9988, 317, 1, 348, 256
-0.998802, 201, 97, 216, 224
-0.998802, 369, 145, 496, 176
-0.998806, 97, 165, 224, 196
-0.998834, 417, 1, 480, 333
-0.998839, 373, 65, 404, 320
-0.998855, 337, 113, 464, 144
-0.998859, 333, 1, 364, 256
-0.998872, 225, 13, 352, 44
-0.998919, 195, 129, 210, 256
-0.998922, 207, 97, 222, 224
-0.998935, 353, 185, 480, 216
-0.99896, 161, 1, 192, 256
-0.99897, 17, 177, 144, 240
-0.998971, 329, 129, 344, 256
-0.998996, 347, 97, 362, 224
-0.998996, 113, 257, 240, 320
-0.999007, 133, 1, 164, 128
-0.999057, 289, 197, 416, 228
-0.999061, 233, 129, 248, 256
-0.999064, 41, 1, 104, 256
-0.999075, 213, 113, 228, 240
-0.999083, 223, 145, 238, 272
-0.999087, 1, 1, 500, 64
-0.999099, 319, 129, 334, 256
-0.999106, 189, 1, 204, 128
-0.99913, 339, 97, 354, 224
-0.999143, 267, 97, 282, 224
-0.999155, 353, 129, 368, 256
-0.999169, 201, 145, 216, 272
-0.999171, 239, 97, 254, 224
-0.999173, 193, 89, 320, 120
-0.999192, 245, 129, 260, 256
-0.999194, 113, 13, 240, 44
-0.999198, 377, 113, 392, 240
-0.9992, 65, 13, 192, 44
-0.999203, 239, 145, 254, 272
-0.99921, 359, 129, 374, 256
-0.999222, 257, 97, 272, 224
-0.999223, 211, 33, 226, 160
-0.999227, 323, 49, 338, 176
-0.999227, 353, 81, 368, 208
-0.999232, 219, 97, 234, 224
-0.999233, 389, 129, 404, 256
-0.999233, 313, 129, 328, 256
-0.999239, 227, 97, 242, 224
-0.999241, 213, 161, 228, 288
-0.999248, 189, 129, 204, 256
-0.999249, 273, 129, 288, 256
-0.999253, 13, 1, 44, 256
-0.999259, 405, 49, 436, 176
-0.999263, 279, 129, 294, 256
-0.999264, 291, 97, 306, 224
-0.99927, 97, 85, 224, 116
-0.999271, 241, 1, 256, 128
-0.999277, 371, 97, 386, 224
-0.99928, 317, 81, 332, 208
-0.999283, 205, 49, 220, 176
-0.999283, 337, 197, 464, 228
-0.999285, 329, 49, 344, 176
-0.999287, 81, 137, 208, 168
-0.999293, 207, 145, 222, 272
-0.99931, 245, 81, 260, 208
-0.999315, 285, 129, 300, 256
-0.999326, 311, 49, 326, 176
-0.999326, 347, 49, 362, 176
-0.999342, 233, 81, 248, 208
-0.999346, 279, 81, 294, 208
-0.999347, 183, 1, 198, 128
-0.999356, 365, 129, 380, 256
-0.999369, 363, 81, 378, 208
-0.999369, 299, 97, 314, 224
-0.999372, 341, 49, 356, 176
-0.999375, 1, 13, 128, 44
-0.999381, 251, 97, 266, 224
-0.999383, 193, 81, 208, 208
-0.999384, 345, 65, 376, 320
-0.999388, 145, 97, 272, 128
-0.999401, 383, 113, 398, 240
-0.999402, 305, 81, 320, 208
-0.999406, 161, 217, 288, 280
-0.999406, 227, 1, 242, 128
-0.999413, 347, 161, 362, 288
-0.999414, 395, 129, 410, 256
-0.999415, 231, 177, 246, 304
-0.999416, 255, 145, 270, 272
-0.999417, 371, 161, 386, 288
-0.999418, 263, 145, 278, 272
-0.999419, 285, 81, 300, 208
-0.999431, 457, 49, 472, 176
-0.999433, 383, 161, 398, 288
-0.999438, 27, 1, 42, 128
-0.99944, 463, 49, 478, 176
-0.999444, 307, 129, 322, 256
-0.999447, 235, 1, 250, 128
-0.99945, 145, 29, 272, 60
-0.999455, 21, 1, 36, 128
-0.999455, 273, 81, 288, 208
-0.999456, 217, 33, 232, 160
-0.999456, 183, 129, 198, 256
-0.99946, 469, 49, 484, 176
-0.999483, 369, 49, 384, 176
-0.999486, 401, 129, 416, 256
-0.999488, 245, 177, 260, 304
-0.999491, 33, 1, 48, 128
-0.999493, 385, 65, 416, 320
-0.999499, 197, 1, 212, 128
-0.9995, 171, 1, 186, 128
-0.999506, 357, 177, 372, 304
-0.999509, 475, 49, 490, 176
-0.999513, 485, 49, 500, 176
-0.999515, 323, 177, 338, 304
-0.999515, 451, 49, 466, 176
-0.999516, 309, 1, 324, 128
-0.999516, 249, 1, 264, 128
-0.99952, 297, 49, 312, 176
-0.999521, 223, 49, 238, 176
-0.999524, 181, 65, 196, 192
-0.999528, 357, 1, 372, 128
-0.99953, 469, 1, 484, 128
-0.999536, 335, 49, 350, 176
-0.999543, 321, 1, 336, 128
-0.999544, 177, 1, 192, 128
-0.999548, 485, 1, 500, 128
-0.999551, 329, 173, 344, 188
-0.999552, 277, 173, 292, 188
-0.999553, 195, 183, 210, 198
-0.999554, 269, 145, 284, 160
-0.999555, 185, 179, 200, 194
-0.999555, 277, 111, 292, 126
-0.999555, 209, 115, 224, 130
-0.999556, 455, 1, 470, 128
-0.999556, 303, 1, 318, 128
-0.999556, 301, 145, 316, 272
-0.999556, 463, 1, 478, 128
-0.999557, 203, 1, 218, 128
-0.999557, 271, 173, 286, 188
-0.999558, 197, 65, 212, 80
-0.999559, 241, 121, 256, 136
-0.999559, 305, 121, 320, 136
-0.999559, 319, 189, 334, 204
-0.999559, 317, 177, 332, 304
-0.99956, 265, 173, 280, 188
-0.999561, 305, 173, 320, 188
-0.999562, 253, 113, 268, 128
-0.999563, 239, 113, 254, 128
-0.999563, 485, 75, 500, 90
-0.999563, 375, 199, 390, 214
-0.999563, 263, 119, 278, 134
-0.999563, 405, 151, 420, 166
-0.999563, 289, 137, 304, 152
-0.999565, 341, 127, 356, 142
-0.999565, 351, 145, 366, 160
-0.999566, 315, 1, 330, 128
-0.999566, 267, 111, 282, 126
-0.999567, 187, 65, 202, 192
-0.999568, 351, 1, 366, 128
-0.999568, 365, 139, 380, 154
-0.999569, 379, 185, 394, 200
-0.999569, 219, 195, 234, 210
-0.99957, 279, 145, 294, 160
-0.99957, 279, 137, 294, 152
-0.99957, 327, 185, 342, 200
-0.999571, 301, 139, 316, 154
-0.999573, 245, 113, 260, 128
-0.999574, 221, 173, 236, 188
-0.999574, 261, 113, 276, 128
-0.999575, 207, 185, 222, 200
-0.999575, 247, 175, 262, 190
-0.999575, 371, 183, 386, 198
-0.999576, 323, 173, 338, 188
-0.999576, 255, 183, 270, 198
-0.999576, 195, 177, 210, 304
-0.999577, 239, 49, 254, 176
-0.999578, 85, 1, 100, 128
-0.999579, 383, 165, 398, 180
-0.99958, 365, 187, 380, 202
-0.99958, 213, 193, 228, 208
-0.999581, 311, 175, 326, 190
-0.999582, 49, 113, 176, 144
-0.999582, 371, 165, 386, 180
-0.999583, 291, 113, 306, 128
-0.999584, 353, 175, 368, 190
-0.999584, 297, 113, 312, 128
-0.999584, 195, 171, 210, 186
-0.999586, 401, 171, 416, 186
-0.999586, 253, 119, 268, 134
-0.999589, 297, 119, 312, 134
-0.999589, 321, 181, 336, 196
-0.99959, 1, 89, 128, 152
-0.99959, 337, 145, 352, 160
-0.999591, 227, 125, 242, 140
-0.999591, 399, 1, 414, 128
-0.999592, 193, 151, 208, 166
-0.999593, 369, 195, 384, 210
-0.999593, 239, 191, 254, 206
-0.999593, 323, 139, 338, 154
-0.999594, 291, 49, 306, 176
-0.999594, 349, 133, 364, 148
-0.999595, 247, 181, 262, 196
-0.999596, 307, 141, 322, 156
-0.999597, 377, 65, 392, 192
-0.999597, 15, 1, 30, 128
-0.999598, 295, 145, 310, 272
-0.999598, 357, 137, 372, 152
-0.999599, 399, 155, 414, 170
-0.999601, 219, 121, 234, 136
-0.999605, 225, 199, 240, 214
-0.999606, 365, 179, 380, 194
-0.999607, 359, 171, 374, 186
-0.999608, 163, 33, 178, 160
-0.999609, 227, 189, 242, 204
-0.999609, 75, 1, 90, 128
-0.999609, 193, 209, 448, 272
-0.99961, 45, 1, 60, 128
-0.99961, 371, 175, 386, 190
-0.999612, 187, 149, 202, 164
-0.999612, 223, 167, 238, 182
-0.999613, 313, 141, 328, 156
-0.999614, 357, 143, 372, 158
-0.999615, 359, 179, 374, 194
-0.999615, 229, 177, 244, 192
-0.999615, 345, 181, 360, 196
-0.999616, 357, 187, 372, 202
-0.999616, 309, 177, 324, 304
-0.999618, 399, 149, 414, 164
-0.999619, 363, 1, 378, 128
-0.99962, 335, 161, 350, 288
-0.999621, 199, 133, 214, 148
-0.999621, 199, 49, 214, 176
-0.999621, 73, 1, 104, 256
-0.999622, 335, 127, 350, 142
-0.999624, 205, 133, 220, 148
-0.999627, 265, 49, 280, 176
-0.999628, 377, 161, 392, 288
-0.999628, 217, 167, 232, 182
-0.999629, 233, 123, 248, 138
-0.99963, 475, 1, 490, 128
-0.99963, 315, 181, 330, 196
-0.99963, 335, 179, 350, 194
-0.999632, 61, 1, 76, 128
-0.999632, 193, 177, 208, 192
-0.999633, 117, 65, 148, 320
-0.999634, 39, 1, 54, 128
-0.999634, 369, 1, 384, 128
-0.999635, 365, 167, 380, 182
-0.999636, 201, 139, 216, 154
-0.999637, 255, 17, 270, 144
-0.999638, 325, 123, 340, 138
-0.999638, 69, 1, 84, 128
-0.999641, 265, 179, 280, 194
-0.999642, 239, 185, 254, 200
-0.999644, 449, 1, 464, 128
-0.999644, 379, 179, 394, 194
-0.999645, 341, 161, 356, 288
-0.999646, 211, 133, 226, 148
-0.999647, 277, 179, 292, 194
-0.999647, 363, 195, 378, 210
-0.999648, 195, 139, 210, 154
-0.999648, 331, 143, 346, 158
-0.999648, 395, 81, 410, 208
-0.999649, 285, 179, 300, 194
-0.999651, 295, 179, 310, 194
-0.999651, 297, 1, 312, 128
-0.999651, 369, 169, 496, 200
-0.999652, 257, 177, 272, 192
-0.999652, 303, 115, 318, 130
-0.999656, 313, 117, 328, 132
-0.999656, 231, 169, 246, 184
-0.999659, 343, 133, 358, 148
-0.999659, 271, 179, 286, 194
-0.99966, 223, 133, 238, 148
-0.99966, 321, 93, 448, 124
-0.999661, 371, 189, 386, 204
-0.999662, 235, 175, 250, 190
-0.999663, 189, 143, 204, 158
-0.999668, 231, 195, 246, 210
-0.99967, 215, 187, 230, 202
-0.999671, 221, 179, 236, 194
-0.999672, 351, 139, 366, 154
-0.999673, 305, 179, 320, 194
-0.999678, 209, 169, 224, 184
-0.999679, 203, 127, 218, 142
-0.999681, 329, 129, 344, 144
-0.999682, 319, 121, 334, 136
-0.999691, 317, 175, 332, 190
-0.999692, 327, 179, 342, 194
-0.999695, 221, 189, 236, 204
-0.9997, 229, 183, 244, 198
-0.999707, 195, 145, 210, 160
-0.999713, 207, 121, 222, 136
-0.999714, 149, 1, 180, 256
-0.999715, 205, 179, 220, 194
-0.999723, 209, 233, 336, 296
-0.999724, 213, 181, 228, 196
-0.999734, 1, 73, 500, 136
-0.999734, 129, 65, 160, 320
-0.999749, 337, 139, 352, 154
-0.99975, 97, 189, 224, 220
-0.999751, 337, 133, 352, 148
-0.999752, 213, 127, 228, 142
-0.999787, 345, 139, 360, 154
-0.999809, 145, 205, 272, 236
-0.999827, 1, 137, 128, 200
-0.999856, 433, 1, 496, 64
-0.999859, 397, 33, 428, 288
-0.999868, 65, 241, 192, 304
-0.999887, 241, 201, 368, 232
-0.999908, 25, 1, 56, 256
-0.99991, 49, 125, 176, 156
-0.999918, 445, 1, 476, 256
-0.999974, 89, 1, 120, 256
-1.00001, 417, 49, 448, 176
-1.00005, 105, 65, 136, 320
-1.00007, 289, 209, 416, 240
-1.00008, 49, 85, 176, 116
-1.00009, 209, 25, 336, 56
-1.00009, 65, 153, 192, 184
-1.00013, 377, 201, 440, 264
-1.00015, 457, 33, 488, 288
-1.00016, 33, 273, 160, 304
-1.00017, 17, 241, 144, 304
-1.00023, 369, 209, 496, 272
-1.00023, 49, 165, 176, 196
-1.00023, 81, 265, 208, 296
-1.00025, 53, 49, 84, 176
-1.00026, 1, 89, 256, 152
-1.00026, 97, 209, 352, 272
-1.00027, 129, 257, 256, 288
-1.00027, 113, 233, 240, 296
-1.00028, 257, 233, 384, 296
-1.00028, 1, 261, 128, 292
-1.0003, 81, 97, 208, 128
-1.00031, 1, 289, 128, 320
-1.00032, 97, 201, 224, 232
-1.00032, 33, 177, 160, 208
-1.00032, 61, 1, 92, 256
-1.00033, 257, 29, 384, 60
-1.00033, 193, 233, 320, 264
-1.00033, 421, 33, 452, 288
-1.00034, 409, 97, 440, 224
-1.00036, 337, 241, 464, 304
-1.00036, 241, 213, 368, 244
-1.00037, 145, 225, 272, 256
-1.00037, 113, 209, 240, 272
-1.00038, 241, 225, 368, 256
-1.00039, 177, 209, 304, 333
-1.00039, 17, 189, 144, 220
-1.0004, 369, 273, 496, 333
-1.00041, 17, 145, 144, 176
-1.00041, 161, 233, 416, 296
-1.00042, 1, 117, 128, 148
-1.00042, 1, 105, 128, 136
-1.00042, 81, 277, 208, 308
-1.00044, 145, 273, 272, 304
-1.00046, 257, 245, 384, 276
-1.00047, 17, 201, 144, 232
-1.00048, 409, 65, 440, 320
-1.00049, 321, 245, 448, 276
-1.00051, 33, 301, 160, 332
-1.00051, 1, 165, 128, 196
-1.00051, 49, 249, 176, 280
-1.00052, 1, 1, 32, 256
-1.00052, 49, 33, 80, 288
-1.00052, 81, 289, 208, 320
-1.00053, 433, 65, 464, 320
-1.00053, 177, 245, 304, 276
-1.00053, 33, 257, 288, 320
-1.00054, 161, 249, 288, 312
-1.00055, 321, 257, 448, 288
-1.00055, 369, 297, 496, 328
-1.00056, 37, 33, 68, 288
-1.00057, 469, 1, 500, 256
-1.00057, 1, 29, 128, 60
-1.00059, 1, 25, 500, 88
-1.0006, 193, 213, 320, 244
-1.00061, 369, 13, 496, 44
-1.00063, 49, 213, 176, 244
-1.00064, 81, 233, 208, 264
-1.00064, 321, 13, 448, 44
-1.0008, 65, 233, 320, 296
-1.00083, 33, 201, 160, 264
-1.00084, 129, 153, 192, 216
-1.00085, 1, 209, 256, 272
-1.00091, 129, 97, 160, 224
-1.00094, 33, 177, 160, 304
-1.001, 305, 265, 432, 328
-1.00103, 257, 241, 500, 304
-1.00115, 161, 273, 288, 333
-1.00124, 105, 113, 136, 240
-1.00125, 193, 265, 448, 328
-1.00126, 393, 49, 424, 176
-1.00127, 133, 49, 164, 176
-1.0013, 105, 65, 136, 192
-1.00131, 257, 257, 384, 320
-1.00133, 105, 153, 168, 216
-1.00142, 1, 209, 500, 272
-1.00143, 153, 193, 216, 320
-1.0017, 41, 49, 72, 176
-1.00182, 105, 265, 168, 328
-1.00182, 81, 209, 208, 333
-1.00186, 417, 137, 480, 200
-1.00188, 409, 185, 472, 248
-1.00188, 81, 185, 208, 248
-1.00191, 209, 265, 336, 328
-1.00192, 377, 25, 440, 88
-1.00202, 201, 209, 264, 333
-1.00225, 81, 121, 144, 184
-1.00228, 1, 241, 500, 304
-1.00228, 297, 193, 328, 320
-1.00233, 421, 129, 452, 256
-1.00233, 1, 265, 500, 328
-1.00247, 393, 177, 456, 304
-1.00248, 177, 209, 240, 272
-1.00253, 253, 193, 284, 320
-1.00264, 117, 113, 148, 240
-1.00269, 129, 233, 192, 296
-1.00282, 141, 97, 172, 224
-1.00311, 65, 273, 128, 333
-1.00319, 457, 97, 488, 224
-1.0032, 233, 209, 296, 272
-1.00322, 49, 169, 112, 232
-1.00333, 345, 193, 376, 320
-1.00334, 81, 161, 144, 224
-1.00352, 17, 249, 80, 312
-1.00357, 65, 97, 128, 160
-1.00357, 177, 249, 240, 312
-1.00362, 145, 145, 176, 272
-1.00382, 353, 209, 416, 272
-1.00384, 181, 193, 212, 320
-1.00386, 73, 129, 136, 256
-1.00396, 153, 241, 216, 304
-1.00397, 209, 209, 240, 333
-1.004, 41, 265, 104, 328
-1.00402, 469, 97, 500, 224
-1.00403, 265, 209, 328, 272
-1.00403, 89, 241, 152, 304
-1.00409, 397, 193, 428, 320
-1.0041, 201, 225, 264, 288
-1.00411, 133, 145, 164, 272
-1.00419, 445, 97, 476, 224
-1.00419, 237, 209, 268, 333
-1.00421, 153, 201, 216, 264
-1.00422, 201, 249, 264, 312
-1.00428, 129, 257, 192, 320
-1.00429, 333, 193, 364, 320
-1.00456, 433, 169, 496, 232
-1.00456, 217, 273, 280, 333
-1.00458, 113, 209, 176, 333
-1.0046, 25, 129, 88, 192
-1.00473, 93, 113, 124, 240
-1.00475, 113, 193, 144, 320
-1.00491, 153, 97, 184, 224
-1.00492, 125, 209, 156, 333
-1.00495, 313, 217, 376, 280
-1.00497, 1, 273, 64, 333
-1.00498, 17, 153, 80, 216
-1.00503, 197, 209, 228, 333
-1.00514, 249, 249, 312, 312
-1.00518, 225, 241, 288, 304
-1.00607, 89, 209, 152, 333
-1.00662, 105, 161, 168, 288
-1.00708, 433, 129, 496, 256
-1.0075, 33, 193, 96, 320
-1.00762, 65, 177, 128, 304
-1.00773, 25, 113, 88, 240
-1.00799, 49, 129, 112, 256
-1.00831, 417, 193, 480, 320
-1.01039, 9, 209, 72, 333
-1.01072, 1, 145, 64, 272
-1.01208, 1, 97, 64, 224
