1876
-0.362331, 1, 1, 500, 333
-0.468147, 1, 1, 500, 256
-0.501218, 33, 1, 288, 333
-0.575877, 193, 1, 448, 333
-0.718283, 1, 33, 256, 288
-0.720013, 257, 65, 500, 320
-0.746514, 129, 33, 384, 288
-0.86341, 289, 1, 416, 333
-0.865118, 289, 1, 416, 256
-0.87204, 49, 1, 176, 333
-0.875786, 1, 145, 500, 272
-0.882843, 369, 1, 496, 333
-0.883384, 65, 1, 192, 256
-0.891563, 193, 1, 320, 333
-0.893067, 369, 1, 496, 256
-0.900998, 1, 209, 500, 333
-0.904364, 145, 1, 272, 333
-0.910013, 1, 97, 500, 224
-0.910572, 241, 1, 368, 333
-0.923256, 241, 65, 368, 320
-0.927509, 257, 145, 500, 272
-0.928184, 1, 161, 256, 288
-0.928785, 1, 33, 500, 160
-0.931633, 145, 65, 272, 320
-0.937554, 97, 1, 224, 333
-0.937928, 193, 33, 320, 288
-0.941841, 17, 1, 144, 256
-0.942803, 1, 1, 128, 333
-0.942974, 1, 33, 256, 160
-0.944996, 97, 113, 352, 240
-0.946578, 289, 97, 416, 224
-0.948656, 49, 113, 176, 240
-0.949257, 297, 33, 360, 160
-0.949273, 65, 161, 192, 288
-0.949274, 425, 193, 488, 320
-0.950617, 257, 193, 500, 320
-0.95092, 289, 145, 416, 272
-0.95123, 97, 49, 352, 176
-0.951935, 129, 177, 384, 304
-0.952066, 193, 17, 448, 144
-0.952866, 33, 209, 288, 333
-0.952929, 257, 177, 320, 304
-0.95379, 297, 145, 360, 272
-0.953833, 201, 57, 264, 120
-0.954044, 289, 33, 416, 160
-0.954172, 297, 97, 360, 224
-0.955398, 1, 113, 256, 240
-0.956171, 337, 97, 400, 224
-0.956662, 49, 17, 176, 144
-0.956819, 433, 193, 496, 256
-0.958425, 65, 17, 128, 144
-0.958853, 369, 145, 496, 272
-0.959297, 201, 49, 264, 176
-0.960039, 321, 33, 384, 160
-0.960685, 225, 177, 352, 304
-0.960727, 257, 97, 500, 224
-0.960814, 433, 217, 496, 280
-0.961213, 433, 145, 496, 272
-0.961335, 369, 209, 496, 333
-0.96145, 113, 177, 240, 304
-0.962034, 401, 145, 464, 272
-0.962265, 145, 177, 208, 304
-0.965542, 97, 1, 352, 128
-0.9656, 161, 209, 288, 333
-0.966036, 321, 33, 384, 96
-0.96613, 201, 177, 264, 304
-0.966321, 265, 185, 328, 248
-0.966321, 121, 161, 184, 288
-0.966478, 65, 17, 128, 80
-0.966732, 137, 185, 200, 248
-0.966813, 233, 177, 296, 304
-0.967293, 353, 33, 480, 160
-0.967414, 201, 193, 264, 256
-0.967525, 337, 97, 464, 224
-0.968157, 465, 185, 496, 248
-0.968162, 65, 129, 128, 256
-0.968314, 17, 177, 144, 304
-0.968432, 377, 145, 440, 272
-0.968926, 297, 25, 360, 88
-0.968926, 225, 17, 352, 144
-0.969022, 297, 65, 360, 128
-0.969158, 49, 65, 176, 192
-0.969202, 25, 161, 88, 288
-0.96989, 105, 17, 168, 144
-0.970191, 361, 97, 424, 224
-0.970258, 65, 1, 128, 256
-0.970463, 217, 233, 280, 296
-0.970882, 129, 33, 256, 160
-0.970964, 321, 65, 384, 128
-0.971023, 297, 153, 360, 216
-0.971159, 425, 273, 488, 333
-0.971192, 65, 177, 128, 304
-0.971222, 329, 145, 392, 272
-0.971377, 65, 209, 192, 333
-0.971734, 241, 193, 304, 256
-0.972183, 345, 17, 408, 144
-0.972347, 433, 97, 496, 224
-0.972624, 353, 145, 416, 272
-0.972735, 433, 17, 496, 80
-0.972801, 89, 17, 152, 80
-0.972932, 113, 97, 176, 224
-0.973033, 193, 241, 256, 304
-0.973144, 297, 105, 360, 168
-0.97325, 433, 17, 496, 144
-0.973694, 461, 265, 492, 328
-0.973823, 241, 217, 304, 280
-0.973853, 297, 1, 360, 256
-0.974016, 241, 65, 368, 192
-0.974057, 433, 169, 496, 232
-0.974465, 369, 33, 432, 160
-0.974721, 401, 209, 464, 333
-0.974748, 433, 241, 496, 304
-0.974957, 281, 193, 344, 320
-0.975084, 113, 129, 240, 256
-0.975169, 345, 25, 408, 88
-0.975187, 161, 225, 224, 288
-0.97529, 161, 161, 288, 288
-0.975776, 265, 33, 328, 160
-0.976013, 449, 201, 480, 264
-0.976119, 169, 193, 232, 320
-0.976175, 65, 81, 128, 208
-0.976229, 321, 89, 384, 152
-0.976287, 465, 161, 496, 288
-0.976413, 361, 81, 392, 208
-0.976446, 345, 33, 408, 288
-0.976455, 465, 217, 496, 280
-0.976498, 129, 81, 256, 208
-0.976918, 1, 129, 128, 256
-0.976961, 129, 217, 192, 280
-0.977082, 409, 201, 472, 264
-0.977089, 273, 97, 336, 224
-0.977224, 65, 17, 192, 80
-0.977364, 33, 209, 96, 333
-0.977599, 161, 73, 224, 136
-0.977685, 113, 17, 176, 80
-0.977697, 161, 193, 224, 256
-0.977701, 453, 177, 484, 304
-0.978399, 385, 153, 448, 216
-0.978429, 321, 1, 384, 256
-0.978559, 461, 241, 492, 304
-0.97883, 217, 81, 280, 144
-0.978831, 361, 33, 392, 96
-0.978953, 145, 249, 208, 312
-0.979058, 305, 97, 336, 224
-0.979253, 345, 49, 408, 112
-0.979259, 33, 209, 96, 272
-0.979274, 33, 185, 96, 248
-0.979591, 185, 273, 248, 333
-0.979648, 289, 57, 416, 120
-0.97971, 65, 201, 128, 264
-0.979796, 205, 57, 236, 120
-0.979877, 337, 113, 400, 176
-0.979967, 65, 137, 128, 200
-0.979985, 353, 33, 480, 96
-0.980171, 377, 25, 408, 88
-0.98027, 49, 129, 176, 192
-0.980315, 1, 193, 64, 320
-0.980318, 433, 137, 496, 200
-0.980391, 65, 1, 128, 333
-0.980573, 145, 201, 272, 264
-0.980577, 297, 1, 360, 333
-0.980697, 305, 33, 336, 160
-0.980736, 349, 81, 380, 208
-0.980752, 121, 153, 184, 216
-0.981029, 321, 9, 384, 72
-0.981219, 289, 25, 416, 88
-0.981288, 161, 233, 288, 296
-0.981306, 369, 25, 432, 88
-0.981342, 25, 113, 88, 240
-0.981417, 265, 225, 328, 288
-0.981423, 469, 209, 500, 333
-0.981491, 65, 169, 128, 232
-0.981513, 273, 161, 336, 224
-0.981513, 225, 257, 288, 320
-0.981531, 289, 105, 416, 168
-0.981556, 409, 225, 472, 288
-0.981649, 225, 129, 352, 256
-0.981715, 289, 153, 416, 216
-0.981822, 129, 273, 192, 333
-0.981856, 105, 233, 168, 296
-0.981863, 369, 225, 496, 288
-0.981905, 193, 81, 256, 144
-0.981954, 297, 145, 328, 272
-0.982113, 353, 137, 416, 200
-0.982124, 401, 177, 464, 240
-0.982138, 377, 17, 408, 144
-0.982253, 425, 145, 456, 272
-0.982338, 345, 73, 408, 136
-0.982442, 193, 65, 320, 192
-0.982454, 317, 65, 348, 192
-0.982527, 289, 193, 352, 256
-0.982548, 365, 33, 396, 160
-0.982576, 321, 137, 384, 200
-0.982668, 433, 33, 496, 288
-0.982737, 249, 257, 312, 320
-0.982755, 289, 185, 320, 248
-0.982793, 225, 177, 352, 240
-0.982818, 49, 193, 176, 256
-0.982907, 273, 193, 400, 320
-0.982909, 113, 209, 176, 333
-0.982915, 469, 97, 500, 224
-0.982955, 289, 81, 416, 144
-0.982985, 317, 25, 348, 88
-0.983052, 153, 185, 184, 248
-0.983148, 113, 185, 176, 248
-0.983164, 49, 161, 176, 224
-0.983172, 105, 1, 168, 256
-0.983206, 161, 129, 224, 256
-0.983238, 257, 65, 320, 128
-0.983342, 197, 233, 228, 296
-0.983418, 137, 113, 200, 240
-0.983443, 369, 153, 496, 216
-0.983468, 209, 89, 336, 152
-0.983516, 285, 177, 316, 304
-0.983561, 69, 17, 100, 144
-0.983972, 305, 25, 336, 88
-0.983994, 225, 217, 352, 280
-0.984042, 369, 193, 496, 256
-0.98405, 305, 81, 336, 144
-0.984066, 185, 217, 248, 280
-0.984081, 325, 65, 356, 128
-0.984106, 433, 41, 496, 104
-0.984111, 369, 33, 432, 288
-0.984113, 65, 217, 192, 280
-0.984197, 33, 241, 96, 304
-0.984232, 89, 97, 152, 224
-0.984261, 65, 225, 128, 288
-0.984304, 437, 193, 468, 320
-0.984305, 57, 97, 120, 160
-0.984437, 369, 113, 432, 176
-0.984442, 69, 17, 100, 80
-0.984506, 465, 161, 496, 224
-0.984553, 469, 137, 500, 200
-0.984563, 97, 161, 160, 288
-0.984597, 217, 33, 248, 160
-0.984624, 437, 193, 468, 256
-0.984701, 105, 41, 168, 104
-0.984894, 113, 233, 240, 296
-0.984894, 297, 129, 360, 192
-0.984901, 169, 249, 232, 312
-0.984974, 129, 65, 256, 128
-0.98503, 41, 33, 104, 160
-0.985042, 337, 97, 368, 224
-0.985104, 73, 129, 104, 256
-0.985108, 265, 41, 328, 104
-0.985174, 177, 49, 240, 176
-0.985178, 373, 81, 404, 208
-0.985193, 321, 1, 384, 333
-0.985204, 105, 265, 168, 328
-0.985235, 357, 57, 388, 120
-0.985242, 241, 233, 272, 296
-0.985251, 161, 161, 224, 224
-0.985273, 201, 1, 264, 333
-0.985311, 1, 233, 128, 296
-0.985341, 317, 17, 348, 144
-0.985405, 369, 49, 432, 112
-0.985618, 57, 41, 120, 104
-0.985713, 313, 145, 344, 272
-0.985746, 193, 73, 224, 136
-0.985764, 205, 49, 236, 176
-0.985841, 469, 33, 500, 160
-0.985856, 469, 25, 500, 88
-0.985888, 153, 177, 184, 304
-0.985897, 1, 241, 64, 304
-0.985946, 449, 225, 480, 288
-0.98606, 305, 153, 336, 216
-0.986113, 97, 17, 128, 80
-0.986115, 269, 177, 300, 304
-0.986119, 25, 161, 88, 224
-0.986137, 209, 265, 336, 328
-0.986177, 241, 169, 304, 232
-0.986374, 97, 193, 224, 256
-0.986407, 205, 89, 236, 152
-0.986432, 449, 265, 480, 328
-0.986443, 229, 193, 260, 256
-0.986526, 353, 9, 480, 72
-0.986552, 273, 1, 336, 256
-0.98668, 369, 129, 496, 192
-0.986683, 433, 1, 496, 333
-0.986749, 365, 145, 396, 272
-0.986773, 377, 49, 408, 112
-0.986817, 353, 33, 384, 160
-0.986819, 165, 185, 196, 248
-0.98685, 321, 209, 448, 333
-0.986878, 249, 129, 312, 256
-0.98698, 369, 249, 496, 312
-0.986991, 273, 185, 304, 248
-0.987012, 65, 41, 192, 104
-0.987061, 193, 177, 224, 304
-0.987097, 49, 105, 176, 168
-0.987162, 325, 113, 356, 240
-0.98719, 469, 113, 500, 176
-0.987214, 1, 209, 64, 272
-0.987229, 57, 73, 120, 136
-0.987257, 273, 89, 336, 152
-0.987264, 161, 273, 224, 333
-0.987282, 453, 177, 484, 240
-0.987311, 241, 65, 368, 128
-0.987314, 269, 217, 300, 280
-0.987426, 209, 241, 240, 304
-0.987516, 353, 1, 416, 333
-0.987538, 225, 241, 256, 304
-0.987657, 145, 129, 176, 256
-0.987673, 233, 65, 264, 128
-0.987751, 237, 177, 268, 304
-0.987753, 305, 49, 336, 112
-0.987761, 273, 265, 336, 328
-0.987764, 121, 97, 184, 160
-0.9878, 129, 161, 256, 224
-0.987804, 409, 249, 472, 312
-0.987806, 305, 193, 368, 320
-0.987815, 353, 145, 384, 272
-0.987833, 173, 177, 204, 304
-0.987943, 369, 73, 432, 136
-0.987962, 1, 193, 128, 256
-0.987977, 325, 97, 356, 160
-0.987987, 185, 193, 216, 256
-0.987998, 125, 17, 156, 80
-0.988046, 369, 273, 496, 333
-0.988089, 421, 137, 452, 200
-0.988099, 305, 105, 336, 168
-0.988106, 137, 17, 168, 80
-0.988107, 89, 209, 152, 333
-0.988123, 385, 97, 448, 224
-0.988132, 297, 217, 360, 280
-0.988149, 289, 225, 320, 288
-0.988191, 337, 57, 464, 120
-0.988211, 289, 129, 416, 192
-0.98824, 273, 17, 336, 80
-0.988276, 129, 97, 256, 160
-0.988301, 433, 65, 496, 128
-0.988338, 469, 81, 500, 144
-0.988339, 217, 193, 248, 320
-0.988339, 121, 121, 184, 184
-0.98834, 113, 17, 144, 80
-0.988342, 469, 49, 500, 112
-0.988424, 113, 33, 240, 96
-0.988434, 273, 177, 400, 240
-0.98845, 393, 129, 456, 192
-0.988503, 345, 89, 376, 152
-0.988533, 193, 49, 320, 112
-0.988581, 97, 1, 160, 333
-0.988638, 49, 241, 176, 304
-0.988723, 85, 17, 116, 80
-0.988855, 273, 217, 400, 280
-0.988912, 153, 49, 216, 176
-0.988925, 97, 265, 224, 328
-0.98898, 377, 145, 408, 272
-0.989035, 105, 65, 168, 128
-0.989088, 1, 257, 32, 320
-0.98911, 453, 153, 484, 216
-0.989111, 209, 241, 336, 304
-0.989113, 377, 73, 408, 136
-0.989123, 361, 81, 392, 144
-0.989158, 25, 65, 88, 320
-0.989159, 289, 161, 320, 224
-0.989237, 433, 113, 496, 176
-0.989279, 137, 17, 168, 144
-0.98928, 1, 33, 128, 160
-0.989301, 397, 145, 428, 272
-0.989411, 329, 17, 360, 144
-0.989521, 349, 33, 380, 96
-0.989522, 161, 273, 288, 333
-0.989527, 357, 113, 388, 176
-0.989531, 141, 177, 172, 304
-0.98956, 369, 89, 496, 152
-0.989577, 201, 57, 264, 88
-0.989595, 249, 193, 280, 256
-0.989633, 145, 153, 176, 216
-0.989678, 221, 65, 252, 128
-0.989714, 97, 209, 160, 272
-0.989722, 197, 201, 228, 264
-0.989726, 333, 33, 364, 96
-0.989798, 49, 65, 176, 128
-0.989825, 121, 1, 184, 333
-0.989866, 321, 29, 384, 60
-0.989868, 153, 49, 216, 112
-0.98987, 433, 221, 496, 252
-0.989896, 129, 17, 192, 144
-0.989915, 241, 33, 368, 96
-0.989931, 97, 17, 128, 144
-0.989978, 257, 129, 320, 192
-0.990014, 185, 225, 216, 288
-0.990088, 433, 201, 496, 232
-0.990138, 141, 177, 172, 240
-0.990138, 385, 201, 448, 264
-0.990175, 17, 193, 48, 320
-0.99018, 265, 189, 328, 220
-0.990271, 341, 145, 372, 272
-0.99031, 257, 161, 500, 224
-0.990313, 401, 65, 464, 320
-0.990314, 225, 57, 288, 120
-0.990379, 341, 137, 372, 200
-0.990385, 185, 169, 248, 232
-0.990397, 117, 17, 148, 144
-0.990403, 409, 153, 472, 216
-0.99041, 433, 185, 496, 216
-0.990422, 445, 113, 476, 240
-0.990444, 69, 81, 100, 208
-0.990463, 137, 25, 200, 88
-0.990497, 257, 241, 384, 304
-0.990529, 193, 69, 256, 100
-0.99058, 341, 33, 372, 160
-0.990582, 433, 89, 496, 152
-0.990587, 297, 29, 360, 60
-0.990604, 133, 129, 164, 256
-0.990606, 17, 17, 144, 80
-0.99064, 269, 241, 300, 304
-0.990645, 433, 281, 496, 312
-0.990667, 433, 21, 496, 52
-0.990671, 165, 233, 196, 296
-0.990678, 237, 89, 268, 152
-0.990703, 345, 29, 408, 60
-0.99072, 305, 61, 368, 92
-0.990732, 313, 141, 376, 172
-0.99074, 201, 97, 264, 224
-0.990775, 305, 17, 368, 48
-0.990781, 25, 129, 88, 192
-0.990795, 297, 89, 360, 120
-0.990803, 209, 265, 240, 328
-0.990816, 321, 225, 384, 288
-0.990834, 1, 177, 32, 304
-0.990853, 433, 245, 496, 276
-0.990859, 65, 25, 128, 56
-0.990861, 413, 145, 444, 272
-0.990923, 329, 17, 392, 48
-0.990934, 297, 105, 360, 136
-0.990961, 261, 185, 292, 248
-0.990968, 433, 301, 496, 332
-0.990968, 297, 153, 360, 184
-0.990969, 293, 49, 324, 176
-0.990979, 369, 21, 432, 52
-0.99101, 137, 185, 200, 216
-0.991036, 233, 185, 296, 216
-0.991044, 305, 73, 368, 104
-0.991088, 345, 209, 408, 272
-0.991101, 321, 97, 384, 128
-0.991139, 209, 1, 272, 128
-0.99114, 1, 169, 128, 232
-0.991146, 433, 233, 496, 264
-0.991159, 241, 221, 304, 252
-0.991173, 201, 81, 264, 112
-0.991176, 253, 217, 284, 280
-0.991213, 305, 41, 368, 72
-0.991219, 201, 105, 264, 168
-0.991236, 437, 217, 468, 280
-0.991248, 193, 65, 224, 192
-0.991251, 369, 105, 400, 168
-0.991286, 193, 189, 256, 220
-0.991288, 433, 257, 496, 288
-0.991374, 321, 109, 384, 140
-0.991374, 225, 233, 288, 264
-0.991398, 409, 217, 472, 248
-0.991401, 253, 177, 284, 304
-0.991413, 469, 1, 500, 64
-0.991444, 69, 145, 100, 208
-0.991449, 97, 161, 160, 224
-0.991514, 241, 113, 368, 176
-0.991519, 433, 161, 496, 192
-0.991568, 201, 241, 264, 272
-0.991589, 161, 73, 224, 104
-0.991649, 193, 33, 256, 96
-0.991661, 137, 213, 200, 244
-0.991669, 33, 213, 96, 244
-0.991672, 57, 149, 120, 180
-0.991684, 425, 173, 488, 204
-0.9917, 345, 49, 408, 80
-0.991708, 161, 225, 224, 256
-0.991714, 321, 225, 448, 288
-0.991719, 13, 201, 44, 264
-0.99172, 273, 1, 336, 333
-0.991723, 265, 201, 328, 232
-0.991724, 289, 165, 352, 196
-0.991724, 161, 185, 224, 216
-0.991725, 425, 269, 488, 300
-0.991729, 393, 153, 456, 184
-0.991737, 1, 257, 128, 320
-0.991739, 329, 85, 392, 116
-0.991746, 329, 209, 392, 333
-0.991754, 105, 21, 168, 52
-0.991772, 193, 97, 256, 128
-0.991776, 281, 45, 344, 76
-0.991779, 293, 97, 324, 224
-0.991784, 217, 65, 280, 320
-0.991807, 33, 201, 96, 232
-0.991811, 329, 69, 392, 100
-0.991819, 377, 1, 440, 333
-0.991841, 57, 129, 120, 160
-0.991842, 81, 41, 144, 104
-0.991848, 73, 177, 104, 304
-0.99185, 205, 177, 236, 304
-0.991889, 217, 217, 248, 280
-0.991899, 345, 65, 376, 128
-0.991906, 281, 73, 344, 104
-0.991909, 265, 29, 328, 60
-0.991911, 289, 177, 352, 208
-0.991966, 197, 265, 228, 328
-0.991969, 337, 141, 400, 172
-0.991973, 297, 129, 328, 192
-0.991978, 329, 121, 360, 184
-0.991978, 177, 237, 240, 268
-0.99198, 257, 69, 320, 100
-0.991984, 121, 169, 184, 200
-0.991987, 321, 153, 384, 184
-0.991998, 161, 89, 224, 120
-0.992005, 33, 225, 96, 256
-0.992012, 345, 97, 408, 128
-0.992012, 129, 249, 192, 280
-0.992012, 297, 241, 360, 304
-0.99203, 297, 125, 360, 156
-0.992037, 265, 221, 328, 252
-0.992067, 65, 169, 128, 200
-0.992067, 265, 177, 328, 208
-0.99208, 161, 97, 224, 160
-0.992083, 121, 157, 184, 188
-0.992099, 241, 253, 304, 284
-0.992111, 281, 57, 344, 88
-0.992116, 41, 1, 104, 333
-0.992117, 369, 33, 432, 64
-0.992119, 409, 205, 472, 236
-0.992141, 65, 229, 128, 260
-0.992152, 217, 101, 280, 132
-0.992153, 33, 189, 96, 220
-0.992172, 345, 113, 408, 144
-0.992174, 393, 141, 456, 172
-0.992183, 433, 33, 496, 64
-0.992192, 381, 153, 412, 216
-0.992204, 65, 205, 128, 236
-0.992208, 129, 9, 256, 72
-0.99221, 409, 189, 472, 220
-0.992211, 365, 9, 396, 72
-0.992219, 225, 89, 288, 120
-0.992242, 369, 153, 432, 184
-0.992252, 225, 197, 288, 228
-0.992259, 225, 81, 288, 208
-0.99226, 137, 225, 200, 256
-0.992269, 193, 217, 256, 248
-0.992285, 153, 201, 216, 232
-0.992291, 393, 17, 456, 48
-0.992323, 433, 45, 496, 76
-0.992332, 461, 277, 492, 308
-0.992335, 1, 241, 64, 272
-0.992339, 137, 233, 168, 296
-0.992353, 161, 65, 224, 320
-0.992353, 433, 149, 496, 180
-0.992356, 289, 189, 352, 220
-0.992358, 465, 221, 496, 252
-0.992362, 409, 229, 472, 260
-0.992364, 177, 249, 240, 280
-0.992372, 121, 145, 184, 176
-0.992385, 241, 209, 304, 240
-0.992402, 65, 117, 128, 148
-0.992416, 69, 121, 100, 184
-0.992447, 129, 193, 160, 256
-0.992461, 465, 197, 496, 228
-0.992461, 345, 113, 376, 176
-0.992472, 33, 237, 96, 268
-0.992476, 345, 153, 408, 184
-0.992476, 257, 233, 320, 264
-0.992479, 105, 41, 168, 72
-0.992481, 289, 209, 352, 240
-0.992502, 1, 177, 256, 240
-0.99251, 57, 45, 120, 76
-0.992514, 53, 145, 84, 272
-0.992521, 105, 113, 136, 240
-0.992523, 369, 49, 432, 80
-0.992526, 393, 165, 456, 196
-0.992536, 65, 193, 128, 224
-0.99255, 145, 261, 208, 292
-0.992552, 401, 273, 464, 333
-0.992557, 65, 181, 128, 212
-0.992562, 209, 153, 336, 216
-0.992566, 41, 17, 104, 80
-0.992571, 69, 177, 100, 240
-0.992574, 289, 141, 352, 172
-0.992587, 113, 129, 176, 160
-0.992587, 65, 217, 128, 248
-0.992589, 433, 9, 496, 40
-0.99259, 353, 209, 416, 333
-0.992594, 361, 29, 392, 60
-0.992596, 201, 253, 264, 284
-0.992596, 465, 185, 496, 216
-0.992599, 433, 57, 496, 88
-0.992601, 201, 229, 264, 260
-0.992608, 153, 173, 216, 204
-0.992617, 369, 101, 432, 132
-0.992617, 89, 185, 152, 248
-0.992621, 321, 121, 384, 152
-0.99263, 57, 61, 120, 92
-0.992633, 257, 165, 320, 196
-0.992649, 273, 1, 400, 64
-0.992649, 377, 25, 408, 56
-0.992649, 113, 117, 176, 148
-0.992656, 393, 177, 456, 208
-0.992671, 161, 61, 224, 92
-0.992686, 137, 237, 200, 268
-0.992697, 305, 25, 336, 56
-0.992699, 153, 249, 216, 280
-0.992701, 345, 125, 408, 156
-0.992704, 453, 221, 484, 252
-0.992708, 461, 245, 492, 276
-0.992716, 465, 233, 496, 264
-0.992716, 325, 29, 356, 60
-0.99272, 129, 65, 192, 320
-0.992751, 461, 265, 492, 296
-0.992767, 445, 201, 476, 232
-0.992768, 465, 209, 496, 240
-0.992769, 81, 17, 112, 144
-0.992769, 33, 105, 96, 168
-0.992801, 357, 137, 388, 200
-0.992813, 329, 177, 392, 240
-0.992819, 129, 49, 192, 112
-0.992821, 205, 61, 236, 92
-0.992822, 253, 241, 284, 304
-0.99283, 421, 145, 452, 176
-0.99285, 121, 129, 152, 256
-0.99286, 257, 265, 384, 328
-0.99286, 461, 289, 492, 320
-0.992877, 385, 65, 416, 192
-0.992887, 201, 81, 232, 112
-0.992891, 377, 49, 408, 80
-0.992898, 357, 17, 388, 48
-0.992911, 73, 201, 104, 264
-0.992921, 465, 161, 496, 192
-0.992927, 129, 121, 256, 184
-0.99293, 317, 69, 348, 100
-0.992937, 305, 65, 336, 96
-0.992939, 69, 25, 100, 56
-0.992945, 233, 185, 264, 216
-0.992951, 269, 189, 300, 220
-0.992952, 173, 209, 204, 272
-0.992953, 233, 49, 264, 176
-0.992955, 377, 65, 408, 96
-0.992955, 377, 37, 408, 68
-0.992958, 357, 57, 388, 88
-0.992958, 289, 185, 320, 216
-0.992961, 469, 149, 500, 180
-0.992965, 189, 185, 220, 216
-0.992965, 337, 109, 368, 140
-0.992977, 469, 25, 500, 56
-0.992977, 453, 233, 484, 264
-0.992984, 201, 93, 232, 124
-0.992986, 301, 153, 332, 184
-0.992989, 305, 81, 336, 112
-0.993005, 361, 69, 392, 100
-0.993008, 317, 109, 348, 140
-0.993009, 461, 301, 492, 332
-0.99301, 325, 17, 356, 48
-0.993018, 221, 97, 252, 128
-0.993022, 361, 101, 392, 132
-0.993033, 221, 53, 252, 84
-0.993046, 361, 41, 392, 72
-0.993048, 429, 161, 460, 224
-0.993048, 469, 137, 500, 168
-0.99305, 349, 29, 380, 60
-0.993055, 153, 185, 184, 216
-0.99306, 337, 17, 368, 48
-0.993065, 165, 185, 196, 216
-0.993065, 189, 73, 220, 104
-0.993073, 305, 97, 336, 128
-0.993075, 341, 145, 372, 176
-0.993077, 305, 109, 336, 140
-0.99308, 305, 45, 336, 76
-0.993095, 469, 125, 500, 156
-0.993099, 441, 217, 472, 248
-0.993103, 377, 77, 408, 108
-0.99311, 325, 89, 356, 120
-0.993111, 217, 185, 248, 216
-0.993122, 357, 81, 388, 112
-0.993124, 469, 37, 500, 68
-0.993125, 449, 281, 480, 312
-0.993128, 469, 109, 500, 140
-0.993141, 197, 237, 228, 268
-0.99315, 237, 233, 268, 264
-0.993156, 469, 173, 500, 204
-0.993158, 1, 153, 500, 216
-0.993169, 313, 149, 344, 180
-0.99318, 469, 49, 500, 80
-0.993185, 425, 157, 456, 188
-0.993198, 13, 197, 44, 228
-0.993202, 377, 93, 408, 124
-0.993203, 453, 181, 484, 212
-0.993204, 353, 133, 384, 164
-0.993205, 349, 93, 380, 124
-0.99321, 469, 97, 500, 128
-0.993212, 469, 61, 500, 92
-0.993212, 1, 177, 500, 240
-0.993216, 297, 141, 328, 172
-0.993217, 329, 133, 360, 164
-0.993217, 217, 241, 248, 272
-0.993219, 237, 93, 268, 124
-0.993219, 441, 229, 472, 260
-0.993219, 349, 113, 380, 144
-0.993222, 57, 193, 88, 320
-0.993225, 317, 57, 348, 88
-0.993226, 293, 225, 324, 256
-0.993228, 5, 249, 36, 280
-0.993232, 69, 145, 100, 176
-0.993234, 469, 73, 500, 104
-0.993239, 161, 1, 224, 333
-0.993241, 449, 265, 480, 296
-0.993241, 365, 113, 396, 144
-0.993246, 337, 29, 368, 60
-0.993247, 253, 185, 284, 216
-0.993253, 249, 221, 280, 252
-0.993253, 69, 41, 100, 104
-0.993266, 469, 85, 500, 116
-0.993267, 141, 189, 172, 220
-0.993272, 189, 85, 220, 116
-0.993279, 5, 261, 36, 292
-0.993281, 85, 25, 116, 56
-0.993282, 469, 13, 500, 44
-0.993285, 289, 237, 320, 268
-0.993286, 377, 129, 408, 192
-0.993289, 1, 193, 32, 224
-0.993299, 341, 77, 372, 108
-0.9933, 137, 21, 168, 52
-0.993301, 185, 229, 216, 260
-0.993303, 237, 69, 268, 100
-0.993305, 429, 213, 460, 244
-0.993306, 273, 221, 304, 252
-0.993307, 333, 121, 364, 152
-0.99331, 377, 153, 408, 184
-0.993313, 145, 165, 176, 196
-0.993317, 293, 201, 324, 232
-0.993319, 237, 201, 268, 232
-0.993325, 193, 197, 224, 228
-0.993328, 101, 129, 132, 160
-0.993328, 301, 165, 332, 196
-0.993329, 69, 157, 100, 188
-0.99333, 445, 301, 476, 332
-0.993331, 269, 253, 300, 284
-0.993332, 273, 205, 304, 236
-0.993335, 357, 153, 388, 184
-0.993339, 233, 57, 264, 88
-0.99334, 401, 153, 432, 184
-0.993343, 145, 149, 176, 180
-0.993344, 337, 65, 368, 96
-0.993349, 217, 229, 248, 260
-0.993349, 337, 89, 368, 120
-0.99335, 185, 217, 216, 248
-0.993352, 205, 105, 236, 136
-0.993355, 209, 49, 240, 80
-0.99338, 477, 193, 492, 256
-0.993406, 285, 257, 316, 320
-0.993445, 221, 41, 252, 104
-0.993445, 189, 169, 220, 232
-0.993484, 25, 41, 88, 104
-0.9935, 149, 209, 180, 272
-0.993502, 97, 121, 160, 184
-0.993566, 397, 153, 428, 216
-0.993588, 49, 265, 176, 328
-0.993603, 425, 193, 456, 256
-0.993631, 269, 273, 300, 333
-0.993675, 209, 193, 240, 256
-0.993677, 161, 161, 192, 224
-0.993682, 1, 129, 128, 192
-0.993711, 229, 265, 260, 328
-0.993774, 1, 81, 128, 208
-0.993854, 153, 241, 184, 304
-0.993871, 97, 153, 352, 216
-0.993949, 221, 97, 252, 160
-0.993954, 249, 65, 312, 320
-0.993966, 353, 185, 416, 248
-0.993969, 33, 217, 288, 280
-0.994021, 321, 201, 448, 264
-0.99403, 209, 169, 272, 232
-0.994055, 393, 17, 456, 80
-0.99409, 409, 1, 472, 333
-0.994106, 161, 129, 192, 256
-0.994112, 281, 129, 312, 256
-0.994144, 437, 257, 468, 320
-0.994153, 225, 1, 288, 333
-0.994179, 69, 65, 100, 128
-0.994199, 97, 185, 352, 248
-0.994199, 153, 137, 216, 200
-0.994211, 1, 25, 256, 88
-0.994217, 129, 177, 160, 304
-0.99422, 161, 209, 192, 272
-0.994222, 53, 201, 84, 264
-0.994234, 211, 57, 226, 120
-0.994302, 369, 1, 432, 64
-0.994316, 177, 113, 304, 240
-0.994336, 203, 65, 218, 128
-0.994349, 1, 193, 32, 256
-0.994351, 245, 65, 276, 128
-0.994362, 361, 161, 424, 224
-0.994375, 193, 25, 320, 88
-0.994376, 181, 265, 212, 328
-0.994394, 177, 177, 304, 240
-0.994433, 33, 65, 96, 128
-0.994444, 297, 193, 328, 320
-0.994472, 455, 201, 470, 264
-0.99449, 257, 185, 500, 248
-0.994498, 249, 1, 312, 333
-0.994509, 369, 153, 400, 216
-0.994566, 377, 193, 440, 320
-0.994608, 165, 265, 196, 328
-0.994613, 1, 153, 256, 216
-0.994615, 73, 273, 136, 333
-0.994631, 389, 129, 420, 192
-0.994631, 121, 241, 152, 304
-0.994664, 137, 273, 168, 333
-0.994667, 1, 201, 500, 264
-0.99467, 129, 209, 384, 272
-0.994677, 25, 241, 56, 304
-0.99469, 369, 225, 432, 288
-0.994703, 325, 153, 356, 216
-0.994708, 97, 105, 352, 168
-0.994744, 469, 177, 484, 240
-0.994758, 479, 241, 494, 304
-0.994776, 381, 1, 412, 64
-0.994797, 69, 97, 100, 160
-0.994835, 1, 73, 256, 136
-0.994847, 153, 273, 184, 333
-0.99489, 65, 25, 192, 56
-0.994893, 297, 273, 360, 333
-0.994933, 249, 89, 312, 152
-0.994938, 457, 17, 488, 80
-0.994949, 475, 217, 490, 280
-0.994955, 373, 49, 388, 112
-0.994958, 1, 233, 32, 296
-0.994993, 471, 241, 486, 304
-0.995002, 121, 65, 152, 192
-0.99507, 467, 273, 482, 333
-0.995071, 273, 29, 400, 60
-0.995072, 245, 265, 276, 328
-0.995076, 409, 137, 440, 200
-0.995135, 441, 161, 472, 224
-0.995164, 465, 201, 480, 264
-0.995193, 193, 81, 448, 144
-0.995209, 475, 265, 490, 328
-0.995228, 1, 105, 128, 168
-0.995244, 97, 49, 352, 112
-0.995276, 257, 225, 500, 288
-0.995381, 297, 1, 360, 64
-0.995407, 1, 129, 256, 192
-0.99546, 1, 49, 256, 112
-0.995476, 421, 97, 452, 224
-0.995508, 145, 81, 176, 208
-0.995558, 373, 25, 388, 88
-0.99556, 97, 241, 352, 304
-0.995578, 129, 129, 384, 192
-0.995597, 153, 1, 216, 128
-0.9956, 275, 185, 290, 248
-0.995603, 477, 169, 492, 232
-0.995616, 381, 17, 396, 80
-0.995669, 1, 233, 500, 296
-0.995672, 317, 73, 332, 136
-0.995675, 81, 81, 112, 208
-0.995699, 317, 25, 332, 88
-0.995701, 249, 65, 264, 128
-0.995704, 289, 105, 416, 136
-0.995711, 1, 25, 500, 88
-0.995726, 289, 153, 416, 184
-0.995727, 49, 165, 176, 196
-0.995753, 243, 57, 258, 120
-0.995762, 97, 25, 352, 88
-0.995771, 465, 225, 480, 288
-0.995776, 49, 145, 176, 176
-0.995823, 89, 129, 120, 256
-0.995833, 129, 265, 384, 328
-0.995836, 471, 153, 486, 216
-0.995853, 193, 57, 448, 120
-0.995864, 209, 233, 224, 296
-0.995886, 449, 193, 464, 256
-0.995914, 49, 133, 176, 164
-0.995941, 257, 17, 500, 80
-0.995951, 483, 217, 498, 280
-0.995965, 273, 41, 400, 72
-0.995976, 323, 41, 338, 104
-0.99598, 305, 273, 432, 333
-0.996001, 1, 105, 256, 168
-0.996003, 327, 65, 342, 128
-0.996004, 457, 113, 488, 240
-0.996058, 153, 17, 168, 80
-0.996063, 241, 233, 256, 296
-0.996065, 323, 89, 338, 152
-0.996067, 225, 225, 352, 256
-0.996074, 461, 273, 476, 333
-0.996074, 305, 25, 320, 88
-0.996086, 285, 185, 300, 248
-0.996101, 273, 61, 400, 92
-0.996121, 453, 273, 468, 333
-0.996124, 241, 33, 304, 160
-0.996146, 289, 85, 416, 116
-0.996147, 353, 29, 480, 60
-0.996147, 257, 137, 500, 200
-0.996188, 305, 17, 432, 48
-0.996201, 53, 81, 84, 208
-0.996215, 311, 73, 326, 136
-0.996221, 17, 41, 144, 104
-0.996233, 1, 57, 500, 120
-0.996258, 381, 57, 396, 120
-0.996282, 209, 93, 336, 124
-0.996284, 367, 33, 382, 96
-0.996291, 111, 17, 126, 80
-0.996297, 29, 193, 60, 320
-0.99632, 73, 17, 88, 80
-0.996336, 317, 49, 332, 112
-0.996355, 459, 241, 474, 304
-0.996369, 257, 249, 500, 312
-0.99639, 337, 157, 464, 188
-0.996439, 127, 17, 142, 80
-0.996451, 209, 81, 224, 144
-0.996453, 247, 193, 262, 256
-0.996479, 301, 1, 332, 256
-0.996482, 301, 161, 316, 224
-0.9965, 117, 177, 148, 304
-0.9965, 321, 177, 448, 240
-0.99651, 273, 165, 400, 196
-0.99652, 483, 177, 498, 240
-0.996529, 205, 193, 220, 256
-0.996541, 159, 177, 174, 240
-0.996551, 477, 145, 492, 208
-0.996561, 185, 65, 248, 320
-0.996561, 97, 73, 352, 136
-0.996563, 161, 201, 288, 232
-0.996563, 103, 17, 118, 80
-0.996567, 217, 49, 232, 112
-0.99657, 353, 45, 480, 76
-0.996571, 335, 73, 350, 136
-0.996572, 271, 233, 286, 296
-0.996584, 145, 57, 272, 88
-0.996602, 365, 33, 396, 288
-0.996605, 373, 73, 388, 136
-0.996621, 145, 221, 272, 252
-0.996637, 203, 89, 218, 152
-0.996657, 215, 241, 230, 304
-0.996658, 73, 1, 104, 256
-0.996659, 49, 229, 176, 260
-0.996662, 397, 97, 428, 224
-0.996664, 89, 17, 104, 80
-0.996666, 443, 193, 458, 256
-0.996679, 105, 177, 136, 304
-0.996686, 235, 241, 250, 304
-0.996703, 1, 241, 256, 304
-0.996707, 247, 225, 262, 288
-0.996738, 49, 209, 176, 240
-0.99675, 289, 73, 416, 104
-0.996754, 323, 17, 338, 80
-0.996758, 313, 153, 328, 216
-0.99676, 153, 185, 168, 248
-0.996769, 353, 17, 480, 48
-0.996779, 377, 1, 408, 256
-0.996797, 121, 17, 136, 80
-0.996804, 303, 57, 318, 120
-0.996821, 305, 97, 320, 160
-0.996827, 49, 197, 176, 228
-0.996837, 457, 33, 488, 160
-0.99684, 237, 65, 252, 128
-0.996849, 135, 17, 150, 80
-0.996854, 225, 185, 352, 216
-0.996857, 325, 161, 356, 288
-0.996863, 155, 145, 170, 208
-0.996877, 1, 273, 256, 333
-0.996882, 317, 97, 332, 160
-0.996892, 305, 249, 432, 312
-0.996902, 485, 241, 500, 304
-0.996917, 257, 273, 500, 333
-0.996918, 465, 249, 480, 312
-0.99692, 361, 41, 376, 104
-0.996927, 113, 185, 240, 216
-0.996933, 65, 37, 192, 68
-0.996933, 145, 237, 272, 268
-0.996933, 367, 65, 382, 128
-0.996936, 205, 97, 236, 224
-0.996959, 193, 57, 320, 88
-0.996961, 445, 217, 460, 280
-0.996966, 53, 33, 84, 160
-0.996967, 343, 97, 358, 160
-0.996967, 301, 185, 316, 248
-0.996977, 49, 177, 176, 208
-0.996986, 169, 185, 184, 248
-0.996991, 369, 197, 496, 228
-0.997003, 369, 213, 496, 244
-0.997017, 369, 281, 496, 312
-0.997023, 95, 17, 110, 80
-0.997047, 293, 233, 308, 296
-0.997048, 345, 65, 360, 128
-0.997051, 205, 1, 236, 128
-0.997055, 369, 229, 496, 260
-0.997073, 379, 89, 394, 152
-0.99708, 183, 185, 198, 248
-0.997085, 97, 205, 224, 236
-0.997094, 49, 121, 176, 152
-0.997116, 339, 41, 354, 104
-0.997132, 1, 237, 128, 268
-0.997135, 143, 17, 158, 80
-0.997137, 321, 61, 448, 92
-0.997141, 311, 17, 326, 80
-0.997143, 379, 113, 394, 176
-0.997144, 469, 17, 484, 80
-0.997163, 129, 97, 256, 128
-0.997179, 295, 177, 310, 240
-0.997181, 461, 177, 476, 240
-0.997189, 369, 253, 496, 284
-0.997195, 289, 257, 304, 320
-0.997203, 349, 137, 364, 200
-0.997207, 303, 225, 318, 288
-0.997231, 357, 97, 372, 160
-0.997246, 303, 137, 318, 200
-0.997246, 283, 217, 298, 280
-0.997248, 97, 1, 352, 64
-0.997261, 97, 225, 224, 256
-0.997261, 475, 225, 490, 256
-0.997267, 105, 65, 136, 192
-0.997268, 239, 201, 254, 264
-0.997293, 369, 145, 496, 176
-0.997303, 483, 153, 498, 216
-0.997307, 353, 73, 368, 136
-0.997308, 477, 181, 492, 212
-0.997311, 365, 113, 380, 176
-0.997318, 193, 237, 320, 268
-0.997322, 373, 97, 388, 160
-0.997323, 319, 153, 334, 216
-0.997324, 241, 209, 368, 240
-0.997327, 329, 89, 344, 152
-0.997328, 289, 117, 416, 148
-0.99733, 389, 17, 404, 80
-0.99735, 193, 105, 448, 168
-0.997352, 337, 97, 352, 160
-0.997361, 251, 89, 266, 152
-0.997368, 177, 17, 304, 144
-0.997371, 183, 233, 198, 296
-0.997396, 201, 73, 216, 104
-0.997398, 273, 177, 400, 208
-0.997416, 311, 113, 326, 176
-0.99742, 147, 185, 162, 248
-0.997421, 307, 161, 322, 224
-0.997431, 369, 241, 496, 272
-0.997433, 217, 73, 232, 136
-0.997434, 1, 129, 500, 192
-0.997435, 305, 25, 320, 56
-0.997438, 465, 65, 496, 320
-0.997453, 27, 201, 42, 264
-0.997453, 277, 217, 292, 280
-0.997478, 281, 249, 296, 312
-0.997478, 427, 137, 442, 200
-0.997492, 263, 233, 278, 296
-0.997493, 225, 197, 352, 228
-0.997498, 349, 33, 364, 96
-0.997498, 221, 233, 236, 296
-0.997499, 113, 253, 240, 284
-0.997503, 453, 225, 468, 288
-0.997507, 1, 217, 128, 248
-0.997513, 369, 169, 496, 200
-0.997523, 327, 113, 342, 176
-0.997523, 213, 265, 228, 328
-0.997524, 395, 153, 410, 216
-0.997526, 435, 137, 450, 200
-0.997529, 349, 97, 364, 160
-0.997535, 471, 181, 486, 212
-0.997539, 73, 137, 88, 200
-0.99754, 217, 145, 248, 272
-0.997551, 425, 193, 456, 320
-0.997554, 469, 273, 484, 304
-0.997558, 1, 193, 128, 224
-0.99756, 265, 257, 280, 320
-0.997564, 209, 69, 224, 100
-0.997565, 161, 153, 176, 216
-0.997575, 317, 33, 348, 288
-0.997585, 341, 209, 372, 333
-0.997591, 373, 29, 388, 60
-0.997596, 465, 217, 480, 248
-0.997597, 245, 89, 260, 152
-0.997604, 461, 281, 476, 312
-0.997609, 219, 273, 234, 333
-0.997611, 369, 185, 496, 216
-0.997611, 143, 233, 158, 296
-0.997626, 353, 93, 480, 124
-0.997631, 209, 93, 224, 124
-0.997634, 313, 29, 328, 60
-0.99764, 1, 97, 500, 160
-0.997651, 477, 193, 492, 224
-0.997664, 49, 109, 176, 140
-0.997666, 475, 273, 490, 304
-0.997667, 389, 17, 420, 144
-0.997678, 329, 1, 360, 256
-0.997692, 323, 25, 338, 56
-0.997695, 1, 205, 128, 236
-0.997718, 349, 1, 380, 256
-0.997727, 209, 45, 336, 76
-0.997735, 451, 197, 466, 228
-0.99775, 125, 1, 156, 256
-0.997763, 353, 73, 480, 104
-0.997772, 473, 245, 488, 276
-0.99778, 245, 49, 276, 176
-0.9978, 373, 53, 388, 84
-0.997807, 209, 105, 336, 136
-0.99781, 369, 265, 496, 296
-0.997818, 241, 81, 368, 112
-0.997821, 209, 173, 336, 204
-0.997826, 465, 229, 480, 260
-0.997833, 49, 49, 176, 80
-0.997841, 369, 301, 496, 332
-0.997848, 455, 217, 470, 248
-0.997866, 323, 89, 338, 120
-0.997877, 381, 21, 396, 52
-0.997877, 313, 77, 328, 108
-0.997883, 193, 213, 320, 244
-0.997885, 479, 237, 494, 268
-0.997886, 317, 65, 332, 96
-0.9979, 273, 221, 400, 252
-0.997905, 209, 57, 224, 88
-0.997906, 201, 61, 216, 92
-0.99791, 251, 73, 266, 104
-0.997929, 161, 253, 288, 284
-0.997935, 345, 25, 360, 56
-0.997961, 305, 41, 320, 72
-0.997968, 323, 105, 338, 136
-0.997975, 203, 85, 218, 116
-0.997989, 49, 241, 176, 272
-0.997993, 97, 265, 224, 296
-0.997996, 113, 85, 240, 116
-0.997997, 453, 297, 468, 328
-0.998003, 349, 141, 364, 172
-0.998007, 473, 261, 488, 292
-0.998009, 49, 97, 176, 128
-0.998011, 211, 237, 226, 268
-0.998015, 453, 285, 468, 316
-0.998031, 469, 169, 484, 200
-0.998037, 339, 25, 354, 56
-0.998051, 425, 145, 440, 176
-0.998057, 159, 177, 174, 208
-0.998065, 329, 29, 344, 60
-0.998068, 285, 189, 300, 220
-0.99807, 369, 121, 496, 152
-0.99807, 229, 1, 260, 128
-0.998076, 209, 257, 336, 288
-0.998087, 479, 253, 494, 284
-0.998089, 373, 109, 388, 140
-0.99809, 319, 49, 334, 80
-0.99809, 217, 53, 232, 84
-0.998091, 353, 29, 368, 60
-0.998097, 129, 45, 256, 76
-0.998097, 289, 141, 416, 172
-0.998097, 463, 265, 478, 296
-0.998116, 353, 109, 480, 140
-0.998121, 73, 25, 88, 56
-0.998121, 275, 189, 290, 220
-0.998126, 245, 89, 260, 120
-0.998127, 153, 25, 168, 56
-0.998132, 207, 185, 222, 216
-0.998133, 49, 61, 176, 92
-0.998136, 1, 65, 128, 128
-0.998137, 241, 233, 256, 264
-0.998137, 373, 17, 388, 48
-0.99814, 1, 1, 500, 64
-0.99814, 363, 25, 378, 56
-0.998146, 215, 97, 230, 128
-0.998148, 323, 77, 338, 108
-0.998161, 245, 185, 260, 216
-0.998161, 209, 81, 224, 112
-0.998163, 149, 33, 180, 160
-0.998177, 137, 1, 168, 256
-0.998179, 481, 225, 496, 256
-0.998182, 323, 37, 338, 68
-0.998185, 315, 149, 330, 180
-0.998188, 49, 85, 176, 116
-0.998191, 409, 97, 472, 224
-0.998191, 317, 105, 332, 136
-0.998197, 353, 17, 368, 48
-0.9982, 243, 57, 258, 88
-0.9982, 189, 129, 220, 256
-0.998202, 161, 189, 288, 220
-0.998205, 469, 193, 484, 224
-0.998206, 339, 105, 354, 136
-0.998214, 237, 185, 252, 216
-0.998215, 483, 177, 498, 208
-0.998216, 313, 17, 328, 48
-0.998229, 317, 89, 332, 120
-0.998232, 17, 1, 80, 333
-0.998232, 373, 69, 388, 100
-0.998235, 129, 153, 256, 184
-0.99824, 257, 17, 384, 48
-0.998243, 1, 181, 128, 212
-0.998248, 329, 89, 344, 120
-0.99825, 97, 241, 224, 272
-0.99825, 459, 201, 474, 232
-0.998251, 251, 61, 266, 92
-0.998252, 331, 109, 346, 140
-0.998253, 305, 69, 320, 100
-0.998256, 313, 53, 328, 84
-0.998257, 477, 213, 492, 244
-0.998272, 457, 265, 472, 296
-0.998277, 483, 213, 498, 244
-0.998279, 345, 105, 360, 136
-0.998289, 223, 53, 238, 84
-0.998307, 455, 233, 470, 264
-0.998308, 97, 1, 128, 256
-0.998314, 467, 285, 482, 316
-0.998315, 339, 89, 354, 120
-0.998317, 373, 41, 388, 72
-0.998318, 379, 49, 394, 80
-0.998321, 301, 149, 316, 180
-0.998327, 129, 109, 256, 140
-0.99833, 239, 93, 254, 124
-0.998336, 295, 185, 310, 216
-0.99834, 445, 197, 460, 228
-0.998341, 325, 141, 340, 172
-0.998342, 225, 69, 352, 100
-0.998347, 485, 237, 500, 268
-0.998353, 333, 17, 348, 48
-0.998356, 317, 93, 348, 108
-0.998356, 329, 109, 360, 124
-0.998357, 305, 57, 336, 72
-0.998358, 469, 103, 500, 118
-0.998358, 389, 21, 404, 52
-0.998358, 469, 61, 500, 76
-0.998358, 461, 303, 492, 318
-0.998358, 301, 189, 316, 220
-0.998358, 305, 113, 336, 128
-0.998359, 193, 235, 224, 250
-0.99836, 217, 195, 248, 210
-0.99836, 469, 75, 500, 90
-0.99836, 317, 109, 348, 124
-0.998362, 453, 191, 484, 206
-0.998363, 317, 103, 348, 118
-0.998363, 469, 55, 500, 70
-0.998363, 213, 97, 244, 112
-0.998364, 69, 27, 100, 42
-0.998365, 465, 269, 496, 284
-0.998366, 345, 105, 376, 120
-0.998367, 377, 103, 408, 118
-0.998368, 305, 89, 336, 104
-0.998368, 477, 169, 492, 200
-0.998369, 189, 75, 220, 90
-0.998369, 241, 237, 272, 252
-0.99837, 325, 39, 356, 54
-0.998371, 469, 111, 500, 126
-0.998371, 377, 85, 408, 100
-0.998372, 469, 135, 500, 150
-0.998372, 461, 315, 492, 330
-0.998372, 449, 285, 480, 300
-0.998372, 49, 73, 176, 104
-0.998372, 273, 233, 400, 264
-0.998372, 189, 197, 220, 212
-0.998372, 445, 209, 476, 224
-0.998373, 461, 251, 492, 266
-0.998374, 325, 85, 356, 100
-0.998375, 197, 85, 228, 100
-0.998376, 469, 31, 500, 46
-0.998377, 153, 189, 184, 204
-0.998378, 475, 285, 490, 316
-0.998378, 189, 191, 220, 206
-0.998378, 377, 91, 408, 106
-0.998378, 441, 219, 472, 234
-0.998379, 469, 123, 500, 138
-0.998379, 453, 239, 484, 254
-0.99838, 197, 241, 228, 256
-0.99838, 469, 41, 500, 56
-0.998381, 469, 117, 500, 132
-0.998382, 345, 113, 376, 128
-0.998382, 469, 49, 500, 64
-0.998382, 297, 75, 328, 90
-0.998383, 305, 107, 336, 122
-0.998384, 69, 149, 100, 164
-0.998384, 129, 69, 256, 100
-0.998384, 361, 75, 392, 90
-0.998385, 469, 129, 500, 144
-0.998386, 305, 35, 336, 50
-0.998388, 241, 69, 256, 100
-0.99839, 467, 241, 482, 272
-0.998391, 317, 75, 348, 90
-0.998392, 373, 89, 388, 120
-0.998392, 445, 315, 476, 330
-0.998392, 465, 209, 496, 224
-0.998392, 377, 73, 408, 88
-0.998393, 313, 41, 328, 72
-0.998393, 213, 189, 244, 204
-0.998395, 469, 141, 500, 156
-0.998395, 357, 103, 388, 118
-0.998395, 469, 147, 500, 162
-0.998396, 361, 47, 392, 62
-0.998396, 251, 89, 266, 120
-0.998396, 317, 69, 348, 84
-0.998398, 357, 69, 388, 84
-0.998399, 449, 279, 480, 294
-0.998399, 233, 103, 264, 118
-0.998402, 221, 61, 252, 76
-0.998402, 197, 91, 228, 106
-0.998402, 305, 47, 336, 62
-0.998403, 323, 65, 338, 96
-0.998404, 465, 159, 496, 174
-0.998404, 305, 93, 320, 124
-0.998405, 361, 111, 392, 126
-0.998406, 321, 225, 448, 256
-0.998407, 269, 191, 300, 206
-0.998407, 201, 79, 232, 94
-0.998407, 337, 25, 368, 40
-0.998407, 289, 189, 320, 204
-0.998409, 217, 241, 232, 272
-0.99841, 465, 169, 496, 184
-0.998412, 377, 53, 408, 68
-0.998412, 445, 201, 476, 216
-0.998413, 333, 103, 364, 118
-0.998413, 469, 25, 500, 40
-0.998414, 305, 69, 336, 84
-0.998414, 357, 81, 388, 96
-0.998415, 317, 33, 348, 48
-0.998416, 369, 133, 496, 164
-0.998416, 217, 243, 248, 258
-0.998418, 357, 21, 388, 36
-0.998418, 357, 87, 388, 102
-0.998419, 469, 153, 500, 168
-0.998419, 461, 309, 492, 324
-0.998419, 233, 59, 264, 74
-0.998419, 445, 217, 460, 248
-0.99842, 357, 93, 388, 108
-0.998421, 461, 287, 492, 302
-0.998421, 453, 231, 484, 246
-0.998422, 367, 109, 382, 140
-0.998422, 201, 97, 232, 112
-0.998422, 421, 157, 452, 172
-0.998423, 345, 89, 360, 120
-0.998423, 299, 25, 314, 56
-0.998424, 379, 109, 394, 140
-0.998425, 305, 83, 336, 98
-0.998426, 235, 53, 250, 84
-0.998426, 201, 69, 232, 84
-0.998427, 361, 41, 392, 56
-0.998427, 377, 63, 408, 78
-0.998427, 361, 35, 392, 50
-0.998429, 209, 59, 240, 74
-0.998429, 1, 153, 128, 184
-0.998429, 49, 257, 176, 288
-0.99843, 357, 63, 388, 78
-0.99843, 383, 61, 398, 92
-0.998433, 377, 41, 408, 56
-0.998435, 169, 185, 184, 216
-0.998435, 421, 143, 452, 158
-0.998436, 377, 47, 408, 62
-0.998437, 305, 63, 336, 78
-0.998437, 301, 161, 316, 192
-0.998438, 461, 257, 492, 272
-0.998443, 381, 37, 396, 68
-0.998443, 305, 41, 336, 56
-0.998444, 247, 225, 262, 256
-0.998445, 465, 175, 496, 190
-0.99845, 205, 103, 236, 118
-0.99845, 465, 185, 496, 200
-0.998453, 355, 141, 370, 172
-0.998455, 361, 57, 392, 72
-0.998455, 433, 145, 448, 176
-0.998458, 377, 31, 408, 46
-0.998458, 365, 49, 380, 80
-0.99846, 453, 269, 484, 284
-0.998461, 309, 141, 324, 172
-0.998464, 361, 61, 376, 92
-0.998468, 377, 23, 408, 38
-0.998471, 1, 265, 128, 296
-0.998472, 357, 109, 372, 140
-0.99848, 465, 215, 496, 230
-0.99848, 469, 21, 484, 52
-0.998483, 465, 201, 496, 216
-0.998483, 159, 189, 174, 220
-0.998484, 465, 227, 496, 242
-0.998484, 453, 221, 484, 236
-0.998487, 305, 27, 336, 42
-0.99849, 461, 275, 492, 290
-0.998493, 357, 27, 388, 42
-0.998495, 307, 57, 322, 88
-0.998496, 351, 109, 366, 140
-0.998497, 305, 25, 368, 40
-0.998497, 317, 25, 348, 40
-0.998497, 461, 263, 492, 278
-0.998501, 233, 189, 264, 204
-0.998504, 465, 195, 496, 210
-0.998504, 289, 209, 416, 240
-0.998506, 209, 153, 336, 184
-0.998508, 465, 233, 496, 248
-0.998512, 161, 265, 288, 296
-0.998513, 465, 239, 496, 254
-0.998515, 221, 55, 252, 70
-0.998515, 461, 245, 492, 260
-0.998516, 465, 221, 496, 236
-0.998517, 305, 31, 368, 46
-0.998519, 217, 103, 248, 118
-0.998521, 201, 101, 264, 116
-0.998523, 433, 219, 496, 234
-0.998525, 201, 61, 264, 76
-0.998531, 201, 67, 264, 82
-0.998533, 85, 1, 116, 256
-0.998534, 297, 107, 360, 122
-0.998539, 129, 165, 256, 196
-0.99854, 329, 27, 392, 42
-0.998542, 433, 193, 496, 208
-0.998545, 297, 71, 360, 86
-0.998545, 85, 209, 116, 333
-0.998552, 305, 39, 368, 54
-0.998555, 257, 189, 320, 204
-0.998555, 305, 45, 368, 60
-0.99856, 433, 247, 496, 262
-0.998561, 433, 23, 496, 38
-0.998563, 273, 197, 400, 228
-0.998565, 297, 65, 360, 80
-0.998566, 433, 225, 496, 240
-0.998567, 297, 81, 360, 96
-0.998576, 201, 55, 264, 70
-0.998577, 305, 55, 368, 70
-0.998579, 337, 113, 400, 128
-0.998583, 329, 71, 392, 86
-0.998584, 281, 29, 344, 44
-0.998585, 433, 257, 496, 272
-0.998587, 425, 187, 488, 202
-0.998588, 201, 241, 264, 256
-0.998589, 241, 245, 368, 276
-0.998589, 425, 283, 488, 298
-0.99859, 225, 189, 288, 204
-0.998593, 433, 265, 496, 280
-0.998595, 201, 95, 264, 110
-0.998595, 433, 213, 496, 228
-0.998598, 201, 89, 264, 104
-0.998598, 393, 157, 456, 172
-0.998599, 17, 29, 144, 60
-0.998599, 369, 23, 432, 38
-0.998602, 193, 65, 224, 320
-0.998602, 1, 257, 500, 320
-0.998603, 329, 105, 392, 120
-0.998604, 329, 33, 392, 48
-0.998604, 137, 189, 200, 204
-0.998607, 433, 297, 496, 312
-0.998607, 433, 175, 496, 190
-0.998611, 329, 21, 392, 36
-0.998611, 369, 29, 432, 44
-0.998611, 65, 25, 128, 40
-0.998612, 201, 73, 264, 88
-0.998613, 241, 197, 304, 212
-0.998613, 433, 305, 496, 320
-0.998615, 297, 87, 360, 102
-0.998616, 321, 61, 384, 76
-0.998617, 265, 205, 328, 220
-0.998617, 281, 43, 344, 58
-0.998617, 321, 89, 384, 104
-0.998618, 433, 201, 496, 216
-0.998618, 233, 231, 296, 246
-0.998619, 433, 231, 496, 246
-0.998619, 433, 29, 496, 44
-0.99862, 297, 99, 360, 114
-0.99862, 185, 193, 248, 208
-0.998621, 177, 241, 240, 256
-0.998622, 281, 37, 344, 52
-0.998622, 297, 93, 360, 108
-0.998622, 433, 241, 496, 256
-0.998624, 425, 277, 488, 292
-0.998625, 329, 77, 392, 92
-0.998626, 161, 93, 224, 108
-0.998626, 297, 159, 360, 174
-0.998628, 289, 171, 352, 186
-0.998628, 369, 57, 496, 88
-0.998629, 33, 207, 96, 222
-0.998629, 345, 41, 408, 56
-0.99863, 265, 223, 328, 238
-0.99863, 425, 271, 488, 286
-0.99863, 433, 291, 496, 306
-0.99863, 193, 81, 320, 112
-0.998631, 33, 213, 96, 228
-0.998631, 345, 49, 408, 64
-0.998633, 161, 235, 224, 250
-0.998635, 209, 83, 272, 98
-0.998635, 225, 241, 288, 256
-0.998636, 265, 195, 328, 210
-0.998637, 281, 49, 344, 64
-0.998639, 305, 141, 368, 156
-0.998639, 97, 133, 224, 164
-0.99864, 433, 313, 496, 328
-0.998641, 289, 165, 352, 180
-0.998644, 305, 113, 368, 128
-0.998644, 409, 219, 472, 234
-0.998645, 33, 221, 96, 236
-0.998646, 33, 199, 96, 214
-0.998647, 337, 99, 400, 114
-0.998647, 209, 195, 272, 210
-0.998647, 113, 1, 144, 256
-0.998648, 461, 281, 492, 296
-0.998648, 105, 25, 168, 40
-0.998648, 65, 165, 128, 180
-0.998649, 433, 207, 496, 222
-0.99865, 145, 241, 208, 256
-0.998651, 433, 181, 496, 196
-0.998651, 433, 169, 496, 184
-0.998651, 265, 75, 328, 90
-0.998651, 281, 189, 344, 204
-0.998654, 337, 83, 400, 98
-0.998654, 281, 55, 344, 70
-0.998655, 345, 61, 408, 76
-0.998656, 225, 103, 288, 118
-0.998656, 57, 151, 120, 166
-0.998657, 177, 103, 240, 118
-0.998658, 257, 183, 320, 198
-0.99866, 241, 223, 304, 238
-0.998661, 33, 231, 96, 246
-0.998661, 121, 181, 184, 196
-0.998662, 225, 265, 288, 280
-0.998663, 57, 157, 120, 172
-0.998663, 137, 225, 200, 240
-0.998663, 345, 55, 408, 70
-0.998665, 137, 249, 200, 264
-0.998665, 145, 267, 208, 282
-0.998666, 185, 247, 248, 262
-0.998666, 57, 145, 120, 160
-0.998667, 289, 121, 352, 136
-0.998667, 433, 35, 496, 50
-0.998667, 113, 129, 176, 144
-0.998667, 289, 183, 352, 198
-0.998667, 121, 163, 184, 178
-0.998667, 369, 157, 432, 172
-0.998667, 57, 131, 120, 146
-0.998668, 33, 239, 96, 254
-0.998669, 281, 23, 344, 38
-0.998669, 409, 23, 472, 38
-0.99867, 257, 83, 320, 98
-0.99867, 289, 215, 352, 230
-0.998671, 209, 269, 336, 300
-0.998672, 369, 41, 432, 56
-0.998672, 313, 123, 376, 138
-0.998673, 433, 159, 496, 174
-0.998674, 121, 241, 184, 256
-0.998674, 97, 121, 224, 152
-0.998675, 329, 157, 392, 172
-0.998675, 433, 45, 496, 60
-0.998691, 449, 65, 480, 320
-0.998695, 129, 33, 256, 64
-0.998731, 225, 29, 352, 60
-0.99875, 129, 21, 256, 52
-0.998778, 65, 13, 192, 44
-0.998779, 225, 129, 288, 256
-0.998789, 113, 297, 240, 328
-0.998808, 241, 141, 368, 172
-0.998816, 1, 125, 128, 156
-0.998838, 373, 81, 388, 208
-0.998847, 317, 65, 332, 192
-0.998876, 475, 193, 490, 320
-0.998887, 301, 145, 316, 272
-0.998908, 483, 209, 498, 333
-0.998909, 289, 129, 416, 160
-0.99892, 367, 81, 382, 208
-0.998932, 317, 17, 332, 144
-0.998939, 193, 301, 320, 332
-0.99894, 307, 49, 322, 176
-0.998964, 437, 65, 468, 320
-0.998975, 1, 249, 128, 280
-0.998989, 409, 97, 440, 224
-0.99899, 303, 97, 318, 224
-0.999002, 369, 5, 496, 36
-0.999016, 389, 33, 420, 288
-0.999018, 467, 177, 482, 304
-0.999021, 323, 33, 338, 160
-0.999024, 455, 193, 470, 320
-0.999025, 361, 81, 376, 208
-0.999048, 177, 69, 304, 100
-0.999051, 53, 65, 84, 320
-0.999059, 461, 193, 476, 320
-0.999065, 73, 17, 88, 144
-0.999089, 289, 33, 320, 288
-0.999105, 347, 97, 362, 224
-0.999107, 307, 145, 322, 272
-0.999108, 323, 97, 338, 224
-0.999109, 1, 141, 128, 172
-0.999111, 301, 33, 316, 160
-0.999112, 379, 81, 394, 208
-0.999115, 309, 193, 340, 320
-0.999129, 477, 145, 492, 272
-0.999136, 311, 97, 326, 224
-0.999142, 205, 49, 220, 176
-0.999146, 17, 289, 144, 320
-0.999161, 355, 81, 370, 208
-0.999173, 321, 169, 448, 200
-0.999183, 97, 57, 224, 88
-0.999184, 313, 145, 328, 272
-0.99919, 241, 301, 368, 332
-0.999199, 1, 165, 128, 196
-0.999201, 383, 33, 398, 160
-0.999209, 375, 33, 390, 160
-0.999213, 185, 177, 200, 304
-0.999218, 145, 141, 272, 172
-0.999234, 283, 177, 298, 304
-0.99924, 341, 81, 356, 208
-0.999245, 445, 193, 460, 320
-0.999247, 225, 289, 352, 320
-0.999254, 257, 257, 384, 288
-0.999262, 209, 17, 336, 48
-0.999263, 383, 145, 398, 272
-0.999266, 211, 49, 226, 176
-0.999279, 289, 245, 416, 276
-0.999279, 241, 121, 368, 152
-0.99928, 369, 145, 384, 272
-0.999281, 295, 145, 310, 272
-0.999282, 207, 177, 222, 304
-0.999304, 153, 17, 168, 144
-0.999308, 409, 193, 440, 320
-0.999312, 345, 33, 360, 160
-0.999317, 335, 65, 350, 192
-0.999318, 247, 177, 262, 304
-0.999318, 239, 177, 254, 304
-0.999319, 319, 145, 334, 272
-0.999322, 417, 65, 448, 320
-0.999326, 157, 129, 172, 256
-0.999328, 275, 177, 290, 304
-0.999333, 389, 17, 404, 144
-0.999334, 375, 145, 390, 272
-0.999337, 363, 33, 378, 160
-0.999339, 369, 33, 384, 160
-0.999339, 357, 145, 372, 272
-0.999339, 247, 49, 262, 176
-0.999342, 329, 17, 344, 144
-0.999344, 75, 129, 90, 256
-0.999346, 329, 97, 344, 224
-0.999347, 289, 177, 304, 304
-0.999348, 311, 1, 326, 128
-0.999348, 355, 33, 370, 160
-0.999349, 161, 177, 176, 304
-0.999352, 169, 177, 184, 304
-0.999379, 121, 17, 136, 144
-0.999384, 237, 97, 268, 224
-0.999388, 89, 17, 104, 144
-0.999393, 425, 145, 440, 272
-0.999399, 439, 145, 454, 272
-0.999401, 351, 145, 366, 272
-0.999403, 29, 193, 44, 320
-0.999405, 205, 33, 236, 288
-0.999407, 341, 145, 356, 272
-0.999412, 193, 113, 320, 176
-0.999414, 363, 145, 378, 272
-0.999421, 373, 209, 404, 333
-0.999422, 99, 17, 114, 144
-0.999423, 217, 49, 232, 176
-0.999424, 433, 145, 448, 272
-0.999424, 335, 17, 350, 144
-0.999426, 149, 1, 180, 256
-0.999426, 469, 129, 484, 256
-0.999427, 393, 145, 408, 272
-0.999434, 149, 193, 164, 320
-0.999438, 485, 161, 500, 288
-0.999443, 155, 177, 170, 304
-0.999445, 477, 97, 492, 224
-0.999446, 335, 113, 350, 240
-0.999447, 241, 65, 272, 320
-0.999449, 213, 177, 228, 304
-0.999452, 201, 193, 216, 320
-0.999455, 73, 81, 88, 208
-0.999459, 297, 97, 312, 224
-0.99946, 143, 17, 158, 144
-0.999461, 309, 193, 324, 320
-0.999463, 151, 129, 166, 256
-0.999463, 233, 177, 248, 304
-0.999466, 327, 145, 342, 272
-0.999468, 67, 161, 82, 288
-0.999468, 185, 17, 216, 144
-0.999477, 253, 177, 268, 304
-0.999477, 469, 33, 484, 160
-0.999478, 225, 1, 352, 64
-0.999479, 19, 177, 34, 304
-0.999479, 133, 17, 148, 144
-0.999485, 145, 129, 160, 256
-0.999486, 79, 17, 94, 144
-0.999489, 179, 177, 194, 304
-0.999501, 401, 33, 432, 288
-0.999502, 109, 17, 124, 144
-0.999503, 413, 145, 428, 272
-0.999506, 389, 65, 404, 192
-0.999507, 269, 177, 284, 304
-0.999508, 399, 145, 414, 272
-0.999515, 13, 177, 28, 304
-0.999515, 199, 49, 214, 176
-0.999518, 453, 145, 468, 272
-0.999529, 295, 33, 310, 160
-0.999529, 303, 193, 318, 320
-0.999534, 75, 177, 90, 304
-0.999535, 253, 49, 268, 176
-0.999543, 123, 129, 138, 256
-0.999545, 143, 193, 158, 320
-0.999545, 481, 1, 496, 128
-0.999545, 479, 49, 494, 176
-0.999551, 445, 145, 460, 272
-0.999552, 127, 17, 142, 144
-0.999552, 133, 177, 148, 304
-0.999558, 227, 33, 242, 160
-0.999559, 407, 145, 422, 272
-0.999562, 155, 81, 170, 208
-0.999563, 461, 145, 476, 272
-0.999565, 241, 49, 256, 176
-0.999575, 301, 189, 316, 204
-0.999575, 353, 113, 368, 128
-0.999575, 307, 61, 322, 76
-0.999575, 323, 97, 338, 112
-0.999576, 455, 307, 470, 322
-0.999576, 275, 189, 290, 204
-0.999576, 313, 111, 328, 126
-0.999577, 313, 93, 328, 108
-0.999577, 69, 209, 84, 333
-0.999577, 305, 21, 320, 36
-0.999578, 419, 145, 434, 272
-0.999579, 235, 187, 250, 202
-0.999579, 481, 225, 496, 240
-0.999579, 455, 289, 470, 304
-0.999579, 377, 111, 392, 126
-0.99958, 73, 25, 88, 40
-0.99958, 475, 247, 490, 262
-0.999581, 209, 91, 224, 106
-0.999581, 285, 189, 300, 204
-0.999582, 247, 101, 262, 116
-0.999584, 73, 145, 88, 160
-0.999585, 323, 57, 338, 72
-0.999587, 139, 113, 154, 240
-0.999588, 381, 31, 396, 46
-0.999588, 305, 47, 320, 62
-0.999589, 475, 241, 490, 256
-0.999589, 319, 71, 334, 86
-0.999589, 427, 147, 442, 162
-0.99959, 195, 161, 210, 288
-0.99959, 433, 141, 448, 156
-0.99959, 229, 55, 244, 70
-0.99959, 479, 257, 494, 272
-0.999591, 115, 17, 130, 144
-0.999592, 477, 199, 492, 214
-0.999592, 7, 177, 22, 304
-0.999593, 305, 41, 320, 56
-0.999594, 157, 187, 172, 202
-0.999595, 113, 97, 128, 224
-0.999596, 477, 177, 492, 192
-0.999596, 241, 69, 256, 84
-0.999597, 373, 89, 388, 104
-0.999597, 295, 187, 310, 202
-0.999599, 1, 177, 16, 304
-0.999599, 427, 141, 442, 156
-0.999599, 207, 189, 222, 204
-0.999599, 251, 83, 266, 98
-0.9996, 323, 47, 338, 62
-0.9996, 347, 103, 362, 118
-0.999601, 317, 103, 332, 118
-0.999601, 203, 93, 218, 108
-0.999601, 219, 209, 234, 333
-0.999602, 453, 219, 468, 234
-0.999602, 371, 75, 386, 90
-0.999603, 243, 235, 258, 250
-0.999603, 263, 209, 278, 333
-0.999604, 223, 55, 238, 70
-0.999605, 303, 71, 318, 86
-0.999606, 379, 57, 394, 72
-0.999606, 103, 129, 118, 256
-0.999606, 323, 109, 338, 124
-0.999607, 313, 87, 328, 102
-0.999607, 451, 199, 466, 214
-0.999607, 361, 25, 376, 40
-0.999607, 373, 49, 388, 64
-0.999607, 471, 263, 486, 278
-0.999607, 373, 41, 388, 56
-0.999608, 455, 277, 470, 292
-0.999608, 465, 215, 480, 230
-0.999608, 231, 103, 246, 118
-0.999608, 373, 35, 388, 50
-0.999608, 481, 237, 496, 252
-0.999608, 233, 33, 248, 160
-0.999609, 323, 39, 338, 54
-0.999609, 323, 103, 338, 118
-0.99961, 323, 77, 338, 92
-0.999611, 373, 83, 388, 98
-0.999611, 153, 25, 168, 40
-0.999612, 465, 221, 480, 236
-0.999612, 323, 91, 338, 106
-0.999612, 471, 257, 486, 272
-0.999614, 215, 63, 230, 78
-0.999617, 329, 25, 344, 40
-0.999618, 483, 231, 498, 246
-0.99962, 461, 277, 476, 292
-0.999621, 209, 63, 224, 78
-0.999622, 475, 283, 490, 298
-0.999622, 471, 177, 486, 192
-0.999624, 313, 71, 328, 86
-0.999625, 465, 235, 480, 250
-0.999626, 469, 271, 484, 286
-0.999627, 235, 55, 250, 70
-0.999628, 209, 81, 224, 96
-0.999628, 393, 209, 424, 333
-0.99963, 457, 283, 472, 298
-0.999632, 251, 71, 266, 86
-0.999632, 469, 185, 484, 200
-0.999632, 373, 55, 388, 70
-0.999633, 373, 67, 388, 82
-0.999634, 459, 313, 474, 328
-0.999634, 251, 77, 266, 92
-0.999636, 221, 103, 236, 118
-0.999637, 209, 71, 224, 86
-0.999638, 323, 33, 338, 48
-0.999639, 241, 97, 256, 112
-0.99964, 351, 25, 366, 40
-0.999641, 469, 283, 484, 298
-0.999641, 313, 63, 328, 78
-0.999642, 323, 85, 338, 100
-0.999643, 217, 55, 232, 70
-0.999643, 313, 35, 328, 50
-0.999646, 477, 265, 492, 280
-0.999646, 381, 23, 396, 38
-0.999647, 475, 225, 490, 240
-0.999651, 465, 227, 480, 242
-0.999653, 201, 71, 216, 86
-0.999654, 317, 41, 332, 56
-0.999654, 317, 57, 332, 72
-0.999656, 249, 65, 264, 80
-0.999658, 373, 27, 388, 42
-0.999658, 313, 81, 328, 96
-0.999662, 237, 103, 252, 118
-0.999662, 471, 191, 486, 206
-0.999665, 247, 93, 262, 108
-0.999666, 305, 35, 320, 50
-0.999667, 203, 87, 218, 102
-0.999668, 213, 241, 228, 256
-0.999674, 317, 47, 332, 62
-0.999676, 477, 193, 492, 208
-0.999678, 373, 61, 388, 76
-0.999679, 475, 235, 490, 250
-0.999679, 201, 77, 216, 92
-0.999686, 203, 65, 218, 80
-0.999687, 305, 27, 320, 42
-0.999692, 313, 27, 328, 42
-0.999692, 473, 277, 488, 292
-0.999693, 243, 61, 258, 76
-0.999696, 211, 57, 226, 72
-0.999698, 477, 183, 492, 198
-0.9997, 215, 103, 230, 118
-0.9997, 209, 97, 224, 112
-0.999707, 323, 27, 338, 42
-0.999716, 165, 65, 196, 320
-0.999733, 253, 129, 284, 256
-0.999752, 463, 283, 478, 298
-0.99977, 281, 81, 312, 208
-0.999785, 467, 277, 482, 292
-0.999844, 289, 1, 320, 128
-0.999861, 17, 145, 48, 272
-0.999876, 277, 65, 308, 320
-0.999898, 353, 209, 384, 333
-0.999924, 177, 1, 240, 128
-1.00004, 433, 97, 464, 224
-1.00004, 253, 65, 284, 320
-1.00007, 217, 65, 248, 320
-1.00009, 1, 1, 256, 64
-1.00027, 1, 145, 64, 272
-1.00036, 229, 65, 260, 320
-1.00053, 1, 65, 32, 320
-1.00055, 181, 65, 212, 320
-1.00057, 17, 1, 80, 128
-1.00059, 133, 81, 164, 208
-1.00064, 393, 17, 456, 144
-1.00068, 329, 209, 360, 333
-1.00069, 265, 65, 296, 320
-1.00071, 173, 129, 204, 256
-1.00073, 33, 65, 64, 320
-1.00077, 13, 65, 44, 320
-1.00093, 269, 129, 300, 256
-1.00126, 249, 81, 312, 208
-1.00132, 17, 49, 80, 176
-1.00159, 445, 65, 476, 192
-1.00168, 93, 81, 124, 208
-1.00172, 241, 1, 272, 128
-1.0021, 177, 1, 304, 64
-1.00237, 5, 129, 36, 256
-1.00251, 217, 97, 248, 224
-1.00262, 33, 145, 64, 272
-1.00277, 257, 33, 288, 160
-1.00294, 41, 209, 72, 333
-1.0034, 433, 49, 464, 176
-1.00341, 161, 1, 192, 128
-1.00349, 161, 81, 192, 208
-1.00425, 1, 65, 64, 320
-1.00439, 445, 17, 476, 144
-1.00505, 433, 1, 464, 128
-1.00561, 401, 1, 432, 128
-1.00612, 421, 17, 452, 144
-1.00615, 277, 17, 308, 144
-1.0063, 181, 65, 212, 192
-1.00718, 17, 97, 48, 224
-1.00808, 405, 49, 436, 176
-1.00865, 29, 97, 60, 224
-1.01116, 1, 97, 64, 224
