1956
-0.182297, 1, 1, 500, 375
-0.323552, 1, 97, 500, 352
-0.377319, 33, 1, 288, 375
-0.378892, 257, 1, 500, 375
-0.384664, 1, 1, 500, 256
-0.494978, 161, 1, 416, 375
-0.547471, 1, 97, 256, 352
-0.553381, 129, 97, 384, 352
-0.559946, 1, 1, 256, 256
-0.585583, 257, 65, 500, 320
-0.721022, 97, 1, 352, 256
-0.823733, 1, 1, 128, 256
-0.827025, 33, 1, 160, 375
-0.84064, 241, 97, 368, 352
-0.844248, 273, 1, 400, 375
-0.84609, 113, 1, 240, 375
-0.856379, 65, 97, 192, 352
-0.863172, 1, 1, 500, 128
-0.863777, 289, 33, 416, 288
-0.863967, 17, 97, 144, 352
-0.865561, 321, 1, 448, 375
-0.867703, 113, 97, 240, 352
-0.869366, 161, 97, 288, 352
-0.869844, 1, 161, 500, 288
-0.875233, 369, 97, 496, 352
-0.876755, 225, 1, 352, 375
-0.877252, 1, 225, 500, 352
-0.878263, 49, 1, 176, 256
-0.879064, 1, 49, 500, 176
-0.881916, 337, 1, 464, 256
-0.882194, 369, 1, 496, 375
-0.89167, 1, 113, 500, 240
-0.893349, 177, 1, 304, 375
-0.897637, 97, 1, 224, 256
-0.899477, 65, 209, 320, 336
-0.903228, 193, 209, 448, 336
-0.908358, 161, 1, 416, 128
-0.908478, 65, 49, 320, 176
-0.909309, 289, 129, 416, 375
-0.909826, 161, 145, 416, 272
-0.911251, 1, 97, 256, 224
-0.911978, 225, 81, 480, 208
-0.915886, 193, 1, 320, 256
-0.915992, 241, 1, 368, 256
-0.921797, 81, 209, 208, 336
-0.922704, 1, 1, 256, 128
-0.924209, 193, 209, 320, 336
-0.924393, 257, 1, 500, 128
-0.924534, 257, 161, 500, 288
-0.925435, 129, 225, 256, 352
-0.928105, 1, 17, 128, 144
-0.928178, 121, 193, 184, 320
-0.931034, 17, 177, 80, 304
-0.933758, 225, 225, 288, 352
-0.933899, 225, 129, 352, 256
-0.935508, 65, 161, 320, 288
-0.936282, 129, 1, 256, 128
-0.93667, 57, 193, 120, 320
-0.936826, 145, 1, 208, 128
-0.938328, 329, 1, 392, 128
-0.938536, 217, 145, 280, 272
-0.938767, 161, 209, 224, 336
-0.93925, 161, 161, 288, 288
-0.939911, 209, 1, 336, 128
-0.939972, 1, 193, 128, 320
-0.940456, 33, 1, 96, 128
-0.94047, 81, 209, 144, 336
-0.940538, 265, 113, 328, 240
-0.940804, 97, 97, 352, 224
-0.940887, 9, 1, 72, 128
-0.941192, 1, 65, 128, 192
-0.941621, 337, 1, 464, 128
-0.941907, 321, 193, 384, 320
-0.942023, 417, 1, 480, 128
-0.942068, 185, 225, 248, 352
-0.942086, 273, 65, 400, 192
-0.942166, 305, 65, 368, 192
-0.942428, 305, 225, 432, 352
-0.942712, 401, 81, 464, 208
-0.942724, 257, 177, 384, 304
-0.944865, 289, 1, 416, 128
-0.944947, 81, 1, 208, 128
-0.945023, 169, 1, 232, 128
-0.945044, 281, 65, 344, 192
-0.946054, 89, 33, 152, 160
-0.947019, 97, 65, 224, 192
-0.947228, 369, 161, 496, 288
-0.947925, 417, 129, 480, 256
-0.948469, 297, 161, 360, 288
-0.948653, 297, 1, 360, 128
-0.950185, 225, 201, 288, 264
-0.951121, 361, 17, 424, 144
-0.951227, 25, 185, 88, 248
-0.951408, 273, 1, 336, 128
-0.952587, 329, 217, 392, 280
-0.952827, 321, 97, 448, 224
-0.952833, 145, 1, 272, 256
-0.95323, 265, 129, 328, 192
-0.953736, 193, 177, 256, 304
-0.954042, 345, 209, 408, 336
-0.954123, 249, 193, 312, 320
-0.954227, 177, 65, 304, 192
-0.954334, 281, 97, 344, 160
-0.954687, 129, 209, 192, 272
-0.955182, 121, 65, 184, 192
-0.955231, 209, 1, 272, 128
-0.955787, 9, 129, 72, 256
-0.955787, 377, 129, 440, 256
-0.956083, 65, 33, 128, 160
-0.956204, 73, 217, 136, 280
-0.956285, 225, 81, 352, 208
-0.95665, 305, 65, 368, 128
-0.956671, 121, 1, 184, 128
-0.956717, 433, 49, 496, 176
-0.956731, 297, 225, 360, 352
-0.956888, 337, 65, 400, 192
-0.957018, 129, 81, 192, 144
-0.957291, 241, 113, 304, 240
-0.957336, 185, 217, 248, 280
-0.95738, 89, 113, 152, 240
-0.95801, 337, 145, 400, 272
-0.95818, 369, 177, 432, 304
-0.958748, 65, 161, 192, 288
-0.958767, 217, 241, 280, 304
-0.959339, 369, 209, 496, 336
-0.959838, 1, 25, 64, 88
-0.960263, 281, 153, 344, 216
-0.96039, 113, 161, 240, 288
-0.960613, 369, 113, 496, 240
-0.960761, 89, 81, 152, 144
-0.961049, 153, 233, 216, 296
-0.961424, 49, 49, 176, 176
-0.961738, 289, 129, 352, 192
-0.961772, 33, 225, 96, 352
-0.962175, 177, 113, 304, 240
-0.962245, 433, 137, 496, 200
-0.962386, 369, 49, 496, 176
-0.963034, 57, 241, 120, 368
-0.963055, 369, 193, 432, 256
-0.963265, 249, 1, 312, 128
-0.963266, 49, 73, 112, 136
-0.963446, 17, 241, 144, 368
-0.96359, 105, 217, 168, 280
-0.963975, 377, 81, 440, 208
-0.964087, 297, 113, 360, 240
-0.964105, 321, 49, 448, 176
-0.964126, 257, 241, 320, 368
-0.964136, 57, 81, 120, 208
-0.964437, 33, 1, 96, 64
-0.964675, 241, 225, 368, 352
-0.964929, 49, 113, 176, 240
-0.96495, 369, 225, 432, 352
-0.965004, 9, 1, 72, 256
-0.965111, 233, 153, 296, 216
-0.965111, 1, 185, 64, 248
-0.965159, 281, 65, 344, 320
-0.965402, 105, 241, 168, 368
-0.96542, 17, 161, 80, 224
-0.965433, 201, 273, 264, 336
-0.965454, 1, 145, 128, 272
-0.965469, 425, 9, 488, 72
-0.965501, 425, 33, 488, 96
-0.96553, 153, 193, 184, 320
-0.965623, 273, 129, 400, 256
-0.965973, 201, 193, 264, 256
-0.965991, 49, 193, 112, 256
-0.966292, 209, 209, 240, 336
-0.966308, 193, 241, 256, 304
-0.966321, 145, 49, 208, 176
-0.966657, 329, 241, 392, 304
-0.966675, 149, 1, 180, 128
-0.966921, 57, 265, 120, 328
-0.967232, 401, 73, 464, 136
-0.967288, 65, 209, 192, 272
-0.967294, 241, 233, 304, 296
-0.9674, 425, 169, 488, 232
-0.967516, 305, 177, 432, 304
-0.967651, 401, 209, 464, 336
-0.96774, 145, 161, 208, 288
-0.968022, 273, 161, 336, 288
-0.968064, 385, 121, 448, 184
-0.968369, 241, 121, 304, 184
-0.968389, 369, 1, 432, 64
-0.968505, 241, 49, 304, 176
-0.968515, 401, 145, 464, 208
-0.968621, 257, 273, 320, 336
-0.968639, 297, 249, 360, 312
-0.968752, 169, 145, 232, 272
-0.968753, 129, 233, 192, 296
-0.968785, 393, 1, 456, 64
-0.968868, 401, 313, 464, 375
-0.96887, 65, 57, 192, 120
-0.968939, 329, 57, 392, 120
-0.96904, 49, 233, 112, 296
-0.969066, 141, 193, 172, 320
-0.969276, 313, 33, 376, 288
-0.969314, 81, 97, 144, 352
-0.96933, 137, 9, 200, 72
-0.969439, 313, 137, 376, 200
-0.969507, 401, 289, 464, 352
-0.969523, 129, 233, 256, 296
-0.96957, 113, 1, 176, 64
-0.969668, 257, 153, 320, 216
-0.969701, 209, 273, 240, 336
-0.969727, 161, 1, 224, 64
-0.969857, 177, 281, 240, 344
-0.969885, 153, 73, 216, 136
-0.969889, 437, 1, 468, 128
-0.969959, 161, 209, 288, 272
-0.96998, 113, 209, 240, 272
-0.970026, 129, 193, 160, 320
-0.970122, 1, 1, 64, 64
-0.970274, 73, 1, 136, 64
-0.970369, 41, 1, 104, 256
-0.970476, 97, 161, 160, 288
-0.970559, 425, 65, 488, 128
-0.970667, 241, 177, 304, 240
-0.970695, 193, 65, 256, 192
-0.970738, 321, 169, 384, 232
-0.97081, 105, 97, 168, 352
-0.970838, 345, 1, 408, 64
-0.970877, 217, 97, 280, 224
-0.971252, 377, 217, 440, 280
-0.971283, 97, 105, 160, 168
-0.971312, 353, 1, 384, 128
-0.971371, 45, 161, 76, 288
-0.971393, 433, 1, 496, 256
-0.97148, 1, 89, 128, 152
-0.971603, 305, 209, 368, 272
-0.971674, 461, 33, 492, 96
-0.97178, 225, 129, 288, 375
-0.971812, 105, 249, 168, 312
-0.971827, 185, 65, 248, 128
-0.971934, 345, 89, 408, 152
-0.971946, 177, 249, 304, 312
-0.972004, 269, 137, 300, 200
-0.972185, 25, 225, 88, 288
-0.972205, 41, 145, 104, 272
-0.972265, 161, 209, 192, 272
-0.97227, 393, 17, 456, 144
-0.972454, 425, 177, 488, 304
-0.972473, 133, 209, 164, 272
-0.972494, 401, 169, 464, 232
-0.972538, 353, 225, 416, 288
-0.972601, 45, 177, 76, 240
-0.972659, 329, 1, 360, 128
-0.972687, 201, 297, 264, 360
-0.972755, 337, 65, 400, 320
-0.972804, 217, 193, 248, 256
-0.972978, 393, 97, 456, 160
-0.973021, 257, 97, 320, 352
-0.973089, 65, 97, 128, 160
-0.973103, 249, 209, 312, 272
-0.973116, 229, 193, 260, 320
-0.97312, 209, 225, 240, 288
-0.97332, 281, 73, 344, 136
-0.973323, 361, 193, 392, 320
-0.973426, 145, 201, 176, 264
-0.973474, 249, 145, 280, 272
-0.973484, 353, 249, 416, 312
-0.973497, 225, 161, 352, 224
-0.973563, 105, 57, 168, 120
-0.973608, 393, 193, 456, 256
-0.973626, 301, 81, 332, 208
-0.973667, 29, 185, 60, 248
-0.973727, 81, 257, 144, 320
-0.97376, 209, 145, 272, 208
-0.973765, 77, 193, 108, 320
-0.973869, 257, 201, 384, 264
-0.973962, 361, 41, 424, 104
-0.973974, 377, 313, 440, 375
-0.974015, 369, 289, 432, 352
-0.974105, 289, 185, 352, 248
-0.97421, 229, 217, 260, 280
-0.974218, 53, 1, 84, 128
-0.974269, 9, 49, 72, 176
-0.974315, 177, 97, 240, 352
-0.97446, 221, 241, 252, 304
-0.974476, 141, 73, 172, 136
-0.974515, 209, 273, 336, 336
-0.974562, 161, 1, 192, 128
-0.974694, 353, 209, 384, 272
-0.974733, 225, 281, 288, 344
-0.974742, 29, 177, 60, 304
-0.974794, 209, 217, 336, 280
-0.974881, 141, 49, 172, 176
-0.974955, 257, 57, 320, 120
-0.975079, 289, 73, 416, 136
-0.975114, 165, 193, 196, 320
-0.975134, 313, 105, 376, 168
-0.975144, 309, 1, 340, 128
-0.975209, 329, 49, 360, 176
-0.975235, 89, 209, 120, 336
-0.975298, 265, 177, 328, 240
-0.975325, 177, 225, 208, 288
-0.975326, 321, 1, 384, 64
-0.975331, 177, 193, 240, 256
-0.9754, 89, 1, 152, 256
-0.975455, 81, 49, 144, 112
-0.975475, 1, 209, 64, 272
-0.975556, 1, 193, 128, 256
-0.975563, 113, 1, 176, 256
-0.975676, 329, 193, 360, 320
-0.975687, 73, 233, 104, 296
-0.975725, 81, 89, 208, 152
-0.975793, 253, 201, 284, 264
-0.975811, 305, 129, 368, 375
-0.97582, 153, 49, 216, 112
-0.975949, 153, 209, 216, 272
-0.976027, 433, 113, 496, 176
-0.976065, 101, 225, 132, 352
-0.976145, 97, 25, 160, 88
-0.976156, 73, 209, 104, 272
-0.976164, 329, 1, 392, 375
-0.976207, 361, 129, 424, 192
-0.976267, 161, 185, 288, 248
-0.97634, 289, 97, 320, 224
-0.976378, 9, 1, 40, 128
-0.97639, 345, 209, 376, 336
-0.976411, 1, 57, 64, 120
-0.976439, 341, 1, 372, 128
-0.976503, 321, 169, 448, 232
-0.976511, 173, 1, 204, 128
-0.97654, 1, 9, 128, 72
-0.976683, 241, 137, 368, 200
-0.976711, 169, 49, 232, 176
-0.976768, 73, 17, 104, 144
-0.976808, 229, 193, 260, 256
-0.97681, 121, 33, 152, 160
-0.976885, 121, 217, 152, 280
-0.97694, 361, 97, 424, 352
-0.976962, 21, 129, 52, 256
-0.976966, 349, 145, 380, 272
-0.976973, 97, 33, 128, 160
-0.976995, 77, 73, 108, 136
-0.977059, 129, 241, 192, 368
-0.977131, 393, 65, 456, 320
-0.977148, 129, 113, 256, 240
-0.977221, 85, 49, 116, 176
-0.977266, 337, 193, 400, 256
-0.977285, 373, 1, 404, 64
-0.977326, 353, 153, 416, 216
-0.977355, 113, 193, 144, 320
-0.977366, 9, 97, 72, 352
-0.977375, 137, 33, 200, 288
-0.977381, 33, 49, 96, 176
-0.977387, 245, 193, 276, 320
-0.977426, 189, 1, 220, 128
-0.977434, 333, 57, 364, 120
-0.977478, 185, 1, 248, 64
-0.977554, 121, 145, 184, 272
-0.97756, 65, 193, 96, 320
-0.977578, 285, 105, 316, 168
-0.977584, 41, 1, 72, 128
-0.977626, 289, 249, 416, 312
-0.977657, 57, 297, 120, 360
-0.977693, 209, 249, 240, 312
-0.977709, 241, 209, 272, 272
-0.97773, 313, 65, 344, 192
-0.977748, 237, 145, 268, 272
-0.97781, 49, 1, 176, 64
-0.977982, 353, 1, 480, 64
-0.978012, 65, 1, 128, 375
-0.978016, 109, 217, 140, 280
-0.978056, 81, 241, 208, 304
-0.978071, 273, 249, 336, 312
-0.97813, 61, 201, 92, 264
-0.978158, 169, 257, 232, 320
-0.97817, 9, 25, 40, 88
-0.978197, 65, 1, 128, 256
-0.978309, 337, 41, 464, 104
-0.978322, 33, 265, 96, 328
-0.978326, 153, 73, 184, 136
-0.978421, 257, 193, 288, 320
-0.978693, 341, 65, 372, 192
-0.97871, 57, 97, 120, 352
-0.97887, 121, 105, 184, 168
-0.978898, 277, 113, 308, 240
-0.979078, 453, 57, 484, 120
-0.979088, 369, 1, 400, 128
-0.979191, 341, 185, 372, 248
-0.979207, 129, 273, 256, 336
-0.979216, 93, 217, 124, 280
-0.979238, 361, 1, 424, 256
-0.979261, 461, 33, 492, 160
-0.979279, 425, 97, 488, 352
-0.979282, 273, 97, 400, 160
-0.979317, 377, 169, 440, 232
-0.979346, 245, 161, 276, 224
-0.979413, 21, 161, 52, 224
-0.97944, 401, 265, 464, 328
-0.97945, 201, 1, 232, 128
-0.979453, 169, 305, 232, 368
-0.979462, 121, 113, 152, 176
-0.979508, 105, 193, 168, 256
-0.979512, 105, 1, 168, 375
-0.979534, 369, 217, 496, 280
-0.979571, 1, 65, 128, 128
-0.979585, 441, 9, 472, 72
-0.979586, 201, 97, 264, 352
-0.97963, 17, 217, 144, 280
-0.979674, 153, 233, 184, 296
-0.979681, 305, 73, 336, 136
-0.979698, 365, 201, 396, 264
-0.979736, 369, 153, 496, 216
-0.979756, 177, 297, 304, 360
-0.979765, 201, 169, 264, 232
-0.979773, 225, 249, 352, 312
-0.979863, 305, 145, 336, 208
-0.979894, 197, 225, 228, 288
-0.979939, 1, 113, 128, 176
-0.979964, 209, 161, 240, 288
-0.980029, 461, 9, 492, 72
-0.98008, 281, 137, 312, 200
-0.980086, 61, 225, 92, 288
-0.980156, 369, 97, 432, 160
-0.980259, 221, 241, 252, 368
-0.980298, 113, 1, 240, 64
-0.980326, 109, 49, 140, 176
-0.980375, 17, 185, 48, 248
-0.980384, 361, 145, 392, 272
-0.980432, 433, 241, 496, 368
-0.980485, 33, 129, 96, 375
-0.980485, 433, 313, 496, 375
-0.980514, 353, 65, 384, 192
-0.980518, 341, 217, 372, 280
-0.980588, 161, 97, 224, 224
-0.980611, 365, 233, 396, 296
-0.980617, 105, 89, 136, 152
-0.98065, 453, 137, 484, 200
-0.980681, 293, 129, 324, 192
-0.98072, 129, 81, 256, 144
-0.98081, 41, 33, 104, 96
-0.98086, 361, 65, 424, 128
-0.980882, 265, 113, 296, 240
-0.980928, 241, 57, 368, 120
-0.98099, 245, 241, 276, 304
-0.981012, 33, 241, 160, 304
-0.981072, 193, 129, 320, 192
-0.981076, 289, 129, 416, 192
-0.981173, 201, 121, 264, 184
-0.981223, 137, 1, 168, 128
-0.98137, 433, 289, 496, 352
-0.981405, 133, 97, 164, 160
-0.981416, 49, 185, 176, 248
-0.981452, 305, 249, 336, 312
-0.981481, 425, 89, 488, 152
-0.981509, 313, 145, 344, 272
-0.981592, 289, 41, 352, 104
-0.981599, 137, 1, 168, 64
-0.981603, 449, 17, 480, 144
-0.981637, 297, 1, 328, 128
-0.981652, 337, 145, 368, 272
-0.981655, 177, 65, 304, 128
-0.981678, 269, 1, 300, 128
-0.981682, 225, 145, 256, 272
-0.981714, 257, 225, 384, 288
-0.981755, 449, 129, 480, 256
-0.981759, 25, 1, 88, 375
-0.981766, 217, 1, 248, 128
-0.981831, 1, 169, 128, 232
-0.981844, 325, 113, 356, 240
-0.981962, 393, 209, 424, 336
-0.981983, 265, 201, 296, 264
-0.982065, 297, 1, 360, 375
-0.982134, 257, 297, 320, 360
-0.982141, 413, 305, 444, 368
-0.982148, 289, 49, 416, 112
-0.982169, 329, 201, 360, 264
-0.982212, 321, 241, 384, 368
-0.982237, 9, 97, 72, 160
-0.982262, 385, 217, 416, 280
-0.982283, 233, 241, 264, 368
-0.982288, 53, 9, 84, 72
-0.982356, 289, 265, 320, 328
-0.982384, 65, 265, 192, 328
-0.982417, 305, 121, 336, 184
-0.982438, 325, 137, 356, 200
-0.982469, 65, 145, 128, 272
-0.982478, 257, 225, 288, 288
-0.982591, 273, 113, 304, 176
-0.982621, 85, 97, 116, 160
-0.982648, 85, 1, 116, 64
-0.982648, 305, 241, 336, 368
-0.982662, 357, 57, 388, 120
-0.9827, 437, 113, 468, 240
-0.982708, 445, 65, 476, 192
-0.982714, 425, 1, 488, 375
-0.982725, 381, 193, 412, 320
-0.982737, 225, 305, 288, 368
-0.982774, 285, 1, 316, 128
-0.982827, 337, 193, 464, 256
-0.982851, 281, 273, 344, 336
-0.982858, 129, 81, 160, 208
-0.982949, 269, 193, 300, 320
-0.982961, 353, 1, 384, 64
-0.982973, 77, 49, 108, 112
-0.982981, 397, 313, 428, 375
-0.982988, 129, 297, 256, 360
-0.983033, 193, 129, 256, 256
-0.983045, 321, 65, 352, 128
-0.983112, 73, 65, 104, 192
-0.983198, 33, 289, 96, 352
-0.983208, 17, 177, 48, 304
-0.983263, 41, 1, 72, 64
-0.983266, 221, 153, 252, 216
-0.983284, 5, 177, 36, 240
-0.983293, 369, 65, 496, 128
-0.983302, 129, 49, 192, 112
-0.983332, 141, 241, 172, 304
-0.983347, 425, 1, 456, 128
-0.983367, 337, 33, 400, 96
-0.983375, 193, 1, 224, 64
-0.983389, 273, 1, 400, 64
-0.983453, 89, 57, 120, 120
-0.983454, 369, 89, 400, 152
-0.98347, 353, 297, 480, 360
-0.983491, 225, 105, 352, 168
-0.983534, 273, 273, 400, 336
-0.983543, 9, 1, 40, 64
-0.983553, 405, 81, 436, 144
-0.983563, 205, 201, 236, 264
-0.983599, 321, 217, 448, 280
-0.983653, 361, 1, 424, 375
-0.98376, 1, 41, 128, 104
-0.98379, 369, 241, 496, 304
-0.983858, 189, 225, 220, 352
-0.983859, 257, 169, 288, 232
-0.983886, 441, 129, 472, 192
-0.983977, 381, 145, 412, 272
-0.98406, 233, 241, 264, 304
-0.984075, 365, 65, 396, 192
-0.984076, 9, 129, 40, 256
-0.984088, 81, 185, 144, 248
-0.984111, 337, 129, 464, 192
-0.984127, 385, 33, 448, 96
-0.984152, 445, 161, 476, 224
-0.984159, 65, 25, 128, 88
-0.984195, 1, 1, 64, 375
-0.984208, 425, 193, 488, 256
-0.98421, 145, 185, 208, 248
-0.98421, 469, 137, 500, 200
-0.984254, 425, 65, 456, 128
-0.984262, 29, 1, 60, 128
-0.984285, 353, 265, 480, 328
-0.984316, 241, 1, 272, 128
-0.984339, 129, 249, 160, 312
-0.984378, 213, 297, 244, 360
-0.984428, 317, 177, 348, 240
-0.984452, 73, 1, 104, 64
-0.984531, 69, 265, 100, 328
-0.984539, 433, 65, 464, 192
-0.984567, 273, 1, 336, 375
-0.984583, 341, 241, 372, 304
-0.984619, 229, 1, 260, 128
-0.984725, 149, 145, 180, 272
-0.984845, 113, 57, 240, 120
-0.984878, 97, 113, 128, 176
-0.98488, 161, 1, 288, 64
-0.984911, 301, 129, 332, 256
-0.984993, 113, 113, 240, 176
-0.985006, 161, 9, 192, 72
-0.985024, 85, 1, 116, 128
-0.985146, 89, 265, 120, 328
-0.985189, 273, 177, 400, 240
-0.985197, 225, 297, 352, 360
-0.985253, 109, 121, 140, 184
-0.985316, 257, 137, 288, 200
-0.985395, 65, 241, 96, 368
-0.985395, 445, 33, 476, 96
-0.985461, 209, 193, 336, 256
-0.985514, 197, 145, 228, 272
-0.985594, 345, 57, 376, 120
-0.985597, 77, 241, 108, 368
-0.985638, 165, 241, 196, 304
-0.985689, 17, 265, 144, 328
-0.985731, 245, 137, 276, 200
-0.985737, 397, 193, 428, 256
-0.985742, 29, 9, 60, 72
-0.985761, 353, 89, 480, 152
-0.985812, 229, 273, 260, 336
-0.98586, 9, 225, 72, 352
-0.985869, 465, 113, 496, 240
-0.985894, 381, 97, 412, 224
-0.985896, 93, 25, 124, 88
-0.985953, 329, 161, 360, 224
-0.985969, 45, 201, 76, 264
-0.986031, 173, 73, 204, 136
-0.98605, 305, 297, 432, 360
-0.986156, 461, 113, 492, 176
-0.986188, 141, 49, 172, 112
-0.98619, 193, 201, 224, 264
-0.986209, 129, 25, 160, 88
-0.986264, 109, 113, 140, 240
-0.986291, 385, 1, 448, 375
-0.986342, 149, 9, 180, 72
-0.98636, 177, 209, 208, 336
-0.986383, 425, 129, 456, 192
-0.986473, 97, 113, 128, 240
-0.986541, 205, 161, 236, 224
-0.986558, 353, 81, 384, 144
-0.986599, 409, 65, 440, 192
-0.986606, 85, 241, 116, 304
-0.986607, 157, 49, 188, 112
-0.986704, 177, 153, 304, 216
-0.986721, 397, 113, 428, 240
-0.986743, 293, 81, 324, 144
-0.986746, 245, 97, 276, 224
-0.986754, 257, 1, 288, 128
-0.986787, 293, 241, 324, 368
-0.986814, 309, 97, 340, 160
-0.986828, 413, 209, 444, 272
-0.986833, 181, 1, 212, 64
-0.986887, 153, 1, 216, 375
-0.986908, 441, 105, 472, 168
-0.986908, 113, 185, 240, 248
-0.986963, 361, 177, 392, 240
-0.986975, 241, 185, 272, 248
-0.986987, 441, 65, 472, 128
-0.987056, 341, 161, 372, 224
-0.987219, 413, 177, 444, 304
-0.987349, 49, 209, 80, 336
-0.987438, 97, 233, 352, 296
-0.987458, 421, 49, 452, 176
-0.987514, 113, 33, 240, 96
-0.987526, 33, 97, 96, 224
-0.987589, 113, 241, 144, 304
-0.98768, 413, 129, 444, 256
-0.987702, 205, 49, 236, 176
-0.987875, 33, 209, 288, 272
-0.987915, 81, 289, 208, 352
-0.987938, 177, 105, 304, 168
-0.987954, 425, 113, 456, 240
-0.987964, 65, 33, 192, 96
-0.988011, 17, 189, 80, 220
-0.988038, 317, 193, 348, 320
-0.988128, 49, 113, 176, 176
-0.988246, 225, 33, 288, 288
-0.988311, 317, 241, 348, 368
-0.988326, 153, 65, 184, 192
-0.988404, 273, 25, 400, 88
-0.988435, 401, 161, 432, 288
-0.988455, 249, 241, 280, 368
-0.988598, 141, 241, 172, 368
-0.98861, 113, 241, 144, 368
-0.98863, 225, 81, 352, 144
-0.988734, 161, 209, 416, 272
-0.988772, 101, 177, 132, 304
-0.988845, 129, 209, 192, 240
-0.988847, 1, 177, 32, 304
-0.988858, 97, 81, 352, 144
-0.988866, 289, 49, 320, 176
-0.988926, 389, 33, 420, 160
-0.988928, 1, 145, 128, 208
-0.988936, 49, 161, 176, 224
-0.989001, 33, 113, 64, 240
-0.989002, 25, 201, 88, 232
-0.989022, 265, 145, 328, 176
-0.989101, 177, 233, 240, 264
-0.989102, 281, 241, 312, 368
-0.989234, 129, 241, 160, 368
-0.989239, 257, 1, 320, 256
-0.9893, 217, 1, 280, 375
-0.989311, 365, 241, 396, 368
-0.989331, 425, 161, 456, 288
-0.989391, 17, 289, 144, 352
-0.98941, 129, 1, 192, 375
-0.989422, 433, 61, 496, 92
-0.989432, 209, 189, 272, 220
-0.989475, 137, 93, 200, 124
-0.989477, 277, 49, 308, 176
-0.989478, 273, 121, 336, 152
-0.989504, 305, 69, 368, 100
-0.989518, 153, 129, 216, 375
-0.989543, 249, 1, 312, 375
-0.989601, 89, 101, 152, 132
-0.989631, 137, 77, 200, 108
-0.989663, 201, 149, 264, 180
-0.989703, 233, 205, 296, 236
-0.989725, 1, 89, 256, 152
-0.989747, 217, 245, 280, 276
-0.989763, 289, 101, 352, 132
-0.98979, 1, 65, 32, 192
-0.989791, 137, 145, 168, 272
-0.989827, 437, 161, 468, 288
-0.989833, 9, 177, 72, 208
-0.989865, 97, 113, 160, 144
-0.989875, 257, 217, 500, 280
-0.989877, 73, 245, 136, 276
-0.989964, 25, 13, 88, 44
-0.990017, 89, 89, 152, 120
-0.990052, 225, 33, 352, 96
-0.990083, 425, 21, 488, 52
-0.990091, 249, 133, 312, 164
-0.99014, 225, 221, 288, 252
-0.99015, 409, 165, 472, 196
-0.990158, 329, 221, 392, 252
-0.990161, 145, 241, 208, 272
-0.99017, 413, 225, 444, 352
-0.990195, 361, 217, 424, 248
-0.990202, 329, 237, 392, 268
-0.990236, 113, 77, 176, 108
-0.990283, 161, 1, 224, 256
-0.990321, 241, 145, 304, 176
-0.990323, 49, 89, 112, 120
-0.990335, 1, 29, 64, 60
-0.99034, 161, 241, 192, 368
-0.99037, 401, 317, 464, 348
-0.990379, 177, 221, 240, 252
-0.990398, 329, 249, 392, 280
-0.990421, 361, 205, 424, 236
-0.990426, 73, 217, 136, 248
-0.99043, 209, 1, 336, 64
-0.990435, 289, 149, 352, 180
-0.990457, 81, 313, 208, 375
-0.990473, 281, 161, 344, 192
-0.990483, 193, 249, 256, 280
-0.990529, 65, 5, 128, 36
-0.99053, 273, 261, 336, 292
-0.990558, 385, 341, 448, 372
-0.990563, 297, 265, 360, 296
-0.990568, 233, 157, 296, 188
-0.990588, 401, 81, 464, 112
-0.990588, 425, 177, 488, 208
-0.990589, 281, 133, 344, 164
-0.990614, 177, 73, 240, 104
-0.99065, 57, 145, 88, 272
-0.990651, 57, 77, 120, 108
-0.990663, 305, 81, 368, 112
-0.990669, 213, 113, 244, 240
-0.990712, 433, 153, 496, 184
-0.990725, 145, 229, 208, 260
-0.990727, 225, 233, 288, 264
-0.990739, 1, 1, 500, 64
-0.99074, 409, 153, 472, 184
-0.990743, 201, 225, 264, 256
-0.990748, 201, 285, 264, 316
-0.990749, 1, 205, 64, 236
-0.990758, 337, 201, 400, 232
-0.990779, 409, 69, 472, 100
-0.990782, 113, 253, 176, 284
-0.990786, 257, 273, 320, 304
-0.990787, 1, 65, 500, 128
-0.990787, 73, 117, 136, 148
-0.990812, 369, 1, 432, 32
-0.990813, 1, 1, 256, 64
-0.990825, 201, 301, 264, 332
-0.990835, 41, 185, 104, 216
-0.990847, 401, 329, 464, 360
-0.990853, 169, 317, 232, 348
-0.990855, 201, 269, 264, 300
-0.990858, 201, 201, 264, 232
-0.990866, 97, 1, 160, 32
-0.990866, 137, 9, 200, 40
-0.990895, 105, 217, 168, 248
-0.990915, 433, 141, 496, 172
-0.990932, 33, 233, 96, 264
-0.990933, 401, 305, 464, 336
-0.990936, 385, 93, 448, 124
-0.990968, 41, 1, 104, 32
-0.990978, 417, 49, 480, 80
-0.991005, 57, 269, 120, 300
-0.99102, 49, 249, 112, 280
-0.991029, 89, 261, 152, 292
-0.991032, 281, 89, 344, 120
-0.991038, 321, 173, 384, 204
-0.991049, 225, 281, 288, 312
-0.991053, 385, 109, 448, 140
-0.991055, 161, 89, 224, 120
-0.991061, 281, 173, 344, 204
-0.991095, 1, 1, 64, 32
-0.991103, 433, 33, 496, 64
-0.991104, 121, 113, 184, 144
-0.991109, 329, 85, 392, 116
-0.991115, 329, 61, 392, 92
-0.991117, 289, 185, 352, 216
-0.991135, 329, 1, 392, 32
-0.991139, 49, 205, 112, 236
-0.991148, 401, 185, 464, 216
-0.991154, 225, 261, 288, 292
-0.991164, 177, 209, 240, 240
-0.991175, 305, 245, 368, 276
-0.991181, 1, 41, 64, 72
-0.991183, 153, 217, 216, 248
-0.991185, 361, 101, 424, 132
-0.991192, 209, 313, 272, 344
-0.991195, 297, 197, 360, 228
-0.991201, 257, 157, 320, 188
-0.991203, 233, 193, 296, 224
-0.991243, 201, 213, 264, 244
-0.99127, 57, 233, 120, 264
-0.991284, 193, 241, 448, 304
-0.991286, 417, 105, 480, 136
-0.991288, 105, 21, 168, 52
-0.991297, 257, 233, 320, 264
-0.991299, 305, 209, 368, 240
-0.991299, 425, 9, 488, 40
-0.991303, 89, 201, 152, 232
-0.991305, 129, 129, 192, 375
-0.991318, 1, 13, 64, 44
-0.991326, 241, 245, 304, 276
-0.991341, 273, 61, 336, 92
-0.991342, 401, 293, 464, 324
-0.991349, 385, 213, 448, 244
-0.991353, 393, 1, 456, 32
-0.99136, 97, 125, 160, 156
-0.991386, 161, 9, 224, 40
-0.991388, 353, 257, 416, 288
-0.991423, 209, 161, 272, 192
-0.991429, 433, 165, 496, 196
-0.99143, 273, 249, 336, 280
-0.991436, 377, 329, 440, 360
-0.991439, 377, 193, 440, 224
-0.991525, 201, 1, 264, 256
-0.991537, 1, 313, 128, 375
-0.991864, 461, 49, 492, 80
-0.991874, 257, 113, 500, 176
-0.991939, 193, 185, 448, 248
-0.991965, 161, 225, 288, 256
-0.991983, 1, 233, 256, 296
-0.991993, 1, 113, 256, 176
-0.992099, 193, 281, 448, 344
-0.992259, 225, 137, 480, 200
-0.992269, 29, 185, 60, 216
-0.992325, 129, 57, 384, 120
-0.992349, 49, 193, 80, 224
-0.992362, 145, 201, 176, 232
-0.992399, 77, 73, 108, 104
-0.992439, 281, 265, 312, 296
-0.992441, 1, 185, 500, 248
-0.992446, 109, 113, 140, 144
-0.992459, 461, 21, 492, 52
-0.992459, 257, 89, 500, 152
-0.992465, 149, 77, 180, 108
-0.992487, 41, 181, 72, 212
-0.992508, 457, 61, 488, 92
-0.992512, 209, 289, 240, 320
-0.992516, 149, 93, 180, 124
-0.992518, 213, 245, 244, 276
-0.992519, 257, 205, 288, 236
-0.992523, 33, 257, 288, 320
-0.992524, 217, 189, 248, 220
-0.992539, 209, 225, 240, 256
-0.992541, 289, 145, 320, 176
-0.992543, 269, 153, 300, 184
-0.992553, 369, 217, 400, 248
-0.992559, 353, 225, 384, 256
-0.992561, 209, 277, 240, 308
-0.992565, 325, 65, 356, 96
-0.992582, 121, 113, 152, 144
-0.992587, 461, 33, 492, 64
-0.992588, 225, 237, 256, 268
-0.992595, 237, 249, 268, 280
-0.992595, 405, 329, 436, 360
-0.992596, 277, 129, 308, 160
-0.992601, 469, 61, 500, 92
-0.992601, 417, 341, 448, 372
-0.992602, 169, 225, 200, 256
-0.992611, 225, 249, 256, 280
-0.992617, 161, 85, 192, 116
-0.992651, 265, 137, 296, 168
-0.992651, 281, 117, 312, 148
-0.992653, 1, 257, 500, 320
-0.992655, 65, 233, 96, 264
-0.992661, 277, 141, 308, 172
-0.992663, 237, 193, 268, 224
-0.992664, 1, 225, 500, 288
-0.992673, 97, 113, 128, 144
-0.992673, 97, 105, 352, 168
-0.992678, 189, 237, 220, 268
-0.992684, 65, 77, 96, 108
-0.992684, 305, 157, 336, 188
-0.992684, 309, 85, 340, 116
-0.992686, 17, 197, 48, 228
-0.9927, 245, 145, 276, 176
-0.992701, 53, 13, 84, 44
-0.992705, 361, 237, 392, 268
-0.992713, 129, 217, 160, 248
-0.992716, 133, 1, 164, 32
-0.992724, 41, 13, 72, 44
-0.992729, 297, 93, 328, 124
-0.992731, 341, 217, 372, 248
-0.99274, 249, 157, 280, 188
-0.992741, 309, 73, 340, 104
-0.992743, 169, 73, 200, 104
-0.992748, 293, 105, 324, 136
-0.992758, 109, 125, 140, 156
-0.99276, 225, 201, 256, 232
-0.992771, 17, 177, 48, 208
-0.992772, 1, 65, 256, 128
-0.992787, 353, 85, 384, 116
-0.992787, 113, 213, 240, 244
-0.992788, 361, 205, 392, 236
-0.992794, 81, 217, 112, 248
-0.992802, 209, 301, 240, 332
-0.992802, 441, 17, 472, 48
-0.992803, 301, 257, 332, 288
-0.992804, 325, 197, 356, 228
-0.992812, 209, 261, 240, 292
-0.992813, 225, 1, 480, 64
-0.992826, 29, 197, 60, 228
-0.992827, 429, 69, 460, 100
-0.992828, 305, 137, 336, 168
-0.992829, 289, 129, 320, 160
-0.992836, 65, 265, 96, 296
-0.992842, 349, 57, 380, 88
-0.992846, 441, 161, 472, 192
-0.992851, 73, 5, 104, 36
-0.992857, 317, 149, 348, 180
-0.992862, 377, 1, 408, 32
-0.992864, 417, 209, 448, 240
-0.992869, 341, 245, 372, 276
-0.992872, 65, 205, 96, 236
-0.992878, 445, 57, 476, 88
-0.992887, 337, 65, 368, 96
-0.99289, 177, 241, 208, 272
-0.99289, 257, 41, 500, 104
-0.992892, 217, 213, 248, 244
-0.992892, 137, 97, 168, 128
-0.992895, 265, 233, 296, 264
-0.992895, 65, 249, 96, 280
-0.992896, 77, 249, 108, 280
-0.992898, 345, 201, 376, 232
-0.992899, 69, 89, 100, 120
-0.992901, 441, 145, 472, 176
-0.992901, 149, 245, 180, 276
-0.992903, 469, 125, 500, 156
-0.992911, 425, 169, 456, 200
-0.992916, 129, 245, 256, 276
-0.992916, 401, 201, 432, 232
-0.992929, 273, 221, 304, 252
-0.99294, 173, 85, 204, 116
-0.992941, 469, 137, 500, 168
-0.992952, 81, 97, 112, 128
-0.992952, 357, 5, 388, 36
-0.992952, 149, 9, 180, 40
-0.992952, 97, 125, 128, 156
-0.992953, 1, 201, 32, 232
-0.992958, 453, 149, 484, 180
-0.992958, 177, 41, 304, 104
-0.992959, 229, 221, 260, 252
-0.992962, 157, 213, 188, 244
-0.992964, 161, 9, 192, 40
-0.992965, 453, 129, 484, 160
-0.992965, 253, 237, 284, 268
-0.992965, 417, 65, 448, 96
-0.992965, 301, 125, 332, 156
-0.992969, 397, 213, 428, 244
-0.992976, 41, 1, 72, 32
-0.992978, 277, 165, 308, 196
-0.992979, 269, 273, 300, 304
-0.992986, 209, 153, 240, 184
-0.992989, 453, 169, 484, 200
-0.992992, 461, 9, 492, 40
-0.992995, 381, 229, 412, 260
-0.992998, 129, 249, 160, 280
-0.992999, 225, 149, 256, 180
-0.993003, 161, 245, 192, 276
-0.993003, 145, 233, 176, 264
-0.993007, 105, 221, 136, 252
-0.993009, 317, 137, 348, 168
-0.993012, 85, 109, 116, 140
-0.993013, 105, 101, 136, 132
-0.993015, 225, 177, 256, 208
-0.993022, 397, 105, 428, 136
-0.993157, 217, 49, 280, 176
-0.993201, 225, 161, 480, 224
-0.993213, 65, 77, 192, 108
-0.993282, 193, 1, 256, 375
-0.993356, 257, 65, 500, 128
-0.993361, 129, 137, 256, 200
-0.993508, 37, 185, 52, 248
-0.99358, 97, 1, 352, 64
-0.993611, 241, 145, 368, 176
-0.993649, 225, 305, 480, 368
-0.993701, 175, 217, 190, 280
-0.993784, 49, 177, 64, 240
-0.993789, 1, 85, 128, 116
-0.993818, 65, 1, 192, 32
-0.993836, 129, 161, 256, 224
-0.993842, 477, 33, 492, 96
-0.993855, 193, 157, 320, 188
-0.993863, 65, 209, 192, 240
-0.993867, 149, 65, 164, 128
-0.993927, 1, 41, 500, 104
-0.993949, 225, 177, 352, 208
-0.993972, 167, 209, 182, 272
-0.99398, 157, 201, 172, 264
-0.993989, 73, 201, 88, 264
-0.994, 219, 209, 234, 272
-0.994054, 81, 93, 208, 124
-0.994058, 223, 185, 238, 248
-0.994064, 147, 201, 162, 264
-0.994092, 1, 89, 500, 152
-0.994096, 257, 217, 384, 248
-0.99418, 161, 213, 288, 244
-0.994208, 267, 201, 282, 264
-0.994225, 483, 9, 498, 72
-0.994298, 247, 209, 262, 272
-0.994301, 65, 65, 192, 96
-0.994307, 177, 237, 304, 268
-0.994309, 65, 305, 320, 368
-0.99433, 177, 293, 304, 324
-0.994343, 157, 73, 172, 136
-0.99435, 135, 209, 150, 272
-0.994371, 233, 209, 248, 272
-0.994375, 279, 121, 294, 184
-0.994379, 33, 185, 288, 248
-0.994386, 241, 185, 256, 248
-0.994395, 291, 105, 306, 168
-0.994397, 289, 81, 416, 112
-0.994397, 1, 105, 128, 136
-0.994399, 177, 277, 304, 308
-0.994402, 129, 137, 384, 200
-0.994404, 187, 225, 202, 288
-0.994424, 65, 281, 320, 344
-0.994452, 89, 65, 104, 128
-0.994492, 229, 241, 244, 304
-0.994509, 125, 217, 140, 280
-0.994509, 65, 221, 192, 252
-0.99451, 243, 241, 258, 304
-0.994532, 181, 217, 196, 280
-0.994532, 55, 177, 70, 240
-0.994574, 1, 201, 128, 232
-0.994581, 69, 225, 84, 288
-0.994646, 177, 257, 304, 288
-0.994657, 285, 113, 300, 176
-0.994673, 289, 101, 416, 132
-0.994683, 213, 225, 228, 288
-0.994684, 241, 209, 256, 272
-0.994684, 257, 205, 384, 236
-0.994761, 353, 1, 480, 32
-0.994809, 471, 33, 486, 96
-0.994811, 357, 209, 372, 272
-0.994849, 321, 61, 448, 92
-0.994851, 1, 129, 500, 192
-0.994861, 453, 137, 468, 200
-0.994877, 315, 145, 330, 208
-0.994911, 65, 233, 192, 264
-0.994932, 289, 137, 304, 200
-0.994949, 299, 137, 314, 200
-0.994974, 79, 209, 94, 272
-0.994982, 113, 217, 128, 280
-0.994993, 79, 233, 94, 296
-0.995, 463, 25, 478, 88
-0.995018, 163, 73, 178, 136
-0.995023, 21, 169, 36, 232
-0.995026, 269, 137, 284, 200
-0.995047, 113, 229, 240, 260
-0.995049, 1, 41, 256, 104
-0.995067, 257, 157, 384, 188
-0.995072, 373, 233, 388, 296
-0.995099, 147, 1, 162, 64
-0.995103, 337, 213, 464, 244
-0.995109, 319, 65, 334, 128
-0.995149, 305, 177, 432, 208
-0.995159, 341, 201, 356, 264
-0.995178, 241, 189, 368, 220
-0.995181, 1, 281, 500, 344
-0.995189, 33, 245, 160, 276
-0.995199, 177, 137, 304, 168
-0.995216, 257, 121, 384, 152
-0.995226, 209, 221, 336, 252
-0.995251, 87, 209, 102, 272
-0.995258, 219, 161, 234, 224
-0.995263, 447, 73, 462, 136
-0.995263, 129, 293, 256, 324
-0.995268, 455, 9, 470, 72
-0.995292, 129, 281, 256, 312
-0.995296, 145, 201, 272, 232
-0.995305, 377, 1, 392, 64
-0.995328, 363, 217, 378, 280
-0.995329, 211, 249, 226, 312
-0.995346, 351, 209, 366, 272
-0.995352, 311, 81, 326, 144
-0.995356, 367, 1, 382, 64
-0.995358, 177, 305, 304, 336
-0.995368, 269, 169, 284, 232
-0.995384, 11, 25, 26, 88
-0.995391, 31, 185, 46, 248
-0.995398, 119, 217, 134, 280
-0.995409, 465, 129, 480, 192
-0.995411, 141, 201, 156, 264
-0.995413, 83, 65, 98, 128
-0.995414, 353, 89, 480, 120
-0.995414, 21, 1, 52, 256
-0.995423, 17, 117, 144, 148
-0.995428, 107, 217, 122, 280
-0.995445, 447, 137, 462, 200
-0.995447, 43, 185, 58, 248
-0.995455, 369, 165, 496, 196
-0.995455, 1, 213, 128, 244
-0.995458, 1, 189, 128, 220
-0.995468, 139, 97, 154, 160
-0.99547, 103, 97, 118, 160
-0.995475, 345, 57, 360, 120
-0.995481, 403, 193, 418, 256
-0.995484, 369, 57, 384, 120
-0.995487, 145, 77, 272, 108
-0.995512, 65, 193, 80, 256
-0.995514, 257, 133, 384, 164
-0.99553, 321, 193, 448, 224
-0.995545, 33, 13, 160, 44
-0.995583, 395, 113, 410, 176
-0.995585, 297, 97, 312, 160
-0.99559, 97, 81, 112, 144
-0.995597, 237, 241, 252, 304
-0.995602, 333, 161, 348, 224
-0.995611, 311, 105, 326, 168
-0.995611, 143, 65, 158, 128
-0.995624, 435, 65, 450, 128
-0.995624, 213, 145, 228, 208
-0.995649, 209, 65, 336, 96
-0.995668, 393, 201, 408, 264
-0.995684, 157, 233, 172, 296
-0.995686, 225, 289, 240, 352
-0.99569, 309, 129, 324, 192
-0.995693, 319, 121, 334, 184
-0.9957, 331, 65, 346, 128
-0.995708, 305, 165, 432, 196
-0.99571, 241, 241, 368, 272
-0.99571, 125, 113, 140, 176
-0.99573, 337, 153, 464, 184
-0.99573, 1, 73, 128, 104
-0.995731, 257, 201, 272, 264
-0.995736, 407, 97, 422, 160
-0.995745, 249, 241, 264, 304
-0.995758, 129, 97, 256, 128
-0.995759, 267, 233, 282, 296
-0.995774, 113, 113, 240, 144
-0.995782, 45, 1, 60, 64
-0.995787, 317, 33, 348, 288
-0.995795, 209, 209, 336, 240
-0.9958, 71, 249, 86, 312
-0.995818, 97, 257, 224, 288
-0.995819, 379, 241, 394, 304
-0.995822, 301, 273, 316, 336
-0.995825, 9, 1, 24, 64
-0.995839, 151, 89, 166, 152
-0.995841, 155, 49, 170, 112
-0.995852, 293, 257, 308, 320
-0.995852, 369, 49, 496, 80
-0.995868, 133, 105, 148, 168
-0.99588, 235, 185, 250, 248
-0.995888, 459, 137, 474, 200
-0.99589, 305, 73, 320, 136
-0.995892, 177, 317, 304, 348
-0.995893, 25, 201, 40, 264
-0.995895, 307, 153, 322, 216
-0.995897, 113, 9, 240, 40
-0.995899, 15, 177, 30, 240
-0.995904, 283, 145, 298, 208
-0.99591, 415, 81, 430, 144
-0.995922, 141, 1, 156, 64
-0.995927, 33, 261, 160, 292
-0.995928, 383, 97, 398, 160
-0.995937, 177, 125, 304, 156
-0.995958, 351, 185, 366, 248
-0.995963, 257, 229, 384, 260
-0.995963, 101, 217, 116, 280
-0.995964, 163, 233, 178, 296
-0.995968, 97, 97, 128, 352
-0.995971, 207, 1, 222, 64
-0.995974, 135, 241, 150, 304
-0.995974, 145, 89, 160, 152
-0.99598, 337, 73, 464, 104
-0.99598, 333, 33, 364, 288
-0.995996, 297, 65, 328, 320
-0.996003, 339, 57, 354, 120
-0.996007, 277, 209, 292, 272
-0.996007, 355, 81, 370, 144
-0.996008, 325, 65, 340, 128
-0.996019, 143, 241, 158, 304
-0.996024, 225, 281, 352, 312
-0.996048, 261, 161, 276, 224
-0.996052, 463, 49, 478, 112
-0.996054, 163, 9, 178, 72
-0.996058, 325, 105, 340, 168
-0.996076, 65, 105, 192, 136
-0.996087, 277, 161, 292, 224
-0.996089, 369, 225, 496, 256
-0.99609, 257, 269, 384, 300
-0.996092, 365, 81, 380, 144
-0.996102, 129, 305, 256, 336
-0.99611, 49, 197, 176, 228
-0.996136, 41, 1, 72, 256
-0.996187, 289, 249, 416, 280
-0.996198, 273, 1, 400, 32
-0.996228, 161, 1, 288, 32
-0.996233, 353, 329, 480, 360
-0.996234, 129, 269, 256, 300
-0.996236, 313, 129, 344, 375
-0.996259, 1, 25, 128, 56
-0.996281, 81, 245, 208, 276
-0.996309, 305, 113, 432, 144
-0.996315, 469, 1, 500, 256
-0.99633, 105, 1, 136, 256
-0.996337, 193, 113, 320, 144
-0.996339, 85, 97, 116, 352
-0.996346, 225, 297, 352, 328
-0.996356, 353, 13, 480, 44
-0.996376, 353, 301, 480, 332
-0.996414, 9, 1, 40, 256
-0.996436, 353, 105, 480, 136
-0.996445, 17, 1, 144, 32
-0.996449, 353, 65, 384, 320
-0.996464, 121, 97, 152, 352
-0.996474, 1, 57, 128, 88
-0.996487, 49, 45, 176, 76
-0.996503, 1, 161, 256, 224
-0.996507, 353, 241, 480, 272
-0.996549, 137, 33, 168, 288
-0.996558, 225, 253, 352, 284
-0.996589, 257, 69, 384, 100
-0.996596, 369, 181, 496, 212
-0.996622, 353, 317, 480, 348
-0.996624, 457, 33, 488, 288
-0.996625, 369, 129, 496, 160
-0.996634, 89, 1, 120, 256
-0.996646, 109, 97, 140, 352
-0.996652, 305, 317, 432, 348
-0.996694, 369, 37, 496, 68
-0.996701, 1, 37, 128, 68
-0.996703, 129, 161, 384, 224
-0.996721, 337, 341, 464, 372
-0.996734, 1, 313, 500, 375
-0.996775, 1, 173, 128, 204
-0.996777, 321, 261, 448, 292
-0.996812, 225, 101, 352, 132
-0.996824, 353, 289, 480, 320
-0.996828, 97, 33, 352, 96
-0.996836, 1, 129, 128, 160
-0.99686, 213, 129, 244, 375
-0.996868, 129, 61, 256, 92
-0.996885, 337, 141, 464, 172
-0.996904, 25, 129, 56, 375
-0.996908, 193, 193, 320, 224
-0.99691, 305, 329, 432, 360
-0.996939, 237, 97, 268, 352
-0.996945, 471, 49, 486, 80
-0.99695, 257, 57, 384, 88
-0.99695, 277, 97, 308, 352
-0.996966, 369, 277, 496, 308
-0.996974, 369, 197, 496, 228
-0.99698, 353, 25, 480, 56
-0.996993, 55, 181, 70, 212
-0.996995, 125, 1, 156, 256
-0.997015, 1, 229, 128, 260
-0.997039, 401, 65, 432, 320
-0.997058, 209, 1, 336, 32
-0.997062, 377, 1, 408, 256
-0.997069, 441, 1, 472, 256
-0.997088, 305, 277, 432, 308
-0.997107, 79, 77, 94, 108
-0.997109, 369, 253, 496, 284
-0.997115, 261, 129, 292, 375
-0.997118, 283, 121, 298, 152
-0.997149, 277, 133, 292, 164
-0.997154, 369, 265, 496, 296
-0.997175, 49, 277, 176, 308
-0.997181, 145, 189, 272, 220
-0.997187, 43, 185, 58, 216
-0.997188, 161, 81, 176, 112
-0.997189, 209, 85, 336, 116
-0.997212, 225, 309, 352, 340
-0.997222, 307, 85, 322, 116
-0.997222, 305, 229, 432, 260
-0.997226, 1, 161, 500, 224
-0.997264, 239, 189, 254, 220
-0.997276, 155, 77, 170, 108
-0.997282, 53, 1, 84, 256
-0.997301, 177, 169, 304, 200
-0.997303, 129, 317, 256, 348
-0.997307, 369, 117, 496, 148
-0.997313, 189, 97, 220, 352
-0.997317, 181, 225, 196, 256
-0.997324, 167, 85, 182, 116
-0.997327, 219, 217, 234, 248
-0.99736, 113, 125, 240, 156
-0.997362, 463, 53, 478, 84
-0.997365, 73, 1, 104, 256
-0.997368, 65, 117, 192, 148
-0.997371, 305, 293, 432, 324
-0.997383, 369, 61, 496, 92
-0.997418, 289, 145, 416, 176
-0.997422, 113, 49, 240, 80
-0.997424, 389, 97, 420, 352
-0.997425, 369, 97, 400, 352
-0.99744, 13, 97, 44, 352
-0.99745, 125, 121, 140, 152
-0.997457, 269, 205, 284, 236
-0.997457, 85, 69, 100, 100
-0.997458, 81, 325, 208, 356
-0.997492, 187, 229, 202, 260
-0.997505, 219, 185, 234, 216
-0.997518, 243, 245, 258, 276
-0.99753, 261, 157, 276, 188
-0.997533, 305, 153, 320, 184
-0.99754, 1, 137, 256, 200
-0.997543, 377, 241, 392, 272
-0.997553, 143, 1, 158, 32
-0.99756, 429, 33, 460, 288
-0.99756, 73, 233, 88, 264
-0.997563, 419, 337, 434, 368
-0.997576, 425, 333, 440, 364
-0.997583, 365, 1, 396, 256
-0.997589, 225, 97, 256, 352
-0.997595, 313, 81, 328, 112
-0.997601, 237, 245, 252, 276
-0.997608, 417, 213, 432, 244
-0.997626, 109, 117, 124, 148
-0.997627, 333, 129, 364, 375
-0.997628, 99, 93, 114, 124
-0.997633, 289, 141, 304, 172
-0.997638, 73, 77, 88, 108
-0.99764, 413, 33, 444, 288
-0.997642, 145, 205, 160, 236
-0.997644, 299, 93, 314, 124
-0.997645, 485, 5, 500, 36
-0.997646, 365, 85, 380, 116
-0.997647, 293, 261, 308, 292
-0.997665, 21, 185, 36, 216
-0.997666, 143, 81, 158, 112
-0.997667, 49, 185, 64, 216
-0.997673, 483, 61, 498, 92
-0.997676, 21, 205, 36, 236
-0.997679, 153, 201, 168, 232
-0.997685, 249, 129, 280, 375
-0.997696, 239, 201, 254, 232
-0.997703, 229, 237, 244, 268
-0.997703, 311, 141, 326, 172
-0.99771, 445, 157, 460, 188
-0.997716, 119, 125, 134, 156
-0.997726, 77, 249, 92, 280
-0.997734, 149, 73, 164, 104
-0.997738, 453, 141, 468, 172
-0.997744, 351, 201, 366, 232
-0.997745, 27, 197, 42, 228
-0.997746, 273, 153, 288, 184
-0.997756, 361, 209, 376, 240
-0.997758, 163, 241, 178, 272
-0.99776, 173, 81, 188, 112
-0.997768, 305, 97, 320, 128
-0.99777, 321, 73, 336, 104
-0.997771, 445, 73, 460, 104
-0.997773, 465, 33, 480, 64
-0.997775, 245, 193, 260, 224
-0.99778, 329, 69, 344, 100
-0.997783, 225, 249, 240, 280
-0.997785, 317, 157, 332, 188
-0.997787, 409, 325, 424, 356
-0.997791, 215, 229, 230, 260
-0.997793, 153, 93, 168, 124
-0.997793, 211, 249, 226, 280
-0.997799, 297, 141, 312, 172
-0.99781, 253, 145, 268, 176
-0.997826, 449, 129, 480, 375
-0.997827, 463, 125, 478, 156
-0.997831, 391, 205, 406, 236
-0.997833, 305, 129, 320, 160
-0.997833, 15, 197, 30, 228
-0.997835, 471, 129, 486, 160
-0.997854, 415, 85, 430, 116
-0.997855, 425, 77, 440, 108
-0.997858, 417, 69, 432, 100
-0.997859, 139, 213, 154, 244
-0.997862, 293, 105, 308, 136
-0.997864, 89, 97, 104, 128
-0.997867, 103, 121, 118, 152
-0.99788, 133, 217, 148, 248
-0.997898, 477, 61, 492, 92
-0.997901, 115, 113, 130, 144
-0.997914, 227, 321, 242, 352
-0.997918, 477, 121, 492, 152
-0.997919, 317, 93, 332, 124
-0.997922, 271, 141, 286, 172
-0.997925, 33, 189, 48, 220
-0.997927, 43, 1, 58, 32
-0.997936, 483, 133, 498, 164
-0.997942, 83, 241, 98, 272
-0.997949, 1, 97, 32, 352
-0.99795, 477, 33, 492, 64
-0.99795, 411, 201, 426, 232
-0.997954, 43, 13, 58, 44
-0.997956, 455, 17, 470, 48
-0.997959, 311, 161, 326, 192
-0.997962, 339, 65, 354, 96
-0.997962, 147, 93, 162, 124
-0.997963, 427, 345, 442, 375
-0.997972, 355, 89, 370, 120
-0.997974, 403, 213, 418, 244
-0.997981, 125, 109, 140, 140
-0.997982, 71, 253, 86, 284
-0.997986, 49, 197, 64, 228
-0.997986, 219, 249, 234, 280
-0.997991, 381, 93, 396, 124
-0.997991, 131, 113, 146, 144
-0.997995, 77, 89, 92, 120
-0.997997, 179, 245, 194, 276
-0.998001, 45, 129, 76, 375
-0.998003, 115, 221, 130, 252
-0.998004, 301, 277, 316, 308
-0.998006, 231, 181, 246, 212
-0.998007, 3, 5, 18, 36
-0.998012, 247, 149, 262, 180
-0.99802, 355, 213, 370, 244
-0.998024, 161, 93, 176, 124
-0.998026, 267, 233, 282, 264
-0.998027, 435, 69, 450, 100
-0.998028, 287, 269, 302, 300
-0.998028, 303, 261, 318, 292
-0.998029, 279, 217, 294, 248
-0.998033, 221, 201, 236, 232
-0.998034, 83, 213, 98, 244
-0.998038, 121, 221, 136, 252
-0.998043, 141, 97, 156, 128
-0.998066, 73, 97, 104, 352
-0.998089, 157, 65, 188, 320
-0.998227, 389, 1, 420, 256
-0.99825, 169, 65, 200, 320
-0.998364, 9, 191, 72, 206
-0.998367, 285, 1, 316, 256
-0.998408, 155, 177, 170, 304
-0.998422, 17, 197, 80, 212
-0.998422, 273, 221, 304, 236
-0.998423, 97, 113, 128, 128
-0.998424, 161, 91, 192, 106
-0.998425, 9, 199, 40, 214
-0.998425, 137, 95, 168, 110
-0.998425, 265, 235, 296, 250
-0.998426, 341, 249, 372, 264
-0.998426, 161, 247, 192, 262
-0.998426, 317, 151, 348, 166
-0.998426, 433, 163, 464, 178
-0.998427, 129, 211, 192, 226
-0.998428, 1, 7, 32, 22
-0.998428, 273, 227, 304, 242
-0.998429, 109, 221, 140, 236
-0.99843, 173, 93, 204, 108
-0.99843, 269, 135, 300, 150
-0.998431, 365, 251, 396, 266
-0.998432, 445, 143, 476, 158
-0.998433, 209, 311, 240, 326
-0.998433, 89, 109, 152, 124
-0.998434, 401, 201, 432, 216
-0.998435, 469, 145, 500, 160
-0.998435, 213, 301, 244, 316
-0.998436, 57, 83, 88, 98
-0.998437, 93, 221, 124, 236
-0.998438, 193, 243, 224, 258
-0.998438, 89, 115, 152, 130
-0.998438, 65, 271, 96, 286
-0.998439, 137, 251, 168, 266
-0.99844, 309, 81, 340, 96
-0.998441, 69, 11, 100, 26
-0.998441, 265, 147, 328, 162
-0.998442, 25, 205, 56, 220
-0.998442, 357, 89, 388, 104
-0.998442, 293, 157, 324, 172
-0.998442, 229, 199, 260, 214
-0.998443, 273, 123, 336, 138
-0.998443, 129, 217, 192, 232
-0.998444, 209, 193, 240, 208
-0.998444, 249, 157, 280, 172
-0.998445, 25, 211, 56, 226
-0.998446, 1, 185, 32, 200
-0.998447, 417, 335, 448, 350
-0.998448, 445, 149, 476, 164
-0.998448, 137, 95, 200, 110
-0.998449, 345, 213, 376, 228
-0.998449, 341, 203, 372, 218
-0.998453, 121, 123, 152, 138
-0.998453, 293, 139, 324, 154
-0.998453, 289, 111, 320, 126
-0.998454, 173, 87, 204, 102
-0.998454, 213, 217, 244, 232
-0.998455, 305, 161, 336, 176
-0.998456, 397, 221, 428, 236
-0.998456, 277, 129, 308, 144
-0.998456, 129, 3, 160, 18
-0.998457, 289, 117, 320, 132
-0.998457, 461, 135, 492, 150
-0.998457, 405, 333, 436, 348
-0.998458, 53, 15, 84, 30
-0.998462, 305, 155, 336, 170
-0.998462, 49, 201, 80, 216
-0.998463, 121, 117, 152, 132
-0.998464, 361, 219, 392, 234
-0.998464, 225, 153, 256, 168
-0.998465, 25, 203, 88, 218
-0.998465, 213, 323, 244, 338
-0.998466, 449, 173, 480, 188
-0.998467, 145, 79, 176, 94
-0.998468, 85, 87, 116, 102
-0.998468, 113, 249, 144, 264
-0.998468, 185, 239, 248, 254
-0.998469, 209, 295, 240, 310
-0.99847, 205, 255, 236, 270
-0.99847, 167, 193, 182, 320
-0.99847, 209, 241, 240, 256
-0.998471, 413, 345, 444, 360
-0.998472, 213, 33, 244, 288
-0.998473, 437, 129, 468, 375
-0.998474, 437, 169, 468, 184
-0.998475, 217, 245, 280, 260
-0.998475, 41, 17, 72, 32
-0.998476, 433, 67, 496, 82
-0.998476, 153, 1, 168, 128
-0.998477, 281, 155, 344, 170
-0.998478, 217, 199, 248, 214
-0.998479, 305, 73, 368, 88
-0.998479, 185, 229, 248, 244
-0.998481, 269, 161, 300, 176
-0.998482, 309, 87, 340, 102
-0.998482, 257, 153, 320, 168
-0.998484, 69, 91, 100, 106
-0.998484, 73, 79, 104, 94
-0.998484, 209, 277, 240, 292
-0.998485, 209, 191, 272, 206
-0.998485, 209, 227, 240, 242
-0.998486, 9, 185, 72, 200
-0.998487, 41, 211, 104, 226
-0.998488, 233, 155, 296, 170
-0.998489, 17, 193, 48, 208
-0.998489, 281, 269, 312, 284
-0.998489, 233, 253, 264, 268
-0.99849, 29, 199, 60, 214
-0.998491, 29, 193, 60, 208
-0.998491, 281, 137, 312, 152
-0.998492, 65, 239, 96, 254
-0.998492, 137, 85, 200, 100
-0.998493, 17, 185, 48, 200
-0.998493, 177, 243, 208, 258
-0.998494, 293, 265, 324, 280
-0.998494, 237, 193, 268, 208
-0.998495, 245, 149, 276, 164
-0.998495, 301, 145, 332, 160
-0.998496, 469, 59, 500, 74
-0.998497, 109, 115, 140, 130
-0.998497, 201, 153, 264, 168
-0.998497, 225, 241, 256, 256
-0.9985, 109, 127, 140, 142
-0.998501, 305, 81, 368, 96
-0.998503, 209, 283, 240, 298
-0.998504, 297, 103, 328, 118
-0.998506, 29, 219, 60, 234
-0.998506, 281, 123, 312, 138
-0.998508, 269, 141, 300, 156
-0.998509, 281, 111, 344, 126
-0.998511, 245, 245, 276, 260
-0.998511, 285, 151, 316, 166
-0.998512, 321, 67, 384, 82
-0.998512, 125, 217, 156, 232
-0.998512, 153, 85, 184, 100
-0.998512, 281, 275, 312, 290
-0.998515, 41, 17, 104, 32
-0.998515, 461, 21, 492, 36
-0.998515, 461, 29, 492, 44
-0.998517, 217, 235, 280, 250
-0.998517, 153, 245, 216, 260
-0.998518, 89, 121, 152, 136
-0.998519, 33, 189, 96, 204
-0.998519, 329, 251, 392, 266
-0.99852, 45, 185, 76, 200
-0.998521, 281, 105, 344, 120
-0.998521, 217, 187, 248, 202
-0.998522, 273, 135, 336, 150
-0.998523, 97, 1, 160, 16
-0.998524, 457, 65, 488, 80
-0.998524, 257, 207, 288, 222
-0.998525, 49, 195, 80, 210
-0.998526, 193, 237, 224, 252
-0.998527, 149, 95, 180, 110
-0.998528, 209, 233, 240, 248
-0.998529, 329, 235, 392, 250
-0.99853, 201, 283, 264, 298
-0.99853, 225, 229, 288, 244
-0.99853, 329, 67, 360, 82
-0.998531, 281, 169, 344, 184
-0.998532, 461, 41, 492, 56
-0.998532, 281, 145, 312, 160
-0.998534, 57, 79, 120, 94
-0.998534, 97, 97, 160, 112
-0.998534, 249, 141, 312, 156
-0.998536, 209, 289, 240, 304
-0.998536, 201, 253, 264, 268
-0.998539, 177, 223, 240, 238
-0.99854, 353, 225, 416, 240
-0.998541, 89, 103, 152, 118
-0.998542, 281, 267, 344, 282
-0.998542, 233, 207, 296, 222
-0.998542, 265, 153, 296, 168
-0.998542, 213, 249, 244, 264
-0.998545, 385, 353, 448, 368
-0.998546, 401, 323, 464, 338
-0.998546, 337, 257, 400, 272
-0.998547, 137, 77, 200, 92
-0.998547, 425, 19, 488, 34
-0.998548, 225, 247, 256, 262
-0.998549, 217, 255, 248, 270
-0.998549, 297, 89, 360, 104
-0.998551, 337, 209, 400, 224
-0.998552, 385, 333, 448, 348
-0.998553, 417, 61, 480, 76
-0.998553, 41, 89, 104, 104
-0.998554, 401, 317, 464, 332
-0.998554, 433, 149, 496, 164
-0.998554, 145, 229, 208, 244
-0.998554, 353, 219, 416, 234
-0.998555, 97, 213, 160, 228
-0.998557, 425, 175, 488, 190
-0.998559, 177, 73, 240, 88
-0.998559, 337, 243, 400, 258
-0.99856, 225, 221, 288, 236
-0.99856, 129, 249, 192, 264
-0.998561, 289, 145, 352, 160
-0.998561, 41, 239, 104, 254
-0.998561, 425, 25, 488, 40
-0.998562, 273, 129, 336, 144
-0.998562, 265, 277, 328, 292
-0.998563, 273, 261, 336, 276
-0.998564, 1, 203, 64, 218
-0.998564, 185, 245, 248, 260
-0.998565, 265, 161, 328, 176
-0.998566, 1, 31, 64, 46
-0.998568, 185, 299, 248, 314
-0.99857, 201, 159, 264, 174
-0.99857, 417, 169, 480, 184
-0.99857, 401, 103, 464, 118
-0.998572, 73, 269, 136, 284
-0.998572, 461, 47, 492, 62
-0.998573, 201, 219, 264, 234
-0.998573, 433, 141, 496, 156
-0.998574, 401, 153, 464, 168
-0.998575, 137, 205, 200, 220
-0.998575, 73, 251, 136, 266
-0.998576, 233, 213, 296, 228
-0.998576, 209, 203, 272, 218
-0.998576, 425, 31, 488, 46
-0.998577, 105, 219, 168, 234
-0.998577, 385, 121, 448, 136
-0.998577, 417, 351, 448, 366
-0.998578, 57, 217, 120, 232
-0.998578, 281, 179, 344, 194
-0.998578, 201, 313, 264, 328
-0.998578, 41, 11, 104, 26
-0.998579, 153, 235, 216, 250
-0.99858, 145, 193, 160, 320
-0.998581, 97, 127, 160, 142
-0.998581, 281, 99, 344, 114
-0.998581, 137, 223, 200, 238
-0.998581, 57, 245, 120, 260
-0.998581, 185, 323, 248, 338
-0.998581, 169, 215, 232, 230
-0.998582, 385, 361, 448, 375
-0.998582, 369, 231, 432, 246
-0.998582, 377, 3, 440, 18
-0.998583, 385, 201, 448, 216
-0.998583, 273, 117, 336, 132
-0.998584, 233, 149, 296, 164
-0.998584, 401, 89, 464, 104
-0.998585, 329, 9, 392, 24
-0.998585, 401, 311, 464, 326
-0.998586, 9, 179, 72, 194
-0.998587, 457, 53, 488, 68
-0.998587, 113, 77, 176, 92
-0.998587, 221, 193, 252, 208
-0.998588, 1, 215, 64, 230
-0.998589, 409, 69, 472, 84
-0.998589, 201, 267, 264, 282
-0.998589, 417, 75, 480, 90
-0.99859, 185, 293, 248, 308
-0.99859, 1, 49, 64, 64
-0.998591, 113, 7, 176, 22
-0.998592, 81, 89, 144, 104
-0.998592, 201, 273, 264, 288
-0.998592, 297, 253, 360, 268
-0.998593, 217, 289, 280, 304
-0.998594, 201, 307, 264, 322
-0.998595, 81, 221, 144, 236
-0.998595, 161, 89, 224, 104
-0.998596, 461, 35, 492, 50
-0.998596, 329, 229, 392, 244
-0.998608, 213, 225, 228, 352
-0.998613, 161, 193, 176, 320
-0.99862, 457, 59, 488, 74
-0.998627, 33, 187, 64, 202
-0.998632, 145, 207, 176, 222
-0.998664, 225, 209, 240, 336
-0.998669, 105, 121, 136, 136
-0.998674, 453, 1, 468, 128
-0.998688, 95, 33, 110, 160
-0.99869, 201, 129, 232, 375
-0.998693, 137, 193, 152, 320
-0.998711, 331, 1, 346, 128
-0.998721, 137, 129, 168, 375
-0.998727, 305, 81, 320, 208
-0.998737, 161, 1, 176, 128
-0.998743, 351, 1, 366, 128
-0.998746, 365, 1, 380, 128
-0.998751, 295, 81, 310, 208
-0.998762, 145, 49, 160, 176
-0.998766, 363, 193, 378, 320
-0.998774, 329, 49, 344, 176
-0.998779, 231, 193, 246, 320
-0.998787, 469, 97, 500, 352
-0.998787, 89, 49, 104, 176
-0.998793, 321, 1, 336, 128
-0.998799, 243, 193, 258, 320
-0.998806, 349, 193, 364, 320
-0.99881, 49, 161, 64, 288
-0.998811, 251, 193, 266, 320
-0.998813, 413, 129, 444, 375
-0.998817, 169, 1, 184, 128
-0.99882, 337, 1, 352, 128
-0.998824, 131, 193, 146, 320
-0.998824, 173, 193, 188, 320
-0.998829, 341, 49, 356, 176
-0.998832, 255, 145, 270, 272
-0.998834, 261, 145, 276, 272
-0.998835, 359, 1, 374, 128
-0.998837, 23, 129, 38, 256
-0.998838, 257, 193, 272, 320
-0.998841, 245, 145, 260, 272
-0.998842, 217, 177, 232, 304
-0.998844, 311, 65, 326, 192
-0.998857, 447, 1, 462, 128
-0.998858, 83, 17, 98, 144
-0.998868, 345, 1, 360, 128
-0.99887, 107, 225, 122, 352
-0.998873, 267, 145, 282, 272
-0.998876, 55, 161, 70, 288
-0.998882, 205, 1, 220, 128
-0.998888, 303, 1, 318, 128
-0.998897, 237, 225, 252, 352
-0.998899, 289, 97, 304, 224
-0.9989, 67, 1, 82, 128
-0.998904, 175, 1, 190, 128
-0.998913, 479, 1, 494, 128
-0.998919, 313, 1, 328, 128
-0.99892, 219, 225, 234, 352
-0.998924, 195, 1, 210, 128
-0.998936, 91, 193, 106, 320
-0.998939, 41, 177, 56, 304
-0.998943, 147, 1, 162, 128
-0.998947, 437, 1, 452, 128
-0.99895, 77, 17, 92, 144
-0.998953, 81, 193, 96, 320
-0.998957, 101, 209, 116, 336
-0.998959, 447, 65, 462, 192
-0.998959, 453, 65, 468, 192
-0.99896, 441, 81, 456, 208
-0.998961, 183, 1, 198, 128
-0.998964, 61, 177, 76, 304
-0.998965, 369, 209, 384, 336
-0.998966, 117, 209, 132, 336
-0.998967, 11, 1, 26, 128
-0.998969, 263, 209, 278, 336
-0.998972, 373, 1, 388, 128
-0.998973, 29, 177, 44, 304
-0.998975, 357, 209, 372, 336
-0.998979, 181, 1, 212, 256
-0.998982, 453, 113, 468, 240
-0.998987, 71, 193, 86, 320
-0.99899, 45, 1, 60, 128
-0.99899, 125, 193, 140, 320
-0.998991, 323, 81, 338, 208
-0.998991, 317, 65, 332, 192
-0.998992, 23, 193, 38, 320
-0.998999, 217, 1, 232, 128
-0.998999, 151, 225, 166, 352
-0.999002, 473, 33, 488, 160
-0.999007, 397, 113, 412, 240
-0.999013, 211, 1, 226, 128
-0.999019, 39, 1, 54, 128
-0.999019, 339, 193, 354, 320
-0.999019, 189, 1, 204, 128
-0.999035, 129, 33, 144, 160
-0.999037, 237, 177, 252, 304
-0.999038, 101, 17, 116, 144
-0.999043, 447, 113, 462, 240
-0.999043, 151, 49, 166, 176
-0.999044, 135, 33, 150, 160
-0.999049, 407, 81, 422, 208
-0.99905, 333, 113, 348, 240
-0.999054, 271, 193, 286, 320
-0.999068, 57, 129, 88, 375
-0.999069, 249, 33, 280, 288
-0.999071, 223, 161, 238, 288
-0.999074, 5, 1, 20, 128
-0.999074, 53, 1, 68, 128
-0.999082, 347, 113, 362, 240
-0.999086, 355, 49, 370, 176
-0.999088, 329, 177, 344, 304
-0.999093, 61, 1, 76, 128
-0.999094, 419, 81, 434, 208
-0.999101, 101, 81, 116, 208
-0.999101, 231, 241, 246, 368
-0.999101, 295, 1, 310, 128
-0.999101, 35, 177, 50, 304
-0.999103, 269, 1, 300, 256
-0.999109, 285, 1, 300, 128
-0.999112, 409, 129, 424, 256
-0.999115, 261, 1, 276, 128
-0.999117, 227, 1, 242, 128
-0.999118, 357, 161, 372, 288
-0.999126, 121, 33, 136, 160
-0.999126, 111, 49, 126, 176
-0.999134, 377, 177, 392, 304
-0.999139, 15, 113, 30, 240
-0.99914, 295, 241, 310, 368
-0.999142, 463, 49, 478, 176
-0.999144, 233, 1, 248, 128
-0.999144, 243, 1, 258, 128
-0.999144, 289, 49, 304, 176
-0.999148, 411, 177, 426, 304
-0.99915, 399, 193, 414, 320
-0.999157, 311, 225, 326, 352
-0.999164, 271, 1, 286, 128
-0.999167, 161, 145, 176, 272
-0.999173, 335, 49, 350, 176
-0.999278, 425, 129, 456, 375
-0.999453, 225, 1, 256, 256
-0.999516, 237, 1, 268, 256
-0.999572, 201, 1, 232, 256
-0.99961, 247, 149, 262, 164
-0.99961, 373, 7, 388, 22
-0.999611, 279, 125, 294, 140
-0.999611, 277, 143, 292, 158
-0.999611, 79, 79, 94, 94
-0.999611, 129, 111, 144, 126
-0.999611, 275, 231, 290, 246
-0.999612, 41, 215, 56, 230
-0.999613, 461, 143, 476, 158
-0.999613, 417, 201, 432, 216
-0.999613, 231, 321, 246, 336
-0.999614, 317, 103, 332, 118
-0.999614, 465, 35, 480, 50
-0.999615, 443, 77, 458, 92
-0.999615, 345, 153, 360, 168
-0.999616, 311, 155, 326, 170
-0.999616, 407, 201, 422, 216
-0.999616, 119, 247, 134, 262
-0.999616, 283, 143, 298, 158
-0.999617, 329, 171, 344, 186
-0.999618, 445, 105, 460, 120
-0.999618, 419, 347, 434, 362
-0.999619, 409, 333, 424, 348
-0.999619, 293, 269, 308, 284
-0.999619, 321, 149, 336, 164
-0.99962, 321, 129, 336, 144
-0.99962, 195, 237, 210, 252
-0.999621, 59, 183, 74, 198
-0.999622, 141, 3, 156, 18
-0.999623, 285, 135, 300, 150
-0.999623, 307, 91, 322, 106
-0.999624, 481, 23, 496, 38
-0.999625, 35, 191, 50, 206
-0.999625, 343, 201, 358, 216
-0.999625, 401, 221, 416, 236
-0.999625, 85, 75, 100, 90
-0.999626, 283, 159, 298, 174
-0.999626, 295, 263, 310, 278
-0.999627, 109, 131, 124, 146
-0.999628, 453, 169, 468, 184
-0.999628, 479, 29, 494, 44
-0.999628, 269, 237, 284, 252
-0.999629, 293, 111, 308, 126
-0.999629, 137, 217, 152, 232
-0.999629, 97, 95, 112, 110
-0.999629, 139, 95, 154, 110
-0.99963, 417, 83, 432, 98
-0.99963, 243, 199, 258, 214
-0.99963, 407, 327, 422, 342
-0.999631, 215, 245, 230, 260
-0.999632, 103, 113, 118, 128
-0.999633, 305, 145, 320, 160
-0.999633, 311, 161, 326, 176
-0.999633, 129, 219, 144, 234
-0.999633, 311, 85, 326, 100
-0.999634, 127, 123, 142, 138
-0.999634, 279, 223, 294, 238
-0.999634, 313, 79, 328, 94
-0.999636, 341, 65, 356, 80
-0.999636, 423, 335, 438, 350
-0.999636, 171, 95, 186, 110
-0.999638, 297, 103, 312, 118
-0.999638, 19, 201, 34, 216
-0.999638, 21, 193, 36, 208
-0.999639, 365, 87, 380, 102
-0.99964, 279, 153, 294, 168
-0.99964, 145, 209, 160, 224
-0.999641, 349, 205, 364, 220
-0.999641, 485, 65, 500, 80
-0.999641, 349, 213, 364, 228
-0.999642, 465, 41, 480, 56
-0.999642, 179, 87, 194, 102
-0.999643, 237, 251, 252, 266
-0.999644, 477, 35, 492, 50
-0.999644, 285, 121, 300, 136
-0.999646, 463, 51, 478, 66
-0.999646, 189, 235, 204, 250
-0.999646, 309, 101, 324, 116
-0.999647, 327, 71, 342, 86
-0.999647, 107, 119, 122, 134
-0.999648, 361, 215, 376, 230
-0.999651, 179, 245, 194, 260
-0.999652, 229, 247, 244, 262
-0.999653, 475, 41, 490, 56
-0.999654, 43, 17, 58, 32
-0.999654, 229, 257, 244, 272
-0.999655, 213, 235, 228, 250
-0.999656, 231, 195, 246, 210
-0.999656, 473, 143, 488, 158
-0.999657, 217, 225, 232, 240
-0.999657, 479, 63, 494, 78
-0.999658, 123, 117, 138, 132
-0.999658, 471, 51, 486, 66
-0.99966, 271, 153, 286, 168
-0.999662, 123, 221, 138, 236
-0.999663, 317, 155, 332, 170
-0.999665, 305, 157, 320, 172
-0.999666, 311, 149, 326, 164
-0.999674, 121, 127, 136, 142
-0.999676, 277, 131, 292, 146
-0.999676, 189, 241, 204, 256
-0.999676, 297, 139, 312, 154
-0.999677, 375, 93, 390, 108
-0.99968, 269, 205, 284, 220
-0.999683, 219, 251, 234, 266
-0.999686, 485, 9, 500, 24
-0.999686, 301, 97, 316, 112
-0.999687, 243, 247, 258, 262
-0.999688, 219, 219, 234, 234
-0.999691, 261, 157, 276, 172
-0.999691, 289, 143, 304, 158
-0.999693, 319, 75, 334, 90
-0.999693, 169, 89, 184, 104
-0.999694, 81, 91, 96, 106
-0.999697, 73, 81, 88, 96
-0.999698, 155, 203, 170, 218
-0.999699, 113, 125, 128, 140
-0.999701, 153, 93, 168, 108
-0.999706, 143, 89, 158, 104
-0.999708, 483, 137, 498, 152
-0.999713, 445, 165, 460, 180
-0.999717, 461, 61, 476, 76
-0.999722, 277, 137, 292, 152
-0.999737, 45, 187, 60, 202
-0.999741, 209, 253, 224, 268
-0.999742, 53, 183, 68, 198
-0.999751, 471, 57, 486, 72
-0.999763, 239, 193, 254, 208
-0.999765, 221, 189, 236, 204
-0.99977, 57, 189, 72, 204
-0.999854, 81, 137, 208, 200
