1974
-0.366223, 1, 1, 500, 375
-0.454021, 65, 1, 320, 375
-0.459732, 1, 1, 500, 256
-0.486202, 1, 129, 500, 375
-0.493107, 225, 1, 480, 375
-0.565454, 225, 1, 480, 256
-0.642188, 225, 97, 480, 352
-0.657177, 33, 129, 288, 375
-0.67705, 129, 97, 384, 352
-0.67982, 129, 1, 384, 256
-0.778269, 33, 33, 288, 288
-0.852051, 225, 1, 352, 375
-0.85604, 273, 1, 400, 256
-0.856115, 33, 129, 160, 375
-0.856561, 145, 1, 272, 375
-0.864623, 289, 1, 416, 375
-0.876495, 1, 1, 128, 375
-0.876816, 193, 97, 320, 352
-0.878317, 1, 145, 500, 272
-0.879886, 113, 97, 240, 352
-0.882232, 337, 1, 464, 375
-0.884536, 321, 1, 448, 256
-0.886, 161, 1, 288, 256
-0.889598, 65, 1, 192, 375
-0.891015, 369, 1, 496, 256
-0.894341, 305, 97, 432, 352
-0.896675, 225, 1, 352, 256
-0.900058, 113, 1, 240, 256
-0.904264, 1, 97, 500, 224
-0.905128, 33, 177, 288, 304
-0.906102, 257, 97, 384, 352
-0.906517, 65, 33, 192, 288
-0.907341, 1, 193, 500, 320
-0.916222, 193, 145, 448, 272
-0.918318, 65, 177, 192, 304
-0.918466, 353, 97, 480, 352
-0.919679, 1, 33, 128, 288
-0.922084, 1, 33, 500, 160
-0.924864, 33, 225, 288, 352
-0.926923, 1, 161, 128, 288
-0.929175, 89, 177, 152, 304
-0.934092, 145, 177, 208, 304
-0.934187, 33, 97, 288, 224
-0.934312, 129, 161, 256, 288
-0.935018, 225, 17, 480, 144
-0.935239, 257, 97, 500, 224
-0.936213, 249, 129, 312, 256
-0.936343, 41, 177, 104, 304
-0.937647, 305, 129, 432, 256
-0.938172, 369, 129, 432, 256
-0.939164, 161, 193, 416, 320
-0.939616, 329, 129, 392, 256
-0.940178, 289, 145, 352, 272
-0.940517, 41, 129, 104, 256
-0.940556, 49, 97, 176, 224
-0.941065, 209, 145, 336, 272
-0.941366, 17, 129, 80, 256
-0.941375, 113, 177, 176, 304
-0.942632, 65, 177, 128, 304
-0.943101, 289, 1, 416, 128
-0.945076, 353, 129, 480, 256
-0.94624, 153, 193, 216, 256
-0.948051, 273, 97, 336, 224
-0.948072, 1, 113, 128, 240
-0.948126, 129, 209, 256, 336
-0.948271, 361, 145, 424, 208
-0.948779, 393, 113, 456, 240
-0.94882, 129, 177, 192, 240
-0.949, 129, 201, 192, 264
-0.949897, 129, 97, 384, 224
-0.950114, 73, 201, 136, 264
-0.950172, 329, 137, 392, 200
-0.950221, 201, 161, 264, 288
-0.950232, 49, 225, 176, 352
-0.950803, 273, 153, 336, 216
-0.95087, 369, 1, 496, 128
-0.951612, 257, 161, 384, 288
-0.952203, 385, 137, 448, 200
-0.952609, 177, 193, 240, 320
-0.952791, 17, 177, 80, 304
-0.952897, 385, 1, 448, 64
-0.953421, 97, 185, 160, 248
-0.954075, 65, 97, 128, 224
-0.954154, 1, 241, 500, 368
-0.954302, 33, 169, 96, 232
-0.954955, 249, 137, 312, 200
-0.955413, 425, 97, 488, 224
-0.955518, 49, 217, 112, 280
-0.955591, 409, 113, 472, 176
-0.9558, 337, 161, 400, 224
-0.956155, 33, 137, 96, 200
-0.956186, 9, 169, 72, 232
-0.956291, 297, 97, 360, 224
-0.956766, 225, 145, 288, 272
-0.956782, 305, 145, 368, 208
-0.95688, 369, 81, 496, 208
-0.957098, 321, 81, 448, 208
-0.957169, 225, 97, 352, 224
-0.957178, 177, 193, 304, 320
-0.957721, 129, 17, 384, 144
-0.95776, 73, 225, 136, 352
-0.957828, 305, 1, 368, 64
-0.957896, 1, 209, 128, 336
-0.958567, 369, 81, 432, 208
-0.958612, 385, 1, 448, 128
-0.958777, 297, 177, 360, 240
-0.958829, 345, 81, 408, 208
-0.959354, 241, 169, 304, 232
-0.959362, 241, 1, 368, 128
-0.959563, 1, 81, 64, 208
-0.959685, 361, 169, 424, 232
-0.960113, 161, 217, 224, 280
-0.960172, 177, 177, 240, 240
-0.960302, 345, 1, 408, 64
-0.961168, 273, 81, 400, 208
-0.961234, 1, 105, 64, 168
-0.961427, 225, 97, 288, 224
-0.961713, 25, 193, 88, 256
-0.96223, 105, 209, 168, 272
-0.962277, 273, 177, 336, 240
-0.96229, 297, 1, 360, 128
-0.962517, 409, 1, 472, 128
-0.962542, 49, 193, 112, 256
-0.962635, 385, 105, 448, 168
-0.962669, 201, 201, 264, 264
-0.962745, 177, 145, 240, 272
-0.962887, 249, 177, 312, 304
-0.962968, 161, 97, 288, 224
-0.963632, 153, 225, 216, 352
-0.964223, 433, 121, 496, 184
-0.964951, 1, 193, 64, 256
-0.965039, 65, 193, 192, 256
-0.965111, 241, 193, 304, 256
-0.965251, 393, 161, 456, 224
-0.965451, 417, 145, 480, 208
-0.965786, 137, 225, 200, 288
-0.965789, 353, 17, 416, 144
-0.965955, 321, 17, 384, 144
-0.965969, 41, 225, 104, 352
-0.966018, 41, 81, 104, 208
-0.96603, 121, 225, 184, 352
-0.966097, 417, 1, 480, 64
-0.966347, 257, 1, 320, 128
-0.966354, 289, 113, 352, 176
-0.966467, 345, 25, 408, 88
-0.966748, 201, 209, 264, 336
-0.966808, 33, 113, 96, 176
-0.967004, 257, 193, 500, 320
-0.967026, 393, 49, 456, 176
-0.967373, 97, 1, 224, 128
-0.967475, 53, 113, 84, 240
-0.96748, 25, 129, 88, 375
-0.967646, 225, 145, 288, 208
-0.967835, 405, 121, 436, 184
-0.967875, 141, 177, 172, 240
-0.968135, 81, 233, 144, 296
-0.968212, 129, 177, 256, 240
-0.968241, 137, 129, 200, 256
-0.968397, 57, 169, 120, 232
-0.968431, 1, 169, 128, 232
-0.968588, 361, 113, 424, 176
-0.968712, 393, 161, 456, 288
-0.968997, 425, 49, 488, 176
-0.969226, 201, 169, 264, 232
-0.969337, 157, 201, 188, 264
-0.969436, 41, 241, 104, 304
-0.969485, 345, 1, 408, 256
-0.969722, 169, 201, 200, 264
-0.969897, 129, 241, 384, 368
-0.970116, 405, 153, 436, 216
-0.970129, 49, 121, 80, 184
-0.97041, 321, 1, 384, 256
-0.970613, 241, 145, 368, 208
-0.970728, 273, 193, 336, 320
-0.970784, 161, 161, 192, 288
-0.97102, 321, 81, 384, 208
-0.971073, 285, 129, 316, 256
-0.971102, 1, 193, 128, 256
-0.971201, 353, 177, 416, 304
-0.97132, 385, 25, 448, 88
-0.971333, 321, 129, 448, 192
-0.971354, 277, 137, 308, 200
-0.971442, 57, 105, 120, 168
-0.971473, 425, 1, 456, 64
-0.971476, 77, 193, 108, 256
-0.971549, 161, 1, 224, 128
-0.971581, 333, 1, 364, 64
-0.971641, 341, 145, 372, 208
-0.971665, 73, 177, 104, 304
-0.971752, 169, 177, 200, 240
-0.971769, 273, 201, 336, 264
-0.97184, 153, 1, 216, 64
-0.971843, 249, 81, 312, 208
-0.971983, 141, 209, 172, 272
-0.972167, 297, 145, 328, 272
-0.972358, 321, 177, 384, 304
-0.972364, 321, 113, 384, 176
-0.97242, 401, 1, 464, 256
-0.972538, 57, 177, 88, 304
-0.972583, 397, 113, 428, 240
-0.972833, 209, 169, 336, 232
-0.972898, 385, 129, 416, 192
-0.972902, 257, 1, 320, 64
-0.972982, 113, 97, 240, 224
-0.972998, 445, 129, 476, 192
-0.973051, 157, 177, 188, 240
-0.973071, 193, 17, 320, 144
-0.973131, 49, 97, 112, 352
-0.973243, 289, 1, 416, 64
-0.973354, 393, 153, 424, 216
-0.973387, 297, 1, 360, 256
-0.973436, 97, 177, 128, 304
-0.973544, 57, 145, 88, 208
-0.973629, 273, 129, 304, 256
-0.973716, 225, 209, 352, 336
-0.973742, 369, 113, 496, 176
-0.973787, 17, 233, 80, 296
-0.973928, 85, 177, 116, 304
-0.97425, 65, 129, 96, 256
-0.974304, 17, 225, 80, 352
-0.974314, 349, 1, 380, 64
-0.974505, 293, 185, 324, 248
-0.974553, 385, 113, 416, 240
-0.974607, 153, 169, 216, 232
-0.974622, 289, 25, 352, 88
-0.974645, 417, 89, 480, 152
-0.974682, 373, 129, 404, 256
-0.974695, 121, 177, 152, 304
-0.974702, 289, 161, 320, 224
-0.974768, 225, 201, 352, 264
-0.974776, 113, 233, 176, 296
-0.974779, 97, 129, 160, 375
-0.974781, 137, 97, 200, 352
-0.974865, 149, 161, 180, 288
-0.974923, 305, 161, 432, 224
-0.97494, 185, 225, 248, 288
-0.974976, 145, 17, 272, 144
-0.975074, 369, 145, 400, 208
-0.975097, 281, 1, 344, 64
-0.975169, 425, 129, 456, 192
-0.975257, 337, 129, 368, 256
-0.975361, 257, 25, 320, 88
-0.9754, 109, 177, 140, 304
-0.975408, 133, 177, 164, 304
-0.975451, 337, 1, 464, 64
-0.975551, 421, 153, 452, 216
-0.975676, 97, 225, 160, 352
-0.975681, 257, 113, 320, 176
-0.975687, 1, 129, 64, 192
-0.975715, 321, 185, 384, 248
-0.975741, 329, 137, 360, 200
-0.975771, 145, 201, 272, 264
-0.975837, 185, 17, 248, 144
-0.975842, 425, 97, 456, 224
-0.975849, 229, 161, 260, 288
-0.975867, 121, 193, 152, 256
-0.97596, 389, 105, 420, 168
-0.976043, 257, 169, 384, 232
-0.976051, 81, 217, 208, 280
-0.976205, 1, 49, 128, 176
-0.976252, 1, 129, 64, 375
-0.976266, 241, 97, 304, 352
-0.976289, 129, 1, 192, 64
-0.976334, 173, 193, 204, 320
-0.976511, 409, 25, 472, 88
-0.976587, 65, 169, 192, 232
-0.976605, 45, 177, 76, 304
-0.976606, 33, 161, 64, 224
-0.9768, 105, 193, 136, 256
-0.976849, 105, 97, 168, 224
-0.976858, 73, 97, 136, 352
-0.976921, 425, 1, 456, 128
-0.976939, 33, 113, 64, 176
-0.977046, 465, 121, 496, 184
-0.977084, 321, 1, 352, 64
-0.977102, 105, 161, 168, 224
-0.977208, 145, 225, 272, 288
-0.977295, 313, 177, 344, 240
-0.977401, 1, 225, 128, 288
-0.977642, 321, 25, 384, 88
-0.977859, 201, 97, 264, 224
-0.978097, 57, 169, 88, 232
-0.978177, 65, 257, 128, 320
-0.978206, 305, 177, 432, 304
-0.978307, 257, 145, 288, 208
-0.978396, 217, 17, 280, 144
-0.978404, 53, 193, 84, 256
-0.978424, 41, 265, 104, 328
-0.978494, 41, 97, 72, 224
-0.978554, 65, 241, 192, 304
-0.978555, 89, 193, 120, 256
-0.978626, 369, 137, 496, 200
-0.978636, 161, 97, 224, 352
-0.978657, 309, 161, 340, 288
-0.978666, 225, 217, 288, 280
-0.978681, 385, 185, 448, 248
-0.978953, 161, 225, 192, 288
-0.978979, 257, 113, 288, 240
-0.979024, 297, 201, 360, 264
-0.979099, 33, 145, 160, 208
-0.979111, 241, 1, 304, 256
-0.979121, 289, 49, 352, 176
-0.979263, 145, 249, 208, 312
-0.979269, 273, 1, 336, 256
-0.97927, 177, 225, 208, 288
-0.979296, 1, 49, 256, 176
-0.979686, 61, 217, 92, 280
-0.979751, 229, 185, 260, 248
-0.979797, 297, 193, 360, 320
-0.979826, 289, 25, 416, 88
-0.979872, 417, 145, 480, 272
-0.979942, 13, 185, 44, 248
-0.979952, 97, 1, 224, 64
-0.979953, 353, 177, 480, 304
-0.979965, 321, 105, 448, 168
-0.980015, 333, 25, 364, 88
-0.980073, 225, 25, 288, 88
-0.980074, 301, 161, 332, 224
-0.980119, 193, 145, 320, 208
-0.980143, 77, 241, 108, 304
-0.980163, 377, 1, 440, 256
-0.980227, 277, 161, 308, 224
-0.980257, 185, 1, 248, 375
-0.98031, 385, 177, 416, 240
-0.980344, 397, 177, 428, 240
-0.980401, 89, 225, 120, 288
-0.980413, 361, 193, 424, 256
-0.980428, 257, 113, 384, 176
-0.980451, 225, 209, 288, 336
-0.980485, 33, 1, 288, 128
-0.980543, 409, 113, 440, 240
-0.980591, 369, 25, 496, 88
-0.980592, 225, 1, 288, 64
-0.980597, 241, 1, 368, 64
-0.980612, 45, 97, 76, 160
-0.980689, 349, 129, 380, 256
-0.980714, 69, 169, 100, 232
-0.980766, 289, 1, 320, 128
-0.980853, 233, 105, 296, 168
-0.980911, 169, 1, 232, 256
-0.980948, 433, 105, 464, 168
-0.98103, 13, 105, 44, 168
-0.981035, 45, 161, 76, 224
-0.981088, 325, 177, 356, 240
-0.981121, 445, 81, 476, 208
-0.981192, 17, 105, 144, 168
-0.981193, 45, 249, 76, 312
-0.981201, 77, 97, 108, 224
-0.981208, 361, 129, 392, 256
-0.98122, 129, 153, 192, 216
-0.981223, 433, 1, 496, 128
-0.981272, 353, 153, 384, 216
-0.981315, 265, 169, 296, 232
-0.981433, 161, 97, 224, 224
-0.981468, 77, 217, 108, 280
-0.981507, 181, 193, 212, 256
-0.981509, 277, 81, 308, 208
-0.981678, 121, 1, 184, 128
-0.981691, 305, 1, 336, 128
-0.981754, 361, 129, 424, 375
-0.9818, 69, 105, 100, 168
-0.981823, 269, 113, 300, 176
-0.981873, 1, 249, 128, 312
-0.981909, 321, 145, 352, 272
-0.981964, 221, 161, 252, 224
-0.981983, 209, 1, 272, 256
-0.982017, 33, 161, 64, 288
-0.982051, 417, 169, 480, 232
-0.982074, 233, 209, 264, 272
-0.9821, 305, 185, 432, 248
-0.982132, 153, 225, 184, 352
-0.982196, 265, 97, 328, 352
-0.982234, 265, 1, 296, 64
-0.982252, 9, 257, 72, 320
-0.982301, 217, 1, 280, 375
-0.982341, 433, 153, 464, 216
-0.982383, 369, 169, 496, 232
-0.982422, 405, 97, 436, 160
-0.982492, 57, 257, 88, 320
-0.982544, 253, 9, 284, 72
-0.982596, 385, 81, 448, 144
-0.982663, 309, 97, 340, 224
-0.982707, 321, 25, 352, 88
-0.982723, 29, 97, 60, 224
-0.982744, 177, 241, 240, 368
-0.982791, 349, 25, 380, 88
-0.982817, 185, 193, 216, 320
-0.98282, 177, 241, 304, 368
-0.982918, 169, 1, 200, 64
-0.982921, 237, 161, 268, 224
-0.982964, 1, 177, 32, 304
-0.983063, 317, 1, 348, 128
-0.983124, 329, 129, 392, 375
-0.983146, 453, 1, 484, 128
-0.983222, 273, 193, 304, 256
-0.983223, 213, 161, 244, 288
-0.983243, 385, 97, 448, 352
-0.983246, 73, 145, 136, 208
-0.983252, 201, 97, 264, 352
-0.983254, 317, 145, 348, 208
-0.983284, 425, 25, 456, 88
-0.983353, 289, 1, 352, 375
-0.983387, 289, 97, 352, 352
-0.98339, 1, 201, 32, 264
-0.983694, 453, 1, 484, 64
-0.983783, 201, 193, 232, 320
-0.983933, 425, 49, 488, 112
-0.983974, 345, 1, 408, 375
-0.984059, 129, 217, 160, 280
-0.984114, 445, 105, 476, 168
-0.984248, 393, 65, 424, 192
-0.984271, 421, 97, 452, 160
-0.98428, 373, 177, 404, 240
-0.984366, 437, 1, 468, 64
-0.984366, 17, 113, 48, 240
-0.98437, 425, 1, 488, 256
-0.984372, 353, 81, 384, 208
-0.984376, 1, 113, 32, 240
-0.984392, 25, 137, 56, 200
-0.984397, 461, 145, 492, 208
-0.984397, 85, 225, 116, 352
-0.984582, 381, 153, 412, 216
-0.984589, 161, 1, 224, 375
-0.984655, 437, 1, 468, 128
-0.984681, 277, 177, 308, 304
-0.984699, 25, 89, 88, 152
-0.984733, 173, 145, 204, 272
-0.984745, 361, 89, 424, 152
-0.98491, 65, 105, 192, 168
-0.98492, 65, 49, 128, 176
-0.984934, 373, 121, 404, 184
-0.985095, 413, 177, 444, 240
-0.985216, 129, 169, 160, 232
-0.98526, 413, 161, 444, 288
-0.985302, 149, 233, 180, 296
-0.985453, 241, 1, 304, 375
-0.985508, 469, 113, 500, 240
-0.98554, 73, 225, 104, 352
-0.985542, 193, 17, 320, 80
-0.985593, 297, 209, 328, 272
-0.985632, 465, 65, 496, 192
-0.985699, 337, 113, 368, 176
-0.985747, 457, 113, 488, 240
-0.985754, 1, 105, 32, 168
-0.98577, 305, 9, 336, 72
-0.985862, 153, 145, 216, 208
-0.985883, 265, 1, 328, 375
-0.985911, 245, 209, 276, 272
-0.985945, 245, 97, 276, 224
-0.985961, 101, 233, 132, 296
-0.986008, 185, 9, 248, 72
-0.986029, 209, 177, 240, 240
-0.986082, 321, 209, 384, 272
-0.986209, 285, 113, 316, 176
-0.986354, 241, 33, 368, 96
-0.986431, 105, 33, 168, 288
-0.98645, 293, 193, 324, 320
-0.986485, 145, 1, 272, 64
-0.986501, 17, 177, 48, 304
-0.986507, 193, 113, 320, 176
-0.986531, 457, 49, 488, 112
-0.986535, 49, 1, 112, 375
-0.98659, 369, 81, 400, 208
-0.98667, 273, 25, 304, 88
-0.986683, 137, 1, 200, 256
-0.986693, 49, 49, 176, 176
-0.986699, 73, 1, 136, 375
-0.986771, 37, 137, 68, 200
-0.986788, 189, 225, 220, 288
-0.986809, 17, 33, 80, 288
-0.98683, 105, 1, 168, 375
-0.986849, 369, 49, 496, 112
-0.986865, 393, 1, 456, 375
-0.98693, 189, 169, 220, 232
-0.986972, 369, 89, 496, 152
-0.987015, 353, 113, 384, 176
-0.987031, 349, 1, 380, 128
-0.987165, 405, 65, 436, 192
-0.987175, 445, 25, 476, 88
-0.98718, 181, 1, 212, 64
-0.987234, 297, 97, 328, 224
-0.987264, 337, 169, 368, 232
-0.987281, 413, 1, 444, 128
-0.987287, 33, 193, 64, 256
-0.987407, 33, 233, 64, 296
-0.987467, 365, 177, 396, 304
-0.987521, 113, 153, 240, 216
-0.98753, 389, 1, 420, 64
-0.987582, 385, 49, 448, 112
-0.987592, 97, 1, 160, 64
-0.987617, 413, 25, 444, 88
-0.987709, 33, 289, 96, 352
-0.987716, 201, 209, 232, 272
-0.987789, 141, 153, 172, 216
-0.987909, 169, 249, 200, 312
-0.987912, 369, 1, 432, 375
-0.98792, 145, 217, 208, 248
-0.98799, 185, 145, 216, 272
-0.988001, 433, 25, 496, 88
-0.988005, 129, 185, 192, 216
-0.988068, 253, 185, 284, 248
-0.988091, 157, 1, 188, 64
-0.988097, 17, 181, 80, 212
-0.9881, 369, 33, 400, 160
-0.988112, 385, 1, 416, 128
-0.988177, 369, 33, 400, 96
-0.988206, 301, 137, 332, 200
-0.988252, 437, 129, 468, 256
-0.98826, 153, 229, 216, 260
-0.988279, 369, 169, 432, 200
-0.988307, 449, 153, 480, 216
-0.988319, 89, 193, 152, 224
-0.988322, 249, 161, 280, 288
-0.988324, 29, 265, 60, 328
-0.988357, 153, 113, 184, 240
-0.988358, 57, 225, 88, 352
-0.988378, 313, 1, 376, 375
-0.988386, 9, 1, 72, 375
-0.988393, 465, 1, 496, 64
-0.988409, 289, 137, 320, 200
-0.98842, 369, 157, 432, 188
-0.988455, 41, 225, 72, 352
-0.988457, 233, 209, 264, 336
-0.988465, 129, 201, 192, 232
-0.98847, 177, 153, 240, 216
-0.988527, 393, 129, 456, 160
-0.988575, 53, 65, 84, 192
-0.988594, 13, 129, 44, 192
-0.988634, 309, 201, 340, 264
-0.988647, 425, 145, 456, 272
-0.98869, 221, 209, 252, 272
-0.988694, 1, 81, 64, 144
-0.988709, 201, 145, 264, 208
-0.988726, 261, 161, 292, 288
-0.988778, 81, 105, 144, 168
-0.988824, 273, 209, 400, 272
-0.988833, 265, 165, 328, 196
-0.988861, 65, 193, 96, 256
-0.988876, 33, 193, 288, 256
-0.988946, 17, 225, 48, 352
-0.988949, 153, 281, 216, 344
-0.988956, 345, 149, 408, 180
-0.988957, 133, 129, 164, 256
-0.988971, 329, 17, 360, 144
-0.989007, 209, 113, 272, 176
-0.989027, 161, 197, 224, 228
-0.989029, 141, 225, 172, 352
-0.989051, 401, 157, 464, 188
-0.989059, 409, 1, 440, 64
-0.989072, 393, 117, 456, 148
-0.989091, 121, 221, 184, 252
-0.989095, 273, 189, 336, 220
-0.989098, 153, 153, 184, 216
-0.98912, 369, 133, 432, 164
-0.989122, 329, 165, 392, 196
-0.989148, 385, 21, 448, 52
-0.989202, 169, 257, 232, 320
-0.989236, 325, 97, 356, 224
-0.989243, 357, 177, 388, 240
-0.989298, 225, 137, 480, 200
-0.989307, 257, 113, 288, 176
-0.989353, 129, 173, 192, 204
-0.989379, 421, 49, 452, 176
-0.989419, 33, 169, 96, 200
-0.989437, 41, 125, 104, 156
-0.989446, 401, 161, 432, 288
-0.989473, 265, 49, 296, 176
-0.98948, 353, 217, 416, 280
-0.989485, 257, 137, 320, 168
-0.98951, 289, 157, 352, 188
-0.989545, 137, 1, 200, 32
-0.989548, 417, 129, 480, 160
-0.989549, 57, 193, 120, 224
-0.989552, 185, 177, 248, 208
-0.989553, 393, 145, 456, 176
-0.989564, 385, 1, 448, 32
-0.989579, 33, 225, 288, 288
-0.989583, 297, 29, 360, 60
-0.989597, 281, 201, 344, 232
-0.989628, 249, 149, 312, 180
-0.989657, 145, 241, 208, 272
-0.989709, 425, 141, 488, 172
-0.989746, 129, 177, 384, 240
-0.989771, 321, 29, 384, 60
-0.98979, 129, 1, 192, 375
-0.989814, 33, 145, 96, 176
-0.989819, 297, 177, 360, 208
-0.989829, 41, 181, 104, 212
-0.989841, 225, 173, 288, 204
-0.989854, 345, 1, 408, 32
-0.989868, 381, 65, 412, 192
-0.989868, 305, 1, 368, 32
-0.989869, 369, 145, 432, 176
-0.989871, 9, 193, 72, 224
-0.989889, 81, 205, 144, 236
-0.989897, 33, 157, 96, 188
-0.989902, 161, 185, 224, 216
-0.989941, 65, 221, 128, 252
-0.989948, 417, 1, 480, 375
-0.989977, 41, 237, 104, 268
-0.989983, 313, 17, 376, 48
-0.989995, 321, 145, 384, 176
-0.989997, 201, 217, 264, 248
-0.990001, 41, 1, 104, 256
-0.990034, 221, 209, 252, 336
-0.990086, 121, 233, 184, 264
-0.990104, 121, 129, 152, 256
-0.990114, 17, 121, 80, 152
-0.990114, 341, 81, 372, 208
-0.99015, 49, 81, 112, 144
-0.990198, 105, 205, 168, 236
-0.990243, 345, 37, 408, 68
-0.990251, 33, 193, 96, 224
-0.990267, 185, 201, 248, 232
-0.990273, 401, 177, 464, 208
-0.990291, 81, 237, 144, 268
-0.990292, 409, 5, 472, 36
-0.990301, 165, 241, 196, 368
-0.990306, 177, 221, 240, 252
-0.990321, 249, 181, 312, 212
-0.99035, 241, 205, 304, 236
-0.990359, 225, 1, 480, 64
-0.990374, 337, 177, 400, 208
-0.990408, 417, 117, 480, 148
-0.99044, 129, 201, 384, 264
-0.990456, 289, 145, 352, 176
-0.990468, 25, 33, 88, 160
-0.990479, 73, 1, 136, 256
-0.990489, 273, 29, 336, 60
-0.99049, 345, 137, 408, 168
-0.990492, 17, 81, 144, 144
-0.990529, 277, 1, 308, 128
-0.990546, 41, 113, 104, 144
-0.990604, 193, 225, 320, 288
-0.990616, 289, 17, 352, 48
-0.990636, 221, 17, 252, 144
-0.990682, 65, 81, 96, 208
-0.990732, 377, 189, 440, 220
-0.990737, 281, 1, 344, 32
-0.990739, 177, 233, 240, 264
-0.990745, 49, 253, 112, 284
-0.99075, 425, 161, 488, 192
-0.990775, 169, 9, 232, 40
-0.99078, 17, 133, 80, 164
-0.990782, 173, 1, 204, 128
-0.990798, 113, 105, 176, 168
-0.990801, 9, 169, 72, 200
-0.990816, 97, 225, 128, 352
-0.990859, 289, 225, 352, 288
-0.99088, 305, 201, 368, 232
-0.990898, 249, 193, 312, 224
-0.990924, 121, 245, 184, 276
-0.990944, 385, 161, 416, 288
-0.990961, 385, 33, 448, 64
-0.990979, 353, 109, 416, 140
-0.99098, 297, 189, 360, 220
-0.990993, 297, 41, 360, 72
-0.990999, 33, 269, 96, 300
-0.990999, 193, 17, 224, 144
-0.991, 65, 265, 192, 328
-0.991003, 345, 13, 408, 44
-0.991077, 345, 25, 408, 56
-0.991082, 1, 109, 64, 140
-0.991105, 265, 213, 328, 244
-0.991112, 73, 253, 136, 284
-0.991113, 5, 49, 36, 176
-0.99115, 49, 209, 112, 240
-0.991178, 209, 197, 272, 228
-0.99119, 297, 49, 360, 112
-0.991217, 265, 17, 328, 48
-0.991224, 97, 217, 160, 248
-0.99123, 433, 1, 496, 32
-0.991272, 425, 57, 488, 88
-0.99129, 105, 181, 168, 212
-0.991293, 249, 29, 312, 60
-0.991295, 233, 161, 296, 192
-0.991301, 25, 257, 88, 288
-0.991321, 393, 101, 456, 132
-0.991322, 465, 1, 496, 128
-0.991338, 305, 81, 432, 144
-0.991348, 1, 177, 500, 240
-0.991357, 41, 221, 104, 252
-0.991378, 281, 133, 344, 164
-0.991386, 185, 189, 248, 220
-0.991389, 425, 105, 488, 136
-0.991391, 145, 13, 208, 44
-0.991399, 209, 17, 240, 144
-0.991422, 425, 17, 488, 48
-0.991424, 217, 97, 248, 224
-0.991437, 169, 97, 200, 224
-0.991453, 161, 173, 224, 204
-0.991465, 353, 189, 416, 220
-0.991469, 409, 29, 472, 60
-0.991498, 169, 21, 232, 52
-0.991512, 9, 205, 72, 236
-0.991512, 181, 241, 212, 368
-0.991542, 369, 121, 432, 152
-0.991583, 369, 193, 496, 256
-0.991594, 65, 177, 128, 208
-0.991606, 233, 17, 296, 48
-0.991615, 201, 29, 264, 60
-0.991638, 321, 209, 448, 272
-0.991659, 201, 165, 264, 196
-0.991661, 109, 129, 140, 256
-0.991678, 49, 285, 112, 316
-0.99169, 225, 177, 480, 240
-0.991702, 9, 229, 72, 260
-0.991703, 225, 217, 288, 248
-0.991746, 145, 249, 272, 312
-0.991756, 125, 225, 156, 352
-0.991768, 361, 201, 424, 232
-0.991815, 9, 245, 72, 276
-0.991848, 105, 169, 168, 200
-0.991864, 273, 177, 336, 208
-0.99187, 241, 89, 368, 152
-0.991878, 321, 41, 384, 72
-0.991889, 201, 229, 264, 260
-0.991915, 225, 185, 288, 216
-0.99194, 401, 189, 464, 220
-0.99195, 201, 145, 232, 272
-0.992, 305, 209, 336, 336
-0.992005, 49, 121, 80, 152
-0.992012, 9, 281, 72, 344
-0.992016, 249, 1, 280, 128
-0.992057, 29, 225, 60, 352
-0.992058, 113, 273, 240, 336
-0.992064, 281, 89, 344, 152
-0.992092, 293, 193, 324, 224
-0.992126, 433, 97, 496, 352
-0.992155, 153, 233, 184, 264
-0.992178, 153, 185, 184, 216
-0.992179, 409, 153, 440, 184
-0.992183, 381, 133, 412, 164
-0.992186, 157, 201, 188, 232
-0.992188, 169, 185, 200, 216
-0.992191, 53, 145, 84, 176
-0.992195, 169, 217, 200, 248
-0.9922, 397, 169, 428, 200
-0.992209, 433, 141, 464, 172
-0.992219, 81, 81, 144, 144
-0.992245, 141, 185, 172, 216
-0.992245, 173, 233, 204, 264
-0.99227, 337, 141, 368, 172
-0.992275, 145, 169, 176, 200
-0.992275, 441, 129, 472, 160
-0.992278, 457, 133, 488, 164
-0.992303, 157, 221, 188, 252
-0.992306, 249, 217, 312, 280
-0.992309, 289, 157, 320, 188
-0.992321, 37, 177, 68, 208
-0.992321, 349, 21, 380, 52
-0.992323, 417, 173, 448, 204
-0.992337, 141, 213, 172, 244
-0.992353, 397, 149, 428, 180
-0.992353, 373, 169, 404, 200
-0.992369, 169, 1, 200, 32
-0.992388, 121, 193, 152, 224
-0.992422, 89, 97, 120, 224
-0.992438, 33, 129, 64, 160
-0.992439, 61, 125, 92, 156
-0.992439, 89, 193, 120, 224
-0.992443, 409, 133, 440, 164
-0.992449, 273, 137, 304, 168
-0.992454, 17, 129, 48, 160
-0.992457, 17, 185, 48, 216
-0.992465, 445, 141, 476, 172
-0.992477, 409, 113, 440, 144
-0.99248, 277, 157, 308, 188
-0.992481, 257, 113, 500, 176
-0.992482, 385, 153, 416, 184
-0.992482, 421, 133, 452, 164
-0.99252, 353, 157, 384, 188
-0.992523, 325, 29, 356, 60
-0.992525, 169, 205, 200, 236
-0.992528, 333, 13, 364, 44
-0.992528, 73, 201, 104, 232
-0.992529, 433, 157, 464, 188
-0.992541, 285, 145, 316, 176
-0.992545, 469, 137, 500, 168
-0.992549, 397, 129, 428, 160
-0.99255, 421, 153, 452, 184
-0.99255, 361, 145, 392, 176
-0.992554, 181, 221, 212, 252
-0.992555, 69, 189, 100, 220
-0.992569, 377, 217, 440, 280
-0.992572, 341, 169, 372, 200
-0.992576, 433, 49, 464, 176
-0.992593, 425, 21, 456, 52
-0.992595, 305, 29, 336, 60
-0.992615, 465, 1, 496, 32
-0.99263, 277, 169, 308, 200
-0.992633, 305, 185, 336, 216
-0.992655, 57, 177, 88, 208
-0.992656, 349, 33, 380, 64
-0.992656, 65, 201, 192, 232
-0.992656, 113, 105, 240, 168
-0.992659, 185, 233, 216, 264
-0.992659, 321, 185, 352, 216
-0.99266, 45, 261, 76, 292
-0.992662, 157, 1, 188, 32
-0.992666, 437, 1, 468, 32
-0.992667, 297, 169, 328, 200
-0.992669, 441, 117, 472, 148
-0.992669, 137, 201, 168, 232
-0.992671, 425, 9, 456, 40
-0.992673, 69, 241, 100, 272
-0.992675, 289, 205, 320, 236
-0.992677, 33, 169, 288, 232
-0.992681, 109, 193, 140, 224
-0.992683, 193, 181, 224, 212
-0.992686, 337, 29, 368, 60
-0.992708, 457, 121, 488, 152
-0.99272, 133, 225, 164, 256
-0.992727, 13, 197, 44, 228
-0.992729, 301, 205, 332, 236
-0.992731, 73, 213, 104, 244
-0.992746, 121, 205, 152, 236
-0.992747, 153, 245, 184, 276
-0.992751, 425, 121, 456, 152
-0.992756, 469, 149, 500, 180
-0.99276, 37, 165, 68, 196
-0.992762, 337, 153, 368, 184
-0.992765, 309, 173, 340, 204
-0.992766, 133, 173, 164, 204
-0.992768, 29, 141, 60, 172
-0.992773, 285, 21, 316, 52
-0.992773, 205, 173, 236, 204
-0.992783, 229, 169, 260, 200
-0.992784, 49, 277, 80, 308
-0.992786, 33, 117, 64, 148
-0.992788, 385, 173, 416, 204
-0.992795, 257, 173, 288, 204
-0.992799, 1, 185, 32, 216
-0.9928, 1, 121, 32, 152
-0.992804, 65, 113, 96, 144
-0.992811, 369, 129, 400, 160
-0.992813, 361, 169, 392, 200
-0.99282, 401, 181, 432, 212
-0.992821, 341, 1, 372, 32
-0.992823, 397, 193, 428, 224
-0.992828, 229, 213, 260, 244
-0.992828, 273, 17, 304, 48
-0.992829, 73, 1, 136, 64
-0.99283, 77, 253, 108, 284
-0.992833, 373, 149, 404, 180
-0.992837, 425, 33, 456, 64
-0.992837, 49, 133, 80, 164
-0.992838, 201, 217, 232, 248
-0.992842, 293, 33, 324, 64
-0.992844, 273, 185, 304, 216
-0.992845, 49, 193, 80, 224
-0.992846, 261, 137, 292, 168
-0.992847, 217, 169, 248, 200
-0.992852, 189, 201, 220, 232
-0.992859, 369, 21, 400, 52
-0.99286, 49, 157, 80, 188
-0.992867, 177, 13, 208, 44
-0.992867, 13, 117, 44, 148
-0.992868, 157, 173, 188, 204
-0.992873, 321, 173, 352, 204
-0.992885, 141, 237, 172, 268
-0.992887, 393, 109, 424, 140
-0.992891, 57, 225, 88, 256
-0.992899, 25, 49, 56, 176
-0.992907, 277, 197, 308, 228
-0.992912, 317, 17, 348, 48
-0.992917, 25, 173, 56, 204
-0.99292, 349, 145, 380, 176
-0.993008, 261, 1, 292, 128
-0.993051, 121, 257, 184, 320
-0.993117, 193, 41, 320, 104
-0.993129, 233, 97, 264, 224
-0.993142, 1, 189, 128, 220
-0.993239, 65, 213, 192, 244
-0.993252, 225, 25, 480, 88
-0.993289, 145, 229, 272, 260
-0.993333, 241, 161, 368, 192
-0.993433, 173, 209, 188, 272
-0.993441, 193, 173, 320, 204
-0.993459, 113, 185, 240, 216
-0.993512, 145, 25, 272, 88
-0.993514, 193, 249, 320, 312
-0.993558, 201, 249, 264, 312
-0.993579, 1, 145, 500, 208
-0.993591, 17, 273, 144, 336
-0.993641, 1, 209, 500, 272
-0.993654, 113, 225, 144, 352
-0.993665, 369, 129, 496, 160
-0.993668, 407, 153, 422, 216
-0.993685, 369, 157, 496, 188
-0.993691, 321, 141, 448, 172
-0.993701, 245, 209, 276, 336
-0.993734, 41, 49, 72, 176
-0.993775, 369, 1, 496, 32
-0.993831, 289, 173, 416, 204
-0.993832, 241, 149, 368, 180
-0.993867, 149, 169, 164, 232
-0.993876, 321, 193, 352, 320
-0.993881, 163, 217, 178, 280
-0.993895, 65, 225, 192, 256
-0.993908, 105, 81, 168, 144
-0.993908, 137, 1, 168, 128
-0.993908, 225, 241, 480, 368
-0.993915, 49, 189, 176, 220
-0.993975, 157, 177, 172, 240
-0.994039, 321, 153, 448, 184
-0.994064, 197, 241, 228, 368
-0.994083, 425, 145, 440, 208
-0.9941, 333, 1, 348, 64
-0.994135, 145, 205, 272, 236
-0.994141, 415, 121, 430, 184
-0.994159, 183, 209, 198, 272
-0.994175, 81, 241, 96, 304
-0.994183, 293, 145, 308, 208
-0.994184, 145, 129, 272, 192
-0.994189, 129, 185, 144, 248
-0.99419, 233, 17, 264, 144
-0.994213, 343, 1, 358, 64
-0.994217, 293, 49, 324, 176
-0.994225, 129, 1, 384, 64
-0.994238, 139, 185, 154, 248
-0.994253, 113, 49, 176, 176
-0.994259, 47, 129, 62, 192
-0.99427, 377, 137, 392, 200
-0.994289, 47, 161, 62, 224
-0.994291, 49, 1, 176, 64
-0.994296, 67, 129, 82, 192
-0.994297, 209, 193, 336, 224
-0.994301, 299, 145, 314, 208
-0.994303, 289, 1, 416, 32
-0.994304, 73, 177, 88, 240
-0.994324, 65, 105, 320, 168
-0.994331, 1, 201, 128, 232
-0.994334, 145, 173, 272, 204
-0.994348, 167, 193, 182, 256
-0.994349, 409, 97, 472, 352
-0.994351, 417, 153, 432, 216
-0.994361, 433, 121, 448, 184
-0.994379, 401, 121, 416, 184
-0.99438, 97, 49, 224, 176
-0.994395, 305, 161, 320, 224
-0.994397, 225, 209, 352, 240
-0.994398, 285, 129, 300, 192
-0.994433, 65, 237, 192, 268
-0.994445, 1, 249, 256, 312
-0.994463, 289, 49, 416, 112
-0.994515, 427, 1, 442, 64
-0.994515, 289, 185, 416, 216
-0.994518, 81, 201, 96, 264
-0.994525, 341, 137, 356, 200
-0.994551, 347, 145, 362, 208
-0.994599, 289, 29, 416, 60
-0.994601, 161, 113, 416, 176
-0.994602, 65, 81, 192, 144
-0.994634, 145, 313, 272, 375
-0.99464, 179, 177, 194, 240
-0.994643, 177, 105, 240, 168
-0.994647, 451, 129, 466, 192
-0.994673, 65, 177, 192, 208
-0.994686, 337, 177, 368, 304
-0.994694, 271, 137, 286, 200
-0.994705, 149, 1, 180, 128
-0.994752, 1, 105, 500, 168
-0.994762, 335, 137, 350, 200
-0.99477, 57, 113, 72, 176
-0.994773, 401, 161, 416, 224
-0.994812, 5, 225, 36, 352
-0.99482, 385, 129, 400, 192
-0.994826, 299, 185, 314, 248
-0.994842, 313, 177, 328, 240
-0.994857, 407, 121, 422, 184
-0.994883, 337, 17, 464, 48
-0.994901, 153, 209, 168, 272
-0.994909, 193, 73, 320, 136
-0.994911, 69, 105, 84, 168
-0.994922, 1, 177, 128, 208
-0.994942, 293, 169, 308, 232
-0.994945, 109, 193, 124, 256
-0.994972, 373, 161, 388, 224
-0.994974, 445, 145, 460, 208
-0.994982, 145, 217, 272, 248
-0.994987, 241, 185, 256, 248
-0.995, 1, 33, 64, 160
-0.995002, 427, 121, 442, 184
-0.99501, 273, 197, 400, 228
-0.995021, 129, 145, 384, 208
-0.99505, 53, 137, 68, 200
-0.995056, 75, 233, 90, 296
-0.995065, 289, 17, 416, 48
-0.995068, 369, 141, 496, 172
-0.99507, 33, 145, 288, 208
-0.995083, 235, 161, 250, 224
-0.995086, 97, 193, 112, 256
-0.995092, 351, 1, 366, 64
-0.995113, 17, 129, 144, 160
-0.995125, 443, 113, 458, 176
-0.995129, 391, 137, 406, 200
-0.995135, 103, 193, 118, 256
-0.995135, 225, 201, 480, 264
-0.995137, 273, 225, 400, 352
-0.99516, 173, 177, 188, 240
-0.99517, 89, 217, 104, 280
-0.995172, 193, 221, 320, 252
-0.995196, 143, 209, 158, 272
-0.995222, 193, 97, 224, 224
-0.995223, 119, 193, 134, 256
-0.995226, 359, 1, 374, 64
-0.995235, 353, 145, 368, 208
-0.995242, 53, 129, 84, 375
-0.99525, 245, 209, 260, 272
-0.995263, 267, 1, 282, 64
-0.995266, 281, 161, 296, 224
-0.995279, 71, 153, 86, 216
-0.995283, 163, 169, 178, 232
-0.995286, 181, 233, 196, 296
-0.995289, 353, 169, 480, 200
-0.995304, 467, 121, 482, 184
-0.995339, 273, 137, 400, 168
-0.99534, 5, 105, 20, 168
-0.995348, 253, 49, 284, 176
-0.995349, 41, 129, 56, 192
-0.995361, 137, 105, 200, 168
-0.995365, 475, 113, 490, 176
-0.995377, 369, 217, 496, 280
-0.995379, 343, 25, 358, 88
-0.995407, 473, 137, 488, 200
-0.995422, 63, 105, 78, 168
-0.995424, 395, 105, 410, 168
-0.995454, 47, 105, 62, 168
-0.995459, 353, 109, 480, 140
-0.99547, 387, 169, 402, 232
-0.995481, 209, 33, 336, 64
-0.995495, 421, 105, 436, 168
-0.995514, 365, 161, 380, 224
-0.995536, 21, 105, 36, 168
-0.995538, 369, 137, 384, 200
-0.995543, 171, 233, 186, 296
-0.995543, 161, 25, 224, 88
-0.995553, 483, 113, 498, 176
-0.995573, 327, 9, 342, 72
-0.995574, 219, 161, 234, 224
-0.995579, 411, 97, 426, 160
-0.995591, 55, 169, 70, 232
-0.995602, 189, 217, 204, 280
-0.995606, 407, 177, 422, 240
-0.995618, 323, 177, 338, 240
-0.995632, 335, 25, 350, 88
-0.995655, 375, 185, 390, 248
-0.99566, 41, 161, 56, 224
-0.995662, 307, 185, 322, 248
-0.995664, 417, 177, 432, 240
-0.995674, 279, 129, 294, 192
-0.995683, 31, 105, 46, 168
-0.995683, 69, 265, 84, 328
-0.995688, 141, 161, 156, 224
-0.99572, 241, 233, 368, 296
-0.995725, 87, 241, 102, 304
-0.995735, 485, 145, 500, 208
-0.995742, 9, 193, 24, 256
-0.99575, 177, 281, 240, 344
-0.995765, 289, 209, 416, 240
-0.995766, 195, 225, 210, 288
-0.995776, 395, 161, 410, 224
-0.995776, 165, 241, 180, 304
-0.995777, 1, 225, 128, 256
-0.995784, 431, 145, 446, 208
-0.995789, 89, 193, 104, 256
-0.99579, 79, 153, 94, 216
-0.995801, 65, 193, 80, 256
-0.995807, 1, 241, 128, 272
-0.995814, 189, 193, 204, 256
-0.995826, 161, 189, 288, 220
-0.995831, 1, 213, 128, 244
-0.995838, 185, 1, 200, 64
-0.995848, 161, 225, 416, 288
-0.995852, 457, 129, 472, 192
-0.995858, 205, 97, 236, 224
-0.995861, 39, 105, 54, 168
-0.995861, 65, 249, 192, 280
-0.995865, 241, 173, 368, 204
-0.995888, 435, 1, 450, 64
-0.9959, 225, 21, 352, 52
-0.9959, 457, 1, 472, 64
-0.995903, 193, 161, 320, 192
-0.995907, 89, 49, 152, 176
-0.995909, 113, 241, 240, 272
-0.995917, 19, 177, 34, 240
-0.995921, 193, 141, 320, 172
-0.995928, 131, 209, 146, 272
-0.995936, 75, 113, 90, 176
-0.995943, 33, 297, 160, 360
-0.995949, 157, 233, 172, 296
-0.995951, 71, 209, 86, 272
-0.995976, 51, 225, 66, 288
-0.995989, 379, 161, 394, 224
-0.995993, 33, 165, 160, 196
-0.996022, 17, 113, 144, 144
-0.996047, 449, 105, 464, 168
-0.99605, 65, 281, 128, 344
-0.996065, 89, 257, 152, 320
-0.996066, 285, 193, 300, 256
-0.99607, 297, 121, 312, 184
-0.996074, 473, 49, 488, 112
-0.996076, 145, 81, 272, 144
-0.996085, 1, 25, 500, 88
-0.996096, 57, 193, 72, 256
-0.996107, 341, 113, 356, 176
-0.99611, 273, 161, 288, 224
-0.996133, 225, 89, 480, 152
-0.996192, 97, 1, 224, 32
-0.996251, 313, 81, 376, 144
-0.996324, 69, 97, 100, 352
-0.996343, 37, 129, 68, 375
-0.996348, 337, 181, 464, 212
-0.996374, 369, 1, 400, 256
-0.996467, 1, 233, 500, 296
-0.996493, 337, 29, 464, 60
-0.996537, 403, 149, 418, 180
-0.996543, 241, 9, 368, 40
-0.99655, 129, 305, 192, 368
-0.996555, 145, 1, 272, 32
-0.996562, 161, 225, 176, 256
-0.996567, 17, 253, 144, 284
-0.996579, 137, 81, 200, 208
-0.99663, 17, 141, 144, 172
-0.996646, 421, 1, 452, 256
-0.996647, 297, 149, 312, 180
-0.996696, 161, 13, 288, 44
-0.996697, 33, 153, 160, 184
-0.996706, 321, 129, 448, 160
-0.996707, 161, 29, 288, 60
-0.99671, 33, 273, 288, 336
-0.996734, 341, 1, 372, 256
-0.996797, 269, 97, 300, 352
-0.996831, 289, 41, 416, 72
-0.996848, 241, 65, 368, 128
-0.996862, 65, 113, 192, 144
-0.996869, 1, 1, 256, 64
-0.99689, 307, 193, 322, 224
-0.9969, 181, 233, 196, 264
-0.996912, 155, 173, 170, 204
-0.99693, 1, 1, 500, 64
-0.996952, 25, 97, 56, 352
-0.996966, 445, 1, 476, 256
-0.996968, 233, 241, 296, 304
-0.996991, 411, 153, 426, 184
-0.997014, 177, 313, 240, 375
-0.997022, 75, 125, 90, 156
-0.99706, 81, 305, 208, 368
-0.997088, 305, 109, 432, 140
-0.997093, 181, 97, 212, 352
-0.997096, 291, 197, 306, 228
-0.997102, 157, 129, 188, 375
-0.997106, 155, 233, 170, 264
-0.997115, 121, 129, 152, 375
-0.997127, 353, 1, 384, 256
-0.99713, 301, 205, 316, 236
-0.997145, 325, 1, 356, 256
-0.997155, 51, 177, 66, 208
-0.997155, 49, 273, 176, 304
-0.997157, 147, 169, 162, 200
-0.997168, 141, 97, 172, 352
-0.997169, 427, 13, 442, 44
-0.997172, 385, 129, 400, 160
-0.997181, 81, 129, 112, 375
-0.997202, 169, 237, 184, 268
-0.997208, 337, 193, 464, 224
-0.997221, 273, 125, 400, 156
-0.997232, 129, 161, 256, 192
-0.997237, 97, 25, 352, 88
-0.99724, 305, 233, 432, 296
-0.997242, 185, 1, 216, 256
-0.997246, 159, 185, 174, 216
-0.997246, 71, 189, 86, 220
-0.997246, 241, 45, 368, 76
-0.99725, 169, 209, 184, 240
-0.997263, 299, 193, 314, 224
-0.997273, 181, 221, 196, 252
-0.99729, 179, 1, 194, 32
-0.997296, 169, 97, 200, 352
-0.997306, 335, 29, 350, 60
-0.997316, 167, 221, 182, 252
-0.997319, 125, 193, 140, 224
-0.997326, 173, 221, 188, 252
-0.99733, 303, 153, 318, 184
-0.997336, 397, 153, 412, 184
-0.99734, 409, 125, 424, 156
-0.997344, 41, 169, 56, 200
-0.997352, 439, 121, 454, 152
-0.997355, 345, 29, 360, 60
-0.997356, 351, 17, 366, 48
-0.997358, 459, 1, 474, 32
-0.99736, 69, 133, 84, 164
-0.997369, 17, 185, 32, 216
-0.997373, 313, 197, 328, 228
-0.997388, 447, 125, 462, 156
-0.9974, 401, 137, 416, 168
-0.997403, 47, 125, 62, 156
-0.997416, 69, 145, 84, 176
-0.997424, 381, 1, 412, 256
-0.997432, 201, 81, 264, 144
-0.997435, 249, 1, 280, 256
-0.997451, 405, 161, 420, 192
-0.997458, 435, 145, 450, 176
-0.997473, 167, 181, 182, 212
-0.997476, 429, 129, 444, 160
-0.997478, 23, 189, 38, 220
-0.997479, 369, 53, 496, 84
-0.997496, 287, 137, 302, 168
-0.997498, 425, 153, 440, 184
-0.9975, 441, 137, 456, 168
-0.9975, 201, 33, 264, 96
-0.997504, 191, 229, 206, 260
-0.997506, 213, 1, 244, 256
-0.997506, 419, 173, 434, 204
-0.997506, 163, 241, 178, 272
-0.99752, 465, 137, 480, 168
-0.997521, 17, 197, 32, 228
-0.997525, 129, 281, 192, 344
-0.997526, 173, 1, 188, 32
-0.997527, 81, 201, 96, 232
-0.997531, 75, 201, 90, 232
-0.997533, 409, 113, 424, 144
-0.997536, 93, 97, 124, 352
-0.997539, 389, 169, 404, 200
-0.99754, 377, 157, 392, 188
-0.99754, 339, 141, 354, 172
-0.99754, 409, 1, 440, 256
-0.997547, 455, 141, 470, 172
-0.997549, 293, 97, 324, 352
-0.997552, 289, 153, 304, 184
-0.997555, 31, 121, 46, 152
-0.997556, 41, 125, 56, 156
-0.997556, 313, 185, 328, 216
-0.997559, 265, 17, 280, 48
-0.997562, 463, 121, 478, 152
-0.997565, 69, 113, 84, 144
-0.997567, 137, 201, 152, 232
-0.997568, 375, 169, 390, 200
-0.997574, 129, 81, 192, 144
-0.997582, 425, 173, 440, 204
-0.997586, 81, 245, 96, 276
-0.997588, 183, 185, 198, 216
-0.997588, 9, 97, 40, 352
-0.99759, 343, 161, 358, 192
-0.997592, 417, 161, 432, 192
-0.997597, 1, 293, 128, 324
-0.997601, 35, 177, 50, 208
-0.997604, 257, 89, 320, 152
-0.997607, 139, 213, 154, 244
-0.997608, 61, 125, 76, 156
-0.997617, 161, 241, 288, 272
-0.99762, 303, 33, 318, 64
-0.997633, 307, 205, 322, 236
-0.997634, 307, 173, 322, 204
-0.997636, 9, 193, 24, 224
-0.997643, 281, 65, 312, 320
-0.997649, 383, 169, 398, 200
-0.997658, 465, 1, 480, 32
-0.997659, 175, 237, 190, 268
-0.99766, 143, 185, 158, 216
-0.997671, 369, 145, 384, 176
-0.997678, 49, 285, 176, 316
-0.997686, 57, 177, 72, 208
-0.997687, 197, 177, 212, 208
-0.997689, 455, 129, 470, 160
-0.997691, 397, 169, 412, 200
-0.997701, 245, 217, 260, 248
-0.997704, 109, 97, 140, 352
-0.997707, 473, 133, 488, 164
-0.99771, 347, 145, 362, 176
-0.997715, 433, 1, 464, 256
-0.997717, 233, 65, 264, 320
-0.997726, 353, 149, 368, 180
-0.997727, 45, 137, 60, 168
-0.997741, 25, 125, 40, 156
-0.997749, 411, 169, 426, 200
-0.997754, 393, 17, 408, 48
-0.997754, 93, 193, 108, 224
-0.997756, 309, 29, 324, 60
-0.997758, 369, 41, 496, 72
-0.997762, 63, 141, 78, 172
-0.997766, 329, 33, 344, 64
-0.997767, 295, 209, 310, 240
-0.997768, 209, 97, 240, 352
-0.997775, 361, 21, 376, 52
-0.997788, 447, 145, 462, 176
-0.997799, 305, 221, 432, 252
-0.997803, 393, 1, 408, 32
-0.997804, 165, 1, 180, 32
-0.997808, 313, 1, 344, 256
-0.99781, 465, 1, 496, 256
-0.997812, 279, 21, 294, 52
-0.997814, 161, 213, 176, 244
-0.997818, 51, 157, 66, 188
-0.997822, 197, 97, 228, 352
-0.997824, 77, 137, 92, 168
-0.997824, 401, 109, 416, 140
-0.997825, 77, 217, 92, 248
-0.997828, 363, 161, 378, 192
-0.997832, 133, 213, 148, 244
-0.997833, 469, 113, 484, 144
-0.997834, 481, 137, 496, 168
-0.997836, 373, 129, 404, 375
-0.997839, 171, 193, 186, 224
-0.997845, 427, 25, 442, 56
-0.997851, 343, 9, 358, 40
-0.997852, 479, 1, 494, 32
-0.997855, 187, 9, 202, 40
-0.997856, 99, 193, 114, 224
-0.997863, 449, 1, 464, 32
-0.997868, 269, 137, 284, 168
-0.997868, 337, 173, 352, 204
-0.99787, 193, 305, 320, 368
-0.997872, 161, 197, 176, 228
-0.997874, 269, 1, 300, 256
-0.997879, 223, 165, 238, 196
-0.99788, 161, 273, 288, 336
-0.997881, 1, 269, 128, 300
-0.997926, 257, 97, 288, 352
-0.997968, 65, 133, 192, 164
-0.997976, 97, 249, 352, 312
-0.998014, 161, 41, 288, 72
-0.998025, 397, 65, 428, 320
-0.998044, 113, 13, 240, 44
-0.998079, 45, 33, 76, 288
-0.998111, 241, 221, 368, 252
-0.998127, 433, 97, 464, 352
-0.998156, 193, 1, 320, 32
-0.998165, 1, 81, 256, 144
-0.998174, 369, 97, 496, 128
-0.998198, 173, 1, 204, 256
-0.998201, 193, 113, 320, 144
-0.998242, 337, 209, 464, 240
-0.998254, 385, 97, 416, 352
-0.99827, 349, 129, 380, 375
-0.998273, 197, 1, 228, 256
-0.998295, 293, 1, 324, 256
-0.99831, 17, 101, 144, 132
-0.998311, 225, 233, 352, 264
-0.99835, 57, 33, 88, 288
-0.998356, 113, 345, 240, 375
-0.998372, 337, 129, 368, 375
-0.998375, 25, 183, 88, 198
-0.998376, 369, 171, 432, 186
-0.998378, 257, 49, 500, 112
-0.998384, 153, 235, 216, 250
-0.998391, 33, 297, 288, 360
-0.998393, 81, 165, 208, 196
-0.998396, 305, 97, 336, 352
-0.998401, 321, 129, 352, 375
-0.99841, 129, 189, 192, 204
-0.99841, 89, 197, 152, 212
-0.998411, 129, 203, 192, 218
-0.998412, 393, 133, 456, 148
-0.998415, 257, 155, 320, 170
-0.998417, 361, 129, 392, 375
-0.998426, 69, 129, 84, 256
-0.998434, 41, 123, 104, 138
-0.998434, 153, 227, 216, 242
-0.998435, 361, 147, 424, 162
-0.998445, 121, 235, 184, 250
-0.998446, 281, 205, 344, 220
-0.998448, 385, 153, 448, 168
-0.998451, 129, 195, 192, 210
-0.998452, 1, 187, 64, 202
-0.998453, 393, 127, 456, 142
-0.998453, 361, 159, 424, 174
-0.998454, 385, 27, 448, 42
-0.998458, 385, 3, 448, 18
-0.998459, 141, 241, 172, 256
-0.99846, 369, 181, 432, 196
-0.99846, 401, 183, 432, 198
-0.998461, 305, 15, 368, 30
-0.998461, 425, 171, 456, 186
-0.998461, 193, 177, 256, 192
-0.998461, 425, 165, 456, 180
-0.998462, 329, 169, 392, 184
-0.998462, 265, 169, 328, 184
-0.998462, 257, 101, 384, 132
-0.998462, 289, 155, 352, 170
-0.998463, 453, 165, 484, 180
-0.998464, 373, 141, 404, 156
-0.998464, 33, 173, 96, 188
-0.998464, 145, 257, 272, 288
-0.998464, 385, 11, 448, 26
-0.998465, 165, 241, 196, 256
-0.998465, 145, 181, 208, 196
-0.998466, 409, 157, 472, 172
-0.998466, 357, 153, 388, 168
-0.998466, 305, 187, 336, 202
-0.998466, 441, 147, 472, 162
-0.99847, 297, 33, 360, 48
-0.998472, 385, 143, 448, 158
-0.998472, 169, 211, 200, 226
-0.998473, 121, 229, 184, 244
-0.998474, 289, 35, 320, 50
-0.998474, 25, 141, 88, 156
-0.998475, 161, 197, 224, 212
-0.998475, 185, 237, 216, 252
-0.998475, 313, 27, 344, 42
-0.998476, 17, 125, 48, 140
-0.998476, 25, 181, 56, 196
-0.998477, 333, 177, 364, 192
-0.998477, 137, 215, 200, 230
-0.998477, 433, 157, 464, 172
-0.998478, 425, 127, 488, 142
-0.998478, 425, 19, 456, 34
-0.998478, 89, 195, 120, 210
-0.998479, 145, 221, 208, 236
-0.998479, 145, 243, 208, 258
-0.998479, 49, 197, 80, 212
-0.998479, 129, 209, 192, 224
-0.99848, 277, 163, 308, 178
-0.99848, 425, 149, 456, 164
-0.998481, 285, 213, 316, 228
-0.998481, 429, 141, 460, 156
-0.998481, 141, 225, 172, 240
-0.998482, 325, 39, 356, 54
-0.998482, 293, 169, 324, 184
-0.998483, 421, 179, 452, 194
-0.998483, 69, 211, 100, 226
-0.998483, 157, 223, 188, 238
-0.998483, 5, 135, 36, 150
-0.998483, 321, 145, 384, 160
-0.998484, 429, 35, 460, 50
-0.998484, 17, 197, 80, 212
-0.998484, 469, 135, 500, 150
-0.998484, 341, 35, 372, 50
-0.998485, 141, 213, 172, 228
-0.998485, 173, 11, 204, 26
-0.998485, 73, 251, 104, 266
-0.998485, 137, 3, 200, 18
-0.998486, 33, 141, 64, 156
-0.998486, 69, 195, 100, 210
-0.998486, 273, 197, 336, 212
-0.998487, 445, 115, 476, 130
-0.998487, 357, 147, 388, 162
-0.998488, 225, 173, 288, 188
-0.998488, 57, 175, 88, 190
-0.998488, 313, 21, 376, 36
-0.998489, 369, 177, 400, 192
-0.99849, 41, 131, 104, 146
-0.998491, 45, 131, 76, 146
-0.998491, 297, 41, 360, 56
-0.998491, 337, 153, 368, 168
-0.998492, 445, 127, 476, 142
-0.998492, 461, 149, 492, 164
-0.998493, 177, 229, 208, 244
-0.998493, 53, 289, 84, 304
-0.998493, 161, 183, 192, 198
-0.998494, 349, 1, 380, 16
-0.998495, 385, 21, 448, 36
-0.998496, 369, 65, 496, 96
-0.998496, 325, 33, 356, 48
-0.998496, 377, 165, 440, 180
-0.998497, 417, 157, 448, 172
-0.998497, 329, 39, 392, 54
-0.998499, 257, 37, 320, 52
-0.9985, 1, 129, 32, 144
-0.998501, 369, 147, 400, 162
-0.998501, 33, 131, 64, 146
-0.998502, 161, 205, 224, 220
-0.998503, 345, 9, 408, 24
-0.998503, 385, 33, 448, 48
-0.998504, 249, 145, 312, 160
-0.998504, 385, 139, 416, 154
-0.998505, 457, 61, 488, 76
-0.998505, 329, 177, 392, 192
-0.998506, 409, 163, 472, 178
-0.998506, 1, 25, 128, 88
-0.998506, 457, 139, 488, 154
-0.998506, 113, 281, 240, 312
-0.998507, 401, 173, 432, 188
-0.998507, 221, 129, 252, 375
-0.998508, 397, 165, 428, 180
-0.998508, 297, 161, 360, 176
-0.998508, 161, 187, 224, 202
-0.99851, 345, 33, 408, 48
-0.99851, 281, 27, 344, 42
-0.99851, 137, 203, 168, 218
-0.99851, 69, 205, 100, 220
-0.998511, 17, 137, 48, 152
-0.998512, 33, 167, 96, 182
-0.998512, 57, 201, 120, 216
-0.998512, 249, 139, 312, 154
-0.998515, 25, 189, 88, 204
-0.998516, 57, 193, 120, 208
-0.998517, 81, 205, 144, 220
-0.998518, 141, 173, 172, 188
-0.998518, 17, 131, 80, 146
-0.998519, 321, 31, 384, 46
-0.998519, 121, 223, 184, 238
-0.998523, 329, 163, 392, 178
-0.998524, 273, 31, 304, 46
-0.998524, 417, 133, 480, 148
-0.998524, 329, 27, 360, 42
-0.998524, 17, 131, 48, 146
-0.998526, 425, 131, 456, 146
-0.998527, 209, 175, 240, 190
-0.998527, 153, 195, 184, 210
-0.998527, 157, 5, 188, 20
-0.998527, 257, 163, 320, 178
-0.998527, 345, 153, 408, 168
-0.998528, 61, 189, 92, 204
-0.998528, 305, 3, 368, 18
-0.998529, 33, 159, 96, 174
-0.998529, 169, 197, 200, 212
-0.99853, 369, 133, 432, 148
-0.99853, 157, 215, 188, 230
-0.99853, 37, 173, 68, 188
-0.998531, 149, 183, 180, 198
-0.998531, 53, 137, 84, 152
-0.998531, 345, 3, 408, 18
-0.998532, 121, 241, 184, 256
-0.998532, 405, 135, 436, 150
-0.998532, 65, 137, 96, 152
-0.998533, 281, 149, 344, 164
-0.998534, 161, 213, 224, 228
-0.998534, 177, 237, 240, 252
-0.998534, 141, 219, 172, 234
-0.998534, 273, 137, 304, 152
-0.998534, 185, 183, 248, 198
-0.998535, 333, 15, 364, 30
-0.998535, 117, 195, 148, 210
-0.998535, 345, 15, 408, 30
-0.998535, 353, 31, 384, 46
-0.998536, 425, 13, 456, 28
-0.998536, 385, 159, 448, 174
-0.998537, 425, 151, 488, 166
-0.998537, 9, 177, 72, 192
-0.998538, 249, 187, 312, 202
-0.998538, 105, 207, 168, 222
-0.998539, 341, 29, 372, 44
-0.998539, 169, 205, 200, 220
-0.998541, 289, 187, 352, 202
-0.998541, 401, 175, 464, 190
-0.998542, 321, 151, 384, 166
-0.998542, 425, 25, 456, 40
-0.998542, 345, 23, 408, 38
-0.998543, 409, 183, 472, 198
-0.998543, 73, 237, 136, 252
-0.998543, 65, 127, 96, 142
-0.998544, 57, 181, 88, 196
-0.998546, 157, 203, 188, 218
-0.998546, 289, 167, 352, 182
-0.998547, 281, 21, 344, 36
-0.998547, 289, 175, 352, 190
-0.998547, 357, 169, 388, 184
-0.998548, 13, 187, 44, 202
-0.998548, 401, 169, 464, 184
-0.998548, 169, 9, 232, 24
-0.998549, 201, 215, 264, 230
-0.998549, 257, 209, 320, 224
-0.998549, 193, 181, 224, 196
-0.99855, 389, 153, 420, 168
-0.998551, 345, 141, 408, 156
-0.998553, 289, 161, 320, 176
-0.998554, 393, 121, 456, 136
-0.998554, 225, 181, 288, 196
-0.998554, 373, 171, 404, 186
-0.998554, 105, 191, 168, 206
-0.998555, 41, 243, 104, 258
-0.998555, 405, 129, 436, 144
-0.998556, 469, 155, 500, 170
-0.998556, 433, 163, 496, 178
-0.998558, 349, 23, 380, 38
-0.998558, 17, 121, 80, 136
-0.998558, 161, 3, 224, 18
-0.998559, 153, 189, 184, 204
-0.998559, 409, 15, 472, 30
-0.998561, 389, 145, 420, 160
-0.998561, 353, 165, 416, 180
-0.998562, 289, 207, 320, 222
-0.998562, 173, 187, 204, 202
-0.998563, 265, 179, 328, 194
-0.998563, 389, 173, 420, 188
-0.998563, 129, 273, 384, 336
-0.998563, 417, 5, 480, 20
-0.998563, 169, 221, 200, 236
-0.998563, 445, 133, 476, 148
-0.998563, 433, 157, 496, 172
-0.998564, 413, 173, 444, 188
-0.998564, 409, 115, 472, 130
-0.998565, 433, 125, 464, 140
-0.998565, 49, 237, 112, 252
-0.998566, 425, 139, 488, 154
-0.998567, 289, 143, 352, 158
-0.998567, 345, 185, 408, 200
-0.998567, 73, 217, 136, 232
-0.998567, 1, 1, 128, 128
-0.998568, 65, 231, 128, 246
-0.998569, 157, 209, 188, 224
-0.998569, 137, 249, 200, 264
-0.998571, 185, 193, 248, 208
-0.998571, 297, 195, 328, 210
-0.998571, 441, 141, 472, 156
-0.998571, 225, 35, 288, 50
-0.998572, 113, 25, 240, 56
-0.998576, 233, 209, 296, 224
-0.998576, 133, 189, 164, 204
-0.998577, 385, 187, 448, 202
-0.998579, 425, 121, 488, 136
-0.99858, 457, 133, 488, 148
-0.998582, 385, 133, 416, 148
-0.998582, 137, 9, 200, 24
-0.998583, 353, 161, 384, 176
-0.998584, 409, 167, 440, 182
-0.998591, 153, 241, 184, 256
-0.998594, 53, 145, 84, 160
-0.998601, 301, 207, 332, 222
-0.998602, 173, 235, 204, 250
-0.998609, 169, 5, 200, 20
-0.998613, 75, 129, 90, 256
-0.998613, 37, 179, 68, 194
-0.99862, 321, 97, 448, 128
-0.998622, 405, 155, 436, 170
-0.998643, 333, 145, 364, 160
-0.998649, 45, 121, 76, 136
-0.998651, 285, 153, 316, 168
-0.998671, 95, 177, 110, 304
-0.998682, 157, 233, 188, 248
-0.998692, 77, 177, 92, 304
-0.998711, 65, 177, 80, 304
-0.998712, 97, 261, 224, 292
-0.998729, 375, 129, 390, 256
-0.998759, 63, 113, 78, 240
-0.998773, 149, 161, 164, 288
-0.998784, 109, 177, 124, 304
-0.998787, 171, 161, 186, 288
-0.99879, 129, 177, 144, 304
-0.998798, 49, 1, 176, 32
-0.998803, 1, 257, 500, 320
-0.998811, 387, 113, 402, 240
-0.998817, 415, 113, 430, 240
-0.998818, 409, 97, 440, 352
-0.998819, 129, 113, 256, 144
-0.998826, 193, 249, 448, 312
-0.998829, 177, 161, 192, 288
-0.998852, 241, 113, 368, 144
-0.998853, 123, 177, 138, 304
-0.998854, 293, 129, 308, 256
-0.998858, 301, 129, 316, 256
-0.998862, 245, 97, 276, 352
-0.998863, 161, 273, 288, 304
-0.998869, 89, 177, 104, 304
-0.998878, 1, 81, 500, 144
-0.998881, 103, 177, 118, 304
-0.998891, 307, 145, 322, 272
-0.998901, 401, 113, 416, 240
-0.998901, 285, 113, 300, 240
-0.998901, 165, 161, 180, 288
-0.998906, 143, 177, 158, 304
-0.99891, 59, 177, 74, 304
-0.998911, 55, 97, 70, 224
-0.998913, 273, 97, 288, 224
-0.998928, 115, 177, 130, 304
-0.998929, 97, 33, 224, 96
-0.998932, 279, 97, 294, 224
-0.998933, 341, 129, 356, 256
-0.998935, 157, 33, 188, 288
-0.998936, 113, 37, 240, 68
-0.998939, 177, 101, 304, 132
-0.998944, 435, 1, 450, 128
-0.998951, 81, 129, 208, 192
-0.998967, 71, 177, 86, 304
-0.998974, 193, 257, 320, 288
-0.998977, 183, 193, 198, 320
-0.998978, 381, 129, 396, 256
-0.99898, 45, 97, 60, 224
-0.998982, 193, 129, 320, 160
-0.998988, 409, 113, 424, 240
-0.998996, 445, 97, 476, 352
-0.998999, 145, 333, 272, 364
-0.999004, 243, 161, 258, 288
-0.999019, 351, 129, 366, 256
-0.999021, 137, 193, 152, 320
-0.999031, 191, 193, 206, 320
-0.999041, 73, 1, 104, 256
-0.999047, 393, 129, 408, 256
-0.999049, 323, 161, 338, 288
-0.999053, 369, 129, 384, 256
-0.999061, 83, 177, 98, 304
-0.999068, 423, 97, 438, 224
-0.99907, 69, 81, 84, 208
-0.999072, 159, 161, 174, 288
-0.999072, 113, 1, 144, 256
-0.999074, 421, 97, 452, 352
-0.999085, 313, 145, 328, 272
-0.999092, 49, 1, 176, 128
-0.999093, 363, 145, 378, 272
-0.999096, 225, 161, 240, 288
-0.999103, 169, 209, 184, 336
-0.999109, 303, 1, 318, 128
-0.999111, 449, 1, 464, 128
-0.999114, 231, 161, 246, 288
-0.999116, 81, 97, 96, 224
-0.999121, 237, 145, 252, 272
-0.999124, 37, 113, 52, 240
-0.999128, 53, 177, 68, 304
-0.999132, 11, 177, 26, 304
-0.999133, 177, 209, 192, 336
-0.999135, 439, 97, 454, 224
-0.999137, 447, 97, 462, 224
-0.999139, 473, 65, 488, 192
-0.999146, 159, 225, 174, 352
-0.999146, 257, 225, 500, 288
-0.999147, 335, 129, 350, 256
-0.999158, 457, 113, 472, 240
-0.999166, 345, 81, 360, 208
-0.999172, 433, 97, 448, 224
-0.999175, 49, 301, 176, 332
-0.999176, 47, 177, 62, 304
-0.999177, 423, 145, 438, 272
-0.999177, 217, 161, 232, 288
-0.999181, 17, 97, 32, 224
-0.999184, 463, 97, 478, 224
-0.999187, 129, 313, 384, 375
-0.999187, 357, 97, 372, 224
-0.999195, 329, 1, 344, 128
-0.999199, 7, 97, 22, 224
-0.999201, 289, 1, 304, 128
-0.999202, 101, 1, 132, 256
-0.999208, 399, 65, 414, 192
-0.999211, 409, 65, 424, 192
-0.999215, 197, 209, 212, 336
-0.999221, 203, 193, 218, 320
-0.999222, 289, 53, 416, 84
-0.999223, 137, 145, 152, 272
-0.999225, 321, 1, 336, 128
-0.999227, 371, 81, 386, 208
-0.999228, 149, 209, 164, 336
-0.999229, 389, 1, 404, 128
-0.999245, 379, 177, 394, 304
-0.999245, 193, 53, 320, 84
-0.999246, 381, 81, 396, 208
-0.999247, 267, 113, 282, 240
-0.999251, 273, 233, 400, 264
-0.999267, 429, 1, 444, 128
-0.999271, 345, 1, 360, 128
-0.99928, 29, 97, 44, 224
-0.999281, 445, 49, 460, 176
-0.999281, 329, 145, 344, 272
-0.999288, 129, 33, 160, 288
-0.999289, 481, 113, 496, 240
-0.999289, 63, 241, 78, 368
-0.99929, 287, 177, 302, 304
-0.999294, 293, 193, 308, 320
-0.999295, 329, 97, 344, 224
-0.999297, 481, 65, 496, 192
-0.9993, 23, 97, 38, 224
-0.999304, 279, 145, 294, 272
-0.999305, 361, 1, 376, 128
-0.999306, 129, 101, 256, 132
-0.999308, 415, 161, 430, 288
-0.999308, 357, 145, 372, 272
-0.99931, 183, 145, 198, 272
-0.99931, 369, 81, 496, 112
-0.999311, 393, 81, 408, 208
-0.999312, 383, 33, 398, 160
-0.99932, 291, 81, 306, 208
-0.999324, 75, 81, 90, 208
-0.999327, 339, 1, 354, 128
-0.999327, 85, 225, 100, 352
-0.999329, 227, 209, 242, 336
-0.99933, 19, 161, 34, 288
-0.999336, 35, 193, 50, 320
-0.999336, 75, 225, 90, 352
-0.999343, 297, 81, 312, 208
-0.999351, 139, 97, 154, 224
-0.999351, 261, 97, 276, 224
-0.999355, 455, 1, 470, 128
-0.999356, 363, 81, 378, 208
-0.999361, 421, 1, 436, 128
-0.999363, 313, 97, 328, 224
-0.999364, 25, 177, 40, 304
-0.999365, 337, 81, 352, 208
-0.999367, 21, 1, 52, 256
-0.999369, 241, 209, 256, 336
-0.999369, 193, 313, 320, 344
-0.999372, 69, 225, 84, 352
-0.999374, 273, 145, 288, 272
-0.999376, 457, 49, 472, 176
-0.999377, 221, 17, 236, 144
-0.99938, 97, 333, 224, 364
-0.999392, 65, 101, 192, 132
-0.999413, 1, 281, 128, 312
-0.999415, 461, 97, 492, 352
-0.999442, 353, 221, 480, 252
-0.999461, 113, 317, 240, 348
-0.999471, 89, 1, 120, 256
-0.999471, 225, 273, 352, 336
-0.999472, 49, 341, 176, 372
-0.999485, 97, 73, 352, 136
-0.999534, 225, 245, 352, 276
-0.999589, 5, 1, 36, 256
-0.999591, 97, 305, 224, 336
-0.999644, 141, 1, 172, 256
-0.999646, 75, 217, 90, 232
-0.999646, 343, 167, 358, 182
-0.999646, 453, 1, 468, 16
-0.999647, 265, 19, 280, 34
-0.999648, 75, 203, 90, 218
-0.999649, 221, 179, 236, 194
-0.999649, 267, 141, 282, 156
-0.99965, 307, 195, 322, 210
-0.99965, 335, 175, 350, 190
-0.99965, 53, 119, 68, 134
-0.999651, 33, 187, 48, 202
-0.999651, 451, 159, 466, 174
-0.999652, 285, 159, 300, 174
-0.999652, 485, 165, 500, 180
-0.999652, 151, 177, 166, 192
-0.999653, 461, 133, 476, 148
-0.999654, 475, 149, 490, 164
-0.999655, 393, 29, 408, 44
-0.999655, 341, 29, 356, 44
-0.999655, 363, 163, 378, 178
-0.999655, 407, 125, 422, 140
-0.999656, 55, 179, 70, 194
-0.999656, 175, 11, 190, 26
-0.999657, 347, 147, 362, 162
-0.999657, 169, 223, 184, 238
-0.999658, 411, 173, 426, 188
-0.999659, 409, 155, 424, 170
-0.999661, 87, 251, 102, 266
-0.999661, 139, 213, 154, 228
-0.999663, 429, 173, 444, 188
-0.999663, 345, 39, 360, 54
-0.999664, 189, 237, 204, 252
-0.999664, 411, 133, 426, 148
-0.999665, 435, 153, 450, 168
-0.999665, 195, 235, 210, 250
-0.999665, 403, 165, 418, 180
-0.999665, 393, 23, 408, 38
-0.999667, 335, 145, 350, 160
-0.999668, 455, 7, 470, 22
-0.999668, 457, 159, 472, 174
-0.999668, 431, 143, 446, 158
-0.999668, 387, 181, 402, 196
-0.999669, 291, 153, 306, 168
-0.99967, 355, 161, 370, 176
-0.99967, 13, 137, 28, 152
-0.999671, 225, 171, 240, 186
-0.999671, 399, 141, 414, 156
-0.999672, 163, 183, 178, 198
-0.999673, 175, 239, 190, 254
-0.999673, 171, 213, 186, 228
-0.999674, 289, 203, 304, 218
-0.999675, 47, 131, 62, 146
-0.999675, 389, 171, 404, 186
-0.999676, 483, 155, 498, 170
-0.999676, 129, 193, 144, 208
-0.999677, 445, 159, 460, 174
-0.999677, 377, 209, 440, 336
-0.999677, 423, 165, 438, 180
-0.999678, 241, 57, 368, 88
-0.999678, 449, 143, 464, 158
-0.999679, 195, 181, 210, 196
-0.99968, 25, 189, 40, 204
-0.999683, 143, 171, 158, 186
-0.999684, 341, 157, 356, 172
-0.999684, 413, 179, 428, 194
-0.999684, 387, 141, 402, 156
-0.999684, 313, 199, 328, 214
-0.999685, 429, 131, 444, 146
-0.999685, 415, 157, 430, 172
-0.999686, 303, 35, 318, 50
-0.999686, 437, 125, 452, 140
-0.999686, 447, 127, 462, 142
-0.999686, 157, 187, 172, 202
-0.999687, 181, 239, 196, 254
-0.999687, 305, 167, 320, 182
-0.999687, 465, 139, 480, 154
-0.999691, 443, 139, 458, 154
-0.999692, 215, 173, 230, 188
-0.999692, 179, 233, 194, 248
-0.999693, 185, 187, 200, 202
-0.999696, 335, 33, 350, 48
-0.999696, 49, 179, 64, 194
-0.999697, 373, 169, 388, 184
-0.999697, 297, 195, 312, 210
-0.999698, 315, 207, 330, 222
-0.999698, 285, 137, 300, 152
-0.999699, 169, 3, 184, 18
-0.999699, 471, 59, 486, 74
-0.9997, 41, 137, 56, 152
-0.9997, 145, 185, 160, 200
-0.999701, 347, 29, 362, 44
-0.999702, 405, 173, 420, 188
-0.999702, 13, 131, 28, 146
-0.999703, 65, 143, 80, 158
-0.999704, 355, 23, 370, 38
-0.999707, 439, 133, 454, 148
-0.999707, 381, 171, 396, 186
-0.999709, 43, 173, 58, 188
-0.999711, 193, 229, 208, 244
-0.999713, 183, 7, 198, 22
-0.999714, 277, 31, 292, 46
-0.999714, 297, 151, 312, 166
-0.999715, 301, 209, 316, 224
-0.999716, 169, 237, 184, 252
-0.999719, 455, 141, 470, 156
-0.99972, 71, 129, 86, 144
-0.999723, 299, 161, 314, 176
-0.999725, 405, 131, 420, 146
-0.999725, 17, 187, 32, 202
-0.999725, 427, 15, 442, 30
-0.999728, 425, 155, 440, 170
-0.99973, 427, 23, 442, 38
-0.999731, 81, 203, 96, 218
-0.999731, 423, 177, 438, 192
-0.999732, 165, 243, 180, 258
-0.999735, 31, 133, 46, 148
-0.999735, 285, 153, 300, 168
-0.999736, 437, 139, 452, 154
-0.999736, 397, 135, 412, 150
-0.999737, 75, 209, 90, 224
-0.999738, 161, 49, 224, 176
-0.999739, 179, 1, 194, 16
-0.999739, 399, 147, 414, 162
-0.999743, 49, 329, 176, 360
-0.999744, 161, 235, 176, 250
-0.999745, 413, 167, 428, 182
-0.999754, 163, 227, 178, 242
-0.999757, 307, 205, 322, 220
-0.99976, 417, 173, 432, 188
-0.999763, 321, 77, 448, 108
-0.999765, 155, 243, 170, 258
-0.999766, 77, 129, 92, 144
-0.999788, 71, 135, 86, 150
-0.999788, 403, 153, 418, 168
-0.999812, 385, 133, 400, 148
-0.999892, 49, 25, 176, 88
-0.999893, 33, 1, 64, 256
-0.9999, 289, 65, 416, 96
-0.9999, 129, 293, 256, 324
-0.999911, 1, 57, 128, 120
-0.999926, 321, 233, 448, 264
-0.999935, 241, 69, 368, 100
-0.999941, 129, 149, 256, 180
-0.999956, 273, 89, 400, 120
-0.999965, 145, 137, 272, 168
-1.00008, 1, 49, 500, 112
-1.00012, 89, 1, 152, 128
-1.00024, 225, 281, 480, 344
-1.00043, 1, 1, 128, 64
-1.00055, 161, 49, 416, 112
-1.00059, 273, 281, 400, 344
-1.00063, 289, 257, 416, 320
-1.00065, 321, 225, 448, 352
-1.0007, 353, 241, 480, 304
-1.00076, 1, 281, 500, 344
-1.00078, 257, 313, 384, 375
-1.0008, 1, 25, 256, 88
-1.0008, 145, 49, 272, 112
-1.0009, 225, 313, 480, 375
-1.00111, 353, 289, 480, 352
-1.00117, 1, 305, 500, 368
-1.00128, 337, 313, 464, 375
-1.00134, 49, 57, 176, 120
-1.00136, 65, 49, 320, 112
-1.00139, 337, 265, 464, 328
-1.00212, 97, 57, 224, 120
-1.00221, 249, 225, 312, 352
-1.00296, 353, 225, 416, 352
-1.00312, 321, 225, 384, 352
-1.00422, 273, 241, 336, 368
-1.00513, 369, 225, 496, 352
-1.00724, 297, 241, 360, 368
-1.00863, 401, 225, 464, 352
-1.00893, 425, 193, 488, 320
-1.01035, 433, 241, 496, 368
-1.0112, 65, 1, 128, 128
