1945
-0.597329, 1, 97, 500, 341
-0.6971, 1, 1, 500, 256
-0.705825, 1, 1, 500, 341
-0.715225, 161, 97, 416, 341
-0.731715, 193, 1, 448, 341
-0.737396, 33, 1, 288, 341
-0.840991, 65, 97, 320, 341
-0.89716, 209, 97, 336, 341
-0.898399, 1, 161, 500, 288
-0.900436, 1, 209, 500, 336
-0.900688, 257, 97, 500, 341
-0.907889, 161, 161, 416, 288
-0.916715, 161, 97, 288, 341
-0.921572, 81, 97, 208, 341
-0.922675, 257, 97, 384, 341
-0.927378, 65, 193, 320, 320
-0.929986, 113, 209, 240, 336
-0.931639, 257, 1, 384, 341
-0.93506, 1, 113, 500, 240
-0.93638, 17, 97, 144, 341
-0.937418, 145, 1, 272, 341
-0.93791, 337, 1, 464, 341
-0.939472, 161, 177, 288, 304
-0.940073, 169, 177, 232, 304
-0.941395, 257, 145, 500, 272
-0.941475, 137, 209, 200, 336
-0.941572, 305, 97, 432, 341
-0.942147, 209, 145, 336, 272
-0.942284, 193, 209, 448, 336
-0.944874, 281, 129, 344, 256
-0.945798, 249, 129, 312, 256
-0.946032, 209, 1, 336, 341
-0.946615, 65, 129, 320, 256
-0.946852, 257, 145, 384, 272
-0.946969, 193, 145, 256, 272
-0.94762, 161, 113, 416, 240
-0.949152, 305, 129, 368, 256
-0.949388, 217, 145, 280, 272
-0.953195, 353, 97, 480, 341
-0.953934, 33, 177, 160, 304
-0.954123, 81, 1, 208, 341
-0.954259, 329, 161, 392, 288
-0.955566, 17, 1, 144, 341
-0.955682, 113, 209, 176, 336
-0.95726, 209, 161, 272, 224
-0.957871, 121, 209, 184, 272
-0.95825, 209, 1, 336, 256
-0.959116, 305, 129, 432, 256
-0.960256, 193, 193, 256, 320
-0.960388, 249, 153, 312, 216
-0.960514, 153, 201, 216, 264
-0.96228, 345, 137, 408, 200
-0.962624, 321, 209, 384, 336
-0.962638, 129, 233, 192, 296
-0.962808, 353, 257, 416, 320
-0.9632, 289, 209, 416, 336
-0.963897, 297, 145, 360, 208
-0.963934, 161, 129, 288, 256
-0.96464, 209, 193, 336, 320
-0.964752, 89, 249, 152, 312
-0.965105, 129, 1, 256, 256
-0.965456, 57, 257, 120, 320
-0.965537, 281, 177, 344, 304
-0.965602, 113, 161, 240, 288
-0.965754, 105, 273, 168, 336
-0.966114, 321, 145, 384, 208
-0.966524, 217, 193, 280, 320
-0.966985, 185, 169, 248, 232
-0.967135, 353, 113, 416, 240
-0.967332, 273, 153, 336, 216
-0.968491, 65, 281, 128, 341
-0.969416, 33, 1, 288, 256
-0.969715, 89, 193, 152, 320
-0.969972, 329, 113, 392, 240
-0.970138, 377, 137, 440, 200
-0.971331, 97, 201, 160, 264
-0.971492, 353, 233, 416, 296
-0.971642, 257, 1, 384, 256
-0.971784, 33, 265, 96, 328
-0.971788, 241, 97, 368, 224
-0.971806, 241, 177, 304, 304
-0.97186, 193, 161, 320, 224
-0.97234, 345, 209, 408, 336
-0.972791, 409, 281, 472, 341
-0.973103, 313, 169, 376, 232
-0.973659, 161, 273, 224, 336
-0.973687, 281, 185, 344, 248
-0.973722, 345, 161, 408, 224
-0.973734, 321, 201, 384, 264
-0.973912, 145, 201, 272, 264
-0.973919, 313, 233, 376, 296
-0.974164, 353, 161, 416, 288
-0.974298, 97, 233, 224, 296
-0.974776, 257, 145, 384, 208
-0.974862, 177, 193, 240, 256
-0.974885, 129, 161, 192, 288
-0.975094, 153, 233, 216, 296
-0.975415, 261, 129, 292, 256
-0.975522, 141, 217, 172, 280
-0.975682, 221, 145, 252, 272
-0.975722, 177, 193, 208, 320
-0.975862, 57, 193, 120, 320
-0.975916, 353, 129, 480, 256
-0.975997, 225, 185, 288, 248
-0.97604, 225, 137, 288, 200
-0.976299, 281, 281, 344, 341
-0.976326, 161, 217, 192, 280
-0.976343, 185, 249, 248, 312
-0.976429, 193, 185, 224, 248
-0.976511, 281, 209, 344, 272
-0.976615, 185, 281, 248, 341
-0.976819, 1, 65, 500, 192
-0.976927, 109, 249, 140, 312
-0.97694, 121, 185, 184, 248
-0.976958, 237, 153, 268, 216
-0.977254, 309, 129, 340, 256
-0.977351, 33, 257, 160, 320
-0.977464, 321, 129, 352, 256
-0.977515, 9, 265, 72, 328
-0.977533, 117, 193, 148, 320
-0.977613, 365, 137, 396, 200
-0.977712, 257, 97, 500, 224
-0.977808, 17, 193, 80, 320
-0.977828, 277, 153, 308, 216
-0.977904, 65, 233, 128, 296
-0.977929, 257, 177, 320, 240
-0.977954, 377, 241, 440, 304
-0.978179, 377, 265, 440, 328
-0.978235, 433, 265, 496, 328
-0.978243, 337, 145, 464, 208
-0.978321, 265, 153, 296, 216
-0.978353, 189, 177, 220, 304
-0.978578, 337, 281, 400, 341
-0.978629, 237, 145, 268, 272
-0.978649, 157, 209, 188, 336
-0.978683, 329, 257, 392, 320
-0.978689, 193, 193, 320, 256
-0.979071, 289, 81, 416, 208
-0.979094, 177, 201, 208, 264
-0.979135, 129, 209, 160, 336
-0.979264, 217, 281, 280, 341
-0.979287, 249, 129, 280, 256
-0.979291, 205, 193, 236, 320
-0.979501, 65, 193, 192, 256
-0.979515, 337, 129, 368, 256
-0.979591, 293, 129, 324, 256
-0.979863, 209, 169, 240, 232
-0.979949, 189, 281, 220, 341
-0.98011, 145, 225, 272, 288
-0.980127, 377, 209, 440, 336
-0.980159, 141, 209, 172, 336
-0.980303, 97, 273, 224, 336
-0.980437, 309, 145, 340, 208
-0.980471, 185, 217, 248, 280
-0.980571, 145, 281, 272, 341
-0.980573, 401, 137, 464, 200
-0.980737, 117, 217, 148, 280
-0.980783, 329, 145, 360, 208
-0.980806, 209, 145, 240, 272
-0.980855, 381, 137, 412, 200
-0.980938, 17, 177, 80, 240
-0.980945, 337, 1, 464, 256
-0.980968, 57, 265, 88, 328
-0.98121, 201, 193, 264, 256
-0.981212, 265, 97, 328, 341
-0.981213, 137, 281, 200, 341
-0.981313, 97, 257, 128, 320
-0.981349, 353, 137, 384, 200
-0.981396, 369, 209, 496, 336
-0.981483, 177, 281, 208, 341
-0.98152, 277, 145, 308, 272
-0.981697, 289, 153, 320, 216
-0.981775, 241, 177, 368, 240
-0.981899, 289, 169, 416, 232
-0.982107, 209, 97, 272, 224
-0.982131, 349, 145, 380, 272
-0.982144, 209, 281, 336, 341
-0.982215, 393, 137, 424, 200
-0.982337, 221, 161, 252, 224
-0.982368, 17, 193, 144, 256
-0.982639, 305, 281, 368, 341
-0.982749, 121, 241, 152, 304
-0.982808, 341, 145, 372, 208
-0.982859, 225, 97, 288, 341
-0.982931, 97, 225, 160, 288
-0.982944, 249, 129, 312, 192
-0.982961, 377, 145, 440, 272
-0.98298, 145, 177, 272, 240
-0.98312, 349, 249, 380, 312
-0.983156, 193, 1, 448, 256
-0.983176, 17, 281, 144, 341
-0.983255, 97, 281, 128, 341
-0.983317, 97, 113, 224, 240
-0.983466, 361, 273, 392, 336
-0.983679, 353, 265, 480, 328
-0.983914, 109, 281, 140, 341
-0.984081, 193, 97, 256, 341
-0.984107, 289, 281, 416, 341
-0.984127, 273, 81, 336, 208
-0.984139, 393, 281, 424, 341
-0.984286, 49, 217, 176, 280
-0.984302, 253, 145, 284, 208
-0.984409, 305, 81, 368, 208
-0.98441, 177, 257, 304, 320
-0.984448, 365, 233, 396, 296
-0.984689, 245, 185, 276, 248
-0.984712, 209, 249, 272, 312
-0.984753, 369, 161, 432, 224
-0.984842, 129, 217, 160, 280
-0.984858, 73, 193, 136, 256
-0.985043, 17, 233, 80, 296
-0.985092, 273, 129, 336, 192
-0.985184, 365, 209, 396, 336
-0.985297, 185, 257, 216, 320
-0.985297, 205, 281, 236, 341
-0.985348, 17, 1, 144, 256
-0.985479, 365, 161, 396, 288
-0.985507, 137, 241, 168, 304
-0.985546, 241, 281, 304, 341
-0.985565, 361, 113, 392, 240
-0.98572, 1, 145, 64, 272
-0.986017, 1, 225, 128, 288
-0.986115, 405, 129, 436, 192
-0.986149, 173, 257, 204, 320
-0.986205, 305, 257, 368, 320
-0.98643, 153, 129, 216, 256
-0.986432, 1, 169, 128, 232
-0.986548, 273, 217, 400, 280
-0.986589, 125, 273, 156, 336
-0.986613, 33, 129, 160, 256
-0.9867, 209, 217, 272, 280
-0.986729, 289, 97, 352, 341
-0.986778, 257, 121, 384, 184
-0.986872, 217, 209, 248, 336
-0.986873, 57, 193, 88, 256
-0.987281, 353, 241, 480, 304
-0.987343, 405, 281, 436, 341
-0.987362, 349, 273, 380, 336
-0.987398, 401, 257, 464, 320
-0.98741, 313, 209, 344, 272
-0.987414, 137, 257, 200, 320
-0.987473, 377, 113, 440, 176
-0.987503, 137, 193, 168, 256
-0.987571, 305, 121, 432, 184
-0.987614, 225, 217, 352, 280
-0.987646, 137, 161, 168, 288
-0.987647, 217, 281, 248, 341
-0.987664, 209, 137, 336, 200
-0.987845, 357, 161, 388, 224
-0.987962, 297, 281, 328, 341
-0.98797, 345, 209, 408, 272
-0.988074, 321, 97, 384, 341
-0.988238, 433, 265, 464, 328
-0.988261, 313, 121, 376, 184
-0.988294, 289, 257, 416, 320
-0.988324, 333, 177, 364, 304
-0.988386, 69, 281, 100, 341
-0.988417, 81, 281, 112, 341
-0.988511, 317, 169, 348, 232
-0.988535, 9, 265, 40, 328
-0.988624, 385, 209, 416, 336
-0.988663, 45, 265, 76, 328
-0.988711, 149, 241, 180, 304
-0.988723, 165, 281, 196, 341
-0.98876, 289, 233, 352, 296
-0.988762, 381, 265, 412, 328
-0.988786, 297, 177, 328, 304
-0.988788, 65, 1, 192, 256
-0.988813, 157, 193, 188, 256
-0.988814, 305, 185, 336, 248
-0.988855, 229, 193, 260, 320
-0.988919, 153, 177, 216, 240
-0.98895, 373, 113, 404, 240
-0.989027, 57, 193, 88, 320
-0.989071, 173, 233, 204, 296
-0.989075, 449, 273, 480, 336
-0.989124, 49, 153, 112, 216
-0.989139, 353, 193, 384, 320
-0.989195, 329, 177, 360, 240
-0.989216, 329, 201, 360, 264
-0.989217, 249, 177, 280, 304
-0.989231, 209, 193, 240, 256
-0.989264, 49, 185, 112, 248
-0.989286, 385, 233, 416, 296
-0.989319, 105, 209, 136, 336
-0.989334, 197, 257, 228, 320
-0.989422, 465, 265, 496, 328
-0.989564, 193, 217, 224, 280
-0.989591, 73, 257, 136, 288
-0.989647, 161, 241, 192, 304
-0.98967, 69, 257, 100, 320
-0.989706, 121, 205, 184, 236
-0.989731, 129, 225, 192, 256
-0.989746, 129, 237, 192, 268
-0.989757, 25, 265, 56, 328
-0.989782, 249, 149, 312, 180
-0.989837, 309, 177, 340, 304
-0.989843, 161, 205, 224, 236
-0.989945, 117, 193, 148, 256
-0.989954, 225, 157, 288, 188
-0.990022, 157, 161, 188, 288
-0.990029, 193, 145, 448, 208
-0.990063, 353, 265, 416, 296
-0.99013, 385, 141, 448, 172
-0.990153, 393, 257, 424, 320
-0.990168, 177, 297, 240, 328
-0.990264, 281, 97, 312, 224
-0.990265, 401, 209, 464, 336
-0.990273, 97, 169, 224, 232
-0.990291, 361, 141, 424, 172
-0.990302, 341, 169, 372, 232
-0.990307, 353, 113, 416, 176
-0.990323, 97, 249, 160, 280
-0.990332, 33, 81, 288, 208
-0.990332, 197, 161, 228, 224
-0.990347, 193, 309, 256, 340
-0.990351, 237, 281, 268, 341
-0.990352, 337, 81, 464, 208
-0.990352, 313, 209, 376, 240
-0.990379, 161, 177, 416, 240
-0.990396, 353, 237, 416, 268
-0.990412, 261, 177, 292, 304
-0.990485, 325, 225, 356, 288
-0.990488, 97, 209, 160, 240
-0.990539, 81, 285, 144, 316
-0.990545, 289, 217, 352, 248
-0.990557, 145, 309, 208, 340
-0.990585, 49, 261, 112, 292
-0.990587, 153, 217, 216, 248
-0.990657, 293, 185, 324, 248
-0.990717, 257, 185, 288, 248
-0.990799, 185, 185, 248, 216
-0.990809, 241, 241, 368, 304
-0.990809, 337, 141, 400, 172
-0.990837, 409, 141, 472, 172
-0.990859, 369, 301, 432, 332
-0.990877, 1, 201, 64, 264
-0.990891, 49, 281, 112, 312
-0.990933, 345, 253, 408, 284
-0.990957, 45, 169, 76, 232
-0.990986, 369, 161, 400, 224
-0.991003, 353, 285, 416, 316
-0.991012, 377, 161, 408, 288
-0.991025, 105, 221, 168, 252
-0.991044, 25, 265, 88, 296
-0.991058, 273, 153, 336, 184
-0.991084, 57, 221, 120, 252
-0.991087, 289, 305, 352, 336
-0.991168, 233, 305, 296, 336
-0.991179, 217, 249, 248, 312
-0.991181, 385, 113, 416, 240
-0.991183, 369, 153, 432, 184
-0.991199, 309, 281, 340, 341
-0.991216, 297, 149, 360, 180
-0.991224, 225, 145, 288, 176
-0.991237, 1, 285, 64, 316
-0.991239, 97, 217, 128, 280
-0.99124, 297, 233, 360, 264
-0.991248, 345, 161, 408, 192
-0.991279, 233, 189, 296, 220
-0.9913, 321, 209, 352, 336
-0.991301, 329, 221, 392, 252
-0.991304, 393, 281, 456, 312
-0.991312, 81, 221, 144, 252
-0.991343, 201, 285, 264, 316
-0.991346, 105, 293, 168, 324
-0.991359, 25, 153, 88, 216
-0.991395, 209, 169, 272, 200
-0.991416, 369, 249, 432, 280
-0.991449, 393, 301, 456, 332
-0.991462, 265, 309, 328, 340
-0.991463, 161, 217, 416, 280
-0.991475, 321, 249, 384, 280
-0.991485, 145, 297, 208, 328
-0.991508, 161, 193, 224, 224
-0.991521, 137, 281, 168, 341
-0.991523, 257, 201, 320, 264
-0.991565, 105, 237, 168, 268
-0.991573, 209, 197, 272, 228
-0.991579, 225, 293, 288, 324
-0.99159, 33, 241, 288, 304
-0.991593, 25, 209, 88, 240
-0.991604, 137, 193, 200, 224
-0.991616, 233, 209, 296, 272
-0.991638, 193, 81, 320, 208
-0.991666, 49, 293, 112, 324
-0.991671, 273, 141, 336, 172
-0.991692, 1, 205, 64, 236
-0.991701, 49, 209, 112, 240
-0.991728, 297, 285, 360, 316
-0.99173, 321, 277, 384, 308
-0.991758, 153, 237, 216, 268
-0.991765, 205, 217, 236, 280
-0.991807, 257, 177, 320, 208
-0.991815, 65, 193, 320, 256
-0.991819, 81, 197, 144, 228
-0.991834, 417, 137, 448, 200
-0.991836, 321, 169, 384, 200
-0.991849, 329, 233, 392, 264
-0.991875, 69, 185, 100, 248
-0.991901, 321, 289, 384, 320
-0.991902, 421, 273, 452, 336
-0.991906, 269, 177, 300, 240
-0.991909, 25, 297, 88, 328
-0.991928, 1, 181, 64, 212
-0.991928, 337, 241, 368, 304
-0.991959, 161, 285, 224, 316
-0.991963, 381, 161, 412, 224
-0.991972, 305, 193, 432, 256
-0.991987, 97, 193, 128, 256
-0.992009, 385, 269, 448, 300
-0.992013, 257, 293, 320, 324
-0.992017, 185, 173, 248, 204
-0.992037, 1, 193, 64, 224
-0.992038, 433, 273, 496, 304
-0.992039, 153, 97, 216, 341
-0.992046, 333, 81, 364, 208
-0.992078, 233, 193, 264, 256
-0.992082, 329, 265, 392, 296
-0.992085, 257, 149, 288, 180
-0.992091, 81, 297, 144, 328
-0.992106, 193, 249, 256, 280
-0.992116, 113, 273, 176, 304
-0.992118, 197, 129, 228, 256
-0.99215, 1, 265, 64, 296
-0.99216, 201, 269, 264, 300
-0.992177, 33, 221, 96, 252
-0.992179, 265, 217, 328, 248
-0.992187, 369, 121, 496, 184
-0.992189, 265, 281, 328, 312
-0.992191, 145, 153, 272, 216
-0.992196, 41, 217, 104, 280
-0.9922, 73, 233, 104, 296
-0.992212, 153, 281, 184, 341
-0.992216, 25, 181, 88, 212
-0.992232, 25, 277, 88, 308
-0.992252, 161, 269, 224, 300
-0.992287, 193, 189, 224, 220
-0.99229, 133, 229, 164, 260
-0.99229, 185, 197, 248, 228
-0.992291, 17, 177, 48, 240
-0.992298, 89, 269, 152, 300
-0.992301, 1, 301, 64, 332
-0.992305, 121, 309, 184, 340
-0.992314, 377, 129, 440, 160
-0.992337, 393, 153, 456, 184
-0.992341, 41, 145, 104, 272
-0.992348, 201, 297, 264, 328
-0.992353, 241, 153, 272, 184
-0.992379, 113, 249, 144, 280
-0.992403, 297, 177, 360, 208
-0.992415, 297, 273, 360, 304
-0.992445, 193, 213, 256, 244
-0.992467, 337, 169, 464, 232
-0.992477, 49, 245, 112, 276
-0.992494, 157, 217, 188, 248
-0.992498, 201, 157, 264, 188
-0.992505, 49, 305, 112, 336
-0.992531, 233, 273, 296, 304
-0.992561, 225, 309, 256, 340
-0.992567, 265, 201, 328, 232
-0.992574, 121, 249, 184, 280
-0.992585, 281, 189, 344, 220
-0.992593, 1, 221, 64, 252
-0.992607, 97, 145, 160, 272
-0.992615, 145, 229, 176, 260
-0.992623, 321, 81, 352, 208
-0.992623, 313, 301, 376, 332
-0.992637, 397, 141, 428, 172
-0.992637, 101, 253, 132, 284
-0.992638, 133, 241, 164, 272
-0.992651, 133, 217, 164, 248
-0.992656, 425, 129, 488, 160
-0.99266, 273, 145, 304, 176
-0.992669, 249, 137, 312, 168
-0.99269, 205, 301, 236, 332
-0.992693, 185, 305, 216, 336
-0.992693, 249, 161, 312, 192
-0.992697, 25, 169, 88, 200
-0.992705, 81, 257, 112, 288
-0.992711, 101, 281, 132, 312
-0.992716, 73, 209, 136, 240
-0.99272, 169, 309, 232, 340
-0.99273, 349, 97, 380, 224
-0.992739, 281, 129, 312, 192
-0.992746, 409, 269, 472, 300
-0.992762, 305, 217, 336, 248
-0.992764, 289, 205, 352, 236
-0.992778, 89, 289, 120, 320
-0.992794, 197, 177, 228, 208
-0.992797, 17, 253, 80, 284
-0.992801, 289, 309, 320, 340
-0.992802, 305, 149, 336, 180
-0.992803, 393, 257, 456, 288
-0.992803, 177, 229, 240, 260
-0.992811, 417, 289, 480, 320
-0.992813, 93, 177, 124, 304
-0.992814, 121, 229, 152, 260
-0.992826, 345, 297, 408, 328
-0.992832, 229, 249, 260, 312
-0.992836, 413, 141, 444, 172
-0.992846, 77, 217, 108, 248
-0.992849, 249, 189, 280, 220
-0.992858, 161, 181, 224, 212
-0.992863, 177, 201, 208, 232
-0.992867, 73, 245, 136, 276
-0.99287, 121, 213, 152, 244
-0.992889, 1, 169, 64, 200
-0.992895, 321, 225, 352, 256
-0.992897, 353, 277, 384, 308
-0.992902, 229, 157, 260, 188
-0.992912, 1, 177, 32, 304
-0.992922, 381, 141, 412, 172
-0.992922, 57, 209, 88, 240
-0.992936, 185, 265, 216, 296
-0.992946, 25, 309, 88, 340
-0.992946, 49, 261, 80, 292
-0.992951, 77, 281, 108, 312
-0.992957, 189, 277, 220, 308
-0.992958, 357, 253, 388, 284
-0.992959, 377, 237, 440, 268
-0.99296, 369, 141, 400, 172
-0.992961, 81, 233, 144, 264
-0.992961, 113, 293, 144, 324
-0.992961, 141, 201, 172, 232
-0.992965, 157, 237, 188, 268
-0.992976, 145, 241, 176, 272
-0.992977, 209, 169, 240, 200
-0.992977, 189, 201, 220, 232
-0.992982, 385, 301, 416, 332
-0.992989, 269, 309, 300, 340
-0.992992, 1, 213, 32, 244
-0.992995, 361, 289, 392, 320
-0.993, 233, 201, 296, 232
-0.993, 225, 241, 288, 272
-0.993002, 77, 293, 108, 324
-0.993005, 161, 257, 416, 320
-0.993021, 317, 209, 348, 240
-0.993025, 145, 217, 176, 248
-0.993026, 369, 261, 400, 292
-0.993035, 325, 149, 356, 180
-0.993039, 97, 209, 128, 240
-0.993039, 101, 293, 132, 324
-0.993052, 1, 273, 256, 336
-0.993053, 425, 141, 456, 172
-0.993055, 393, 269, 424, 300
-0.993056, 209, 201, 240, 232
-0.993057, 165, 205, 196, 236
-0.993064, 61, 261, 92, 292
-0.993067, 373, 297, 404, 328
-0.993086, 181, 293, 212, 324
-0.993087, 197, 289, 228, 320
-0.993102, 77, 193, 108, 320
-0.993104, 341, 277, 372, 308
-0.993108, 37, 265, 68, 296
-0.993112, 377, 285, 408, 316
-0.993113, 341, 145, 372, 176
-0.993125, 301, 309, 332, 340
-0.993127, 381, 157, 412, 188
-0.993135, 357, 265, 388, 296
-0.99314, 405, 153, 436, 216
-0.99314, 165, 309, 196, 340
-0.993144, 369, 237, 400, 268
-0.993147, 229, 297, 260, 328
-0.993149, 25, 269, 56, 300
-0.993155, 125, 273, 156, 304
-0.993155, 257, 161, 288, 192
-0.993159, 357, 141, 388, 172
-0.993162, 293, 149, 324, 180
-0.993164, 393, 285, 424, 316
-0.993176, 157, 297, 188, 328
-0.993177, 345, 265, 376, 296
-0.993185, 273, 157, 304, 188
-0.993186, 405, 257, 436, 320
-0.99319, 113, 201, 144, 232
-0.993193, 405, 269, 436, 300
-0.993197, 5, 273, 36, 304
-0.9932, 333, 229, 364, 260
-0.993202, 393, 153, 424, 184
-0.993205, 49, 185, 80, 216
-0.993206, 445, 273, 476, 304
-0.993228, 225, 285, 256, 316
-0.993233, 329, 289, 360, 320
-0.993233, 113, 281, 144, 312
-0.993234, 317, 281, 348, 312
-0.993235, 373, 309, 404, 340
-0.99324, 321, 217, 448, 280
-0.993242, 241, 293, 272, 324
-0.993244, 341, 249, 372, 280
-0.993245, 285, 137, 316, 168
-0.993249, 101, 269, 132, 300
-0.993256, 85, 257, 116, 320
-0.993261, 313, 165, 344, 196
-0.993263, 153, 205, 184, 236
-0.993263, 225, 153, 352, 184
-0.993264, 237, 309, 268, 340
-0.993265, 45, 213, 76, 244
-0.993267, 89, 301, 120, 332
-0.993267, 393, 257, 424, 288
-0.993272, 45, 297, 76, 328
-0.993273, 341, 289, 372, 320
-0.993276, 381, 237, 412, 268
-0.993279, 429, 281, 460, 312
-0.99328, 209, 289, 240, 320
-0.993285, 189, 253, 220, 284
-0.993285, 357, 233, 388, 264
-0.993292, 65, 293, 96, 324
-0.993299, 265, 177, 296, 208
-0.993306, 41, 173, 72, 204
-0.993307, 65, 277, 96, 308
-0.993309, 369, 249, 400, 280
-0.993317, 89, 245, 120, 276
-0.99332, 89, 221, 120, 252
-0.993322, 177, 253, 208, 284
-0.993323, 13, 209, 44, 240
-0.993325, 369, 157, 400, 188
-0.993327, 89, 277, 120, 308
-0.993327, 213, 189, 244, 220
-0.993328, 357, 165, 388, 196
-0.993329, 5, 285, 36, 316
-0.993329, 205, 277, 236, 308
-0.99333, 169, 237, 200, 268
-0.99333, 329, 213, 360, 244
-0.993332, 65, 185, 96, 216
-0.99334, 341, 209, 372, 272
-0.99339, 53, 225, 84, 288
-0.993463, 249, 81, 312, 208
-0.993505, 1, 169, 32, 232
-0.99351, 289, 145, 416, 176
-0.99352, 257, 249, 320, 312
-0.993584, 85, 217, 116, 280
-0.993689, 393, 113, 424, 176
-0.993734, 1, 169, 500, 232
-0.993786, 161, 281, 416, 341
-0.993823, 281, 257, 344, 320
-0.993866, 69, 209, 100, 272
-0.99387, 345, 185, 408, 248
-0.993897, 237, 97, 268, 224
-0.993951, 161, 65, 416, 192
-0.993956, 65, 169, 320, 232
-0.993969, 201, 1, 264, 341
-0.993989, 277, 281, 308, 341
-0.99406, 177, 145, 208, 272
-0.994127, 161, 217, 176, 280
-0.994134, 281, 185, 312, 248
-0.994164, 261, 281, 292, 341
-0.994209, 113, 249, 128, 312
-0.994213, 193, 309, 320, 340
-0.994339, 201, 177, 216, 240
-0.994371, 33, 217, 288, 280
-0.99446, 181, 177, 212, 240
-0.994505, 217, 225, 248, 288
-0.994508, 185, 97, 248, 224
-0.994561, 257, 249, 500, 312
-0.99461, 81, 185, 112, 248
-0.994614, 1, 233, 500, 296
-0.994661, 353, 217, 384, 280
-0.994666, 389, 161, 420, 288
-0.994689, 309, 81, 340, 208
-0.994703, 329, 265, 360, 328
-0.994718, 61, 153, 92, 216
-0.994769, 1, 153, 64, 216
-0.994783, 425, 129, 488, 192
-0.994784, 135, 209, 150, 272
-0.994794, 113, 217, 240, 248
-0.994801, 191, 265, 206, 328
-0.994837, 81, 169, 144, 232
-0.994857, 29, 169, 60, 232
-0.994862, 257, 121, 288, 184
-0.994867, 225, 97, 256, 224
-0.994891, 37, 161, 68, 288
-0.994898, 1, 265, 128, 296
-0.994905, 225, 1, 288, 341
-0.99493, 233, 241, 296, 304
-0.994964, 215, 169, 230, 232
-0.99498, 167, 209, 182, 272
-0.994994, 129, 229, 256, 260
-0.995001, 1, 193, 500, 256
-0.995016, 273, 1, 336, 341
-0.995058, 161, 193, 288, 224
-0.99506, 249, 1, 312, 341
-0.995111, 153, 225, 168, 288
-0.995116, 113, 281, 128, 341
-0.995127, 389, 137, 404, 200
-0.995144, 81, 245, 208, 276
-0.995177, 135, 233, 150, 296
-0.995184, 9, 209, 40, 272
-0.995196, 301, 209, 332, 272
-0.995197, 383, 137, 398, 200
-0.995217, 129, 129, 256, 192
-0.995267, 197, 281, 212, 341
-0.995278, 145, 309, 272, 340
-0.99528, 141, 209, 156, 272
-0.995282, 377, 137, 392, 200
-0.995294, 367, 137, 382, 200
-0.995295, 211, 193, 226, 256
-0.995297, 395, 137, 410, 200
-0.995297, 249, 281, 280, 341
-0.995298, 361, 1, 424, 341
-0.995327, 283, 153, 298, 216
-0.995341, 249, 153, 264, 216
-0.995369, 33, 97, 96, 341
-0.995375, 65, 225, 192, 256
-0.995407, 329, 145, 344, 208
-0.995417, 183, 281, 198, 341
-0.995438, 193, 173, 320, 204
-0.995453, 381, 113, 412, 176
-0.995456, 119, 257, 134, 320
-0.995465, 33, 285, 160, 316
-0.995487, 401, 113, 464, 176
-0.995495, 129, 205, 256, 236
-0.995505, 277, 153, 292, 216
-0.99551, 355, 145, 370, 208
-0.995547, 153, 201, 168, 264
-0.995565, 107, 249, 122, 312
-0.995566, 369, 257, 384, 320
-0.995574, 21, 177, 52, 304
-0.995588, 311, 145, 326, 208
-0.995593, 183, 201, 198, 264
-0.995596, 353, 281, 480, 312
-0.995619, 201, 257, 216, 320
-0.995651, 257, 281, 500, 341
-0.995664, 317, 145, 332, 208
-0.995671, 337, 265, 464, 296
-0.995688, 361, 137, 376, 200
-0.995723, 345, 145, 360, 208
-0.995726, 141, 233, 156, 296
-0.995741, 291, 153, 306, 216
-0.995741, 257, 309, 384, 340
-0.995762, 65, 257, 80, 320
-0.995768, 299, 153, 314, 216
-0.995807, 289, 165, 416, 196
-0.995832, 257, 169, 500, 232
-0.995838, 323, 145, 338, 208
-0.995846, 401, 137, 416, 200
-0.995847, 339, 145, 354, 208
-0.99587, 173, 209, 188, 272
-0.995891, 243, 153, 258, 216
-0.995893, 153, 1, 216, 341
-0.995947, 191, 241, 206, 304
-0.995951, 145, 297, 272, 328
-0.995952, 201, 137, 264, 200
-0.995958, 379, 265, 394, 328
-0.995966, 261, 145, 276, 208
-0.995972, 269, 145, 284, 208
-0.996044, 113, 277, 240, 308
-0.996047, 17, 193, 144, 224
-0.996052, 65, 201, 192, 232
-0.996053, 1, 281, 500, 341
-0.996067, 229, 225, 260, 288
-0.996087, 225, 161, 240, 224
-0.996088, 305, 145, 320, 208
-0.996108, 337, 141, 464, 172
-0.99612, 193, 193, 208, 256
-0.996136, 359, 249, 374, 312
-0.996141, 377, 217, 440, 280
-0.996141, 113, 189, 240, 220
-0.996149, 183, 257, 198, 320
-0.996156, 405, 265, 420, 328
-0.996162, 329, 1, 392, 341
-0.996173, 147, 209, 162, 272
-0.996176, 379, 233, 394, 296
-0.996187, 81, 293, 208, 324
-0.996218, 255, 161, 270, 224
-0.996219, 121, 97, 184, 341
-0.996248, 407, 129, 422, 192
-0.99626, 273, 193, 304, 320
-0.996272, 169, 145, 232, 208
-0.996284, 111, 225, 126, 288
-0.99629, 1, 205, 128, 236
-0.996298, 207, 169, 222, 232
-0.996301, 389, 281, 404, 341
-0.996312, 161, 265, 288, 296
-0.996333, 81, 97, 144, 341
-0.996336, 273, 277, 400, 308
-0.996353, 1, 257, 500, 320
-0.996357, 411, 281, 426, 341
-0.99637, 91, 281, 106, 341
-0.996396, 323, 209, 338, 272
-0.996403, 71, 265, 86, 328
-0.996427, 231, 281, 246, 341
-0.996442, 207, 217, 222, 280
-0.996442, 225, 193, 352, 224
-0.996452, 237, 129, 268, 192
-0.996458, 331, 201, 346, 264
-0.99648, 285, 193, 316, 320
-0.996532, 1, 145, 500, 208
-0.996533, 41, 193, 72, 256
-0.996541, 289, 293, 416, 324
-0.996548, 119, 281, 134, 341
-0.996549, 65, 213, 192, 244
-0.996552, 241, 281, 256, 341
-0.996553, 341, 121, 372, 184
-0.996555, 97, 281, 112, 341
-0.996559, 49, 261, 176, 292
-0.996578, 117, 145, 148, 272
-0.996578, 17, 221, 144, 252
-0.996602, 337, 157, 464, 188
-0.996605, 101, 257, 116, 320
-0.996609, 33, 301, 160, 332
-0.99662, 441, 273, 456, 336
-0.996621, 59, 265, 74, 328
-0.99668, 413, 129, 428, 192
-0.99668, 237, 153, 252, 216
-0.996686, 431, 273, 446, 336
-0.996695, 257, 177, 384, 208
-0.996695, 273, 217, 400, 248
-0.996733, 359, 273, 374, 336
-0.996736, 193, 121, 448, 184
-0.996753, 209, 297, 336, 328
-0.996757, 449, 273, 464, 336
-0.99676, 29, 265, 44, 328
-0.996767, 221, 185, 252, 248
-0.996769, 321, 185, 336, 248
-0.996776, 259, 185, 274, 248
-0.996777, 63, 193, 78, 256
-0.99679, 129, 249, 144, 312
-0.996793, 107, 273, 122, 336
-0.996798, 83, 281, 98, 341
-0.996803, 97, 309, 224, 340
-0.996811, 297, 81, 328, 208
-0.996813, 335, 225, 350, 288
-0.996813, 269, 201, 300, 264
-0.996816, 129, 209, 144, 272
-0.996819, 49, 169, 176, 232
-0.996824, 15, 193, 30, 256
-0.996861, 173, 233, 188, 296
-0.996863, 389, 241, 404, 304
-0.996865, 65, 273, 192, 304
-0.996869, 201, 181, 216, 212
-0.996895, 269, 145, 284, 176
-0.996916, 231, 161, 246, 224
-0.996918, 289, 265, 416, 296
-0.996924, 5, 241, 36, 304
-0.996927, 353, 241, 368, 304
-0.996935, 399, 281, 414, 341
-0.996945, 135, 229, 150, 260
-0.996953, 177, 285, 304, 316
-0.996958, 1, 177, 16, 240
-0.996958, 23, 265, 38, 328
-0.996973, 1, 145, 256, 208
-0.996975, 203, 281, 218, 341
-0.996988, 373, 233, 388, 296
-0.996992, 75, 193, 90, 256
-0.996996, 369, 281, 384, 341
-0.997004, 377, 97, 440, 224
-0.997006, 193, 205, 320, 236
-0.997022, 159, 193, 174, 256
-0.997035, 159, 241, 174, 304
-0.997043, 275, 145, 290, 176
-0.997044, 475, 265, 490, 328
-0.997044, 365, 225, 380, 288
-0.997049, 41, 225, 72, 288
-0.997051, 147, 233, 162, 296
-0.997052, 225, 285, 352, 316
-0.997055, 459, 265, 474, 328
-0.997056, 85, 193, 100, 256
-0.997062, 1, 1, 500, 128
-0.997085, 241, 165, 368, 196
-0.997086, 175, 281, 190, 341
-0.997087, 419, 129, 434, 192
-0.997091, 241, 249, 256, 312
-0.997091, 129, 273, 144, 336
-0.997106, 117, 225, 132, 288
-0.997114, 159, 221, 174, 252
-0.997115, 221, 281, 236, 341
-0.997117, 177, 161, 304, 192
-0.997124, 149, 225, 164, 256
-0.997124, 371, 161, 386, 224
-0.997125, 305, 309, 432, 340
-0.997146, 349, 169, 364, 232
-0.997151, 113, 265, 240, 296
-0.997157, 247, 193, 262, 256
-0.997213, 53, 185, 68, 248
-0.997217, 469, 265, 484, 328
-0.997217, 233, 249, 248, 312
-0.997222, 87, 257, 102, 320
-0.997232, 305, 249, 432, 280
-0.997235, 355, 169, 370, 232
-0.997253, 7, 273, 22, 336
-0.997279, 129, 241, 256, 272
-0.997289, 77, 257, 92, 320
-0.997296, 483, 265, 498, 328
-0.997298, 433, 241, 496, 304
-0.997302, 307, 281, 322, 341
-0.997304, 397, 113, 428, 240
-0.997308, 365, 161, 380, 224
-0.997312, 143, 233, 158, 264
-0.997316, 231, 309, 246, 340
-0.997332, 167, 233, 182, 296
-0.997338, 311, 185, 326, 248
-0.99734, 327, 169, 342, 232
-0.997341, 269, 169, 284, 232
-0.997349, 313, 281, 328, 341
-0.997353, 135, 217, 150, 248
-0.997392, 259, 145, 274, 176
-0.997416, 211, 201, 226, 232
-0.997418, 1, 253, 128, 284
-0.997429, 225, 221, 352, 252
-0.99743, 297, 1, 360, 341
-0.997435, 305, 233, 432, 264
-0.997456, 177, 149, 304, 180
-0.997498, 225, 265, 352, 296
-0.997519, 249, 153, 264, 184
-0.997537, 221, 97, 252, 341
-0.997575, 25, 1, 88, 341
-0.997577, 113, 177, 240, 208
-0.997593, 241, 141, 368, 172
-0.997598, 385, 1, 448, 341
-0.997631, 325, 217, 340, 248
-0.997649, 119, 285, 134, 316
-0.997655, 405, 141, 420, 172
-0.997655, 145, 253, 272, 284
-0.997675, 411, 141, 426, 172
-0.997699, 111, 289, 126, 320
-0.997706, 241, 97, 272, 341
-0.997712, 393, 285, 408, 316
-0.99772, 353, 65, 416, 192
-0.997722, 143, 221, 158, 252
-0.997745, 1, 177, 128, 208
-0.997746, 257, 225, 500, 288
-0.99775, 317, 213, 332, 244
-0.997757, 83, 217, 98, 248
-0.997763, 177, 1, 240, 341
-0.997763, 369, 293, 496, 324
-0.997764, 303, 309, 318, 340
-0.997773, 265, 157, 280, 188
-0.997781, 107, 253, 122, 284
-0.997783, 123, 249, 138, 280
-0.99779, 201, 265, 216, 296
-0.997804, 321, 129, 448, 160
-0.997806, 241, 305, 256, 336
-0.99781, 161, 217, 288, 248
-0.997812, 191, 189, 206, 220
-0.997824, 165, 221, 180, 252
-0.99783, 61, 261, 76, 292
-0.997844, 117, 245, 132, 276
-0.997854, 331, 209, 346, 240
-0.997857, 397, 141, 412, 172
-0.997858, 365, 277, 380, 308
-0.99787, 135, 241, 150, 272
-0.99788, 185, 197, 200, 228
-0.997885, 1, 1, 64, 341
-0.997893, 293, 309, 308, 340
-0.997906, 353, 253, 480, 284
-0.997906, 275, 157, 290, 188
-0.997926, 417, 141, 432, 172
-0.997939, 345, 97, 408, 341
-0.997941, 135, 205, 150, 236
-0.997959, 335, 225, 350, 256
-0.997962, 149, 237, 164, 268
-0.997974, 369, 305, 496, 336
-0.997977, 329, 149, 344, 180
-0.997998, 259, 157, 274, 188
-0.998006, 129, 245, 144, 276
-0.998013, 5, 213, 20, 244
-0.998017, 97, 285, 112, 316
-0.998022, 283, 153, 298, 184
-0.998023, 163, 209, 178, 240
-0.998031, 179, 309, 194, 340
-0.998033, 89, 281, 104, 312
-0.998039, 211, 173, 226, 204
-0.998047, 203, 277, 218, 308
-0.998049, 193, 245, 320, 276
-0.998053, 243, 153, 258, 184
-0.998064, 97, 145, 352, 208
-0.998066, 389, 141, 404, 172
-0.998073, 189, 261, 204, 292
-0.998078, 383, 269, 398, 300
-0.998103, 317, 149, 332, 180
-0.998104, 369, 257, 384, 288
-0.998108, 171, 213, 186, 244
-0.998114, 103, 281, 118, 312
-0.998116, 1, 165, 128, 196
-0.998123, 305, 205, 432, 236
-0.998139, 65, 189, 192, 220
-0.998144, 115, 273, 130, 304
-0.998144, 89, 293, 104, 324
-0.998148, 197, 305, 212, 336
-0.998151, 401, 281, 416, 312
-0.998156, 211, 189, 226, 220
-0.998158, 375, 293, 390, 324
-0.998163, 305, 177, 432, 208
-0.998165, 423, 137, 438, 168
-0.998167, 359, 277, 374, 308
-0.998169, 179, 205, 194, 236
-0.998175, 383, 281, 398, 312
-0.998175, 233, 161, 248, 192
-0.998179, 101, 249, 116, 280
-0.998182, 393, 265, 408, 296
-0.998184, 173, 201, 188, 232
-0.998186, 257, 189, 272, 220
-0.998187, 269, 97, 300, 341
-0.998191, 11, 205, 26, 236
-0.998191, 157, 233, 172, 264
-0.998197, 385, 309, 400, 340
-0.998198, 129, 233, 144, 264
-0.9982, 141, 209, 156, 240
-0.998201, 205, 213, 220, 244
-0.998217, 1, 241, 128, 272
-0.998218, 153, 205, 168, 236
-0.99822, 205, 193, 220, 224
-0.998223, 325, 205, 340, 236
-0.998233, 359, 265, 374, 296
-0.99824, 383, 141, 398, 172
-0.998247, 77, 217, 92, 248
-0.998248, 231, 297, 246, 328
-0.998253, 441, 281, 456, 312
-0.998259, 317, 97, 348, 341
-0.998259, 125, 289, 140, 320
-0.998266, 257, 245, 384, 276
-0.99827, 405, 305, 420, 336
-0.998273, 323, 165, 338, 196
-0.998275, 281, 141, 296, 172
-0.998282, 55, 297, 70, 328
-0.998284, 81, 289, 96, 320
-0.998285, 211, 213, 226, 244
-0.998287, 85, 253, 100, 284
-0.998288, 361, 253, 376, 284
-0.998289, 167, 237, 182, 268
-0.998298, 241, 233, 368, 264
-0.998308, 225, 285, 240, 316
-0.998319, 25, 209, 40, 240
-0.998321, 247, 193, 262, 224
-0.998322, 93, 209, 108, 240
-0.998324, 191, 309, 206, 340
-0.998336, 353, 241, 480, 272
-0.998351, 377, 141, 392, 172
-0.998352, 127, 213, 142, 244
-0.99836, 225, 165, 240, 196
-0.99836, 89, 223, 120, 238
-0.99836, 393, 295, 424, 310
-0.99836, 193, 249, 208, 280
-0.998362, 325, 229, 340, 260
-0.998363, 385, 237, 416, 252
-0.998363, 421, 147, 452, 162
-0.998363, 397, 153, 428, 168
-0.998365, 287, 309, 302, 340
-0.998365, 181, 267, 212, 282
-0.998365, 89, 215, 120, 230
-0.998365, 55, 261, 70, 292
-0.998367, 97, 295, 128, 310
-0.998368, 57, 213, 88, 228
-0.998369, 377, 319, 408, 334
-0.998369, 281, 97, 312, 341
-0.99837, 369, 299, 400, 314
-0.998371, 345, 145, 376, 160
-0.998371, 387, 237, 402, 268
-0.998371, 307, 281, 322, 312
-0.998371, 1, 185, 32, 200
-0.998371, 121, 233, 152, 248
-0.998372, 233, 291, 264, 306
-0.998373, 369, 141, 384, 172
-0.998374, 313, 151, 344, 166
-0.998374, 297, 153, 312, 184
-0.998375, 33, 219, 64, 234
-0.998375, 409, 1, 472, 341
-0.998377, 181, 193, 212, 208
-0.998377, 325, 233, 356, 248
-0.998377, 17, 303, 48, 318
-0.998377, 225, 325, 256, 340
-0.998378, 389, 305, 420, 320
-0.998378, 361, 259, 392, 274
-0.998379, 237, 323, 268, 338
-0.998379, 317, 319, 348, 334
-0.99838, 99, 209, 114, 240
-0.998381, 157, 307, 188, 322
-0.998383, 429, 281, 460, 296
-0.998384, 289, 149, 320, 164
-0.998384, 81, 283, 112, 298
-0.998384, 333, 147, 364, 162
-0.998384, 57, 221, 88, 236
-0.998385, 177, 199, 208, 214
-0.998385, 33, 267, 64, 282
-0.998385, 393, 287, 424, 302
-0.998386, 185, 299, 216, 314
-0.998386, 185, 297, 200, 328
-0.998387, 349, 285, 364, 316
-0.998387, 373, 293, 404, 308
-0.998389, 153, 207, 184, 222
-0.998389, 397, 319, 428, 334
-0.998389, 345, 283, 376, 298
-0.998389, 205, 173, 236, 188
-0.998389, 325, 211, 356, 226
-0.99839, 205, 313, 236, 328
-0.998392, 63, 209, 78, 240
-0.998394, 241, 153, 304, 168
-0.998394, 269, 309, 300, 324
-0.998394, 369, 289, 384, 320
-0.998395, 207, 293, 222, 324
-0.998395, 357, 291, 388, 306
-0.998395, 109, 291, 140, 306
-0.998396, 197, 295, 228, 310
-0.998398, 325, 223, 356, 238
-0.998399, 197, 293, 212, 324
-0.998401, 133, 215, 164, 230
-0.998401, 9, 273, 40, 288
-0.998401, 311, 149, 326, 180
-0.998402, 349, 269, 380, 284
-0.998402, 379, 305, 394, 336
-0.998403, 373, 287, 404, 302
-0.998403, 313, 223, 344, 238
-0.998405, 165, 237, 196, 252
-0.998406, 285, 155, 316, 170
-0.998406, 265, 325, 296, 340
-0.998407, 289, 309, 320, 324
-0.998408, 225, 309, 240, 340
-0.998409, 219, 301, 234, 332
-0.998409, 245, 151, 276, 166
-0.998412, 77, 291, 108, 306
-0.998414, 409, 149, 440, 164
-0.998415, 89, 289, 120, 304
-0.998415, 197, 193, 212, 224
-0.998416, 245, 163, 276, 178
-0.998417, 311, 217, 326, 248
-0.998417, 369, 265, 400, 280
-0.998418, 405, 281, 436, 296
-0.99842, 357, 145, 372, 176
-0.99842, 365, 275, 396, 290
-0.998421, 301, 153, 332, 168
-0.998427, 121, 215, 184, 230
-0.998427, 45, 265, 76, 280
-0.998429, 381, 299, 412, 314
-0.998429, 225, 317, 256, 332
-0.998431, 73, 221, 104, 236
-0.998431, 201, 179, 232, 194
-0.998431, 389, 267, 420, 282
-0.998432, 433, 141, 464, 156
-0.998433, 101, 223, 132, 238
-0.998434, 225, 165, 256, 180
-0.998434, 157, 223, 188, 238
-0.998436, 397, 143, 428, 158
-0.998438, 257, 97, 288, 341
-0.99844, 45, 221, 76, 236
-0.998441, 157, 231, 188, 246
-0.998441, 245, 193, 276, 208
-0.998443, 393, 281, 424, 296
-0.998446, 357, 281, 388, 296
-0.998446, 5, 217, 36, 232
-0.998446, 269, 319, 300, 334
-0.998447, 161, 217, 192, 232
-0.998449, 145, 217, 176, 232
-0.99845, 205, 305, 236, 320
-0.998453, 217, 171, 248, 186
-0.998457, 129, 239, 192, 254
-0.99846, 173, 205, 204, 220
-0.99846, 121, 207, 184, 222
-0.99846, 209, 113, 336, 176
-0.998461, 165, 313, 196, 328
-0.998461, 105, 251, 136, 266
-0.998463, 121, 233, 184, 248
-0.998466, 185, 317, 216, 332
-0.998473, 281, 325, 344, 340
-0.998474, 305, 217, 336, 232
-0.998474, 101, 285, 132, 300
-0.998475, 421, 141, 452, 156
-0.998476, 145, 229, 176, 244
-0.998476, 205, 319, 236, 334
-0.998479, 409, 141, 440, 156
-0.998479, 313, 325, 344, 340
-0.998479, 113, 219, 144, 234
-0.998482, 65, 1, 128, 341
-0.998483, 193, 189, 224, 204
-0.998484, 121, 225, 152, 240
-0.998486, 65, 261, 128, 276
-0.998487, 125, 241, 156, 256
-0.998487, 185, 309, 216, 324
-0.998489, 153, 241, 184, 256
-0.998491, 165, 211, 196, 226
-0.998493, 77, 261, 108, 276
-0.998493, 289, 315, 320, 330
-0.998493, 121, 227, 184, 242
-0.998497, 225, 311, 256, 326
-0.9985, 273, 147, 304, 162
-0.998502, 273, 157, 304, 172
-0.998502, 369, 143, 432, 158
-0.998503, 145, 235, 176, 250
-0.998507, 277, 325, 308, 340
-0.998509, 225, 161, 288, 176
-0.998511, 81, 289, 144, 304
-0.998514, 161, 211, 224, 226
-0.998515, 193, 201, 224, 216
-0.998516, 361, 267, 424, 282
-0.998518, 133, 227, 164, 242
-0.998518, 301, 319, 332, 334
-0.998519, 57, 263, 88, 278
-0.998519, 113, 221, 176, 236
-0.998519, 129, 247, 160, 262
-0.998519, 265, 147, 328, 162
-0.998523, 49, 221, 112, 236
-0.998528, 17, 221, 80, 236
-0.998528, 145, 309, 208, 324
-0.998529, 133, 221, 164, 236
-0.998529, 249, 323, 312, 338
-0.998532, 81, 255, 144, 270
-0.998534, 137, 201, 200, 216
-0.998534, 137, 241, 168, 256
-0.998536, 121, 245, 184, 260
-0.998536, 101, 257, 132, 272
-0.99854, 297, 97, 328, 341
-0.998545, 197, 97, 228, 341
-0.998546, 265, 155, 328, 170
-0.998547, 185, 319, 248, 334
-0.99855, 177, 309, 240, 324
-0.99855, 257, 157, 288, 172
-0.998551, 117, 249, 148, 264
-0.998555, 353, 249, 416, 264
-0.998557, 369, 301, 432, 316
-0.998558, 153, 217, 216, 232
-0.998562, 241, 205, 368, 236
-0.998567, 41, 263, 104, 278
-0.998567, 169, 205, 232, 220
-0.998568, 161, 299, 224, 314
-0.998569, 281, 319, 344, 334
-0.998572, 89, 257, 120, 272
-0.998573, 353, 257, 416, 272
-0.998574, 105, 251, 168, 266
-0.998575, 289, 151, 352, 166
-0.998575, 49, 291, 112, 306
-0.998576, 289, 221, 352, 236
-0.998576, 233, 159, 264, 174
-0.998578, 313, 211, 376, 226
-0.99858, 133, 235, 164, 250
-0.998581, 145, 233, 208, 248
-0.998581, 217, 309, 280, 324
-0.998582, 41, 281, 104, 296
-0.998583, 153, 317, 216, 332
-0.998584, 65, 283, 128, 298
-0.998587, 81, 219, 144, 234
-0.998589, 145, 225, 208, 240
-0.998589, 121, 309, 184, 324
-0.998589, 393, 321, 456, 336
-0.99859, 81, 225, 144, 240
-0.99859, 313, 217, 376, 232
-0.99859, 97, 207, 160, 222
-0.998593, 305, 321, 368, 336
-0.998594, 193, 195, 224, 210
-0.998594, 289, 321, 320, 336
-0.998595, 265, 309, 328, 324
-0.998595, 1, 187, 64, 202
-0.998595, 409, 141, 472, 156
-0.998598, 353, 243, 416, 258
-0.998602, 249, 191, 312, 206
-0.998604, 353, 237, 416, 252
-0.998605, 329, 261, 392, 276
-0.998608, 201, 291, 264, 306
-0.99861, 301, 325, 332, 340
-0.99861, 105, 239, 168, 254
-0.998615, 353, 295, 416, 310
-0.998615, 245, 157, 276, 172
-0.998617, 81, 297, 144, 312
-0.99862, 337, 267, 400, 282
-0.998622, 329, 231, 392, 246
-0.998623, 217, 155, 280, 170
-0.998623, 329, 255, 392, 270
-0.998623, 209, 169, 272, 184
-0.998623, 1, 213, 64, 228
-0.998625, 313, 223, 376, 238
-0.998626, 369, 323, 432, 338
-0.998626, 249, 161, 312, 176
-0.998627, 321, 147, 384, 162
-0.998628, 305, 237, 368, 252
-0.998628, 185, 301, 248, 316
-0.998629, 345, 143, 408, 158
-0.99863, 289, 227, 352, 242
-0.99863, 105, 289, 168, 304
-0.998631, 177, 199, 240, 214
-0.998631, 321, 273, 384, 288
-0.998632, 353, 289, 416, 304
-0.998632, 289, 213, 352, 228
-0.998634, 409, 295, 472, 310
-0.998634, 393, 283, 456, 298
-0.998634, 329, 295, 392, 310
-0.998634, 81, 213, 144, 228
-0.998635, 1, 285, 64, 300
-0.998635, 9, 301, 72, 316
-0.998635, 321, 217, 448, 248
-0.998636, 9, 269, 72, 284
-0.998636, 345, 275, 408, 290
-0.998636, 193, 179, 256, 194
-0.998636, 153, 239, 216, 254
-0.998637, 297, 305, 360, 320
-0.998637, 289, 313, 352, 328
-0.998638, 257, 315, 320, 330
-0.998639, 57, 297, 120, 312
-0.998639, 233, 317, 296, 332
-0.998639, 393, 303, 456, 318
-0.998643, 377, 155, 440, 170
-0.998643, 97, 201, 160, 216
-0.998643, 329, 281, 392, 296
-0.998644, 409, 147, 472, 162
-0.998646, 393, 315, 456, 330
-0.998646, 225, 323, 288, 338
-0.998647, 329, 97, 360, 341
-0.998647, 233, 303, 296, 318
-0.998647, 385, 137, 448, 152
-0.998651, 225, 291, 288, 306
-0.998651, 17, 181, 80, 196
-0.998653, 193, 211, 256, 226
-0.998653, 361, 161, 424, 176
-0.998654, 305, 279, 368, 294
-0.998655, 273, 189, 400, 220
-0.998655, 41, 189, 104, 204
-0.998657, 33, 305, 96, 320
-0.998657, 329, 243, 392, 258
-0.99866, 369, 307, 432, 322
-0.99866, 273, 299, 336, 314
-0.998661, 25, 215, 88, 230
-0.998661, 161, 267, 224, 282
-0.998661, 145, 291, 208, 306
-0.998661, 369, 313, 432, 328
-0.998662, 89, 283, 152, 298
-0.998662, 233, 197, 296, 212
-0.998662, 313, 289, 376, 304
-0.998664, 97, 233, 160, 248
-0.998665, 49, 215, 112, 230
-0.998666, 393, 273, 456, 288
-0.998666, 193, 257, 256, 272
-0.998668, 57, 305, 120, 320
-0.998669, 417, 323, 480, 338
-0.998671, 113, 283, 176, 298
-0.998672, 201, 269, 264, 284
-0.998683, 145, 153, 208, 216
-0.998697, 257, 193, 500, 256
-0.998721, 257, 151, 288, 166
-0.998756, 129, 149, 256, 180
-0.998783, 127, 209, 142, 336
-0.998785, 135, 209, 150, 336
-0.998803, 217, 161, 232, 288
-0.998807, 211, 193, 226, 320
-0.998807, 185, 97, 216, 341
-0.998834, 333, 129, 348, 256
-0.998853, 225, 145, 240, 272
-0.998856, 141, 209, 156, 336
-0.998879, 33, 145, 160, 208
-0.998903, 269, 129, 284, 256
-0.998903, 201, 161, 216, 288
-0.99891, 327, 129, 342, 256
-0.998918, 259, 129, 274, 256
-0.998922, 177, 137, 304, 168
-0.998953, 235, 145, 250, 272
-0.998955, 191, 177, 206, 304
-0.998981, 245, 145, 260, 272
-0.998984, 309, 129, 324, 256
-0.998985, 341, 129, 356, 256
-0.999007, 177, 229, 304, 260
-0.999021, 277, 145, 292, 272
-0.999026, 347, 129, 362, 256
-0.99904, 251, 145, 266, 272
-0.999041, 303, 129, 318, 256
-0.999045, 177, 193, 192, 320
-0.999046, 209, 97, 240, 341
-0.999064, 57, 145, 88, 272
-0.999066, 321, 129, 336, 256
-0.999072, 315, 129, 330, 256
-0.999073, 283, 145, 298, 272
-0.999077, 183, 193, 198, 320
-0.99909, 289, 145, 304, 272
-0.999091, 261, 81, 292, 208
-0.999125, 355, 129, 370, 256
-0.999128, 145, 81, 272, 208
-0.999129, 203, 209, 218, 336
-0.999152, 295, 129, 310, 256
-0.999163, 171, 193, 186, 320
-0.99917, 211, 145, 226, 272
-0.999171, 165, 193, 180, 320
-0.999191, 257, 129, 384, 160
-0.999196, 121, 209, 136, 336
-0.999214, 113, 161, 240, 192
-0.99922, 165, 97, 196, 341
-0.999222, 73, 145, 136, 272
-0.999223, 365, 129, 380, 256
-0.99923, 149, 209, 164, 336
-0.999234, 231, 209, 246, 336
-0.999235, 333, 177, 348, 304
-0.999242, 369, 129, 496, 160
-0.999246, 237, 193, 252, 320
-0.999255, 375, 161, 390, 288
-0.999257, 159, 193, 174, 320
-0.999264, 341, 97, 372, 341
-0.999288, 371, 113, 386, 240
-0.999299, 97, 121, 352, 184
-0.999302, 111, 209, 126, 336
-0.999327, 375, 209, 390, 336
-0.999344, 223, 193, 238, 320
-0.999356, 49, 153, 176, 184
-0.999359, 257, 177, 272, 304
-0.999366, 383, 209, 398, 336
-0.999372, 269, 177, 284, 304
-0.999385, 327, 209, 342, 336
-0.999385, 197, 209, 212, 336
-0.99939, 265, 105, 328, 168
-0.99939, 389, 209, 404, 336
-0.999391, 383, 145, 398, 272
-0.999409, 133, 161, 148, 288
-0.999411, 249, 97, 264, 224
-0.999426, 363, 193, 378, 320
-0.999432, 377, 113, 392, 240
-0.999434, 113, 1, 176, 341
-0.999442, 217, 209, 232, 336
-0.999446, 401, 209, 416, 336
-0.999448, 53, 161, 68, 288
-0.99945, 73, 193, 88, 320
-0.999451, 297, 177, 312, 304
-0.999452, 263, 177, 278, 304
-0.999454, 83, 193, 98, 320
-0.999459, 125, 161, 140, 288
-0.99947, 393, 113, 408, 240
-0.99948, 283, 97, 298, 224
-0.999481, 139, 161, 154, 288
-0.999482, 303, 177, 318, 304
-0.999501, 309, 177, 324, 304
-0.999509, 275, 97, 290, 224
-0.99951, 345, 177, 360, 304
-0.99951, 341, 81, 356, 208
-0.99951, 327, 81, 342, 208
-0.999511, 119, 161, 134, 288
-0.999511, 401, 113, 464, 240
-0.999514, 355, 177, 370, 304
-0.999518, 333, 81, 348, 208
-0.999523, 279, 193, 294, 320
-0.999523, 389, 161, 404, 288
-0.999525, 351, 81, 366, 208
-0.999525, 55, 209, 70, 336
-0.999538, 397, 209, 428, 336
-0.999546, 289, 97, 304, 224
-0.999548, 185, 145, 200, 272
-0.999548, 369, 177, 384, 304
-0.999557, 357, 81, 372, 208
-0.999564, 217, 113, 232, 240
-0.999566, 243, 97, 258, 224
-0.999568, 105, 193, 120, 320
-0.999569, 245, 193, 260, 320
-0.999574, 353, 229, 480, 260
-0.999574, 11, 193, 26, 320
-0.999581, 339, 177, 354, 304
-0.999581, 149, 161, 164, 288
-0.999584, 43, 161, 58, 288
-0.999585, 321, 81, 336, 208
-0.999588, 365, 81, 380, 208
-0.999588, 315, 177, 330, 304
-0.999589, 173, 207, 188, 222
-0.999589, 197, 263, 212, 278
-0.999591, 405, 291, 420, 306
-0.999592, 367, 277, 382, 292
-0.999592, 207, 177, 222, 192
-0.999592, 161, 311, 176, 326
-0.999593, 199, 323, 214, 338
-0.999593, 373, 299, 388, 314
-0.999594, 235, 317, 250, 332
-0.999594, 211, 213, 226, 228
-0.999595, 393, 267, 408, 282
-0.999595, 319, 217, 334, 232
-0.999596, 377, 233, 392, 248
-0.999597, 439, 281, 454, 296
-0.999597, 251, 193, 266, 320
-0.999597, 157, 241, 172, 256
-0.999598, 75, 261, 90, 276
-0.999598, 141, 219, 156, 234
-0.999598, 127, 225, 142, 240
-0.999598, 97, 291, 112, 306
-0.999598, 289, 157, 304, 172
-0.9996, 303, 153, 318, 168
-0.999601, 155, 235, 170, 250
-0.999601, 61, 177, 76, 304
-0.999603, 401, 285, 416, 300
-0.999604, 49, 219, 64, 234
-0.999604, 269, 145, 284, 160
-0.999604, 247, 195, 262, 210
-0.999605, 93, 215, 108, 230
-0.999605, 379, 285, 394, 300
-0.999607, 185, 311, 200, 326
-0.999607, 405, 297, 420, 312
-0.999607, 401, 113, 416, 240
-0.999607, 213, 193, 228, 208
-0.99961, 355, 285, 370, 300
-0.99961, 81, 289, 96, 304
-0.999611, 177, 145, 192, 272
-0.999612, 369, 291, 384, 306
-0.999613, 167, 217, 182, 232
-0.999613, 173, 237, 188, 252
-0.999614, 109, 285, 124, 300
-0.999615, 179, 209, 194, 224
-0.999616, 67, 261, 82, 276
-0.999616, 291, 149, 306, 164
-0.999617, 91, 289, 106, 304
-0.999618, 317, 319, 332, 334
-0.999622, 383, 269, 398, 284
-0.999622, 189, 317, 204, 332
-0.999623, 353, 169, 480, 200
-0.999623, 201, 185, 216, 200
-0.999624, 203, 317, 218, 332
-0.999624, 187, 203, 202, 218
-0.999625, 255, 165, 270, 180
-0.999625, 321, 177, 336, 304
-0.999625, 119, 291, 134, 306
-0.999626, 193, 311, 208, 326
-0.999627, 271, 157, 286, 172
-0.999627, 419, 141, 434, 156
-0.999627, 285, 193, 300, 320
-0.999628, 87, 259, 102, 274
-0.999629, 205, 113, 220, 240
-0.999631, 385, 81, 400, 208
-0.999631, 61, 213, 76, 228
-0.999631, 247, 163, 262, 178
-0.999632, 435, 141, 450, 156
-0.999632, 235, 97, 250, 224
-0.999633, 201, 191, 216, 206
-0.999633, 191, 261, 206, 276
-0.999634, 389, 279, 404, 294
-0.999635, 133, 217, 148, 232
-0.999636, 335, 227, 350, 242
-0.999637, 259, 189, 274, 204
-0.999637, 303, 315, 318, 330
-0.999638, 135, 211, 150, 226
-0.999642, 279, 147, 294, 162
-0.999643, 201, 269, 216, 284
-0.999644, 353, 97, 384, 341
-0.999646, 179, 201, 194, 216
-0.999646, 141, 247, 156, 262
-0.999647, 81, 259, 96, 274
-0.999648, 205, 213, 220, 228
-0.999648, 87, 219, 102, 234
-0.999648, 393, 291, 408, 306
-0.99965, 183, 317, 198, 332
-0.99965, 389, 285, 404, 300
-0.999651, 135, 239, 150, 254
-0.999652, 425, 141, 440, 156
-0.999652, 1, 161, 16, 288
-0.999652, 17, 193, 32, 320
-0.999653, 113, 249, 128, 264
-0.999654, 161, 223, 176, 238
-0.999656, 9, 129, 40, 256
-0.999657, 395, 193, 410, 320
-0.999658, 207, 197, 222, 212
-0.999664, 241, 315, 256, 330
-0.999665, 127, 217, 142, 232
-0.999665, 55, 217, 70, 232
-0.999665, 213, 173, 228, 188
-0.999665, 167, 211, 182, 226
-0.999666, 253, 153, 268, 168
-0.999669, 229, 165, 244, 180
-0.99967, 221, 169, 236, 184
-0.99967, 185, 197, 200, 212
-0.999671, 313, 81, 328, 208
-0.999674, 211, 207, 226, 222
-0.999676, 283, 155, 298, 170
-0.999676, 143, 227, 158, 242
-0.999678, 161, 217, 176, 232
-0.999678, 49, 209, 64, 336
-0.999678, 361, 281, 376, 296
-0.999679, 155, 221, 170, 236
-0.99968, 401, 161, 416, 288
-0.999681, 329, 225, 344, 240
-0.999681, 67, 177, 82, 304
-0.999683, 93, 257, 108, 272
-0.999685, 95, 177, 110, 304
-0.999686, 137, 231, 152, 246
-0.999687, 167, 145, 182, 272
-0.999687, 115, 285, 130, 300
-0.999687, 411, 193, 426, 320
-0.999688, 305, 325, 320, 340
-0.999689, 311, 319, 326, 334
-0.999691, 285, 321, 300, 336
-0.999694, 323, 325, 338, 340
-0.999695, 155, 229, 170, 244
-0.999695, 127, 247, 142, 262
-0.999696, 241, 321, 256, 336
-0.9997, 141, 241, 156, 256
-0.9997, 179, 311, 194, 326
-0.9997, 293, 319, 308, 334
-0.999702, 337, 193, 464, 224
-0.999708, 231, 309, 246, 324
-0.999709, 135, 245, 150, 260
-0.999714, 89, 193, 104, 320
-0.99972, 291, 193, 306, 320
-0.999721, 237, 161, 252, 176
-0.999722, 111, 255, 126, 270
-0.999724, 135, 225, 150, 240
-0.999724, 277, 153, 292, 168
-0.999726, 149, 225, 164, 240
-0.999727, 311, 325, 326, 340
-0.999727, 149, 233, 164, 248
-0.99973, 25, 177, 40, 304
-0.999732, 257, 159, 272, 174
-0.999733, 111, 161, 126, 288
-0.999734, 191, 191, 206, 206
-0.999737, 299, 321, 314, 336
-0.999739, 103, 257, 118, 272
-0.99974, 401, 233, 464, 296
-0.99974, 191, 129, 206, 256
-0.999747, 265, 151, 280, 166
-0.999752, 407, 113, 422, 240
-0.999752, 119, 249, 134, 264
-0.999753, 293, 325, 308, 340
-0.999754, 7, 145, 22, 272
-0.999757, 199, 113, 214, 240
-0.999757, 147, 239, 162, 254
-0.99976, 317, 325, 332, 340
-0.999764, 263, 81, 278, 208
-0.999765, 89, 97, 120, 341
-0.999779, 265, 157, 280, 172
-0.99978, 3, 209, 18, 336
-0.999781, 229, 97, 244, 224
-0.999781, 17, 145, 32, 272
-0.999789, 247, 157, 262, 172
-0.999789, 1, 121, 500, 184
-0.999791, 49, 169, 176, 200
-0.999793, 57, 97, 88, 341
-0.999796, 159, 145, 174, 272
-0.999797, 271, 151, 286, 166
-0.999798, 299, 81, 314, 208
-0.999801, 307, 81, 322, 208
-0.999806, 259, 153, 274, 168
-0.999806, 77, 145, 92, 272
-0.999807, 369, 97, 496, 160
-0.999827, 257, 81, 272, 208
-1.00003, 37, 97, 68, 341
-1.00004, 17, 97, 48, 341
-1.00009, 137, 97, 168, 341
-1.00017, 149, 97, 180, 341
-1.0002, 365, 97, 396, 341
-1.00023, 77, 97, 108, 341
-1.00023, 369, 217, 496, 248
-1.00024, 353, 193, 480, 256
-1.00025, 105, 161, 136, 288
-1.00025, 249, 81, 280, 208
-1.0003, 353, 205, 480, 236
-1.0003, 353, 181, 480, 212
-1.00033, 49, 141, 176, 172
-1.00035, 1, 97, 32, 341
-1.00037, 257, 225, 320, 288
-1.00038, 329, 65, 392, 192
-1.00041, 1, 153, 128, 184
-1.00044, 265, 1, 296, 256
-1.00048, 225, 1, 256, 256
-1.00049, 117, 97, 148, 341
-1.00052, 253, 1, 284, 256
-1.00055, 353, 113, 480, 144
-1.00059, 237, 1, 268, 256
-1.00059, 381, 97, 412, 341
-1.00062, 89, 1, 152, 341
-1.00062, 277, 1, 308, 256
-1.00067, 1, 141, 128, 172
-1.0007, 233, 1, 296, 256
-1.00074, 1, 65, 64, 320
-1.00074, 321, 1, 352, 256
-1.00076, 193, 1, 256, 256
-1.00076, 81, 145, 208, 208
-1.00077, 289, 1, 320, 256
-1.00078, 213, 97, 244, 224
-1.00079, 97, 137, 224, 168
-1.00079, 369, 217, 496, 280
-1.0008, 301, 1, 332, 256
-1.00081, 205, 1, 236, 256
-1.00086, 409, 209, 440, 336
-1.00089, 177, 125, 304, 156
-1.0009, 17, 129, 144, 160
-1.00091, 321, 97, 448, 160
-1.00093, 393, 97, 424, 341
-1.00099, 25, 1, 56, 256
-1.00102, 65, 125, 192, 156
-1.00103, 17, 1, 144, 32
-1.00103, 65, 1, 192, 32
-1.00105, 333, 1, 364, 256
-1.00105, 105, 97, 136, 341
-1.00106, 449, 97, 480, 341
-1.00106, 225, 113, 352, 144
-1.00107, 37, 1, 68, 256
-1.00107, 369, 65, 496, 96
-1.00107, 321, 73, 448, 104
-1.00107, 33, 77, 160, 108
-1.00107, 81, 77, 208, 108
-1.00107, 129, 77, 256, 108
-1.00107, 177, 77, 304, 108
-1.00107, 225, 77, 352, 108
-1.00107, 273, 77, 400, 108
-1.00107, 369, 77, 496, 108
-1.00107, 321, 85, 448, 116
-1.00107, 1, 89, 128, 120
-1.00107, 49, 89, 176, 120
-1.00107, 97, 89, 224, 120
-1.00107, 145, 89, 272, 120
-1.00107, 193, 89, 320, 120
-1.00107, 241, 89, 368, 120
-1.00107, 369, 89, 496, 120
-1.00107, 289, 97, 416, 128
-1.00107, 1, 101, 128, 132
-1.00107, 49, 101, 176, 132
-1.00107, 97, 101, 224, 132
-1.00107, 145, 101, 272, 132
-1.00107, 193, 101, 320, 132
-1.00107, 241, 101, 368, 132
-1.00107, 337, 101, 464, 132
-1.00107, 289, 109, 416, 140
-1.00107, 17, 113, 144, 144
-1.00107, 65, 113, 192, 144
-1.00107, 113, 113, 240, 144
-1.00107, 161, 113, 288, 144
-1.00108, 185, 1, 216, 256
-1.00108, 57, 97, 120, 341
-1.0011, 33, 209, 64, 336
-1.00111, 169, 1, 200, 256
-1.00113, 49, 1, 80, 256
-1.00118, 5, 1, 36, 256
-1.00127, 437, 97, 468, 341
-1.0013, 349, 1, 380, 256
-1.00131, 257, 97, 500, 160
-1.00132, 69, 1, 100, 256
-1.00133, 465, 97, 496, 341
-1.00135, 1, 97, 64, 224
-1.00137, 405, 97, 436, 341
-1.00139, 457, 1, 488, 256
-1.00139, 433, 1, 464, 256
-1.00141, 365, 1, 396, 256
-1.00142, 257, 49, 500, 176
-1.00148, 257, 97, 384, 160
-1.00149, 149, 1, 180, 256
-1.00152, 45, 113, 76, 240
-1.00153, 77, 129, 108, 256
-1.00154, 397, 1, 428, 256
-1.00155, 97, 1, 128, 256
-1.00156, 421, 97, 452, 341
-1.00159, 81, 1, 112, 256
-1.00163, 385, 1, 416, 256
-1.00164, 361, 65, 392, 192
-1.00164, 113, 1, 144, 256
-1.00166, 469, 1, 500, 256
-1.0017, 129, 1, 160, 256
-1.00171, 445, 1, 476, 256
-1.00174, 49, 113, 176, 176
-1.00174, 417, 1, 448, 256
-1.00182, 433, 1, 496, 341
-1.00189, 21, 129, 52, 256
-1.00198, 405, 161, 436, 288
-1.002, 65, 89, 320, 152
-1.002, 65, 1, 320, 64
-1.00206, 257, 49, 500, 112
-1.00211, 257, 25, 500, 88
-1.00211, 1, 65, 256, 128
-1.00211, 97, 65, 352, 128
-1.00212, 161, 17, 416, 80
-1.00212, 65, 41, 320, 104
-1.00212, 161, 41, 416, 104
-1.00212, 193, 73, 448, 136
-1.00217, 257, 1, 500, 64
-1.00219, 161, 105, 288, 168
-1.00219, 161, 97, 416, 160
-1.0022, 409, 113, 440, 240
-1.0022, 369, 97, 432, 341
-1.00224, 445, 209, 476, 336
-1.00226, 257, 1, 320, 256
-1.00228, 1, 121, 256, 184
-1.00232, 381, 65, 412, 192
-1.00255, 45, 209, 76, 336
-1.00259, 1, 113, 128, 176
-1.00274, 57, 97, 120, 224
-1.00277, 97, 105, 224, 168
-1.0028, 49, 89, 176, 152
-1.00281, 297, 1, 360, 256
-1.00285, 353, 73, 480, 136
-1.00286, 457, 209, 488, 336
-1.00288, 113, 81, 240, 144
-1.00291, 273, 1, 400, 64
-1.00291, 321, 1, 448, 64
-1.00291, 369, 1, 496, 64
-1.00291, 33, 9, 160, 72
-1.00291, 129, 9, 256, 72
-1.00291, 177, 9, 304, 72
-1.00291, 225, 9, 352, 72
-1.00291, 81, 17, 208, 80
-1.00291, 273, 25, 400, 88
-1.00291, 321, 25, 448, 88
-1.00291, 369, 25, 496, 88
-1.00291, 17, 33, 144, 96
-1.00291, 129, 33, 256, 96
-1.00291, 177, 33, 304, 96
-1.00291, 225, 33, 352, 96
-1.00291, 65, 41, 192, 104
-1.00291, 273, 49, 400, 112
-1.00291, 321, 49, 448, 112
-1.00291, 369, 49, 496, 112
-1.00291, 17, 57, 144, 120
-1.00291, 113, 57, 240, 120
-1.00291, 161, 57, 288, 120
-1.00291, 209, 57, 336, 120
-1.00291, 65, 65, 192, 128
-1.00291, 257, 73, 384, 136
-1.00291, 305, 73, 432, 136
-1.00291, 1, 81, 128, 144
-1.00291, 161, 81, 288, 144
-1.00291, 209, 81, 336, 144
-1.00308, 209, 113, 272, 176
-1.00321, 1, 97, 500, 160
-1.00353, 185, 97, 216, 224
-1.00358, 425, 209, 456, 336
-1.00366, 1, 25, 500, 88
-1.00367, 101, 113, 132, 240
-1.00376, 165, 113, 196, 240
-1.00377, 1, 65, 500, 128
-1.00379, 33, 97, 64, 224
-1.00381, 1, 1, 500, 64
-1.00382, 57, 129, 120, 192
-1.00387, 393, 161, 456, 224
-1.00388, 425, 105, 488, 168
-1.0039, 121, 161, 184, 224
-1.00394, 397, 65, 428, 192
-1.0042, 369, 193, 432, 256
-1.0043, 17, 129, 80, 192
-1.00433, 201, 81, 232, 208
-1.00436, 89, 129, 120, 256
-1.00447, 61, 97, 92, 224
-1.0046, 289, 105, 352, 168
-1.00487, 469, 209, 500, 336
-1.00491, 177, 121, 240, 184
-1.00514, 401, 97, 464, 341
-1.00534, 425, 209, 488, 336
-1.00537, 57, 1, 120, 256
-1.00538, 241, 49, 368, 176
-1.00544, 401, 65, 464, 192
-1.00561, 433, 97, 496, 341
-1.00563, 137, 1, 200, 256
-1.0057, 273, 49, 304, 176
-1.00573, 33, 97, 96, 224
-1.0058, 329, 97, 392, 160
-1.00581, 409, 65, 440, 192
-1.00583, 141, 113, 172, 240
-1.00591, 89, 145, 152, 208
-1.00602, 153, 113, 184, 240
-1.00613, 169, 1, 232, 256
-1.00627, 361, 1, 424, 256
-1.00636, 129, 113, 192, 240
-1.00636, 449, 113, 480, 240
-1.00659, 345, 49, 376, 176
-1.00674, 421, 113, 452, 240
-1.00688, 337, 1, 400, 256
-1.00705, 129, 113, 160, 240
-1.00709, 401, 209, 464, 272
-1.00716, 461, 81, 492, 208
-1.00716, 9, 81, 40, 208
-1.00748, 21, 81, 52, 208
-1.00768, 285, 49, 316, 176
-1.00778, 441, 65, 472, 192
-1.00784, 1, 81, 128, 208
-1.00787, 237, 49, 268, 176
-1.00804, 105, 121, 168, 184
-1.00808, 421, 65, 452, 192
-1.00808, 65, 1, 320, 128
-1.00821, 437, 129, 468, 256
-1.00821, 393, 1, 456, 256
-1.00846, 81, 113, 144, 176
-1.00848, 129, 121, 192, 184
-1.00853, 353, 33, 480, 160
-1.00856, 449, 1, 480, 128
-1.00857, 25, 105, 88, 168
-1.00859, 461, 33, 492, 160
-1.00863, 113, 97, 144, 224
-1.00865, 461, 129, 492, 256
-1.00869, 421, 1, 452, 128
-1.00873, 89, 81, 120, 208
-1.00874, 33, 1, 96, 256
-1.00875, 241, 89, 304, 152
-1.0089, 129, 97, 192, 160
-1.00894, 161, 81, 224, 208
-1.00896, 425, 73, 488, 136
-1.00897, 433, 1, 496, 256
-1.00901, 221, 1, 252, 128
-1.00903, 425, 1, 488, 64
-1.00904, 361, 1, 392, 128
-1.00904, 377, 1, 408, 128
-1.00904, 409, 1, 440, 128
-1.00906, 81, 89, 144, 152
-1.00908, 77, 81, 108, 208
-1.0091, 49, 105, 112, 168
-1.00915, 161, 49, 192, 176
-1.00917, 145, 1, 272, 128
-1.00918, 181, 33, 212, 160
-1.00918, 149, 49, 180, 176
-1.00921, 241, 1, 272, 128
-1.00921, 349, 1, 380, 128
-1.00924, 105, 81, 168, 144
-1.00924, 265, 81, 328, 144
-1.00924, 289, 81, 352, 144
-1.00924, 433, 1, 464, 128
-1.00926, 425, 113, 488, 240
-1.00926, 197, 17, 228, 144
-1.00926, 133, 49, 164, 176
-1.00927, 65, 33, 192, 160
-1.00927, 101, 49, 132, 176
-1.00929, 193, 73, 256, 136
-1.00929, 321, 73, 384, 136
-1.00929, 345, 73, 408, 136
-1.00929, 369, 73, 432, 136
-1.00929, 393, 73, 456, 136
-1.00929, 33, 81, 96, 144
-1.00929, 57, 81, 120, 144
-1.00929, 153, 81, 216, 144
-1.00929, 217, 81, 280, 144
-1.00929, 1, 89, 64, 152
-1.00929, 177, 97, 240, 160
-1.00929, 153, 105, 216, 168
-1.00929, 433, 177, 496, 240
-1.00929, 433, 201, 496, 264
-1.00929, 161, 1, 192, 128
-1.00929, 41, 33, 72, 160
-1.00934, 253, 17, 284, 144
-1.00934, 113, 49, 144, 176
-1.00935, 113, 1, 176, 256
-1.00936, 25, 17, 56, 144
-1.00937, 329, 33, 360, 160
-1.00939, 393, 1, 424, 128
-1.00966, 193, 1, 320, 128
-1.00966, 289, 1, 416, 128
-1.00976, 97, 97, 160, 224
-1.00983, 17, 17, 144, 144
-1.00983, 257, 1, 500, 128
-1.01055, 217, 49, 280, 176
-1.01059, 49, 81, 176, 208
-1.01072, 81, 1, 144, 256
-1.01074, 241, 1, 368, 128
-1.01115, 161, 1, 416, 128
-1.01121, 377, 49, 440, 176
-1.01147, 401, 161, 464, 288
-1.01322, 409, 1, 472, 128
-1.01341, 17, 49, 80, 176
-1.01351, 425, 65, 488, 192
-1.01367, 105, 49, 168, 176
-1.01371, 385, 1, 448, 128
-1.0138, 161, 33, 224, 160
-1.01393, 201, 1, 264, 128
-1.01393, 433, 1, 496, 128
-1.014, 137, 1, 200, 128
-1.01406, 329, 1, 392, 128
-1.01406, 353, 1, 416, 128
-1.01432, 241, 17, 304, 144
-1.01432, 73, 49, 136, 176
-1.01435, 129, 49, 192, 176
-1.01465, 41, 17, 104, 144
-1.01471, 1, 1, 64, 128
-1.01475, 193, 49, 256, 176
-1.01478, 73, 1, 136, 128
-1.01478, 97, 1, 160, 128
-1.01478, 281, 1, 344, 128
-1.01478, 305, 1, 368, 128
-1.01619, 425, 161, 488, 288
