1978
-0.341014, 1, 97, 500, 352
-0.341475, 1, 1, 500, 375
-0.386845, 97, 1, 352, 375
-0.460778, 97, 129, 352, 375
-0.463601, 225, 1, 480, 375
-0.472475, 1, 1, 500, 256
-0.503981, 1, 1, 256, 375
-0.547809, 193, 97, 448, 352
-0.59873, 97, 1, 352, 256
-0.619403, 193, 1, 448, 256
-0.620925, 1, 97, 256, 352
-0.757532, 1, 1, 256, 256
-0.819913, 193, 129, 320, 375
-0.836349, 273, 97, 400, 352
-0.840941, 145, 129, 272, 375
-0.851042, 193, 1, 320, 256
-0.856507, 145, 33, 272, 288
-0.857315, 97, 97, 224, 352
-0.859162, 97, 1, 224, 375
-0.864204, 241, 1, 368, 375
-0.864416, 161, 1, 288, 375
-0.86711, 305, 1, 432, 375
-0.869564, 337, 129, 464, 375
-0.874516, 1, 193, 500, 320
-0.882483, 1, 97, 500, 224
-0.883682, 97, 161, 352, 288
-0.885122, 1, 145, 500, 272
-0.889637, 49, 1, 176, 375
-0.895753, 321, 33, 448, 288
-0.899521, 241, 1, 368, 256
-0.901947, 225, 145, 480, 272
-0.902368, 1, 241, 500, 368
-0.902657, 81, 1, 208, 256
-0.904966, 161, 225, 416, 352
-0.905461, 1, 1, 500, 128
-0.905928, 129, 97, 384, 224
-0.906592, 1, 129, 128, 375
-0.906774, 225, 97, 480, 224
-0.907639, 1, 49, 500, 176
-0.909779, 353, 1, 480, 375
-0.910773, 49, 97, 176, 352
-0.914368, 33, 225, 288, 352
-0.916357, 97, 49, 352, 176
-0.916758, 145, 81, 272, 208
-0.919662, 273, 177, 400, 304
-0.923441, 201, 113, 264, 240
-0.924209, 289, 97, 416, 224
-0.924239, 241, 97, 368, 224
-0.924577, 177, 145, 304, 272
-0.926226, 161, 145, 224, 272
-0.926302, 1, 145, 256, 272
-0.926819, 153, 97, 216, 224
-0.926951, 1, 1, 128, 375
-0.927148, 129, 1, 384, 128
-0.92773, 1, 97, 256, 224
-0.927763, 289, 129, 352, 256
-0.929336, 305, 177, 368, 304
-0.929728, 225, 145, 352, 272
-0.93081, 257, 225, 500, 352
-0.931468, 129, 17, 192, 144
-0.931558, 369, 33, 496, 288
-0.931916, 265, 145, 328, 272
-0.932473, 241, 145, 304, 272
-0.933861, 321, 145, 448, 272
-0.934206, 369, 97, 432, 224
-0.934809, 33, 1, 160, 256
-0.935424, 113, 17, 240, 144
-0.936803, 273, 225, 400, 352
-0.937605, 145, 225, 208, 352
-0.938926, 129, 145, 256, 272
-0.939663, 321, 97, 384, 224
-0.939917, 265, 97, 328, 224
-0.940169, 249, 193, 312, 320
-0.940939, 337, 161, 400, 288
-0.942177, 81, 145, 208, 272
-0.942208, 97, 97, 224, 224
-0.942482, 193, 97, 320, 224
-0.942545, 1, 33, 256, 160
-0.942567, 225, 241, 352, 368
-0.943112, 305, 185, 368, 248
-0.943974, 217, 225, 280, 352
-0.944589, 193, 193, 320, 320
-0.944898, 161, 161, 224, 224
-0.946001, 201, 161, 264, 288
-0.946082, 153, 97, 216, 160
-0.94657, 265, 169, 328, 232
-0.947029, 289, 225, 352, 352
-0.947364, 177, 241, 304, 368
-0.948173, 177, 97, 240, 224
-0.948427, 169, 193, 232, 320
-0.948532, 129, 209, 256, 336
-0.948622, 201, 153, 264, 216
-0.948954, 321, 225, 448, 352
-0.949555, 305, 113, 368, 176
-0.949604, 209, 49, 336, 176
-0.949859, 345, 113, 408, 240
-0.949984, 241, 161, 304, 224
-0.950076, 361, 161, 424, 288
-0.95017, 257, 49, 500, 176
-0.950878, 65, 193, 192, 320
-0.951042, 225, 97, 288, 224
-0.95106, 369, 129, 432, 192
-0.951093, 153, 49, 216, 176
-0.951578, 289, 145, 352, 208
-0.952362, 17, 225, 144, 352
-0.952997, 329, 225, 392, 352
-0.953029, 289, 81, 352, 208
-0.953638, 193, 121, 256, 184
-0.95374, 337, 153, 400, 216
-0.953979, 305, 241, 368, 304
-0.954191, 193, 305, 256, 368
-0.954249, 185, 241, 248, 368
-0.95447, 145, 305, 208, 368
-0.954795, 73, 209, 136, 336
-0.955357, 121, 97, 184, 224
-0.955391, 153, 137, 216, 200
-0.955931, 137, 145, 200, 272
-0.956374, 289, 49, 416, 176
-0.956671, 249, 241, 312, 368
-0.95687, 153, 209, 216, 272
-0.957972, 33, 177, 96, 304
-0.958396, 313, 161, 376, 224
-0.958578, 169, 185, 232, 248
-0.958661, 1, 161, 128, 288
-0.958893, 337, 97, 464, 224
-0.959383, 177, 1, 304, 128
-0.959652, 145, 1, 208, 64
-0.959717, 129, 33, 192, 96
-0.959939, 169, 1, 232, 128
-0.960272, 369, 145, 496, 272
-0.960674, 65, 241, 192, 368
-0.961138, 105, 289, 168, 352
-0.961481, 329, 233, 392, 296
-0.961513, 241, 129, 304, 375
-0.961621, 281, 201, 344, 264
-0.961713, 65, 49, 192, 176
-0.961745, 265, 225, 328, 288
-0.961883, 225, 1, 480, 128
-0.962573, 241, 201, 304, 264
-0.963173, 209, 177, 272, 240
-0.963244, 217, 97, 280, 352
-0.963438, 257, 265, 320, 328
-0.963781, 201, 65, 264, 192
-0.96393, 169, 297, 232, 360
-0.964076, 305, 209, 368, 272
-0.964392, 361, 169, 424, 232
-0.964398, 169, 129, 232, 375
-0.964919, 361, 225, 424, 352
-0.964949, 369, 105, 432, 168
-0.964974, 285, 169, 316, 232
-0.965143, 289, 17, 352, 144
-0.965197, 121, 241, 184, 368
-0.965372, 145, 129, 272, 192
-0.965472, 165, 185, 196, 248
-0.965483, 265, 113, 328, 176
-0.965494, 345, 129, 408, 192
-0.965507, 265, 289, 328, 352
-0.965532, 137, 185, 200, 248
-0.96608, 261, 153, 292, 216
-0.96613, 145, 161, 272, 224
-0.966421, 49, 97, 176, 224
-0.966627, 161, 185, 288, 248
-0.966734, 1, 241, 64, 368
-0.966883, 393, 113, 456, 240
-0.966919, 337, 177, 400, 240
-0.967016, 289, 153, 416, 216
-0.9673, 185, 81, 248, 144
-0.967429, 65, 1, 192, 128
-0.967499, 265, 49, 328, 176
-0.967576, 185, 129, 216, 256
-0.967845, 65, 185, 128, 248
-0.968042, 225, 289, 288, 352
-0.968119, 273, 97, 336, 352
-0.968122, 153, 33, 216, 288
-0.96816, 289, 89, 352, 152
-0.968189, 305, 129, 368, 375
-0.968437, 233, 137, 296, 200
-0.968441, 181, 161, 212, 224
-0.96845, 241, 169, 368, 232
-0.968626, 9, 313, 72, 375
-0.968793, 97, 313, 160, 375
-0.96883, 329, 105, 392, 168
-0.968958, 193, 161, 320, 224
-0.96906, 233, 241, 296, 304
-0.969078, 121, 9, 184, 72
-0.969142, 113, 161, 176, 288
-0.969146, 209, 249, 272, 312
-0.969252, 313, 97, 344, 224
-0.969293, 353, 97, 416, 352
-0.96935, 137, 161, 200, 224
-0.969404, 153, 73, 216, 136
-0.969433, 113, 289, 240, 352
-0.969523, 313, 113, 344, 176
-0.969568, 225, 97, 256, 224
-0.969627, 169, 161, 200, 224
-0.969728, 197, 161, 228, 224
-0.969792, 161, 81, 192, 208
-0.970096, 329, 97, 360, 224
-0.97034, 209, 97, 240, 224
-0.970374, 145, 233, 208, 296
-0.970417, 25, 265, 88, 328
-0.970524, 305, 105, 432, 168
-0.970687, 193, 65, 224, 192
-0.970693, 245, 161, 276, 224
-0.970826, 249, 1, 312, 128
-0.97083, 1, 177, 64, 304
-0.970859, 297, 177, 328, 240
-0.970903, 193, 129, 256, 375
-0.970919, 265, 145, 328, 208
-0.970973, 169, 1, 232, 64
-0.970992, 33, 305, 96, 368
-0.971066, 289, 313, 352, 375
-0.971337, 273, 193, 400, 256
-0.971443, 145, 97, 272, 160
-0.971524, 221, 113, 252, 176
-0.971593, 349, 153, 380, 216
-0.971733, 177, 49, 240, 176
-0.971779, 193, 281, 256, 344
-0.971804, 297, 273, 360, 336
-0.971972, 173, 97, 204, 224
-0.97203, 253, 145, 284, 272
-0.972238, 113, 105, 176, 168
-0.972269, 129, 81, 192, 144
-0.972276, 145, 281, 208, 344
-0.972299, 289, 225, 320, 352
-0.972311, 217, 113, 280, 176
-0.972434, 273, 161, 304, 224
-0.972531, 329, 49, 392, 176
-0.972586, 185, 185, 216, 248
-0.97265, 209, 1, 272, 128
-0.972655, 161, 145, 192, 272
-0.972679, 273, 129, 400, 192
-0.972697, 57, 145, 120, 272
-0.972745, 369, 249, 432, 312
-0.972778, 1, 113, 128, 240
-0.972827, 233, 145, 264, 272
-0.972828, 225, 121, 352, 184
-0.972862, 233, 313, 296, 375
-0.972975, 201, 145, 232, 272
-0.972988, 25, 241, 88, 368
-0.973096, 129, 57, 192, 120
-0.973139, 269, 145, 300, 272
-0.973205, 209, 161, 240, 224
-0.973209, 273, 233, 400, 296
-0.973221, 233, 153, 264, 216
-0.973512, 65, 281, 128, 344
-0.973544, 241, 49, 304, 176
-0.973581, 297, 129, 328, 256
-0.973642, 329, 129, 392, 375
-0.973661, 157, 97, 188, 160
-0.973797, 173, 193, 204, 320
-0.973834, 381, 97, 412, 224
-0.973876, 177, 1, 208, 128
-0.973878, 129, 1, 192, 256
-0.973891, 97, 185, 224, 248
-0.973929, 189, 289, 220, 352
-0.974197, 257, 193, 288, 320
-0.974302, 337, 201, 400, 264
-0.974305, 281, 249, 344, 312
-0.97433, 57, 313, 120, 375
-0.974446, 233, 1, 296, 256
-0.974498, 145, 313, 272, 375
-0.974518, 225, 1, 352, 128
-0.974573, 321, 177, 352, 304
-0.974634, 377, 129, 440, 375
-0.974739, 369, 209, 496, 336
-0.974776, 193, 1, 256, 256
-0.974928, 321, 129, 448, 192
-0.974934, 309, 145, 340, 208
-0.974943, 97, 161, 224, 224
-0.97502, 225, 305, 352, 368
-0.975076, 105, 209, 168, 272
-0.975165, 313, 137, 376, 200
-0.975199, 153, 225, 184, 352
-0.975227, 333, 121, 364, 184
-0.975371, 17, 161, 80, 224
-0.975405, 49, 289, 176, 352
-0.975465, 393, 89, 456, 152
-0.975475, 173, 145, 204, 272
-0.975486, 209, 225, 336, 288
-0.975545, 281, 65, 344, 128
-0.975591, 113, 177, 176, 240
-0.975627, 205, 289, 236, 352
-0.975702, 193, 81, 224, 144
-0.975796, 209, 281, 336, 344
-0.975886, 321, 305, 384, 368
-0.975922, 157, 209, 188, 272
-0.97593, 297, 233, 328, 296
-0.975953, 97, 313, 224, 375
-0.975997, 337, 265, 400, 328
-0.976068, 25, 233, 88, 296
-0.976101, 129, 129, 192, 375
-0.976104, 329, 177, 360, 240
-0.976108, 369, 161, 400, 224
-0.976279, 309, 185, 340, 248
-0.9763, 385, 153, 448, 216
-0.976322, 281, 41, 344, 104
-0.976361, 253, 81, 284, 208
-0.976402, 337, 145, 368, 272
-0.976424, 397, 113, 428, 240
-0.976496, 81, 217, 208, 280
-0.976568, 401, 129, 432, 192
-0.976572, 169, 233, 232, 296
-0.976754, 169, 1, 200, 64
-0.976779, 377, 49, 440, 176
-0.976859, 161, 289, 288, 352
-0.976889, 241, 257, 368, 320
-0.977009, 385, 97, 416, 160
-0.977069, 209, 97, 336, 160
-0.977149, 253, 81, 284, 144
-0.97721, 349, 129, 380, 256
-0.977245, 173, 73, 204, 136
-0.977372, 337, 161, 464, 224
-0.977389, 265, 313, 328, 375
-0.97741, 117, 289, 148, 352
-0.977467, 313, 209, 344, 272
-0.977479, 145, 1, 272, 64
-0.977482, 129, 209, 192, 272
-0.977483, 369, 225, 432, 288
-0.977731, 241, 97, 272, 224
-0.97778, 185, 257, 248, 320
-0.977782, 365, 145, 396, 272
-0.977791, 265, 89, 328, 152
-0.977798, 49, 241, 112, 368
-0.9779, 169, 297, 200, 360
-0.977938, 277, 209, 308, 336
-0.977956, 213, 81, 244, 144
-0.977974, 145, 209, 272, 272
-0.977981, 305, 1, 432, 128
-0.977987, 225, 81, 256, 144
-0.978128, 241, 1, 304, 64
-0.978159, 289, 257, 320, 320
-0.97819, 17, 313, 144, 375
-0.978246, 245, 225, 276, 352
-0.978248, 285, 161, 316, 288
-0.978335, 325, 145, 356, 208
-0.978515, 369, 49, 496, 176
-0.978516, 237, 81, 268, 144
-0.978539, 261, 201, 292, 264
-0.978572, 273, 185, 304, 248
-0.978603, 145, 97, 176, 224
-0.978668, 257, 1, 320, 256
-0.978721, 297, 201, 328, 264
-0.978779, 173, 105, 204, 168
-0.978806, 221, 177, 252, 304
-0.978953, 1, 257, 64, 320
-0.978979, 25, 113, 88, 240
-0.979139, 189, 177, 220, 304
-0.97916, 193, 137, 224, 200
-0.979304, 165, 137, 196, 200
-0.979395, 289, 81, 320, 208
-0.979401, 229, 185, 260, 248
-0.979404, 337, 1, 400, 256
-0.979428, 209, 225, 272, 288
-0.979575, 249, 233, 280, 296
-0.979581, 97, 97, 224, 160
-0.979584, 309, 145, 340, 272
-0.97962, 209, 193, 336, 256
-0.979639, 289, 1, 352, 256
-0.979697, 105, 33, 168, 160
-0.97975, 41, 145, 104, 208
-0.97976, 73, 225, 136, 288
-0.979817, 265, 241, 296, 368
-0.979841, 409, 145, 472, 208
-0.980085, 149, 297, 180, 360
-0.980177, 157, 17, 188, 144
-0.980199, 269, 81, 300, 208
-0.980247, 233, 265, 296, 328
-0.980464, 177, 257, 304, 320
-0.980468, 65, 17, 192, 80
-0.980482, 301, 225, 332, 352
-0.980494, 329, 81, 392, 144
-0.980618, 121, 313, 184, 375
-0.980622, 297, 137, 328, 200
-0.980777, 1, 185, 128, 248
-0.980783, 273, 281, 400, 344
-0.980824, 77, 177, 108, 304
-0.980826, 221, 153, 252, 216
-0.980842, 321, 225, 448, 288
-0.980944, 233, 225, 264, 352
-0.98098, 157, 33, 188, 96
-0.981031, 269, 265, 300, 328
-0.98105, 41, 313, 72, 375
-0.981054, 349, 177, 380, 304
-0.981064, 201, 201, 264, 264
-0.98114, 357, 225, 388, 352
-0.981149, 377, 129, 408, 192
-0.98116, 137, 289, 168, 352
-0.981321, 417, 97, 480, 224
-0.981356, 193, 313, 224, 375
-0.981365, 249, 201, 280, 264
-0.981413, 225, 73, 352, 136
-0.981423, 289, 281, 320, 344
-0.981438, 177, 209, 240, 272
-0.981475, 129, 137, 192, 200
-0.981496, 269, 1, 300, 128
-0.981539, 269, 297, 300, 360
-0.981629, 161, 1, 224, 375
-0.981632, 289, 257, 416, 320
-0.981637, 97, 57, 224, 120
-0.981676, 97, 193, 128, 320
-0.981768, 97, 137, 224, 200
-0.981771, 97, 209, 160, 336
-0.981775, 17, 265, 144, 328
-0.981803, 289, 81, 416, 144
-0.981852, 197, 105, 228, 168
-0.981858, 261, 177, 292, 240
-0.981862, 181, 137, 212, 200
-0.981939, 241, 81, 304, 144
-0.981993, 221, 305, 252, 368
-0.982143, 105, 65, 168, 320
-0.982167, 285, 193, 316, 256
-0.982194, 221, 265, 252, 328
-0.982282, 241, 129, 272, 192
-0.982296, 393, 161, 456, 288
-0.982299, 145, 73, 272, 136
-0.982358, 25, 97, 88, 352
-0.982379, 269, 89, 300, 152
-0.98238, 309, 241, 340, 304
-0.982423, 149, 1, 180, 64
-0.982476, 153, 161, 184, 224
-0.982478, 361, 233, 392, 296
-0.982492, 345, 217, 376, 280
-0.982513, 369, 97, 400, 224
-0.982557, 169, 209, 200, 272
-0.982608, 1, 113, 64, 240
-0.982614, 301, 281, 332, 344
-0.982629, 49, 241, 112, 304
-0.982813, 285, 225, 316, 288
-0.983003, 377, 161, 408, 288
-0.983161, 353, 129, 384, 192
-0.983166, 37, 161, 68, 224
-0.98319, 313, 33, 376, 288
-0.983194, 281, 9, 344, 72
-0.9832, 17, 1, 144, 128
-0.983213, 133, 33, 164, 160
-0.98328, 285, 73, 316, 136
-0.9833, 349, 193, 380, 256
-0.983323, 317, 313, 348, 375
-0.983424, 189, 241, 220, 368
-0.983425, 241, 113, 304, 176
-0.983456, 249, 305, 280, 368
-0.983479, 177, 49, 208, 176
-0.983507, 329, 233, 360, 296
-0.983578, 409, 113, 440, 240
-0.983645, 321, 193, 448, 256
-0.983751, 161, 25, 224, 88
-0.983787, 177, 25, 208, 88
-0.983813, 313, 241, 344, 368
-0.983885, 93, 185, 124, 248
-0.983929, 401, 97, 464, 352
-0.98393, 205, 241, 236, 368
-0.984144, 57, 313, 88, 375
-0.984181, 129, 1, 192, 375
-0.98423, 233, 241, 264, 304
-0.984295, 409, 121, 472, 184
-0.984308, 221, 241, 252, 368
-0.984315, 337, 265, 464, 328
-0.984389, 213, 49, 244, 176
-0.984455, 361, 193, 392, 256
-0.984475, 141, 225, 172, 352
-0.98451, 301, 105, 332, 168
-0.984641, 269, 1, 300, 64
-0.984659, 129, 257, 256, 320
-0.984697, 397, 65, 428, 192
-0.984734, 137, 313, 168, 375
-0.984833, 301, 81, 332, 208
-0.984857, 285, 17, 316, 144
-0.984895, 49, 289, 80, 352
-0.984924, 205, 1, 236, 128
-0.984924, 145, 257, 208, 320
-0.984943, 49, 241, 176, 304
-0.984963, 57, 177, 88, 304
-0.985014, 113, 25, 240, 88
-0.985054, 253, 1, 284, 128
-0.985119, 265, 1, 328, 375
-0.985126, 17, 49, 144, 176
-0.985133, 145, 49, 272, 112
-0.985196, 193, 57, 224, 120
-0.985201, 105, 81, 168, 144
-0.985225, 161, 233, 288, 296
-0.985317, 49, 193, 176, 256
-0.985379, 385, 225, 416, 288
-0.985424, 401, 89, 432, 152
-0.985452, 77, 241, 108, 304
-0.985508, 369, 137, 496, 200
-0.985522, 1, 121, 64, 184
-0.985579, 233, 289, 264, 352
-0.985617, 289, 49, 320, 112
-0.985659, 1, 241, 128, 304
-0.985785, 165, 241, 196, 368
-0.985791, 29, 241, 60, 368
-0.985855, 325, 97, 356, 160
-0.985915, 257, 257, 288, 320
-0.985992, 305, 305, 432, 368
-0.986004, 29, 313, 60, 375
-0.986024, 161, 161, 416, 224
-0.986094, 73, 249, 136, 312
-0.986106, 201, 193, 232, 320
-0.986131, 417, 145, 448, 208
-0.986218, 257, 49, 320, 112
-0.986242, 365, 137, 396, 200
-0.986322, 377, 33, 440, 288
-0.986383, 289, 1, 352, 375
-0.98639, 333, 209, 364, 272
-0.986413, 193, 1, 320, 64
-0.986444, 97, 81, 160, 208
-0.986448, 385, 225, 448, 352
-0.986517, 389, 145, 420, 208
-0.986545, 1, 289, 64, 352
-0.986578, 149, 145, 180, 272
-0.986614, 193, 1, 256, 64
-0.986645, 273, 217, 304, 280
-0.986654, 257, 25, 320, 88
-0.986687, 405, 153, 436, 216
-0.986775, 197, 185, 228, 248
-0.986788, 145, 113, 176, 176
-0.986803, 369, 113, 496, 176
-0.986948, 157, 233, 188, 296
-0.987017, 49, 97, 112, 224
-0.987023, 77, 225, 108, 352
-0.987028, 373, 105, 404, 168
-0.987097, 81, 1, 144, 128
-0.987098, 373, 241, 404, 368
-0.987112, 17, 177, 48, 304
-0.987214, 393, 257, 456, 320
-0.987347, 113, 233, 176, 296
-0.987347, 305, 313, 336, 375
-0.987352, 21, 257, 52, 320
-0.987355, 285, 113, 316, 176
-0.987357, 145, 1, 176, 128
-0.987371, 177, 49, 208, 112
-0.98738, 241, 105, 272, 168
-0.987382, 389, 161, 420, 288
-0.987394, 389, 121, 420, 184
-0.987437, 209, 265, 240, 328
-0.987448, 181, 313, 212, 375
-0.987462, 13, 241, 44, 368
-0.987492, 89, 33, 152, 96
-0.987571, 241, 49, 368, 112
-0.987635, 153, 185, 184, 248
-0.98766, 305, 57, 432, 120
-0.98767, 1, 289, 128, 352
-0.987693, 9, 313, 40, 375
-0.987705, 253, 113, 284, 176
-0.987726, 225, 129, 480, 192
-0.987768, 225, 49, 256, 176
-0.987772, 233, 1, 264, 128
-0.987798, 209, 313, 240, 375
-0.9878, 353, 81, 384, 208
-0.98784, 305, 185, 368, 216
-0.987865, 337, 153, 368, 216
-0.987866, 345, 1, 408, 375
-0.987878, 33, 121, 96, 184
-0.987903, 5, 249, 36, 312
-0.987903, 49, 137, 176, 200
-0.987935, 189, 17, 220, 144
-0.98795, 345, 225, 376, 352
-0.987963, 105, 1, 168, 375
-0.988013, 217, 185, 248, 248
-0.988031, 381, 169, 412, 232
-0.988053, 5, 177, 36, 304
-0.98812, 25, 185, 88, 248
-0.988137, 317, 49, 348, 176
-0.988219, 81, 161, 144, 288
-0.988245, 341, 273, 372, 336
-0.98825, 1, 185, 64, 248
-0.988267, 53, 265, 84, 328
-0.988342, 217, 1, 280, 64
-0.988379, 369, 89, 496, 152
-0.988429, 145, 137, 176, 200
-0.988488, 257, 189, 320, 220
-0.98849, 369, 1, 432, 375
-0.988493, 273, 201, 336, 232
-0.988552, 89, 145, 120, 272
-0.98857, 49, 65, 112, 320
-0.988576, 109, 313, 140, 375
-0.988598, 217, 73, 280, 136
-0.988619, 153, 153, 216, 184
-0.988621, 369, 273, 432, 336
-0.988648, 337, 173, 400, 204
-0.988689, 161, 169, 224, 200
-0.988701, 201, 185, 264, 216
-0.988719, 161, 189, 224, 220
-0.988733, 369, 225, 496, 288
-0.988801, 121, 257, 184, 320
-0.988802, 145, 301, 208, 332
-0.988825, 49, 105, 176, 168
-0.988845, 1, 161, 128, 224
-0.988878, 345, 161, 408, 192
-0.988886, 257, 1, 384, 64
-0.988931, 161, 209, 416, 272
-0.989072, 201, 153, 264, 184
-0.989073, 305, 133, 368, 164
-0.989095, 225, 309, 288, 340
-0.989135, 237, 49, 268, 176
-0.989143, 177, 141, 240, 172
-0.989176, 257, 165, 320, 196
-0.989184, 145, 109, 208, 140
-0.989252, 405, 161, 436, 288
-0.989259, 257, 305, 320, 336
-0.989272, 233, 173, 296, 204
-0.989296, 305, 117, 368, 148
-0.989338, 329, 237, 392, 268
-0.989347, 297, 177, 328, 304
-0.989347, 321, 1, 384, 375
-0.989415, 361, 173, 424, 204
-0.989436, 193, 121, 256, 152
-0.989597, 385, 209, 416, 336
-0.9896, 305, 241, 368, 272
-0.98961, 153, 141, 216, 172
-0.989613, 369, 117, 432, 148
-0.989619, 233, 161, 296, 192
-0.98965, 1, 97, 64, 352
-0.989656, 25, 1, 88, 375
-0.989668, 369, 129, 432, 160
-0.989671, 281, 177, 344, 208
-0.989695, 281, 317, 344, 348
-0.989707, 185, 309, 248, 340
-0.989731, 217, 197, 280, 228
-0.989734, 329, 49, 360, 176
-0.989806, 321, 145, 384, 176
-0.989921, 153, 121, 216, 152
-0.989958, 193, 329, 256, 360
-0.989966, 369, 81, 432, 144
-0.989986, 145, 237, 208, 268
-0.990014, 113, 293, 176, 324
-0.990037, 105, 309, 168, 340
-0.990086, 409, 65, 440, 192
-0.990097, 1, 241, 32, 368
-0.990115, 369, 145, 432, 176
-0.990122, 161, 49, 224, 112
-0.990124, 201, 297, 264, 328
-0.990149, 217, 1, 280, 375
-0.99015, 1, 225, 64, 288
-0.990154, 153, 213, 216, 244
-0.990171, 177, 153, 240, 184
-0.990191, 161, 1, 224, 32
-0.990226, 145, 321, 208, 352
-0.990257, 33, 233, 288, 296
-0.990265, 289, 105, 352, 136
-0.990277, 305, 217, 368, 248
-0.99029, 345, 149, 408, 180
-0.990297, 65, 193, 320, 256
-0.990307, 361, 193, 424, 256
-0.99031, 257, 317, 320, 348
-0.990326, 225, 297, 288, 328
-0.990327, 1, 217, 128, 280
-0.990327, 257, 153, 500, 216
-0.990328, 161, 201, 224, 232
-0.990359, 1, 297, 256, 360
-0.990429, 241, 209, 304, 240
-0.990431, 145, 93, 208, 124
-0.990432, 121, 97, 184, 128
-0.99044, 369, 157, 432, 188
-0.990445, 129, 29, 192, 60
-0.990459, 421, 81, 452, 208
-0.990459, 201, 165, 264, 196
-0.99047, 161, 233, 416, 296
-0.990479, 329, 125, 392, 156
-0.990481, 9, 337, 72, 368
-0.990482, 325, 225, 356, 352
-0.990509, 401, 233, 464, 296
-0.990565, 401, 49, 464, 176
-0.990571, 185, 197, 248, 228
-0.990577, 177, 297, 240, 328
-0.990614, 129, 41, 192, 72
-0.990618, 209, 249, 272, 280
-0.990631, 57, 345, 120, 375
-0.990645, 33, 345, 96, 375
-0.990651, 169, 109, 232, 140
-0.990659, 241, 1, 304, 375
-0.990667, 89, 57, 152, 120
-0.990702, 161, 313, 416, 375
-0.990725, 137, 13, 200, 44
-0.990742, 97, 329, 160, 360
-0.990747, 153, 225, 216, 256
-0.990753, 49, 241, 80, 368
-0.99076, 81, 9, 144, 72
-0.99076, 369, 253, 432, 284
-0.990765, 313, 173, 376, 204
-0.990826, 305, 197, 368, 228
-0.990827, 161, 281, 416, 344
-0.990827, 225, 25, 352, 88
-0.990832, 281, 117, 344, 148
-0.990869, 221, 1, 252, 128
-0.990876, 297, 153, 360, 184
-0.990892, 329, 185, 392, 216
-0.990904, 65, 161, 320, 224
-0.990915, 281, 305, 344, 336
-0.99092, 201, 141, 264, 172
-0.990937, 133, 81, 164, 208
-0.990979, 353, 185, 416, 216
-0.990988, 233, 185, 296, 216
-0.99099, 329, 197, 392, 228
-0.991002, 257, 293, 320, 324
-0.991029, 233, 149, 296, 180
-0.991038, 345, 137, 408, 168
-0.991042, 185, 1, 248, 375
-0.991043, 129, 53, 192, 84
-0.991057, 329, 109, 392, 140
-0.991066, 129, 209, 192, 240
-0.991088, 161, 21, 224, 52
-0.991091, 33, 257, 96, 288
-0.991095, 273, 149, 336, 180
-0.991107, 321, 317, 384, 348
-0.991137, 153, 345, 216, 375
-0.991144, 249, 221, 312, 252
-0.991149, 65, 309, 128, 340
-0.991164, 65, 189, 128, 220
-0.991172, 393, 165, 456, 196
-0.991187, 377, 97, 440, 128
-0.9912, 353, 33, 416, 160
-0.9912, 129, 225, 192, 256
-0.991211, 1, 257, 64, 288
-0.991228, 137, 197, 200, 228
-0.991249, 97, 341, 160, 372
-0.991255, 369, 265, 432, 296
-0.99129, 25, 245, 88, 276
-0.991307, 257, 177, 320, 208
-0.991317, 273, 257, 336, 288
-0.99132, 97, 113, 352, 176
-0.99134, 193, 109, 256, 140
-0.991347, 161, 81, 224, 112
-0.991354, 273, 229, 336, 260
-0.991374, 137, 185, 200, 216
-0.991381, 185, 1, 248, 32
-0.991395, 321, 157, 384, 188
-0.99141, 129, 73, 192, 104
-0.991437, 137, 1, 200, 32
-0.991439, 233, 253, 296, 284
-0.991485, 305, 25, 432, 88
-0.991494, 25, 301, 88, 332
-0.991518, 337, 273, 400, 304
-0.991525, 161, 33, 224, 64
-0.991527, 257, 177, 500, 240
-0.99156, 329, 225, 392, 256
-0.991562, 281, 61, 344, 92
-0.991571, 105, 217, 168, 248
-0.991582, 65, 297, 128, 328
-0.991601, 65, 41, 320, 104
-0.991603, 129, 137, 384, 200
-0.991609, 289, 93, 352, 124
-0.991611, 49, 161, 176, 224
-0.991626, 233, 321, 296, 352
-0.991627, 33, 317, 96, 348
-0.991628, 185, 253, 248, 284
-0.991632, 169, 321, 232, 352
-0.991646, 121, 113, 184, 144
-0.991647, 73, 129, 136, 375
-0.991647, 185, 341, 248, 372
-0.991648, 129, 161, 192, 192
-0.991661, 337, 249, 400, 280
-0.991664, 201, 285, 264, 316
-0.99167, 145, 333, 208, 364
-0.991674, 121, 145, 184, 176
-0.991798, 1, 1, 64, 375
-0.991817, 161, 185, 416, 248
-0.991895, 41, 177, 72, 304
-0.991907, 29, 177, 60, 304
-0.991919, 165, 201, 196, 232
-0.991963, 1, 225, 500, 288
-0.991966, 1, 1, 64, 64
-0.991972, 161, 257, 416, 320
-0.992078, 301, 33, 332, 160
-0.992116, 321, 149, 448, 180
-0.992138, 209, 181, 240, 212
-0.99217, 241, 185, 368, 216
-0.992198, 225, 105, 480, 168
-0.992202, 145, 145, 272, 176
-0.99221, 129, 241, 160, 368
-0.992225, 169, 1, 200, 32
-0.992244, 165, 185, 196, 216
-0.992245, 265, 161, 296, 192
-0.992275, 189, 189, 220, 220
-0.992287, 165, 157, 196, 188
-0.992298, 49, 81, 176, 144
-0.992316, 261, 309, 292, 340
-0.992324, 385, 113, 416, 144
-0.992356, 197, 169, 228, 200
-0.992372, 313, 185, 344, 216
-0.992381, 161, 213, 192, 244
-0.992407, 353, 153, 384, 184
-0.99241, 313, 241, 344, 272
-0.992416, 145, 49, 176, 176
-0.992426, 145, 189, 272, 220
-0.992426, 33, 17, 96, 80
-0.992442, 1, 177, 500, 240
-0.99247, 285, 173, 316, 204
-0.992472, 273, 305, 304, 336
-0.992486, 369, 177, 400, 208
-0.992497, 37, 97, 68, 224
-0.992502, 65, 241, 96, 368
-0.992506, 137, 309, 168, 340
-0.992514, 205, 309, 236, 340
-0.992532, 209, 85, 240, 116
-0.992538, 189, 93, 220, 124
-0.992538, 153, 301, 184, 332
-0.992553, 13, 333, 44, 364
-0.992554, 345, 177, 376, 208
-0.992571, 177, 173, 208, 204
-0.992591, 333, 141, 364, 172
-0.992599, 301, 181, 332, 212
-0.9926, 121, 293, 152, 324
-0.992601, 161, 145, 192, 176
-0.992605, 309, 113, 340, 144
-0.992607, 301, 197, 332, 228
-0.992608, 269, 293, 300, 324
-0.992635, 185, 297, 216, 328
-0.992635, 325, 189, 356, 220
-0.992636, 169, 105, 200, 136
-0.992638, 225, 181, 256, 212
-0.992641, 373, 165, 404, 196
-0.992642, 237, 153, 268, 184
-0.992643, 153, 233, 184, 264
-0.99265, 253, 161, 284, 192
-0.992651, 221, 121, 252, 152
-0.992652, 349, 237, 380, 268
-0.992653, 225, 329, 256, 360
-0.992659, 281, 185, 312, 216
-0.99266, 41, 337, 72, 368
-0.992675, 289, 281, 320, 312
-0.992683, 289, 309, 320, 340
-0.992684, 217, 309, 248, 340
-0.992693, 153, 97, 184, 128
-0.9927, 245, 197, 276, 228
-0.992706, 181, 21, 212, 52
-0.99271, 225, 81, 256, 112
-0.99271, 257, 297, 288, 328
-0.992712, 245, 317, 276, 348
-0.992714, 173, 77, 204, 108
-0.992714, 17, 25, 144, 88
-0.992715, 309, 317, 340, 348
-0.992724, 337, 129, 368, 160
-0.992729, 245, 173, 276, 204
-0.992729, 253, 97, 284, 128
-0.992747, 189, 309, 220, 340
-0.992751, 217, 153, 248, 184
-0.992765, 349, 165, 380, 196
-0.992768, 1, 129, 128, 192
-0.992768, 253, 85, 284, 116
-0.992772, 17, 345, 48, 375
-0.992782, 33, 57, 160, 120
-0.992782, 297, 233, 328, 264
-0.992783, 161, 157, 288, 188
-0.992785, 401, 125, 432, 156
-0.992786, 165, 13, 196, 44
-0.992787, 385, 157, 416, 188
-0.992788, 213, 101, 244, 132
-0.99279, 229, 193, 260, 224
-0.99279, 157, 109, 188, 140
-0.992791, 193, 81, 224, 112
-0.992795, 185, 149, 216, 180
-0.992797, 157, 41, 188, 72
-0.992798, 97, 301, 224, 332
-0.992799, 209, 169, 240, 200
-0.992802, 137, 297, 168, 328
-0.992809, 265, 93, 296, 124
-0.992812, 201, 297, 232, 328
-0.992815, 257, 181, 288, 212
-0.992818, 229, 305, 260, 336
-0.992821, 261, 209, 292, 240
-0.99283, 77, 129, 108, 256
-0.992833, 165, 29, 196, 60
-0.992836, 349, 197, 380, 228
-0.992838, 201, 149, 232, 180
-0.992839, 321, 317, 352, 348
-0.992841, 173, 301, 204, 332
-0.992842, 153, 189, 184, 220
-0.992859, 257, 233, 500, 296
-0.992862, 177, 197, 208, 228
-0.992863, 269, 185, 300, 216
-0.992864, 149, 9, 180, 40
-0.992864, 377, 141, 408, 172
-0.992866, 241, 245, 272, 276
-0.992872, 361, 241, 392, 272
-0.992873, 353, 141, 384, 172
-0.992877, 237, 81, 268, 112
-0.992878, 197, 5, 228, 36
-0.992881, 145, 33, 176, 64
-0.992882, 25, 113, 56, 240
-0.992887, 229, 165, 260, 196
-0.992914, 237, 105, 268, 136
-0.992915, 329, 105, 360, 136
-0.992924, 313, 201, 344, 232
-0.992927, 289, 297, 320, 328
-0.992927, 199, 161, 214, 224
-0.992933, 289, 205, 320, 236
-0.992936, 173, 89, 204, 120
-0.992938, 401, 137, 432, 168
-0.992938, 113, 309, 144, 340
-0.992939, 285, 65, 316, 96
-0.992941, 273, 317, 304, 348
-0.992941, 177, 241, 208, 368
-0.992944, 225, 137, 256, 168
-0.992951, 317, 329, 348, 360
-0.992953, 245, 297, 276, 328
-0.992954, 369, 257, 400, 288
-0.992958, 301, 209, 332, 240
-0.992961, 253, 1, 284, 32
-0.992962, 401, 149, 432, 180
-0.992964, 281, 265, 312, 296
-0.992965, 209, 321, 240, 352
-0.992966, 5, 345, 36, 375
-0.992968, 33, 165, 64, 196
-0.992969, 29, 329, 60, 360
-0.992971, 29, 345, 60, 375
-0.992972, 325, 237, 356, 268
-0.992973, 337, 193, 368, 224
-0.992979, 161, 173, 192, 204
-0.992986, 53, 301, 84, 332
-0.992987, 161, 25, 288, 88
-0.992992, 225, 93, 256, 124
-0.992997, 329, 173, 360, 204
-0.993001, 197, 109, 228, 140
-0.99301, 389, 253, 420, 284
-0.993018, 93, 189, 124, 220
-0.993059, 113, 17, 144, 144
-0.993084, 251, 169, 266, 232
-0.993103, 1, 257, 256, 320
-0.993136, 57, 113, 88, 240
-0.993169, 1, 201, 500, 264
-0.993185, 393, 1, 456, 375
-0.99321, 145, 133, 272, 164
-0.993221, 353, 289, 480, 352
-0.993282, 161, 17, 416, 80
-0.993295, 97, 197, 224, 228
-0.993373, 97, 89, 352, 152
-0.993392, 81, 217, 208, 248
-0.993392, 305, 169, 320, 232
-0.99341, 65, 1, 128, 375
-0.993446, 209, 161, 224, 224
-0.993469, 185, 161, 200, 224
-0.993531, 257, 169, 272, 232
-0.993533, 225, 317, 352, 348
-0.993542, 239, 153, 254, 216
-0.993545, 305, 1, 432, 64
-0.993546, 161, 201, 288, 232
-0.993555, 273, 157, 400, 188
-0.993624, 117, 241, 148, 368
-0.993674, 197, 289, 212, 352
-0.99371, 289, 181, 416, 212
-0.993741, 289, 129, 416, 160
-0.993746, 161, 173, 288, 204
-0.993762, 81, 265, 208, 328
-0.993818, 289, 109, 416, 140
-0.993841, 193, 73, 448, 136
-0.993856, 245, 169, 260, 232
-0.993867, 321, 169, 448, 200
-0.99387, 289, 253, 416, 284
-0.993889, 397, 241, 428, 368
-0.993917, 191, 169, 206, 232
-0.993931, 273, 169, 400, 200
-0.993938, 225, 137, 352, 168
-0.993995, 1, 113, 32, 240
-0.994036, 267, 153, 282, 216
-0.994043, 299, 169, 314, 232
-0.994057, 225, 125, 352, 156
-0.994067, 145, 121, 272, 152
-0.994081, 209, 173, 336, 204
-0.994106, 167, 201, 182, 264
-0.994174, 1, 313, 500, 375
-0.994197, 275, 153, 290, 216
-0.994206, 209, 197, 336, 228
-0.994216, 321, 1, 384, 128
-0.994249, 289, 241, 416, 272
-0.994254, 257, 205, 384, 236
-0.994257, 257, 265, 500, 328
-0.994268, 193, 185, 320, 216
-0.994277, 109, 193, 140, 320
-0.994278, 193, 49, 320, 112
-0.994285, 167, 153, 182, 216
-0.994298, 309, 233, 324, 296
-0.994326, 209, 161, 336, 192
-0.99438, 215, 161, 230, 224
-0.994397, 175, 185, 190, 248
-0.994409, 65, 17, 320, 80
-0.994434, 285, 161, 300, 224
-0.994454, 273, 217, 400, 248
-0.994455, 225, 233, 352, 264
-0.99446, 193, 305, 320, 336
-0.994463, 311, 177, 326, 240
-0.994498, 369, 65, 496, 128
-0.994498, 251, 193, 266, 256
-0.994523, 311, 145, 326, 208
-0.994545, 413, 129, 428, 192
-0.994565, 225, 329, 352, 360
-0.994583, 161, 97, 176, 160
-0.994589, 175, 161, 190, 224
-0.994592, 301, 193, 316, 256
-0.994598, 1, 105, 500, 168
-0.994638, 189, 137, 204, 200
-0.99464, 97, 313, 224, 344
-0.994645, 81, 229, 208, 260
-0.994663, 1, 345, 128, 375
-0.994668, 309, 209, 324, 272
-0.994669, 329, 113, 344, 176
-0.994687, 49, 301, 176, 332
-0.994689, 145, 101, 272, 132
-0.994699, 257, 209, 500, 272
-0.994727, 377, 153, 392, 216
-0.994728, 97, 337, 224, 368
-0.994741, 145, 325, 272, 356
-0.994746, 1, 129, 256, 192
-0.994788, 97, 185, 224, 216
-0.99479, 97, 65, 352, 128
-0.994805, 269, 129, 300, 375
-0.994822, 167, 177, 182, 240
-0.994835, 289, 193, 416, 224
-0.994839, 189, 297, 204, 360
-0.994855, 141, 289, 156, 352
-0.994861, 319, 177, 334, 240
-0.99487, 171, 1, 186, 64
-0.994881, 279, 177, 294, 240
-0.994899, 293, 169, 308, 232
-0.994917, 161, 217, 176, 280
-0.994942, 193, 49, 448, 112
-0.995004, 1, 289, 500, 352
-0.99504, 171, 81, 186, 144
-0.995067, 207, 289, 222, 352
-0.995071, 371, 153, 386, 216
-0.995076, 97, 325, 224, 356
-0.99509, 233, 153, 248, 216
-0.995093, 217, 97, 248, 352
-0.995095, 217, 281, 232, 344
-0.995095, 289, 229, 416, 260
-0.995097, 1, 257, 500, 320
-0.995099, 305, 281, 320, 344
-0.995145, 13, 113, 44, 240
-0.995147, 343, 169, 358, 232
-0.995154, 229, 129, 260, 375
-0.995155, 303, 225, 318, 288
-0.995156, 319, 105, 334, 168
-0.995161, 145, 301, 272, 332
-0.995163, 313, 113, 328, 176
-0.995164, 401, 1, 464, 256
-0.995171, 239, 177, 254, 240
-0.995178, 329, 153, 344, 216
-0.995182, 121, 65, 152, 192
-0.995183, 1, 9, 500, 72
-0.995192, 181, 193, 196, 256
-0.995195, 225, 81, 240, 144
-0.995197, 183, 1, 198, 64
-0.995213, 279, 265, 294, 328
-0.995219, 351, 153, 366, 216
-0.995222, 257, 193, 272, 256
-0.995236, 401, 113, 416, 176
-0.995292, 129, 13, 256, 44
-0.995302, 389, 105, 404, 168
-0.995318, 317, 145, 332, 208
-0.995318, 1, 57, 500, 120
-0.995321, 297, 225, 312, 288
-0.995347, 245, 145, 260, 208
-0.995357, 305, 257, 320, 320
-0.995378, 369, 185, 496, 248
-0.995394, 265, 201, 280, 264
-0.995399, 249, 225, 264, 288
-0.995401, 49, 313, 176, 344
-0.995404, 165, 97, 196, 352
-0.995406, 181, 297, 196, 360
-0.995408, 107, 185, 122, 248
-0.995441, 223, 281, 238, 344
-0.995448, 359, 193, 374, 256
-0.995452, 273, 145, 400, 176
-0.995469, 33, 333, 160, 364
-0.99549, 331, 185, 346, 248
-0.995494, 171, 33, 186, 96
-0.995497, 1, 97, 256, 160
-0.995501, 43, 161, 58, 224
-0.995509, 1, 153, 500, 216
-0.99552, 97, 149, 224, 180
-0.99554, 221, 113, 236, 176
-0.995545, 331, 313, 346, 375
-0.995568, 385, 33, 416, 160
-0.995594, 17, 1, 144, 64
-0.995594, 129, 289, 144, 352
-0.995607, 381, 121, 396, 184
-0.995609, 375, 233, 390, 296
-0.995615, 237, 121, 252, 184
-0.995623, 145, 289, 272, 320
-0.995625, 145, 85, 272, 116
-0.995629, 417, 1, 480, 375
-0.995639, 295, 193, 310, 256
-0.995643, 339, 145, 354, 208
-0.995647, 177, 225, 192, 288
-0.995664, 97, 173, 224, 204
-0.995677, 225, 149, 352, 180
-0.995683, 199, 313, 214, 375
-0.995684, 165, 297, 180, 360
-0.995685, 257, 129, 288, 375
-0.995687, 1, 81, 500, 144
-0.995694, 155, 225, 170, 288
-0.995695, 49, 289, 176, 320
-0.995702, 49, 345, 176, 375
-0.995711, 155, 121, 170, 184
-0.995714, 145, 345, 272, 375
-0.995726, 315, 233, 330, 296
-0.995739, 243, 241, 258, 304
-0.995743, 339, 225, 354, 288
-0.995754, 231, 113, 246, 176
-0.995758, 159, 145, 174, 208
-0.995768, 177, 5, 304, 36
-0.995768, 209, 265, 336, 296
-0.995769, 271, 297, 286, 360
-0.995771, 369, 1, 496, 128
-0.995776, 163, 121, 178, 184
-0.995776, 213, 1, 244, 256
-0.99578, 175, 297, 190, 360
-0.995791, 287, 185, 302, 248
-0.995797, 225, 341, 352, 372
-0.995805, 129, 221, 256, 252
-0.995811, 225, 245, 352, 276
-0.995822, 177, 253, 304, 284
-0.995827, 225, 113, 352, 144
-0.995839, 245, 193, 260, 256
-0.995851, 407, 89, 422, 152
-0.995853, 305, 145, 320, 208
-0.99586, 229, 281, 244, 344
-0.995862, 225, 161, 240, 224
-0.995872, 233, 81, 248, 144
-0.995885, 323, 153, 338, 216
-0.99589, 337, 137, 464, 168
-0.99589, 337, 185, 352, 248
-0.995894, 281, 129, 312, 375
-0.995897, 271, 81, 286, 144
-0.995905, 343, 113, 358, 176
-0.995914, 97, 97, 224, 128
-0.995916, 223, 257, 238, 320
-0.995924, 241, 97, 272, 352
-0.995938, 195, 137, 210, 200
-0.995939, 193, 81, 208, 144
-0.995944, 215, 137, 230, 200
-0.995949, 273, 309, 400, 340
-0.995955, 315, 201, 330, 264
-0.995956, 239, 97, 254, 160
-0.995956, 325, 185, 340, 248
-0.99596, 187, 105, 202, 168
-0.995982, 257, 313, 500, 375
-0.995986, 17, 189, 144, 220
-0.996008, 101, 145, 132, 272
-0.996009, 269, 273, 284, 336
-0.996011, 49, 313, 64, 375
-0.99602, 273, 177, 288, 240
-0.996036, 205, 97, 236, 352
-0.996043, 145, 313, 272, 344
-0.996044, 337, 229, 464, 260
-0.99605, 263, 177, 278, 240
-0.996053, 253, 73, 268, 136
-0.996056, 407, 121, 422, 184
-0.996058, 395, 105, 410, 168
-0.996073, 177, 17, 304, 48
-0.996075, 257, 289, 500, 352
-0.996084, 157, 297, 172, 360
-0.996087, 211, 81, 226, 144
-0.996089, 149, 289, 164, 352
-0.996095, 97, 161, 224, 192
-0.9961, 201, 185, 216, 248
-0.996107, 65, 241, 192, 272
-0.996109, 17, 249, 144, 280
-0.99611, 177, 81, 192, 144
-0.996113, 337, 125, 464, 156
-0.99612, 349, 209, 364, 272
-0.996132, 135, 289, 150, 352
-0.996133, 185, 97, 216, 352
-0.996135, 295, 257, 310, 320
-0.996143, 49, 153, 64, 216
-0.996183, 313, 257, 328, 320
-0.996189, 375, 129, 390, 192
-0.99621, 263, 289, 278, 352
-0.996278, 337, 129, 368, 375
-0.996282, 97, 85, 224, 116
-0.996284, 209, 101, 336, 132
-0.996292, 1, 317, 128, 348
-0.996295, 369, 169, 496, 200
-0.996297, 177, 213, 304, 244
-0.996313, 129, 1, 256, 32
-0.996319, 289, 97, 416, 128
-0.996325, 409, 209, 472, 336
-0.996336, 241, 297, 368, 328
-0.99636, 369, 149, 496, 180
-0.996378, 381, 97, 412, 352
-0.996387, 65, 133, 192, 164
-0.996399, 321, 273, 448, 304
-0.9964, 273, 265, 400, 296
-0.996416, 241, 285, 368, 316
-0.996425, 241, 1, 272, 256
-0.996442, 113, 145, 144, 272
-0.996459, 113, 25, 240, 56
-0.996519, 293, 97, 324, 352
-0.996531, 269, 1, 300, 256
-0.996537, 225, 85, 352, 116
-0.996579, 289, 285, 416, 316
-0.996584, 165, 1, 196, 256
-0.996597, 1, 33, 500, 96
-0.996634, 225, 1, 256, 256
-0.996683, 193, 289, 320, 320
-0.996693, 353, 241, 480, 272
-0.996703, 97, 109, 224, 140
-0.996707, 365, 97, 396, 352
-0.996785, 225, 73, 352, 104
-0.996794, 179, 197, 194, 228
-0.996794, 393, 97, 424, 352
-0.996796, 1, 261, 128, 292
-0.99682, 97, 121, 224, 152
-0.996833, 289, 85, 416, 116
-0.996836, 65, 29, 192, 60
-0.99685, 409, 225, 440, 352
-0.996852, 73, 1, 136, 256
-0.996858, 81, 13, 208, 44
-0.996873, 1, 305, 128, 336
-0.996902, 421, 129, 452, 256
-0.996904, 353, 181, 480, 212
-0.996908, 273, 321, 400, 352
-0.996919, 257, 1, 500, 64
-0.996935, 369, 101, 496, 132
-0.996949, 197, 1, 228, 256
-0.996957, 225, 221, 352, 252
-0.996958, 341, 81, 372, 208
-0.996977, 161, 233, 288, 264
-0.997003, 1, 1, 64, 256
-0.997008, 167, 185, 182, 216
-0.997034, 73, 49, 136, 176
-0.99704, 1, 237, 128, 268
-0.997042, 1, 65, 256, 128
-0.997061, 353, 257, 480, 288
-0.997062, 269, 309, 284, 340
-0.997082, 145, 73, 272, 104
-0.997102, 145, 57, 272, 88
-0.997115, 193, 277, 320, 308
-0.99713, 207, 169, 222, 200
-0.997148, 281, 1, 312, 256
-0.997154, 81, 41, 208, 72
-0.997179, 167, 201, 182, 232
-0.997188, 307, 197, 322, 228
-0.997213, 129, 249, 256, 280
-0.99722, 173, 193, 188, 224
-0.997234, 211, 181, 226, 212
-0.997251, 321, 97, 352, 352
-0.997254, 337, 113, 464, 144
-0.997255, 349, 129, 380, 375
-0.997261, 97, 289, 224, 320
-0.997269, 97, 73, 224, 104
-0.997269, 405, 97, 436, 352
-0.99733, 287, 169, 302, 200
-0.997332, 369, 49, 400, 176
-0.997344, 353, 313, 480, 375
-0.997345, 289, 297, 416, 328
-0.997346, 257, 33, 288, 288
-0.997351, 181, 1, 196, 32
-0.997357, 175, 181, 190, 212
-0.997371, 49, 153, 176, 184
-0.997388, 295, 173, 310, 204
-0.997394, 153, 129, 184, 375
-0.997395, 25, 1, 88, 256
-0.997402, 313, 197, 328, 228
-0.997413, 301, 193, 316, 224
-0.997433, 265, 297, 280, 328
-0.997436, 305, 177, 320, 208
-0.997452, 271, 161, 286, 192
-0.99746, 261, 161, 276, 192
-0.997465, 65, 253, 192, 284
-0.997472, 377, 165, 392, 196
-0.997473, 73, 97, 136, 224
-0.997479, 49, 201, 176, 232
-0.997481, 337, 205, 464, 236
-0.997483, 97, 53, 224, 84
-0.997485, 1, 129, 128, 160
-0.997488, 45, 161, 60, 192
-0.997506, 153, 1, 184, 256
-0.99751, 305, 281, 320, 312
-0.99751, 253, 229, 268, 260
-0.997532, 171, 29, 186, 60
-0.997544, 151, 297, 166, 328
-0.997554, 379, 253, 394, 284
-0.997555, 275, 301, 290, 332
-0.997557, 241, 153, 256, 184
-0.997581, 253, 197, 268, 228
-0.997587, 191, 9, 206, 40
-0.997604, 317, 185, 332, 216
-0.997614, 225, 45, 352, 76
-0.997616, 281, 165, 296, 196
-0.997622, 325, 317, 340, 348
-0.997624, 263, 309, 278, 340
-0.997632, 243, 193, 258, 224
-0.997634, 223, 309, 238, 340
-0.997635, 239, 181, 254, 212
-0.997635, 311, 181, 326, 212
-0.997638, 295, 189, 310, 220
-0.997642, 225, 1, 352, 32
-0.997645, 181, 157, 196, 188
-0.997649, 307, 237, 322, 268
-0.997657, 201, 189, 216, 220
-0.997662, 163, 97, 178, 128
-0.997668, 141, 65, 172, 320
-0.997673, 209, 297, 224, 328
-0.997681, 157, 301, 172, 332
-0.997685, 167, 157, 182, 188
-0.997685, 313, 1, 344, 128
-0.997686, 81, 1, 208, 32
-0.997691, 257, 61, 384, 92
-0.997694, 375, 241, 390, 272
-0.997703, 189, 173, 204, 204
-0.997704, 175, 165, 190, 196
-0.997708, 401, 117, 416, 148
-0.99771, 183, 185, 198, 216
-0.99771, 193, 189, 208, 220
-0.997711, 159, 233, 174, 264
-0.997718, 175, 209, 190, 240
-0.997727, 173, 41, 188, 72
-0.997733, 141, 305, 156, 336
-0.997742, 201, 165, 216, 196
-0.997745, 389, 109, 404, 140
-0.997751, 171, 53, 186, 84
-0.997752, 191, 145, 206, 176
-0.997753, 173, 1, 188, 32
-0.997769, 317, 237, 332, 268
-0.997776, 203, 305, 218, 336
-0.997777, 245, 165, 260, 196
-0.997783, 331, 121, 346, 152
-0.997786, 319, 317, 334, 348
-0.997787, 305, 337, 432, 368
-0.997787, 197, 305, 212, 336
-0.997788, 217, 181, 232, 212
-0.99779, 215, 169, 230, 200
-0.997791, 29, 333, 44, 364
-0.997794, 379, 141, 394, 172
-0.997796, 319, 201, 334, 232
-0.997806, 37, 345, 52, 375
-0.997825, 371, 153, 386, 184
-0.997839, 309, 97, 340, 352
-0.99784, 237, 325, 252, 356
-0.997845, 213, 309, 228, 340
-0.997846, 371, 177, 386, 208
-0.99785, 145, 293, 160, 324
-0.997851, 187, 301, 202, 332
-0.997868, 287, 305, 302, 336
-0.997869, 169, 13, 184, 44
-0.997869, 411, 129, 426, 160
-0.997875, 341, 113, 356, 144
-0.997876, 215, 157, 230, 188
-0.997889, 323, 185, 338, 216
-0.997898, 221, 153, 236, 184
-0.997908, 333, 317, 348, 348
-0.997909, 1, 105, 128, 168
-0.997914, 355, 225, 370, 256
-0.997915, 33, 17, 160, 48
-0.997915, 177, 1, 208, 256
-0.997925, 43, 145, 58, 176
-0.997927, 229, 117, 244, 148
-0.997929, 229, 309, 244, 340
-0.99793, 163, 141, 178, 172
-0.99793, 355, 149, 370, 180
-0.997931, 157, 105, 172, 136
-0.997934, 167, 173, 182, 204
-0.997934, 169, 93, 184, 124
-0.997943, 289, 185, 304, 216
-0.99795, 57, 341, 72, 372
-0.99795, 115, 309, 130, 340
-0.997951, 281, 293, 296, 324
-0.997959, 269, 93, 284, 124
-0.99796, 317, 249, 332, 280
-0.997961, 251, 161, 266, 192
-0.997965, 193, 73, 208, 104
-0.997965, 159, 117, 174, 148
-0.99797, 107, 189, 122, 220
-0.997976, 185, 197, 200, 228
-0.997976, 215, 289, 230, 320
-0.997977, 341, 181, 356, 212
-0.997983, 353, 197, 368, 228
-0.997987, 407, 257, 422, 288
-0.997989, 269, 1, 284, 32
-0.997991, 167, 41, 182, 72
-0.997993, 145, 45, 272, 76
-0.997998, 165, 213, 180, 244
-0.997999, 279, 181, 294, 212
-0.998018, 31, 345, 46, 375
-0.998024, 179, 301, 194, 332
-0.998033, 331, 189, 346, 220
-0.998035, 311, 113, 326, 144
-0.998045, 199, 317, 214, 348
-0.998048, 237, 1, 252, 32
-0.998055, 281, 313, 296, 344
-0.998057, 271, 289, 286, 320
-0.99806, 183, 21, 198, 52
-0.99806, 325, 237, 340, 268
-0.998061, 227, 181, 242, 212
-0.998064, 169, 301, 184, 332
-0.998074, 253, 81, 268, 112
-0.998086, 225, 105, 240, 136
-0.998096, 395, 109, 410, 140
-0.998097, 5, 345, 20, 375
-0.998098, 257, 25, 500, 88
-0.998103, 289, 49, 416, 80
-0.998113, 33, 97, 64, 352
-0.998154, 293, 1, 324, 256
-0.998174, 345, 33, 376, 288
-0.998196, 321, 1, 352, 256
-0.998197, 369, 41, 496, 104
-0.998276, 129, 1, 160, 256
-0.998279, 329, 1, 360, 128
-0.998387, 329, 241, 392, 256
-0.998391, 193, 191, 256, 206
-0.998396, 153, 163, 216, 178
-0.9984, 165, 161, 180, 288
-0.998411, 161, 195, 224, 210
-0.99842, 329, 185, 392, 200
-0.998421, 337, 173, 400, 188
-0.998424, 191, 113, 206, 240
-0.99843, 177, 163, 208, 178
-0.998431, 253, 83, 284, 98
-0.998432, 193, 315, 224, 330
-0.998432, 225, 87, 256, 102
-0.998433, 285, 67, 316, 82
-0.998433, 225, 99, 256, 114
-0.998433, 257, 101, 288, 116
-0.998434, 185, 301, 216, 316
-0.998434, 317, 145, 348, 160
-0.998434, 229, 189, 260, 204
-0.998434, 289, 285, 320, 300
-0.998434, 157, 119, 188, 134
-0.998435, 217, 161, 248, 176
-0.998437, 297, 187, 360, 202
-0.998437, 209, 325, 240, 340
-0.998437, 265, 93, 296, 108
-0.998438, 197, 187, 228, 202
-0.998438, 261, 171, 292, 186
-0.998438, 273, 317, 304, 332
-0.998439, 201, 151, 232, 166
-0.99844, 397, 129, 428, 144
-0.998441, 181, 17, 212, 32
-0.998442, 177, 79, 208, 94
-0.998442, 349, 175, 380, 190
-0.998443, 253, 89, 284, 104
-0.998443, 221, 325, 252, 340
-0.998443, 233, 163, 296, 178
-0.998444, 257, 109, 288, 124
-0.998444, 233, 161, 264, 176
-0.998445, 197, 11, 228, 26
-0.998446, 209, 199, 272, 214
-0.998446, 253, 95, 284, 110
-0.998446, 289, 311, 320, 326
-0.998446, 337, 137, 368, 152
-0.998446, 173, 5, 204, 20
-0.998447, 329, 213, 360, 228
-0.998447, 373, 161, 404, 176
-0.998447, 189, 199, 220, 214
-0.998448, 25, 335, 56, 350
-0.998449, 273, 181, 336, 196
-0.998449, 137, 317, 168, 332
-0.998451, 253, 177, 284, 192
-0.998451, 113, 311, 144, 326
-0.998454, 161, 169, 224, 184
-0.998456, 277, 181, 308, 196
-0.998456, 177, 87, 208, 102
-0.998456, 305, 143, 368, 158
-0.998456, 321, 319, 352, 334
-0.998456, 173, 195, 204, 210
-0.998457, 177, 147, 240, 162
-0.998458, 221, 183, 252, 198
-0.998458, 333, 155, 364, 170
-0.998458, 153, 153, 216, 168
-0.99846, 193, 85, 224, 100
-0.99846, 245, 309, 276, 324
-0.99846, 337, 163, 400, 178
-0.99846, 273, 207, 336, 222
-0.998461, 217, 309, 248, 324
-0.998461, 357, 147, 388, 162
-0.998461, 225, 81, 256, 96
-0.998463, 249, 171, 312, 186
-0.998464, 161, 181, 224, 196
-0.998465, 209, 93, 240, 108
-0.998465, 33, 165, 64, 180
-0.998465, 345, 189, 376, 204
-0.998467, 301, 317, 332, 332
-0.998467, 337, 179, 400, 194
-0.998467, 225, 153, 256, 168
-0.998467, 145, 303, 208, 318
-0.998468, 221, 315, 252, 330
-0.998469, 165, 181, 196, 196
-0.998469, 105, 311, 168, 326
-0.99847, 353, 159, 384, 174
-0.998471, 241, 187, 304, 202
-0.998473, 285, 175, 316, 190
-0.998474, 229, 171, 260, 186
-0.998474, 273, 169, 304, 184
-0.998474, 153, 145, 216, 160
-0.998474, 265, 185, 296, 200
-0.998475, 305, 243, 368, 258
-0.998475, 289, 193, 320, 208
-0.998476, 137, 311, 168, 326
-0.998476, 1, 349, 32, 364
-0.998477, 209, 99, 240, 114
-0.998477, 261, 319, 292, 334
-0.998478, 177, 201, 208, 216
-0.998478, 193, 91, 224, 106
-0.99848, 37, 351, 68, 366
-0.998482, 189, 321, 220, 336
-0.998484, 153, 187, 216, 202
-0.998485, 25, 345, 56, 360
-0.998487, 305, 137, 368, 152
-0.998487, 297, 181, 328, 196
-0.998487, 361, 241, 392, 256
-0.998487, 269, 301, 300, 316
-0.998488, 373, 171, 404, 186
-0.998488, 161, 147, 192, 162
-0.998489, 361, 165, 424, 180
-0.99849, 185, 121, 248, 136
-0.998491, 225, 181, 288, 196
-0.998491, 369, 133, 432, 148
-0.998492, 157, 303, 188, 318
-0.998493, 281, 319, 344, 334
-0.998493, 201, 185, 264, 200
-0.998493, 261, 311, 292, 326
-0.998494, 401, 135, 432, 150
-0.998497, 337, 157, 400, 172
-0.998497, 261, 211, 292, 226
-0.998498, 361, 177, 424, 192
-0.998498, 245, 325, 276, 340
-0.998498, 165, 153, 196, 168
-0.998499, 229, 331, 260, 346
-0.9985, 381, 111, 412, 126
-0.998501, 425, 161, 488, 288
-0.998502, 241, 199, 272, 214
-0.998503, 205, 309, 236, 324
-0.998503, 397, 1, 428, 256
-0.998504, 173, 107, 204, 122
-0.998504, 305, 149, 368, 164
-0.998504, 145, 245, 208, 260
-0.998505, 257, 317, 320, 332
-0.998505, 193, 319, 256, 334
-0.998505, 113, 297, 176, 312
-0.998505, 313, 179, 376, 194
-0.998506, 221, 121, 252, 136
-0.998506, 185, 327, 248, 342
-0.998506, 313, 193, 376, 208
-0.998506, 17, 347, 80, 362
-0.998506, 329, 143, 392, 158
-0.998507, 145, 109, 208, 124
-0.998507, 177, 155, 240, 170
-0.998507, 309, 115, 340, 130
-0.998508, 245, 165, 276, 180
-0.998508, 233, 305, 296, 320
-0.998509, 297, 119, 360, 134
-0.998509, 129, 33, 192, 48
-0.998509, 157, 231, 188, 246
-0.99851, 161, 159, 192, 174
-0.998512, 209, 87, 240, 102
-0.998513, 257, 305, 288, 320
-0.998513, 189, 161, 220, 176
-0.998516, 309, 205, 340, 220
-0.998516, 325, 189, 356, 204
-0.998516, 377, 159, 440, 174
-0.998518, 345, 183, 376, 198
-0.998518, 153, 121, 216, 136
-0.998519, 273, 201, 336, 216
-0.99852, 249, 171, 280, 186
-0.998521, 241, 311, 304, 326
-0.998522, 161, 31, 192, 46
-0.998522, 165, 187, 196, 202
-0.998523, 165, 165, 196, 180
-0.998523, 209, 183, 240, 198
-0.998524, 9, 353, 72, 368
-0.998526, 377, 125, 440, 140
-0.998526, 169, 21, 200, 36
-0.998526, 209, 159, 272, 174
-0.998529, 153, 139, 216, 154
-0.998531, 161, 201, 224, 216
-0.998531, 285, 317, 316, 332
-0.998534, 177, 163, 240, 178
-0.998534, 177, 141, 240, 156
-0.998534, 305, 199, 368, 214
-0.998535, 153, 211, 216, 226
-0.998536, 153, 223, 216, 238
-0.998537, 273, 307, 304, 322
-0.998537, 249, 199, 312, 214
-0.998538, 169, 319, 232, 334
-0.998538, 337, 143, 368, 158
-0.998538, 193, 127, 256, 142
-0.998539, 265, 309, 328, 324
-0.998539, 17, 351, 48, 366
-0.998539, 129, 103, 192, 118
-0.99854, 145, 115, 208, 130
-0.99854, 301, 199, 332, 214
-0.99854, 361, 119, 424, 134
-0.99854, 177, 299, 240, 314
-0.99854, 153, 127, 216, 142
-0.998542, 377, 171, 440, 186
-0.998542, 257, 193, 320, 208
-0.998543, 161, 221, 192, 236
-0.998543, 369, 141, 432, 156
-0.998544, 45, 345, 76, 360
-0.998545, 345, 151, 408, 166
-0.998547, 209, 253, 272, 268
-0.998547, 277, 187, 308, 202
-0.998547, 305, 131, 368, 146
-0.998547, 201, 153, 264, 168
-0.998548, 145, 229, 208, 244
-0.998548, 257, 165, 320, 180
-0.998548, 369, 253, 432, 268
-0.998549, 189, 193, 220, 208
-0.998549, 305, 209, 368, 224
-0.99855, 153, 217, 216, 232
-0.99855, 201, 133, 264, 148
-0.998553, 305, 249, 368, 264
-0.998554, 305, 173, 368, 188
-0.998555, 33, 259, 96, 274
-0.998555, 193, 309, 256, 324
-0.998556, 209, 139, 272, 154
-0.998556, 201, 165, 264, 180
-0.998556, 165, 201, 196, 216
-0.998558, 153, 245, 184, 260
-0.998559, 333, 241, 364, 256
-0.998559, 161, 175, 224, 190
-0.99856, 145, 235, 208, 250
-0.998561, 145, 17, 208, 32
-0.998561, 385, 117, 416, 132
-0.998562, 305, 125, 368, 140
-0.998562, 305, 233, 368, 248
-0.998563, 353, 233, 416, 248
-0.998563, 233, 325, 296, 340
-0.998563, 157, 237, 188, 252
-0.998564, 369, 177, 400, 192
-0.998565, 369, 147, 432, 162
-0.998566, 297, 113, 360, 128
-0.998566, 329, 135, 392, 150
-0.998568, 105, 305, 168, 320
-0.998569, 353, 153, 384, 168
-0.99857, 329, 129, 392, 144
-0.998571, 205, 319, 236, 334
-0.998571, 369, 9, 496, 72
-0.998572, 57, 351, 120, 366
-0.998573, 305, 155, 368, 170
-0.998574, 273, 187, 336, 202
-0.998575, 209, 189, 240, 204
-0.99858, 153, 97, 216, 112
-0.998581, 257, 303, 320, 318
-0.998582, 153, 133, 216, 148
-0.998583, 349, 239, 380, 254
-0.998583, 369, 153, 432, 168
-0.998583, 257, 227, 320, 242
-0.998583, 201, 301, 264, 316
-0.998586, 9, 337, 72, 352
-0.998586, 217, 319, 280, 334
-0.998587, 129, 309, 192, 324
-0.998587, 169, 11, 232, 26
-0.998587, 65, 315, 128, 330
-0.998587, 129, 321, 192, 336
-0.998588, 185, 115, 248, 130
-0.998588, 241, 215, 304, 230
-0.998588, 337, 191, 400, 206
-0.998589, 1, 359, 64, 374
-0.998589, 57, 345, 120, 360
-0.99859, 297, 313, 360, 328
-0.99859, 129, 193, 192, 208
-0.998591, 217, 191, 280, 206
-0.998591, 193, 171, 256, 186
-0.998591, 137, 171, 200, 186
-0.998592, 185, 197, 248, 212
-0.998592, 305, 319, 368, 334
-0.998593, 161, 193, 192, 208
-0.998595, 197, 169, 228, 184
-0.998597, 313, 245, 344, 260
-0.998611, 263, 145, 278, 272
-0.998613, 229, 195, 260, 210
-0.998613, 201, 145, 216, 272
-0.998639, 245, 145, 260, 272
-0.998641, 57, 97, 88, 352
-0.998642, 329, 97, 344, 224
-0.998646, 165, 211, 196, 226
-0.998647, 185, 97, 200, 224
-0.998651, 323, 97, 338, 224
-0.998652, 265, 163, 296, 178
-0.99868, 179, 145, 194, 272
-0.998685, 253, 145, 268, 272
-0.998695, 77, 97, 108, 352
-0.998705, 291, 161, 306, 288
-0.998714, 229, 97, 244, 224
-0.998725, 239, 97, 254, 224
-0.998727, 185, 145, 200, 272
-0.998745, 89, 129, 120, 375
-0.998748, 315, 97, 330, 224
-0.998756, 269, 145, 284, 272
-0.99876, 385, 1, 416, 256
-0.998764, 1, 129, 500, 192
-0.998771, 341, 97, 356, 224
-0.998785, 349, 145, 364, 272
-0.998786, 289, 209, 304, 336
-0.998796, 253, 97, 268, 224
-0.998806, 165, 97, 180, 224
-0.998816, 239, 145, 254, 272
-0.998819, 159, 97, 174, 224
-0.998824, 193, 65, 208, 192
-0.998833, 207, 145, 222, 272
-0.998836, 411, 113, 426, 240
-0.998836, 213, 145, 228, 272
-0.99884, 213, 97, 228, 224
-0.998842, 261, 193, 276, 320
-0.998844, 161, 209, 176, 336
-0.998845, 171, 97, 186, 224
-0.998853, 331, 145, 346, 272
-0.998857, 249, 193, 264, 320
-0.998861, 267, 193, 282, 320
-0.998862, 311, 145, 326, 272
-0.998873, 389, 97, 404, 224
-0.998873, 417, 129, 448, 375
-0.998874, 307, 225, 322, 352
-0.998898, 33, 1, 96, 128
-0.99891, 155, 225, 170, 352
-0.998916, 223, 97, 238, 224
-0.998935, 333, 1, 364, 256
-0.998941, 171, 1, 186, 128
-0.99895, 397, 97, 412, 224
-0.998952, 207, 97, 222, 224
-0.998955, 405, 113, 420, 240
-0.998959, 9, 1, 72, 128
-0.998969, 171, 209, 186, 336
-0.998977, 295, 209, 310, 336
-0.998989, 91, 177, 106, 304
-0.998997, 299, 161, 314, 288
-0.999004, 367, 177, 382, 304
-0.999008, 181, 33, 196, 160
-0.999009, 433, 97, 464, 224
-0.999009, 179, 97, 194, 224
-0.999009, 301, 225, 316, 352
-0.99901, 335, 97, 350, 224
-0.999011, 381, 97, 396, 224
-0.999017, 305, 145, 320, 272
-0.999022, 273, 193, 288, 320
-0.999024, 195, 161, 210, 288
-0.999026, 175, 49, 190, 176
-0.999029, 283, 209, 298, 336
-0.999031, 231, 145, 246, 272
-0.999032, 165, 1, 180, 128
-0.999033, 223, 145, 238, 272
-0.999035, 271, 81, 286, 208
-0.999039, 343, 161, 358, 288
-0.999051, 179, 193, 194, 320
-0.999055, 355, 129, 370, 256
-0.99906, 305, 81, 320, 208
-0.999062, 101, 177, 116, 304
-0.99907, 101, 129, 132, 375
-0.999074, 313, 225, 328, 352
-0.999087, 321, 177, 336, 304
-0.999087, 337, 177, 352, 304
-0.999088, 259, 241, 274, 368
-0.999088, 45, 97, 76, 352
-0.999091, 359, 177, 374, 304
-0.999102, 275, 145, 290, 272
-0.999103, 373, 145, 388, 272
-0.999104, 245, 97, 260, 224
-0.999105, 77, 177, 92, 304
-0.999105, 203, 1, 218, 128
-0.999106, 233, 1, 248, 128
-0.999106, 185, 193, 200, 320
-0.999112, 173, 145, 188, 272
-0.999114, 85, 177, 100, 304
-0.999119, 283, 145, 298, 272
-0.999119, 159, 145, 174, 272
-0.99912, 255, 193, 270, 320
-0.99912, 277, 241, 292, 368
-0.999122, 239, 241, 254, 368
-0.999123, 199, 97, 214, 224
-0.999125, 347, 97, 362, 224
-0.999129, 129, 97, 160, 352
-0.99913, 113, 65, 144, 320
-0.999131, 267, 241, 282, 368
-0.999132, 375, 225, 390, 352
-0.999136, 379, 161, 394, 288
-0.999143, 1, 65, 32, 320
-0.999154, 107, 177, 122, 304
-0.999154, 165, 49, 180, 176
-0.999179, 409, 65, 424, 192
-0.99918, 21, 97, 52, 352
-0.99918, 417, 113, 432, 240
-0.999194, 189, 1, 204, 128
-0.999214, 225, 49, 240, 176
-0.99922, 267, 1, 282, 128
-0.99922, 365, 225, 380, 352
-0.999221, 295, 97, 310, 224
-0.999223, 373, 1, 404, 256
-0.999227, 211, 193, 226, 320
-0.99923, 79, 225, 94, 352
-0.99923, 253, 241, 268, 368
-0.999232, 135, 17, 150, 144
-0.999233, 153, 81, 168, 208
-0.99924, 263, 65, 278, 192
-0.999241, 393, 161, 408, 288
-0.999243, 375, 97, 390, 224
-0.999245, 385, 145, 400, 272
-0.999247, 191, 241, 206, 368
-0.99925, 159, 33, 174, 160
-0.999256, 367, 129, 382, 256
-0.999263, 225, 241, 240, 368
-0.999266, 219, 241, 234, 368
-0.99927, 69, 177, 84, 304
-0.999276, 23, 241, 38, 368
-0.999282, 149, 241, 164, 368
-0.999282, 13, 241, 28, 368
-0.999298, 381, 241, 396, 368
-0.999301, 213, 1, 228, 128
-0.999309, 261, 1, 276, 128
-0.999316, 31, 177, 46, 304
-0.999316, 403, 65, 418, 192
-0.999317, 243, 193, 258, 320
-0.999318, 399, 145, 414, 272
-0.999325, 275, 1, 290, 128
-0.999334, 345, 241, 360, 368
-0.999337, 35, 241, 50, 368
-0.999338, 361, 129, 376, 256
-0.999338, 197, 225, 212, 352
-0.999362, 361, 1, 392, 256
-0.999408, 409, 1, 440, 256
-0.999431, 93, 241, 124, 368
-0.99945, 49, 1, 80, 256
-0.999463, 33, 49, 96, 176
-0.999579, 305, 1, 336, 256
-0.99961, 283, 321, 298, 336
-0.999611, 163, 303, 178, 318
-0.999611, 383, 179, 398, 194
-0.999611, 231, 169, 246, 184
-0.999612, 295, 317, 310, 332
-0.999612, 25, 335, 40, 350
-0.999612, 303, 195, 318, 210
-0.999612, 317, 113, 332, 128
-0.999612, 157, 307, 172, 322
-0.999613, 327, 119, 342, 134
-0.999614, 239, 169, 254, 184
-0.999614, 327, 321, 342, 336
-0.999614, 237, 1, 252, 16
-0.999615, 163, 141, 178, 156
-0.999615, 261, 171, 276, 186
-0.999616, 183, 27, 198, 42
-0.999617, 167, 29, 182, 44
-0.999617, 283, 307, 298, 322
-0.999617, 177, 1, 192, 16
-0.999618, 215, 177, 230, 192
-0.999618, 261, 309, 276, 324
-0.999619, 251, 165, 266, 180
-0.999619, 173, 29, 188, 44
-0.999619, 171, 5, 186, 20
-0.999619, 315, 319, 330, 334
-0.99962, 315, 257, 330, 272
-0.99962, 187, 301, 202, 316
-0.99962, 261, 325, 276, 340
-0.99962, 253, 309, 268, 324
-0.999621, 237, 9, 252, 24
-0.999622, 287, 67, 302, 82
-0.999622, 381, 159, 396, 174
-0.999623, 225, 313, 240, 328
-0.999624, 305, 291, 320, 306
-0.999624, 321, 319, 336, 334
-0.999624, 357, 151, 372, 166
-0.999625, 193, 321, 208, 336
-0.999625, 173, 43, 188, 58
-0.999626, 151, 307, 166, 322
-0.999626, 207, 161, 222, 176
-0.999626, 337, 191, 352, 206
-0.999627, 181, 157, 196, 172
-0.999627, 157, 243, 172, 258
-0.999627, 191, 171, 206, 186
-0.999628, 175, 179, 190, 194
-0.999628, 281, 301, 296, 316
-0.999629, 203, 299, 218, 314
-0.999629, 273, 183, 288, 198
-0.99963, 305, 313, 320, 328
-0.99963, 223, 189, 238, 204
-0.999631, 213, 7, 228, 22
-0.999632, 193, 83, 208, 98
-0.999633, 277, 309, 292, 324
-0.999634, 151, 299, 166, 314
-0.999635, 241, 163, 256, 178
-0.999636, 229, 321, 244, 336
-0.999637, 287, 169, 302, 184
-0.999638, 219, 309, 234, 324
-0.99964, 339, 185, 354, 200
-0.999641, 157, 301, 172, 316
-0.999641, 189, 193, 204, 208
-0.999642, 209, 189, 224, 204
-0.999642, 363, 237, 378, 252
-0.999643, 231, 195, 246, 210
-0.999643, 325, 241, 340, 256
-0.999645, 207, 169, 222, 184
-0.999647, 211, 309, 226, 324
-0.999647, 167, 163, 182, 178
-0.999647, 93, 33, 124, 288
-0.999648, 235, 327, 250, 342
-0.999648, 279, 315, 294, 330
-0.999649, 267, 301, 282, 316
-0.999651, 19, 351, 34, 366
-0.999651, 277, 163, 292, 178
-0.999654, 347, 239, 362, 254
-0.999656, 261, 201, 276, 216
-0.999657, 309, 237, 324, 252
-0.999659, 409, 131, 424, 146
-0.999659, 291, 189, 306, 204
-0.99966, 207, 315, 222, 330
-0.999661, 173, 21, 188, 36
-0.999663, 333, 241, 348, 256
-0.999663, 235, 321, 250, 336
-0.999664, 379, 257, 394, 272
-0.999665, 375, 173, 390, 188
-0.999665, 289, 317, 304, 332
-0.999667, 339, 241, 354, 256
-0.99967, 169, 181, 184, 196
-0.999671, 213, 317, 228, 332
-0.999672, 177, 195, 192, 210
-0.999673, 271, 309, 286, 324
-0.999675, 167, 211, 182, 226
-0.999676, 239, 155, 254, 170
-0.999677, 199, 321, 214, 336
-0.99968, 409, 263, 424, 278
-0.99968, 165, 157, 180, 172
-0.999683, 259, 165, 274, 180
-0.999683, 159, 121, 174, 136
-0.999685, 179, 207, 194, 222
-0.999685, 215, 183, 230, 198
-0.999686, 35, 347, 50, 362
-0.999686, 375, 243, 390, 258
-0.999687, 309, 199, 324, 214
-0.999689, 391, 111, 406, 126
-0.999689, 325, 207, 340, 222
-0.99969, 285, 187, 300, 202
-0.99969, 209, 183, 224, 198
-0.99969, 171, 15, 186, 30
-0.999694, 251, 171, 266, 186
-0.999695, 219, 319, 234, 334
-0.999697, 141, 309, 156, 324
-0.999699, 167, 203, 182, 218
-0.999699, 199, 191, 214, 206
-0.9997, 357, 235, 372, 250
-0.999702, 199, 167, 214, 182
-0.999703, 255, 233, 270, 248
-0.999705, 267, 161, 282, 176
-0.999706, 181, 21, 196, 36
-0.99971, 279, 185, 294, 200
-0.999712, 45, 163, 60, 178
-0.999713, 167, 191, 182, 206
-0.999715, 317, 205, 332, 220
-0.999717, 245, 169, 260, 184
-0.999721, 303, 283, 318, 298
-0.999726, 183, 195, 198, 210
-0.999729, 319, 243, 334, 258
-0.999739, 251, 199, 266, 214
-0.999748, 173, 201, 188, 216
-0.999749, 37, 1, 68, 256
-0.999757, 241, 193, 256, 208
-0.999762, 181, 201, 196, 216
-0.999767, 191, 17, 206, 32
-0.999793, 429, 129, 460, 375
-0.999797, 65, 1, 96, 256
-0.999803, 421, 33, 452, 288
-0.999821, 25, 1, 56, 256
-1.00021, 441, 129, 472, 375
-1.00025, 13, 1, 44, 256
-1.0003, 93, 97, 124, 224
-1.00041, 77, 1, 108, 256
-1.00041, 417, 177, 448, 304
-1.00043, 433, 129, 496, 375
-1.00052, 433, 225, 496, 352
-1.00057, 129, 193, 160, 320
-1.00061, 433, 161, 464, 288
-1.00071, 397, 17, 428, 144
-1.00076, 441, 1, 472, 256
-1.00077, 465, 129, 496, 375
-1.00084, 453, 97, 484, 352
-1.00099, 345, 33, 376, 160
-1.00117, 377, 1, 440, 128
-1.00125, 453, 1, 484, 256
-1.00129, 37, 1, 68, 128
-1.00143, 105, 241, 136, 368
-1.00151, 465, 33, 496, 288
-1.00157, 9, 49, 72, 176
-1.0022, 425, 33, 488, 288
-1.00296, 1, 81, 128, 144
-1.00334, 57, 1, 120, 128
-1.00386, 425, 49, 488, 176
-1.00642, 401, 1, 464, 128
-1.01169, 425, 1, 488, 128
