1972
-0.308657, 1, 1, 500, 375
-0.417701, 1, 129, 500, 375
-0.539412, 1, 33, 500, 288
-0.555775, 33, 1, 288, 375
-0.588795, 193, 1, 448, 375
-0.595447, 33, 129, 288, 375
-0.66171, 257, 129, 500, 375
-0.757515, 33, 33, 288, 288
-0.776203, 129, 129, 384, 375
-0.837811, 33, 1, 160, 375
-0.846895, 33, 65, 160, 320
-0.850583, 161, 33, 416, 288
-0.881761, 193, 1, 320, 375
-0.889203, 113, 97, 240, 352
-0.889392, 1, 177, 500, 304
-0.893286, 81, 1, 208, 375
-0.895939, 305, 129, 432, 375
-0.900096, 257, 33, 500, 288
-0.902107, 1, 129, 500, 256
-0.905356, 353, 129, 480, 375
-0.908297, 33, 145, 288, 272
-0.908505, 257, 225, 500, 352
-0.913252, 81, 1, 208, 256
-0.916664, 257, 177, 500, 304
-0.922608, 257, 129, 384, 375
-0.922973, 1, 241, 500, 368
-0.923645, 33, 193, 288, 320
-0.925415, 369, 1, 496, 375
-0.92578, 161, 97, 288, 352
-0.925827, 33, 241, 288, 368
-0.92757, 305, 1, 432, 375
-0.927972, 161, 193, 416, 320
-0.928038, 1, 1, 500, 128
-0.929909, 209, 129, 336, 375
-0.931007, 369, 177, 496, 304
-0.931283, 257, 1, 384, 375
-0.936369, 433, 225, 496, 352
-0.939831, 49, 177, 176, 304
-0.939982, 49, 1, 112, 128
-0.940172, 129, 1, 256, 375
-0.94119, 1, 65, 500, 192
-0.942166, 393, 177, 456, 304
-0.942208, 33, 97, 160, 224
-0.942796, 33, 97, 288, 224
-0.943194, 129, 129, 384, 256
-0.943444, 33, 1, 160, 128
-0.943508, 193, 1, 320, 256
-0.944545, 289, 33, 416, 288
-0.945661, 33, 1, 288, 128
-0.946458, 1, 177, 128, 304
-0.946606, 305, 177, 432, 304
-0.946613, 97, 129, 224, 256
-0.946789, 57, 177, 120, 304
-0.946854, 129, 241, 384, 368
-0.947029, 65, 49, 128, 176
-0.948783, 1, 49, 128, 176
-0.950249, 225, 177, 352, 304
-0.950504, 33, 49, 288, 176
-0.951886, 73, 1, 136, 128
-0.953036, 353, 225, 480, 352
-0.953202, 49, 113, 112, 240
-0.953881, 25, 97, 88, 224
-0.95391, 369, 33, 496, 288
-0.954515, 33, 241, 96, 368
-0.954786, 25, 17, 88, 144
-0.954825, 353, 193, 416, 320
-0.95495, 17, 241, 144, 368
-0.955912, 305, 225, 432, 352
-0.957049, 265, 161, 328, 288
-0.957218, 49, 41, 112, 104
-0.957427, 225, 129, 480, 256
-0.957963, 17, 193, 80, 320
-0.958019, 289, 177, 352, 304
-0.958847, 401, 225, 464, 288
-0.95917, 49, 185, 112, 248
-0.959794, 417, 177, 480, 304
-0.960094, 177, 209, 304, 336
-0.960314, 145, 129, 208, 256
-0.960973, 393, 185, 456, 248
-0.961102, 417, 273, 480, 336
-0.961537, 225, 241, 352, 368
-0.961844, 113, 177, 240, 304
-0.962899, 9, 145, 72, 272
-0.963003, 305, 129, 432, 256
-0.963229, 49, 65, 112, 128
-0.963241, 353, 209, 416, 272
-0.964086, 65, 89, 128, 152
-0.964119, 121, 129, 184, 256
-0.964175, 265, 185, 328, 248
-0.964301, 265, 241, 328, 368
-0.964761, 241, 33, 368, 288
-0.964969, 25, 81, 88, 144
-0.964992, 409, 241, 472, 368
-0.965811, 81, 33, 144, 96
-0.965922, 369, 177, 432, 240
-0.966156, 89, 129, 152, 256
-0.966314, 49, 161, 112, 224
-0.96645, 25, 105, 88, 168
-0.966622, 129, 1, 256, 256
-0.966644, 65, 241, 192, 368
-0.966697, 65, 49, 192, 176
-0.966738, 433, 249, 496, 312
-0.967436, 161, 81, 416, 208
-0.967831, 97, 49, 160, 176
-0.96798, 97, 1, 160, 128
-0.968082, 25, 25, 88, 88
-0.968153, 289, 241, 352, 368
-0.968206, 49, 33, 112, 288
-0.968257, 329, 193, 392, 320
-0.9684, 145, 129, 272, 256
-0.96878, 241, 177, 304, 304
-0.968821, 417, 193, 480, 256
-0.968857, 453, 225, 484, 352
-0.968997, 313, 241, 376, 368
-0.969165, 57, 241, 120, 368
-0.969471, 25, 145, 88, 208
-0.969567, 33, 265, 96, 328
-0.969585, 25, 241, 88, 304
-0.969688, 49, 121, 112, 184
-0.969801, 129, 241, 256, 368
-0.969828, 353, 193, 480, 256
-0.970067, 425, 225, 488, 288
-0.970538, 145, 137, 208, 200
-0.970713, 409, 249, 472, 312
-0.970733, 49, 17, 112, 80
-0.97077, 169, 129, 232, 256
-0.971, 193, 113, 320, 240
-0.971013, 33, 313, 96, 375
-0.971038, 17, 169, 80, 232
-0.971083, 369, 225, 496, 288
-0.971424, 25, 57, 88, 120
-0.971452, 297, 209, 360, 272
-0.971484, 361, 233, 424, 296
-0.97174, 369, 145, 432, 272
-0.972226, 433, 313, 496, 375
-0.97238, 465, 209, 496, 272
-0.972533, 185, 209, 248, 336
-0.972766, 17, 217, 80, 280
-0.972886, 121, 209, 184, 336
-0.972998, 17, 193, 80, 256
-0.973016, 217, 209, 280, 336
-0.973061, 465, 209, 496, 336
-0.973692, 449, 233, 480, 296
-0.973773, 193, 1, 448, 128
-0.974358, 33, 289, 96, 352
-0.974746, 105, 1, 136, 128
-0.9752, 377, 225, 440, 352
-0.975435, 389, 177, 420, 304
-0.975723, 73, 1, 136, 256
-0.97585, 257, 1, 320, 128
-0.975852, 401, 177, 432, 240
-0.975853, 53, 1, 84, 128
-0.975857, 409, 177, 440, 304
-0.975861, 33, 185, 160, 248
-0.975972, 33, 25, 160, 88
-0.97599, 329, 209, 392, 272
-0.976032, 265, 257, 328, 320
-0.976254, 289, 305, 352, 368
-0.976294, 281, 281, 344, 344
-0.976408, 57, 265, 120, 328
-0.976726, 1, 161, 128, 224
-0.976811, 105, 121, 168, 184
-0.976871, 25, 1, 88, 256
-0.976875, 89, 241, 152, 368
-0.976882, 33, 121, 160, 184
-0.976903, 145, 241, 208, 368
-0.976917, 65, 129, 128, 375
-0.977176, 289, 209, 416, 272
-0.977225, 89, 193, 152, 320
-0.977515, 441, 257, 472, 320
-0.977531, 377, 209, 440, 272
-0.977576, 453, 177, 484, 304
-0.977672, 73, 57, 136, 120
-0.977731, 25, 129, 88, 375
-0.97802, 369, 129, 496, 256
-0.978095, 33, 49, 160, 112
-0.978394, 49, 1, 112, 375
-0.978412, 73, 49, 104, 112
-0.978468, 53, 25, 84, 88
-0.97852, 461, 249, 492, 312
-0.978559, 305, 185, 432, 248
-0.978671, 1, 89, 128, 152
-0.978805, 97, 137, 224, 200
-0.978904, 313, 145, 376, 272
-0.978962, 57, 129, 88, 256
-0.979007, 441, 225, 472, 352
-0.979033, 49, 145, 176, 208
-0.979175, 97, 161, 160, 224
-0.979327, 393, 273, 456, 336
-0.979362, 49, 289, 176, 352
-0.979373, 1, 1, 64, 128
-0.979522, 161, 177, 224, 304
-0.979543, 313, 313, 376, 375
-0.979549, 369, 273, 496, 336
-0.979563, 305, 241, 432, 304
-0.979564, 297, 249, 360, 312
-0.979571, 9, 1, 72, 64
-0.979729, 53, 65, 84, 192
-0.979853, 33, 209, 160, 272
-0.980008, 85, 25, 116, 88
-0.980022, 73, 305, 136, 368
-0.980065, 17, 265, 144, 328
-0.980185, 209, 1, 336, 128
-0.980232, 81, 9, 144, 72
-0.980278, 105, 97, 168, 352
-0.980357, 241, 241, 304, 368
-0.980403, 53, 73, 84, 136
-0.980459, 97, 57, 160, 120
-0.980544, 1, 49, 64, 176
-0.980669, 53, 105, 84, 168
-0.980748, 225, 185, 352, 248
-0.980775, 81, 1, 112, 128
-0.980838, 313, 185, 376, 248
-0.980888, 97, 185, 160, 248
-0.980975, 409, 129, 472, 375
-0.981103, 81, 1, 208, 128
-0.981173, 385, 249, 448, 312
-0.981205, 353, 249, 480, 312
-0.981234, 57, 209, 120, 272
-0.981239, 105, 49, 136, 112
-0.981523, 257, 129, 384, 256
-0.981543, 57, 145, 88, 208
-0.981846, 1, 97, 64, 224
-0.981856, 177, 257, 240, 320
-0.981884, 337, 185, 400, 248
-0.981995, 105, 257, 168, 320
-0.982069, 225, 265, 352, 328
-0.98213, 69, 1, 100, 128
-0.982184, 69, 25, 100, 88
-0.982195, 145, 97, 208, 352
-0.982273, 241, 257, 304, 320
-0.982287, 345, 145, 408, 272
-0.982656, 53, 49, 84, 112
-0.982693, 389, 193, 420, 256
-0.982802, 257, 281, 320, 344
-0.982865, 417, 185, 448, 248
-0.982928, 73, 145, 136, 208
-0.983067, 57, 241, 120, 304
-0.983087, 209, 265, 272, 328
-0.98316, 61, 241, 92, 368
-0.983308, 409, 129, 472, 256
-0.983347, 317, 209, 348, 336
-0.983359, 73, 1, 136, 375
-0.98352, 449, 201, 480, 264
-0.98364, 17, 313, 144, 375
-0.983641, 293, 161, 324, 288
-0.983663, 293, 177, 324, 240
-0.983909, 129, 185, 192, 248
-0.983912, 57, 177, 88, 240
-0.983964, 49, 233, 176, 296
-0.984042, 1, 241, 128, 304
-0.984079, 105, 25, 168, 88
-0.984128, 469, 161, 500, 288
-0.984142, 49, 97, 176, 160
-0.984184, 145, 257, 272, 320
-0.984292, 73, 49, 104, 176
-0.984297, 105, 17, 136, 80
-0.984333, 113, 81, 240, 208
-0.984349, 97, 1, 160, 256
-0.984404, 169, 137, 232, 200
-0.984462, 301, 241, 332, 368
-0.984467, 1, 65, 64, 128
-0.984493, 337, 241, 400, 368
-0.9845, 25, 1, 88, 375
-0.984616, 289, 177, 352, 240
-0.98469, 257, 65, 500, 192
-0.984717, 417, 169, 480, 232
-0.98474, 129, 257, 192, 320
-0.984761, 265, 129, 328, 375
-0.984767, 1, 25, 64, 88
-0.984825, 289, 161, 416, 224
-0.98487, 469, 313, 500, 375
-0.98495, 93, 1, 124, 128
-0.98504, 105, 97, 168, 160
-0.985096, 177, 161, 304, 224
-0.985101, 225, 209, 352, 272
-0.985105, 225, 289, 352, 352
-0.985105, 309, 209, 340, 272
-0.985189, 145, 129, 176, 256
-0.9852, 93, 49, 124, 176
-0.985206, 1, 105, 64, 168
-0.985264, 113, 129, 144, 256
-0.9853, 105, 225, 168, 288
-0.985312, 81, 265, 144, 328
-0.985329, 265, 113, 328, 240
-0.985342, 393, 233, 424, 296
-0.985529, 201, 161, 264, 288
-0.985551, 113, 185, 240, 248
-0.985591, 305, 313, 432, 375
-0.985679, 105, 49, 136, 176
-0.985683, 181, 129, 212, 256
-0.98571, 65, 265, 192, 328
-0.985875, 121, 145, 184, 208
-0.985893, 445, 281, 476, 344
-0.986045, 441, 177, 472, 304
-0.986053, 321, 305, 352, 368
-0.986133, 37, 129, 68, 256
-0.986182, 305, 193, 336, 320
-0.986193, 265, 233, 328, 296
-0.986239, 273, 177, 304, 304
-0.986258, 205, 209, 236, 336
-0.986268, 361, 257, 424, 320
-0.986347, 365, 217, 396, 280
-0.986388, 429, 273, 460, 336
-0.986426, 69, 177, 100, 304
-0.986446, 361, 193, 392, 320
-0.9865, 321, 233, 384, 296
-0.986523, 369, 169, 496, 232
-0.986576, 409, 313, 472, 375
-0.986665, 145, 81, 208, 208
-0.986735, 153, 265, 216, 328
-0.986767, 125, 129, 156, 256
-0.986819, 113, 177, 144, 240
-0.98685, 369, 129, 432, 375
-0.986889, 169, 185, 232, 248
-0.986911, 257, 313, 384, 375
-0.986927, 97, 161, 224, 224
-0.986982, 241, 193, 304, 256
-0.986999, 41, 177, 72, 304
-0.987016, 145, 137, 176, 200
-0.987121, 73, 185, 136, 248
-0.987126, 377, 209, 408, 336
-0.987139, 9, 313, 72, 375
-0.987194, 353, 313, 416, 375
-0.987284, 1, 129, 64, 192
-0.987285, 57, 257, 88, 320
-0.987441, 305, 289, 336, 352
-0.987482, 201, 225, 264, 288
-0.987499, 221, 209, 252, 336
-0.987593, 225, 217, 288, 280
-0.987654, 169, 129, 232, 375
-0.987736, 9, 281, 72, 344
-0.987845, 121, 65, 184, 192
-0.987932, 65, 313, 192, 375
-0.988096, 97, 1, 160, 375
-0.988117, 113, 193, 144, 320
-0.988164, 41, 209, 72, 272
-0.988168, 321, 273, 384, 336
-0.988224, 405, 217, 436, 280
-0.988264, 105, 97, 136, 160
-0.988319, 329, 241, 360, 368
-0.988386, 181, 137, 212, 200
-0.988431, 37, 65, 68, 192
-0.988441, 1, 289, 128, 352
-0.988482, 89, 49, 120, 112
-0.988487, 457, 297, 488, 360
-0.988544, 169, 113, 200, 240
-0.988552, 421, 177, 452, 304
-0.988563, 257, 233, 384, 296
-0.988696, 121, 129, 152, 192
-0.988709, 469, 281, 500, 344
-0.988713, 145, 225, 208, 288
-0.988715, 57, 177, 88, 304
-0.988728, 109, 265, 140, 328
-0.988739, 305, 265, 432, 328
-0.988752, 377, 209, 408, 272
-0.988841, 177, 217, 304, 280
-0.988929, 273, 209, 336, 272
-0.98902, 317, 185, 348, 248
-0.989043, 113, 217, 240, 280
-0.989046, 201, 257, 232, 320
-0.989063, 101, 97, 132, 224
-0.98908, 289, 241, 320, 368
-0.989096, 177, 289, 304, 352
-0.989104, 113, 153, 144, 216
-0.989121, 105, 289, 168, 352
-0.989128, 289, 249, 320, 312
-0.989175, 277, 1, 308, 128
-0.989199, 9, 241, 72, 368
-0.989216, 49, 185, 112, 216
-0.989237, 221, 265, 252, 328
-0.989258, 241, 1, 304, 375
-0.989292, 157, 113, 188, 240
-0.989297, 125, 177, 156, 240
-0.989322, 61, 289, 92, 352
-0.989329, 289, 129, 352, 256
-0.98934, 33, 1, 160, 64
-0.989358, 409, 257, 472, 288
-0.989384, 37, 81, 68, 144
-0.98939, 437, 225, 468, 288
-0.989407, 397, 225, 428, 352
-0.989525, 49, 45, 112, 76
-0.989527, 49, 233, 80, 296
-0.989557, 65, 73, 192, 136
-0.989577, 33, 345, 96, 375
-0.9896, 265, 161, 328, 224
-0.989606, 153, 113, 216, 176
-0.989646, 81, 113, 144, 176
-0.989675, 97, 289, 224, 352
-0.989684, 61, 313, 92, 375
-0.989698, 273, 289, 400, 352
-0.989771, 193, 145, 256, 208
-0.989782, 41, 313, 72, 375
-0.989814, 129, 289, 192, 352
-0.989825, 49, 65, 112, 96
-0.989897, 177, 185, 304, 248
-0.98993, 65, 33, 128, 64
-0.990036, 241, 209, 272, 336
-0.990059, 125, 193, 156, 320
-0.990074, 37, 17, 68, 144
-0.990078, 37, 105, 68, 168
-0.990107, 49, 77, 112, 108
-0.990144, 49, 17, 112, 48
-0.990175, 369, 297, 496, 360
-0.990222, 369, 201, 432, 232
-0.990222, 433, 261, 496, 292
-0.990231, 193, 121, 256, 184
-0.990235, 73, 49, 136, 80
-0.990246, 37, 145, 68, 208
-0.990247, 93, 193, 124, 256
-0.990265, 333, 313, 364, 375
-0.990285, 425, 241, 456, 368
-0.990298, 137, 193, 168, 320
-0.990341, 393, 193, 456, 224
-0.990358, 409, 281, 472, 312
-0.990364, 361, 217, 424, 248
-0.990454, 401, 217, 464, 248
-0.990464, 25, 85, 88, 116
-0.99047, 193, 97, 256, 224
-0.990489, 25, 73, 88, 104
-0.990523, 1, 1, 64, 256
-0.990531, 25, 253, 88, 284
-0.990544, 49, 173, 112, 204
-0.990568, 305, 209, 368, 240
-0.990569, 97, 113, 224, 176
-0.990581, 201, 193, 264, 256
-0.990584, 41, 29, 104, 60
-0.9906, 349, 177, 380, 304
-0.990607, 37, 41, 68, 104
-0.990607, 437, 313, 468, 375
-0.990642, 137, 257, 168, 320
-0.990655, 329, 193, 360, 320
-0.99066, 169, 217, 232, 280
-0.990662, 409, 269, 472, 300
-0.990675, 65, 93, 128, 124
-0.990688, 193, 209, 224, 336
-0.990703, 25, 241, 88, 272
-0.990706, 33, 177, 288, 240
-0.990712, 33, 325, 96, 356
-0.990718, 25, 121, 88, 152
-0.990745, 409, 205, 472, 236
-0.990754, 73, 341, 136, 372
-0.990782, 37, 169, 68, 232
-0.990794, 217, 9, 280, 72
-0.990795, 73, 21, 136, 52
-0.990802, 401, 129, 432, 256
-0.990804, 257, 265, 500, 328
-0.990814, 377, 181, 440, 212
-0.990825, 25, 265, 88, 296
-0.990827, 93, 89, 124, 152
-0.990828, 265, 189, 328, 220
-0.990843, 25, 109, 88, 140
-0.990856, 201, 289, 264, 352
-0.990862, 105, 201, 136, 264
-0.990876, 305, 185, 336, 248
-0.990878, 97, 193, 128, 320
-0.990879, 25, 153, 88, 184
-0.990889, 273, 265, 304, 328
-0.9909, 25, 53, 88, 84
-0.990911, 25, 169, 88, 200
-0.990942, 49, 197, 112, 228
-0.990991, 417, 193, 480, 224
-0.991037, 401, 245, 464, 276
-0.991052, 25, 133, 88, 164
-0.991057, 25, 17, 88, 48
-0.991063, 33, 145, 288, 208
-0.991076, 401, 229, 464, 260
-0.991091, 145, 141, 208, 172
-0.991101, 17, 205, 80, 236
-0.991103, 177, 121, 304, 184
-0.991103, 97, 185, 160, 216
-0.99112, 209, 241, 336, 304
-0.991145, 261, 177, 292, 304
-0.991153, 361, 245, 424, 276
-0.991158, 25, 97, 88, 128
-0.991165, 17, 229, 80, 260
-0.991174, 353, 153, 416, 216
-0.991183, 121, 81, 152, 208
-0.991185, 49, 161, 112, 192
-0.99119, 433, 233, 496, 264
-0.991234, 17, 217, 80, 248
-0.991241, 433, 317, 496, 348
-0.991245, 353, 217, 384, 280
-0.991249, 81, 313, 112, 375
-0.991254, 25, 181, 88, 212
-0.991287, 49, 125, 112, 156
-0.991306, 105, 129, 168, 160
-0.991312, 17, 193, 80, 224
-0.99132, 125, 153, 156, 216
-0.991338, 161, 289, 224, 352
-0.991363, 101, 169, 132, 232
-0.991403, 257, 1, 384, 128
-0.991404, 433, 249, 496, 280
-0.991444, 277, 241, 308, 368
-0.991475, 25, 41, 88, 72
-0.991476, 137, 241, 168, 368
-0.991478, 33, 313, 96, 344
-0.991494, 33, 293, 96, 324
-0.991518, 49, 141, 112, 172
-0.991518, 217, 225, 248, 288
-0.991522, 377, 345, 440, 375
-0.991557, 457, 273, 488, 336
-0.991563, 369, 261, 432, 292
-0.99158, 97, 197, 160, 228
-0.991593, 249, 269, 312, 300
-0.991604, 329, 213, 392, 244
-0.991608, 433, 205, 496, 236
-0.991629, 65, 277, 128, 308
-0.991661, 33, 265, 288, 328
-0.991688, 293, 273, 324, 336
-0.991701, 437, 201, 468, 264
-0.991707, 433, 273, 496, 304
-0.991739, 433, 129, 496, 375
-0.99174, 73, 65, 136, 96
-0.991759, 257, 241, 500, 304
-0.991811, 289, 129, 352, 375
-0.991823, 105, 141, 168, 172
-0.991827, 9, 29, 72, 60
-0.991829, 225, 217, 480, 280
-0.991832, 401, 181, 464, 212
-0.991834, 105, 121, 136, 184
-0.99184, 433, 301, 496, 332
-0.991842, 81, 273, 112, 336
-0.991844, 169, 129, 200, 192
-0.991849, 49, 113, 112, 144
-0.991869, 361, 233, 424, 264
-0.991874, 265, 281, 328, 312
-0.991882, 89, 77, 152, 108
-0.991892, 73, 173, 136, 204
-0.991928, 49, 1, 80, 64
-0.991934, 49, 213, 112, 244
-0.991961, 209, 269, 272, 300
-0.991968, 305, 317, 368, 348
-0.991983, 293, 225, 324, 288
-0.991983, 25, 281, 88, 312
-0.991985, 57, 249, 120, 280
-0.99199, 289, 305, 352, 336
-0.99199, 401, 345, 464, 375
-0.991991, 433, 217, 496, 248
-0.992018, 73, 97, 104, 224
-0.992045, 89, 33, 152, 64
-0.992068, 149, 241, 180, 368
-0.992071, 97, 53, 160, 84
-0.992077, 57, 329, 120, 360
-0.99211, 105, 157, 168, 188
-0.992147, 9, 5, 72, 36
-0.992161, 405, 181, 436, 212
-0.992166, 329, 341, 392, 372
-0.992195, 105, 213, 168, 244
-0.992208, 49, 225, 112, 256
-0.992212, 281, 213, 344, 244
-0.992219, 341, 241, 372, 368
-0.992226, 49, 265, 112, 296
-0.992252, 297, 225, 360, 256
-0.992257, 257, 201, 320, 232
-0.99226, 305, 329, 368, 360
-0.992271, 1, 105, 64, 136
-0.992283, 281, 293, 344, 324
-0.992294, 169, 241, 200, 368
-0.992325, 321, 217, 352, 280
-0.992327, 273, 185, 304, 248
-0.992327, 261, 265, 292, 328
-0.992344, 337, 197, 400, 228
-0.992346, 1, 85, 64, 116
-0.992351, 1, 41, 64, 72
-0.992362, 153, 129, 216, 160
-0.992367, 57, 301, 120, 332
-0.992367, 129, 213, 192, 244
-0.992374, 305, 197, 368, 228
-0.992374, 273, 269, 336, 300
-0.992379, 57, 237, 120, 268
-0.99239, 1, 117, 64, 148
-0.992404, 169, 141, 232, 172
-0.992413, 281, 257, 344, 288
-0.992441, 453, 245, 484, 276
-0.992442, 105, 173, 168, 204
-0.992445, 97, 65, 160, 96
-0.992456, 81, 297, 144, 328
-0.992463, 445, 257, 476, 288
-0.992471, 145, 1, 208, 375
-0.992474, 1, 57, 64, 88
-0.992475, 409, 333, 472, 364
-0.992484, 57, 313, 120, 344
-0.992505, 305, 257, 336, 320
-0.992507, 361, 333, 424, 364
-0.992533, 241, 129, 304, 375
-0.992546, 353, 181, 416, 212
-0.992546, 441, 277, 472, 308
-0.992554, 69, 41, 100, 72
-0.992573, 1, 69, 64, 100
-0.992577, 81, 45, 112, 76
-0.992578, 265, 1, 328, 375
-0.992584, 129, 129, 192, 160
-0.992588, 169, 213, 232, 244
-0.992598, 193, 129, 224, 256
-0.992609, 1, 129, 64, 160
-0.992611, 321, 289, 448, 352
-0.992611, 297, 345, 360, 375
-0.992621, 113, 73, 144, 136
-0.992627, 321, 293, 384, 324
-0.992627, 93, 29, 124, 60
-0.992635, 193, 313, 320, 375
-0.992641, 257, 185, 500, 248
-0.992647, 305, 281, 368, 312
-0.992652, 57, 289, 120, 320
-0.992717, 73, 29, 104, 60
-0.992731, 129, 265, 384, 328
-0.992737, 457, 257, 488, 288
-0.992743, 453, 205, 484, 236
-0.992762, 121, 241, 152, 368
-0.992772, 53, 81, 84, 112
-0.992775, 53, 41, 84, 72
-0.992801, 57, 177, 88, 208
-0.992807, 313, 209, 344, 240
-0.992821, 313, 161, 376, 224
-0.992822, 53, 117, 84, 148
-0.992827, 401, 193, 432, 224
-0.992827, 297, 181, 328, 212
-0.992846, 53, 93, 84, 124
-0.992851, 53, 69, 84, 100
-0.992852, 53, 53, 84, 84
-0.992855, 105, 49, 136, 80
-0.992866, 53, 17, 84, 48
-0.992875, 69, 53, 100, 84
-0.99288, 53, 129, 84, 160
-0.992902, 393, 205, 424, 236
-0.992909, 33, 201, 288, 264
-0.992911, 105, 21, 136, 52
-0.992927, 61, 345, 92, 375
-0.992936, 433, 265, 464, 296
-0.992939, 461, 233, 492, 264
-0.992942, 105, 193, 136, 224
-0.992944, 53, 105, 84, 136
-0.992948, 81, 25, 208, 88
-0.99295, 405, 153, 436, 216
-0.992954, 37, 17, 68, 80
-0.992984, 53, 145, 84, 176
-0.992994, 57, 165, 88, 196
-0.993003, 377, 313, 440, 375
-0.993003, 457, 269, 488, 300
-0.993017, 49, 29, 80, 60
-0.993023, 57, 189, 88, 220
-0.99303, 385, 241, 416, 272
-0.993032, 469, 293, 500, 324
-0.993033, 421, 201, 452, 232
-0.993035, 341, 217, 372, 280
-0.993039, 445, 233, 476, 264
-0.993046, 457, 217, 488, 248
-0.993056, 413, 341, 444, 372
-0.993056, 81, 341, 112, 372
-0.993067, 269, 269, 300, 300
-0.993069, 73, 17, 104, 48
-0.993075, 61, 29, 92, 60
-0.993077, 93, 53, 124, 84
-0.993084, 129, 113, 192, 176
-0.993094, 405, 233, 436, 264
-0.993095, 69, 65, 100, 96
-0.993095, 157, 129, 188, 192
-0.993097, 469, 249, 500, 280
-0.993101, 393, 253, 424, 284
-0.993106, 453, 301, 484, 332
-0.993109, 325, 209, 356, 240
-0.993109, 105, 205, 136, 236
-0.993115, 353, 213, 384, 244
-0.993129, 81, 61, 112, 92
-0.993131, 181, 141, 212, 172
-0.993137, 469, 313, 500, 344
-0.99314, 101, 65, 132, 96
-0.993143, 105, 37, 136, 68
-0.993144, 113, 133, 144, 164
-0.993146, 289, 277, 320, 308
-0.99315, 233, 265, 264, 328
-0.993168, 309, 297, 340, 328
-0.993172, 429, 249, 460, 312
-0.993173, 321, 309, 352, 340
-0.993176, 125, 201, 156, 264
-0.993177, 45, 341, 76, 372
-0.993179, 469, 201, 500, 232
-0.993181, 33, 289, 288, 352
-0.993189, 337, 209, 368, 240
-0.993191, 221, 265, 252, 296
-0.993197, 445, 289, 476, 320
-0.993201, 53, 261, 84, 292
-0.993206, 429, 277, 460, 308
-0.99321, 105, 181, 136, 212
-0.993216, 421, 265, 452, 296
-0.993217, 125, 149, 156, 180
-0.993219, 145, 141, 176, 172
-0.993221, 373, 217, 404, 248
-0.993222, 37, 101, 68, 132
-0.993229, 125, 161, 156, 192
-0.993233, 61, 333, 92, 364
-0.993235, 125, 133, 156, 164
-0.993239, 117, 25, 148, 88
-0.993245, 113, 145, 144, 176
-0.993249, 41, 213, 72, 244
-0.99325, 57, 273, 88, 304
-0.99325, 417, 213, 448, 244
-0.99325, 389, 217, 420, 248
-0.993255, 101, 77, 132, 108
-0.993255, 93, 197, 124, 228
-0.993262, 93, 93, 124, 124
-0.993266, 421, 189, 452, 220
-0.993268, 453, 313, 484, 344
-0.99327, 37, 113, 68, 144
-0.993272, 45, 241, 76, 272
-0.993277, 41, 181, 72, 212
-0.993277, 37, 137, 68, 168
-0.993278, 397, 265, 428, 296
-0.993283, 73, 169, 104, 200
-0.993284, 105, 97, 136, 128
-0.993284, 61, 301, 92, 332
-0.993291, 85, 17, 116, 48
-0.993291, 113, 117, 144, 148
-0.993292, 317, 193, 348, 224
-0.993292, 37, 73, 68, 104
-0.993293, 37, 125, 68, 156
-0.993293, 37, 89, 68, 120
-0.993294, 45, 229, 76, 260
-0.993296, 337, 221, 368, 252
-0.993297, 401, 345, 432, 375
-0.993302, 309, 221, 340, 252
-0.993302, 125, 173, 156, 204
-0.993309, 161, 129, 192, 160
-0.993309, 57, 201, 88, 232
-0.993319, 345, 333, 376, 364
-0.993321, 41, 201, 72, 232
-0.993322, 109, 269, 140, 300
-0.993324, 333, 321, 364, 352
-0.993325, 81, 189, 112, 220
-0.993327, 469, 221, 500, 252
-0.993328, 37, 153, 68, 184
-0.993329, 33, 121, 288, 184
-0.993332, 257, 277, 288, 308
-0.993334, 37, 57, 68, 88
-0.993338, 409, 273, 440, 336
-0.993339, 373, 197, 404, 228
-0.993341, 125, 197, 156, 228
-0.993342, 117, 25, 148, 56
-0.993346, 465, 189, 496, 220
-0.993352, 425, 333, 456, 364
-0.993358, 113, 157, 144, 188
-0.993364, 213, 281, 244, 312
-0.993365, 137, 249, 168, 280
-0.993368, 125, 185, 156, 216
-0.993374, 73, 273, 104, 304
-0.993384, 153, 265, 184, 328
-0.993387, 241, 313, 304, 375
-0.993428, 1, 169, 500, 232
-0.993432, 85, 129, 116, 256
-0.993432, 453, 249, 468, 312
-0.993438, 33, 225, 288, 288
-0.993459, 161, 161, 224, 224
-0.993493, 101, 145, 132, 208
-0.993498, 401, 1, 464, 375
-0.993502, 433, 129, 496, 256
-0.993512, 41, 289, 72, 352
-0.993542, 193, 17, 320, 80
-0.993545, 365, 193, 396, 256
-0.99355, 409, 241, 440, 368
-0.993584, 457, 177, 488, 240
-0.993641, 217, 1, 280, 375
-0.993648, 61, 201, 92, 264
-0.993659, 129, 289, 384, 352
-0.993661, 117, 105, 148, 168
-0.993669, 289, 81, 416, 208
-0.993679, 49, 225, 80, 352
-0.993687, 233, 281, 296, 344
-0.993705, 73, 169, 104, 232
-0.993711, 101, 145, 132, 272
-0.993724, 1, 1, 64, 375
-0.993782, 417, 249, 448, 312
-0.993784, 369, 237, 496, 268
-0.99379, 293, 113, 324, 240
-0.993852, 241, 129, 304, 256
-0.993936, 181, 241, 212, 368
-0.993937, 459, 233, 474, 296
-0.994043, 209, 281, 240, 344
-0.994059, 121, 265, 152, 328
-0.994115, 69, 145, 100, 208
-0.994132, 305, 213, 432, 244
-0.994142, 113, 89, 240, 152
-0.994155, 85, 177, 116, 304
-0.994157, 369, 205, 496, 236
-0.994171, 261, 193, 292, 256
-0.994187, 105, 49, 120, 112
-0.994262, 117, 17, 148, 144
-0.994277, 397, 257, 428, 320
-0.994309, 313, 145, 344, 272
-0.994329, 161, 193, 416, 256
-0.994347, 69, 265, 100, 328
-0.994387, 165, 265, 196, 328
-0.994395, 137, 225, 168, 288
-0.994405, 169, 81, 232, 208
-0.994406, 121, 1, 184, 375
-0.994422, 313, 129, 376, 375
-0.99446, 33, 57, 288, 120
-0.994548, 257, 289, 500, 352
-0.99455, 69, 89, 100, 152
-0.994584, 177, 65, 304, 192
-0.994586, 361, 1, 424, 375
-0.9946, 193, 137, 224, 200
-0.994627, 1, 165, 128, 196
-0.994647, 453, 225, 468, 288
-0.994662, 261, 241, 292, 368
-0.994666, 1, 189, 128, 220
-0.994755, 193, 97, 256, 352
-0.994762, 465, 225, 480, 288
-0.994843, 33, 29, 160, 60
-0.994861, 221, 9, 252, 72
-0.994897, 1, 193, 500, 256
-0.994927, 1, 97, 64, 352
-0.99495, 177, 257, 208, 320
-0.994966, 193, 1, 256, 375
-0.994971, 49, 133, 176, 164
-0.995001, 265, 313, 328, 375
-0.995022, 33, 313, 288, 375
-0.995022, 49, 193, 176, 224
-0.995033, 33, 97, 160, 128
-0.995037, 1, 177, 128, 208
-0.995055, 33, 17, 288, 80
-0.995071, 33, 205, 160, 236
-0.995072, 317, 273, 348, 336
-0.995076, 1, 153, 128, 184
-0.995081, 373, 161, 404, 288
-0.995108, 93, 281, 124, 344
-0.995115, 1, 145, 500, 208
-0.995134, 353, 193, 384, 256
-0.995144, 193, 313, 256, 375
-0.995184, 117, 225, 148, 288
-0.995192, 485, 201, 500, 264
-0.995193, 85, 25, 100, 88
-0.995208, 73, 33, 88, 96
-0.995222, 81, 49, 208, 112
-0.995223, 317, 249, 348, 312
-0.995241, 49, 149, 176, 180
-0.995242, 37, 241, 68, 368
-0.995261, 337, 129, 400, 375
-0.995263, 473, 217, 488, 280
-0.995289, 337, 193, 464, 224
-0.99531, 33, 45, 160, 76
-0.995324, 49, 181, 176, 212
-0.995324, 353, 225, 480, 256
-0.995334, 393, 161, 456, 224
-0.995339, 95, 25, 110, 88
-0.99534, 33, 89, 288, 152
-0.995341, 469, 185, 500, 248
-0.995347, 369, 257, 496, 288
-0.995368, 145, 1, 208, 256
-0.995372, 33, 121, 160, 152
-0.995375, 109, 241, 140, 368
-0.995386, 463, 265, 478, 328
-0.995389, 33, 109, 160, 140
-0.995394, 113, 313, 240, 375
-0.995402, 73, 113, 104, 176
-0.995419, 413, 169, 428, 232
-0.99543, 257, 313, 500, 375
-0.995443, 133, 129, 164, 192
-0.995477, 409, 225, 424, 288
-0.995483, 193, 169, 256, 232
-0.995486, 97, 241, 224, 304
-0.995518, 33, 221, 160, 252
-0.995524, 49, 169, 176, 200
-0.995525, 217, 97, 280, 352
-0.995562, 33, 61, 160, 92
-0.995571, 49, 345, 176, 375
-0.995579, 1, 141, 128, 172
-0.995597, 447, 257, 462, 320
-0.995604, 17, 273, 144, 304
-0.995622, 417, 209, 448, 272
-0.995633, 81, 241, 112, 368
-0.995634, 419, 177, 434, 240
-0.995634, 129, 145, 384, 208
-0.995652, 121, 1, 184, 256
-0.995656, 153, 193, 184, 320
-0.995672, 479, 209, 494, 272
-0.995679, 1, 17, 128, 48
-0.995686, 113, 1, 240, 64
-0.995687, 329, 281, 360, 344
-0.995699, 49, 297, 176, 328
-0.9957, 181, 177, 212, 304
-0.995724, 33, 85, 160, 116
-0.995736, 97, 141, 224, 172
-0.995743, 53, 1, 84, 256
-0.995749, 305, 245, 432, 276
-0.995793, 459, 289, 474, 352
-0.995793, 121, 57, 184, 120
-0.995797, 197, 217, 228, 280
-0.995801, 17, 209, 48, 336
-0.995826, 119, 17, 134, 80
-0.995836, 81, 209, 144, 272
-0.995846, 111, 33, 126, 96
-0.995848, 129, 313, 192, 375
-0.995848, 421, 129, 452, 256
-0.995878, 141, 81, 172, 208
-0.995891, 315, 209, 330, 272
-0.99592, 457, 193, 472, 256
-0.99593, 161, 121, 416, 184
-0.995932, 315, 185, 330, 248
-0.995935, 49, 285, 176, 316
-0.995943, 249, 281, 280, 344
-0.995944, 33, 73, 160, 104
-0.995954, 69, 1, 100, 64
-0.995988, 49, 261, 176, 292
-0.996031, 377, 177, 408, 240
-0.99604, 217, 169, 280, 232
-0.996047, 465, 297, 480, 360
-0.99605, 241, 205, 368, 236
-0.996092, 129, 217, 384, 280
-0.996092, 361, 97, 424, 224
-0.996094, 61, 233, 92, 296
-0.996096, 201, 185, 232, 248
-0.99611, 33, 233, 160, 264
-0.99611, 145, 113, 176, 176
-0.996129, 433, 1, 496, 375
-0.99614, 169, 1, 232, 375
-0.99616, 129, 169, 384, 232
-0.996174, 205, 161, 236, 288
-0.996219, 273, 121, 400, 184
-0.996225, 49, 333, 176, 364
-0.996235, 265, 1, 296, 128
-0.996257, 193, 9, 256, 72
-0.99626, 165, 193, 196, 320
-0.996261, 405, 185, 420, 248
-0.99628, 471, 313, 486, 375
-0.996289, 407, 249, 422, 312
-0.996341, 225, 289, 352, 320
-0.996345, 337, 145, 464, 208
-0.996347, 321, 345, 448, 375
-0.99635, 1, 313, 500, 375
-0.996351, 225, 161, 480, 224
-0.996364, 477, 313, 492, 375
-0.996374, 289, 181, 416, 212
-0.99643, 233, 1, 296, 128
-0.996444, 369, 269, 496, 300
-0.996448, 305, 333, 432, 364
-0.996475, 397, 201, 412, 264
-0.99648, 309, 177, 324, 240
-0.99648, 419, 201, 434, 264
-0.996528, 483, 313, 498, 375
-0.99653, 463, 201, 478, 264
-0.99654, 105, 25, 120, 88
-0.996556, 469, 257, 484, 320
-0.996572, 389, 129, 420, 256
-0.996591, 1, 253, 128, 284
-0.996596, 225, 273, 352, 304
-0.996601, 305, 225, 432, 256
-0.996623, 257, 193, 384, 224
-0.99663, 59, 225, 74, 288
-0.996635, 17, 317, 144, 348
-0.99665, 453, 273, 468, 336
-0.996652, 105, 313, 168, 375
-0.996686, 147, 137, 162, 200
-0.996689, 321, 257, 448, 288
-0.9967, 161, 241, 416, 304
-0.9967, 53, 193, 68, 256
-0.996702, 1, 257, 500, 320
-0.996708, 289, 89, 416, 152
-0.996718, 265, 33, 328, 288
-0.996721, 441, 265, 456, 328
-0.996758, 225, 161, 352, 224
-0.996804, 369, 281, 496, 312
-0.99681, 87, 49, 102, 112
-0.996813, 1, 285, 128, 316
-0.99682, 329, 305, 344, 368
-0.996827, 371, 209, 386, 272
-0.996837, 161, 313, 416, 375
-0.996847, 401, 241, 416, 304
-0.996871, 321, 297, 336, 360
-0.996882, 113, 213, 240, 244
-0.996895, 75, 9, 90, 72
-0.996901, 379, 217, 394, 280
-0.996911, 425, 185, 440, 248
-0.996914, 479, 241, 494, 304
-0.996922, 73, 57, 88, 120
-0.996938, 63, 249, 78, 312
-0.996943, 177, 177, 304, 208
-0.996946, 181, 81, 212, 208
-0.996957, 49, 249, 176, 280
-0.996962, 229, 257, 244, 320
-0.996964, 117, 169, 132, 232
-0.996968, 457, 253, 472, 284
-0.996974, 389, 209, 404, 272
-0.99699, 177, 193, 304, 224
-0.997019, 51, 161, 66, 224
-0.997025, 289, 65, 416, 128
-0.997034, 81, 49, 96, 112
-0.997034, 289, 1, 320, 128
-0.997036, 321, 177, 336, 240
-0.997044, 105, 1, 136, 256
-0.997051, 335, 313, 350, 375
-0.997071, 309, 217, 324, 280
-0.997079, 97, 189, 224, 220
-0.997085, 113, 97, 144, 352
-0.9971, 217, 161, 248, 288
-0.997116, 191, 129, 206, 192
-0.99712, 65, 273, 192, 304
-0.997127, 117, 57, 132, 120
-0.99715, 313, 289, 328, 352
-0.99717, 329, 209, 344, 272
-0.99719, 109, 89, 124, 152
-0.99719, 485, 233, 500, 296
-0.997198, 117, 113, 132, 176
-0.997213, 61, 17, 76, 80
-0.997232, 369, 297, 496, 328
-0.997234, 1, 289, 500, 352
-0.997235, 109, 177, 124, 240
-0.997242, 97, 201, 224, 232
-0.997253, 449, 265, 464, 296
-0.997268, 221, 225, 236, 288
-0.997273, 365, 209, 380, 272
-0.997286, 353, 1, 480, 128
-0.997308, 123, 257, 138, 320
-0.997331, 95, 49, 110, 112
-0.997333, 73, 1, 104, 256
-0.997341, 323, 217, 338, 280
-0.997347, 337, 181, 464, 212
-0.997358, 117, 145, 132, 208
-0.997361, 1, 329, 128, 360
-0.997369, 273, 33, 400, 96
-0.997382, 197, 137, 212, 200
-0.997399, 1, 341, 128, 372
-0.997406, 97, 177, 224, 208
-0.997407, 193, 213, 320, 244
-0.997408, 129, 153, 256, 184
-0.997419, 117, 89, 132, 152
-0.997427, 221, 273, 236, 336
-0.997436, 1, 233, 500, 296
-0.997436, 69, 265, 84, 328
-0.997438, 51, 137, 66, 200
-0.99744, 113, 1, 176, 64
-0.997449, 413, 265, 428, 328
-0.997463, 83, 313, 98, 375
-0.997465, 289, 153, 352, 216
-0.997465, 353, 241, 384, 368
-0.997466, 435, 273, 450, 336
-0.997488, 129, 165, 256, 196
-0.997493, 213, 257, 228, 320
-0.997496, 105, 53, 120, 84
-0.997502, 225, 301, 352, 332
-0.997513, 137, 129, 152, 192
-0.997525, 145, 289, 272, 320
-0.997539, 73, 29, 88, 60
-0.997543, 451, 201, 466, 264
-0.997543, 97, 129, 224, 160
-0.997549, 111, 265, 126, 328
-0.997553, 281, 129, 312, 256
-0.997557, 335, 217, 350, 280
-0.997559, 1, 305, 128, 336
-0.997564, 131, 273, 146, 336
-0.997565, 257, 337, 384, 368
-0.997596, 321, 321, 448, 352
-0.997613, 447, 225, 462, 288
-0.997628, 61, 177, 76, 240
-0.997635, 353, 9, 480, 72
-0.997636, 93, 65, 124, 320
-0.997641, 161, 97, 288, 160
-0.997643, 145, 265, 272, 296
-0.997643, 343, 313, 358, 375
-0.997646, 1, 33, 500, 96
-0.99765, 369, 337, 496, 368
-0.997657, 181, 129, 196, 192
-0.99766, 165, 129, 180, 192
-0.997666, 343, 217, 358, 280
-0.997667, 485, 201, 500, 232
-0.997676, 267, 185, 282, 248
-0.997689, 85, 41, 100, 72
-0.997692, 281, 1, 344, 128
-0.997699, 463, 241, 478, 272
-0.997703, 441, 313, 456, 375
-0.997703, 257, 317, 384, 348
-0.997708, 111, 9, 126, 72
-0.997708, 129, 225, 144, 288
-0.997709, 1, 121, 500, 184
-0.997713, 315, 213, 330, 244
-0.997724, 349, 217, 364, 280
-0.99774, 61, 129, 92, 375
-0.997742, 171, 129, 186, 192
-0.997758, 1, 241, 64, 304
-0.997759, 419, 177, 434, 208
-0.997761, 205, 129, 220, 192
-0.997765, 111, 65, 126, 128
-0.997767, 137, 97, 168, 352
-0.997783, 49, 17, 176, 48
-0.997793, 461, 269, 476, 300
-0.997794, 305, 249, 320, 312
-0.997795, 393, 129, 424, 375
-0.9978, 313, 257, 328, 320
-0.997801, 269, 265, 284, 328
-0.997803, 37, 129, 68, 375
-0.997803, 303, 281, 318, 344
-0.997812, 53, 17, 68, 80
-0.997812, 75, 89, 90, 152
-0.997821, 355, 217, 370, 280
-0.997824, 273, 305, 400, 336
-0.997825, 337, 1, 400, 375
-0.997829, 161, 265, 176, 328
-0.99783, 159, 129, 174, 192
-0.997833, 75, 145, 90, 208
-0.99784, 137, 153, 152, 216
-0.997844, 101, 193, 116, 256
-0.997851, 97, 285, 224, 316
-0.997851, 119, 25, 134, 56
-0.997851, 471, 281, 486, 344
-0.997864, 369, 309, 496, 340
-0.99787, 137, 193, 152, 256
-0.997871, 73, 45, 88, 76
-0.997876, 51, 113, 66, 176
-0.997882, 471, 185, 486, 248
-0.997895, 273, 257, 400, 288
-0.997904, 65, 81, 80, 144
-0.997911, 273, 1, 400, 64
-0.997912, 153, 129, 168, 192
-0.997917, 455, 237, 470, 268
-0.997936, 13, 161, 44, 288
-0.997937, 281, 265, 296, 328
-0.997938, 71, 313, 86, 375
-0.99794, 117, 193, 132, 256
-0.997942, 411, 177, 426, 208
-0.997945, 257, 225, 384, 256
-0.997946, 289, 1, 352, 375
-0.997947, 481, 289, 496, 352
-0.997955, 153, 65, 184, 192
-0.997957, 117, 1, 148, 256
-0.997965, 51, 57, 66, 120
-0.99797, 75, 289, 90, 352
-0.99797, 407, 229, 422, 260
-0.997976, 289, 285, 416, 316
-0.997976, 419, 153, 434, 216
-0.997978, 303, 177, 318, 240
-0.997979, 169, 313, 232, 375
-0.997979, 451, 253, 466, 284
-0.997981, 101, 89, 116, 152
-0.997983, 143, 217, 158, 280
-0.997983, 465, 129, 496, 375
-0.99799, 415, 225, 430, 288
-0.998011, 311, 181, 326, 212
-0.998016, 37, 33, 68, 288
-0.998019, 109, 21, 124, 52
-0.998034, 321, 269, 448, 300
-0.998049, 209, 261, 336, 292
-0.998059, 409, 345, 424, 375
-0.998085, 119, 37, 134, 68
-0.998086, 289, 129, 320, 375
-0.998088, 85, 29, 100, 60
-0.998098, 477, 209, 492, 240
-0.9981, 73, 345, 88, 375
-0.998112, 73, 57, 88, 88
-0.998113, 153, 97, 184, 352
-0.998115, 475, 253, 490, 284
-0.998122, 97, 345, 224, 375
-0.998123, 463, 253, 478, 284
-0.998136, 463, 301, 478, 332
-0.998162, 111, 33, 126, 64
-0.998164, 321, 209, 336, 240
-0.998185, 1, 9, 500, 72
-0.998194, 193, 17, 320, 48
-0.998196, 193, 9, 448, 72
-0.998201, 83, 345, 98, 375
-0.998202, 471, 217, 486, 248
-0.99821, 111, 45, 126, 76
-0.998211, 443, 273, 458, 304
-0.998226, 485, 241, 500, 272
-0.998232, 209, 345, 336, 375
-0.998235, 473, 313, 488, 344
-0.998255, 469, 257, 484, 288
-0.998269, 145, 341, 272, 372
-0.998271, 479, 313, 494, 344
-0.998274, 93, 21, 108, 52
-0.998276, 209, 333, 336, 364
-0.998279, 331, 209, 346, 240
-0.998283, 95, 45, 110, 76
-0.998297, 105, 77, 120, 108
-0.998305, 455, 265, 470, 296
-0.998313, 177, 165, 304, 196
-0.998318, 63, 253, 78, 284
-0.998318, 97, 297, 224, 328
-0.998322, 109, 197, 124, 228
-0.998338, 427, 185, 442, 216
-0.99834, 73, 129, 104, 375
-0.99834, 465, 259, 496, 274
-0.998341, 101, 191, 132, 206
-0.998342, 117, 269, 148, 284
-0.998342, 101, 83, 132, 98
-0.998342, 93, 31, 124, 46
-0.998342, 53, 265, 84, 280
-0.998342, 373, 211, 404, 226
-0.998342, 37, 111, 68, 126
-0.998343, 397, 271, 428, 286
-0.998343, 113, 127, 144, 142
-0.998344, 41, 213, 72, 228
-0.998344, 469, 317, 500, 332
-0.998344, 93, 43, 124, 58
-0.998345, 193, 149, 320, 180
-0.998346, 105, 209, 136, 224
-0.998346, 113, 133, 144, 148
-0.998347, 113, 225, 240, 256
-0.998347, 373, 221, 404, 236
-0.998348, 101, 77, 132, 92
-0.998349, 321, 213, 352, 228
-0.998349, 41, 227, 72, 242
-0.998349, 81, 45, 112, 60
-0.998349, 45, 245, 76, 260
-0.99835, 393, 265, 424, 280
-0.99835, 121, 195, 152, 210
-0.998352, 457, 277, 488, 292
-0.998352, 101, 71, 132, 86
-0.998354, 57, 191, 88, 206
-0.998354, 121, 175, 152, 190
-0.998354, 125, 185, 156, 200
-0.998354, 453, 277, 468, 308
-0.998355, 385, 247, 416, 262
-0.998355, 465, 251, 496, 266
-0.998355, 121, 167, 152, 182
-0.998355, 405, 237, 436, 252
-0.998356, 325, 221, 356, 236
-0.998356, 313, 1, 376, 375
-0.998356, 445, 237, 476, 252
-0.998358, 417, 213, 448, 228
-0.998358, 389, 255, 420, 270
-0.998358, 93, 197, 124, 212
-0.998358, 61, 357, 92, 372
-0.998358, 469, 301, 500, 316
-0.998359, 289, 285, 320, 300
-0.998361, 121, 141, 152, 156
-0.998361, 407, 257, 422, 288
-0.998361, 69, 39, 100, 54
-0.998361, 61, 345, 92, 360
-0.998362, 77, 345, 108, 360
-0.998363, 145, 143, 176, 158
-0.998363, 393, 213, 424, 228
-0.998363, 97, 97, 128, 112
-0.998364, 401, 361, 432, 375
-0.998365, 181, 143, 212, 158
-0.998366, 113, 43, 144, 58
-0.998367, 101, 63, 132, 78
-0.998367, 469, 213, 500, 228
-0.998367, 437, 285, 468, 300
-0.998368, 413, 343, 444, 358
-0.998368, 221, 267, 252, 282
-0.998368, 121, 157, 152, 172
-0.998369, 105, 89, 136, 104
-0.998369, 385, 241, 416, 256
-0.99837, 125, 97, 156, 352
-0.99837, 399, 197, 414, 228
-0.998373, 53, 21, 84, 36
-0.998375, 121, 149, 152, 164
-0.998376, 309, 221, 340, 236
-0.998376, 349, 215, 380, 230
-0.998378, 457, 313, 488, 328
-0.998378, 319, 197, 334, 228
-0.99838, 449, 129, 480, 375
-0.99838, 193, 245, 320, 276
-0.99838, 421, 273, 452, 288
-0.998381, 53, 151, 84, 166
-0.998383, 449, 215, 480, 230
-0.998384, 469, 203, 500, 218
-0.998385, 217, 17, 248, 32
-0.998386, 421, 201, 452, 216
-0.998387, 105, 23, 136, 38
-0.998387, 81, 355, 112, 370
-0.998387, 321, 113, 448, 176
-0.998389, 81, 63, 112, 78
-0.99839, 453, 209, 484, 224
-0.99839, 461, 239, 492, 254
-0.998393, 309, 215, 340, 230
-0.998393, 361, 217, 392, 232
-0.998393, 375, 217, 390, 248
-0.998393, 269, 271, 300, 286
-0.998394, 405, 351, 436, 366
-0.998396, 69, 167, 100, 182
-0.9984, 421, 207, 452, 222
-0.998401, 397, 207, 428, 222
-0.998404, 419, 205, 434, 236
-0.998404, 49, 27, 80, 42
-0.998405, 301, 185, 332, 200
-0.998406, 57, 171, 88, 186
-0.998406, 105, 57, 136, 72
-0.998408, 81, 51, 112, 66
-0.998411, 93, 55, 124, 70
-0.998414, 353, 33, 480, 96
-0.99842, 53, 145, 84, 160
-0.99842, 105, 203, 136, 218
-0.99842, 57, 179, 88, 194
-0.998425, 73, 31, 104, 46
-0.998425, 145, 141, 272, 172
-0.998427, 389, 213, 404, 244
-0.998428, 53, 65, 84, 80
-0.998431, 61, 351, 92, 366
-0.998432, 53, 33, 84, 48
-0.998432, 117, 133, 132, 164
-0.998432, 169, 65, 200, 192
-0.998432, 53, 159, 84, 174
-0.998432, 69, 51, 100, 66
-0.998433, 59, 241, 74, 272
-0.998433, 53, 103, 84, 118
-0.998436, 401, 241, 416, 272
-0.998439, 53, 133, 84, 148
-0.998439, 81, 17, 96, 48
-0.99844, 81, 57, 112, 72
-0.998442, 75, 17, 90, 48
-0.998443, 53, 113, 84, 128
-0.998443, 53, 45, 84, 60
-0.998443, 69, 63, 100, 78
-0.998444, 401, 201, 432, 216
-0.998445, 53, 139, 84, 154
-0.998446, 53, 53, 84, 68
-0.998446, 81, 29, 208, 60
-0.998447, 53, 97, 84, 112
-0.998449, 305, 169, 432, 200
-0.99845, 165, 97, 196, 352
-0.99845, 433, 273, 464, 288
-0.998454, 57, 185, 88, 200
-0.998454, 57, 165, 88, 180
-0.998455, 53, 71, 84, 86
-0.998456, 53, 39, 84, 54
-0.998456, 53, 79, 84, 94
-0.998456, 53, 127, 84, 142
-0.998457, 105, 65, 120, 96
-0.998458, 53, 85, 84, 100
-0.998459, 53, 59, 84, 74
-0.99846, 409, 271, 472, 286
-0.998461, 53, 119, 84, 134
-0.998462, 105, 197, 136, 212
-0.998465, 445, 265, 476, 280
-0.998466, 69, 57, 100, 72
-0.998466, 469, 307, 500, 322
-0.998466, 149, 141, 164, 172
-0.998469, 105, 51, 136, 66
-0.99847, 409, 265, 472, 280
-0.998475, 405, 191, 436, 206
-0.99848, 419, 341, 434, 372
-0.99848, 195, 141, 210, 172
-0.998481, 53, 209, 68, 240
-0.998484, 405, 185, 420, 216
-0.998484, 53, 91, 84, 106
-0.998486, 445, 271, 476, 286
-0.998492, 485, 313, 500, 344
-0.998492, 69, 45, 100, 60
-0.998496, 33, 357, 96, 372
-0.998496, 49, 189, 112, 204
-0.998497, 55, 225, 70, 256
-0.998499, 49, 47, 112, 62
-0.998501, 461, 245, 492, 260
-0.998505, 113, 329, 240, 360
-0.998506, 337, 73, 464, 136
-0.998508, 361, 145, 392, 272
-0.99851, 329, 309, 344, 340
-0.998512, 181, 129, 212, 375
-0.998513, 49, 65, 112, 80
-0.998515, 449, 259, 480, 274
-0.998515, 409, 283, 472, 298
-0.998515, 97, 13, 224, 44
-0.998517, 73, 55, 136, 70
-0.99852, 321, 309, 448, 340
-0.998521, 49, 87, 112, 102
-0.998522, 381, 221, 396, 252
-0.998523, 33, 351, 96, 366
-0.998523, 369, 217, 432, 232
-0.998526, 117, 185, 132, 216
-0.998527, 103, 21, 118, 52
-0.998527, 453, 225, 468, 256
-0.998529, 87, 17, 102, 48
-0.99853, 25, 91, 88, 106
-0.99853, 65, 31, 128, 46
-0.99853, 377, 185, 440, 200
-0.998531, 49, 167, 112, 182
-0.998533, 413, 269, 428, 300
-0.998534, 49, 195, 112, 210
-0.998536, 369, 211, 432, 226
-0.998537, 65, 95, 128, 110
-0.998537, 61, 193, 76, 224
-0.998538, 25, 121, 88, 136
-0.998541, 49, 73, 112, 88
-0.998543, 393, 195, 456, 210
-0.998543, 401, 259, 464, 274
-0.998544, 79, 29, 94, 60
-0.998544, 49, 81, 112, 96
-0.998544, 97, 33, 112, 64
-0.998546, 49, 21, 112, 36
-0.998546, 61, 17, 76, 48
-0.998548, 409, 183, 440, 198
-0.998549, 437, 279, 468, 294
-0.998551, 401, 219, 464, 234
-0.998551, 281, 269, 296, 300
-0.998555, 465, 225, 480, 256
-0.998558, 73, 353, 136, 368
-0.998558, 33, 343, 96, 358
-0.99856, 221, 281, 236, 312
-0.99856, 83, 333, 98, 364
-0.998561, 49, 53, 112, 68
-0.998562, 117, 117, 132, 148
-0.998564, 25, 85, 88, 100
-0.998565, 25, 127, 88, 142
-0.998565, 117, 1, 132, 128
-0.998565, 25, 269, 88, 284
-0.998567, 51, 181, 66, 212
-0.998567, 401, 229, 464, 244
-0.998567, 433, 273, 496, 288
-0.998568, 25, 241, 88, 256
-0.998569, 361, 223, 424, 238
-0.998571, 25, 165, 88, 180
-0.998571, 25, 113, 88, 128
-0.998572, 53, 197, 68, 228
-0.998572, 57, 201, 120, 216
-0.998574, 25, 247, 88, 262
-0.998575, 49, 173, 112, 188
-0.998575, 25, 97, 88, 112
-0.998576, 273, 187, 336, 202
-0.998576, 409, 277, 472, 292
-0.998576, 49, 59, 112, 74
-0.998576, 25, 71, 88, 86
-0.998577, 25, 79, 88, 94
-0.998577, 433, 265, 496, 280
-0.998578, 97, 199, 160, 214
-0.998578, 25, 255, 88, 270
-0.998579, 49, 41, 112, 56
-0.998581, 385, 205, 448, 220
-0.998581, 409, 213, 472, 228
-0.998582, 25, 133, 88, 148
-0.998583, 145, 143, 208, 158
-0.998583, 401, 253, 464, 268
-0.998583, 73, 49, 136, 64
-0.998586, 433, 251, 496, 266
-0.998586, 25, 139, 88, 154
-0.998586, 433, 259, 496, 274
-0.998586, 95, 57, 110, 88
-0.998586, 345, 215, 408, 230
-0.998587, 17, 223, 80, 238
-0.998587, 33, 329, 96, 344
-0.998587, 25, 263, 88, 278
-0.998588, 25, 159, 88, 174
-0.998588, 49, 183, 112, 198
-0.998589, 25, 27, 88, 42
-0.998589, 25, 179, 88, 194
-0.998589, 107, 97, 122, 128
-0.998591, 453, 253, 484, 268
-0.998591, 185, 129, 200, 160
-0.998591, 25, 59, 88, 74
-0.998591, 433, 209, 496, 224
-0.998591, 433, 243, 496, 258
-0.998592, 25, 103, 88, 118
-0.998593, 17, 213, 80, 228
-0.998593, 17, 199, 80, 214
-0.998596, 17, 205, 80, 220
-0.9986, 25, 171, 88, 186
-0.9986, 413, 221, 428, 252
-0.9986, 297, 213, 360, 228
-0.9986, 17, 235, 80, 250
-0.998601, 117, 93, 132, 124
-0.998602, 167, 129, 182, 160
-0.998603, 369, 325, 496, 356
-0.998603, 33, 335, 96, 350
-0.998603, 17, 229, 80, 244
-0.998603, 49, 123, 112, 138
-0.998603, 321, 301, 336, 332
-0.998604, 329, 221, 392, 236
-0.998604, 25, 145, 88, 160
-0.998606, 17, 191, 80, 206
-0.998607, 97, 193, 160, 208
-0.99861, 25, 185, 88, 200
-0.99861, 269, 273, 284, 304
-0.998611, 417, 203, 480, 218
-0.998612, 25, 33, 88, 48
-0.998612, 361, 247, 424, 262
-0.998615, 49, 131, 112, 146
-0.998615, 25, 65, 88, 80
-0.998616, 57, 345, 120, 360
-0.998617, 231, 265, 246, 296
-0.998618, 417, 193, 480, 208
-0.998619, 33, 321, 96, 336
-0.998619, 25, 153, 88, 168
-0.998619, 433, 307, 496, 322
-0.99862, 81, 23, 144, 38
-0.99862, 33, 275, 96, 290
-0.998621, 25, 39, 88, 54
-0.998621, 241, 181, 368, 212
-0.998622, 425, 197, 440, 228
-0.998622, 9, 49, 72, 64
-0.998623, 73, 65, 136, 80
-0.998623, 269, 129, 300, 375
-0.998623, 433, 217, 496, 232
-0.998624, 105, 139, 168, 154
-0.998625, 361, 259, 424, 274
-0.998625, 49, 141, 112, 156
-0.998626, 337, 209, 352, 240
-0.998627, 81, 43, 144, 58
-0.998628, 33, 309, 96, 324
-0.998628, 49, 161, 112, 176
-0.998629, 433, 237, 496, 252
-0.99863, 401, 185, 464, 200
-0.998631, 369, 199, 432, 214
-0.998632, 65, 265, 128, 280
-0.998632, 33, 299, 96, 314
-0.998633, 249, 21, 312, 36
-0.998633, 51, 161, 66, 192
-0.998633, 297, 223, 360, 238
-0.998633, 225, 19, 288, 34
-0.998634, 9, 17, 72, 32
-0.998634, 321, 213, 384, 228
-0.998635, 49, 213, 112, 228
-0.998635, 97, 205, 160, 220
-0.998635, 433, 333, 448, 364
-0.998636, 33, 315, 96, 330
-0.998636, 83, 177, 98, 208
-0.998637, 369, 347, 432, 362
-0.998637, 209, 271, 272, 286
-0.998638, 65, 275, 128, 290
-0.998638, 57, 207, 120, 222
-0.998639, 49, 101, 112, 116
-0.998639, 117, 105, 132, 136
-0.998641, 73, 361, 136, 375
-0.998641, 347, 209, 362, 240
-0.998641, 179, 129, 194, 160
-0.998642, 49, 147, 112, 162
-0.998642, 105, 145, 168, 160
-0.998643, 49, 231, 112, 246
-0.998644, 469, 209, 484, 336
-0.998644, 345, 205, 408, 220
-0.998646, 65, 265, 80, 296
-0.998649, 457, 289, 472, 320
-0.998651, 145, 277, 272, 308
-0.998658, 313, 201, 328, 232
-0.998659, 65, 313, 192, 344
-0.998662, 117, 145, 132, 176
-0.998663, 193, 137, 320, 168
-0.998663, 157, 129, 172, 160
-0.998663, 461, 209, 476, 336
-0.998667, 117, 49, 132, 80
-0.998669, 81, 117, 208, 148
-0.998673, 457, 201, 472, 232
-0.998683, 419, 277, 434, 308
-0.998685, 467, 313, 482, 344
-0.99869, 331, 221, 346, 252
-0.99869, 123, 265, 138, 296
-0.998691, 193, 129, 208, 160
-0.998692, 117, 173, 132, 204
-0.998694, 33, 5, 160, 36
-0.998695, 369, 213, 384, 244
-0.998696, 107, 185, 122, 216
-0.998706, 161, 97, 416, 160
-0.998713, 113, 253, 240, 284
-0.998716, 309, 221, 324, 252
-0.998724, 437, 265, 452, 296
-0.998724, 427, 341, 442, 372
-0.998724, 173, 129, 188, 160
-0.998727, 483, 297, 498, 328
-0.998728, 337, 317, 352, 348
-0.998731, 209, 73, 336, 136
-0.998732, 51, 145, 66, 176
-0.998734, 117, 201, 132, 232
-0.998734, 465, 205, 480, 236
-0.998734, 439, 329, 454, 360
-0.99874, 131, 281, 146, 312
-0.998746, 313, 293, 328, 324
-0.998747, 413, 161, 428, 288
-0.998755, 437, 277, 452, 308
-0.998756, 101, 201, 116, 232
-0.998757, 73, 93, 88, 124
-0.99876, 485, 225, 500, 352
-0.998763, 25, 1, 56, 128
-0.998779, 193, 225, 320, 256
-0.998802, 257, 137, 500, 200
-0.998804, 421, 129, 452, 375
-0.998839, 105, 1, 120, 128
-0.998854, 107, 49, 122, 176
-0.998855, 477, 193, 492, 320
-0.998865, 475, 241, 490, 368
-0.998874, 237, 161, 268, 288
-0.99889, 257, 241, 384, 272
-0.998918, 419, 177, 434, 304
-0.998929, 209, 49, 336, 112
-0.99893, 485, 177, 500, 304
-0.998931, 81, 89, 208, 120
-0.998936, 193, 65, 448, 128
-0.998941, 455, 225, 470, 352
-0.998946, 241, 153, 304, 216
-0.998953, 97, 1, 112, 128
-0.998953, 161, 329, 288, 360
-0.998956, 129, 33, 256, 160
-0.998956, 145, 129, 272, 160
-0.998963, 403, 177, 418, 304
-0.998964, 81, 233, 144, 296
-0.998974, 193, 97, 224, 352
-0.999019, 455, 177, 470, 304
-0.999041, 257, 89, 500, 152
-0.999044, 361, 33, 424, 288
-0.999046, 75, 1, 90, 128
-0.999077, 321, 297, 448, 328
-0.999083, 193, 41, 448, 104
-0.999097, 449, 241, 464, 368
-0.9991, 201, 81, 232, 208
-0.999101, 413, 209, 428, 336
-0.999102, 337, 65, 464, 192
-0.999105, 61, 1, 76, 128
-0.99911, 81, 77, 208, 108
-0.999123, 273, 13, 400, 44
-0.999125, 209, 321, 336, 352
-0.999125, 257, 113, 500, 176
-0.99913, 273, 269, 400, 300
-0.999145, 121, 1, 184, 128
-0.999153, 405, 129, 436, 375
-0.999162, 315, 241, 330, 368
-0.999174, 111, 1, 126, 128
-0.999181, 113, 237, 240, 268
-0.999197, 449, 193, 464, 320
-0.999204, 81, 105, 208, 136
-0.999208, 49, 97, 80, 352
-0.999209, 147, 129, 162, 256
-0.999216, 467, 161, 482, 288
-0.999222, 117, 49, 132, 176
-0.999225, 323, 209, 338, 336
-0.999226, 301, 129, 332, 375
-0.999229, 269, 129, 300, 256
-0.999229, 317, 193, 332, 320
-0.999231, 441, 241, 456, 368
-0.999234, 365, 241, 396, 368
-0.99926, 393, 193, 408, 320
-0.999263, 61, 209, 76, 336
-0.999268, 51, 145, 66, 272
-0.999269, 311, 193, 326, 320
-0.999277, 381, 209, 396, 336
-0.999278, 67, 241, 82, 368
-0.999279, 373, 193, 388, 320
-0.999283, 461, 161, 476, 288
-0.999292, 85, 1, 100, 128
-0.999295, 221, 209, 236, 336
-0.999297, 231, 209, 246, 336
-0.999301, 309, 241, 324, 368
-0.999312, 329, 241, 344, 368
-0.999318, 339, 209, 354, 336
-0.99932, 303, 161, 318, 288
-0.99932, 225, 137, 352, 200
-0.999323, 195, 129, 210, 256
-0.999328, 387, 193, 402, 320
-0.999335, 325, 145, 356, 272
-0.999342, 273, 157, 400, 188
-0.999346, 75, 49, 90, 176
-0.999349, 101, 49, 116, 176
-0.99935, 257, 129, 288, 375
-0.99935, 285, 177, 300, 304
-0.999354, 129, 193, 144, 320
-0.999356, 213, 209, 228, 336
-0.999368, 117, 129, 132, 256
-0.999376, 313, 129, 344, 375
-0.999379, 177, 97, 240, 160
-0.99938, 81, 57, 208, 88
-0.999383, 433, 129, 464, 375
-0.999393, 407, 225, 422, 352
-0.999396, 169, 33, 232, 288
-0.999398, 165, 113, 180, 240
-0.999401, 189, 113, 204, 240
-0.999402, 153, 129, 168, 256
-0.999402, 171, 113, 186, 240
-0.999403, 205, 209, 220, 336
-0.999404, 137, 113, 152, 240
-0.999408, 55, 193, 70, 320
-0.99941, 273, 141, 400, 172
-0.999412, 177, 113, 192, 240
-0.999416, 55, 1, 70, 128
-0.999435, 435, 241, 450, 368
-0.999435, 305, 1, 432, 128
-0.999436, 365, 193, 380, 320
-0.999436, 159, 113, 174, 240
-0.999436, 183, 113, 198, 240
-0.999439, 51, 97, 66, 224
-0.999441, 333, 193, 348, 320
-0.999442, 259, 193, 274, 320
-0.999444, 129, 317, 256, 348
-0.99945, 1, 97, 500, 160
-0.999455, 291, 1, 306, 128
-0.99946, 297, 161, 312, 288
-0.999469, 67, 1, 82, 128
-0.999475, 291, 177, 306, 304
-0.999476, 443, 193, 458, 320
-0.999476, 309, 145, 324, 272
-0.999481, 133, 241, 148, 368
-0.999483, 237, 209, 252, 336
-0.999489, 73, 97, 88, 224
-0.99949, 317, 145, 332, 272
-0.999491, 109, 113, 124, 240
-0.999492, 273, 129, 400, 160
-0.999493, 199, 209, 214, 336
-0.999495, 293, 241, 308, 368
-0.999496, 425, 177, 440, 304
-0.999498, 301, 241, 316, 368
-0.999499, 279, 177, 294, 304
-0.999502, 143, 193, 158, 320
-0.999503, 169, 241, 184, 368
-0.999505, 73, 177, 88, 304
-0.999507, 243, 209, 258, 336
-0.99951, 477, 145, 492, 272
-0.999513, 91, 1, 106, 128
-0.999515, 127, 113, 142, 240
-0.999516, 287, 241, 302, 368
-0.999518, 109, 209, 124, 336
-0.999521, 273, 29, 400, 60
-0.999522, 269, 177, 284, 304
-0.999523, 319, 301, 334, 316
-0.999524, 51, 185, 66, 200
-0.999524, 259, 285, 274, 300
-0.999524, 447, 265, 462, 280
-0.999524, 465, 215, 480, 230
-0.999524, 453, 229, 468, 244
-0.999524, 51, 191, 66, 206
-0.999524, 381, 215, 396, 230
-0.999525, 391, 215, 406, 230
-0.999525, 117, 115, 132, 130
-0.999526, 397, 209, 412, 224
-0.999526, 117, 121, 132, 136
-0.999527, 289, 113, 416, 144
-0.999528, 469, 209, 484, 224
-0.999529, 53, 201, 68, 216
-0.999529, 409, 271, 424, 286
-0.999529, 419, 351, 434, 366
-0.999529, 463, 311, 478, 326
-0.999529, 401, 251, 416, 266
-0.99953, 289, 21, 304, 36
-0.99953, 55, 227, 70, 242
-0.99953, 205, 113, 220, 240
-0.99953, 367, 217, 382, 232
-0.99953, 329, 311, 344, 326
-0.999531, 421, 213, 436, 228
-0.999531, 407, 191, 422, 206
-0.999531, 309, 211, 324, 226
-0.999532, 97, 49, 112, 64
-0.999532, 383, 223, 398, 238
-0.999532, 283, 271, 298, 286
-0.999533, 345, 225, 360, 352
-0.999533, 205, 97, 236, 352
-0.999533, 449, 361, 464, 375
-0.999533, 117, 199, 132, 214
-0.999534, 117, 109, 132, 124
-0.999535, 117, 101, 132, 116
-0.999535, 401, 199, 416, 214
-0.999535, 285, 1, 300, 128
-0.999536, 153, 241, 168, 368
-0.999537, 117, 145, 132, 160
-0.999538, 485, 243, 500, 258
-0.999539, 61, 257, 76, 272
-0.999539, 443, 271, 458, 286
-0.999539, 453, 277, 468, 292
-0.99954, 471, 219, 486, 234
-0.99954, 463, 237, 478, 252
-0.999541, 465, 267, 480, 282
-0.999541, 409, 179, 424, 194
-0.999541, 453, 289, 468, 304
-0.999541, 57, 235, 72, 250
-0.999542, 109, 205, 124, 220
-0.999542, 117, 133, 132, 148
-0.999542, 149, 143, 164, 158
-0.999542, 411, 185, 426, 200
-0.999543, 61, 113, 76, 240
-0.999543, 415, 275, 430, 290
-0.999543, 427, 199, 442, 214
-0.999544, 117, 127, 132, 142
-0.999544, 73, 65, 88, 80
-0.999545, 123, 267, 138, 282
-0.999545, 465, 255, 480, 270
-0.999545, 415, 225, 430, 240
-0.999546, 469, 261, 484, 276
-0.999547, 59, 245, 74, 260
-0.999547, 409, 353, 424, 368
-0.999547, 289, 101, 416, 132
-0.999547, 73, 357, 88, 372
-0.999547, 53, 207, 68, 222
-0.999548, 179, 241, 194, 368
-0.999548, 485, 311, 500, 326
-0.999549, 457, 295, 472, 310
-0.99955, 343, 213, 358, 228
-0.99955, 103, 193, 118, 320
-0.999552, 117, 139, 132, 154
-0.999552, 481, 249, 496, 264
-0.999553, 109, 97, 124, 112
-0.999554, 403, 257, 418, 272
-0.999554, 61, 251, 76, 266
-0.999554, 109, 31, 124, 46
-0.999555, 81, 347, 96, 362
-0.999556, 63, 263, 78, 278
-0.999556, 105, 81, 120, 96
-0.999557, 73, 33, 88, 48
-0.999557, 317, 207, 332, 222
-0.999558, 463, 305, 478, 320
-0.999559, 53, 213, 68, 228
-0.999559, 113, 49, 128, 64
-0.999559, 45, 1, 60, 128
-0.999559, 105, 75, 120, 90
-0.99956, 119, 23, 134, 38
-0.999561, 95, 55, 110, 70
-0.999562, 381, 161, 396, 288
-0.999562, 429, 193, 444, 208
-0.999562, 73, 351, 88, 366
-0.999563, 321, 215, 336, 230
-0.999565, 345, 177, 360, 304
-0.999566, 221, 15, 236, 30
-0.999568, 457, 361, 472, 375
-0.999568, 125, 241, 140, 368
-0.999569, 137, 161, 152, 288
-0.999569, 279, 1, 294, 128
-0.99957, 407, 265, 422, 280
-0.99957, 475, 317, 490, 332
-0.999571, 67, 177, 82, 304
-0.999571, 73, 41, 88, 56
-0.999572, 475, 255, 490, 270
-0.999572, 51, 49, 66, 176
-0.999573, 95, 61, 110, 76
-0.999573, 105, 67, 120, 82
-0.999573, 187, 241, 202, 368
-0.999573, 83, 357, 98, 372
-0.999574, 79, 177, 94, 304
-0.999576, 105, 89, 120, 104
-0.999576, 1, 57, 500, 120
-0.999577, 231, 267, 246, 282
-0.99958, 193, 125, 320, 156
-0.99958, 451, 283, 466, 298
-0.999581, 469, 313, 484, 328
-0.999581, 331, 225, 346, 240
-0.999582, 373, 219, 388, 234
-0.999583, 477, 213, 492, 228
-0.999583, 355, 177, 370, 304
-0.999583, 61, 161, 76, 288
-0.999584, 163, 241, 178, 368
-0.999585, 119, 33, 134, 48
-0.999586, 123, 193, 138, 320
-0.999587, 459, 259, 474, 274
-0.999588, 451, 257, 466, 272
-0.999588, 315, 223, 330, 238
-0.999588, 407, 237, 422, 252
-0.999589, 421, 183, 436, 198
-0.999591, 455, 235, 470, 250
-0.999591, 85, 43, 100, 58
-0.999592, 455, 241, 470, 256
-0.999593, 409, 347, 424, 362
-0.999594, 411, 113, 426, 240
-0.999594, 249, 209, 264, 336
-0.999595, 81, 49, 96, 176
-0.999595, 419, 129, 434, 256
-0.999595, 73, 53, 88, 68
-0.999596, 193, 241, 208, 368
-0.999598, 119, 45, 134, 60
-0.999601, 419, 241, 434, 368
-0.999603, 95, 49, 110, 176
-0.999604, 465, 245, 480, 260
-0.999605, 313, 185, 328, 200
-0.999607, 481, 317, 496, 332
-0.999608, 119, 39, 134, 54
-0.999608, 107, 197, 122, 212
-0.999609, 429, 241, 444, 368
-0.99961, 73, 47, 88, 62
-0.99961, 289, 89, 416, 120
-0.99961, 439, 279, 454, 294
-0.999612, 33, 241, 48, 368
-0.999613, 459, 275, 474, 290
-0.999615, 105, 59, 120, 74
-0.999616, 127, 65, 142, 192
-0.999617, 123, 1, 138, 128
-0.999622, 405, 129, 420, 256
-0.999623, 339, 221, 354, 236
-0.999624, 157, 193, 172, 320
-0.999629, 73, 59, 88, 74
-0.999631, 139, 241, 154, 368
-0.999631, 269, 241, 284, 368
-0.999637, 445, 277, 460, 292
-0.999638, 353, 169, 480, 200
-0.999644, 377, 97, 408, 352
-0.999651, 107, 51, 122, 66
-0.999662, 457, 253, 472, 268
-0.999666, 315, 217, 330, 232
-0.999672, 97, 241, 128, 368
-0.999694, 455, 265, 470, 280
-0.999702, 415, 179, 430, 194
-0.999707, 449, 271, 464, 286
-0.999724, 13, 129, 44, 375
-0.999749, 485, 205, 500, 220
-0.999765, 249, 161, 280, 288
-0.999772, 209, 97, 336, 160
-0.999785, 149, 1, 180, 256
-0.999848, 9, 113, 40, 240
-0.999853, 5, 1, 36, 128
-0.999862, 369, 121, 496, 184
-0.999868, 289, 33, 320, 288
-0.999877, 365, 97, 396, 352
-0.999918, 181, 33, 212, 288
-0.999946, 169, 1, 200, 256
-0.999967, 241, 1, 304, 64
-0.999994, 5, 1, 36, 256
-1.00002, 245, 129, 276, 375
-1.00004, 325, 129, 356, 375
-1.00007, 221, 97, 252, 352
-1.00008, 349, 129, 380, 256
-1.0001, 353, 129, 384, 375
-1.0001, 129, 1, 160, 256
-1.00013, 145, 25, 272, 88
-1.00016, 401, 33, 432, 288
-1.00018, 277, 33, 308, 288
-1.0002, 305, 33, 336, 288
-1.00022, 233, 129, 264, 375
-1.00022, 369, 97, 496, 160
-1.00032, 193, 1, 256, 256
-1.00034, 25, 1, 56, 256
-1.00041, 205, 1, 236, 256
-1.00043, 337, 97, 368, 352
-1.00058, 337, 145, 368, 272
-1.00058, 265, 33, 296, 288
-1.0006, 389, 33, 420, 288
-1.00061, 217, 313, 280, 375
-1.00061, 1, 129, 32, 375
-1.00063, 317, 33, 348, 288
-1.00064, 193, 1, 224, 256
-1.00065, 465, 33, 496, 288
-1.00068, 25, 49, 56, 176
-1.0007, 25, 97, 56, 352
-1.0007, 217, 1, 248, 256
-1.00079, 245, 33, 276, 288
-1.00087, 313, 33, 376, 288
-1.00088, 457, 129, 488, 256
-1.00088, 353, 33, 384, 288
-1.00095, 233, 33, 264, 288
-1.00095, 13, 65, 44, 192
-1.00106, 377, 1, 408, 256
-1.00118, 365, 1, 396, 256
-1.0012, 221, 1, 252, 128
-1.00121, 297, 81, 360, 208
-1.00123, 401, 33, 464, 288
-1.00132, 129, 65, 256, 128
-1.00134, 453, 33, 484, 288
-1.00138, 421, 33, 452, 288
-1.0014, 441, 33, 472, 288
-1.00145, 21, 113, 52, 240
-1.00145, 341, 1, 372, 256
-1.00158, 329, 1, 360, 256
-1.00159, 1, 177, 32, 304
-1.00179, 217, 113, 280, 240
-1.00188, 373, 113, 404, 240
-1.00192, 337, 33, 400, 288
-1.0021, 289, 33, 352, 288
-1.0023, 433, 129, 464, 256
-1.00234, 1, 225, 32, 352
-1.0025, 29, 193, 60, 320
-1.00258, 445, 129, 476, 256
-1.00276, 361, 1, 424, 128
-1.00298, 241, 33, 304, 288
-1.003, 305, 81, 336, 208
-1.00314, 217, 1, 280, 256
-1.00353, 213, 81, 244, 208
-1.0037, 209, 1, 272, 128
-1.00377, 225, 65, 352, 192
-1.00436, 301, 17, 332, 144
-1.00445, 281, 81, 312, 208
-1.00458, 469, 113, 500, 240
-1.00461, 129, 1, 160, 128
-1.00465, 253, 1, 284, 128
-1.00483, 233, 1, 264, 128
-1.00486, 317, 97, 348, 224
-1.00508, 193, 49, 256, 176
-1.00677, 425, 1, 488, 256
-1.00705, 169, 33, 232, 160
-1.0075, 329, 1, 392, 128
-1.00773, 321, 49, 384, 176
-1.00804, 393, 65, 456, 192
-1.00831, 265, 49, 328, 176
-1.00867, 321, 97, 384, 224
-1.00896, 345, 49, 408, 176
-1.00999, 305, 1, 368, 128
-1.01007, 385, 1, 448, 128
-1.01013, 369, 49, 432, 176
-1.01137, 241, 81, 304, 208
-1.01259, 217, 65, 280, 192
-1.01283, 409, 17, 472, 144
-1.01357, 145, 33, 208, 160
-1.01442, 433, 1, 496, 128
-1.01478, 433, 49, 496, 176
