1984
-0.310106, 65, 1, 320, 375
-0.320383, 1, 65, 500, 320
-0.334574, 1, 1, 500, 375
-0.42832, 1, 1, 256, 256
-0.493845, 97, 1, 352, 256
-0.510498, 97, 97, 352, 352
-0.521724, 161, 1, 416, 375
-0.570371, 1, 97, 256, 352
-0.571368, 257, 1, 500, 375
-0.60672, 225, 1, 480, 256
-0.691029, 193, 97, 448, 352
-0.80712, 65, 1, 192, 256
-0.809734, 97, 1, 224, 375
-0.817319, 113, 33, 240, 288
-0.817438, 1, 33, 128, 288
-0.81794, 17, 1, 144, 375
-0.836935, 65, 97, 192, 352
-0.847403, 177, 97, 304, 352
-0.847703, 225, 1, 352, 256
-0.850286, 145, 1, 272, 375
-0.856134, 1, 129, 500, 256
-0.858696, 209, 1, 336, 375
-0.858859, 177, 1, 304, 256
-0.867216, 257, 1, 384, 375
-0.867341, 241, 97, 368, 352
-0.867654, 129, 129, 256, 375
-0.871752, 17, 129, 144, 375
-0.877774, 1, 81, 500, 208
-0.884249, 65, 65, 320, 192
-0.88675, 289, 97, 416, 352
-0.889203, 289, 1, 416, 256
-0.891481, 33, 113, 288, 240
-0.893606, 1, 1, 500, 128
-0.894175, 1, 17, 256, 144
-0.896366, 1, 209, 500, 336
-0.896452, 129, 129, 384, 256
-0.907077, 1, 193, 256, 320
-0.907261, 65, 113, 128, 240
-0.909605, 321, 1, 448, 375
-0.911411, 97, 161, 160, 288
-0.913415, 369, 1, 496, 375
-0.913783, 161, 49, 416, 176
-0.915792, 17, 129, 144, 256
-0.918274, 113, 49, 240, 176
-0.918741, 65, 1, 192, 128
-0.918816, 65, 65, 192, 192
-0.918991, 369, 129, 496, 375
-0.919641, 41, 129, 104, 256
-0.922431, 97, 193, 352, 320
-0.922491, 129, 177, 192, 304
-0.923, 33, 65, 96, 192
-0.923521, 209, 49, 336, 176
-0.924126, 97, 193, 224, 320
-0.924351, 129, 17, 192, 144
-0.924471, 65, 145, 192, 272
-0.924632, 129, 241, 384, 368
-0.924983, 129, 97, 256, 224
-0.925417, 17, 17, 144, 144
-0.92564, 257, 97, 500, 224
-0.925643, 353, 1, 480, 256
-0.926018, 153, 33, 216, 160
-0.926041, 1, 81, 128, 208
-0.927828, 1, 241, 256, 368
-0.92857, 97, 1, 352, 128
-0.92886, 169, 209, 232, 336
-0.929035, 249, 1, 312, 128
-0.929095, 73, 161, 136, 288
-0.929203, 33, 17, 96, 144
-0.929291, 225, 81, 288, 208
-0.930012, 57, 65, 120, 192
-0.930733, 193, 1, 448, 128
-0.930831, 89, 65, 152, 192
-0.931476, 225, 1, 352, 128
-0.931553, 73, 153, 136, 216
-0.932381, 161, 49, 288, 176
-0.932417, 249, 81, 312, 208
-0.933056, 209, 129, 272, 256
-0.933431, 113, 185, 176, 248
-0.933733, 89, 113, 152, 240
-0.933939, 145, 241, 272, 368
-0.934752, 57, 17, 120, 144
-0.935677, 89, 185, 152, 248
-0.936999, 105, 1, 168, 128
-0.937216, 113, 145, 240, 272
-0.937983, 201, 65, 264, 192
-0.938646, 49, 161, 112, 224
-0.939836, 177, 145, 304, 272
-0.940076, 121, 129, 184, 256
-0.940419, 81, 1, 144, 128
-0.940439, 257, 65, 384, 192
-0.940589, 17, 177, 144, 304
-0.940682, 273, 65, 336, 192
-0.940732, 177, 97, 304, 224
-0.940813, 273, 1, 336, 128
-0.94114, 65, 129, 128, 192
-0.941457, 137, 201, 200, 264
-0.942019, 17, 129, 80, 256
-0.942215, 177, 49, 240, 176
-0.943246, 65, 89, 128, 152
-0.943885, 113, 65, 176, 192
-0.944099, 97, 161, 160, 224
-0.944744, 25, 81, 88, 144
-0.944785, 33, 41, 96, 104
-0.945567, 129, 241, 192, 368
-0.945663, 25, 137, 88, 200
-0.945698, 113, 1, 240, 128
-0.946283, 169, 161, 232, 288
-0.94738, 137, 25, 200, 88
-0.947403, 49, 225, 176, 352
-0.947476, 57, 65, 120, 128
-0.947925, 257, 129, 320, 256
-0.94797, 185, 113, 248, 240
-0.94807, 41, 177, 104, 304
-0.948707, 9, 65, 72, 192
-0.949456, 1, 73, 64, 136
-0.949535, 153, 49, 216, 112
-0.949635, 161, 97, 224, 224
-0.949963, 145, 193, 272, 320
-0.950155, 161, 1, 288, 128
-0.950218, 97, 73, 160, 136
-0.950225, 161, 201, 224, 264
-0.950431, 257, 241, 320, 368
-0.950437, 33, 105, 96, 168
-0.950614, 9, 49, 72, 112
-0.950779, 273, 113, 400, 240
-0.95123, 121, 225, 184, 288
-0.951283, 177, 225, 240, 288
-0.952117, 57, 1, 120, 64
-0.953517, 97, 241, 224, 368
-0.953527, 249, 49, 312, 112
-0.954005, 225, 33, 288, 160
-0.954595, 257, 49, 500, 176
-0.95472, 97, 97, 160, 160
-0.955182, 105, 209, 168, 336
-0.955202, 121, 65, 184, 128
-0.955586, 41, 1, 104, 256
-0.955812, 121, 89, 184, 152
-0.95613, 65, 185, 128, 248
-0.956184, 273, 1, 400, 128
-0.956595, 137, 177, 200, 240
-0.956705, 89, 209, 152, 272
-0.957001, 257, 145, 500, 272
-0.957018, 265, 73, 328, 136
-0.957048, 81, 25, 144, 88
-0.957117, 193, 241, 320, 368
-0.957258, 1, 137, 64, 200
-0.957599, 33, 185, 96, 248
-0.957978, 49, 177, 176, 240
-0.957986, 233, 145, 296, 272
-0.958095, 161, 257, 224, 320
-0.958254, 209, 145, 272, 208
-0.95826, 9, 169, 72, 232
-0.958559, 145, 73, 208, 136
-0.958574, 225, 113, 352, 240
-0.958725, 17, 145, 144, 208
-0.958878, 105, 9, 168, 72
-0.95901, 121, 185, 152, 248
-0.959236, 33, 17, 96, 80
-0.959273, 89, 129, 152, 192
-0.959309, 161, 113, 224, 176
-0.959317, 113, 209, 240, 272
-0.959627, 289, 65, 352, 128
-0.9598, 153, 313, 216, 375
-0.959893, 101, 137, 132, 200
-0.960392, 297, 49, 360, 176
-0.960449, 65, 1, 128, 256
-0.960723, 305, 49, 432, 176
-0.960732, 225, 161, 352, 288
-0.960849, 81, 129, 112, 256
-0.961145, 257, 265, 320, 328
-0.961471, 177, 313, 240, 375
-0.961493, 225, 113, 288, 176
-0.961584, 193, 121, 256, 184
-0.961672, 113, 41, 176, 104
-0.961672, 81, 209, 144, 336
-0.961895, 193, 193, 448, 320
-0.961958, 273, 1, 336, 64
-0.961973, 273, 241, 400, 368
-0.962226, 85, 137, 116, 200
-0.962484, 121, 1, 184, 256
-0.96252, 297, 313, 360, 375
-0.962552, 57, 25, 120, 88
-0.962699, 265, 241, 328, 304
-0.962731, 177, 57, 240, 120
-0.962752, 273, 289, 336, 352
-0.962762, 81, 161, 112, 224
-0.962792, 9, 177, 72, 304
-0.962797, 9, 17, 72, 144
-0.962879, 121, 161, 152, 224
-0.962977, 153, 281, 216, 344
-0.963104, 133, 177, 164, 240
-0.963154, 193, 225, 256, 352
-0.963159, 149, 185, 180, 248
-0.963287, 97, 145, 128, 272
-0.963567, 21, 137, 52, 200
-0.963755, 101, 169, 132, 232
-0.963869, 241, 153, 304, 216
-0.964112, 109, 145, 140, 272
-0.96424, 69, 169, 100, 232
-0.964248, 305, 241, 368, 368
-0.964273, 249, 97, 312, 160
-0.964371, 153, 225, 216, 288
-0.964435, 121, 161, 152, 288
-0.964497, 265, 201, 328, 264
-0.964517, 97, 185, 224, 248
-0.964692, 201, 313, 264, 375
-0.964779, 217, 129, 280, 375
-0.964789, 49, 25, 176, 88
-0.96519, 161, 193, 192, 256
-0.965289, 161, 97, 224, 352
-0.965292, 113, 137, 176, 200
-0.965372, 81, 81, 208, 144
-0.965726, 145, 193, 176, 320
-0.965831, 249, 289, 312, 352
-0.965924, 121, 225, 152, 288
-0.966113, 61, 129, 92, 256
-0.966122, 17, 113, 48, 240
-0.966305, 257, 1, 320, 256
-0.96639, 113, 49, 240, 112
-0.966429, 225, 193, 288, 320
-0.96673, 161, 65, 288, 128
-0.966752, 153, 1, 216, 256
-0.966893, 137, 201, 168, 264
-0.967039, 137, 1, 168, 128
-0.967072, 289, 265, 320, 328
-0.967281, 73, 65, 104, 128
-0.967318, 249, 9, 312, 72
-0.967372, 57, 89, 88, 152
-0.967403, 89, 49, 152, 112
-0.967407, 165, 209, 196, 336
-0.967501, 61, 65, 92, 192
-0.967761, 1, 65, 128, 128
-0.967779, 9, 65, 40, 128
-0.967819, 289, 233, 352, 296
-0.967863, 137, 81, 200, 208
-0.967872, 209, 73, 272, 136
-0.967878, 81, 97, 144, 352
-0.967922, 273, 193, 336, 320
-0.967937, 177, 225, 208, 352
-0.967962, 121, 73, 152, 136
-0.967985, 321, 97, 448, 224
-0.967989, 129, 257, 192, 320
-0.968084, 17, 33, 80, 288
-0.968181, 57, 17, 88, 144
-0.968221, 49, 161, 80, 224
-0.968271, 129, 297, 192, 360
-0.968323, 9, 113, 72, 176
-0.968369, 257, 313, 320, 375
-0.968428, 57, 97, 120, 352
-0.968464, 1, 169, 128, 232
-0.968531, 133, 161, 164, 288
-0.968596, 185, 81, 248, 144
-0.968649, 201, 177, 264, 304
-0.968803, 101, 193, 132, 256
-0.968847, 65, 145, 96, 208
-0.96887, 129, 97, 192, 352
-0.969006, 305, 1, 368, 128
-0.969275, 65, 153, 192, 216
-0.969348, 157, 17, 188, 144
-0.969414, 17, 121, 144, 184
-0.969432, 61, 17, 92, 80
-0.969541, 97, 97, 128, 224
-0.969575, 97, 1, 160, 256
-0.969597, 81, 1, 144, 64
-0.969599, 109, 97, 140, 224
-0.969636, 225, 313, 288, 375
-0.969736, 33, 137, 64, 200
-0.96975, 129, 113, 256, 176
-0.969819, 109, 217, 140, 280
-0.969929, 61, 57, 92, 120
-0.970059, 49, 1, 176, 64
-0.9701, 17, 89, 144, 152
-0.970125, 101, 113, 132, 176
-0.970273, 257, 81, 288, 208
-0.970295, 181, 209, 212, 272
-0.970299, 257, 129, 320, 192
-0.970345, 37, 81, 68, 208
-0.970602, 41, 49, 72, 112
-0.970751, 137, 65, 168, 128
-0.970831, 369, 145, 496, 272
-0.970831, 89, 241, 152, 304
-0.970836, 129, 1, 192, 64
-0.970881, 289, 89, 352, 152
-0.971043, 209, 97, 336, 160
-0.971063, 209, 97, 240, 224
-0.971088, 85, 193, 116, 256
-0.971134, 281, 1, 312, 128
-0.971171, 185, 265, 248, 328
-0.97122, 297, 289, 360, 352
-0.971235, 241, 73, 304, 136
-0.971248, 57, 209, 120, 272
-0.971325, 173, 33, 204, 160
-0.971347, 81, 65, 112, 192
-0.971374, 225, 241, 480, 368
-0.971412, 77, 1, 108, 128
-0.971454, 169, 177, 232, 240
-0.971485, 33, 129, 64, 256
-0.971643, 293, 57, 324, 120
-0.971684, 177, 41, 208, 104
-0.971788, 285, 49, 316, 176
-0.971817, 297, 265, 360, 328
-0.971898, 65, 105, 192, 168
-0.971927, 25, 65, 56, 192
-0.971972, 97, 73, 128, 136
-0.971974, 133, 17, 164, 80
-0.972059, 145, 97, 176, 160
-0.972156, 165, 25, 196, 88
-0.972195, 49, 137, 80, 200
-0.972218, 281, 113, 344, 240
-0.972346, 221, 65, 252, 192
-0.97242, 209, 49, 272, 112
-0.972422, 257, 129, 320, 375
-0.972625, 369, 97, 496, 224
-0.972728, 161, 25, 224, 88
-0.972801, 49, 81, 80, 208
-0.972808, 161, 249, 288, 312
-0.972813, 105, 97, 168, 352
-0.97305, 121, 97, 152, 224
-0.973134, 21, 81, 52, 144
-0.973171, 1, 41, 128, 104
-0.973176, 177, 313, 304, 375
-0.973177, 201, 17, 264, 144
-0.973185, 65, 129, 192, 192
-0.973219, 273, 193, 400, 320
-0.973295, 145, 41, 176, 104
-0.973363, 241, 185, 304, 248
-0.973395, 5, 49, 36, 176
-0.973449, 9, 9, 72, 72
-0.973531, 33, 209, 160, 272
-0.973555, 249, 193, 312, 320
-0.973648, 321, 225, 448, 352
-0.973656, 49, 129, 80, 256
-0.973726, 185, 289, 248, 352
-0.97374, 261, 145, 292, 272
-0.973742, 73, 193, 104, 256
-0.973774, 265, 153, 328, 216
-0.973791, 25, 57, 56, 120
-0.973798, 65, 57, 192, 120
-0.973814, 177, 1, 240, 128
-0.973876, 117, 17, 148, 144
-0.973917, 61, 121, 92, 184
-0.974037, 9, 121, 40, 184
-0.974238, 185, 129, 248, 375
-0.974278, 197, 241, 228, 304
-0.974278, 321, 97, 384, 224
-0.97429, 201, 33, 264, 288
-0.974322, 133, 225, 164, 288
-0.974325, 293, 1, 324, 128
-0.974338, 121, 105, 152, 168
-0.974459, 161, 281, 288, 344
-0.974549, 1, 17, 128, 80
-0.974599, 241, 281, 368, 344
-0.974744, 121, 113, 184, 176
-0.974752, 109, 89, 140, 152
-0.974768, 37, 33, 68, 160
-0.974804, 165, 65, 196, 128
-0.974821, 165, 265, 196, 328
-0.974893, 97, 249, 224, 312
-0.975008, 33, 129, 96, 375
-0.975021, 201, 49, 232, 176
-0.975169, 1, 225, 64, 352
-0.975171, 69, 177, 100, 304
-0.975179, 137, 97, 168, 224
-0.975343, 181, 313, 212, 375
-0.975345, 121, 1, 152, 64
-0.975442, 121, 129, 152, 192
-0.975472, 257, 81, 384, 144
-0.975538, 253, 153, 284, 216
-0.975571, 297, 65, 328, 192
-0.975594, 169, 217, 200, 280
-0.975596, 253, 81, 284, 144
-0.975647, 177, 185, 304, 248
-0.975688, 273, 81, 304, 208
-0.975758, 205, 121, 236, 184
-0.975841, 161, 41, 288, 104
-0.975844, 97, 1, 128, 128
-0.975851, 9, 97, 40, 160
-0.975917, 37, 161, 68, 224
-0.975982, 209, 73, 336, 136
-0.976, 85, 177, 116, 304
-0.976004, 189, 241, 220, 368
-0.976025, 297, 289, 328, 352
-0.976044, 285, 81, 316, 144
-0.976076, 177, 129, 304, 192
-0.976173, 73, 1, 136, 375
-0.976206, 113, 137, 240, 200
-0.97621, 157, 65, 188, 192
-0.976232, 129, 209, 160, 336
-0.97624, 197, 193, 228, 320
-0.97626, 9, 41, 40, 104
-0.976306, 73, 121, 104, 184
-0.976423, 273, 33, 336, 96
-0.976423, 241, 1, 368, 64
-0.976436, 217, 193, 280, 256
-0.976448, 9, 129, 72, 375
-0.976465, 73, 1, 104, 64
-0.976522, 277, 9, 308, 72
-0.976573, 209, 49, 336, 112
-0.97663, 289, 209, 352, 272
-0.976647, 245, 113, 276, 240
-0.976708, 101, 193, 132, 320
-0.976733, 177, 217, 304, 280
-0.976767, 245, 65, 276, 192
-0.976844, 297, 193, 360, 320
-0.976905, 273, 257, 304, 320
-0.976918, 209, 153, 336, 216
-0.976939, 85, 97, 116, 160
-0.976966, 197, 113, 228, 240
-0.977268, 241, 233, 304, 296
-0.977283, 97, 25, 224, 88
-0.97738, 149, 209, 180, 272
-0.977434, 401, 145, 464, 272
-0.977457, 145, 49, 176, 176
-0.977557, 21, 113, 52, 176
-0.97761, 133, 41, 164, 104
-0.977626, 285, 297, 316, 360
-0.977632, 177, 177, 208, 304
-0.977725, 57, 177, 88, 304
-0.977769, 289, 65, 352, 320
-0.977865, 81, 25, 112, 88
-0.977869, 165, 297, 196, 360
-0.977877, 177, 1, 240, 256
-0.977895, 105, 49, 136, 176
-0.977915, 233, 97, 264, 224
-0.977966, 121, 1, 184, 375
-0.978008, 241, 153, 272, 216
-0.978045, 197, 209, 228, 272
-0.978131, 369, 33, 496, 160
-0.978245, 145, 145, 176, 272
-0.978302, 49, 17, 80, 80
-0.978331, 17, 161, 48, 224
-0.978382, 225, 33, 288, 288
-0.978404, 189, 49, 220, 112
-0.978406, 281, 233, 312, 296
-0.978442, 177, 257, 208, 320
-0.978444, 157, 161, 188, 288
-0.978502, 129, 89, 256, 152
-0.978511, 85, 49, 116, 112
-0.978551, 193, 113, 224, 176
-0.978552, 297, 241, 328, 304
-0.978597, 297, 1, 360, 64
-0.978667, 273, 313, 400, 375
-0.978678, 401, 65, 464, 192
-0.978729, 133, 89, 164, 152
-0.97883, 149, 17, 180, 80
-0.978839, 281, 49, 312, 112
-0.979084, 49, 1, 112, 375
-0.9791, 201, 217, 264, 280
-0.979169, 301, 313, 332, 375
-0.979195, 297, 9, 328, 72
-0.979219, 113, 305, 240, 368
-0.979228, 37, 97, 68, 160
-0.979228, 233, 241, 296, 368
-0.979315, 225, 129, 352, 192
-0.979325, 185, 33, 216, 160
-0.97934, 109, 65, 140, 128
-0.979397, 137, 145, 200, 208
-0.979411, 221, 137, 252, 200
-0.979427, 377, 49, 440, 176
-0.979447, 193, 177, 256, 240
-0.979521, 265, 153, 296, 216
-0.979521, 273, 193, 304, 256
-0.979586, 217, 313, 248, 375
-0.979599, 97, 273, 224, 336
-0.979742, 177, 289, 208, 352
-0.979751, 45, 73, 76, 136
-0.979803, 1, 313, 64, 375
-0.98004, 57, 225, 120, 352
-0.980081, 293, 241, 324, 368
-0.980089, 361, 113, 424, 240
-0.98009, 161, 153, 288, 216
-0.980093, 145, 1, 208, 375
-0.980111, 57, 185, 88, 248
-0.980119, 273, 233, 400, 296
-0.980152, 269, 17, 300, 144
-0.980203, 161, 9, 288, 72
-0.98022, 9, 193, 72, 256
-0.980256, 49, 233, 176, 296
-0.980316, 25, 289, 88, 352
-0.980319, 221, 129, 252, 256
-0.980449, 117, 209, 148, 336
-0.980541, 305, 1, 336, 128
-0.980577, 257, 57, 384, 120
-0.980636, 273, 73, 304, 136
-0.980643, 237, 313, 268, 375
-0.98069, 157, 113, 188, 240
-0.9808, 281, 177, 344, 240
-0.980823, 49, 113, 80, 176
-0.980827, 225, 313, 352, 375
-0.980928, 281, 121, 344, 184
-0.980947, 121, 249, 152, 312
-0.980997, 97, 1, 160, 375
-0.98107, 1, 257, 64, 320
-0.981116, 305, 65, 336, 128
-0.98114, 93, 49, 124, 176
-0.981185, 185, 145, 248, 208
-0.981215, 273, 209, 400, 272
-0.981222, 269, 233, 300, 296
-0.981254, 241, 25, 368, 88
-0.981625, 253, 1, 284, 128
-0.981632, 241, 257, 368, 320
-0.981684, 281, 105, 312, 168
-0.981859, 113, 161, 240, 224
-0.981994, 289, 257, 416, 320
-0.982007, 109, 1, 140, 64
-0.982046, 21, 33, 52, 96
-0.98206, 133, 137, 164, 200
-0.982096, 273, 113, 400, 176
-0.982149, 305, 41, 368, 104
-0.98216, 225, 113, 256, 176
-0.982175, 121, 33, 152, 96
-0.982177, 201, 81, 232, 144
-0.982299, 249, 121, 280, 184
-0.982432, 157, 89, 188, 152
-0.982439, 225, 25, 288, 88
-0.98247, 313, 233, 376, 296
-0.98248, 385, 145, 448, 208
-0.98252, 321, 1, 448, 128
-0.982522, 265, 1, 328, 375
-0.982527, 217, 249, 280, 312
-0.982543, 173, 185, 204, 248
-0.982552, 417, 65, 480, 128
-0.9826, 145, 233, 176, 296
-0.982646, 93, 25, 124, 88
-0.982729, 201, 241, 232, 368
-0.982731, 1, 241, 128, 368
-0.982734, 21, 161, 52, 288
-0.982734, 85, 1, 116, 64
-0.982781, 9, 1, 72, 375
-0.982813, 225, 281, 288, 344
-0.982988, 261, 265, 292, 328
-0.983022, 237, 113, 268, 176
-0.983027, 49, 257, 176, 320
-0.983057, 233, 49, 264, 176
-0.983098, 17, 17, 48, 144
-0.983106, 185, 1, 248, 375
-0.983133, 181, 97, 212, 224
-0.983222, 109, 241, 140, 304
-0.983253, 289, 113, 320, 240
-0.983358, 353, 121, 416, 184
-0.983392, 321, 177, 448, 304
-0.983402, 417, 1, 480, 128
-0.983426, 337, 289, 400, 352
-0.983471, 201, 25, 264, 88
-0.983473, 313, 97, 376, 160
-0.983497, 329, 241, 392, 368
-0.983586, 5, 97, 36, 224
-0.983638, 181, 89, 212, 152
-0.983648, 309, 49, 340, 176
-0.983718, 289, 209, 320, 272
-0.983719, 425, 81, 488, 208
-0.983748, 133, 49, 164, 176
-0.983794, 153, 289, 184, 352
-0.983822, 149, 65, 180, 128
-0.983846, 161, 153, 224, 216
-0.983868, 93, 217, 124, 280
-0.983923, 69, 89, 100, 152
-0.983954, 153, 241, 184, 368
-0.983992, 241, 1, 304, 375
-0.98408, 201, 305, 232, 368
-0.984134, 1, 289, 64, 352
-0.984177, 5, 145, 36, 208
-0.984314, 281, 241, 344, 368
-0.984317, 293, 33, 324, 96
-0.984364, 225, 225, 352, 288
-0.984402, 177, 65, 208, 128
-0.984502, 273, 129, 304, 256
-0.984565, 289, 281, 416, 344
-0.984585, 253, 297, 284, 360
-0.984596, 261, 129, 292, 192
-0.984613, 305, 185, 368, 248
-0.984678, 433, 161, 496, 288
-0.984687, 217, 1, 280, 375
-0.984714, 273, 209, 304, 336
-0.984722, 433, 169, 496, 232
-0.984805, 33, 209, 96, 272
-0.984823, 1, 233, 64, 296
-0.984825, 321, 49, 384, 176
-0.984858, 329, 209, 392, 272
-0.985101, 305, 65, 432, 128
-0.985105, 65, 233, 128, 296
-0.985113, 369, 105, 496, 168
-0.985116, 353, 49, 416, 176
-0.985222, 41, 177, 72, 304
-0.985283, 369, 241, 496, 368
-0.985315, 337, 249, 400, 312
-0.985368, 409, 137, 472, 200
-0.985736, 409, 161, 472, 224
-0.985801, 409, 41, 472, 104
-0.985865, 33, 313, 96, 375
-0.985942, 289, 1, 352, 375
-0.986121, 225, 193, 352, 256
-0.986128, 113, 1, 240, 64
-0.986154, 169, 81, 200, 208
-0.986176, 369, 161, 496, 224
-0.986255, 289, 145, 352, 208
-0.986309, 65, 121, 320, 184
-0.98631, 233, 145, 264, 272
-0.98668, 213, 225, 244, 352
-0.986713, 97, 177, 160, 208
-0.986813, 65, 65, 320, 128
-0.986834, 89, 189, 152, 220
-0.986845, 65, 297, 192, 360
-0.986896, 361, 241, 424, 368
-0.987082, 1, 41, 256, 104
-0.98709, 321, 121, 448, 184
-0.987188, 73, 157, 136, 188
-0.987231, 121, 193, 184, 224
-0.987279, 289, 1, 416, 64
-0.987398, 289, 33, 416, 96
-0.987414, 57, 189, 120, 220
-0.987414, 329, 1, 392, 128
-0.987489, 393, 1, 456, 128
-0.987489, 145, 209, 208, 240
-0.987567, 73, 173, 136, 204
-0.987592, 65, 133, 128, 164
-0.987601, 141, 241, 172, 368
-0.987632, 41, 177, 104, 208
-0.987662, 17, 77, 80, 108
-0.987792, 33, 57, 96, 88
-0.987805, 121, 205, 184, 236
-0.987846, 385, 1, 448, 256
-0.987864, 257, 153, 384, 216
-0.987996, 321, 313, 448, 375
-0.988022, 73, 201, 136, 232
-0.988026, 1, 149, 64, 180
-0.98808, 337, 289, 464, 352
-0.988167, 385, 241, 448, 368
-0.988172, 329, 193, 392, 320
-0.988226, 309, 209, 340, 336
-0.98829, 209, 145, 240, 272
-0.9883, 321, 1, 384, 375
-0.988341, 273, 185, 400, 248
-0.988372, 97, 165, 160, 196
-0.98839, 89, 85, 152, 116
-0.988417, 41, 133, 104, 164
-0.988436, 57, 73, 120, 104
-0.988463, 145, 45, 208, 76
-0.988468, 33, 153, 96, 184
-0.988471, 65, 93, 128, 124
-0.988475, 25, 241, 88, 368
-0.988503, 17, 165, 80, 196
-0.98854, 33, 41, 96, 72
-0.9886, 265, 85, 328, 116
-0.988624, 57, 145, 120, 176
-0.988637, 121, 181, 184, 212
-0.988681, 97, 201, 160, 232
-0.98873, 17, 89, 80, 120
-0.988744, 113, 217, 176, 248
-0.988794, 153, 257, 216, 288
-0.988825, 129, 25, 192, 56
-0.988831, 97, 153, 352, 216
-0.988849, 265, 73, 328, 104
-0.988906, 97, 265, 352, 328
-0.988917, 401, 129, 464, 375
-0.988917, 65, 121, 128, 152
-0.988988, 113, 73, 176, 104
-0.989024, 1, 17, 256, 80
-0.989034, 161, 289, 416, 352
-0.989036, 177, 237, 240, 268
-0.989073, 41, 165, 104, 196
-0.989111, 1, 57, 64, 88
-0.989163, 145, 197, 208, 228
-0.989178, 129, 249, 192, 280
-0.989185, 81, 145, 144, 176
-0.989195, 169, 217, 232, 248
-0.989244, 57, 25, 120, 56
-0.989254, 89, 217, 152, 248
-0.989268, 33, 189, 96, 220
-0.989286, 97, 209, 352, 272
-0.989321, 17, 137, 80, 168
-0.98939, 5, 145, 36, 272
-0.989399, 177, 329, 240, 360
-0.989414, 49, 201, 112, 232
-0.989427, 161, 117, 224, 148
-0.98948, 89, 73, 152, 104
-0.989488, 225, 85, 288, 116
-0.989498, 257, 285, 320, 316
-0.989534, 89, 121, 152, 152
-0.98954, 153, 273, 216, 304
-0.98954, 1, 169, 256, 232
-0.989568, 153, 293, 216, 324
-0.989577, 257, 337, 320, 368
-0.989642, 137, 221, 200, 252
-0.98966, 169, 317, 232, 348
-0.989708, 153, 105, 216, 136
-0.989711, 281, 333, 344, 364
-0.989741, 321, 209, 448, 272
-0.989743, 113, 229, 176, 260
-0.989774, 305, 89, 432, 152
-0.989777, 257, 193, 288, 320
-0.989789, 89, 249, 152, 280
-0.989833, 297, 193, 328, 320
-0.989833, 253, 241, 284, 368
-0.98984, 113, 85, 176, 116
-0.98984, 177, 249, 240, 280
-0.989872, 129, 265, 192, 296
-0.989882, 57, 9, 120, 40
-0.989895, 97, 17, 160, 48
-0.989901, 209, 145, 272, 176
-0.989911, 1, 233, 128, 296
-0.989914, 41, 89, 104, 120
-0.989935, 25, 117, 88, 148
-0.989945, 241, 157, 304, 188
-0.989953, 193, 341, 256, 372
-0.989968, 369, 25, 496, 88
-0.989974, 97, 41, 352, 104
-0.989975, 97, 109, 160, 140
-0.989976, 161, 57, 224, 88
-0.989979, 89, 133, 152, 164
-0.98998, 321, 233, 448, 296
-0.990039, 273, 5, 336, 36
-0.990042, 73, 57, 136, 88
-0.990053, 97, 89, 352, 152
-0.990065, 81, 29, 144, 60
-0.990073, 241, 137, 304, 168
-0.990082, 265, 101, 328, 132
-0.990089, 297, 321, 360, 352
-0.990091, 233, 101, 296, 132
-0.990095, 121, 61, 184, 92
-0.990108, 433, 33, 496, 288
-0.990111, 145, 317, 208, 348
-0.990155, 17, 177, 80, 208
-0.990166, 145, 93, 208, 124
-0.990214, 225, 69, 288, 100
-0.990219, 153, 305, 216, 336
-0.990225, 285, 193, 316, 320
-0.990236, 137, 81, 200, 112
-0.990236, 65, 193, 192, 224
-0.990242, 1, 281, 128, 344
-0.990251, 1, 45, 64, 76
-0.990272, 257, 269, 320, 300
-0.990287, 297, 309, 360, 340
-0.990292, 185, 89, 248, 120
-0.990294, 273, 297, 336, 328
-0.990301, 113, 125, 176, 156
-0.990307, 1, 145, 256, 208
-0.990312, 185, 269, 248, 300
-0.99034, 313, 1, 376, 256
-0.990363, 249, 13, 312, 44
-0.990373, 317, 1, 348, 128
-0.990384, 113, 97, 176, 128
-0.990399, 289, 69, 352, 100
-0.990404, 249, 257, 312, 288
-0.990417, 249, 49, 312, 80
-0.990439, 121, 37, 184, 68
-0.990452, 201, 105, 264, 136
-0.990472, 249, 225, 312, 256
-0.990476, 33, 169, 160, 200
-0.990484, 257, 325, 320, 356
-0.990494, 169, 345, 232, 375
-0.990499, 1, 105, 64, 136
-0.990517, 153, 329, 216, 360
-0.990554, 153, 33, 216, 64
-0.990578, 249, 61, 312, 92
-0.990581, 297, 293, 360, 324
-0.990588, 169, 129, 200, 256
-0.990592, 1, 265, 256, 328
-0.990597, 321, 225, 352, 352
-0.990598, 25, 105, 88, 136
-0.990598, 113, 137, 176, 168
-0.99061, 209, 329, 272, 360
-0.990616, 1, 1, 32, 128
-0.990623, 217, 157, 280, 188
-0.990627, 369, 97, 432, 352
-0.990631, 57, 45, 120, 76
-0.990632, 25, 201, 88, 232
-0.990642, 257, 37, 320, 68
-0.990642, 89, 237, 152, 268
-0.990664, 265, 145, 328, 176
-0.990672, 169, 205, 232, 236
-0.990681, 249, 297, 312, 328
-0.990695, 289, 93, 352, 124
-0.990714, 265, 313, 328, 344
-0.99072, 249, 1, 312, 32
-0.990734, 153, 177, 216, 208
-0.990738, 121, 169, 184, 200
-0.990756, 281, 345, 344, 375
-0.99077, 329, 97, 392, 352
-0.990805, 153, 69, 216, 100
-0.99081, 289, 249, 352, 280
-0.99083, 9, 189, 72, 220
-0.990865, 1, 89, 256, 152
-0.990876, 369, 137, 496, 200
-0.991127, 129, 1, 384, 64
-0.991129, 1, 313, 128, 375
-0.991244, 97, 177, 352, 240
-0.991261, 1, 137, 500, 200
-0.991354, 353, 161, 416, 288
-0.991385, 337, 1, 464, 64
-0.991412, 241, 1, 272, 128
-0.991471, 305, 145, 368, 272
-0.991492, 369, 1, 432, 375
-0.991538, 321, 145, 448, 208
-0.991563, 49, 181, 176, 212
-0.991592, 117, 153, 132, 216
-0.991601, 17, 149, 144, 180
-0.991619, 13, 241, 44, 368
-0.991643, 353, 73, 480, 136
-0.991643, 1, 193, 256, 256
-0.991699, 105, 173, 136, 204
-0.9917, 369, 257, 496, 320
-0.991701, 135, 185, 150, 248
-0.991705, 79, 169, 94, 232
-0.99171, 61, 185, 92, 216
-0.991711, 117, 185, 148, 216
-0.991714, 93, 185, 124, 216
-0.991738, 81, 193, 112, 224
-0.99175, 73, 177, 104, 208
-0.991764, 53, 153, 68, 216
-0.991771, 37, 153, 68, 184
-0.991801, 245, 161, 276, 288
-0.991837, 85, 157, 116, 188
-0.991865, 193, 97, 448, 160
-0.991875, 1, 241, 256, 304
-0.991893, 125, 161, 140, 224
-0.991907, 425, 1, 488, 375
-0.991955, 73, 205, 104, 236
-0.991966, 93, 173, 124, 204
-0.991972, 97, 205, 224, 236
-0.992003, 121, 209, 152, 240
-0.992007, 161, 241, 416, 304
-0.99201, 101, 197, 132, 228
-0.992018, 137, 201, 168, 232
-0.992029, 105, 153, 120, 216
-0.992067, 43, 145, 58, 208
-0.992069, 193, 121, 448, 184
-0.992073, 29, 129, 44, 192
-0.992076, 21, 157, 52, 188
-0.992077, 25, 141, 56, 172
-0.992103, 21, 65, 52, 96
-0.992117, 33, 73, 160, 104
-0.99215, 69, 129, 100, 160
-0.992156, 87, 137, 102, 200
-0.992158, 61, 145, 92, 176
-0.992162, 105, 161, 136, 192
-0.992162, 111, 153, 126, 216
-0.992167, 49, 37, 80, 68
-0.992172, 61, 173, 92, 204
-0.992175, 97, 137, 128, 168
-0.992179, 137, 213, 168, 244
-0.992182, 1, 53, 32, 84
-0.992195, 49, 169, 80, 200
-0.992199, 369, 313, 496, 375
-0.992203, 63, 57, 78, 120
-0.992218, 149, 189, 180, 220
-0.992218, 285, 269, 316, 300
-0.992221, 169, 201, 200, 232
-0.992235, 129, 173, 160, 204
-0.992238, 149, 209, 180, 240
-0.992239, 77, 77, 108, 108
-0.99224, 289, 281, 320, 312
-0.992241, 57, 85, 88, 116
-0.992241, 87, 177, 102, 240
-0.992244, 281, 81, 312, 112
-0.992253, 165, 257, 196, 288
-0.992255, 5, 153, 36, 184
-0.992263, 117, 237, 148, 268
-0.992266, 61, 25, 92, 56
-0.992272, 125, 197, 156, 228
-0.992273, 57, 57, 88, 88
-0.99228, 105, 185, 136, 216
-0.992295, 293, 69, 324, 100
-0.992312, 321, 185, 448, 248
-0.992314, 161, 65, 416, 128
-0.992316, 297, 301, 328, 332
-0.992316, 97, 169, 112, 232
-0.992316, 49, 181, 80, 212
-0.992323, 145, 81, 176, 112
-0.99233, 61, 197, 92, 228
-0.99233, 125, 253, 156, 284
-0.992335, 281, 257, 312, 288
-0.992338, 409, 33, 472, 288
-0.992339, 97, 149, 128, 180
-0.992355, 1, 133, 128, 164
-0.992357, 77, 141, 108, 172
-0.992363, 85, 209, 116, 240
-0.992371, 17, 101, 48, 132
-0.992376, 1, 113, 500, 176
-0.992388, 61, 37, 92, 68
-0.992391, 129, 185, 144, 248
-0.992395, 49, 157, 80, 188
-0.992396, 9, 69, 40, 100
-0.992397, 269, 221, 300, 252
-0.992402, 5, 97, 36, 128
-0.992409, 25, 169, 56, 200
-0.99241, 181, 209, 212, 240
-0.992414, 133, 81, 164, 112
-0.992422, 131, 225, 146, 288
-0.992426, 197, 1, 228, 128
-0.992429, 1, 305, 256, 368
-0.992429, 13, 81, 44, 112
-0.99243, 69, 65, 100, 96
-0.992432, 133, 185, 164, 216
-0.992434, 165, 297, 196, 328
-0.992436, 149, 21, 180, 52
-0.992439, 285, 333, 316, 364
-0.992442, 109, 149, 140, 180
-0.992447, 117, 225, 148, 256
-0.992453, 145, 93, 176, 124
-0.992459, 285, 233, 316, 264
-0.992465, 121, 85, 152, 116
-0.992465, 53, 97, 84, 128
-0.992466, 93, 93, 124, 124
-0.992468, 45, 193, 76, 224
-0.992472, 73, 93, 104, 124
-0.992478, 1, 241, 32, 368
-0.992479, 177, 257, 208, 288
-0.992486, 173, 245, 204, 276
-0.992493, 253, 85, 284, 116
-0.992494, 129, 21, 160, 52
-0.992498, 77, 53, 108, 84
-0.992503, 41, 73, 72, 104
-0.992503, 161, 213, 192, 244
-0.992504, 49, 133, 80, 164
-0.992514, 45, 49, 76, 80
-0.992528, 237, 149, 268, 180
-0.992537, 197, 213, 228, 244
-0.992544, 225, 141, 256, 172
-0.992545, 97, 77, 128, 108
-0.992546, 129, 69, 160, 100
-0.992546, 269, 77, 300, 108
-0.992549, 117, 161, 148, 192
-0.992552, 289, 1, 320, 32
-0.992554, 37, 169, 68, 200
-0.992558, 193, 313, 448, 375
-0.992561, 185, 325, 216, 356
-0.992563, 201, 253, 232, 284
-0.992567, 369, 185, 496, 248
-0.992569, 213, 321, 244, 352
-0.992575, 105, 221, 136, 252
-0.992577, 253, 153, 284, 184
-0.992581, 21, 129, 52, 160
-0.992584, 73, 157, 104, 188
-0.99259, 293, 85, 324, 116
-0.99259, 165, 281, 196, 312
-0.992592, 149, 185, 164, 248
-0.992593, 165, 37, 196, 68
-0.992594, 71, 145, 86, 208
-0.992594, 109, 77, 140, 108
-0.992594, 141, 185, 156, 248
-0.992597, 13, 117, 44, 148
-0.992598, 181, 49, 212, 80
-0.992617, 173, 309, 204, 340
-0.992617, 325, 97, 356, 224
-0.992627, 281, 13, 312, 44
-0.992629, 269, 281, 300, 312
-0.992629, 129, 217, 256, 248
-0.992637, 61, 161, 76, 224
-0.992638, 277, 41, 308, 72
-0.992649, 145, 113, 176, 144
-0.992653, 165, 269, 196, 300
-0.992653, 209, 345, 240, 375
-0.992661, 9, 165, 40, 196
-0.992667, 165, 77, 196, 108
-0.992667, 113, 253, 144, 284
-0.99267, 13, 141, 44, 172
-0.992673, 13, 53, 44, 84
-0.992686, 213, 137, 244, 168
-0.992689, 117, 173, 148, 204
-0.99269, 297, 321, 328, 352
-0.992693, 133, 37, 164, 68
-0.992696, 25, 89, 56, 120
-0.992697, 297, 241, 328, 272
-0.99271, 125, 209, 140, 272
-0.992713, 145, 65, 176, 96
-0.992713, 61, 157, 92, 188
-0.992715, 177, 37, 208, 68
-0.992721, 97, 145, 112, 208
-0.992724, 89, 65, 120, 96
-0.992727, 133, 229, 164, 260
-0.992727, 229, 101, 260, 132
-0.992738, 81, 73, 208, 104
-0.992747, 1, 209, 500, 272
-0.992759, 301, 129, 332, 256
-0.992816, 65, 125, 192, 156
-0.992837, 303, 57, 318, 120
-0.992874, 369, 209, 496, 272
-0.992887, 59, 17, 74, 80
-0.992888, 103, 121, 118, 184
-0.9929, 23, 97, 38, 160
-0.9929, 35, 137, 50, 200
-0.992903, 123, 185, 138, 248
-0.992913, 107, 89, 122, 152
-0.992941, 361, 1, 424, 256
-0.992992, 75, 121, 90, 184
-0.992995, 89, 225, 120, 352
-0.992999, 67, 81, 82, 144
-0.993032, 167, 265, 182, 328
-0.993034, 49, 205, 176, 236
-0.99306, 81, 129, 96, 192
-0.993062, 303, 265, 318, 328
-0.993096, 465, 161, 496, 288
-0.9931, 129, 61, 256, 92
-0.9931, 49, 13, 176, 44
-0.993111, 193, 337, 320, 368
-0.993148, 1, 217, 256, 280
-0.993166, 49, 29, 176, 60
-0.993183, 133, 161, 148, 224
-0.993187, 1, 181, 128, 212
-0.99319, 257, 145, 500, 208
-0.993191, 21, 65, 36, 128
-0.993195, 117, 177, 132, 240
-0.993257, 159, 185, 174, 248
-0.993275, 73, 169, 88, 232
-0.993306, 129, 129, 256, 160
-0.993318, 17, 57, 144, 88
-0.993325, 297, 257, 312, 320
-0.993392, 113, 249, 240, 280
-0.993397, 421, 81, 452, 208
-0.993403, 145, 117, 272, 148
-0.993405, 309, 281, 324, 344
-0.993412, 179, 201, 194, 264
-0.993444, 173, 193, 188, 256
-0.993456, 159, 89, 174, 152
-0.993497, 393, 1, 456, 375
-0.99351, 119, 217, 134, 280
-0.993547, 71, 17, 86, 80
-0.993548, 77, 225, 108, 352
-0.99356, 53, 25, 68, 88
-0.993565, 141, 225, 156, 288
-0.993581, 313, 129, 344, 256
-0.993616, 135, 65, 150, 128
-0.99363, 99, 193, 114, 256
-0.993633, 1, 85, 128, 116
-0.993637, 65, 93, 192, 124
-0.993642, 257, 265, 500, 328
-0.993649, 13, 57, 28, 120
-0.993655, 129, 1, 144, 64
-0.993672, 109, 129, 124, 192
-0.993676, 1, 97, 128, 128
-0.993688, 69, 49, 84, 112
-0.9937, 99, 65, 114, 128
-0.993715, 1, 161, 500, 224
-0.993731, 297, 57, 312, 120
-0.993733, 23, 137, 38, 200
-0.993734, 65, 61, 192, 92
-0.993776, 57, 73, 72, 136
-0.993811, 291, 249, 306, 312
-0.993815, 77, 1, 92, 64
-0.993819, 67, 169, 82, 232
-0.993842, 49, 217, 176, 248
-0.993871, 187, 201, 202, 264
-0.993889, 1, 185, 500, 248
-0.993895, 209, 77, 336, 108
-0.993904, 227, 113, 242, 176
-0.993918, 65, 17, 80, 80
-0.993937, 109, 177, 124, 240
-0.993964, 189, 41, 204, 104
-0.99397, 369, 233, 496, 296
-0.99398, 177, 101, 304, 132
-0.993986, 97, 113, 224, 144
-0.993988, 139, 161, 154, 224
-0.99399, 29, 105, 44, 168
-0.993995, 81, 41, 208, 72
-0.994015, 101, 241, 132, 368
-0.994031, 425, 129, 488, 375
-0.99406, 161, 73, 288, 104
-0.994061, 97, 229, 224, 260
-0.994079, 165, 185, 180, 248
-0.994085, 173, 217, 188, 280
-0.994094, 241, 289, 368, 320
-0.994095, 77, 49, 92, 112
-0.994109, 81, 169, 208, 200
-0.994114, 65, 137, 192, 168
-0.994116, 129, 269, 256, 300
-0.994124, 117, 81, 132, 144
-0.994198, 69, 105, 84, 168
-0.994201, 27, 65, 42, 128
-0.994207, 97, 313, 352, 375
-0.994213, 137, 17, 152, 80
-0.994222, 147, 57, 162, 120
-0.994226, 183, 41, 198, 104
-0.994269, 71, 193, 86, 256
-0.994285, 93, 193, 108, 256
-0.994288, 161, 41, 288, 72
-0.994294, 179, 297, 194, 360
-0.994306, 345, 1, 408, 375
-0.994327, 263, 153, 278, 216
-0.994329, 123, 137, 138, 200
-0.994348, 127, 73, 142, 136
-0.994371, 225, 33, 480, 96
-0.994373, 53, 1, 84, 256
-0.994379, 369, 49, 496, 112
-0.994384, 37, 161, 52, 224
-0.994396, 1, 81, 500, 144
-0.994397, 97, 89, 112, 152
-0.994406, 169, 25, 184, 88
-0.994421, 257, 57, 500, 120
-0.994422, 145, 89, 272, 120
-0.994424, 81, 201, 96, 264
-0.994429, 1, 25, 500, 88
-0.994435, 83, 25, 98, 88
-0.994442, 65, 157, 192, 188
-0.994444, 333, 33, 364, 160
-0.994444, 225, 145, 352, 176
-0.994452, 171, 289, 186, 352
-0.994463, 63, 129, 78, 192
-0.99448, 65, 1, 96, 256
-0.994491, 7, 49, 22, 112
-0.994504, 33, 241, 64, 368
-0.994506, 137, 89, 152, 152
-0.994512, 45, 169, 60, 232
-0.99454, 209, 125, 336, 156
-0.994542, 161, 289, 288, 320
-0.994553, 257, 89, 384, 120
-0.994568, 145, 309, 272, 340
-0.994588, 115, 113, 130, 176
-0.994589, 17, 193, 144, 224
-0.994608, 225, 317, 352, 348
-0.994614, 1, 45, 128, 76
-0.994619, 97, 181, 224, 212
-0.994622, 193, 53, 320, 84
-0.994631, 377, 193, 440, 320
-0.994638, 249, 145, 264, 208
-0.994644, 1, 233, 500, 296
-0.994654, 369, 193, 496, 320
-0.994656, 291, 41, 306, 104
-0.994662, 257, 81, 272, 144
-0.994665, 17, 97, 32, 160
-0.994669, 303, 313, 318, 375
-0.994687, 141, 65, 156, 128
-0.99469, 173, 241, 188, 304
-0.99471, 149, 81, 164, 144
-0.99471, 49, 113, 176, 144
-0.994722, 85, 1, 116, 256
-0.99473, 257, 341, 384, 372
-0.994731, 113, 201, 128, 264
-0.994745, 225, 65, 352, 96
-0.994749, 221, 129, 236, 192
-0.994753, 89, 57, 104, 120
-0.994753, 193, 237, 320, 268
-0.994754, 179, 225, 194, 288
-0.994755, 145, 321, 272, 352
-0.994758, 461, 81, 492, 208
-0.994767, 187, 313, 202, 375
-0.994777, 125, 233, 140, 296
-0.9948, 139, 41, 154, 104
-0.994811, 159, 33, 174, 96
-0.994829, 189, 241, 204, 304
-0.994832, 147, 209, 162, 272
-0.994834, 297, 225, 312, 288
-0.994835, 299, 25, 314, 88
-0.994839, 211, 209, 226, 272
-0.994841, 143, 17, 158, 80
-0.994858, 83, 1, 98, 64
-0.994858, 239, 137, 254, 200
-0.994866, 209, 113, 336, 144
-0.99487, 97, 25, 224, 56
-0.994876, 1, 1, 500, 64
-0.994887, 213, 121, 228, 184
-0.994888, 169, 73, 184, 136
-0.99491, 233, 129, 248, 192
-0.994911, 1, 49, 500, 112
-0.994911, 157, 1, 188, 256
-0.994925, 241, 9, 368, 40
-0.994938, 241, 225, 368, 256
-0.994943, 145, 141, 272, 172
-0.994944, 1, 25, 128, 56
-0.994945, 175, 33, 190, 96
-0.994959, 17, 121, 32, 184
-0.994975, 159, 65, 174, 128
-0.994975, 225, 1, 480, 64
-0.994979, 205, 113, 220, 176
-0.994982, 193, 257, 320, 288
-0.994984, 225, 301, 352, 332
-0.994988, 133, 41, 148, 104
-0.994992, 113, 193, 240, 224
-0.994996, 269, 89, 284, 152
-0.995005, 177, 221, 304, 252
-0.995011, 167, 209, 182, 272
-0.995019, 81, 269, 208, 300
-0.995059, 273, 329, 400, 360
-0.995094, 183, 257, 198, 320
-0.995097, 145, 1, 176, 256
-0.9951, 193, 209, 208, 272
-0.995107, 37, 81, 52, 144
-0.995125, 1, 193, 32, 320
-0.995127, 241, 277, 368, 308
-0.995161, 213, 17, 244, 144
-0.995191, 209, 89, 336, 120
-0.995199, 225, 101, 352, 132
-0.995234, 37, 33, 68, 288
-0.995241, 221, 177, 252, 304
-0.99532, 341, 241, 372, 368
-0.995331, 129, 345, 256, 375
-0.995333, 193, 177, 448, 240
-0.995441, 417, 241, 480, 368
-0.995485, 409, 129, 440, 256
-0.995523, 257, 233, 500, 296
-0.995525, 1, 205, 128, 236
-0.995563, 69, 97, 100, 352
-0.995574, 97, 289, 224, 320
-0.995574, 145, 97, 176, 352
-0.995615, 1, 257, 128, 320
-0.995643, 449, 97, 480, 224
-0.995684, 161, 29, 288, 60
-0.995688, 353, 1, 384, 128
-0.995697, 241, 49, 368, 80
-0.995704, 129, 333, 256, 364
-0.995707, 465, 1, 496, 128
-0.995713, 161, 153, 288, 184
-0.995715, 193, 197, 320, 228
-0.995742, 377, 113, 408, 240
-0.995761, 177, 277, 304, 308
-0.995788, 345, 97, 376, 224
-0.995796, 89, 129, 120, 375
-0.995803, 389, 65, 420, 192
-0.995846, 115, 173, 130, 204
-0.995873, 257, 209, 500, 272
-0.995889, 193, 97, 224, 352
-0.995908, 273, 313, 400, 344
-0.995929, 49, 253, 176, 284
-0.99593, 97, 301, 224, 332
-0.995943, 113, 101, 240, 132
-0.99597, 241, 33, 368, 64
-0.995972, 177, 209, 304, 240
-0.996048, 225, 161, 352, 192
-0.996058, 169, 1, 200, 256
-0.996065, 101, 97, 132, 352
-0.996076, 97, 313, 224, 344
-0.996077, 429, 145, 460, 272
-0.996078, 289, 281, 416, 312
-0.996094, 249, 129, 280, 375
-0.996096, 273, 69, 400, 100
-0.996104, 241, 261, 368, 292
-0.99616, 107, 161, 122, 192
-0.99616, 1, 109, 128, 140
-0.996166, 161, 17, 288, 48
-0.996175, 65, 181, 80, 212
-0.996192, 133, 1, 164, 256
-0.996211, 165, 97, 196, 352
-0.996252, 33, 129, 64, 375
-0.996281, 57, 97, 88, 352
-0.99631, 289, 293, 416, 324
-0.996327, 401, 65, 432, 192
-0.996356, 217, 129, 248, 375
-0.996366, 77, 201, 92, 232
-0.99637, 161, 185, 288, 216
-0.996384, 61, 241, 92, 368
-0.996391, 257, 189, 384, 220
-0.996391, 17, 65, 48, 320
-0.996412, 71, 185, 86, 216
-0.996416, 289, 1, 320, 256
-0.996426, 33, 1, 160, 32
-0.996439, 97, 1, 128, 256
-0.996448, 273, 125, 400, 156
-0.996481, 141, 193, 156, 224
-0.996486, 409, 193, 472, 320
-0.996503, 89, 193, 104, 224
-0.996509, 107, 185, 122, 216
-0.996517, 257, 213, 384, 244
-0.996531, 65, 169, 80, 200
-0.996531, 71, 173, 86, 204
-0.996538, 97, 165, 112, 196
-0.996559, 123, 181, 138, 212
-0.996569, 241, 21, 368, 52
-0.996572, 33, 241, 160, 272
-0.996575, 133, 189, 148, 220
-0.996581, 87, 141, 102, 172
-0.996592, 257, 289, 500, 352
-0.996604, 277, 1, 308, 256
-0.996604, 89, 209, 104, 240
-0.996606, 1, 121, 128, 152
-0.996607, 117, 1, 148, 256
-0.996641, 253, 1, 284, 256
-0.996642, 77, 189, 92, 220
-0.996671, 55, 173, 70, 204
-0.996674, 71, 197, 86, 228
-0.996679, 87, 153, 102, 184
-0.99669, 273, 109, 400, 140
-0.996705, 97, 201, 112, 232
-0.996706, 53, 33, 68, 64
-0.996712, 289, 1, 416, 32
-0.996714, 155, 189, 170, 220
-0.996726, 401, 1, 432, 128
-0.996729, 55, 157, 70, 188
-0.996732, 181, 97, 212, 352
-0.996736, 109, 173, 124, 204
-0.996747, 233, 129, 264, 375
-0.996773, 181, 1, 212, 256
-0.996779, 81, 337, 208, 368
-0.996792, 1, 1, 32, 256
-0.996792, 77, 173, 92, 204
-0.996798, 147, 197, 162, 228
-0.996803, 123, 161, 138, 192
-0.99681, 139, 177, 154, 208
-0.996823, 365, 49, 396, 176
-0.996825, 257, 245, 384, 276
-0.996826, 145, 181, 160, 212
-0.996831, 45, 153, 60, 184
-0.996831, 113, 13, 240, 44
-0.996834, 193, 1, 320, 32
-0.996843, 45, 165, 60, 196
-0.996845, 1, 257, 500, 320
-0.996856, 83, 189, 98, 220
-0.996861, 133, 97, 164, 352
-0.996874, 101, 153, 116, 184
-0.996875, 69, 85, 84, 116
-0.996885, 93, 149, 108, 180
-0.996888, 113, 157, 240, 188
-0.996899, 99, 177, 114, 208
-0.996914, 441, 17, 472, 144
-0.996919, 397, 129, 428, 256
-0.996919, 269, 97, 300, 352
-0.996938, 179, 205, 194, 236
-0.996941, 115, 153, 130, 184
-0.996943, 17, 53, 32, 84
-0.996944, 133, 169, 148, 200
-0.996947, 59, 185, 74, 216
-0.996949, 161, 193, 176, 224
-0.996952, 295, 81, 310, 112
-0.996959, 149, 81, 164, 112
-0.99696, 83, 177, 98, 208
-0.996983, 295, 265, 310, 296
-0.996983, 437, 97, 468, 224
-0.996995, 293, 97, 324, 352
-0.996997, 305, 65, 320, 96
-0.997003, 31, 133, 46, 164
-0.997015, 65, 197, 80, 228
-0.997019, 127, 193, 142, 224
-0.997025, 49, 229, 176, 260
-0.99703, 137, 253, 152, 284
-0.997032, 15, 97, 30, 128
-0.997032, 149, 209, 164, 240
-0.997032, 125, 213, 140, 244
-0.997034, 61, 21, 76, 52
-0.997039, 23, 57, 38, 88
-0.997063, 89, 53, 104, 84
-0.997068, 161, 205, 176, 236
-0.997086, 113, 97, 144, 352
-0.997089, 369, 241, 400, 368
-0.997091, 241, 1, 272, 256
-0.997095, 47, 177, 62, 208
-0.997096, 185, 209, 200, 240
-0.997102, 11, 157, 26, 188
-0.997107, 321, 321, 448, 352
-0.997113, 289, 37, 416, 68
-0.997118, 77, 129, 92, 160
-0.997121, 5, 49, 20, 80
-0.997131, 173, 201, 188, 232
-0.997131, 89, 181, 104, 212
-0.997139, 133, 209, 148, 240
-0.997139, 229, 125, 244, 156
-0.997142, 63, 77, 78, 108
-0.997144, 205, 129, 236, 375
-0.997144, 37, 161, 52, 192
-0.997147, 213, 33, 244, 288
-0.997156, 175, 249, 190, 280
-0.997177, 157, 85, 172, 116
-0.997186, 49, 289, 176, 320
-0.997187, 25, 101, 40, 132
-0.99719, 337, 1, 400, 256
-0.997193, 229, 321, 244, 352
-0.997199, 167, 197, 182, 228
-0.997206, 1, 145, 16, 176
-0.997208, 1, 217, 128, 248
-0.997232, 53, 185, 68, 216
-0.997246, 39, 141, 54, 172
-0.997248, 83, 205, 98, 236
-0.997249, 305, 33, 336, 288
-0.997256, 97, 189, 112, 220
-0.997256, 121, 241, 136, 272
-0.99726, 305, 141, 432, 172
-0.997266, 83, 49, 98, 80
-0.997271, 107, 113, 122, 144
-0.997283, 225, 173, 352, 204
-0.997291, 137, 21, 152, 52
-0.997293, 305, 269, 320, 300
-0.9973, 27, 73, 42, 104
-0.997302, 261, 293, 276, 324
-0.997308, 129, 169, 256, 200
-0.99731, 65, 325, 192, 356
-0.997312, 223, 333, 238, 364
-0.997323, 291, 285, 306, 316
-0.997329, 21, 149, 36, 180
-0.997336, 1, 13, 128, 44
-0.997337, 139, 85, 154, 116
-0.997341, 13, 65, 28, 96
-0.997347, 69, 37, 84, 68
-0.99735, 191, 209, 206, 240
-0.997351, 159, 97, 174, 128
-0.997353, 77, 153, 92, 184
-0.997361, 305, 57, 432, 88
-0.997367, 99, 69, 114, 100
-0.997375, 129, 253, 144, 284
-0.997382, 85, 165, 100, 196
-0.997389, 265, 1, 296, 256
-0.997389, 295, 33, 310, 64
-0.997393, 109, 145, 124, 176
-0.997396, 11, 49, 26, 80
-0.997415, 273, 201, 400, 232
-0.997418, 303, 93, 318, 124
-0.997418, 289, 253, 304, 284
-0.997419, 61, 49, 76, 80
-0.997426, 305, 245, 432, 276
-0.997428, 95, 85, 110, 116
-0.997433, 289, 269, 416, 300
-0.997435, 311, 301, 326, 332
-0.997442, 29, 149, 44, 180
-0.997445, 19, 77, 34, 108
-0.997446, 95, 57, 110, 88
-0.997447, 1, 281, 500, 344
-0.997453, 27, 89, 42, 120
-0.997453, 89, 81, 104, 112
-0.997454, 231, 137, 246, 168
-0.997458, 1, 305, 500, 368
-0.99746, 77, 93, 92, 124
-0.997461, 211, 217, 226, 248
-0.997462, 143, 25, 158, 56
-0.997465, 75, 53, 90, 84
-0.99748, 191, 257, 206, 288
-0.99748, 39, 173, 54, 204
-0.997482, 21, 165, 36, 196
-0.997483, 181, 245, 196, 276
-0.997486, 9, 93, 24, 124
-0.997488, 29, 161, 44, 192
-0.99749, 281, 85, 296, 116
-0.997492, 59, 197, 74, 228
-0.997493, 143, 213, 158, 244
-0.997494, 103, 141, 118, 172
-0.997503, 5, 157, 20, 188
-0.997504, 127, 233, 142, 264
-0.997506, 77, 41, 92, 72
-0.99751, 273, 153, 400, 184
-0.997515, 115, 237, 130, 268
-0.997517, 305, 81, 432, 112
-0.997562, 369, 117, 496, 148
-0.997576, 197, 1, 228, 256
-0.997603, 273, 177, 400, 208
-0.997628, 305, 341, 432, 372
-0.997637, 45, 129, 76, 375
-0.997638, 1, 317, 128, 348
-0.997663, 321, 309, 448, 340
-0.997671, 337, 289, 464, 320
-0.997696, 369, 169, 496, 200
-0.997716, 305, 229, 432, 260
-0.997864, 281, 129, 312, 375
-0.997928, 229, 33, 260, 288
-0.998125, 83, 129, 98, 256
-0.998131, 353, 1, 416, 128
-0.998172, 5, 129, 36, 375
-0.998192, 29, 97, 44, 224
-0.998243, 135, 145, 150, 272
-0.998264, 49, 89, 112, 104
-0.998294, 89, 187, 152, 202
-0.998307, 97, 179, 160, 194
-0.998309, 97, 129, 112, 256
-0.998317, 65, 177, 128, 192
-0.998322, 329, 145, 392, 272
-0.998323, 121, 197, 184, 212
-0.998324, 65, 135, 128, 150
-0.998325, 97, 195, 160, 210
-0.998329, 73, 197, 136, 212
-0.998333, 33, 179, 96, 194
-0.998336, 65, 141, 128, 156
-0.998343, 49, 191, 112, 206
-0.998349, 41, 185, 104, 200
-0.998352, 81, 167, 144, 182
-0.998352, 73, 151, 136, 166
-0.998356, 121, 191, 184, 206
-0.998359, 103, 113, 118, 240
-0.998361, 145, 215, 208, 230
-0.998369, 17, 165, 80, 180
-0.998373, 137, 203, 200, 218
-0.998377, 113, 219, 176, 234
-0.998378, 33, 53, 96, 68
-0.998382, 25, 133, 88, 148
-0.998383, 49, 79, 112, 94
-0.998386, 97, 205, 160, 220
-0.998388, 49, 197, 112, 212
-0.998388, 65, 183, 128, 198
-0.998388, 111, 145, 126, 272
-0.998393, 97, 173, 160, 188
-0.998397, 49, 151, 112, 166
-0.998401, 57, 129, 120, 144
-0.998403, 73, 157, 136, 172
-0.998403, 113, 185, 176, 200
-0.998404, 41, 171, 104, 186
-0.998404, 145, 209, 208, 224
-0.998405, 265, 89, 328, 104
-0.998407, 57, 203, 120, 218
-0.998408, 17, 89, 80, 104
-0.998409, 113, 213, 176, 228
-0.998418, 49, 157, 112, 172
-0.998419, 89, 93, 152, 108
-0.998421, 1, 143, 64, 158
-0.998422, 73, 209, 136, 224
-0.998423, 89, 129, 104, 256
-0.998424, 41, 145, 104, 160
-0.998429, 9, 173, 72, 188
-0.998429, 41, 45, 104, 60
-0.99843, 9, 53, 72, 68
-0.998432, 249, 83, 312, 98
-0.998432, 33, 63, 96, 78
-0.998438, 9, 155, 72, 170
-0.998439, 25, 139, 88, 154
-0.998439, 81, 217, 144, 232
-0.99844, 153, 53, 216, 68
-0.99844, 25, 83, 88, 98
-0.99844, 1, 73, 64, 88
-0.998441, 141, 161, 156, 288
-0.998445, 153, 263, 216, 278
-0.998447, 49, 95, 112, 110
-0.998447, 161, 119, 224, 134
-0.998452, 329, 65, 360, 320
-0.998454, 305, 129, 336, 375
-0.998455, 293, 1, 308, 128
-0.998456, 113, 89, 176, 104
-0.998456, 57, 165, 120, 180
-0.998458, 225, 83, 288, 98
-0.998459, 177, 335, 240, 350
-0.99846, 273, 81, 336, 96
-0.998462, 153, 221, 216, 236
-0.998466, 129, 33, 192, 48
-0.998467, 145, 47, 208, 62
-0.998467, 153, 269, 216, 284
-0.998469, 1, 61, 64, 76
-0.998469, 73, 85, 136, 100
-0.998469, 129, 265, 192, 280
-0.998469, 153, 277, 216, 292
-0.99847, 57, 27, 120, 42
-0.998471, 137, 39, 200, 54
-0.998474, 77, 113, 92, 240
-0.998477, 265, 285, 328, 300
-0.998481, 1, 149, 64, 164
-0.998485, 233, 105, 296, 120
-0.998487, 153, 283, 216, 298
-0.998488, 57, 61, 120, 76
-0.998488, 69, 97, 84, 224
-0.998489, 97, 157, 160, 172
-0.99849, 177, 217, 240, 232
-0.99849, 137, 85, 200, 100
-0.99849, 129, 257, 192, 272
-0.998491, 289, 333, 352, 348
-0.998492, 249, 77, 312, 92
-0.998494, 169, 249, 232, 264
-0.998494, 25, 195, 88, 210
-0.998494, 177, 329, 240, 344
-0.998495, 89, 119, 152, 134
-0.998495, 121, 71, 184, 86
-0.998495, 257, 301, 320, 316
-0.998496, 129, 25, 192, 40
-0.998496, 265, 343, 328, 358
-0.998496, 153, 307, 216, 322
-0.998497, 161, 319, 224, 334
-0.998498, 1, 47, 64, 62
-0.998501, 193, 349, 256, 364
-0.998503, 17, 97, 80, 112
-0.998503, 233, 153, 296, 168
-0.998503, 33, 69, 96, 84
-0.998504, 265, 329, 328, 344
-0.998504, 97, 139, 160, 154
-0.998507, 57, 101, 120, 116
-0.998508, 25, 77, 88, 92
-0.998508, 25, 105, 88, 120
-0.998509, 33, 205, 96, 220
-0.998509, 145, 95, 208, 110
-0.99851, 89, 145, 152, 160
-0.998511, 177, 343, 240, 358
-0.998514, 1, 75, 32, 90
-0.998514, 129, 249, 192, 264
-0.998514, 297, 313, 328, 328
-0.998515, 161, 255, 224, 270
-0.998516, 121, 179, 184, 194
-0.998516, 73, 55, 104, 70
-0.998516, 297, 303, 328, 318
-0.998517, 57, 55, 120, 70
-0.998519, 281, 265, 312, 280
-0.998519, 101, 207, 132, 222
-0.998519, 289, 339, 320, 354
-0.998519, 257, 227, 320, 242
-0.99852, 97, 151, 160, 166
-0.998522, 57, 81, 88, 96
-0.998522, 1, 67, 64, 82
-0.998522, 137, 197, 168, 212
-0.998523, 265, 95, 328, 110
-0.998523, 269, 89, 300, 104
-0.998524, 89, 133, 120, 148
-0.998524, 181, 261, 212, 276
-0.998524, 265, 103, 328, 118
-0.998525, 121, 113, 184, 128
-0.998525, 201, 253, 232, 268
-0.998526, 177, 267, 240, 282
-0.998526, 181, 247, 212, 262
-0.998526, 225, 99, 288, 114
-0.998527, 9, 179, 72, 194
-0.998527, 177, 327, 208, 342
-0.998527, 153, 297, 216, 312
-0.998527, 17, 189, 80, 204
-0.998527, 257, 233, 320, 248
-0.998528, 273, 1, 336, 16
-0.998529, 81, 129, 144, 144
-0.998529, 49, 211, 112, 226
-0.998529, 257, 349, 320, 364
-0.99853, 105, 165, 168, 180
-0.998531, 281, 75, 344, 90
-0.998531, 201, 231, 264, 246
-0.998532, 289, 339, 352, 354
-0.998532, 265, 273, 328, 288
-0.998534, 77, 181, 108, 196
-0.998535, 201, 247, 232, 262
-0.998536, 49, 39, 80, 54
-0.998537, 149, 191, 180, 206
-0.998537, 173, 209, 188, 336
-0.998538, 233, 103, 264, 118
-0.998538, 285, 285, 316, 300
-0.998538, 65, 17, 80, 144
-0.998538, 269, 293, 300, 308
-0.998539, 125, 253, 156, 268
-0.998539, 169, 33, 184, 160
-0.99854, 269, 225, 300, 240
-0.998541, 97, 87, 128, 102
-0.998541, 37, 151, 68, 166
-0.998542, 129, 207, 160, 222
-0.998543, 165, 299, 196, 314
-0.998544, 65, 211, 96, 226
-0.998544, 81, 65, 112, 80
-0.998545, 105, 221, 136, 236
-0.998545, 21, 77, 52, 92
-0.998546, 145, 95, 176, 110
-0.998548, 69, 101, 100, 116
-0.998548, 113, 193, 144, 208
-0.998549, 205, 331, 236, 346
-0.998549, 217, 325, 248, 340
-0.998549, 125, 189, 156, 204
-0.998552, 285, 87, 316, 102
-0.998553, 105, 201, 136, 216
-0.998554, 77, 89, 108, 104
-0.998555, 149, 209, 180, 224
-0.998555, 41, 75, 72, 90
-0.998556, 197, 217, 228, 232
-0.998556, 297, 295, 328, 310
-0.998556, 191, 225, 206, 352
-0.998557, 105, 237, 136, 252
-0.998557, 181, 255, 212, 270
-0.998558, 61, 153, 92, 168
-0.99856, 169, 203, 200, 218
-0.998563, 17, 163, 48, 178
-0.998564, 117, 169, 148, 184
-0.998567, 285, 237, 316, 252
-0.99857, 121, 161, 136, 288
-0.99857, 93, 141, 124, 156
-0.99857, 133, 87, 164, 102
-0.998571, 57, 173, 88, 188
-0.998571, 93, 179, 124, 194
-0.998571, 61, 39, 92, 54
-0.998572, 65, 47, 96, 62
-0.998573, 81, 219, 112, 234
-0.998573, 293, 79, 324, 94
-0.998574, 165, 265, 196, 280
-0.998574, 121, 201, 152, 216
-0.998575, 111, 97, 126, 224
-0.998576, 89, 207, 120, 222
-0.998577, 277, 257, 308, 272
-0.998577, 137, 213, 168, 228
-0.99858, 73, 199, 104, 214
-0.99858, 137, 187, 168, 202
-0.99858, 45, 163, 76, 178
-0.998581, 13, 85, 44, 100
-0.998583, 73, 141, 104, 156
-0.998583, 5, 147, 36, 162
-0.998583, 21, 157, 52, 172
-0.998584, 161, 33, 176, 160
-0.998585, 45, 51, 76, 66
-0.998588, 103, 161, 118, 288
-0.998589, 77, 95, 108, 110
-0.99859, 53, 99, 84, 114
-0.998591, 177, 211, 208, 226
-0.998592, 169, 259, 200, 274
-0.998593, 21, 59, 52, 74
-0.998593, 101, 159, 132, 174
-0.998594, 69, 187, 100, 202
-0.998596, 5, 99, 36, 114
-0.998597, 85, 195, 116, 210
-0.998599, 157, 215, 188, 230
-0.9986, 121, 215, 152, 230
-0.9986, 129, 177, 144, 304
-0.998603, 97, 147, 128, 162
-0.998604, 49, 45, 80, 60
-0.998604, 117, 243, 148, 258
-0.998604, 9, 63, 40, 78
-0.998605, 265, 83, 296, 98
-0.998606, 63, 97, 78, 224
-0.99861, 57, 87, 88, 102
-0.99861, 97, 195, 128, 210
-0.998613, 45, 185, 76, 200
-0.998614, 97, 65, 112, 192
-0.998615, 145, 85, 176, 100
-0.998617, 125, 177, 156, 192
-0.998618, 303, 49, 318, 176
-0.998618, 65, 95, 96, 110
-0.998618, 25, 169, 56, 184
-0.998619, 97, 167, 128, 182
-0.998621, 5, 161, 36, 176
-0.998624, 1, 57, 32, 72
-0.998624, 1, 69, 32, 84
-0.998626, 229, 81, 244, 208
-0.998629, 145, 203, 176, 218
-0.998632, 307, 1, 322, 128
-0.998633, 81, 167, 112, 182
-0.998634, 41, 157, 72, 172
-0.998635, 89, 173, 120, 188
-0.998636, 69, 175, 100, 190
-0.998636, 29, 163, 60, 178
-0.998641, 167, 241, 182, 368
-0.998643, 35, 81, 50, 208
-0.998643, 97, 153, 128, 168
-0.998644, 219, 113, 234, 240
-0.998647, 37, 169, 68, 184
-0.998649, 39, 129, 54, 256
-0.99865, 77, 147, 108, 162
-0.998652, 85, 201, 116, 216
-0.998655, 25, 147, 56, 162
-0.998655, 77, 211, 108, 226
-0.998656, 281, 81, 312, 96
-0.998658, 57, 187, 88, 202
-0.998667, 21, 71, 52, 86
-0.99867, 175, 17, 190, 144
-0.998671, 183, 225, 198, 352
-0.998672, 21, 65, 52, 80
-0.998675, 113, 185, 144, 200
-0.998676, 59, 1, 74, 128
-0.998676, 125, 195, 156, 210
-0.998677, 61, 199, 92, 214
-0.998678, 121, 113, 136, 240
-0.998686, 53, 193, 84, 208
-0.998687, 93, 189, 124, 204
-0.998688, 65, 205, 96, 220
-0.998692, 49, 97, 64, 224
-0.998692, 57, 181, 88, 196
-0.998696, 51, 145, 66, 272
-0.998696, 21, 141, 52, 156
-0.998697, 105, 65, 120, 192
-0.998702, 81, 157, 112, 172
-0.998707, 45, 179, 76, 194
-0.998714, 77, 49, 92, 176
-0.998721, 133, 17, 148, 144
-0.998723, 53, 1, 68, 128
-0.998725, 73, 193, 104, 208
-0.998726, 301, 1, 316, 128
-0.998726, 127, 129, 142, 256
-0.998729, 171, 161, 186, 288
-0.998733, 71, 145, 86, 272
-0.998734, 65, 131, 96, 146
-0.998735, 101, 173, 132, 188
-0.998743, 223, 65, 238, 192
-0.99875, 149, 1, 164, 128
-0.998767, 209, 113, 224, 240
-0.998769, 297, 49, 312, 176
-0.998771, 147, 145, 162, 272
-0.998773, 59, 145, 74, 272
-0.998774, 271, 65, 286, 192
-0.998774, 263, 145, 278, 272
-0.998775, 105, 179, 136, 194
-0.998778, 143, 1, 158, 128
-0.998783, 117, 65, 132, 192
-0.998788, 165, 177, 180, 304
-0.998792, 127, 17, 142, 144
-0.998794, 139, 97, 154, 224
-0.998795, 89, 81, 104, 208
-0.998797, 263, 97, 278, 224
-0.998799, 129, 81, 144, 208
-0.998802, 235, 65, 250, 192
-0.998804, 217, 65, 232, 192
-0.998807, 155, 1, 170, 128
-0.998808, 179, 177, 194, 304
-0.998812, 141, 209, 156, 336
-0.998813, 181, 17, 196, 144
-0.998823, 77, 161, 92, 288
-0.998829, 57, 65, 72, 192
-0.998831, 23, 49, 38, 176
-0.998839, 291, 49, 306, 176
-0.998843, 285, 65, 300, 192
-0.998849, 135, 193, 150, 320
-0.99885, 187, 33, 202, 160
-0.99885, 87, 1, 102, 128
-0.998859, 271, 145, 286, 272
-0.998864, 29, 49, 44, 176
-0.998865, 45, 145, 60, 272
-0.998868, 287, 1, 302, 128
-0.998869, 253, 65, 268, 192
-0.998876, 97, 177, 112, 304
-0.99888, 65, 145, 80, 272
-0.998898, 247, 113, 262, 240
-0.9989, 117, 17, 132, 144
-0.998901, 317, 1, 348, 256
-0.998909, 279, 97, 294, 224
-0.998913, 309, 241, 324, 368
-0.998919, 41, 49, 56, 176
-0.99892, 197, 241, 212, 368
-0.998924, 83, 65, 98, 192
-0.998924, 105, 17, 120, 144
-0.998925, 281, 1, 296, 128
-0.998926, 99, 1, 114, 128
-0.998935, 113, 193, 128, 320
-0.99894, 157, 81, 172, 208
-0.998941, 71, 17, 86, 144
-0.998942, 157, 193, 172, 320
-0.998943, 313, 1, 328, 128
-0.998945, 33, 145, 48, 272
-0.998947, 195, 97, 210, 224
-0.998949, 79, 1, 94, 128
-0.998952, 207, 65, 222, 192
-0.998954, 83, 177, 98, 304
-0.998963, 257, 145, 272, 272
-0.998967, 3, 33, 18, 160
-0.998967, 191, 177, 206, 304
-0.998968, 301, 241, 316, 368
-0.998986, 111, 33, 126, 160
-0.998999, 377, 97, 408, 352
-0.999011, 147, 193, 162, 320
-0.999014, 17, 49, 32, 176
-0.999016, 277, 145, 292, 272
-0.999035, 23, 97, 38, 224
-0.999038, 159, 129, 174, 256
-0.99906, 389, 1, 420, 256
-0.999061, 123, 65, 138, 192
-0.999063, 89, 177, 104, 304
-0.99907, 311, 49, 326, 176
-0.999084, 243, 65, 258, 192
-0.999084, 193, 33, 208, 160
-0.999094, 11, 49, 26, 176
-0.999095, 201, 65, 216, 192
-0.999097, 165, 97, 180, 224
-0.999102, 225, 129, 240, 256
-0.999104, 47, 17, 62, 144
-0.99911, 151, 97, 166, 224
-0.999111, 213, 177, 228, 304
-0.999112, 153, 145, 168, 272
-0.999117, 233, 129, 248, 256
-0.999117, 27, 145, 42, 272
-0.999126, 275, 1, 290, 128
-0.999129, 185, 177, 200, 304
-0.999153, 293, 97, 308, 224
-0.999155, 201, 113, 216, 240
-0.999158, 239, 113, 254, 240
-0.999217, 449, 33, 480, 288
-0.999231, 469, 129, 500, 375
-0.999242, 461, 1, 492, 256
-0.999351, 397, 97, 428, 352
-0.999395, 421, 33, 452, 288
-0.99941, 441, 129, 472, 375
-0.999452, 457, 129, 488, 375
-0.999456, 429, 129, 460, 375
-0.999468, 377, 1, 408, 256
-0.999503, 437, 1, 468, 256
-0.999586, 349, 1, 380, 256
-0.999603, 401, 1, 432, 256
-0.999618, 357, 97, 388, 352
-0.999672, 361, 1, 392, 256
-0.999697, 409, 97, 440, 352
-0.9997, 117, 195, 132, 210
-0.9997, 303, 277, 318, 292
-0.9997, 295, 75, 310, 90
-0.999701, 97, 93, 112, 108
-0.999702, 291, 285, 306, 300
-0.999702, 61, 99, 76, 114
-0.999703, 305, 93, 320, 108
-0.999703, 81, 171, 96, 186
-0.999704, 143, 203, 158, 218
-0.999705, 281, 81, 296, 96
-0.999706, 235, 333, 250, 348
-0.999707, 25, 77, 40, 92
-0.999708, 57, 19, 72, 34
-0.999708, 67, 37, 82, 52
-0.999709, 47, 153, 62, 168
-0.99971, 115, 159, 130, 174
-0.99971, 13, 67, 28, 82
-0.99971, 31, 153, 46, 168
-0.999711, 159, 203, 174, 218
-0.999712, 119, 175, 134, 190
-0.999712, 85, 53, 100, 68
-0.999712, 131, 185, 146, 200
-0.999713, 69, 173, 84, 188
-0.999715, 125, 185, 140, 200
-0.999715, 271, 87, 286, 102
-0.999715, 303, 65, 318, 80
-0.999715, 87, 173, 102, 188
-0.999716, 285, 255, 300, 270
-0.999716, 101, 181, 116, 196
-0.999716, 27, 105, 42, 120
-0.999716, 75, 45, 90, 60
-0.999717, 47, 191, 62, 206
-0.999717, 21, 71, 36, 86
-0.999718, 223, 333, 238, 348
-0.999718, 51, 43, 66, 58
-0.999719, 173, 255, 188, 270
-0.999719, 33, 65, 48, 80
-0.999721, 149, 95, 164, 110
-0.999722, 107, 235, 122, 250
-0.999723, 21, 107, 36, 122
-0.999724, 229, 335, 244, 350
-0.999724, 3, 57, 18, 72
-0.999725, 123, 217, 138, 232
-0.999726, 55, 197, 70, 212
-0.999726, 17, 163, 32, 178
-0.999726, 133, 191, 148, 206
-0.999728, 157, 93, 172, 108
-0.999728, 139, 191, 154, 206
-0.999729, 97, 153, 112, 168
-0.99973, 73, 201, 88, 216
-0.99973, 31, 167, 46, 182
-0.999731, 111, 167, 126, 182
-0.999732, 9, 157, 24, 172
-0.999732, 287, 81, 302, 96
-0.999732, 71, 53, 86, 68
-0.999733, 63, 169, 78, 184
-0.999733, 99, 87, 114, 102
-0.999734, 93, 205, 108, 220
-0.999735, 145, 197, 160, 212
-0.999735, 117, 183, 132, 198
-0.999735, 41, 163, 56, 178
-0.999735, 39, 145, 54, 160
-0.999737, 91, 161, 106, 176
-0.999738, 99, 175, 114, 190
-0.999742, 137, 257, 152, 272
-0.999742, 29, 147, 44, 162
-0.999742, 23, 63, 38, 78
-0.999743, 91, 147, 106, 162
-0.999745, 97, 63, 112, 78
-0.999745, 261, 291, 276, 306
-0.999747, 79, 95, 94, 110
-0.999747, 125, 191, 140, 206
-0.999747, 113, 239, 128, 254
-0.999748, 97, 197, 112, 212
-0.999748, 105, 127, 120, 142
-0.999748, 121, 243, 136, 258
-0.999749, 123, 197, 138, 212
-0.999749, 83, 149, 98, 164
-0.99975, 53, 37, 68, 52
-0.999752, 151, 85, 166, 100
-0.999752, 13, 53, 28, 68
-0.999754, 67, 101, 82, 116
-0.999754, 125, 179, 140, 194
-0.999754, 107, 193, 122, 208
-0.999757, 91, 211, 106, 226
-0.99976, 73, 185, 88, 200
-0.999765, 59, 39, 74, 54
-0.999766, 31, 137, 46, 152
-0.999767, 67, 181, 82, 196
-0.999767, 101, 159, 116, 174
-0.999767, 13, 61, 28, 76
-0.999768, 65, 47, 80, 62
-0.999768, 89, 217, 104, 232
-0.99977, 83, 217, 98, 232
-0.999771, 75, 213, 90, 228
-0.999774, 87, 195, 102, 210
-0.999774, 19, 99, 34, 114
-0.999776, 229, 325, 244, 340
-0.999776, 79, 191, 94, 206
-0.99978, 105, 165, 120, 180
-0.99978, 95, 167, 110, 182
-0.999782, 21, 57, 36, 72
-0.999784, 37, 169, 52, 184
-0.999784, 25, 139, 40, 154
-0.999785, 61, 79, 76, 94
-0.999787, 87, 155, 102, 170
-0.999789, 45, 173, 60, 188
-0.999793, 71, 207, 86, 222
-0.999799, 47, 167, 62, 182
-0.999799, 53, 191, 68, 206
-0.999802, 61, 199, 76, 214
-0.999802, 133, 197, 148, 212
-0.999803, 341, 97, 372, 352
-0.999804, 73, 99, 88, 114
-0.999805, 41, 179, 56, 194
-0.999805, 111, 179, 126, 194
-0.99981, 159, 87, 174, 102
-0.999816, 53, 157, 68, 172
-0.999817, 99, 203, 114, 218
-0.999818, 59, 177, 74, 192
-0.999824, 295, 81, 310, 96
-0.999824, 63, 189, 78, 204
-0.999825, 113, 173, 128, 188
-0.99983, 317, 129, 348, 375
-0.999833, 67, 201, 82, 216
-0.999839, 79, 205, 94, 220
-0.99984, 105, 173, 120, 188
-0.999846, 83, 211, 98, 226
-0.999852, 49, 183, 64, 198
-0.999862, 71, 195, 86, 210
-0.999896, 59, 183, 74, 198
-0.99991, 51, 173, 66, 188
