1962
-0.220371, 1, 1, 500, 375
-0.222808, 1, 1, 500, 256
-0.357074, 1, 97, 500, 352
-0.507511, 65, 1, 320, 375
-0.511199, 225, 1, 480, 375
-0.548657, 129, 1, 384, 256
-0.561323, 257, 1, 500, 256
-0.604686, 33, 65, 288, 320
-0.71697, 225, 97, 480, 352
-0.781807, 129, 97, 384, 352
-0.845201, 49, 65, 176, 320
-0.84911, 49, 1, 176, 375
-0.852333, 1, 49, 500, 176
-0.855052, 337, 1, 464, 256
-0.863813, 321, 1, 448, 375
-0.864337, 129, 1, 256, 256
-0.867085, 1, 129, 128, 375
-0.871158, 1, 1, 128, 375
-0.872387, 193, 1, 320, 256
-0.876428, 273, 1, 400, 256
-0.876623, 97, 1, 224, 375
-0.878214, 97, 97, 224, 352
-0.880233, 1, 97, 500, 224
-0.880779, 1, 161, 500, 288
-0.883963, 369, 1, 496, 375
-0.890367, 353, 97, 480, 352
-0.890756, 1, 33, 128, 288
-0.890841, 145, 1, 272, 375
-0.891635, 273, 1, 400, 375
-0.900484, 1, 1, 500, 128
-0.900842, 225, 1, 352, 375
-0.905385, 1, 209, 500, 336
-0.908951, 305, 97, 432, 352
-0.914095, 257, 33, 500, 160
-0.915074, 241, 97, 368, 352
-0.917403, 145, 97, 272, 352
-0.918542, 65, 17, 320, 144
-0.919268, 65, 161, 320, 288
-0.922782, 49, 1, 176, 128
-0.923746, 33, 65, 288, 192
-0.925245, 161, 17, 416, 144
-0.928717, 257, 129, 500, 256
-0.93095, 193, 97, 320, 352
-0.933856, 1, 209, 256, 336
-0.934815, 65, 1, 128, 128
-0.937615, 73, 161, 136, 288
-0.937664, 65, 65, 192, 192
-0.938655, 129, 65, 384, 192
-0.938946, 97, 1, 160, 128
-0.938991, 17, 161, 144, 288
-0.940381, 65, 113, 320, 240
-0.943394, 129, 17, 256, 144
-0.944284, 97, 177, 224, 304
-0.944949, 153, 1, 216, 128
-0.944979, 105, 177, 168, 304
-0.945655, 257, 177, 500, 304
-0.945684, 1, 177, 64, 304
-0.946073, 177, 1, 304, 128
-0.94754, 257, 81, 500, 208
-0.947564, 105, 65, 168, 192
-0.948065, 129, 1, 192, 128
-0.948175, 273, 17, 400, 144
-0.948633, 1, 1, 128, 128
-0.949063, 305, 33, 368, 96
-0.949572, 161, 193, 416, 320
-0.949601, 337, 33, 464, 160
-0.949613, 265, 25, 328, 88
-0.949616, 217, 25, 280, 88
-0.949824, 81, 209, 144, 336
-0.950333, 153, 49, 216, 176
-0.950687, 17, 225, 144, 352
-0.951665, 33, 161, 96, 288
-0.951709, 177, 1, 240, 128
-0.95273, 329, 33, 392, 96
-0.952819, 9, 241, 72, 368
-0.952827, 17, 113, 144, 240
-0.953184, 193, 25, 256, 88
-0.953528, 209, 1, 272, 128
-0.953946, 433, 33, 496, 160
-0.954443, 209, 49, 336, 176
-0.95548, 129, 129, 256, 256
-0.955546, 241, 25, 304, 88
-0.955871, 57, 225, 120, 352
-0.956121, 369, 33, 432, 96
-0.956822, 129, 49, 192, 176
-0.957263, 401, 33, 464, 160
-0.957324, 393, 81, 456, 208
-0.957515, 273, 17, 336, 144
-0.95783, 225, 1, 352, 128
-0.958173, 337, 17, 400, 144
-0.958182, 377, 33, 440, 160
-0.958424, 113, 185, 176, 248
-0.958856, 33, 17, 96, 144
-0.959018, 73, 17, 136, 80
-0.959083, 409, 161, 472, 288
-0.959085, 81, 113, 208, 240
-0.959143, 241, 1, 304, 128
-0.959386, 57, 65, 120, 192
-0.959927, 313, 17, 376, 144
-0.960018, 33, 225, 96, 352
-0.960128, 169, 17, 232, 80
-0.960763, 337, 81, 464, 208
-0.960784, 129, 17, 192, 80
-0.961581, 353, 177, 480, 304
-0.961687, 209, 161, 336, 288
-0.961809, 129, 65, 256, 192
-0.9619, 353, 129, 480, 256
-0.961938, 177, 49, 240, 176
-0.96222, 161, 145, 416, 272
-0.962719, 153, 41, 216, 104
-0.963087, 105, 17, 168, 80
-0.963653, 137, 193, 200, 320
-0.963845, 105, 33, 168, 288
-0.963919, 41, 113, 104, 240
-0.964358, 41, 241, 104, 304
-0.964432, 225, 185, 288, 248
-0.965133, 409, 193, 472, 256
-0.965411, 153, 129, 216, 256
-0.965472, 121, 129, 184, 256
-0.965512, 201, 49, 264, 176
-0.965939, 225, 161, 288, 288
-0.966107, 417, 41, 480, 104
-0.966453, 265, 49, 328, 112
-0.9665, 129, 41, 192, 104
-0.967734, 17, 65, 144, 192
-0.967746, 305, 57, 368, 120
-0.967955, 257, 193, 384, 320
-0.967992, 65, 113, 128, 240
-0.968036, 1, 257, 64, 320
-0.968216, 233, 49, 296, 112
-0.968346, 97, 41, 160, 104
-0.968392, 209, 25, 336, 88
-0.968695, 65, 161, 128, 224
-0.968702, 313, 33, 344, 96
-0.968707, 393, 41, 456, 104
-0.96897, 305, 161, 432, 288
-0.969003, 49, 17, 112, 80
-0.969345, 121, 73, 184, 136
-0.969386, 257, 145, 384, 272
-0.969461, 129, 241, 384, 368
-0.969477, 245, 25, 276, 88
-0.969506, 221, 25, 252, 88
-0.969531, 305, 33, 432, 96
-0.969752, 97, 65, 160, 128
-0.969811, 65, 129, 128, 375
-0.970138, 257, 33, 384, 96
-0.970451, 201, 49, 264, 112
-0.97102, 73, 65, 136, 128
-0.971022, 433, 145, 496, 272
-0.9711, 233, 25, 264, 88
-0.971205, 329, 33, 360, 96
-0.971224, 345, 57, 408, 120
-0.971264, 393, 1, 456, 256
-0.971702, 1, 177, 64, 240
-0.971777, 81, 225, 144, 288
-0.971898, 161, 177, 288, 304
-0.971938, 65, 225, 192, 352
-0.971974, 341, 33, 372, 96
-0.972232, 385, 193, 448, 320
-0.972302, 225, 49, 288, 176
-0.97232, 209, 25, 240, 88
-0.972354, 81, 65, 144, 192
-0.972422, 101, 161, 132, 288
-0.972484, 161, 25, 288, 88
-0.972617, 97, 129, 160, 256
-0.97262, 249, 49, 312, 176
-0.97289, 73, 41, 136, 104
-0.972893, 17, 81, 80, 208
-0.973017, 257, 25, 288, 88
-0.973045, 293, 25, 324, 88
-0.973057, 49, 73, 176, 136
-0.973298, 137, 177, 200, 240
-0.973344, 393, 97, 456, 160
-0.973403, 297, 65, 360, 192
-0.973419, 101, 1, 132, 128
-0.973426, 121, 209, 184, 272
-0.973429, 265, 129, 328, 256
-0.973435, 433, 33, 496, 288
-0.973732, 273, 65, 400, 192
-0.974068, 153, 73, 216, 136
-0.974111, 73, 33, 136, 288
-0.974192, 113, 17, 240, 80
-0.974381, 129, 1, 160, 128
-0.97447, 161, 193, 224, 320
-0.974814, 305, 209, 432, 336
-0.974844, 49, 17, 176, 80
-0.974909, 393, 121, 456, 184
-0.974966, 145, 1, 176, 128
-0.975001, 297, 209, 360, 336
-0.975008, 433, 81, 496, 208
-0.975053, 357, 33, 388, 96
-0.975301, 89, 169, 152, 232
-0.975325, 89, 1, 120, 128
-0.975329, 265, 185, 328, 248
-0.975344, 141, 49, 172, 176
-0.975386, 265, 1, 328, 256
-0.975405, 297, 1, 360, 256
-0.975449, 161, 1, 224, 256
-0.9755, 425, 217, 488, 280
-0.97558, 305, 161, 368, 288
-0.975754, 281, 25, 312, 88
-0.975794, 89, 145, 120, 272
-0.975912, 113, 41, 240, 104
-0.975937, 425, 209, 488, 336
-0.976017, 269, 25, 300, 88
-0.976271, 81, 17, 112, 80
-0.9763, 209, 49, 336, 112
-0.976343, 57, 137, 120, 200
-0.97635, 369, 1, 432, 256
-0.976437, 353, 41, 480, 104
-0.976707, 265, 177, 328, 304
-0.976708, 117, 1, 148, 128
-0.976775, 161, 225, 288, 352
-0.976862, 177, 113, 304, 240
-0.976862, 197, 25, 228, 88
-0.976879, 157, 1, 188, 128
-0.976943, 233, 1, 296, 256
-0.977025, 401, 97, 464, 352
-0.977032, 17, 169, 144, 232
-0.977067, 377, 217, 440, 280
-0.977109, 77, 1, 108, 128
-0.977151, 177, 17, 208, 80
-0.97731, 197, 1, 228, 128
-0.977311, 1, 281, 64, 344
-0.977339, 321, 209, 384, 336
-0.977366, 97, 201, 224, 264
-0.977567, 321, 1, 384, 256
-0.977596, 389, 33, 420, 96
-0.977675, 393, 65, 456, 128
-0.977787, 273, 65, 336, 192
-0.977811, 193, 1, 256, 64
-0.977836, 177, 1, 208, 128
-0.977871, 145, 201, 208, 264
-0.977971, 9, 129, 72, 256
-0.978118, 393, 145, 456, 208
-0.978187, 165, 17, 196, 80
-0.978196, 65, 177, 192, 240
-0.978271, 369, 33, 400, 96
-0.978346, 369, 57, 432, 120
-0.978396, 57, 97, 120, 160
-0.978411, 185, 1, 248, 256
-0.978451, 1, 225, 64, 288
-0.978484, 33, 65, 96, 320
-0.97853, 161, 49, 192, 176
-0.978597, 129, 17, 160, 80
-0.978618, 429, 33, 460, 160
-0.97863, 117, 185, 148, 248
-0.978647, 1, 129, 64, 375
-0.978663, 177, 49, 240, 112
-0.978704, 117, 17, 148, 80
-0.978762, 209, 1, 272, 256
-0.978789, 81, 265, 144, 328
-0.978872, 249, 161, 312, 224
-0.978916, 161, 177, 288, 240
-0.979003, 305, 225, 368, 288
-0.979046, 1, 25, 128, 88
-0.979067, 49, 65, 112, 128
-0.979097, 209, 1, 240, 128
-0.979208, 93, 17, 124, 80
-0.979275, 377, 129, 440, 256
-0.979364, 201, 177, 264, 240
-0.979415, 425, 81, 456, 208
-0.979422, 305, 9, 368, 72
-0.979466, 129, 65, 192, 320
-0.979484, 149, 17, 180, 80
-0.979522, 185, 177, 248, 304
-0.979524, 33, 145, 96, 208
-0.979526, 225, 241, 480, 368
-0.979568, 425, 169, 488, 232
-0.979621, 401, 217, 464, 280
-0.979687, 65, 41, 192, 104
-0.9797, 217, 1, 280, 64
-0.979717, 1, 41, 64, 104
-0.979748, 1, 249, 32, 312
-0.979824, 353, 217, 416, 280
-0.979937, 297, 49, 328, 112
-0.97994, 9, 161, 40, 288
-0.979973, 221, 1, 252, 128
-0.979997, 113, 1, 176, 375
-0.98001, 25, 1, 88, 64
-0.980095, 77, 233, 108, 296
-0.980171, 369, 225, 496, 352
-0.980246, 81, 137, 208, 200
-0.980295, 361, 193, 424, 256
-0.980327, 141, 185, 172, 248
-0.9804, 113, 161, 144, 288
-0.980451, 433, 41, 464, 104
-0.980453, 453, 41, 484, 104
-0.980517, 65, 1, 96, 128
-0.980519, 225, 177, 352, 240
-0.980538, 121, 153, 184, 216
-0.980635, 69, 161, 100, 288
-0.980644, 249, 1, 280, 128
-0.980706, 297, 17, 328, 144
-0.980733, 105, 225, 168, 352
-0.980755, 233, 1, 264, 128
-0.980815, 57, 1, 120, 375
-0.98082, 433, 89, 496, 152
-0.980822, 129, 41, 160, 104
-0.980968, 73, 201, 136, 264
-0.981035, 105, 17, 136, 80
-0.981077, 417, 65, 480, 128
-0.981131, 401, 33, 432, 96
-0.981159, 257, 57, 384, 120
-0.9812, 185, 41, 216, 104
-0.981271, 153, 153, 216, 216
-0.981282, 129, 73, 256, 136
-0.981311, 101, 209, 132, 336
-0.981322, 81, 65, 112, 128
-0.981503, 25, 65, 88, 128
-0.981655, 33, 41, 96, 104
-0.981713, 17, 241, 48, 368
-0.981763, 153, 121, 216, 184
-0.981788, 305, 185, 368, 248
-0.981791, 225, 201, 352, 264
-0.981803, 313, 57, 344, 120
-0.981865, 369, 193, 496, 256
-0.9819, 433, 1, 496, 375
-0.981906, 1, 33, 64, 288
-0.981918, 141, 41, 172, 104
-0.981928, 73, 209, 104, 336
-0.981986, 17, 233, 144, 296
-0.982001, 141, 73, 172, 136
-0.982026, 41, 169, 104, 232
-0.982059, 1, 289, 32, 352
-0.982091, 1, 209, 32, 336
-0.982091, 85, 225, 116, 352
-0.982187, 277, 1, 308, 128
-0.982207, 261, 49, 292, 112
-0.982219, 145, 153, 272, 216
-0.982248, 237, 185, 268, 248
-0.982263, 225, 161, 288, 224
-0.982266, 449, 33, 480, 160
-0.982279, 5, 41, 36, 104
-0.982305, 433, 161, 464, 288
-0.982332, 225, 97, 352, 224
-0.982346, 209, 209, 336, 336
-0.982349, 261, 1, 292, 128
-0.982373, 265, 209, 328, 272
-0.982451, 345, 1, 408, 256
-0.982464, 1, 201, 64, 264
-0.982563, 393, 169, 456, 232
-0.982627, 37, 161, 68, 288
-0.982641, 409, 17, 472, 80
-0.982686, 81, 1, 144, 375
-0.982818, 161, 41, 192, 104
-0.982834, 305, 57, 432, 120
-0.982881, 329, 9, 392, 72
-0.982895, 33, 121, 96, 184
-0.982901, 105, 289, 168, 352
-0.982944, 173, 41, 204, 104
-0.983006, 1, 1, 64, 64
-0.983126, 117, 41, 148, 104
-0.98324, 185, 49, 216, 176
-0.98324, 145, 177, 176, 304
-0.983245, 405, 33, 436, 160
-0.983254, 113, 225, 240, 352
-0.983259, 9, 153, 72, 216
-0.983262, 177, 177, 240, 240
-0.983266, 1, 33, 64, 160
-0.983284, 433, 145, 496, 208
-0.983305, 249, 161, 280, 288
-0.983311, 65, 233, 96, 296
-0.983321, 129, 185, 160, 248
-0.983324, 317, 17, 348, 144
-0.983396, 129, 49, 160, 176
-0.983448, 125, 177, 156, 304
-0.983491, 33, 89, 96, 152
-0.9835, 105, 41, 136, 104
-0.983511, 161, 49, 288, 112
-0.983511, 305, 193, 432, 256
-0.983518, 97, 129, 160, 375
-0.983524, 109, 65, 140, 192
-0.983595, 17, 145, 144, 208
-0.983599, 41, 217, 104, 280
-0.983627, 69, 17, 100, 80
-0.983679, 369, 217, 496, 280
-0.983684, 337, 169, 464, 232
-0.983684, 469, 41, 500, 104
-0.983739, 353, 17, 384, 144
-0.983773, 353, 121, 480, 184
-0.983777, 161, 73, 192, 136
-0.983789, 153, 241, 216, 368
-0.98387, 341, 57, 372, 120
-0.983937, 153, 97, 216, 352
-0.983937, 113, 177, 240, 240
-0.983952, 385, 193, 448, 256
-0.984007, 85, 65, 116, 192
-0.98401, 185, 129, 248, 256
-0.984014, 29, 249, 60, 312
-0.984023, 281, 161, 344, 224
-0.984062, 297, 113, 360, 240
-0.984091, 249, 169, 280, 232
-0.984221, 161, 201, 288, 264
-0.984328, 101, 225, 132, 288
-0.984395, 385, 33, 416, 160
-0.984412, 373, 33, 404, 160
-0.98449, 73, 65, 104, 192
-0.984548, 113, 209, 144, 336
-0.984552, 109, 65, 140, 128
-0.98456, 417, 41, 448, 104
-0.984585, 417, 33, 448, 160
-0.984631, 1, 193, 128, 256
-0.984713, 5, 185, 36, 248
-0.984765, 329, 57, 360, 120
-0.984783, 169, 201, 232, 264
-0.984808, 1, 313, 64, 375
-0.984825, 177, 241, 240, 368
-0.984849, 65, 113, 192, 176
-0.984864, 25, 177, 56, 304
-0.984935, 421, 193, 452, 320
-0.984986, 225, 113, 288, 240
-0.985002, 229, 49, 260, 112
-0.985057, 173, 49, 204, 176
-0.985057, 197, 49, 228, 176
-0.985087, 337, 145, 464, 208
-0.985111, 121, 265, 184, 328
-0.985139, 429, 193, 460, 256
-0.985184, 93, 161, 124, 224
-0.985277, 89, 41, 120, 104
-0.985296, 209, 49, 240, 176
-0.985307, 353, 97, 480, 160
-0.985315, 369, 81, 432, 144
-0.985337, 433, 113, 496, 176
-0.985402, 89, 241, 120, 304
-0.985433, 361, 177, 424, 304
-0.985478, 369, 81, 432, 208
-0.985483, 313, 81, 376, 144
-0.985522, 257, 97, 320, 352
-0.985532, 425, 97, 456, 160
-0.985544, 353, 65, 480, 128
-0.985545, 257, 9, 384, 72
-0.985557, 441, 209, 472, 272
-0.985578, 153, 1, 216, 375
-0.985609, 25, 1, 88, 375
-0.985675, 105, 177, 136, 240
-0.985711, 281, 73, 344, 136
-0.985775, 245, 49, 276, 112
-0.985789, 97, 89, 160, 152
-0.985972, 277, 49, 308, 112
-0.986027, 237, 161, 268, 288
-0.986039, 49, 161, 80, 288
-0.986054, 153, 97, 216, 160
-0.986142, 1, 273, 128, 336
-0.986192, 345, 65, 408, 192
-0.986206, 61, 225, 92, 352
-0.986239, 29, 241, 60, 368
-0.98633, 209, 49, 240, 112
-0.986365, 1, 1, 128, 64
-0.98639, 25, 73, 56, 136
-0.986414, 321, 1, 384, 375
-0.986433, 157, 177, 188, 240
-0.986453, 201, 1, 232, 64
-0.986456, 305, 217, 432, 280
-0.986466, 65, 225, 192, 288
-0.986472, 321, 257, 384, 320
-0.986472, 57, 281, 120, 344
-0.986503, 177, 73, 240, 136
-0.986516, 353, 17, 480, 80
-0.986533, 329, 209, 392, 272
-0.986646, 469, 17, 500, 144
-0.986751, 1, 313, 32, 375
-0.986769, 409, 1, 472, 375
-0.986778, 177, 1, 304, 64
-0.986814, 13, 257, 44, 320
-0.986819, 241, 153, 368, 216
-0.986858, 233, 49, 264, 176
-0.9869, 1, 65, 128, 128
-0.986912, 409, 193, 440, 320
-0.986928, 61, 81, 92, 208
-0.986957, 157, 145, 188, 272
-0.986974, 69, 65, 100, 128
-0.986979, 121, 65, 152, 128
-0.986997, 105, 233, 168, 296
-0.987041, 253, 193, 284, 256
-0.987048, 41, 97, 72, 224
-0.987052, 257, 241, 384, 368
-0.987109, 49, 201, 176, 264
-0.987144, 257, 1, 320, 64
-0.987346, 1, 1, 64, 375
-0.987396, 9, 225, 40, 288
-0.987399, 29, 97, 60, 224
-0.987404, 441, 113, 472, 240
-0.987423, 273, 241, 336, 368
-0.987448, 221, 49, 252, 176
-0.987473, 421, 129, 452, 256
-0.987487, 189, 1, 220, 64
-0.987557, 1, 65, 64, 128
-0.98756, 169, 273, 232, 336
-0.987565, 41, 241, 72, 304
-0.987621, 405, 57, 436, 120
-0.987652, 93, 65, 124, 128
-0.987761, 129, 113, 256, 176
-0.987801, 353, 9, 416, 72
-0.987813, 41, 225, 72, 352
-0.98795, 265, 297, 328, 360
-0.988019, 1, 121, 128, 184
-0.988035, 33, 17, 64, 144
-0.988044, 113, 209, 144, 272
-0.988058, 417, 209, 448, 272
-0.988061, 353, 121, 416, 184
-0.988061, 193, 201, 256, 264
-0.988102, 285, 49, 316, 176
-0.988102, 261, 161, 292, 288
-0.98811, 161, 97, 192, 224
-0.988149, 365, 57, 396, 120
-0.988164, 225, 97, 288, 352
-0.988193, 25, 265, 88, 328
-0.988196, 313, 121, 376, 184
-0.988238, 85, 129, 116, 192
-0.988292, 253, 49, 284, 176
-0.988324, 297, 65, 328, 192
-0.988339, 9, 89, 72, 152
-0.988339, 313, 145, 376, 208
-0.98837, 289, 81, 416, 144
-0.988379, 281, 129, 344, 192
-0.988392, 289, 297, 352, 360
-0.988468, 313, 97, 376, 352
-0.9885, 393, 241, 456, 304
-0.988505, 89, 145, 152, 208
-0.988522, 353, 57, 384, 120
-0.988544, 385, 1, 448, 375
-0.988582, 381, 57, 412, 120
-0.98866, 209, 209, 272, 336
-0.988664, 341, 17, 372, 144
-0.988678, 345, 1, 408, 375
-0.988685, 433, 241, 496, 304
-0.988693, 225, 33, 480, 96
-0.988714, 297, 1, 360, 375
-0.988797, 17, 97, 144, 160
-0.988803, 145, 281, 208, 344
-0.988831, 225, 209, 288, 272
-0.988848, 225, 185, 256, 248
-0.988874, 33, 297, 96, 360
-0.988889, 257, 137, 320, 200
-0.988895, 165, 201, 196, 264
-0.989034, 305, 9, 432, 72
-0.989096, 329, 17, 360, 144
-0.989233, 73, 21, 136, 52
-0.989234, 289, 169, 416, 232
-0.989292, 257, 73, 320, 136
-0.98935, 177, 281, 304, 344
-0.989355, 85, 209, 116, 272
-0.989357, 129, 25, 384, 88
-0.989398, 377, 97, 440, 352
-0.989407, 145, 129, 176, 256
-0.989464, 337, 185, 400, 248
-0.989471, 33, 25, 288, 88
-0.98948, 97, 65, 128, 192
-0.989514, 9, 113, 72, 176
-0.989533, 221, 1, 252, 64
-0.989548, 425, 129, 488, 375
-0.98964, 225, 185, 288, 216
-0.989662, 405, 209, 436, 272
-0.989676, 429, 65, 460, 128
-0.989701, 309, 9, 340, 72
-0.989714, 65, 169, 128, 200
-0.989747, 293, 201, 324, 264
-0.989765, 321, 81, 384, 208
-0.989798, 257, 297, 384, 360
-0.98982, 45, 17, 76, 144
-0.98991, 449, 65, 480, 128
-0.989919, 41, 245, 104, 276
-0.990064, 453, 209, 484, 272
-0.990076, 193, 73, 320, 136
-0.990112, 273, 33, 336, 64
-0.990195, 73, 161, 104, 224
-0.990291, 337, 37, 400, 68
-0.990293, 297, 33, 360, 64
-0.990299, 169, 25, 232, 56
-0.990316, 157, 209, 188, 336
-0.990346, 13, 297, 44, 360
-0.990353, 105, 21, 168, 52
-0.990362, 137, 25, 200, 56
-0.990438, 233, 29, 296, 60
-0.990442, 177, 193, 208, 320
-0.990445, 113, 189, 176, 220
-0.990451, 73, 233, 136, 264
-0.990472, 125, 209, 156, 272
-0.99048, 97, 73, 160, 104
-0.990493, 265, 49, 296, 176
-0.990534, 89, 265, 120, 328
-0.990549, 273, 121, 400, 184
-0.990557, 73, 69, 136, 100
-0.990561, 17, 169, 48, 232
-0.990566, 313, 225, 344, 288
-0.990616, 193, 25, 256, 56
-0.990619, 237, 161, 268, 224
-0.990625, 1, 249, 64, 280
-0.99064, 337, 161, 400, 288
-0.99064, 273, 53, 336, 84
-0.990644, 121, 209, 184, 240
-0.990659, 1, 73, 500, 136
-0.990669, 261, 169, 292, 232
-0.990767, 377, 61, 440, 92
-0.990812, 429, 217, 460, 280
-0.990817, 313, 53, 376, 84
-0.990844, 345, 57, 408, 88
-0.99087, 97, 201, 352, 264
-0.990907, 157, 153, 188, 216
-0.990918, 257, 193, 320, 224
-0.99093, 129, 49, 384, 112
-0.990942, 313, 161, 344, 288
-0.990942, 305, 69, 368, 100
-0.990949, 305, 201, 336, 264
-0.990968, 1, 297, 128, 360
-0.990974, 401, 221, 464, 252
-0.991031, 417, 185, 448, 248
-0.991044, 177, 1, 240, 375
-0.991052, 385, 41, 448, 72
-0.991054, 393, 157, 456, 188
-0.991061, 41, 153, 72, 216
-0.991073, 77, 41, 108, 104
-0.99108, 241, 225, 368, 288
-0.991085, 65, 97, 96, 160
-0.991095, 233, 1, 264, 64
-0.991104, 53, 241, 84, 304
-0.991108, 325, 9, 356, 72
-0.991109, 361, 41, 424, 72
-0.991119, 193, 225, 320, 288
-0.991121, 153, 201, 184, 264
-0.991122, 425, 45, 488, 76
-0.991123, 113, 169, 176, 200
-0.991124, 113, 221, 176, 252
-0.991126, 289, 97, 352, 352
-0.991134, 1, 265, 64, 296
-0.991143, 353, 97, 416, 352
-0.991154, 77, 265, 108, 328
-0.991157, 1, 33, 500, 96
-0.991159, 225, 197, 288, 228
-0.99116, 129, 281, 256, 344
-0.991162, 209, 305, 336, 368
-0.991177, 209, 1, 272, 375
-0.991207, 289, 145, 416, 208
-0.991219, 49, 21, 112, 52
-0.991235, 197, 49, 228, 112
-0.991257, 357, 217, 388, 280
-0.991284, 129, 241, 192, 368
-0.99129, 401, 209, 464, 240
-0.991295, 97, 177, 352, 240
-0.991297, 153, 77, 216, 108
-0.9913, 137, 189, 200, 220
-0.991315, 1, 189, 64, 220
-0.991354, 425, 225, 488, 256
-0.991354, 273, 273, 400, 336
-0.991362, 161, 201, 224, 232
-0.991376, 121, 77, 184, 108
-0.99138, 41, 89, 72, 152
-0.991436, 249, 181, 312, 212
-0.991456, 273, 169, 304, 232
-0.991457, 457, 209, 488, 336
-0.991476, 401, 137, 464, 168
-0.991483, 5, 161, 36, 224
-0.991499, 393, 173, 456, 204
-0.991499, 25, 257, 88, 288
-0.991504, 389, 217, 420, 280
-0.991506, 37, 177, 68, 240
-0.991512, 125, 129, 156, 256
-0.991523, 345, 69, 408, 100
-0.991532, 293, 161, 324, 288
-0.991547, 65, 245, 128, 276
-0.99158, 17, 69, 80, 100
-0.991582, 265, 1, 328, 375
-0.991587, 73, 113, 104, 240
-0.991587, 385, 193, 448, 224
-0.991588, 401, 65, 464, 96
-0.991592, 369, 241, 496, 304
-0.991598, 225, 129, 352, 192
-0.991603, 245, 1, 276, 64
-0.991617, 265, 205, 328, 236
-0.991631, 301, 73, 332, 136
-0.991636, 441, 177, 472, 240
-0.991647, 241, 49, 304, 80
-0.991651, 89, 181, 152, 212
-0.991664, 401, 125, 464, 156
-0.991713, 421, 153, 452, 216
-0.991718, 1, 289, 64, 320
-0.991733, 1, 301, 64, 332
-0.991734, 321, 225, 384, 256
-0.991736, 153, 41, 216, 72
-0.991737, 89, 37, 152, 68
-0.991737, 97, 233, 160, 264
-0.991763, 145, 161, 176, 224
-0.991765, 1, 45, 64, 76
-0.991773, 1, 237, 64, 268
-0.991778, 89, 277, 152, 308
-0.991801, 121, 285, 184, 316
-0.99184, 377, 221, 440, 252
-0.991842, 41, 233, 104, 264
-0.991847, 1, 277, 64, 308
-0.991861, 353, 221, 416, 252
-0.991863, 225, 173, 288, 204
-0.991869, 273, 69, 336, 100
-0.991875, 153, 145, 216, 176
-0.991882, 445, 193, 476, 320
-0.991892, 201, 181, 264, 212
-0.991895, 185, 241, 216, 368
-0.991912, 281, 269, 344, 300
-0.991925, 81, 265, 208, 328
-0.991937, 233, 209, 296, 336
-0.991945, 425, 69, 488, 100
-0.991956, 33, 177, 96, 208
-0.991974, 193, 193, 224, 320
-0.991989, 257, 177, 500, 240
-0.992017, 361, 205, 424, 236
-0.992019, 81, 257, 144, 288
-0.992021, 33, 73, 288, 136
-0.992026, 137, 65, 200, 96
-0.99203, 57, 153, 120, 184
-0.992033, 193, 45, 256, 76
-0.992036, 313, 65, 344, 192
-0.992046, 433, 153, 496, 184
-0.992053, 105, 157, 168, 188
-0.992054, 401, 113, 464, 144
-0.992054, 153, 133, 216, 164
-0.992067, 313, 257, 376, 288
-0.992071, 177, 97, 240, 352
-0.99208, 425, 173, 488, 204
-0.992088, 41, 33, 104, 64
-0.99209, 57, 113, 120, 144
-0.992104, 401, 97, 464, 128
-0.992105, 65, 37, 128, 68
-0.992114, 49, 69, 112, 100
-0.992122, 129, 41, 192, 72
-0.992123, 81, 217, 144, 248
-0.992143, 185, 73, 248, 104
-0.992156, 325, 209, 356, 336
-0.992157, 297, 205, 360, 236
-0.992183, 137, 177, 200, 208
-0.9922, 57, 85, 120, 116
-0.9922, 433, 141, 496, 172
-0.99221, 9, 177, 72, 208
-0.992215, 233, 209, 296, 240
-0.992215, 401, 81, 432, 208
-0.992217, 425, 189, 488, 220
-0.992223, 257, 305, 320, 336
-0.992225, 153, 161, 216, 192
-0.992229, 1, 153, 500, 216
-0.992233, 305, 209, 336, 336
-0.992235, 417, 237, 480, 268
-0.992253, 33, 81, 96, 112
-0.992269, 209, 73, 272, 104
-0.992289, 337, 209, 400, 240
-0.992307, 1, 321, 64, 352
-0.992314, 185, 197, 248, 228
-0.992325, 57, 261, 120, 292
-0.992335, 241, 1, 304, 375
-0.992341, 225, 161, 256, 288
-0.992353, 217, 49, 280, 80
-0.99237, 265, 217, 328, 248
-0.992392, 393, 85, 456, 116
-0.992393, 337, 257, 400, 288
-0.992401, 177, 265, 240, 296
-0.992403, 249, 73, 312, 104
-0.992408, 33, 161, 96, 192
-0.992411, 153, 213, 216, 244
-0.992429, 289, 193, 352, 224
-0.992437, 97, 289, 160, 320
-0.992456, 33, 121, 96, 152
-0.992458, 81, 21, 112, 52
-0.992486, 9, 33, 72, 64
-0.992491, 57, 141, 120, 172
-0.992504, 273, 249, 400, 312
-0.992507, 161, 281, 224, 312
-0.992512, 57, 97, 120, 128
-0.992521, 89, 9, 152, 40
-0.992526, 33, 93, 96, 124
-0.992534, 1, 177, 256, 240
-0.992537, 97, 85, 160, 116
-0.992546, 425, 201, 488, 232
-0.992552, 1, 129, 500, 192
-0.992553, 97, 205, 160, 236
-0.992574, 253, 185, 284, 216
-0.992591, 249, 113, 280, 240
-0.992641, 305, 33, 336, 64
-0.992658, 237, 185, 268, 216
-0.992712, 317, 33, 348, 64
-0.992722, 125, 21, 156, 52
-0.992732, 1, 97, 500, 160
-0.992733, 137, 193, 168, 224
-0.99276, 77, 237, 108, 268
-0.992765, 177, 25, 208, 56
-0.992765, 109, 21, 140, 52
-0.992772, 369, 37, 400, 68
-0.992779, 449, 221, 480, 252
-0.992788, 81, 69, 112, 100
-0.992788, 189, 25, 220, 56
-0.99279, 157, 25, 188, 56
-0.992792, 97, 21, 128, 52
-0.992794, 261, 29, 292, 60
-0.992802, 245, 29, 276, 60
-0.992805, 137, 21, 168, 52
-0.992818, 317, 53, 348, 84
-0.99283, 5, 253, 36, 284
-0.992831, 69, 21, 100, 52
-0.992847, 329, 37, 360, 68
-0.992851, 341, 37, 372, 68
-0.992853, 285, 33, 316, 64
-0.992854, 213, 25, 244, 56
-0.992855, 29, 257, 60, 288
-0.992857, 273, 29, 304, 60
-0.992865, 253, 197, 284, 228
-0.992871, 201, 25, 232, 56
-0.992872, 297, 53, 328, 84
-0.992873, 93, 165, 124, 196
-0.992877, 357, 37, 388, 68
-0.992886, 1, 285, 32, 316
-0.992897, 177, 257, 304, 320
-0.992899, 233, 29, 264, 60
-0.992901, 17, 49, 48, 176
-0.992903, 353, 53, 384, 84
-0.992904, 121, 189, 152, 220
-0.992911, 337, 53, 368, 84
-0.992929, 65, 245, 96, 276
-0.992932, 1, 37, 32, 68
-0.992939, 225, 57, 480, 120
-0.992945, 117, 73, 148, 104
-0.992947, 377, 57, 408, 88
-0.992969, 101, 69, 132, 100
-0.992974, 245, 173, 276, 204
-0.992977, 239, 25, 254, 88
-0.992986, 65, 153, 320, 216
-0.992986, 165, 201, 196, 232
-0.992991, 437, 45, 468, 76
-0.992993, 251, 25, 266, 88
-0.992993, 341, 193, 372, 320
-0.993004, 1, 265, 32, 296
-0.993007, 229, 25, 244, 88
-0.993008, 157, 189, 188, 220
-0.993012, 141, 77, 172, 108
-0.993013, 9, 189, 40, 220
-0.993014, 9, 177, 40, 208
-0.993022, 257, 201, 500, 264
-0.993032, 273, 197, 304, 228
-0.993033, 309, 69, 340, 100
-0.993036, 37, 245, 68, 276
-0.993041, 315, 33, 330, 96
-0.993042, 401, 221, 432, 252
-0.993042, 273, 129, 304, 256
-0.993043, 465, 45, 496, 76
-0.993045, 145, 205, 176, 236
-0.993058, 421, 41, 452, 72
-0.993064, 105, 229, 136, 260
-0.993066, 397, 41, 428, 72
-0.993067, 5, 317, 36, 348
-0.993073, 237, 201, 268, 232
-0.993084, 125, 217, 156, 248
-0.993092, 129, 73, 160, 104
-0.993097, 113, 225, 240, 288
-0.993112, 341, 65, 372, 96
-0.993113, 81, 225, 112, 256
-0.993115, 401, 61, 432, 92
-0.993115, 285, 53, 316, 84
-0.993117, 381, 41, 412, 72
-0.993119, 453, 45, 484, 76
-0.993126, 161, 77, 192, 108
-0.993127, 369, 281, 496, 344
-0.993143, 1, 305, 32, 336
-0.993152, 69, 69, 100, 100
-0.993153, 365, 57, 396, 88
-0.993159, 89, 257, 120, 288
-0.993161, 225, 181, 256, 212
-0.993164, 269, 49, 300, 80
-0.993175, 245, 25, 260, 88
-0.993177, 437, 217, 468, 248
-0.993177, 321, 69, 352, 100
-0.993177, 429, 89, 460, 120
-0.993188, 389, 61, 420, 92
-0.993192, 223, 25, 238, 88
-0.993193, 65, 289, 192, 352
-0.993195, 465, 73, 496, 104
-0.993215, 353, 225, 384, 256
-0.993215, 21, 269, 52, 300
-0.993226, 53, 249, 84, 280
-0.993228, 109, 181, 140, 212
-0.99323, 197, 265, 228, 296
-0.993232, 409, 41, 440, 72
-0.993232, 61, 85, 92, 116
-0.993232, 337, 225, 368, 256
-0.993232, 331, 33, 346, 96
-0.993233, 313, 221, 344, 252
-0.993235, 9, 49, 40, 80
-0.993236, 425, 217, 456, 248
-0.993238, 145, 41, 176, 72
-0.993238, 113, 217, 144, 248
-0.993238, 293, 201, 324, 232
-0.993239, 321, 33, 336, 96
-0.993242, 389, 221, 420, 252
-0.993242, 133, 205, 164, 236
-0.993244, 249, 213, 280, 244
-0.993246, 429, 205, 460, 236
-0.993246, 25, 81, 56, 112
-0.99325, 17, 321, 48, 352
-0.993251, 269, 185, 300, 216
-0.993254, 85, 153, 116, 184
-0.993254, 81, 85, 112, 116
-0.993269, 201, 73, 232, 104
-0.99327, 121, 37, 152, 68
-0.99327, 433, 229, 464, 260
-0.993272, 93, 237, 124, 268
-0.993272, 169, 41, 200, 72
-0.993276, 1, 193, 500, 256
-0.993277, 21, 177, 52, 208
-0.993278, 185, 45, 216, 76
-0.993282, 241, 49, 272, 80
-0.993282, 201, 45, 232, 76
-0.993284, 297, 73, 328, 104
-0.993288, 453, 69, 484, 100
-0.993289, 73, 169, 104, 200
-0.993289, 13, 241, 44, 272
-0.993293, 109, 37, 140, 68
-0.993296, 13, 281, 44, 312
-0.993299, 353, 65, 384, 96
-0.993306, 413, 213, 444, 244
-0.993307, 81, 97, 112, 128
-0.993308, 225, 273, 352, 336
-0.99331, 189, 73, 220, 104
-0.993312, 253, 49, 284, 80
-0.993318, 461, 229, 492, 260
-0.993325, 213, 45, 244, 76
-0.993331, 29, 69, 60, 100
-0.993333, 145, 181, 176, 212
-0.993333, 425, 153, 456, 184
-0.993344, 257, 25, 272, 88
-0.993358, 409, 145, 440, 272
-0.993362, 341, 33, 356, 96
-0.993396, 263, 25, 278, 88
-0.993408, 5, 17, 36, 144
-0.993427, 397, 193, 428, 320
-0.993457, 241, 97, 368, 160
-0.993506, 193, 153, 320, 216
-0.993576, 101, 113, 132, 240
-0.993669, 321, 289, 448, 352
-0.993676, 65, 21, 192, 52
-0.993678, 309, 25, 324, 88
-0.993694, 321, 257, 448, 320
-0.993721, 213, 25, 228, 88
-0.993729, 177, 129, 304, 192
-0.993759, 65, 225, 320, 288
-0.993769, 49, 73, 176, 104
-0.993794, 269, 25, 284, 88
-0.993799, 201, 97, 264, 352
-0.993815, 349, 33, 364, 96
-0.993961, 257, 81, 500, 144
-0.993988, 129, 305, 256, 368
-0.994036, 385, 209, 416, 336
-0.994037, 303, 25, 318, 88
-0.994089, 355, 33, 370, 96
-0.994103, 257, 145, 500, 208
-0.994253, 393, 241, 456, 368
-0.994275, 275, 25, 290, 88
-0.994312, 17, 173, 144, 204
-0.994384, 345, 225, 408, 352
-0.994403, 17, 97, 48, 224
-0.994404, 129, 257, 256, 320
-0.994432, 207, 25, 222, 88
-0.994491, 241, 33, 368, 64
-0.994499, 201, 25, 216, 88
-0.994518, 297, 25, 312, 88
-0.994546, 5, 113, 36, 240
-0.994547, 129, 73, 384, 136
-0.99456, 373, 33, 388, 96
-0.994565, 237, 113, 268, 240
-0.994566, 281, 25, 296, 88
-0.994575, 65, 1, 320, 64
-0.994596, 129, 25, 256, 56
-0.994649, 297, 113, 328, 240
-0.994656, 83, 17, 98, 80
-0.994689, 133, 17, 148, 80
-0.99472, 105, 17, 120, 80
-0.994723, 179, 17, 194, 80
-0.994724, 33, 105, 288, 168
-0.994731, 289, 25, 304, 88
-0.99476, 115, 17, 130, 80
-0.994774, 191, 17, 206, 80
-0.99479, 1, 217, 500, 280
-0.994796, 289, 37, 416, 68
-0.994797, 413, 81, 444, 208
-0.994831, 361, 33, 376, 96
-0.994831, 381, 33, 396, 96
-0.994835, 177, 185, 304, 216
-0.994891, 329, 161, 360, 288
-0.994916, 127, 17, 142, 80
-0.994923, 133, 225, 164, 352
-0.994966, 149, 17, 164, 80
-0.994967, 367, 33, 382, 96
-0.994969, 185, 17, 200, 80
-0.99503, 173, 17, 188, 80
-0.99503, 99, 17, 114, 80
-0.995042, 157, 17, 172, 80
-0.995044, 1, 249, 256, 312
-0.995066, 91, 17, 106, 80
-0.995089, 1, 33, 128, 64
-0.995149, 209, 209, 240, 336
-0.995157, 321, 57, 448, 88
-0.99518, 305, 49, 320, 112
-0.995188, 353, 41, 480, 72
-0.995197, 163, 17, 178, 80
-0.995212, 257, 105, 500, 168
-0.995215, 127, 185, 142, 248
-0.995218, 141, 17, 156, 80
-0.995231, 129, 177, 256, 208
-0.99529, 177, 29, 304, 60
-0.995292, 315, 57, 330, 120
-0.995299, 257, 53, 384, 84
-0.995312, 3, 33, 18, 96
-0.995327, 11, 33, 26, 96
-0.995354, 399, 33, 414, 96
-0.995368, 121, 17, 136, 80
-0.995375, 141, 41, 156, 104
-0.995384, 5, 265, 20, 328
-0.9954, 65, 129, 320, 192
-0.995401, 249, 209, 280, 336
-0.995402, 457, 41, 472, 104
-0.995414, 225, 185, 352, 216
-0.995429, 151, 41, 166, 104
-0.995459, 135, 41, 150, 104
-0.99547, 433, 209, 464, 336
-0.995483, 273, 49, 288, 112
-0.995494, 391, 33, 406, 96
-0.9955, 83, 65, 98, 128
-0.995509, 163, 41, 178, 104
-0.995509, 3, 241, 18, 304
-0.995515, 157, 41, 172, 104
-0.995536, 463, 41, 478, 104
-0.995552, 33, 49, 288, 112
-0.995579, 97, 213, 224, 244
-0.99558, 263, 177, 278, 240
-0.995594, 181, 145, 212, 272
-0.995596, 241, 177, 256, 240
-0.995603, 81, 165, 208, 196
-0.995615, 183, 41, 198, 104
-0.99562, 1, 201, 256, 264
-0.995622, 405, 33, 420, 96
-0.995623, 425, 1, 456, 256
-0.995632, 345, 113, 408, 240
-0.995659, 77, 25, 92, 88
-0.995676, 445, 41, 460, 104
-0.995685, 123, 41, 138, 104
-0.995756, 155, 73, 170, 136
-0.995768, 217, 49, 232, 112
-0.995774, 145, 201, 272, 232
-0.995783, 265, 49, 280, 112
-0.995795, 189, 41, 204, 104
-0.995802, 89, 225, 104, 288
-0.995817, 259, 49, 274, 112
-0.995819, 413, 33, 428, 96
-0.995822, 173, 41, 188, 104
-0.995828, 81, 233, 96, 296
-0.995841, 65, 189, 192, 220
-0.995855, 3, 193, 18, 256
-0.99586, 91, 41, 106, 104
-0.995929, 223, 49, 238, 112
-0.995936, 323, 57, 338, 120
-0.995937, 101, 233, 116, 296
-0.995952, 423, 41, 438, 104
-0.995956, 369, 221, 496, 252
-0.995958, 117, 177, 132, 240
-0.99596, 109, 33, 140, 288
-0.995974, 129, 41, 144, 104
-0.995986, 139, 185, 154, 248
-0.995987, 229, 49, 244, 112
-0.996005, 177, 97, 304, 160
-0.996011, 111, 41, 126, 104
-0.996013, 117, 41, 132, 104
-0.996013, 133, 185, 148, 248
-0.996014, 245, 49, 260, 112
-0.99602, 195, 41, 210, 104
-0.996035, 455, 209, 470, 272
-0.996044, 331, 57, 346, 120
-0.996049, 1, 9, 500, 72
-0.996054, 241, 213, 368, 244
-0.996059, 11, 249, 26, 312
-0.996066, 253, 49, 268, 112
-0.996078, 469, 41, 484, 104
-0.99608, 485, 41, 500, 104
-0.99609, 299, 49, 314, 112
-0.996104, 157, 185, 172, 248
-0.996105, 241, 69, 368, 100
-0.996114, 163, 73, 178, 136
-0.996116, 441, 89, 456, 152
-0.996117, 341, 57, 356, 120
-0.996119, 81, 153, 208, 184
-0.996121, 211, 49, 226, 112
-0.996137, 373, 81, 404, 208
-0.996146, 85, 129, 116, 375
-0.99615, 235, 49, 250, 112
-0.996154, 279, 49, 294, 112
-0.996159, 445, 33, 476, 288
-0.996162, 23, 265, 38, 328
-0.996168, 225, 9, 480, 72
-0.996175, 475, 41, 490, 104
-0.996179, 33, 289, 288, 352
-0.996184, 213, 129, 244, 256
-0.996196, 1, 21, 128, 52
-0.996198, 3, 289, 18, 352
-0.9962, 337, 173, 464, 204
-0.996202, 251, 185, 266, 248
-0.996203, 337, 161, 464, 192
-0.996229, 451, 41, 466, 104
-0.996233, 193, 233, 448, 296
-0.996241, 351, 57, 366, 120
-0.996247, 431, 41, 446, 104
-0.996284, 101, 65, 116, 128
-0.996292, 107, 161, 122, 224
-0.996296, 225, 173, 352, 204
-0.996296, 91, 65, 106, 128
-0.996318, 1, 241, 500, 304
-0.996321, 65, 177, 192, 208
-0.996326, 129, 77, 256, 108
-0.99633, 209, 53, 336, 84
-0.996336, 105, 41, 120, 104
-0.996344, 265, 209, 296, 336
-0.996359, 369, 61, 496, 92
-0.996379, 369, 313, 496, 375
-0.996388, 125, 65, 140, 128
-0.996389, 129, 105, 384, 168
-0.996395, 321, 221, 448, 252
-0.996419, 17, 313, 32, 375
-0.996421, 113, 61, 240, 92
-0.996425, 353, 209, 384, 336
-0.996432, 97, 201, 224, 232
-0.996432, 85, 33, 116, 288
-0.996433, 33, 249, 48, 312
-0.996436, 305, 209, 432, 240
-0.996449, 95, 249, 110, 312
-0.996449, 133, 65, 164, 320
-0.996451, 193, 197, 320, 228
-0.996484, 33, 245, 160, 276
-0.996491, 419, 217, 434, 280
-0.9965, 291, 49, 306, 112
-0.996505, 413, 209, 428, 272
-0.99652, 337, 141, 464, 172
-0.99655, 9, 289, 24, 352
-0.99655, 65, 141, 192, 172
-0.996594, 83, 41, 98, 104
-0.996595, 141, 73, 156, 136
-0.996607, 1, 161, 128, 192
-0.996608, 281, 177, 312, 304
-0.996613, 99, 41, 114, 104
-0.996613, 169, 145, 200, 272
-0.996615, 131, 65, 146, 128
-0.996618, 353, 189, 480, 220
-0.996623, 81, 225, 208, 256
-0.996629, 321, 313, 448, 375
-0.996634, 149, 193, 164, 256
-0.996662, 161, 45, 288, 76
-0.996678, 225, 249, 352, 312
-0.996707, 369, 193, 400, 320
-0.996707, 193, 73, 320, 104
-0.99671, 121, 33, 152, 288
-0.996722, 49, 85, 176, 116
-0.996726, 305, 69, 432, 100
-0.996744, 389, 81, 420, 208
-0.996795, 313, 1, 344, 256
-0.996817, 369, 209, 496, 240
-0.99683, 65, 129, 192, 160
-0.99683, 49, 33, 176, 64
-0.99683, 49, 117, 176, 148
-0.996851, 97, 65, 128, 320
-0.996853, 297, 1, 328, 256
-0.996879, 353, 121, 480, 152
-0.99689, 145, 213, 272, 244
-0.996893, 309, 113, 340, 240
-0.996929, 225, 113, 256, 240
-0.996944, 33, 233, 160, 264
-0.996964, 193, 129, 224, 256
-0.996965, 273, 1, 304, 256
-0.996983, 257, 197, 384, 228
-0.996983, 145, 225, 176, 352
-0.997013, 253, 1, 284, 256
-0.997013, 1, 313, 256, 375
-0.997055, 173, 241, 204, 368
-0.997062, 293, 209, 324, 336
-0.997076, 193, 209, 320, 240
-0.997083, 113, 189, 240, 220
-0.997088, 17, 185, 144, 216
-0.997091, 65, 9, 192, 40
-0.997135, 405, 1, 436, 256
-0.99714, 97, 41, 224, 72
-0.99715, 241, 1, 272, 256
-0.997154, 73, 129, 104, 375
-0.997177, 145, 165, 272, 196
-0.997196, 161, 273, 416, 336
-0.997198, 201, 1, 232, 256
-0.997203, 69, 33, 100, 288
-0.997206, 305, 185, 432, 216
-0.997217, 325, 1, 356, 256
-0.99723, 161, 153, 416, 216
-0.997257, 305, 197, 432, 228
-0.997257, 429, 97, 460, 352
-0.997258, 221, 1, 252, 256
-0.997284, 145, 65, 176, 320
-0.99734, 353, 109, 480, 140
-0.997343, 97, 281, 224, 312
-0.997344, 17, 97, 144, 128
-0.997357, 353, 93, 480, 124
-0.997398, 161, 305, 416, 368
-0.997412, 357, 1, 388, 256
-0.997417, 385, 1, 416, 256
-0.997442, 1, 277, 128, 308
-0.99745, 337, 1, 368, 256
-0.997458, 129, 149, 256, 180
-0.99746, 81, 21, 96, 52
-0.997488, 285, 1, 316, 256
-0.997499, 129, 137, 256, 168
-0.997502, 257, 281, 500, 344
-0.997503, 17, 265, 144, 296
-0.997523, 9, 129, 40, 375
-0.997526, 49, 313, 176, 375
-0.997527, 49, 205, 176, 236
-0.99754, 161, 1, 192, 256
-0.99754, 177, 285, 304, 316
-0.997568, 319, 33, 334, 64
-0.997578, 17, 221, 144, 252
-0.997599, 263, 185, 278, 216
-0.997606, 241, 185, 256, 216
-0.997637, 337, 233, 464, 264
-0.997641, 49, 61, 176, 92
-0.997649, 369, 73, 496, 104
-0.997652, 17, 145, 144, 176
-0.997668, 113, 9, 240, 40
-0.997671, 305, 81, 432, 112
-0.997683, 61, 129, 92, 375
-0.997686, 3, 253, 18, 284
-0.997706, 1, 121, 128, 152
-0.99773, 113, 301, 240, 332
-0.997734, 313, 33, 328, 64
-0.997752, 29, 97, 60, 352
-0.997754, 181, 25, 196, 56
-0.997757, 185, 1, 216, 256
-0.997758, 255, 29, 270, 60
-0.997767, 17, 33, 48, 288
-0.997782, 11, 37, 26, 68
-0.997782, 81, 105, 208, 136
-0.997788, 129, 21, 144, 52
-0.997791, 121, 21, 136, 52
-0.997794, 175, 25, 190, 56
-0.997798, 87, 21, 102, 52
-0.997805, 273, 225, 400, 256
-0.997807, 273, 145, 400, 176
-0.997813, 325, 33, 340, 64
-0.997833, 257, 305, 500, 368
-0.997841, 241, 305, 368, 336
-0.997842, 139, 21, 154, 52
-0.997847, 187, 25, 202, 56
-0.99785, 165, 25, 180, 56
-0.997853, 453, 221, 468, 252
-0.997855, 353, 53, 368, 84
-0.997862, 129, 125, 256, 156
-0.997864, 319, 53, 334, 84
-0.997866, 5, 37, 20, 68
-0.997871, 1, 277, 16, 308
-0.997875, 373, 1, 404, 256
-0.997887, 93, 21, 108, 52
-0.997894, 1, 69, 128, 100
-0.997894, 83, 69, 98, 100
-0.997904, 193, 25, 208, 56
-0.99791, 17, 313, 144, 344
-0.997921, 275, 29, 290, 60
-0.997923, 307, 33, 322, 64
-0.997924, 105, 21, 120, 52
-0.997924, 5, 1, 36, 256
-0.997928, 159, 25, 174, 56
-0.997929, 145, 273, 272, 304
-0.99793, 111, 21, 126, 52
-0.997931, 145, 21, 160, 52
-0.997935, 99, 21, 114, 52
-0.997936, 343, 53, 358, 84
-0.997939, 81, 237, 96, 268
-0.997943, 193, 221, 320, 252
-0.997943, 261, 29, 276, 60
-0.997948, 377, 37, 392, 68
-0.997949, 1, 301, 128, 332
-0.997961, 249, 29, 264, 60
-0.997963, 205, 25, 220, 56
-0.997963, 335, 53, 350, 84
-0.997972, 199, 25, 214, 56
-0.997981, 31, 257, 46, 288
-0.997982, 87, 233, 102, 264
-0.997982, 325, 53, 340, 84
-0.997983, 269, 29, 284, 60
-0.997984, 257, 185, 272, 216
-0.997985, 309, 53, 324, 84
-0.997988, 417, 97, 448, 352
-0.997988, 217, 25, 232, 56
-0.997994, 331, 33, 346, 64
-0.997996, 177, 17, 304, 48
-0.998006, 359, 53, 374, 84
-0.998008, 211, 25, 226, 56
-0.998009, 281, 29, 296, 60
-0.998011, 301, 33, 316, 64
-0.998011, 353, 37, 368, 68
-0.998013, 129, 189, 144, 220
-0.998013, 343, 37, 358, 68
-0.998014, 459, 221, 474, 252
-0.998016, 113, 129, 144, 375
-0.998019, 1, 289, 128, 320
-0.998022, 313, 69, 328, 100
-0.99803, 97, 249, 352, 312
-0.998034, 3, 197, 18, 228
-0.998036, 371, 37, 386, 68
-0.998037, 49, 129, 80, 375
-0.998049, 223, 25, 238, 56
-0.99805, 289, 257, 416, 288
-0.998051, 337, 37, 352, 68
-0.99806, 129, 109, 256, 140
-0.998063, 225, 161, 352, 192
-0.998077, 289, 173, 416, 204
-0.998079, 97, 89, 224, 120
-0.998082, 11, 273, 26, 304
-0.998084, 1, 265, 16, 296
-0.998084, 131, 73, 146, 104
-0.998085, 351, 65, 366, 96
-0.998085, 107, 169, 122, 200
-0.998088, 381, 57, 396, 88
-0.998091, 1, 325, 128, 356
-0.998092, 157, 201, 172, 232
-0.998106, 243, 29, 258, 60
-0.998107, 1, 133, 128, 164
-0.998111, 91, 69, 106, 100
-0.998113, 41, 249, 56, 280
-0.998116, 361, 37, 376, 68
-0.99812, 113, 261, 240, 292
-0.998121, 273, 269, 400, 300
-0.998121, 121, 69, 136, 100
-0.998123, 265, 197, 280, 228
-0.998127, 257, 257, 500, 320
-0.998131, 21, 177, 36, 208
-0.998135, 153, 25, 168, 56
-0.99814, 75, 21, 90, 52
-0.998141, 251, 201, 266, 232
-0.998146, 75, 241, 90, 272
-0.998147, 337, 29, 464, 60
-0.998149, 1, 85, 128, 116
-0.998149, 293, 33, 308, 64
-0.998149, 297, 53, 312, 84
-0.998151, 157, 189, 172, 220
-0.998159, 247, 185, 262, 216
-0.99816, 119, 185, 134, 216
-0.998174, 165, 77, 180, 108
-0.998182, 155, 77, 170, 108
-0.998183, 389, 57, 404, 88
-0.998184, 115, 69, 130, 100
-0.998191, 231, 25, 246, 56
-0.998197, 237, 29, 252, 60
-0.998198, 447, 45, 462, 76
-0.998199, 371, 57, 386, 88
-0.998204, 7, 305, 22, 336
-0.998206, 343, 65, 358, 96
-0.998208, 151, 193, 166, 224
-0.998208, 287, 29, 302, 60
-0.99821, 383, 37, 398, 68
-0.998211, 105, 233, 120, 264
-0.998211, 303, 53, 318, 84
-0.998222, 1, 109, 128, 140
-0.998224, 13, 189, 28, 220
-0.998224, 93, 229, 108, 260
-0.998226, 101, 69, 116, 100
-0.998229, 365, 53, 380, 84
-0.998233, 139, 73, 154, 104
-0.998236, 139, 193, 154, 224
-0.99824, 273, 157, 400, 188
-0.99825, 459, 45, 474, 76
-0.998251, 193, 305, 320, 336
-0.998251, 113, 177, 128, 208
-0.998258, 167, 193, 182, 224
-0.998266, 27, 69, 42, 100
-0.998271, 291, 53, 306, 84
-0.998271, 145, 73, 160, 104
-0.998273, 469, 33, 500, 288
-0.99828, 19, 321, 34, 352
-0.998291, 1, 289, 16, 320
-0.998299, 97, 237, 224, 268
-0.998306, 193, 233, 320, 264
-0.998306, 199, 265, 214, 296
-0.998307, 109, 69, 124, 100
-0.998312, 411, 221, 426, 252
-0.998316, 25, 261, 40, 292
-0.998316, 465, 45, 480, 76
-0.998317, 251, 173, 266, 204
-0.998317, 1, 337, 128, 368
-0.998327, 453, 45, 468, 76
-0.998328, 1, 241, 16, 272
-0.998331, 225, 269, 352, 300
-0.998331, 13, 321, 28, 352
-0.998332, 109, 39, 140, 54
-0.998332, 201, 75, 232, 90
-0.998332, 233, 207, 264, 222
-0.998333, 401, 223, 432, 238
-0.998333, 157, 43, 188, 58
-0.998334, 421, 67, 452, 82
-0.998334, 313, 225, 344, 240
-0.998334, 281, 307, 312, 322
-0.998335, 157, 79, 188, 94
-0.998335, 273, 191, 304, 206
-0.998335, 69, 73, 100, 88
-0.998336, 369, 241, 432, 368
-0.998336, 369, 39, 400, 54
-0.998336, 41, 97, 72, 112
-0.998337, 265, 215, 296, 230
-0.998337, 81, 251, 112, 266
-0.998338, 137, 187, 168, 202
-0.998338, 85, 259, 116, 274
-0.998339, 269, 185, 284, 216
-0.99834, 197, 277, 228, 292
-0.99834, 245, 49, 260, 80
-0.998342, 413, 43, 444, 58
-0.998342, 161, 213, 192, 228
-0.998342, 17, 47, 48, 62
-0.998343, 245, 209, 276, 224
-0.998344, 17, 315, 48, 330
-0.998344, 433, 95, 464, 110
-0.998344, 85, 265, 116, 280
-0.998345, 101, 23, 132, 38
-0.998346, 1, 303, 32, 318
-0.998347, 449, 67, 480, 82
-0.998347, 101, 235, 132, 250
-0.998347, 437, 233, 468, 248
-0.998348, 129, 23, 160, 38
-0.998348, 113, 73, 144, 88
-0.998348, 5, 51, 36, 66
-0.99835, 109, 229, 140, 244
-0.998351, 105, 183, 136, 198
-0.998351, 81, 81, 112, 96
-0.998352, 305, 53, 336, 68
-0.998352, 57, 247, 88, 262
-0.998353, 321, 69, 352, 84
-0.998353, 253, 203, 284, 218
-0.998353, 81, 103, 112, 118
-0.998354, 445, 47, 476, 62
-0.998355, 1, 281, 32, 296
-0.998355, 129, 215, 160, 230
-0.998356, 161, 61, 288, 92
-0.998356, 61, 87, 92, 102
-0.998356, 25, 71, 56, 86
-0.998356, 81, 91, 112, 106
-0.998357, 457, 47, 488, 62
-0.998357, 117, 23, 148, 38
-0.998357, 449, 235, 480, 250
-0.998357, 17, 321, 48, 336
-0.998358, 273, 31, 304, 46
-0.998358, 341, 37, 372, 52
-0.998358, 25, 267, 56, 282
-0.998359, 273, 285, 400, 316
-0.99836, 313, 35, 344, 50
-0.99836, 281, 59, 312, 74
-0.998362, 165, 25, 196, 40
-0.998363, 321, 269, 448, 300
-0.998364, 149, 199, 180, 214
-0.998364, 441, 217, 456, 248
-0.998365, 273, 201, 304, 216
-0.998365, 81, 245, 112, 260
-0.998368, 193, 257, 320, 288
-0.998369, 381, 41, 412, 56
-0.998369, 41, 249, 72, 264
-0.998369, 89, 23, 120, 38
-0.998371, 373, 59, 404, 74
-0.998371, 157, 97, 188, 352
-0.998372, 13, 177, 28, 208
-0.998374, 361, 65, 376, 96
-0.998374, 153, 25, 184, 40
-0.998375, 293, 313, 324, 328
-0.998375, 353, 69, 384, 84
-0.998376, 357, 39, 388, 54
-0.998376, 1, 195, 32, 210
-0.998376, 407, 41, 422, 72
-0.998377, 341, 67, 372, 82
-0.998377, 29, 187, 60, 202
-0.998377, 225, 29, 256, 44
-0.998378, 1, 319, 32, 334
-0.998378, 273, 21, 400, 52
-0.998378, 481, 73, 496, 104
-0.998379, 325, 37, 356, 52
-0.99838, 205, 27, 236, 42
-0.99838, 237, 179, 268, 194
-0.998381, 445, 219, 476, 234
-0.998381, 1, 293, 32, 308
-0.998382, 29, 261, 60, 276
-0.998382, 61, 31, 92, 46
-0.998382, 249, 29, 280, 44
-0.998384, 285, 33, 316, 48
-0.998385, 193, 271, 224, 286
-0.998386, 433, 45, 464, 60
-0.998386, 29, 255, 60, 270
-0.998387, 293, 53, 324, 68
-0.998389, 9, 257, 40, 272
-0.998389, 181, 27, 212, 42
-0.99839, 301, 35, 332, 50
-0.998391, 9, 269, 40, 284
-0.998392, 437, 41, 452, 72
-0.998392, 261, 191, 292, 206
-0.998393, 97, 177, 128, 192
-0.998396, 141, 25, 172, 40
-0.998399, 81, 73, 112, 88
-0.998399, 385, 61, 416, 76
-0.9984, 149, 191, 180, 206
-0.998401, 269, 51, 300, 66
-0.998403, 237, 29, 268, 44
-0.998403, 409, 65, 440, 80
-0.998403, 193, 27, 224, 42
-0.998405, 161, 199, 192, 214
-0.998405, 117, 189, 148, 204
-0.998406, 141, 215, 172, 230
-0.99841, 457, 33, 488, 288
-0.99841, 141, 79, 172, 94
-0.998412, 261, 31, 292, 46
-0.998413, 253, 197, 284, 212
-0.998415, 281, 53, 312, 68
-0.998419, 309, 71, 340, 86
-0.998419, 225, 17, 352, 48
-0.99842, 85, 233, 116, 248
-0.998421, 1, 287, 32, 302
-0.998423, 1, 41, 32, 56
-0.998424, 125, 75, 156, 90
-0.998426, 145, 205, 176, 220
-0.998433, 1, 265, 500, 328
-0.998435, 225, 185, 256, 200
-0.998436, 449, 225, 480, 240
-0.998437, 65, 21, 96, 36
-0.998439, 125, 221, 156, 236
-0.998446, 273, 97, 304, 352
-0.998451, 137, 195, 168, 210
-0.998451, 69, 245, 100, 260
-0.998451, 397, 63, 428, 78
-0.998452, 9, 263, 40, 278
-0.998457, 261, 185, 292, 200
-0.998457, 173, 1, 204, 256
-0.998478, 273, 133, 400, 164
-0.998485, 237, 193, 268, 208
-0.99849, 249, 189, 280, 204
-0.998501, 65, 23, 128, 38
-0.998502, 225, 185, 288, 200
-0.998508, 65, 171, 128, 186
-0.998512, 77, 21, 108, 36
-0.998514, 89, 169, 120, 184
-0.998521, 49, 293, 176, 324
-0.998528, 41, 249, 104, 264
-0.99853, 1, 45, 128, 76
-0.99853, 237, 185, 268, 200
-0.998537, 177, 149, 304, 180
-0.998538, 13, 191, 44, 206
-0.99854, 249, 183, 280, 198
-0.998544, 161, 129, 416, 192
-0.998549, 81, 239, 112, 254
-0.998553, 113, 179, 176, 194
-0.998554, 253, 97, 284, 352
-0.998554, 113, 215, 176, 230
-0.998558, 225, 193, 288, 208
-0.998559, 369, 61, 432, 76
-0.998561, 257, 317, 384, 348
-0.998563, 1, 257, 64, 272
-0.998567, 57, 243, 120, 258
-0.998569, 113, 207, 176, 222
-0.998571, 73, 71, 136, 86
-0.998573, 113, 221, 176, 236
-0.998577, 1, 191, 64, 206
-0.998578, 121, 195, 184, 210
-0.998582, 321, 301, 448, 332
-0.998583, 313, 69, 376, 84
-0.998584, 177, 27, 240, 42
-0.998585, 153, 203, 216, 218
-0.998587, 65, 177, 128, 192
-0.998588, 417, 231, 480, 246
-0.998596, 401, 157, 464, 172
-0.998598, 73, 237, 136, 252
-0.998598, 97, 73, 160, 88
-0.9986, 409, 67, 472, 82
-0.998601, 337, 69, 400, 84
-0.998602, 217, 29, 280, 44
-0.998602, 129, 185, 192, 200
-0.998602, 393, 223, 456, 238
-0.998604, 129, 25, 192, 40
-0.998605, 1, 249, 64, 264
-0.998606, 225, 199, 288, 214
-0.998607, 249, 31, 312, 46
-0.998608, 257, 191, 320, 206
-0.998609, 249, 183, 312, 198
-0.998611, 313, 37, 376, 52
-0.998615, 433, 47, 496, 62
-0.998616, 273, 33, 336, 48
-0.998616, 89, 23, 152, 38
-0.998617, 121, 77, 184, 92
-0.998617, 393, 163, 456, 178
-0.998617, 153, 211, 216, 226
-0.998617, 401, 151, 464, 166
-0.998619, 81, 183, 144, 198
-0.998621, 337, 39, 400, 54
-0.998622, 393, 187, 456, 202
-0.998622, 9, 45, 72, 60
-0.998623, 1, 265, 64, 280
-0.998624, 113, 173, 176, 188
-0.998624, 249, 201, 312, 216
-0.998625, 17, 185, 80, 200
-0.998626, 393, 173, 456, 188
-0.998626, 81, 249, 144, 264
-0.998626, 201, 183, 264, 198
-0.998627, 393, 179, 456, 194
-0.998628, 433, 225, 496, 240
-0.998629, 289, 71, 352, 86
-0.99863, 265, 209, 328, 224
-0.99863, 153, 27, 216, 42
-0.99863, 409, 45, 472, 60
-0.99863, 225, 179, 288, 194
-0.998631, 273, 53, 336, 68
-0.998632, 33, 71, 96, 86
-0.998632, 25, 259, 88, 274
-0.998635, 105, 189, 168, 204
-0.998636, 401, 145, 464, 160
-0.998637, 441, 129, 472, 375
-0.998637, 201, 73, 264, 88
-0.998637, 121, 289, 184, 304
-0.998638, 177, 75, 240, 90
-0.998638, 401, 137, 464, 152
-0.998639, 1, 293, 64, 308
-0.99864, 401, 215, 464, 230
-0.998641, 393, 193, 456, 208
-0.998642, 145, 93, 272, 124
-0.998642, 145, 191, 208, 206
-0.998642, 225, 141, 352, 172
-0.998642, 225, 211, 288, 226
-0.998643, 345, 59, 408, 74
-0.998643, 361, 41, 424, 56
-0.998643, 233, 51, 296, 66
-0.998644, 385, 43, 448, 58
-0.998644, 121, 201, 184, 216
-0.998645, 57, 165, 120, 180
-0.998646, 1, 303, 64, 318
-0.998646, 401, 127, 464, 142
-0.998647, 41, 37, 104, 52
-0.998647, 145, 79, 208, 94
-0.998649, 81, 283, 144, 298
-0.99865, 249, 307, 312, 322
-0.99865, 201, 191, 264, 206
-0.998651, 409, 61, 472, 76
-0.998652, 41, 21, 104, 36
-0.998652, 137, 217, 200, 232
-0.998652, 9, 321, 72, 336
-0.998654, 105, 167, 168, 182
-0.998654, 353, 225, 416, 240
-0.998654, 97, 231, 160, 246
-0.998655, 1, 287, 64, 302
-0.998656, 313, 97, 344, 352
-0.998658, 401, 237, 464, 252
-0.998658, 153, 147, 216, 162
-0.998658, 81, 219, 144, 234
-0.998659, 25, 265, 88, 280
-0.99866, 137, 43, 200, 58
-0.99866, 9, 243, 72, 258
-0.998661, 385, 67, 448, 82
-0.998661, 97, 85, 160, 100
-0.998661, 1, 31, 64, 46
-0.998663, 97, 237, 160, 252
-0.998664, 57, 119, 120, 134
-0.998665, 73, 39, 136, 54
-0.998666, 145, 197, 208, 212
-0.998666, 297, 311, 360, 326
-0.998666, 1, 197, 64, 212
-0.998666, 65, 17, 128, 32
-0.998666, 321, 227, 384, 242
-0.998667, 393, 229, 456, 244
-0.998667, 153, 185, 216, 200
-0.998668, 33, 243, 96, 258
-0.998669, 265, 75, 328, 90
-0.998669, 169, 45, 232, 60
-0.998669, 433, 171, 496, 186
-0.99867, 433, 165, 496, 180
-0.99867, 297, 53, 360, 68
-0.998671, 405, 97, 436, 352
-0.998671, 153, 155, 216, 170
-0.998671, 433, 155, 496, 170
-0.998672, 393, 119, 456, 134
-0.998673, 225, 73, 288, 88
-0.998673, 57, 103, 120, 118
-0.998673, 1, 179, 64, 194
-0.998674, 1, 281, 64, 296
-0.998674, 105, 41, 168, 56
-0.998674, 81, 255, 144, 270
-0.998675, 57, 159, 120, 174
-0.998741, 143, 1, 158, 128
-0.998744, 29, 1, 60, 256
-0.998764, 135, 1, 150, 128
-0.99877, 107, 1, 122, 128
-0.998772, 149, 1, 164, 128
-0.998777, 1, 9, 128, 40
-0.998782, 321, 289, 448, 320
-0.998787, 101, 1, 116, 128
-0.998787, 1, 305, 500, 368
-0.998793, 225, 329, 352, 360
-0.998808, 153, 49, 168, 176
-0.998813, 155, 1, 170, 128
-0.998817, 273, 245, 400, 276
-0.998818, 117, 161, 132, 288
-0.998849, 129, 1, 144, 128
-0.99885, 161, 1, 176, 128
-0.998866, 91, 1, 106, 128
-0.998869, 109, 161, 124, 288
-0.998871, 129, 225, 256, 256
-0.998872, 305, 109, 432, 140
-0.998878, 293, 97, 324, 352
-0.998883, 205, 1, 220, 128
-0.99889, 71, 1, 86, 128
-0.998891, 189, 1, 204, 128
-0.998897, 439, 33, 454, 160
-0.998898, 197, 1, 212, 128
-0.998899, 57, 33, 88, 288
-0.998901, 211, 1, 226, 128
-0.998919, 183, 1, 198, 128
-0.998922, 121, 1, 136, 128
-0.998923, 177, 1, 192, 128
-0.998925, 171, 1, 186, 128
-0.99893, 163, 49, 178, 176
-0.99893, 217, 1, 232, 128
-0.99894, 79, 1, 94, 128
-0.998953, 85, 1, 100, 128
-0.998958, 263, 1, 278, 128
-0.998967, 115, 1, 130, 128
-0.99897, 103, 145, 118, 272
-0.998976, 437, 161, 452, 288
-0.998978, 251, 1, 266, 128
-0.998979, 223, 1, 238, 128
-0.99898, 231, 1, 246, 128
-0.99899, 3, 209, 18, 336
-0.999017, 269, 1, 284, 128
-0.999031, 41, 1, 72, 256
-0.999034, 311, 17, 326, 144
-0.999035, 241, 1, 256, 128
-0.99904, 257, 1, 272, 128
-0.999048, 29, 177, 44, 304
-0.999049, 279, 1, 294, 128
-0.999057, 87, 209, 102, 336
-0.999057, 81, 161, 96, 288
-0.999071, 443, 129, 458, 256
-0.999082, 447, 33, 462, 160
-0.999082, 1, 161, 16, 288
-0.999084, 11, 177, 26, 304
-0.999087, 299, 1, 314, 128
-0.999093, 289, 1, 304, 128
-0.999098, 147, 49, 162, 176
-0.999102, 103, 225, 118, 352
-0.999106, 263, 161, 278, 288
-0.999109, 433, 33, 448, 160
-0.999112, 305, 17, 320, 144
-0.99912, 141, 49, 156, 176
-0.999122, 317, 17, 332, 144
-0.999125, 201, 49, 216, 176
-0.999132, 417, 33, 432, 160
-0.999133, 21, 161, 36, 288
-0.999136, 179, 49, 194, 176
-0.999142, 9, 225, 24, 352
-0.999145, 133, 49, 148, 176
-0.999146, 39, 161, 54, 288
-0.999148, 189, 49, 204, 176
-0.999153, 453, 33, 468, 160
-0.999155, 213, 49, 228, 176
-0.999157, 221, 49, 236, 176
-0.999158, 81, 225, 96, 352
-0.99916, 207, 49, 222, 176
-0.999164, 169, 49, 184, 176
-0.999165, 195, 49, 210, 176
-0.999167, 123, 177, 138, 304
-0.999169, 365, 97, 396, 352
-0.999175, 155, 177, 170, 304
-0.999179, 91, 161, 106, 288
-0.999184, 47, 161, 62, 288
-0.999185, 109, 209, 124, 336
-0.999188, 423, 33, 438, 160
-0.999199, 427, 193, 442, 320
-0.999201, 83, 65, 98, 192
-0.999204, 241, 97, 272, 352
-0.999215, 109, 65, 124, 192
-0.999221, 127, 49, 142, 176
-0.999222, 323, 17, 338, 144
-0.999222, 353, 97, 384, 352
-0.999228, 31, 241, 46, 368
-0.99923, 227, 49, 242, 176
-0.999232, 439, 81, 454, 208
-0.999238, 115, 209, 130, 336
-0.999243, 75, 161, 90, 288
-0.999246, 75, 225, 90, 352
-0.999248, 385, 33, 400, 160
-0.999249, 369, 17, 384, 144
-0.999249, 421, 193, 436, 320
-0.999252, 379, 33, 394, 160
-0.999259, 253, 177, 268, 304
-0.999259, 263, 49, 278, 176
-0.99926, 59, 161, 74, 288
-0.999273, 363, 17, 378, 144
-0.999274, 101, 65, 116, 192
-0.999275, 409, 33, 424, 160
-0.999276, 129, 177, 144, 304
-0.999279, 65, 1, 80, 128
-0.999281, 43, 225, 58, 352
-0.999286, 149, 177, 164, 304
-0.99929, 479, 33, 494, 160
-0.999291, 45, 97, 60, 224
-0.999299, 391, 33, 406, 160
-0.9993, 239, 49, 254, 176
-0.9993, 65, 177, 80, 304
-0.999302, 413, 193, 428, 320
-0.999305, 93, 65, 108, 192
-0.999311, 403, 33, 418, 160
-0.999311, 177, 97, 208, 352
-0.999312, 23, 241, 38, 368
-0.999314, 309, 65, 324, 192
-0.999315, 233, 49, 248, 176
-0.999315, 65, 225, 80, 352
-0.999316, 289, 49, 304, 176
-0.999317, 53, 161, 68, 288
-0.999317, 97, 145, 112, 272
-0.999319, 95, 225, 110, 352
-0.999319, 241, 161, 256, 288
-0.999332, 269, 49, 284, 176
-0.999336, 473, 33, 488, 160
-0.999338, 461, 17, 476, 144
-0.999338, 329, 17, 344, 144
-0.999341, 447, 81, 462, 208
-0.999348, 57, 225, 72, 352
-0.999349, 389, 97, 420, 352
-0.99935, 269, 177, 284, 304
-0.99935, 143, 177, 158, 304
-0.999354, 257, 49, 272, 176
-0.999356, 229, 97, 260, 352
-0.999362, 37, 241, 52, 368
-0.999364, 17, 241, 32, 368
-0.999366, 279, 49, 294, 176
-0.999375, 213, 97, 244, 352
-0.99941, 333, 97, 364, 352
-0.999412, 197, 97, 228, 352
-0.999423, 377, 97, 408, 352
-0.99955, 229, 29, 244, 44
-0.99955, 377, 59, 392, 74
-0.99955, 41, 253, 56, 268
-0.99955, 147, 197, 162, 212
-0.999551, 177, 25, 192, 40
-0.999551, 163, 207, 178, 222
-0.999551, 157, 213, 172, 228
-0.999552, 1, 35, 16, 50
-0.999553, 385, 59, 400, 74
-0.999553, 203, 75, 218, 90
-0.999553, 277, 31, 292, 46
-0.999553, 261, 73, 276, 88
-0.999554, 379, 39, 394, 54
-0.999554, 305, 53, 320, 68
-0.999554, 99, 167, 114, 182
-0.999554, 157, 25, 172, 40
-0.999555, 335, 37, 350, 52
-0.999555, 209, 27, 224, 42
-0.999556, 205, 271, 220, 286
-0.999556, 221, 73, 236, 88
-0.999557, 453, 223, 468, 238
-0.999557, 285, 53, 300, 68
-0.999558, 235, 29, 250, 44
-0.999558, 227, 73, 242, 88
-0.999558, 321, 35, 336, 50
-0.999558, 171, 79, 186, 94
-0.999559, 393, 69, 408, 84
-0.999559, 221, 27, 236, 42
-0.999559, 133, 215, 148, 230
-0.999559, 13, 321, 28, 336
-0.999559, 253, 73, 268, 88
-0.99956, 185, 27, 200, 42
-0.99956, 235, 73, 250, 88
-0.999561, 31, 255, 46, 270
-0.999561, 327, 37, 342, 52
-0.999561, 21, 191, 36, 206
-0.999561, 425, 65, 440, 80
-0.999562, 23, 319, 38, 334
-0.999562, 13, 51, 28, 66
-0.999564, 299, 33, 314, 48
-0.999564, 73, 27, 88, 42
-0.999564, 243, 29, 258, 44
-0.999565, 9, 279, 24, 294
-0.999565, 33, 187, 48, 202
-0.999566, 151, 25, 166, 40
-0.999566, 265, 31, 280, 46
-0.999566, 1, 267, 16, 282
-0.999566, 121, 187, 136, 202
-0.999566, 391, 61, 406, 76
-0.999567, 23, 181, 38, 196
-0.999568, 191, 27, 206, 42
-0.999568, 17, 315, 32, 330
-0.999569, 293, 33, 308, 48
-0.999569, 87, 21, 102, 36
-0.999569, 335, 69, 350, 84
-0.999569, 267, 209, 282, 224
-0.99957, 369, 69, 384, 84
-0.999571, 327, 69, 342, 84
-0.999572, 245, 73, 260, 88
-0.999572, 163, 79, 178, 94
-0.999572, 441, 45, 456, 60
-0.999574, 463, 235, 478, 250
-0.999574, 271, 31, 286, 46
-0.999574, 255, 29, 270, 44
-0.999574, 113, 181, 128, 196
-0.999575, 71, 247, 86, 262
-0.999575, 203, 27, 218, 42
-0.999575, 445, 233, 460, 248
-0.999575, 29, 267, 44, 282
-0.999577, 215, 27, 230, 42
-0.999577, 257, 197, 272, 212
-0.999578, 243, 193, 258, 208
-0.999579, 199, 265, 214, 280
-0.999579, 7, 197, 22, 212
-0.999579, 261, 213, 276, 228
-0.999579, 167, 197, 182, 212
-0.999579, 279, 51, 294, 66
-0.99958, 153, 195, 168, 210
-0.999581, 309, 35, 324, 50
-0.999581, 249, 29, 264, 44
-0.999581, 451, 217, 466, 232
-0.999582, 197, 27, 212, 42
-0.999582, 251, 181, 266, 196
-0.999582, 27, 189, 42, 204
-0.999582, 297, 53, 312, 68
-0.999583, 355, 67, 370, 82
-0.999583, 27, 69, 42, 84
-0.999583, 261, 207, 276, 222
-0.999583, 1, 275, 16, 290
-0.999583, 159, 193, 174, 208
-0.999584, 157, 79, 172, 94
-0.999586, 107, 235, 122, 250
-0.999586, 149, 79, 164, 94
-0.999587, 81, 237, 96, 252
-0.999588, 3, 261, 18, 276
-0.999588, 315, 35, 330, 50
-0.999588, 265, 191, 280, 206
-0.999591, 1, 251, 16, 266
-0.999592, 403, 63, 418, 78
-0.999593, 265, 199, 280, 214
-0.999593, 397, 61, 412, 76
-0.999594, 91, 71, 106, 86
-0.999594, 419, 65, 434, 80
-0.999599, 249, 187, 264, 202
-0.9996, 127, 221, 142, 236
-0.999602, 105, 171, 120, 186
-0.999602, 461, 221, 476, 236
-0.999603, 377, 69, 392, 84
-0.999603, 1, 285, 16, 300
-0.999603, 139, 77, 154, 92
-0.999606, 313, 71, 328, 86
-0.999607, 131, 75, 146, 90
-0.999609, 31, 261, 46, 276
-0.99961, 385, 69, 400, 84
-0.999613, 129, 191, 144, 206
-0.999613, 291, 55, 306, 70
-0.999614, 1, 199, 16, 214
-0.999614, 303, 313, 318, 328
-0.999615, 157, 203, 172, 218
-0.999619, 83, 73, 98, 88
-0.999622, 411, 63, 426, 78
-0.999628, 15, 191, 30, 206
-0.999629, 11, 41, 26, 56
-0.999632, 259, 191, 274, 206
-0.999638, 87, 235, 102, 250
-0.999645, 77, 243, 92, 258
-0.999691, 81, 21, 96, 36
-0.999717, 71, 21, 86, 36
-0.999733, 263, 183, 278, 198
-0.999742, 241, 185, 256, 200
-0.999854, 457, 129, 488, 375
-1.00003, 469, 129, 500, 375
