1959
-0.361699, 1, 97, 500, 352
-0.393461, 1, 1, 500, 375
-0.484504, 1, 1, 500, 256
-0.49129, 33, 1, 288, 375
-0.544553, 193, 1, 448, 375
-0.605343, 193, 65, 448, 320
-0.661004, 65, 129, 320, 375
-0.688851, 1, 1, 256, 256
-0.697306, 97, 33, 352, 288
-0.85473, 273, 33, 400, 288
-0.859472, 209, 97, 336, 352
-0.861207, 81, 1, 208, 375
-0.864055, 369, 1, 496, 375
-0.864428, 209, 1, 336, 375
-0.8689, 1, 65, 500, 192
-0.869811, 97, 33, 224, 288
-0.872255, 321, 129, 448, 375
-0.875383, 369, 33, 496, 288
-0.879288, 289, 1, 416, 375
-0.880446, 161, 65, 288, 320
-0.882528, 17, 1, 144, 256
-0.887387, 1, 161, 500, 288
-0.888488, 1, 113, 500, 240
-0.888717, 17, 129, 144, 375
-0.890403, 273, 129, 400, 375
-0.892607, 145, 1, 272, 375
-0.893502, 33, 1, 160, 375
-0.896336, 209, 1, 336, 256
-0.896494, 81, 129, 208, 375
-0.900305, 321, 33, 448, 288
-0.90426, 1, 209, 500, 336
-0.907359, 369, 129, 496, 375
-0.91534, 193, 113, 448, 240
-0.918444, 193, 65, 448, 192
-0.924319, 97, 145, 352, 272
-0.925785, 1, 17, 500, 144
-0.927647, 257, 193, 500, 320
-0.93486, 401, 65, 464, 192
-0.935471, 65, 193, 320, 320
-0.935761, 209, 145, 336, 272
-0.937027, 377, 65, 440, 192
-0.938361, 353, 65, 480, 192
-0.941307, 273, 145, 400, 272
-0.941401, 1, 145, 256, 272
-0.941708, 161, 193, 416, 320
-0.945215, 305, 65, 432, 192
-0.945387, 353, 81, 416, 208
-0.945785, 97, 161, 224, 288
-0.946205, 161, 145, 288, 272
-0.947464, 353, 113, 480, 240
-0.947533, 185, 113, 248, 240
-0.947869, 433, 65, 496, 192
-0.949115, 225, 65, 288, 192
-0.949668, 337, 145, 400, 272
-0.949864, 225, 193, 352, 320
-0.949989, 65, 65, 320, 192
-0.950007, 289, 193, 416, 320
-0.950624, 361, 129, 424, 256
-0.951137, 297, 193, 360, 320
-0.951532, 17, 129, 144, 256
-0.952428, 241, 49, 368, 176
-0.953239, 305, 129, 368, 256
-0.954638, 97, 113, 224, 240
-0.954737, 321, 65, 384, 192
-0.955456, 17, 1, 144, 128
-0.955747, 161, 241, 416, 368
-0.955922, 257, 145, 320, 272
-0.956022, 161, 97, 288, 224
-0.956404, 353, 209, 480, 336
-0.956867, 209, 129, 272, 256
-0.958224, 385, 129, 448, 256
-0.958302, 209, 97, 336, 224
-0.958772, 33, 241, 288, 368
-0.959365, 185, 65, 248, 192
-0.959727, 353, 193, 416, 320
-0.960445, 73, 129, 136, 256
-0.960721, 225, 17, 480, 144
-0.96078, 297, 201, 360, 264
-0.96107, 177, 129, 240, 192
-0.961157, 145, 209, 272, 336
-0.961206, 409, 113, 472, 240
-0.96126, 257, 241, 500, 368
-0.961523, 433, 113, 496, 240
-0.961632, 281, 129, 344, 256
-0.961877, 1, 65, 128, 192
-0.962109, 377, 81, 440, 144
-0.962255, 9, 1, 72, 128
-0.962467, 401, 113, 464, 176
-0.962678, 201, 121, 264, 184
-0.962785, 1, 65, 64, 192
-0.962794, 177, 209, 240, 336
-0.96309, 193, 49, 320, 176
-0.963194, 433, 113, 496, 176
-0.964022, 1, 17, 256, 144
-0.964147, 65, 1, 192, 128
-0.964231, 297, 65, 360, 192
-0.964342, 337, 161, 464, 288
-0.964688, 273, 193, 336, 320
-0.964954, 369, 153, 432, 216
-0.965034, 249, 137, 312, 200
-0.965269, 329, 169, 392, 232
-0.965504, 209, 153, 272, 216
-0.965701, 401, 17, 464, 144
-0.965712, 49, 145, 112, 272
-0.965857, 353, 129, 416, 192
-0.965864, 121, 129, 184, 256
-0.965865, 433, 89, 496, 152
-0.96595, 361, 201, 424, 264
-0.96602, 289, 241, 352, 368
-0.966195, 177, 161, 240, 288
-0.966228, 345, 97, 408, 160
-0.966276, 425, 49, 488, 112
-0.966336, 169, 153, 232, 216
-0.966871, 377, 121, 440, 184
-0.966979, 97, 161, 160, 288
-0.96707, 65, 209, 192, 336
-0.967273, 249, 65, 312, 192
-0.967274, 369, 17, 496, 144
-0.967985, 97, 49, 224, 176
-0.96805, 9, 113, 72, 240
-0.968899, 41, 265, 104, 328
-0.968996, 257, 241, 384, 368
-0.969022, 305, 241, 432, 368
-0.969034, 257, 97, 384, 224
-0.969063, 249, 185, 312, 248
-0.96922, 433, 137, 496, 200
-0.969396, 1, 65, 64, 128
-0.969508, 153, 145, 216, 272
-0.969755, 97, 113, 160, 240
-0.969767, 129, 145, 192, 208
-0.96986, 305, 129, 368, 192
-0.970273, 233, 161, 296, 288
-0.970322, 433, 17, 496, 144
-0.97075, 1, 105, 64, 168
-0.970821, 209, 193, 272, 320
-0.971035, 217, 97, 280, 160
-0.971276, 209, 241, 336, 368
-0.971442, 225, 121, 288, 184
-0.971518, 177, 129, 240, 375
-0.971532, 389, 65, 420, 192
-0.971984, 401, 57, 464, 120
-0.972291, 193, 217, 256, 280
-0.972405, 161, 137, 288, 200
-0.972413, 329, 129, 392, 192
-0.972429, 337, 97, 400, 352
-0.972552, 409, 89, 472, 152
-0.972624, 249, 161, 312, 224
-0.972708, 273, 201, 336, 264
-0.972785, 377, 193, 440, 320
-0.972915, 313, 225, 376, 288
-0.973014, 353, 121, 480, 184
-0.973141, 73, 145, 136, 208
-0.973177, 409, 209, 472, 336
-0.973242, 81, 209, 144, 336
-0.973787, 425, 257, 488, 320
-0.973818, 201, 97, 264, 352
-0.974037, 17, 241, 144, 368
-0.974143, 129, 1, 256, 128
-0.974194, 273, 49, 336, 176
-0.974206, 305, 177, 368, 240
-0.974223, 321, 73, 384, 136
-0.974504, 401, 257, 464, 320
-0.974663, 289, 129, 416, 192
-0.974785, 241, 145, 368, 208
-0.974806, 241, 121, 368, 184
-0.974892, 441, 65, 472, 192
-0.975022, 257, 241, 320, 368
-0.975039, 41, 241, 104, 368
-0.975076, 9, 17, 72, 80
-0.975184, 97, 169, 224, 232
-0.975311, 145, 49, 272, 176
-0.975391, 289, 153, 352, 216
-0.975438, 401, 65, 432, 192
-0.975476, 209, 169, 336, 232
-0.975633, 337, 193, 400, 256
-0.975713, 233, 113, 296, 240
-0.975756, 205, 121, 236, 184
-0.975783, 281, 121, 344, 184
-0.975832, 153, 193, 216, 320
-0.975936, 369, 81, 400, 208
-0.976075, 25, 113, 88, 176
-0.976101, 461, 49, 492, 112
-0.976126, 353, 73, 416, 136
-0.97617, 321, 193, 384, 320
-0.976175, 461, 105, 492, 168
-0.976254, 89, 201, 152, 264
-0.976285, 369, 65, 496, 128
-0.976365, 33, 241, 96, 304
-0.97641, 433, 241, 496, 368
-0.976418, 225, 65, 288, 128
-0.976558, 421, 65, 452, 192
-0.976576, 25, 65, 88, 192
-0.976622, 9, 265, 72, 328
-0.976711, 153, 65, 216, 192
-0.976788, 441, 113, 472, 176
-0.976854, 145, 305, 208, 368
-0.976923, 229, 65, 260, 192
-0.976925, 401, 225, 464, 288
-0.977001, 273, 177, 336, 240
-0.977132, 113, 169, 176, 232
-0.977294, 289, 177, 416, 240
-0.977371, 289, 273, 352, 336
-0.977414, 289, 65, 352, 128
-0.977419, 385, 129, 416, 256
-0.977442, 409, 145, 472, 208
-0.977528, 9, 137, 72, 200
-0.977546, 337, 241, 400, 368
-0.977586, 377, 33, 440, 288
-0.977589, 161, 161, 288, 224
-0.977622, 433, 1, 496, 256
-0.977634, 193, 113, 320, 176
-0.977653, 1, 1, 64, 256
-0.97775, 353, 145, 480, 208
-0.97778, 369, 97, 400, 160
-0.977868, 289, 225, 352, 288
-0.977911, 193, 185, 256, 248
-0.977939, 97, 137, 160, 200
-0.978007, 361, 129, 392, 256
-0.978027, 309, 193, 340, 256
-0.97805, 225, 33, 288, 288
-0.978141, 249, 113, 312, 176
-0.978151, 377, 57, 440, 120
-0.978279, 177, 273, 240, 336
-0.978315, 241, 65, 368, 128
-0.978323, 321, 17, 448, 144
-0.978338, 249, 65, 312, 128
-0.978437, 389, 81, 420, 144
-0.978501, 81, 193, 208, 256
-0.978593, 417, 25, 480, 88
-0.978622, 385, 241, 448, 368
-0.978643, 209, 17, 272, 144
-0.978672, 225, 201, 352, 264
-0.978747, 97, 129, 128, 256
-0.979063, 97, 1, 352, 128
-0.979135, 461, 49, 492, 176
-0.979153, 169, 209, 232, 272
-0.979231, 17, 153, 144, 216
-0.979388, 81, 137, 208, 200
-0.97942, 357, 169, 388, 232
-0.979451, 297, 129, 360, 375
-0.979453, 73, 97, 136, 352
-0.979453, 217, 113, 248, 240
-0.979478, 313, 257, 376, 320
-0.9799, 249, 33, 312, 288
-0.979934, 201, 113, 232, 240
-0.979949, 433, 17, 464, 144
-0.979987, 389, 121, 420, 184
-0.979989, 313, 241, 376, 368
-0.98008, 349, 81, 380, 208
-0.98008, 33, 1, 96, 128
-0.980087, 433, 129, 496, 375
-0.980094, 305, 33, 368, 288
-0.980097, 253, 137, 284, 200
-0.98016, 409, 1, 472, 256
-0.98029, 453, 129, 484, 192
-0.980338, 1, 241, 64, 304
-0.98035, 73, 1, 136, 128
-0.980362, 433, 193, 496, 320
-0.980388, 305, 201, 432, 264
-0.980456, 65, 265, 128, 328
-0.980567, 233, 225, 296, 352
-0.98071, 345, 33, 408, 160
-0.980814, 17, 193, 144, 320
-0.980884, 289, 145, 320, 272
-0.980953, 405, 257, 436, 320
-0.980955, 105, 49, 168, 176
-0.981032, 377, 17, 440, 144
-0.981032, 33, 129, 96, 375
-0.981139, 421, 17, 452, 144
-0.981142, 185, 297, 248, 360
-0.981144, 309, 129, 340, 256
-0.981223, 205, 65, 236, 192
-0.981302, 425, 233, 488, 296
-0.981362, 241, 65, 272, 192
-0.981364, 341, 145, 372, 272
-0.981385, 153, 129, 216, 192
-0.981449, 297, 193, 328, 320
-0.981476, 49, 129, 112, 192
-0.981516, 69, 265, 100, 328
-0.981531, 341, 201, 372, 264
-0.981544, 217, 209, 280, 272
-0.981593, 237, 73, 268, 136
-0.981595, 17, 105, 48, 168
-0.981651, 205, 161, 236, 288
-0.981655, 193, 241, 256, 304
-0.981688, 329, 129, 360, 192
-0.981798, 349, 137, 380, 200
-0.981815, 401, 121, 432, 184
-0.981847, 105, 49, 168, 112
-0.98189, 265, 273, 328, 336
-0.981904, 409, 129, 472, 375
-0.982052, 289, 153, 416, 216
-0.982067, 5, 105, 36, 168
-0.98219, 429, 121, 460, 184
-0.982206, 29, 1, 60, 128
-0.982224, 81, 225, 144, 288
-0.98223, 137, 169, 200, 232
-0.982321, 393, 1, 456, 375
-0.982326, 305, 89, 432, 152
-0.982341, 33, 17, 96, 80
-0.982389, 433, 1, 496, 375
-0.982401, 1, 265, 128, 328
-0.982486, 185, 129, 216, 256
-0.982543, 153, 241, 216, 368
-0.982608, 9, 57, 40, 120
-0.982644, 241, 1, 368, 128
-0.982759, 17, 1, 48, 128
-0.982779, 329, 217, 360, 280
-0.98278, 289, 169, 320, 232
-0.982799, 365, 129, 396, 192
-0.982802, 121, 1, 184, 128
-0.982805, 201, 49, 264, 112
-0.982838, 329, 65, 360, 192
-0.982866, 313, 281, 376, 344
-0.98287, 33, 1, 96, 256
-0.982964, 13, 49, 44, 176
-0.982974, 417, 113, 448, 176
-0.983008, 461, 97, 492, 224
-0.98311, 305, 257, 432, 320
-0.983148, 65, 9, 128, 72
-0.983186, 33, 153, 96, 216
-0.983225, 353, 89, 480, 152
-0.983243, 113, 145, 144, 272
-0.983284, 17, 25, 144, 88
-0.983294, 377, 257, 440, 320
-0.983322, 209, 241, 272, 368
-0.983357, 397, 113, 428, 240
-0.983456, 1, 1, 64, 375
-0.983472, 441, 89, 472, 152
-0.983509, 369, 265, 496, 328
-0.983531, 9, 97, 40, 224
-0.983539, 1, 241, 64, 368
-0.983542, 281, 33, 344, 288
-0.983595, 329, 145, 360, 272
-0.983602, 185, 81, 248, 144
-0.983603, 361, 129, 424, 375
-0.983634, 57, 241, 120, 304
-0.983708, 185, 129, 216, 192
-0.983746, 377, 153, 408, 216
-0.983749, 373, 129, 404, 256
-0.983775, 77, 145, 108, 272
-0.983777, 441, 65, 472, 128
-0.983952, 321, 193, 352, 320
-0.983973, 321, 105, 384, 168
-0.983976, 345, 49, 408, 112
-0.983991, 273, 97, 336, 160
-0.983993, 1, 97, 64, 352
-0.984017, 9, 81, 40, 144
-0.984076, 49, 97, 112, 224
-0.98408, 409, 161, 472, 288
-0.984147, 41, 1, 104, 375
-0.984162, 305, 233, 432, 296
-0.984204, 325, 193, 356, 256
-0.984272, 309, 177, 340, 304
-0.984276, 177, 1, 304, 128
-0.984303, 65, 17, 192, 80
-0.984307, 461, 81, 492, 144
-0.98433, 241, 97, 368, 160
-0.984371, 341, 209, 372, 336
-0.984379, 57, 289, 120, 352
-0.98451, 177, 105, 240, 168
-0.984561, 241, 1, 272, 128
-0.984641, 309, 145, 340, 208
-0.98467, 445, 113, 476, 240
-0.984701, 225, 273, 352, 336
-0.984729, 361, 241, 424, 368
-0.984823, 297, 89, 360, 152
-0.984826, 1, 233, 128, 296
-0.984871, 441, 33, 472, 96
-0.98495, 221, 121, 252, 184
-0.984974, 309, 121, 340, 184
-0.984987, 105, 17, 168, 80
-0.985015, 401, 201, 464, 264
-0.985101, 65, 257, 192, 320
-0.985108, 145, 281, 208, 344
-0.985166, 161, 185, 288, 248
-0.985218, 65, 41, 192, 104
-0.985227, 145, 209, 272, 272
-0.985235, 253, 113, 284, 176
-0.985426, 145, 201, 208, 264
-0.985508, 233, 145, 264, 272
-0.985514, 65, 1, 128, 256
-0.98553, 161, 81, 288, 144
-0.985553, 425, 41, 456, 104
-0.98557, 441, 209, 472, 336
-0.985586, 29, 113, 60, 176
-0.985621, 233, 113, 264, 176
-0.985651, 161, 145, 192, 208
-0.98569, 25, 81, 88, 144
-0.985724, 177, 33, 240, 288
-0.985764, 21, 97, 52, 224
-0.985792, 297, 273, 328, 336
-0.985819, 217, 177, 280, 240
-0.985849, 365, 193, 396, 256
-0.98585, 337, 217, 400, 280
-0.985853, 193, 1, 256, 375
-0.985857, 377, 121, 408, 184
-0.985864, 253, 65, 284, 192
-0.985897, 345, 265, 408, 328
-0.985929, 145, 113, 272, 176
-0.985939, 257, 129, 320, 375
-0.985951, 289, 249, 352, 312
-0.986003, 109, 129, 140, 192
-0.986056, 277, 145, 308, 208
-0.98606, 357, 89, 388, 152
-0.986131, 97, 201, 128, 264
-0.986158, 97, 153, 128, 216
-0.986175, 409, 89, 440, 152
-0.986177, 305, 1, 368, 375
-0.986196, 241, 1, 304, 128
-0.986223, 217, 65, 248, 192
-0.986283, 301, 241, 332, 368
-0.986286, 9, 305, 72, 368
-0.986303, 405, 209, 436, 336
-0.986303, 97, 129, 160, 375
-0.986305, 225, 1, 288, 375
-0.98633, 201, 145, 232, 208
-0.986354, 145, 41, 272, 104
-0.986408, 321, 49, 448, 112
-0.986467, 425, 113, 456, 240
-0.986493, 97, 193, 128, 320
-0.986518, 177, 193, 208, 320
-0.986533, 17, 129, 48, 192
-0.98654, 209, 289, 272, 352
-0.986563, 409, 113, 440, 240
-0.986661, 77, 233, 108, 296
-0.986676, 217, 209, 248, 336
-0.986709, 97, 1, 160, 375
-0.986747, 5, 1, 36, 128
-0.986784, 125, 129, 156, 256
-0.986819, 353, 1, 416, 375
-0.986869, 145, 273, 272, 336
-0.986875, 389, 209, 420, 272
-0.986881, 25, 17, 56, 80
-0.986895, 221, 81, 252, 144
-0.986895, 41, 265, 72, 328
-0.986922, 241, 89, 304, 152
-0.986957, 381, 193, 412, 320
-0.986972, 73, 121, 136, 184
-0.987017, 73, 81, 136, 208
-0.987062, 289, 281, 416, 344
-0.987072, 213, 145, 244, 208
-0.987103, 325, 65, 356, 128
-0.987141, 17, 209, 144, 272
-0.987233, 353, 113, 384, 176
-0.987258, 17, 129, 144, 192
-0.987264, 57, 265, 88, 328
-0.987271, 137, 1, 200, 375
-0.987331, 449, 17, 480, 144
-0.987347, 169, 233, 232, 296
-0.987402, 441, 145, 472, 208
-0.987405, 257, 65, 288, 128
-0.987405, 317, 217, 348, 280
-0.987414, 65, 233, 192, 296
-0.98746, 253, 113, 284, 240
-0.987476, 361, 177, 424, 240
-0.987496, 129, 57, 192, 120
-0.987524, 81, 281, 208, 344
-0.987527, 289, 129, 320, 192
-0.98754, 297, 17, 360, 144
-0.987592, 105, 33, 168, 288
-0.987615, 385, 129, 448, 375
-0.987625, 237, 153, 268, 216
-0.987625, 369, 177, 400, 304
-0.987716, 297, 201, 328, 264
-0.987751, 337, 289, 464, 352
-0.987761, 361, 289, 424, 352
-0.987774, 181, 153, 212, 216
-0.987865, 145, 297, 272, 360
-0.98795, 1, 89, 128, 152
-0.987967, 225, 209, 256, 272
-0.988005, 201, 1, 264, 256
-0.988034, 417, 265, 448, 328
-0.988082, 377, 225, 440, 288
-0.988123, 153, 129, 216, 375
-0.988153, 281, 297, 344, 360
-0.988224, 425, 81, 456, 144
-0.988286, 173, 273, 204, 336
-0.98829, 181, 209, 212, 272
-0.988311, 85, 137, 116, 200
-0.988319, 457, 225, 488, 352
-0.988379, 21, 265, 52, 328
-0.988431, 81, 265, 112, 328
-0.988447, 169, 177, 232, 240
-0.988512, 237, 193, 268, 320
-0.988512, 377, 193, 408, 256
-0.988549, 265, 113, 296, 176
-0.988597, 465, 129, 496, 192
-0.988636, 225, 265, 288, 328
-0.988667, 209, 81, 240, 144
-0.988685, 185, 1, 248, 128
-0.988702, 341, 97, 372, 160
-0.988765, 97, 113, 160, 176
-0.988773, 369, 41, 496, 104
-0.988795, 97, 1, 160, 128
-0.988802, 49, 81, 176, 208
-0.988853, 389, 153, 420, 216
-0.988878, 81, 113, 208, 176
-0.988925, 329, 1, 392, 256
-0.988929, 57, 217, 120, 280
-0.988932, 153, 257, 216, 320
-0.988985, 337, 177, 368, 240
-0.989007, 393, 281, 456, 344
-0.989046, 121, 161, 152, 224
-0.989058, 1, 289, 128, 352
-0.989073, 233, 49, 264, 112
-0.989102, 425, 193, 456, 320
-0.989104, 285, 241, 316, 368
-0.989113, 429, 145, 460, 208
-0.989144, 173, 313, 204, 375
-0.989144, 129, 121, 192, 184
-0.989155, 401, 161, 432, 288
-0.989288, 153, 33, 216, 288
-0.989307, 353, 209, 480, 272
-0.989308, 133, 1, 164, 128
-0.989356, 25, 49, 56, 176
-0.989404, 225, 129, 288, 375
-0.98941, 45, 129, 76, 256
-0.989494, 353, 209, 384, 272
-0.989515, 393, 33, 456, 96
-0.989604, 225, 145, 256, 208
-0.989628, 385, 177, 448, 240
-0.989642, 133, 49, 164, 112
-0.989653, 409, 17, 440, 144
-0.989699, 89, 177, 152, 240
-0.989699, 109, 185, 140, 248
-0.989709, 125, 137, 156, 200
-0.989712, 409, 49, 440, 112
-0.989719, 265, 145, 296, 208
-0.989724, 297, 201, 360, 232
-0.989808, 161, 233, 288, 296
-0.989813, 377, 73, 408, 136
-0.989815, 313, 49, 344, 176
-0.989824, 353, 177, 480, 240
-0.989863, 277, 113, 308, 176
-0.989865, 361, 157, 424, 188
-0.989911, 197, 209, 228, 336
-0.989921, 9, 41, 72, 104
-0.989923, 85, 209, 116, 336
-0.989928, 337, 289, 400, 352
-0.989932, 193, 57, 320, 120
-0.989952, 241, 297, 368, 360
-0.989952, 281, 1, 344, 375
-0.989955, 345, 125, 408, 156
-0.989975, 249, 157, 312, 188
-0.989989, 249, 1, 312, 375
-0.989991, 465, 257, 496, 320
-0.990064, 265, 225, 328, 288
-0.990074, 469, 225, 500, 352
-0.990083, 409, 125, 472, 156
-0.990116, 345, 273, 376, 336
-0.990138, 305, 133, 368, 164
-0.990159, 329, 137, 392, 168
-0.990161, 433, 145, 496, 176
-0.990167, 13, 9, 44, 72
-0.99024, 5, 137, 36, 200
-0.990257, 377, 77, 440, 108
-0.990269, 201, 121, 264, 152
-0.990291, 201, 145, 264, 176
-0.990302, 177, 161, 240, 192
-0.990302, 249, 41, 312, 104
-0.990313, 1, 121, 500, 184
-0.990317, 313, 305, 376, 368
-0.990321, 257, 305, 320, 368
-0.990326, 113, 65, 240, 128
-0.990326, 377, 89, 440, 120
-0.990342, 65, 169, 128, 232
-0.990343, 353, 241, 480, 304
-0.990344, 369, 125, 432, 156
-0.99036, 137, 149, 200, 180
-0.990398, 81, 41, 144, 104
-0.990399, 33, 97, 64, 224
-0.990418, 353, 201, 416, 232
-0.990469, 305, 153, 368, 184
-0.990497, 161, 305, 192, 368
-0.990528, 9, 265, 40, 328
-0.990529, 109, 97, 140, 224
-0.990561, 1, 65, 128, 128
-0.990579, 129, 161, 192, 192
-0.990611, 445, 265, 476, 328
-0.990637, 177, 241, 208, 368
-0.990638, 61, 241, 92, 304
-0.990657, 321, 121, 384, 152
-0.990674, 329, 181, 392, 212
-0.990688, 49, 193, 112, 256
-0.9907, 297, 213, 360, 244
-0.990716, 89, 149, 152, 180
-0.990717, 225, 225, 352, 288
-0.990727, 201, 161, 264, 192
-0.990777, 469, 145, 500, 272
-0.990791, 1, 65, 64, 96
-0.990793, 205, 185, 236, 248
-0.990796, 289, 173, 352, 204
-0.990797, 313, 225, 376, 256
-0.990809, 193, 297, 320, 360
-0.990829, 145, 25, 176, 88
-0.99083, 337, 153, 368, 216
-0.990847, 401, 149, 464, 180
-0.990856, 409, 57, 472, 88
-0.990869, 281, 193, 312, 320
-0.99087, 21, 241, 52, 304
-0.990875, 97, 137, 352, 200
-0.990884, 293, 49, 324, 176
-0.990923, 21, 57, 52, 120
-0.990927, 173, 145, 204, 272
-0.990933, 329, 149, 392, 180
-0.990944, 177, 137, 240, 168
-0.99096, 241, 145, 304, 176
-0.990962, 337, 77, 400, 108
-0.990966, 225, 249, 352, 312
-0.990967, 69, 241, 100, 368
-0.990967, 9, 101, 72, 132
-0.99097, 273, 149, 336, 180
-0.990972, 425, 69, 488, 100
-0.990973, 281, 185, 344, 216
-0.990988, 265, 129, 328, 160
-0.991002, 193, 193, 448, 256
-0.991023, 429, 257, 460, 320
-0.991026, 249, 173, 312, 204
-0.991036, 329, 169, 392, 200
-0.99107, 113, 17, 240, 80
-0.991075, 329, 213, 392, 244
-0.991076, 353, 137, 416, 168
-0.991081, 433, 129, 496, 160
-0.99109, 225, 121, 288, 152
-0.991104, 249, 185, 312, 216
-0.991104, 237, 201, 268, 264
-0.991114, 301, 169, 332, 232
-0.991147, 65, 145, 96, 272
-0.991205, 297, 69, 360, 100
-0.991208, 361, 213, 424, 244
-0.991252, 97, 201, 160, 232
-0.991276, 225, 69, 288, 100
-0.991288, 353, 241, 384, 368
-0.991294, 401, 77, 464, 108
-0.991303, 433, 117, 496, 148
-0.991306, 225, 133, 288, 164
-0.991311, 177, 149, 240, 180
-0.991315, 1, 1, 32, 64
-0.991332, 185, 65, 216, 192
-0.991348, 273, 201, 336, 232
-0.991377, 17, 1, 144, 64
-0.991383, 25, 21, 88, 52
-0.991385, 65, 1, 128, 375
-0.991385, 337, 89, 400, 120
-0.99139, 169, 173, 232, 204
-0.991401, 133, 25, 164, 88
-0.991409, 161, 1, 224, 375
-0.991413, 309, 273, 340, 336
-0.991427, 401, 233, 464, 264
-0.991437, 209, 177, 272, 208
-0.991458, 249, 69, 312, 100
-0.991483, 177, 125, 240, 156
-0.991495, 193, 153, 448, 216
-0.991497, 409, 233, 440, 296
-0.991504, 33, 269, 96, 300
-0.991513, 409, 153, 440, 216
-0.991539, 9, 113, 72, 144
-0.991544, 97, 161, 352, 224
-0.991551, 193, 217, 256, 248
-0.991565, 225, 85, 288, 116
-0.991568, 257, 117, 320, 148
-0.991574, 389, 57, 420, 120
-0.991576, 1, 13, 64, 44
-0.991589, 345, 113, 408, 144
-0.991589, 97, 49, 160, 80
-0.991599, 385, 65, 448, 96
-0.991606, 65, 153, 96, 216
-0.991607, 321, 153, 352, 216
-0.991629, 241, 41, 368, 104
-0.991631, 393, 161, 456, 192
-0.991634, 289, 121, 352, 152
-0.991641, 217, 109, 280, 140
-0.991651, 289, 225, 352, 256
-0.991652, 417, 45, 480, 76
-0.991657, 297, 225, 328, 288
-0.991682, 89, 213, 152, 244
-0.991716, 49, 141, 112, 172
-0.991718, 201, 133, 264, 164
-0.991721, 401, 265, 464, 296
-0.991722, 305, 189, 368, 220
-0.991727, 9, 141, 72, 172
-0.99173, 201, 69, 264, 100
-0.991739, 425, 265, 488, 296
-0.991745, 277, 113, 308, 240
-0.991751, 329, 193, 392, 224
-0.991769, 9, 273, 72, 304
-0.991778, 153, 317, 216, 348
-0.991781, 9, 85, 72, 116
-0.991784, 37, 17, 68, 80
-0.991791, 241, 197, 304, 228
-0.991793, 129, 241, 192, 368
-0.991796, 333, 281, 364, 344
-0.991811, 369, 113, 432, 144
-0.991817, 273, 213, 336, 244
-0.991822, 329, 1, 392, 375
-0.99184, 433, 97, 496, 128
-0.991854, 113, 149, 176, 180
-0.991869, 225, 161, 288, 192
-0.991875, 29, 81, 60, 144
-0.991877, 193, 129, 448, 192
-0.991881, 169, 293, 232, 324
-0.991883, 177, 229, 240, 260
-0.991888, 305, 85, 368, 116
-0.991891, 145, 1, 176, 128
-0.991902, 129, 177, 192, 304
-0.991905, 129, 33, 192, 288
-0.991914, 329, 105, 360, 168
-0.991915, 433, 57, 496, 88
-0.991922, 281, 161, 344, 192
-0.991936, 409, 113, 472, 144
-0.991939, 125, 49, 156, 176
-0.991963, 377, 145, 440, 176
-0.991984, 273, 69, 336, 100
-0.991984, 225, 65, 480, 128
-0.991987, 269, 65, 300, 128
-0.99199, 433, 253, 496, 284
-0.992002, 177, 193, 240, 224
-0.992013, 433, 157, 496, 188
-0.992013, 57, 153, 120, 184
-0.992016, 9, 153, 72, 184
-0.992017, 409, 89, 472, 120
-0.992019, 49, 193, 112, 320
-0.992028, 341, 225, 372, 288
-0.99203, 401, 245, 464, 276
-0.992053, 113, 33, 144, 160
-0.992073, 57, 29, 120, 60
-0.992074, 121, 61, 184, 92
-0.992076, 33, 241, 64, 304
-0.992096, 65, 17, 128, 48
-0.992116, 169, 169, 200, 232
-0.992117, 33, 185, 160, 248
-0.99212, 193, 285, 256, 316
-0.992121, 169, 213, 232, 244
-0.99214, 289, 97, 320, 224
-0.992166, 193, 241, 256, 272
-0.992166, 57, 261, 120, 292
-0.99218, 129, 81, 192, 208
-0.99218, 337, 281, 400, 312
-0.99219, 217, 217, 280, 248
-0.992209, 105, 165, 168, 196
-0.992216, 409, 137, 472, 168
-0.992223, 97, 137, 160, 168
-0.992229, 33, 153, 96, 184
-0.992236, 1, 49, 32, 176
-0.992245, 153, 137, 216, 168
-0.992261, 185, 81, 248, 112
-0.992277, 297, 265, 360, 296
-0.992278, 345, 101, 408, 132
-0.992279, 33, 9, 96, 40
-0.992283, 57, 273, 120, 304
-0.992284, 113, 185, 176, 216
-0.99229, 305, 277, 368, 308
-0.992299, 313, 237, 376, 268
-0.992304, 73, 137, 136, 168
-0.992324, 41, 1, 72, 128
-0.992371, 97, 305, 224, 368
-0.992415, 205, 121, 236, 152
-0.992451, 389, 77, 420, 108
-0.992458, 13, 101, 44, 132
-0.992488, 369, 17, 496, 80
-0.992518, 461, 141, 492, 172
-0.992531, 353, 1, 416, 256
-0.992544, 225, 97, 480, 160
-0.992578, 65, 193, 320, 256
-0.992588, 9, 57, 40, 88
-0.992596, 441, 125, 472, 156
-0.992611, 333, 137, 364, 168
-0.992612, 341, 213, 372, 244
-0.992657, 221, 161, 252, 288
-0.992668, 441, 145, 472, 176
-0.99267, 353, 133, 384, 164
-0.99267, 233, 241, 264, 368
-0.992683, 353, 193, 384, 320
-0.992721, 365, 137, 396, 168
-0.992729, 237, 73, 268, 104
-0.99273, 309, 201, 340, 232
-0.992741, 249, 161, 280, 288
-0.992761, 461, 57, 492, 88
-0.992794, 365, 121, 396, 152
-0.992796, 313, 125, 344, 156
-0.992804, 257, 137, 288, 168
-0.992815, 365, 149, 396, 180
-0.99284, 453, 129, 484, 160
-0.99284, 233, 129, 264, 160
-0.992842, 381, 125, 412, 156
-0.992858, 341, 125, 372, 156
-0.992861, 133, 49, 164, 80
-0.992864, 309, 149, 340, 180
-0.99287, 329, 217, 360, 248
-0.992877, 253, 157, 284, 188
-0.992878, 209, 137, 240, 168
-0.992885, 25, 17, 56, 48
-0.992889, 329, 197, 360, 228
-0.992903, 373, 161, 404, 192
-0.992921, 17, 137, 48, 168
-0.992922, 385, 205, 416, 236
-0.992926, 289, 133, 320, 164
-0.99293, 37, 21, 68, 52
-0.99294, 253, 125, 284, 156
-0.992942, 441, 65, 472, 96
-0.992951, 189, 153, 220, 184
-0.992953, 145, 149, 176, 180
-0.992954, 321, 141, 352, 172
-0.99296, 277, 141, 308, 172
-0.992963, 353, 169, 384, 200
-0.992966, 277, 129, 308, 160
-0.992983, 265, 129, 296, 256
-0.992986, 161, 145, 192, 176
-0.992991, 269, 49, 300, 176
-0.992997, 229, 117, 260, 148
-0.992998, 265, 121, 296, 152
-0.993004, 125, 165, 156, 196
-0.993008, 441, 49, 472, 80
-0.99301, 353, 121, 384, 152
-0.993011, 189, 133, 220, 164
-0.993015, 353, 145, 384, 176
-0.993016, 225, 149, 256, 180
-0.993018, 421, 149, 452, 180
-0.993019, 237, 61, 268, 92
-0.993024, 241, 141, 272, 172
-0.993029, 101, 201, 132, 232
-0.99303, 429, 125, 460, 156
-0.993036, 9, 117, 40, 148
-0.993038, 357, 93, 388, 124
-0.993049, 389, 149, 420, 180
-0.99305, 297, 205, 328, 236
-0.993056, 329, 125, 360, 156
-0.993057, 317, 241, 348, 368
-0.993061, 5, 273, 36, 304
-0.993061, 13, 13, 44, 44
-0.993062, 1, 9, 32, 40
-0.993064, 417, 117, 448, 148
-0.993068, 461, 117, 492, 148
-0.99307, 337, 149, 368, 180
-0.993072, 93, 149, 124, 180
-0.993074, 401, 149, 432, 180
-0.993076, 185, 213, 216, 244
-0.99308, 461, 1, 492, 128
-0.993081, 5, 133, 36, 164
-0.993082, 69, 265, 100, 296
-0.993087, 289, 185, 320, 216
-0.99309, 289, 145, 320, 176
-0.993096, 209, 149, 240, 180
-0.9931, 373, 197, 404, 228
-0.9931, 421, 77, 452, 108
-0.993102, 229, 89, 260, 120
-0.993105, 217, 125, 248, 156
-0.993105, 449, 265, 480, 296
-0.993109, 173, 141, 204, 172
-0.99312, 317, 225, 348, 256
-0.993126, 17, 149, 48, 180
-0.993129, 137, 161, 168, 192
-0.993132, 313, 189, 344, 220
-0.993134, 433, 157, 464, 188
-0.993137, 409, 265, 440, 296
-0.993142, 49, 25, 80, 56
-0.993143, 13, 69, 44, 100
-0.993146, 289, 161, 320, 192
-0.993146, 421, 61, 452, 92
-0.993149, 69, 29, 100, 60
-0.993154, 209, 161, 240, 192
-0.993155, 317, 213, 348, 244
-0.993157, 405, 69, 436, 100
-0.993159, 149, 61, 180, 92
-0.99316, 457, 69, 488, 100
-0.993161, 161, 157, 192, 188
-0.993167, 433, 37, 464, 68
-0.993168, 409, 233, 440, 264
-0.993171, 269, 157, 300, 188
-0.993174, 461, 89, 492, 120
-0.993175, 93, 217, 124, 248
-0.993185, 345, 77, 376, 108
-0.993187, 469, 129, 500, 160
-0.993188, 389, 89, 420, 120
-0.99319, 445, 157, 476, 188
-0.993191, 373, 81, 404, 112
-0.993192, 405, 125, 436, 156
-0.993194, 325, 69, 356, 100
-0.993201, 277, 117, 308, 148
-0.993202, 17, 273, 48, 304
-0.993204, 249, 69, 280, 100
-0.993205, 221, 137, 252, 168
-0.993205, 225, 217, 256, 248
-0.993206, 441, 113, 472, 144
-0.99321, 297, 281, 328, 312
-0.99321, 405, 161, 436, 192
-0.993212, 133, 149, 164, 180
-0.993213, 421, 41, 452, 72
-0.993215, 281, 173, 312, 204
-0.993217, 341, 285, 372, 316
-0.993218, 285, 201, 316, 232
-0.993222, 5, 145, 36, 176
-0.993226, 221, 17, 252, 144
-0.993228, 221, 73, 252, 104
-0.99323, 469, 265, 500, 296
-0.993239, 13, 89, 44, 120
-0.993239, 441, 77, 472, 108
-0.99324, 109, 49, 140, 80
-0.993241, 389, 161, 420, 192
-0.993355, 1, 201, 500, 264
-0.993356, 425, 241, 456, 368
-0.99345, 241, 129, 368, 160
-0.993457, 369, 313, 496, 375
-0.993512, 33, 241, 64, 368
-0.993588, 289, 305, 416, 368
-0.993593, 1, 97, 500, 160
-0.99366, 281, 49, 312, 176
-0.993677, 329, 241, 360, 368
-0.993771, 289, 201, 416, 232
-0.993802, 1, 73, 500, 136
-0.993838, 321, 17, 384, 144
-0.9939, 1, 177, 500, 240
-0.993905, 353, 129, 480, 160
-0.993946, 457, 145, 488, 272
-0.994114, 53, 241, 84, 368
-0.994139, 25, 161, 88, 288
-0.994236, 113, 233, 240, 296
-0.994311, 353, 157, 480, 188
-0.994326, 225, 217, 480, 280
-0.994412, 1, 145, 500, 208
-0.994461, 165, 49, 196, 176
-0.994529, 1, 153, 256, 216
-0.994542, 393, 209, 424, 336
-0.994556, 465, 97, 480, 160
-0.994672, 33, 265, 288, 328
-0.994702, 363, 137, 378, 200
-0.994733, 455, 121, 470, 184
-0.994739, 65, 97, 96, 224
-0.994773, 129, 217, 384, 280
-0.994775, 365, 33, 396, 160
-0.99485, 161, 161, 288, 192
-0.994861, 161, 177, 192, 304
-0.994866, 33, 313, 160, 375
-0.99491, 209, 141, 336, 172
-0.994933, 97, 81, 128, 208
-0.994956, 33, 217, 288, 280
-0.994963, 193, 125, 320, 156
-0.994971, 241, 157, 368, 188
-0.994973, 273, 145, 400, 176
-0.995028, 217, 113, 232, 176
-0.995039, 209, 69, 336, 100
-0.995054, 97, 165, 224, 196
-0.995115, 97, 201, 224, 232
-0.99513, 413, 161, 444, 288
-0.995161, 129, 65, 384, 128
-0.995216, 457, 97, 472, 160
-0.995251, 241, 49, 256, 112
-0.995258, 161, 113, 192, 240
-0.995266, 129, 129, 192, 375
-0.995343, 1, 49, 256, 112
-0.995353, 145, 145, 272, 176
-0.995366, 273, 169, 400, 200
-0.995414, 445, 161, 476, 288
-0.995422, 447, 113, 462, 176
-0.995449, 225, 241, 480, 304
-0.995463, 209, 113, 224, 176
-0.995481, 193, 273, 448, 336
-0.995489, 473, 49, 488, 112
-0.995497, 33, 153, 160, 184
-0.995504, 289, 133, 416, 164
-0.995505, 21, 97, 36, 160
-0.995509, 395, 121, 410, 184
-0.995521, 385, 89, 400, 152
-0.995535, 403, 121, 418, 184
-0.995535, 225, 201, 352, 232
-0.995556, 97, 113, 352, 176
-0.99558, 165, 241, 196, 368
-0.995581, 13, 145, 44, 272
-0.995613, 411, 257, 426, 320
-0.995615, 31, 105, 46, 168
-0.995645, 141, 49, 172, 176
-0.995663, 29, 145, 60, 272
-0.995692, 289, 121, 416, 152
-0.995704, 79, 265, 94, 328
-0.995728, 1, 225, 500, 288
-0.995744, 389, 113, 404, 176
-0.995748, 9, 105, 24, 168
-0.995758, 335, 193, 350, 256
-0.995761, 311, 193, 326, 256
-0.995767, 273, 1, 336, 128
-0.995772, 439, 121, 454, 184
-0.995773, 353, 141, 480, 172
-0.995777, 11, 57, 26, 120
-0.995779, 253, 121, 268, 184
-0.99581, 289, 189, 416, 220
-0.995822, 1, 129, 256, 192
-0.995839, 161, 173, 288, 204
-0.995848, 65, 21, 192, 52
-0.99585, 77, 97, 108, 224
-0.995867, 225, 129, 240, 192
-0.995881, 369, 145, 384, 208
-0.995889, 33, 241, 288, 304
-0.995891, 353, 117, 480, 148
-0.995891, 215, 145, 230, 208
-0.995902, 81, 141, 208, 172
-0.995943, 369, 85, 496, 116
-0.995943, 181, 161, 196, 224
-0.995945, 97, 181, 224, 212
-0.995951, 409, 121, 424, 184
-0.995991, 435, 41, 450, 104
-0.995995, 397, 17, 428, 144
-0.995998, 379, 153, 394, 216
-0.996008, 391, 73, 406, 136
-0.996016, 17, 137, 144, 168
-0.996029, 463, 49, 478, 112
-0.996052, 245, 129, 260, 192
-0.996067, 209, 213, 336, 244
-0.996117, 475, 105, 490, 168
-0.99614, 161, 189, 288, 220
-0.996155, 357, 129, 372, 192
-0.996165, 225, 181, 352, 212
-0.996165, 29, 65, 44, 128
-0.996178, 417, 121, 432, 184
-0.996224, 485, 121, 500, 184
-0.996268, 249, 161, 264, 224
-0.996271, 323, 193, 338, 256
-0.996272, 461, 121, 476, 184
-0.996274, 209, 169, 336, 200
-0.996284, 1, 273, 128, 304
-0.996285, 13, 1, 44, 256
-0.996323, 371, 169, 386, 232
-0.996325, 381, 193, 396, 256
-0.996327, 137, 129, 168, 256
-0.996328, 253, 65, 268, 128
-0.996332, 443, 49, 458, 112
-0.996352, 401, 209, 416, 272
-0.996365, 325, 17, 356, 144
-0.996377, 305, 153, 320, 216
-0.99638, 85, 249, 100, 312
-0.996415, 193, 297, 448, 360
-0.996417, 361, 161, 376, 224
-0.996422, 31, 9, 46, 72
-0.996432, 425, 257, 440, 320
-0.996433, 263, 113, 278, 176
-0.996436, 433, 113, 448, 176
-0.996439, 379, 97, 394, 160
-0.996443, 481, 89, 496, 152
-0.996449, 143, 25, 158, 88
-0.996449, 193, 113, 320, 144
-0.996457, 73, 1, 104, 128
-0.996459, 353, 201, 368, 264
-0.996461, 333, 129, 348, 192
-0.996466, 225, 41, 480, 104
-0.996479, 427, 113, 442, 176
-0.996484, 343, 129, 358, 192
-0.996488, 91, 265, 106, 328
-0.996489, 181, 137, 196, 200
-0.9965, 479, 57, 494, 120
-0.996504, 333, 217, 348, 280
-0.996511, 449, 1, 480, 256
-0.99652, 225, 33, 256, 288
-0.996522, 397, 73, 412, 136
-0.996527, 203, 113, 218, 176
-0.996536, 365, 97, 396, 352
-0.996539, 419, 257, 434, 320
-0.99654, 21, 241, 52, 368
-0.996551, 241, 117, 368, 148
-0.996556, 311, 145, 326, 208
-0.996558, 123, 169, 138, 232
-0.996561, 349, 129, 364, 192
-0.996564, 73, 265, 88, 328
-0.996568, 213, 97, 244, 352
-0.99657, 173, 145, 188, 208
-0.996577, 23, 57, 38, 120
-0.996577, 209, 81, 336, 112
-0.99658, 225, 81, 240, 144
-0.996592, 113, 193, 128, 256
-0.996595, 81, 153, 208, 184
-0.996608, 283, 145, 298, 208
-0.996612, 247, 81, 262, 144
-0.996619, 341, 33, 372, 160
-0.996629, 129, 73, 256, 104
-0.99664, 375, 129, 390, 192
-0.996656, 485, 49, 500, 112
-0.996656, 321, 221, 448, 252
-0.996672, 369, 121, 384, 184
-0.996678, 399, 153, 414, 216
-0.99668, 289, 157, 416, 188
-0.996682, 329, 193, 344, 256
-0.996688, 369, 73, 496, 104
-0.996696, 461, 1, 492, 256
-0.9967, 93, 217, 108, 280
-0.996708, 337, 289, 464, 320
-0.996713, 193, 33, 320, 96
-0.996723, 327, 129, 342, 192
-0.996724, 145, 213, 272, 244
-0.996725, 5, 1, 20, 64
-0.996729, 317, 193, 332, 256
-0.99673, 275, 129, 290, 192
-0.996731, 65, 37, 192, 68
-0.996734, 1, 33, 500, 96
-0.996736, 341, 193, 356, 256
-0.996736, 339, 65, 354, 128
-0.996738, 321, 257, 448, 288
-0.996744, 347, 209, 362, 272
-0.996754, 87, 225, 102, 288
-0.996762, 387, 153, 402, 216
-0.996763, 409, 89, 424, 152
-0.996766, 65, 265, 80, 328
-0.996773, 467, 121, 482, 184
-0.996773, 305, 209, 320, 272
-0.996787, 185, 129, 216, 375
-0.996793, 51, 265, 66, 328
-0.996802, 369, 269, 496, 300
-0.996802, 321, 81, 448, 112
-0.996802, 297, 129, 312, 192
-0.996806, 289, 281, 416, 312
-0.996813, 309, 273, 324, 336
-0.996813, 385, 17, 416, 144
-0.996814, 257, 69, 384, 100
-0.99682, 81, 213, 208, 244
-0.996828, 293, 153, 308, 216
-0.996866, 17, 37, 144, 68
-0.996869, 59, 265, 74, 328
-0.996871, 259, 153, 274, 216
-0.996878, 123, 129, 138, 192
-0.996882, 441, 81, 456, 144
-0.996893, 301, 177, 316, 240
-0.996898, 21, 121, 36, 184
-0.996899, 109, 193, 140, 320
-0.996901, 383, 121, 398, 184
-0.996909, 29, 265, 44, 328
-0.996913, 33, 9, 160, 40
-0.996921, 353, 65, 384, 320
-0.996925, 17, 49, 32, 112
-0.996942, 5, 241, 36, 368
-0.996946, 433, 1, 464, 256
-0.996949, 37, 17, 52, 80
-0.996952, 15, 81, 30, 144
-0.996964, 269, 177, 300, 304
-0.996965, 403, 73, 418, 136
-0.996966, 453, 145, 468, 208
-0.996973, 145, 133, 272, 164
-0.996976, 373, 97, 388, 160
-0.996976, 201, 137, 216, 200
-0.996985, 439, 257, 454, 320
-0.996989, 131, 145, 146, 208
-0.996998, 353, 273, 368, 336
-0.997008, 187, 137, 202, 200
-0.997019, 231, 113, 246, 176
-0.997019, 45, 265, 60, 328
-0.997034, 303, 273, 318, 336
-0.997036, 367, 89, 382, 152
-0.997039, 33, 297, 288, 360
-0.99704, 177, 201, 304, 232
-0.997041, 85, 137, 100, 200
-0.997041, 479, 129, 494, 192
-0.997047, 443, 145, 458, 208
-0.997053, 305, 25, 432, 88
-0.997059, 289, 129, 304, 192
-0.997062, 161, 85, 288, 116
-0.997063, 421, 1, 452, 256
-0.997081, 457, 57, 472, 120
-0.997084, 103, 137, 118, 200
-0.997085, 9, 81, 24, 144
-0.997101, 129, 241, 384, 304
-0.997127, 197, 129, 228, 375
-0.997151, 377, 65, 408, 320
-0.997161, 93, 129, 124, 375
-0.997188, 97, 1, 128, 128
-0.997212, 237, 33, 268, 288
-0.997245, 305, 245, 432, 276
-0.997248, 261, 241, 292, 368
-0.997262, 65, 53, 192, 84
-0.997267, 369, 57, 496, 88
-0.99727, 305, 233, 432, 264
-0.997359, 289, 33, 320, 288
-0.997375, 389, 65, 420, 320
-0.997382, 321, 69, 448, 100
-0.997391, 337, 201, 464, 232
-0.997403, 369, 233, 496, 264
-0.997404, 209, 97, 336, 128
-0.997412, 273, 81, 400, 112
-0.997439, 65, 261, 192, 292
-0.99745, 353, 189, 480, 220
-0.997465, 309, 33, 340, 288
-0.997472, 113, 37, 240, 68
-0.997472, 1, 249, 500, 312
-0.997477, 253, 33, 284, 288
-0.997483, 369, 253, 496, 284
-0.997495, 305, 129, 336, 375
-0.997505, 1, 93, 128, 124
-0.997506, 1, 237, 128, 268
-0.997522, 353, 205, 368, 236
-0.997529, 145, 121, 272, 152
-0.997533, 461, 129, 492, 375
-0.997538, 289, 109, 416, 140
-0.997557, 257, 213, 384, 244
-0.997574, 455, 129, 470, 160
-0.997593, 145, 49, 272, 80
-0.997593, 449, 129, 480, 375
-0.9976, 321, 269, 448, 300
-0.997608, 145, 285, 272, 316
-0.997613, 1, 177, 64, 304
-0.997631, 289, 93, 416, 124
-0.997646, 321, 177, 448, 208
-0.997658, 73, 129, 104, 375
-0.99766, 293, 129, 324, 375
-0.997678, 161, 225, 288, 256
-0.997686, 185, 33, 216, 288
-0.997689, 105, 129, 136, 375
-0.997702, 145, 301, 272, 332
-0.997742, 1, 261, 128, 292
-0.997753, 225, 225, 352, 256
-0.997757, 1, 73, 128, 104
-0.997783, 97, 89, 224, 152
-0.997785, 453, 145, 468, 176
-0.997792, 33, 1, 64, 256
-0.997815, 205, 121, 220, 152
-0.997825, 65, 89, 320, 152
-0.997846, 193, 297, 320, 328
-0.997854, 219, 121, 234, 152
-0.99786, 161, 61, 288, 92
-0.997862, 17, 49, 144, 80
-0.99787, 241, 49, 256, 80
-0.997874, 477, 57, 492, 88
-0.997877, 41, 21, 56, 52
-0.997877, 329, 33, 360, 288
-0.997893, 145, 49, 160, 80
-0.997895, 465, 133, 480, 164
-0.997905, 353, 341, 480, 372
-0.997906, 53, 81, 84, 208
-0.997908, 33, 173, 160, 204
-0.997909, 355, 133, 370, 164
-0.997914, 341, 33, 372, 288
-0.997929, 65, 225, 192, 256
-0.997929, 311, 201, 326, 232
-0.997934, 241, 69, 256, 100
-0.997934, 347, 137, 362, 168
-0.997938, 17, 21, 144, 52
-0.997951, 97, 25, 352, 88
-0.997955, 225, 261, 352, 292
-0.997979, 241, 281, 368, 312
-0.997983, 141, 153, 156, 184
-0.997984, 401, 65, 432, 320
-0.998011, 65, 249, 192, 280
-0.998012, 395, 77, 410, 108
-0.998017, 289, 133, 304, 164
-0.998017, 421, 129, 452, 375
-0.998019, 373, 133, 388, 164
-0.998022, 433, 157, 448, 188
-0.998024, 65, 237, 192, 268
-0.998025, 105, 33, 136, 288
-0.998028, 331, 141, 346, 172
-0.998032, 33, 1, 288, 64
-0.998036, 213, 117, 228, 148
-0.998042, 283, 141, 298, 172
-0.998046, 225, 129, 256, 375
-0.998057, 361, 133, 376, 164
-0.998057, 97, 129, 224, 160
-0.998058, 35, 17, 50, 48
-0.998059, 343, 217, 358, 248
-0.998061, 13, 57, 28, 88
-0.998063, 279, 121, 294, 152
-0.998066, 327, 197, 342, 228
-0.998079, 9, 97, 40, 352
-0.998082, 1, 217, 128, 248
-0.998091, 359, 145, 374, 176
-0.9981, 147, 145, 162, 176
-0.998104, 435, 65, 450, 96
-0.998104, 241, 293, 368, 324
-0.998105, 367, 133, 382, 164
-0.998108, 33, 201, 160, 232
-0.998111, 61, 129, 92, 375
-0.998114, 251, 73, 266, 104
-0.998119, 17, 125, 144, 156
-0.998121, 311, 149, 326, 180
-0.998127, 135, 149, 150, 180
-0.998128, 249, 137, 264, 168
-0.99813, 425, 149, 440, 180
-0.998136, 255, 153, 270, 184
-0.998138, 127, 169, 142, 200
-0.998138, 273, 269, 400, 300
-0.998141, 333, 217, 348, 248
-0.998142, 111, 201, 126, 232
-0.998143, 205, 133, 220, 164
-0.998152, 29, 97, 60, 352
-0.998154, 93, 273, 108, 304
-0.998155, 447, 65, 462, 96
-0.998156, 173, 129, 204, 375
-0.998164, 475, 129, 490, 160
-0.998164, 407, 149, 422, 180
-0.998165, 225, 249, 352, 280
-0.998166, 181, 141, 196, 172
-0.998169, 21, 133, 36, 164
-0.998172, 25, 57, 40, 88
-0.998172, 433, 129, 464, 375
-0.998172, 25, 97, 40, 128
-0.998173, 475, 141, 490, 172
-0.998175, 105, 205, 120, 236
-0.998177, 365, 145, 380, 176
-0.998178, 95, 217, 110, 248
-0.998181, 97, 293, 224, 324
-0.998183, 13, 101, 28, 132
-0.998187, 467, 53, 482, 84
-0.998189, 341, 137, 356, 168
-0.998192, 11, 117, 26, 148
-0.998192, 227, 149, 242, 180
-0.998197, 17, 109, 144, 140
-0.998203, 399, 149, 414, 180
-0.998206, 365, 169, 380, 200
-0.99822, 485, 61, 500, 92
-0.998221, 447, 145, 462, 176
-0.998222, 1, 285, 128, 316
-0.998226, 377, 121, 392, 152
-0.998227, 321, 57, 448, 88
-0.998227, 449, 125, 464, 156
-0.99823, 277, 149, 292, 180
-0.99823, 411, 261, 426, 292
-0.998231, 391, 205, 406, 236
-0.998231, 31, 117, 46, 148
-0.998234, 363, 121, 378, 152
-0.998235, 341, 73, 356, 104
-0.998237, 1, 249, 128, 280
-0.998238, 413, 149, 428, 180
-0.998247, 17, 189, 144, 220
-0.998252, 89, 141, 104, 172
-0.998253, 145, 273, 272, 304
-0.998257, 251, 121, 266, 152
-0.998259, 31, 69, 46, 100
-0.99826, 443, 125, 458, 156
-0.998262, 21, 121, 36, 152
-0.998263, 333, 129, 348, 160
-0.998263, 363, 157, 378, 188
-0.998264, 323, 149, 338, 180
-0.998266, 351, 149, 366, 180
-0.998271, 385, 201, 400, 232
-0.998272, 257, 121, 272, 152
-0.998274, 369, 45, 496, 76
-0.998275, 437, 125, 452, 156
-0.998275, 483, 73, 498, 104
-0.998284, 431, 117, 446, 148
-0.998284, 413, 77, 428, 108
-0.998284, 87, 257, 102, 288
-0.998285, 197, 33, 228, 288
-0.99829, 325, 125, 340, 156
-0.998293, 211, 137, 226, 168
-0.998294, 389, 149, 404, 180
-0.998294, 483, 133, 498, 164
-0.998295, 31, 101, 46, 132
-0.998295, 7, 69, 22, 100
-0.998296, 399, 209, 414, 240
-0.998297, 433, 45, 448, 76
-0.998303, 369, 97, 496, 128
-0.998304, 73, 1, 104, 256
-0.998308, 389, 125, 404, 156
-0.998311, 419, 161, 434, 192
-0.998313, 343, 125, 358, 156
-0.998318, 255, 133, 270, 164
-0.998321, 21, 273, 36, 304
-0.998321, 271, 137, 286, 168
-0.998322, 183, 161, 198, 192
-0.998327, 455, 117, 470, 148
-0.998329, 465, 121, 480, 152
-0.99833, 149, 21, 164, 52
-0.998331, 353, 285, 368, 316
-0.998332, 299, 205, 314, 236
-0.998338, 371, 177, 386, 208
-0.99834, 113, 25, 240, 56
-0.998345, 419, 149, 434, 180
-0.998345, 133, 165, 148, 196
-0.99835, 441, 161, 456, 192
-0.99835, 19, 53, 34, 84
-0.998353, 409, 241, 424, 272
-0.998355, 257, 69, 272, 100
-0.998358, 463, 265, 478, 296
-0.998365, 47, 21, 62, 52
-0.998366, 439, 149, 454, 180
-0.998367, 305, 145, 320, 176
-0.998367, 297, 153, 312, 184
-0.998367, 117, 97, 148, 352
-0.998369, 269, 33, 300, 288
-0.99837, 121, 55, 152, 70
-0.99837, 405, 247, 436, 262
-0.99837, 345, 125, 376, 140
-0.998371, 297, 127, 328, 142
-0.998371, 265, 145, 296, 160
-0.998373, 209, 143, 240, 158
-0.998373, 17, 153, 48, 168
-0.998373, 441, 53, 456, 84
-0.998373, 417, 129, 448, 144
-0.998375, 225, 135, 256, 150
-0.998375, 417, 265, 432, 296
-0.998376, 433, 47, 464, 62
-0.998376, 73, 269, 104, 284
-0.998377, 77, 241, 108, 256
-0.998378, 237, 149, 268, 164
-0.998378, 445, 119, 476, 134
-0.998379, 265, 133, 296, 148
-0.998379, 417, 161, 448, 176
-0.99838, 145, 151, 176, 166
-0.99838, 285, 155, 316, 170
-0.99838, 469, 267, 500, 282
-0.99838, 49, 129, 80, 375
-0.998381, 441, 149, 472, 164
-0.998381, 369, 199, 400, 214
-0.998382, 355, 121, 370, 152
-0.998382, 305, 145, 336, 160
-0.998383, 229, 85, 260, 100
-0.998383, 161, 67, 192, 82
-0.998383, 281, 183, 312, 198
-0.998383, 261, 151, 292, 166
-0.998384, 5, 147, 36, 162
-0.998385, 289, 219, 320, 234
-0.998385, 229, 133, 244, 164
-0.998385, 469, 53, 500, 68
-0.998386, 337, 197, 352, 228
-0.998386, 385, 161, 416, 176
-0.998386, 5, 127, 36, 142
-0.998387, 329, 211, 360, 226
-0.998388, 185, 157, 216, 172
-0.998389, 19, 101, 34, 132
-0.998389, 109, 51, 140, 66
-0.998389, 29, 273, 44, 304
-0.99839, 445, 161, 476, 176
-0.99839, 457, 267, 488, 282
-0.998391, 13, 273, 28, 304
-0.998391, 17, 73, 48, 88
-0.998392, 283, 169, 298, 200
-0.998392, 479, 265, 494, 296
-0.998392, 341, 223, 372, 238
-0.998392, 289, 177, 320, 192
-0.998394, 205, 159, 236, 174
-0.998394, 425, 235, 456, 250
-0.998395, 309, 215, 340, 230
-0.998397, 457, 159, 488, 174
-0.998398, 197, 139, 228, 154
-0.998399, 9, 139, 40, 154
-0.9984, 273, 153, 304, 168
-0.9984, 137, 59, 168, 74
-0.9984, 373, 95, 404, 110
-0.9984, 461, 93, 492, 108
-0.998403, 441, 237, 472, 252
-0.998404, 389, 153, 420, 168
-0.998405, 369, 159, 400, 174
-0.998405, 401, 153, 432, 168
-0.998405, 257, 71, 288, 86
-0.998406, 9, 65, 40, 80
-0.998407, 61, 29, 92, 44
-0.998407, 369, 89, 400, 104
-0.998408, 93, 33, 124, 288
-0.998409, 149, 63, 180, 78
-0.998409, 337, 153, 368, 168
-0.998409, 353, 169, 384, 184
-0.998409, 329, 133, 360, 148
-0.998409, 133, 165, 164, 180
-0.99841, 457, 101, 488, 116
-0.998411, 9, 121, 40, 136
-0.998412, 233, 127, 264, 142
-0.998413, 461, 127, 492, 142
-0.998415, 429, 127, 460, 142
-0.998415, 329, 225, 360, 240
-0.998415, 309, 151, 340, 166
-0.998417, 161, 161, 192, 176
-0.998418, 357, 95, 388, 110
-0.99842, 297, 151, 328, 166
-0.99842, 309, 209, 340, 224
-0.998422, 265, 139, 296, 154
-0.998422, 73, 33, 104, 48
-0.998423, 409, 267, 440, 282
-0.998423, 457, 57, 488, 72
-0.998425, 345, 211, 376, 226
-0.998425, 453, 73, 484, 88
-0.998427, 461, 151, 492, 166
-0.998427, 365, 139, 396, 154
-0.998428, 345, 133, 376, 148
-0.998429, 317, 145, 348, 160
-0.99843, 249, 145, 280, 160
-0.998431, 277, 145, 308, 160
-0.998431, 333, 141, 364, 156
-0.998432, 13, 109, 44, 124
-0.998433, 289, 133, 320, 148
-0.998433, 253, 127, 284, 142
-0.998433, 433, 61, 464, 76
-0.998434, 225, 153, 256, 168
-0.998437, 133, 53, 164, 68
-0.998437, 449, 137, 480, 152
-0.998438, 469, 73, 500, 88
-0.998439, 289, 293, 416, 324
-0.99844, 329, 217, 360, 232
-0.998442, 389, 89, 420, 104
-0.998442, 237, 69, 268, 84
-0.998442, 17, 147, 48, 162
-0.998443, 369, 213, 496, 244
-0.998444, 249, 133, 280, 148
-0.998444, 453, 145, 484, 160
-0.998447, 329, 147, 360, 162
-0.998448, 461, 133, 492, 148
-0.99845, 309, 127, 340, 142
-0.998451, 353, 147, 384, 162
-0.998453, 433, 121, 464, 136
-0.998453, 377, 153, 408, 168
-0.998457, 249, 151, 280, 166
-0.998459, 333, 125, 364, 140
-0.998459, 349, 139, 380, 154
-0.998461, 45, 27, 76, 42
-0.998463, 437, 155, 468, 170
-0.998463, 277, 129, 308, 144
-0.998465, 25, 21, 56, 36
-0.998468, 5, 11, 36, 26
-0.998473, 9, 59, 40, 74
-0.998476, 249, 159, 280, 174
-0.998476, 17, 15, 48, 30
-0.998482, 225, 237, 352, 268
-0.998483, 297, 215, 360, 230
-0.998488, 409, 129, 472, 144
-0.998489, 113, 225, 240, 256
-0.998489, 333, 129, 364, 375
-0.99849, 413, 155, 444, 170
-0.99849, 145, 261, 272, 292
-0.99849, 193, 285, 320, 316
-0.998493, 161, 241, 288, 272
-0.998494, 13, 103, 44, 118
-0.998502, 273, 345, 400, 375
-0.998504, 401, 155, 464, 170
-0.998505, 441, 67, 472, 82
-0.998512, 249, 129, 312, 144
-0.998515, 201, 161, 264, 176
-0.998515, 365, 153, 396, 168
-0.998516, 201, 155, 264, 170
-0.998516, 241, 159, 304, 174
-0.998516, 177, 165, 240, 180
-0.998518, 389, 79, 420, 94
-0.998518, 377, 81, 440, 96
-0.998519, 37, 21, 68, 36
-0.99852, 313, 201, 344, 216
-0.998521, 341, 217, 372, 232
-0.998521, 137, 163, 200, 178
-0.998528, 425, 145, 488, 160
-0.998531, 337, 125, 400, 140
-0.998532, 289, 129, 352, 144
-0.998535, 377, 89, 440, 104
-0.998535, 433, 75, 496, 90
-0.998536, 377, 155, 440, 170
-0.998536, 425, 153, 456, 168
-0.998536, 433, 151, 496, 166
-0.998537, 345, 155, 408, 170
-0.998539, 205, 123, 236, 138
-0.998541, 237, 75, 268, 90
-0.998542, 305, 149, 368, 164
-0.998542, 225, 57, 352, 88
-0.998543, 461, 139, 492, 154
-0.998543, 49, 293, 176, 324
-0.998545, 441, 129, 472, 144
-0.998546, 297, 203, 360, 218
-0.998547, 409, 123, 472, 138
-0.998547, 225, 133, 288, 148
-0.998548, 385, 123, 448, 138
-0.998552, 337, 89, 400, 104
-0.998555, 433, 129, 496, 144
-0.99856, 193, 125, 256, 140
-0.99856, 177, 159, 240, 174
-0.998561, 249, 181, 312, 196
-0.998561, 329, 149, 392, 164
-0.998564, 185, 137, 248, 152
-0.998564, 281, 153, 344, 168
-0.998564, 297, 209, 360, 224
-0.998565, 313, 221, 376, 236
-0.998567, 353, 161, 416, 176
-0.998571, 337, 95, 400, 110
-0.998574, 329, 141, 392, 156
-0.998575, 377, 129, 440, 144
-0.998576, 321, 169, 384, 184
-0.998581, 297, 143, 360, 158
-0.998581, 25, 27, 88, 42
-0.998582, 241, 153, 304, 168
-0.998584, 409, 57, 472, 72
-0.998585, 1, 17, 64, 32
-0.998586, 209, 139, 272, 154
-0.998587, 433, 139, 496, 154
-0.998587, 417, 69, 480, 84
-0.998589, 353, 209, 416, 224
-0.998592, 1, 71, 64, 86
-0.998592, 409, 161, 472, 176
-0.998594, 225, 147, 288, 162
-0.998594, 369, 149, 432, 164
-0.998594, 249, 175, 312, 190
-0.998596, 337, 83, 400, 98
-0.998597, 377, 95, 440, 110
-0.998597, 65, 281, 192, 312
-0.998598, 321, 129, 352, 375
-0.998599, 313, 227, 376, 242
-0.998599, 193, 131, 256, 146
-0.998601, 385, 75, 448, 90
-0.998602, 1, 103, 64, 118
-0.998603, 329, 175, 392, 190
-0.998603, 321, 133, 384, 148
-0.998604, 41, 273, 104, 288
-0.998605, 257, 135, 320, 150
-0.998605, 241, 165, 304, 180
-0.998606, 217, 127, 280, 142
-0.998607, 385, 161, 448, 176
-0.998607, 409, 237, 472, 252
-0.998607, 257, 141, 320, 156
-0.998607, 177, 173, 240, 188
-0.998608, 361, 215, 424, 230
-0.99861, 273, 219, 336, 234
-0.998611, 409, 75, 472, 90
-0.998612, 201, 169, 264, 184
-0.998612, 329, 195, 392, 210
-0.998613, 313, 125, 376, 140
-0.998613, 49, 149, 112, 164
-0.998613, 249, 119, 312, 134
-0.998613, 409, 63, 472, 78
-0.998614, 321, 163, 384, 178
-0.998614, 401, 267, 464, 282
-0.998615, 401, 83, 464, 98
-0.998615, 345, 203, 408, 218
-0.998617, 161, 145, 224, 160
-0.998618, 81, 65, 208, 96
-0.998618, 433, 157, 496, 172
-0.998618, 313, 155, 376, 170
-0.998619, 137, 67, 200, 82
-0.998621, 281, 135, 344, 150
-0.998622, 409, 91, 472, 106
-0.998622, 9, 147, 72, 162
-0.998623, 297, 87, 360, 102
-0.998623, 185, 145, 248, 160
-0.998625, 1, 65, 64, 80
-0.998626, 249, 187, 312, 202
-0.998627, 9, 115, 72, 130
-0.998628, 105, 57, 168, 72
-0.998629, 169, 183, 232, 198
-0.99863, 281, 193, 344, 208
-0.99863, 273, 123, 336, 138
-0.99863, 425, 267, 488, 282
-0.99863, 297, 71, 360, 86
-0.998631, 193, 219, 256, 234
-0.998633, 113, 167, 176, 182
-0.998633, 25, 153, 88, 168
-0.998633, 105, 157, 168, 172
-0.998633, 73, 49, 136, 64
-0.998633, 289, 225, 352, 240
-0.998633, 145, 157, 208, 172
-0.998634, 89, 149, 152, 164
-0.998635, 329, 185, 392, 200
-0.998636, 225, 83, 288, 98
-0.998636, 25, 21, 88, 36
-0.998636, 177, 153, 240, 168
-0.998638, 409, 135, 472, 150
-0.998638, 289, 169, 352, 184
-0.998639, 321, 213, 384, 228
-0.998639, 337, 77, 400, 92
-0.998639, 201, 177, 264, 192
-0.99864, 1, 275, 64, 290
-0.99864, 225, 71, 288, 86
-0.998641, 393, 69, 456, 84
-0.998642, 1, 109, 64, 124
-0.998642, 97, 211, 160, 226
-0.998642, 49, 157, 112, 172
-0.998642, 265, 159, 328, 174
-0.998643, 209, 77, 272, 92
-0.998644, 289, 177, 352, 192
-0.998644, 41, 241, 104, 256
-0.998645, 361, 289, 424, 304
-0.998646, 305, 197, 368, 212
-0.998646, 137, 149, 200, 164
-0.998646, 273, 203, 336, 218
-0.998649, 1, 297, 128, 328
-0.998665, 81, 305, 208, 336
-0.998683, 403, 65, 418, 192
-0.998695, 281, 129, 312, 375
-0.998703, 237, 129, 268, 375
-0.998703, 1, 25, 256, 88
-0.998707, 391, 65, 406, 192
-0.998707, 397, 65, 412, 192
-0.998719, 45, 1, 76, 256
-0.998752, 1, 289, 500, 352
-0.998754, 49, 65, 176, 128
-0.998762, 441, 65, 456, 192
-0.998763, 33, 329, 160, 360
-0.998802, 305, 329, 432, 360
-0.998817, 273, 257, 400, 288
-0.998833, 17, 61, 144, 92
-0.998834, 97, 317, 224, 348
-0.998858, 381, 97, 396, 224
-0.998865, 161, 97, 288, 128
-0.99888, 447, 65, 462, 192
-0.998884, 485, 65, 500, 192
-0.998897, 475, 49, 490, 176
-0.998907, 209, 1, 240, 256
-0.998916, 61, 1, 92, 256
-0.99892, 39, 1, 54, 128
-0.998932, 453, 65, 468, 192
-0.99894, 395, 113, 410, 240
-0.998958, 241, 33, 256, 160
-0.99896, 1, 1, 32, 256
-0.998966, 389, 113, 404, 240
-0.998973, 417, 65, 432, 192
-0.998978, 411, 81, 426, 208
-0.998986, 425, 65, 440, 192
-0.998993, 119, 113, 134, 240
-0.998994, 213, 65, 228, 192
-0.998994, 401, 113, 416, 240
-0.999005, 309, 193, 324, 320
-0.999015, 251, 65, 266, 192
-0.999022, 435, 33, 450, 160
-0.999033, 363, 81, 378, 208
-0.999033, 373, 81, 388, 208
-0.999035, 203, 113, 218, 240
-0.999039, 219, 113, 234, 240
-0.99904, 303, 145, 318, 272
-0.999056, 21, 65, 36, 192
-0.999066, 367, 129, 382, 256
-0.999069, 31, 65, 46, 192
-0.999076, 169, 33, 200, 288
-0.999077, 485, 113, 500, 240
-0.999077, 225, 113, 240, 240
-0.99909, 341, 65, 356, 192
-0.999096, 373, 145, 388, 272
-0.999099, 357, 81, 372, 208
-0.999109, 465, 65, 480, 192
-0.999112, 185, 145, 200, 272
-0.999127, 257, 65, 272, 192
-0.999135, 101, 145, 116, 272
-0.999135, 365, 1, 396, 256
-0.999138, 381, 145, 396, 272
-0.999155, 235, 65, 250, 192
-0.99916, 459, 33, 474, 160
-0.999165, 125, 129, 140, 256
-0.99917, 89, 145, 104, 272
-0.999172, 303, 209, 318, 336
-0.999175, 447, 113, 462, 240
-0.999182, 95, 145, 110, 272
-0.999182, 129, 1, 160, 256
-0.999183, 413, 129, 428, 256
-0.999183, 9, 65, 24, 192
-0.999186, 145, 1, 160, 128
-0.999188, 25, 1, 40, 128
-0.999196, 19, 1, 34, 128
-0.9992, 111, 129, 126, 256
-0.999202, 209, 113, 224, 240
-0.999205, 457, 113, 472, 240
-0.999213, 343, 145, 358, 272
-0.999217, 407, 145, 422, 272
-0.999218, 313, 145, 328, 272
-0.999219, 439, 113, 454, 240
-0.999224, 449, 17, 464, 144
-0.999225, 219, 65, 234, 192
-0.999231, 351, 81, 366, 208
-0.999248, 245, 113, 260, 240
-0.999259, 193, 145, 208, 272
-0.99926, 359, 145, 374, 272
-0.999262, 247, 1, 262, 128
-0.999268, 467, 241, 482, 368
-0.999275, 91, 209, 106, 336
-0.999275, 407, 193, 422, 320
-0.999275, 297, 161, 312, 288
-0.999275, 319, 177, 334, 304
-0.999276, 327, 145, 342, 272
-0.999284, 297, 241, 312, 368
-0.999296, 229, 65, 244, 192
-0.999297, 101, 193, 116, 320
-0.999298, 263, 49, 278, 176
-0.999301, 45, 1, 60, 128
-0.999303, 31, 1, 46, 128
-0.999314, 353, 145, 368, 272
-0.999317, 475, 97, 490, 224
-0.999321, 411, 33, 426, 160
-0.999325, 337, 129, 352, 256
-0.999328, 251, 113, 266, 240
-0.999329, 321, 129, 336, 256
-0.999332, 441, 17, 456, 144
-0.99934, 13, 113, 28, 240
-0.999344, 327, 49, 342, 176
-0.999346, 351, 225, 366, 352
-0.999346, 83, 145, 98, 272
-0.999348, 13, 1, 28, 128
-0.999349, 335, 49, 350, 176
-0.99935, 319, 225, 334, 352
-0.999351, 425, 113, 440, 240
-0.999354, 459, 225, 474, 352
-0.999356, 117, 161, 132, 288
-0.99936, 217, 161, 232, 288
-0.999362, 335, 193, 350, 320
-0.999364, 283, 113, 298, 240
-0.999372, 191, 193, 206, 320
-0.999373, 401, 161, 416, 288
-0.999374, 49, 49, 112, 176
-0.999374, 233, 193, 248, 320
-0.999377, 289, 145, 304, 272
-0.999377, 37, 65, 52, 192
-0.999377, 433, 97, 448, 224
-0.99938, 239, 145, 254, 272
-0.999383, 31, 113, 46, 240
-0.99939, 451, 209, 466, 336
-0.99939, 53, 129, 68, 256
-0.999391, 419, 113, 434, 240
-0.999392, 313, 241, 328, 368
-0.999392, 315, 49, 330, 176
-0.999395, 223, 209, 238, 336
-0.999396, 425, 17, 440, 144
-0.999402, 209, 161, 224, 288
-0.999403, 133, 113, 148, 240
-0.999409, 241, 193, 256, 320
-0.999412, 343, 209, 358, 336
-0.99942, 441, 193, 456, 320
-0.999425, 257, 113, 272, 240
-0.999425, 465, 17, 480, 144
-0.99943, 3, 65, 18, 192
-0.99943, 207, 65, 222, 192
-0.999431, 421, 193, 436, 320
-0.999432, 325, 193, 340, 320
-0.999432, 275, 49, 290, 176
-0.999433, 67, 129, 82, 256
-0.999435, 423, 241, 438, 368
-0.999445, 357, 209, 372, 336
-0.999446, 481, 241, 496, 368
-0.99945, 229, 241, 244, 368
-0.99957, 443, 61, 458, 76
-0.99957, 467, 267, 482, 282
-0.99957, 277, 119, 292, 134
-0.99957, 165, 67, 180, 82
-0.999571, 265, 155, 280, 170
-0.999572, 445, 161, 460, 176
-0.999572, 193, 213, 208, 228
-0.999572, 191, 75, 206, 90
-0.999573, 145, 157, 160, 172
-0.999573, 257, 123, 272, 138
-0.999573, 327, 199, 342, 214
-0.999573, 475, 141, 490, 156
-0.999573, 317, 125, 332, 140
-0.999574, 457, 135, 472, 150
-0.999575, 355, 137, 370, 152
-0.999575, 451, 235, 466, 250
-0.999576, 411, 89, 426, 104
-0.999576, 433, 161, 448, 176
-0.999577, 249, 151, 264, 166
-0.999577, 27, 101, 42, 116
-0.999578, 281, 145, 296, 160
-0.999578, 175, 161, 190, 176
-0.999578, 113, 201, 128, 216
-0.999578, 411, 161, 426, 176
-0.999578, 447, 67, 462, 82
-0.999579, 345, 129, 360, 144
-0.999579, 455, 159, 470, 174
-0.99958, 149, 27, 164, 42
-0.99958, 101, 211, 116, 226
-0.999581, 215, 119, 230, 134
-0.999582, 387, 203, 402, 218
-0.999582, 183, 73, 198, 88
-0.999582, 485, 133, 500, 148
-0.999582, 107, 207, 122, 222
-0.999583, 391, 127, 406, 142
-0.999583, 317, 147, 332, 162
-0.999583, 9, 71, 24, 86
-0.999584, 383, 159, 398, 174
-0.999584, 477, 73, 492, 88
-0.999584, 21, 141, 36, 156
-0.999584, 143, 23, 158, 38
-0.999584, 433, 75, 448, 90
-0.999585, 455, 151, 470, 166
-0.999585, 121, 53, 136, 68
-0.999585, 429, 123, 444, 138
-0.999586, 115, 51, 130, 66
-0.999587, 331, 219, 346, 234
-0.999587, 439, 161, 454, 176
-0.999587, 435, 129, 450, 144
-0.999589, 207, 123, 222, 138
-0.99959, 127, 55, 142, 70
-0.99959, 241, 71, 256, 86
-0.99959, 281, 127, 296, 142
-0.999591, 441, 129, 456, 144
-0.999591, 129, 171, 144, 186
-0.999591, 255, 133, 270, 148
-0.999591, 331, 145, 346, 160
-0.999591, 399, 211, 414, 226
-0.999592, 427, 157, 442, 172
-0.999592, 453, 57, 468, 72
-0.999592, 415, 155, 430, 170
-0.999593, 367, 171, 382, 186
-0.999594, 447, 129, 462, 144
-0.999594, 343, 143, 358, 158
-0.999594, 77, 241, 92, 256
-0.999595, 311, 149, 326, 164
-0.999596, 13, 103, 28, 118
-0.999598, 465, 131, 480, 146
-0.999598, 261, 143, 276, 158
-0.999599, 271, 157, 286, 172
-0.999601, 251, 145, 266, 160
-0.999602, 155, 63, 170, 78
-0.999603, 259, 73, 274, 88
-0.999603, 393, 207, 408, 222
-0.999605, 435, 69, 450, 84
-0.999605, 381, 153, 396, 168
-0.999605, 143, 53, 158, 68
-0.999605, 251, 127, 266, 142
-0.999605, 291, 133, 306, 148
-0.999606, 283, 181, 298, 196
-0.999606, 279, 153, 294, 168
-0.999606, 367, 139, 382, 154
-0.999607, 453, 67, 468, 82
-0.999607, 475, 135, 490, 150
-0.999608, 83, 241, 98, 256
-0.999609, 21, 135, 36, 150
-0.99961, 361, 161, 376, 176
-0.99961, 445, 155, 460, 170
-0.99961, 29, 71, 44, 86
-0.999612, 439, 155, 454, 170
-0.999614, 315, 201, 330, 216
-0.999614, 53, 25, 68, 40
-0.999615, 83, 35, 98, 50
-0.999616, 441, 235, 456, 250
-0.999616, 279, 139, 294, 154
-0.999617, 253, 159, 268, 174
-0.999619, 65, 29, 80, 44
-0.99962, 385, 99, 400, 114
-0.999622, 389, 155, 404, 170
-0.999622, 59, 27, 74, 42
-0.999623, 71, 31, 86, 46
-0.999623, 47, 23, 62, 38
-0.999623, 331, 225, 346, 240
-0.999624, 355, 131, 370, 146
-0.999625, 21, 125, 36, 140
-0.999626, 361, 169, 376, 184
-0.999627, 457, 141, 472, 156
-0.999628, 77, 33, 92, 48
-0.999628, 441, 119, 456, 134
-0.999629, 337, 215, 352, 230
-0.999631, 447, 123, 462, 138
-0.999633, 483, 73, 498, 88
-0.999634, 451, 145, 466, 160
-0.999635, 33, 19, 48, 34
-0.999638, 353, 209, 368, 224
-0.999638, 241, 51, 256, 66
-0.99964, 251, 75, 266, 90
-0.999643, 27, 17, 42, 32
-0.999645, 15, 13, 30, 28
-0.999647, 375, 151, 390, 166
-0.999649, 433, 153, 448, 168
-0.999651, 3, 9, 18, 24
-0.999656, 145, 1, 176, 256
-0.999658, 9, 11, 24, 26
-0.999665, 21, 15, 36, 30
-0.999674, 421, 155, 436, 170
-0.999676, 427, 151, 442, 166
-0.999676, 465, 137, 480, 152
-0.999681, 269, 129, 300, 375
-0.999698, 39, 21, 54, 36
-0.999703, 455, 129, 470, 144
-0.999703, 397, 77, 412, 92
-0.999766, 161, 9, 288, 72
-0.999802, 249, 129, 280, 375
-0.999809, 117, 1, 148, 256
-0.999847, 157, 129, 188, 375
-0.999854, 161, 17, 224, 144
-0.999962, 209, 1, 336, 64
-1.00005, 129, 97, 160, 352
-1.00034, 157, 33, 188, 288
-1.00041, 321, 1, 448, 64
-1.00041, 1, 313, 500, 375
-1.00072, 225, 17, 480, 80
-1.00077, 105, 225, 168, 352
-1.00089, 145, 129, 176, 375
-1.00136, 1, 9, 500, 72
-1.00184, 129, 1, 384, 64
-1.00226, 49, 89, 176, 152
-1.00256, 273, 1, 400, 64
