1875
-0.647275, 1, 65, 500, 320
-0.669893, 1, 1, 500, 332
-0.780257, 1, 1, 256, 332
-0.795395, 225, 1, 480, 332
-0.864897, 129, 1, 384, 332
-0.929887, 1, 65, 128, 320
-0.930424, 1, 33, 256, 288
-0.931063, 1, 193, 500, 320
-0.932305, 1, 1, 128, 332
-0.945436, 353, 65, 480, 320
-0.946792, 257, 177, 500, 304
-0.948607, 305, 1, 432, 332
-0.952155, 369, 1, 496, 332
-0.952811, 273, 65, 400, 320
-0.956296, 145, 1, 272, 332
-0.957661, 1, 81, 500, 208
-0.958042, 409, 177, 472, 304
-0.958543, 353, 177, 480, 304
-0.958751, 257, 65, 500, 320
-0.959122, 225, 1, 352, 332
-0.963153, 1, 145, 500, 272
-0.963344, 81, 1, 208, 332
-0.963887, 1, 209, 128, 332
-0.964298, 161, 209, 416, 332
-0.965052, 1, 97, 64, 224
-0.966468, 9, 209, 72, 332
-0.966646, 257, 209, 384, 332
-0.967378, 313, 209, 376, 332
-0.968536, 305, 209, 432, 332
-0.969972, 1, 145, 64, 272
-0.969992, 129, 65, 384, 320
-0.971356, 313, 273, 376, 332
-0.972308, 1, 33, 500, 160
-0.97584, 1, 257, 64, 320
-0.97585, 225, 33, 352, 288
-0.976516, 65, 209, 320, 332
-0.976625, 409, 177, 472, 240
-0.97723, 1, 225, 64, 288
-0.977975, 1, 113, 256, 240
-0.978099, 433, 193, 496, 320
-0.978166, 1, 97, 128, 224
-0.978235, 1, 113, 64, 176
-0.979201, 1, 65, 64, 320
-0.979702, 241, 201, 304, 264
-0.9803, 1, 201, 64, 264
-0.980313, 273, 257, 336, 320
-0.980516, 425, 177, 456, 240
-0.980575, 49, 33, 176, 288
-0.981166, 257, 129, 500, 256
-0.981427, 425, 209, 488, 272
-0.98164, 1, 161, 128, 288
-0.982025, 337, 193, 400, 320
-0.982462, 385, 177, 448, 240
-0.982502, 313, 201, 376, 264
-0.982558, 353, 185, 480, 248
-0.982753, 385, 177, 448, 304
-0.982926, 281, 209, 344, 332
-0.983024, 321, 273, 352, 332
-0.983097, 425, 161, 456, 288
-0.983272, 289, 209, 416, 272
-0.983418, 1, 161, 256, 288
-0.983786, 177, 33, 304, 288
-0.983787, 1, 249, 32, 312
-0.984065, 13, 209, 44, 332
-0.984204, 13, 97, 44, 224
-0.984434, 257, 273, 384, 332
-0.984449, 1, 161, 64, 224
-0.984474, 33, 273, 96, 332
-0.984475, 1, 161, 32, 288
-0.984712, 329, 249, 392, 312
-0.984793, 337, 129, 464, 256
-0.985057, 445, 177, 476, 304
-0.985069, 413, 177, 444, 304
-0.985254, 425, 233, 488, 296
-0.985273, 273, 161, 400, 288
-0.985306, 413, 177, 444, 240
-0.985407, 321, 249, 448, 312
-0.985913, 161, 161, 416, 288
-0.986015, 1, 265, 128, 328
-0.986015, 21, 273, 52, 332
-0.986101, 273, 185, 336, 248
-0.986161, 337, 273, 368, 332
-0.986301, 445, 193, 476, 256
-0.986318, 217, 225, 280, 288
-0.986428, 97, 33, 224, 288
-0.986496, 9, 105, 40, 168
-0.9865, 25, 113, 88, 176
-0.986571, 369, 209, 496, 272
-0.98667, 361, 193, 424, 320
-0.986756, 313, 161, 376, 288
-0.98692, 13, 233, 44, 296
-0.987138, 1, 113, 32, 240
-0.987144, 25, 249, 88, 312
-0.987424, 1, 273, 32, 332
-0.987674, 9, 209, 40, 272
-0.98779, 225, 193, 352, 256
-0.98781, 281, 217, 344, 280
-0.98782, 33, 81, 96, 208
-0.988215, 353, 209, 384, 332
-0.988631, 225, 1, 480, 128
-0.988661, 337, 273, 464, 332
-0.988716, 41, 209, 104, 332
-0.988771, 409, 201, 440, 264
-0.98879, 1, 137, 64, 200
-0.988947, 297, 249, 360, 312
-0.989021, 369, 233, 496, 296
-0.989038, 385, 241, 448, 304
-0.989124, 257, 249, 384, 312
-0.989214, 345, 273, 408, 332
-0.989406, 1, 65, 256, 192
-0.989829, 25, 225, 88, 288
-0.9899, 21, 105, 52, 168
-0.98995, 469, 233, 500, 296
-0.990059, 25, 129, 56, 256
-0.990099, 433, 257, 496, 320
-0.990169, 1, 185, 32, 248
-0.990193, 1, 209, 32, 332
-0.990207, 17, 241, 144, 304
-0.990239, 457, 193, 488, 320
-0.990317, 305, 225, 368, 288
-0.990333, 409, 177, 472, 208
-0.990487, 305, 285, 368, 316
-0.990563, 225, 225, 352, 288
-0.99067, 337, 209, 400, 272
-0.990793, 433, 185, 496, 248
-0.990841, 209, 209, 272, 332
-0.991056, 425, 201, 456, 264
-0.991265, 1, 109, 64, 140
-0.991338, 401, 201, 464, 264
-0.991363, 409, 257, 472, 320
-0.991431, 361, 217, 424, 280
-0.991552, 465, 209, 496, 272
-0.991601, 1, 261, 64, 292
-0.991628, 1, 89, 64, 152
-0.991628, 453, 217, 484, 280
-0.991656, 361, 177, 424, 240
-0.991737, 249, 257, 312, 320
-0.991757, 413, 233, 444, 296
-0.991818, 433, 209, 464, 332
-0.991823, 241, 233, 304, 296
-0.991825, 1, 145, 128, 208
-0.991853, 1, 281, 64, 312
-0.991867, 1, 233, 64, 264
-0.991958, 25, 161, 88, 288
-0.991985, 313, 297, 376, 328
-0.992023, 1, 121, 64, 152
-0.992026, 9, 293, 72, 324
-0.99204, 1, 161, 32, 224
-0.992144, 313, 213, 376, 244
-0.992189, 385, 185, 448, 216
-0.992216, 425, 221, 488, 252
-0.992248, 1, 121, 128, 184
-0.992258, 273, 293, 336, 324
-0.992297, 241, 1, 368, 128
-0.992307, 425, 241, 488, 272
-0.992354, 469, 193, 500, 320
-0.992402, 9, 249, 72, 280
-0.992404, 1, 189, 64, 220
-0.992477, 49, 273, 176, 332
-0.992516, 25, 117, 88, 148
-0.992551, 321, 261, 384, 292
-0.992561, 1, 209, 64, 240
-0.992584, 33, 301, 96, 332
-0.992611, 273, 253, 336, 284
-0.992625, 1, 1, 64, 332
-0.992631, 25, 273, 88, 304
-0.992632, 273, 273, 336, 304
-0.992649, 273, 185, 400, 248
-0.992656, 1, 209, 128, 272
-0.992661, 417, 189, 480, 220
-0.992685, 1, 177, 64, 208
-0.992732, 341, 209, 372, 332
-0.992739, 345, 297, 408, 328
-0.992766, 25, 193, 88, 256
-0.992769, 25, 89, 88, 152
-0.992787, 401, 177, 432, 240
-0.992795, 249, 257, 312, 288
-0.992798, 281, 217, 344, 248
-0.992841, 425, 201, 488, 232
-0.99285, 9, 221, 72, 252
-0.99288, 321, 177, 384, 240
-0.992886, 241, 201, 304, 232
-0.992887, 313, 197, 376, 228
-0.992888, 17, 97, 144, 160
-0.992906, 113, 269, 176, 300
-0.99292, 1, 161, 64, 192
-0.992929, 409, 129, 472, 256
-0.992947, 13, 109, 44, 140
-0.992952, 409, 153, 472, 216
-0.992952, 193, 225, 256, 288
-0.992952, 289, 197, 352, 228
-0.992965, 1, 133, 64, 164
-0.993015, 297, 265, 360, 296
-0.993023, 413, 181, 444, 212
-0.993026, 217, 201, 280, 264
-0.993029, 1, 97, 64, 128
-0.993033, 281, 241, 344, 272
-0.99304, 1, 109, 32, 140
-0.993042, 365, 193, 396, 320
-0.993044, 425, 177, 456, 208
-0.993046, 33, 285, 96, 316
-0.993083, 1, 169, 128, 232
-0.993089, 385, 197, 448, 228
-0.993096, 137, 265, 200, 296
-0.993099, 1, 257, 32, 288
-0.993099, 65, 273, 128, 304
-0.993108, 33, 253, 96, 284
-0.993155, 337, 289, 368, 320
-0.99316, 321, 285, 352, 316
-0.993169, 445, 197, 476, 228
-0.993185, 13, 249, 44, 280
-0.993195, 445, 181, 476, 212
-0.993196, 5, 285, 36, 316
-0.993197, 21, 277, 52, 308
-0.993199, 425, 225, 456, 288
-0.993217, 469, 229, 500, 260
-0.993219, 1, 49, 128, 176
-0.99322, 1, 269, 32, 300
-0.993239, 345, 273, 408, 304
-0.993242, 425, 253, 488, 284
-0.993245, 29, 301, 60, 332
-0.993255, 21, 265, 52, 296
-0.993255, 337, 213, 400, 244
-0.993257, 1, 149, 64, 180
-0.993257, 361, 241, 424, 272
-0.99326, 25, 289, 56, 320
-0.99326, 385, 241, 448, 272
-0.99327, 345, 285, 408, 316
-0.993277, 409, 197, 440, 228
-0.993278, 425, 197, 456, 228
-0.993282, 13, 129, 44, 192
-0.993295, 217, 221, 280, 252
-0.993308, 9, 233, 40, 264
-0.993313, 29, 113, 60, 144
-0.99332, 129, 33, 384, 160
-0.993331, 89, 273, 152, 304
-0.993335, 345, 253, 408, 284
-0.993343, 313, 249, 376, 280
-0.993345, 321, 273, 384, 304
-0.993358, 453, 217, 484, 248
-0.993362, 9, 301, 40, 332
-0.993366, 469, 217, 500, 248
-0.993369, 1, 245, 32, 276
-0.99337, 193, 229, 256, 260
-0.99337, 409, 237, 440, 268
-0.993375, 1, 181, 32, 212
-0.993379, 25, 237, 88, 268
-0.993384, 317, 265, 348, 296
-0.993398, 1, 193, 32, 224
-0.993401, 57, 253, 120, 284
-0.993405, 409, 225, 440, 256
-0.993406, 281, 229, 344, 260
-0.993411, 453, 233, 484, 264
-0.993418, 353, 209, 384, 240
-0.993426, 317, 213, 348, 244
-0.993428, 425, 233, 456, 264
-0.993429, 5, 209, 36, 240
-0.993431, 317, 249, 348, 312
-0.993437, 409, 209, 440, 240
-0.993444, 17, 121, 48, 152
-0.993453, 321, 297, 352, 328
-0.993462, 5, 121, 36, 152
-0.993466, 425, 221, 456, 252
-0.993485, 33, 113, 64, 176
-0.993503, 425, 209, 456, 240
-0.993512, 361, 193, 424, 224
-0.993519, 357, 293, 388, 324
-0.99352, 1, 169, 32, 200
-0.993521, 9, 221, 40, 252
-0.993522, 469, 241, 500, 272
-0.993524, 329, 265, 360, 296
-0.993524, 265, 197, 328, 228
-0.993526, 277, 257, 308, 288
-0.993528, 161, 265, 224, 296
-0.993538, 369, 229, 432, 260
-0.993548, 437, 253, 468, 284
-0.993555, 437, 169, 468, 232
-0.993564, 33, 105, 96, 136
-0.993568, 177, 217, 240, 248
-0.993571, 409, 253, 440, 284
-0.993575, 297, 213, 328, 244
-0.993579, 333, 301, 364, 332
-0.993584, 309, 301, 340, 332
-0.993593, 49, 237, 112, 268
-0.993606, 357, 257, 388, 288
-0.993611, 361, 177, 424, 208
-0.993612, 401, 265, 464, 296
-0.99362, 229, 221, 260, 252
-0.99362, 297, 245, 328, 276
-0.993622, 437, 169, 468, 200
-0.993623, 401, 185, 432, 216
-0.993623, 309, 281, 340, 312
-0.993627, 241, 221, 304, 252
-0.993627, 81, 257, 144, 288
-0.993635, 325, 193, 356, 224
-0.993636, 333, 277, 364, 308
-0.993636, 297, 273, 328, 304
-0.993637, 209, 249, 336, 312
-0.993638, 1, 97, 32, 128
-0.993646, 217, 221, 248, 252
-0.993659, 341, 261, 372, 292
-0.993661, 297, 233, 328, 264
-0.993666, 257, 257, 288, 288
-0.993672, 113, 265, 176, 328
-0.993674, 345, 301, 376, 332
-0.993674, 209, 209, 336, 332
-0.993674, 421, 245, 452, 276
-0.993679, 33, 125, 64, 156
-0.993681, 257, 193, 288, 224
-0.993682, 13, 133, 44, 164
-0.993689, 25, 201, 88, 232
-0.993693, 313, 193, 344, 224
-0.993698, 425, 165, 456, 196
-0.993705, 1, 157, 32, 188
-0.993707, 301, 261, 332, 292
-0.993716, 397, 241, 428, 272
-0.993719, 301, 197, 332, 228
-0.993721, 77, 273, 108, 304
-0.993722, 13, 97, 44, 128
-0.993725, 469, 253, 500, 284
-0.993727, 425, 265, 488, 296
-0.993727, 441, 209, 472, 240
-0.993732, 329, 213, 360, 244
-0.993733, 365, 209, 396, 240
-0.993734, 425, 265, 456, 296
-0.993735, 357, 281, 388, 312
-0.993736, 437, 233, 468, 264
-0.993738, 437, 265, 468, 296
-0.993738, 1, 145, 32, 176
-0.993745, 165, 265, 196, 296
-0.993752, 241, 245, 304, 276
-0.993753, 121, 269, 152, 300
-0.993755, 217, 257, 280, 288
-0.993755, 49, 301, 80, 332
-0.993756, 217, 233, 280, 264
-0.993758, 249, 269, 312, 300
-0.993759, 277, 201, 308, 232
-0.99376, 461, 201, 492, 232
-0.99376, 385, 253, 448, 284
-0.993761, 337, 201, 368, 232
-0.993767, 25, 101, 56, 132
-0.993767, 341, 213, 372, 244
-0.99377, 385, 173, 448, 204
-0.99377, 17, 149, 48, 180
-0.99377, 409, 169, 440, 200
-0.993772, 45, 285, 76, 316
-0.993774, 217, 233, 248, 264
-0.993779, 345, 273, 376, 304
-0.993779, 413, 265, 444, 296
-0.993783, 377, 237, 408, 268
-0.993784, 105, 269, 136, 300
-0.993787, 41, 269, 72, 300
-0.993787, 457, 245, 488, 276
-0.993788, 305, 225, 368, 256
-0.99379, 369, 253, 400, 284
-0.993791, 93, 273, 124, 304
-0.993793, 285, 245, 316, 276
-0.993798, 409, 165, 472, 196
-0.9938, 41, 249, 72, 280
-0.993802, 365, 193, 396, 224
-0.993802, 149, 265, 180, 296
-0.993802, 285, 269, 316, 300
-0.993803, 69, 261, 100, 292
-0.993804, 321, 253, 352, 284
-0.99381, 449, 265, 480, 296
-0.993813, 285, 217, 316, 248
-0.993818, 245, 201, 276, 232
-0.99382, 29, 205, 60, 236
-0.99382, 137, 265, 168, 296
-0.993822, 177, 261, 208, 292
-0.993823, 397, 229, 428, 260
-0.993825, 361, 205, 424, 236
-0.993827, 297, 289, 328, 320
-0.993829, 165, 153, 196, 184
-0.993831, 237, 257, 268, 288
-0.993833, 25, 249, 56, 312
-0.993834, 1, 133, 32, 164
-0.993836, 233, 301, 296, 332
-0.993836, 13, 185, 44, 216
-0.993839, 289, 257, 320, 288
-0.993843, 13, 197, 44, 228
-0.993844, 437, 221, 468, 252
-0.993848, 265, 185, 328, 216
-0.993872, 25, 133, 88, 164
-0.993899, 317, 201, 348, 264
-0.993906, 385, 217, 448, 248
-0.993926, 57, 249, 120, 312
-0.993929, 177, 253, 240, 284
-0.993934, 337, 193, 400, 224
-0.993941, 33, 225, 96, 256
-0.993968, 393, 229, 456, 260
-0.993971, 225, 289, 288, 320
-0.993976, 113, 253, 176, 284
-0.993983, 433, 177, 496, 208
-0.993995, 41, 177, 104, 208
-0.993996, 241, 233, 304, 264
-0.994005, 169, 149, 232, 180
-0.994033, 33, 157, 96, 188
-0.994035, 305, 237, 368, 268
-0.99404, 361, 241, 424, 304
-0.994041, 25, 145, 88, 176
-0.994044, 153, 253, 216, 284
-0.994054, 73, 301, 136, 332
-0.994057, 357, 209, 388, 272
-0.994057, 41, 189, 104, 220
-0.994059, 361, 217, 424, 248
-0.994068, 137, 153, 200, 184
-0.994089, 301, 209, 332, 332
-0.994091, 321, 181, 384, 212
-0.994097, 65, 1, 128, 32
-0.994101, 329, 225, 392, 256
-0.994106, 217, 201, 280, 232
-0.994124, 225, 269, 288, 300
-0.994133, 185, 265, 248, 296
-0.994169, 217, 245, 280, 276
-0.994187, 49, 213, 112, 244
-0.994204, 337, 241, 400, 272
-0.994208, 169, 137, 232, 168
-0.994214, 65, 209, 128, 332
-0.994219, 105, 1, 168, 32
-0.994242, 73, 285, 136, 316
-0.99425, 249, 201, 280, 264
-0.994255, 169, 161, 232, 192
-0.994256, 33, 177, 64, 304
-0.994257, 433, 165, 496, 196
-0.994257, 377, 265, 440, 296
-0.994276, 185, 277, 248, 308
-0.994277, 25, 93, 88, 124
-0.994289, 177, 225, 304, 288
-0.994304, 193, 297, 256, 328
-0.994318, 209, 185, 272, 216
-0.994335, 81, 245, 144, 276
-0.994349, 233, 53, 296, 84
-0.994367, 145, 169, 208, 200
-0.994372, 193, 241, 256, 272
-0.994393, 249, 289, 312, 320
-0.994437, 145, 133, 208, 164
-0.994453, 289, 181, 352, 212
-0.994494, 285, 249, 316, 312
-0.994564, 357, 273, 388, 332
-0.994627, 317, 209, 348, 332
-0.994645, 257, 201, 500, 264
-0.994825, 225, 145, 352, 272
-0.994864, 321, 161, 448, 224
-0.994909, 233, 225, 264, 288
-0.995043, 297, 217, 328, 280
-0.995044, 249, 177, 312, 240
-0.995048, 409, 257, 440, 320
-0.995084, 113, 265, 240, 328
-0.995089, 241, 193, 304, 320
-0.995103, 241, 17, 304, 144
-0.995144, 161, 257, 416, 320
-0.995156, 337, 249, 368, 312
-0.995158, 97, 209, 224, 332
-0.995211, 301, 265, 332, 328
-0.995212, 9, 241, 24, 304
-0.995294, 1, 65, 32, 192
-0.995328, 25, 65, 88, 320
-0.995366, 301, 241, 332, 304
-0.995442, 45, 209, 76, 332
-0.995482, 257, 177, 500, 240
-0.995495, 437, 233, 468, 296
-0.995574, 437, 129, 468, 256
-0.995663, 177, 193, 304, 256
-0.99569, 401, 193, 432, 320
-0.995711, 1, 73, 128, 136
-0.995718, 1, 137, 32, 200
-0.995756, 25, 177, 56, 240
-0.995764, 209, 273, 336, 332
-0.995785, 161, 1, 288, 128
-0.995854, 1, 49, 64, 176
-0.995858, 297, 177, 360, 240
-0.995905, 49, 273, 80, 332
-0.995922, 431, 177, 446, 240
-0.99596, 257, 289, 384, 320
-0.995972, 297, 193, 328, 256
-0.996029, 369, 129, 432, 256
-0.996088, 409, 1, 472, 332
-0.996091, 357, 249, 388, 312
-0.996159, 447, 177, 462, 240
-0.996176, 1, 233, 16, 296
-0.996185, 361, 65, 424, 320
-0.996219, 1, 265, 256, 328
-0.99622, 437, 177, 452, 240
-0.996279, 257, 233, 500, 296
-0.996303, 217, 257, 280, 320
-0.996311, 15, 249, 30, 312
-0.996347, 257, 257, 500, 320
-0.996348, 325, 273, 340, 332
-0.996365, 33, 1, 96, 332
-0.996406, 289, 1, 416, 128
-0.996463, 421, 177, 436, 240
-0.996469, 161, 225, 416, 288
-0.996512, 41, 241, 72, 304
-0.996533, 425, 265, 456, 328
-0.996548, 289, 213, 416, 244
-0.99655, 49, 177, 176, 304
-0.996608, 161, 169, 288, 232
-0.996649, 331, 273, 346, 332
-0.996719, 1, 209, 500, 272
-0.996736, 425, 153, 456, 216
-0.996744, 33, 209, 64, 272
-0.996773, 19, 273, 34, 332
-0.996825, 23, 105, 38, 168
-0.996858, 339, 273, 354, 332
-0.996881, 437, 201, 452, 264
-0.9969, 145, 257, 208, 320
-0.996918, 9, 105, 24, 168
-0.996957, 369, 213, 496, 244
-0.996961, 329, 177, 360, 304
-0.99697, 161, 265, 288, 328
-0.996986, 65, 273, 128, 332
-0.996998, 29, 105, 44, 168
-0.997014, 265, 185, 296, 248
-0.997068, 1, 81, 32, 144
-0.997076, 415, 177, 430, 240
-0.997079, 353, 181, 480, 212
-0.997105, 421, 201, 436, 264
-0.997114, 353, 241, 480, 272
-0.997129, 81, 241, 144, 304
-0.997141, 289, 209, 320, 332
-0.997156, 217, 209, 248, 332
-0.997223, 389, 185, 420, 248
-0.997225, 81, 41, 208, 104
-0.997242, 305, 289, 432, 320
-0.997248, 471, 233, 486, 296
-0.997252, 17, 153, 48, 216
-0.997275, 431, 201, 446, 264
-0.997283, 1, 261, 128, 292
-0.997295, 369, 225, 496, 256
-0.997311, 385, 153, 448, 216
-0.997328, 319, 265, 334, 328
-0.997351, 225, 169, 352, 232
-0.997352, 3, 105, 18, 168
-0.997353, 473, 209, 488, 272
-0.997356, 37, 105, 52, 168
-0.997357, 1, 257, 500, 320
-0.997359, 457, 185, 472, 248
-0.997364, 221, 217, 252, 280
-0.997369, 447, 201, 462, 264
-0.997374, 345, 265, 360, 328
-0.997397, 453, 265, 484, 328
-0.997403, 353, 193, 480, 224
-0.997405, 15, 105, 30, 168
-0.997405, 479, 209, 494, 272
-0.997407, 161, 201, 416, 264
-0.997414, 467, 209, 482, 272
-0.99743, 351, 273, 366, 332
-0.997447, 289, 161, 352, 288
-0.997466, 185, 209, 248, 332
-0.997468, 305, 301, 432, 332
-0.997487, 17, 273, 144, 304
-0.997508, 369, 209, 384, 272
-0.997564, 49, 217, 112, 280
-0.997581, 1, 137, 16, 200
-0.997598, 277, 185, 308, 248
-0.997611, 241, 197, 368, 228
-0.997659, 257, 301, 384, 332
-0.997684, 129, 233, 256, 296
-0.997693, 289, 237, 416, 268
-0.997716, 7, 265, 22, 328
-0.997716, 41, 273, 56, 332
-0.997749, 397, 233, 428, 296
-0.997787, 415, 201, 430, 264
-0.997801, 1, 65, 32, 320
-0.997802, 457, 209, 472, 272
-0.997804, 31, 265, 46, 328
-0.997812, 17, 65, 48, 320
-0.997814, 19, 217, 34, 280
-0.997834, 337, 253, 464, 284
-0.997839, 313, 65, 376, 320
-0.997844, 225, 253, 352, 284
-0.997847, 1, 209, 16, 272
-0.997853, 1, 265, 16, 328
-0.997862, 257, 277, 384, 308
-0.997872, 161, 33, 288, 96
-0.997879, 457, 233, 472, 296
-0.997882, 431, 233, 446, 296
-0.997906, 485, 217, 500, 280
-0.997917, 273, 161, 400, 224
-0.997929, 333, 249, 348, 312
-0.997935, 415, 233, 430, 296
-0.997938, 289, 225, 416, 256
-0.997942, 361, 1, 424, 332
-0.997943, 437, 225, 452, 288
-0.99795, 463, 233, 478, 296
-0.997951, 273, 257, 400, 288
-0.997956, 97, 269, 224, 300
-0.997983, 477, 233, 492, 296
-0.997988, 13, 273, 28, 332
-0.998022, 5, 161, 20, 224
-0.998043, 33, 1, 288, 128
-0.998044, 421, 241, 436, 304
-0.998057, 25, 241, 40, 304
-0.99807, 1, 209, 256, 272
-0.998073, 345, 201, 376, 264
-0.998075, 385, 265, 448, 328
-0.998075, 7, 217, 22, 280
-0.998114, 9, 245, 24, 276
-0.998133, 13, 261, 28, 292
-0.998185, 265, 185, 280, 248
-0.998199, 9, 109, 24, 140
-0.99821, 15, 193, 30, 256
-0.998211, 243, 225, 258, 288
-0.998228, 425, 259, 456, 274
-0.998228, 437, 245, 468, 260
-0.99823, 341, 213, 372, 228
-0.99823, 409, 175, 440, 190
-0.998231, 297, 227, 328, 242
-0.998231, 329, 265, 360, 280
-0.998232, 429, 173, 460, 188
-0.998232, 297, 273, 328, 288
-0.998234, 17, 135, 48, 150
-0.998235, 309, 197, 340, 212
-0.998235, 77, 277, 108, 292
-0.998235, 225, 217, 256, 232
-0.998235, 1, 167, 32, 182
-0.998235, 329, 215, 360, 230
-0.998236, 409, 261, 440, 276
-0.998237, 341, 299, 372, 314
-0.998239, 437, 265, 468, 280
-0.998239, 317, 293, 348, 308
-0.998239, 465, 215, 496, 230
-0.99824, 357, 297, 388, 312
-0.99824, 9, 227, 40, 242
-0.998242, 217, 229, 248, 244
-0.998242, 425, 253, 456, 268
-0.998242, 345, 263, 376, 278
-0.998243, 445, 195, 476, 210
-0.998245, 285, 225, 316, 288
-0.998247, 305, 283, 336, 298
-0.998248, 341, 305, 372, 320
-0.99825, 445, 255, 476, 270
-0.998251, 229, 217, 244, 280
-0.998251, 5, 217, 36, 232
-0.998252, 281, 197, 312, 212
-0.998252, 329, 283, 360, 298
-0.998253, 425, 225, 456, 240
-0.998253, 409, 245, 440, 260
-0.998254, 357, 305, 388, 320
-0.998254, 357, 261, 388, 276
-0.998254, 409, 195, 440, 210
-0.998256, 321, 209, 336, 272
-0.998256, 425, 219, 456, 234
-0.998258, 429, 177, 444, 208
-0.998258, 425, 243, 456, 258
-0.998259, 13, 311, 44, 326
-0.99826, 229, 229, 260, 244
-0.998261, 1, 115, 32, 130
-0.998261, 297, 221, 328, 236
-0.998261, 425, 213, 456, 228
-0.998262, 453, 243, 484, 258
-0.998263, 353, 311, 384, 326
-0.998265, 13, 127, 44, 142
-0.998265, 409, 187, 440, 202
-0.998266, 129, 271, 160, 286
-0.998266, 445, 187, 476, 202
-0.998266, 273, 261, 304, 276
-0.998267, 5, 235, 36, 250
-0.998268, 425, 185, 456, 200
-0.998268, 469, 245, 500, 260
-0.998269, 413, 221, 444, 236
-0.998269, 425, 231, 456, 246
-0.998269, 409, 253, 440, 268
-0.998269, 9, 121, 40, 136
-0.998271, 425, 195, 456, 210
-0.998271, 5, 205, 36, 220
-0.998271, 105, 273, 136, 288
-0.998271, 1, 179, 32, 194
-0.998271, 317, 225, 348, 288
-0.998273, 13, 317, 44, 332
-0.998273, 157, 267, 188, 282
-0.998274, 141, 269, 172, 284
-0.998275, 465, 221, 496, 236
-0.998275, 317, 301, 348, 316
-0.998275, 65, 241, 192, 304
-0.998277, 9, 299, 40, 314
-0.998277, 229, 223, 260, 238
-0.998277, 29, 293, 60, 308
-0.998278, 5, 211, 36, 226
-0.998278, 421, 197, 436, 228
-0.99828, 317, 307, 348, 322
-0.99828, 117, 271, 148, 286
-0.99828, 453, 235, 484, 250
-0.998282, 341, 311, 372, 326
-0.998284, 13, 241, 44, 256
-0.998285, 17, 277, 32, 308
-0.998285, 241, 41, 304, 104
-0.998287, 317, 279, 348, 294
-0.998287, 409, 227, 440, 242
-0.998287, 261, 199, 292, 214
-0.998289, 29, 305, 60, 320
-0.998289, 93, 273, 124, 288
-0.99829, 297, 215, 328, 230
-0.998291, 1, 191, 32, 206
-0.998292, 453, 219, 484, 234
-0.998292, 425, 237, 456, 252
-0.998293, 337, 273, 464, 304
-0.998293, 173, 267, 204, 282
-0.998293, 453, 227, 484, 242
-0.998294, 1, 197, 32, 212
-0.998294, 317, 217, 348, 232
-0.998294, 3, 237, 18, 268
-0.998296, 409, 239, 440, 254
-0.998296, 1, 185, 32, 200
-0.998297, 9, 305, 40, 320
-0.998298, 33, 123, 64, 138
-0.998298, 413, 211, 444, 226
-0.998299, 1, 243, 32, 258
-0.9983, 5, 277, 36, 292
-0.998301, 329, 309, 360, 324
-0.998303, 425, 207, 456, 222
-0.998303, 469, 237, 500, 252
-0.998304, 29, 311, 60, 326
-0.998305, 1, 259, 32, 274
-0.998305, 17, 291, 48, 306
-0.998308, 17, 263, 48, 278
-0.998309, 217, 223, 248, 238
-0.998309, 353, 213, 384, 228
-0.99831, 409, 233, 440, 248
-0.998312, 425, 201, 456, 216
-0.998316, 445, 201, 476, 216
-0.998316, 29, 317, 60, 332
-0.998318, 333, 317, 364, 332
-0.998319, 297, 217, 312, 280
-0.998321, 17, 251, 48, 266
-0.998326, 25, 113, 56, 128
-0.998327, 5, 249, 36, 264
-0.998328, 29, 299, 60, 314
-0.998328, 21, 277, 52, 292
-0.998332, 445, 211, 476, 226
-0.998334, 5, 291, 36, 306
-0.998334, 409, 185, 424, 248
-0.998337, 1, 233, 500, 296
-0.998338, 321, 315, 352, 330
-0.99834, 21, 269, 52, 284
-0.998343, 447, 197, 462, 228
-0.998345, 409, 201, 440, 216
-0.998345, 1, 267, 32, 282
-0.998346, 337, 289, 368, 304
-0.998348, 17, 257, 48, 272
-0.99835, 25, 285, 56, 300
-0.99835, 15, 109, 30, 140
-0.998359, 417, 181, 432, 212
-0.998363, 463, 257, 478, 320
-0.998364, 441, 181, 472, 196
-0.998366, 469, 231, 500, 246
-0.998371, 13, 161, 44, 288
-0.998374, 1, 109, 128, 140
-0.998375, 9, 109, 40, 124
-0.998375, 31, 129, 46, 192
-0.99838, 317, 161, 348, 288
-0.998383, 33, 241, 48, 304
-0.998383, 5, 283, 36, 298
-0.998384, 437, 201, 452, 232
-0.998388, 453, 181, 468, 212
-0.998389, 317, 285, 348, 300
-0.998405, 413, 181, 444, 196
-0.998409, 441, 177, 456, 208
-0.998414, 447, 241, 462, 304
-0.998417, 1, 177, 256, 240
-0.998419, 271, 185, 286, 248
-0.998419, 351, 289, 366, 320
-0.998422, 429, 179, 460, 194
-0.998424, 353, 249, 368, 312
-0.998437, 33, 273, 64, 332
-0.998438, 277, 257, 292, 320
-0.998443, 259, 185, 274, 248
-0.998465, 433, 1, 496, 332
-0.998467, 29, 109, 44, 140
-0.998479, 37, 113, 52, 144
-0.998479, 23, 297, 38, 328
-0.998482, 325, 249, 340, 312
-0.998483, 223, 225, 238, 288
-0.998483, 447, 181, 462, 212
-0.998484, 15, 169, 30, 232
-0.998489, 363, 265, 378, 328
-0.998489, 161, 209, 288, 332
-0.998493, 333, 209, 364, 272
-0.998499, 27, 217, 42, 280
-0.9985, 23, 109, 38, 140
-0.99851, 409, 183, 472, 198
-0.998513, 1, 289, 128, 320
-0.998515, 437, 257, 452, 320
-0.998515, 321, 281, 336, 312
-0.998515, 413, 257, 428, 320
-0.998517, 41, 169, 104, 232
-0.998519, 225, 153, 480, 216
-0.998519, 1, 229, 128, 260
-0.998532, 21, 193, 36, 256
-0.998537, 49, 257, 176, 288
-0.998538, 225, 217, 352, 248
-0.99854, 473, 229, 488, 260
-0.998556, 1, 177, 128, 208
-0.998564, 225, 49, 352, 176
-0.998567, 1, 113, 64, 128
-0.998572, 467, 217, 482, 248
-0.998579, 305, 289, 368, 304
-0.998581, 473, 217, 488, 248
-0.998584, 437, 257, 468, 320
-0.998585, 369, 257, 384, 320
-0.998597, 337, 129, 400, 256
-0.998601, 339, 249, 354, 312
-0.998602, 311, 257, 326, 320
-0.998607, 1, 153, 256, 216
-0.998608, 11, 81, 26, 144
-0.998611, 467, 229, 482, 260
-0.998612, 305, 303, 368, 318
-0.99862, 3, 249, 18, 280
-0.998624, 427, 265, 442, 328
-0.998625, 7, 281, 22, 312
-0.998634, 269, 265, 300, 328
-0.998642, 1, 279, 64, 294
-0.998643, 17, 121, 144, 152
-0.998643, 3, 109, 18, 140
-0.998643, 1, 263, 64, 278
-0.998644, 321, 213, 384, 228
-0.998645, 313, 295, 376, 310
-0.998647, 481, 221, 496, 252
-0.998648, 431, 197, 446, 228
-0.99865, 305, 315, 368, 330
-0.998651, 81, 1, 208, 64
-0.998652, 177, 261, 304, 292
-0.998655, 9, 305, 72, 320
-0.998657, 409, 189, 472, 204
-0.998661, 289, 201, 416, 232
-0.998662, 257, 199, 320, 214
-0.998666, 377, 193, 408, 256
-0.998668, 471, 241, 486, 272
-0.998669, 425, 237, 488, 252
-0.998669, 409, 177, 472, 192
-0.99867, 327, 193, 342, 256
-0.998671, 89, 273, 152, 288
-0.998676, 1, 257, 64, 272
-0.998677, 113, 271, 176, 286
-0.998678, 9, 311, 72, 326
-0.998679, 33, 313, 96, 328
-0.998681, 1, 81, 16, 144
-0.998681, 1, 245, 64, 260
-0.998682, 1, 289, 64, 304
-0.998683, 145, 269, 208, 284
-0.998684, 1, 273, 64, 288
-0.998684, 9, 297, 72, 312
-0.998685, 313, 309, 376, 324
-0.998685, 235, 225, 250, 288
-0.998685, 385, 183, 448, 198
-0.998687, 425, 229, 488, 244
-0.998689, 305, 283, 368, 298
-0.998689, 25, 123, 88, 138
-0.99869, 281, 197, 344, 212
-0.998692, 1, 237, 64, 252
-0.998693, 9, 317, 72, 332
-0.998693, 1, 123, 64, 138
-0.998694, 17, 251, 80, 266
-0.998694, 273, 299, 336, 314
-0.998696, 345, 311, 408, 326
-0.998697, 369, 191, 432, 206
-0.998697, 281, 309, 344, 324
-0.998699, 25, 285, 88, 300
-0.9987, 461, 185, 492, 248
-0.9987, 1, 195, 64, 210
-0.9987, 415, 197, 430, 228
-0.998701, 321, 263, 384, 278
-0.998702, 1, 219, 64, 234
-0.998703, 1, 189, 64, 204
-0.998703, 209, 223, 272, 238
-0.998706, 481, 233, 496, 264
-0.998707, 273, 281, 336, 296
-0.998709, 1, 209, 64, 224
-0.998709, 65, 275, 128, 290
-0.998714, 1, 153, 128, 184
-0.998716, 1, 183, 64, 198
-0.998718, 281, 217, 344, 232
-0.998718, 253, 201, 268, 264
-0.998718, 417, 195, 480, 210
-0.998719, 25, 117, 88, 132
-0.998719, 17, 225, 80, 240
-0.998719, 25, 291, 88, 306
-0.998719, 273, 293, 336, 308
-0.998719, 273, 259, 336, 274
-0.99872, 1, 135, 64, 150
-0.99872, 425, 245, 488, 260
-0.998721, 425, 221, 488, 236
-0.998722, 1, 231, 64, 246
-0.998725, 49, 217, 176, 280
-0.998725, 1, 201, 64, 216
-0.998726, 297, 265, 360, 280
-0.998726, 313, 195, 376, 210
-0.998727, 407, 233, 422, 296
-0.998729, 417, 255, 480, 270
-0.99873, 345, 305, 408, 320
-0.99873, 433, 145, 496, 272
-0.998731, 385, 197, 448, 212
-0.998731, 425, 215, 488, 230
-0.998731, 25, 279, 88, 294
-0.998732, 11, 137, 26, 200
-0.998732, 169, 267, 232, 282
-0.998734, 457, 209, 472, 240
-0.998734, 1, 107, 64, 122
-0.998734, 369, 209, 384, 240
-0.998735, 273, 275, 336, 290
-0.998735, 1, 129, 64, 144
-0.998735, 25, 257, 88, 272
-0.998736, 281, 315, 344, 330
-0.998737, 41, 271, 104, 286
-0.998737, 9, 177, 72, 192
-0.998739, 369, 243, 432, 258
-0.998739, 33, 233, 288, 296
-0.99874, 1, 141, 64, 156
-0.998741, 281, 223, 344, 238
-0.998743, 1, 165, 128, 196
-0.998743, 1, 161, 64, 176
-0.998743, 345, 259, 408, 274
-0.998744, 345, 297, 408, 312
-0.998747, 1, 169, 64, 184
-0.998748, 417, 201, 480, 216
-0.998748, 233, 201, 296, 216
-0.998748, 241, 261, 304, 276
-0.998749, 33, 243, 96, 258
-0.998749, 1, 147, 64, 162
-0.99875, 345, 291, 408, 306
-0.99875, 321, 277, 384, 292
-0.99875, 49, 249, 112, 264
-0.998751, 313, 1, 376, 332
-0.998751, 273, 287, 336, 302
-0.998752, 1, 155, 64, 170
-0.998752, 25, 263, 88, 278
-0.998752, 437, 153, 452, 216
-0.998752, 33, 307, 96, 322
-0.998754, 273, 249, 336, 264
-0.998757, 249, 269, 312, 284
-0.998757, 305, 255, 368, 270
-0.998758, 281, 229, 344, 244
-0.998758, 321, 265, 336, 296
-0.998758, 401, 241, 464, 256
-0.998759, 345, 213, 408, 228
-0.998759, 281, 243, 344, 258
-0.99876, 369, 237, 432, 252
-0.99876, 25, 131, 88, 146
-0.99876, 281, 235, 344, 250
-0.99876, 345, 285, 408, 300
-0.99876, 25, 81, 56, 208
-0.998761, 143, 257, 158, 320
-0.998761, 25, 105, 88, 120
-0.998762, 25, 231, 88, 246
-0.998762, 241, 219, 304, 234
-0.998762, 43, 297, 58, 328
-0.998763, 329, 317, 392, 332
-0.998764, 417, 261, 480, 276
-0.998764, 33, 301, 96, 316
-0.998765, 297, 209, 360, 224
-0.998765, 25, 215, 88, 230
-0.998766, 321, 207, 384, 222
-0.998767, 25, 237, 88, 252
-0.998767, 241, 227, 304, 242
-0.998769, 217, 231, 280, 246
-0.998769, 369, 251, 432, 266
-0.99877, 1, 301, 128, 332
-0.998772, 425, 209, 488, 224
-0.998772, 273, 211, 336, 226
-0.998774, 65, 267, 128, 282
-0.998775, 145, 263, 208, 278
-0.998775, 177, 261, 240, 276
-0.998775, 57, 257, 120, 272
-0.998775, 305, 219, 368, 234
-0.998776, 337, 193, 400, 208
-0.998776, 201, 265, 264, 280
-0.998776, 25, 137, 88, 152
-0.998776, 361, 185, 424, 200
-0.998776, 249, 193, 312, 208
-0.998782, 379, 193, 394, 256
-0.998789, 435, 181, 450, 212
-0.998789, 427, 153, 442, 216
-0.998796, 415, 237, 430, 268
-0.9988, 289, 257, 304, 320
-0.998802, 133, 265, 164, 328
-0.998803, 161, 113, 416, 240
-0.998806, 47, 273, 62, 332
-0.998807, 49, 185, 176, 248
-0.998814, 25, 33, 88, 160
-0.998824, 413, 153, 444, 216
-0.998829, 1, 97, 256, 160
-0.998835, 377, 233, 408, 296
-0.998837, 241, 113, 368, 176
-0.998838, 437, 217, 452, 248
-0.998851, 431, 221, 446, 252
-0.998852, 353, 297, 480, 328
-0.998866, 423, 181, 438, 212
-0.998866, 327, 265, 342, 296
-0.998871, 137, 257, 152, 320
-0.998871, 39, 281, 54, 312
-0.998877, 457, 229, 472, 260
-0.998882, 321, 297, 336, 328
-0.998885, 233, 1, 296, 332
-0.998885, 333, 265, 348, 296
-0.998889, 277, 185, 292, 248
-0.998891, 347, 209, 362, 272
-0.998899, 1, 189, 128, 220
-0.998901, 321, 213, 336, 244
-0.998903, 177, 1, 304, 64
-0.998904, 411, 181, 426, 212
-0.998905, 15, 249, 30, 280
-0.998905, 327, 285, 342, 316
-0.998905, 453, 161, 468, 224
-0.998906, 457, 257, 472, 320
-0.998906, 421, 221, 436, 252
-0.998914, 431, 209, 446, 240
-0.998916, 149, 257, 164, 320
-0.998921, 29, 81, 44, 144
-0.99893, 437, 233, 452, 264
-0.99893, 353, 201, 368, 264
-0.998933, 357, 273, 372, 332
-0.998934, 137, 1, 200, 332
-0.998935, 177, 201, 240, 264
-0.998938, 319, 241, 334, 304
-0.998939, 1, 249, 128, 280
-0.998945, 333, 281, 348, 312
-0.998947, 415, 209, 430, 240
-0.998949, 1, 141, 16, 172
-0.998949, 45, 185, 60, 248
-0.998952, 333, 193, 348, 256
-0.998954, 161, 145, 288, 208
-0.998958, 31, 285, 46, 316
-0.998963, 431, 233, 446, 264
-0.998963, 421, 241, 436, 272
-0.99897, 7, 265, 22, 296
-0.99897, 457, 197, 472, 228
-0.998974, 329, 185, 360, 248
-0.998977, 305, 189, 432, 220
-0.998978, 463, 185, 478, 248
-0.998985, 409, 129, 440, 256
-0.998988, 27, 121, 42, 152
-0.998992, 49, 301, 176, 332
-0.998993, 35, 269, 50, 300
-0.998995, 375, 257, 390, 320
-0.998997, 339, 201, 354, 264
-0.998999, 417, 153, 432, 216
-0.999009, 363, 209, 378, 272
-0.99901, 343, 285, 358, 316
-0.999012, 415, 225, 430, 256
-0.999013, 25, 129, 40, 192
-0.999016, 17, 81, 32, 144
-0.999016, 27, 273, 42, 304
-0.999018, 379, 217, 394, 280
-0.999023, 421, 209, 436, 240
-0.999025, 327, 301, 342, 332
-0.999031, 25, 261, 40, 292
-0.999035, 457, 241, 472, 272
-0.999035, 9, 121, 24, 152
-0.999036, 9, 185, 24, 248
-0.999036, 17, 289, 32, 320
-0.999036, 465, 257, 496, 320
-0.999037, 49, 301, 64, 332
-0.999037, 361, 293, 376, 324
-0.999049, 1, 265, 16, 296
-0.999049, 21, 249, 36, 280
-0.999051, 355, 301, 370, 332
-0.999052, 459, 185, 474, 216
-0.999055, 287, 233, 302, 296
-0.999055, 469, 257, 484, 320
-0.999057, 1, 141, 128, 172
-0.999058, 353, 285, 480, 316
-0.999062, 17, 33, 144, 96
-0.999062, 225, 49, 352, 112
-0.999065, 327, 193, 342, 224
-0.999068, 3, 225, 18, 256
-0.999074, 39, 161, 54, 224
-0.999074, 463, 257, 478, 288
-0.999074, 129, 1, 256, 64
-0.999076, 483, 241, 498, 304
-0.999077, 9, 233, 24, 264
-0.999078, 23, 81, 38, 144
-0.999078, 225, 49, 480, 176
-0.999079, 5, 97, 20, 128
-0.99908, 341, 301, 356, 332
-0.999081, 225, 241, 352, 272
-0.999082, 435, 169, 450, 200
-0.999088, 37, 97, 68, 224
-0.999088, 297, 213, 312, 244
-0.999091, 463, 241, 478, 272
-0.999092, 441, 189, 456, 220
-0.999098, 179, 153, 194, 184
-0.999099, 13, 217, 28, 280
-0.999101, 297, 241, 312, 304
-0.999103, 43, 249, 58, 312
-0.999106, 291, 257, 306, 288
-0.999109, 21, 213, 36, 244
-0.999109, 339, 265, 354, 296
-0.99911, 35, 297, 50, 328
-0.999113, 289, 9, 416, 72
-0.999115, 305, 49, 432, 112
-0.999116, 33, 257, 48, 288
-0.999124, 1, 281, 16, 312
-0.999126, 361, 185, 376, 248
-0.999129, 333, 301, 348, 332
-0.99913, 447, 213, 462, 244
-0.999131, 259, 193, 274, 224
-0.999132, 15, 301, 30, 332
-0.999133, 221, 225, 236, 256
-0.999136, 371, 257, 386, 288
-0.999137, 321, 197, 336, 228
-0.999138, 39, 129, 54, 192
-0.999139, 437, 257, 452, 288
-0.99914, 229, 225, 244, 256
-0.999141, 241, 217, 256, 248
-0.999143, 409, 65, 472, 320
-0.999148, 1, 97, 16, 224
-0.999151, 177, 49, 304, 176
-0.999154, 3, 153, 18, 184
-0.999154, 21, 121, 36, 152
-0.999155, 1, 129, 16, 160
-0.999156, 41, 269, 56, 300
-0.999157, 17, 237, 32, 268
-0.999159, 1, 121, 256, 184
-0.99916, 443, 153, 458, 216
-0.99916, 447, 169, 462, 200
-0.999162, 289, 193, 304, 256
-0.999163, 137, 41, 200, 104
-0.999163, 485, 193, 500, 256
-0.999167, 43, 117, 58, 148
-0.999168, 369, 185, 384, 248
-0.999169, 345, 273, 360, 304
-0.99917, 209, 293, 336, 324
-0.999172, 431, 161, 446, 288
-0.999177, 265, 193, 280, 224
-0.999177, 17, 201, 32, 232
-0.99918, 235, 201, 250, 264
-0.999184, 29, 133, 44, 164
-0.999186, 351, 273, 366, 304
-0.999187, 285, 257, 300, 288
-0.999187, 1, 165, 16, 196
-0.999191, 429, 269, 444, 300
-0.999196, 83, 249, 98, 312
-0.9992, 35, 125, 50, 156
-0.9992, 45, 285, 60, 316
-0.999203, 447, 249, 462, 280
-0.999205, 23, 285, 38, 316
-0.999206, 457, 177, 472, 304
-0.999213, 193, 201, 320, 232
-0.999214, 23, 225, 38, 256
-0.99922, 315, 301, 330, 332
-0.999221, 479, 209, 494, 240
-0.999221, 225, 265, 352, 296
-0.999227, 347, 301, 362, 332
-0.999228, 171, 261, 186, 292
-0.999229, 13, 81, 44, 144
-0.999231, 21, 209, 36, 332
-0.999233, 315, 265, 330, 296
-0.999234, 369, 193, 384, 320
-0.999243, 161, 177, 416, 240
-0.999277, 337, 1, 400, 332
-0.99928, 1, 217, 128, 248
-0.999284, 437, 161, 452, 288
-0.999288, 209, 277, 336, 308
-0.999292, 447, 161, 462, 288
-0.999301, 15, 193, 30, 320
-0.999305, 177, 1, 240, 332
-0.999314, 13, 97, 28, 224
-0.999322, 421, 177, 436, 304
-0.999338, 1, 201, 128, 232
-0.999344, 1, 97, 128, 128
-0.999345, 33, 137, 96, 200
-0.999346, 7, 161, 22, 288
-0.999352, 225, 229, 352, 260
-0.999361, 7, 97, 22, 224
-0.999384, 463, 209, 478, 332
-0.999393, 289, 89, 416, 152
-0.999411, 21, 97, 36, 224
-0.999412, 437, 209, 452, 332
-0.999437, 353, 169, 480, 200
-0.99945, 355, 209, 370, 332
-0.999451, 65, 1, 128, 332
-0.999451, 447, 209, 462, 332
-0.999456, 361, 209, 376, 332
-0.999463, 415, 251, 430, 266
-0.999463, 421, 239, 436, 254
-0.999464, 119, 271, 134, 286
-0.999465, 339, 287, 354, 302
-0.999465, 461, 185, 476, 200
-0.999465, 27, 129, 42, 144
-0.999465, 455, 191, 470, 206
-0.999465, 447, 253, 462, 268
-0.999466, 33, 309, 48, 324
-0.999466, 15, 255, 30, 270
-0.999467, 421, 245, 436, 260
-0.999467, 39, 281, 54, 296
-0.999467, 101, 273, 116, 288
-0.999468, 405, 187, 420, 202
-0.999469, 269, 197, 284, 212
-0.999469, 333, 279, 348, 294
-0.999469, 27, 109, 42, 124
-0.999469, 315, 283, 330, 298
-0.99947, 1, 283, 16, 298
-0.99947, 471, 245, 486, 260
-0.99947, 43, 295, 58, 310
-0.999471, 421, 211, 436, 226
-0.999471, 411, 183, 426, 198
-0.999471, 229, 225, 244, 240
-0.999471, 43, 305, 58, 320
-0.999474, 421, 251, 436, 266
-0.999474, 327, 315, 342, 330
-0.999474, 161, 267, 176, 282
-0.999474, 107, 273, 122, 288
-0.999474, 327, 279, 342, 294
-0.999474, 421, 205, 436, 220
-0.999475, 275, 197, 290, 212
-0.999475, 125, 271, 140, 286
-0.999475, 149, 269, 164, 284
-0.999476, 479, 223, 494, 238
-0.999476, 169, 267, 184, 282
-0.999477, 415, 193, 430, 320
-0.999477, 457, 217, 472, 232
-0.999477, 457, 225, 472, 240
-0.999477, 143, 269, 158, 284
-0.999479, 415, 215, 430, 230
-0.999479, 341, 311, 356, 326
-0.99948, 131, 271, 146, 286
-0.99948, 9, 119, 24, 134
-0.99948, 259, 199, 274, 214
-0.999481, 333, 285, 348, 300
-0.999481, 1, 209, 16, 332
-0.999481, 181, 169, 196, 184
-0.999482, 457, 237, 472, 252
-0.999482, 181, 265, 196, 280
-0.999482, 321, 279, 336, 294
-0.999483, 321, 305, 336, 320
-0.999483, 5, 259, 20, 274
-0.999483, 49, 317, 64, 332
-0.999484, 431, 223, 446, 238
-0.999484, 397, 257, 428, 320
-0.999485, 45, 311, 60, 326
-0.999485, 223, 221, 238, 236
-0.999486, 415, 209, 430, 224
-0.999486, 1, 249, 16, 264
-0.999486, 241, 225, 256, 240
-0.999487, 473, 237, 488, 252
-0.999487, 9, 289, 24, 304
-0.999487, 437, 219, 452, 234
-0.999488, 479, 231, 494, 246
-0.999488, 443, 183, 458, 198
-0.999488, 415, 243, 430, 258
-0.999489, 321, 313, 336, 328
-0.99949, 25, 123, 40, 138
-0.999492, 457, 211, 472, 226
-0.999492, 431, 217, 446, 232
-0.999492, 437, 225, 452, 240
-0.999493, 429, 185, 444, 200
-0.999494, 431, 229, 446, 244
-0.999494, 21, 109, 36, 124
-0.999495, 473, 221, 488, 236
-0.999495, 421, 233, 436, 248
-0.999496, 319, 217, 334, 232
-0.999496, 467, 219, 482, 234
-0.999496, 209, 177, 272, 240
-0.999497, 437, 213, 452, 228
-0.999499, 437, 237, 452, 252
-0.999499, 7, 241, 22, 256
-0.999499, 235, 225, 250, 240
-0.9995, 431, 235, 446, 250
-0.9995, 463, 237, 478, 252
-0.9995, 437, 231, 452, 246
-0.999503, 337, 317, 352, 332
-0.999504, 415, 199, 430, 214
-0.999505, 369, 213, 384, 228
-0.999506, 27, 113, 42, 240
-0.999507, 415, 237, 430, 252
-0.999508, 347, 315, 362, 330
-0.999508, 327, 285, 342, 300
-0.999508, 431, 207, 446, 222
-0.999509, 5, 107, 20, 122
-0.99951, 353, 313, 368, 328
-0.99951, 435, 183, 450, 198
-0.999513, 1, 237, 16, 252
-0.999514, 457, 231, 472, 246
-0.999515, 27, 209, 42, 332
-0.999516, 13, 267, 28, 282
-0.999517, 49, 289, 176, 320
-0.999519, 333, 311, 348, 326
-0.99952, 433, 65, 464, 320
-0.999521, 35, 123, 50, 138
-0.999522, 15, 111, 30, 126
-0.999522, 431, 209, 446, 332
-0.999523, 33, 113, 48, 128
-0.999524, 471, 209, 486, 332
-0.999524, 415, 191, 430, 206
-0.999527, 437, 207, 452, 222
-0.999527, 23, 307, 38, 322
-0.999531, 25, 313, 40, 328
-0.999531, 441, 177, 456, 192
-0.999533, 161, 249, 288, 280
-0.999533, 39, 115, 54, 130
-0.999535, 21, 299, 36, 314
-0.999536, 321, 209, 336, 332
-0.999537, 463, 231, 478, 246
-0.999538, 353, 291, 368, 306
-0.999538, 423, 183, 438, 198
-0.99954, 431, 201, 446, 216
-0.99954, 9, 253, 24, 268
-0.999542, 437, 201, 452, 216
-0.999544, 305, 177, 432, 208
-0.999547, 19, 289, 34, 304
-0.999548, 321, 285, 336, 300
-0.999549, 455, 183, 470, 198
-0.999549, 417, 183, 432, 198
-0.999551, 1, 243, 16, 258
-0.999551, 449, 179, 464, 194
-0.999553, 193, 249, 256, 312
-0.999554, 15, 277, 30, 292
-0.999554, 435, 177, 450, 192
-0.999557, 447, 199, 462, 214
-0.999562, 241, 181, 368, 212
-0.999564, 17, 283, 32, 298
-0.999566, 209, 1, 272, 332
-0.999571, 97, 257, 224, 288
-0.999571, 473, 229, 488, 244
-0.999572, 7, 209, 22, 332
-0.999574, 421, 199, 436, 214
-0.999574, 409, 193, 424, 320
-0.99958, 11, 261, 26, 276
-0.999585, 5, 113, 20, 128
-0.999586, 161, 185, 288, 216
-0.999588, 7, 283, 22, 298
-0.999589, 33, 81, 48, 208
-0.999604, 477, 193, 492, 320
-0.999607, 449, 169, 480, 232
-0.99961, 9, 247, 24, 262
-0.999613, 69, 209, 100, 332
-0.999617, 429, 179, 444, 194
-0.999621, 49, 245, 176, 276
-0.999636, 349, 209, 364, 332
-0.999641, 1, 1, 128, 64
-0.999658, 379, 177, 394, 304
-0.999658, 483, 193, 498, 320
-0.999664, 161, 153, 288, 184
-0.999671, 33, 129, 48, 256
-0.999673, 377, 177, 408, 304
-0.999674, 1, 161, 16, 288
-0.999677, 13, 145, 28, 272
-0.999682, 65, 41, 320, 104
-0.999684, 353, 17, 480, 80
-0.999689, 221, 209, 236, 332
-0.999694, 161, 121, 288, 184
-0.999706, 299, 209, 314, 332
-0.999708, 241, 9, 368, 72
-0.999717, 9, 49, 24, 176
-0.999725, 23, 49, 38, 176
-0.99974, 419, 129, 434, 256
-0.999742, 65, 1, 192, 32
-0.999742, 341, 209, 356, 332
-0.999748, 97, 153, 224, 184
-0.999749, 353, 49, 480, 112
-0.999753, 467, 161, 482, 288
-0.999757, 47, 193, 62, 320
-0.99976, 21, 161, 36, 288
-0.999765, 39, 97, 54, 224
-0.999765, 291, 209, 306, 332
-0.999769, 33, 209, 48, 332
-0.999776, 453, 129, 468, 256
-0.999782, 65, 1, 320, 64
-0.999782, 13, 49, 44, 176
-0.999783, 327, 177, 342, 304
-0.999783, 15, 49, 30, 176
-0.999786, 29, 65, 60, 320
-0.999789, 3, 49, 18, 176
-0.999789, 431, 113, 446, 240
-0.999795, 177, 221, 304, 252
-0.999795, 39, 161, 54, 288
-0.999797, 437, 113, 452, 240
-0.999806, 315, 209, 330, 332
-0.999817, 333, 177, 348, 304
-0.999819, 425, 129, 440, 256
-0.999825, 321, 161, 336, 288
-0.999827, 241, 89, 368, 152
-0.99983, 17, 1, 144, 32
-0.999835, 227, 209, 242, 332
-0.99984, 289, 273, 320, 332
-0.999848, 245, 209, 260, 332
-0.999851, 389, 209, 420, 332
-0.999856, 81, 49, 208, 80
-0.999861, 1, 97, 500, 160
-0.999869, 369, 1, 496, 128
-0.999871, 443, 113, 458, 240
-0.999875, 417, 65, 448, 320
-0.999878, 129, 193, 256, 256
-0.99988, 101, 209, 116, 332
-0.999886, 53, 209, 68, 332
-0.999887, 73, 81, 88, 208
-0.99989, 363, 161, 378, 288
-0.999891, 253, 193, 268, 320
-0.999892, 81, 145, 208, 208
-0.999895, 81, 209, 96, 332
-0.999895, 45, 129, 60, 256
-0.999896, 113, 301, 240, 332
-0.999903, 459, 129, 474, 256
-0.999906, 177, 233, 304, 264
-0.999911, 91, 209, 106, 332
-0.999911, 235, 209, 250, 332
-0.999913, 357, 161, 372, 288
-0.999913, 309, 209, 324, 332
-0.999918, 407, 129, 422, 256
-0.999918, 107, 209, 122, 332
-0.99992, 41, 209, 56, 332
-0.999923, 369, 145, 384, 272
-0.999924, 39, 49, 54, 176
-0.999925, 253, 17, 268, 144
-0.999925, 297, 161, 328, 288
-0.999927, 339, 161, 354, 288
-0.999928, 49, 233, 176, 264
-0.999935, 289, 121, 416, 184
-0.999939, 71, 33, 86, 160
-0.99994, 215, 193, 230, 320
-0.999942, 89, 273, 152, 332
-0.999945, 145, 285, 272, 316
-0.999945, 75, 129, 90, 256
-0.999946, 45, 81, 60, 208
-0.999947, 337, 97, 464, 160
-0.999953, 27, 161, 42, 288
-0.999953, 269, 17, 284, 144
-0.999958, 113, 209, 128, 332
-0.99996, 73, 265, 104, 328
-0.999963, 403, 209, 418, 332
-0.999966, 349, 161, 364, 288
-0.999969, 185, 193, 200, 320
-0.999972, 275, 17, 290, 144
-0.999974, 263, 17, 278, 144
-0.999977, 311, 161, 326, 288
-0.999984, 377, 129, 392, 256
-0.999985, 281, 17, 296, 144
-0.999985, 81, 33, 96, 160
-0.999988, 53, 161, 68, 288
-0.999988, 299, 161, 314, 288
-0.99999, 209, 209, 224, 332
-0.999994, 413, 145, 428, 272
-0.999997, 327, 129, 342, 256
-0.999998, 287, 17, 302, 144
-1, 119, 209, 134, 332
-1, 49, 221, 176, 252
-1.00001, 241, 1, 256, 128
-1.00001, 81, 161, 96, 288
-1.00001, 227, 161, 242, 288
-1.00001, 257, 257, 288, 320
-1.00001, 295, 1, 310, 128
-1.00002, 33, 33, 48, 160
-1.00002, 333, 129, 348, 256
-1.00002, 305, 161, 320, 288
-1.00002, 465, 145, 496, 272
-1.00002, 385, 1, 448, 332
-1.00002, 67, 209, 82, 332
-1.00002, 255, 65, 270, 192
-1.00003, 389, 209, 404, 332
-1.00003, 353, 65, 384, 320
-1.00003, 73, 209, 88, 332
-1.00003, 477, 145, 492, 272
-1.00003, 483, 145, 498, 272
-1.00004, 449, 241, 480, 304
-1.00004, 301, 1, 316, 128
-1.00004, 247, 145, 262, 272
-1.00004, 191, 209, 206, 332
-1.00004, 307, 1, 322, 128
-1.00005, 145, 273, 272, 304
-1.00005, 247, 65, 262, 192
-1.00005, 179, 113, 194, 240
-1.00005, 383, 1, 398, 128
-1.00005, 397, 209, 412, 332
-1.00005, 399, 1, 414, 128
-1.00005, 391, 1, 406, 128
-1.00005, 281, 209, 296, 332
-1.00005, 253, 145, 268, 272
-1.00006, 61, 193, 76, 320
-1.00006, 161, 165, 288, 196
-1.00006, 287, 161, 302, 288
-1.00007, 193, 9, 448, 72
-1.00009, 369, 257, 400, 320
-1.00014, 97, 169, 224, 200
-1.00015, 161, 141, 288, 172
-1.00016, 273, 13, 400, 44
-1.00016, 241, 49, 368, 80
-1.00016, 353, 17, 480, 48
-1.00017, 357, 185, 388, 248
-1.00017, 1, 185, 500, 248
-1.00021, 433, 161, 496, 224
-1.00021, 353, 5, 480, 36
-1.00022, 365, 65, 396, 320
-1.00022, 161, 53, 288, 84
-1.00024, 129, 209, 256, 240
-1.00025, 161, 301, 288, 332
-1.00025, 113, 1, 240, 32
-1.00025, 249, 17, 280, 144
-1.00026, 273, 49, 400, 176
-1.00026, 445, 65, 476, 320
-1.00028, 1, 45, 128, 76
-1.00028, 225, 41, 480, 104
-1.00028, 233, 209, 264, 332
-1.00029, 49, 209, 176, 240
-1.0003, 177, 97, 304, 160
-1.0003, 41, 65, 72, 320
-1.00031, 289, 49, 416, 80
-1.00034, 1, 33, 128, 64
-1.00035, 65, 37, 192, 68
-1.00035, 273, 1, 336, 332
-1.00036, 65, 141, 192, 172
-1.00036, 49, 193, 112, 256
-1.00036, 129, 221, 256, 252
-1.00036, 457, 65, 488, 320
-1.00036, 225, 9, 352, 40
-1.00037, 161, 41, 288, 72
-1.00037, 17, 13, 144, 44
-1.00038, 353, 161, 384, 288
-1.00039, 341, 65, 372, 320
-1.00039, 433, 65, 496, 320
-1.00045, 49, 169, 176, 200
-1.00045, 97, 285, 224, 316
-1.00046, 209, 225, 240, 288
-1.00047, 305, 1, 432, 32
-1.00048, 393, 65, 424, 320
-1.00049, 161, 65, 288, 96
-1.00049, 337, 53, 464, 84
-1.0005, 161, 5, 288, 36
-1.00052, 1, 57, 128, 88
-1.00052, 49, 197, 176, 228
-1.00056, 61, 65, 92, 320
-1.00056, 161, 89, 288, 120
-1.00056, 361, 153, 424, 216
-1.00057, 129, 113, 384, 176
-1.00057, 241, 169, 368, 200
-1.00058, 161, 101, 288, 132
-1.00059, 289, 61, 416, 92
-1.00059, 161, 77, 288, 108
-1.00059, 145, 57, 272, 120
-1.0006, 241, 37, 368, 68
-1.0006, 161, 113, 288, 144
-1.0006, 221, 241, 252, 304
-1.0006, 1, 69, 128, 100
-1.00061, 49, 105, 176, 136
-1.00062, 161, 125, 288, 156
-1.00062, 321, 101, 448, 132
-1.00062, 225, 85, 352, 116
-1.00062, 225, 101, 352, 132
-1.00062, 49, 181, 176, 212
-1.00063, 129, 89, 384, 152
-1.00063, 329, 65, 360, 320
-1.00063, 97, 169, 224, 232
-1.00064, 273, 209, 304, 272
-1.00065, 305, 37, 432, 68
-1.00065, 81, 61, 208, 92
-1.00066, 97, 245, 224, 276
-1.00066, 377, 65, 408, 320
-1.00066, 97, 209, 128, 332
-1.00068, 225, 73, 352, 104
-1.0007, 145, 197, 272, 228
-1.0007, 321, 77, 448, 108
-1.0007, 369, 97, 496, 128
-1.0007, 145, 265, 176, 328
-1.00071, 369, 41, 496, 72
-1.00071, 129, 65, 384, 128
-1.00071, 97, 129, 224, 160
-1.00072, 289, 113, 416, 144
-1.00072, 241, 117, 368, 148
-1.00072, 353, 157, 480, 188
-1.00073, 405, 65, 436, 320
-1.00073, 369, 77, 496, 108
-1.00075, 321, 89, 448, 120
-1.00075, 225, 137, 352, 200
-1.00075, 369, 113, 496, 144
-1.00076, 65, 117, 192, 148
-1.00078, 113, 33, 240, 64
-1.00078, 65, 13, 192, 44
-1.00078, 225, 113, 480, 176
-1.0008, 353, 49, 416, 112
-1.00081, 273, 161, 336, 224
-1.00081, 277, 209, 308, 332
-1.00086, 277, 65, 308, 320
-1.0009, 1, 73, 256, 136
-1.00091, 301, 65, 332, 320
-1.00091, 1, 121, 500, 184
-1.00093, 129, 137, 384, 200
-1.00093, 273, 113, 400, 240
-1.00094, 317, 65, 348, 320
-1.00095, 453, 129, 484, 256
-1.00095, 353, 121, 480, 184
-1.00096, 225, 73, 480, 136
-1.00097, 89, 1, 152, 332
-1.001, 65, 113, 192, 176
-1.001, 369, 73, 496, 136
-1.00103, 1, 153, 500, 216
-1.00106, 233, 257, 264, 320
-1.00111, 169, 33, 200, 288
-1.00112, 425, 113, 456, 240
-1.00113, 77, 33, 108, 288
-1.00117, 177, 273, 240, 332
-1.0012, 233, 33, 264, 288
-1.00122, 397, 209, 428, 272
-1.00123, 189, 65, 220, 320
-1.00123, 469, 65, 500, 320
-1.00127, 25, 81, 56, 144
-1.00131, 273, 233, 304, 296
-1.00133, 289, 65, 320, 320
-1.00133, 253, 33, 284, 288
-1.00134, 245, 273, 276, 332
-1.00134, 89, 33, 120, 288
-1.00135, 1, 41, 500, 104
-1.00139, 369, 161, 496, 224
-1.00144, 341, 161, 372, 288
-1.00147, 105, 33, 136, 288
-1.00149, 117, 33, 148, 288
-1.00149, 97, 65, 224, 128
-1.0015, 1, 9, 500, 72
-1.0015, 201, 1, 264, 128
-1.0015, 265, 65, 296, 320
-1.0015, 49, 73, 176, 136
-1.00151, 209, 65, 240, 320
-1.00151, 49, 161, 112, 288
-1.00153, 145, 1, 176, 256
-1.00156, 129, 1, 160, 256
-1.00156, 317, 177, 348, 240
-1.00156, 157, 1, 188, 256
-1.00169, 65, 233, 96, 296
-1.00172, 221, 33, 252, 288
-1.00172, 281, 1, 344, 128
-1.0018, 385, 49, 416, 112
-1.00182, 13, 185, 44, 248
-1.00185, 245, 225, 276, 288
-1.00188, 129, 1, 192, 64
-1.00191, 249, 41, 280, 104
-1.00191, 121, 257, 152, 320
-1.00193, 105, 241, 168, 304
-1.00195, 49, 89, 112, 152
-1.00196, 97, 89, 224, 152
-1.00197, 113, 121, 240, 184
-1.00197, 113, 1, 176, 332
-1.00197, 177, 161, 240, 288
-1.00199, 57, 161, 88, 288
-1.00201, 193, 73, 320, 136
-1.00201, 97, 209, 160, 332
-1.00201, 389, 161, 420, 224
-1.00202, 169, 249, 232, 312
-1.00204, 145, 233, 208, 296
-1.00209, 233, 1, 296, 64
-1.00209, 253, 169, 284, 232
-1.00214, 389, 161, 420, 288
-1.00216, 1, 73, 500, 136
-1.00217, 233, 193, 264, 256
-1.00218, 65, 49, 96, 176
-1.00222, 341, 177, 372, 240
-1.00224, 1, 1, 128, 128
-1.00226, 25, 65, 88, 128
-1.0023, 81, 209, 112, 332
-1.00238, 221, 193, 252, 256
-1.00248, 385, 65, 448, 320
-1.00248, 161, 1, 224, 64
-1.00249, 365, 145, 396, 272
-1.0025, 261, 17, 292, 144
-1.00251, 53, 177, 84, 240
-1.00255, 113, 33, 176, 96
-1.00257, 225, 97, 352, 224
-1.00257, 177, 161, 304, 288
-1.00262, 33, 33, 96, 96
-1.00265, 313, 121, 376, 184
-1.00267, 201, 49, 264, 112
-1.00273, 137, 241, 168, 304
-1.00275, 25, 33, 56, 160
-1.00276, 169, 137, 232, 200
-1.00277, 381, 265, 412, 328
-1.00285, 225, 1, 256, 128
-1.00286, 217, 49, 280, 176
-1.00288, 1, 65, 64, 128
-1.00292, 437, 145, 468, 208
-1.00294, 137, 129, 200, 192
-1.00298, 161, 41, 192, 104
-1.00301, 25, 9, 88, 72
-1.00301, 337, 33, 400, 288
-1.00305, 241, 169, 272, 232
-1.00312, 205, 209, 236, 332
-1.00313, 81, 33, 208, 160
-1.00319, 249, 153, 312, 216
-1.00321, 61, 265, 92, 328
-1.00322, 273, 17, 304, 144
-1.00331, 345, 225, 376, 288
-1.00332, 37, 89, 68, 152
-1.00333, 329, 129, 360, 256
-1.00344, 289, 33, 352, 288
-1.0035, 209, 1, 272, 64
-1.00352, 281, 161, 312, 288
-1.00352, 353, 9, 416, 72
-1.00352, 57, 49, 88, 112
-1.00355, 377, 49, 440, 112
-1.00355, 33, 153, 64, 216
-1.00357, 149, 33, 180, 96
-1.00358, 173, 241, 204, 304
-1.00358, 213, 265, 244, 328
-1.00365, 21, 209, 52, 272
-1.00366, 57, 41, 120, 104
-1.00366, 77, 33, 108, 160
-1.00368, 169, 33, 232, 96
-1.00368, 289, 113, 352, 176
-1.00369, 49, 89, 80, 152
-1.0037, 185, 257, 216, 320
-1.0037, 105, 1, 168, 64
-1.00376, 289, 1, 320, 128
-1.00381, 381, 1, 412, 128
-1.00382, 265, 161, 296, 224
-1.00383, 77, 41, 108, 104
-1.00383, 193, 209, 224, 332
-1.00383, 305, 169, 336, 232
-1.00385, 145, 153, 208, 216
-1.00387, 49, 65, 112, 320
-1.00387, 57, 1, 88, 128
-1.0039, 157, 257, 188, 320
-1.00393, 257, 233, 288, 296
-1.00395, 57, 201, 88, 264
-1.00395, 261, 209, 292, 272
-1.00395, 169, 225, 232, 288
-1.00397, 121, 209, 152, 332
-1.00398, 177, 113, 240, 176
-1.00398, 393, 17, 456, 80
-1.004, 109, 209, 140, 332
-1.00401, 229, 161, 260, 288
-1.00402, 369, 169, 400, 232
-1.00406, 85, 249, 116, 312
-1.00406, 37, 49, 68, 176
-1.0041, 65, 1, 128, 64
-1.00419, 297, 89, 360, 152
-1.0042, 41, 185, 72, 248
-1.00422, 217, 161, 280, 288
-1.00425, 461, 161, 492, 224
-1.00426, 233, 49, 264, 176
-1.00426, 353, 1, 416, 128
-1.00426, 313, 113, 376, 240
-1.00428, 161, 209, 224, 332
-1.00428, 265, 9, 328, 72
-1.00429, 249, 65, 280, 192
-1.00431, 69, 73, 100, 136
-1.00435, 401, 153, 432, 216
-1.00436, 249, 193, 280, 320
-1.00439, 81, 217, 144, 280
-1.00447, 433, 1, 496, 64
-1.00452, 49, 129, 176, 256
-1.00458, 305, 1, 368, 128
-1.00473, 305, 1, 336, 128
-1.00474, 1, 1, 64, 64
-1.00474, 185, 1, 248, 64
-1.00475, 337, 81, 464, 208
-1.00481, 209, 73, 272, 136
-1.00481, 321, 1, 352, 128
-1.00482, 241, 65, 304, 320
-1.00484, 89, 33, 152, 96
-1.00488, 361, 1, 392, 128
-1.00493, 249, 145, 312, 272
-1.00499, 161, 97, 288, 224
-1.005, 193, 25, 256, 88
-1.00508, 173, 209, 204, 332
-1.00509, 81, 33, 144, 288
-1.00514, 297, 9, 360, 72
-1.00514, 241, 65, 304, 128
-1.00518, 321, 97, 384, 160
-1.00524, 49, 49, 80, 176
-1.00525, 65, 81, 192, 208
-1.00526, 169, 161, 200, 288
-1.00527, 61, 97, 92, 224
-1.00528, 265, 113, 328, 176
-1.00528, 345, 1, 376, 128
-1.00534, 265, 209, 296, 332
-1.00539, 57, 113, 120, 176
-1.0054, 49, 113, 80, 240
-1.00545, 237, 1, 268, 128
-1.00546, 393, 113, 424, 240
-1.00549, 241, 65, 304, 192
-1.00552, 433, 137, 496, 200
-1.00552, 377, 129, 408, 256
-1.00552, 213, 161, 244, 288
-1.00553, 405, 1, 436, 128
-1.00558, 333, 1, 364, 128
-1.0056, 1, 25, 64, 88
-1.00562, 329, 9, 392, 72
-1.00574, 349, 113, 380, 240
-1.00577, 393, 1, 424, 128
-1.00578, 385, 1, 448, 128
-1.0058, 201, 161, 232, 288
-1.00583, 241, 121, 304, 184
-1.00585, 241, 89, 304, 152
-1.00586, 77, 161, 108, 288
-1.00586, 1, 17, 32, 144
-1.00587, 337, 153, 400, 216
-1.00588, 77, 81, 108, 208
-1.00588, 249, 145, 280, 272
-1.0059, 165, 49, 196, 176
-1.00596, 337, 129, 400, 192
-1.006, 185, 177, 248, 240
-1.00604, 65, 65, 128, 128
-1.00605, 297, 145, 360, 208
-1.00606, 73, 89, 136, 152
-1.0061, 225, 153, 288, 216
-1.00614, 453, 1, 484, 128
-1.00615, 145, 105, 208, 168
-1.00615, 285, 49, 316, 176
-1.00617, 329, 1, 392, 128
-1.00618, 273, 49, 336, 112
-1.00626, 273, 81, 336, 144
-1.00629, 345, 105, 408, 168
-1.00638, 65, 161, 128, 224
-1.00643, 305, 49, 368, 112
-1.00643, 217, 105, 280, 168
-1.00647, 141, 209, 172, 332
-1.0066, 181, 49, 212, 176
-1.00665, 269, 65, 300, 192
-1.00666, 441, 1, 472, 128
-1.00669, 185, 113, 216, 240
-1.00671, 169, 97, 200, 224
-1.00673, 409, 81, 440, 208
-1.00677, 317, 113, 348, 240
-1.00679, 97, 129, 224, 256
-1.00682, 185, 161, 216, 288
-1.00685, 57, 1, 120, 128
-1.00687, 465, 1, 496, 128
-1.00688, 209, 65, 272, 320
-1.00689, 281, 49, 344, 176
-1.00689, 137, 33, 200, 288
-1.00691, 449, 81, 480, 208
-1.00694, 57, 209, 88, 332
-1.00705, 417, 1, 448, 128
-1.00712, 265, 65, 328, 320
-1.00718, 185, 65, 248, 320
-1.00719, 385, 49, 416, 176
-1.00722, 213, 1, 244, 128
-1.00724, 89, 33, 120, 160
-1.00725, 161, 209, 192, 332
-1.0073, 45, 1, 76, 128
-1.00735, 161, 1, 192, 128
-1.00736, 429, 1, 460, 128
-1.00737, 73, 49, 136, 176
-1.00739, 233, 97, 264, 224
-1.00746, 273, 97, 336, 224
-1.00748, 377, 81, 440, 208
-1.00752, 269, 161, 300, 288
-1.00752, 369, 49, 400, 176
-1.00765, 297, 49, 328, 176
-1.00768, 437, 81, 468, 208
-1.0077, 181, 1, 212, 128
-1.00777, 129, 49, 256, 176
-1.00783, 333, 49, 364, 176
-1.00792, 117, 1, 148, 128
-1.00801, 13, 1, 44, 128
-1.00803, 101, 1, 132, 128
-1.00805, 345, 49, 376, 176
-1.00805, 397, 49, 428, 176
-1.00807, 149, 33, 180, 160
-1.00812, 145, 129, 208, 256
-1.00813, 105, 33, 168, 288
-1.00817, 305, 97, 336, 224
-1.00822, 433, 1, 496, 128
-1.00824, 137, 33, 168, 160
-1.00824, 321, 49, 352, 176
-1.00831, 121, 209, 184, 332
-1.00838, 137, 49, 200, 176
-1.00844, 65, 97, 128, 224
-1.00877, 161, 65, 224, 320
-1.00903, 177, 81, 240, 208
-1.00909, 305, 49, 368, 176
-1.00919, 353, 49, 416, 176
-1.00929, 329, 49, 392, 176
-1.00939, 409, 1, 472, 128
-1.00953, 433, 81, 496, 208
-1.00961, 177, 1, 240, 128
-1.00968, 81, 1, 144, 128
-1.01078, 217, 97, 280, 224
-1.01084, 81, 161, 144, 288
-1.01104, 129, 1, 192, 128
-1.01117, 105, 1, 168, 128
-1.01157, 1, 1, 64, 128
-1.01215, 97, 49, 160, 176
-1.01337, 409, 65, 472, 192
-1.0138, 121, 97, 184, 224
-1.01412, 113, 161, 176, 288
-1.01455, 153, 1, 216, 128
-1.01478, 97, 113, 160, 240
