1926
-0.278414, 1, 1, 500, 375
-0.386198, 257, 1, 500, 375
-0.401424, 129, 1, 384, 375
-0.420505, 1, 33, 500, 288
-0.437591, 33, 1, 288, 375
-0.488871, 1, 129, 500, 375
-0.60805, 193, 33, 448, 288
-0.621836, 33, 65, 288, 320
-0.758973, 193, 129, 448, 375
-0.836687, 241, 1, 368, 375
-0.852493, 241, 33, 368, 288
-0.859557, 193, 1, 320, 375
-0.867679, 1, 65, 500, 192
-0.868131, 177, 65, 304, 320
-0.870495, 289, 65, 416, 320
-0.870636, 337, 65, 464, 320
-0.87403, 337, 1, 464, 375
-0.875121, 145, 1, 272, 375
-0.876265, 33, 65, 160, 320
-0.876525, 289, 1, 416, 375
-0.878804, 33, 1, 160, 375
-0.883728, 97, 65, 224, 320
-0.884774, 97, 1, 224, 375
-0.905946, 225, 49, 480, 176
-0.91195, 65, 81, 320, 208
-0.915074, 1, 193, 500, 320
-0.915215, 225, 129, 352, 375
-0.922892, 1, 113, 500, 240
-0.924073, 41, 49, 104, 176
-0.925039, 225, 177, 480, 304
-0.93202, 81, 81, 208, 208
-0.933587, 33, 33, 288, 160
-0.93604, 1, 17, 500, 144
-0.937848, 1, 241, 500, 368
-0.937911, 97, 225, 352, 352
-0.939411, 241, 49, 368, 176
-0.939442, 33, 65, 160, 192
-0.940421, 33, 65, 96, 128
-0.941732, 97, 65, 160, 192
-0.943034, 409, 81, 472, 208
-0.943228, 161, 81, 288, 208
-0.945686, 73, 81, 136, 208
-0.945833, 257, 49, 320, 176
-0.945836, 257, 241, 500, 368
-0.945842, 9, 65, 72, 192
-0.947399, 1, 129, 256, 256
-0.947512, 153, 81, 216, 208
-0.9489, 225, 49, 288, 176
-0.948984, 121, 65, 184, 192
-0.949276, 177, 81, 240, 208
-0.949633, 129, 161, 384, 288
-0.950216, 281, 49, 344, 176
-0.950252, 129, 33, 384, 160
-0.951133, 369, 81, 496, 208
-0.952008, 225, 97, 480, 224
-0.952321, 1, 209, 256, 336
-0.953666, 249, 241, 312, 368
-0.954238, 337, 65, 400, 192
-0.954612, 241, 193, 368, 320
-0.954692, 81, 209, 208, 336
-0.955248, 201, 81, 264, 208
-0.955261, 57, 89, 120, 152
-0.955469, 161, 97, 224, 160
-0.955485, 321, 225, 448, 352
-0.95661, 433, 81, 496, 208
-0.956696, 385, 81, 448, 208
-0.956791, 1, 17, 128, 144
-0.956881, 33, 97, 96, 224
-0.957244, 289, 65, 416, 192
-0.957933, 337, 225, 400, 352
-0.959003, 241, 241, 368, 368
-0.959317, 105, 81, 168, 144
-0.959515, 1, 225, 128, 352
-0.959585, 33, 129, 160, 256
-0.959888, 305, 49, 368, 176
-0.960154, 257, 1, 500, 128
-0.960461, 193, 89, 256, 152
-0.960736, 9, 65, 72, 128
-0.960779, 81, 33, 208, 160
-0.960799, 33, 105, 96, 168
-0.961152, 233, 65, 296, 128
-0.961245, 361, 81, 424, 208
-0.961754, 305, 241, 368, 368
-0.961772, 425, 33, 488, 160
-0.961912, 129, 113, 192, 176
-0.961944, 345, 73, 408, 136
-0.96198, 321, 177, 384, 304
-0.96218, 265, 49, 328, 112
-0.962245, 417, 89, 480, 152
-0.962315, 305, 65, 368, 128
-0.962466, 321, 177, 448, 304
-0.962552, 161, 161, 288, 288
-0.962976, 1, 17, 64, 144
-0.963254, 369, 89, 432, 152
-0.963331, 193, 33, 320, 160
-0.963779, 273, 177, 336, 304
-0.963834, 65, 65, 128, 128
-0.963865, 25, 225, 88, 352
-0.964339, 65, 33, 128, 160
-0.964413, 369, 161, 496, 288
-0.965747, 161, 209, 288, 336
-0.965907, 129, 33, 256, 160
-0.966011, 249, 305, 312, 368
-0.966536, 81, 97, 144, 160
-0.966783, 137, 89, 200, 152
-0.966795, 169, 129, 232, 256
-0.966891, 361, 161, 424, 288
-0.966965, 369, 209, 432, 336
-0.967556, 209, 97, 336, 224
-0.967581, 49, 65, 80, 128
-0.967631, 369, 33, 496, 160
-0.967681, 177, 121, 240, 184
-0.968118, 153, 241, 216, 368
-0.968292, 233, 193, 296, 320
-0.968358, 121, 113, 184, 240
-0.968362, 97, 225, 160, 352
-0.968482, 61, 57, 92, 120
-0.968626, 61, 49, 92, 176
-0.968855, 401, 33, 464, 160
-0.968896, 305, 281, 368, 344
-0.968902, 105, 281, 168, 344
-0.969107, 401, 193, 464, 320
-0.969325, 113, 145, 240, 272
-0.96955, 1, 41, 64, 104
-0.96956, 73, 65, 104, 192
-0.969634, 249, 129, 312, 256
-0.969664, 145, 129, 208, 256
-0.969737, 393, 97, 456, 160
-0.969897, 225, 313, 288, 375
-0.969963, 281, 225, 344, 352
-0.970054, 241, 145, 368, 272
-0.97012, 1, 177, 128, 304
-0.970511, 201, 225, 264, 352
-0.970535, 57, 65, 120, 320
-0.970694, 369, 241, 496, 368
-0.97071, 33, 297, 96, 360
-0.970756, 433, 129, 496, 256
-0.970791, 1, 225, 64, 352
-0.970803, 297, 161, 360, 288
-0.970942, 193, 33, 256, 160
-0.970956, 17, 65, 144, 128
-0.971039, 37, 65, 68, 128
-0.971088, 57, 113, 120, 176
-0.971248, 153, 265, 216, 328
-0.971323, 125, 65, 156, 192
-0.971727, 345, 257, 408, 320
-0.971771, 1, 177, 64, 304
-0.971785, 257, 33, 320, 288
-0.972023, 129, 177, 192, 304
-0.972074, 193, 257, 256, 320
-0.972192, 17, 65, 80, 320
-0.972219, 1, 89, 64, 152
-0.972291, 225, 241, 288, 368
-0.972309, 97, 113, 160, 240
-0.972364, 401, 65, 464, 320
-0.97241, 401, 145, 464, 272
-0.972501, 153, 121, 216, 184
-0.972534, 201, 185, 264, 248
-0.972559, 225, 193, 288, 256
-0.97272, 181, 81, 212, 208
-0.972816, 81, 81, 208, 144
-0.972823, 433, 65, 496, 320
-0.972827, 249, 201, 312, 264
-0.972977, 281, 289, 344, 352
-0.973008, 353, 65, 416, 320
-0.973155, 305, 33, 368, 288
-0.973397, 385, 209, 448, 272
-0.973406, 249, 177, 312, 240
-0.973462, 1, 201, 64, 264
-0.973759, 385, 257, 448, 320
-0.973847, 225, 97, 288, 224
-0.973904, 105, 113, 168, 176
-0.973945, 261, 49, 292, 176
-0.97407, 217, 89, 280, 152
-0.974075, 241, 65, 368, 128
-0.974173, 217, 257, 280, 320
-0.974176, 209, 113, 272, 176
-0.974178, 33, 65, 64, 192
-0.974219, 297, 201, 360, 264
-0.97433, 57, 297, 120, 360
-0.974456, 177, 193, 240, 320
-0.974466, 209, 281, 272, 344
-0.974556, 161, 81, 192, 208
-0.974587, 177, 201, 240, 264
-0.974711, 417, 233, 480, 296
-0.974721, 57, 129, 120, 256
-0.974729, 81, 65, 144, 320
-0.974782, 153, 33, 216, 160
-0.974939, 89, 81, 120, 208
-0.974958, 185, 297, 248, 360
-0.975104, 233, 33, 296, 288
-0.975209, 73, 225, 136, 352
-0.975231, 73, 81, 104, 144
-0.975266, 305, 257, 368, 320
-0.975274, 145, 89, 272, 152
-0.975303, 377, 65, 440, 320
-0.975335, 193, 97, 224, 160
-0.975405, 305, 17, 432, 144
-0.975544, 185, 65, 248, 320
-0.975564, 17, 89, 144, 152
-0.975644, 265, 241, 328, 304
-0.975676, 401, 169, 464, 232
-0.975676, 1, 305, 64, 368
-0.975783, 209, 177, 272, 304
-0.97579, 81, 289, 144, 352
-0.975826, 241, 257, 304, 320
-0.975886, 329, 33, 392, 288
-0.975994, 21, 65, 52, 128
-0.976187, 437, 89, 468, 152
-0.976201, 281, 33, 344, 288
-0.976232, 25, 217, 88, 280
-0.976242, 57, 217, 120, 280
-0.976415, 241, 41, 304, 104
-0.976527, 41, 105, 72, 168
-0.976544, 361, 185, 424, 248
-0.976551, 1, 33, 32, 96
-0.976604, 321, 113, 448, 240
-0.976608, 217, 217, 280, 280
-0.976642, 237, 65, 268, 192
-0.976643, 321, 185, 384, 248
-0.976695, 101, 81, 132, 208
-0.976746, 297, 113, 360, 240
-0.976802, 237, 73, 268, 136
-0.977011, 345, 217, 408, 280
-0.977071, 129, 281, 192, 344
-0.977103, 129, 65, 192, 320
-0.977441, 201, 129, 264, 256
-0.977461, 465, 81, 496, 208
-0.977515, 409, 201, 472, 264
-0.977646, 21, 65, 52, 192
-0.977689, 25, 1, 88, 128
-0.97772, 61, 81, 92, 144
-0.977766, 165, 89, 196, 152
-0.977799, 369, 89, 496, 152
-0.977816, 337, 65, 368, 128
-0.977817, 129, 265, 256, 328
-0.977836, 289, 273, 416, 336
-0.977863, 209, 65, 272, 320
-0.977892, 345, 281, 408, 344
-0.978013, 33, 129, 96, 192
-0.97806, 393, 241, 456, 368
-0.97807, 277, 41, 308, 104
-0.978216, 425, 81, 456, 208
-0.97823, 369, 73, 400, 136
-0.978234, 113, 65, 144, 192
-0.97825, 369, 233, 432, 296
-0.978264, 389, 89, 420, 152
-0.978325, 437, 81, 468, 208
-0.978356, 49, 225, 112, 352
-0.978384, 153, 65, 216, 320
-0.978418, 273, 185, 336, 248
-0.978683, 53, 105, 84, 168
-0.978746, 49, 33, 80, 160
-0.978799, 153, 193, 216, 320
-0.978804, 337, 49, 368, 176
-0.978902, 453, 81, 484, 208
-0.978911, 177, 89, 208, 152
-0.978974, 233, 113, 296, 176
-0.979035, 65, 105, 192, 168
-0.979036, 313, 57, 344, 120
-0.979105, 297, 1, 360, 375
-0.979217, 129, 241, 192, 368
-0.979275, 61, 97, 92, 224
-0.979303, 153, 113, 184, 176
-0.979356, 193, 81, 224, 208
-0.979419, 209, 257, 336, 320
-0.979422, 349, 65, 380, 128
-0.97947, 289, 65, 416, 128
-0.979472, 393, 233, 456, 296
-0.979754, 45, 81, 76, 208
-0.979771, 433, 185, 496, 248
-0.979793, 281, 1, 344, 128
-0.979827, 97, 89, 128, 152
-0.979902, 73, 193, 136, 256
-0.979958, 369, 65, 400, 192
-0.97997, 129, 209, 192, 272
-0.979982, 193, 233, 256, 296
-0.979983, 217, 89, 248, 152
-0.979993, 329, 17, 392, 144
-0.980005, 25, 41, 88, 104
-0.980006, 209, 305, 336, 368
-0.980007, 133, 81, 164, 144
-0.980042, 281, 49, 312, 176
-0.980066, 89, 17, 152, 144
-0.980082, 353, 249, 480, 312
-0.980154, 377, 33, 440, 160
-0.980209, 289, 225, 416, 288
-0.98025, 305, 233, 368, 296
-0.980315, 249, 281, 312, 344
-0.980326, 149, 81, 180, 208
-0.980381, 165, 113, 196, 176
-0.980468, 193, 81, 320, 144
-0.980479, 217, 81, 248, 208
-0.980492, 409, 121, 472, 184
-0.98053, 257, 65, 288, 128
-0.980588, 177, 241, 240, 368
-0.98063, 413, 97, 444, 160
-0.980637, 321, 113, 384, 240
-0.980674, 433, 57, 496, 120
-0.980688, 177, 113, 208, 176
-0.980892, 249, 49, 280, 176
-0.980911, 385, 81, 416, 208
-0.980941, 257, 1, 384, 128
-0.980971, 329, 129, 392, 375
-0.980974, 329, 49, 392, 112
-0.980993, 297, 41, 360, 104
-0.981101, 205, 81, 236, 208
-0.981135, 153, 193, 216, 256
-0.98116, 425, 89, 456, 152
-0.981188, 345, 161, 408, 224
-0.981264, 17, 113, 144, 176
-0.981325, 209, 185, 336, 248
-0.981349, 129, 185, 192, 248
-0.981466, 369, 161, 432, 224
-0.981476, 113, 113, 240, 176
-0.981553, 433, 137, 496, 200
-0.981571, 169, 233, 232, 296
-0.981587, 353, 17, 416, 144
-0.981595, 1, 33, 32, 160
-0.981614, 137, 65, 168, 192
-0.981616, 289, 297, 416, 360
-0.98163, 385, 65, 448, 128
-0.981638, 293, 49, 324, 176
-0.981693, 325, 65, 356, 128
-0.981699, 425, 177, 488, 304
-0.981759, 225, 209, 352, 272
-0.981799, 273, 209, 336, 272
-0.981841, 309, 49, 340, 176
-0.981883, 257, 1, 320, 375
-0.982095, 305, 1, 368, 128
-0.982176, 177, 113, 304, 176
-0.982243, 81, 281, 208, 344
-0.982335, 213, 113, 244, 176
-0.982338, 273, 185, 400, 248
-0.982378, 85, 97, 116, 160
-0.982391, 161, 145, 224, 208
-0.982394, 89, 217, 152, 280
-0.982437, 33, 1, 96, 375
-0.982484, 113, 81, 144, 144
-0.98254, 437, 33, 468, 160
-0.982547, 241, 41, 368, 104
-0.982554, 365, 265, 396, 328
-0.982577, 205, 89, 236, 152
-0.98266, 53, 217, 84, 280
-0.982674, 137, 313, 200, 375
-0.982718, 241, 313, 272, 375
-0.982808, 105, 65, 168, 320
-0.982809, 417, 241, 480, 368
-0.982866, 1, 225, 64, 288
-0.983029, 33, 201, 160, 264
-0.98313, 297, 313, 360, 375
-0.983176, 105, 137, 168, 200
-0.983226, 297, 57, 328, 120
-0.983231, 113, 241, 176, 304
-0.983247, 369, 281, 432, 344
-0.983265, 313, 289, 344, 352
-0.983266, 113, 305, 176, 368
-0.983277, 281, 265, 344, 328
-0.983349, 433, 209, 496, 272
-0.983373, 293, 297, 324, 360
-0.983441, 397, 81, 428, 208
-0.983471, 457, 97, 488, 160
-0.983502, 9, 65, 40, 128
-0.983519, 81, 121, 144, 184
-0.983619, 33, 161, 96, 288
-0.983708, 273, 249, 400, 312
-0.983742, 265, 41, 296, 104
-0.983806, 289, 161, 352, 224
-0.983837, 305, 89, 432, 152
-0.983844, 233, 1, 296, 375
-0.983875, 257, 1, 320, 128
-0.983895, 161, 297, 224, 360
-0.984036, 229, 185, 260, 248
-0.984092, 105, 177, 168, 304
-0.984097, 377, 209, 408, 336
-0.984103, 341, 273, 372, 336
-0.984134, 433, 1, 496, 375
-0.984208, 365, 161, 396, 288
-0.984225, 377, 249, 408, 312
-0.984259, 145, 65, 272, 128
-0.984265, 369, 57, 496, 120
-0.984282, 137, 113, 168, 176
-0.984316, 233, 145, 296, 208
-0.984335, 289, 185, 320, 248
-0.984342, 57, 177, 120, 304
-0.984355, 73, 105, 104, 168
-0.984444, 241, 281, 368, 344
-0.984506, 321, 1, 384, 375
-0.984524, 273, 97, 336, 224
-0.984524, 325, 241, 356, 368
-0.984537, 413, 81, 444, 208
-0.984537, 245, 225, 276, 352
-0.984603, 185, 65, 248, 128
-0.984629, 41, 193, 104, 256
-0.98463, 17, 137, 144, 200
-0.98465, 225, 1, 288, 128
-0.984669, 129, 297, 256, 360
-0.984681, 161, 241, 288, 304
-0.98473, 305, 129, 368, 375
-0.984771, 29, 97, 60, 160
-0.984791, 225, 241, 256, 368
-0.984798, 369, 185, 496, 248
-0.984821, 145, 89, 176, 152
-0.984851, 113, 193, 240, 256
-0.984914, 249, 97, 280, 224
-0.984994, 129, 137, 192, 200
-0.985046, 321, 193, 448, 256
-0.985072, 45, 297, 76, 360
-0.98508, 73, 241, 136, 304
-0.985105, 241, 225, 304, 288
-0.985124, 25, 313, 56, 375
-0.985149, 393, 241, 424, 304
-0.985166, 341, 177, 372, 304
-0.98519, 217, 257, 248, 320
-0.985198, 321, 49, 352, 176
-0.985201, 409, 257, 472, 320
-0.985211, 1, 305, 128, 368
-0.985213, 225, 113, 256, 176
-0.985264, 401, 89, 432, 152
-0.985347, 277, 305, 308, 368
-0.985354, 337, 273, 464, 336
-0.9854, 393, 1, 456, 375
-0.98543, 273, 161, 400, 224
-0.985433, 313, 161, 376, 224
-0.985447, 329, 281, 360, 344
-0.985459, 353, 65, 384, 192
-0.98552, 73, 113, 104, 240
-0.98557, 161, 73, 224, 136
-0.985605, 57, 1, 120, 375
-0.985617, 185, 1, 248, 375
-0.985622, 321, 161, 448, 224
-0.985643, 177, 217, 304, 280
-0.985652, 89, 57, 152, 120
-0.985656, 65, 49, 192, 112
-0.98566, 81, 161, 144, 288
-0.985684, 193, 281, 320, 344
-0.985689, 261, 241, 292, 368
-0.985725, 197, 121, 228, 184
-0.985726, 201, 137, 264, 200
-0.985783, 277, 177, 308, 240
-0.985786, 9, 113, 72, 240
-0.985795, 353, 129, 480, 192
-0.985942, 1, 41, 128, 104
-0.985955, 353, 1, 416, 375
-0.985998, 145, 241, 208, 304
-0.986057, 41, 225, 72, 352
-0.986069, 425, 161, 488, 224
-0.986077, 5, 201, 36, 264
-0.986113, 137, 281, 168, 344
-0.986134, 73, 265, 136, 328
-0.98615, 57, 145, 120, 208
-0.986187, 129, 217, 256, 280
-0.986212, 401, 145, 464, 208
-0.986259, 161, 1, 224, 375
-0.986268, 349, 241, 380, 368
-0.986329, 377, 129, 440, 192
-0.986353, 277, 241, 308, 368
-0.986501, 129, 1, 192, 375
-0.986522, 309, 193, 340, 256
-0.986565, 97, 241, 224, 304
-0.986574, 469, 89, 500, 152
-0.986676, 237, 289, 268, 352
-0.986706, 161, 193, 288, 256
-0.986744, 57, 297, 88, 360
-0.986767, 229, 113, 260, 240
-0.98678, 129, 65, 192, 128
-0.986787, 137, 113, 168, 240
-0.986824, 329, 177, 360, 304
-0.986851, 377, 161, 408, 288
-0.986918, 5, 225, 36, 352
-0.986925, 389, 225, 420, 352
-0.986929, 241, 193, 272, 256
-0.986985, 89, 1, 152, 375
-0.986994, 81, 313, 144, 375
-0.987008, 129, 17, 192, 144
-0.98705, 401, 305, 464, 368
-0.987078, 161, 33, 192, 160
-0.987126, 241, 89, 304, 152
-0.987149, 281, 129, 344, 375
-0.987158, 369, 225, 496, 288
-0.987216, 25, 273, 88, 336
-0.98724, 197, 257, 228, 320
-0.987303, 329, 97, 392, 160
-0.987357, 225, 217, 256, 280
-0.987382, 149, 33, 180, 160
-0.987393, 9, 225, 40, 288
-0.98747, 117, 121, 148, 184
-0.987491, 249, 129, 312, 375
-0.98758, 21, 17, 52, 144
-0.987611, 109, 225, 140, 352
-0.987656, 153, 265, 184, 328
-0.987661, 409, 65, 472, 128
-0.987716, 237, 257, 268, 320
-0.987722, 113, 137, 240, 200
-0.987742, 265, 81, 328, 144
-0.987759, 261, 89, 292, 152
-0.987806, 9, 17, 72, 80
-0.987817, 193, 57, 320, 120
-0.987853, 217, 297, 248, 360
-0.98786, 297, 225, 328, 352
-0.987877, 401, 209, 432, 336
-0.987909, 125, 129, 156, 256
-0.987912, 289, 177, 320, 304
-0.987917, 265, 193, 296, 320
-0.987948, 13, 41, 44, 104
-0.987956, 389, 161, 420, 288
-0.987969, 261, 97, 292, 224
-0.988046, 25, 225, 56, 352
-0.988046, 53, 129, 84, 192
-0.988065, 361, 225, 392, 352
-0.988069, 17, 177, 80, 240
-0.988073, 389, 185, 420, 248
-0.988087, 81, 305, 208, 368
-0.988115, 193, 137, 320, 200
-0.988117, 241, 89, 368, 152
-0.988136, 209, 1, 272, 375
-0.988149, 1, 177, 32, 304
-0.988149, 249, 113, 280, 176
-0.988172, 65, 129, 192, 192
-0.988182, 49, 241, 176, 304
-0.988191, 421, 161, 452, 288
-0.988231, 25, 41, 56, 104
-0.988277, 257, 305, 288, 368
-0.988307, 33, 113, 64, 240
-0.98831, 33, 85, 96, 116
-0.988352, 225, 65, 480, 128
-0.98839, 309, 225, 340, 352
-0.988448, 113, 289, 144, 352
-0.98846, 253, 241, 284, 304
-0.988533, 225, 233, 352, 296
-0.988593, 33, 73, 96, 104
-0.988611, 373, 169, 404, 232
-0.988629, 73, 57, 104, 120
-0.98865, 81, 17, 112, 144
-0.988669, 373, 217, 404, 280
-0.988723, 33, 281, 160, 344
-0.98876, 253, 201, 284, 264
-0.988811, 121, 193, 152, 320
-0.988924, 413, 233, 444, 296
-0.988937, 213, 225, 244, 352
-0.988968, 89, 289, 120, 352
-0.988973, 181, 33, 212, 160
-0.989001, 41, 129, 72, 192
-0.98903, 29, 217, 60, 280
-0.989043, 65, 89, 320, 152
-0.989055, 177, 129, 208, 256
-0.989073, 265, 61, 328, 92
-0.989082, 121, 209, 152, 272
-0.989089, 145, 209, 176, 336
-0.989105, 409, 93, 472, 124
-0.989106, 337, 241, 368, 368
-0.989119, 209, 217, 240, 280
-0.989123, 321, 129, 352, 256
-0.989125, 89, 121, 120, 184
-0.989137, 1, 1, 64, 375
-0.989152, 165, 273, 196, 336
-0.989156, 257, 137, 384, 200
-0.989159, 273, 65, 304, 128
-0.989195, 409, 209, 440, 272
-0.98921, 393, 209, 424, 272
-0.98922, 145, 117, 208, 148
-0.989275, 309, 177, 340, 304
-0.989279, 105, 201, 136, 264
-0.989294, 85, 57, 116, 120
-0.989303, 185, 313, 216, 375
-0.989309, 433, 161, 464, 288
-0.989312, 137, 137, 168, 200
-0.989336, 205, 305, 236, 368
-0.989353, 353, 265, 384, 328
-0.989371, 9, 69, 72, 100
-0.989418, 209, 161, 336, 224
-0.989458, 225, 113, 352, 176
-0.989477, 453, 145, 484, 208
-0.989482, 441, 209, 472, 272
-0.989486, 33, 61, 96, 92
-0.989506, 1, 225, 128, 288
-0.989506, 13, 305, 44, 368
-0.989534, 57, 97, 120, 128
-0.989553, 81, 225, 112, 352
-0.98956, 113, 85, 176, 116
-0.989593, 57, 85, 120, 116
-0.989602, 433, 233, 464, 296
-0.989608, 409, 161, 440, 288
-0.989612, 449, 33, 480, 160
-0.989646, 33, 305, 96, 336
-0.989649, 149, 129, 180, 256
-0.989655, 241, 177, 272, 304
-0.989684, 321, 69, 384, 100
-0.989736, 305, 257, 336, 320
-0.989761, 225, 33, 256, 160
-0.989783, 369, 253, 432, 284
-0.989802, 9, 313, 72, 344
-0.989865, 261, 121, 292, 184
-0.989892, 225, 81, 288, 112
-0.989894, 101, 273, 132, 336
-0.989901, 93, 33, 124, 160
-0.989913, 69, 297, 100, 360
-0.989922, 33, 17, 64, 144
-0.989931, 53, 241, 84, 368
-0.989988, 97, 289, 160, 320
-0.990012, 65, 241, 96, 368
-0.99003, 237, 105, 268, 168
-0.990046, 425, 33, 456, 160
-0.990111, 297, 65, 360, 96
-0.990123, 377, 113, 440, 144
-0.990134, 169, 117, 232, 148
-0.990147, 341, 193, 372, 256
-0.990175, 53, 193, 84, 320
-0.990176, 417, 129, 448, 192
-0.990176, 393, 265, 424, 328
-0.990199, 45, 41, 76, 104
-0.990202, 181, 265, 212, 328
-0.990209, 73, 129, 104, 192
-0.99021, 345, 265, 408, 296
-0.990213, 189, 241, 220, 368
-0.990221, 33, 97, 96, 128
-0.990221, 73, 73, 136, 104
-0.990232, 29, 177, 60, 304
-0.990236, 297, 209, 328, 272
-0.990241, 345, 77, 408, 108
-0.990245, 9, 53, 72, 84
-0.99025, 105, 117, 168, 148
-0.990252, 313, 277, 376, 308
-0.99027, 201, 225, 232, 352
-0.990281, 265, 245, 328, 276
-0.990286, 461, 217, 492, 280
-0.990305, 405, 265, 436, 328
-0.990347, 209, 325, 272, 356
-0.990364, 145, 101, 208, 132
-0.990387, 185, 97, 248, 128
-0.990391, 289, 297, 352, 328
-0.990399, 433, 161, 464, 224
-0.99041, 457, 73, 488, 136
-0.990425, 65, 217, 96, 280
-0.990442, 209, 257, 272, 288
-0.990464, 137, 277, 200, 308
-0.990487, 177, 345, 240, 375
-0.990495, 421, 161, 452, 224
-0.99051, 33, 109, 96, 140
-0.990538, 209, 93, 272, 124
-0.990555, 253, 41, 284, 104
-0.990576, 329, 193, 360, 256
-0.990601, 33, 133, 96, 164
-0.990614, 193, 73, 224, 136
-0.990614, 133, 193, 164, 320
-0.990632, 261, 145, 292, 272
-0.990636, 233, 69, 296, 100
-0.99065, 369, 93, 432, 124
-0.990657, 177, 265, 240, 296
-0.990658, 1, 177, 128, 240
-0.990666, 145, 133, 208, 164
-0.990729, 65, 297, 128, 328
-0.99075, 381, 33, 412, 160
-0.990754, 161, 169, 288, 232
-0.990811, 185, 133, 248, 164
-0.990819, 201, 33, 232, 160
-0.990824, 233, 129, 296, 160
-0.990851, 393, 237, 456, 268
-0.990859, 209, 137, 272, 168
-0.990863, 1, 73, 500, 136
-0.99087, 57, 121, 120, 152
-0.99087, 273, 49, 336, 80
-0.990897, 265, 189, 328, 220
-0.990903, 297, 181, 360, 212
-0.990913, 49, 217, 112, 248
-0.990935, 277, 129, 308, 256
-0.99097, 1, 249, 128, 312
-0.991006, 433, 225, 464, 352
-0.991044, 249, 309, 312, 340
-0.991053, 357, 17, 388, 144
-0.991089, 81, 89, 144, 120
-0.991106, 209, 109, 272, 140
-0.991113, 321, 169, 384, 200
-0.991113, 57, 61, 120, 92
-0.991126, 57, 109, 120, 140
-0.991168, 145, 209, 208, 240
-0.991189, 369, 153, 496, 216
-0.991204, 289, 273, 352, 304
-0.991213, 81, 213, 144, 244
-0.991214, 169, 217, 232, 248
-0.991221, 305, 121, 432, 184
-0.99124, 193, 121, 256, 152
-0.991273, 145, 221, 208, 252
-0.9913, 361, 169, 424, 200
-0.991301, 73, 201, 136, 232
-0.991304, 81, 225, 144, 256
-0.991306, 241, 253, 304, 284
-0.991312, 81, 113, 144, 144
-0.991312, 409, 177, 472, 208
-0.991322, 433, 89, 496, 120
-0.991325, 385, 185, 448, 216
-0.99133, 313, 289, 376, 320
-0.991335, 305, 237, 368, 268
-0.991338, 401, 113, 464, 144
-0.991343, 209, 201, 272, 232
-0.991358, 185, 321, 248, 352
-0.991364, 25, 221, 88, 252
-0.991375, 329, 185, 392, 216
-0.991377, 113, 217, 176, 248
-0.991384, 201, 337, 264, 368
-0.991387, 57, 133, 120, 164
-0.991396, 193, 89, 448, 152
-0.991431, 393, 81, 456, 112
-0.991435, 233, 205, 296, 236
-0.991435, 265, 209, 328, 240
-0.991439, 233, 321, 296, 352
-0.99144, 393, 125, 456, 156
-0.991453, 401, 205, 464, 236
-0.991455, 297, 201, 360, 232
-0.991457, 113, 277, 176, 308
-0.991458, 233, 93, 296, 124
-0.991458, 121, 241, 152, 368
-0.991463, 165, 129, 196, 256
-0.991469, 265, 341, 328, 372
-0.991479, 129, 289, 192, 320
-0.991499, 345, 89, 408, 120
-0.991501, 1, 225, 64, 256
-0.991543, 393, 249, 456, 280
-0.991549, 1, 97, 64, 128
-0.99155, 113, 113, 144, 240
-0.99156, 145, 89, 208, 120
-0.991567, 153, 289, 216, 320
-0.99157, 273, 73, 336, 104
-0.991615, 81, 101, 144, 132
-0.991618, 233, 193, 296, 224
-0.991645, 105, 133, 168, 164
-0.991656, 273, 309, 336, 340
-0.991658, 249, 289, 312, 320
-0.99167, 161, 277, 224, 308
-0.991673, 33, 121, 96, 152
-0.991677, 377, 209, 440, 240
-0.991684, 337, 277, 400, 308
-0.991687, 445, 145, 476, 272
-0.991694, 177, 205, 240, 236
-0.991702, 9, 205, 72, 236
-0.991715, 197, 129, 228, 256
-0.99173, 33, 205, 96, 236
-0.991731, 265, 229, 328, 260
-0.991731, 417, 129, 480, 160
-0.991736, 17, 329, 80, 360
-0.991755, 433, 77, 496, 108
-0.99176, 345, 253, 408, 284
-0.991767, 193, 277, 256, 308
-0.991771, 281, 1, 312, 128
-0.991775, 457, 129, 488, 256
-0.991791, 25, 345, 88, 375
-0.991794, 213, 129, 244, 256
-0.991803, 145, 41, 272, 104
-0.991808, 225, 337, 288, 368
-0.991822, 377, 273, 440, 304
-0.991824, 57, 229, 120, 260
-0.991845, 193, 81, 256, 112
-0.991853, 9, 81, 72, 112
-0.991855, 137, 341, 200, 372
-0.991857, 273, 85, 336, 116
-0.99187, 233, 141, 296, 172
-0.99188, 9, 245, 72, 276
-0.991882, 417, 225, 480, 256
-0.99189, 289, 325, 352, 356
-0.991901, 305, 85, 368, 116
-0.991931, 61, 61, 92, 92
-0.991974, 93, 145, 124, 272
-0.991997, 237, 17, 268, 144
-0.992113, 61, 73, 92, 104
-0.992177, 49, 65, 80, 96
-0.992179, 69, 89, 100, 120
-0.992236, 213, 177, 244, 304
-0.992281, 25, 73, 56, 104
-0.992323, 337, 297, 464, 360
-0.992331, 49, 81, 80, 112
-0.992377, 37, 69, 68, 100
-0.992446, 269, 1, 300, 128
-0.99249, 265, 65, 296, 96
-0.992502, 237, 81, 268, 112
-0.992515, 281, 53, 312, 84
-0.992516, 309, 61, 340, 92
-0.992532, 437, 89, 468, 120
-0.992542, 257, 177, 500, 240
-0.992544, 77, 101, 108, 132
-0.992557, 353, 177, 384, 304
-0.992559, 213, 33, 244, 160
-0.992572, 229, 161, 260, 288
-0.9926, 101, 93, 132, 124
-0.992604, 341, 69, 372, 100
-0.992613, 153, 117, 184, 148
-0.992613, 193, 33, 320, 96
-0.992614, 41, 105, 72, 136
-0.99262, 401, 249, 432, 280
-0.992623, 413, 101, 444, 132
-0.992626, 1, 121, 256, 184
-0.992631, 41, 93, 72, 124
-0.992643, 9, 69, 40, 100
-0.992665, 221, 89, 252, 120
-0.992673, 17, 57, 48, 88
-0.992674, 65, 177, 192, 240
-0.992674, 405, 113, 436, 144
-0.992679, 301, 1, 332, 128
-0.992697, 373, 81, 404, 112
-0.992699, 121, 85, 152, 116
-0.992706, 65, 57, 320, 120
-0.992712, 57, 93, 88, 124
-0.992713, 89, 97, 120, 128
-0.992719, 389, 253, 420, 284
-0.992725, 181, 117, 212, 148
-0.992739, 129, 285, 160, 316
-0.992755, 137, 133, 168, 164
-0.992757, 205, 341, 236, 372
-0.992775, 293, 61, 324, 92
-0.992781, 141, 121, 172, 152
-0.992783, 333, 113, 364, 240
-0.992785, 53, 109, 84, 140
-0.99279, 353, 73, 384, 104
-0.992792, 129, 257, 384, 320
-0.992792, 237, 325, 268, 356
-0.992798, 29, 309, 60, 340
-0.992798, 457, 101, 488, 132
-0.992813, 237, 253, 268, 284
-0.992815, 93, 213, 124, 244
-0.992821, 1, 37, 32, 68
-0.992823, 101, 289, 132, 320
-0.99283, 157, 209, 188, 336
-0.992833, 181, 193, 212, 320
-0.992839, 165, 101, 196, 132
-0.992843, 201, 93, 232, 124
-0.99285, 393, 93, 424, 124
-0.992851, 329, 69, 360, 100
-0.992858, 213, 121, 244, 152
-0.992862, 265, 197, 296, 228
-0.992862, 61, 301, 92, 332
-0.992862, 45, 305, 76, 336
-0.992865, 17, 77, 144, 108
-0.99287, 373, 261, 404, 292
-0.992871, 113, 221, 144, 252
-0.992874, 289, 193, 320, 224
-0.992875, 221, 333, 252, 364
-0.992879, 309, 233, 340, 264
-0.992881, 217, 105, 248, 136
-0.992883, 253, 73, 284, 104
-0.992884, 417, 225, 448, 352
-0.992886, 85, 297, 116, 328
-0.992888, 221, 321, 252, 352
-0.992891, 297, 297, 328, 328
-0.992897, 61, 121, 92, 152
-0.992898, 69, 217, 100, 248
-0.992901, 357, 269, 388, 300
-0.992907, 257, 65, 384, 96
-0.992907, 329, 169, 360, 200
-0.992907, 421, 237, 452, 268
-0.992907, 205, 265, 236, 296
-0.992909, 149, 277, 180, 308
-0.992923, 193, 105, 224, 136
-0.992924, 137, 217, 168, 248
-0.992924, 193, 341, 224, 372
-0.992925, 133, 85, 164, 116
-0.99293, 53, 133, 84, 164
-0.99293, 13, 313, 44, 344
-0.992933, 261, 93, 292, 124
-0.992933, 13, 177, 44, 304
-0.992935, 469, 213, 500, 244
-0.992937, 309, 185, 340, 216
-0.992938, 5, 57, 36, 88
-0.992939, 341, 277, 372, 308
-0.992944, 241, 205, 272, 236
-0.992944, 41, 133, 72, 164
-0.992944, 121, 205, 152, 236
-0.992946, 277, 197, 308, 228
-0.99295, 425, 93, 456, 124
-0.992952, 121, 121, 152, 152
-0.992957, 169, 273, 200, 304
-0.992959, 85, 81, 116, 112
-0.992961, 257, 249, 288, 280
-0.992964, 265, 53, 296, 84
-0.992973, 173, 137, 204, 168
-0.992981, 169, 217, 200, 248
-0.992992, 181, 101, 212, 132
-0.993001, 117, 285, 148, 316
-0.993003, 73, 77, 104, 108
-0.993011, 413, 249, 444, 280
-0.993015, 197, 217, 228, 248
-0.993021, 249, 321, 280, 352
-0.993028, 449, 221, 480, 252
-0.993031, 469, 93, 500, 124
-0.993039, 29, 93, 60, 124
-0.993041, 41, 121, 72, 152
-0.993045, 173, 89, 204, 120
-0.993051, 73, 305, 104, 336
-0.993052, 245, 133, 276, 164
-0.993052, 325, 185, 356, 216
-0.993053, 49, 65, 64, 128
-0.993057, 45, 229, 76, 260
-0.993058, 241, 101, 272, 132
-0.993059, 217, 265, 248, 296
-0.993064, 85, 117, 116, 148
-0.993066, 17, 225, 48, 256
-0.993066, 341, 165, 372, 196
-0.993067, 273, 185, 304, 216
-0.993068, 277, 241, 308, 272
-0.993073, 225, 141, 256, 172
-0.993074, 181, 217, 212, 248
-0.993075, 325, 285, 356, 316
-0.993076, 313, 289, 344, 320
-0.993077, 269, 129, 300, 160
-0.993084, 241, 189, 272, 220
-0.993088, 65, 105, 96, 136
-0.993088, 1, 317, 32, 348
-0.993089, 393, 113, 424, 144
-0.993092, 93, 225, 124, 352
-0.993094, 353, 165, 384, 196
-0.993096, 145, 89, 176, 120
-0.993098, 209, 329, 240, 360
-0.993107, 285, 305, 316, 336
-0.993108, 165, 121, 196, 152
-0.99311, 289, 241, 320, 272
-0.993111, 265, 301, 296, 332
-0.993111, 65, 289, 320, 352
-0.993122, 17, 89, 144, 120
-0.993134, 81, 217, 208, 280
-0.993212, 65, 209, 320, 272
-0.99325, 321, 1, 352, 128
-0.993274, 81, 89, 208, 120
-0.993386, 253, 1, 284, 128
-0.993437, 57, 145, 88, 272
-0.993443, 73, 57, 88, 120
-0.993447, 409, 33, 440, 160
-0.993564, 1, 17, 128, 80
-0.993712, 129, 113, 384, 176
-0.993791, 257, 297, 500, 360
-0.993816, 161, 193, 416, 256
-0.993828, 7, 25, 22, 88
-0.993841, 67, 81, 82, 144
-0.993885, 39, 65, 54, 128
-0.993897, 1, 273, 500, 336
-0.993975, 305, 41, 432, 104
-0.993989, 57, 105, 72, 168
-0.994135, 61, 57, 76, 120
-0.9944, 113, 169, 240, 232
-0.994414, 83, 73, 98, 136
-0.994486, 55, 73, 70, 136
-0.994535, 67, 57, 82, 120
-0.994576, 225, 273, 480, 336
-0.994582, 423, 97, 438, 160
-0.994619, 1, 105, 128, 136
-0.994647, 285, 41, 300, 104
-0.99466, 239, 73, 254, 136
-0.994751, 187, 81, 202, 144
-0.994753, 13, 41, 28, 104
-0.994769, 257, 209, 500, 272
-0.994772, 341, 65, 356, 128
-0.994796, 369, 93, 496, 124
-0.994809, 49, 105, 64, 168
-0.994844, 177, 337, 304, 368
-0.994847, 1, 65, 128, 96
-0.994855, 49, 121, 176, 152
-0.99489, 81, 213, 208, 244
-0.994897, 61, 81, 76, 144
-0.994925, 1, 129, 500, 192
-0.994956, 389, 81, 404, 144
-0.994981, 351, 65, 366, 128
-0.994996, 249, 73, 264, 136
-0.994996, 161, 201, 288, 232
-0.995034, 155, 97, 170, 160
-0.995044, 145, 81, 272, 112
-0.995076, 95, 89, 110, 152
-0.995101, 161, 305, 416, 368
-0.995112, 87, 97, 102, 160
-0.995115, 225, 77, 352, 108
-0.995122, 263, 65, 278, 128
-0.995185, 289, 77, 416, 108
-0.995191, 359, 65, 374, 128
-0.995209, 453, 89, 468, 152
-0.995216, 63, 105, 78, 168
-0.995221, 39, 97, 54, 160
-0.995221, 317, 57, 332, 120
-0.995223, 145, 93, 272, 124
-0.995266, 221, 97, 236, 160
-0.995305, 225, 41, 480, 104
-0.995335, 271, 41, 286, 104
-0.995337, 101, 89, 116, 152
-0.995364, 321, 189, 448, 220
-0.995372, 381, 73, 396, 136
-0.995375, 17, 133, 144, 164
-0.995414, 193, 217, 320, 248
-0.995425, 15, 65, 30, 128
-0.995439, 1, 33, 16, 96
-0.995442, 257, 241, 500, 304
-0.995446, 437, 89, 452, 152
-0.995479, 209, 89, 336, 120
-0.995487, 1, 309, 128, 340
-0.995496, 65, 33, 96, 288
-0.995497, 33, 293, 160, 324
-0.995498, 233, 81, 248, 144
-0.99551, 395, 89, 410, 152
-0.995514, 295, 49, 310, 112
-0.995522, 289, 285, 416, 316
-0.995534, 325, 57, 340, 120
-0.995552, 443, 57, 458, 120
-0.995565, 33, 233, 288, 296
-0.995565, 429, 97, 444, 160
-0.995572, 129, 169, 384, 232
-0.995583, 1, 97, 500, 160
-0.995591, 217, 121, 232, 184
-0.995595, 81, 133, 208, 164
-0.995597, 209, 325, 336, 356
-0.995614, 167, 89, 182, 152
-0.995614, 129, 217, 256, 248
-0.995614, 407, 89, 422, 152
-0.995622, 193, 89, 208, 152
-0.995629, 307, 57, 322, 120
-0.995629, 145, 81, 160, 144
-0.995631, 33, 73, 48, 136
-0.995672, 255, 113, 270, 176
-0.995679, 225, 185, 352, 216
-0.995706, 463, 97, 478, 160
-0.995723, 119, 81, 134, 144
-0.995732, 177, 137, 304, 168
-0.995738, 321, 169, 448, 200
-0.995738, 33, 217, 160, 248
-0.995738, 23, 57, 38, 120
-0.995743, 207, 97, 222, 160
-0.995751, 111, 89, 126, 152
-0.99577, 125, 81, 140, 144
-0.99577, 273, 181, 400, 212
-0.99579, 17, 205, 144, 236
-0.995793, 173, 89, 188, 152
-0.995797, 255, 73, 270, 136
-0.995807, 183, 113, 198, 176
-0.995808, 301, 57, 316, 120
-0.995809, 161, 217, 416, 280
-0.995816, 113, 201, 240, 232
-0.995825, 273, 65, 288, 128
-0.995825, 1, 201, 500, 264
-0.995833, 77, 81, 92, 144
-0.995839, 179, 89, 194, 152
-0.99584, 449, 57, 464, 120
-0.995841, 177, 109, 304, 140
-0.995842, 305, 273, 432, 304
-0.995851, 209, 313, 336, 344
-0.995854, 225, 249, 352, 280
-0.995857, 81, 285, 208, 316
-0.995876, 391, 249, 406, 312
-0.995898, 471, 97, 486, 160
-0.995907, 369, 205, 496, 236
-0.99592, 273, 241, 400, 272
-0.995929, 1, 297, 500, 360
-0.995935, 209, 65, 336, 96
-0.995941, 1, 313, 256, 375
-0.995959, 483, 81, 498, 144
-0.995974, 261, 113, 276, 176
-0.995986, 375, 73, 390, 136
-0.995996, 147, 121, 162, 184
-0.996001, 153, 121, 168, 184
-0.996009, 33, 185, 288, 248
-0.996015, 97, 137, 352, 200
-0.996017, 161, 113, 176, 176
-0.996023, 305, 89, 432, 120
-0.996026, 193, 113, 208, 176
-0.996062, 137, 81, 152, 144
-0.996085, 447, 81, 462, 144
-0.996086, 1, 249, 500, 312
-0.996098, 211, 257, 226, 320
-0.996103, 215, 97, 230, 160
-0.996105, 53, 305, 68, 368
-0.996116, 325, 281, 340, 344
-0.996124, 265, 89, 280, 152
-0.996152, 369, 253, 496, 284
-0.996155, 75, 105, 90, 168
-0.996161, 257, 197, 384, 228
-0.996184, 145, 281, 160, 344
-0.996185, 201, 97, 216, 160
-0.996209, 369, 81, 496, 112
-0.996222, 161, 81, 176, 144
-0.996229, 131, 81, 146, 144
-0.996241, 477, 89, 492, 152
-0.996244, 205, 265, 220, 328
-0.996245, 369, 109, 496, 140
-0.996262, 239, 185, 254, 248
-0.996275, 393, 65, 424, 320
-0.996276, 273, 297, 400, 328
-0.996279, 225, 113, 480, 176
-0.996279, 129, 129, 256, 160
-0.996305, 55, 49, 70, 112
-0.996309, 225, 273, 352, 304
-0.996321, 353, 265, 480, 296
-0.99633, 129, 317, 256, 348
-0.996341, 387, 217, 402, 280
-0.996345, 65, 153, 192, 216
-0.99635, 305, 297, 320, 360
-0.996374, 365, 65, 380, 128
-0.996377, 229, 105, 244, 168
-0.996381, 401, 89, 416, 152
-0.996381, 193, 285, 320, 316
-0.996391, 1, 49, 500, 112
-0.996409, 129, 141, 256, 172
-0.996412, 261, 33, 292, 288
-0.996413, 177, 301, 304, 332
-0.996414, 273, 169, 400, 200
-0.996418, 61, 217, 76, 280
-0.996425, 291, 297, 306, 360
-0.996429, 377, 65, 408, 320
-0.996442, 335, 65, 350, 128
-0.996443, 1, 53, 128, 84
-0.996445, 241, 249, 256, 312
-0.996448, 241, 209, 368, 240
-0.996459, 321, 125, 448, 156
-0.996462, 289, 17, 416, 80
-0.996462, 81, 105, 96, 168
-0.996465, 1, 117, 128, 148
-0.99648, 257, 261, 384, 292
-0.996485, 209, 197, 336, 228
-0.996488, 377, 257, 392, 320
-0.996488, 341, 33, 372, 288
-0.996524, 413, 97, 428, 160
-0.996528, 289, 33, 320, 288
-0.996529, 243, 97, 258, 160
-0.99653, 289, 185, 304, 248
-0.996542, 53, 69, 68, 100
-0.996546, 339, 281, 354, 344
-0.996551, 421, 65, 452, 320
-0.996552, 211, 129, 226, 192
-0.996555, 17, 233, 144, 264
-0.996556, 31, 305, 46, 368
-0.996561, 93, 113, 108, 176
-0.996566, 273, 329, 400, 360
-0.996587, 279, 41, 294, 104
-0.996589, 151, 281, 166, 344
-0.996599, 61, 305, 76, 368
-0.996607, 355, 273, 370, 336
-0.996613, 445, 65, 476, 320
-0.996615, 171, 113, 186, 176
-0.996624, 407, 241, 422, 304
-0.99663, 129, 281, 256, 312
-0.996635, 303, 201, 318, 264
-0.996643, 259, 313, 274, 375
-0.99665, 321, 33, 352, 288
-0.996653, 369, 181, 496, 212
-0.996657, 61, 65, 76, 96
-0.996658, 257, 153, 500, 216
-0.996661, 65, 33, 320, 96
-0.996667, 241, 285, 368, 316
-0.996667, 319, 289, 334, 352
-0.996671, 189, 65, 220, 320
-0.996693, 5, 201, 20, 264
-0.996708, 77, 65, 108, 320
-0.996714, 297, 297, 312, 360
-0.996719, 177, 113, 192, 176
-0.996721, 295, 185, 310, 248
-0.996723, 177, 125, 304, 156
-0.996735, 363, 257, 378, 320
-0.996737, 321, 253, 448, 284
-0.996739, 219, 241, 234, 304
-0.996747, 231, 257, 246, 320
-0.996771, 457, 65, 488, 320
-0.996777, 353, 33, 384, 288
-0.99679, 141, 113, 156, 176
-0.996793, 391, 185, 406, 248
-0.996794, 7, 33, 22, 64
-0.996794, 25, 33, 56, 288
-0.996797, 113, 117, 240, 148
-0.9968, 265, 41, 280, 104
-0.996809, 247, 225, 262, 288
-0.996812, 217, 97, 248, 352
-0.996812, 371, 257, 386, 320
-0.996814, 177, 253, 304, 284
-0.996816, 269, 241, 284, 304
-0.996828, 1, 145, 256, 208
-0.996838, 65, 77, 192, 108
-0.996863, 1, 225, 500, 288
-0.996885, 433, 65, 464, 320
-0.996893, 41, 69, 56, 100
-0.996904, 37, 33, 68, 288
-0.996906, 469, 65, 500, 320
-0.996919, 309, 33, 340, 288
-0.99692, 365, 65, 396, 320
-0.996935, 177, 65, 208, 320
-0.996944, 287, 45, 302, 76
-0.996972, 133, 65, 164, 320
-0.996975, 17, 57, 32, 88
-0.996978, 113, 229, 240, 260
-0.996983, 153, 65, 184, 320
-0.996994, 177, 185, 304, 216
-0.996994, 65, 197, 192, 228
-0.997011, 105, 65, 136, 320
-0.997018, 1, 321, 128, 352
-0.997031, 49, 305, 176, 336
-0.997057, 405, 65, 436, 320
-0.997078, 305, 229, 432, 260
-0.997089, 257, 137, 384, 168
-0.997098, 353, 285, 480, 316
-0.997099, 369, 129, 496, 160
-0.997114, 177, 265, 304, 296
-0.99712, 43, 89, 58, 120
-0.997137, 249, 33, 280, 288
-0.997148, 277, 33, 308, 288
-0.997151, 225, 297, 352, 328
-0.997154, 73, 61, 88, 92
-0.997155, 93, 65, 124, 320
-0.997168, 273, 345, 400, 375
-0.997176, 319, 61, 334, 92
-0.997182, 321, 241, 448, 272
-0.997192, 113, 333, 240, 364
-0.997205, 1, 1, 32, 256
-0.997213, 65, 109, 192, 140
-0.99724, 33, 153, 160, 184
-0.997242, 129, 345, 256, 375
-0.997263, 233, 97, 264, 352
-0.997273, 161, 229, 288, 260
-0.997356, 201, 65, 232, 320
-0.997376, 241, 53, 368, 84
-0.997377, 225, 237, 352, 268
-0.99738, 129, 269, 256, 300
-0.997396, 241, 221, 368, 252
-0.997397, 129, 297, 256, 328
-0.997413, 49, 97, 80, 352
-0.997413, 369, 169, 496, 200
-0.997418, 117, 65, 148, 320
-0.99742, 337, 217, 464, 248
-0.997423, 67, 77, 82, 108
-0.997428, 67, 61, 82, 92
-0.997432, 57, 109, 72, 140
-0.997433, 305, 317, 432, 348
-0.997436, 33, 265, 288, 328
-0.997445, 81, 345, 208, 375
-0.997456, 153, 121, 168, 152
-0.997476, 237, 81, 252, 112
-0.997488, 95, 97, 110, 128
-0.997504, 11, 45, 26, 76
-0.997508, 417, 105, 432, 136
-0.99751, 369, 69, 496, 100
-0.997521, 257, 309, 384, 340
-0.997524, 321, 109, 448, 140
-0.997525, 61, 77, 76, 108
-0.997537, 1, 177, 500, 240
-0.997546, 369, 157, 496, 188
-0.997554, 209, 149, 336, 180
-0.997554, 411, 97, 426, 128
-0.997558, 113, 105, 240, 136
-0.99757, 79, 69, 94, 100
-0.997579, 83, 89, 98, 120
-0.997582, 257, 149, 384, 180
-0.997586, 217, 121, 232, 152
-0.997592, 1, 41, 16, 72
-0.997608, 67, 89, 82, 120
-0.997609, 369, 241, 496, 272
-0.997617, 307, 61, 322, 92
-0.99762, 225, 345, 352, 375
-0.99762, 185, 121, 200, 152
-0.997624, 73, 81, 88, 112
-0.997625, 89, 101, 104, 132
-0.997635, 27, 69, 42, 100
-0.997646, 321, 305, 448, 336
-0.997674, 447, 89, 462, 120
-0.997692, 225, 125, 352, 156
-0.997699, 295, 57, 310, 88
-0.997703, 55, 121, 70, 152
-0.997704, 63, 101, 78, 132
-0.997706, 165, 65, 196, 320
-0.997707, 11, 65, 26, 96
-0.997718, 457, 101, 472, 132
-0.997726, 411, 113, 426, 144
-0.997735, 417, 117, 432, 148
-0.99774, 325, 65, 340, 96
-0.997764, 217, 93, 232, 124
-0.997774, 1, 41, 128, 72
-0.997781, 283, 57, 298, 88
-0.997783, 113, 189, 240, 220
-0.997789, 81, 149, 208, 180
-0.997793, 269, 65, 284, 96
-0.997797, 341, 69, 356, 100
-0.9978, 47, 105, 62, 136
-0.997801, 245, 77, 260, 108
-0.997817, 49, 65, 176, 96
-0.997824, 225, 101, 352, 132
-0.997825, 33, 249, 160, 280
-0.997831, 431, 97, 446, 128
-0.997834, 383, 77, 398, 108
-0.997834, 45, 309, 60, 340
-0.997842, 33, 77, 48, 108
-0.997854, 117, 221, 132, 252
-0.997856, 49, 1, 80, 256
-0.997866, 61, 89, 76, 120
-0.99787, 47, 69, 62, 100
-0.997871, 313, 61, 328, 92
-0.997893, 17, 193, 144, 224
-0.997898, 37, 97, 52, 128
-0.997898, 65, 237, 192, 268
-0.9979, 277, 53, 292, 84
-0.997902, 365, 73, 380, 104
-0.997911, 105, 93, 120, 124
-0.997919, 347, 69, 362, 100
-0.997923, 41, 109, 56, 140
-0.997926, 189, 101, 204, 132
-0.997928, 33, 337, 160, 368
-0.997936, 401, 249, 416, 280
-0.997946, 249, 133, 264, 164
-0.997946, 475, 97, 490, 128
-0.997956, 259, 137, 274, 168
-0.997958, 443, 77, 458, 108
-0.997962, 251, 321, 266, 352
-0.997964, 185, 89, 200, 120
-0.997971, 175, 133, 190, 164
-0.997974, 261, 69, 276, 100
-0.99798, 65, 185, 192, 216
-0.997985, 423, 105, 438, 136
-0.997986, 355, 73, 370, 104
-0.997989, 129, 69, 256, 100
-0.997994, 17, 77, 32, 108
-0.997995, 1, 281, 128, 312
-0.997996, 55, 133, 70, 164
-0.997996, 251, 77, 266, 108
-0.997997, 127, 85, 142, 116
-0.998008, 229, 89, 244, 120
-0.99801, 55, 57, 70, 88
-0.998011, 351, 169, 366, 200
-0.998014, 143, 125, 158, 156
-0.998016, 273, 249, 288, 280
-0.998016, 49, 25, 176, 88
-0.998021, 159, 85, 174, 116
-0.998026, 485, 81, 500, 112
-0.998026, 51, 309, 66, 340
-0.998028, 61, 133, 76, 164
-0.998029, 13, 33, 44, 288
-0.998033, 1, 29, 16, 60
-0.998039, 269, 137, 284, 168
-0.998042, 141, 217, 156, 248
-0.998045, 209, 137, 224, 168
-0.998045, 81, 101, 96, 132
-0.998046, 13, 33, 28, 64
-0.998046, 437, 93, 452, 124
-0.998051, 455, 229, 470, 260
-0.998055, 141, 85, 156, 116
-0.998055, 183, 133, 198, 164
-0.998065, 353, 229, 480, 260
-0.998069, 245, 257, 260, 288
-0.99807, 331, 65, 346, 96
-0.998072, 465, 221, 480, 252
-0.998072, 299, 193, 314, 224
-0.998076, 239, 201, 254, 232
-0.998078, 129, 285, 144, 316
-0.998083, 35, 309, 50, 340
-0.998083, 67, 121, 82, 152
-0.998088, 223, 97, 238, 128
-0.998088, 309, 293, 324, 324
-0.998092, 389, 85, 404, 116
-0.998106, 181, 217, 196, 248
-0.998106, 301, 61, 316, 92
-0.998111, 269, 93, 284, 124
-0.998111, 229, 321, 244, 352
-0.998114, 57, 305, 72, 336
-0.998116, 121, 85, 136, 116
-0.998124, 449, 229, 464, 260
-0.998131, 411, 245, 426, 276
-0.998133, 423, 125, 438, 156
-0.998137, 237, 97, 252, 128
-0.99815, 49, 89, 64, 120
-0.998163, 199, 345, 214, 375
-0.99817, 173, 273, 188, 304
-0.998173, 305, 201, 432, 232
-0.998175, 275, 85, 290, 116
-0.998175, 109, 213, 124, 244
-0.998177, 207, 341, 222, 372
-0.998177, 151, 133, 166, 164
-0.998177, 75, 93, 90, 124
-0.998178, 205, 121, 220, 152
-0.998179, 395, 253, 410, 284
-0.998179, 111, 93, 126, 124
-0.99818, 275, 65, 290, 96
-0.998181, 255, 121, 270, 152
-0.998184, 239, 325, 254, 356
-0.998188, 145, 153, 272, 184
-0.998192, 111, 289, 126, 320
-0.998198, 61, 129, 92, 375
-0.998204, 315, 73, 330, 104
-0.998215, 193, 49, 320, 80
-0.998251, 49, 273, 176, 304
-0.998257, 213, 1, 244, 256
-0.998327, 257, 113, 384, 144
-0.998337, 369, 193, 496, 224
-0.998343, 1, 153, 500, 216
-0.998344, 41, 83, 104, 98
-0.998345, 321, 157, 448, 188
-0.998374, 177, 241, 304, 272
-0.99839, 73, 49, 88, 176
-0.998417, 305, 65, 432, 96
-0.998418, 313, 193, 344, 208
-0.998419, 229, 197, 260, 212
-0.998419, 45, 245, 76, 260
-0.99842, 261, 199, 292, 214
-0.998421, 33, 91, 96, 106
-0.998421, 1, 227, 32, 242
-0.998422, 273, 61, 304, 76
-0.998423, 233, 331, 264, 346
-0.998423, 329, 285, 360, 300
-0.998424, 217, 329, 248, 344
-0.998425, 77, 223, 108, 238
-0.998425, 381, 125, 412, 140
-0.998427, 221, 205, 252, 220
-0.998427, 33, 67, 96, 82
-0.998428, 17, 73, 80, 88
-0.998431, 273, 197, 304, 212
-0.998432, 277, 189, 308, 204
-0.998433, 233, 87, 264, 102
-0.998433, 61, 225, 92, 240
-0.998434, 125, 287, 156, 302
-0.998434, 457, 93, 488, 108
-0.998435, 137, 135, 168, 150
-0.998436, 61, 109, 92, 124
-0.998436, 197, 269, 228, 284
-0.998436, 273, 247, 304, 262
-0.998437, 261, 193, 292, 208
-0.998437, 425, 97, 488, 112
-0.998437, 1, 51, 32, 66
-0.998438, 25, 223, 56, 238
-0.998438, 41, 77, 104, 92
-0.998439, 61, 91, 92, 106
-0.998441, 157, 217, 188, 232
-0.998441, 61, 219, 92, 234
-0.998442, 49, 309, 80, 324
-0.998443, 145, 117, 208, 132
-0.998445, 73, 217, 104, 232
-0.998447, 225, 101, 256, 116
-0.998448, 393, 95, 424, 110
-0.998448, 1, 43, 32, 58
-0.998449, 65, 117, 96, 132
-0.998449, 381, 261, 412, 276
-0.99845, 305, 239, 336, 254
-0.998451, 181, 223, 212, 238
-0.998451, 405, 99, 436, 114
-0.998451, 165, 117, 196, 132
-0.998451, 225, 261, 256, 276
-0.998451, 285, 195, 316, 210
-0.998451, 277, 209, 308, 224
-0.998452, 389, 255, 420, 270
-0.998452, 73, 87, 104, 102
-0.998452, 221, 89, 252, 104
-0.998453, 53, 121, 84, 136
-0.998453, 177, 135, 208, 150
-0.998454, 149, 117, 180, 132
-0.998455, 205, 219, 236, 234
-0.998456, 393, 213, 424, 228
-0.998457, 1, 35, 32, 50
-0.998457, 457, 103, 488, 118
-0.998457, 293, 203, 324, 218
-0.998458, 393, 125, 424, 140
-0.998458, 45, 221, 76, 236
-0.99846, 73, 79, 104, 94
-0.99846, 261, 251, 292, 266
-0.99846, 41, 93, 72, 108
-0.998461, 313, 201, 344, 216
-0.998461, 33, 99, 96, 114
-0.998461, 133, 217, 164, 232
-0.998461, 85, 299, 116, 314
-0.998462, 165, 225, 196, 240
-0.998462, 245, 107, 276, 122
-0.998463, 29, 69, 60, 84
-0.998464, 105, 89, 168, 104
-0.998468, 281, 63, 344, 78
-0.99847, 309, 129, 340, 375
-0.99847, 25, 231, 56, 246
-0.998471, 337, 279, 368, 294
-0.998471, 317, 73, 348, 88
-0.998472, 149, 87, 180, 102
-0.998472, 265, 55, 296, 70
-0.998474, 353, 273, 384, 288
-0.998474, 45, 227, 76, 242
-0.998475, 213, 95, 244, 110
-0.998475, 145, 219, 176, 234
-0.998476, 9, 233, 40, 248
-0.998477, 65, 97, 128, 112
-0.998477, 165, 277, 196, 292
-0.998477, 193, 347, 224, 362
-0.998478, 297, 301, 328, 316
-0.99848, 13, 317, 44, 332
-0.998481, 209, 265, 240, 280
-0.998483, 289, 243, 320, 258
-0.998483, 41, 99, 72, 114
-0.998483, 37, 311, 68, 326
-0.998484, 97, 97, 128, 112
-0.998485, 5, 73, 36, 88
-0.998486, 229, 325, 260, 340
-0.998487, 137, 285, 168, 300
-0.998488, 101, 291, 132, 306
-0.99849, 77, 109, 108, 124
-0.99849, 1, 321, 32, 336
-0.99849, 161, 361, 192, 375
-0.998491, 297, 191, 328, 206
-0.998492, 265, 195, 328, 210
-0.998493, 353, 75, 384, 90
-0.998493, 9, 59, 72, 74
-0.998498, 57, 91, 120, 106
-0.9985, 105, 289, 168, 304
-0.9985, 417, 129, 448, 144
-0.998501, 321, 73, 384, 88
-0.998502, 369, 265, 400, 280
-0.998502, 41, 109, 72, 124
-0.998503, 433, 91, 496, 106
-0.998505, 85, 99, 116, 114
-0.998506, 245, 323, 276, 338
-0.998506, 41, 219, 104, 234
-0.998506, 145, 225, 208, 240
-0.998507, 17, 69, 48, 84
-0.998508, 405, 127, 436, 142
-0.99851, 9, 315, 72, 330
-0.998511, 17, 79, 80, 94
-0.998514, 221, 335, 252, 350
-0.998514, 113, 291, 144, 306
-0.998515, 401, 99, 464, 114
-0.998515, 17, 75, 48, 90
-0.998517, 237, 81, 268, 96
-0.998519, 205, 341, 236, 356
-0.998519, 61, 305, 92, 320
-0.998519, 9, 67, 72, 82
-0.998521, 341, 71, 372, 86
-0.998521, 401, 93, 464, 108
-0.998524, 233, 79, 296, 94
-0.998524, 137, 217, 200, 232
-0.998525, 81, 223, 144, 238
-0.998527, 237, 257, 268, 272
-0.998528, 185, 209, 248, 224
-0.99853, 17, 223, 80, 238
-0.99853, 65, 85, 128, 100
-0.998531, 225, 197, 288, 212
-0.998531, 25, 315, 56, 330
-0.998533, 113, 119, 176, 134
-0.998534, 149, 281, 180, 296
-0.998534, 217, 333, 280, 348
-0.998535, 265, 67, 296, 82
-0.998537, 161, 211, 224, 226
-0.998537, 49, 105, 112, 120
-0.998538, 345, 273, 408, 288
-0.998539, 369, 81, 400, 96
-0.99854, 57, 227, 120, 242
-0.998542, 209, 205, 272, 220
-0.998542, 377, 257, 440, 272
-0.998543, 69, 99, 100, 114
-0.998543, 57, 103, 88, 118
-0.998543, 65, 215, 128, 230
-0.998544, 61, 85, 92, 100
-0.998544, 257, 71, 320, 86
-0.998544, 153, 123, 216, 138
-0.998547, 33, 231, 96, 246
-0.998547, 177, 355, 208, 370
-0.998547, 273, 49, 304, 64
-0.998547, 61, 69, 92, 84
-0.998548, 361, 265, 424, 280
-0.998549, 233, 253, 296, 268
-0.99855, 125, 87, 156, 102
-0.998551, 65, 121, 128, 136
-0.998551, 385, 127, 448, 142
-0.998552, 285, 59, 316, 74
-0.998552, 45, 87, 76, 102
-0.998553, 177, 269, 240, 284
-0.998555, 309, 65, 340, 80
-0.998556, 33, 309, 96, 324
-0.998556, 25, 109, 88, 124
-0.998556, 329, 69, 360, 84
-0.998557, 169, 355, 232, 370
-0.998557, 65, 115, 128, 130
-0.99856, 305, 193, 368, 208
-0.998561, 265, 245, 328, 260
-0.998563, 137, 279, 200, 294
-0.998563, 177, 223, 240, 238
-0.998563, 49, 81, 80, 96
-0.998564, 33, 119, 96, 134
-0.998564, 49, 65, 80, 80
-0.998565, 1, 233, 64, 248
-0.998566, 361, 93, 424, 108
-0.998566, 201, 99, 264, 114
-0.998568, 257, 61, 320, 76
-0.998568, 321, 287, 384, 302
-0.998568, 33, 125, 96, 140
-0.998571, 209, 265, 272, 280
-0.998572, 297, 69, 360, 84
-0.998573, 105, 219, 168, 234
-0.998573, 17, 85, 80, 100
-0.998574, 225, 85, 288, 100
-0.998574, 177, 123, 240, 138
-0.998574, 305, 187, 368, 202
-0.998575, 297, 203, 360, 218
-0.998576, 353, 129, 384, 375
-0.998576, 217, 323, 280, 338
-0.998576, 73, 299, 136, 314
-0.998578, 401, 245, 464, 260
-0.998578, 337, 129, 368, 375
-0.998579, 273, 207, 336, 222
-0.998579, 89, 115, 152, 130
-0.99858, 273, 305, 336, 320
-0.99858, 265, 201, 328, 216
-0.998582, 209, 91, 272, 106
-0.998582, 201, 341, 264, 356
-0.998583, 73, 93, 104, 108
-0.998584, 385, 121, 448, 136
-0.998586, 193, 199, 256, 214
-0.998587, 193, 137, 256, 152
-0.998587, 153, 345, 216, 360
-0.998588, 1, 239, 64, 254
-0.998588, 233, 93, 296, 108
-0.998589, 393, 251, 456, 266
-0.998589, 385, 215, 448, 230
-0.998589, 193, 325, 256, 340
-0.99859, 113, 283, 176, 298
-0.99859, 401, 183, 464, 198
-0.99859, 249, 351, 312, 366
-0.998593, 145, 111, 208, 126
-0.998593, 377, 99, 440, 114
-0.998594, 337, 279, 400, 294
-0.998594, 81, 91, 144, 106
-0.998594, 249, 53, 312, 68
-0.998596, 241, 325, 304, 340
-0.998597, 209, 257, 272, 272
-0.998597, 89, 213, 152, 228
-0.998597, 29, 75, 60, 90
-0.998598, 49, 243, 112, 258
-0.998598, 337, 81, 400, 96
-0.998599, 249, 189, 312, 204
-0.9986, 321, 67, 384, 82
-0.9986, 153, 273, 216, 288
-0.9986, 289, 243, 352, 258
-0.9986, 289, 237, 352, 252
-0.9986, 233, 205, 296, 220
-0.9986, 273, 79, 336, 94
-0.998601, 49, 303, 112, 318
-0.998601, 417, 131, 480, 146
-0.998601, 281, 187, 344, 202
-0.998601, 289, 299, 352, 314
-0.998603, 433, 229, 496, 244
-0.998603, 137, 353, 200, 368
-0.998604, 281, 57, 344, 72
-0.998604, 1, 321, 64, 336
-0.998605, 153, 291, 216, 306
-0.998607, 273, 143, 336, 158
-0.998608, 25, 247, 88, 262
-0.998608, 137, 87, 200, 102
-0.99861, 41, 71, 72, 86
-0.998611, 129, 289, 192, 304
-0.998611, 377, 115, 440, 130
-0.998611, 257, 251, 320, 266
-0.998612, 169, 115, 232, 130
-0.998612, 129, 125, 192, 140
-0.998612, 201, 131, 264, 146
-0.998612, 41, 137, 104, 152
-0.998612, 345, 187, 408, 202
-0.998613, 41, 131, 104, 146
-0.998615, 437, 95, 468, 110
-0.998622, 233, 1, 264, 256
-0.998663, 61, 79, 92, 94
-0.998688, 43, 49, 58, 176
-0.998688, 475, 81, 490, 208
-0.998699, 61, 63, 92, 78
-0.998719, 95, 81, 110, 208
-0.998722, 273, 129, 304, 375
-0.99873, 7, 17, 22, 144
-0.998737, 59, 65, 74, 192
-0.998753, 269, 49, 284, 176
-0.998764, 83, 65, 98, 192
-0.998794, 127, 65, 142, 192
-0.9988, 65, 65, 80, 192
-0.9988, 447, 33, 462, 160
-0.998803, 257, 129, 288, 375
-0.998813, 263, 49, 278, 176
-0.998836, 141, 65, 156, 192
-0.998855, 37, 65, 52, 192
-0.99887, 185, 81, 200, 208
-0.998875, 51, 65, 66, 192
-0.998887, 247, 65, 262, 192
-0.998889, 101, 81, 116, 208
-0.998891, 341, 49, 356, 176
-0.998898, 457, 81, 472, 208
-0.998898, 469, 81, 484, 208
-0.998902, 281, 33, 296, 160
-0.998902, 285, 129, 316, 375
-0.998921, 135, 65, 150, 192
-0.998923, 429, 81, 444, 208
-0.998927, 157, 65, 172, 192
-0.998956, 177, 81, 192, 208
-0.998958, 485, 65, 500, 192
-0.998969, 437, 81, 452, 208
-0.998973, 219, 81, 234, 208
-0.998976, 191, 81, 206, 208
-0.998977, 165, 81, 180, 208
-0.998985, 107, 81, 122, 208
-0.998988, 89, 81, 104, 208
-0.998991, 115, 81, 130, 208
-0.998999, 31, 65, 46, 192
-0.999, 201, 81, 216, 208
-0.999019, 257, 49, 272, 176
-0.999021, 423, 81, 438, 208
-0.999032, 147, 81, 162, 208
-0.999032, 291, 49, 306, 176
-0.999038, 13, 17, 28, 144
-0.99904, 305, 49, 320, 176
-0.99904, 171, 81, 186, 208
-0.999043, 447, 81, 462, 208
-0.99905, 385, 65, 400, 192
-0.999063, 23, 49, 38, 176
-0.999068, 237, 65, 252, 192
-0.999074, 331, 65, 346, 192
-0.999078, 409, 81, 424, 208
-0.999094, 275, 49, 290, 176
-0.999097, 323, 49, 338, 176
-0.999097, 373, 65, 388, 192
-0.999098, 227, 97, 242, 224
-0.999099, 245, 129, 276, 375
-0.9991, 315, 49, 330, 176
-0.999101, 417, 97, 432, 224
-0.999111, 257, 17, 500, 80
-0.999126, 347, 49, 362, 176
-0.999129, 463, 81, 478, 208
-0.999131, 359, 65, 374, 192
-0.999144, 207, 81, 222, 208
-0.999147, 399, 81, 414, 208
-0.999151, 441, 33, 456, 160
-0.999152, 379, 65, 394, 192
-0.99916, 57, 113, 72, 240
-0.999163, 259, 97, 274, 224
-0.999166, 325, 225, 340, 352
-0.999171, 121, 65, 136, 192
-0.999194, 45, 97, 60, 224
-0.999198, 377, 161, 392, 288
-0.9992, 393, 81, 408, 208
-0.999213, 335, 225, 350, 352
-0.999214, 297, 129, 328, 375
-0.999216, 365, 65, 380, 192
-0.999221, 213, 81, 228, 208
-0.999224, 353, 65, 368, 192
-0.999224, 37, 129, 68, 375
-0.999225, 291, 241, 306, 368
-0.999236, 17, 65, 32, 192
-0.999236, 1, 209, 16, 336
-0.999241, 299, 49, 314, 176
-0.999242, 1, 9, 256, 72
-0.999245, 153, 113, 168, 240
-0.999274, 23, 241, 38, 368
-0.999275, 1, 17, 16, 144
-0.999278, 403, 225, 418, 352
-0.99929, 353, 33, 480, 96
-0.99929, 51, 113, 66, 240
-0.999292, 343, 177, 358, 304
-0.999294, 437, 145, 452, 272
-0.999296, 341, 241, 356, 368
-0.999298, 231, 225, 246, 352
-0.999306, 387, 209, 402, 336
-0.999312, 165, 33, 180, 160
-0.999313, 325, 129, 356, 375
-0.999314, 355, 241, 370, 368
-0.999316, 243, 225, 258, 352
-0.999323, 51, 209, 66, 336
-0.999324, 181, 129, 196, 256
-0.999327, 349, 241, 364, 368
-0.999336, 263, 241, 278, 368
-0.999337, 253, 97, 268, 224
-0.99934, 159, 113, 174, 240
-0.999341, 365, 209, 380, 336
-0.999345, 299, 177, 314, 304
-0.999351, 239, 113, 254, 240
-0.999354, 477, 145, 492, 272
-0.999355, 57, 17, 72, 144
-0.999355, 445, 145, 460, 272
-0.99936, 147, 33, 162, 160
-0.999369, 67, 17, 82, 144
-0.999375, 145, 193, 160, 320
-0.999376, 231, 49, 246, 176
-0.999377, 41, 225, 56, 352
-0.999378, 371, 161, 386, 288
-0.999382, 251, 225, 266, 352
-0.999386, 19, 1, 34, 128
-0.999388, 409, 177, 424, 304
-0.999388, 257, 225, 272, 352
-0.999393, 117, 209, 132, 336
-0.999395, 331, 177, 346, 304
-0.999396, 71, 97, 86, 224
-0.999396, 453, 33, 468, 160
-0.999397, 399, 177, 414, 304
-0.999401, 321, 177, 336, 304
-0.999401, 39, 113, 54, 240
-0.999404, 363, 161, 378, 288
-0.999409, 381, 209, 396, 336
-0.99941, 217, 129, 232, 256
-0.999412, 417, 161, 432, 288
-0.999412, 383, 161, 398, 288
-0.999414, 145, 241, 160, 368
-0.999414, 451, 161, 466, 288
-0.999415, 319, 225, 334, 352
-0.999417, 177, 33, 192, 160
-0.999418, 141, 129, 156, 256
-0.999421, 307, 225, 322, 352
-0.999614, 161, 361, 176, 375
-0.999614, 55, 221, 70, 236
-0.999614, 79, 85, 94, 100
-0.999614, 259, 321, 274, 336
-0.999616, 273, 249, 288, 264
-0.999616, 33, 75, 48, 90
-0.999616, 39, 91, 54, 106
-0.999616, 203, 347, 218, 362
-0.999616, 77, 121, 92, 136
-0.999616, 7, 59, 22, 74
-0.999616, 229, 329, 244, 344
-0.999617, 71, 115, 86, 130
-0.999617, 39, 81, 54, 96
-0.999619, 31, 231, 46, 246
-0.99962, 9, 67, 24, 82
-0.99962, 221, 335, 236, 350
-0.99962, 295, 343, 310, 358
-0.99962, 107, 293, 122, 308
-0.99962, 41, 311, 56, 326
-0.99962, 325, 65, 340, 80
-0.99962, 387, 219, 402, 234
-0.999621, 65, 115, 80, 130
-0.999622, 153, 123, 168, 138
-0.999622, 289, 347, 304, 362
-0.999623, 475, 99, 490, 114
-0.999623, 189, 115, 204, 130
-0.999623, 247, 327, 262, 342
-0.999623, 409, 101, 424, 116
-0.999624, 395, 125, 410, 140
-0.999624, 169, 277, 184, 292
-0.999625, 319, 63, 334, 78
-0.999626, 49, 309, 64, 324
-0.999626, 229, 335, 244, 350
-0.999626, 265, 195, 280, 210
-0.999626, 19, 79, 34, 94
-0.999628, 301, 241, 316, 256
-0.999628, 45, 229, 60, 244
-0.999628, 217, 95, 232, 110
-0.999628, 307, 299, 322, 314
-0.999628, 443, 85, 458, 100
-0.999628, 167, 359, 182, 374
-0.999629, 431, 129, 446, 144
-0.999629, 141, 87, 156, 102
-0.999629, 117, 91, 132, 106
-0.99963, 419, 107, 434, 122
-0.99963, 101, 295, 116, 310
-0.99963, 177, 135, 192, 150
-0.99963, 125, 289, 140, 304
-0.99963, 161, 279, 176, 294
-0.999631, 205, 341, 220, 356
-0.999631, 283, 351, 298, 366
-0.999631, 461, 225, 476, 240
-0.999631, 81, 105, 96, 120
-0.999632, 401, 125, 416, 140
-0.999633, 251, 255, 266, 270
-0.999633, 241, 81, 256, 96
-0.999634, 185, 351, 200, 366
-0.999636, 127, 87, 142, 102
-0.999637, 183, 135, 198, 150
-0.999638, 39, 223, 54, 238
-0.999638, 331, 69, 346, 84
-0.999638, 373, 267, 388, 282
-0.999639, 57, 109, 72, 124
-0.999639, 309, 77, 324, 92
-0.999639, 89, 103, 104, 118
-0.99964, 385, 261, 400, 276
-0.99964, 293, 51, 308, 66
-0.999641, 67, 101, 82, 116
-0.999641, 403, 253, 418, 268
-0.999641, 69, 79, 84, 94
-0.999642, 239, 325, 254, 340
-0.999642, 173, 357, 188, 372
-0.999642, 49, 109, 64, 124
-0.999643, 211, 339, 226, 354
-0.999644, 221, 263, 236, 278
-0.999646, 309, 203, 324, 218
-0.999648, 391, 259, 406, 274
-0.999649, 77, 67, 92, 82
-0.999651, 117, 291, 132, 306
-0.999652, 35, 313, 50, 328
-0.999652, 83, 99, 98, 114
-0.999655, 77, 115, 92, 130
-0.999655, 145, 283, 160, 298
-0.999656, 179, 353, 194, 368
-0.999658, 415, 247, 430, 262
-0.999658, 97, 99, 112, 114
-0.999658, 253, 323, 268, 338
-0.999658, 275, 55, 290, 70
-0.999659, 7, 41, 22, 56
-0.999659, 269, 65, 284, 80
-0.99966, 153, 281, 168, 296
-0.99966, 21, 71, 36, 86
-0.999662, 67, 93, 82, 108
-0.999662, 67, 121, 82, 136
-0.999663, 107, 93, 122, 108
-0.999663, 157, 117, 172, 132
-0.999664, 1, 33, 16, 48
-0.999664, 413, 127, 428, 142
-0.999665, 365, 75, 380, 90
-0.999667, 1, 41, 16, 56
-0.99967, 383, 81, 398, 96
-0.999674, 65, 63, 80, 78
-0.999677, 47, 69, 62, 84
-0.999678, 425, 129, 440, 144
-0.999678, 419, 127, 434, 142
-0.999679, 73, 85, 88, 100
-0.999684, 11, 73, 26, 88
-0.999684, 439, 93, 454, 108
-0.999687, 65, 73, 80, 88
-0.999693, 41, 101, 56, 116
-0.999694, 447, 53, 462, 68
-0.999695, 287, 55, 302, 70
-0.999695, 285, 49, 300, 64
-0.999698, 447, 91, 462, 106
-0.9997, 65, 85, 80, 100
-0.999703, 343, 69, 358, 84
-0.999703, 27, 73, 42, 88
-0.999704, 75, 79, 90, 94
-0.999709, 53, 65, 68, 80
-0.999712, 77, 73, 92, 88
-0.999724, 13, 53, 28, 68
-0.999724, 17, 61, 32, 76
-0.999754, 71, 61, 86, 76
-0.999762, 53, 79, 68, 94
-0.99977, 25, 129, 56, 375
-0.999783, 59, 71, 74, 86
-0.999786, 63, 79, 78, 94
-0.999791, 59, 65, 74, 80
-0.999795, 7, 35, 22, 50
-0.999806, 53, 71, 68, 86
-0.999812, 41, 73, 56, 88
-0.999889, 1, 97, 32, 352
-1.00016, 193, 9, 320, 72
-1.00034, 13, 129, 44, 375
-1.00093, 161, 9, 416, 72
-1.00115, 369, 1, 496, 64
-1.00123, 241, 9, 368, 72
-1.00188, 113, 17, 240, 80
-1.00251, 1, 1, 500, 64
-1.00255, 1, 25, 500, 88
-1.00339, 49, 1, 176, 64
