1964
-0.399442, 1, 33, 500, 288
-0.41531, 1, 1, 500, 375
-0.483802, 1, 129, 500, 375
-0.514259, 193, 1, 448, 375
-0.576192, 97, 1, 352, 375
-0.630993, 1, 1, 256, 375
-0.641164, 129, 1, 384, 256
-0.701726, 193, 129, 448, 375
-0.733767, 33, 65, 288, 320
-0.783233, 225, 33, 480, 288
-0.862352, 209, 1, 336, 256
-0.874183, 225, 1, 352, 375
-0.874849, 113, 97, 240, 352
-0.877073, 129, 1, 256, 375
-0.885797, 1, 97, 500, 224
-0.892513, 177, 1, 304, 375
-0.892692, 161, 65, 288, 320
-0.899128, 225, 129, 352, 375
-0.905427, 257, 1, 384, 256
-0.905473, 1, 145, 500, 272
-0.906605, 81, 1, 208, 375
-0.91091, 65, 1, 192, 256
-0.910928, 273, 1, 400, 375
-0.911796, 113, 1, 240, 256
-0.914223, 1, 33, 500, 160
-0.919686, 1, 241, 500, 368
-0.925338, 369, 1, 496, 375
-0.926358, 273, 97, 400, 352
-0.926984, 49, 97, 176, 352
-0.927853, 129, 33, 384, 160
-0.92838, 161, 113, 416, 240
-0.930438, 369, 129, 496, 375
-0.931537, 1, 193, 500, 320
-0.932956, 225, 33, 352, 160
-0.934483, 177, 81, 304, 208
-0.935123, 305, 1, 432, 256
-0.939799, 193, 161, 448, 288
-0.940361, 129, 97, 256, 224
-0.942082, 65, 81, 320, 208
-0.943271, 225, 33, 480, 160
-0.945998, 185, 97, 248, 224
-0.948512, 257, 241, 500, 368
-0.950854, 209, 145, 336, 272
-0.950917, 33, 161, 288, 288
-0.952101, 161, 113, 224, 240
-0.952771, 129, 225, 256, 352
-0.953262, 33, 1, 160, 375
-0.953776, 209, 81, 272, 208
-0.955456, 321, 1, 448, 375
-0.956005, 353, 33, 480, 288
-0.959556, 225, 129, 288, 256
-0.959599, 113, 145, 240, 272
-0.959783, 273, 33, 336, 160
-0.96016, 65, 81, 192, 208
-0.960188, 113, 49, 240, 176
-0.960317, 65, 241, 320, 368
-0.961227, 225, 81, 352, 208
-0.961717, 33, 17, 288, 144
-0.962125, 241, 33, 304, 160
-0.962185, 145, 225, 208, 352
-0.962409, 369, 209, 496, 336
-0.963961, 185, 209, 248, 336
-0.964369, 257, 33, 320, 96
-0.964969, 193, 89, 256, 152
-0.964975, 137, 65, 200, 192
-0.966063, 161, 241, 416, 368
-0.966412, 137, 129, 200, 256
-0.967099, 257, 113, 500, 240
-0.968387, 1, 97, 128, 352
-0.968389, 193, 129, 256, 192
-0.968393, 233, 81, 296, 208
-0.968795, 161, 137, 224, 200
-0.968872, 129, 1, 256, 128
-0.968911, 257, 129, 320, 192
-0.96927, 281, 49, 344, 112
-0.969589, 265, 81, 328, 208
-0.96979, 321, 129, 448, 375
-0.969968, 265, 1, 328, 256
-0.970186, 177, 33, 304, 160
-0.970222, 417, 225, 480, 352
-0.970565, 169, 161, 232, 288
-0.970624, 225, 145, 288, 208
-0.970887, 137, 129, 200, 192
-0.970983, 81, 241, 208, 368
-0.971096, 297, 81, 360, 208
-0.971213, 433, 177, 496, 304
-0.971649, 177, 225, 304, 352
-0.972327, 273, 97, 400, 224
-0.973033, 241, 57, 304, 120
-0.973091, 129, 105, 192, 168
-0.97328, 169, 97, 232, 160
-0.973464, 17, 1, 144, 256
-0.973465, 217, 89, 280, 152
-0.974402, 385, 313, 448, 375
-0.97484, 265, 145, 328, 272
-0.974847, 129, 129, 256, 192
-0.975587, 225, 241, 288, 368
-0.975967, 97, 81, 160, 208
-0.976079, 217, 33, 280, 160
-0.976139, 225, 65, 288, 320
-0.976376, 49, 129, 176, 256
-0.976498, 161, 97, 224, 352
-0.976616, 297, 33, 360, 160
-0.976903, 129, 273, 256, 336
-0.976932, 225, 49, 352, 112
-0.977532, 113, 97, 240, 160
-0.978084, 49, 1, 176, 128
-0.978169, 177, 89, 304, 152
-0.978282, 225, 169, 288, 232
-0.978487, 201, 145, 264, 272
-0.978559, 177, 137, 304, 200
-0.978565, 337, 145, 464, 272
-0.978791, 129, 241, 256, 304
-0.978835, 433, 297, 496, 360
-0.97887, 105, 137, 168, 200
-0.978921, 145, 265, 208, 328
-0.978936, 129, 297, 256, 360
-0.979042, 401, 289, 464, 352
-0.979059, 273, 145, 400, 272
-0.979219, 289, 129, 352, 256
-0.979279, 201, 65, 264, 320
-0.979428, 137, 305, 200, 368
-0.979528, 185, 289, 248, 352
-0.979604, 225, 113, 288, 176
-0.979667, 197, 81, 228, 208
-0.979975, 185, 225, 248, 288
-0.980075, 177, 201, 240, 264
-0.980139, 241, 65, 272, 192
-0.980226, 173, 121, 204, 184
-0.980318, 393, 225, 456, 352
-0.980682, 113, 145, 176, 272
-0.980995, 305, 33, 336, 160
-0.98134, 305, 17, 432, 144
-0.981602, 177, 113, 208, 240
-0.981633, 193, 97, 224, 160
-0.981662, 265, 153, 328, 216
-0.981704, 177, 113, 304, 176
-0.981856, 217, 65, 280, 128
-0.981871, 241, 81, 304, 144
-0.982119, 217, 217, 248, 280
-0.982184, 433, 249, 496, 312
-0.982351, 137, 1, 200, 256
-0.982376, 161, 145, 288, 272
-0.982523, 137, 233, 200, 296
-0.982585, 137, 81, 200, 144
-0.98262, 297, 137, 360, 200
-0.982671, 225, 73, 352, 136
-0.982699, 185, 265, 248, 328
-0.982716, 137, 153, 200, 216
-0.982744, 65, 129, 192, 192
-0.982772, 221, 81, 252, 208
-0.982871, 113, 153, 240, 216
-0.983198, 185, 313, 248, 375
-0.983402, 225, 297, 288, 360
-0.983502, 141, 129, 172, 192
-0.983593, 249, 137, 280, 200
-0.983704, 141, 81, 172, 208
-0.983761, 177, 161, 304, 224
-0.98401, 113, 65, 240, 128
-0.984063, 209, 81, 240, 208
-0.984093, 229, 89, 260, 152
-0.984113, 225, 97, 352, 160
-0.984126, 193, 169, 256, 232
-0.984137, 433, 169, 496, 232
-0.98415, 321, 65, 384, 192
-0.984227, 309, 49, 340, 112
-0.984237, 409, 313, 472, 375
-0.984241, 129, 1, 192, 128
-0.984246, 241, 25, 368, 88
-0.98427, 177, 305, 304, 368
-0.984423, 249, 49, 280, 112
-0.984605, 253, 33, 284, 160
-0.984649, 213, 81, 244, 144
-0.984706, 185, 49, 248, 176
-0.98489, 393, 145, 456, 272
-0.985093, 393, 209, 456, 272
-0.985155, 253, 113, 284, 240
-0.985294, 225, 265, 288, 328
-0.98533, 441, 313, 472, 375
-0.98538, 217, 193, 280, 256
-0.985419, 129, 129, 192, 375
-0.985424, 149, 145, 180, 272
-0.985469, 337, 313, 464, 375
-0.985471, 453, 297, 484, 360
-0.985474, 241, 97, 272, 160
-0.985557, 229, 265, 260, 328
-0.985799, 225, 225, 352, 352
-0.985801, 289, 73, 352, 136
-0.985912, 281, 25, 344, 88
-0.985922, 313, 81, 344, 208
-0.985983, 225, 241, 288, 304
-0.986064, 65, 105, 192, 168
-0.986073, 161, 65, 224, 192
-0.986248, 129, 217, 256, 280
-0.986376, 289, 137, 416, 200
-0.986383, 289, 65, 352, 320
-0.986417, 225, 1, 288, 375
-0.986436, 225, 121, 352, 184
-0.986492, 469, 281, 500, 344
-0.986527, 225, 145, 352, 208
-0.986544, 105, 241, 168, 368
-0.986576, 453, 225, 484, 352
-0.986656, 257, 9, 320, 72
-0.986697, 197, 129, 228, 192
-0.986707, 209, 193, 240, 256
-0.986747, 105, 289, 168, 352
-0.986788, 257, 177, 320, 240
-0.986935, 217, 177, 248, 304
-0.986966, 161, 233, 192, 296
-0.987219, 233, 33, 296, 96
-0.987232, 361, 193, 424, 320
-0.987292, 161, 233, 224, 296
-0.987305, 161, 225, 192, 352
-0.987326, 217, 241, 248, 304
-0.987388, 141, 1, 172, 128
-0.987413, 209, 265, 336, 328
-0.987473, 49, 281, 176, 344
-0.987489, 433, 193, 496, 256
-0.98755, 97, 113, 160, 176
-0.98759, 169, 169, 232, 232
-0.987736, 305, 113, 368, 176
-0.987799, 57, 129, 120, 256
-0.987958, 265, 105, 328, 168
-0.988, 193, 201, 320, 264
-0.988003, 465, 209, 496, 336
-0.98805, 369, 257, 496, 320
-0.988072, 97, 33, 160, 160
-0.988087, 217, 225, 248, 352
-0.988168, 149, 153, 180, 216
-0.988215, 165, 113, 196, 240
-0.988321, 229, 121, 260, 184
-0.988393, 225, 313, 352, 375
-0.988398, 169, 1, 232, 375
-0.988493, 261, 25, 292, 88
-0.988564, 393, 177, 456, 240
-0.988599, 353, 145, 416, 272
-0.988742, 289, 161, 352, 224
-0.988841, 81, 305, 208, 368
-0.988867, 281, 25, 312, 88
-0.988934, 249, 1, 312, 375
-0.989005, 209, 129, 240, 256
-0.989233, 293, 33, 324, 96
-0.989238, 337, 289, 464, 352
-0.98935, 217, 217, 280, 280
-0.989361, 353, 313, 416, 375
-0.989421, 361, 281, 424, 344
-0.989422, 273, 97, 304, 224
-0.989446, 177, 241, 304, 304
-0.989455, 225, 193, 288, 320
-0.989467, 281, 1, 344, 375
-0.989475, 229, 129, 260, 256
-0.989517, 305, 49, 368, 112
-0.989551, 229, 241, 260, 368
-0.989608, 305, 137, 336, 200
-0.989705, 217, 121, 248, 184
-0.989799, 201, 89, 264, 120
-0.989948, 265, 33, 296, 160
-0.990027, 129, 9, 192, 72
-0.990068, 49, 177, 176, 304
-0.990095, 129, 49, 192, 112
-0.990101, 145, 305, 176, 368
-0.990112, 433, 129, 496, 375
-0.990135, 97, 89, 160, 152
-0.99014, 257, 33, 320, 64
-0.990203, 249, 313, 312, 375
-0.990216, 217, 297, 248, 360
-0.990271, 141, 265, 172, 328
-0.990308, 113, 41, 240, 104
-0.99032, 369, 201, 496, 264
-0.990328, 289, 17, 320, 144
-0.99042, 273, 49, 400, 112
-0.990422, 157, 257, 188, 320
-0.990468, 301, 129, 332, 256
-0.990487, 49, 65, 176, 128
-0.990499, 65, 153, 192, 216
-0.990514, 321, 1, 384, 128
-0.990546, 193, 1, 256, 375
-0.990556, 161, 313, 224, 375
-0.990606, 97, 25, 160, 88
-0.990606, 289, 161, 416, 224
-0.990626, 141, 81, 172, 144
-0.990666, 153, 153, 216, 184
-0.990667, 233, 289, 264, 352
-0.990704, 161, 137, 192, 200
-0.990706, 113, 33, 176, 288
-0.990706, 113, 177, 240, 240
-0.990802, 369, 97, 496, 224
-0.990831, 161, 289, 224, 352
-0.99085, 285, 97, 316, 224
-0.990872, 129, 137, 192, 168
-0.990884, 261, 129, 292, 192
-0.990896, 225, 169, 352, 232
-0.990916, 173, 241, 204, 368
-0.990938, 409, 313, 440, 375
-0.990999, 205, 177, 236, 304
-0.991025, 393, 317, 456, 348
-0.991081, 393, 345, 456, 375
-0.991082, 237, 153, 268, 216
-0.991104, 169, 129, 232, 160
-0.991132, 449, 161, 480, 288
-0.99116, 241, 129, 272, 256
-0.991166, 217, 273, 248, 336
-0.991179, 169, 225, 232, 256
-0.991179, 185, 281, 248, 312
-0.991184, 185, 109, 248, 140
-0.991192, 305, 17, 368, 80
-0.991207, 141, 105, 172, 168
-0.991234, 393, 333, 456, 364
-0.99126, 425, 209, 456, 272
-0.991293, 49, 41, 176, 104
-0.991342, 205, 169, 236, 232
-0.991354, 249, 49, 312, 80
-0.991369, 193, 25, 320, 88
-0.99138, 209, 225, 272, 256
-0.991394, 277, 17, 308, 144
-0.991398, 321, 193, 448, 320
-0.991404, 161, 141, 224, 172
-0.991433, 129, 113, 192, 144
-0.991456, 401, 233, 464, 296
-0.991458, 249, 73, 280, 136
-0.991476, 209, 121, 272, 152
-0.99148, 193, 237, 256, 268
-0.99148, 97, 65, 160, 128
-0.991487, 113, 161, 176, 224
-0.9915, 137, 125, 200, 156
-0.991518, 233, 165, 296, 196
-0.99152, 129, 149, 192, 180
-0.991521, 269, 161, 300, 288
-0.991527, 145, 241, 176, 368
-0.991533, 229, 241, 260, 304
-0.991542, 305, 1, 368, 375
-0.991545, 369, 233, 496, 296
-0.991553, 249, 145, 312, 176
-0.99157, 185, 305, 248, 336
-0.991597, 137, 1, 200, 375
-0.991599, 225, 169, 256, 232
-0.991605, 153, 165, 216, 196
-0.991673, 129, 81, 160, 208
-0.991685, 241, 81, 304, 112
-0.99169, 281, 57, 344, 88
-0.991736, 1, 113, 128, 240
-0.991737, 177, 49, 304, 112
-0.991818, 209, 337, 272, 368
-0.991836, 185, 317, 248, 348
-0.991838, 265, 73, 328, 136
-0.991869, 277, 177, 308, 240
-0.991917, 321, 241, 448, 368
-0.991922, 241, 345, 304, 375
-0.991928, 201, 133, 264, 164
-0.991943, 137, 101, 200, 132
-0.991943, 177, 213, 240, 244
-0.991946, 273, 313, 336, 375
-0.991949, 401, 305, 464, 336
-0.991956, 141, 49, 172, 112
-0.991966, 49, 17, 176, 80
-0.991969, 193, 269, 256, 300
-0.991976, 197, 129, 228, 256
-0.992007, 129, 49, 384, 112
-0.992008, 225, 313, 288, 344
-0.99201, 225, 301, 288, 332
-0.992015, 281, 45, 344, 76
-0.992025, 225, 153, 288, 184
-0.992025, 265, 157, 328, 188
-0.992048, 417, 345, 480, 375
-0.992061, 113, 1, 176, 375
-0.992069, 129, 345, 192, 375
-0.992069, 289, 345, 352, 375
-0.992099, 257, 133, 320, 164
-0.992108, 97, 97, 352, 160
-0.992111, 141, 1, 172, 64
-0.992121, 425, 333, 488, 364
-0.992127, 313, 345, 376, 375
-0.992135, 241, 61, 304, 92
-0.992141, 105, 157, 168, 188
-0.992146, 97, 141, 160, 172
-0.992163, 353, 337, 416, 368
-0.992181, 233, 57, 264, 120
-0.992218, 225, 133, 288, 164
-0.992246, 161, 117, 224, 148
-0.992246, 137, 265, 200, 296
-0.992252, 137, 325, 200, 356
-0.992254, 193, 153, 256, 184
-0.992262, 281, 69, 344, 100
-0.992272, 185, 293, 248, 324
-0.992275, 433, 321, 496, 352
-0.992317, 145, 313, 208, 344
-0.992328, 129, 17, 256, 80
-0.992344, 185, 177, 248, 208
-0.992369, 257, 333, 320, 364
-0.992389, 233, 113, 296, 144
-0.992399, 441, 225, 472, 352
-0.992405, 217, 273, 280, 304
-0.992417, 209, 77, 272, 108
-0.992417, 265, 169, 328, 200
-0.992418, 265, 121, 328, 152
-0.99242, 369, 177, 496, 240
-0.992422, 289, 25, 416, 88
-0.992426, 305, 137, 368, 168
-0.992441, 261, 169, 292, 232
-0.992452, 181, 97, 212, 160
-0.992456, 305, 313, 368, 375
-0.992462, 185, 165, 248, 196
-0.992476, 281, 145, 312, 208
-0.992494, 129, 161, 192, 192
-0.992495, 129, 129, 160, 192
-0.992497, 153, 297, 216, 328
-0.992497, 297, 81, 328, 208
-0.9925, 281, 81, 344, 112
-0.99251, 153, 285, 216, 316
-0.992523, 433, 265, 496, 296
-0.992535, 433, 309, 496, 340
-0.992541, 297, 153, 360, 184
-0.992546, 265, 345, 328, 375
-0.992547, 393, 213, 456, 244
-0.992554, 225, 257, 288, 288
-0.992565, 97, 125, 160, 156
-0.992586, 205, 233, 236, 296
-0.99261, 193, 65, 256, 128
-0.992618, 177, 97, 240, 128
-0.992619, 225, 285, 288, 316
-0.992642, 361, 241, 424, 368
-0.992661, 97, 329, 160, 360
-0.992679, 97, 313, 160, 344
-0.99268, 137, 229, 200, 260
-0.992694, 217, 237, 248, 268
-0.992694, 417, 281, 480, 312
-0.9927, 225, 277, 256, 308
-0.992716, 409, 293, 472, 324
-0.992729, 317, 121, 348, 184
-0.992732, 161, 237, 224, 268
-0.992737, 225, 289, 352, 352
-0.992739, 393, 197, 456, 228
-0.992739, 421, 305, 452, 368
-0.992747, 113, 301, 176, 332
-0.992755, 353, 153, 480, 216
-0.992758, 393, 225, 456, 256
-0.99278, 169, 333, 232, 364
-0.99279, 209, 325, 272, 356
-0.992794, 321, 73, 384, 136
-0.992794, 289, 165, 352, 196
-0.992816, 121, 209, 184, 272
-0.99284, 177, 201, 240, 232
-0.992851, 217, 225, 248, 256
-0.992856, 289, 113, 416, 176
-0.992856, 217, 45, 280, 76
-0.992866, 65, 129, 128, 192
-0.992871, 161, 129, 416, 192
-0.992898, 177, 189, 240, 220
-0.992918, 141, 149, 172, 180
-0.992926, 217, 193, 280, 224
-0.992929, 289, 125, 352, 156
-0.992934, 177, 273, 208, 336
-0.992956, 177, 125, 208, 156
-0.992984, 209, 173, 272, 204
-0.992994, 129, 85, 192, 116
-0.992999, 213, 89, 244, 120
-0.993002, 233, 245, 296, 276
-0.993009, 249, 181, 312, 212
-0.993013, 105, 313, 168, 375
-0.993024, 241, 101, 304, 132
-0.993031, 433, 297, 496, 328
-0.993034, 245, 149, 276, 180
-0.993035, 201, 213, 264, 244
-0.993036, 161, 345, 224, 375
-0.993037, 97, 281, 160, 312
-0.99304, 169, 141, 200, 172
-0.993047, 205, 233, 236, 264
-0.993047, 417, 213, 480, 244
-0.993049, 97, 113, 160, 144
-0.993055, 305, 65, 368, 96
-0.993057, 97, 97, 160, 128
-0.993057, 209, 33, 240, 160
-0.993058, 257, 41, 288, 72
-0.993062, 425, 245, 488, 276
-0.993065, 137, 241, 200, 272
-0.993067, 233, 333, 296, 364
-0.993068, 309, 49, 340, 80
-0.993076, 329, 145, 392, 208
-0.993078, 129, 73, 192, 104
-0.99308, 197, 97, 228, 128
-0.993082, 273, 105, 336, 136
-0.993084, 229, 121, 260, 152
-0.993086, 469, 285, 500, 316
-0.993089, 137, 145, 168, 272
-0.993097, 73, 141, 136, 172
-0.993106, 129, 61, 192, 92
-0.993121, 249, 57, 280, 88
-0.99313, 345, 345, 376, 375
-0.993131, 461, 297, 492, 328
-0.993135, 185, 113, 216, 144
-0.993141, 141, 109, 172, 140
-0.993145, 241, 121, 272, 152
-0.993152, 225, 89, 256, 120
-0.993158, 129, 45, 192, 76
-0.993159, 97, 81, 160, 112
-0.993163, 261, 133, 292, 164
-0.993167, 149, 161, 180, 192
-0.993174, 361, 285, 424, 316
-0.993174, 97, 53, 160, 84
-0.993179, 205, 221, 236, 252
-0.993182, 145, 253, 208, 284
-0.993187, 153, 89, 216, 120
-0.993193, 97, 65, 160, 96
-0.993196, 265, 129, 328, 375
-0.993197, 249, 81, 280, 112
-0.993198, 73, 301, 136, 332
-0.993206, 273, 29, 304, 60
-0.993208, 205, 177, 236, 208
-0.99321, 445, 317, 476, 348
-0.993215, 157, 253, 188, 284
-0.993219, 433, 201, 496, 232
-0.99322, 297, 41, 328, 72
-0.993222, 205, 209, 236, 240
-0.993223, 161, 237, 192, 268
-0.993229, 185, 257, 248, 288
-0.99323, 433, 341, 464, 372
-0.993237, 433, 177, 496, 208
-0.993239, 313, 1, 376, 256
-0.993241, 233, 293, 264, 324
-0.993242, 81, 241, 208, 304
-0.993248, 65, 157, 128, 188
-0.993248, 237, 93, 268, 124
-0.993254, 289, 145, 320, 272
-0.99326, 213, 285, 244, 316
-0.99326, 97, 41, 160, 72
-0.993261, 405, 345, 436, 375
-0.993269, 205, 225, 236, 352
-0.993269, 249, 137, 280, 168
-0.99327, 141, 97, 172, 128
-0.99327, 217, 57, 280, 88
-0.993271, 77, 129, 108, 256
-0.99328, 313, 61, 344, 92
-0.993281, 205, 165, 236, 196
-0.993282, 285, 29, 316, 60
-0.993286, 225, 265, 256, 296
-0.993293, 437, 329, 468, 360
-0.993301, 145, 137, 176, 168
-0.993302, 421, 217, 452, 248
-0.993302, 421, 345, 452, 375
-0.993305, 141, 321, 172, 352
-0.993313, 261, 165, 292, 196
-0.993319, 449, 305, 480, 336
-0.993323, 121, 265, 184, 328
-0.993325, 409, 265, 472, 328
-0.993326, 221, 329, 252, 360
-0.993333, 141, 121, 172, 152
-0.993334, 249, 69, 280, 100
-0.993336, 273, 345, 304, 375
-0.993336, 141, 85, 172, 116
-0.99334, 277, 161, 308, 192
-0.993341, 433, 225, 496, 288
-0.993341, 317, 129, 348, 160
-0.99335, 217, 121, 248, 152
-0.993362, 225, 169, 256, 200
-0.993365, 237, 133, 268, 164
-0.993372, 141, 297, 172, 328
-0.993374, 105, 129, 168, 375
-0.993376, 241, 109, 272, 140
-0.993377, 205, 197, 236, 228
-0.99338, 233, 313, 264, 344
-0.993382, 229, 77, 260, 108
-0.993387, 185, 313, 216, 375
-0.993395, 193, 133, 224, 164
-0.993396, 277, 181, 308, 212
-0.993399, 417, 325, 448, 356
-0.9934, 141, 57, 172, 88
-0.993401, 141, 73, 172, 104
-0.993406, 129, 109, 160, 140
-0.993407, 305, 153, 336, 184
-0.993411, 289, 173, 320, 204
-0.993413, 293, 161, 324, 224
-0.993416, 309, 81, 340, 144
-0.993421, 469, 261, 500, 292
-0.993422, 77, 157, 108, 188
-0.993429, 309, 89, 340, 120
-0.99343, 141, 9, 172, 40
-0.99344, 245, 345, 276, 375
-0.993441, 141, 45, 172, 76
-0.993441, 237, 257, 268, 288
-0.993442, 409, 213, 440, 244
-0.993447, 161, 157, 192, 188
-0.993454, 313, 73, 344, 104
-0.993456, 217, 213, 248, 244
-0.993458, 193, 145, 224, 176
-0.99346, 177, 333, 208, 364
-0.993463, 221, 301, 252, 332
-0.993466, 1, 129, 500, 192
-0.99347, 145, 253, 176, 284
-0.993476, 129, 97, 160, 128
-0.993483, 97, 25, 352, 88
-0.993484, 165, 129, 196, 160
-0.993487, 409, 313, 440, 344
-0.993487, 205, 133, 236, 164
-0.993489, 321, 345, 352, 375
-0.993492, 229, 233, 260, 264
-0.993496, 141, 33, 172, 64
-0.993497, 193, 225, 224, 256
-0.993501, 177, 273, 208, 304
-0.993507, 265, 177, 296, 208
-0.993509, 129, 121, 160, 152
-0.993509, 257, 333, 288, 364
-0.993515, 261, 29, 292, 60
-0.993516, 257, 149, 288, 180
-0.993518, 425, 205, 456, 236
-0.993518, 229, 145, 260, 176
-0.993518, 285, 337, 316, 368
-0.993519, 249, 161, 280, 192
-0.993521, 137, 269, 168, 300
-0.993525, 309, 113, 340, 144
-0.993528, 225, 201, 256, 232
-0.993533, 245, 45, 276, 76
-0.993533, 429, 305, 460, 336
-0.993534, 297, 125, 328, 156
-0.993536, 453, 181, 484, 212
-0.993536, 301, 345, 332, 375
-0.99354, 161, 225, 192, 256
-0.993541, 233, 333, 264, 364
-0.993542, 141, 173, 172, 204
-0.993545, 217, 181, 248, 212
-0.993546, 129, 157, 160, 188
-0.993548, 129, 133, 160, 164
-0.993552, 165, 345, 196, 375
-0.993558, 289, 141, 320, 172
-0.993559, 97, 73, 352, 136
-0.993561, 157, 141, 188, 172
-0.993562, 149, 333, 180, 364
-0.993562, 305, 141, 336, 172
-0.993564, 121, 145, 152, 176
-0.993567, 261, 121, 292, 152
-0.99357, 157, 117, 188, 148
-0.993571, 261, 345, 292, 375
-0.993575, 77, 133, 108, 164
-0.993667, 305, 73, 432, 136
-0.993682, 321, 193, 448, 256
-0.993688, 413, 217, 444, 280
-0.993703, 141, 25, 172, 88
-0.993727, 225, 233, 352, 296
-0.993727, 261, 105, 292, 168
-0.993778, 193, 177, 224, 304
-0.993821, 1, 169, 500, 232
-0.99398, 149, 233, 180, 296
-0.994018, 161, 1, 224, 256
-0.994053, 193, 265, 448, 328
-0.994087, 353, 161, 416, 224
-0.994096, 161, 209, 192, 272
-0.994164, 257, 297, 500, 360
-0.994174, 409, 129, 472, 375
-0.994219, 193, 81, 448, 144
-0.994264, 225, 33, 256, 160
-0.994272, 89, 129, 120, 192
-0.994287, 225, 9, 288, 72
-0.99432, 129, 97, 160, 160
-0.994371, 89, 1, 152, 256
-0.994411, 65, 153, 128, 216
-0.994423, 465, 257, 496, 320
-0.994436, 321, 225, 448, 288
-0.994449, 73, 153, 104, 216
-0.994486, 185, 49, 216, 176
-0.994523, 449, 177, 480, 240
-0.994655, 153, 209, 216, 272
-0.99467, 1, 89, 500, 152
-0.99471, 321, 57, 352, 120
-0.994768, 289, 313, 416, 375
-0.994789, 113, 113, 240, 144
-0.994794, 361, 257, 424, 320
-0.994823, 193, 177, 448, 240
-0.994827, 25, 97, 88, 224
-0.994861, 325, 65, 356, 192
-0.994948, 65, 313, 320, 375
-0.994986, 161, 121, 288, 152
-0.995006, 1, 41, 500, 104
-0.995083, 33, 153, 288, 216
-0.995091, 429, 225, 460, 352
-0.995097, 1, 241, 128, 368
-0.995113, 33, 225, 288, 288
-0.995128, 337, 345, 464, 375
-0.995157, 129, 277, 256, 308
-0.995161, 241, 17, 272, 144
-0.995174, 225, 41, 480, 104
-0.995178, 1, 129, 128, 192
-0.995182, 293, 113, 324, 176
-0.995186, 465, 169, 496, 232
-0.99519, 193, 241, 448, 304
-0.995204, 113, 125, 240, 156
-0.995218, 273, 1, 400, 64
-0.99522, 133, 289, 164, 352
-0.995238, 433, 1, 496, 375
-0.995238, 231, 265, 246, 328
-0.995244, 193, 153, 448, 216
-0.995268, 305, 265, 432, 328
-0.995285, 321, 65, 448, 192
-0.995316, 33, 257, 160, 320
-0.995374, 89, 113, 120, 240
-0.995374, 221, 193, 252, 256
-0.995412, 465, 161, 496, 288
-0.995412, 89, 257, 152, 320
-0.995436, 193, 217, 448, 280
-0.99544, 17, 305, 144, 368
-0.995464, 321, 97, 352, 160
-0.995479, 485, 273, 500, 336
-0.995495, 85, 289, 116, 352
-0.995509, 1, 297, 500, 360
-0.995527, 145, 137, 272, 168
-0.995555, 1, 97, 256, 160
-0.995586, 353, 185, 416, 248
-0.995596, 225, 53, 352, 84
-0.995608, 177, 93, 304, 124
-0.995653, 189, 161, 220, 224
-0.995675, 185, 121, 216, 184
-0.995685, 153, 81, 184, 208
-0.995704, 261, 81, 292, 144
-0.995708, 225, 41, 352, 72
-0.995713, 165, 225, 180, 288
-0.995727, 269, 49, 300, 112
-0.995775, 293, 57, 324, 120
-0.995782, 229, 233, 244, 296
-0.995813, 177, 161, 304, 192
-0.995831, 125, 33, 156, 160
-0.995854, 225, 77, 352, 108
-0.995882, 221, 201, 236, 264
-0.995885, 137, 161, 168, 224
-0.995899, 77, 129, 108, 192
-0.995904, 161, 313, 416, 375
-0.995928, 113, 157, 240, 188
-0.995938, 193, 105, 208, 168
-0.995969, 241, 241, 272, 368
-0.995971, 201, 97, 216, 160
-0.995988, 65, 289, 320, 352
-0.996011, 161, 337, 288, 368
-0.996013, 177, 109, 304, 140
-0.99605, 433, 129, 496, 256
-0.996086, 253, 49, 268, 112
-0.996098, 1, 73, 256, 136
-0.996111, 323, 57, 338, 120
-0.996132, 113, 101, 240, 132
-0.996163, 237, 89, 252, 152
-0.996172, 65, 145, 192, 176
-0.996177, 173, 65, 204, 192
-0.996185, 171, 209, 186, 272
-0.996189, 1, 65, 500, 128
-0.996204, 329, 1, 392, 375
-0.996213, 129, 289, 256, 320
-0.99622, 129, 73, 160, 136
-0.99627, 225, 289, 240, 352
-0.996274, 97, 265, 352, 328
-0.996274, 113, 81, 240, 112
-0.996282, 441, 201, 472, 264
-0.996311, 137, 177, 200, 304
-0.996378, 33, 129, 288, 192
-0.996386, 201, 25, 264, 88
-0.996393, 211, 89, 226, 152
-0.99643, 1, 273, 500, 336
-0.996439, 261, 129, 276, 192
-0.996464, 65, 297, 128, 360
-0.996472, 177, 173, 304, 204
-0.996473, 149, 129, 164, 192
-0.996475, 187, 113, 202, 176
-0.996483, 129, 301, 256, 332
-0.996484, 225, 81, 240, 144
-0.996494, 369, 129, 496, 192
-0.996515, 1, 17, 500, 80
-0.996523, 97, 1, 352, 64
-0.996539, 129, 237, 256, 268
-0.996547, 173, 129, 188, 192
-0.996556, 177, 149, 304, 180
-0.99657, 173, 249, 204, 312
-0.996581, 233, 313, 264, 375
-0.996607, 129, 265, 256, 296
-0.996619, 323, 97, 338, 160
-0.99664, 243, 89, 258, 152
-0.996649, 225, 89, 352, 120
-0.996649, 129, 313, 256, 344
-0.996653, 157, 105, 188, 168
-0.996681, 229, 193, 260, 320
-0.996684, 281, 49, 312, 112
-0.996694, 433, 289, 464, 352
-0.996701, 65, 157, 192, 188
-0.996711, 217, 145, 248, 208
-0.99674, 305, 113, 336, 176
-0.99674, 223, 233, 238, 296
-0.996751, 33, 49, 288, 112
-0.99677, 235, 297, 250, 360
-0.996772, 177, 1, 304, 64
-0.996778, 237, 273, 252, 336
-0.996782, 41, 129, 104, 192
-0.996792, 171, 233, 186, 296
-0.996809, 197, 201, 228, 264
-0.996809, 33, 177, 288, 240
-0.996819, 405, 289, 436, 352
-0.996835, 225, 113, 352, 144
-0.996843, 479, 273, 494, 336
-0.996847, 225, 157, 352, 188
-0.996854, 219, 81, 234, 144
-0.996856, 113, 345, 240, 375
-0.996861, 161, 249, 176, 312
-0.996867, 177, 193, 208, 320
-0.996872, 449, 313, 464, 375
-0.996874, 433, 177, 464, 304
-0.996876, 225, 105, 480, 168
-0.996883, 231, 81, 246, 144
-0.996884, 49, 129, 176, 160
-0.996889, 321, 49, 448, 112
-0.996895, 113, 169, 240, 200
-0.996895, 265, 313, 296, 375
-0.996903, 145, 97, 160, 160
-0.996927, 293, 1, 324, 256
-0.996966, 181, 121, 196, 184
-0.996984, 469, 289, 484, 352
-0.997004, 261, 1, 292, 256
-0.997008, 161, 177, 192, 304
-0.997013, 201, 129, 216, 192
-0.997018, 337, 333, 464, 364
-0.997021, 393, 1, 456, 375
-0.997033, 225, 65, 352, 96
-0.997038, 303, 33, 318, 96
-0.997042, 193, 133, 320, 164
-0.997062, 165, 145, 180, 208
-0.997066, 461, 297, 476, 360
-0.997074, 353, 317, 480, 348
-0.997074, 257, 17, 500, 80
-0.997082, 361, 217, 424, 280
-0.997099, 177, 301, 304, 332
-0.9971, 161, 325, 288, 356
-0.997102, 289, 153, 416, 184
-0.997113, 277, 313, 308, 375
-0.997122, 1, 193, 500, 256
-0.997124, 193, 225, 224, 352
-0.997125, 401, 153, 464, 216
-0.997135, 225, 101, 352, 132
-0.997145, 455, 305, 470, 368
-0.997159, 255, 137, 270, 200
-0.99716, 189, 273, 204, 336
-0.997172, 161, 65, 224, 128
-0.997175, 321, 281, 384, 344
-0.99718, 313, 97, 376, 352
-0.997181, 275, 25, 290, 88
-0.997196, 261, 33, 276, 96
-0.997196, 317, 49, 332, 112
-0.997225, 181, 97, 212, 352
-0.99724, 253, 113, 268, 176
-0.997246, 155, 161, 170, 224
-0.997258, 209, 345, 336, 375
-0.99726, 249, 25, 280, 88
-0.997274, 147, 9, 162, 72
-0.997287, 361, 129, 424, 375
-0.997303, 313, 137, 328, 200
-0.997307, 249, 81, 264, 144
-0.997314, 329, 257, 392, 320
-0.997321, 145, 249, 272, 280
-0.997321, 1, 161, 128, 288
-0.997324, 209, 273, 336, 304
-0.997339, 283, 25, 298, 88
-0.99735, 233, 113, 248, 176
-0.99735, 193, 221, 320, 252
-0.997351, 313, 129, 344, 256
-0.997361, 177, 285, 304, 316
-0.99737, 469, 233, 500, 296
-0.997373, 321, 241, 384, 368
-0.997374, 245, 121, 260, 184
-0.997382, 33, 201, 288, 264
-0.997389, 249, 1, 280, 256
-0.997426, 1, 161, 128, 224
-0.997429, 305, 1, 336, 256
-0.997432, 229, 209, 244, 272
-0.997434, 235, 241, 250, 304
-0.997441, 129, 49, 160, 112
-0.997448, 311, 41, 326, 104
-0.997451, 483, 249, 498, 312
-0.997457, 213, 225, 228, 288
-0.997468, 145, 73, 160, 136
-0.99747, 295, 25, 310, 88
-0.997473, 225, 145, 352, 176
-0.99748, 65, 301, 192, 332
-0.997483, 273, 169, 288, 232
-0.997497, 147, 297, 162, 360
-0.997503, 159, 129, 174, 192
-0.997536, 267, 33, 282, 96
-0.997555, 289, 25, 304, 88
-0.997557, 231, 277, 246, 308
-0.997582, 177, 233, 192, 296
-0.997598, 149, 193, 180, 320
-0.997603, 83, 129, 98, 192
-0.997606, 473, 257, 488, 320
-0.997609, 207, 129, 222, 192
-0.997612, 369, 277, 496, 308
-0.997625, 161, 97, 192, 352
-0.997633, 145, 169, 160, 232
-0.99764, 161, 289, 416, 352
-0.997652, 65, 113, 96, 240
-0.997653, 279, 177, 294, 240
-0.997666, 205, 65, 236, 320
-0.997668, 221, 177, 236, 240
-0.997672, 151, 265, 166, 328
-0.997672, 443, 313, 458, 375
-0.997684, 141, 1, 172, 256
-0.997687, 153, 289, 168, 352
-0.997687, 413, 241, 444, 368
-0.997688, 227, 169, 242, 232
-0.997709, 81, 321, 208, 352
-0.997709, 243, 65, 258, 128
-0.997711, 353, 1, 480, 128
-0.997722, 241, 217, 304, 280
-0.997728, 353, 301, 480, 332
-0.997733, 239, 121, 254, 184
-0.997737, 49, 117, 176, 148
-0.997738, 1, 217, 500, 280
-0.997744, 89, 129, 104, 192
-0.997747, 309, 25, 340, 88
-0.997753, 241, 29, 368, 60
-0.997756, 219, 221, 234, 252
-0.997767, 129, 225, 256, 256
-0.99778, 369, 217, 496, 248
-0.997781, 229, 237, 244, 268
-0.997783, 145, 129, 176, 375
-0.997788, 417, 193, 448, 320
-0.997789, 267, 129, 282, 192
-0.997792, 225, 33, 256, 288
-0.997793, 329, 17, 360, 144
-0.997797, 219, 233, 234, 264
-0.997798, 307, 145, 322, 208
-0.997803, 49, 177, 112, 240
-0.997806, 227, 113, 242, 176
-0.997815, 145, 49, 160, 112
-0.997822, 215, 185, 230, 248
-0.997822, 49, 97, 176, 128
-0.99783, 257, 337, 384, 368
-0.997841, 273, 1, 304, 256
-0.997856, 329, 65, 344, 128
-0.997858, 41, 177, 104, 304
-0.997862, 321, 121, 336, 184
-0.997863, 89, 1, 152, 375
-0.99787, 445, 201, 460, 264
-0.997877, 267, 161, 282, 224
-0.997877, 485, 277, 500, 308
-0.997888, 157, 313, 188, 375
-0.997893, 209, 333, 336, 364
-0.997898, 289, 165, 416, 196
-0.997948, 225, 293, 240, 324
-0.997958, 81, 269, 208, 300
-0.997964, 245, 145, 260, 208
-0.997975, 141, 145, 156, 208
-0.997977, 289, 177, 304, 240
-0.997978, 209, 321, 336, 352
-0.997982, 273, 141, 400, 172
-0.997983, 295, 169, 310, 232
-0.997985, 57, 273, 120, 336
-0.997997, 189, 313, 204, 375
-0.998, 237, 33, 268, 288
-0.998007, 145, 265, 160, 328
-0.998008, 225, 1, 352, 64
-0.998016, 195, 129, 210, 192
-0.99802, 225, 225, 240, 256
-0.998025, 193, 185, 320, 216
-0.998031, 177, 261, 304, 292
-0.998034, 225, 169, 352, 200
-0.998038, 233, 265, 248, 296
-0.99805, 83, 153, 98, 216
-0.998054, 297, 89, 328, 152
-0.998057, 257, 129, 384, 160
-0.998059, 213, 233, 228, 264
-0.998063, 245, 313, 276, 375
-0.998078, 195, 161, 210, 224
-0.99808, 233, 129, 264, 375
-0.998089, 49, 85, 176, 116
-0.998106, 113, 69, 240, 100
-0.99811, 181, 125, 196, 156
-0.998123, 289, 45, 416, 76
-0.998131, 361, 1, 424, 375
-0.998133, 97, 333, 224, 364
-0.998134, 213, 161, 228, 224
-0.998137, 193, 97, 224, 352
-0.998142, 193, 1, 256, 128
-0.998144, 263, 133, 278, 164
-0.998145, 241, 249, 272, 312
-0.998145, 261, 89, 276, 152
-0.998154, 469, 129, 500, 375
-0.998159, 189, 113, 204, 144
-0.99816, 425, 217, 440, 280
-0.99818, 215, 129, 230, 192
-0.998181, 173, 257, 188, 320
-0.998185, 177, 153, 208, 216
-0.998189, 159, 225, 174, 288
-0.998189, 277, 145, 292, 208
-0.998204, 219, 209, 234, 240
-0.998207, 311, 113, 326, 176
-0.998211, 141, 289, 156, 352
-0.998212, 1, 281, 128, 344
-0.998218, 197, 33, 228, 160
-0.998227, 369, 289, 496, 320
-0.998233, 427, 313, 442, 375
-0.99824, 317, 81, 332, 144
-0.998241, 165, 241, 180, 272
-0.998257, 283, 153, 298, 216
-0.998264, 321, 225, 448, 256
-0.998269, 173, 133, 188, 164
-0.998269, 199, 101, 214, 132
-0.99827, 225, 265, 240, 328
-0.998273, 289, 61, 416, 92
-0.998282, 193, 205, 320, 236
-0.998283, 455, 281, 470, 344
-0.998284, 213, 303, 244, 318
-0.998286, 129, 169, 160, 184
-0.998286, 261, 39, 292, 54
-0.998286, 159, 297, 174, 360
-0.998286, 277, 169, 308, 184
-0.998286, 469, 287, 500, 302
-0.998288, 229, 243, 260, 258
-0.998288, 201, 95, 232, 110
-0.998288, 205, 195, 236, 210
-0.998288, 445, 321, 476, 336
-0.998289, 317, 133, 348, 148
-0.998289, 249, 83, 280, 98
-0.998289, 197, 227, 228, 242
-0.99829, 49, 69, 176, 100
-0.99829, 229, 305, 260, 320
-0.99829, 437, 339, 468, 354
-0.998291, 213, 285, 244, 300
-0.998291, 241, 117, 272, 132
-0.998291, 469, 269, 500, 284
-0.998292, 141, 45, 172, 60
-0.998292, 421, 343, 452, 358
-0.998294, 329, 357, 360, 372
-0.998294, 233, 85, 264, 100
-0.998295, 409, 219, 440, 234
-0.998295, 65, 129, 96, 192
-0.998295, 197, 161, 228, 176
-0.998296, 145, 109, 160, 140
-0.998297, 453, 311, 484, 326
-0.998298, 205, 209, 236, 224
-0.998298, 201, 175, 232, 190
-0.998298, 261, 351, 292, 366
-0.998299, 261, 177, 292, 192
-0.998299, 133, 241, 164, 368
-0.998299, 409, 347, 440, 362
-0.998299, 141, 51, 172, 66
-0.9983, 313, 69, 344, 84
-0.998301, 301, 355, 332, 370
-0.998301, 141, 329, 172, 344
-0.998302, 461, 303, 492, 318
-0.998302, 249, 347, 280, 362
-0.998302, 141, 63, 172, 78
-0.998303, 313, 79, 344, 94
-0.998303, 77, 161, 108, 176
-0.998303, 189, 115, 220, 130
-0.998303, 197, 133, 228, 148
-0.998303, 161, 159, 192, 174
-0.998304, 249, 129, 280, 144
-0.998304, 421, 225, 452, 240
-0.998304, 309, 63, 340, 78
-0.998304, 171, 229, 186, 260
-0.998305, 141, 57, 172, 72
-0.998305, 225, 119, 256, 134
-0.998305, 141, 69, 172, 84
-0.998306, 313, 357, 344, 372
-0.998306, 273, 349, 304, 364
-0.998306, 261, 141, 292, 156
-0.998306, 141, 137, 172, 152
-0.998307, 385, 257, 448, 320
-0.998307, 215, 89, 230, 120
-0.998308, 421, 337, 452, 352
-0.998308, 141, 75, 172, 90
-0.998309, 433, 345, 464, 360
-0.998309, 129, 111, 160, 126
-0.998309, 281, 175, 312, 190
-0.998309, 205, 187, 236, 202
-0.99831, 249, 67, 280, 82
-0.998311, 141, 81, 172, 96
-0.998312, 141, 171, 172, 186
-0.998312, 189, 357, 220, 372
-0.998313, 161, 235, 192, 250
-0.998313, 429, 351, 460, 366
-0.998314, 185, 123, 216, 138
-0.998314, 213, 275, 244, 290
-0.998315, 241, 123, 272, 138
-0.998315, 469, 293, 500, 308
-0.998315, 245, 161, 276, 176
-0.998315, 197, 233, 228, 248
-0.998316, 257, 341, 288, 356
-0.998317, 233, 269, 264, 284
-0.998318, 225, 335, 256, 350
-0.998318, 249, 59, 280, 74
-0.998319, 193, 109, 224, 124
-0.998319, 205, 215, 236, 230
-0.998319, 297, 43, 328, 58
-0.99832, 85, 155, 116, 170
-0.99832, 141, 131, 172, 146
-0.998322, 479, 281, 494, 312
-0.998323, 141, 87, 172, 102
-0.998324, 369, 185, 496, 216
-0.998325, 169, 153, 200, 168
-0.998326, 137, 105, 152, 168
-0.998326, 241, 141, 272, 156
-0.998327, 209, 181, 240, 196
-0.998327, 157, 261, 188, 276
-0.998328, 141, 93, 172, 108
-0.998329, 161, 247, 192, 262
-0.998329, 141, 123, 172, 138
-0.99833, 49, 217, 176, 280
-0.998331, 233, 299, 264, 314
-0.998331, 213, 129, 244, 144
-0.998331, 425, 361, 456, 375
-0.998333, 301, 161, 316, 224
-0.998335, 257, 45, 288, 60
-0.998335, 329, 349, 360, 364
-0.998335, 309, 57, 340, 72
-0.998336, 337, 205, 464, 236
-0.998336, 141, 99, 172, 114
-0.998336, 305, 49, 336, 64
-0.998336, 141, 105, 172, 120
-0.998336, 253, 53, 284, 68
-0.998338, 137, 81, 152, 144
-0.998342, 141, 147, 172, 162
-0.998342, 249, 135, 280, 150
-0.998343, 161, 241, 192, 256
-0.998343, 261, 135, 292, 150
-0.998343, 409, 355, 440, 370
-0.998344, 249, 75, 280, 90
-0.998344, 157, 255, 188, 270
-0.998345, 249, 147, 280, 162
-0.998347, 129, 181, 256, 212
-0.998349, 225, 91, 256, 106
-0.99835, 201, 101, 232, 116
-0.998352, 209, 221, 240, 236
-0.998354, 245, 155, 276, 170
-0.998356, 173, 137, 204, 152
-0.998356, 177, 45, 304, 76
-0.998358, 169, 147, 200, 162
-0.99836, 141, 117, 172, 132
-0.998362, 281, 31, 312, 46
-0.998363, 209, 93, 224, 124
-0.998363, 405, 361, 436, 375
-0.998365, 257, 45, 272, 76
-0.998365, 245, 89, 276, 104
-0.998368, 141, 111, 172, 126
-0.998368, 411, 313, 426, 375
-0.99837, 153, 313, 168, 375
-0.998371, 149, 153, 164, 184
-0.998372, 421, 217, 452, 232
-0.998372, 229, 275, 260, 290
-0.998375, 149, 153, 180, 168
-0.998375, 225, 281, 240, 312
-0.99838, 177, 129, 208, 144
-0.998381, 273, 49, 288, 112
-0.998383, 193, 29, 320, 60
-0.998383, 225, 291, 256, 306
-0.998384, 141, 165, 172, 180
-0.998384, 263, 41, 278, 72
-0.998392, 471, 289, 486, 320
-0.998393, 163, 161, 178, 192
-0.998398, 281, 313, 296, 375
-0.9984, 425, 213, 440, 244
-0.998401, 113, 41, 240, 72
-0.998401, 113, 57, 240, 88
-0.998402, 295, 145, 310, 208
-0.998406, 235, 301, 250, 332
-0.998411, 217, 245, 248, 260
-0.998413, 209, 229, 240, 244
-0.998418, 225, 125, 256, 140
-0.998422, 143, 121, 158, 184
-0.998423, 49, 37, 176, 68
-0.998423, 49, 57, 176, 88
-0.998427, 449, 317, 464, 348
-0.998429, 141, 159, 172, 174
-0.998434, 161, 253, 176, 284
-0.998434, 205, 239, 236, 254
-0.998435, 113, 209, 240, 240
-0.998439, 309, 41, 324, 72
-0.998443, 155, 165, 170, 196
-0.998443, 241, 233, 256, 296
-0.998444, 437, 341, 452, 372
-0.998445, 457, 305, 472, 336
-0.998446, 213, 91, 244, 106
-0.998447, 449, 289, 464, 352
-0.998449, 369, 165, 496, 196
-0.998449, 345, 353, 376, 368
-0.998454, 77, 129, 92, 192
-0.998456, 225, 281, 256, 296
-0.998463, 257, 149, 272, 180
-0.998464, 229, 117, 244, 148
-0.998465, 463, 297, 478, 328
-0.998474, 171, 217, 186, 248
-0.998475, 461, 273, 476, 336
-0.998476, 369, 237, 496, 268
-0.998478, 177, 81, 304, 112
-0.998479, 89, 153, 104, 216
-0.99848, 453, 129, 484, 375
-0.998482, 173, 185, 188, 248
-0.998485, 257, 129, 500, 192
-0.99849, 357, 345, 372, 375
-0.998496, 209, 245, 336, 276
-0.998497, 433, 273, 496, 336
-0.9985, 243, 313, 258, 375
-0.998502, 145, 97, 160, 128
-0.998505, 317, 49, 332, 80
-0.99851, 221, 121, 236, 184
-0.998512, 65, 289, 192, 320
-0.998512, 289, 153, 304, 216
-0.998514, 207, 193, 222, 256
-0.998515, 243, 77, 258, 108
-0.998521, 451, 177, 466, 240
-0.998522, 85, 265, 116, 328
-0.998526, 301, 129, 316, 192
-0.998527, 217, 235, 248, 250
-0.998532, 41, 153, 104, 216
-0.998532, 161, 289, 192, 352
-0.998535, 201, 91, 264, 106
-0.998546, 323, 105, 338, 136
-0.998551, 221, 89, 236, 120
-0.998554, 443, 325, 458, 356
-0.998555, 273, 33, 288, 64
-0.998557, 153, 159, 216, 174
-0.998561, 173, 225, 204, 288
-0.998574, 169, 133, 232, 148
-0.998574, 129, 137, 192, 152
-0.998575, 275, 173, 290, 204
-0.998576, 129, 197, 256, 228
-0.998577, 317, 65, 348, 320
-0.998577, 393, 193, 424, 320
-0.998579, 245, 93, 260, 124
-0.99858, 177, 125, 240, 140
-0.998584, 393, 345, 456, 360
-0.998588, 257, 35, 320, 50
-0.998589, 129, 143, 192, 158
-0.998589, 137, 151, 200, 166
-0.998591, 169, 235, 232, 250
-0.998591, 145, 121, 160, 152
-0.998591, 393, 329, 456, 344
-0.998593, 153, 165, 216, 180
-0.998595, 251, 85, 266, 116
-0.998596, 385, 351, 448, 366
-0.998597, 281, 1, 344, 64
-0.998597, 217, 125, 280, 140
-0.998598, 393, 335, 456, 350
-0.998598, 129, 129, 192, 144
-0.998598, 137, 119, 200, 134
-0.998598, 201, 97, 264, 112
-0.998601, 165, 229, 180, 260
-0.998601, 377, 357, 440, 372
-0.998603, 177, 119, 240, 134
-0.998607, 225, 309, 352, 340
-0.998607, 65, 345, 192, 375
-0.998608, 321, 355, 384, 370
-0.998609, 209, 221, 224, 252
-0.998614, 83, 149, 98, 180
-0.998616, 393, 321, 456, 336
-0.998617, 305, 73, 432, 104
-0.998618, 161, 147, 224, 162
-0.998618, 235, 289, 250, 320
-0.998619, 177, 241, 240, 256
-0.99862, 201, 131, 264, 146
-0.998622, 89, 241, 120, 368
-0.998623, 225, 173, 288, 188
-0.998624, 401, 315, 464, 330
-0.998625, 171, 241, 186, 272
-0.998626, 231, 225, 246, 256
-0.998626, 161, 141, 224, 156
-0.998632, 251, 53, 266, 84
-0.998632, 281, 181, 296, 212
-0.998633, 171, 145, 186, 176
-0.998634, 321, 89, 336, 120
-0.998635, 297, 357, 360, 372
-0.998636, 113, 29, 240, 60
-0.998637, 209, 233, 272, 248
-0.998637, 129, 157, 192, 172
-0.998639, 249, 51, 312, 66
-0.99864, 313, 349, 376, 364
-0.99864, 257, 41, 320, 56
-0.998641, 185, 309, 248, 324
-0.998641, 249, 153, 264, 184
-0.998641, 193, 285, 256, 300
-0.998642, 231, 89, 246, 120
-0.998644, 431, 345, 446, 375
-0.998645, 257, 161, 320, 176
-0.998646, 185, 113, 248, 128
-0.998646, 219, 177, 234, 208
-0.998647, 185, 279, 248, 294
-0.99865, 129, 163, 192, 178
-0.99865, 201, 239, 264, 254
-0.998651, 225, 133, 288, 148
-0.998653, 309, 149, 324, 180
-0.998654, 185, 303, 248, 318
-0.998654, 161, 229, 224, 244
-0.998655, 417, 361, 480, 375
-0.998657, 417, 353, 480, 368
-0.998657, 161, 153, 224, 168
-0.99866, 225, 303, 288, 318
-0.99866, 129, 345, 192, 360
-0.99866, 257, 351, 320, 366
-0.998661, 225, 167, 288, 182
-0.998661, 209, 341, 272, 356
-0.998662, 217, 119, 280, 134
-0.998662, 353, 361, 416, 375
-0.998664, 97, 153, 160, 168
-0.998665, 185, 179, 248, 194
-0.998667, 193, 165, 256, 180
-0.998668, 193, 103, 256, 118
-0.998668, 323, 117, 338, 148
-0.998668, 265, 171, 328, 186
-0.998668, 137, 113, 200, 128
-0.99867, 185, 317, 248, 332
-0.998671, 181, 337, 196, 368
-0.998671, 329, 41, 392, 104
-0.998671, 225, 85, 288, 100
-0.998672, 233, 141, 296, 156
-0.998673, 273, 49, 336, 64
-0.998673, 303, 37, 318, 68
-0.998673, 145, 319, 208, 334
-0.998674, 249, 179, 312, 194
-0.998674, 281, 63, 344, 78
-0.998674, 233, 149, 296, 164
-0.998675, 267, 165, 282, 196
-0.998675, 193, 291, 256, 306
-0.998675, 281, 75, 344, 90
-0.998676, 153, 305, 216, 320
-0.998677, 241, 73, 304, 88
-0.998677, 193, 273, 256, 288
-0.998677, 425, 343, 488, 358
-0.998677, 273, 177, 336, 192
-0.998678, 353, 349, 416, 364
-0.998679, 97, 145, 160, 160
-0.998679, 281, 57, 344, 72
-0.998679, 225, 159, 288, 174
-0.998681, 265, 137, 328, 152
-0.998682, 289, 33, 416, 64
-0.998683, 185, 297, 248, 312
-0.998684, 193, 137, 256, 152
-0.998684, 153, 297, 216, 312
-0.998685, 323, 57, 338, 88
-0.998686, 257, 153, 320, 168
-0.998686, 433, 327, 496, 342
-0.998686, 237, 89, 252, 120
-0.998686, 137, 269, 200, 284
-0.998687, 241, 59, 304, 74
-0.998687, 241, 91, 304, 106
-0.998687, 281, 351, 344, 366
-0.998687, 169, 341, 232, 356
-0.998687, 193, 171, 256, 186
-0.998688, 225, 265, 288, 280
-0.998688, 153, 313, 216, 328
-0.998689, 137, 325, 200, 340
-0.998689, 281, 85, 344, 100
-0.998689, 209, 233, 336, 264
-0.99869, 185, 323, 248, 338
-0.99869, 153, 171, 216, 186
-0.998691, 393, 215, 456, 230
-0.998692, 353, 355, 416, 370
-0.998692, 145, 173, 160, 204
-0.998693, 281, 69, 344, 84
-0.998695, 137, 331, 200, 346
-0.998695, 401, 309, 464, 324
-0.998695, 241, 79, 304, 94
-0.998696, 185, 223, 248, 238
-0.998696, 105, 161, 168, 176
-0.998697, 153, 127, 216, 142
-0.998698, 417, 303, 480, 318
-0.998698, 241, 67, 304, 82
-0.998699, 145, 85, 160, 116
-0.9987, 425, 337, 488, 352
-0.9987, 265, 129, 328, 144
-0.9987, 49, 25, 176, 56
-0.9987, 305, 93, 432, 124
-0.9987, 225, 323, 288, 338
-0.998701, 433, 321, 496, 336
-0.998702, 257, 147, 320, 162
-0.998702, 97, 135, 160, 150
-0.998702, 137, 237, 200, 252
-0.998704, 193, 185, 256, 200
-0.998704, 241, 337, 304, 352
-0.998705, 137, 351, 200, 366
-0.998706, 145, 357, 208, 372
-0.998706, 209, 143, 272, 158
-0.998706, 417, 297, 480, 312
-0.998707, 217, 275, 280, 290
-0.998707, 185, 329, 248, 344
-0.998707, 225, 329, 288, 344
-0.998707, 155, 153, 170, 184
-0.998707, 225, 317, 288, 332
-0.998709, 137, 339, 200, 354
-0.998709, 289, 171, 352, 186
-0.998709, 237, 277, 252, 308
-0.99871, 433, 277, 496, 292
-0.998711, 305, 139, 368, 154
-0.998711, 297, 155, 360, 170
-0.998728, 293, 177, 308, 208
-0.998735, 239, 257, 254, 288
-0.998737, 289, 289, 416, 352
-0.998738, 147, 9, 162, 40
-0.998738, 425, 177, 456, 240
-0.99874, 85, 153, 116, 216
-0.998744, 255, 121, 270, 152
-0.998745, 49, 1, 176, 32
-0.998761, 49, 97, 112, 352
-0.998761, 249, 161, 280, 224
-0.998764, 453, 249, 484, 312
-0.99877, 279, 29, 294, 60
-0.998771, 41, 305, 104, 368
-0.99878, 235, 117, 250, 148
-0.998784, 145, 321, 160, 352
-0.998789, 167, 253, 182, 284
-0.998789, 141, 161, 156, 192
-0.998792, 369, 265, 496, 296
-0.998796, 147, 133, 162, 164
-0.9988, 249, 241, 312, 368
-0.998801, 275, 345, 290, 375
-0.998807, 97, 1, 160, 64
-0.998814, 83, 137, 98, 168
-0.998814, 289, 345, 304, 375
-0.998818, 191, 281, 206, 312
-0.998819, 235, 317, 250, 348
-0.998823, 481, 265, 496, 296
-0.998834, 257, 137, 272, 168
-0.998837, 163, 149, 178, 180
-0.998837, 49, 13, 176, 44
-0.998839, 145, 73, 160, 104
-0.998841, 145, 61, 160, 92
-0.998843, 305, 105, 432, 136
-0.998846, 299, 169, 314, 200
-0.998858, 297, 33, 312, 64
-0.998864, 253, 65, 268, 96
-0.998866, 207, 133, 222, 164
-0.998867, 85, 161, 100, 192
-0.998869, 173, 257, 188, 288
-0.998873, 227, 193, 242, 224
-0.998874, 177, 233, 192, 264
-0.998876, 155, 301, 170, 332
-0.998881, 113, 17, 240, 48
-0.998881, 255, 345, 270, 375
-0.998887, 313, 121, 328, 152
-0.998888, 181, 1, 212, 256
-0.998895, 295, 345, 310, 375
-0.998896, 221, 125, 236, 156
-0.998905, 225, 261, 352, 292
-0.998909, 315, 141, 330, 172
-0.998911, 233, 329, 248, 360
-0.998912, 263, 153, 278, 184
-0.998918, 153, 1, 184, 256
-0.998919, 241, 121, 256, 152
-0.99892, 145, 49, 160, 80
-0.998925, 177, 61, 304, 92
-0.998925, 281, 345, 296, 375
-0.998926, 49, 333, 176, 364
-0.998929, 17, 309, 144, 340
-0.998934, 287, 185, 302, 216
-0.998935, 337, 345, 352, 375
-0.998936, 155, 317, 170, 348
-0.998937, 267, 337, 282, 368
-0.998937, 201, 129, 216, 160
-0.998938, 419, 217, 434, 248
-0.998941, 285, 29, 300, 60
-0.998948, 305, 285, 432, 316
-0.998953, 89, 149, 104, 180
-0.998954, 219, 245, 234, 276
-0.998955, 243, 153, 258, 184
-0.998957, 451, 185, 466, 216
-0.998959, 73, 81, 136, 208
-0.998959, 225, 289, 352, 320
-0.998968, 239, 245, 254, 276
-0.998969, 245, 341, 260, 372
-0.998973, 329, 97, 344, 128
-0.99898, 239, 337, 254, 368
-0.99898, 321, 237, 448, 268
-0.998984, 393, 313, 424, 375
-0.998987, 65, 169, 192, 200
-0.998996, 205, 81, 220, 208
-0.999012, 321, 249, 448, 280
-0.99905, 257, 97, 288, 352
-0.999055, 369, 249, 496, 280
-0.999075, 361, 145, 392, 272
-0.999081, 243, 81, 258, 208
-0.999081, 221, 129, 252, 375
-0.999087, 1, 241, 500, 304
-0.9991, 199, 81, 214, 208
-0.999104, 1, 137, 128, 168
-0.999129, 289, 21, 416, 52
-0.999132, 165, 145, 180, 272
-0.999148, 305, 97, 336, 352
-0.999152, 1, 105, 128, 168
-0.999152, 229, 225, 244, 352
-0.999168, 211, 81, 226, 208
-0.99917, 235, 81, 250, 208
-0.999189, 221, 177, 236, 304
-0.999191, 273, 121, 304, 184
-0.999195, 1, 265, 256, 328
-0.999195, 251, 49, 266, 176
-0.999202, 171, 193, 186, 320
-0.999204, 147, 1, 162, 128
-0.999205, 149, 97, 164, 224
-0.99921, 133, 97, 164, 352
-0.999214, 125, 129, 156, 256
-0.999218, 273, 225, 400, 288
-0.999219, 297, 9, 328, 72
-0.999222, 305, 297, 432, 328
-0.999223, 173, 113, 188, 240
-0.999228, 159, 145, 174, 272
-0.999231, 129, 1, 256, 32
-0.999243, 221, 81, 236, 208
-0.999245, 323, 49, 338, 176
-0.99926, 317, 33, 332, 160
-0.999275, 81, 257, 208, 288
-0.999279, 405, 185, 436, 248
-0.999279, 229, 81, 244, 208
-0.99928, 193, 97, 208, 224
-0.999282, 259, 113, 274, 240
-0.999285, 425, 233, 456, 296
-0.999289, 235, 225, 250, 352
-0.99929, 441, 129, 472, 375
-0.999297, 441, 233, 472, 296
-0.999297, 257, 161, 288, 288
-0.999307, 189, 289, 220, 352
-0.999315, 485, 241, 500, 368
-0.999319, 263, 65, 278, 192
-0.999323, 305, 121, 432, 152
-0.999328, 129, 1, 160, 256
-0.999334, 187, 97, 202, 224
-0.999339, 237, 217, 268, 280
-0.99934, 473, 209, 488, 336
-0.999346, 321, 269, 448, 300
-0.99935, 245, 129, 276, 375
-0.999358, 261, 241, 292, 368
-0.999361, 169, 1, 200, 256
-0.999367, 163, 225, 178, 352
-0.999367, 463, 225, 478, 352
-0.999368, 323, 97, 338, 224
-0.999372, 313, 129, 376, 256
-0.999376, 1, 149, 128, 180
-0.999376, 213, 129, 228, 256
-0.999382, 483, 193, 498, 320
-0.999396, 257, 33, 272, 160
-0.999397, 311, 65, 326, 192
-0.999399, 479, 241, 494, 368
-0.999403, 305, 317, 432, 348
-0.999405, 455, 225, 470, 352
-0.999407, 273, 241, 400, 368
-0.999419, 179, 113, 194, 240
-0.999429, 265, 113, 280, 240
-0.99943, 145, 161, 160, 288
-0.999431, 145, 49, 160, 176
-0.999432, 253, 97, 268, 224
-0.999433, 153, 241, 168, 368
-0.999438, 1, 25, 256, 88
-0.99945, 83, 113, 98, 240
-0.999453, 161, 17, 224, 144
-0.999454, 273, 97, 288, 224
-0.999462, 193, 1, 224, 256
-0.999465, 147, 241, 162, 368
-0.99947, 109, 137, 140, 200
-0.99947, 317, 81, 332, 208
-0.99947, 155, 81, 170, 208
-0.999474, 223, 225, 238, 352
-0.999476, 301, 17, 316, 144
-0.999484, 445, 241, 460, 368
-0.999484, 153, 145, 168, 272
-0.999484, 313, 129, 328, 256
-0.999484, 269, 33, 284, 160
-0.999492, 293, 137, 324, 200
-0.999492, 177, 17, 304, 48
-0.999494, 229, 177, 244, 304
-0.999496, 279, 161, 294, 288
-0.999498, 427, 353, 442, 368
-0.999499, 145, 83, 160, 98
-0.999499, 159, 157, 174, 172
-0.999499, 275, 349, 290, 364
-0.999499, 145, 65, 160, 80
-0.999499, 271, 173, 286, 188
-0.999499, 239, 257, 254, 272
-0.999499, 229, 225, 244, 240
-0.999499, 155, 171, 170, 186
-0.9995, 289, 181, 304, 196
-0.999501, 145, 71, 160, 86
-0.999501, 253, 57, 268, 72
-0.999501, 147, 157, 162, 172
-0.999501, 147, 13, 162, 28
-0.999502, 241, 339, 256, 354
-0.999502, 451, 319, 466, 334
-0.999503, 249, 157, 264, 172
-0.999504, 323, 93, 338, 108
-0.999504, 251, 151, 266, 166
-0.999504, 147, 5, 162, 20
-0.999504, 219, 185, 234, 200
-0.999504, 145, 139, 160, 154
-0.999504, 479, 281, 494, 296
-0.999505, 329, 65, 344, 192
-0.999505, 247, 343, 262, 358
-0.999505, 145, 89, 160, 104
-0.999505, 145, 77, 160, 92
-0.999505, 225, 121, 240, 136
-0.999506, 251, 91, 266, 106
-0.999506, 457, 311, 472, 326
-0.999506, 447, 325, 462, 340
-0.999507, 237, 263, 252, 278
-0.999507, 231, 331, 246, 346
-0.999507, 461, 305, 476, 320
-0.999508, 447, 177, 462, 304
-0.999508, 319, 55, 334, 70
-0.999508, 275, 17, 290, 144
-0.999509, 277, 179, 292, 194
-0.99951, 169, 159, 184, 174
-0.99951, 267, 167, 282, 182
-0.99951, 437, 343, 452, 358
-0.999511, 235, 315, 250, 330
-0.999513, 275, 33, 290, 48
-0.999513, 471, 291, 486, 306
-0.999514, 83, 133, 98, 148
-0.999514, 231, 91, 246, 106
-0.999514, 211, 97, 226, 112
-0.999515, 147, 175, 162, 190
-0.999516, 237, 117, 252, 132
-0.999516, 253, 347, 268, 362
-0.999516, 219, 179, 234, 194
-0.999516, 167, 257, 182, 272
-0.999517, 323, 111, 338, 126
-0.999518, 433, 351, 448, 366
-0.999518, 145, 95, 160, 110
-0.999518, 161, 259, 176, 274
-0.999519, 83, 155, 98, 170
-0.999519, 89, 157, 104, 172
-0.999519, 325, 87, 340, 102
-0.999519, 429, 361, 444, 375
-0.999521, 349, 353, 364, 368
-0.999521, 309, 43, 324, 58
-0.999521, 469, 297, 484, 312
-0.999522, 171, 147, 186, 162
-0.999522, 315, 49, 330, 64
-0.999522, 169, 223, 184, 238
-0.999522, 141, 169, 156, 184
-0.999524, 165, 249, 180, 264
-0.999524, 229, 303, 244, 318
-0.999524, 231, 245, 246, 260
-0.999524, 323, 125, 338, 140
-0.999525, 263, 17, 278, 144
-0.999525, 221, 91, 236, 106
-0.999525, 259, 349, 274, 364
-0.999526, 245, 87, 260, 102
-0.999526, 143, 97, 158, 224
-0.999528, 263, 43, 278, 58
-0.999528, 145, 131, 160, 146
-0.999528, 223, 285, 238, 300
-0.999529, 235, 281, 250, 296
-0.999529, 125, 153, 156, 216
-0.99953, 173, 141, 188, 156
-0.999532, 257, 51, 272, 66
-0.999532, 219, 215, 234, 230
-0.999532, 243, 93, 258, 108
-0.999533, 147, 163, 162, 178
-0.999534, 175, 135, 190, 150
-0.999536, 185, 123, 200, 138
-0.999536, 145, 125, 160, 140
-0.999536, 145, 101, 160, 116
-0.999537, 223, 243, 238, 258
-0.999539, 445, 273, 476, 336
-0.99954, 191, 115, 206, 130
-0.99954, 265, 133, 280, 148
-0.99954, 155, 165, 170, 180
-0.999541, 237, 91, 252, 106
-0.999542, 477, 287, 492, 302
-0.999542, 165, 243, 180, 258
-0.999542, 307, 129, 322, 256
-0.999543, 227, 275, 242, 290
-0.999544, 171, 243, 186, 258
-0.999545, 221, 127, 236, 142
-0.999546, 243, 145, 258, 272
-0.999547, 1, 165, 128, 196
-0.999547, 259, 149, 274, 164
-0.999551, 167, 231, 182, 246
-0.999551, 149, 169, 164, 184
-0.999552, 233, 269, 248, 284
-0.999552, 195, 109, 210, 124
-0.999553, 237, 125, 252, 140
-0.999554, 167, 237, 182, 252
-0.999554, 145, 119, 160, 134
-0.999554, 211, 229, 226, 244
-0.999556, 289, 177, 416, 208
-0.999556, 233, 275, 248, 290
-0.999557, 173, 233, 188, 248
-0.999558, 179, 129, 194, 144
-0.99956, 163, 163, 178, 178
-0.999561, 177, 225, 192, 352
-0.999561, 227, 127, 242, 142
-0.999562, 235, 301, 250, 316
-0.999563, 145, 107, 160, 122
-0.999563, 93, 313, 124, 375
-0.999564, 225, 297, 240, 312
-0.999564, 223, 291, 238, 306
-0.999566, 357, 351, 372, 366
-0.999567, 453, 161, 468, 288
-0.999567, 199, 103, 214, 118
-0.999568, 295, 97, 310, 224
-0.999569, 223, 231, 238, 246
-0.999571, 213, 241, 228, 256
-0.999573, 215, 177, 230, 304
-0.999573, 129, 25, 160, 88
-0.999573, 219, 223, 234, 238
-0.999577, 229, 231, 244, 246
-0.999577, 273, 161, 288, 288
-0.999578, 49, 245, 176, 276
-0.999578, 145, 113, 160, 128
-0.999579, 241, 181, 368, 212
-0.99958, 205, 99, 220, 114
-0.99958, 289, 17, 304, 144
-0.999582, 231, 121, 246, 136
-0.999585, 89, 129, 104, 256
-0.999586, 241, 241, 256, 368
-0.999586, 263, 139, 278, 154
-0.999587, 485, 279, 500, 294
-0.99959, 33, 277, 160, 308
-0.999592, 301, 97, 316, 224
-0.999592, 215, 91, 230, 106
-0.999595, 229, 281, 244, 296
-0.999596, 219, 129, 234, 256
-0.999596, 307, 17, 322, 144
-0.999597, 229, 291, 244, 306
-0.999599, 281, 17, 296, 144
-0.999601, 279, 97, 294, 224
-0.999604, 285, 161, 300, 288
-0.999607, 293, 145, 308, 272
-0.999608, 161, 161, 192, 224
-0.999613, 289, 97, 304, 224
-0.99962, 193, 49, 208, 176
-0.99962, 137, 81, 152, 208
-0.99962, 301, 145, 316, 272
-0.999625, 229, 33, 244, 160
-0.999625, 241, 33, 256, 160
-0.999626, 459, 161, 474, 288
-0.999627, 257, 265, 384, 328
-0.999627, 25, 201, 88, 264
-0.999629, 227, 129, 242, 256
-0.99963, 205, 33, 220, 160
-0.999631, 237, 129, 252, 256
-0.999631, 295, 17, 310, 144
-0.999632, 213, 235, 228, 250
-0.999635, 205, 177, 220, 304
-0.999635, 369, 153, 496, 184
-0.999635, 413, 241, 428, 368
-0.999635, 305, 193, 432, 224
-0.999636, 329, 1, 360, 256
-0.999636, 213, 33, 228, 160
-0.999637, 219, 33, 234, 160
-0.999643, 353, 25, 480, 88
-0.999645, 249, 145, 264, 272
-0.999646, 141, 241, 156, 368
-0.999647, 229, 239, 244, 254
-0.999648, 425, 217, 440, 232
-0.999651, 467, 161, 482, 288
-0.999652, 213, 57, 244, 120
-0.999653, 199, 129, 214, 256
-0.999653, 207, 129, 222, 256
-0.999655, 17, 185, 144, 248
-0.999656, 137, 33, 152, 160
-0.999663, 153, 1, 168, 128
-0.999665, 187, 241, 202, 368
-0.99967, 161, 97, 176, 224
-0.999673, 77, 113, 92, 240
-0.999685, 477, 161, 492, 288
-0.999708, 353, 1, 480, 64
-0.999709, 323, 1, 338, 128
-0.999711, 199, 33, 214, 160
-0.999715, 95, 241, 110, 368
-0.999718, 235, 33, 250, 160
-0.999719, 273, 185, 400, 248
-0.999719, 425, 193, 440, 320
-0.99972, 221, 237, 236, 252
-0.999723, 419, 209, 434, 336
-0.999725, 181, 65, 196, 192
-0.999729, 95, 113, 110, 240
-0.99973, 293, 129, 324, 375
-0.999731, 441, 193, 456, 320
-0.999734, 215, 225, 230, 352
-0.999743, 201, 65, 232, 128
-0.999746, 235, 177, 250, 304
-0.999747, 81, 233, 208, 264
-0.999749, 439, 241, 454, 368
-0.99975, 187, 49, 202, 176
-0.999755, 289, 313, 320, 375
-0.999757, 181, 177, 196, 304
-0.999757, 167, 81, 182, 208
-0.99976, 173, 65, 188, 192
-0.999783, 139, 145, 154, 272
-0.999793, 83, 65, 98, 192
-0.999796, 133, 313, 164, 375
-0.999797, 483, 145, 498, 272
-0.999798, 171, 241, 186, 368
-0.999805, 89, 81, 104, 208
-0.999807, 407, 193, 422, 320
-0.999815, 1, 225, 128, 288
-0.999816, 435, 177, 450, 304
-0.999819, 267, 161, 282, 288
-0.99982, 193, 145, 208, 272
-0.999825, 247, 1, 262, 128
-0.999827, 247, 241, 262, 368
-0.999843, 333, 17, 348, 144
-0.999844, 159, 17, 174, 144
-0.999846, 269, 129, 300, 375
-0.999868, 249, 193, 312, 320
-0.999911, 329, 313, 392, 375
-0.999985, 281, 129, 312, 375
-0.999997, 353, 105, 480, 168
-1.00004, 377, 145, 408, 272
-1.00008, 369, 49, 496, 112
-1.00009, 1, 1, 256, 64
-1.0001, 337, 129, 400, 375
-1.00016, 353, 73, 480, 136
-1.00019, 317, 17, 348, 144
-1.00022, 429, 129, 460, 375
-1.00025, 377, 129, 408, 375
-1.00026, 389, 129, 420, 375
-1.00028, 157, 33, 188, 160
-1.00028, 345, 129, 376, 375
-1.00029, 65, 177, 192, 240
-1.00032, 69, 129, 100, 375
-1.00033, 365, 129, 396, 375
-1.00041, 81, 97, 112, 352
-1.00044, 397, 241, 428, 368
-1.00046, 337, 129, 368, 256
-1.00056, 349, 33, 380, 288
-1.00057, 117, 1, 148, 256
-1.00059, 333, 129, 364, 375
-1.00059, 9, 177, 72, 240
-1.0006, 41, 1, 104, 375
-1.0006, 65, 1, 96, 256
-1.00067, 81, 241, 144, 368
-1.00068, 361, 1, 392, 256
-1.0007, 449, 33, 480, 288
-1.00071, 373, 1, 404, 256
-1.00074, 417, 129, 448, 375
-1.00078, 57, 129, 88, 375
-1.00082, 33, 97, 64, 352
-1.00082, 97, 233, 160, 296
-1.00082, 429, 33, 460, 288
-1.00083, 465, 1, 496, 256
-1.00084, 241, 193, 272, 320
-1.00084, 89, 1, 120, 256
-1.00086, 1, 1, 128, 64
-1.00086, 385, 33, 416, 288
-1.0009, 401, 33, 464, 288
-1.0009, 41, 225, 104, 352
-1.00095, 121, 97, 152, 352
-1.00097, 45, 97, 76, 352
-1.00097, 105, 1, 136, 256
-1.00098, 41, 249, 104, 312
-1.00099, 93, 129, 124, 375
-1.001, 397, 1, 428, 256
-1.00106, 1, 65, 128, 192
-1.00107, 85, 65, 116, 192
-1.00114, 401, 97, 432, 352
-1.00117, 53, 1, 84, 256
-1.00119, 25, 105, 88, 168
-1.0012, 409, 1, 440, 256
-1.00125, 433, 137, 496, 200
-1.00125, 77, 1, 108, 256
-1.0013, 249, 249, 312, 312
-1.00133, 21, 129, 52, 375
-1.00138, 353, 209, 384, 336
-1.00142, 105, 129, 136, 375
-1.00145, 33, 1, 64, 256
-1.00156, 81, 129, 144, 256
-1.00157, 13, 33, 44, 288
-1.00163, 337, 1, 400, 256
-1.00172, 9, 129, 40, 375
-1.00176, 329, 121, 392, 184
-1.00178, 425, 129, 456, 256
-1.0018, 1, 33, 32, 288
-1.00181, 461, 113, 492, 240
-1.00181, 1, 113, 64, 240
-1.00187, 65, 65, 96, 192
-1.00192, 65, 1, 128, 375
-1.00195, 369, 49, 496, 176
-1.00206, 121, 185, 184, 248
-1.00207, 1, 1, 64, 375
-1.0021, 433, 33, 496, 288
-1.0021, 101, 113, 132, 240
-1.00215, 325, 113, 356, 240
-1.00237, 405, 145, 436, 272
-1.0025, 137, 193, 168, 320
-1.0025, 273, 193, 400, 320
-1.00253, 265, 209, 328, 272
-1.00259, 329, 233, 392, 296
-1.0026, 1, 73, 128, 136
-1.00271, 353, 137, 416, 200
-1.00279, 49, 177, 80, 304
-1.00282, 361, 33, 424, 288
-1.00283, 349, 145, 380, 272
-1.00285, 321, 193, 384, 320
-1.00288, 1, 41, 128, 104
-1.00288, 33, 113, 64, 240
-1.0029, 65, 225, 96, 352
-1.00296, 385, 241, 416, 368
-1.00296, 17, 193, 80, 320
-1.00296, 249, 273, 312, 336
-1.00297, 9, 153, 72, 216
-1.00299, 321, 169, 384, 232
-1.00304, 77, 241, 108, 368
-1.0031, 405, 193, 436, 320
-1.00317, 49, 81, 112, 208
-1.00324, 53, 97, 84, 224
-1.00335, 385, 129, 448, 375
-1.00339, 57, 1, 120, 64
-1.00358, 353, 97, 384, 224
-1.00362, 117, 241, 148, 368
-1.00363, 377, 137, 440, 200
-1.00363, 33, 281, 96, 344
-1.00368, 73, 105, 136, 168
-1.00368, 281, 241, 312, 368
-1.00368, 153, 1, 216, 64
-1.00373, 289, 241, 352, 304
-1.00375, 17, 129, 80, 192
-1.00377, 341, 209, 372, 336
-1.00399, 101, 225, 132, 352
-1.00406, 281, 193, 312, 320
-1.00411, 33, 161, 64, 288
-1.00412, 377, 97, 408, 224
-1.00424, 9, 97, 72, 352
-1.00427, 341, 81, 372, 208
-1.00434, 1, 1, 128, 128
-1.00455, 365, 241, 396, 368
-1.0046, 97, 193, 160, 320
-1.00468, 41, 1, 104, 256
-1.00468, 377, 193, 408, 320
-1.00468, 101, 161, 132, 288
-1.00473, 445, 113, 476, 240
-1.00474, 117, 81, 148, 208
-1.00478, 89, 161, 120, 288
-1.0049, 389, 145, 420, 272
-1.00491, 65, 161, 96, 288
-1.00491, 177, 1, 208, 128
-1.00502, 409, 97, 472, 224
-1.00512, 353, 97, 416, 224
-1.00513, 33, 241, 64, 368
-1.00516, 289, 177, 352, 304
-1.00524, 73, 97, 136, 352
-1.00536, 293, 241, 324, 368
-1.00538, 77, 177, 108, 304
-1.00545, 65, 1, 128, 256
-1.00558, 65, 177, 128, 304
-1.0056, 433, 81, 496, 208
-1.00562, 365, 97, 396, 224
-1.00566, 325, 161, 356, 288
-1.00586, 437, 1, 468, 128
-1.00606, 61, 1, 92, 128
-1.00606, 49, 225, 80, 352
-1.00607, 433, 17, 496, 144
-1.00609, 97, 1, 128, 128
-1.00616, 365, 193, 396, 320
-1.0062, 125, 193, 156, 320
-1.00626, 377, 1, 408, 128
-1.00631, 417, 1, 448, 128
-1.00634, 393, 1, 424, 128
-1.00638, 281, 241, 344, 368
-1.0064, 401, 1, 464, 128
-1.0065, 21, 225, 52, 352
-1.00655, 365, 1, 396, 128
-1.00694, 377, 97, 440, 224
-1.00702, 369, 1, 432, 128
-1.00724, 73, 1, 136, 128
-1.00793, 49, 1, 112, 128
-1.00822, 345, 1, 408, 128
-1.00852, 9, 1, 72, 256
-1.00856, 25, 49, 88, 176
-1.00881, 1, 241, 64, 368
-1.00987, 393, 49, 456, 176
-1.01009, 369, 49, 432, 176
-1.01071, 345, 49, 408, 176
-1.01146, 1, 65, 64, 192
-1.01257, 25, 1, 88, 128
-1.01539, 1, 1, 64, 128
