2111
-0.303527, 1, 225, 500, 476
-0.451534, 1, 97, 500, 352
-0.483244, 65, 225, 320, 476
-0.504461, 161, 225, 416, 476
-0.527789, 193, 1, 448, 476
-0.528506, 33, 1, 288, 476
-0.542608, 1, 1, 500, 256
-0.552208, 1, 1, 500, 476
-0.553221, 257, 225, 500, 476
-0.63966, 33, 129, 288, 384
-0.686002, 225, 129, 480, 384
-0.767332, 129, 129, 384, 384
-0.827333, 161, 33, 416, 288
-0.828003, 81, 193, 208, 448
-0.834293, 177, 225, 304, 476
-0.847306, 369, 225, 496, 476
-0.85315, 289, 225, 416, 476
-0.85417, 1, 33, 256, 288
-0.854196, 129, 129, 256, 384
-0.856335, 33, 225, 160, 476
-0.861785, 33, 1, 160, 476
-0.865715, 1, 305, 500, 432
-0.867579, 1, 257, 500, 384
-0.870394, 129, 225, 256, 476
-0.873786, 241, 225, 368, 476
-0.873929, 369, 1, 496, 476
-0.876005, 289, 129, 416, 384
-0.876984, 369, 129, 496, 384
-0.88147, 1, 353, 500, 476
-0.88665, 289, 1, 416, 476
-0.892039, 49, 97, 176, 352
-0.89251, 1, 209, 500, 336
-0.892524, 1, 129, 128, 384
-0.893935, 81, 1, 208, 476
-0.894805, 209, 1, 336, 476
-0.897102, 193, 257, 448, 384
-0.898797, 145, 1, 272, 476
-0.904178, 161, 305, 416, 432
-0.907218, 241, 129, 368, 384
-0.908665, 65, 241, 320, 368
-0.909414, 1, 81, 500, 208
-0.909687, 257, 1, 500, 256
-0.913918, 1, 145, 500, 272
-0.915334, 1, 305, 256, 432
-0.915789, 369, 1, 496, 256
-0.917663, 177, 129, 304, 384
-0.918306, 33, 177, 288, 304
-0.919069, 225, 353, 480, 476
-0.919627, 65, 353, 320, 476
-0.919839, 225, 209, 480, 336
-0.925214, 33, 1, 96, 128
-0.926822, 161, 305, 288, 432
-0.92705, 257, 305, 500, 432
-0.927338, 81, 273, 208, 400
-0.929944, 33, 1, 160, 256
-0.930125, 289, 33, 416, 288
-0.932381, 129, 177, 256, 304
-0.93256, 217, 241, 280, 368
-0.933035, 425, 257, 488, 384
-0.93338, 369, 289, 496, 416
-0.933655, 81, 225, 208, 352
-0.933661, 209, 305, 272, 432
-0.934021, 273, 353, 400, 476
-0.934355, 113, 33, 240, 288
-0.935175, 305, 353, 368, 476
-0.935977, 225, 353, 352, 476
-0.936271, 249, 353, 312, 476
-0.936325, 153, 289, 216, 416
-0.936972, 33, 225, 160, 352
-0.936981, 305, 257, 432, 384
-0.937166, 129, 177, 384, 304
-0.937927, 241, 257, 368, 384
-0.938215, 97, 321, 224, 448
-0.938234, 337, 209, 464, 336
-0.938544, 193, 225, 320, 352
-0.938973, 273, 305, 400, 432
-0.939191, 161, 353, 288, 476
-0.939686, 393, 209, 456, 336
-0.940509, 369, 289, 432, 416
-0.940718, 193, 129, 448, 256
-0.940903, 337, 337, 464, 464
-0.941319, 1, 273, 128, 400
-0.941854, 193, 33, 320, 288
-0.942122, 273, 353, 336, 476
-0.943059, 409, 145, 472, 272
-0.94325, 377, 129, 440, 256
-0.943372, 193, 225, 256, 352
-0.943541, 1, 33, 500, 160
-0.94382, 177, 273, 240, 400
-0.944108, 17, 353, 144, 476
-0.944457, 289, 193, 416, 320
-0.944695, 273, 305, 336, 432
-0.94504, 161, 161, 224, 288
-0.945236, 113, 321, 176, 448
-0.946146, 369, 81, 496, 208
-0.946271, 113, 225, 176, 352
-0.94631, 1, 1, 128, 128
-0.946388, 129, 225, 256, 352
-0.946418, 241, 273, 304, 400
-0.947011, 345, 289, 408, 416
-0.947099, 361, 353, 424, 476
-0.947333, 257, 225, 320, 352
-0.947683, 209, 305, 336, 432
-0.948179, 9, 1, 72, 128
-0.948217, 1, 1, 256, 128
-0.948844, 337, 129, 464, 256
-0.94904, 89, 209, 152, 336
-0.94928, 1, 177, 128, 304
-0.949285, 241, 209, 368, 336
-0.949527, 161, 345, 224, 408
-0.949549, 337, 353, 400, 476
-0.94967, 161, 337, 224, 464
-0.949936, 393, 273, 456, 400
-0.950053, 73, 337, 136, 464
-0.950457, 217, 377, 280, 440
-0.95065, 49, 145, 176, 272
-0.951114, 1, 129, 256, 256
-0.951431, 265, 369, 328, 432
-0.951665, 297, 225, 360, 352
-0.9517, 369, 241, 432, 368
-0.951802, 289, 113, 416, 240
-0.952778, 113, 177, 176, 304
-0.95369, 1, 49, 128, 176
-0.953771, 297, 305, 360, 432
-0.954027, 209, 233, 272, 296
-0.954077, 297, 409, 360, 472
-0.954347, 33, 49, 96, 176
-0.954429, 417, 209, 480, 336
-0.954481, 241, 401, 304, 464
-0.954627, 345, 241, 408, 368
-0.954743, 425, 273, 488, 336
-0.954984, 225, 353, 288, 476
-0.955044, 193, 273, 256, 336
-0.955338, 273, 409, 336, 472
-0.955576, 361, 329, 424, 392
-0.955744, 121, 409, 184, 472
-0.955902, 209, 145, 336, 272
-0.956009, 217, 273, 280, 336
-0.956134, 73, 289, 136, 416
-0.956176, 241, 369, 304, 432
-0.956377, 361, 289, 424, 352
-0.95651, 41, 289, 104, 416
-0.956761, 161, 169, 224, 232
-0.957039, 185, 353, 248, 476
-0.957452, 241, 33, 368, 288
-0.957671, 417, 97, 480, 224
-0.957718, 137, 193, 200, 320
-0.958068, 337, 329, 400, 392
-0.958103, 201, 401, 264, 464
-0.958176, 201, 345, 264, 408
-0.958297, 137, 241, 200, 368
-0.958424, 65, 353, 128, 416
-0.958585, 33, 25, 96, 88
-0.958897, 201, 313, 264, 376
-0.958969, 1, 321, 64, 448
-0.959103, 97, 129, 352, 256
-0.959404, 57, 281, 120, 344
-0.959503, 65, 225, 128, 352
-0.959899, 137, 353, 200, 476
-0.959901, 177, 297, 240, 360
-0.959904, 1, 177, 64, 304
-0.959954, 25, 361, 88, 424
-0.960164, 121, 337, 184, 400
-0.960252, 257, 81, 500, 208
-0.960607, 25, 49, 88, 112
-0.960789, 145, 369, 208, 432
-0.960906, 329, 305, 392, 368
-0.960963, 409, 201, 472, 264
-0.961057, 169, 257, 232, 320
-0.961222, 113, 129, 176, 256
-0.961391, 369, 33, 496, 160
-0.96191, 1, 225, 64, 352
-0.961929, 161, 321, 224, 384
-0.961945, 321, 409, 384, 472
-0.96222, 321, 257, 384, 384
-0.962242, 121, 193, 184, 256
-0.962439, 305, 369, 368, 432
-0.962474, 17, 97, 80, 224
-0.96252, 105, 377, 168, 440
-0.963112, 1, 273, 64, 400
-0.963203, 249, 177, 312, 304
-0.963237, 73, 161, 136, 288
-0.963345, 105, 193, 168, 448
-0.963599, 41, 313, 104, 376
-0.963738, 241, 249, 304, 312
-0.964081, 225, 297, 288, 360
-0.964196, 185, 177, 248, 304
-0.964197, 81, 417, 144, 476
-0.964205, 89, 225, 152, 288
-0.964248, 49, 337, 112, 464
-0.964376, 385, 297, 448, 360
-0.964558, 129, 81, 384, 208
-0.964938, 17, 273, 80, 336
-0.964959, 169, 369, 232, 432
-0.965024, 193, 369, 256, 432
-0.965191, 385, 273, 448, 336
-0.965493, 41, 209, 104, 336
-0.965552, 289, 265, 352, 328
-0.965627, 345, 265, 408, 328
-0.965794, 49, 417, 112, 476
-0.965797, 9, 401, 72, 464
-0.965962, 345, 193, 408, 320
-0.966272, 9, 49, 72, 176
-0.966348, 289, 241, 352, 304
-0.966351, 113, 217, 176, 280
-0.966447, 281, 161, 344, 288
-0.966616, 225, 345, 288, 408
-0.966747, 129, 241, 192, 304
-0.967093, 385, 321, 448, 384
-0.967208, 33, 161, 96, 288
-0.967222, 17, 321, 80, 384
-0.967242, 361, 353, 424, 416
-0.967327, 129, 369, 256, 432
-0.967439, 321, 305, 384, 432
-0.967553, 417, 225, 480, 476
-0.967586, 281, 225, 344, 476
-0.967705, 249, 329, 312, 392
-0.967849, 217, 225, 280, 476
-0.9679, 89, 257, 152, 320
-0.967978, 129, 193, 192, 448
-0.968054, 265, 233, 328, 296
-0.968108, 385, 81, 448, 208
-0.9682, 1, 17, 64, 80
-0.968366, 241, 369, 368, 432
-0.968379, 289, 305, 352, 368
-0.96868, 321, 209, 384, 336
-0.968886, 97, 329, 160, 392
-0.968942, 41, 337, 104, 400
-0.96909, 393, 225, 456, 288
-0.969232, 193, 225, 256, 476
-0.969431, 377, 201, 440, 264
-0.969444, 221, 225, 252, 352
-0.969533, 393, 321, 456, 448
-0.969555, 113, 129, 240, 256
-0.969572, 73, 393, 136, 456
-0.969632, 245, 241, 276, 368
-0.969715, 245, 377, 276, 440
-0.969797, 217, 193, 280, 320
-0.969949, 169, 225, 232, 352
-0.969952, 301, 417, 332, 476
-0.970021, 65, 1, 128, 128
-0.97016, 41, 249, 104, 312
-0.970211, 113, 209, 144, 336
-0.970262, 265, 369, 296, 432
-0.970299, 209, 401, 336, 464
-0.970404, 313, 273, 376, 336
-0.97045, 97, 273, 160, 400
-0.970592, 377, 161, 440, 224
-0.970727, 1, 345, 64, 408
-0.970796, 153, 289, 216, 352
-0.970818, 81, 289, 144, 352
-0.970836, 369, 225, 432, 476
-0.970843, 329, 369, 392, 432
-0.970907, 177, 305, 304, 368
-0.970996, 73, 225, 136, 476
-0.97102, 321, 329, 448, 392
-0.971115, 1, 409, 32, 472
-0.971162, 113, 217, 144, 280
-0.971213, 177, 345, 304, 408
-0.97122, 393, 249, 456, 312
-0.971227, 425, 121, 488, 184
-0.971246, 49, 17, 176, 144
-0.971387, 393, 321, 424, 384
-0.971466, 257, 33, 500, 160
-0.971588, 321, 273, 448, 336
-0.971674, 409, 161, 472, 224
-0.971707, 177, 377, 304, 440
-0.971824, 189, 273, 220, 400
-0.97188, 245, 257, 276, 320
-0.971936, 345, 49, 408, 176
-0.97198, 321, 65, 448, 192
-0.971989, 289, 217, 352, 280
-0.972044, 433, 49, 496, 176
-0.972058, 45, 1, 76, 128
-0.972062, 161, 225, 224, 476
-0.972077, 233, 225, 264, 352
-0.972098, 221, 273, 252, 336
-0.972136, 1, 257, 32, 384
-0.972247, 369, 193, 432, 320
-0.972249, 257, 281, 320, 344
-0.972273, 65, 97, 192, 224
-0.972313, 369, 329, 496, 392
-0.972313, 273, 417, 400, 476
-0.972401, 349, 353, 380, 476
-0.972455, 177, 209, 240, 272
-0.972482, 177, 281, 304, 344
-0.972525, 337, 353, 368, 476
-0.972626, 249, 225, 312, 476
-0.972666, 221, 233, 252, 296
-0.972771, 345, 97, 408, 224
-0.972783, 345, 417, 408, 476
-0.972791, 297, 345, 360, 408
-0.972885, 369, 273, 496, 336
-0.972992, 313, 225, 376, 476
-0.973175, 253, 409, 284, 472
-0.97319, 177, 257, 304, 320
-0.973205, 177, 129, 240, 384
-0.973217, 49, 393, 112, 456
-0.97323, 265, 353, 296, 476
-0.973235, 113, 289, 240, 352
-0.973265, 113, 345, 240, 408
-0.973409, 153, 193, 216, 256
-0.973594, 401, 289, 432, 416
-0.973642, 97, 321, 224, 384
-0.973674, 265, 257, 328, 320
-0.973681, 9, 249, 72, 312
-0.973689, 81, 241, 208, 304
-0.973727, 17, 297, 80, 360
-0.973729, 33, 57, 64, 120
-0.973763, 433, 145, 496, 272
-0.973767, 89, 353, 152, 416
-0.973898, 385, 137, 448, 200
-0.973993, 381, 337, 412, 400
-0.974012, 17, 153, 80, 216
-0.974133, 137, 169, 200, 232
-0.974183, 193, 305, 224, 368
-0.974183, 9, 193, 72, 256
-0.974241, 65, 353, 192, 416
-0.974262, 129, 209, 256, 272
-0.974273, 289, 305, 416, 368
-0.974301, 177, 289, 208, 416
-0.974307, 321, 409, 352, 472
-0.974558, 229, 297, 260, 360
-0.974567, 49, 193, 112, 448
-0.9746, 177, 345, 208, 408
-0.974633, 25, 337, 88, 464
-0.974694, 469, 297, 500, 360
-0.97491, 209, 273, 240, 336
-0.974917, 305, 113, 368, 240
-0.974963, 241, 321, 368, 384
-0.975033, 185, 169, 248, 232
-0.975074, 81, 265, 208, 328
-0.975086, 57, 1, 88, 128
-0.97519, 97, 193, 160, 256
-0.975263, 33, 33, 64, 160
-0.975264, 309, 393, 340, 456
-0.9753, 161, 17, 416, 144
-0.975342, 469, 289, 500, 416
-0.975352, 217, 289, 248, 416
-0.975377, 285, 353, 316, 476
-0.975419, 101, 209, 132, 336
-0.975424, 1, 249, 128, 312
-0.975497, 449, 265, 480, 328
-0.975555, 317, 353, 348, 476
-0.975556, 373, 353, 404, 476
-0.975579, 257, 265, 384, 328
-0.975685, 129, 177, 256, 240
-0.975792, 193, 353, 224, 416
-0.975822, 241, 345, 368, 408
-0.975854, 393, 193, 456, 448
-0.975855, 1, 377, 64, 440
-0.975883, 165, 329, 196, 392
-0.975941, 137, 217, 200, 280
-0.975944, 257, 305, 320, 368
-0.975968, 409, 129, 440, 256
-0.976109, 381, 289, 412, 416
-0.976111, 209, 225, 240, 352
-0.976113, 65, 257, 128, 320
-0.976128, 245, 353, 276, 416
-0.976256, 1, 369, 32, 432
-0.976279, 265, 153, 328, 216
-0.976414, 333, 273, 364, 400
-0.976415, 177, 145, 240, 208
-0.976476, 137, 265, 200, 328
-0.976505, 25, 225, 88, 476
-0.976547, 417, 225, 480, 288
-0.976549, 241, 225, 304, 288
-0.976634, 241, 233, 368, 296
-0.976653, 433, 1, 496, 128
-0.976694, 257, 273, 288, 400
-0.976736, 33, 177, 96, 240
-0.976748, 145, 409, 208, 472
-0.976796, 145, 233, 272, 296
-0.976797, 421, 129, 452, 256
-0.976855, 185, 233, 248, 296
-0.976938, 281, 305, 312, 432
-0.976968, 57, 25, 120, 88
-0.977003, 149, 345, 180, 408
-0.977007, 233, 273, 264, 336
-0.977019, 185, 265, 216, 328
-0.977019, 305, 161, 368, 288
-0.977043, 205, 289, 236, 416
-0.977096, 353, 417, 384, 476
-0.977211, 253, 353, 284, 476
-0.977218, 289, 137, 352, 200
-0.97724, 273, 177, 336, 240
-0.977305, 297, 353, 328, 476
-0.977361, 65, 233, 128, 296
-0.977407, 153, 145, 216, 208
-0.977415, 313, 225, 344, 352
-0.977433, 1, 49, 256, 176
-0.977464, 289, 377, 416, 440
-0.977477, 417, 209, 448, 336
-0.977482, 205, 361, 236, 424
-0.977542, 289, 369, 320, 432
-0.97755, 233, 377, 264, 440
-0.977585, 65, 217, 192, 280
-0.977726, 393, 281, 424, 344
-0.97778, 289, 257, 320, 384
-0.977794, 369, 329, 400, 392
-0.977843, 17, 129, 80, 192
-0.977865, 217, 297, 248, 360
-0.977896, 17, 281, 144, 344
-0.977935, 369, 297, 496, 360
-0.978004, 369, 401, 432, 464
-0.978034, 149, 417, 180, 476
-0.978037, 273, 329, 336, 392
-0.978043, 313, 369, 344, 432
-0.978054, 397, 129, 428, 256
-0.978081, 217, 145, 280, 272
-0.978112, 153, 129, 216, 384
-0.978133, 137, 313, 200, 376
-0.978137, 445, 241, 476, 368
-0.978229, 273, 401, 304, 464
-0.978232, 385, 97, 448, 160
-0.978356, 97, 249, 128, 312
-0.978396, 409, 305, 440, 368
-0.978402, 1, 161, 64, 416
-0.978404, 117, 321, 148, 448
-0.978405, 33, 1, 96, 64
-0.978442, 353, 145, 416, 272
-0.978504, 361, 241, 424, 304
-0.978538, 137, 337, 168, 464
-0.97859, 1, 305, 32, 368
-0.978616, 321, 353, 448, 416
-0.978634, 281, 113, 344, 240
-0.978696, 1, 337, 32, 400
-0.978708, 317, 305, 348, 432
-0.978748, 325, 305, 356, 368
-0.978749, 425, 297, 488, 360
-0.978772, 449, 97, 480, 224
-0.978775, 17, 353, 144, 416
-0.97878, 229, 273, 260, 400
-0.978787, 301, 361, 332, 424
-0.978795, 385, 353, 448, 416
-0.978841, 49, 329, 176, 392
-0.978853, 433, 337, 496, 464
-0.978863, 297, 161, 360, 224
-0.978894, 17, 305, 144, 368
-0.978907, 197, 265, 228, 328
-0.97896, 377, 209, 408, 336
-0.978964, 325, 225, 356, 352
-0.978986, 409, 49, 472, 176
-0.979024, 197, 353, 228, 476
-0.979034, 269, 305, 300, 432
-0.979037, 105, 97, 168, 352
-0.979098, 181, 297, 212, 360
-0.9791, 161, 369, 192, 432
-0.979105, 1, 273, 32, 336
-0.979177, 77, 257, 108, 384
-0.979194, 1, 49, 128, 112
-0.979239, 129, 225, 160, 288
-0.979253, 141, 225, 172, 352
-0.979279, 129, 265, 256, 328
-0.979304, 345, 225, 408, 476
-0.979359, 429, 177, 460, 304
-0.979382, 73, 353, 104, 416
-0.979403, 137, 145, 200, 272
-0.979473, 125, 193, 156, 320
-0.979483, 97, 353, 128, 476
-0.979492, 17, 81, 48, 208
-0.9795, 469, 81, 500, 208
-0.97951, 241, 289, 368, 352
-0.979552, 405, 329, 436, 392
-0.979614, 357, 305, 388, 432
-0.979641, 193, 233, 320, 296
-0.97965, 353, 201, 480, 264
-0.979693, 129, 241, 160, 368
-0.979697, 65, 329, 128, 392
-0.979712, 17, 1, 48, 128
-0.979738, 141, 225, 172, 288
-0.979754, 1, 305, 32, 432
-0.979779, 309, 273, 340, 336
-0.979789, 233, 233, 264, 296
-0.979828, 49, 409, 176, 472
-0.979917, 65, 193, 128, 256
-0.979921, 1, 41, 64, 104
-0.979931, 209, 393, 240, 456
-0.979951, 293, 305, 324, 432
-0.979964, 341, 409, 372, 472
-0.979966, 369, 249, 496, 312
-0.97999, 61, 17, 92, 80
-0.979993, 45, 17, 76, 80
-0.98002, 289, 121, 416, 184
-0.980049, 469, 33, 500, 96
-0.980089, 281, 129, 344, 384
-0.980096, 433, 25, 496, 88
-0.980115, 129, 417, 256, 476
-0.980122, 25, 33, 88, 288
-0.980182, 161, 233, 224, 296
-0.980196, 393, 241, 424, 368
-0.980199, 305, 225, 432, 288
-0.980224, 393, 345, 424, 408
-0.98025, 161, 169, 192, 232
-0.980256, 201, 329, 232, 392
-0.980351, 373, 305, 404, 368
-0.980361, 361, 353, 392, 476
-0.980382, 333, 369, 364, 432
-0.980406, 353, 377, 416, 440
-0.980419, 225, 321, 288, 384
-0.98043, 289, 417, 320, 476
-0.980525, 41, 225, 104, 288
-0.980577, 253, 329, 284, 392
-0.980603, 385, 97, 448, 352
-0.980604, 1, 393, 128, 456
-0.980631, 81, 409, 112, 472
-0.980644, 17, 73, 80, 136
-0.980714, 273, 225, 304, 352
-0.980717, 105, 281, 168, 344
-0.98072, 321, 273, 352, 336
-0.980741, 17, 273, 48, 336
-0.980791, 217, 369, 248, 432
-0.980816, 85, 345, 116, 408
-0.980855, 21, 177, 52, 304
-0.980865, 21, 177, 52, 240
-0.980911, 45, 353, 76, 416
-0.980923, 29, 33, 60, 96
-0.980944, 77, 273, 108, 336
-0.980951, 461, 1, 492, 128
-0.981032, 161, 129, 288, 256
-0.981042, 225, 401, 256, 464
-0.981056, 1, 209, 128, 272
-0.981061, 65, 185, 192, 248
-0.981064, 33, 281, 64, 344
-0.981139, 141, 201, 172, 264
-0.981143, 97, 409, 128, 472
-0.981208, 237, 321, 268, 448
-0.981251, 113, 417, 144, 476
-0.981252, 89, 241, 120, 368
-0.981255, 65, 417, 96, 476
-0.981346, 417, 169, 448, 232
-0.981396, 81, 377, 208, 440
-0.981406, 97, 305, 128, 368
-0.981415, 353, 225, 480, 288
-0.981464, 17, 401, 48, 464
-0.981467, 1, 17, 128, 80
-0.981531, 145, 377, 176, 440
-0.981538, 353, 177, 480, 240
-0.981539, 53, 41, 84, 104
-0.981665, 433, 129, 464, 256
-0.981723, 129, 393, 160, 456
-0.981729, 145, 97, 208, 224
-0.981732, 69, 17, 100, 144
-0.98177, 61, 289, 92, 416
-0.981842, 321, 17, 448, 144
-0.981864, 445, 193, 476, 320
-0.981886, 385, 129, 416, 256
-0.981892, 409, 193, 440, 256
-0.981899, 397, 177, 428, 304
-0.981939, 413, 305, 444, 432
-0.981946, 1, 353, 32, 476
-0.982007, 81, 321, 112, 448
-0.982008, 417, 97, 480, 352
-0.982022, 253, 281, 284, 344
-0.98208, 65, 145, 192, 208
-0.982135, 289, 177, 320, 304
-0.982178, 77, 209, 108, 336
-0.982188, 25, 153, 56, 216
-0.98221, 97, 377, 128, 440
-0.982218, 337, 297, 368, 360
-0.982244, 181, 337, 212, 464
-0.982245, 33, 1, 96, 476
-0.982289, 289, 169, 416, 232
-0.982291, 133, 417, 164, 476
-0.982316, 305, 273, 336, 400
-0.982335, 365, 281, 396, 344
-0.982353, 301, 225, 332, 352
-0.982361, 57, 305, 88, 368
-0.982409, 153, 193, 184, 320
-0.982421, 341, 273, 372, 336
-0.982422, 101, 305, 132, 432
-0.982451, 161, 273, 192, 400
-0.982468, 1, 65, 64, 320
-0.982484, 381, 249, 412, 312
-0.982494, 369, 273, 400, 400
-0.982558, 209, 249, 240, 312
-0.982583, 45, 289, 76, 352
-0.982637, 129, 369, 160, 432
-0.982637, 321, 129, 384, 384
-0.982658, 313, 305, 344, 368
-0.982664, 465, 121, 496, 184
-0.982696, 13, 73, 44, 136
-0.982699, 353, 265, 384, 328
-0.98271, 165, 321, 196, 448
-0.982726, 277, 377, 308, 440
-0.982749, 433, 257, 464, 384
-0.982753, 129, 249, 160, 312
-0.982758, 205, 169, 236, 232
-0.982794, 53, 417, 84, 476
-0.982826, 113, 361, 144, 424
-0.982827, 241, 97, 368, 224
-0.982831, 233, 129, 296, 384
-0.982847, 61, 329, 92, 392
-0.982919, 469, 345, 500, 408
-0.982929, 109, 257, 140, 320
-0.982991, 469, 97, 500, 160
-0.983005, 189, 329, 220, 392
-0.983007, 301, 129, 332, 256
-0.98312, 21, 225, 52, 352
-0.983169, 345, 305, 376, 432
-0.983172, 37, 273, 68, 400
-0.983221, 373, 161, 404, 288
-0.98323, 1, 209, 32, 336
-0.983266, 25, 129, 56, 256
-0.983284, 101, 225, 132, 288
-0.983334, 13, 337, 44, 464
-0.983342, 21, 297, 52, 360
-0.98339, 1, 129, 128, 256
-0.983412, 301, 233, 332, 296
-0.983429, 369, 353, 496, 416
-0.983436, 357, 329, 388, 392
-0.983437, 25, 81, 56, 144
-0.983462, 1, 329, 128, 392
-0.983518, 185, 129, 248, 256
-0.983522, 133, 329, 164, 392
-0.983541, 289, 193, 320, 256
-0.983546, 145, 321, 176, 384
-0.983567, 57, 49, 120, 176
-0.983658, 205, 177, 236, 304
-0.983692, 57, 361, 88, 424
-0.983752, 113, 289, 144, 352
-0.983785, 369, 97, 496, 160
-0.983806, 429, 169, 460, 232
-0.983809, 169, 297, 200, 360
-0.983841, 425, 1, 488, 476
-0.983851, 321, 97, 448, 160
-0.983892, 337, 417, 464, 476
-0.983913, 297, 393, 328, 456
-0.983957, 385, 33, 448, 160
-0.983962, 93, 273, 124, 336
-0.983966, 153, 353, 184, 476
-0.983967, 25, 321, 56, 384
-0.983978, 301, 297, 332, 360
-0.984067, 13, 337, 44, 400
-0.984124, 321, 249, 448, 312
-0.984275, 81, 129, 144, 384
-0.984304, 13, 273, 44, 400
-0.984323, 469, 353, 500, 476
-0.984336, 369, 17, 496, 80
-0.984348, 1, 185, 128, 248
-0.984428, 209, 337, 240, 464
-0.984428, 1, 1, 64, 476
-0.984433, 385, 353, 416, 476
-0.984433, 297, 49, 360, 176
-0.984534, 289, 193, 416, 256
-0.98458, 225, 209, 352, 272
-0.984661, 1, 417, 128, 476
-0.984865, 353, 153, 480, 216
-0.984902, 285, 129, 316, 256
-0.984945, 433, 1, 496, 256
-0.985062, 457, 209, 488, 336
-0.985072, 129, 393, 256, 456
-0.985142, 345, 1, 408, 128
-0.985167, 129, 97, 192, 352
-0.985242, 49, 289, 80, 416
-0.985245, 449, 49, 480, 176
-0.985351, 41, 225, 72, 352
-0.985403, 185, 161, 216, 288
-0.985514, 445, 145, 476, 272
-0.98557, 457, 273, 488, 400
-0.985616, 301, 177, 332, 304
-0.985635, 101, 257, 132, 384
-0.985656, 97, 1, 160, 476
-0.985791, 225, 177, 256, 304
-0.985836, 137, 161, 168, 288
-0.98587, 189, 225, 220, 352
-0.985913, 65, 297, 192, 360
-0.985989, 201, 129, 264, 384
-0.98599, 5, 145, 36, 272
-0.986066, 257, 129, 320, 384
-0.986086, 465, 129, 496, 256
-0.986304, 149, 305, 180, 432
-0.986316, 57, 1, 120, 476
-0.986437, 337, 225, 368, 352
-0.986477, 89, 193, 120, 320
-0.986559, 57, 49, 88, 176
-0.986567, 361, 129, 424, 384
-0.986583, 337, 121, 464, 184
-0.986739, 49, 25, 176, 88
-0.9868, 61, 225, 92, 352
-0.986804, 33, 321, 64, 448
-0.986827, 357, 257, 388, 384
-0.98688, 273, 49, 400, 176
-0.986978, 209, 153, 336, 216
-0.986992, 169, 225, 200, 352
-0.987142, 5, 33, 36, 160
-0.987207, 69, 353, 100, 476
-0.987268, 25, 273, 56, 400
-0.987313, 385, 1, 448, 476
-0.987328, 389, 81, 420, 208
-0.987542, 173, 161, 204, 288
-0.987724, 129, 145, 256, 208
-0.987745, 233, 389, 296, 420
-0.987754, 209, 185, 336, 248
-0.987786, 1, 153, 128, 216
-0.987834, 221, 337, 252, 464
-0.987955, 113, 273, 144, 400
-0.988109, 273, 145, 400, 208
-0.98814, 329, 145, 392, 272
-0.988248, 369, 65, 496, 128
-0.988261, 49, 353, 80, 476
-0.988295, 113, 49, 240, 176
-0.988372, 325, 177, 356, 304
-0.988373, 25, 129, 88, 384
-0.988448, 337, 377, 464, 440
-0.98846, 193, 313, 448, 376
-0.98855, 257, 129, 320, 256
-0.988564, 337, 1, 400, 476
-0.988604, 193, 265, 448, 328
-0.988632, 209, 377, 272, 408
-0.988645, 177, 269, 240, 300
-0.988669, 1, 329, 500, 392
-0.988697, 405, 81, 436, 208
-0.988749, 305, 73, 432, 136
-0.988842, 273, 393, 336, 424
-0.988933, 193, 81, 320, 208
-0.988949, 425, 281, 488, 312
-0.988966, 297, 409, 360, 440
-0.989012, 105, 65, 168, 192
-0.989043, 65, 353, 320, 416
-0.989107, 249, 445, 312, 476
-0.989145, 273, 437, 336, 468
-0.989226, 161, 409, 416, 472
-0.989228, 161, 345, 224, 376
-0.989285, 225, 1, 352, 128
-0.989307, 177, 289, 240, 320
-0.989319, 57, 357, 120, 388
-0.989348, 25, 357, 88, 388
-0.989355, 105, 221, 168, 252
-0.989453, 169, 369, 232, 400
-0.989471, 121, 1, 184, 476
-0.98956, 121, 245, 184, 276
-0.989574, 217, 269, 280, 300
-0.989585, 17, 49, 80, 80
-0.989592, 313, 309, 376, 340
-0.989594, 209, 1, 272, 476
-0.989623, 241, 369, 304, 400
-0.989627, 209, 249, 272, 280
-0.989673, 337, 309, 400, 340
-0.989689, 161, 169, 224, 200
-0.989691, 241, 261, 304, 292
-0.989702, 89, 437, 152, 468
-0.989707, 89, 113, 152, 240
-0.989724, 209, 353, 272, 384
-0.989745, 49, 49, 176, 112
-0.98975, 121, 197, 184, 228
-0.989762, 225, 337, 480, 400
-0.989812, 209, 237, 272, 268
-0.989882, 73, 345, 136, 376
-0.989883, 377, 329, 440, 360
-0.989891, 121, 357, 184, 388
-0.98991, 409, 213, 472, 244
-0.989915, 169, 357, 232, 388
-0.989916, 33, 433, 96, 464
-0.989922, 273, 1, 336, 476
-0.989923, 1, 361, 64, 392
-0.989954, 361, 309, 424, 340
-0.989977, 161, 241, 416, 304
-0.989985, 345, 265, 408, 296
-0.989995, 377, 1, 440, 256
-0.989995, 65, 329, 320, 392
-0.990021, 361, 341, 424, 372
-0.990025, 201, 281, 264, 312
-0.99011, 201, 365, 264, 396
-0.990148, 385, 285, 448, 316
-0.990174, 265, 405, 328, 436
-0.990194, 65, 281, 320, 344
-0.990201, 225, 361, 480, 424
-0.990202, 177, 325, 240, 356
-0.990214, 33, 65, 96, 96
-0.990225, 225, 317, 288, 348
-0.990242, 129, 369, 192, 400
-0.990248, 241, 333, 304, 364
-0.990248, 321, 33, 448, 96
-0.990275, 81, 361, 144, 392
-0.990281, 97, 377, 352, 440
-0.990288, 65, 437, 128, 468
-0.990294, 225, 305, 288, 336
-0.990324, 201, 301, 264, 332
-0.990343, 241, 413, 304, 444
-0.990361, 33, 17, 96, 48
-0.990363, 313, 265, 376, 296
-0.99037, 129, 229, 192, 260
-0.990376, 289, 257, 352, 288
-0.990379, 417, 269, 480, 300
-0.990381, 297, 429, 360, 460
-0.990395, 321, 1, 384, 256
-0.9904, 57, 285, 120, 316
-0.990428, 273, 381, 336, 412
-0.990446, 409, 153, 472, 184
-0.990455, 305, 397, 368, 428
-0.990466, 345, 417, 408, 448
-0.990469, 289, 309, 352, 340
-0.990478, 337, 321, 400, 352
-0.990512, 353, 297, 416, 328
-0.990532, 73, 237, 136, 268
-0.990551, 305, 373, 368, 404
-0.990578, 121, 185, 184, 216
-0.990582, 153, 265, 216, 296
-0.990591, 153, 185, 216, 216
-0.990606, 385, 157, 448, 188
-0.990617, 369, 425, 432, 456
-0.99063, 121, 329, 184, 360
-0.99064, 265, 369, 328, 400
-0.990647, 393, 261, 456, 292
-0.990678, 313, 1, 376, 476
-0.990694, 97, 237, 160, 268
-0.990696, 209, 341, 272, 372
-0.990703, 209, 401, 272, 432
-0.990706, 361, 361, 424, 392
-0.990714, 385, 297, 448, 328
-0.990715, 201, 317, 264, 348
-0.990717, 65, 121, 192, 184
-0.99072, 385, 141, 448, 172
-0.990738, 409, 141, 472, 172
-0.99074, 257, 277, 320, 308
-0.990757, 97, 257, 160, 288
-0.990778, 25, 369, 88, 400
-0.9908, 57, 97, 120, 352
-0.990812, 33, 33, 96, 64
-0.990826, 33, 325, 96, 356
-0.990832, 265, 305, 328, 336
-0.990835, 425, 129, 488, 160
-0.99084, 65, 297, 128, 328
-0.990861, 385, 209, 448, 240
-0.99087, 177, 301, 240, 332
-0.990873, 9, 21, 72, 52
-0.990879, 121, 417, 184, 448
-0.990881, 409, 201, 472, 232
-0.990893, 65, 305, 320, 368
-0.990896, 265, 317, 328, 348
-0.990918, 81, 381, 144, 412
-0.990926, 49, 257, 112, 288
-0.990931, 105, 369, 168, 400
-0.990939, 17, 281, 80, 312
-0.990948, 425, 293, 488, 324
-0.990949, 113, 437, 176, 468
-0.99095, 369, 269, 432, 300
-0.990997, 377, 169, 440, 200
-0.990998, 321, 417, 384, 448
-0.991001, 129, 209, 192, 240
-0.991019, 225, 445, 288, 476
-0.991028, 241, 245, 304, 276
-0.991034, 289, 361, 352, 392
-0.991049, 17, 177, 80, 208
-0.991051, 241, 293, 304, 324
-0.991052, 409, 117, 472, 148
-0.991054, 409, 225, 472, 256
-0.991056, 361, 281, 424, 312
-0.991064, 145, 333, 208, 364
-0.991076, 369, 129, 432, 160
-0.99108, 49, 269, 112, 300
-0.991091, 337, 369, 400, 400
-0.991093, 337, 333, 400, 364
-0.991109, 265, 265, 328, 296
-0.991116, 273, 425, 336, 456
-0.991116, 1, 305, 500, 368
-0.991118, 297, 445, 360, 476
-0.991119, 153, 277, 216, 308
-0.991131, 185, 173, 248, 204
-0.991131, 1, 313, 64, 344
-0.991162, 249, 233, 312, 264
-0.991166, 137, 433, 200, 464
-0.991167, 233, 357, 296, 388
-0.991188, 321, 33, 384, 160
-0.991193, 233, 401, 296, 432
-0.991213, 65, 225, 320, 288
-0.991225, 33, 73, 160, 136
-0.991266, 153, 1, 216, 476
-0.991404, 369, 41, 496, 104
-0.991428, 361, 1, 424, 476
-0.991486, 33, 201, 288, 264
-0.99151, 273, 97, 400, 160
-0.991522, 233, 1, 296, 476
-0.991527, 1, 409, 500, 472
-0.991553, 97, 177, 352, 240
-0.991614, 1, 385, 256, 448
-0.991628, 193, 289, 448, 352
-0.991729, 1, 177, 256, 240
-0.991812, 65, 417, 320, 476
-0.99201, 33, 249, 288, 312
-0.99213, 321, 9, 448, 72
-0.992166, 257, 225, 500, 288
-0.992216, 265, 389, 296, 420
-0.992259, 177, 1, 240, 476
-0.992278, 97, 1, 224, 128
-0.992294, 225, 293, 256, 324
-0.992311, 181, 273, 212, 304
-0.992315, 1, 365, 32, 396
-0.992323, 297, 437, 328, 468
-0.992338, 309, 397, 340, 428
-0.992343, 217, 281, 248, 312
-0.992361, 393, 333, 424, 364
-0.992375, 29, 53, 60, 84
-0.992384, 277, 445, 308, 476
-0.992412, 129, 121, 256, 184
-0.992413, 449, 269, 480, 300
-0.99242, 297, 1, 360, 128
-0.992421, 133, 245, 164, 276
-0.992422, 225, 237, 256, 268
-0.992446, 13, 365, 44, 396
-0.992447, 249, 257, 280, 288
-0.992455, 49, 1, 176, 64
-0.99246, 49, 49, 80, 80
-0.992464, 217, 373, 248, 404
-0.992477, 381, 349, 412, 380
-0.992487, 201, 265, 232, 296
-0.992498, 141, 229, 172, 260
-0.992506, 245, 373, 276, 404
-0.992508, 13, 73, 44, 104
-0.992509, 265, 441, 296, 472
-0.992518, 469, 329, 500, 360
-0.992519, 465, 121, 496, 152
-0.99252, 409, 317, 440, 348
-0.992525, 241, 121, 368, 184
-0.992528, 253, 385, 284, 416
-0.992532, 53, 353, 84, 384
-0.992535, 1, 401, 32, 432
-0.992542, 385, 321, 416, 352
-0.992553, 313, 401, 328, 464
-0.992568, 297, 425, 328, 456
-0.992584, 253, 409, 284, 440
-0.992589, 469, 293, 500, 324
-0.992596, 465, 105, 496, 136
-0.992604, 237, 241, 268, 272
-0.992608, 469, 13, 500, 44
-0.992615, 413, 149, 444, 180
-0.992616, 405, 329, 436, 360
-0.99262, 73, 349, 104, 380
-0.992629, 349, 309, 380, 340
-0.99263, 197, 357, 228, 388
-0.992633, 197, 369, 228, 400
-0.992635, 233, 385, 264, 416
-0.992635, 117, 221, 148, 252
-0.992637, 201, 281, 232, 312
-0.992639, 393, 281, 424, 312
-0.992642, 89, 237, 120, 268
-0.992642, 117, 437, 148, 468
-0.992644, 1, 421, 32, 452
-0.992653, 1, 261, 32, 292
-0.992659, 469, 341, 500, 372
-0.992659, 317, 409, 348, 440
-0.992663, 101, 441, 132, 472
-0.992669, 233, 305, 264, 336
-0.992671, 405, 345, 436, 376
-0.992671, 1, 273, 500, 336
-0.992673, 285, 393, 316, 424
-0.992676, 257, 365, 288, 396
-0.992677, 305, 409, 336, 440
-0.992678, 309, 445, 340, 476
-0.992686, 61, 433, 92, 464
-0.992687, 81, 441, 112, 472
-0.992695, 285, 433, 316, 464
-0.992697, 157, 361, 188, 392
-0.9927, 409, 305, 440, 336
-0.9927, 241, 405, 272, 436
-0.992704, 253, 445, 284, 476
-0.992705, 381, 265, 412, 296
-0.992711, 1, 437, 32, 468
-0.992712, 469, 1, 500, 32
-0.992714, 381, 337, 412, 368
-0.992716, 369, 333, 400, 364
-0.992728, 393, 353, 424, 384
-0.992729, 33, 357, 64, 388
-0.992744, 189, 289, 220, 320
-0.992751, 25, 77, 56, 108
-0.992754, 201, 293, 232, 324
-0.992755, 85, 349, 116, 380
-0.992756, 261, 261, 292, 292
-0.992764, 1, 285, 32, 316
-0.992766, 213, 361, 244, 392
-0.99277, 33, 65, 64, 96
-0.992771, 393, 309, 424, 340
-0.992772, 1, 377, 32, 408
-0.992778, 321, 257, 352, 288
-0.992778, 145, 249, 176, 280
-0.992778, 161, 341, 192, 372
-0.992785, 365, 173, 396, 204
-0.992802, 1, 325, 32, 356
-0.992804, 337, 309, 368, 340
-0.992805, 233, 373, 264, 404
-0.992807, 117, 405, 148, 436
-0.992811, 249, 333, 280, 364
-0.992813, 453, 437, 484, 468
-0.992816, 309, 433, 340, 464
-0.992823, 369, 309, 400, 340
-0.992824, 457, 21, 488, 52
-0.992827, 213, 293, 244, 324
-0.992829, 25, 169, 56, 200
-0.992829, 97, 345, 128, 376
-0.992829, 469, 421, 500, 452
-0.992832, 1, 313, 32, 344
-0.992835, 269, 309, 300, 340
-0.992835, 453, 121, 484, 152
-0.992836, 229, 273, 260, 304
-0.992841, 289, 309, 320, 340
-0.992841, 277, 265, 308, 296
-0.992843, 297, 257, 328, 288
-0.992845, 417, 205, 448, 236
-0.992847, 413, 289, 444, 320
-0.992848, 181, 261, 212, 292
-0.992849, 77, 237, 108, 268
-0.99285, 1, 337, 32, 368
-0.992852, 41, 37, 72, 68
-0.992855, 361, 417, 392, 448
-0.992856, 309, 365, 340, 396
-0.992858, 385, 365, 416, 396
-0.992861, 81, 401, 112, 432
-0.992862, 165, 329, 196, 360
-0.992863, 65, 113, 128, 240
-0.992875, 161, 169, 192, 200
-0.992876, 21, 181, 52, 212
-0.99288, 333, 409, 364, 440
-0.992881, 341, 261, 372, 292
-0.992895, 377, 421, 408, 452
-0.992897, 165, 265, 196, 296
-0.992898, 101, 393, 132, 424
-0.992906, 149, 437, 180, 468
-0.992912, 345, 369, 376, 400
-0.992913, 309, 309, 340, 340
-0.992914, 61, 53, 92, 84
-0.992915, 153, 233, 184, 264
-0.993021, 113, 49, 240, 112
-0.993036, 81, 33, 144, 288
-0.993036, 177, 209, 304, 272
-0.993076, 273, 25, 400, 88
-0.993115, 409, 1, 472, 128
-0.993126, 257, 417, 500, 476
-0.993169, 161, 357, 288, 388
-0.993226, 273, 317, 400, 348
-0.993321, 1, 369, 500, 432
-0.993352, 369, 329, 496, 360
-0.993457, 235, 281, 250, 344
-0.993469, 269, 369, 284, 432
-0.993559, 241, 369, 368, 400
-0.993565, 369, 269, 496, 300
-0.993567, 161, 273, 288, 304
-0.993643, 397, 337, 412, 400
-0.993654, 113, 361, 240, 392
-0.993682, 27, 89, 42, 152
-0.993682, 289, 417, 416, 448
-0.993742, 193, 193, 448, 256
-0.993774, 321, 369, 336, 432
-0.993812, 321, 305, 448, 336
-0.993831, 209, 389, 336, 420
-0.993884, 113, 349, 240, 380
-0.993897, 177, 129, 304, 192
-0.993899, 417, 321, 432, 384
-0.993908, 153, 33, 216, 288
-0.993956, 209, 361, 224, 424
-0.993958, 49, 97, 176, 160
-0.994021, 225, 89, 352, 152
-0.99405, 241, 257, 368, 288
-0.994054, 307, 409, 322, 472
-0.994054, 1, 401, 16, 464
-0.994058, 259, 377, 274, 440
-0.99406, 193, 309, 320, 340
-0.994086, 369, 341, 496, 372
-0.994101, 455, 233, 470, 296
-0.994105, 193, 41, 320, 104
-0.994145, 369, 317, 496, 348
-0.994151, 321, 409, 336, 472
-0.99418, 193, 369, 320, 400
-0.994202, 187, 305, 202, 368
-0.994221, 369, 281, 496, 312
-0.994225, 197, 289, 212, 352
-0.99423, 225, 385, 480, 448
-0.994272, 1, 377, 16, 440
-0.994285, 33, 361, 160, 392
-0.994311, 241, 273, 256, 336
-0.994345, 129, 185, 256, 216
-0.994349, 177, 257, 304, 288
-0.994377, 205, 265, 220, 328
-0.994411, 391, 337, 406, 400
-0.994416, 275, 369, 290, 432
-0.994416, 321, 353, 448, 384
-0.994419, 65, 349, 192, 380
-0.994434, 209, 1, 336, 64
-0.994435, 193, 161, 448, 224
-0.994437, 369, 293, 496, 324
-0.994445, 241, 441, 368, 472
-0.994446, 113, 217, 240, 248
-0.994458, 229, 273, 244, 336
-0.994481, 63, 33, 78, 96
-0.994483, 129, 373, 256, 404
-0.994509, 49, 437, 176, 468
-0.994517, 209, 289, 224, 352
-0.994517, 201, 353, 216, 416
-0.994517, 335, 409, 350, 472
-0.994519, 223, 273, 238, 336
-0.994519, 245, 377, 260, 440
-0.994526, 145, 233, 272, 264
-0.994539, 1, 121, 128, 184
-0.994567, 327, 401, 342, 464
-0.99457, 241, 233, 256, 296
-0.994587, 81, 265, 208, 296
-0.994593, 253, 369, 268, 432
-0.994611, 1, 273, 128, 304
-0.994618, 129, 173, 256, 204
-0.994622, 403, 329, 418, 392
-0.994623, 27, 137, 42, 200
-0.994629, 55, 25, 70, 88
-0.99465, 219, 361, 234, 424
-0.994657, 161, 345, 288, 376
-0.994665, 305, 369, 320, 432
-0.994669, 353, 1, 416, 256
-0.994673, 313, 377, 328, 440
-0.994675, 17, 265, 32, 328
-0.994681, 1, 337, 16, 400
-0.994682, 151, 233, 166, 296
-0.994684, 353, 409, 368, 472
-0.99471, 167, 345, 182, 408
-0.994713, 161, 417, 176, 476
-0.994726, 27, 57, 42, 120
-0.994738, 273, 429, 400, 460
-0.994748, 183, 345, 198, 408
-0.994751, 49, 25, 64, 88
-0.99476, 273, 393, 288, 456
-0.994772, 251, 337, 266, 400
-0.994772, 425, 145, 440, 208
-0.994798, 97, 285, 224, 316
-0.9948, 27, 113, 42, 176
-0.994825, 57, 289, 72, 352
-0.994843, 177, 285, 304, 316
-0.994847, 65, 221, 192, 252
-0.994855, 409, 1, 472, 256
-0.994856, 225, 65, 352, 128
-0.994874, 209, 329, 224, 392
-0.994876, 21, 289, 36, 352
-0.994882, 297, 1, 360, 256
-0.994883, 257, 397, 384, 428
-0.994884, 129, 81, 256, 144
-0.994886, 301, 417, 316, 476
-0.994886, 419, 297, 434, 360
-0.994904, 305, 261, 432, 292
-0.994914, 161, 325, 288, 356
-0.994918, 209, 409, 336, 440
-0.994934, 81, 237, 208, 268
-0.994937, 65, 201, 192, 232
-0.994949, 161, 345, 176, 408
-0.994965, 257, 121, 500, 184
-0.994969, 251, 249, 266, 312
-0.994971, 229, 297, 244, 360
-0.994974, 225, 237, 352, 268
-0.994985, 113, 217, 128, 280
-0.994998, 257, 249, 272, 312
-0.995008, 1, 249, 128, 280
-0.995027, 413, 297, 428, 360
-0.995031, 201, 313, 216, 376
-0.995033, 81, 253, 208, 284
-0.99504, 165, 169, 180, 232
-0.995048, 347, 409, 362, 472
-0.995049, 425, 185, 440, 248
-0.995061, 485, 337, 500, 400
-0.995079, 485, 297, 500, 360
-0.995079, 185, 81, 248, 208
-0.995104, 155, 409, 170, 472
-0.995108, 33, 233, 160, 264
-0.995109, 1, 53, 128, 84
-0.995109, 289, 373, 416, 404
-0.99511, 273, 353, 400, 384
-0.995113, 217, 289, 232, 352
-0.995125, 1, 17, 256, 80
-0.995134, 283, 369, 298, 432
-0.995135, 41, 113, 104, 240
-0.995143, 239, 385, 254, 448
-0.995147, 33, 285, 160, 316
-0.995164, 371, 329, 386, 392
-0.995166, 321, 329, 448, 360
-0.995175, 249, 409, 264, 472
-0.995184, 279, 401, 294, 464
-0.995185, 331, 369, 346, 432
-0.995193, 371, 417, 386, 476
-0.995195, 263, 281, 278, 344
-0.995195, 193, 345, 208, 408
-0.995206, 225, 233, 240, 296
-0.995215, 1, 281, 16, 344
-0.995221, 77, 33, 92, 96
-0.995222, 267, 393, 282, 456
-0.995232, 257, 269, 384, 300
-0.99525, 209, 357, 336, 388
-0.99527, 97, 353, 112, 416
-0.995277, 1, 21, 128, 52
-0.995284, 131, 217, 146, 280
-0.995288, 377, 417, 392, 476
-0.995302, 1, 233, 500, 296
-0.995308, 17, 297, 144, 328
-0.995313, 13, 409, 28, 472
-0.995319, 485, 409, 500, 472
-0.99532, 395, 257, 410, 320
-0.99532, 187, 257, 202, 320
-0.995323, 341, 417, 356, 476
-0.995335, 1, 89, 500, 152
-0.995365, 35, 49, 50, 112
-0.995365, 483, 97, 498, 160
-0.995367, 161, 433, 288, 464
-0.995374, 209, 33, 272, 288
-0.995381, 239, 313, 254, 376
-0.995383, 273, 417, 288, 476
-0.99539, 257, 345, 272, 408
-0.995401, 209, 421, 336, 452
-0.995408, 1, 121, 500, 184
-0.995413, 75, 417, 90, 476
-0.995417, 263, 257, 278, 320
-0.995426, 139, 225, 154, 288
-0.995426, 11, 281, 26, 344
-0.99543, 43, 49, 58, 112
-0.995431, 109, 377, 124, 440
-0.995433, 133, 193, 148, 256
-0.995439, 371, 305, 386, 368
-0.995445, 1, 217, 128, 248
-0.995445, 337, 305, 352, 368
-0.995449, 215, 249, 230, 312
-0.995452, 21, 401, 36, 464
-0.995455, 255, 409, 270, 472
-0.995463, 223, 297, 238, 360
-0.995467, 43, 17, 58, 80
-0.995469, 157, 225, 172, 288
-0.995471, 139, 369, 154, 432
-0.995478, 113, 445, 240, 476
-0.995485, 177, 169, 192, 232
-0.995493, 369, 353, 496, 384
-0.9955, 235, 233, 250, 296
-0.9955, 245, 297, 260, 360
-0.995512, 91, 257, 106, 320
-0.995527, 35, 281, 50, 344
-0.995543, 7, 409, 22, 472
-0.995555, 449, 241, 464, 304
-0.995583, 69, 417, 84, 476
-0.995585, 377, 337, 392, 400
-0.995596, 321, 297, 336, 360
-0.995604, 145, 397, 272, 428
-0.995634, 195, 313, 210, 376
-0.995644, 111, 409, 126, 472
-0.995647, 1, 169, 500, 232
-0.995648, 129, 205, 256, 236
-0.995653, 17, 393, 144, 424
-0.995655, 395, 313, 410, 376
-0.995657, 173, 337, 188, 400
-0.995659, 49, 345, 64, 408
-0.995659, 49, 289, 64, 352
-0.995667, 1, 329, 128, 360
-0.995668, 225, 225, 256, 476
-0.995668, 81, 329, 208, 360
-0.995672, 409, 329, 424, 392
-0.995678, 353, 205, 480, 236
-0.995679, 75, 329, 90, 392
-0.995686, 97, 153, 352, 216
-0.995698, 303, 297, 318, 360
-0.995698, 359, 409, 374, 472
-0.995729, 273, 1, 400, 64
-0.995751, 321, 317, 448, 348
-0.995773, 177, 297, 304, 328
-0.995775, 337, 365, 464, 396
-0.995828, 321, 281, 448, 312
-0.995833, 1, 433, 128, 464
-0.995846, 33, 261, 160, 292
-0.99585, 353, 161, 480, 192
-0.995874, 353, 433, 480, 464
-0.995875, 129, 297, 256, 328
-0.995881, 65, 413, 192, 444
-0.995882, 241, 337, 368, 368
-0.995903, 161, 385, 288, 416
-0.99591, 381, 225, 412, 476
-0.995923, 209, 273, 336, 304
-0.995924, 289, 225, 416, 256
-0.995945, 273, 305, 400, 336
-0.995948, 65, 189, 192, 220
-0.995987, 369, 257, 496, 288
-0.995989, 305, 341, 432, 372
-0.996019, 113, 9, 240, 72
-0.996038, 65, 177, 192, 208
-0.996078, 161, 245, 288, 276
-0.996086, 193, 445, 320, 476
-0.996114, 289, 445, 416, 476
-0.996125, 17, 349, 144, 380
-0.996128, 213, 193, 244, 448
-0.996136, 1, 145, 500, 208
-0.996139, 49, 313, 176, 344
-0.996177, 1, 405, 128, 436
-0.996188, 113, 193, 144, 448
-0.996206, 1, 153, 256, 216
-0.996215, 17, 37, 144, 68
-0.996216, 369, 305, 496, 336
-0.996217, 353, 217, 480, 248
-0.996222, 129, 413, 256, 444
-0.996268, 305, 129, 432, 160
-0.996268, 161, 217, 416, 280
-0.996273, 25, 65, 56, 320
-0.996299, 65, 401, 192, 432
-0.996305, 33, 41, 288, 104
-0.99631, 321, 293, 448, 324
-0.996312, 209, 321, 336, 352
-0.996315, 369, 229, 496, 260
-0.996318, 1, 193, 32, 448
-0.996362, 369, 113, 496, 144
-0.996407, 289, 173, 416, 204
-0.99641, 129, 193, 160, 448
-0.996421, 209, 97, 272, 224
-0.996426, 81, 373, 208, 404
-0.996429, 209, 221, 336, 252
-0.99643, 153, 193, 184, 448
-0.996437, 469, 1, 500, 256
-0.996443, 369, 409, 496, 440
-0.99645, 1, 65, 128, 96
-0.99645, 1, 445, 128, 476
-0.996472, 193, 225, 224, 476
-0.996522, 321, 225, 352, 476
-0.996533, 417, 161, 448, 416
-0.996536, 465, 129, 496, 384
-0.996562, 161, 97, 416, 160
-0.996567, 225, 297, 352, 328
-0.996589, 289, 193, 416, 224
-0.996618, 337, 173, 464, 204
-0.996618, 257, 25, 500, 88
-0.996639, 101, 225, 132, 476
-0.996645, 369, 97, 496, 128
-0.996687, 1, 373, 128, 404
-0.996697, 393, 193, 424, 448
-0.9967, 129, 309, 256, 340
-0.996706, 65, 157, 192, 188
-0.996706, 17, 205, 144, 236
-0.996723, 65, 389, 192, 420
-0.996736, 129, 261, 256, 292
-0.996764, 161, 129, 416, 192
-0.9968, 445, 193, 476, 448
-0.99682, 201, 129, 232, 384
-0.996836, 17, 161, 48, 416
-0.99684, 305, 117, 432, 148
-0.996868, 273, 225, 304, 476
-0.996873, 27, 85, 42, 116
-0.996876, 369, 1, 496, 32
-0.996894, 353, 185, 480, 216
-0.996916, 65, 141, 192, 172
-0.996917, 141, 225, 172, 476
-0.996919, 181, 225, 212, 476
-0.996934, 97, 433, 224, 464
-0.99696, 25, 73, 40, 104
-0.996965, 369, 21, 496, 52
-0.996969, 37, 1, 68, 256
-0.99698, 133, 97, 164, 352
-0.996985, 309, 225, 340, 476
-0.997007, 169, 225, 200, 476
-0.997022, 1, 317, 128, 348
-0.997027, 27, 61, 42, 92
-0.997058, 65, 193, 96, 448
-0.997076, 1, 181, 128, 212
-0.997095, 257, 81, 500, 144
-0.997101, 305, 101, 432, 132
-0.997127, 369, 37, 496, 68
-0.997138, 319, 393, 334, 424
-0.997141, 49, 1, 112, 256
-0.997142, 305, 397, 432, 428
-0.997154, 469, 225, 500, 476
-0.997182, 81, 297, 208, 328
-0.997196, 1, 365, 16, 396
-0.997199, 13, 65, 44, 320
-0.9972, 33, 53, 48, 84
-0.997209, 245, 193, 276, 448
-0.99723, 277, 389, 292, 420
-0.99723, 51, 49, 66, 80
-0.997233, 29, 193, 60, 448
-0.997249, 405, 193, 436, 448
-0.997266, 193, 197, 320, 228
-0.99727, 97, 73, 352, 136
-0.997285, 205, 357, 220, 388
-0.997296, 307, 405, 322, 436
-0.997303, 253, 373, 268, 404
-0.997319, 311, 429, 326, 460
-0.997326, 229, 277, 244, 308
-0.997328, 1, 209, 500, 272
-0.997336, 1, 405, 16, 436
-0.997339, 161, 33, 416, 96
-0.997341, 27, 97, 42, 128
-0.997341, 297, 225, 328, 476
-0.997349, 441, 97, 472, 352
-0.997353, 237, 277, 252, 308
-0.997359, 61, 49, 76, 80
-0.997367, 293, 437, 308, 468
-0.997372, 271, 317, 286, 348
-0.997384, 237, 289, 252, 320
-0.997398, 485, 1, 500, 32
-0.997399, 143, 237, 158, 268
-0.997417, 419, 317, 434, 348
-0.997417, 277, 441, 292, 472
-0.99743, 53, 225, 84, 476
-0.997433, 485, 333, 500, 364
-0.997437, 453, 1, 484, 256
-0.997443, 397, 97, 428, 352
-0.99745, 81, 73, 208, 136
-0.997452, 219, 281, 234, 312
-0.997465, 433, 225, 464, 476
-0.997474, 345, 225, 376, 476
-0.997478, 303, 417, 318, 448
-0.997478, 313, 405, 328, 436
-0.997484, 81, 437, 96, 468
-0.997486, 423, 157, 438, 188
-0.997489, 39, 45, 54, 76
-0.997492, 255, 249, 270, 280
-0.997494, 151, 245, 166, 276
-0.997504, 25, 365, 40, 396
-0.997514, 165, 361, 180, 392
-0.997515, 271, 393, 286, 424
-0.997516, 283, 441, 298, 472
-0.997524, 247, 373, 262, 404
-0.99754, 369, 161, 400, 416
-0.997549, 59, 357, 74, 388
-0.99755, 153, 233, 168, 264
-0.997557, 479, 329, 494, 360
-0.997557, 209, 373, 224, 404
-0.997559, 331, 405, 346, 436
-0.997565, 1, 445, 16, 476
-0.997577, 333, 193, 364, 448
-0.997578, 263, 261, 278, 292
-0.997579, 485, 413, 500, 444
-0.997581, 245, 241, 260, 272
-0.997584, 27, 109, 42, 140
-0.997586, 419, 341, 434, 372
-0.997594, 261, 373, 276, 404
-0.997597, 181, 129, 212, 384
-0.997598, 257, 409, 272, 440
-0.9976, 451, 265, 466, 296
-0.997604, 393, 345, 408, 376
-0.997606, 67, 53, 82, 84
-0.997606, 257, 225, 288, 476
-0.997617, 63, 433, 78, 464
-0.997625, 1, 425, 16, 456
-0.997627, 215, 369, 230, 400
-0.997627, 91, 341, 106, 372
-0.997645, 53, 357, 68, 388
-0.997648, 485, 101, 500, 132
-0.997649, 243, 385, 258, 416
-0.99765, 285, 393, 300, 424
-0.997655, 453, 121, 468, 152
-0.997659, 247, 405, 262, 436
-0.997662, 303, 433, 318, 464
-0.997663, 197, 293, 212, 324
-0.997668, 399, 349, 414, 380
-0.997671, 45, 45, 60, 76
-0.997673, 385, 325, 400, 356
-0.997678, 309, 365, 324, 396
-0.997683, 407, 353, 422, 384
-0.997688, 413, 325, 428, 356
-0.997693, 251, 337, 266, 368
-0.997695, 355, 309, 370, 340
-0.997699, 259, 361, 274, 392
-0.997699, 457, 105, 472, 136
-0.997702, 467, 121, 482, 152
-0.997703, 1, 65, 256, 128
-0.997704, 231, 293, 246, 324
-0.997704, 397, 361, 412, 392
-0.997708, 21, 61, 36, 92
-0.997713, 483, 121, 498, 152
-0.997714, 485, 321, 500, 352
-0.997717, 313, 441, 328, 472
-0.997718, 89, 1, 152, 128
-0.99772, 101, 237, 116, 268
-0.99772, 27, 133, 42, 164
-0.997722, 485, 13, 500, 44
-0.997722, 19, 361, 34, 392
-0.997733, 13, 365, 28, 396
-0.997735, 429, 129, 460, 384
-0.997735, 229, 233, 244, 264
-0.99774, 75, 437, 90, 468
-0.997743, 213, 285, 228, 316
-0.997743, 81, 49, 144, 176
-0.997744, 219, 293, 234, 324
-0.997745, 251, 385, 266, 416
-0.997746, 195, 273, 210, 304
-0.997747, 121, 97, 152, 352
-0.997753, 233, 377, 248, 408
-0.997754, 289, 129, 320, 384
-0.99776, 27, 121, 42, 152
-0.997764, 403, 329, 418, 360
-0.997766, 393, 325, 408, 356
-0.99777, 165, 129, 196, 384
-0.997771, 173, 365, 188, 396
-0.997771, 219, 381, 234, 412
-0.997771, 261, 445, 276, 476
-0.997778, 315, 361, 330, 392
-0.99778, 205, 265, 220, 296
-0.99778, 473, 329, 488, 360
-0.997782, 165, 341, 180, 372
-0.997785, 205, 285, 220, 316
-0.997789, 413, 349, 428, 380
-0.997796, 31, 73, 46, 104
-0.997797, 95, 437, 110, 468
-0.997798, 423, 205, 438, 236
-0.9978, 267, 445, 282, 476
-0.997804, 85, 341, 100, 372
-0.997807, 379, 421, 394, 452
-0.997809, 243, 269, 258, 300
-0.99781, 65, 357, 80, 388
-0.997815, 325, 397, 340, 428
-0.997816, 323, 437, 338, 468
-0.997816, 157, 357, 172, 388
-0.997816, 473, 109, 488, 140
-0.997821, 19, 73, 34, 104
-0.997823, 73, 353, 88, 384
-0.997833, 185, 273, 200, 304
-0.997833, 313, 393, 328, 424
-0.997839, 485, 301, 500, 332
-0.997842, 421, 293, 436, 324
-0.997842, 69, 429, 84, 460
-0.997846, 485, 345, 500, 376
-0.997846, 89, 353, 104, 384
-0.997847, 455, 21, 470, 52
-0.997852, 279, 309, 294, 340
-0.997857, 81, 129, 112, 384
-0.997862, 89, 225, 120, 476
-0.997895, 273, 49, 400, 112
-0.997924, 357, 225, 388, 476
-0.998028, 257, 57, 500, 120
-0.998121, 273, 1, 400, 128
-0.99818, 225, 129, 256, 384
-0.998228, 77, 225, 108, 476
-0.998276, 457, 225, 488, 476
-0.998295, 309, 97, 340, 352
-0.9983, 381, 129, 412, 384
-0.998302, 453, 97, 484, 352
-0.998327, 265, 65, 328, 192
-0.998346, 27, 81, 42, 208
-0.998397, 45, 129, 76, 384
-0.998405, 209, 383, 272, 398
-0.998405, 17, 363, 80, 378
-0.998412, 269, 129, 300, 384
-0.998414, 361, 323, 424, 338
-0.998417, 169, 371, 232, 386
-0.998428, 177, 65, 304, 128
-0.998439, 201, 377, 264, 392
-0.998439, 369, 329, 432, 344
-0.998442, 121, 199, 184, 214
-0.998442, 169, 275, 232, 290
-0.998446, 241, 393, 304, 408
-0.998448, 177, 295, 240, 310
-0.99845, 273, 395, 336, 410
-0.998454, 423, 129, 438, 256
-0.998454, 353, 353, 368, 476
-0.998456, 297, 407, 360, 422
-0.998459, 105, 223, 168, 238
-0.998466, 209, 253, 272, 268
-0.998468, 325, 65, 356, 320
-0.998468, 1, 379, 32, 394
-0.998468, 93, 461, 124, 476
-0.998468, 41, 359, 104, 374
-0.998469, 457, 101, 488, 116
-0.99847, 409, 335, 440, 350
-0.99847, 213, 325, 244, 340
-0.99847, 1, 455, 32, 470
-0.99847, 453, 443, 484, 458
-0.99847, 121, 251, 184, 266
-0.998471, 169, 443, 200, 458
-0.998471, 261, 457, 292, 472
-0.998471, 273, 389, 336, 404
-0.998472, 413, 295, 444, 310
-0.998472, 377, 345, 408, 360
-0.998472, 77, 239, 108, 254
-0.998473, 257, 407, 288, 422
-0.998473, 213, 297, 244, 312
-0.998474, 49, 49, 80, 64
-0.998474, 217, 311, 248, 326
-0.998474, 181, 267, 212, 282
-0.998475, 1, 413, 32, 428
-0.998475, 173, 373, 204, 388
-0.998475, 89, 345, 120, 360
-0.998476, 217, 277, 280, 292
-0.998476, 229, 457, 260, 472
-0.998476, 241, 275, 272, 290
-0.998477, 257, 457, 320, 472
-0.998478, 193, 271, 256, 286
-0.998478, 1, 327, 32, 342
-0.998478, 305, 411, 336, 426
-0.998478, 285, 439, 316, 454
-0.998479, 365, 305, 396, 320
-0.998479, 289, 267, 352, 282
-0.998479, 213, 369, 244, 384
-0.998479, 469, 445, 500, 460
-0.998479, 469, 327, 500, 342
-0.99848, 141, 221, 172, 236
-0.998481, 249, 263, 280, 278
-0.998481, 161, 357, 224, 372
-0.998481, 1, 449, 32, 464
-0.998482, 413, 163, 444, 178
-0.998483, 69, 359, 100, 374
-0.998483, 249, 461, 280, 476
-0.998483, 33, 53, 96, 68
-0.998483, 153, 363, 184, 378
-0.998484, 289, 397, 320, 412
-0.998484, 89, 239, 120, 254
-0.998486, 465, 107, 496, 122
-0.998486, 129, 449, 160, 464
-0.998486, 233, 271, 296, 286
-0.998486, 121, 369, 184, 384
-0.998486, 425, 291, 488, 306
-0.998488, 361, 305, 424, 320
-0.998489, 301, 417, 332, 432
-0.998489, 469, 101, 500, 116
-0.99849, 117, 259, 148, 274
-0.99849, 25, 79, 56, 94
-0.99849, 145, 251, 176, 266
-0.99849, 225, 413, 288, 428
-0.99849, 317, 411, 348, 426
-0.99849, 385, 367, 416, 382
-0.998491, 377, 305, 408, 320
-0.998492, 369, 323, 400, 338
-0.998492, 393, 321, 424, 336
-0.998492, 97, 449, 160, 464
-0.998492, 233, 411, 264, 426
-0.998493, 61, 451, 92, 466
-0.998494, 469, 17, 500, 32
-0.998494, 153, 347, 216, 362
-0.998495, 201, 271, 232, 286
-0.998495, 1, 263, 32, 278
-0.998496, 229, 303, 260, 318
-0.998498, 49, 353, 112, 368
-0.998498, 233, 309, 264, 324
-0.998498, 217, 389, 280, 404
-0.998498, 245, 451, 276, 466
-0.998499, 177, 287, 240, 302
-0.9985, 297, 425, 328, 440
-0.9985, 285, 225, 316, 476
-0.9985, 341, 313, 372, 328
-0.998501, 41, 291, 72, 306
-0.998501, 297, 413, 360, 428
-0.998501, 257, 409, 320, 424
-0.998502, 409, 159, 472, 174
-0.998502, 393, 349, 424, 364
-0.998502, 177, 377, 240, 392
-0.998503, 125, 253, 156, 268
-0.998504, 261, 445, 292, 460
-0.998504, 333, 375, 364, 390
-0.998504, 233, 461, 296, 476
-0.998505, 33, 21, 96, 36
-0.998505, 241, 387, 304, 402
-0.998506, 201, 461, 264, 476
-0.998506, 141, 231, 172, 246
-0.998506, 201, 371, 232, 386
-0.998507, 17, 65, 80, 80
-0.998507, 353, 321, 384, 336
-0.998508, 225, 307, 288, 322
-0.998508, 225, 451, 288, 466
-0.998509, 201, 369, 264, 384
-0.998511, 113, 439, 144, 454
-0.998511, 385, 163, 448, 178
-0.998511, 89, 439, 152, 454
-0.998511, 425, 285, 488, 300
-0.998511, 1, 373, 32, 388
-0.998511, 1, 129, 256, 192
-0.998512, 285, 391, 316, 406
-0.998512, 97, 245, 160, 260
-0.998512, 329, 373, 392, 388
-0.998512, 241, 265, 304, 280
-0.998512, 245, 269, 276, 284
-0.998513, 185, 371, 216, 386
-0.998514, 297, 435, 328, 450
-0.998514, 281, 461, 344, 476
-0.998514, 273, 403, 336, 418
-0.998515, 73, 441, 104, 456
-0.998515, 129, 439, 192, 454
-0.998515, 385, 303, 448, 318
-0.998516, 81, 363, 144, 378
-0.998517, 257, 363, 320, 378
-0.998517, 165, 343, 196, 358
-0.998517, 237, 375, 268, 390
-0.998518, 25, 369, 88, 384
-0.998518, 121, 193, 184, 208
-0.998518, 137, 239, 168, 254
-0.998519, 293, 461, 324, 476
-0.998519, 105, 229, 168, 244
-0.99852, 233, 421, 264, 436
-0.99852, 153, 189, 216, 204
-0.998521, 57, 361, 88, 376
-0.998521, 201, 289, 232, 304
-0.998522, 393, 341, 424, 356
-0.998523, 153, 171, 216, 186
-0.998525, 117, 221, 148, 236
-0.998525, 185, 301, 248, 316
-0.998526, 321, 315, 384, 330
-0.998526, 337, 323, 400, 338
-0.998526, 381, 325, 412, 340
-0.998526, 469, 339, 500, 354
-0.998526, 45, 363, 76, 378
-0.998527, 129, 241, 192, 256
-0.998527, 101, 405, 132, 420
-0.998527, 257, 441, 320, 456
-0.998528, 121, 363, 184, 378
-0.998529, 9, 21, 72, 36
-0.998529, 25, 361, 56, 376
-0.998529, 169, 323, 232, 338
-0.998529, 289, 369, 352, 384
-0.99853, 185, 297, 216, 312
-0.99853, 129, 217, 192, 232
-0.99853, 1, 461, 64, 476
-0.998531, 409, 321, 440, 336
-0.998531, 313, 399, 344, 414
-0.998531, 55, 1, 70, 128
-0.998531, 213, 287, 244, 302
-0.998532, 353, 269, 416, 284
-0.998532, 145, 367, 208, 382
-0.998532, 121, 445, 184, 460
-0.998533, 385, 291, 448, 306
-0.998533, 257, 451, 320, 466
-0.998533, 469, 23, 500, 38
-0.998533, 301, 453, 332, 468
-0.998533, 209, 319, 272, 334
-0.998534, 313, 425, 376, 440
-0.998535, 385, 317, 448, 332
-0.998538, 235, 225, 250, 352
-0.998538, 225, 297, 256, 312
-0.998539, 425, 279, 488, 294
-0.99854, 73, 357, 136, 372
-0.99854, 201, 289, 264, 304
-0.99854, 249, 415, 312, 430
-0.99854, 289, 419, 352, 434
-0.99854, 221, 237, 252, 252
-0.998541, 289, 445, 352, 460
-0.998541, 265, 311, 328, 326
-0.998542, 329, 307, 392, 322
-0.998542, 257, 391, 288, 406
-0.998543, 329, 263, 392, 278
-0.998543, 169, 365, 232, 380
-0.998543, 49, 367, 112, 382
-0.998544, 313, 321, 376, 336
-0.998545, 445, 271, 476, 286
-0.998545, 361, 351, 424, 366
-0.998545, 469, 297, 500, 312
-0.998546, 181, 277, 212, 292
-0.998546, 393, 327, 424, 342
-0.998546, 369, 435, 432, 450
-0.998547, 201, 283, 264, 298
-0.998547, 121, 357, 184, 372
-0.998548, 273, 443, 304, 458
-0.998548, 289, 307, 352, 322
-0.998548, 113, 415, 176, 430
-0.99855, 353, 311, 416, 326
-0.99855, 393, 279, 456, 294
-0.99855, 1, 451, 64, 466
-0.99855, 49, 453, 112, 468
-0.99855, 213, 461, 244, 476
-0.998551, 201, 351, 264, 366
-0.998551, 329, 329, 392, 344
-0.998552, 1, 369, 64, 384
-0.998553, 209, 259, 272, 274
-0.998553, 361, 367, 424, 382
-0.998554, 313, 439, 376, 454
-0.998555, 409, 227, 472, 242
-0.998556, 169, 441, 232, 456
-0.998557, 33, 27, 96, 42
-0.998558, 169, 267, 232, 282
-0.998558, 129, 223, 192, 238
-0.99856, 169, 281, 232, 296
-0.99856, 17, 283, 80, 298
-0.99856, 13, 77, 44, 92
-0.99856, 385, 297, 448, 312
-0.99856, 265, 305, 328, 320
-0.99856, 1, 375, 64, 390
-0.998561, 121, 205, 184, 220
-0.998562, 289, 273, 352, 288
-0.998562, 281, 451, 344, 466
-0.998562, 401, 219, 464, 234
-0.998562, 305, 259, 368, 274
-0.998563, 413, 301, 444, 316
-0.998563, 81, 257, 144, 272
-0.998563, 25, 407, 88, 422
-0.998563, 197, 295, 228, 310
-0.998563, 181, 287, 212, 302
-0.998564, 233, 381, 264, 396
-0.998564, 289, 321, 352, 336
-0.998564, 265, 271, 328, 286
-0.998564, 433, 101, 496, 116
-0.998565, 313, 405, 344, 420
-0.998565, 265, 317, 328, 332
-0.998566, 409, 329, 440, 344
-0.998566, 73, 353, 104, 368
-0.998568, 13, 365, 44, 380
-0.998569, 141, 415, 172, 430
-0.99857, 321, 267, 352, 282
-0.998576, 297, 445, 328, 460
-0.998578, 213, 375, 244, 390
-0.998578, 41, 225, 72, 476
-0.998579, 249, 385, 280, 400
-0.99858, 1, 367, 32, 382
-0.99858, 465, 121, 496, 136
-0.998585, 133, 245, 164, 260
-0.998592, 217, 381, 248, 396
-0.998592, 37, 49, 68, 64
-0.998599, 217, 281, 248, 296
-0.998599, 1, 403, 32, 418
-0.9986, 281, 451, 312, 466
-0.998609, 49, 1, 64, 128
-0.998623, 1, 461, 32, 476
-0.998624, 1, 1, 500, 64
-0.998636, 269, 391, 300, 406
-0.998636, 269, 353, 284, 476
-0.998637, 145, 97, 176, 352
-0.99864, 245, 411, 276, 426
-0.998647, 161, 369, 192, 384
-0.998648, 191, 289, 206, 416
-0.998671, 1, 49, 500, 112
-0.998674, 69, 1, 84, 128
-0.998685, 245, 225, 260, 352
-0.998688, 213, 97, 244, 352
-0.998688, 121, 209, 136, 336
-0.998697, 185, 289, 200, 416
-0.998705, 227, 225, 242, 352
-0.998718, 485, 305, 500, 432
-0.998723, 347, 353, 362, 476
-0.998727, 41, 1, 56, 128
-0.998756, 313, 353, 328, 476
-0.998757, 7, 257, 22, 384
-0.998759, 207, 289, 222, 416
-0.998759, 197, 289, 212, 416
-0.998763, 27, 33, 42, 160
-0.998776, 121, 1, 184, 256
-0.998786, 389, 209, 404, 336
-0.998787, 77, 1, 92, 128
-0.998793, 395, 241, 410, 368
-0.998802, 63, 1, 78, 128
-0.998803, 1, 305, 16, 432
-0.998808, 115, 209, 130, 336
-0.998813, 1, 353, 16, 476
-0.99882, 93, 129, 124, 384
-0.998825, 417, 289, 432, 416
-0.998827, 479, 289, 494, 416
-0.998829, 367, 353, 382, 476
-0.998844, 359, 353, 374, 476
-0.998845, 35, 33, 50, 160
-0.998846, 1, 33, 32, 288
-0.99885, 379, 353, 394, 476
-0.998854, 391, 289, 406, 416
-0.998854, 353, 289, 368, 416
-0.998859, 307, 353, 322, 476
-0.99886, 215, 289, 230, 416
-0.998862, 277, 337, 292, 464
-0.998867, 265, 257, 280, 384
-0.998876, 257, 321, 272, 448
-0.998884, 109, 209, 124, 336
-0.998887, 109, 65, 140, 320
-0.998895, 13, 257, 28, 384
-0.998901, 289, 305, 304, 432
-0.998906, 97, 337, 112, 464
-0.998918, 251, 241, 266, 368
-0.998921, 133, 177, 148, 304
-0.998921, 263, 353, 278, 476
-0.998924, 295, 305, 310, 432
-0.998924, 461, 193, 476, 320
-0.998927, 231, 289, 246, 416
-0.998931, 455, 97, 470, 224
-0.998934, 179, 289, 194, 416
-0.998936, 453, 177, 468, 304
-0.998938, 313, 257, 328, 384
-0.998951, 161, 9, 416, 72
-0.998954, 257, 241, 272, 368
-0.998959, 341, 305, 356, 432
-0.99896, 331, 353, 346, 476
-0.998967, 257, 1, 500, 64
-0.99897, 273, 289, 288, 416
-0.998972, 127, 193, 142, 320
-0.998977, 283, 353, 298, 476
-0.998978, 401, 273, 416, 400
-0.998988, 319, 353, 334, 476
-0.998989, 1, 257, 16, 384
-0.998989, 393, 145, 408, 272
-0.999, 429, 129, 444, 256
-0.999002, 123, 321, 138, 448
-0.999006, 347, 305, 362, 432
-0.999015, 267, 305, 282, 432
-0.999015, 21, 1, 36, 128
-0.999016, 177, 105, 304, 168
-0.999019, 153, 337, 168, 464
-0.99902, 241, 273, 256, 400
-0.99902, 339, 353, 354, 476
-0.999021, 455, 225, 470, 352
-0.999022, 323, 225, 338, 352
-0.999027, 207, 337, 222, 464
-0.999028, 357, 129, 388, 384
-0.999031, 295, 353, 310, 476
-0.999032, 289, 353, 304, 476
-0.999033, 117, 273, 132, 400
-0.999034, 305, 289, 320, 416
-0.999035, 143, 241, 158, 368
-0.999037, 471, 289, 486, 416
-0.99904, 373, 353, 388, 476
-0.999046, 485, 97, 500, 224
-0.999046, 221, 225, 236, 352
-0.999054, 283, 305, 298, 432
-0.999054, 419, 337, 434, 464
-0.999056, 141, 321, 156, 448
-0.999057, 361, 305, 376, 432
-0.999058, 485, 353, 500, 476
-0.999059, 213, 337, 228, 464
-0.999061, 299, 225, 314, 352
-0.999064, 427, 289, 442, 416
-0.999064, 7, 305, 22, 432
-0.999069, 459, 33, 474, 160
-0.99907, 317, 305, 332, 432
-0.999071, 337, 225, 352, 352
-0.999073, 325, 353, 340, 476
-0.999074, 27, 129, 42, 256
-0.999082, 425, 177, 440, 304
-0.999082, 1, 105, 256, 168
-0.999083, 129, 241, 144, 368
-0.999084, 299, 177, 314, 304
-0.999087, 305, 225, 320, 352
-0.999092, 27, 177, 42, 304
-0.999093, 391, 97, 406, 224
-0.999096, 179, 353, 194, 476
-0.999098, 397, 1, 428, 256
-0.999101, 153, 225, 168, 352
-0.999107, 461, 257, 476, 384
-0.999108, 387, 161, 402, 288
-0.999112, 221, 321, 236, 448
-0.999113, 411, 289, 426, 416
-0.999121, 409, 65, 440, 320
-0.999121, 39, 193, 54, 320
-0.999121, 169, 321, 184, 448
-0.999124, 91, 337, 106, 464
-0.999126, 97, 225, 112, 352
-0.999128, 305, 129, 320, 256
-0.999128, 415, 129, 430, 256
-0.999129, 87, 257, 102, 384
-0.999132, 347, 257, 362, 384
-0.999139, 329, 305, 344, 432
-0.999139, 477, 1, 492, 128
-0.99914, 449, 225, 464, 352
-0.99914, 221, 273, 236, 400
-0.999142, 329, 225, 344, 352
-0.999142, 131, 321, 146, 448
-0.999145, 81, 305, 96, 432
-0.999148, 207, 241, 222, 368
-0.999148, 289, 257, 304, 384
-0.999149, 35, 145, 50, 272
-0.999151, 423, 225, 438, 352
-0.999154, 345, 97, 376, 352
-0.99919, 441, 1, 472, 256
-0.999203, 57, 97, 88, 352
-0.99925, 369, 65, 400, 320
-0.999342, 257, 129, 288, 384
-0.999355, 209, 17, 272, 144
-0.999431, 385, 33, 416, 288
-0.99946, 133, 1, 164, 256
-0.99948, 1, 97, 128, 160
-0.999549, 237, 97, 268, 352
-0.999582, 345, 1, 376, 256
-0.99959, 69, 97, 100, 352
-0.999592, 81, 33, 112, 288
-0.999644, 429, 33, 460, 288
-0.999652, 249, 247, 264, 262
-0.999653, 27, 135, 42, 150
-0.999653, 237, 277, 252, 292
-0.999653, 267, 367, 282, 382
-0.999653, 161, 1, 288, 64
-0.999654, 357, 319, 372, 334
-0.999655, 395, 365, 410, 380
-0.999655, 223, 301, 238, 316
-0.999656, 389, 343, 404, 358
-0.999657, 103, 405, 118, 420
-0.999657, 157, 415, 172, 430
-0.999658, 143, 231, 158, 246
-0.999658, 97, 461, 112, 476
-0.999658, 131, 195, 146, 210
-0.999659, 457, 19, 472, 34
-0.999659, 231, 235, 246, 250
-0.999659, 479, 337, 494, 352
-0.999659, 395, 349, 410, 364
-0.999659, 79, 439, 94, 454
-0.99966, 1, 427, 16, 442
-0.99966, 273, 411, 288, 426
-0.99966, 19, 73, 34, 88
-0.999661, 27, 115, 42, 130
-0.999661, 259, 261, 274, 276
-0.999661, 367, 321, 382, 336
-0.999662, 325, 265, 340, 280
-0.999662, 17, 401, 32, 416
-0.999663, 45, 49, 60, 64
-0.999663, 217, 461, 232, 476
-0.999664, 301, 461, 316, 476
-0.999664, 249, 375, 264, 390
-0.999664, 245, 413, 260, 428
-0.999664, 151, 241, 166, 256
-0.999664, 483, 121, 498, 136
-0.999664, 149, 249, 164, 264
-0.999665, 473, 101, 488, 116
-0.999665, 485, 447, 500, 462
-0.999665, 225, 461, 240, 476
-0.999665, 1, 417, 16, 432
-0.999666, 121, 405, 136, 420
-0.999667, 395, 359, 410, 374
-0.999668, 289, 395, 304, 410
-0.99967, 225, 285, 240, 300
-0.99967, 17, 365, 32, 380
-0.99967, 63, 447, 78, 462
-0.99967, 235, 303, 250, 318
-0.99967, 241, 307, 256, 322
-0.999671, 1, 379, 16, 394
-0.999671, 217, 369, 232, 384
-0.999672, 327, 403, 342, 418
-0.999674, 275, 397, 290, 412
-0.999674, 255, 461, 270, 476
-0.999675, 255, 253, 270, 268
-0.999676, 453, 121, 468, 136
-0.999677, 217, 375, 232, 390
-0.999678, 421, 313, 436, 328
-0.999678, 295, 461, 310, 476
-0.999678, 137, 245, 152, 260
-0.999679, 419, 349, 434, 364
-0.999679, 419, 327, 434, 342
-0.999679, 47, 359, 62, 374
-0.99968, 143, 245, 158, 260
-0.99968, 347, 413, 362, 428
-0.99968, 331, 409, 346, 424
-0.99968, 283, 443, 298, 458
-0.99968, 7, 367, 22, 382
-0.99968, 27, 109, 42, 124
-0.999681, 337, 415, 352, 430
-0.999682, 485, 339, 500, 354
-0.999682, 485, 13, 500, 28
-0.999683, 313, 409, 328, 424
-0.999683, 99, 355, 114, 370
-0.999683, 207, 289, 222, 304
-0.999683, 419, 321, 434, 336
-0.999684, 63, 361, 78, 376
-0.999686, 251, 409, 266, 424
-0.999686, 341, 373, 356, 388
-0.999687, 27, 101, 42, 116
-0.999689, 313, 443, 328, 458
-0.999689, 453, 269, 468, 284
-0.999689, 29, 83, 44, 98
-0.999689, 215, 293, 230, 308
-0.99969, 463, 119, 478, 134
-0.99969, 195, 299, 210, 314
-0.999691, 223, 279, 238, 294
-0.999691, 381, 323, 396, 338
-0.999691, 313, 403, 328, 418
-0.999691, 241, 241, 256, 256
-0.999695, 25, 71, 40, 86
-0.999695, 485, 101, 500, 116
-0.999695, 63, 59, 78, 74
-0.999698, 177, 33, 304, 160
-0.999698, 11, 461, 26, 476
-0.999699, 57, 65, 72, 80
-0.999699, 199, 293, 214, 308
-0.999699, 253, 385, 268, 400
-0.999702, 283, 387, 298, 402
-0.999702, 307, 411, 322, 426
-0.999704, 51, 47, 66, 62
-0.999706, 485, 415, 500, 430
-0.999706, 319, 393, 334, 408
-0.999707, 235, 289, 250, 304
-0.999708, 223, 377, 238, 392
-0.999709, 243, 377, 258, 392
-0.999709, 259, 387, 274, 402
-0.99971, 261, 409, 276, 424
-0.999711, 265, 389, 280, 404
-0.999712, 169, 369, 184, 384
-0.999713, 1, 369, 16, 384
-0.999713, 143, 239, 158, 254
-0.999715, 293, 451, 308, 466
-0.999716, 1, 455, 16, 470
-0.999721, 177, 369, 192, 384
-0.999722, 213, 287, 228, 302
-0.999723, 57, 363, 72, 378
-0.999723, 231, 281, 246, 296
-0.999725, 231, 379, 246, 394
-0.999725, 39, 47, 54, 62
-0.999727, 1, 461, 16, 476
-0.999727, 247, 383, 262, 398
-0.999729, 27, 89, 42, 104
-0.999729, 1, 407, 16, 422
-0.999732, 57, 51, 72, 66
-0.999732, 237, 381, 252, 396
-0.999738, 281, 393, 296, 408
-0.999739, 121, 1, 152, 256
-0.999743, 33, 53, 48, 68
-0.999743, 247, 421, 262, 436
-0.999747, 331, 267, 346, 282
-0.999753, 271, 391, 286, 406
-0.999762, 305, 417, 320, 432
-0.99977, 27, 95, 42, 110
-0.99978, 27, 77, 42, 92
-0.999808, 309, 1, 340, 256
-0.999891, 69, 1, 100, 256
-0.999903, 57, 1, 88, 256
-0.999941, 177, 33, 240, 288
-0.999974, 201, 33, 232, 288
-0.999995, 161, 33, 192, 288
-1.00001, 97, 33, 128, 288
-1.00001, 285, 33, 316, 288
-1.00004, 225, 1, 256, 256
-1.00033, 357, 1, 388, 256
-1.00039, 273, 1, 336, 128
-1.0004, 185, 33, 216, 288
-1.00055, 145, 1, 176, 256
-1.00055, 297, 1, 328, 256
-1.00064, 237, 1, 268, 256
-1.00069, 1, 25, 500, 88
-1.00075, 173, 33, 204, 288
-1.00078, 213, 1, 244, 256
-1.00102, 249, 1, 280, 256
-1.00111, 261, 33, 292, 288
-1.00124, 273, 33, 336, 288
-1.00135, 273, 1, 304, 256
-1.00209, 145, 49, 208, 176
-1.0021, 249, 33, 312, 288
-1.00252, 233, 97, 296, 224
-1.00461, 241, 1, 304, 128
-1.005, 113, 17, 176, 144
-1.00507, 185, 17, 248, 144
-1.00597, 233, 49, 296, 176
-1.00717, 137, 1, 200, 128
-1.00802, 161, 1, 224, 128
