1885
-0.568606, 1, 33, 500, 288
-0.685566, 129, 1, 384, 333
-0.68681, 1, 1, 500, 333
-0.731592, 1, 1, 256, 333
-0.750995, 225, 1, 480, 333
-0.766274, 1, 33, 256, 288
-0.772039, 97, 33, 352, 288
-0.800638, 225, 65, 480, 320
-0.906622, 1, 145, 500, 272
-0.912639, 321, 65, 448, 320
-0.913288, 129, 1, 256, 333
-0.914597, 129, 33, 256, 288
-0.916521, 1, 97, 500, 224
-0.917531, 225, 1, 352, 333
-0.917657, 1, 193, 500, 320
-0.91877, 273, 65, 400, 320
-0.920028, 49, 65, 176, 320
-0.921633, 1, 33, 128, 288
-0.922621, 193, 33, 320, 288
-0.922796, 81, 1, 208, 333
-0.922852, 337, 1, 464, 333
-0.924617, 177, 1, 304, 333
-0.924662, 193, 145, 448, 272
-0.927421, 273, 1, 400, 333
-0.928184, 97, 129, 352, 256
-0.929369, 65, 177, 320, 304
-0.93245, 1, 97, 256, 224
-0.934112, 369, 33, 496, 288
-0.938725, 321, 129, 384, 256
-0.940507, 1, 1, 128, 333
-0.941882, 161, 193, 416, 320
-0.943237, 129, 145, 256, 272
-0.946397, 241, 145, 368, 272
-0.947575, 1, 129, 128, 256
-0.947912, 65, 161, 192, 288
-0.94838, 153, 185, 216, 248
-0.949759, 321, 113, 448, 240
-0.950891, 177, 193, 240, 256
-0.951261, 137, 177, 200, 304
-0.952749, 345, 129, 408, 256
-0.954398, 329, 145, 392, 208
-0.954601, 193, 97, 448, 224
-0.954961, 193, 145, 256, 272
-0.955362, 289, 177, 416, 304
-0.95566, 209, 193, 336, 320
-0.955726, 297, 145, 360, 272
-0.955775, 97, 161, 160, 288
-0.956123, 177, 129, 304, 256
-0.956168, 313, 169, 376, 232
-0.957284, 41, 113, 104, 240
-0.957531, 129, 185, 192, 248
-0.957831, 97, 81, 352, 208
-0.958175, 49, 113, 176, 240
-0.958816, 161, 193, 288, 320
-0.958943, 241, 161, 304, 288
-0.959787, 169, 145, 232, 272
-0.959806, 1, 137, 64, 200
-0.960357, 97, 113, 160, 240
-0.961707, 73, 161, 136, 288
-0.961834, 105, 177, 168, 240
-0.962298, 81, 177, 144, 240
-0.962456, 17, 129, 80, 256
-0.96253, 1, 49, 500, 176
-0.962573, 273, 129, 336, 256
-0.963421, 281, 185, 344, 248
-0.964021, 257, 97, 384, 224
-0.964154, 169, 193, 232, 320
-0.964222, 73, 113, 136, 240
-0.964383, 257, 193, 500, 320
-0.964964, 217, 193, 280, 256
-0.965287, 361, 137, 424, 200
-0.965344, 97, 97, 224, 224
-0.965363, 121, 129, 184, 256
-0.965544, 289, 161, 352, 224
-0.965677, 217, 177, 280, 304
-0.965761, 49, 153, 112, 216
-0.96596, 273, 177, 336, 304
-0.966303, 353, 81, 416, 208
-0.966916, 329, 121, 392, 184
-0.966948, 113, 193, 240, 320
-0.96717, 193, 193, 256, 320
-0.967273, 145, 129, 208, 256
-0.967736, 17, 177, 144, 304
-0.967974, 25, 153, 88, 216
-0.968183, 113, 185, 240, 248
-0.968522, 177, 185, 208, 248
-0.968773, 337, 161, 464, 288
-0.969249, 377, 169, 440, 232
-0.969341, 257, 185, 320, 248
-0.969345, 321, 81, 384, 208
-0.969669, 321, 177, 384, 304
-0.970225, 337, 65, 464, 192
-0.970442, 49, 177, 112, 240
-0.970443, 169, 161, 232, 224
-0.971485, 1, 81, 128, 208
-0.971648, 353, 177, 416, 240
-0.971769, 409, 145, 472, 208
-0.973263, 161, 193, 288, 256
-0.973321, 161, 177, 192, 240
-0.973482, 209, 185, 336, 248
-0.973673, 337, 129, 368, 256
-0.973949, 297, 97, 360, 224
-0.973969, 145, 209, 208, 272
-0.97415, 305, 137, 368, 200
-0.974174, 65, 177, 192, 240
-0.974181, 201, 169, 264, 232
-0.9744, 129, 161, 192, 224
-0.974416, 353, 105, 416, 168
-0.974572, 9, 81, 72, 208
-0.974655, 41, 121, 104, 184
-0.974976, 289, 145, 416, 208
-0.975414, 317, 169, 348, 232
-0.975574, 321, 193, 384, 256
-0.975652, 1, 49, 256, 176
-0.97606, 241, 153, 368, 216
-0.976173, 73, 153, 136, 216
-0.976294, 305, 169, 432, 232
-0.976304, 197, 193, 228, 256
-0.976517, 73, 201, 136, 264
-0.976927, 353, 105, 384, 168
-0.976975, 241, 113, 304, 240
-0.977154, 185, 217, 248, 280
-0.977411, 257, 177, 384, 240
-0.977469, 361, 113, 392, 240
-0.977558, 329, 153, 360, 216
-0.977632, 257, 49, 500, 176
-0.977675, 161, 161, 288, 224
-0.977889, 217, 129, 280, 256
-0.97797, 113, 209, 176, 272
-0.977984, 281, 137, 344, 200
-0.978157, 1, 153, 128, 216
-0.978194, 17, 113, 80, 176
-0.978222, 209, 81, 336, 208
-0.97851, 257, 161, 320, 224
-0.978607, 349, 97, 380, 224
-0.97892, 117, 177, 148, 240
-0.9792, 369, 129, 432, 256
-0.979305, 41, 161, 104, 288
-0.979371, 337, 129, 464, 192
-0.979419, 305, 113, 368, 176
-0.979504, 149, 177, 180, 240
-0.979737, 345, 177, 408, 304
-0.979791, 241, 209, 304, 272
-0.979952, 1, 161, 64, 224
-0.980004, 89, 177, 120, 240
-0.980028, 133, 177, 164, 240
-0.980056, 293, 185, 324, 248
-0.980171, 369, 137, 400, 200
-0.980355, 297, 193, 360, 320
-0.980582, 305, 185, 336, 248
-0.98064, 225, 193, 256, 256
-0.980706, 345, 129, 376, 192
-0.9808, 49, 65, 176, 192
-0.980979, 65, 201, 192, 264
-0.981014, 17, 185, 144, 248
-0.981095, 65, 153, 192, 216
-0.981118, 317, 145, 348, 272
-0.981139, 305, 153, 336, 216
-0.981193, 101, 177, 132, 240
-0.981239, 77, 177, 108, 240
-0.981379, 65, 209, 192, 333
-0.981443, 233, 169, 296, 232
-0.981531, 385, 145, 448, 208
-0.981635, 209, 193, 240, 256
-0.981775, 329, 97, 392, 160
-0.981794, 25, 145, 56, 208
-0.981966, 9, 137, 40, 200
-0.982067, 113, 161, 240, 224
-0.982155, 361, 33, 424, 288
-0.982244, 329, 177, 360, 240
-0.98241, 165, 201, 196, 264
-0.982507, 181, 177, 212, 304
-0.982523, 25, 177, 88, 240
-0.98254, 129, 161, 160, 288
-0.98259, 257, 49, 384, 176
-0.982655, 229, 177, 260, 304
-0.982816, 169, 97, 232, 224
-0.982927, 317, 145, 348, 208
-0.982954, 161, 81, 288, 208
-0.982977, 357, 129, 388, 192
-0.98305, 17, 129, 144, 192
-0.983163, 341, 153, 372, 216
-0.983236, 273, 113, 400, 176
-0.983257, 153, 201, 184, 264
-0.983306, 417, 129, 480, 256
-0.98331, 181, 161, 212, 224
-0.983369, 193, 97, 256, 224
-0.983418, 37, 145, 68, 208
-0.983465, 41, 65, 104, 192
-0.983663, 105, 153, 168, 216
-0.983716, 369, 113, 496, 240
-0.983794, 117, 129, 148, 256
-0.983804, 281, 209, 344, 272
-0.983845, 349, 145, 380, 272
-0.983865, 209, 129, 272, 192
-0.983875, 425, 241, 488, 304
-0.983911, 161, 161, 192, 288
-0.983941, 241, 161, 272, 288
-0.984088, 249, 185, 280, 248
-0.984181, 33, 129, 64, 256
-0.984222, 365, 105, 396, 168
-0.984281, 61, 129, 92, 256
-0.984284, 273, 81, 336, 208
-0.984359, 65, 177, 96, 240
-0.984363, 169, 129, 232, 192
-0.984376, 61, 153, 92, 216
-0.98456, 241, 209, 368, 272
-0.984568, 205, 145, 236, 272
-0.984583, 49, 113, 80, 240
-0.984685, 89, 65, 152, 320
-0.984719, 289, 145, 320, 272
-0.98485, 49, 145, 80, 208
-0.984975, 105, 145, 136, 272
-0.985028, 333, 129, 364, 192
-0.985043, 209, 217, 272, 280
-0.985116, 129, 49, 192, 176
-0.985131, 353, 153, 480, 216
-0.985142, 113, 49, 240, 176
-0.985198, 73, 113, 136, 176
-0.98523, 241, 209, 304, 333
-0.985266, 89, 161, 120, 288
-0.985286, 401, 177, 464, 304
-0.985329, 337, 81, 368, 208
-0.985332, 449, 241, 480, 304
-0.985333, 377, 81, 440, 208
-0.985377, 149, 161, 180, 288
-0.985436, 113, 209, 240, 272
-0.985561, 225, 129, 352, 192
-0.985614, 337, 105, 464, 168
-0.985792, 305, 161, 336, 288
-0.985837, 237, 193, 268, 256
-0.985924, 409, 153, 440, 216
-0.985973, 377, 113, 440, 176
-0.98598, 269, 161, 300, 288
-0.985996, 369, 177, 432, 304
-0.986104, 357, 153, 388, 216
-0.986127, 341, 177, 372, 240
-0.986166, 177, 217, 304, 280
-0.986233, 305, 193, 432, 256
-0.986283, 21, 113, 52, 240
-0.986448, 293, 161, 324, 224
-0.986452, 265, 185, 296, 248
-0.986471, 129, 33, 192, 288
-0.986474, 337, 65, 400, 320
-0.98654, 401, 169, 464, 232
-0.98655, 181, 129, 212, 256
-0.986629, 85, 113, 116, 240
-0.986691, 73, 65, 136, 192
-0.986723, 425, 137, 456, 200
-0.98676, 253, 161, 284, 288
-0.986826, 193, 177, 224, 304
-0.986831, 49, 121, 80, 184
-0.986965, 369, 209, 496, 333
-0.987036, 393, 129, 456, 256
-0.987115, 281, 185, 312, 248
-0.987186, 433, 129, 496, 192
-0.987291, 197, 169, 228, 232
-0.987378, 137, 201, 168, 264
-0.987454, 425, 65, 488, 192
-0.987511, 397, 137, 428, 200
-0.98758, 129, 113, 160, 240
-0.987625, 9, 113, 40, 240
-0.987647, 89, 153, 120, 216
-0.987657, 117, 177, 148, 304
-0.987805, 73, 153, 104, 216
-0.987868, 329, 73, 392, 136
-0.987875, 369, 65, 400, 192
-0.987885, 353, 177, 480, 240
-0.987978, 165, 153, 196, 216
-0.987989, 369, 73, 432, 136
-0.988033, 97, 33, 352, 160
-0.988073, 1, 149, 64, 180
-0.988215, 217, 169, 248, 232
-0.988277, 105, 209, 168, 333
-0.988371, 169, 189, 232, 220
-0.988416, 9, 65, 72, 320
-0.988508, 293, 193, 324, 320
-0.98852, 185, 209, 248, 240
-0.988653, 297, 181, 360, 212
-0.988735, 53, 177, 84, 240
-0.988805, 57, 33, 120, 288
-0.988947, 401, 65, 464, 192
-0.988972, 161, 65, 224, 320
-0.989044, 201, 65, 264, 320
-0.989044, 421, 129, 452, 256
-0.989159, 185, 1, 248, 333
-0.989164, 57, 89, 120, 152
-0.989166, 137, 137, 200, 200
-0.989193, 321, 169, 384, 200
-0.989199, 65, 113, 192, 176
-0.989233, 185, 49, 248, 176
-0.989252, 217, 145, 248, 272
-0.989256, 145, 181, 208, 212
-0.989323, 289, 33, 352, 288
-0.989455, 101, 201, 132, 264
-0.989459, 201, 197, 264, 228
-0.989508, 357, 177, 388, 240
-0.989545, 145, 193, 208, 224
-0.989554, 233, 121, 296, 184
-0.989578, 257, 129, 320, 192
-0.989585, 145, 205, 208, 236
-0.989591, 73, 181, 136, 212
-0.989625, 113, 137, 240, 200
-0.989638, 21, 121, 52, 184
-0.989654, 369, 241, 496, 304
-0.989664, 461, 233, 492, 296
-0.989668, 241, 65, 304, 320
-0.989668, 317, 193, 348, 256
-0.989703, 369, 173, 432, 204
-0.989743, 33, 149, 96, 180
-0.98984, 117, 209, 148, 272
-0.989859, 217, 193, 248, 320
-0.989877, 1, 137, 64, 168
-0.989959, 193, 181, 256, 212
-0.990006, 397, 161, 428, 224
-0.990105, 425, 33, 488, 288
-0.990118, 97, 177, 160, 208
-0.990139, 321, 141, 384, 172
-0.990175, 65, 193, 320, 256
-0.990176, 225, 189, 288, 220
-0.990192, 361, 137, 424, 168
-0.990206, 129, 1, 192, 333
-0.990213, 229, 129, 260, 256
-0.990258, 265, 185, 328, 216
-0.990269, 121, 177, 184, 208
-0.990281, 321, 181, 384, 212
-0.990304, 321, 121, 352, 184
-0.990304, 345, 181, 408, 212
-0.990304, 305, 113, 336, 240
-0.990312, 241, 161, 272, 224
-0.990322, 25, 273, 88, 333
-0.990339, 225, 213, 288, 244
-0.990376, 289, 169, 352, 200
-0.990412, 329, 129, 392, 160
-0.990431, 161, 137, 288, 200
-0.990433, 25, 137, 88, 168
-0.990449, 273, 89, 400, 152
-0.990509, 381, 137, 412, 200
-0.990515, 341, 105, 372, 168
-0.990515, 281, 193, 312, 320
-0.99064, 381, 169, 412, 232
-0.990643, 65, 193, 128, 224
-0.990652, 49, 201, 112, 264
-0.990671, 105, 193, 168, 224
-0.990688, 401, 225, 464, 288
-0.990699, 345, 161, 408, 192
-0.990703, 409, 121, 472, 184
-0.990718, 49, 161, 112, 192
-0.99075, 321, 157, 384, 188
-0.990781, 105, 105, 168, 168
-0.990801, 313, 33, 376, 288
-0.990817, 217, 81, 280, 208
-0.990822, 277, 161, 308, 224
-0.990835, 129, 161, 384, 224
-0.990855, 49, 181, 112, 212
-0.990857, 9, 161, 72, 192
-0.990859, 153, 153, 184, 216
-0.990881, 1, 161, 500, 224
-0.990921, 57, 301, 120, 332
-0.990942, 353, 73, 480, 136
-0.990972, 169, 177, 232, 208
-0.99099, 325, 97, 356, 224
-0.991022, 57, 273, 120, 333
-0.991045, 305, 129, 336, 192
-0.991051, 161, 185, 416, 248
-0.991082, 9, 301, 72, 332
-0.991112, 121, 205, 184, 236
-0.991121, 25, 65, 56, 192
-0.991145, 337, 177, 368, 304
-0.991188, 153, 217, 216, 248
-0.991189, 105, 153, 136, 216
-0.991244, 81, 205, 144, 236
-0.991284, 377, 105, 408, 168
-0.991294, 265, 197, 328, 228
-0.991312, 329, 117, 392, 148
-0.991313, 9, 81, 72, 144
-0.991322, 1, 273, 128, 333
-0.991323, 409, 129, 440, 192
-0.991329, 425, 137, 488, 168
-0.991354, 361, 161, 392, 288
-0.991377, 33, 301, 96, 332
-0.99138, 73, 209, 136, 333
-0.991381, 225, 201, 288, 232
-0.991421, 409, 145, 440, 272
-0.991424, 297, 157, 360, 188
-0.991425, 353, 125, 416, 156
-0.991462, 249, 213, 312, 244
-0.991504, 193, 221, 256, 252
-0.991513, 33, 33, 96, 288
-0.991564, 409, 153, 472, 184
-0.991597, 193, 113, 224, 240
-0.991658, 385, 137, 448, 168
-0.991659, 313, 201, 376, 232
-0.991675, 273, 213, 336, 244
-0.991678, 297, 141, 360, 172
-0.991698, 25, 173, 88, 204
-0.991708, 41, 65, 72, 192
-0.991719, 185, 209, 216, 272
-0.991727, 145, 169, 208, 200
-0.991789, 257, 113, 288, 240
-0.991804, 241, 177, 304, 208
-0.991805, 385, 65, 448, 320
-0.99181, 1, 273, 64, 333
-0.99183, 297, 125, 360, 156
-0.991837, 345, 105, 408, 136
-0.991895, 289, 193, 352, 224
-0.991926, 105, 165, 168, 196
-0.991927, 393, 169, 456, 200
-0.991945, 57, 105, 120, 136
-0.991945, 141, 153, 172, 216
-0.991948, 337, 193, 400, 224
-0.991967, 181, 189, 212, 220
-0.991972, 353, 81, 384, 144
-0.992012, 269, 113, 300, 240
-0.992058, 217, 225, 280, 256
-0.992063, 265, 169, 328, 200
-0.992066, 313, 1, 376, 333
-0.992094, 273, 157, 336, 188
-0.992109, 41, 193, 104, 224
-0.992111, 273, 209, 304, 272
-0.992113, 229, 169, 260, 232
-0.99212, 1, 105, 128, 168
-0.992145, 85, 201, 116, 264
-0.992169, 73, 169, 136, 200
-0.992191, 57, 141, 120, 172
-0.992198, 353, 149, 416, 180
-0.992212, 385, 153, 448, 184
-0.992214, 9, 145, 40, 176
-0.992231, 217, 177, 280, 208
-0.992247, 73, 129, 104, 256
-0.992302, 25, 149, 56, 180
-0.992315, 241, 65, 304, 192
-0.992331, 97, 65, 160, 192
-0.992332, 353, 1, 416, 333
-0.992344, 45, 145, 76, 176
-0.992345, 197, 205, 228, 236
-0.99239, 425, 209, 488, 333
-0.992395, 349, 193, 380, 320
-0.992408, 165, 181, 196, 212
-0.992417, 89, 113, 152, 144
-0.992422, 329, 181, 360, 212
-0.992434, 17, 109, 80, 140
-0.992486, 349, 125, 380, 156
-0.992488, 213, 193, 244, 224
-0.992499, 209, 217, 240, 280
-0.992533, 33, 121, 64, 184
-0.992536, 81, 145, 144, 176
-0.992551, 225, 205, 256, 236
-0.992557, 169, 193, 200, 224
-0.992569, 341, 177, 372, 208
-0.992573, 25, 125, 88, 156
-0.992574, 153, 1, 216, 333
-0.992588, 369, 137, 400, 168
-0.992604, 177, 205, 208, 236
-0.992608, 57, 125, 120, 156
-0.992611, 33, 153, 288, 216
-0.992631, 305, 113, 368, 144
-0.992642, 77, 181, 108, 212
-0.992644, 313, 169, 344, 200
-0.992648, 425, 241, 488, 272
-0.992672, 157, 205, 188, 236
-0.992677, 325, 165, 356, 196
-0.992692, 197, 193, 228, 224
-0.9927, 69, 81, 100, 208
-0.992701, 9, 301, 40, 332
-0.992709, 101, 177, 132, 208
-0.99271, 165, 113, 196, 240
-0.992725, 105, 97, 136, 224
-0.992731, 169, 133, 232, 164
-0.992749, 117, 153, 148, 216
-0.992754, 25, 137, 56, 168
-0.992771, 265, 133, 328, 164
-0.992773, 289, 181, 320, 212
-0.992779, 309, 157, 340, 188
-0.99278, 385, 125, 448, 156
-0.99278, 273, 145, 336, 176
-0.992797, 121, 105, 184, 136
-0.9928, 197, 181, 228, 212
-0.992802, 241, 165, 304, 196
-0.992805, 73, 177, 104, 304
-0.992807, 277, 185, 308, 216
-0.992809, 369, 97, 432, 128
-0.992822, 129, 217, 192, 248
-0.992822, 225, 193, 256, 224
-0.992826, 433, 261, 496, 292
-0.992828, 361, 181, 392, 212
-0.992834, 129, 113, 192, 176
-0.992835, 417, 169, 480, 200
-0.992844, 193, 129, 256, 160
-0.992844, 401, 181, 464, 212
-0.992848, 117, 177, 148, 208
-0.992851, 89, 177, 120, 208
-0.992856, 185, 177, 216, 208
-0.992863, 13, 157, 44, 188
-0.992864, 409, 165, 440, 196
-0.992865, 301, 181, 332, 212
-0.992894, 209, 205, 240, 236
-0.992899, 317, 145, 348, 176
-0.9929, 153, 181, 184, 212
-0.992907, 353, 113, 384, 144
-0.992917, 329, 149, 360, 180
-0.992919, 317, 181, 348, 212
-0.992921, 341, 141, 372, 172
-0.992922, 169, 161, 232, 192
-0.992929, 245, 213, 276, 244
-0.992931, 357, 101, 388, 132
-0.992935, 85, 193, 116, 224
-0.992936, 177, 217, 208, 248
-0.992939, 33, 161, 64, 192
-0.992941, 137, 177, 168, 208
-0.992945, 241, 185, 272, 216
-0.992948, 369, 185, 432, 216
-0.99295, 265, 181, 296, 212
-0.992951, 325, 133, 356, 164
-0.992955, 129, 149, 192, 180
-0.992957, 421, 145, 452, 176
-0.992957, 129, 65, 256, 128
-0.99296, 1, 125, 64, 156
-0.992964, 321, 101, 384, 132
-0.992967, 345, 165, 376, 196
-0.992968, 225, 181, 256, 212
-0.992974, 257, 145, 500, 208
-0.992976, 401, 229, 464, 260
-0.992981, 49, 157, 80, 188
-0.993002, 49, 209, 112, 240
-0.993006, 341, 113, 372, 144
-0.993006, 369, 177, 400, 240
-0.993007, 1, 81, 128, 144
-0.993014, 157, 193, 188, 224
-0.993035, 53, 181, 84, 212
-0.993038, 133, 193, 164, 224
-0.993038, 209, 161, 272, 192
-0.993039, 13, 133, 44, 164
-0.993039, 25, 301, 56, 332
-0.993039, 65, 181, 96, 212
-0.99304, 305, 209, 336, 272
-0.993041, 65, 193, 96, 224
-0.993044, 73, 157, 136, 188
-0.993053, 357, 169, 388, 200
-0.993054, 213, 217, 244, 248
-0.993054, 105, 217, 168, 248
-0.993061, 69, 301, 100, 332
-0.993073, 213, 181, 244, 212
-0.993073, 181, 185, 196, 248
-0.993074, 9, 289, 72, 320
-0.993079, 409, 137, 440, 168
-0.993082, 253, 181, 284, 212
-0.993082, 373, 173, 404, 204
-0.993095, 81, 181, 208, 212
-0.993096, 1, 121, 256, 184
-0.993097, 49, 301, 80, 332
-0.993099, 1, 185, 500, 248
-0.9931, 161, 149, 224, 180
-0.993101, 397, 169, 428, 200
-0.993104, 1, 157, 32, 188
-0.993104, 229, 217, 260, 248
-0.993108, 265, 161, 296, 224
-0.993117, 97, 193, 128, 224
-0.993119, 289, 197, 320, 228
-0.993119, 241, 225, 304, 256
-0.993121, 301, 169, 332, 200
-0.993122, 133, 213, 164, 244
-0.993122, 161, 229, 224, 260
-0.993123, 37, 301, 68, 332
-0.993125, 297, 213, 360, 244
-0.993127, 217, 129, 280, 160
-0.993129, 117, 213, 148, 244
-0.99314, 1, 133, 32, 164
-0.993146, 449, 241, 480, 272
-0.993153, 353, 137, 384, 168
-0.993153, 49, 113, 80, 144
-0.993153, 57, 141, 88, 172
-0.993154, 145, 205, 176, 236
-0.993156, 361, 229, 424, 260
-0.993156, 361, 125, 392, 156
-0.99318, 277, 213, 308, 244
-0.993187, 349, 49, 380, 176
-0.993187, 45, 133, 76, 164
-0.993191, 433, 137, 464, 168
-0.993194, 349, 193, 380, 224
-0.993197, 421, 157, 452, 188
-0.993204, 237, 197, 268, 228
-0.993206, 117, 193, 148, 224
-0.993207, 261, 205, 292, 236
-0.99321, 57, 225, 120, 256
-0.993216, 49, 273, 176, 333
-0.993219, 277, 197, 308, 228
-0.993222, 305, 145, 336, 176
-0.993226, 17, 241, 80, 272
-0.993226, 337, 125, 368, 156
-0.993228, 189, 217, 220, 248
-0.99323, 125, 165, 156, 196
-0.993234, 161, 169, 192, 200
-0.993236, 409, 125, 472, 156
-0.993237, 329, 229, 392, 260
-0.99324, 245, 113, 276, 240
-0.993241, 469, 257, 500, 288
-0.993252, 369, 113, 400, 144
-0.993254, 5, 113, 36, 176
-0.993258, 373, 125, 404, 156
-0.993264, 69, 145, 100, 176
-0.993265, 353, 241, 416, 272
-0.993265, 73, 237, 136, 268
-0.993267, 145, 193, 176, 224
-0.993268, 289, 213, 320, 244
-0.993269, 17, 209, 144, 272
-0.993271, 105, 209, 136, 240
-0.993291, 81, 301, 112, 332
-0.993293, 345, 93, 408, 124
-0.993295, 145, 205, 272, 236
-0.993298, 149, 169, 180, 200
-0.993298, 385, 177, 416, 208
-0.993298, 89, 101, 152, 132
-0.993299, 205, 193, 236, 320
-0.993303, 13, 161, 44, 224
-0.993303, 265, 193, 296, 224
-0.993307, 461, 241, 492, 272
-0.993309, 425, 181, 488, 212
-0.993309, 97, 237, 160, 268
-0.99331, 301, 193, 332, 224
-0.993315, 117, 113, 148, 144
-0.993319, 341, 153, 372, 184
-0.99332, 17, 225, 80, 256
-0.993322, 361, 149, 392, 180
-0.993322, 201, 217, 232, 248
-0.993329, 41, 173, 72, 204
-0.993335, 249, 201, 280, 232
-0.993337, 373, 161, 404, 192
-0.993341, 105, 165, 136, 196
-0.993343, 137, 165, 168, 196
-0.993345, 61, 157, 92, 188
-0.993349, 161, 217, 192, 248
-0.99335, 65, 125, 96, 156
-0.99335, 289, 169, 320, 200
-0.99336, 57, 289, 120, 320
-0.993363, 57, 169, 88, 200
-0.993365, 305, 133, 336, 164
-0.993368, 445, 137, 476, 168
-0.99337, 409, 153, 440, 184
-0.993376, 113, 193, 240, 224
-0.993377, 265, 225, 328, 256
-0.99338, 249, 209, 280, 272
-0.993382, 97, 301, 160, 332
-0.993382, 73, 201, 104, 264
-0.993382, 321, 193, 352, 320
-0.993389, 361, 81, 424, 112
-0.993396, 113, 113, 240, 176
-0.9934, 321, 89, 384, 120
-0.993403, 17, 209, 80, 240
-0.993411, 129, 69, 192, 100
-0.993414, 45, 161, 76, 288
-0.99342, 193, 145, 224, 208
-0.993424, 369, 109, 432, 140
-0.993426, 105, 145, 168, 176
-0.993431, 49, 93, 112, 124
-0.993443, 49, 245, 112, 276
-0.993479, 105, 193, 136, 320
-0.993497, 281, 1, 344, 333
-0.99357, 161, 129, 416, 192
-0.993632, 377, 1, 440, 333
-0.993686, 289, 209, 320, 272
-0.993694, 433, 161, 496, 224
-0.993708, 289, 177, 416, 208
-0.993743, 373, 113, 404, 240
-0.993815, 129, 181, 256, 212
-0.993875, 225, 185, 352, 216
-0.993891, 453, 113, 484, 176
-0.993907, 129, 145, 160, 208
-0.99391, 257, 177, 500, 240
-0.99394, 289, 65, 416, 128
-0.993944, 9, 65, 40, 192
-0.993962, 65, 225, 192, 288
-0.993974, 437, 233, 468, 296
-0.993981, 329, 169, 344, 232
-0.993984, 265, 65, 328, 320
-0.994016, 1, 161, 32, 224
-0.994027, 177, 193, 304, 224
-0.994061, 241, 1, 304, 333
-0.994083, 129, 57, 192, 120
-0.994092, 281, 113, 344, 176
-0.994146, 297, 49, 360, 176
-0.994151, 1, 217, 64, 280
-0.994179, 193, 57, 256, 120
-0.994203, 1, 145, 128, 176
-0.99425, 175, 177, 190, 240
-0.994285, 237, 121, 268, 184
-0.994291, 409, 177, 440, 240
-0.994292, 97, 129, 160, 192
-0.994311, 253, 161, 284, 224
-0.99434, 145, 89, 272, 152
-0.994355, 341, 81, 372, 144
-0.994372, 169, 209, 200, 333
-0.994376, 61, 121, 92, 184
-0.994395, 41, 169, 72, 232
-0.994426, 273, 89, 336, 152
-0.994436, 335, 145, 350, 208
-0.994437, 1, 137, 500, 200
-0.994442, 425, 1, 488, 333
-0.994448, 117, 81, 148, 208
-0.994453, 5, 161, 36, 288
-0.994459, 1, 1, 500, 128
-0.994466, 185, 105, 248, 168
-0.99447, 161, 209, 416, 272
-0.994487, 161, 49, 224, 176
-0.994519, 25, 217, 88, 280
-0.99454, 433, 129, 464, 256
-0.994569, 199, 193, 214, 256
-0.994569, 345, 201, 408, 264
-0.994581, 445, 137, 476, 200
-0.994639, 373, 73, 404, 136
-0.994662, 57, 225, 120, 288
-0.994703, 205, 129, 236, 192
-0.994715, 169, 177, 184, 240
-0.994727, 365, 105, 380, 168
-0.994733, 33, 81, 96, 144
-0.994756, 141, 113, 172, 240
-0.99479, 321, 225, 448, 288
-0.994797, 209, 65, 240, 192
-0.994809, 193, 65, 224, 192
-0.994824, 233, 145, 296, 208
-0.994847, 321, 137, 448, 168
-0.994849, 323, 169, 338, 232
-0.99485, 177, 113, 304, 176
-0.994859, 409, 201, 472, 264
-0.994892, 221, 129, 252, 192
-0.994908, 469, 65, 500, 192
-0.994923, 465, 129, 496, 192
-0.994976, 157, 177, 172, 240
-0.994981, 369, 217, 496, 280
-0.99499, 305, 153, 432, 184
-0.995011, 1, 249, 128, 312
-0.995022, 97, 205, 224, 236
-0.995058, 147, 177, 162, 240
-0.995062, 289, 165, 416, 196
-0.995106, 305, 81, 368, 144
-0.995122, 249, 209, 280, 333
-0.995141, 425, 161, 456, 224
-0.995144, 105, 73, 168, 136
-0.995176, 341, 145, 356, 208
-0.995186, 17, 161, 48, 288
-0.995194, 421, 81, 452, 208
-0.995209, 205, 193, 220, 256
-0.995228, 457, 113, 488, 240
-0.995232, 329, 201, 360, 264
-0.995237, 161, 81, 224, 144
-0.995237, 209, 89, 272, 152
-0.995237, 193, 205, 320, 236
-0.99524, 177, 181, 304, 212
-0.995273, 217, 1, 280, 333
-0.995283, 189, 185, 204, 248
-0.995285, 293, 129, 324, 192
-0.995288, 409, 97, 440, 224
-0.995291, 209, 81, 336, 144
-0.995304, 97, 89, 224, 152
-0.995311, 161, 33, 288, 160
-0.995329, 163, 177, 178, 240
-0.995363, 91, 177, 106, 240
-0.995384, 109, 177, 124, 240
-0.995392, 131, 177, 146, 240
-0.995397, 81, 81, 144, 144
-0.995399, 97, 177, 112, 240
-0.995399, 145, 217, 272, 248
-0.995407, 329, 145, 344, 208
-0.995416, 359, 113, 374, 176
-0.995416, 137, 177, 152, 240
-0.995417, 121, 177, 136, 240
-0.995422, 377, 193, 440, 256
-0.995445, 65, 193, 192, 224
-0.995445, 375, 105, 390, 168
-0.995451, 49, 73, 176, 136
-0.995452, 345, 201, 376, 264
-0.995464, 315, 185, 330, 248
-0.99551, 9, 145, 24, 208
-0.995515, 241, 73, 304, 136
-0.995526, 261, 209, 292, 272
-0.995526, 241, 209, 368, 240
-0.995542, 73, 1, 136, 333
-0.995551, 73, 113, 104, 176
-0.995563, 177, 129, 208, 192
-0.995569, 85, 177, 100, 240
-0.995576, 165, 225, 196, 288
-0.995598, 425, 97, 488, 160
-0.995601, 215, 193, 230, 256
-0.995619, 103, 177, 118, 240
-0.995627, 273, 133, 400, 164
-0.995669, 347, 137, 362, 200
-0.995675, 221, 217, 252, 280
-0.995679, 121, 113, 152, 176
-0.995687, 79, 177, 94, 240
-0.995696, 33, 177, 160, 208
-0.995707, 461, 193, 492, 320
-0.995725, 417, 153, 432, 216
-0.995738, 337, 177, 464, 208
-0.99575, 239, 193, 254, 256
-0.995775, 257, 121, 500, 184
-0.995789, 303, 185, 318, 248
-0.995805, 309, 185, 324, 248
-0.995824, 353, 105, 368, 168
-0.995826, 17, 157, 144, 188
-0.995833, 389, 113, 420, 240
-0.995848, 115, 177, 130, 240
-0.995861, 81, 225, 144, 288
-0.995861, 369, 233, 432, 296
-0.995894, 375, 129, 390, 192
-0.995917, 321, 145, 336, 208
-0.995921, 1, 209, 500, 272
-0.995943, 353, 129, 368, 192
-0.995952, 49, 249, 176, 312
-0.995967, 41, 145, 56, 208
-0.995972, 343, 113, 358, 176
-0.995979, 453, 65, 484, 192
-0.996004, 17, 273, 48, 333
-0.996011, 15, 145, 30, 208
-0.996011, 231, 193, 246, 256
-0.996027, 221, 193, 236, 256
-0.996049, 257, 201, 500, 264
-0.996064, 181, 161, 196, 224
-0.996074, 335, 169, 350, 232
-0.996074, 257, 233, 384, 296
-0.996139, 273, 189, 400, 220
-0.996142, 1, 301, 128, 332
-0.996145, 171, 201, 186, 264
-0.996155, 209, 33, 336, 160
-0.996166, 81, 169, 208, 200
-0.996221, 129, 233, 256, 296
-0.996227, 297, 185, 312, 248
-0.996232, 209, 57, 336, 120
-0.996268, 347, 169, 362, 232
-0.996272, 153, 201, 168, 264
-0.996294, 241, 165, 368, 196
-0.996318, 173, 153, 188, 216
-0.996322, 49, 209, 176, 240
-0.996327, 61, 177, 92, 304
-0.996339, 251, 185, 266, 248
-0.996356, 369, 129, 384, 192
-0.99637, 159, 201, 174, 264
-0.99639, 161, 49, 224, 112
-0.9964, 257, 153, 384, 184
-0.996403, 47, 153, 62, 216
-0.996408, 425, 145, 440, 208
-0.996427, 17, 193, 144, 224
-0.996445, 225, 105, 352, 168
-0.996454, 289, 97, 320, 224
-0.996456, 153, 113, 184, 240
-0.99646, 17, 177, 80, 304
-0.996468, 315, 153, 330, 216
-0.996472, 363, 153, 378, 216
-0.996486, 401, 249, 464, 312
-0.996487, 441, 65, 472, 192
-0.996507, 1, 193, 64, 256
-0.996513, 193, 217, 320, 248
-0.996523, 65, 145, 80, 208
-0.996527, 25, 137, 40, 200
-0.996531, 209, 169, 224, 232
-0.996535, 161, 169, 288, 200
-0.996552, 283, 185, 298, 248
-0.996555, 337, 121, 352, 184
-0.996567, 337, 165, 464, 196
-0.996605, 89, 153, 104, 216
-0.996605, 307, 161, 322, 224
-0.996658, 289, 121, 416, 152
-0.99666, 97, 1, 160, 333
-0.996689, 355, 177, 370, 240
-0.996689, 191, 161, 206, 224
-0.996705, 381, 49, 412, 176
-0.996726, 71, 145, 86, 208
-0.996734, 353, 125, 480, 156
-0.996743, 17, 1, 80, 333
-0.99675, 369, 137, 496, 168
-0.99675, 309, 209, 340, 333
-0.996753, 165, 201, 180, 264
-0.996756, 459, 241, 474, 304
-0.996764, 59, 153, 74, 216
-0.996764, 1, 133, 128, 164
-0.996777, 3, 145, 18, 208
-0.996798, 81, 153, 96, 216
-0.9968, 129, 157, 256, 188
-0.996807, 345, 233, 408, 296
-0.99682, 187, 209, 202, 272
-0.996823, 289, 177, 304, 240
-0.996838, 237, 217, 268, 280
-0.996841, 353, 265, 480, 328
-0.996844, 57, 249, 120, 312
-0.996854, 341, 169, 356, 232
-0.996857, 65, 145, 192, 176
-0.996857, 65, 217, 320, 280
-0.996869, 101, 113, 132, 176
-0.996869, 197, 217, 228, 280
-0.996875, 229, 81, 260, 208
-0.996876, 35, 145, 50, 208
-0.996895, 277, 185, 292, 248
-0.996917, 95, 153, 110, 216
-0.996933, 73, 177, 88, 240
-0.996934, 181, 181, 196, 212
-0.996938, 245, 193, 260, 256
-0.996953, 281, 137, 312, 200
-0.996958, 257, 185, 272, 248
-0.996978, 15, 121, 30, 184
-0.996984, 369, 81, 384, 144
-0.996994, 147, 201, 162, 264
-0.997005, 133, 209, 164, 333
-0.997009, 161, 105, 416, 168
-0.997013, 193, 1, 448, 128
-0.997014, 417, 73, 480, 136
-0.997017, 181, 209, 196, 272
-0.997034, 433, 137, 448, 200
-0.997038, 445, 209, 476, 333
-0.997048, 105, 153, 120, 216
-0.997054, 193, 249, 320, 312
-0.997057, 241, 169, 256, 232
-0.997077, 331, 193, 346, 256
-0.997084, 269, 209, 300, 333
-0.997084, 207, 197, 222, 228
-0.997118, 53, 145, 68, 208
-0.997139, 39, 121, 54, 184
-0.997146, 305, 249, 432, 312
-0.99716, 179, 193, 194, 224
-0.997164, 357, 153, 372, 216
-0.997169, 129, 41, 256, 104
-0.997198, 465, 233, 480, 296
-0.9972, 269, 177, 284, 240
-0.997204, 97, 217, 224, 248
-0.997209, 177, 81, 208, 208
-0.997211, 465, 257, 496, 320
-0.997217, 411, 161, 426, 224
-0.997223, 263, 185, 278, 248
-0.997226, 113, 201, 128, 264
-0.997237, 377, 177, 408, 304
-0.997242, 9, 33, 72, 160
-0.997246, 25, 145, 40, 176
-0.997247, 15, 145, 30, 176
-0.997248, 49, 121, 64, 184
-0.997249, 67, 177, 82, 240
-0.997251, 131, 209, 146, 272
-0.997252, 111, 153, 126, 216
-0.997256, 125, 209, 140, 272
-0.997258, 103, 201, 118, 264
-0.997293, 153, 233, 216, 296
-0.997305, 129, 257, 256, 320
-0.997308, 321, 193, 336, 256
-0.997317, 139, 209, 154, 272
-0.997326, 119, 209, 134, 272
-0.99733, 9, 121, 24, 184
-0.99733, 321, 189, 448, 220
-0.997335, 9, 145, 24, 176
-0.997335, 301, 161, 316, 224
-0.99734, 61, 113, 76, 176
-0.997343, 203, 169, 218, 232
-0.997345, 465, 113, 480, 176
-0.99735, 385, 137, 400, 200
-0.997366, 359, 89, 374, 152
-0.99737, 141, 153, 156, 216
-0.997388, 11, 301, 26, 332
-0.997388, 199, 205, 214, 236
-0.997418, 35, 149, 50, 180
-0.997418, 415, 129, 430, 192
-0.997448, 57, 65, 88, 192
-0.997458, 43, 153, 58, 184
-0.997465, 369, 49, 432, 112
-0.997465, 49, 133, 176, 164
-0.997468, 81, 265, 144, 328
-0.997487, 81, 49, 208, 112
-0.997494, 197, 169, 212, 232
-0.997494, 53, 265, 84, 328
-0.997505, 213, 197, 228, 228
-0.997506, 289, 201, 416, 232
-0.997512, 395, 169, 410, 232
-0.997515, 193, 121, 224, 184
-0.997519, 41, 1, 104, 333
-0.997519, 123, 145, 138, 208
-0.997519, 29, 169, 60, 232
-0.99753, 49, 145, 64, 176
-0.997537, 371, 169, 386, 232
-0.997548, 187, 185, 202, 216
-0.997549, 327, 145, 342, 176
-0.997551, 229, 169, 244, 232
-0.997552, 159, 153, 174, 216
-0.997556, 117, 145, 132, 208
-0.997556, 417, 165, 432, 196
-0.997561, 225, 141, 352, 172
-0.997568, 315, 129, 330, 192
-0.997582, 251, 209, 266, 272
-0.997583, 327, 169, 342, 200
-0.997588, 351, 181, 366, 212
-0.997589, 215, 169, 230, 232
-0.997598, 221, 169, 236, 232
-0.997598, 407, 137, 422, 200
-0.997605, 195, 193, 210, 224
-0.997605, 209, 153, 336, 184
-0.997609, 149, 209, 180, 333
-0.997615, 287, 209, 302, 272
-0.997628, 87, 201, 102, 264
-0.997635, 363, 121, 378, 152
-0.997641, 353, 153, 480, 184
-0.997653, 337, 113, 464, 144
-0.997657, 105, 177, 120, 208
-0.997669, 401, 97, 464, 160
-0.997695, 175, 181, 190, 212
-0.997697, 171, 205, 186, 236
-0.997714, 65, 265, 96, 328
-0.997714, 333, 161, 348, 192
-0.997714, 241, 257, 368, 320
-0.997724, 79, 181, 94, 212
-0.997729, 343, 125, 358, 156
-0.997739, 95, 177, 110, 208
-0.997749, 355, 129, 370, 160
-0.997753, 349, 137, 364, 168
-0.997765, 223, 201, 238, 232
-0.997767, 181, 209, 196, 240
-0.997776, 173, 193, 188, 224
-0.997788, 289, 109, 416, 140
-0.997806, 353, 113, 368, 144
-0.997817, 429, 141, 444, 172
-0.997835, 29, 301, 44, 332
-0.99784, 329, 181, 344, 212
-0.997862, 85, 181, 100, 212
-0.997873, 373, 133, 388, 164
-0.997878, 241, 193, 256, 224
-0.997881, 401, 1, 464, 333
-0.997894, 49, 17, 176, 144
-0.997894, 185, 197, 200, 228
-0.997905, 41, 81, 72, 144
-0.997921, 33, 49, 160, 112
-0.997927, 169, 181, 184, 212
-0.997931, 111, 177, 126, 208
-0.997935, 337, 133, 352, 164
-0.997936, 369, 249, 496, 280
-0.997939, 297, 233, 360, 296
-0.997944, 23, 301, 38, 332
-0.997945, 235, 189, 250, 220
-0.997972, 205, 185, 220, 216
-0.997976, 341, 149, 356, 180
-0.997978, 231, 205, 246, 236
-0.997982, 319, 153, 334, 184
-0.997989, 61, 141, 76, 172
-0.99799, 321, 177, 336, 208
-0.997991, 377, 33, 440, 160
-0.997997, 185, 81, 248, 144
-0.998, 339, 177, 354, 208
-0.998004, 117, 177, 132, 208
-0.998004, 281, 181, 296, 212
-0.998006, 423, 153, 438, 184
-0.998011, 257, 233, 500, 296
-0.998013, 69, 89, 100, 152
-0.998017, 153, 49, 184, 176
-0.99802, 345, 65, 376, 320
-0.998038, 303, 185, 318, 216
-0.998038, 371, 101, 386, 132
-0.99804, 33, 249, 96, 312
-0.998041, 85, 121, 116, 184
-0.998046, 241, 121, 368, 152
-0.998047, 433, 201, 496, 264
-0.998049, 75, 193, 90, 224
-0.998055, 249, 213, 264, 244
-0.998059, 357, 181, 372, 212
-0.998067, 27, 157, 42, 188
-0.998076, 345, 181, 360, 212
-0.998086, 363, 101, 378, 132
-0.998088, 189, 209, 204, 240
-0.998092, 229, 193, 244, 224
-0.998092, 369, 113, 384, 144
-0.998097, 39, 137, 54, 168
-0.998113, 147, 177, 162, 208
-0.998113, 421, 177, 452, 304
-0.998115, 131, 173, 146, 204
-0.998115, 139, 177, 154, 208
-0.998127, 25, 133, 40, 164
-0.998128, 1, 113, 128, 144
-0.998137, 109, 189, 124, 220
-0.998142, 217, 213, 232, 244
-0.998143, 129, 81, 192, 144
-0.998148, 275, 181, 290, 212
-0.998155, 365, 181, 380, 212
-0.998171, 293, 181, 308, 212
-0.998174, 257, 65, 500, 128
-0.998181, 223, 217, 238, 248
-0.998182, 157, 205, 172, 236
-0.998183, 71, 301, 86, 332
-0.998185, 287, 181, 302, 212
-0.998187, 21, 157, 36, 188
-0.998192, 113, 233, 176, 296
-0.998193, 357, 65, 388, 320
-0.998196, 337, 101, 464, 132
-0.99821, 3, 145, 18, 176
-0.998211, 261, 129, 292, 192
-0.998213, 223, 189, 238, 220
-0.998216, 1, 209, 128, 240
-0.998217, 193, 181, 208, 212
-0.998218, 211, 209, 226, 240
-0.998218, 73, 181, 88, 212
-0.998224, 349, 125, 364, 156
-0.998226, 13, 133, 28, 164
-0.998226, 49, 161, 64, 192
-0.998227, 125, 177, 140, 208
-0.998229, 347, 165, 362, 196
-0.998232, 307, 169, 322, 200
-0.998233, 321, 165, 336, 196
-0.998234, 113, 145, 240, 176
-0.99824, 441, 209, 472, 272
-0.99825, 281, 193, 296, 224
-0.998251, 237, 209, 252, 240
-0.998254, 425, 265, 488, 328
-0.99826, 163, 193, 178, 224
-0.998265, 373, 181, 388, 212
-0.998266, 213, 185, 228, 216
-0.998267, 241, 181, 256, 212
-0.998267, 97, 193, 112, 224
-0.99827, 485, 257, 500, 288
-0.998275, 413, 33, 444, 288
-0.998282, 411, 169, 426, 200
-0.998282, 205, 209, 220, 240
-0.998282, 369, 65, 400, 320
-0.99829, 163, 181, 178, 212
-0.99829, 91, 193, 106, 224
-0.998291, 435, 141, 450, 172
-0.998295, 333, 145, 348, 176
-0.998299, 457, 241, 472, 272
-0.998302, 145, 229, 272, 260
-0.998307, 417, 153, 432, 184
-0.998315, 61, 301, 76, 332
-0.998318, 287, 193, 302, 224
-0.998328, 319, 137, 334, 168
-0.998328, 321, 225, 384, 288
-0.998332, 153, 177, 168, 208
-0.998336, 19, 133, 34, 164
-0.998339, 329, 97, 360, 160
-0.99834, 309, 181, 324, 212
-0.998343, 55, 145, 70, 176
-0.998353, 117, 205, 148, 220
-0.998353, 361, 99, 392, 114
-0.998354, 373, 173, 404, 188
-0.998358, 29, 305, 60, 320
-0.998359, 49, 115, 80, 130
-0.99836, 77, 189, 108, 204
-0.99836, 69, 313, 100, 328
-0.99836, 357, 175, 388, 190
-0.998361, 363, 165, 378, 196
-0.998361, 161, 133, 288, 164
-0.998362, 63, 113, 78, 144
-0.998363, 17, 317, 48, 332
-0.998363, 349, 195, 380, 210
-0.998364, 113, 179, 144, 194
-0.998364, 209, 193, 240, 208
-0.998365, 221, 187, 252, 202
-0.998365, 53, 293, 84, 308
-0.998367, 113, 115, 144, 130
-0.998368, 397, 169, 428, 184
-0.998368, 409, 141, 440, 156
-0.998368, 81, 317, 112, 332
-0.998369, 345, 201, 376, 216
-0.99837, 341, 119, 372, 134
-0.998371, 61, 177, 92, 192
-0.998372, 461, 241, 492, 256
-0.998372, 97, 197, 128, 212
-0.998373, 421, 151, 452, 166
-0.998373, 209, 209, 240, 224
-0.998373, 345, 113, 376, 128
-0.998374, 151, 209, 166, 240
-0.998374, 9, 133, 40, 148
-0.998376, 37, 143, 68, 158
-0.998376, 333, 151, 364, 166
-0.998378, 469, 259, 500, 274
-0.998378, 69, 151, 100, 166
-0.998379, 381, 137, 396, 168
-0.998379, 97, 179, 128, 194
-0.99838, 5, 309, 36, 324
-0.99838, 53, 317, 84, 332
-0.998381, 65, 191, 96, 206
-0.998381, 249, 189, 264, 220
-0.998381, 369, 143, 400, 158
-0.998382, 229, 217, 244, 248
-0.998384, 185, 217, 248, 232
-0.998385, 233, 185, 264, 200
-0.998385, 33, 167, 64, 182
-0.998388, 1, 147, 64, 162
-0.998388, 61, 157, 92, 172
-0.998392, 413, 181, 444, 196
-0.998393, 5, 315, 36, 330
-0.998396, 417, 161, 448, 176
-0.998397, 273, 191, 304, 206
-0.998398, 39, 301, 54, 332
-0.9984, 169, 209, 200, 224
-0.9984, 65, 117, 192, 148
-0.998401, 229, 199, 260, 214
-0.998401, 429, 143, 460, 158
-0.998401, 357, 111, 388, 126
-0.998402, 269, 181, 284, 212
-0.998402, 225, 213, 256, 228
-0.998405, 353, 119, 384, 134
-0.998407, 325, 165, 356, 180
-0.998407, 85, 197, 116, 212
-0.998408, 133, 65, 164, 192
-0.998408, 81, 197, 96, 228
-0.998408, 445, 241, 476, 256
-0.998409, 409, 169, 440, 184
-0.99841, 93, 317, 124, 332
-0.99841, 217, 201, 248, 216
-0.998411, 153, 105, 216, 168
-0.998412, 143, 213, 158, 244
-0.998412, 67, 181, 82, 212
-0.998413, 401, 181, 432, 196
-0.998415, 357, 181, 388, 196
-0.998415, 325, 187, 356, 202
-0.998417, 57, 185, 88, 200
-0.998419, 149, 181, 180, 196
-0.99842, 197, 191, 228, 206
-0.99842, 111, 165, 126, 196
-0.99842, 17, 305, 48, 320
-0.998423, 17, 297, 32, 328
-0.998424, 389, 181, 420, 196
-0.998424, 209, 217, 240, 232
-0.998426, 325, 157, 356, 172
-0.998427, 45, 161, 76, 176
-0.998427, 433, 317, 464, 332
-0.998428, 169, 203, 200, 218
-0.99843, 243, 213, 258, 244
-0.998431, 341, 133, 372, 148
-0.998435, 261, 191, 292, 206
-0.998435, 209, 187, 240, 202
-0.998437, 177, 187, 240, 202
-0.998437, 357, 105, 388, 120
-0.998437, 15, 157, 30, 188
-0.998438, 1, 155, 64, 170
-0.998439, 345, 175, 376, 190
-0.998441, 237, 191, 268, 206
-0.998442, 345, 149, 376, 164
-0.998444, 1, 141, 64, 156
-0.998446, 293, 181, 324, 196
-0.998447, 313, 179, 344, 194
-0.998447, 185, 201, 248, 216
-0.998448, 45, 151, 76, 166
-0.99845, 261, 185, 292, 200
-0.998451, 37, 313, 68, 328
-0.998451, 337, 49, 464, 112
-0.998451, 321, 183, 384, 198
-0.998451, 309, 163, 340, 178
-0.998452, 317, 151, 348, 166
-0.998452, 29, 161, 60, 176
-0.998453, 157, 207, 188, 222
-0.998454, 345, 139, 376, 154
-0.998454, 341, 125, 372, 140
-0.998456, 245, 185, 276, 200
-0.998457, 13, 159, 44, 174
-0.998458, 273, 185, 304, 200
-0.998459, 185, 199, 216, 214
-0.998459, 85, 181, 116, 196
-0.99846, 197, 185, 228, 200
-0.998461, 1, 249, 64, 312
-0.998461, 325, 175, 356, 190
-0.998462, 221, 193, 252, 208
-0.998462, 325, 145, 356, 160
-0.998465, 25, 155, 88, 170
-0.998466, 17, 311, 48, 326
-0.998471, 377, 179, 440, 194
-0.998472, 81, 65, 112, 192
-0.998474, 357, 127, 388, 142
-0.998474, 165, 191, 196, 206
-0.998476, 245, 217, 276, 232
-0.99848, 137, 183, 200, 198
-0.99848, 193, 209, 224, 224
-0.99848, 197, 215, 228, 230
-0.998481, 289, 181, 352, 196
-0.998482, 313, 157, 344, 172
-0.998484, 169, 197, 200, 212
-0.998488, 45, 137, 76, 152
-0.99849, 265, 187, 328, 202
-0.998492, 65, 183, 128, 198
-0.998492, 249, 191, 280, 206
-0.998493, 313, 151, 376, 166
-0.998493, 369, 137, 400, 152
-0.998493, 445, 113, 476, 240
-0.998498, 181, 209, 212, 224
-0.998498, 285, 187, 316, 202
-0.9985, 201, 189, 264, 204
-0.998501, 161, 199, 224, 214
-0.998502, 145, 209, 208, 224
-0.998502, 329, 135, 360, 150
-0.998502, 1, 241, 128, 272
-0.998503, 377, 179, 408, 194
-0.998504, 345, 179, 408, 194
-0.998506, 161, 193, 224, 208
-0.998509, 241, 191, 304, 206
-0.998509, 25, 141, 88, 156
-0.99851, 329, 145, 392, 160
-0.998513, 305, 185, 336, 200
-0.998514, 249, 233, 312, 296
-0.998516, 161, 183, 192, 198
-0.99852, 313, 177, 376, 192
-0.998525, 337, 229, 464, 260
-0.998527, 25, 315, 88, 330
-0.998528, 321, 135, 384, 150
-0.998529, 345, 181, 376, 196
-0.99853, 329, 129, 392, 144
-0.998531, 393, 175, 424, 190
-0.998531, 241, 217, 304, 232
-0.998534, 409, 49, 440, 176
-0.998534, 193, 195, 256, 210
-0.998536, 353, 133, 384, 148
-0.998537, 1, 161, 64, 176
-0.998541, 185, 209, 248, 224
-0.998543, 217, 219, 280, 234
-0.998545, 45, 65, 76, 320
-0.998545, 25, 139, 56, 154
-0.998546, 225, 219, 256, 234
-0.998548, 405, 175, 436, 190
-0.998551, 193, 223, 256, 238
-0.998554, 289, 187, 352, 202
-0.998555, 41, 149, 104, 164
-0.998557, 233, 97, 296, 160
-0.998558, 361, 139, 424, 154
-0.99856, 321, 157, 384, 172
-0.998562, 9, 145, 40, 160
-0.998563, 217, 195, 280, 210
-0.998563, 5, 139, 36, 154
-0.998565, 337, 173, 400, 188
-0.998567, 337, 151, 400, 166
-0.998567, 241, 185, 304, 200
-0.998568, 321, 163, 384, 178
-0.99857, 25, 147, 56, 162
-0.998571, 73, 183, 104, 198
-0.998571, 153, 219, 216, 234
-0.998573, 49, 143, 80, 158
-0.998576, 73, 205, 136, 220
-0.998577, 369, 173, 432, 188
-0.998577, 289, 155, 352, 170
-0.998577, 209, 201, 272, 216
-0.998577, 57, 317, 120, 332
-0.998578, 65, 193, 128, 208
-0.998579, 265, 181, 328, 196
-0.998583, 5, 153, 36, 168
-0.998583, 205, 199, 236, 214
-0.998583, 49, 159, 112, 174
-0.998585, 113, 179, 176, 194
-0.998585, 105, 203, 168, 218
-0.998586, 17, 135, 80, 150
-0.998589, 217, 183, 280, 198
-0.998589, 1, 305, 64, 320
-0.998589, 113, 65, 144, 320
-0.998589, 325, 181, 356, 196
-0.998595, 177, 219, 208, 234
-0.998596, 89, 179, 152, 194
-0.998596, 73, 199, 136, 214
-0.998599, 369, 185, 432, 200
-0.9986, 297, 161, 360, 176
-0.998602, 305, 141, 368, 156
-0.998603, 305, 193, 368, 208
-0.998604, 321, 33, 384, 160
-0.998605, 177, 181, 240, 196
-0.998608, 153, 225, 216, 240
-0.998612, 401, 179, 464, 194
-0.998613, 185, 193, 216, 208
-0.998614, 137, 191, 200, 206
-0.998614, 57, 307, 120, 322
-0.998616, 273, 97, 400, 128
-0.998617, 233, 201, 296, 216
-0.998618, 217, 211, 280, 226
-0.998618, 41, 191, 104, 206
-0.998619, 29, 155, 60, 170
-0.998621, 313, 171, 376, 186
-0.998624, 289, 175, 352, 190
-0.998624, 289, 149, 352, 164
-0.998626, 353, 145, 416, 160
-0.998627, 345, 185, 408, 200
-0.998627, 41, 183, 104, 198
-0.998627, 217, 225, 280, 240
-0.99863, 49, 175, 112, 190
-0.99863, 137, 197, 200, 212
-0.998631, 129, 215, 192, 230
-0.998631, 409, 141, 472, 156
-0.998632, 297, 135, 360, 150
-0.998632, 433, 65, 464, 320
-0.998633, 33, 295, 96, 310
-0.998634, 329, 121, 392, 136
-0.998634, 177, 185, 208, 200
-0.998634, 377, 149, 440, 164
-0.998634, 345, 107, 408, 122
-0.998635, 49, 141, 112, 156
-0.998636, 393, 173, 456, 188
-0.998636, 425, 317, 488, 332
-0.998639, 1, 315, 64, 330
-0.998639, 97, 81, 352, 144
-0.998642, 17, 101, 144, 132
-0.998643, 345, 195, 408, 210
-0.998643, 33, 303, 96, 318
-0.998645, 353, 129, 416, 144
-0.998648, 265, 201, 328, 216
-0.998649, 129, 69, 256, 100
-0.99865, 353, 115, 416, 130
-0.998652, 281, 211, 344, 226
-0.998654, 297, 199, 360, 214
-0.998655, 9, 295, 72, 310
-0.998657, 305, 129, 368, 144
-0.998658, 25, 161, 88, 176
-0.99866, 89, 211, 152, 226
-0.998663, 1, 167, 64, 182
-0.998663, 81, 317, 144, 332
-0.998663, 113, 129, 240, 160
-0.998664, 353, 121, 416, 136
-0.998665, 417, 239, 480, 254
-0.998665, 241, 209, 304, 224
-0.998666, 153, 175, 216, 190
-0.998667, 89, 115, 152, 130
-0.998667, 393, 185, 456, 200
-0.998669, 321, 201, 384, 216
-0.99867, 25, 177, 88, 192
-0.998671, 49, 111, 112, 126
-0.998671, 273, 161, 336, 176
-0.998672, 305, 207, 368, 222
-0.998672, 409, 153, 472, 168
-0.998674, 241, 225, 368, 256
-0.998674, 289, 225, 416, 256
-0.998674, 121, 209, 184, 224
-0.998674, 385, 141, 448, 156
-0.998678, 105, 173, 168, 188
-0.998678, 113, 197, 176, 212
-0.998682, 25, 309, 88, 324
-0.998684, 17, 183, 80, 198
-0.998684, 265, 195, 328, 210
-0.998685, 369, 167, 432, 182
-0.998686, 57, 297, 120, 312
-0.998687, 89, 191, 152, 206
-0.998688, 65, 119, 128, 134
-0.99869, 49, 199, 112, 214
-0.998694, 65, 149, 128, 164
-0.998694, 241, 179, 304, 194
-0.998698, 361, 155, 424, 170
-0.9987, 281, 167, 344, 182
-0.998719, 129, 33, 160, 288
-0.998732, 369, 261, 496, 292
-0.998736, 17, 65, 48, 320
-0.998743, 1, 73, 256, 136
-0.998757, 305, 241, 432, 272
-0.998764, 355, 113, 370, 240
-0.998766, 1, 225, 128, 256
-0.99877, 193, 229, 320, 260
-0.998786, 49, 245, 176, 276
-0.998788, 161, 145, 288, 176
-0.998799, 69, 65, 100, 320
-0.99881, 209, 33, 240, 288
-0.998817, 145, 257, 208, 320
-0.99884, 289, 213, 416, 244
-0.998841, 347, 113, 362, 240
-0.998849, 49, 301, 176, 332
-0.998877, 229, 65, 260, 320
-0.998885, 209, 245, 336, 276
-0.998887, 33, 273, 288, 333
-0.998891, 333, 129, 348, 256
-0.998897, 97, 237, 224, 268
-0.998903, 369, 217, 496, 248
-0.998914, 333, 65, 364, 320
-0.998928, 217, 65, 280, 128
-0.998928, 393, 73, 456, 136
-0.998933, 257, 249, 384, 280
-0.998935, 401, 33, 432, 288
-0.998973, 113, 113, 240, 144
-0.998987, 433, 177, 464, 304
-0.998989, 245, 65, 276, 320
-0.999002, 363, 81, 378, 208
-0.999006, 1, 113, 500, 176
-0.999008, 277, 33, 308, 288
-0.999015, 305, 73, 432, 104
-0.999016, 1, 97, 256, 160
-0.999033, 337, 201, 464, 232
-0.999036, 457, 65, 488, 320
-0.999048, 177, 257, 304, 288
-0.99905, 325, 145, 340, 272
-0.999057, 29, 65, 60, 320
-0.99906, 161, 245, 288, 276
-0.999068, 49, 225, 176, 256
-0.999069, 339, 129, 354, 256
-0.99907, 177, 249, 240, 312
-0.999091, 1, 289, 128, 320
-0.999116, 369, 113, 384, 240
-0.999117, 233, 257, 296, 320
-0.999119, 113, 249, 240, 280
-0.999121, 353, 161, 368, 288
-0.999122, 345, 33, 408, 160
-0.999123, 261, 65, 292, 320
-0.999129, 123, 145, 138, 272
-0.999135, 181, 193, 196, 320
-0.999148, 117, 145, 132, 272
-0.99915, 93, 65, 124, 320
-0.999151, 33, 249, 288, 312
-0.99916, 101, 49, 132, 176
-0.999161, 321, 33, 352, 288
-0.999174, 129, 101, 256, 132
-0.999175, 393, 65, 424, 192
-0.999181, 111, 161, 126, 288
-0.999187, 209, 77, 336, 108
-0.999193, 191, 145, 206, 272
-0.999196, 141, 161, 156, 288
-0.999203, 39, 113, 54, 240
-0.999208, 129, 145, 144, 272
-0.999213, 175, 145, 190, 272
-0.999215, 193, 121, 320, 152
-0.999226, 319, 129, 334, 256
-0.999227, 181, 145, 196, 272
-0.999228, 363, 145, 378, 272
-0.999237, 149, 33, 180, 288
-0.999239, 241, 109, 368, 140
-0.99925, 257, 73, 384, 104
-0.99925, 289, 85, 416, 116
-0.99925, 189, 65, 220, 320
-0.999251, 63, 129, 78, 256
-0.999252, 257, 97, 500, 160
-0.999257, 205, 145, 220, 272
-0.999258, 249, 177, 264, 304
-0.999259, 5, 65, 36, 320
-0.999263, 135, 145, 150, 272
-0.999268, 337, 89, 464, 120
-0.999272, 65, 105, 192, 136
-0.999272, 161, 233, 416, 296
-0.999283, 297, 129, 312, 256
-0.999284, 311, 161, 326, 288
-0.999285, 197, 177, 212, 304
-0.999287, 293, 177, 308, 304
-0.999287, 147, 161, 162, 288
-0.999289, 65, 81, 192, 112
-0.999289, 353, 65, 368, 192
-0.999291, 231, 177, 246, 304
-0.999292, 285, 161, 300, 288
-0.999292, 131, 97, 146, 224
-0.999297, 31, 113, 46, 240
-0.9993, 445, 33, 476, 288
-0.9993, 321, 261, 448, 292
-0.99931, 255, 145, 270, 272
-0.999314, 1, 253, 128, 284
-0.999314, 169, 161, 184, 288
-0.999317, 305, 161, 320, 288
-0.999321, 45, 129, 60, 256
-0.999321, 389, 33, 420, 288
-0.999322, 57, 65, 88, 320
-0.999324, 177, 65, 304, 96
-0.999325, 279, 161, 294, 288
-0.999325, 239, 177, 254, 304
-0.999327, 273, 177, 288, 304
-0.999329, 211, 113, 226, 240
-0.99933, 163, 161, 178, 288
-0.999331, 267, 161, 282, 288
-0.999343, 261, 161, 276, 288
-0.999345, 153, 161, 168, 288
-0.999345, 427, 129, 442, 256
-0.999349, 105, 161, 120, 288
-0.999351, 373, 65, 388, 192
-0.99936, 85, 129, 100, 256
-0.999369, 65, 257, 192, 288
-0.99937, 91, 129, 106, 256
-0.999374, 111, 113, 126, 240
-0.999375, 187, 193, 202, 320
-0.999378, 19, 113, 34, 240
-0.999389, 347, 161, 362, 288
-0.99939, 79, 129, 94, 256
-0.999392, 25, 113, 40, 240
-0.999393, 353, 77, 480, 108
-0.999399, 117, 97, 132, 224
-0.9994, 223, 145, 238, 272
-0.999402, 293, 65, 324, 320
-0.999404, 291, 129, 306, 256
-0.999406, 257, 237, 384, 268
-0.999406, 53, 113, 68, 240
-0.999408, 97, 57, 352, 120
-0.999412, 97, 129, 112, 256
-0.999414, 175, 193, 190, 320
-0.999416, 13, 113, 28, 240
-0.999418, 299, 177, 314, 304
-0.999429, 81, 33, 112, 288
-0.999431, 245, 65, 276, 192
-0.999433, 85, 177, 100, 304
-0.999442, 123, 97, 138, 224
-0.999448, 339, 81, 354, 208
-0.999449, 247, 129, 262, 256
-0.999454, 217, 145, 232, 272
-0.999459, 273, 129, 288, 256
-0.999461, 277, 65, 308, 192
-0.999462, 39, 65, 54, 192
-0.999462, 137, 97, 152, 224
-0.999465, 197, 129, 212, 256
-0.999475, 257, 261, 384, 292
-0.999481, 305, 33, 336, 288
-0.999483, 433, 129, 448, 256
-0.999495, 49, 69, 176, 100
-0.999497, 375, 113, 390, 240
-0.999499, 135, 193, 150, 320
-0.999499, 61, 81, 76, 208
-0.9995, 105, 113, 120, 240
-0.9995, 225, 193, 240, 320
-0.999501, 73, 113, 88, 240
-0.999501, 203, 193, 218, 320
-0.999504, 419, 129, 434, 256
-0.999508, 129, 81, 256, 112
-0.999509, 285, 113, 300, 240
-0.99951, 289, 257, 352, 320
-0.999514, 125, 193, 140, 320
-0.999516, 255, 193, 270, 320
-0.999516, 239, 129, 254, 256
-0.999517, 331, 177, 346, 304
-0.999522, 337, 17, 464, 144
-0.999523, 317, 177, 332, 304
-0.999524, 25, 65, 40, 192
-0.999527, 229, 129, 244, 256
-0.999529, 345, 65, 360, 192
-0.999532, 79, 177, 94, 304
-0.999533, 423, 81, 438, 208
-0.999535, 327, 97, 342, 224
-0.99954, 307, 113, 322, 240
-0.99954, 143, 113, 158, 240
-0.999543, 289, 41, 416, 104
-0.99955, 333, 81, 348, 208
-0.999553, 219, 193, 234, 320
-0.999558, 119, 193, 134, 320
-0.999563, 313, 113, 328, 240
-0.999563, 263, 113, 278, 240
-0.999565, 337, 177, 352, 304
-0.999565, 381, 65, 396, 192
-0.999575, 7, 113, 22, 240
-0.999579, 47, 81, 62, 208
-0.999582, 129, 57, 256, 88
-0.999583, 313, 65, 344, 192
-0.999584, 37, 161, 52, 288
-0.999586, 75, 157, 90, 172
-0.999589, 25, 151, 40, 166
-0.999589, 93, 181, 108, 196
-0.999589, 239, 195, 254, 210
-0.99959, 307, 183, 322, 198
-0.999591, 25, 163, 40, 178
-0.999591, 425, 155, 440, 170
-0.999592, 45, 155, 60, 170
-0.999592, 359, 101, 374, 116
-0.999593, 231, 189, 246, 204
-0.999593, 411, 181, 426, 196
-0.999593, 219, 201, 234, 216
-0.999594, 425, 141, 440, 156
-0.999595, 21, 157, 36, 172
-0.999595, 233, 195, 248, 210
-0.999596, 189, 217, 204, 232
-0.999596, 211, 177, 226, 304
-0.999596, 379, 179, 394, 194
-0.999597, 343, 175, 358, 190
-0.999597, 353, 133, 368, 148
-0.999598, 417, 169, 432, 184
-0.999598, 53, 65, 68, 192
-0.999599, 87, 181, 102, 196
-0.9996, 71, 151, 86, 166
-0.9996, 165, 199, 180, 214
-0.9996, 333, 137, 348, 152
-0.9996, 321, 151, 336, 166
-0.999601, 339, 145, 354, 160
-0.999603, 427, 179, 442, 194
-0.999604, 83, 157, 98, 172
-0.999604, 219, 217, 234, 232
-0.999604, 365, 121, 380, 136
-0.999604, 279, 113, 294, 240
-0.999605, 231, 217, 246, 232
-0.999605, 1, 81, 16, 208
-0.999606, 11, 305, 26, 320
-0.999606, 35, 147, 50, 162
-0.999606, 353, 115, 368, 130
-0.999606, 199, 215, 214, 230
-0.999606, 351, 181, 366, 196
-0.999606, 95, 197, 110, 212
-0.999606, 43, 163, 58, 178
-0.999607, 181, 217, 196, 232
-0.999607, 321, 163, 336, 178
-0.999607, 213, 199, 228, 214
-0.999608, 433, 143, 448, 158
-0.999608, 413, 113, 428, 240
-0.999609, 17, 89, 144, 120
-0.999609, 259, 187, 274, 202
-0.999609, 91, 177, 106, 304
-0.999609, 325, 185, 340, 200
-0.999609, 369, 115, 384, 130
-0.999611, 71, 191, 86, 206
-0.999612, 15, 153, 30, 168
-0.999613, 249, 217, 264, 232
-0.999613, 373, 137, 388, 152
-0.999613, 295, 181, 310, 196
-0.999614, 301, 187, 316, 202
-0.999614, 199, 193, 214, 208
-0.999615, 355, 121, 370, 136
-0.999615, 345, 147, 360, 162
-0.999615, 313, 187, 328, 202
-0.999615, 371, 105, 386, 120
-0.999616, 333, 161, 348, 176
-0.999616, 485, 261, 500, 276
-0.999616, 29, 313, 44, 328
-0.999618, 271, 185, 286, 200
-0.99962, 71, 185, 86, 200
-0.99962, 93, 317, 108, 332
-0.999621, 271, 191, 286, 206
-0.999621, 461, 65, 476, 192
-0.999624, 457, 239, 472, 254
-0.999624, 289, 185, 304, 200
-0.999624, 349, 125, 364, 140
-0.999626, 9, 153, 24, 168
-0.999626, 159, 207, 174, 222
-0.999627, 321, 177, 336, 192
-0.999627, 205, 97, 220, 224
-0.999627, 187, 209, 202, 224
-0.999628, 363, 109, 378, 124
-0.999628, 395, 175, 410, 190
-0.999629, 429, 81, 444, 208
-0.999629, 419, 161, 434, 176
-0.999629, 1, 139, 16, 154
-0.99963, 203, 205, 218, 220
-0.999631, 343, 127, 358, 142
-0.999632, 327, 147, 342, 162
-0.999633, 337, 155, 352, 170
-0.999633, 349, 139, 364, 154
-0.999634, 425, 149, 440, 164
-0.999636, 161, 33, 192, 288
-0.999636, 339, 133, 354, 148
-0.999636, 385, 129, 400, 256
-0.999637, 295, 187, 310, 202
-0.99964, 51, 137, 66, 152
-0.99964, 31, 305, 46, 320
-0.999641, 471, 65, 486, 192
-0.999642, 181, 97, 196, 224
-0.999642, 265, 65, 328, 128
-0.999643, 239, 189, 254, 204
-0.999645, 173, 183, 188, 198
-0.999646, 323, 193, 338, 320
-0.999646, 67, 81, 82, 208
-0.999647, 369, 189, 496, 220
-0.99965, 401, 175, 416, 190
-0.99965, 59, 139, 74, 154
-0.99965, 197, 209, 212, 224
-0.999652, 373, 193, 388, 320
-0.999652, 317, 157, 332, 172
-0.999652, 97, 81, 112, 208
-0.999653, 411, 169, 426, 184
-0.999653, 465, 113, 480, 240
-0.999653, 361, 193, 376, 320
-0.999654, 19, 65, 34, 192
-0.999654, 177, 193, 192, 208
-0.999656, 319, 183, 334, 198
-0.999656, 365, 103, 380, 118
-0.999657, 33, 155, 48, 170
-0.999657, 167, 113, 182, 240
-0.999657, 21, 161, 36, 288
-0.999658, 41, 145, 56, 160
-0.999658, 421, 179, 436, 194
-0.999658, 91, 81, 106, 208
-0.999659, 7, 145, 22, 160
-0.99966, 469, 33, 500, 288
-0.99966, 181, 205, 196, 220
-0.999661, 265, 187, 280, 202
-0.999661, 29, 161, 44, 288
-0.999662, 327, 179, 342, 194
-0.999666, 31, 139, 46, 154
-0.999666, 171, 205, 186, 220
-0.999666, 19, 143, 34, 158
-0.999673, 407, 175, 422, 190
-0.999678, 39, 155, 54, 170
-0.999679, 345, 133, 360, 148
-0.999679, 23, 313, 38, 328
-0.999679, 77, 183, 92, 198
-0.999681, 41, 139, 56, 154
-0.999681, 343, 181, 358, 196
-0.999682, 65, 157, 192, 188
-0.999683, 415, 175, 430, 190
-0.999683, 1, 17, 128, 144
-0.999684, 25, 139, 40, 154
-0.999685, 51, 143, 66, 158
-0.999688, 15, 137, 30, 152
-0.999689, 193, 191, 208, 206
-0.99969, 25, 145, 40, 160
-0.999692, 189, 185, 204, 200
-0.999692, 201, 249, 264, 312
-0.999692, 183, 191, 198, 206
-0.999693, 7, 139, 22, 154
-0.999693, 327, 155, 342, 170
-0.999695, 341, 139, 356, 154
-0.999696, 81, 93, 208, 124
-0.999703, 99, 315, 114, 330
-0.999708, 333, 145, 348, 160
-0.999711, 337, 181, 352, 196
-0.999721, 27, 157, 42, 172
-0.999725, 207, 199, 222, 214
-0.999734, 13, 143, 28, 158
-0.999737, 193, 273, 320, 333
-0.99974, 1, 69, 128, 100
-0.999748, 179, 199, 194, 214
-0.99976, 273, 233, 336, 296
-0.99978, 177, 33, 208, 288
-0.999807, 183, 185, 198, 200
-0.999867, 17, 57, 80, 120
-0.999876, 165, 65, 196, 192
-0.999957, 49, 57, 176, 88
-0.999957, 305, 61, 432, 92
-0.999965, 161, 257, 416, 320
-0.999967, 209, 93, 336, 124
-0.999984, 49, 289, 176, 320
-0.999989, 353, 65, 480, 96
-1.00001, 257, 257, 500, 320
-1.00002, 337, 301, 464, 332
-1.00003, 97, 301, 224, 332
-1.00006, 129, 269, 256, 300
-1.00006, 321, 249, 384, 312
-1.00008, 377, 257, 440, 320
-1.00009, 397, 161, 428, 288
-1.0001, 177, 33, 304, 96
-1.0001, 33, 273, 160, 304
-1.00011, 193, 109, 320, 140
-1.00012, 261, 65, 292, 192
-1.00013, 257, 257, 320, 320
-1.00019, 177, 269, 304, 300
-1.00023, 257, 61, 384, 92
-1.00024, 1, 49, 256, 112
-1.00024, 289, 273, 416, 333
-1.00025, 81, 273, 208, 304
-1.00027, 273, 273, 400, 304
-1.0003, 1, 233, 500, 296
-1.00032, 337, 273, 464, 304
-1.00034, 225, 273, 352, 304
-1.00042, 49, 57, 112, 120
-1.00043, 129, 45, 256, 76
-1.00046, 193, 41, 448, 104
-1.00046, 209, 53, 336, 84
-1.00054, 217, 41, 280, 104
-1.00062, 1, 57, 128, 88
-1.00063, 209, 33, 272, 160
-1.00069, 81, 45, 208, 76
-1.00072, 369, 53, 496, 84
-1.00074, 325, 49, 356, 176
-1.00075, 241, 49, 304, 112
-1.00077, 1, 73, 500, 136
-1.00078, 353, 257, 416, 320
-1.00079, 305, 49, 432, 80
-1.00087, 97, 289, 224, 320
-1.00088, 49, 209, 112, 333
-1.00116, 89, 17, 152, 144
-1.00128, 65, 25, 192, 88
-1.00128, 97, 33, 352, 96
-1.00133, 337, 33, 368, 160
-1.0014, 469, 129, 500, 256
-1.00144, 361, 209, 392, 333
-1.00146, 225, 33, 352, 96
-1.00158, 409, 193, 440, 320
-1.00161, 273, 1, 400, 128
-1.00176, 1, 49, 500, 112
-1.00177, 301, 65, 332, 192
-1.00182, 85, 209, 116, 333
-1.00182, 129, 17, 256, 80
-1.00183, 1, 257, 500, 320
-1.00185, 1, 25, 256, 88
-1.00197, 161, 1, 224, 128
-1.0021, 129, 1, 384, 64
-1.00213, 257, 1, 500, 64
-1.00217, 1, 1, 256, 64
-1.00218, 29, 177, 60, 304
-1.00228, 9, 209, 40, 333
-1.0023, 445, 161, 476, 288
-1.00235, 113, 33, 144, 160
-1.0024, 389, 209, 420, 333
-1.00256, 1, 25, 128, 88
-1.00265, 133, 17, 164, 144
-1.00267, 273, 17, 400, 80
-1.00269, 369, 25, 496, 88
-1.00283, 337, 1, 464, 64
-1.00287, 49, 1, 176, 64
-1.00293, 1, 1, 128, 64
-1.00295, 193, 9, 320, 72
-1.00303, 69, 33, 100, 160
-1.00332, 225, 33, 256, 160
-1.00347, 173, 17, 204, 144
-1.00348, 209, 17, 240, 144
-1.00372, 33, 17, 96, 144
-1.00373, 289, 49, 320, 176
-1.00386, 369, 17, 400, 144
-1.00391, 1, 1, 256, 128
-1.00392, 1, 9, 500, 72
-1.00392, 393, 1, 424, 128
-1.00395, 57, 17, 120, 144
-1.00405, 57, 17, 88, 144
-1.00428, 465, 1, 496, 128
-1.00433, 113, 1, 240, 128
-1.00458, 421, 33, 452, 160
-1.00485, 449, 17, 480, 144
-1.00541, 265, 33, 328, 160
-1.00577, 121, 1, 184, 128
-1.00626, 425, 17, 488, 144
-1.00665, 233, 17, 296, 144
-1.00701, 401, 17, 464, 144
-1.0071, 185, 1, 248, 128
-1.01009, 289, 1, 352, 128
