1890
-0.436402, 257, 1, 500, 333
-0.575214, 1, 65, 500, 320
-0.634847, 1, 1, 500, 333
-0.729845, 257, 65, 500, 320
-0.738725, 129, 1, 384, 333
-0.799818, 33, 1, 288, 333
-0.805315, 129, 65, 384, 320
-0.863741, 321, 1, 448, 333
-0.882686, 369, 1, 496, 333
-0.911892, 1, 209, 256, 333
-0.912042, 33, 65, 288, 320
-0.912841, 1, 209, 500, 333
-0.917213, 305, 65, 432, 320
-0.920942, 225, 1, 352, 333
-0.926102, 369, 65, 496, 320
-0.928471, 65, 65, 192, 320
-0.928924, 273, 1, 400, 333
-0.932224, 1, 161, 500, 288
-0.933155, 257, 65, 384, 320
-0.934004, 1, 81, 500, 208
-0.935263, 129, 209, 384, 333
-0.935686, 305, 49, 432, 176
-0.940499, 1, 1, 128, 333
-0.941188, 305, 65, 368, 192
-0.941527, 257, 193, 500, 320
-0.942054, 1, 33, 500, 160
-0.943626, 113, 1, 240, 333
-0.943889, 81, 193, 208, 320
-0.944196, 257, 81, 500, 208
-0.945579, 65, 161, 320, 288
-0.947377, 145, 65, 272, 320
-0.948419, 17, 209, 144, 333
-0.95082, 345, 49, 408, 176
-0.950995, 89, 177, 152, 304
-0.952507, 33, 193, 96, 320
-0.953036, 297, 89, 360, 152
-0.953354, 17, 65, 144, 320
-0.953831, 65, 1, 192, 333
-0.954019, 257, 33, 500, 160
-0.954314, 369, 17, 496, 144
-0.955367, 257, 145, 500, 272
-0.955471, 369, 65, 496, 192
-0.955966, 305, 113, 368, 240
-0.956806, 393, 65, 456, 192
-0.957134, 129, 209, 256, 333
-0.957389, 369, 49, 432, 176
-0.957986, 113, 209, 176, 333
-0.958276, 393, 1, 456, 128
-0.958276, 369, 129, 496, 256
-0.958464, 385, 97, 448, 160
-0.958847, 121, 161, 184, 288
-0.959865, 193, 65, 320, 320
-0.96, 305, 17, 368, 144
-0.960321, 305, 177, 432, 304
-0.960465, 305, 97, 432, 224
-0.960814, 345, 97, 408, 224
-0.961058, 161, 161, 416, 288
-0.961167, 153, 249, 216, 312
-0.961983, 345, 97, 408, 160
-0.962205, 81, 177, 144, 240
-0.962571, 257, 81, 384, 208
-0.962881, 161, 1, 288, 333
-0.963275, 417, 81, 480, 208
-0.963506, 57, 193, 120, 320
-0.963589, 321, 1, 448, 128
-0.963683, 241, 209, 368, 333
-0.963821, 33, 161, 160, 288
-0.963919, 281, 65, 344, 192
-0.964359, 409, 89, 472, 152
-0.964363, 49, 209, 112, 272
-0.964635, 161, 113, 416, 240
-0.964744, 153, 209, 216, 333
-0.965099, 281, 193, 344, 320
-0.965446, 369, 97, 432, 224
-0.966499, 9, 209, 72, 333
-0.967385, 369, 177, 496, 304
-0.967683, 329, 65, 392, 128
-0.967849, 161, 1, 416, 128
-0.96816, 329, 121, 392, 184
-0.968868, 401, 57, 464, 120
-0.969149, 193, 209, 320, 333
-0.969409, 161, 65, 416, 192
-0.970302, 369, 121, 432, 184
-0.970453, 369, 57, 432, 120
-0.970584, 25, 217, 88, 280
-0.97063, 281, 209, 344, 272
-0.970772, 273, 1, 400, 128
-0.970884, 393, 121, 456, 184
-0.971616, 105, 217, 168, 280
-0.971728, 305, 193, 368, 320
-0.972284, 113, 161, 176, 224
-0.972501, 185, 225, 248, 288
-0.972683, 17, 249, 80, 312
-0.972877, 321, 89, 384, 152
-0.973023, 417, 121, 480, 184
-0.973074, 433, 89, 496, 152
-0.973298, 201, 209, 264, 333
-0.974229, 1, 225, 64, 288
-0.975099, 433, 33, 496, 160
-0.975153, 393, 113, 456, 240
-0.975287, 313, 65, 344, 192
-0.975856, 81, 217, 208, 280
-0.975864, 57, 233, 120, 296
-0.975923, 425, 57, 488, 120
-0.976031, 325, 89, 356, 152
-0.976072, 401, 241, 464, 304
-0.976105, 369, 1, 432, 128
-0.976123, 177, 209, 240, 333
-0.976141, 321, 57, 448, 120
-0.9764, 321, 249, 384, 312
-0.976454, 305, 65, 368, 128
-0.97663, 321, 81, 448, 144
-0.976779, 329, 1, 392, 128
-0.976814, 417, 97, 448, 160
-0.976816, 17, 209, 144, 272
-0.976833, 417, 129, 480, 256
-0.977197, 305, 113, 368, 176
-0.977225, 361, 177, 424, 304
-0.977253, 81, 145, 208, 272
-0.977457, 281, 233, 344, 296
-0.97755, 145, 241, 272, 304
-0.977624, 333, 65, 364, 192
-0.97781, 129, 257, 192, 320
-0.978062, 65, 145, 128, 272
-0.978126, 257, 161, 384, 288
-0.978609, 273, 89, 400, 152
-0.978618, 109, 177, 140, 304
-0.97866, 241, 241, 304, 304
-0.978683, 385, 17, 448, 80
-0.97886, 145, 161, 208, 288
-0.978895, 429, 105, 460, 168
-0.978899, 65, 169, 192, 232
-0.97897, 369, 97, 496, 160
-0.979232, 241, 233, 368, 296
-0.979409, 225, 17, 352, 144
-0.979478, 345, 41, 408, 104
-0.97948, 313, 65, 376, 320
-0.979573, 157, 257, 188, 320
-0.979609, 185, 257, 248, 320
-0.979807, 337, 193, 400, 320
-0.980432, 405, 97, 436, 160
-0.980441, 81, 233, 144, 296
-0.980559, 129, 161, 256, 288
-0.980627, 429, 81, 460, 144
-0.980637, 257, 193, 320, 320
-0.9807, 65, 193, 96, 320
-0.980727, 373, 49, 404, 112
-0.980782, 129, 209, 192, 272
-0.980805, 345, 257, 408, 320
-0.980854, 401, 1, 464, 333
-0.980969, 361, 233, 424, 296
-0.981048, 313, 81, 344, 144
-0.981095, 305, 217, 368, 280
-0.98115, 385, 49, 416, 176
-0.981156, 369, 1, 432, 333
-0.981258, 369, 129, 496, 192
-0.981351, 85, 217, 116, 280
-0.98137, 153, 273, 216, 333
-0.981433, 429, 81, 460, 208
-0.981441, 121, 185, 184, 248
-0.981465, 49, 193, 80, 320
-0.981486, 433, 177, 496, 304
-0.981496, 337, 121, 368, 184
-0.981545, 1, 249, 128, 312
-0.981583, 37, 217, 68, 280
-0.981667, 81, 193, 208, 256
-0.981713, 57, 177, 120, 240
-0.981757, 49, 241, 176, 304
-0.98193, 329, 145, 392, 272
-0.981988, 105, 249, 168, 312
-0.981995, 273, 81, 336, 144
-0.982067, 337, 81, 368, 144
-0.982134, 305, 185, 368, 248
-0.982446, 433, 185, 496, 248
-0.982446, 73, 209, 136, 272
-0.982509, 177, 241, 208, 304
-0.982586, 401, 121, 432, 184
-0.982599, 321, 113, 448, 176
-0.98264, 301, 209, 332, 272
-0.98278, 373, 89, 404, 152
-0.982876, 257, 209, 320, 272
-0.982938, 385, 113, 416, 176
-0.983133, 217, 241, 280, 304
-0.983337, 353, 89, 384, 152
-0.983369, 97, 185, 128, 248
-0.983373, 297, 33, 360, 96
-0.983387, 209, 161, 336, 288
-0.98339, 129, 265, 256, 328
-0.983545, 425, 1, 488, 333
-0.983619, 345, 161, 408, 224
-0.983665, 377, 257, 440, 320
-0.983699, 353, 249, 480, 312
-0.983959, 373, 121, 404, 184
-0.983973, 417, 209, 480, 272
-0.984058, 313, 17, 344, 144
-0.984073, 217, 217, 280, 280
-0.984311, 433, 57, 464, 120
-0.984399, 273, 49, 400, 112
-0.984406, 153, 225, 216, 288
-0.984419, 177, 217, 304, 280
-0.984538, 81, 209, 112, 333
-0.984555, 417, 81, 448, 208
-0.984563, 409, 177, 472, 304
-0.984633, 393, 145, 456, 208
-0.985107, 225, 209, 288, 333
-0.985146, 369, 57, 496, 120
-0.985268, 9, 161, 72, 288
-0.985381, 333, 17, 364, 144
-0.985385, 301, 81, 332, 144
-0.985394, 121, 113, 184, 240
-0.985497, 157, 209, 188, 333
-0.985499, 281, 1, 344, 128
-0.985506, 17, 177, 144, 240
-0.985516, 401, 97, 432, 224
-0.9856, 369, 25, 496, 88
-0.985621, 337, 113, 368, 240
-0.98572, 281, 113, 344, 240
-0.985759, 109, 169, 140, 232
-0.985819, 373, 49, 404, 176
-0.985841, 33, 193, 64, 320
-0.985914, 469, 201, 500, 264
-0.985948, 381, 97, 412, 224
-0.986086, 413, 1, 444, 128
-0.98613, 301, 65, 332, 192
-0.986144, 97, 161, 128, 288
-0.986185, 425, 249, 488, 312
-0.986348, 97, 241, 224, 304
-0.986439, 401, 1, 432, 128
-0.986501, 353, 65, 384, 192
-0.986513, 417, 73, 448, 136
-0.986563, 385, 89, 416, 152
-0.986569, 225, 209, 352, 272
-0.986581, 25, 225, 56, 288
-0.986675, 305, 217, 432, 280
-0.986712, 9, 273, 72, 333
-0.986725, 397, 49, 428, 176
-0.986747, 121, 161, 152, 288
-0.986757, 193, 241, 320, 304
-0.986936, 305, 257, 432, 320
-0.987055, 309, 193, 340, 320
-0.987106, 65, 265, 192, 328
-0.987276, 21, 209, 52, 333
-0.987319, 313, 209, 344, 272
-0.987335, 145, 161, 176, 288
-0.987427, 337, 65, 400, 320
-0.987441, 13, 241, 44, 304
-0.987489, 469, 193, 500, 320
-0.987507, 329, 1, 392, 64
-0.987626, 369, 169, 496, 232
-0.987679, 333, 249, 364, 312
-0.987685, 397, 65, 428, 128
-0.987745, 449, 97, 480, 160
-0.987757, 425, 25, 488, 88
-0.987775, 305, 193, 432, 256
-0.987804, 97, 233, 128, 296
-0.987881, 129, 217, 256, 280
-0.987897, 425, 161, 488, 224
-0.987919, 189, 225, 220, 288
-0.987988, 433, 129, 464, 192
-0.98799, 321, 137, 448, 200
-0.988054, 265, 185, 328, 248
-0.988078, 73, 209, 104, 272
-0.988085, 105, 209, 136, 272
-0.988132, 137, 209, 168, 333
-0.988197, 117, 209, 148, 272
-0.988311, 413, 241, 444, 304
-0.988346, 353, 113, 384, 176
-0.988375, 369, 193, 496, 256
-0.988389, 289, 25, 416, 88
-0.9884, 321, 25, 384, 88
-0.988452, 189, 257, 220, 320
-0.98848, 49, 209, 80, 272
-0.988589, 417, 121, 448, 184
-0.988603, 81, 161, 112, 288
-0.988749, 29, 249, 60, 312
-0.988874, 209, 209, 240, 333
-0.988988, 153, 193, 216, 256
-0.989075, 137, 257, 168, 320
-0.989089, 85, 249, 116, 312
-0.989106, 377, 177, 440, 240
-0.989154, 369, 117, 432, 148
-0.989188, 289, 1, 416, 64
-0.989211, 153, 253, 216, 284
-0.98922, 317, 57, 348, 120
-0.989225, 81, 65, 144, 320
-0.989239, 385, 57, 416, 120
-0.989256, 353, 225, 480, 288
-0.989334, 273, 121, 400, 184
-0.98935, 401, 85, 464, 116
-0.989378, 345, 1, 408, 333
-0.989385, 393, 121, 456, 152
-0.989456, 61, 201, 92, 264
-0.989461, 1, 185, 64, 248
-0.989462, 65, 257, 128, 320
-0.989499, 385, 177, 448, 304
-0.989536, 305, 81, 368, 112
-0.989604, 209, 65, 336, 192
-0.989676, 329, 117, 392, 148
-0.989691, 85, 169, 116, 232
-0.989704, 353, 257, 384, 320
-0.989741, 113, 169, 240, 232
-0.989757, 273, 57, 336, 120
-0.989837, 225, 89, 352, 152
-0.989861, 361, 85, 424, 116
-0.989892, 361, 49, 392, 112
-0.989978, 393, 105, 456, 136
-0.99011, 329, 209, 392, 272
-0.990111, 369, 97, 400, 224
-0.990133, 89, 205, 152, 236
-0.990136, 377, 25, 408, 88
-0.990142, 417, 125, 480, 156
-0.990234, 445, 65, 476, 192
-0.990241, 121, 169, 152, 232
-0.99029, 397, 257, 428, 320
-0.990309, 69, 249, 100, 312
-0.99031, 49, 213, 112, 244
-0.990378, 369, 53, 432, 84
-0.990384, 169, 193, 200, 320
-0.990395, 225, 265, 288, 328
-0.9904, 53, 249, 84, 312
-0.990405, 345, 105, 408, 136
-0.99042, 305, 161, 432, 224
-0.990459, 417, 65, 480, 320
-0.99048, 269, 193, 300, 320
-0.990577, 193, 209, 224, 333
-0.990632, 409, 249, 472, 280
-0.990639, 361, 17, 424, 80
-0.99067, 369, 97, 432, 128
-0.990692, 305, 113, 368, 144
-0.990704, 157, 161, 188, 288
-0.99073, 133, 161, 164, 288
-0.990893, 385, 137, 416, 200
-0.990909, 297, 101, 360, 132
-0.990959, 329, 81, 392, 112
-0.990965, 425, 17, 456, 144
-0.990966, 281, 229, 344, 260
-0.990994, 65, 233, 128, 264
-0.990999, 181, 209, 212, 333
-0.991036, 369, 129, 432, 160
-0.991078, 389, 177, 420, 304
-0.991083, 157, 233, 188, 296
-0.991098, 105, 245, 168, 276
-0.991099, 297, 1, 360, 333
-0.991099, 305, 161, 368, 224
-0.991128, 65, 217, 320, 280
-0.991139, 321, 253, 384, 284
-0.991169, 1, 241, 64, 272
-0.991189, 177, 217, 208, 280
-0.991218, 121, 209, 152, 333
-0.991219, 329, 93, 392, 124
-0.99125, 97, 217, 160, 248
-0.991255, 145, 193, 272, 256
-0.991292, 393, 133, 456, 164
-0.991295, 369, 193, 400, 320
-0.991297, 385, 65, 448, 96
-0.991305, 425, 101, 488, 132
-0.991307, 89, 129, 152, 256
-0.991343, 73, 193, 136, 224
-0.991343, 41, 249, 72, 312
-0.991346, 193, 265, 320, 328
-0.991367, 401, 53, 464, 84
-0.991387, 97, 161, 128, 224
-0.991392, 185, 257, 248, 288
-0.991399, 1, 257, 256, 320
-0.991441, 41, 257, 104, 320
-0.991458, 25, 249, 88, 280
-0.99146, 25, 225, 88, 256
-0.991467, 49, 201, 112, 232
-0.991533, 369, 65, 432, 320
-0.991536, 265, 209, 328, 240
-0.991538, 129, 257, 192, 288
-0.991559, 161, 233, 416, 296
-0.991562, 353, 249, 416, 280
-0.991565, 97, 169, 160, 200
-0.991575, 337, 129, 400, 160
-0.991615, 361, 261, 424, 292
-0.991617, 121, 165, 184, 196
-0.991628, 93, 209, 124, 333
-0.991689, 353, 69, 416, 100
-0.99169, 209, 249, 272, 280
-0.991695, 281, 81, 344, 112
-0.991741, 425, 85, 488, 116
-0.991752, 153, 265, 216, 296
-0.991754, 65, 253, 128, 284
-0.991757, 201, 257, 232, 320
-0.991793, 297, 213, 360, 244
-0.9918, 241, 241, 304, 272
-0.991841, 425, 137, 488, 168
-0.991846, 289, 209, 320, 272
-0.991853, 73, 173, 136, 204
-0.991861, 385, 245, 448, 276
-0.991877, 425, 57, 488, 88
-0.991882, 185, 229, 248, 260
-0.991905, 33, 145, 96, 272
-0.991915, 145, 241, 208, 272
-0.991925, 465, 129, 496, 256
-0.992011, 1, 273, 32, 333
-0.992031, 153, 285, 216, 316
-0.992033, 113, 269, 176, 300
-0.99204, 417, 229, 480, 260
-0.992091, 121, 213, 184, 244
-0.992101, 169, 161, 232, 288
-0.992103, 257, 89, 500, 152
-0.992119, 225, 65, 352, 128
-0.992129, 305, 241, 368, 272
-0.992143, 457, 193, 488, 320
-0.992171, 229, 249, 260, 312
-0.99219, 249, 241, 280, 304
-0.992207, 433, 113, 496, 144
-0.99221, 25, 237, 88, 268
-0.992263, 297, 201, 360, 232
-0.992302, 433, 241, 496, 272
-0.992313, 385, 17, 448, 48
-0.99232, 113, 197, 176, 228
-0.992323, 1, 289, 64, 320
-0.992326, 433, 205, 496, 236
-0.992335, 209, 221, 272, 252
-0.99237, 329, 65, 392, 96
-0.992385, 345, 53, 408, 84
-0.992407, 433, 185, 496, 216
-0.992408, 153, 297, 216, 328
-0.992426, 257, 257, 384, 320
-0.992436, 429, 125, 460, 156
-0.992443, 113, 281, 176, 312
-0.992451, 273, 241, 304, 304
-0.992477, 157, 257, 188, 288
-0.992495, 325, 121, 356, 184
-0.992501, 185, 241, 248, 272
-0.992514, 417, 85, 448, 116
-0.992521, 201, 225, 232, 288
-0.992567, 225, 217, 256, 280
-0.992592, 25, 213, 88, 244
-0.992605, 313, 129, 376, 160
-0.99262, 385, 261, 448, 292
-0.99262, 25, 193, 88, 256
-0.992627, 385, 121, 416, 152
-0.992628, 417, 121, 448, 152
-0.992631, 177, 245, 208, 276
-0.992636, 333, 113, 364, 144
-0.992644, 429, 85, 460, 116
-0.992658, 353, 157, 416, 188
-0.99266, 105, 257, 168, 288
-0.992672, 313, 81, 344, 112
-0.992681, 321, 1, 384, 333
-0.992698, 129, 233, 192, 296
-0.992712, 313, 105, 344, 168
-0.992725, 305, 209, 336, 240
-0.99273, 1, 301, 64, 332
-0.99273, 297, 69, 360, 100
-0.992748, 1, 205, 64, 236
-0.992749, 113, 185, 176, 216
-0.992749, 321, 225, 384, 256
-0.992752, 369, 141, 432, 172
-0.992773, 405, 133, 436, 164
-0.992784, 305, 57, 336, 120
-0.992785, 393, 41, 456, 72
-0.992797, 273, 1, 336, 333
-0.992797, 417, 245, 448, 276
-0.992801, 409, 101, 440, 132
-0.992833, 265, 241, 328, 272
-0.992833, 325, 129, 356, 256
-0.992833, 233, 253, 296, 284
-0.992852, 377, 49, 408, 80
-0.992857, 297, 33, 360, 64
-0.992863, 425, 73, 488, 104
-0.992864, 397, 85, 428, 116
-0.992865, 105, 169, 136, 200
-0.992869, 289, 125, 352, 156
-0.992878, 337, 181, 400, 212
-0.992881, 385, 85, 416, 116
-0.992886, 1, 225, 64, 256
-0.992889, 89, 233, 152, 264
-0.992897, 333, 97, 364, 128
-0.992897, 433, 45, 496, 76
-0.992904, 29, 225, 60, 256
-0.992911, 397, 121, 428, 152
-0.992916, 321, 197, 384, 228
-0.992922, 389, 49, 420, 80
-0.992928, 373, 117, 404, 148
-0.992928, 417, 137, 448, 168
-0.992932, 265, 197, 328, 228
-0.992938, 393, 145, 456, 176
-0.992942, 345, 117, 376, 148
-0.992943, 93, 237, 124, 268
-0.992951, 61, 201, 92, 232
-0.992964, 397, 97, 428, 128
-0.992965, 129, 257, 384, 320
-0.992969, 113, 297, 176, 328
-0.992974, 389, 1, 420, 128
-0.992982, 469, 189, 500, 220
-0.992992, 433, 101, 464, 132
-0.993006, 321, 101, 352, 132
-0.993006, 57, 153, 120, 216
-0.993009, 421, 105, 452, 136
-0.993012, 233, 217, 296, 248
-0.993022, 333, 85, 364, 116
-0.993024, 369, 105, 400, 136
-0.993025, 137, 197, 200, 228
-0.993031, 377, 189, 440, 220
-0.993036, 313, 225, 344, 256
-0.993051, 273, 93, 336, 124
-0.993057, 289, 1, 352, 256
-0.99306, 381, 101, 412, 132
-0.993066, 145, 209, 208, 240
-0.993069, 321, 233, 352, 296
-0.993078, 449, 125, 480, 156
-0.993091, 333, 249, 364, 280
-0.993103, 33, 249, 64, 280
-0.993114, 425, 241, 456, 304
-0.993122, 321, 213, 384, 244
-0.993125, 9, 265, 72, 296
-0.993125, 217, 161, 280, 288
-0.99315, 417, 217, 480, 248
-0.993152, 393, 261, 424, 292
-0.993156, 421, 49, 452, 112
-0.993158, 369, 85, 400, 116
-0.993161, 353, 105, 384, 136
-0.993162, 433, 53, 464, 84
-0.993165, 189, 253, 220, 284
-0.993167, 381, 69, 412, 100
-0.993171, 469, 201, 500, 232
-0.993172, 177, 233, 208, 264
-0.993177, 81, 213, 112, 244
-0.99318, 469, 213, 500, 244
-0.993183, 337, 265, 400, 296
-0.993184, 189, 229, 220, 260
-0.993187, 293, 217, 324, 248
-0.993196, 353, 257, 384, 288
-0.993198, 101, 189, 132, 220
-0.993199, 245, 245, 276, 276
-0.9932, 141, 265, 172, 296
-0.993201, 93, 253, 124, 284
-0.993215, 425, 173, 488, 204
-0.993217, 389, 25, 420, 88
-0.993217, 469, 129, 500, 192
-0.993227, 369, 69, 400, 100
-0.993237, 305, 137, 368, 200
-0.993243, 429, 249, 460, 280
-0.993247, 125, 197, 156, 228
-0.993247, 265, 69, 328, 100
-0.99325, 397, 109, 428, 140
-0.993251, 17, 237, 48, 268
-0.993256, 465, 177, 496, 240
-0.993263, 213, 253, 244, 284
-0.99327, 1, 253, 64, 284
-0.993281, 381, 253, 412, 284
-0.993282, 113, 201, 144, 232
-0.993284, 357, 121, 388, 152
-0.993287, 449, 85, 480, 116
-0.993288, 385, 233, 448, 264
-0.993288, 49, 209, 80, 240
-0.993288, 157, 245, 188, 276
-0.993291, 61, 253, 92, 284
-0.993292, 49, 253, 80, 284
-0.9933, 133, 253, 164, 284
-0.993305, 81, 253, 112, 284
-0.993306, 9, 277, 72, 308
-0.993306, 469, 129, 500, 160
-0.993307, 89, 177, 120, 208
-0.993308, 297, 185, 360, 216
-0.993314, 113, 181, 144, 212
-0.993315, 321, 245, 352, 276
-0.993327, 373, 265, 404, 296
-0.993334, 141, 277, 172, 308
-0.993334, 285, 233, 316, 264
-0.993335, 105, 245, 136, 276
-0.993336, 49, 241, 80, 272
-0.993337, 265, 241, 296, 272
-0.99334, 301, 81, 332, 112
-0.993342, 445, 121, 476, 184
-0.993342, 353, 93, 384, 124
-0.993343, 409, 73, 440, 104
-0.993345, 337, 129, 368, 160
-0.993345, 101, 201, 132, 232
-0.993348, 321, 49, 384, 80
-0.99335, 433, 137, 464, 168
-0.993351, 157, 281, 188, 312
-0.993351, 449, 245, 480, 276
-0.993352, 25, 201, 88, 232
-0.993353, 73, 221, 136, 252
-0.993357, 449, 113, 480, 144
-0.993358, 233, 249, 264, 280
-0.993362, 393, 61, 424, 92
-0.993366, 125, 165, 156, 196
-0.993367, 433, 73, 464, 104
-0.993367, 265, 253, 328, 284
-0.993368, 321, 113, 352, 144
-0.993372, 309, 101, 340, 132
-0.993383, 157, 269, 188, 300
-0.99339, 321, 157, 384, 188
-0.993407, 241, 229, 304, 260
-0.993407, 397, 73, 428, 104
-0.993409, 345, 237, 408, 268
-0.99341, 377, 137, 408, 168
-0.993414, 409, 17, 440, 48
-0.993419, 89, 225, 120, 256
-0.993421, 73, 201, 104, 232
-0.99343, 393, 133, 424, 164
-0.993431, 465, 225, 496, 256
-0.993434, 405, 257, 436, 288
-0.993436, 157, 293, 188, 324
-0.993439, 105, 213, 136, 244
-0.99344, 201, 257, 232, 288
-0.993446, 357, 65, 388, 96
-0.993446, 317, 209, 348, 240
-0.993447, 401, 49, 432, 80
-0.993447, 37, 213, 68, 244
-0.993456, 365, 257, 396, 320
-0.993457, 125, 209, 156, 240
-0.993458, 385, 189, 416, 220
-0.99346, 1, 281, 32, 312
-0.993461, 385, 265, 416, 328
-0.993462, 257, 81, 320, 112
-0.993462, 169, 201, 232, 232
-0.993465, 257, 17, 320, 144
-0.99347, 37, 237, 68, 268
-0.993471, 217, 265, 280, 296
-0.993472, 301, 229, 332, 260
-0.993476, 257, 121, 500, 184
-0.993477, 445, 233, 476, 264
-0.993477, 345, 245, 376, 276
-0.993479, 369, 41, 432, 72
-0.993479, 385, 157, 416, 188
-0.993485, 353, 81, 384, 112
-0.993486, 405, 241, 436, 272
-0.993488, 325, 29, 356, 60
-0.993489, 49, 165, 112, 196
-0.993489, 305, 173, 368, 204
-0.99349, 9, 225, 40, 256
-0.993491, 445, 97, 476, 128
-0.993491, 425, 13, 488, 44
-0.993499, 1, 293, 32, 324
-0.9935, 21, 213, 52, 244
-0.993505, 145, 165, 176, 196
-0.993507, 169, 257, 200, 288
-0.993515, 325, 125, 356, 156
-0.993537, 465, 225, 496, 288
-0.993537, 381, 241, 412, 304
-0.993581, 449, 241, 480, 304
-0.993583, 61, 225, 92, 288
-0.993588, 257, 177, 384, 240
-0.993613, 469, 81, 500, 208
-0.993701, 73, 185, 104, 248
-0.993719, 129, 193, 160, 256
-0.993736, 261, 217, 292, 280
-0.993754, 165, 209, 196, 272
-0.993756, 129, 65, 192, 320
-0.99376, 301, 17, 332, 144
-0.99379, 321, 209, 352, 333
-0.99382, 137, 217, 168, 280
-0.993844, 353, 233, 384, 296
-0.993906, 145, 253, 272, 284
-0.993957, 313, 185, 344, 248
-0.993999, 285, 233, 316, 296
-0.994038, 213, 249, 244, 312
-0.99405, 17, 273, 144, 333
-0.994063, 333, 57, 364, 120
-0.994119, 257, 217, 500, 280
-0.994141, 353, 113, 384, 240
-0.994171, 339, 89, 354, 152
-0.994253, 177, 1, 304, 128
-0.994261, 257, 65, 500, 128
-0.994287, 337, 1, 464, 64
-0.994305, 293, 193, 324, 320
-0.99433, 413, 17, 444, 80
-0.994368, 405, 145, 436, 208
-0.994391, 1, 65, 64, 320
-0.994416, 17, 145, 144, 208
-0.994435, 9, 193, 40, 320
-0.994445, 153, 177, 184, 240
-0.994486, 289, 85, 416, 116
-0.994506, 385, 217, 448, 280
-0.994589, 369, 121, 496, 152
-0.994596, 377, 49, 392, 112
-0.994624, 333, 217, 364, 280
-0.994637, 469, 153, 500, 216
-0.994642, 377, 1, 408, 128
-0.994653, 441, 97, 456, 160
-0.994734, 17, 225, 144, 256
-0.99476, 347, 89, 362, 152
-0.994763, 449, 65, 480, 128
-0.994768, 453, 217, 484, 280
-0.994772, 345, 193, 376, 320
-0.994801, 333, 193, 364, 320
-0.994859, 433, 25, 464, 88
-0.994861, 413, 209, 444, 333
-0.994898, 5, 217, 36, 280
-0.994899, 49, 65, 112, 320
-0.9949, 1, 185, 256, 248
-0.99493, 369, 145, 432, 208
-0.994994, 417, 145, 448, 208
-0.99502, 321, 121, 448, 152
-0.995031, 433, 81, 448, 144
-0.995046, 417, 97, 432, 160
-0.995046, 445, 65, 460, 128
-0.995054, 353, 185, 416, 248
-0.995067, 109, 129, 140, 256
-0.995125, 101, 233, 116, 296
-0.995126, 33, 205, 160, 236
-0.995136, 213, 225, 244, 288
-0.995144, 65, 245, 192, 276
-0.995174, 313, 81, 328, 144
-0.995205, 385, 185, 416, 248
-0.995213, 425, 81, 440, 144
-0.995218, 81, 217, 208, 248
-0.99525, 429, 105, 444, 168
-0.995278, 369, 105, 496, 136
-0.995356, 329, 81, 344, 144
-0.99538, 95, 225, 110, 288
-0.995385, 117, 169, 132, 232
-0.995388, 353, 17, 384, 144
-0.995389, 241, 241, 368, 272
-0.995412, 281, 161, 344, 224
-0.995457, 257, 257, 500, 320
-0.995465, 49, 1, 112, 333
-0.995476, 349, 113, 364, 176
-0.995487, 1, 249, 500, 312
-0.995519, 369, 137, 496, 168
-0.995547, 437, 249, 468, 312
-0.995555, 257, 209, 288, 333
-0.995562, 435, 105, 450, 168
-0.995588, 297, 233, 328, 296
-0.99559, 1, 113, 128, 240
-0.995606, 257, 193, 500, 256
-0.995619, 137, 161, 200, 224
-0.995664, 65, 1, 320, 128
-0.995687, 17, 253, 144, 284
-0.995698, 81, 145, 208, 208
-0.995705, 193, 201, 256, 264
-0.995709, 411, 97, 426, 160
-0.995709, 399, 113, 414, 176
-0.995711, 353, 245, 480, 276
-0.995718, 161, 97, 416, 160
-0.995726, 177, 225, 304, 256
-0.995732, 449, 17, 480, 144
-0.995748, 437, 225, 468, 288
-0.995749, 181, 241, 196, 304
-0.995752, 449, 129, 480, 256
-0.995755, 393, 65, 456, 320
-0.995758, 281, 121, 344, 184
-0.99577, 145, 145, 272, 208
-0.995775, 383, 41, 398, 104
-0.995789, 377, 81, 392, 144
-0.99583, 319, 81, 334, 144
-0.995849, 97, 233, 224, 264
-0.995853, 153, 209, 184, 272
-0.995855, 447, 97, 462, 160
-0.995865, 435, 57, 450, 120
-0.995876, 423, 105, 438, 168
-0.995879, 65, 161, 320, 224
-0.99588, 389, 161, 420, 224
-0.995885, 313, 113, 344, 240
-0.995885, 357, 193, 388, 320
-0.995907, 209, 185, 336, 248
-0.995909, 21, 273, 52, 333
-0.995931, 225, 9, 352, 72
-0.995962, 105, 273, 168, 333
-0.995974, 337, 89, 464, 120
-0.996, 281, 265, 344, 328
-0.996043, 123, 177, 138, 240
-0.996069, 261, 241, 292, 304
-0.996081, 315, 201, 330, 264
-0.996104, 159, 257, 174, 320
-0.996159, 39, 217, 54, 280
-0.99616, 81, 169, 208, 200
-0.996172, 153, 257, 168, 320
-0.996181, 161, 209, 416, 272
-0.996187, 441, 121, 456, 184
-0.996192, 383, 97, 398, 160
-0.996201, 129, 265, 256, 296
-0.996211, 47, 217, 62, 280
-0.996232, 343, 113, 358, 176
-0.996242, 321, 69, 448, 100
-0.996259, 65, 257, 192, 288
-0.996271, 273, 101, 400, 132
-0.996276, 241, 229, 368, 260
-0.996279, 281, 9, 344, 72
-0.996286, 17, 237, 144, 268
-0.996299, 377, 113, 392, 176
-0.996322, 429, 57, 444, 120
-0.996324, 1, 217, 500, 280
-0.996335, 407, 121, 422, 184
-0.996421, 81, 197, 208, 228
-0.996428, 129, 185, 384, 248
-0.996444, 425, 1, 488, 64
-0.996446, 193, 249, 208, 312
-0.99646, 89, 217, 104, 280
-0.996471, 111, 169, 126, 232
-0.996489, 107, 233, 122, 296
-0.996491, 89, 137, 152, 200
-0.9965, 389, 73, 404, 136
-0.996505, 241, 85, 368, 116
-0.996518, 257, 153, 384, 216
-0.996536, 401, 193, 432, 320
-0.996545, 29, 225, 44, 288
-0.996552, 129, 185, 144, 248
-0.996553, 393, 113, 408, 176
-0.996582, 417, 121, 432, 184
-0.996583, 353, 57, 480, 88
-0.996585, 321, 233, 448, 264
-0.996633, 307, 89, 322, 152
-0.996637, 353, 153, 384, 216
-0.996637, 165, 257, 180, 320
-0.996648, 309, 201, 324, 264
-0.996659, 25, 201, 56, 264
-0.996671, 321, 133, 448, 164
-0.996688, 105, 169, 120, 232
-0.996698, 55, 209, 70, 272
-0.99673, 353, 25, 384, 88
-0.99674, 129, 1, 256, 64
-0.996741, 289, 17, 320, 144
-0.996749, 325, 9, 356, 72
-0.996773, 249, 217, 280, 280
-0.996803, 257, 253, 384, 284
-0.996825, 161, 169, 288, 232
-0.996827, 209, 213, 336, 244
-0.996829, 333, 33, 364, 96
-0.99683, 145, 237, 272, 268
-0.996834, 193, 225, 208, 288
-0.99684, 9, 265, 24, 328
-0.99685, 225, 209, 256, 333
-0.996852, 293, 57, 324, 120
-0.996866, 389, 49, 404, 112
-0.996883, 393, 233, 424, 296
-0.996884, 401, 89, 416, 152
-0.996895, 265, 33, 328, 288
-0.9969, 387, 121, 402, 184
-0.9969, 237, 225, 268, 288
-0.996936, 257, 169, 500, 232
-0.996958, 401, 17, 432, 80
-0.996998, 337, 65, 352, 128
-0.997013, 281, 161, 312, 288
-0.997014, 303, 209, 318, 272
-0.997015, 193, 245, 320, 276
-0.997019, 187, 249, 202, 312
-0.997022, 419, 73, 434, 136
-0.99703, 445, 177, 476, 304
-0.997032, 161, 73, 416, 136
-0.997034, 321, 261, 448, 292
-0.997036, 257, 145, 500, 208
-0.99705, 173, 249, 188, 312
-0.997059, 475, 185, 490, 248
-0.997061, 383, 65, 398, 128
-0.997062, 315, 57, 330, 120
-0.997099, 325, 225, 340, 288
-0.997101, 453, 185, 484, 248
-0.997107, 199, 225, 214, 288
-0.997142, 123, 209, 138, 272
-0.997148, 347, 113, 362, 144
-0.997151, 225, 41, 352, 104
-0.997154, 1, 1, 64, 333
-0.997162, 115, 193, 130, 256
-0.997176, 199, 257, 214, 320
-0.997177, 445, 41, 460, 104
-0.997181, 401, 257, 416, 320
-0.997196, 321, 105, 448, 136
-0.997205, 329, 185, 392, 248
-0.997207, 353, 89, 368, 152
-0.997214, 301, 185, 332, 248
-0.997218, 395, 89, 410, 152
-0.997227, 257, 9, 500, 72
-0.997229, 401, 41, 432, 104
-0.997235, 343, 65, 358, 128
-0.997246, 371, 49, 386, 112
-0.997249, 57, 249, 72, 312
-0.997249, 77, 249, 92, 312
-0.997258, 51, 249, 66, 312
-0.997264, 1, 273, 500, 333
-0.997274, 433, 129, 448, 192
-0.997284, 437, 17, 468, 144
-0.997294, 83, 249, 98, 312
-0.997298, 99, 169, 114, 232
-0.997312, 61, 169, 92, 232
-0.997329, 313, 81, 328, 112
-0.997329, 337, 65, 368, 320
-0.997333, 63, 249, 78, 312
-0.997336, 113, 1, 176, 333
-0.997337, 25, 65, 88, 320
-0.997345, 305, 245, 432, 276
-0.997349, 95, 249, 110, 312
-0.99737, 37, 249, 52, 312
-0.997382, 41, 145, 72, 272
-0.997386, 33, 193, 160, 224
-0.997391, 71, 249, 86, 312
-0.997397, 353, 273, 480, 333
-0.997405, 469, 105, 500, 168
-0.997413, 337, 113, 352, 176
-0.997415, 89, 1, 152, 333
-0.997422, 325, 57, 340, 120
-0.997426, 187, 225, 202, 288
-0.997427, 65, 269, 192, 300
-0.997432, 349, 65, 364, 128
-0.997433, 129, 297, 256, 328
-0.997433, 429, 85, 444, 116
-0.997437, 43, 249, 58, 312
-0.997442, 61, 209, 76, 272
-0.997443, 89, 249, 104, 312
-0.997446, 129, 277, 256, 308
-0.997479, 289, 49, 416, 80
-0.997496, 289, 37, 416, 68
-0.997514, 219, 257, 234, 320
-0.997522, 133, 209, 148, 272
-0.997524, 369, 181, 496, 212
-0.997539, 399, 137, 414, 200
-0.997543, 81, 209, 96, 272
-0.997544, 371, 113, 386, 176
-0.997545, 209, 257, 224, 320
-0.997547, 377, 137, 392, 200
-0.997549, 427, 241, 442, 304
-0.997555, 159, 257, 174, 288
-0.997555, 377, 25, 392, 88
-0.997561, 121, 113, 152, 240
-0.997563, 369, 89, 384, 152
-0.997578, 273, 117, 400, 148
-0.997579, 349, 249, 364, 312
-0.997581, 419, 89, 434, 120
-0.997583, 237, 209, 268, 333
-0.997586, 451, 57, 466, 120
-0.997589, 439, 25, 454, 88
-0.997594, 367, 257, 382, 320
-0.997594, 129, 209, 256, 240
-0.997609, 229, 249, 244, 312
-0.997611, 427, 137, 442, 200
-0.997618, 305, 197, 432, 228
-0.997622, 159, 233, 174, 296
-0.997627, 287, 233, 302, 296
-0.997639, 467, 137, 482, 200
-0.997645, 443, 125, 458, 156
-0.997655, 369, 257, 496, 288
-0.997668, 257, 41, 500, 104
-0.997669, 413, 129, 444, 256
-0.997674, 251, 241, 266, 304
-0.997682, 303, 65, 318, 128
-0.997683, 273, 65, 400, 96
-0.997686, 245, 241, 260, 304
-0.997693, 419, 129, 434, 160
-0.997697, 407, 257, 422, 320
-0.9977, 167, 177, 182, 240
-0.997717, 61, 145, 92, 272
-0.997717, 369, 161, 496, 192
-0.997737, 447, 121, 462, 184
-0.997751, 355, 113, 370, 176
-0.997756, 205, 233, 220, 296
-0.997758, 337, 21, 464, 52
-0.997762, 33, 169, 96, 232
-0.997783, 331, 57, 346, 120
-0.997798, 329, 81, 344, 112
-0.997804, 421, 241, 436, 304
-0.99781, 81, 185, 208, 216
-0.99781, 353, 45, 480, 76
-0.997811, 171, 217, 186, 280
-0.997815, 435, 85, 450, 116
-0.997826, 181, 245, 196, 276
-0.997826, 361, 209, 424, 272
-0.997827, 411, 125, 426, 156
-0.997831, 297, 217, 312, 280
-0.997837, 193, 257, 320, 288
-0.997847, 69, 201, 84, 264
-0.997861, 369, 69, 496, 100
-0.997864, 339, 113, 354, 144
-0.997864, 471, 209, 486, 272
-0.997864, 335, 241, 350, 304
-0.997867, 425, 101, 440, 132
-0.997875, 107, 237, 122, 268
-0.997875, 33, 173, 160, 204
-0.99791, 71, 225, 86, 288
-0.997913, 1, 113, 500, 176
-0.997923, 453, 81, 468, 144
-0.997926, 437, 121, 452, 152
-0.997927, 305, 161, 432, 192
-0.997939, 427, 121, 442, 152
-0.997966, 399, 49, 414, 112
-0.997968, 273, 129, 400, 160
-0.997969, 379, 85, 394, 116
-0.99797, 339, 81, 354, 112
-0.99798, 313, 205, 328, 236
-0.997981, 435, 105, 450, 136
-0.997993, 31, 249, 46, 312
-0.997994, 393, 117, 408, 148
-0.998004, 385, 117, 400, 148
-0.998014, 445, 85, 460, 116
-0.998014, 117, 173, 132, 204
-0.998022, 425, 133, 440, 164
-0.998025, 145, 113, 272, 240
-0.998039, 369, 149, 496, 180
-0.998046, 377, 117, 392, 148
-0.998049, 323, 81, 338, 112
-0.998054, 129, 197, 144, 228
-0.998061, 417, 101, 432, 132
-0.998074, 401, 145, 432, 272
-0.998087, 339, 97, 354, 128
-0.998097, 401, 113, 416, 144
-0.998107, 193, 249, 208, 280
-0.998126, 445, 97, 460, 128
-0.99813, 425, 177, 456, 304
-0.998135, 161, 161, 416, 224
-0.998135, 399, 85, 414, 116
-0.998139, 183, 233, 198, 264
-0.998148, 347, 101, 362, 132
-0.998157, 349, 81, 364, 112
-0.998161, 369, 213, 496, 244
-0.998179, 391, 49, 406, 80
-0.998183, 305, 217, 432, 248
-0.998184, 117, 197, 132, 228
-0.998186, 161, 153, 224, 216
-0.998191, 307, 209, 322, 240
-0.998193, 397, 49, 412, 80
-0.998199, 105, 173, 120, 204
-0.99821, 101, 233, 116, 264
-0.998218, 383, 105, 398, 136
-0.998227, 29, 225, 44, 256
-0.99825, 173, 253, 188, 284
-0.998252, 145, 197, 272, 228
-0.998259, 433, 133, 448, 164
-0.998262, 409, 105, 424, 136
-0.998265, 95, 221, 110, 252
-0.998269, 153, 269, 168, 300
-0.998276, 423, 241, 438, 272
-0.998284, 201, 257, 216, 288
-0.998291, 417, 117, 432, 148
-0.998293, 379, 69, 394, 100
-0.9983, 407, 89, 422, 120
-0.998313, 319, 209, 334, 240
-0.998315, 73, 255, 104, 270
-0.998315, 281, 237, 312, 252
-0.998316, 321, 97, 352, 112
-0.998316, 301, 215, 332, 230
-0.998316, 141, 279, 172, 294
-0.998316, 403, 49, 418, 80
-0.998317, 405, 19, 436, 34
-0.998319, 129, 215, 160, 230
-0.998319, 85, 253, 116, 268
-0.99832, 101, 199, 132, 214
-0.99832, 41, 253, 72, 268
-0.99832, 257, 209, 384, 240
-0.998321, 369, 69, 400, 84
-0.998322, 89, 235, 120, 250
-0.998322, 421, 61, 452, 76
-0.998322, 137, 255, 168, 270
-0.998322, 445, 53, 460, 84
-0.998322, 401, 103, 432, 118
-0.998323, 161, 283, 192, 298
-0.998325, 229, 223, 260, 238
-0.998326, 353, 111, 384, 126
-0.998326, 73, 217, 104, 232
-0.998326, 377, 49, 392, 80
-0.998327, 309, 93, 340, 108
-0.998327, 45, 215, 76, 230
-0.998328, 325, 33, 356, 48
-0.998328, 141, 273, 172, 288
-0.998329, 445, 99, 476, 114
-0.998329, 405, 261, 436, 276
-0.998331, 213, 259, 244, 274
-0.998331, 401, 65, 432, 80
-0.998332, 81, 225, 112, 240
-0.998332, 441, 243, 472, 258
-0.998333, 121, 203, 152, 218
-0.998333, 333, 97, 348, 128
-0.998336, 321, 247, 352, 262
-0.998336, 29, 249, 60, 264
-0.998338, 369, 103, 400, 118
-0.998338, 469, 205, 500, 220
-0.998339, 345, 253, 376, 268
-0.99834, 377, 49, 408, 64
-0.99834, 113, 187, 144, 202
-0.998341, 201, 251, 232, 266
-0.998341, 389, 51, 420, 66
-0.998342, 325, 117, 356, 132
-0.998342, 169, 257, 200, 272
-0.998344, 97, 253, 128, 268
-0.998344, 245, 247, 276, 262
-0.998345, 157, 269, 188, 284
-0.998346, 217, 223, 248, 238
-0.998347, 465, 217, 496, 232
-0.998347, 337, 135, 368, 150
-0.998348, 37, 221, 68, 236
-0.998348, 353, 97, 384, 112
-0.998351, 401, 91, 432, 106
-0.998351, 369, 229, 496, 260
-0.998352, 137, 265, 168, 280
-0.998352, 177, 245, 208, 260
-0.998353, 381, 267, 412, 282
-0.998354, 337, 103, 368, 118
-0.998354, 301, 221, 332, 236
-0.998354, 381, 97, 412, 112
-0.998358, 125, 209, 156, 224
-0.998358, 405, 125, 420, 156
-0.998359, 389, 65, 420, 80
-0.998359, 325, 127, 356, 142
-0.99836, 185, 231, 216, 246
-0.99836, 201, 227, 232, 242
-0.998363, 445, 59, 476, 74
-0.998363, 405, 97, 436, 112
-0.998364, 113, 245, 128, 276
-0.998364, 449, 137, 480, 152
-0.998365, 469, 223, 500, 238
-0.998365, 469, 193, 500, 208
-0.998365, 389, 85, 404, 116
-0.998367, 369, 97, 400, 112
-0.998367, 449, 123, 480, 138
-0.998367, 441, 253, 472, 268
-0.998368, 365, 263, 396, 278
-0.99837, 153, 263, 184, 278
-0.998371, 377, 105, 392, 136
-0.998373, 397, 115, 428, 130
-0.998373, 121, 169, 152, 184
-0.998373, 433, 91, 464, 106
-0.998374, 59, 205, 74, 236
-0.998375, 449, 131, 480, 146
-0.998376, 93, 245, 124, 260
-0.998376, 321, 83, 352, 98
-0.998377, 429, 249, 460, 264
-0.998378, 413, 107, 444, 122
-0.998378, 429, 141, 460, 156
-0.998378, 333, 83, 364, 98
-0.998379, 393, 263, 424, 278
-0.99838, 123, 185, 138, 216
-0.998381, 381, 259, 412, 274
-0.998381, 309, 83, 340, 98
-0.998385, 469, 199, 500, 214
-0.998388, 373, 119, 404, 134
-0.998388, 337, 129, 368, 144
-0.998389, 433, 105, 464, 120
-0.998392, 313, 229, 344, 244
-0.998397, 369, 87, 400, 102
-0.998397, 353, 117, 384, 132
-0.998398, 353, 259, 384, 274
-0.998398, 25, 225, 56, 240
-0.998399, 417, 93, 448, 108
-0.998404, 333, 97, 364, 112
-0.998408, 469, 187, 500, 202
-0.99841, 373, 63, 404, 78
-0.998411, 189, 257, 220, 272
-0.998415, 369, 133, 400, 148
-0.998417, 65, 281, 192, 312
-0.998417, 61, 203, 92, 218
-0.998418, 421, 87, 452, 102
-0.998419, 353, 197, 480, 228
-0.99842, 433, 99, 464, 114
-0.99842, 353, 129, 384, 144
-0.998421, 35, 225, 50, 256
-0.998421, 371, 65, 386, 96
-0.998427, 389, 91, 420, 106
-0.99843, 385, 135, 416, 150
-0.998431, 333, 251, 364, 266
-0.998435, 389, 69, 404, 100
-0.998438, 403, 261, 418, 292
-0.998439, 369, 121, 432, 136
-0.998441, 353, 123, 384, 138
-0.998443, 373, 125, 404, 140
-0.998447, 433, 129, 464, 144
-0.998447, 187, 249, 202, 280
-0.998449, 383, 57, 398, 88
-0.998449, 421, 99, 452, 114
-0.99845, 153, 255, 216, 270
-0.998451, 225, 97, 352, 128
-0.998452, 69, 197, 84, 228
-0.998453, 417, 247, 448, 262
-0.998453, 403, 101, 418, 132
-0.998455, 417, 139, 448, 154
-0.998456, 337, 123, 368, 138
-0.998457, 393, 129, 456, 144
-0.998463, 473, 129, 488, 160
-0.998464, 405, 121, 436, 136
-0.998465, 369, 129, 432, 144
-0.998468, 307, 221, 322, 252
-0.99847, 307, 85, 322, 116
-0.998472, 393, 123, 456, 138
-0.998472, 405, 139, 436, 154
-0.998474, 345, 131, 408, 146
-0.998475, 101, 173, 132, 188
-0.998477, 369, 135, 432, 150
-0.998477, 65, 301, 192, 332
-0.998479, 429, 135, 460, 150
-0.99848, 289, 177, 416, 208
-0.99848, 169, 1, 232, 333
-0.998483, 351, 253, 366, 284
-0.998484, 401, 97, 464, 112
-0.998484, 437, 53, 452, 84
-0.998484, 345, 125, 408, 140
-0.998485, 257, 197, 384, 228
-0.998486, 149, 257, 164, 288
-0.998488, 433, 85, 464, 100
-0.998492, 385, 129, 416, 144
-0.998494, 413, 89, 428, 120
-0.998496, 433, 59, 464, 74
-0.998498, 429, 123, 460, 138
-0.998499, 393, 137, 456, 152
-0.998501, 329, 115, 392, 130
-0.998504, 385, 121, 416, 136
-0.998504, 405, 127, 436, 142
-0.998507, 301, 209, 332, 224
-0.998507, 329, 83, 392, 98
-0.998509, 371, 261, 386, 292
-0.998509, 111, 173, 126, 204
-0.99851, 443, 137, 458, 168
-0.99851, 83, 253, 98, 284
-0.998511, 389, 105, 404, 136
-0.998517, 417, 131, 448, 146
-0.998518, 417, 121, 448, 136
-0.998518, 157, 257, 188, 272
-0.998521, 397, 133, 428, 148
-0.998523, 29, 241, 44, 272
-0.998525, 427, 73, 442, 104
-0.998528, 399, 69, 414, 100
-0.998531, 89, 213, 152, 228
-0.998532, 189, 233, 204, 264
-0.998533, 305, 83, 368, 98
-0.998533, 177, 251, 208, 266
-0.998533, 349, 129, 364, 160
-0.998536, 337, 115, 368, 130
-0.998538, 313, 97, 328, 128
-0.998541, 77, 253, 92, 284
-0.998542, 445, 65, 460, 96
-0.998542, 385, 63, 448, 78
-0.998543, 365, 145, 396, 272
-0.998544, 369, 91, 432, 106
-0.998551, 417, 137, 480, 152
-0.998555, 329, 97, 392, 112
-0.998555, 51, 213, 66, 244
-0.998556, 413, 137, 428, 168
-0.998557, 409, 89, 472, 104
-0.998559, 153, 261, 216, 276
-0.99856, 391, 265, 406, 296
-0.998562, 297, 93, 360, 108
-0.998562, 93, 253, 108, 284
-0.998564, 397, 265, 412, 296
-0.998565, 369, 99, 432, 114
-0.998567, 49, 215, 112, 230
-0.998572, 161, 129, 416, 192
-0.998572, 71, 253, 86, 284
-0.998576, 281, 209, 344, 224
-0.998576, 401, 103, 464, 118
-0.998578, 325, 65, 356, 320
-0.998579, 339, 249, 354, 280
-0.998579, 241, 1, 304, 333
-0.998579, 321, 123, 384, 138
-0.99858, 45, 221, 60, 252
-0.998583, 397, 101, 412, 132
-0.998585, 431, 245, 446, 276
-0.998586, 327, 229, 342, 260
-0.998587, 409, 251, 472, 266
-0.998587, 451, 89, 466, 120
-0.998589, 257, 213, 320, 228
-0.998593, 329, 91, 392, 106
-0.998594, 249, 245, 264, 276
-0.998595, 305, 115, 368, 130
-0.998598, 305, 99, 368, 114
-0.998598, 193, 257, 256, 272
-0.998598, 39, 249, 54, 280
-0.998598, 169, 249, 232, 264
-0.998599, 289, 231, 352, 246
-0.9986, 369, 115, 432, 130
-0.998604, 433, 131, 496, 146
-0.998604, 317, 221, 332, 252
-0.998605, 81, 207, 144, 222
-0.998606, 327, 101, 342, 132
-0.998606, 301, 213, 316, 244
-0.998607, 1, 245, 64, 260
-0.998608, 99, 253, 114, 284
-0.99861, 345, 105, 408, 120
-0.99861, 365, 257, 380, 288
-0.99861, 361, 265, 424, 280
-0.99861, 207, 261, 222, 292
-0.99861, 417, 123, 480, 138
-0.998613, 321, 257, 384, 272
-0.998615, 319, 101, 334, 132
-0.998616, 361, 255, 424, 270
-0.998616, 417, 59, 480, 74
-0.998619, 369, 57, 432, 72
-0.998621, 475, 185, 490, 216
-0.998623, 361, 63, 424, 78
-0.998623, 409, 245, 472, 260
-0.998623, 65, 253, 80, 284
-0.998626, 45, 249, 60, 280
-0.998627, 145, 249, 208, 264
-0.998627, 113, 169, 176, 184
-0.998628, 409, 109, 472, 124
-0.998629, 305, 249, 368, 264
-0.99863, 49, 207, 112, 222
-0.998631, 145, 267, 208, 282
-0.998633, 73, 199, 136, 214
-0.998633, 111, 193, 126, 224
-0.998634, 161, 297, 176, 328
-0.998635, 193, 227, 256, 242
-0.998635, 321, 129, 384, 144
-0.998635, 89, 213, 104, 244
-0.998636, 41, 221, 104, 236
-0.998638, 17, 227, 80, 242
-0.998638, 443, 109, 458, 140
-0.998638, 369, 85, 432, 100
-0.998638, 121, 213, 184, 228
-0.998639, 425, 103, 488, 118
-0.998639, 65, 245, 128, 260
-0.998641, 113, 207, 176, 222
-0.998643, 385, 247, 448, 262
-0.998643, 113, 265, 176, 280
-0.998644, 89, 219, 152, 234
-0.998644, 73, 253, 136, 268
-0.998644, 361, 69, 424, 84
-0.998644, 305, 105, 368, 120
-0.998646, 417, 241, 432, 272
-0.998647, 241, 243, 304, 258
-0.998648, 129, 259, 192, 274
-0.998648, 337, 263, 400, 278
-0.998648, 369, 105, 432, 120
-0.998649, 73, 193, 136, 208
-0.99865, 17, 301, 32, 332
-0.99865, 393, 21, 456, 36
-0.99865, 369, 141, 432, 156
-0.998652, 443, 249, 458, 280
-0.998653, 433, 97, 496, 112
-0.998653, 25, 253, 88, 268
-0.998657, 297, 77, 360, 92
-0.998658, 409, 143, 472, 158
-0.998662, 105, 249, 168, 264
-0.998662, 433, 187, 496, 202
-0.998662, 393, 57, 456, 72
-0.998662, 409, 257, 424, 288
-0.998662, 417, 65, 480, 80
-0.998664, 89, 175, 152, 190
-0.998664, 361, 51, 424, 66
-0.998664, 281, 85, 344, 100
-0.998665, 401, 257, 464, 272
-0.998665, 297, 127, 360, 142
-0.998666, 281, 221, 344, 236
-0.998666, 25, 239, 88, 254
-0.998667, 153, 283, 216, 298
-0.998667, 345, 249, 360, 280
-0.998667, 333, 245, 348, 276
-0.998667, 129, 217, 144, 248
-0.998668, 401, 117, 464, 132
-0.998668, 417, 239, 480, 254
-0.998669, 1, 251, 64, 266
-0.99867, 433, 143, 496, 158
-0.99867, 217, 251, 280, 266
-0.998672, 113, 277, 176, 292
-0.998672, 289, 243, 352, 258
-0.998674, 41, 247, 104, 262
-0.998674, 433, 83, 496, 98
-0.998675, 123, 209, 138, 240
-0.998675, 393, 263, 456, 278
-0.998676, 153, 297, 216, 312
-0.998676, 433, 245, 496, 260
-0.998676, 153, 273, 216, 288
-0.998676, 297, 121, 360, 136
-0.998677, 57, 233, 120, 248
-0.998678, 305, 211, 368, 226
-0.99868, 185, 263, 248, 278
-0.998681, 17, 221, 80, 236
-0.998682, 385, 69, 448, 84
-0.998682, 65, 239, 128, 254
-0.998682, 281, 237, 344, 252
-0.998682, 217, 223, 280, 238
-0.998682, 433, 91, 496, 106
-0.998685, 49, 255, 112, 270
-0.998686, 257, 237, 320, 252
-0.998687, 113, 271, 176, 286
-0.998687, 281, 215, 344, 230
-0.998687, 313, 135, 376, 150
-0.998688, 425, 117, 488, 132
-0.998689, 193, 245, 256, 260
-0.998689, 433, 199, 496, 214
-0.99869, 1, 289, 64, 304
-0.998691, 57, 227, 120, 242
-0.998692, 233, 217, 296, 232
-0.998693, 433, 251, 496, 266
-0.998694, 113, 291, 176, 306
-0.998694, 105, 255, 168, 270
-0.998695, 153, 289, 216, 304
-0.998698, 301, 145, 332, 272
-0.998749, 339, 65, 354, 192
-0.998749, 209, 1, 272, 333
-0.998779, 17, 301, 144, 332
-0.998787, 469, 65, 500, 320
-0.998796, 305, 5, 432, 36
-0.998805, 97, 113, 128, 240
-0.998812, 353, 33, 480, 64
-0.998821, 1, 161, 128, 192
-0.998833, 347, 65, 362, 192
-0.998844, 329, 65, 344, 192
-0.998857, 313, 65, 328, 192
-0.998881, 161, 41, 416, 104
-0.998891, 397, 65, 428, 320
-0.998893, 377, 145, 408, 272
-0.998893, 113, 137, 176, 200
-0.998895, 209, 201, 336, 232
-0.99891, 1, 89, 500, 152
-0.998916, 65, 113, 320, 240
-0.998922, 1, 265, 128, 296
-0.998929, 1, 161, 500, 224
-0.998953, 225, 73, 352, 104
-0.998963, 121, 161, 136, 288
-0.999, 439, 65, 454, 192
-0.999009, 177, 1, 304, 64
-0.999012, 323, 65, 338, 192
-0.999034, 17, 289, 144, 320
-0.999034, 21, 161, 52, 288
-0.999036, 425, 129, 456, 256
-0.999045, 349, 65, 380, 320
-0.999056, 61, 193, 76, 320
-0.999071, 225, 121, 352, 184
-0.99908, 349, 113, 364, 240
-0.999112, 129, 161, 144, 288
-0.999115, 323, 17, 338, 144
-0.999123, 273, 265, 400, 296
-0.999132, 55, 193, 70, 320
-0.999137, 445, 81, 460, 208
-0.999137, 81, 193, 96, 320
-0.999157, 433, 65, 448, 192
-0.999163, 391, 49, 406, 176
-0.999165, 193, 269, 320, 300
-0.999177, 145, 177, 272, 208
-0.99918, 67, 193, 82, 320
-0.99918, 115, 161, 130, 288
-0.999183, 73, 193, 88, 320
-0.999187, 241, 33, 368, 64
-0.999188, 145, 1, 208, 333
-0.999191, 95, 209, 110, 333
-0.999209, 35, 193, 50, 320
-0.999212, 379, 33, 394, 160
-0.999216, 385, 33, 400, 160
-0.999227, 169, 193, 184, 320
-0.999228, 209, 153, 336, 216
-0.99923, 103, 193, 118, 320
-0.999238, 425, 65, 440, 192
-0.999243, 399, 49, 414, 176
-0.999245, 329, 17, 344, 144
-0.999249, 401, 177, 464, 240
-0.999251, 313, 17, 328, 144
-0.999252, 339, 17, 354, 144
-0.999256, 307, 65, 322, 192
-0.999257, 397, 97, 412, 224
-0.999266, 321, 145, 448, 176
-0.999278, 343, 113, 358, 240
-0.999282, 241, 169, 368, 200
-0.999299, 61, 65, 92, 320
-0.999301, 429, 1, 444, 128
-0.999302, 353, 65, 368, 192
-0.999304, 89, 209, 104, 333
-0.999308, 45, 209, 60, 333
-0.999313, 1, 9, 500, 72
-0.999319, 159, 209, 174, 333
-0.999332, 225, 193, 288, 256
-0.999337, 469, 1, 500, 128
-0.999344, 323, 209, 338, 333
-0.999348, 81, 157, 208, 188
-0.999355, 289, 65, 320, 192
-0.999368, 347, 17, 362, 144
-0.999372, 25, 1, 88, 333
-0.999374, 405, 1, 420, 128
-0.999375, 145, 157, 272, 188
-0.999381, 159, 161, 174, 288
-0.999383, 403, 113, 418, 240
-0.999387, 391, 97, 406, 224
-0.999389, 105, 65, 168, 320
-0.999389, 93, 161, 108, 288
-0.999394, 409, 97, 424, 224
-0.9994, 135, 161, 150, 288
-0.999405, 181, 161, 212, 288
-0.999406, 305, 33, 336, 288
-0.999409, 37, 65, 68, 320
-0.999417, 65, 137, 320, 200
-0.999431, 375, 81, 390, 208
-0.999432, 399, 1, 414, 128
-0.999434, 281, 209, 312, 333
-0.999434, 209, 209, 224, 333
-0.999438, 175, 193, 190, 320
-0.999445, 153, 209, 168, 333
-0.999451, 241, 185, 368, 216
-0.999451, 405, 49, 420, 176
-0.999452, 123, 209, 138, 333
-0.999456, 419, 65, 434, 192
-0.999466, 87, 161, 102, 288
-0.999469, 117, 65, 148, 320
-0.999471, 317, 193, 332, 320
-0.999474, 423, 1, 438, 128
-0.999477, 105, 145, 120, 272
-0.999479, 439, 17, 454, 144
-0.99948, 183, 209, 198, 333
-0.999482, 141, 161, 156, 288
-0.999486, 307, 17, 322, 144
-0.99949, 215, 209, 230, 333
-0.999492, 27, 209, 42, 333
-0.999492, 385, 97, 400, 224
-0.999492, 477, 129, 492, 256
-0.999504, 49, 161, 64, 288
-0.999505, 153, 161, 168, 288
-0.999505, 203, 209, 218, 333
-0.999507, 193, 209, 208, 333
-0.999508, 409, 65, 440, 320
-0.999517, 413, 1, 428, 128
-0.999517, 389, 177, 404, 304
-0.999524, 369, 65, 384, 192
-0.999524, 445, 33, 460, 160
-0.999534, 401, 113, 416, 128
-0.999534, 151, 271, 166, 286
-0.999535, 395, 259, 410, 274
-0.999536, 339, 87, 354, 102
-0.999536, 471, 177, 486, 304
-0.999538, 343, 103, 358, 118
-0.999538, 381, 95, 396, 110
-0.999538, 383, 267, 398, 282
-0.99954, 397, 267, 412, 282
-0.99954, 37, 249, 52, 264
-0.999541, 475, 187, 490, 202
-0.999541, 347, 109, 362, 124
-0.999541, 129, 65, 160, 320
-0.999541, 61, 205, 76, 220
-0.999541, 123, 213, 138, 228
-0.999541, 185, 233, 200, 248
-0.999542, 111, 251, 126, 266
-0.999543, 121, 169, 136, 184
-0.999543, 339, 125, 354, 140
-0.999544, 385, 63, 400, 78
-0.999544, 451, 81, 466, 208
-0.999544, 433, 93, 448, 108
-0.999544, 321, 273, 448, 304
-0.999545, 153, 277, 168, 292
-0.999545, 17, 315, 32, 330
-0.999545, 133, 213, 148, 228
-0.999546, 181, 239, 196, 254
-0.999546, 129, 209, 144, 333
-0.999547, 389, 87, 404, 102
-0.999549, 97, 227, 112, 242
-0.999549, 457, 251, 472, 266
-0.999549, 391, 65, 406, 80
-0.999551, 435, 65, 450, 80
-0.999553, 319, 85, 334, 100
-0.999554, 447, 253, 462, 268
-0.999556, 317, 211, 332, 226
-0.999556, 425, 133, 440, 148
-0.999556, 93, 221, 108, 236
-0.999557, 391, 267, 406, 282
-0.999557, 205, 261, 220, 276
-0.999558, 311, 223, 326, 238
-0.999559, 347, 131, 362, 146
-0.999559, 417, 89, 432, 104
-0.999559, 127, 201, 142, 216
-0.99956, 123, 193, 138, 208
-0.999561, 365, 261, 380, 276
-0.999561, 387, 125, 402, 140
-0.999562, 1, 185, 500, 248
-0.999562, 171, 257, 186, 272
-0.999562, 439, 93, 454, 108
-0.999564, 417, 101, 432, 116
-0.999564, 31, 245, 46, 260
-0.999564, 305, 213, 320, 228
-0.999566, 327, 161, 342, 288
-0.999568, 355, 257, 370, 272
-0.999568, 377, 133, 392, 148
-0.999569, 313, 93, 328, 108
-0.99957, 369, 9, 496, 40
-0.999571, 329, 83, 344, 98
-0.999572, 383, 119, 398, 134
-0.999573, 425, 127, 440, 142
-0.999574, 357, 193, 372, 320
-0.999575, 375, 265, 390, 280
-0.999575, 339, 95, 354, 110
-0.999575, 45, 221, 60, 236
-0.999576, 375, 63, 390, 78
-0.999577, 443, 141, 458, 156
-0.999578, 339, 81, 354, 96
-0.999578, 221, 209, 236, 333
-0.999579, 129, 207, 144, 222
-0.99958, 435, 121, 450, 136
-0.999581, 383, 87, 398, 102
-0.999582, 431, 129, 446, 144
-0.999583, 443, 121, 458, 136
-0.999583, 349, 95, 364, 110
-0.999584, 445, 93, 460, 108
-0.999584, 435, 249, 450, 264
-0.999585, 29, 227, 44, 242
-0.999585, 311, 209, 326, 224
-0.999585, 103, 175, 118, 190
-0.999585, 397, 87, 412, 102
-0.999587, 345, 253, 360, 268
-0.999587, 427, 97, 442, 112
-0.999587, 441, 251, 456, 266
-0.999587, 375, 97, 390, 112
-0.999588, 393, 121, 408, 136
-0.999588, 337, 249, 352, 264
-0.999588, 139, 209, 154, 333
-0.999588, 349, 83, 364, 98
-0.999588, 115, 173, 130, 188
-0.999589, 429, 247, 444, 262
-0.99959, 379, 127, 394, 142
-0.999591, 193, 285, 320, 316
-0.999592, 349, 103, 364, 118
-0.999592, 437, 133, 452, 148
-0.999593, 431, 141, 446, 156
-0.999595, 351, 193, 366, 320
-0.999596, 411, 49, 426, 176
-0.999596, 485, 65, 500, 192
-0.999596, 375, 121, 390, 136
-0.999596, 33, 121, 160, 184
-0.999601, 409, 117, 424, 132
-0.999601, 425, 121, 440, 136
-0.999602, 339, 115, 354, 130
-0.999602, 383, 133, 398, 148
-0.999604, 69, 201, 84, 216
-0.999605, 437, 141, 452, 156
-0.999607, 425, 103, 440, 118
-0.999609, 445, 105, 460, 120
-0.99961, 425, 139, 440, 154
-0.99961, 443, 135, 458, 150
-0.999611, 109, 193, 124, 320
-0.999611, 405, 261, 420, 276
-0.999614, 109, 245, 124, 260
-0.999614, 357, 113, 372, 240
-0.999615, 311, 177, 326, 304
-0.999617, 467, 113, 482, 240
-0.999618, 383, 177, 398, 304
-0.999618, 43, 161, 58, 288
-0.999621, 395, 131, 410, 146
-0.999621, 429, 87, 444, 102
-0.999622, 281, 193, 296, 320
-0.999623, 377, 87, 392, 102
-0.999624, 439, 103, 454, 118
-0.999624, 389, 131, 404, 146
-0.999625, 349, 125, 364, 140
-0.999625, 423, 245, 438, 260
-0.999626, 313, 113, 328, 240
-0.999626, 417, 131, 432, 146
-0.999628, 257, 149, 384, 180
-0.999628, 199, 257, 214, 272
-0.999629, 437, 127, 452, 142
-0.999631, 437, 87, 452, 102
-0.999632, 313, 85, 328, 100
-0.999632, 419, 121, 434, 136
-0.999633, 401, 127, 416, 142
-0.999635, 369, 193, 384, 320
-0.999636, 431, 135, 446, 150
-0.999637, 465, 209, 480, 333
-0.999638, 399, 177, 414, 304
-0.999641, 447, 59, 462, 74
-0.999641, 433, 99, 448, 114
-0.999641, 423, 89, 438, 104
-0.999641, 411, 137, 426, 152
-0.999641, 483, 193, 498, 320
-0.999642, 399, 119, 414, 134
-0.999643, 147, 161, 162, 288
-0.999644, 183, 247, 198, 262
-0.999644, 437, 59, 452, 74
-0.999646, 359, 65, 374, 192
-0.999649, 241, 17, 368, 48
-0.999651, 443, 127, 458, 142
-0.999652, 123, 113, 138, 240
-0.999652, 177, 1, 240, 64
-0.999653, 269, 209, 284, 333
-0.999654, 417, 95, 432, 110
-0.999657, 461, 161, 476, 288
-0.999658, 147, 209, 162, 333
-0.999661, 409, 131, 424, 146
-0.999662, 157, 261, 172, 276
-0.999662, 401, 133, 416, 148
-0.999663, 129, 221, 256, 252
-0.999665, 7, 209, 22, 333
-0.99967, 329, 113, 344, 240
-0.999672, 275, 193, 290, 320
-0.999673, 287, 209, 302, 333
-0.999673, 349, 115, 364, 130
-0.999674, 21, 209, 36, 333
-0.999675, 193, 253, 208, 268
-0.999678, 419, 137, 434, 152
-0.999678, 409, 123, 424, 138
-0.999679, 289, 25, 416, 56
-0.999684, 369, 269, 496, 300
-0.999685, 445, 99, 460, 114
-0.999686, 419, 113, 434, 240
-0.999687, 415, 193, 430, 320
-0.999689, 391, 1, 406, 128
-0.99969, 337, 113, 352, 240
-0.999691, 111, 113, 126, 240
-0.999691, 449, 65, 480, 320
-0.999693, 447, 85, 462, 100
-0.999694, 483, 113, 498, 240
-0.999694, 379, 129, 394, 256
-0.999696, 405, 177, 420, 304
-0.999696, 425, 145, 440, 272
-0.999697, 375, 193, 390, 320
-0.999699, 229, 209, 244, 333
-0.999708, 475, 49, 490, 176
-0.999714, 129, 113, 144, 240
-0.999722, 99, 145, 114, 272
-0.999734, 421, 193, 436, 320
-0.999734, 353, 1, 368, 128
-0.999737, 301, 49, 316, 176
-0.99974, 17, 277, 144, 308
-0.999744, 13, 209, 28, 333
-0.999745, 363, 193, 378, 320
-0.999745, 263, 209, 278, 333
-0.999748, 297, 209, 312, 333
-0.999753, 29, 161, 44, 288
-0.999767, 433, 65, 464, 320
-0.999796, 161, 9, 416, 72
-0.999804, 105, 65, 136, 320
-0.999805, 225, 121, 352, 152
-0.999823, 193, 85, 320, 116
-0.999823, 381, 65, 412, 320
-0.999852, 257, 285, 384, 316
-0.999858, 193, 301, 320, 332
-0.999859, 97, 1, 224, 32
-0.99986, 285, 65, 316, 320
-0.999871, 257, 145, 320, 272
-0.999893, 193, 189, 320, 220
-0.999901, 77, 65, 108, 320
-0.999913, 241, 53, 368, 84
-0.999918, 33, 149, 160, 180
-0.999923, 177, 9, 304, 40
-0.999945, 33, 1, 288, 64
-0.999977, 421, 65, 452, 320
-0.999996, 1, 137, 500, 200
-1.00003, 141, 65, 172, 320
-1.00006, 241, 301, 368, 332
-1.00009, 257, 5, 384, 36
-1.00009, 209, 157, 336, 188
-1.00009, 49, 65, 80, 320
-1.0001, 241, 169, 304, 232
-1.00016, 457, 65, 488, 192
-1.00018, 365, 65, 396, 320
-1.00021, 369, 285, 496, 316
-1.00022, 369, 301, 496, 332
-1.00024, 153, 65, 184, 320
-1.00024, 81, 1, 208, 64
-1.00026, 273, 65, 304, 320
-1.00031, 89, 65, 120, 320
-1.00033, 225, 109, 352, 140
-1.00035, 193, 161, 256, 288
-1.00036, 193, 169, 320, 200
-1.00036, 165, 65, 196, 320
-1.0004, 177, 177, 240, 240
-1.0004, 49, 1, 176, 32
-1.00041, 305, 1, 368, 64
-1.00042, 249, 65, 280, 320
-1.00043, 321, 285, 448, 316
-1.00044, 1, 41, 500, 104
-1.00046, 65, 97, 192, 224
-1.00047, 321, 301, 448, 332
-1.00047, 437, 129, 468, 256
-1.00048, 137, 1, 200, 64
-1.0005, 5, 65, 36, 320
-1.00051, 17, 85, 144, 116
-1.00051, 17, 89, 144, 152
-1.00053, 229, 65, 260, 320
-1.00053, 129, 145, 256, 176
-1.00053, 1, 133, 128, 164
-1.00054, 17, 61, 144, 92
-1.00056, 17, 105, 144, 136
-1.0006, 209, 145, 336, 176
-1.00062, 1, 33, 128, 64
-1.00062, 181, 65, 212, 320
-1.00063, 17, 117, 144, 148
-1.00064, 17, 73, 144, 104
-1.00065, 225, 133, 352, 164
-1.00066, 1, 5, 128, 36
-1.00068, 193, 29, 320, 60
-1.0007, 261, 33, 292, 288
-1.00071, 17, 65, 48, 320
-1.00071, 1, 17, 128, 48
-1.00071, 17, 49, 144, 80
-1.00072, 193, 61, 320, 92
-1.00073, 193, 41, 320, 72
-1.00076, 49, 137, 176, 168
-1.00077, 241, 65, 304, 320
-1.00077, 249, 265, 312, 328
-1.00081, 9, 161, 72, 224
-1.00082, 1, 1, 128, 64
-1.00085, 169, 65, 232, 320
-1.0009, 253, 161, 284, 288
-1.00099, 17, 65, 144, 128
-1.00099, 193, 65, 224, 320
-1.00107, 1, 65, 500, 128
-1.00107, 213, 65, 244, 320
-1.00111, 17, 33, 144, 96
-1.00114, 197, 161, 228, 288
-1.00124, 129, 121, 256, 184
-1.00129, 65, 113, 320, 176
-1.00131, 133, 113, 164, 240
-1.00135, 1, 25, 256, 88
-1.00138, 305, 273, 368, 333
-1.00145, 65, 73, 320, 136
-1.00147, 145, 113, 176, 240
-1.00148, 217, 65, 280, 320
-1.00157, 1, 49, 256, 112
-1.00158, 161, 113, 224, 240
-1.00184, 85, 113, 116, 240
-1.00188, 401, 265, 464, 328
-1.00193, 177, 73, 304, 136
-1.00209, 257, 9, 320, 72
-1.00214, 5, 145, 36, 272
-1.00228, 209, 161, 240, 288
-1.00234, 161, 97, 288, 160
-1.00234, 1, 49, 64, 112
-1.00239, 257, 65, 320, 192
-1.00242, 201, 1, 264, 64
-1.00249, 9, 81, 72, 144
-1.00252, 365, 1, 396, 128
-1.00258, 129, 1, 256, 128
-1.00259, 177, 49, 304, 112
-1.00261, 209, 1, 272, 128
-1.00264, 233, 1, 296, 128
-1.00272, 81, 113, 208, 176
-1.00287, 241, 145, 304, 208
-1.00291, 81, 25, 208, 88
-1.00291, 129, 41, 256, 104
-1.00291, 81, 49, 208, 112
-1.00291, 129, 65, 256, 128
-1.00291, 65, 73, 192, 136
-1.00291, 113, 89, 240, 152
-1.00291, 209, 113, 336, 240
-1.00305, 161, 113, 192, 240
-1.00309, 177, 1, 240, 128
-1.00316, 177, 25, 304, 88
-1.00327, 269, 145, 300, 272
-1.00332, 269, 1, 300, 128
-1.0034, 225, 161, 256, 288
-1.00356, 237, 161, 268, 288
-1.00359, 233, 1, 264, 128
-1.00362, 177, 121, 304, 184
-1.00376, 193, 65, 256, 320
-1.00387, 9, 137, 72, 200
-1.00394, 249, 1, 280, 128
-1.00395, 257, 113, 320, 176
-1.00399, 225, 9, 288, 72
-1.00401, 9, 105, 72, 168
-1.00404, 201, 177, 264, 240
-1.00408, 217, 1, 248, 128
-1.00413, 289, 113, 320, 240
-1.00419, 153, 129, 216, 192
-1.00438, 113, 1, 176, 64
-1.00446, 205, 1, 236, 128
-1.0045, 189, 1, 220, 128
-1.00458, 1, 9, 64, 72
-1.00462, 1, 49, 256, 176
-1.00466, 9, 113, 72, 240
-1.00468, 1, 97, 32, 224
-1.00497, 249, 65, 312, 128
-1.00497, 1, 1, 64, 128
-1.00504, 425, 273, 488, 333
-1.00535, 57, 129, 120, 192
-1.00548, 1, 65, 128, 192
-1.00555, 41, 81, 104, 144
-1.00558, 17, 1, 144, 128
-1.00559, 25, 1, 56, 128
-1.00565, 273, 33, 336, 96
-1.00567, 29, 49, 60, 176
-1.00573, 173, 113, 204, 240
-1.00573, 201, 153, 264, 216
-1.00591, 9, 49, 72, 176
-1.00594, 1, 1, 32, 128
-1.00599, 177, 1, 208, 128
-1.0061, 33, 145, 96, 208
-1.00626, 13, 1, 44, 128
-1.00636, 29, 113, 60, 240
-1.00637, 5, 49, 36, 176
-1.0064, 41, 57, 104, 120
-1.00661, 33, 33, 96, 96
-1.00671, 17, 49, 48, 176
-1.00677, 45, 1, 76, 128
-1.00692, 49, 49, 80, 176
-1.00693, 109, 81, 140, 208
-1.00696, 49, 97, 112, 224
-1.0071, 41, 105, 104, 168
-1.00721, 73, 113, 104, 240
-1.00723, 233, 121, 296, 184
-1.00725, 257, 113, 288, 240
-1.0074, 17, 113, 48, 240
-1.00742, 97, 81, 160, 208
-1.00774, 161, 65, 192, 192
-1.00776, 273, 81, 304, 208
-1.00792, 113, 65, 240, 192
-1.00812, 189, 113, 220, 240
-1.00822, 153, 1, 216, 128
-1.00836, 137, 65, 168, 192
-1.00842, 57, 97, 88, 224
-1.00971, 41, 33, 104, 160
-1.01054, 81, 1, 208, 128
-1.01061, 65, 49, 192, 176
-1.01146, 225, 113, 288, 240
-1.01156, 161, 49, 288, 176
-1.01215, 73, 81, 136, 208
-1.01224, 185, 97, 248, 224
-1.01248, 145, 65, 208, 192
-1.01412, 233, 49, 296, 176
-1.01425, 209, 65, 272, 192
-1.01452, 113, 33, 176, 160
-1.01471, 65, 17, 128, 144
-1.01474, 185, 49, 248, 176
-1.01478, 89, 33, 152, 160
