1943
-0.255115, 1, 1, 500, 375
-0.256057, 1, 1, 256, 375
-0.313463, 97, 1, 352, 375
-0.375103, 1, 65, 500, 320
-0.402735, 193, 1, 448, 375
-0.43908, 1, 65, 256, 320
-0.455189, 225, 65, 480, 320
-0.527648, 97, 97, 352, 352
-0.560716, 97, 1, 352, 256
-0.804795, 33, 1, 160, 375
-0.820861, 97, 33, 224, 288
-0.821921, 81, 1, 208, 375
-0.822224, 257, 65, 384, 320
-0.826776, 1, 33, 128, 288
-0.832885, 337, 1, 464, 375
-0.839398, 241, 1, 368, 375
-0.846097, 337, 65, 464, 320
-0.846278, 209, 97, 336, 352
-0.846542, 33, 129, 160, 375
-0.855174, 1, 177, 500, 304
-0.855361, 129, 1, 256, 375
-0.856062, 49, 1, 176, 256
-0.858369, 289, 1, 416, 375
-0.85907, 1, 1, 500, 128
-0.862765, 193, 1, 320, 375
-0.864399, 193, 1, 320, 256
-0.86832, 113, 129, 240, 375
-0.869167, 161, 97, 288, 352
-0.877421, 1, 225, 500, 352
-0.883901, 145, 1, 272, 256
-0.886303, 1, 49, 500, 176
-0.887307, 1, 129, 500, 256
-0.888294, 193, 225, 448, 352
-0.891837, 1, 1, 256, 128
-0.89401, 225, 65, 480, 192
-0.896032, 65, 81, 320, 208
-0.897687, 97, 33, 352, 160
-0.899642, 225, 113, 480, 240
-0.900243, 97, 177, 352, 304
-0.905018, 193, 161, 448, 288
-0.905156, 97, 241, 352, 368
-0.908953, 97, 129, 352, 256
-0.911325, 1, 129, 256, 256
-0.915818, 1, 177, 256, 304
-0.917167, 33, 177, 160, 304
-0.921875, 345, 209, 408, 336
-0.922362, 193, 161, 320, 288
-0.923005, 49, 17, 176, 144
-0.923137, 241, 81, 368, 208
-0.925443, 369, 161, 496, 288
-0.925815, 97, 33, 224, 160
-0.925951, 369, 209, 496, 336
-0.926564, 321, 209, 448, 336
-0.926795, 345, 145, 408, 272
-0.926845, 33, 225, 160, 352
-0.927637, 233, 161, 296, 288
-0.927912, 273, 145, 400, 272
-0.929081, 385, 145, 448, 272
-0.929256, 73, 177, 136, 304
-0.92944, 193, 113, 320, 240
-0.929492, 217, 113, 280, 240
-0.930901, 193, 129, 256, 256
-0.93134, 241, 241, 368, 368
-0.931449, 33, 177, 96, 304
-0.931475, 313, 97, 376, 224
-0.932191, 305, 161, 368, 288
-0.932354, 73, 49, 136, 176
-0.932463, 97, 97, 224, 224
-0.934263, 1, 65, 128, 192
-0.934314, 337, 113, 464, 240
-0.934379, 113, 49, 176, 176
-0.934426, 193, 17, 448, 144
-0.934495, 17, 113, 144, 240
-0.934972, 81, 129, 144, 256
-0.935462, 289, 81, 352, 208
-0.935762, 241, 81, 304, 208
-0.9359, 369, 49, 496, 176
-0.936491, 97, 145, 224, 272
-0.936495, 281, 145, 344, 272
-0.936583, 161, 17, 288, 144
-0.936658, 1, 1, 128, 128
-0.936938, 337, 97, 400, 224
-0.937042, 273, 193, 400, 320
-0.93719, 385, 81, 448, 208
-0.937992, 273, 33, 400, 160
-0.9382, 9, 1, 72, 128
-0.938236, 321, 161, 448, 288
-0.938455, 193, 65, 320, 192
-0.941048, 153, 49, 216, 176
-0.941109, 49, 113, 112, 240
-0.941235, 105, 113, 168, 240
-0.941273, 1, 225, 256, 352
-0.942456, 337, 153, 400, 216
-0.942672, 321, 1, 448, 128
-0.942709, 361, 81, 424, 208
-0.942763, 129, 1, 192, 128
-0.943029, 65, 1, 128, 128
-0.943061, 145, 113, 272, 240
-0.943153, 49, 65, 176, 192
-0.943451, 257, 129, 320, 256
-0.943717, 425, 33, 488, 160
-0.94437, 177, 1, 240, 128
-0.944467, 145, 177, 272, 304
-0.945161, 385, 193, 448, 320
-0.945222, 377, 241, 440, 368
-0.945355, 201, 153, 264, 216
-0.945709, 425, 177, 488, 304
-0.945957, 289, 33, 352, 160
-0.946691, 265, 81, 328, 208
-0.946964, 297, 89, 360, 152
-0.947401, 289, 97, 416, 224
-0.947629, 425, 97, 488, 224
-0.947778, 417, 225, 480, 352
-0.947842, 97, 193, 224, 320
-0.948632, 241, 153, 304, 216
-0.948805, 201, 33, 264, 160
-0.948873, 313, 17, 376, 144
-0.948921, 257, 33, 320, 160
-0.949767, 297, 169, 360, 232
-0.949773, 49, 225, 112, 352
-0.950317, 337, 105, 400, 168
-0.950389, 409, 169, 472, 232
-0.950407, 193, 177, 256, 304
-0.950498, 113, 161, 176, 288
-0.950559, 153, 97, 216, 224
-0.950692, 193, 81, 256, 208
-0.951053, 33, 209, 96, 272
-0.951238, 17, 49, 80, 176
-0.951646, 385, 169, 448, 232
-0.95183, 249, 241, 312, 368
-0.951863, 297, 113, 360, 176
-0.952008, 105, 1, 168, 128
-0.952026, 169, 161, 232, 288
-0.9524, 41, 1, 104, 128
-0.952862, 73, 89, 136, 152
-0.953212, 345, 233, 408, 296
-0.953263, 337, 129, 400, 192
-0.95361, 337, 33, 400, 160
-0.95382, 249, 81, 312, 144
-0.95391, 273, 185, 336, 248
-0.954098, 273, 73, 336, 136
-0.954261, 9, 193, 72, 320
-0.954291, 105, 113, 168, 176
-0.954501, 49, 49, 112, 176
-0.954504, 73, 233, 136, 296
-0.954595, 153, 1, 216, 128
-0.954918, 313, 193, 376, 256
-0.955051, 297, 57, 360, 120
-0.955203, 401, 33, 464, 160
-0.955489, 193, 225, 320, 352
-0.955661, 73, 225, 136, 352
-0.955712, 217, 129, 280, 192
-0.955941, 73, 185, 136, 248
-0.95603, 73, 209, 136, 272
-0.956188, 385, 193, 448, 256
-0.956396, 425, 65, 488, 128
-0.956409, 281, 193, 344, 320
-0.956439, 321, 49, 448, 176
-0.957066, 273, 161, 336, 224
-0.957077, 25, 241, 88, 368
-0.957158, 209, 241, 272, 368
-0.957624, 241, 257, 304, 320
-0.957768, 361, 177, 424, 240
-0.957901, 249, 177, 312, 240
-0.958025, 385, 241, 448, 304
-0.958111, 345, 201, 408, 264
-0.958253, 145, 65, 272, 192
-0.958282, 377, 281, 440, 344
-0.958325, 97, 145, 160, 208
-0.958492, 33, 1, 96, 64
-0.958712, 369, 1, 496, 128
-0.958749, 161, 153, 224, 216
-0.958903, 385, 81, 448, 144
-0.959593, 225, 177, 288, 240
-0.9598, 113, 65, 176, 128
-0.959831, 433, 105, 496, 168
-0.959851, 1, 1, 64, 64
-0.960423, 409, 41, 472, 104
-0.960446, 337, 73, 400, 136
-0.960465, 145, 225, 272, 352
-0.960613, 9, 97, 72, 224
-0.960653, 193, 177, 256, 240
-0.960689, 57, 121, 120, 184
-0.96115, 1, 25, 64, 88
-0.961324, 409, 265, 472, 328
-0.961402, 193, 1, 256, 64
-0.961456, 33, 185, 96, 248
-0.961559, 97, 41, 160, 104
-0.961592, 49, 161, 112, 224
-0.961602, 49, 241, 112, 304
-0.961828, 361, 137, 424, 200
-0.962066, 25, 241, 88, 304
-0.962199, 153, 57, 216, 120
-0.962207, 265, 137, 328, 200
-0.962691, 169, 177, 232, 240
-0.962774, 409, 193, 472, 256
-0.962928, 225, 1, 352, 128
-0.963309, 337, 177, 400, 240
-0.963589, 241, 129, 304, 192
-0.963615, 273, 65, 336, 320
-0.963751, 233, 97, 296, 352
-0.964045, 321, 209, 384, 336
-0.964199, 193, 129, 256, 192
-0.964344, 89, 65, 152, 128
-0.964606, 297, 137, 360, 200
-0.964662, 377, 97, 440, 352
-0.964723, 257, 177, 320, 304
-0.964825, 313, 65, 376, 320
-0.965205, 105, 33, 168, 288
-0.965231, 385, 217, 448, 280
-0.965365, 9, 49, 72, 112
-0.965423, 17, 209, 144, 272
-0.965458, 345, 97, 408, 352
-0.965504, 129, 169, 192, 232
-0.965521, 73, 129, 136, 375
-0.965541, 401, 145, 464, 208
-0.965637, 221, 145, 252, 208
-0.965751, 41, 49, 104, 112
-0.966023, 257, 105, 320, 168
-0.966089, 97, 65, 224, 128
-0.966193, 233, 225, 296, 288
-0.966208, 369, 177, 496, 240
-0.966238, 17, 1, 144, 64
-0.966323, 17, 233, 144, 296
-0.966512, 129, 41, 192, 104
-0.966513, 425, 33, 488, 288
-0.96653, 73, 153, 136, 216
-0.966541, 241, 81, 368, 144
-0.966629, 257, 161, 384, 224
-0.966705, 209, 161, 336, 224
-0.966728, 221, 129, 252, 256
-0.96708, 153, 129, 216, 192
-0.96708, 433, 177, 496, 240
-0.967125, 25, 65, 88, 320
-0.967176, 377, 305, 440, 368
-0.967257, 137, 145, 200, 272
-0.967279, 273, 305, 336, 368
-0.967332, 321, 81, 352, 208
-0.967393, 9, 177, 72, 240
-0.967447, 33, 185, 160, 248
-0.967554, 25, 81, 88, 144
-0.967696, 1, 1, 64, 256
-0.967705, 113, 1, 176, 64
-0.967766, 241, 97, 272, 224
-0.967804, 409, 297, 472, 360
-0.967954, 49, 73, 176, 136
-0.967961, 297, 273, 360, 336
-0.968079, 361, 89, 424, 152
-0.968157, 301, 81, 332, 208
-0.968165, 257, 193, 384, 256
-0.96825, 281, 209, 344, 272
-0.968252, 329, 177, 360, 304
-0.96826, 113, 49, 144, 176
-0.968376, 217, 105, 280, 168
-0.968394, 273, 49, 336, 112
-0.968427, 193, 185, 320, 248
-0.968473, 369, 281, 496, 344
-0.968531, 409, 89, 472, 152
-0.968578, 97, 137, 128, 200
-0.968783, 369, 129, 400, 256
-0.968815, 73, 1, 136, 256
-0.968964, 105, 169, 168, 232
-0.96904, 93, 145, 124, 272
-0.969111, 113, 209, 176, 336
-0.969207, 385, 57, 448, 120
-0.969237, 273, 241, 336, 368
-0.969249, 361, 1, 424, 128
-0.969335, 201, 249, 264, 312
-0.969355, 73, 41, 136, 104
-0.969356, 241, 129, 368, 192
-0.969395, 17, 1, 48, 128
-0.969457, 25, 25, 88, 88
-0.969507, 425, 241, 488, 304
-0.969698, 65, 65, 128, 128
-0.969746, 241, 297, 304, 360
-0.969827, 93, 65, 124, 192
-0.969953, 65, 1, 128, 64
-0.970021, 153, 1, 216, 64
-0.970049, 337, 1, 400, 256
-0.970057, 145, 153, 272, 216
-0.970204, 369, 89, 496, 152
-0.970364, 345, 289, 408, 352
-0.97048, 209, 129, 272, 375
-0.970656, 321, 153, 448, 216
-0.970747, 129, 145, 192, 208
-0.970854, 293, 177, 324, 240
-0.970926, 297, 33, 360, 96
-0.970935, 241, 49, 304, 112
-0.97096, 113, 89, 176, 152
-0.970965, 97, 161, 224, 224
-0.970969, 305, 81, 336, 144
-0.970973, 321, 233, 448, 296
-0.970974, 49, 33, 112, 288
-0.971064, 193, 81, 320, 144
-0.971119, 321, 81, 352, 144
-0.97119, 225, 193, 256, 320
-0.971203, 437, 169, 468, 232
-0.971239, 17, 17, 48, 80
-0.97132, 113, 217, 176, 280
-0.971421, 357, 145, 388, 272
-0.971477, 153, 81, 216, 144
-0.971495, 1, 73, 64, 136
-0.971562, 369, 249, 496, 312
-0.971616, 337, 17, 400, 80
-0.971711, 369, 113, 432, 176
-0.971748, 97, 113, 224, 176
-0.971825, 393, 161, 424, 288
-0.971838, 233, 33, 296, 160
-0.971955, 33, 49, 160, 112
-0.971976, 113, 97, 144, 224
-0.97207, 241, 161, 272, 288
-0.972129, 397, 169, 428, 232
-0.972203, 317, 33, 348, 160
-0.972222, 97, 241, 224, 368
-0.972268, 193, 89, 256, 152
-0.97227, 309, 177, 340, 240
-0.972286, 81, 121, 144, 184
-0.972354, 5, 1, 36, 128
-0.972359, 373, 209, 404, 336
-0.972509, 201, 225, 264, 288
-0.972654, 437, 161, 468, 288
-0.972668, 89, 185, 120, 248
-0.972668, 385, 185, 416, 248
-0.972766, 305, 249, 368, 312
-0.972869, 1, 9, 32, 72
-0.972923, 17, 25, 144, 88
-0.972935, 341, 97, 372, 160
-0.97298, 81, 41, 208, 104
-0.973007, 33, 257, 160, 320
-0.973098, 37, 193, 68, 320
-0.973139, 353, 201, 480, 264
-0.97315, 401, 65, 464, 320
-0.973175, 225, 233, 352, 296
-0.973191, 129, 97, 192, 224
-0.973248, 217, 49, 280, 112
-0.973248, 433, 201, 496, 264
-0.973256, 117, 113, 148, 176
-0.973335, 321, 177, 352, 240
-0.973474, 385, 81, 416, 208
-0.973474, 293, 129, 324, 256
-0.973596, 117, 65, 148, 128
-0.973739, 37, 1, 68, 64
-0.973745, 305, 145, 336, 272
-0.97375, 273, 105, 400, 168
-0.973816, 305, 177, 432, 240
-0.973839, 193, 129, 320, 192
-0.973878, 381, 161, 412, 288
-0.973903, 237, 185, 268, 248
-0.974097, 129, 1, 192, 256
-0.974234, 273, 273, 336, 336
-0.974237, 225, 105, 352, 168
-0.974254, 73, 113, 104, 240
-0.974301, 117, 1, 148, 128
-0.974441, 457, 33, 488, 160
-0.9745, 97, 1, 128, 128
-0.974545, 433, 97, 464, 224
-0.974595, 425, 145, 488, 208
-0.974645, 177, 41, 304, 104
-0.974662, 25, 105, 88, 168
-0.9747, 433, 305, 496, 368
-0.974816, 421, 81, 452, 208
-0.974847, 345, 97, 376, 224
-0.974875, 145, 1, 272, 64
-0.975038, 249, 201, 312, 264
-0.975058, 73, 1, 104, 128
-0.97508, 81, 185, 208, 248
-0.975133, 321, 89, 448, 152
-0.975168, 337, 193, 368, 256
-0.975243, 161, 105, 288, 168
-0.975256, 33, 1, 96, 375
-0.975325, 33, 1, 64, 128
-0.975331, 85, 145, 116, 208
-0.975371, 17, 273, 80, 336
-0.975379, 281, 185, 312, 248
-0.975434, 345, 257, 408, 320
-0.975445, 17, 153, 80, 216
-0.975498, 253, 81, 284, 144
-0.975502, 125, 49, 156, 176
-0.975511, 317, 57, 348, 120
-0.975513, 113, 41, 144, 104
-0.975675, 289, 129, 416, 192
-0.975694, 313, 313, 376, 375
-0.975736, 289, 281, 416, 344
-0.975772, 373, 153, 404, 216
-0.975779, 305, 201, 432, 264
-0.975779, 345, 153, 376, 216
-0.975809, 285, 73, 316, 136
-0.975853, 337, 49, 400, 112
-0.975934, 337, 313, 400, 375
-0.975946, 369, 305, 496, 368
-0.975947, 17, 105, 144, 168
-0.976009, 265, 249, 328, 312
-0.976023, 245, 241, 276, 304
-0.976034, 153, 33, 216, 288
-0.976105, 281, 129, 312, 256
-0.976137, 265, 153, 296, 216
-0.976216, 425, 17, 488, 80
-0.97629, 333, 129, 364, 256
-0.976301, 97, 89, 224, 152
-0.976301, 1, 161, 128, 224
-0.97632, 297, 153, 328, 216
-0.976333, 241, 297, 368, 360
-0.97634, 321, 257, 448, 320
-0.976341, 241, 257, 368, 320
-0.976363, 189, 1, 220, 128
-0.976414, 241, 33, 368, 96
-0.976417, 1, 145, 64, 272
-0.976427, 237, 105, 268, 168
-0.976453, 29, 25, 60, 88
-0.976469, 185, 33, 248, 96
-0.976486, 89, 17, 152, 80
-0.976524, 261, 81, 292, 208
-0.976535, 65, 225, 192, 288
-0.976589, 373, 81, 404, 208
-0.97664, 349, 129, 380, 192
-0.976683, 433, 273, 496, 336
-0.976718, 201, 273, 264, 336
-0.976746, 65, 177, 96, 304
-0.976842, 249, 1, 312, 256
-0.976864, 69, 169, 100, 232
-0.976946, 133, 1, 164, 128
-0.976966, 349, 193, 380, 320
-0.976972, 381, 225, 412, 288
-0.97704, 305, 33, 336, 160
-0.977088, 1, 73, 128, 136
-0.977123, 97, 65, 128, 128
-0.97715, 209, 145, 240, 272
-0.977171, 289, 121, 320, 184
-0.977216, 333, 169, 364, 232
-0.97724, 41, 185, 72, 248
-0.977276, 413, 169, 444, 232
-0.977305, 369, 225, 496, 288
-0.977315, 369, 129, 400, 192
-0.97734, 305, 193, 336, 320
-0.977437, 297, 241, 360, 368
-0.977437, 297, 1, 360, 64
-0.977461, 33, 241, 64, 304
-0.977482, 145, 177, 272, 240
-0.977632, 289, 65, 416, 128
-0.977764, 301, 201, 332, 264
-0.977782, 289, 1, 320, 128
-0.977793, 409, 217, 472, 280
-0.977823, 81, 137, 208, 200
-0.977841, 329, 33, 360, 160
-0.977843, 1, 241, 64, 368
-0.977875, 277, 137, 308, 200
-0.97789, 457, 281, 488, 344
-0.977896, 281, 177, 312, 304
-0.977936, 281, 65, 312, 192
-0.97797, 341, 49, 372, 176
-0.978021, 369, 65, 496, 128
-0.978066, 261, 161, 292, 288
-0.978157, 241, 153, 272, 216
-0.978259, 113, 1, 176, 375
-0.978339, 245, 129, 276, 192
-0.978355, 385, 1, 448, 375
-0.978393, 129, 113, 160, 176
-0.97842, 41, 49, 72, 112
-0.978458, 53, 1, 84, 64
-0.978458, 329, 105, 360, 168
-0.978586, 145, 49, 176, 176
-0.978606, 241, 57, 368, 120
-0.978623, 401, 241, 432, 304
-0.978636, 325, 33, 356, 96
-0.978657, 9, 1, 72, 375
-0.978684, 17, 201, 48, 264
-0.978717, 429, 145, 460, 208
-0.978793, 233, 1, 296, 375
-0.978819, 173, 57, 204, 120
-0.978839, 305, 57, 336, 120
-0.97886, 73, 217, 104, 280
-0.978882, 217, 1, 280, 256
-0.978899, 457, 57, 488, 120
-0.978925, 345, 145, 376, 272
-0.97897, 81, 49, 112, 176
-0.978971, 33, 137, 160, 200
-0.979082, 425, 129, 488, 375
-0.979083, 425, 1, 488, 375
-0.979124, 49, 33, 80, 160
-0.979157, 369, 113, 496, 176
-0.979297, 413, 145, 444, 272
-0.9793, 177, 49, 208, 176
-0.979315, 113, 145, 144, 272
-0.979396, 137, 73, 168, 136
-0.979436, 453, 193, 484, 320
-0.979474, 81, 1, 144, 375
-0.979502, 141, 137, 172, 200
-0.979524, 289, 305, 416, 368
-0.979561, 49, 161, 176, 224
-0.979676, 113, 161, 144, 224
-0.979753, 301, 273, 332, 336
-0.979755, 225, 1, 352, 64
-0.979765, 321, 1, 448, 64
-0.979768, 53, 193, 84, 320
-0.979786, 209, 161, 240, 224
-0.979803, 289, 41, 416, 104
-0.979805, 73, 49, 104, 112
-0.979806, 321, 129, 352, 256
-0.979845, 209, 209, 336, 272
-0.979846, 337, 73, 368, 136
-0.979846, 37, 209, 68, 272
-0.979885, 245, 225, 276, 352
-0.979939, 289, 1, 352, 375
-0.979978, 25, 209, 56, 336
-0.979987, 49, 209, 80, 272
-0.980038, 233, 33, 264, 160
-0.980045, 433, 57, 464, 120
-0.980066, 65, 241, 96, 304
-0.98008, 165, 33, 196, 160
-0.980087, 221, 225, 252, 288
-0.980097, 285, 289, 316, 352
-0.980099, 49, 129, 112, 375
-0.980154, 145, 65, 272, 128
-0.980168, 113, 129, 176, 375
-0.980169, 381, 105, 412, 168
-0.98021, 153, 1, 216, 375
-0.980222, 377, 1, 440, 256
-0.980313, 193, 257, 320, 320
-0.980338, 201, 1, 232, 128
-0.980404, 393, 241, 424, 368
-0.980406, 61, 33, 92, 160
-0.980455, 197, 81, 228, 208
-0.980495, 1, 65, 32, 192
-0.980545, 77, 161, 108, 288
-0.980545, 145, 129, 272, 192
-0.980677, 73, 121, 104, 184
-0.9807, 17, 41, 48, 104
-0.980841, 65, 17, 192, 80
-0.980841, 273, 225, 400, 288
-0.980853, 421, 89, 452, 152
-0.980857, 293, 209, 324, 336
-0.980865, 57, 1, 120, 375
-0.980875, 133, 41, 164, 104
-0.980899, 361, 193, 392, 256
-0.980926, 445, 49, 476, 176
-0.980942, 397, 65, 428, 192
-0.980992, 393, 209, 424, 272
-0.981021, 145, 249, 272, 312
-0.981045, 125, 89, 156, 152
-0.981115, 369, 105, 400, 168
-0.981207, 225, 249, 256, 312
-0.98122, 257, 33, 288, 160
-0.981266, 197, 161, 228, 288
-0.981283, 9, 177, 40, 304
-0.981349, 373, 201, 404, 264
-0.981385, 301, 105, 332, 168
-0.981514, 193, 1, 256, 256
-0.981518, 69, 225, 100, 352
-0.981521, 225, 1, 256, 64
-0.981528, 57, 73, 88, 136
-0.98159, 185, 97, 248, 352
-0.981744, 281, 209, 312, 272
-0.981782, 409, 73, 440, 136
-0.981803, 345, 1, 408, 375
-0.981832, 277, 225, 308, 352
-0.981937, 369, 153, 496, 216
-0.981954, 113, 209, 240, 272
-0.981969, 357, 97, 388, 224
-0.981988, 325, 137, 356, 200
-0.981999, 453, 81, 484, 144
-0.982103, 425, 177, 456, 304
-0.982146, 105, 105, 136, 168
-0.982167, 177, 1, 208, 128
-0.98222, 361, 169, 392, 232
-0.98229, 265, 1, 328, 375
-0.982304, 373, 313, 404, 375
-0.982358, 433, 97, 464, 160
-0.982361, 249, 265, 280, 328
-0.982367, 85, 1, 116, 128
-0.982546, 157, 41, 188, 104
-0.982586, 85, 65, 116, 128
-0.982589, 5, 33, 36, 96
-0.982597, 337, 241, 368, 368
-0.982624, 469, 1, 500, 128
-0.982627, 249, 57, 280, 120
-0.982687, 49, 241, 80, 368
-0.982688, 53, 257, 84, 320
-0.98277, 469, 273, 500, 336
-0.982777, 9, 113, 40, 240
-0.982827, 1, 97, 64, 352
-0.982832, 429, 17, 460, 144
-0.982833, 353, 105, 384, 168
-0.982882, 149, 161, 180, 224
-0.982898, 445, 97, 476, 224
-0.982902, 265, 113, 296, 176
-0.982932, 213, 1, 244, 64
-0.982932, 61, 97, 92, 224
-0.982957, 21, 177, 52, 240
-0.983005, 69, 193, 100, 256
-0.983021, 357, 217, 388, 280
-0.983051, 53, 41, 84, 104
-0.983062, 185, 1, 216, 64
-0.983101, 97, 161, 128, 224
-0.983116, 201, 1, 232, 64
-0.983142, 153, 1, 184, 128
-0.98318, 465, 177, 496, 304
-0.983182, 389, 281, 420, 344
-0.983215, 417, 193, 448, 256
-0.98322, 197, 177, 228, 240
-0.983293, 317, 177, 348, 304
-0.983303, 397, 113, 428, 240
-0.983348, 313, 201, 344, 264
-0.983356, 153, 137, 184, 200
-0.983366, 361, 81, 392, 144
-0.983383, 409, 49, 440, 112
-0.983426, 17, 49, 48, 176
-0.983443, 385, 153, 416, 216
-0.98345, 77, 241, 108, 304
-0.983468, 409, 65, 440, 192
-0.983472, 401, 145, 432, 208
-0.983505, 421, 41, 452, 104
-0.983512, 101, 233, 132, 296
-0.983584, 21, 145, 52, 272
-0.983591, 125, 97, 156, 224
-0.983646, 325, 257, 356, 320
-0.98365, 469, 113, 500, 240
-0.983704, 97, 193, 128, 320
-0.983752, 273, 65, 304, 128
-0.983791, 37, 49, 68, 176
-0.9838, 193, 289, 320, 352
-0.983868, 181, 81, 212, 144
-0.983897, 65, 1, 96, 64
-0.983975, 361, 193, 392, 320
-0.984024, 253, 169, 284, 232
-0.984031, 117, 17, 148, 80
-0.984142, 277, 1, 308, 128
-0.984146, 233, 241, 264, 368
-0.984159, 425, 225, 456, 352
-0.984198, 185, 129, 216, 256
-0.984437, 441, 225, 472, 352
-0.984586, 245, 33, 276, 160
-0.984623, 137, 97, 168, 224
-0.984651, 209, 1, 272, 375
-0.984789, 257, 241, 288, 368
-0.984904, 161, 225, 288, 288
-0.985007, 273, 1, 400, 64
-0.985116, 317, 225, 348, 352
-0.985373, 213, 1, 244, 128
-0.985458, 369, 41, 496, 104
-0.985471, 369, 1, 496, 64
-0.985529, 361, 49, 392, 176
-0.985578, 405, 1, 436, 128
-0.98601, 417, 17, 448, 144
-0.986029, 121, 193, 152, 320
-0.986086, 113, 313, 240, 375
-0.986164, 33, 281, 160, 344
-0.986203, 113, 281, 240, 344
-0.986302, 457, 97, 488, 224
-0.986649, 169, 209, 232, 336
-0.986701, 129, 33, 256, 96
-0.987106, 353, 1, 384, 128
-0.987154, 97, 257, 224, 320
-0.987273, 413, 193, 444, 320
-0.987298, 365, 1, 396, 128
-0.987447, 321, 1, 384, 375
-0.987471, 49, 81, 80, 208
-0.987813, 337, 169, 400, 200
-0.987871, 453, 145, 484, 272
-0.987872, 225, 81, 480, 144
-0.987888, 381, 33, 412, 160
-0.987908, 161, 313, 288, 375
-0.987985, 145, 193, 208, 320
-0.988049, 45, 145, 76, 272
-0.988091, 97, 177, 352, 240
-0.988132, 33, 81, 288, 144
-0.988242, 221, 81, 252, 208
-0.988248, 217, 153, 280, 184
-0.988262, 149, 129, 180, 256
-0.988268, 457, 241, 488, 368
-0.988304, 177, 1, 240, 375
-0.988315, 385, 169, 448, 200
-0.988323, 297, 97, 360, 128
-0.988343, 361, 165, 424, 196
-0.988483, 21, 97, 52, 224
-0.988499, 193, 181, 256, 212
-0.988577, 41, 209, 104, 240
-0.988583, 81, 209, 112, 336
-0.988592, 257, 161, 500, 224
-0.98861, 377, 293, 440, 324
-0.988647, 281, 185, 344, 216
-0.988663, 65, 189, 128, 220
-0.988679, 49, 177, 112, 208
-0.98868, 337, 157, 400, 188
-0.988745, 377, 181, 440, 212
-0.98877, 385, 89, 448, 120
-0.988786, 425, 181, 488, 212
-0.988827, 209, 165, 272, 196
-0.988829, 105, 69, 168, 100
-0.98886, 305, 205, 368, 236
-0.988865, 97, 113, 352, 176
-0.988885, 425, 77, 488, 108
-0.988899, 1, 177, 500, 240
-0.988914, 297, 85, 360, 116
-0.988924, 153, 177, 216, 208
-0.988924, 353, 225, 416, 256
-0.988937, 33, 313, 160, 375
-0.988942, 233, 177, 296, 208
-0.988966, 273, 213, 336, 244
-0.988967, 209, 97, 240, 224
-0.988982, 1, 177, 256, 240
-0.988994, 73, 241, 136, 272
-0.989007, 337, 181, 400, 212
-0.989019, 193, 265, 448, 328
-0.989036, 97, 9, 352, 72
-0.98905, 225, 201, 480, 264
-0.989068, 337, 105, 400, 136
-0.989083, 257, 165, 320, 196
-0.9891, 41, 197, 104, 228
-0.989106, 313, 165, 376, 196
-0.989119, 385, 193, 448, 224
-0.989126, 265, 81, 328, 112
-0.989147, 1, 225, 500, 288
-0.989157, 17, 185, 80, 216
-0.989284, 25, 253, 88, 284
-0.989322, 385, 261, 448, 292
-0.989334, 193, 153, 256, 184
-0.989347, 409, 93, 472, 124
-0.98937, 369, 153, 432, 184
-0.989383, 297, 113, 360, 144
-0.989393, 161, 165, 224, 196
-0.989395, 145, 61, 208, 92
-0.989396, 289, 165, 352, 196
-0.989414, 241, 265, 304, 296
-0.989417, 337, 125, 400, 156
-0.989418, 1, 17, 64, 48
-0.989451, 113, 121, 176, 152
-0.989453, 193, 241, 448, 304
-0.989469, 257, 137, 320, 168
-0.989475, 81, 209, 144, 240
-0.989488, 329, 221, 392, 252
-0.98949, 297, 149, 360, 180
-0.989527, 265, 153, 328, 184
-0.989566, 185, 169, 248, 200
-0.989568, 129, 177, 192, 208
-0.989626, 25, 233, 88, 264
-0.989658, 385, 237, 448, 268
-0.989697, 241, 93, 304, 124
-0.989701, 273, 197, 336, 228
-0.989705, 337, 145, 400, 176
-0.989753, 217, 133, 280, 164
-0.989789, 305, 225, 368, 256
-0.989793, 233, 165, 296, 196
-0.989793, 305, 177, 368, 208
-0.989807, 1, 1, 500, 64
-0.989822, 393, 157, 456, 188
-0.989837, 73, 97, 136, 128
-0.98985, 1, 273, 500, 336
-0.989863, 273, 225, 336, 256
-0.989867, 289, 65, 352, 96
-0.989874, 89, 193, 152, 224
-0.989876, 225, 245, 288, 276
-0.989887, 385, 281, 448, 312
-0.989914, 73, 229, 136, 260
-0.989923, 385, 249, 448, 280
-0.989929, 425, 193, 488, 224
-0.989951, 377, 309, 440, 340
-0.989961, 161, 41, 416, 104
-0.989969, 97, 153, 352, 216
-0.989988, 81, 65, 144, 96
-0.989993, 1, 297, 500, 360
-0.989995, 161, 129, 224, 375
-0.989997, 1, 57, 256, 120
-0.989999, 345, 237, 408, 268
-0.99, 73, 165, 136, 196
-0.99001, 241, 189, 304, 220
-0.990015, 33, 221, 96, 252
-0.990023, 353, 201, 416, 232
-0.990034, 73, 109, 136, 140
-0.990042, 65, 85, 128, 116
-0.990048, 1, 9, 256, 72
-0.990053, 305, 193, 368, 224
-0.990054, 433, 105, 496, 136
-0.990067, 89, 177, 152, 208
-0.990069, 121, 57, 184, 88
-0.990071, 409, 57, 472, 88
-0.990088, 1, 45, 64, 76
-0.990125, 193, 141, 256, 172
-0.990127, 409, 301, 472, 332
-0.990134, 105, 133, 168, 164
-0.990135, 385, 221, 448, 252
-0.990176, 401, 181, 464, 212
-0.990206, 329, 205, 392, 236
-0.990216, 33, 217, 288, 280
-0.990227, 97, 157, 160, 188
-0.990235, 289, 125, 352, 156
-0.990237, 201, 253, 264, 284
-0.99025, 97, 273, 352, 336
-0.990251, 401, 77, 464, 108
-0.990255, 409, 277, 472, 308
-0.990268, 1, 77, 64, 108
-0.99027, 201, 101, 264, 132
-0.990304, 193, 1, 256, 32
-0.990311, 321, 81, 384, 112
-0.990319, 329, 17, 392, 48
-0.990344, 33, 109, 96, 140
-0.990369, 1, 201, 500, 264
-0.990376, 273, 93, 336, 124
-0.990384, 241, 153, 304, 184
-0.990384, 393, 205, 456, 236
-0.990391, 409, 169, 472, 200
-0.990402, 433, 93, 496, 124
-0.990425, 1, 33, 64, 64
-0.990437, 33, 37, 96, 68
-0.990444, 249, 109, 312, 140
-0.990444, 425, 205, 488, 236
-0.990454, 113, 109, 176, 140
-0.990462, 1, 1, 64, 32
-0.990474, 129, 81, 384, 144
-0.990481, 425, 45, 488, 76
-0.990498, 25, 265, 88, 296
-0.990522, 361, 97, 424, 128
-0.990548, 33, 165, 96, 196
-0.990549, 305, 37, 368, 68
-0.990566, 217, 121, 280, 152
-0.990571, 417, 313, 480, 344
-0.990578, 1, 137, 256, 200
-0.990587, 57, 253, 120, 284
-0.99059, 65, 145, 128, 176
-0.990594, 161, 189, 224, 220
-0.990607, 353, 213, 416, 244
-0.990608, 89, 45, 152, 76
-0.990619, 377, 109, 440, 140
-0.990622, 121, 165, 184, 196
-0.990644, 113, 25, 176, 56
-0.990662, 225, 121, 480, 184
-0.990779, 97, 249, 352, 312
-0.99122, 193, 289, 448, 352
-0.991661, 33, 213, 160, 244
-0.991751, 1, 105, 256, 168
-0.991782, 1, 153, 500, 216
-0.991866, 1, 33, 256, 96
-0.991963, 65, 297, 320, 360
-0.991966, 397, 173, 428, 204
-0.992065, 113, 65, 144, 96
-0.99207, 321, 185, 352, 216
-0.992099, 257, 49, 500, 112
-0.992134, 17, 17, 48, 48
-0.992169, 5, 21, 36, 52
-0.992198, 97, 69, 224, 100
-0.992204, 373, 153, 404, 184
-0.992231, 225, 149, 256, 180
-0.992261, 97, 141, 128, 172
-0.992265, 89, 185, 120, 216
-0.99227, 437, 173, 468, 204
-0.992283, 17, 29, 48, 60
-0.992287, 341, 101, 372, 132
-0.992299, 369, 165, 400, 196
-0.992319, 349, 157, 380, 188
-0.99234, 313, 173, 344, 204
-0.992351, 93, 73, 124, 104
-0.992353, 381, 233, 412, 264
-0.992356, 85, 169, 116, 200
-0.992373, 317, 97, 348, 128
-0.992374, 289, 189, 320, 220
-0.992376, 25, 41, 56, 72
-0.992377, 361, 137, 392, 168
-0.992382, 385, 157, 416, 188
-0.992385, 5, 33, 36, 64
-0.992394, 221, 161, 252, 192
-0.992407, 389, 189, 420, 220
-0.992422, 313, 81, 344, 112
-0.992423, 69, 201, 100, 232
-0.992427, 249, 93, 280, 124
-0.992434, 321, 109, 352, 140
-0.992461, 381, 169, 412, 200
-0.992463, 305, 185, 336, 216
-0.992468, 301, 161, 332, 192
-0.992469, 285, 145, 316, 176
-0.99248, 305, 97, 336, 128
-0.992489, 289, 209, 320, 240
-0.99249, 285, 177, 316, 208
-0.992501, 117, 121, 148, 152
-0.992502, 301, 173, 332, 204
-0.992512, 101, 237, 132, 268
-0.992514, 237, 241, 268, 272
-0.992518, 281, 73, 312, 104
-0.99252, 317, 41, 348, 72
-0.99252, 361, 153, 392, 184
-0.99252, 149, 165, 180, 196
-0.992522, 29, 21, 60, 52
-0.992526, 73, 185, 104, 216
-0.992527, 137, 65, 168, 96
-0.992527, 265, 81, 296, 112
-0.992529, 297, 81, 328, 112
-0.992533, 233, 193, 264, 224
-0.992535, 185, 177, 216, 208
-0.992537, 409, 169, 440, 200
-0.992543, 361, 221, 392, 252
-0.992556, 173, 57, 204, 88
-0.992558, 313, 197, 344, 228
-0.99256, 393, 285, 424, 316
-0.992569, 69, 249, 100, 280
-0.992572, 113, 133, 144, 164
-0.992577, 421, 93, 452, 124
-0.992584, 341, 173, 372, 204
-0.992585, 301, 273, 332, 304
-0.992592, 329, 85, 360, 116
-0.992596, 53, 197, 84, 228
-0.992605, 329, 33, 360, 64
-0.992612, 457, 57, 488, 88
-0.992613, 17, 225, 144, 256
-0.992615, 241, 181, 272, 212
-0.992615, 33, 69, 160, 100
-0.992616, 121, 109, 152, 140
-0.992622, 401, 237, 432, 268
-0.992624, 81, 69, 112, 100
-0.992628, 81, 233, 112, 264
-0.992632, 409, 77, 440, 108
-0.992635, 325, 197, 356, 228
-0.992636, 393, 225, 424, 256
-0.992642, 305, 109, 336, 140
-0.992642, 17, 1, 48, 32
-0.992643, 165, 173, 196, 204
-0.992649, 417, 181, 448, 212
-0.992659, 241, 165, 272, 196
-0.992659, 449, 297, 480, 328
-0.992663, 97, 153, 128, 184
-0.992668, 329, 161, 360, 192
-0.992681, 393, 89, 424, 120
-0.992681, 373, 141, 404, 172
-0.992689, 153, 53, 184, 84
-0.992691, 17, 241, 144, 272
-0.992692, 441, 85, 472, 116
-0.992693, 357, 125, 388, 156
-0.992694, 333, 185, 364, 216
-0.992699, 45, 209, 76, 240
-0.992699, 309, 209, 340, 240
-0.992704, 397, 161, 428, 192
-0.992706, 301, 197, 332, 228
-0.992717, 369, 93, 496, 124
-0.992723, 133, 53, 164, 84
-0.992726, 377, 213, 408, 244
-0.992728, 277, 205, 308, 236
-0.992733, 241, 165, 368, 196
-0.992735, 117, 45, 148, 76
-0.99274, 57, 73, 88, 104
-0.992741, 329, 97, 360, 128
-0.992745, 369, 121, 400, 152
-0.992756, 117, 77, 148, 108
-0.992757, 417, 197, 448, 228
-0.99276, 65, 121, 96, 152
-0.992767, 289, 157, 320, 188
-0.992768, 97, 85, 128, 116
-0.992769, 1, 249, 500, 312
-0.992769, 41, 189, 72, 220
-0.992771, 377, 181, 408, 212
-0.992771, 29, 261, 60, 292
-0.992774, 5, 9, 36, 40
-0.992778, 277, 217, 308, 248
-0.992783, 113, 25, 144, 56
-0.992784, 9, 45, 40, 76
-0.992787, 301, 149, 332, 180
-0.992789, 289, 277, 320, 308
-0.992791, 245, 265, 276, 296
-0.992791, 417, 157, 448, 188
-0.992794, 305, 65, 336, 96
-0.992797, 269, 161, 300, 192
-0.992797, 121, 93, 152, 124
-0.992801, 21, 205, 52, 236
-0.992803, 225, 253, 256, 284
-0.992805, 137, 153, 168, 184
-0.992806, 453, 93, 484, 124
-0.992807, 357, 169, 388, 200
-0.992807, 241, 253, 272, 284
-0.992809, 257, 197, 384, 228
-0.99281, 341, 201, 372, 232
-0.992814, 453, 77, 484, 108
-0.992817, 349, 141, 380, 172
-0.992818, 273, 153, 400, 184
-0.992821, 341, 125, 372, 156
-0.992825, 289, 221, 320, 252
-0.992833, 285, 93, 316, 124
-0.992833, 321, 181, 448, 212
-0.992865, 1, 25, 500, 88
-0.992889, 193, 93, 320, 124
-0.992933, 17, 193, 144, 224
-0.992997, 321, 161, 448, 192
-0.993033, 273, 137, 400, 168
-0.993078, 241, 85, 368, 116
-0.993095, 225, 185, 352, 216
-0.993131, 369, 297, 496, 328
-0.993206, 97, 57, 224, 88
-0.993248, 319, 193, 334, 256
-0.993254, 129, 201, 384, 264
-0.993286, 193, 173, 320, 204
-0.993352, 395, 169, 410, 232
-0.993353, 257, 313, 500, 375
-0.993393, 97, 113, 224, 144
-0.993422, 319, 169, 334, 232
-0.993432, 109, 137, 124, 200
-0.993477, 1, 73, 500, 136
-0.993532, 17, 25, 144, 56
-0.993539, 233, 137, 248, 200
-0.993579, 33, 253, 160, 284
-0.993584, 337, 233, 464, 264
-0.993653, 1, 249, 256, 312
-0.993656, 369, 181, 496, 212
-0.993714, 1, 129, 500, 192
-0.993754, 93, 153, 108, 216
-0.993761, 337, 193, 464, 224
-0.99377, 273, 109, 400, 140
-0.993796, 33, 81, 160, 112
-0.993805, 393, 193, 408, 256
-0.993834, 225, 105, 352, 136
-0.993837, 177, 185, 304, 216
-0.993845, 291, 185, 306, 248
-0.993856, 113, 81, 240, 112
-0.993857, 313, 177, 328, 240
-0.993868, 273, 209, 400, 240
-0.993887, 313, 273, 328, 336
-0.993889, 225, 17, 480, 80
-0.99389, 273, 177, 400, 208
-0.993946, 369, 265, 496, 296
-0.993949, 273, 221, 400, 252
-0.993964, 321, 253, 448, 284
-0.993967, 119, 97, 134, 160
-0.993985, 369, 285, 496, 316
-0.994008, 193, 81, 320, 112
-0.994039, 1, 49, 500, 112
-0.994079, 329, 185, 344, 248
-0.994086, 145, 157, 272, 188
-0.994087, 99, 145, 114, 208
-0.994092, 369, 105, 496, 136
-0.994117, 193, 161, 320, 192
-0.994118, 93, 185, 108, 248
-0.99414, 49, 101, 176, 132
-0.994151, 113, 181, 240, 212
-0.994175, 17, 5, 144, 36
-0.99418, 393, 233, 408, 296
-0.99419, 19, 33, 34, 96
-0.994197, 31, 9, 46, 72
-0.994213, 209, 197, 336, 228
-0.994216, 97, 97, 224, 128
-0.994225, 33, 37, 160, 68
-0.994227, 97, 125, 224, 156
-0.994253, 333, 81, 348, 144
-0.994255, 225, 301, 352, 332
-0.994265, 225, 273, 352, 304
-0.994283, 33, 265, 160, 296
-0.994364, 1, 181, 128, 212
-0.994368, 289, 81, 416, 112
-0.994374, 385, 193, 400, 256
-0.99439, 321, 81, 336, 144
-0.994405, 321, 309, 448, 340
-0.994405, 33, 241, 48, 304
-0.994442, 225, 149, 352, 180
-0.994465, 145, 105, 272, 136
-0.994468, 33, 33, 48, 96
-0.99448, 241, 73, 368, 104
-0.99448, 321, 297, 448, 328
-0.994486, 65, 193, 192, 224
-0.994513, 321, 149, 448, 180
-0.994555, 343, 169, 358, 232
-0.994555, 241, 185, 256, 248
-0.994564, 369, 81, 496, 112
-0.994564, 25, 1, 40, 64
-0.99457, 39, 41, 54, 104
-0.994577, 337, 205, 464, 236
-0.994584, 311, 81, 326, 144
-0.994585, 321, 265, 448, 296
-0.994608, 17, 121, 144, 152
-0.994611, 251, 89, 266, 152
-0.994635, 321, 93, 448, 124
-0.994636, 65, 229, 192, 260
-0.994641, 401, 169, 416, 232
-0.994646, 97, 165, 224, 196
-0.994648, 373, 137, 388, 200
-0.994678, 209, 133, 336, 164
-0.994681, 381, 105, 396, 168
-0.99469, 337, 177, 352, 240
-0.994703, 25, 33, 40, 96
-0.994727, 241, 249, 256, 312
-0.994732, 209, 209, 336, 240
-0.994735, 41, 1, 56, 64
-0.994738, 113, 73, 128, 136
-0.994756, 209, 221, 336, 252
-0.994756, 443, 105, 458, 168
-0.99476, 161, 117, 288, 148
-0.994768, 87, 217, 102, 280
-0.994798, 443, 137, 458, 200
-0.994803, 115, 121, 130, 184
-0.994816, 225, 41, 352, 72
-0.99482, 299, 121, 314, 184
-0.994828, 113, 33, 144, 288
-0.994834, 33, 49, 160, 80
-0.994842, 65, 177, 192, 208
-0.99485, 259, 89, 274, 152
-0.994856, 317, 57, 332, 120
-0.994897, 233, 225, 248, 288
-0.994909, 395, 273, 410, 336
-0.994911, 291, 153, 306, 216
-0.994914, 241, 121, 368, 152
-0.994914, 1, 105, 500, 168
-0.994915, 297, 177, 312, 240
-0.994918, 145, 169, 272, 200
-0.994935, 369, 309, 496, 340
-0.994936, 225, 285, 352, 316
-0.994956, 81, 217, 96, 280
-0.994968, 313, 201, 328, 264
-0.994975, 403, 209, 418, 272
-0.99499, 369, 245, 496, 276
-0.994999, 289, 285, 416, 316
-0.995001, 337, 217, 464, 248
-0.995024, 321, 117, 448, 148
-0.995027, 93, 65, 124, 320
-0.995032, 225, 261, 352, 292
-0.995037, 15, 9, 30, 72
-0.995046, 105, 177, 120, 240
-0.995053, 463, 281, 478, 344
-0.995058, 375, 113, 390, 176
-0.995066, 85, 169, 100, 232
-0.99508, 241, 321, 368, 352
-0.99508, 243, 161, 258, 224
-0.995089, 289, 289, 304, 352
-0.995097, 307, 305, 322, 368
-0.995098, 153, 137, 168, 200
-0.995124, 97, 137, 224, 168
-0.995139, 307, 281, 322, 344
-0.995146, 137, 81, 152, 144
-0.995155, 249, 241, 264, 304
-0.995159, 453, 1, 484, 256
-0.995192, 369, 169, 496, 200
-0.995194, 177, 57, 304, 88
-0.995198, 303, 201, 318, 264
-0.995248, 291, 209, 306, 272
-0.995253, 161, 69, 288, 100
-0.995258, 97, 29, 224, 60
-0.995276, 129, 193, 256, 224
-0.995282, 289, 233, 416, 264
-0.995287, 461, 49, 476, 112
-0.995287, 283, 297, 298, 360
-0.995297, 297, 289, 312, 352
-0.995304, 389, 169, 404, 232
-0.995356, 81, 121, 96, 184
-0.99536, 253, 305, 268, 368
-0.995381, 431, 177, 446, 240
-0.995382, 459, 185, 474, 248
-0.995385, 181, 49, 196, 112
-0.995396, 225, 245, 352, 276
-0.9954, 139, 49, 154, 112
-0.995405, 351, 153, 366, 216
-0.995407, 299, 81, 314, 144
-0.995411, 119, 41, 134, 104
-0.995414, 67, 73, 82, 136
-0.99542, 325, 161, 340, 224
-0.995421, 145, 9, 272, 40
-0.995423, 343, 97, 358, 160
-0.995425, 385, 313, 400, 375
-0.995426, 321, 129, 448, 160
-0.995431, 221, 161, 236, 224
-0.995433, 321, 65, 352, 320
-0.995445, 369, 117, 496, 148
-0.99545, 437, 97, 452, 160
-0.995453, 65, 241, 192, 272
-0.995458, 1, 169, 128, 200
-0.995461, 297, 153, 312, 216
-0.995475, 253, 129, 284, 375
-0.99548, 259, 49, 274, 112
-0.995481, 1, 109, 128, 140
-0.995483, 47, 1, 62, 64
-0.995483, 349, 193, 364, 256
-0.995484, 145, 73, 160, 136
-0.995487, 303, 169, 318, 232
-0.99549, 383, 217, 398, 280
-0.995499, 237, 1, 252, 64
-0.995503, 285, 177, 300, 240
-0.995506, 31, 201, 46, 264
-0.995508, 343, 1, 358, 64
-0.995509, 345, 145, 360, 208
-0.99552, 145, 93, 272, 124
-0.99554, 457, 289, 472, 352
-0.995541, 383, 153, 398, 216
-0.995549, 225, 233, 352, 264
-0.995559, 455, 65, 470, 128
-0.995567, 57, 1, 72, 64
-0.995579, 41, 209, 56, 272
-0.99558, 29, 1, 60, 256
-0.995582, 67, 1, 82, 64
-0.995598, 143, 145, 158, 208
-0.995604, 293, 121, 308, 184
-0.995604, 241, 225, 256, 288
-0.995604, 45, 185, 60, 248
-0.995604, 1, 273, 256, 336
-0.995608, 341, 73, 356, 136
-0.99561, 175, 49, 190, 112
-0.995615, 341, 1, 372, 256
-0.995619, 389, 145, 404, 208
-0.995623, 305, 137, 320, 200
-0.995624, 369, 157, 496, 188
-0.995632, 97, 65, 112, 128
-0.995639, 321, 289, 336, 352
-0.995639, 451, 169, 466, 232
-0.995641, 323, 33, 338, 96
-0.995643, 311, 49, 326, 112
-0.995647, 363, 121, 378, 184
-0.99565, 445, 169, 460, 232
-0.995662, 33, 277, 160, 308
-0.995667, 285, 217, 300, 280
-0.995671, 449, 97, 464, 160
-0.995672, 59, 185, 74, 248
-0.995679, 1, 9, 16, 72
-0.995695, 235, 185, 250, 248
-0.995699, 425, 169, 440, 232
-0.995704, 321, 105, 448, 136
-0.995721, 351, 97, 366, 160
-0.995732, 377, 97, 408, 352
-0.995738, 147, 113, 162, 176
-0.99574, 253, 113, 268, 176
-0.99576, 437, 169, 452, 232
-0.99576, 117, 153, 132, 216
-0.995773, 469, 273, 484, 336
-0.995778, 289, 313, 304, 375
-0.995778, 45, 49, 60, 112
-0.995797, 145, 145, 272, 176
-0.995822, 81, 205, 208, 236
-0.995887, 49, 141, 176, 172
-0.995904, 81, 45, 208, 76
-0.995908, 17, 1, 48, 256
-0.995927, 297, 65, 328, 320
-0.99593, 241, 97, 272, 352
-0.995948, 73, 65, 104, 320
-0.995957, 433, 97, 464, 352
-0.995963, 365, 129, 396, 375
-0.995982, 161, 45, 288, 76
-0.995983, 241, 345, 368, 375
-0.996013, 421, 65, 452, 320
-0.996014, 133, 1, 164, 256
-0.996025, 221, 129, 252, 375
-0.996046, 49, 157, 176, 188
-0.996061, 273, 97, 400, 128
-0.996066, 81, 1, 208, 32
-0.996088, 161, 129, 288, 160
-0.996088, 145, 257, 272, 288
-0.996126, 97, 217, 224, 248
-0.99614, 321, 1, 448, 32
-0.996141, 225, 29, 352, 60
-0.996144, 273, 301, 400, 332
-0.996171, 289, 321, 416, 352
-0.996215, 81, 17, 208, 48
-0.996227, 273, 273, 400, 304
-0.996229, 361, 33, 392, 288
-0.996243, 369, 321, 496, 352
-0.996269, 469, 97, 500, 352
-0.996296, 1, 1, 32, 256
-0.996301, 369, 133, 496, 164
-0.996325, 161, 273, 288, 304
-0.99636, 225, 1, 352, 32
-0.996386, 241, 61, 368, 92
-0.996403, 309, 65, 340, 320
-0.996428, 113, 245, 240, 276
-0.996478, 305, 69, 432, 100
-0.996485, 97, 153, 224, 184
-0.996486, 369, 5, 496, 36
-0.996512, 305, 37, 432, 68
-0.996519, 269, 33, 300, 288
-0.996524, 317, 189, 332, 220
-0.996597, 61, 65, 92, 320
-0.996599, 349, 97, 380, 352
-0.996637, 45, 1, 76, 256
-0.996646, 465, 1, 496, 256
-0.996652, 145, 1, 176, 256
-0.996733, 285, 65, 316, 320
-0.996737, 323, 181, 338, 212
-0.996781, 389, 65, 420, 320
-0.996802, 333, 129, 364, 375
-0.996843, 395, 169, 410, 200
-0.996895, 157, 33, 188, 288
-0.996907, 327, 193, 342, 224
-0.996971, 117, 125, 132, 156
-0.996991, 321, 169, 336, 200
-0.997032, 31, 29, 46, 60
-0.997042, 49, 97, 80, 352
-0.997102, 317, 201, 332, 232
-0.997111, 445, 129, 476, 375
-0.997117, 19, 33, 34, 64
-0.99714, 409, 97, 440, 352
-0.997141, 137, 129, 200, 375
-0.997147, 295, 221, 310, 252
-0.997154, 373, 157, 388, 188
-0.997154, 387, 153, 402, 184
-0.997165, 393, 233, 408, 264
-0.997176, 177, 33, 208, 288
-0.997182, 65, 197, 80, 228
-0.997197, 295, 145, 310, 176
-0.997213, 335, 185, 350, 216
-0.997225, 37, 97, 68, 352
-0.997251, 161, 313, 416, 375
-0.997251, 113, 85, 128, 116
-0.997263, 161, 161, 176, 192
-0.997277, 303, 273, 318, 304
-0.997296, 391, 193, 406, 224
-0.997301, 405, 169, 420, 200
-0.997304, 95, 69, 110, 100
-0.997311, 329, 181, 344, 212
-0.997312, 19, 17, 34, 48
-0.997317, 345, 149, 360, 180
-0.997321, 233, 141, 248, 172
-0.997322, 287, 209, 302, 240
-0.997323, 373, 125, 388, 156
-0.997325, 411, 165, 426, 196
-0.99733, 59, 197, 74, 228
-0.997333, 315, 269, 330, 300
-0.997353, 107, 69, 122, 100
-0.997365, 93, 193, 108, 224
-0.997375, 209, 129, 240, 375
-0.997384, 367, 169, 382, 200
-0.99739, 335, 89, 350, 120
-0.997398, 387, 181, 402, 212
-0.997398, 109, 141, 124, 172
-0.997399, 397, 285, 412, 316
-0.997402, 123, 117, 138, 148
-0.997407, 399, 157, 414, 188
-0.997417, 105, 181, 120, 212
-0.997427, 315, 177, 330, 208
-0.997427, 93, 137, 108, 168
-0.997436, 423, 181, 438, 212
-0.997438, 451, 169, 466, 200
-0.997439, 37, 41, 52, 72
-0.997442, 31, 17, 46, 48
-0.997449, 83, 233, 98, 264
-0.99745, 379, 141, 394, 172
-0.997454, 25, 21, 40, 52
-0.997461, 291, 193, 306, 224
-0.997462, 343, 177, 358, 208
-0.997478, 239, 193, 254, 224
-0.997479, 395, 181, 410, 212
-0.997487, 381, 157, 396, 188
-0.99749, 309, 209, 324, 240
-0.9975, 9, 13, 24, 44
-0.997501, 383, 213, 398, 244
-0.997521, 89, 237, 104, 268
-0.997524, 87, 185, 102, 216
-0.997525, 305, 193, 320, 224
-0.997526, 153, 149, 168, 180
-0.997532, 457, 85, 472, 116
-0.997535, 309, 281, 324, 312
-0.997537, 341, 81, 356, 112
-0.997538, 245, 245, 260, 276
-0.997555, 13, 33, 28, 64
-0.997557, 441, 1, 472, 256
-0.997588, 105, 129, 136, 375
-0.997593, 399, 221, 414, 252
-0.997609, 1, 21, 16, 52
-0.997615, 29, 41, 44, 72
-0.997625, 433, 177, 448, 208
-0.997635, 17, 97, 48, 352
-0.997638, 321, 85, 336, 116
-0.997639, 373, 137, 388, 168
-0.997643, 169, 65, 184, 96
-0.997648, 137, 241, 200, 368
-0.99765, 301, 217, 316, 248
-0.997658, 241, 181, 256, 212
-0.997658, 91, 173, 106, 204
-0.997659, 315, 165, 330, 196
-0.997659, 103, 141, 118, 172
-0.997662, 379, 169, 394, 200
-0.997662, 229, 33, 260, 288
-0.997662, 309, 77, 324, 108
-0.997675, 17, 117, 32, 148
-0.997676, 239, 261, 254, 292
-0.997676, 83, 205, 98, 236
-0.997692, 347, 161, 362, 192
-0.997696, 43, 217, 58, 248
-0.997702, 289, 177, 304, 208
-0.997708, 121, 105, 136, 136
-0.997709, 251, 113, 266, 144
-0.997711, 293, 209, 308, 240
-0.997713, 435, 97, 450, 128
-0.99772, 67, 105, 82, 136
-0.997721, 287, 141, 302, 172
-0.997723, 241, 1, 272, 256
-0.997725, 315, 297, 330, 328
-0.997727, 319, 213, 334, 244
-0.99773, 313, 221, 328, 252
-0.997734, 311, 89, 326, 120
-0.997734, 129, 45, 144, 76
-0.997735, 97, 173, 112, 204
-0.997743, 401, 181, 416, 212
-0.997745, 463, 49, 478, 80
-0.99775, 81, 173, 96, 204
-0.99775, 219, 165, 234, 196
-0.997759, 329, 205, 344, 236
-0.997762, 71, 201, 86, 232
-0.997763, 381, 117, 396, 148
-0.997764, 117, 65, 132, 96
-0.997765, 345, 1, 360, 32
-0.99777, 233, 185, 248, 216
-0.997778, 331, 101, 346, 132
-0.997778, 253, 93, 268, 124
-0.997781, 311, 101, 326, 132
-0.997785, 71, 253, 86, 284
-0.997789, 7, 25, 22, 56
-0.997793, 383, 225, 398, 256
-0.997796, 295, 129, 310, 160
-0.997799, 321, 277, 336, 308
-0.997799, 409, 1, 440, 256
-0.997803, 339, 197, 354, 228
-0.997804, 417, 169, 432, 200
-0.997804, 323, 37, 338, 68
-0.997806, 311, 193, 326, 224
-0.997808, 293, 273, 308, 304
-0.997808, 295, 177, 310, 208
-0.99781, 139, 61, 154, 92
-0.99781, 245, 193, 260, 224
-0.997814, 315, 309, 330, 340
-0.997816, 1, 33, 16, 64
-0.997816, 167, 173, 182, 204
-0.997818, 315, 281, 330, 312
-0.997826, 111, 129, 126, 160
-0.997882, 253, 1, 284, 256
-0.998049, 5, 97, 36, 352
-0.998075, 197, 33, 228, 288
-0.998081, 117, 129, 148, 375
-0.998087, 457, 97, 488, 352
-0.998185, 265, 129, 296, 375
-0.998342, 337, 169, 400, 184
-0.998368, 361, 169, 424, 184
-0.998371, 377, 179, 440, 194
-0.998375, 49, 207, 112, 222
-0.998389, 217, 161, 280, 176
-0.998405, 233, 189, 296, 204
-0.998407, 101, 129, 116, 256
-0.99841, 73, 247, 136, 262
-0.99841, 41, 213, 104, 228
-0.998412, 337, 175, 400, 190
-0.998422, 209, 177, 272, 192
-0.998422, 337, 163, 400, 178
-0.998422, 281, 191, 344, 206
-0.998425, 107, 129, 122, 256
-0.998426, 393, 171, 456, 186
-0.998428, 377, 295, 440, 310
-0.998429, 297, 101, 360, 116
-0.998435, 257, 161, 320, 176
-0.998437, 297, 95, 360, 110
-0.998437, 281, 209, 344, 224
-0.998438, 313, 171, 376, 186
-0.998441, 73, 199, 136, 214
-0.998441, 193, 187, 256, 202
-0.998444, 49, 183, 112, 198
-0.998444, 217, 155, 280, 170
-0.998444, 105, 69, 168, 84
-0.998444, 409, 181, 472, 196
-0.998448, 297, 107, 360, 122
-0.998449, 385, 93, 448, 108
-0.998449, 385, 193, 448, 208
-0.998449, 133, 97, 164, 352
-0.99845, 425, 85, 488, 100
-0.998451, 305, 187, 368, 202
-0.998453, 217, 167, 280, 182
-0.998459, 193, 169, 256, 184
-0.998461, 297, 275, 360, 290
-0.998461, 425, 191, 488, 206
-0.998461, 281, 185, 344, 200
-0.998462, 73, 227, 136, 242
-0.998462, 25, 201, 88, 216
-0.998463, 385, 185, 448, 200
-0.998463, 313, 165, 376, 180
-0.998464, 193, 159, 256, 174
-0.998465, 329, 113, 392, 128
-0.998466, 281, 203, 344, 218
-0.998467, 257, 167, 320, 182
-0.998467, 273, 227, 336, 242
-0.998468, 281, 177, 344, 192
-0.998468, 25, 259, 88, 274
-0.99847, 377, 289, 440, 304
-0.99847, 73, 235, 136, 250
-0.998471, 289, 295, 352, 310
-0.998471, 49, 201, 112, 216
-0.998472, 329, 225, 392, 240
-0.998473, 73, 241, 136, 256
-0.998474, 25, 249, 88, 264
-0.998475, 377, 311, 440, 326
-0.998476, 425, 203, 488, 218
-0.998476, 137, 175, 200, 190
-0.998477, 361, 163, 424, 178
-0.998478, 337, 157, 400, 172
-0.998478, 265, 79, 328, 94
-0.998479, 185, 181, 248, 196
-0.998479, 337, 107, 400, 122
-0.99848, 417, 175, 480, 190
-0.998483, 225, 145, 256, 160
-0.998484, 377, 301, 440, 316
-0.998484, 441, 103, 472, 118
-0.998484, 293, 153, 324, 168
-0.998484, 425, 97, 488, 112
-0.998485, 73, 221, 136, 236
-0.998485, 61, 115, 92, 130
-0.998485, 193, 153, 256, 168
-0.998486, 33, 227, 96, 242
-0.998486, 257, 183, 320, 198
-0.998486, 141, 173, 172, 188
-0.998487, 29, 23, 60, 38
-0.998487, 453, 103, 484, 118
-0.998487, 81, 81, 144, 96
-0.998488, 305, 121, 336, 136
-0.998488, 21, 33, 52, 48
-0.998488, 133, 69, 164, 84
-0.998488, 265, 221, 328, 236
-0.998488, 241, 99, 304, 114
-0.998489, 97, 153, 128, 168
-0.998489, 241, 281, 304, 296
-0.998489, 281, 5, 312, 20
-0.99849, 385, 241, 448, 256
-0.99849, 41, 41, 72, 56
-0.99849, 425, 91, 488, 106
-0.99849, 17, 273, 80, 288
-0.99849, 293, 291, 324, 306
-0.99849, 233, 183, 296, 198
-0.99849, 361, 175, 392, 190
-0.998491, 441, 97, 472, 112
-0.998491, 337, 101, 400, 116
-0.998491, 313, 207, 376, 222
-0.998492, 73, 205, 136, 220
-0.998492, 345, 235, 408, 250
-0.998492, 321, 119, 352, 134
-0.998492, 289, 145, 320, 160
-0.998492, 405, 179, 436, 194
-0.998493, 241, 173, 272, 188
-0.998493, 17, 119, 48, 134
-0.998494, 293, 277, 324, 292
-0.998494, 153, 181, 216, 196
-0.998495, 201, 103, 264, 118
-0.998495, 385, 269, 448, 284
-0.998496, 377, 183, 408, 198
-0.998496, 185, 181, 216, 196
-0.998496, 169, 173, 232, 188
-0.998496, 81, 177, 112, 192
-0.998496, 381, 233, 412, 248
-0.998496, 289, 169, 352, 184
-0.998496, 17, 265, 80, 280
-0.998497, 145, 63, 208, 78
-0.998497, 297, 113, 360, 128
-0.998498, 257, 323, 320, 338
-0.998498, 309, 99, 340, 114
-0.998498, 81, 215, 144, 230
-0.998498, 117, 85, 148, 100
-0.998498, 93, 79, 124, 94
-0.998499, 457, 59, 488, 74
-0.998499, 65, 249, 96, 264
-0.9985, 233, 175, 296, 190
-0.998501, 425, 197, 488, 212
-0.998501, 377, 153, 408, 168
-0.998501, 297, 157, 360, 172
-0.998501, 313, 181, 376, 196
-0.998501, 217, 135, 280, 150
-0.998502, 329, 35, 360, 50
-0.998502, 89, 75, 152, 90
-0.998502, 281, 153, 312, 168
-0.998503, 297, 85, 360, 100
-0.998503, 337, 183, 400, 198
-0.998503, 77, 185, 108, 200
-0.998504, 65, 193, 128, 208
-0.998504, 221, 165, 252, 180
-0.998505, 281, 215, 344, 230
-0.998505, 337, 137, 400, 152
-0.998505, 217, 147, 280, 162
-0.998506, 77, 245, 108, 260
-0.998506, 41, 219, 104, 234
-0.998506, 385, 263, 448, 278
-0.998506, 369, 147, 400, 162
-0.998506, 117, 79, 148, 94
-0.998507, 197, 3, 228, 18
-0.998507, 9, 21, 72, 36
-0.998507, 309, 179, 340, 194
-0.998507, 233, 253, 296, 268
-0.998507, 113, 135, 144, 150
-0.998508, 409, 309, 472, 324
-0.998508, 361, 135, 392, 150
-0.998509, 145, 163, 176, 178
-0.998509, 289, 231, 320, 246
-0.998509, 193, 129, 224, 375
-0.99851, 297, 181, 328, 196
-0.99851, 353, 225, 416, 240
-0.99851, 257, 151, 320, 166
-0.998511, 193, 5, 256, 20
-0.998511, 333, 199, 364, 214
-0.998512, 353, 159, 384, 174
-0.998512, 33, 233, 96, 248
-0.998512, 257, 87, 320, 102
-0.998512, 73, 117, 136, 132
-0.998513, 301, 233, 332, 248
-0.998513, 237, 253, 268, 268
-0.998513, 381, 195, 412, 210
-0.998514, 81, 71, 112, 86
-0.998514, 389, 185, 420, 200
-0.998515, 89, 189, 152, 204
-0.998515, 401, 85, 464, 100
-0.998515, 289, 221, 352, 236
-0.998516, 345, 243, 408, 258
-0.998516, 393, 191, 424, 206
-0.998516, 401, 99, 464, 114
-0.998516, 53, 209, 84, 224
-0.998516, 85, 171, 116, 186
-0.998518, 9, 37, 40, 52
-0.998518, 297, 217, 328, 232
-0.998518, 273, 95, 336, 110
-0.998518, 385, 199, 448, 214
-0.998518, 285, 161, 316, 176
-0.998518, 377, 109, 440, 124
-0.998519, 337, 189, 400, 204
-0.998519, 405, 167, 436, 182
-0.998519, 213, 33, 244, 288
-0.998519, 333, 181, 364, 196
-0.99852, 233, 259, 296, 274
-0.99852, 377, 219, 408, 234
-0.99852, 385, 275, 448, 290
-0.99852, 9, 191, 72, 206
-0.998521, 305, 85, 336, 100
-0.998521, 305, 199, 368, 214
-0.998521, 1, 31, 32, 46
-0.998521, 297, 123, 360, 138
-0.998521, 289, 225, 320, 240
-0.998521, 281, 197, 344, 212
-0.998522, 5, 17, 36, 32
-0.998522, 301, 211, 332, 226
-0.998523, 425, 79, 488, 94
-0.998524, 417, 303, 480, 318
-0.998524, 285, 185, 316, 200
-0.998525, 345, 165, 376, 180
-0.998526, 73, 79, 104, 94
-0.998527, 17, 27, 48, 42
-0.998527, 161, 175, 192, 190
-0.998528, 321, 113, 352, 128
-0.998529, 401, 241, 432, 256
-0.998529, 361, 223, 392, 238
-0.99853, 113, 127, 144, 142
-0.998531, 305, 189, 336, 204
-0.998532, 73, 199, 104, 214
-0.998533, 277, 213, 308, 228
-0.998533, 89, 187, 120, 202
-0.998533, 293, 285, 324, 300
-0.998534, 17, 15, 48, 30
-0.998536, 113, 49, 128, 176
-0.998536, 305, 105, 336, 120
-0.998537, 345, 173, 376, 188
-0.998538, 305, 115, 336, 130
-0.998538, 237, 183, 268, 198
-0.998539, 353, 153, 384, 168
-0.99854, 101, 243, 132, 258
-0.998542, 325, 169, 356, 184
-0.998543, 321, 99, 352, 114
-0.998544, 321, 107, 352, 122
-0.998544, 101, 143, 132, 158
-0.998545, 305, 275, 336, 290
-0.998549, 297, 205, 328, 220
-0.998551, 301, 161, 332, 176
-0.998551, 381, 171, 412, 186
-0.998553, 281, 77, 312, 92
-0.998554, 289, 211, 320, 226
-0.998556, 237, 193, 268, 208
-0.998557, 305, 169, 336, 184
-0.998558, 317, 207, 348, 222
-0.998559, 121, 109, 152, 124
-0.998561, 19, 1, 34, 128
-0.998562, 373, 159, 404, 174
-0.998562, 137, 77, 168, 92
-0.998564, 393, 161, 408, 288
-0.998566, 365, 167, 396, 182
-0.998572, 225, 151, 256, 166
-0.998572, 321, 197, 352, 212
-0.998572, 341, 103, 372, 118
-0.998575, 321, 179, 352, 194
-0.998575, 393, 291, 424, 306
-0.998579, 93, 193, 124, 208
-0.99858, 393, 165, 424, 180
-0.998581, 225, 157, 256, 172
-0.998583, 233, 113, 248, 240
-0.998584, 317, 85, 348, 100
-0.998585, 241, 161, 256, 288
-0.998587, 5, 23, 36, 38
-0.998587, 285, 191, 316, 206
-0.998588, 309, 227, 340, 242
-0.998595, 113, 67, 144, 82
-0.998599, 317, 191, 348, 206
-0.998604, 153, 169, 184, 184
-0.998608, 393, 179, 424, 194
-0.998612, 309, 201, 340, 216
-0.998613, 69, 205, 100, 220
-0.99863, 25, 45, 56, 60
-0.998635, 321, 185, 352, 200
-0.998643, 107, 65, 122, 192
-0.998644, 17, 21, 48, 36
-0.998645, 117, 113, 132, 240
-0.99865, 93, 73, 124, 88
-0.998658, 437, 175, 468, 190
-0.99866, 401, 173, 432, 188
-0.998665, 381, 165, 412, 180
-0.998666, 323, 113, 338, 240
-0.998668, 39, 193, 54, 320
-0.998672, 227, 129, 242, 256
-0.998679, 391, 209, 406, 336
-0.998687, 319, 33, 334, 160
-0.998695, 91, 129, 106, 256
-0.9987, 387, 145, 402, 272
-0.998703, 323, 161, 338, 288
-0.998716, 123, 49, 138, 176
-0.998718, 295, 161, 310, 288
-0.998741, 129, 33, 144, 160
-0.998772, 25, 1, 40, 128
-0.998772, 367, 129, 382, 256
-0.99878, 441, 97, 456, 224
-0.998784, 39, 1, 54, 128
-0.998784, 301, 113, 316, 240
-0.998805, 263, 65, 278, 192
-0.99881, 135, 1, 150, 128
-0.998813, 93, 49, 108, 176
-0.998822, 343, 161, 358, 288
-0.998822, 313, 177, 328, 304
-0.998825, 33, 1, 48, 128
-0.998826, 381, 129, 396, 256
-0.998826, 447, 97, 462, 224
-0.998829, 253, 81, 268, 208
-0.99883, 249, 177, 264, 304
-0.99884, 325, 17, 340, 144
-0.998845, 399, 161, 414, 288
-0.998856, 233, 177, 248, 304
-0.998857, 465, 33, 480, 160
-0.998858, 83, 113, 98, 240
-0.99886, 451, 161, 466, 288
-0.99886, 373, 1, 404, 256
-0.998863, 1, 1, 16, 128
-0.998863, 249, 225, 264, 352
-0.998868, 91, 177, 106, 304
-0.998868, 457, 33, 472, 160
-0.998875, 311, 65, 326, 192
-0.998876, 435, 81, 450, 208
-0.998877, 259, 113, 274, 240
-0.99888, 295, 97, 310, 224
-0.998885, 373, 129, 388, 256
-0.998888, 445, 145, 460, 272
-0.998891, 289, 97, 304, 224
-0.998892, 13, 1, 28, 128
-0.998893, 351, 145, 366, 272
-0.998894, 135, 65, 150, 192
-0.998901, 195, 1, 210, 128
-0.998907, 255, 161, 270, 288
-0.998909, 289, 161, 304, 288
-0.998913, 219, 145, 234, 272
-0.998917, 63, 177, 78, 304
-0.998919, 255, 241, 270, 368
-0.998923, 393, 81, 408, 208
-0.998926, 333, 81, 348, 208
-0.998934, 103, 1, 118, 128
-0.99894, 99, 65, 114, 192
-0.998942, 189, 1, 204, 128
-0.998947, 343, 241, 358, 368
-0.998949, 181, 129, 212, 375
-0.99895, 243, 97, 258, 224
-0.998953, 397, 241, 412, 368
-0.998967, 91, 1, 106, 128
-0.998968, 203, 1, 218, 128
-0.998971, 343, 33, 358, 160
-0.998972, 383, 81, 398, 208
-0.998976, 33, 209, 48, 336
-0.998976, 357, 145, 372, 272
-0.998981, 261, 161, 276, 288
-0.998981, 109, 177, 124, 304
-0.998983, 351, 193, 366, 320
-0.998983, 329, 161, 344, 288
-0.998993, 323, 209, 338, 336
-0.998995, 299, 49, 314, 176
-0.999001, 97, 177, 112, 304
-0.999002, 71, 193, 86, 320
-0.999004, 295, 1, 310, 128
-0.999006, 145, 97, 176, 352
-0.999008, 295, 209, 310, 336
-0.999009, 23, 49, 38, 176
-0.999012, 257, 33, 272, 160
-0.999014, 373, 81, 388, 208
-0.999017, 61, 49, 76, 176
-0.999018, 73, 33, 88, 160
-0.999027, 209, 1, 224, 128
-0.999028, 143, 65, 158, 192
-0.999034, 97, 1, 112, 128
-0.999035, 81, 177, 96, 304
-0.999035, 371, 177, 386, 304
-0.999042, 341, 113, 356, 240
-0.999045, 429, 81, 444, 208
-0.999049, 385, 209, 400, 336
-0.999049, 453, 81, 468, 208
-0.999054, 67, 65, 82, 192
-0.999054, 167, 1, 182, 128
-0.999057, 243, 209, 258, 336
-0.999059, 251, 33, 266, 160
-0.999062, 315, 113, 330, 240
-0.999065, 307, 161, 322, 288
-0.999065, 269, 81, 284, 208
-0.999065, 285, 49, 300, 176
-0.999066, 437, 161, 452, 288
-0.999067, 123, 97, 138, 224
-0.99907, 303, 209, 318, 336
-0.999071, 17, 113, 32, 240
-0.999078, 331, 33, 346, 160
-0.999081, 85, 1, 100, 128
-0.999082, 347, 81, 362, 208
-0.999086, 213, 161, 228, 288
-0.999088, 57, 193, 72, 320
-0.999091, 45, 17, 60, 144
-0.999093, 427, 145, 442, 272
-0.999093, 87, 65, 102, 192
-0.999099, 45, 209, 60, 336
-0.999099, 293, 49, 308, 176
-0.999099, 153, 49, 168, 176
-0.999108, 361, 97, 376, 224
-0.99911, 81, 65, 96, 192
-0.999114, 183, 1, 198, 128
-0.999116, 117, 225, 132, 352
-0.999116, 359, 193, 374, 320
-0.999119, 81, 225, 96, 352
-0.99912, 285, 209, 300, 336
-0.999126, 177, 33, 192, 160
-0.999582, 157, 129, 188, 375
-0.999655, 85, 177, 100, 192
-0.999656, 415, 235, 430, 250
-0.999658, 63, 209, 78, 224
-0.999658, 311, 97, 326, 112
-0.999658, 335, 183, 350, 198
-0.999659, 463, 53, 478, 68
-0.999659, 243, 265, 258, 280
-0.999659, 299, 7, 314, 22
-0.999659, 85, 215, 100, 230
-0.99966, 341, 295, 356, 310
-0.99966, 321, 101, 336, 116
-0.99966, 281, 303, 296, 318
-0.999661, 19, 37, 34, 52
-0.999661, 77, 77, 92, 92
-0.999662, 287, 297, 302, 312
-0.999662, 105, 71, 120, 86
-0.999663, 57, 211, 72, 226
-0.999663, 93, 249, 108, 264
-0.999663, 297, 235, 312, 250
-0.999664, 315, 295, 330, 310
-0.999665, 375, 159, 390, 174
-0.999665, 293, 5, 308, 20
-0.999665, 381, 229, 396, 244
-0.999665, 289, 321, 304, 336
-0.999665, 85, 79, 100, 94
-0.999666, 65, 117, 80, 132
-0.999666, 321, 219, 336, 234
-0.999666, 325, 173, 340, 188
-0.999667, 297, 189, 312, 204
-0.999668, 329, 179, 344, 194
-0.999669, 303, 293, 318, 308
-0.999669, 117, 125, 132, 140
-0.999669, 297, 275, 312, 290
-0.999672, 123, 119, 138, 134
-0.999673, 299, 321, 314, 336
-0.999673, 299, 299, 314, 314
-0.999673, 387, 195, 402, 210
-0.999674, 145, 79, 160, 94
-0.999674, 391, 165, 406, 180
-0.999675, 311, 231, 326, 246
-0.999675, 287, 303, 302, 318
-0.999675, 367, 175, 382, 190
-0.999675, 287, 315, 302, 330
-0.999676, 229, 51, 244, 66
-0.999676, 405, 239, 420, 254
-0.999677, 295, 155, 310, 170
-0.999678, 321, 281, 336, 296
-0.999678, 29, 17, 44, 32
-0.999678, 97, 77, 112, 92
-0.999678, 69, 209, 84, 224
-0.999679, 33, 41, 48, 56
-0.999679, 239, 195, 254, 210
-0.99968, 239, 49, 254, 64
-0.99968, 395, 237, 410, 252
-0.99968, 37, 47, 52, 62
-0.999681, 311, 225, 326, 240
-0.999684, 79, 245, 94, 260
-0.999684, 383, 165, 398, 180
-0.999685, 83, 203, 98, 218
-0.999686, 7, 17, 22, 32
-0.999687, 107, 143, 122, 158
-0.999689, 373, 133, 388, 148
-0.999689, 293, 315, 308, 330
-0.999689, 293, 281, 308, 296
-0.99969, 111, 89, 126, 104
-0.99969, 117, 135, 132, 150
-0.999691, 29, 25, 44, 40
-0.999692, 309, 295, 324, 310
-0.999693, 323, 227, 338, 242
-0.999693, 91, 185, 106, 200
-0.999693, 413, 167, 428, 182
-0.999693, 291, 191, 306, 206
-0.999695, 301, 281, 316, 296
-0.999696, 339, 197, 354, 212
-0.999696, 293, 293, 308, 308
-0.999696, 19, 119, 34, 134
-0.999697, 393, 183, 408, 198
-0.999699, 423, 177, 438, 192
-0.999699, 161, 163, 176, 178
-0.9997, 429, 181, 444, 196
-0.9997, 299, 217, 314, 232
-0.999701, 331, 199, 346, 214
-0.999702, 21, 25, 36, 40
-0.999704, 297, 149, 312, 164
-0.999704, 317, 209, 332, 224
-0.999704, 19, 19, 34, 34
-0.999705, 139, 77, 154, 92
-0.999707, 347, 163, 362, 178
-0.999707, 311, 289, 326, 304
-0.999708, 95, 71, 110, 86
-0.999708, 305, 287, 320, 302
-0.99971, 315, 279, 330, 294
-0.99971, 305, 233, 320, 248
-0.999713, 319, 173, 334, 188
-0.999713, 327, 207, 342, 222
-0.999714, 303, 275, 318, 290
-0.999715, 317, 231, 332, 246
-0.999716, 405, 165, 420, 180
-0.999717, 317, 187, 332, 202
-0.999718, 307, 281, 322, 296
-0.99972, 93, 143, 108, 158
-0.99972, 407, 171, 422, 186
-0.999723, 157, 169, 172, 184
-0.999724, 233, 145, 248, 160
-0.999724, 165, 171, 180, 186
-0.99973, 319, 167, 334, 182
-0.999739, 399, 171, 414, 186
-0.999742, 103, 187, 118, 202
-0.999743, 309, 275, 324, 290
-0.999744, 291, 185, 306, 200
-0.999745, 317, 273, 332, 288
-0.999748, 313, 203, 328, 218
-0.999749, 293, 227, 308, 242
-0.999752, 333, 193, 348, 208
-0.999752, 325, 199, 340, 214
-0.999753, 289, 207, 304, 222
-0.999757, 397, 289, 412, 304
-0.999759, 329, 185, 344, 200
-0.999763, 393, 177, 408, 192
-0.999767, 371, 167, 386, 182
-0.999768, 301, 225, 316, 240
-0.999771, 393, 193, 408, 208
-0.999774, 319, 201, 334, 216
-0.999776, 67, 201, 82, 216
-0.99978, 327, 193, 342, 208
-0.99978, 323, 179, 338, 194
-0.999784, 313, 193, 328, 208
-0.999797, 451, 173, 466, 188
-0.999805, 319, 195, 334, 210
-0.99982, 323, 185, 338, 200
-1.00007, 169, 129, 200, 375
