1968
-0.421691, 1, 97, 500, 352
-0.503584, 1, 1, 500, 256
-0.588637, 1, 1, 500, 375
-0.616519, 97, 1, 352, 375
-0.688014, 193, 1, 448, 375
-0.698171, 129, 65, 384, 320
-0.718377, 1, 1, 256, 375
-0.719003, 257, 97, 500, 352
-0.75822, 1, 65, 256, 320
-0.895188, 257, 65, 384, 320
-0.89606, 33, 1, 160, 375
-0.89629, 1, 97, 500, 224
-0.896813, 225, 1, 480, 256
-0.89811, 209, 1, 336, 375
-0.906331, 49, 65, 176, 320
-0.910694, 129, 65, 256, 320
-0.911501, 1, 97, 128, 352
-0.911549, 209, 33, 336, 288
-0.915938, 305, 97, 432, 352
-0.916818, 97, 1, 224, 375
-0.920188, 1, 145, 500, 272
-0.924854, 161, 1, 288, 375
-0.925382, 225, 97, 480, 224
-0.926955, 321, 1, 448, 375
-0.927247, 257, 1, 384, 375
-0.92844, 1, 49, 500, 176
-0.930539, 353, 97, 480, 352
-0.930777, 305, 1, 432, 256
-0.932497, 1, 209, 500, 336
-0.933336, 369, 1, 496, 375
-0.933592, 177, 129, 304, 375
-0.935413, 1, 81, 256, 208
-0.935545, 129, 81, 384, 208
-0.936027, 1, 1, 128, 256
-0.939884, 97, 129, 352, 256
-0.941967, 257, 81, 320, 208
-0.94267, 257, 145, 500, 272
-0.943101, 241, 81, 368, 208
-0.946094, 9, 81, 72, 208
-0.946778, 33, 81, 96, 208
-0.949743, 1, 129, 256, 256
-0.950382, 281, 81, 344, 208
-0.951349, 1, 33, 256, 160
-0.951521, 1, 241, 256, 368
-0.951694, 33, 81, 160, 208
-0.951708, 241, 129, 368, 256
-0.953948, 369, 129, 496, 256
-0.955309, 321, 113, 448, 240
-0.956785, 409, 129, 472, 256
-0.957219, 57, 81, 120, 208
-0.957634, 385, 129, 448, 256
-0.958591, 305, 97, 368, 224
-0.959435, 17, 129, 80, 256
-0.960482, 97, 177, 352, 304
-0.960493, 1, 1, 500, 128
-0.96091, 353, 1, 480, 256
-0.961525, 177, 81, 304, 208
-0.961631, 97, 1, 352, 128
-0.961853, 129, 97, 256, 224
-0.962643, 97, 81, 160, 208
-0.962726, 265, 129, 328, 256
-0.962855, 257, 121, 320, 184
-0.963296, 137, 97, 200, 224
-0.964305, 33, 89, 96, 152
-0.964805, 57, 97, 120, 160
-0.965069, 65, 33, 192, 160
-0.965343, 97, 241, 352, 368
-0.965751, 297, 137, 360, 200
-0.966193, 17, 113, 80, 176
-0.966472, 113, 97, 176, 160
-0.966486, 225, 49, 480, 176
-0.966737, 113, 241, 240, 368
-0.9676, 193, 129, 320, 256
-0.96773, 233, 81, 296, 208
-0.967875, 361, 129, 424, 256
-0.967996, 49, 121, 112, 184
-0.968296, 241, 89, 304, 152
-0.968314, 129, 1, 192, 128
-0.96852, 305, 161, 432, 288
-0.968607, 89, 89, 152, 152
-0.969289, 73, 33, 136, 160
-0.969365, 289, 97, 352, 160
-0.969519, 97, 33, 160, 160
-0.969991, 353, 177, 480, 304
-0.970366, 81, 81, 208, 208
-0.970366, 81, 129, 208, 256
-0.970373, 41, 129, 104, 256
-0.970584, 65, 241, 192, 368
-0.970601, 321, 65, 448, 192
-0.970788, 25, 137, 88, 200
-0.970838, 33, 33, 96, 160
-0.971323, 393, 177, 456, 304
-0.971549, 321, 145, 384, 272
-0.97185, 241, 129, 304, 256
-0.972006, 409, 137, 472, 200
-0.97212, 137, 97, 200, 160
-0.972139, 1, 1, 64, 128
-0.972195, 409, 177, 472, 240
-0.972251, 433, 201, 496, 264
-0.972419, 433, 145, 496, 272
-0.972463, 153, 1, 216, 128
-0.972484, 33, 161, 160, 288
-0.972721, 113, 1, 240, 128
-0.972741, 329, 97, 392, 224
-0.972816, 73, 121, 136, 184
-0.973065, 41, 81, 72, 208
-0.973247, 129, 161, 256, 288
-0.973351, 217, 145, 280, 208
-0.973833, 129, 121, 192, 184
-0.97413, 273, 145, 336, 208
-0.974297, 169, 289, 232, 352
-0.974402, 321, 105, 384, 168
-0.974901, 297, 145, 360, 272
-0.974931, 369, 177, 432, 304
-0.975048, 129, 225, 192, 352
-0.975063, 9, 89, 72, 152
-0.975088, 177, 81, 240, 208
-0.975253, 209, 129, 336, 192
-0.975276, 265, 97, 328, 160
-0.975629, 385, 177, 448, 240
-0.975672, 369, 129, 432, 192
-0.975697, 49, 97, 176, 160
-0.975701, 97, 129, 160, 256
-0.976008, 241, 1, 368, 128
-0.97606, 225, 1, 480, 128
-0.976357, 1, 193, 256, 320
-0.976424, 217, 129, 280, 256
-0.976471, 285, 81, 316, 208
-0.976798, 257, 193, 500, 320
-0.976837, 225, 113, 288, 176
-0.97686, 329, 169, 392, 232
-0.97717, 241, 89, 368, 152
-0.977246, 169, 241, 232, 368
-0.977273, 417, 193, 480, 320
-0.977304, 385, 153, 448, 216
-0.977643, 1, 33, 128, 160
-0.977683, 29, 81, 60, 208
-0.977785, 193, 297, 256, 360
-0.977887, 297, 65, 360, 320
-0.978093, 273, 81, 304, 208
-0.97812, 121, 49, 184, 176
-0.978242, 281, 33, 344, 160
-0.978567, 185, 137, 248, 200
-0.978606, 13, 81, 44, 208
-0.978739, 129, 241, 192, 304
-0.978802, 17, 121, 144, 184
-0.978817, 241, 153, 304, 216
-0.978874, 1, 97, 128, 160
-0.979092, 297, 161, 360, 224
-0.979138, 145, 281, 208, 344
-0.979271, 97, 121, 160, 184
-0.979308, 257, 241, 500, 368
-0.979375, 73, 129, 136, 256
-0.979592, 161, 241, 288, 368
-0.979717, 113, 281, 240, 344
-0.979735, 1, 1, 64, 256
-0.979834, 361, 193, 424, 256
-0.979904, 81, 193, 208, 320
-0.979964, 85, 97, 116, 160
-0.98001, 361, 169, 424, 232
-0.980024, 1, 193, 64, 320
-0.980025, 257, 137, 384, 200
-0.980084, 401, 201, 464, 264
-0.980106, 121, 265, 184, 328
-0.980289, 193, 1, 320, 128
-0.980294, 321, 129, 448, 192
-0.980313, 345, 121, 408, 184
-0.98038, 37, 89, 68, 152
-0.980495, 25, 161, 88, 224
-0.980819, 53, 97, 84, 224
-0.980849, 53, 121, 84, 184
-0.980849, 305, 81, 336, 208
-0.980925, 321, 145, 384, 208
-0.980973, 345, 177, 408, 304
-0.981016, 1, 209, 128, 336
-0.981045, 129, 121, 256, 184
-0.981099, 49, 153, 112, 216
-0.981137, 369, 81, 432, 208
-0.981185, 413, 129, 444, 192
-0.981202, 413, 129, 444, 256
-0.981254, 153, 1, 216, 64
-0.98127, 285, 113, 316, 176
-0.981306, 161, 145, 288, 208
-0.981383, 65, 89, 96, 152
-0.981442, 105, 97, 136, 160
-0.981471, 113, 1, 176, 256
-0.981506, 137, 97, 168, 160
-0.981675, 89, 65, 152, 128
-0.981758, 301, 89, 332, 152
-0.981763, 273, 313, 336, 375
-0.981799, 217, 1, 280, 128
-0.981817, 261, 81, 292, 208
-0.98183, 41, 97, 104, 352
-0.981899, 249, 305, 312, 368
-0.981899, 73, 113, 104, 176
-0.98194, 321, 97, 384, 352
-0.981943, 129, 49, 256, 176
-0.98195, 33, 65, 96, 128
-0.981998, 217, 305, 280, 368
-0.982091, 209, 81, 272, 208
-0.982149, 65, 65, 128, 128
-0.982316, 301, 121, 332, 184
-0.982349, 273, 89, 304, 152
-0.982438, 305, 49, 368, 176
-0.982557, 433, 177, 496, 240
-0.98262, 89, 145, 152, 208
-0.982722, 161, 145, 224, 208
-0.982878, 289, 105, 416, 168
-0.982987, 113, 1, 176, 64
-0.983152, 137, 1, 200, 256
-0.983175, 33, 177, 96, 304
-0.983193, 317, 97, 348, 224
-0.983466, 1, 137, 64, 200
-0.983476, 81, 193, 144, 320
-0.983589, 161, 297, 288, 360
-0.983619, 257, 177, 320, 240
-0.983657, 433, 153, 496, 216
-0.983696, 17, 105, 48, 168
-0.983824, 177, 1, 240, 128
-0.983829, 65, 73, 192, 136
-0.98388, 301, 145, 332, 208
-0.983909, 145, 97, 272, 160
-0.983968, 65, 129, 192, 192
-0.984, 289, 89, 320, 152
-0.984088, 449, 185, 480, 248
-0.984092, 89, 1, 152, 256
-0.984094, 273, 65, 336, 320
-0.984139, 353, 153, 480, 216
-0.984183, 49, 1, 112, 256
-0.98422, 337, 97, 368, 160
-0.98423, 369, 185, 496, 248
-0.984232, 1, 81, 32, 144
-0.984234, 273, 129, 304, 256
-0.984237, 125, 113, 156, 176
-0.984307, 105, 225, 168, 352
-0.984354, 333, 97, 364, 224
-0.984368, 273, 161, 400, 224
-0.984427, 113, 65, 176, 128
-0.984438, 321, 145, 352, 208
-0.984459, 169, 97, 232, 160
-0.98446, 65, 81, 96, 208
-0.984467, 349, 145, 380, 272
-0.9845, 25, 81, 56, 144
-0.984505, 169, 313, 232, 375
-0.984517, 105, 121, 136, 184
-0.984591, 41, 129, 72, 192
-0.984602, 285, 153, 316, 216
-0.984608, 313, 105, 344, 168
-0.984701, 1, 169, 64, 232
-0.984747, 285, 129, 316, 256
-0.984753, 1, 81, 32, 208
-0.984773, 321, 1, 384, 256
-0.98478, 273, 129, 304, 192
-0.984933, 97, 97, 224, 160
-0.984948, 25, 1, 88, 256
-0.985061, 25, 129, 56, 256
-0.98509, 105, 177, 168, 304
-0.985123, 37, 129, 68, 256
-0.985196, 261, 89, 292, 152
-0.985216, 289, 73, 352, 136
-0.985219, 97, 257, 224, 320
-0.985232, 17, 201, 80, 264
-0.98535, 257, 33, 320, 160
-0.985466, 209, 153, 336, 216
-0.985629, 409, 81, 472, 208
-0.985698, 81, 97, 144, 352
-0.985741, 193, 105, 256, 168
-0.985783, 409, 153, 440, 216
-0.985791, 1, 17, 64, 80
-0.985811, 337, 145, 368, 272
-0.985893, 41, 185, 104, 248
-0.985963, 401, 113, 432, 240
-0.986021, 177, 1, 240, 64
-0.986091, 153, 145, 216, 272
-0.986112, 265, 73, 328, 136
-0.986209, 193, 105, 320, 168
-0.986219, 121, 81, 152, 208
-0.986253, 433, 129, 464, 256
-0.986294, 5, 1, 36, 128
-0.986324, 233, 121, 264, 184
-0.986324, 1, 65, 64, 128
-0.98637, 117, 89, 148, 152
-0.986392, 401, 129, 432, 192
-0.986399, 209, 313, 336, 375
-0.986581, 249, 145, 280, 208
-0.986597, 1, 73, 128, 136
-0.986621, 105, 113, 136, 240
-0.986651, 153, 121, 216, 184
-0.986651, 121, 137, 152, 200
-0.986686, 5, 105, 36, 168
-0.986705, 1, 41, 64, 104
-0.986723, 165, 97, 196, 160
-0.986742, 341, 121, 372, 184
-0.98683, 345, 145, 408, 208
-0.98683, 65, 1, 192, 64
-0.986907, 105, 233, 168, 296
-0.986916, 97, 153, 224, 216
-0.987019, 137, 73, 200, 136
-0.987047, 113, 145, 176, 208
-0.987056, 41, 33, 72, 160
-0.987073, 105, 97, 168, 352
-0.987083, 249, 97, 280, 224
-0.987094, 333, 153, 364, 216
-0.9871, 185, 161, 248, 224
-0.987164, 137, 145, 200, 208
-0.987166, 257, 177, 384, 304
-0.987188, 85, 121, 116, 184
-0.987219, 429, 153, 460, 216
-0.987237, 465, 185, 496, 248
-0.98725, 429, 129, 460, 192
-0.987279, 469, 161, 500, 224
-0.987293, 149, 105, 180, 168
-0.987343, 21, 129, 52, 192
-0.987411, 113, 313, 176, 375
-0.987478, 305, 193, 432, 256
-0.987493, 413, 177, 444, 240
-0.987506, 417, 129, 480, 375
-0.987773, 49, 161, 176, 224
-0.987826, 89, 97, 120, 224
-0.987868, 53, 49, 84, 176
-0.98788, 165, 81, 196, 208
-0.987896, 129, 97, 192, 352
-0.987929, 369, 129, 496, 192
-0.987998, 173, 281, 204, 344
-0.98801, 221, 137, 252, 200
-0.98802, 17, 97, 80, 352
-0.988089, 337, 193, 400, 256
-0.988124, 289, 1, 416, 128
-0.988127, 117, 1, 148, 128
-0.988187, 369, 105, 432, 168
-0.988242, 137, 121, 168, 184
-0.988272, 105, 33, 136, 160
-0.988357, 29, 33, 60, 160
-0.988442, 89, 73, 120, 136
-0.988448, 249, 33, 312, 288
-0.988457, 49, 49, 176, 112
-0.988478, 305, 185, 368, 248
-0.988518, 397, 153, 428, 216
-0.988536, 401, 113, 464, 176
-0.988546, 137, 97, 168, 224
-0.988608, 49, 233, 176, 296
-0.988625, 193, 129, 256, 256
-0.988632, 237, 145, 268, 208
-0.98867, 233, 177, 296, 240
-0.98868, 281, 1, 344, 375
-0.988716, 1, 177, 128, 240
-0.988741, 325, 145, 356, 272
-0.988818, 97, 41, 160, 104
-0.988843, 193, 273, 256, 336
-0.988877, 305, 1, 368, 128
-0.988968, 145, 49, 208, 176
-0.988982, 389, 129, 420, 192
-0.989005, 193, 289, 224, 352
-0.989111, 217, 81, 280, 144
-0.989111, 433, 129, 496, 192
-0.989112, 117, 65, 148, 128
-0.989116, 113, 1, 240, 64
-0.989128, 137, 217, 200, 280
-0.989167, 137, 305, 200, 368
-0.989199, 321, 1, 384, 64
-0.989199, 113, 305, 240, 368
-0.98922, 433, 97, 496, 224
-0.989234, 149, 1, 180, 128
-0.989297, 257, 313, 384, 375
-0.989309, 49, 265, 176, 328
-0.989362, 257, 185, 384, 248
-0.989368, 337, 81, 400, 144
-0.989403, 169, 129, 200, 192
-0.989407, 77, 97, 108, 224
-0.989449, 49, 185, 176, 248
-0.989463, 425, 177, 456, 240
-0.989479, 73, 41, 136, 104
-0.989483, 53, 97, 84, 160
-0.989495, 329, 49, 392, 176
-0.989499, 33, 117, 96, 148
-0.989542, 345, 169, 376, 232
-0.989543, 337, 105, 464, 168
-0.989554, 169, 257, 232, 320
-0.989555, 129, 177, 192, 304
-0.989606, 205, 137, 236, 200
-0.989612, 349, 145, 380, 208
-0.989612, 345, 97, 376, 224
-0.989615, 369, 81, 496, 208
-0.989694, 161, 65, 224, 320
-0.989862, 193, 177, 320, 304
-0.989903, 305, 313, 368, 375
-0.989917, 1, 125, 64, 156
-0.989923, 449, 145, 480, 272
-0.989926, 65, 97, 128, 128
-0.990012, 149, 81, 180, 208
-0.990029, 373, 97, 404, 224
-0.99004, 137, 1, 200, 375
-0.990083, 69, 137, 100, 200
-0.990083, 297, 129, 328, 256
-0.990111, 73, 113, 136, 144
-0.990117, 97, 25, 224, 88
-0.990146, 361, 97, 424, 352
-0.990187, 13, 129, 44, 256
-0.990207, 469, 177, 500, 304
-0.990231, 261, 121, 292, 184
-0.990245, 257, 137, 320, 168
-0.990284, 157, 265, 188, 328
-0.990326, 105, 105, 168, 136
-0.99033, 249, 1, 312, 375
-0.990362, 25, 105, 88, 136
-0.990365, 193, 81, 320, 144
-0.990367, 1, 129, 32, 256
-0.990395, 281, 185, 344, 248
-0.990399, 33, 93, 96, 124
-0.990416, 65, 313, 192, 375
-0.990417, 41, 133, 104, 164
-0.990418, 437, 177, 468, 240
-0.990428, 1, 145, 128, 208
-0.990437, 137, 133, 200, 164
-0.990467, 281, 33, 312, 160
-0.990488, 209, 169, 272, 232
-0.990538, 73, 169, 136, 232
-0.990554, 1, 201, 128, 264
-0.990609, 357, 121, 388, 184
-0.990614, 57, 177, 120, 304
-0.990617, 89, 17, 152, 80
-0.990642, 225, 121, 480, 184
-0.990671, 65, 125, 128, 156
-0.990702, 217, 149, 280, 180
-0.990705, 257, 145, 288, 272
-0.99071, 97, 265, 160, 328
-0.990726, 65, 241, 128, 368
-0.990754, 461, 209, 492, 272
-0.990771, 289, 101, 352, 132
-0.990783, 297, 145, 360, 176
-0.990817, 161, 1, 192, 64
-0.990825, 401, 137, 464, 168
-0.990829, 129, 217, 256, 280
-0.990829, 149, 129, 180, 192
-0.990839, 33, 25, 160, 88
-0.99086, 1, 113, 64, 144
-0.990867, 249, 93, 312, 124
-0.990882, 25, 41, 88, 104
-0.990899, 25, 1, 88, 375
-0.990977, 9, 89, 72, 120
-0.991015, 177, 141, 240, 172
-0.99102, 137, 277, 200, 308
-0.99102, 417, 205, 480, 236
-0.991033, 13, 81, 44, 144
-0.991035, 129, 109, 192, 140
-0.991048, 325, 1, 356, 128
-0.991057, 185, 153, 248, 184
-0.991078, 369, 209, 496, 272
-0.991091, 169, 289, 232, 320
-0.991127, 185, 145, 216, 208
-0.991166, 421, 177, 452, 304
-0.991176, 1, 97, 500, 160
-0.991208, 81, 137, 144, 168
-0.991215, 97, 93, 160, 124
-0.991216, 193, 297, 256, 328
-0.991223, 105, 117, 168, 148
-0.991232, 313, 81, 376, 144
-0.991234, 49, 209, 176, 272
-0.991243, 169, 1, 232, 32
-0.991248, 105, 169, 168, 232
-0.991249, 329, 121, 360, 184
-0.991266, 301, 33, 332, 160
-0.991284, 1, 137, 64, 168
-0.99129, 1, 101, 64, 132
-0.991301, 17, 305, 144, 368
-0.991322, 121, 129, 152, 256
-0.991331, 433, 221, 496, 252
-0.991336, 249, 173, 312, 204
-0.991374, 257, 157, 320, 188
-0.991393, 433, 193, 464, 320
-0.991406, 297, 333, 360, 364
-0.991406, 321, 185, 384, 216
-0.991436, 161, 193, 224, 320
-0.991438, 57, 85, 120, 116
-0.991439, 329, 169, 392, 200
-0.991441, 233, 125, 296, 156
-0.991449, 113, 289, 176, 352
-0.991468, 281, 133, 344, 164
-0.99148, 361, 129, 392, 256
-0.991498, 321, 193, 384, 320
-0.991512, 325, 97, 356, 160
-0.991514, 25, 169, 88, 200
-0.991516, 249, 317, 312, 348
-0.991519, 137, 97, 200, 128
-0.991526, 449, 161, 480, 224
-0.99153, 113, 129, 176, 160
-0.991544, 289, 181, 352, 212
-0.991554, 385, 197, 448, 228
-0.991557, 273, 325, 336, 356
-0.99156, 137, 121, 200, 152
-0.991572, 217, 305, 280, 336
-0.991583, 205, 289, 236, 352
-0.991588, 149, 81, 180, 144
-0.991597, 209, 165, 272, 196
-0.991611, 33, 225, 96, 352
-0.99162, 65, 193, 128, 256
-0.991624, 209, 177, 336, 240
-0.991652, 305, 165, 368, 196
-0.991674, 225, 281, 288, 344
-0.991677, 113, 149, 176, 180
-0.991678, 257, 125, 320, 156
-0.991682, 49, 73, 80, 136
-0.991702, 9, 201, 72, 232
-0.991717, 93, 49, 124, 176
-0.991724, 333, 177, 364, 240
-0.991733, 417, 189, 480, 220
-0.991755, 313, 105, 376, 136
-0.991757, 361, 193, 424, 224
-0.991763, 337, 345, 400, 375
-0.991779, 121, 265, 184, 296
-0.991782, 73, 1, 136, 375
-0.991796, 41, 157, 104, 188
-0.991812, 385, 177, 448, 208
-0.991815, 137, 233, 168, 296
-0.991825, 377, 133, 440, 164
-0.991845, 33, 313, 96, 375
-0.991847, 137, 157, 200, 188
-0.991867, 337, 125, 400, 156
-0.991867, 9, 213, 72, 244
-0.991886, 161, 277, 224, 308
-0.991897, 257, 113, 320, 144
-0.991902, 237, 129, 268, 256
-0.991904, 145, 1, 208, 32
-0.991918, 21, 177, 52, 240
-0.991925, 381, 169, 412, 232
-0.991929, 393, 213, 456, 244
-0.991931, 329, 313, 392, 375
-0.991936, 281, 157, 344, 188
-0.991952, 297, 117, 360, 148
-0.991991, 41, 145, 104, 176
-0.991993, 129, 1, 160, 128
-0.992001, 53, 153, 84, 216
-0.992002, 145, 289, 208, 320
-0.99201, 409, 177, 472, 208
-0.992024, 209, 137, 272, 168
-0.99204, 249, 89, 280, 152
-0.99204, 337, 109, 400, 140
-0.992064, 269, 153, 300, 216
-0.992066, 153, 145, 216, 176
-0.992089, 321, 145, 384, 176
-0.99211, 169, 121, 232, 152
-0.992112, 161, 157, 224, 188
-0.99213, 161, 273, 288, 336
-0.992136, 265, 185, 328, 216
-0.99214, 409, 149, 472, 180
-0.992141, 1, 233, 64, 296
-0.992147, 1, 49, 128, 112
-0.992154, 145, 73, 272, 136
-0.992172, 353, 205, 416, 236
-0.992179, 209, 289, 336, 352
-0.992212, 129, 237, 192, 268
-0.992214, 1, 173, 64, 204
-0.992214, 1, 1, 64, 375
-0.992218, 89, 149, 152, 180
-0.992224, 193, 81, 256, 144
-0.992225, 305, 133, 368, 164
-0.992233, 233, 137, 296, 168
-0.99225, 97, 297, 352, 360
-0.992255, 217, 161, 248, 224
-0.992257, 33, 201, 96, 232
-0.992262, 73, 297, 136, 360
-0.992264, 361, 173, 424, 204
-0.992265, 185, 81, 216, 208
-0.992267, 217, 297, 248, 360
-0.992268, 65, 65, 96, 128
-0.992281, 437, 201, 468, 264
-0.992288, 25, 77, 88, 108
-0.992295, 185, 165, 248, 196
-0.992298, 433, 177, 496, 208
-0.992305, 1, 77, 64, 108
-0.992305, 145, 169, 272, 232
-0.992306, 113, 1, 176, 32
-0.992324, 13, 117, 44, 148
-0.992337, 137, 225, 168, 352
-0.992365, 233, 113, 296, 144
-0.992372, 33, 201, 64, 264
-0.992373, 233, 161, 296, 192
-0.992385, 97, 265, 160, 296
-0.992387, 45, 193, 76, 256
-0.992388, 225, 93, 288, 124
-0.9924, 257, 225, 384, 352
-0.992426, 433, 141, 496, 172
-0.992441, 225, 177, 288, 208
-0.992444, 9, 189, 72, 220
-0.992449, 241, 65, 368, 128
-0.99247, 297, 1, 360, 64
-0.992473, 425, 161, 488, 192
-0.992482, 321, 197, 384, 228
-0.99251, 345, 149, 408, 180
-0.992512, 321, 333, 384, 364
-0.992523, 137, 25, 200, 88
-0.992532, 1, 121, 256, 184
-0.992539, 97, 53, 160, 84
-0.992556, 121, 249, 184, 280
-0.992557, 109, 145, 140, 208
-0.99256, 57, 121, 88, 152
-0.992569, 1, 29, 64, 60
-0.992569, 65, 289, 192, 352
-0.992574, 133, 49, 164, 176
-0.992576, 281, 169, 344, 200
-0.992578, 257, 169, 288, 232
-0.992587, 169, 345, 232, 375
-0.992601, 285, 129, 316, 160
-0.99262, 17, 1, 144, 64
-0.992632, 377, 121, 440, 152
-0.992632, 401, 161, 432, 288
-0.992648, 313, 345, 376, 375
-0.99265, 1, 157, 64, 188
-0.992651, 25, 117, 56, 148
-0.992652, 401, 165, 464, 196
-0.992657, 257, 1, 288, 128
-0.992661, 129, 225, 192, 256
-0.992662, 289, 89, 352, 120
-0.992671, 369, 153, 432, 184
-0.992672, 45, 117, 76, 148
-0.992672, 97, 145, 352, 208
-0.992689, 129, 89, 384, 152
-0.992711, 113, 13, 176, 44
-0.992727, 153, 13, 216, 44
-0.99273, 177, 105, 240, 136
-0.992745, 289, 193, 352, 224
-0.992749, 389, 113, 420, 240
-0.992752, 69, 109, 100, 140
-0.992753, 1, 265, 128, 328
-0.992758, 133, 1, 164, 64
-0.99276, 1, 113, 32, 144
-0.992764, 117, 133, 148, 164
-0.992775, 49, 217, 112, 248
-0.992785, 81, 81, 144, 112
-0.992786, 113, 293, 176, 324
-0.992788, 33, 189, 96, 220
-0.992796, 97, 101, 128, 132
-0.992796, 65, 169, 128, 200
-0.992807, 69, 121, 100, 152
-0.992809, 81, 253, 144, 284
-0.992813, 273, 141, 304, 172
-0.992816, 45, 129, 76, 160
-0.992816, 337, 97, 400, 128
-0.992816, 257, 81, 320, 112
-0.992839, 205, 161, 236, 224
-0.992842, 105, 65, 136, 128
-0.992852, 137, 161, 168, 288
-0.992873, 57, 133, 88, 164
-0.992875, 289, 141, 320, 172
-0.99288, 33, 129, 64, 160
-0.99288, 105, 129, 136, 160
-0.992881, 105, 113, 136, 144
-0.992887, 81, 113, 112, 144
-0.992889, 65, 93, 96, 124
-0.992895, 305, 65, 432, 128
-0.992925, 225, 145, 256, 176
-0.992926, 413, 133, 444, 164
-0.992931, 469, 213, 500, 244
-0.992936, 245, 149, 276, 180
-0.992941, 177, 241, 208, 368
-0.99295, 1, 225, 128, 288
-0.992954, 81, 153, 112, 216
-0.992964, 53, 85, 84, 116
-0.992966, 129, 193, 256, 256
-0.992974, 1, 101, 32, 132
-0.992976, 137, 105, 168, 136
-0.992987, 169, 285, 200, 316
-0.99299, 13, 105, 44, 136
-0.992991, 333, 149, 364, 180
-0.992996, 1, 129, 32, 160
-0.992996, 341, 169, 372, 200
-0.992997, 317, 101, 348, 132
-0.993002, 125, 145, 156, 176
-0.993007, 169, 125, 200, 156
-0.993009, 193, 153, 224, 184
-0.993011, 341, 125, 372, 156
-0.993021, 1, 9, 32, 72
-0.993023, 45, 105, 76, 136
-0.993024, 117, 93, 148, 124
-0.993025, 25, 105, 56, 136
-0.993035, 117, 109, 148, 140
-0.993035, 213, 145, 244, 176
-0.993036, 25, 85, 56, 116
-0.993047, 93, 125, 124, 156
-0.993048, 309, 153, 340, 184
-0.993052, 329, 165, 360, 196
-0.993057, 17, 129, 48, 160
-0.993059, 21, 169, 52, 200
-0.993061, 433, 205, 464, 236
-0.993062, 265, 153, 296, 184
-0.993064, 297, 125, 328, 156
-0.993069, 337, 109, 368, 140
-0.99307, 81, 49, 112, 176
-0.993074, 321, 145, 352, 176
-0.993075, 57, 109, 88, 140
-0.993086, 297, 165, 328, 196
-0.993089, 165, 105, 196, 136
-0.993089, 37, 201, 68, 232
-0.993105, 113, 145, 144, 176
-0.993111, 129, 133, 160, 164
-0.993116, 113, 1, 176, 375
-0.993116, 157, 281, 188, 312
-0.993116, 5, 77, 36, 108
-0.993123, 449, 209, 480, 240
-0.993126, 277, 117, 308, 148
-0.993127, 161, 1, 192, 32
-0.993131, 413, 197, 444, 228
-0.993137, 217, 161, 248, 192
-0.993143, 185, 293, 216, 324
-0.993144, 425, 225, 488, 288
-0.993144, 97, 49, 224, 112
-0.993149, 417, 81, 448, 208
-0.99315, 317, 165, 348, 196
-0.993151, 245, 165, 276, 196
-0.993153, 345, 189, 376, 220
-0.993157, 81, 129, 112, 160
-0.99316, 377, 121, 408, 184
-0.99316, 329, 185, 360, 216
-0.993161, 41, 85, 72, 116
-0.993162, 125, 121, 156, 152
-0.993165, 317, 181, 348, 212
-0.993167, 265, 129, 296, 160
-0.993168, 245, 113, 276, 176
-0.993169, 141, 133, 172, 164
-0.993177, 393, 193, 424, 224
-0.993177, 293, 153, 324, 184
-0.993181, 269, 173, 300, 204
-0.993183, 305, 97, 336, 128
-0.993185, 85, 101, 116, 132
-0.993195, 449, 209, 480, 272
-0.993195, 273, 89, 304, 120
-0.993203, 449, 189, 480, 220
-0.993203, 345, 153, 376, 184
-0.99321, 461, 193, 492, 224
-0.993213, 101, 141, 132, 172
-0.993214, 153, 125, 184, 156
-0.993221, 309, 133, 340, 164
-0.993223, 333, 97, 364, 128
-0.993223, 185, 137, 216, 168
-0.993224, 257, 89, 288, 120
-0.993231, 361, 193, 392, 224
-0.993233, 453, 177, 484, 208
-0.993237, 433, 185, 464, 216
-0.993238, 173, 137, 204, 168
-0.993238, 13, 89, 44, 120
-0.993251, 105, 41, 136, 72
-0.993252, 257, 169, 288, 200
-0.993254, 429, 133, 460, 164
-0.993254, 333, 137, 364, 168
-0.993255, 197, 297, 228, 328
-0.99326, 345, 1, 376, 64
-0.993262, 117, 241, 148, 368
-0.993266, 137, 117, 168, 148
-0.993267, 69, 133, 100, 164
-0.993269, 285, 93, 316, 124
-0.993275, 409, 181, 440, 212
-0.993277, 33, 169, 64, 200
-0.993279, 289, 177, 320, 208
-0.993279, 173, 1, 204, 32
-0.99328, 149, 101, 180, 132
-0.993282, 353, 169, 384, 200
-0.993284, 397, 165, 428, 196
-0.993286, 45, 161, 76, 192
-0.993287, 137, 149, 168, 180
-0.993288, 325, 117, 356, 148
-0.993289, 301, 113, 332, 144
-0.993295, 149, 1, 180, 32
-0.993298, 221, 305, 252, 336
-0.9933, 361, 121, 392, 152
-0.993301, 133, 257, 164, 288
-0.993303, 105, 89, 136, 120
-0.993308, 361, 341, 392, 372
-0.993309, 1, 89, 32, 120
-0.99331, 49, 201, 80, 232
-0.993314, 377, 145, 408, 272
-0.993315, 457, 165, 488, 196
-0.993316, 225, 133, 256, 164
-0.99332, 209, 133, 240, 164
-0.993326, 225, 1, 288, 375
-0.993326, 401, 133, 432, 164
-0.993328, 441, 173, 472, 204
-0.993328, 93, 113, 124, 144
-0.993328, 281, 317, 312, 348
-0.993333, 221, 113, 252, 176
-0.993386, 157, 241, 188, 368
-0.9934, 321, 313, 448, 375
-0.993409, 73, 257, 136, 320
-0.993412, 53, 145, 84, 272
-0.993459, 313, 145, 344, 272
-0.993464, 41, 153, 72, 216
-0.993473, 425, 201, 456, 264
-0.993606, 353, 1, 416, 375
-0.993615, 97, 121, 352, 184
-0.993617, 93, 145, 124, 208
-0.993618, 161, 1, 288, 64
-0.993631, 49, 41, 112, 104
-0.99364, 241, 177, 304, 304
-0.993647, 461, 129, 492, 256
-0.993663, 57, 17, 120, 80
-0.993692, 157, 241, 188, 304
-0.993692, 33, 97, 288, 160
-0.993703, 365, 193, 396, 256
-0.993713, 205, 81, 236, 208
-0.993728, 93, 145, 124, 272
-0.99373, 89, 209, 152, 272
-0.993775, 9, 129, 40, 192
-0.993777, 369, 169, 400, 232
-0.993787, 293, 65, 324, 128
-0.993798, 321, 49, 352, 176
-0.993818, 285, 313, 316, 375
-0.99382, 33, 177, 64, 240
-0.993876, 225, 97, 256, 224
-0.993897, 161, 1, 192, 128
-0.993908, 9, 241, 72, 368
-0.993938, 105, 41, 136, 104
-0.993945, 145, 257, 176, 320
-0.993968, 389, 161, 420, 288
-0.993991, 209, 1, 240, 64
-0.994038, 129, 257, 160, 320
-0.99404, 41, 209, 104, 272
-0.994074, 193, 241, 256, 368
-0.994079, 1, 313, 256, 375
-0.994081, 361, 97, 392, 160
-0.994136, 193, 145, 448, 208
-0.994138, 237, 305, 268, 368
-0.994183, 185, 1, 248, 375
-0.994205, 245, 1, 276, 128
-0.99421, 1, 145, 256, 208
-0.994289, 393, 185, 424, 248
-0.994297, 441, 137, 472, 200
-0.994313, 345, 1, 408, 256
-0.994412, 37, 65, 68, 128
-0.994516, 65, 33, 96, 160
-0.994533, 297, 313, 328, 375
-0.99455, 105, 265, 136, 328
-0.994577, 1, 121, 500, 184
-0.994591, 433, 1, 496, 375
-0.994598, 137, 153, 168, 216
-0.994602, 257, 313, 288, 375
-0.99463, 161, 1, 224, 375
-0.994651, 137, 73, 168, 136
-0.994665, 49, 1, 112, 375
-0.994674, 21, 201, 52, 264
-0.994677, 225, 57, 288, 120
-0.994697, 185, 121, 216, 184
-0.99471, 111, 97, 126, 160
-0.994719, 17, 121, 144, 152
-0.994734, 157, 297, 188, 360
-0.994764, 409, 1, 472, 375
-0.994778, 193, 145, 320, 176
-0.994791, 169, 73, 232, 136
-0.994862, 145, 241, 272, 304
-0.994893, 41, 273, 104, 336
-0.994894, 413, 201, 444, 264
-0.994907, 273, 177, 336, 304
-0.994918, 353, 1, 416, 64
-0.99494, 13, 193, 44, 320
-0.994977, 313, 1, 376, 375
-0.99505, 385, 97, 448, 352
-0.995092, 141, 97, 156, 160
-0.9951, 185, 1, 216, 128
-0.995144, 145, 169, 208, 232
-0.995153, 309, 313, 340, 375
-0.995162, 149, 129, 180, 256
-0.995226, 241, 153, 368, 184
-0.995236, 209, 241, 336, 368
-0.995313, 225, 169, 480, 232
-0.995327, 17, 109, 144, 140
-0.995378, 89, 105, 104, 168
-0.995384, 61, 113, 76, 176
-0.995395, 1, 257, 256, 320
-0.995399, 337, 133, 464, 164
-0.995402, 299, 113, 314, 176
-0.995419, 33, 177, 64, 304
-0.99542, 185, 65, 248, 320
-0.995436, 1, 281, 256, 344
-0.99546, 417, 129, 432, 192
-0.995482, 17, 33, 48, 160
-0.995508, 109, 161, 140, 288
-0.995525, 81, 161, 112, 288
-0.995559, 369, 1, 432, 256
-0.995587, 115, 121, 130, 184
-0.995601, 305, 145, 432, 176
-0.995608, 55, 113, 70, 176
-0.995611, 185, 129, 216, 256
-0.995617, 129, 169, 384, 232
-0.995624, 241, 137, 368, 168
-0.995636, 225, 65, 288, 320
-0.995636, 209, 1, 272, 64
-0.995645, 445, 193, 476, 320
-0.995653, 257, 165, 384, 196
-0.995669, 137, 193, 200, 256
-0.995692, 1, 161, 500, 224
-0.995695, 365, 177, 396, 304
-0.995696, 117, 97, 132, 160
-0.995697, 25, 233, 88, 296
-0.995707, 1, 73, 256, 136
-0.995713, 97, 1, 352, 64
-0.995715, 65, 113, 192, 144
-0.995737, 225, 241, 288, 368
-0.995763, 303, 89, 318, 152
-0.99579, 333, 49, 364, 176
-0.995793, 225, 97, 480, 160
-0.995801, 173, 129, 204, 256
-0.995822, 353, 153, 480, 184
-0.995834, 357, 81, 388, 208
-0.995863, 129, 297, 256, 328
-0.995863, 289, 89, 304, 152
-0.99594, 135, 113, 150, 176
-0.995974, 113, 285, 240, 316
-0.995994, 241, 97, 368, 128
-0.996001, 257, 193, 500, 256
-0.996005, 113, 133, 240, 164
-0.996012, 77, 113, 92, 176
-0.996059, 305, 129, 320, 192
-0.996081, 27, 81, 42, 144
-0.996089, 385, 1, 448, 375
-0.996094, 409, 33, 472, 288
-0.996095, 83, 105, 98, 168
-0.996103, 321, 217, 448, 280
-0.996109, 323, 97, 338, 160
-0.996113, 225, 129, 240, 192
-0.996119, 41, 137, 56, 200
-0.996139, 289, 133, 416, 164
-0.99614, 33, 89, 48, 152
-0.996144, 241, 325, 368, 356
-0.996144, 21, 105, 36, 168
-0.996162, 237, 81, 268, 208
-0.996176, 167, 1, 182, 64
-0.996182, 257, 117, 384, 148
-0.996183, 335, 145, 350, 208
-0.996241, 345, 145, 360, 208
-0.996253, 45, 105, 60, 168
-0.996261, 315, 89, 330, 152
-0.996271, 51, 137, 66, 200
-0.996273, 313, 1, 344, 128
-0.996294, 113, 209, 176, 272
-0.996297, 65, 233, 128, 296
-0.996328, 233, 121, 248, 184
-0.996334, 147, 105, 162, 168
-0.996338, 27, 105, 42, 168
-0.996361, 275, 89, 290, 152
-0.996366, 113, 153, 240, 184
-0.996375, 321, 169, 448, 200
-0.996379, 337, 97, 352, 160
-0.996392, 97, 273, 352, 336
-0.996414, 1, 97, 128, 128
-0.996416, 193, 129, 320, 160
-0.996421, 65, 129, 96, 256
-0.996448, 291, 129, 306, 192
-0.996449, 357, 121, 372, 184
-0.996471, 273, 337, 400, 368
-0.996472, 275, 129, 290, 192
-0.996497, 161, 157, 288, 188
-0.996503, 281, 129, 296, 192
-0.996505, 123, 129, 138, 192
-0.996513, 427, 177, 442, 240
-0.996516, 39, 89, 54, 152
-0.996517, 193, 57, 320, 120
-0.996517, 93, 193, 124, 320
-0.996525, 89, 81, 104, 144
-0.996526, 329, 145, 344, 208
-0.996532, 1, 105, 16, 168
-0.996547, 1, 241, 32, 368
-0.996555, 61, 89, 76, 152
-0.996621, 77, 89, 92, 152
-0.996637, 337, 197, 464, 228
-0.99664, 25, 1, 88, 64
-0.996667, 49, 93, 176, 124
-0.996671, 67, 89, 82, 152
-0.996699, 105, 105, 120, 168
-0.996724, 141, 137, 156, 200
-0.996736, 239, 121, 254, 184
-0.996751, 331, 121, 346, 184
-0.996751, 305, 225, 432, 352
-0.996753, 309, 89, 324, 152
-0.996764, 113, 73, 128, 136
-0.99679, 5, 73, 20, 136
-0.996791, 457, 193, 488, 320
-0.996791, 33, 133, 160, 164
-0.996797, 417, 153, 432, 216
-0.996804, 295, 153, 310, 216
-0.996807, 67, 121, 82, 184
-0.996829, 301, 153, 316, 216
-0.996836, 423, 129, 438, 192
-0.99685, 353, 81, 480, 144
-0.996872, 193, 309, 320, 340
-0.996873, 189, 241, 220, 368
-0.996877, 129, 209, 384, 272
-0.996891, 81, 273, 208, 304
-0.996903, 35, 129, 50, 192
-0.996924, 429, 153, 444, 216
-0.996925, 185, 193, 248, 320
-0.996926, 1, 185, 500, 248
-0.996962, 289, 1, 416, 64
-0.996974, 209, 17, 336, 80
-0.996978, 429, 81, 460, 208
-0.996979, 269, 89, 284, 152
-0.996981, 179, 121, 194, 184
-0.996993, 51, 81, 66, 144
-0.997001, 411, 129, 426, 192
-0.997002, 103, 81, 118, 144
-0.997005, 289, 289, 416, 352
-0.997017, 297, 89, 312, 152
-0.997025, 451, 185, 466, 248
-0.997032, 257, 185, 384, 216
-0.997032, 307, 153, 322, 216
-0.997038, 255, 145, 270, 208
-0.997042, 269, 129, 284, 192
-0.997043, 305, 117, 432, 148
-0.997045, 13, 81, 28, 144
-0.997046, 169, 97, 184, 160
-0.997047, 113, 313, 240, 344
-0.997055, 449, 97, 480, 224
-0.997056, 341, 169, 356, 232
-0.997061, 1, 209, 256, 272
-0.99707, 95, 105, 110, 168
-0.99708, 351, 161, 366, 224
-0.997082, 105, 129, 120, 192
-0.997084, 197, 289, 212, 352
-0.997086, 465, 185, 480, 248
-0.997093, 283, 89, 298, 152
-0.997099, 123, 105, 138, 168
-0.9971, 7, 113, 22, 176
-0.997101, 175, 97, 190, 160
-0.997114, 219, 137, 234, 200
-0.997124, 13, 105, 28, 168
-0.997129, 1, 313, 64, 375
-0.997135, 83, 81, 98, 144
-0.997146, 1, 85, 128, 116
-0.997148, 1, 185, 256, 248
-0.997149, 401, 65, 432, 192
-0.997149, 45, 169, 60, 232
-0.997151, 275, 153, 290, 216
-0.997152, 437, 185, 452, 248
-0.997157, 33, 145, 160, 176
-0.997165, 85, 129, 100, 192
-0.997166, 429, 129, 444, 192
-0.997167, 135, 137, 150, 200
-0.997173, 213, 129, 244, 256
-0.997179, 1, 49, 256, 112
-0.997185, 325, 121, 340, 184
-0.997186, 79, 137, 94, 200
-0.997191, 369, 209, 496, 240
-0.997197, 351, 113, 366, 176
-0.9972, 261, 145, 276, 208
-0.997236, 205, 289, 220, 352
-0.997237, 369, 17, 496, 144
-0.997241, 155, 97, 170, 160
-0.997242, 17, 161, 144, 192
-0.997242, 239, 145, 254, 208
-0.997255, 129, 129, 144, 192
-0.997257, 185, 129, 200, 192
-0.997262, 321, 185, 448, 216
-0.997268, 311, 129, 326, 192
-0.997271, 1, 41, 16, 104
-0.997286, 473, 193, 488, 256
-0.997287, 173, 281, 188, 344
-0.997295, 411, 153, 426, 216
-0.997301, 337, 121, 352, 184
-0.997311, 479, 201, 494, 264
-0.997317, 191, 289, 206, 352
-0.997318, 345, 105, 360, 168
-0.997319, 57, 137, 72, 200
-0.997321, 233, 153, 248, 216
-0.997332, 37, 201, 52, 264
-0.997341, 153, 193, 184, 320
-0.99735, 317, 129, 332, 192
-0.997361, 209, 165, 336, 196
-0.997364, 309, 65, 340, 320
-0.997375, 163, 97, 178, 160
-0.997379, 1, 209, 128, 240
-0.997396, 331, 97, 346, 160
-0.997402, 345, 193, 376, 320
-0.997406, 39, 169, 54, 232
-0.99741, 369, 181, 496, 212
-0.997436, 25, 113, 40, 144
-0.997448, 25, 1, 56, 256
-0.997448, 249, 145, 264, 208
-0.997449, 19, 81, 34, 144
-0.99745, 113, 1, 240, 32
-0.997451, 323, 153, 338, 216
-0.997451, 321, 345, 448, 375
-0.99746, 367, 193, 382, 256
-0.997468, 423, 153, 438, 216
-0.99747, 1, 189, 128, 220
-0.997473, 177, 297, 304, 328
-0.997475, 33, 65, 48, 128
-0.997493, 335, 169, 350, 232
-0.997496, 97, 101, 224, 132
-0.997501, 97, 233, 352, 296
-0.997512, 9, 1, 40, 256
-0.997517, 147, 129, 162, 192
-0.997523, 107, 57, 122, 120
-0.99753, 353, 241, 480, 368
-0.997531, 135, 89, 150, 152
-0.997536, 179, 281, 194, 344
-0.997537, 159, 1, 174, 64
-0.997538, 1, 73, 500, 136
-0.997541, 47, 193, 62, 256
-0.997549, 161, 117, 288, 148
-0.997565, 439, 129, 454, 192
-0.997569, 321, 97, 352, 352
-0.997579, 1, 257, 500, 320
-0.99758, 119, 65, 134, 128
-0.997589, 53, 1, 84, 128
-0.997594, 67, 113, 82, 144
-0.997618, 145, 25, 272, 88
-0.997619, 1, 1, 256, 64
-0.997665, 1, 313, 500, 375
-0.997688, 49, 81, 176, 112
-0.997693, 193, 321, 320, 352
-0.997696, 49, 225, 176, 256
-0.997719, 33, 97, 64, 352
-0.997723, 97, 65, 352, 128
-0.997728, 3, 113, 18, 144
-0.997742, 109, 97, 124, 128
-0.997756, 89, 241, 120, 368
-0.997763, 57, 117, 72, 148
-0.997765, 197, 145, 228, 272
-0.997766, 15, 105, 30, 136
-0.997767, 119, 129, 134, 160
-0.99778, 53, 193, 84, 320
-0.997788, 9, 121, 24, 152
-0.997811, 193, 89, 320, 120
-0.997832, 39, 117, 54, 148
-0.997839, 145, 101, 272, 132
-0.997848, 297, 125, 312, 156
-0.99787, 77, 125, 92, 156
-0.997878, 163, 1, 178, 32
-0.997887, 81, 261, 208, 292
-0.997895, 47, 129, 62, 160
-0.997906, 49, 197, 176, 228
-0.997907, 65, 237, 192, 268
-0.997913, 81, 301, 208, 332
-0.997921, 105, 209, 136, 336
-0.997927, 71, 125, 86, 156
-0.997931, 15, 117, 30, 148
-0.997935, 97, 341, 224, 372
-0.99794, 337, 149, 352, 180
-0.99795, 341, 101, 356, 132
-0.997952, 285, 125, 300, 156
-0.997953, 285, 141, 300, 172
-0.997955, 113, 121, 240, 152
-0.997956, 417, 133, 432, 164
-0.997964, 31, 117, 46, 148
-0.997973, 1, 233, 500, 296
-0.997973, 109, 125, 124, 156
-0.997973, 289, 97, 416, 128
-0.997976, 193, 101, 320, 132
-0.997985, 305, 157, 432, 188
-0.997986, 241, 85, 368, 116
-0.997996, 129, 169, 256, 200
-0.998018, 65, 157, 192, 188
-0.998018, 63, 129, 78, 160
-0.998019, 81, 329, 208, 360
-0.998043, 47, 117, 62, 148
-0.998051, 209, 1, 240, 128
-0.998055, 327, 101, 342, 132
-0.998056, 209, 177, 336, 208
-0.998063, 241, 41, 368, 104
-0.998066, 225, 313, 480, 375
-0.998071, 1, 73, 128, 104
-0.998072, 33, 289, 160, 320
-0.998073, 115, 93, 130, 124
-0.998078, 81, 113, 96, 144
-0.998085, 117, 109, 132, 140
-0.998086, 331, 145, 346, 176
-0.998087, 345, 1, 376, 256
-0.998096, 335, 165, 350, 196
-0.9981, 73, 93, 88, 124
-0.998106, 285, 33, 316, 288
-0.998108, 37, 1, 68, 256
-0.998113, 121, 33, 152, 288
-0.998116, 39, 129, 54, 160
-0.998116, 111, 113, 126, 144
-0.998122, 191, 1, 206, 32
-0.998125, 3, 125, 18, 156
-0.998127, 139, 105, 154, 136
-0.998135, 177, 125, 192, 156
-0.998136, 297, 65, 328, 320
-0.99815, 1, 233, 256, 296
-0.998159, 65, 1, 192, 32
-0.998169, 5, 101, 20, 132
-0.998171, 145, 325, 272, 356
-0.998175, 345, 153, 360, 184
-0.998182, 329, 169, 344, 200
-0.998182, 263, 149, 278, 180
-0.998184, 227, 145, 242, 176
-0.998191, 341, 97, 372, 352
-0.9982, 335, 133, 350, 164
-0.998202, 53, 129, 68, 160
-0.998205, 33, 165, 48, 196
-0.998206, 49, 69, 176, 100
-0.998209, 49, 317, 176, 348
-0.998212, 225, 337, 352, 368
-0.998215, 273, 217, 400, 280
-0.998217, 53, 65, 84, 320
-0.998222, 49, 53, 176, 84
-0.998223, 137, 141, 152, 172
-0.998223, 257, 73, 500, 136
-0.998226, 307, 133, 322, 164
-0.998226, 47, 89, 62, 120
-0.998245, 209, 265, 336, 328
-0.998245, 137, 129, 152, 160
-0.998246, 69, 65, 100, 320
-0.998251, 423, 133, 438, 164
-0.998253, 343, 165, 358, 196
-0.998256, 97, 249, 224, 280
-0.998258, 335, 101, 350, 132
-0.998258, 287, 157, 302, 188
-0.998265, 21, 125, 36, 156
-0.998266, 115, 141, 130, 172
-0.998269, 209, 113, 336, 144
-0.998269, 33, 305, 160, 336
-0.998272, 61, 89, 76, 120
-0.998275, 73, 113, 88, 144
-0.998275, 39, 169, 54, 200
-0.998276, 101, 33, 132, 288
-0.998278, 63, 101, 78, 132
-0.99828, 127, 137, 142, 168
-0.99828, 183, 133, 198, 164
-0.998286, 1, 229, 128, 260
-0.99829, 169, 5, 184, 36
-0.998291, 1, 173, 128, 204
-0.998292, 33, 129, 48, 160
-0.998292, 31, 105, 46, 136
-0.998294, 171, 277, 186, 308
-0.998298, 97, 89, 224, 120
-0.998298, 33, 37, 160, 68
-0.998302, 249, 149, 264, 180
-0.998308, 269, 153, 284, 184
-0.99831, 83, 129, 98, 160
-0.998335, 157, 1, 188, 256
-0.998337, 273, 9, 400, 40
-0.998338, 99, 105, 114, 136
-0.998338, 275, 137, 290, 168
-0.99834, 45, 105, 60, 136
-0.998341, 163, 13, 178, 44
-0.998344, 117, 95, 148, 110
-0.998344, 457, 189, 488, 204
-0.998344, 197, 171, 228, 186
-0.998344, 313, 193, 344, 208
-0.998345, 73, 145, 104, 160
-0.998345, 181, 285, 212, 300
-0.998345, 321, 109, 352, 124
-0.998346, 41, 93, 72, 108
-0.998347, 337, 171, 368, 186
-0.998348, 429, 217, 460, 232
-0.998348, 245, 167, 276, 182
-0.998348, 41, 87, 72, 102
-0.998348, 41, 113, 72, 128
-0.998348, 225, 217, 352, 280
-0.998349, 301, 151, 332, 166
-0.998352, 17, 109, 48, 124
-0.998352, 197, 161, 228, 176
-0.998352, 117, 151, 148, 166
-0.998353, 157, 125, 188, 140
-0.998353, 49, 163, 80, 178
-0.998353, 285, 91, 316, 106
-0.998354, 413, 213, 444, 228
-0.998354, 29, 85, 44, 116
-0.998354, 325, 153, 340, 184
-0.998355, 53, 93, 84, 108
-0.998355, 21, 97, 52, 112
-0.998355, 117, 101, 148, 116
-0.998356, 413, 135, 444, 150
-0.998357, 1, 91, 32, 106
-0.998357, 269, 175, 300, 190
-0.998357, 337, 117, 368, 132
-0.998358, 1, 257, 128, 288
-0.998358, 209, 161, 224, 192
-0.998359, 221, 141, 252, 156
-0.99836, 469, 223, 500, 238
-0.998362, 297, 157, 328, 172
-0.998362, 337, 5, 368, 20
-0.998362, 305, 139, 336, 154
-0.998362, 145, 277, 176, 292
-0.998363, 341, 133, 372, 148
-0.998363, 73, 117, 104, 132
-0.998364, 17, 87, 48, 102
-0.998365, 5, 133, 36, 148
-0.998365, 81, 97, 112, 352
-0.998365, 57, 109, 88, 124
-0.998365, 73, 241, 104, 368
-0.998366, 309, 183, 340, 198
-0.998366, 173, 139, 204, 154
-0.998367, 437, 209, 468, 224
-0.998369, 129, 145, 160, 160
-0.998369, 53, 137, 84, 152
-0.998369, 129, 155, 160, 170
-0.998373, 1, 25, 128, 56
-0.998374, 93, 125, 124, 140
-0.998375, 261, 155, 292, 170
-0.998375, 77, 129, 108, 144
-0.998376, 225, 49, 256, 176
-0.998376, 145, 1, 176, 256
-0.998376, 37, 167, 68, 182
-0.998376, 141, 5, 172, 20
-0.998376, 319, 97, 334, 128
-0.998378, 269, 137, 300, 152
-0.998379, 85, 105, 116, 120
-0.998379, 263, 169, 278, 200
-0.998379, 429, 203, 460, 218
-0.99838, 117, 123, 148, 138
-0.998381, 49, 99, 80, 114
-0.998382, 145, 127, 176, 142
-0.998383, 469, 191, 500, 206
-0.998384, 221, 141, 236, 172
-0.998384, 29, 141, 60, 156
-0.998384, 153, 15, 184, 30
-0.998384, 69, 103, 100, 118
-0.998384, 53, 87, 84, 102
-0.998385, 309, 165, 340, 180
-0.998385, 161, 5, 192, 20
-0.998386, 41, 107, 72, 122
-0.998386, 181, 1, 212, 16
-0.998387, 313, 145, 344, 160
-0.998388, 169, 287, 200, 302
-0.998388, 269, 95, 300, 110
-0.998391, 205, 145, 236, 160
-0.998391, 129, 269, 160, 284
-0.998393, 171, 129, 186, 160
-0.998395, 305, 145, 320, 176
-0.998398, 109, 139, 140, 154
-0.998398, 199, 153, 214, 184
-0.998399, 5, 121, 36, 136
-0.998399, 1, 139, 32, 154
-0.9984, 9, 81, 40, 96
-0.9984, 293, 143, 324, 158
-0.998401, 21, 129, 52, 144
-0.998405, 101, 113, 132, 128
-0.998405, 293, 129, 324, 144
-0.998405, 141, 133, 172, 148
-0.998405, 281, 157, 312, 172
-0.998405, 281, 127, 312, 142
-0.998406, 1, 105, 32, 120
-0.998406, 305, 97, 320, 128
-0.998407, 297, 163, 328, 178
-0.998407, 237, 151, 268, 166
-0.998408, 93, 99, 124, 114
-0.998408, 105, 123, 136, 138
-0.998408, 449, 221, 480, 236
-0.998408, 249, 129, 312, 375
-0.998408, 133, 107, 164, 122
-0.99841, 415, 181, 430, 212
-0.99841, 213, 161, 244, 176
-0.998411, 311, 161, 326, 192
-0.998412, 29, 109, 60, 124
-0.998414, 85, 119, 116, 134
-0.998416, 329, 141, 360, 156
-0.998419, 309, 157, 340, 172
-0.99842, 333, 107, 364, 122
-0.998421, 321, 101, 352, 116
-0.998421, 29, 87, 60, 102
-0.998421, 249, 153, 280, 168
-0.998422, 425, 155, 456, 170
-0.998422, 349, 167, 380, 182
-0.998423, 329, 165, 360, 180
-0.998424, 105, 99, 136, 114
-0.998426, 81, 111, 112, 126
-0.998426, 117, 145, 148, 160
-0.998427, 53, 125, 84, 140
-0.998427, 453, 209, 468, 240
-0.998428, 41, 119, 72, 134
-0.998428, 299, 93, 314, 124
-0.998429, 117, 109, 148, 124
-0.998429, 55, 101, 70, 132
-0.998429, 169, 133, 200, 148
-0.998429, 61, 115, 92, 130
-0.998433, 101, 107, 132, 122
-0.998434, 41, 137, 72, 152
-0.998434, 281, 139, 312, 154
-0.998434, 35, 85, 50, 116
-0.998434, 57, 131, 88, 146
-0.998435, 21, 171, 52, 186
-0.998436, 329, 149, 360, 164
-0.998437, 205, 149, 220, 180
-0.998437, 351, 165, 366, 196
-0.998439, 309, 99, 340, 114
-0.998441, 221, 149, 252, 164
-0.998441, 315, 149, 330, 180
-0.998443, 21, 121, 52, 136
-0.998446, 289, 97, 320, 112
-0.998449, 339, 185, 354, 216
-0.998452, 125, 131, 156, 146
-0.998454, 17, 119, 80, 134
-0.998457, 157, 131, 188, 146
-0.998459, 9, 127, 40, 142
-0.998461, 69, 97, 100, 112
-0.998461, 293, 135, 324, 150
-0.998464, 407, 141, 422, 172
-0.998464, 433, 33, 496, 288
-0.998465, 313, 93, 328, 124
-0.998469, 343, 137, 358, 168
-0.998472, 93, 1, 124, 128
-0.998472, 137, 153, 152, 184
-0.998473, 161, 285, 288, 316
-0.998473, 37, 131, 68, 146
-0.998474, 255, 145, 270, 176
-0.998478, 281, 133, 312, 148
-0.998479, 21, 97, 36, 128
-0.99848, 355, 153, 370, 184
-0.998481, 89, 109, 104, 140
-0.998484, 17, 115, 48, 130
-0.998484, 65, 123, 96, 138
-0.998488, 13, 133, 28, 164
-0.99849, 1, 115, 32, 130
-0.99849, 197, 293, 212, 324
-0.998492, 351, 113, 366, 144
-0.998493, 113, 13, 240, 44
-0.998494, 105, 129, 136, 144
-0.998496, 1, 45, 16, 76
-0.998498, 447, 141, 462, 172
-0.998502, 237, 161, 252, 192
-0.998506, 1, 65, 16, 96
-0.998507, 147, 133, 162, 164
-0.998508, 337, 113, 352, 144
-0.998512, 369, 221, 496, 252
-0.998513, 157, 281, 188, 296
-0.998513, 1, 281, 500, 344
-0.998514, 147, 109, 162, 140
-0.998515, 39, 157, 54, 188
-0.998516, 287, 89, 302, 120
-0.998517, 1, 129, 32, 375
-0.998518, 427, 197, 442, 228
-0.99852, 53, 89, 68, 120
-0.998521, 457, 173, 472, 204
-0.998524, 183, 121, 198, 152
-0.998527, 21, 97, 52, 352
-0.998528, 175, 1, 190, 32
-0.998529, 471, 209, 486, 240
-0.99853, 177, 337, 304, 368
-0.998531, 157, 1, 172, 32
-0.998531, 157, 13, 172, 44
-0.998532, 41, 97, 104, 112
-0.998533, 217, 151, 280, 166
-0.998534, 177, 1, 240, 16
-0.998534, 33, 109, 96, 124
-0.998535, 73, 127, 136, 142
-0.998535, 161, 5, 288, 36
-0.998537, 113, 237, 240, 268
-0.998538, 41, 125, 104, 140
-0.998541, 1, 129, 64, 144
-0.998545, 65, 97, 128, 112
-0.99855, 73, 117, 136, 132
-0.998551, 187, 289, 202, 320
-0.998553, 295, 137, 310, 168
-0.998557, 7, 89, 22, 120
-0.998557, 211, 145, 226, 176
-0.998558, 297, 101, 360, 116
-0.998561, 365, 169, 380, 200
-0.998561, 109, 137, 124, 168
-0.998562, 1, 137, 64, 152
-0.998562, 7, 77, 22, 108
-0.998564, 103, 93, 118, 124
-0.998565, 41, 103, 104, 118
-0.998567, 65, 105, 128, 120
-0.998567, 297, 141, 360, 156
-0.998568, 109, 85, 124, 116
-0.998569, 241, 145, 256, 176
-0.998571, 129, 285, 192, 300
-0.998572, 257, 135, 320, 150
-0.998573, 41, 135, 104, 150
-0.998573, 177, 157, 240, 172
-0.998577, 1, 113, 64, 128
-0.998582, 49, 115, 112, 130
-0.998583, 257, 145, 320, 160
-0.998583, 1, 103, 64, 118
-0.998584, 297, 149, 360, 164
-0.998585, 129, 225, 256, 256
-0.998586, 249, 95, 312, 110
-0.998586, 137, 129, 200, 144
-0.998588, 153, 287, 216, 302
-0.998591, 17, 95, 80, 110
-0.998592, 257, 129, 320, 144
-0.998592, 153, 1, 216, 16
-0.998593, 225, 127, 288, 142
-0.998594, 113, 133, 176, 148
-0.998597, 161, 293, 224, 308
-0.9986, 137, 107, 200, 122
-0.998601, 193, 147, 256, 162
-0.998602, 89, 99, 152, 114
-0.998603, 25, 89, 88, 104
-0.998603, 273, 99, 336, 114
-0.998603, 121, 279, 184, 294
-0.998608, 81, 139, 144, 154
-0.998609, 105, 105, 168, 120
-0.99861, 417, 207, 480, 222
-0.998612, 113, 123, 176, 138
-0.998613, 305, 169, 368, 184
-0.998616, 121, 269, 184, 284
-0.998616, 401, 137, 464, 152
-0.998617, 209, 161, 272, 176
-0.998618, 257, 163, 320, 178
-0.998619, 257, 123, 320, 138
-0.998619, 281, 135, 344, 150
-0.998621, 241, 157, 304, 172
-0.998622, 89, 147, 152, 162
-0.998622, 305, 109, 368, 124
-0.998623, 33, 141, 96, 156
-0.998625, 401, 147, 464, 162
-0.998628, 433, 221, 496, 236
-0.998629, 73, 111, 136, 126
-0.998629, 305, 115, 368, 130
-0.99863, 1, 61, 128, 92
-0.998631, 393, 215, 456, 230
-0.998632, 121, 15, 184, 30
-0.998632, 385, 155, 448, 170
-0.998632, 65, 213, 192, 244
-0.998632, 281, 129, 344, 144
-0.998632, 297, 183, 360, 198
-0.998633, 33, 165, 96, 180
-0.998633, 377, 199, 440, 214
-0.998634, 137, 137, 200, 152
-0.998634, 137, 101, 200, 116
-0.998635, 337, 105, 464, 136
-0.998636, 297, 163, 360, 178
-0.998637, 321, 1, 352, 256
-0.998638, 65, 145, 128, 160
-0.998638, 233, 169, 296, 184
-0.998639, 273, 179, 336, 194
-0.998639, 105, 117, 168, 132
-0.99864, 353, 207, 416, 222
-0.998642, 153, 155, 216, 170
-0.998643, 129, 7, 192, 22
-0.998648, 185, 163, 248, 178
-0.998649, 329, 175, 392, 190
-0.998649, 321, 141, 384, 156
-0.99865, 185, 299, 248, 314
-0.998651, 65, 133, 128, 148
-0.998652, 273, 151, 336, 166
-0.998652, 97, 271, 160, 286
-0.998652, 337, 111, 400, 126
-0.998653, 249, 175, 312, 190
-0.998656, 137, 123, 200, 138
-0.998656, 1, 89, 64, 104
-0.998656, 129, 235, 192, 250
-0.998656, 65, 151, 128, 166
-0.998657, 233, 133, 296, 148
-0.998657, 113, 149, 176, 164
-0.998657, 33, 147, 96, 162
-0.998658, 345, 169, 408, 184
-0.998659, 17, 203, 80, 218
-0.998659, 433, 195, 496, 210
-0.99866, 273, 33, 304, 288
-0.998661, 97, 111, 160, 126
-0.998661, 209, 167, 272, 182
-0.998662, 113, 157, 176, 172
-0.998663, 297, 195, 360, 210
-0.998663, 25, 171, 88, 186
-0.998664, 49, 91, 112, 106
-0.998664, 1, 81, 64, 96
-0.998664, 345, 351, 408, 366
-0.998664, 281, 189, 344, 204
-0.998666, 281, 107, 344, 122
-0.998667, 1, 171, 64, 186
-0.998667, 321, 189, 384, 204
-0.998667, 9, 209, 72, 224
-0.998669, 161, 127, 224, 142
-0.99867, 401, 187, 464, 202
-0.998671, 169, 139, 232, 154
-0.998671, 113, 99, 176, 114
-0.998671, 401, 177, 464, 192
-0.998672, 385, 209, 448, 224
-0.998672, 329, 201, 392, 216
-0.998673, 249, 103, 312, 118
-0.998673, 89, 153, 152, 168
-0.998673, 121, 261, 184, 276
-0.998673, 297, 157, 360, 172
-0.998673, 249, 183, 312, 198
-0.998674, 337, 117, 400, 132
-0.998675, 273, 93, 336, 108
-0.998675, 329, 133, 392, 148
-0.998676, 297, 121, 360, 136
-0.998676, 81, 265, 144, 280
-0.998676, 233, 121, 296, 136
-0.998676, 225, 179, 288, 194
-0.998677, 369, 359, 432, 374
-0.998677, 345, 125, 408, 140
-0.998677, 65, 169, 192, 200
-0.998677, 65, 185, 192, 216
-0.998678, 289, 197, 416, 228
-0.998678, 433, 213, 496, 228
-0.998678, 345, 357, 408, 372
-0.998693, 33, 269, 160, 300
-0.998701, 145, 97, 176, 352
-0.998714, 161, 273, 288, 304
-0.998717, 177, 209, 304, 272
-0.998721, 333, 1, 364, 256
-0.998747, 169, 1, 200, 256
-0.998747, 97, 25, 352, 88
-0.998761, 55, 81, 70, 208
-0.998765, 1, 193, 32, 320
-0.998769, 133, 65, 164, 320
-0.998773, 269, 33, 300, 160
-0.998784, 353, 249, 480, 312
-0.998787, 193, 273, 448, 336
-0.99879, 47, 81, 62, 208
-0.998796, 97, 57, 224, 88
-0.9988, 105, 129, 136, 375
-0.998821, 49, 13, 176, 44
-0.998822, 173, 193, 204, 320
-0.998823, 353, 129, 384, 375
-0.998823, 49, 341, 176, 372
-0.998839, 289, 317, 416, 348
-0.99884, 97, 29, 224, 60
-0.998854, 241, 313, 368, 344
-0.998876, 369, 1, 496, 64
-0.998906, 201, 225, 232, 352
-0.998906, 117, 129, 148, 375
-0.99891, 197, 1, 228, 128
-0.998922, 41, 81, 56, 208
-0.998924, 369, 65, 400, 320
-0.998925, 17, 1, 144, 32
-0.998927, 289, 85, 416, 116
-0.99894, 413, 97, 444, 352
-0.998974, 97, 73, 224, 104
-0.998978, 31, 81, 46, 208
-0.998985, 321, 329, 448, 360
-0.998989, 81, 41, 208, 72
-0.998991, 369, 313, 496, 375
-0.998994, 297, 193, 360, 320
-0.999005, 277, 81, 292, 208
-0.999005, 129, 209, 256, 240
-0.99902, 333, 81, 348, 208
-0.999021, 297, 81, 312, 208
-0.999031, 287, 81, 302, 208
-0.999034, 225, 5, 352, 36
-0.999036, 305, 81, 320, 208
-0.999041, 465, 129, 496, 375
-0.999047, 321, 209, 448, 240
-0.999049, 161, 97, 192, 352
-0.99905, 417, 113, 432, 240
-0.999052, 17, 81, 32, 208
-0.99908, 319, 81, 334, 208
-0.999086, 327, 81, 342, 208
-0.999095, 193, 17, 320, 48
-0.999109, 193, 1, 448, 64
-0.999109, 173, 97, 204, 352
-0.999114, 41, 129, 56, 256
-0.999116, 209, 285, 336, 316
-0.999121, 161, 1, 176, 128
-0.99913, 7, 81, 22, 208
-0.999134, 25, 81, 40, 208
-0.999136, 55, 129, 70, 256
-0.999138, 33, 329, 160, 360
-0.999143, 13, 241, 44, 368
-0.999144, 449, 129, 480, 375
-0.999144, 145, 81, 272, 112
-0.999147, 121, 177, 152, 304
-0.999151, 267, 81, 282, 208
-0.999154, 289, 241, 416, 304
-0.999156, 1, 13, 128, 44
-0.999158, 63, 81, 78, 208
-0.999167, 47, 129, 62, 256
-0.999168, 369, 169, 496, 200
-0.999188, 411, 113, 426, 240
-0.999189, 85, 1, 116, 256
-0.99919, 281, 129, 312, 375
-0.999195, 423, 113, 438, 240
-0.999203, 209, 189, 336, 220
-0.999204, 425, 97, 456, 352
-0.999215, 287, 129, 302, 256
-0.999231, 69, 81, 84, 208
-0.999232, 225, 297, 352, 328
-0.999238, 9, 1, 24, 128
-0.99924, 257, 33, 288, 288
-0.999243, 49, 249, 176, 280
-0.999249, 345, 49, 376, 176
-0.99925, 129, 193, 256, 224
-0.999256, 1, 49, 16, 176
-0.99928, 343, 81, 358, 208
-0.99928, 347, 161, 362, 288
-0.99928, 401, 65, 432, 320
-0.999287, 185, 97, 216, 352
-0.999299, 1, 49, 128, 80
-0.9993, 145, 49, 272, 112
-0.999307, 99, 97, 114, 224
-0.999309, 249, 49, 280, 176
-0.999312, 313, 81, 328, 208
-0.999315, 339, 145, 354, 272
-0.999322, 353, 113, 368, 240
-0.999324, 45, 33, 60, 160
-0.999326, 145, 181, 272, 212
-0.99933, 35, 33, 50, 160
-0.999344, 111, 33, 126, 160
-0.999351, 335, 1, 350, 128
-0.999352, 135, 1, 150, 128
-0.999354, 277, 129, 292, 256
-0.999356, 3, 1, 18, 128
-0.999358, 139, 113, 154, 240
-0.999362, 147, 113, 162, 240
-0.999373, 105, 113, 120, 240
-0.999379, 295, 1, 310, 128
-0.99938, 261, 81, 276, 208
-0.999383, 31, 129, 46, 256
-0.999391, 433, 113, 448, 240
-0.999391, 261, 1, 276, 128
-0.999393, 83, 97, 98, 224
-0.999394, 57, 33, 72, 160
-0.999395, 91, 97, 106, 224
-0.999405, 111, 81, 126, 208
-0.999405, 325, 129, 340, 256
-0.999407, 49, 25, 176, 56
-0.99941, 241, 21, 368, 52
-0.999413, 361, 129, 376, 256
-0.999413, 167, 1, 182, 128
-0.999414, 25, 129, 40, 256
-0.999422, 441, 129, 456, 256
-0.999423, 253, 129, 268, 256
-0.999426, 267, 145, 282, 272
-0.999427, 51, 33, 66, 160
-0.999429, 179, 81, 194, 208
-0.999434, 173, 1, 204, 128
-0.999434, 369, 345, 496, 375
-0.999436, 77, 97, 92, 224
-0.999436, 417, 161, 432, 288
-0.999436, 325, 1, 340, 128
-0.99944, 61, 129, 76, 256
-0.999444, 261, 129, 276, 256
-0.99945, 257, 217, 500, 280
-0.99945, 197, 65, 228, 320
-0.999454, 295, 129, 310, 256
-0.999457, 133, 113, 148, 240
-0.999462, 11, 129, 26, 256
-0.999467, 289, 241, 352, 368
-0.999468, 437, 97, 468, 352
-0.999469, 483, 177, 498, 304
-0.999469, 289, 25, 416, 88
-0.999473, 287, 33, 302, 160
-0.999475, 217, 97, 248, 352
-0.999476, 123, 65, 138, 192
-0.999477, 431, 177, 446, 304
-0.999483, 15, 1, 30, 128
-0.999486, 303, 129, 318, 256
-0.999489, 129, 33, 144, 160
-0.999489, 117, 81, 132, 208
-0.999496, 157, 81, 172, 208
-0.999498, 373, 97, 388, 224
-0.999498, 117, 1, 132, 128
-0.999499, 105, 33, 120, 160
-0.9995, 437, 177, 452, 304
-0.999507, 27, 33, 42, 160
-0.999509, 17, 129, 32, 256
-0.999509, 141, 161, 156, 288
-0.999511, 399, 113, 414, 240
-0.999511, 465, 145, 480, 272
-0.999512, 367, 145, 382, 272
-0.999517, 353, 117, 480, 148
-0.999517, 405, 129, 420, 256
-0.999518, 353, 161, 368, 288
-0.999519, 179, 241, 194, 368
-0.99952, 303, 33, 318, 160
-0.999522, 255, 81, 270, 208
-0.999522, 225, 81, 240, 208
-0.999523, 113, 129, 128, 256
-0.999534, 477, 177, 492, 304
-0.999536, 447, 129, 462, 256
-0.999537, 329, 193, 360, 320
-0.999539, 173, 81, 188, 208
-0.999546, 123, 113, 138, 240
-0.999546, 135, 225, 150, 352
-0.999547, 189, 241, 204, 368
-0.999549, 331, 129, 346, 256
-0.999553, 49, 177, 64, 304
-0.999556, 115, 93, 130, 108
-0.999556, 219, 1, 234, 16
-0.999556, 423, 161, 438, 288
-0.999556, 33, 113, 48, 128
-0.999556, 425, 153, 440, 168
-0.999556, 435, 207, 450, 222
-0.999556, 137, 65, 152, 192
-0.999557, 347, 169, 362, 184
-0.999557, 49, 87, 64, 102
-0.999557, 75, 117, 90, 132
-0.999557, 141, 155, 156, 170
-0.999558, 319, 159, 334, 174
-0.999558, 233, 149, 248, 164
-0.999559, 297, 157, 312, 172
-0.999559, 1, 241, 128, 272
-0.999559, 63, 91, 78, 106
-0.999559, 43, 93, 58, 108
-0.999559, 91, 99, 106, 114
-0.99956, 155, 1, 170, 128
-0.99956, 389, 65, 420, 192
-0.99956, 43, 99, 58, 114
-0.999561, 41, 203, 56, 218
-0.999561, 307, 137, 322, 152
-0.999561, 247, 129, 262, 256
-0.999562, 221, 141, 236, 156
-0.999562, 485, 193, 500, 208
-0.999562, 331, 1, 346, 16
-0.999562, 41, 111, 56, 126
-0.999562, 137, 143, 152, 158
-0.999562, 341, 139, 356, 154
-0.999563, 37, 101, 52, 116
-0.999563, 101, 101, 116, 116
-0.999563, 209, 169, 224, 184
-0.999564, 59, 109, 74, 124
-0.999564, 285, 93, 300, 108
-0.999565, 39, 87, 54, 102
-0.999565, 23, 123, 38, 138
-0.999565, 421, 177, 436, 192
-0.999565, 223, 159, 238, 174
-0.999566, 115, 121, 130, 136
-0.999566, 55, 139, 70, 154
-0.999567, 1, 97, 16, 224
-0.999567, 39, 119, 54, 134
-0.999568, 1, 121, 16, 136
-0.999568, 35, 131, 50, 146
-0.999569, 295, 139, 310, 154
-0.999569, 341, 101, 356, 116
-0.999569, 125, 129, 140, 144
-0.999569, 31, 169, 46, 184
-0.999569, 315, 129, 330, 256
-0.99957, 307, 159, 322, 174
-0.99957, 63, 33, 78, 160
-0.999572, 251, 151, 266, 166
-0.999572, 393, 145, 408, 272
-0.999572, 115, 111, 130, 126
-0.999572, 217, 159, 232, 174
-0.999572, 129, 45, 256, 76
-0.999572, 337, 7, 352, 22
-0.999573, 9, 123, 24, 138
-0.999573, 185, 97, 200, 224
-0.999573, 153, 21, 168, 36
-0.999573, 245, 147, 260, 162
-0.999573, 109, 123, 124, 138
-0.999573, 173, 285, 188, 300
-0.999574, 61, 127, 76, 142
-0.999574, 97, 49, 112, 176
-0.999574, 417, 135, 432, 150
-0.999574, 245, 81, 260, 208
-0.999575, 333, 165, 348, 180
-0.999575, 13, 105, 28, 120
-0.999575, 83, 109, 98, 124
-0.999577, 117, 141, 132, 156
-0.999577, 345, 163, 360, 178
-0.999577, 327, 101, 342, 116
-0.999581, 73, 97, 88, 112
-0.999582, 341, 107, 356, 122
-0.999584, 383, 113, 398, 240
-0.999584, 31, 87, 46, 102
-0.999584, 287, 137, 302, 152
-0.999584, 115, 101, 130, 116
-0.999584, 159, 277, 174, 292
-0.999585, 67, 119, 82, 134
-0.999585, 5, 139, 20, 154
-0.999585, 73, 131, 88, 146
-0.999585, 189, 1, 204, 16
-0.999585, 37, 139, 52, 154
-0.999586, 165, 279, 180, 294
-0.999586, 159, 129, 174, 144
-0.999587, 279, 93, 294, 108
-0.999588, 51, 103, 66, 118
-0.999589, 411, 161, 426, 288
-0.999589, 339, 169, 354, 184
-0.999589, 111, 129, 126, 144
-0.999589, 17, 127, 32, 142
-0.99959, 1, 107, 16, 122
-0.999591, 285, 155, 300, 170
-0.999592, 163, 81, 178, 208
-0.999592, 19, 113, 34, 128
-0.999593, 47, 109, 62, 124
-0.999593, 277, 137, 292, 152
-0.999594, 223, 147, 238, 162
-0.999594, 119, 133, 134, 148
-0.999595, 265, 153, 280, 168
-0.999595, 227, 141, 242, 156
-0.999595, 145, 107, 160, 122
-0.999595, 107, 107, 122, 122
-0.999595, 43, 137, 58, 152
-0.999595, 443, 177, 458, 304
-0.999596, 171, 131, 186, 146
-0.999596, 301, 97, 316, 112
-0.999596, 275, 153, 290, 168
-0.999597, 41, 177, 56, 304
-0.999598, 381, 97, 412, 352
-0.999599, 9, 111, 24, 126
-0.999599, 179, 135, 194, 150
-0.999599, 257, 151, 272, 166
-0.9996, 165, 5, 180, 20
-0.9996, 287, 129, 302, 144
-0.9996, 373, 161, 388, 288
-0.999602, 81, 97, 96, 112
-0.999602, 41, 129, 56, 144
-0.999603, 125, 147, 140, 162
-0.999603, 89, 107, 104, 122
-0.999603, 173, 241, 188, 368
-0.999604, 161, 15, 176, 30
-0.999604, 351, 1, 366, 128
-0.999604, 85, 49, 100, 176
-0.999604, 151, 225, 166, 352
-0.999604, 331, 107, 346, 122
-0.999605, 1, 225, 16, 352
-0.999606, 315, 97, 330, 112
-0.999607, 307, 143, 322, 158
-0.999608, 473, 129, 488, 256
-0.99961, 33, 119, 48, 134
-0.999612, 275, 33, 290, 160
-0.999612, 75, 49, 90, 176
-0.999614, 23, 81, 38, 96
-0.999614, 255, 1, 270, 128
-0.999614, 81, 121, 96, 136
-0.999614, 335, 101, 350, 116
-0.999615, 185, 1, 216, 256
-0.999616, 5, 129, 20, 144
-0.999617, 223, 1, 238, 128
-0.999618, 297, 133, 312, 148
-0.999621, 39, 171, 54, 186
-0.999622, 299, 127, 314, 142
-0.999624, 63, 133, 78, 148
-0.999624, 139, 105, 154, 120
-0.999626, 53, 133, 68, 148
-0.999627, 9, 117, 24, 132
-0.999628, 3, 113, 18, 128
-0.999629, 117, 127, 132, 142
-0.999629, 431, 153, 446, 168
-0.999638, 49, 139, 64, 154
-0.999639, 79, 127, 94, 142
-0.99964, 335, 139, 350, 154
-0.999641, 67, 125, 82, 140
-0.999649, 353, 1, 480, 32
-0.999649, 47, 131, 62, 146
-0.999651, 109, 99, 124, 114
-0.999654, 221, 241, 252, 368
-0.999658, 69, 177, 100, 304
-0.999668, 73, 125, 88, 140
-0.999671, 25, 117, 40, 132
-0.999692, 15, 119, 30, 134
-0.999697, 269, 177, 300, 304
-0.999708, 369, 33, 496, 96
-0.999763, 257, 49, 500, 112
-0.99977, 269, 129, 300, 375
-0.99977, 209, 1, 240, 256
-0.999822, 357, 1, 388, 256
-0.999848, 229, 97, 260, 352
-0.999872, 469, 225, 500, 352
-0.999894, 369, 273, 496, 336
-0.999973, 93, 129, 124, 375
-1.00003, 245, 33, 276, 288
-1.00004, 453, 33, 484, 288
-1.00004, 465, 33, 496, 288
-1.00012, 389, 1, 420, 256
-1.00015, 413, 1, 444, 256
-1.00016, 369, 57, 496, 120
-1.00018, 229, 1, 260, 256
-1.00025, 1, 1, 500, 64
-1.00025, 249, 129, 280, 375
-1.00027, 1, 25, 256, 88
-1.00036, 425, 1, 456, 256
-1.00046, 1, 209, 500, 272
-1.00052, 369, 33, 432, 160
-1.00059, 441, 1, 472, 256
-1.00062, 193, 249, 448, 312
-1.00065, 193, 25, 448, 88
-1.00081, 393, 225, 456, 352
-1.00118, 1, 33, 500, 96
-1.00136, 257, 265, 384, 328
-1.00144, 265, 241, 328, 368
-1.00148, 241, 241, 368, 304
-1.00199, 193, 241, 320, 304
-1.00226, 305, 265, 432, 328
-1.00226, 217, 177, 280, 304
-1.00275, 433, 1, 496, 128
-1.00287, 329, 1, 392, 128
-1.00391, 337, 241, 400, 368
-1.00441, 433, 241, 496, 368
-1.00469, 401, 33, 464, 160
-1.00469, 433, 49, 496, 176
-1.00522, 361, 225, 424, 352
-1.00972, 313, 241, 376, 368
