1877
-0.270106, 1, 1, 500, 333
-0.343508, 1, 1, 500, 256
-0.381181, 257, 1, 500, 333
-0.438359, 33, 1, 288, 333
-0.464301, 257, 1, 500, 256
-0.474853, 33, 1, 288, 256
-0.530726, 161, 1, 416, 333
-0.59138, 161, 33, 416, 288
-0.838761, 193, 1, 320, 256
-0.83944, 369, 1, 496, 333
-0.840281, 193, 1, 320, 333
-0.842158, 305, 1, 432, 256
-0.844703, 369, 1, 496, 256
-0.845427, 257, 1, 384, 333
-0.856887, 129, 33, 256, 288
-0.857792, 113, 1, 240, 333
-0.858556, 305, 1, 432, 333
-0.862616, 33, 1, 160, 333
-0.865638, 1, 1, 500, 128
-0.873234, 257, 1, 384, 256
-0.882842, 49, 1, 176, 256
-0.886563, 257, 65, 500, 192
-0.897423, 1, 113, 500, 240
-0.904324, 1, 49, 500, 176
-0.9061, 33, 113, 288, 240
-0.911515, 65, 193, 320, 320
-0.911823, 1, 33, 128, 288
-0.912281, 161, 97, 416, 224
-0.91317, 33, 33, 288, 160
-0.919806, 209, 97, 336, 224
-0.921044, 369, 65, 496, 192
-0.922493, 161, 49, 416, 176
-0.922615, 209, 65, 272, 192
-0.92302, 1, 177, 500, 304
-0.9253, 257, 113, 500, 240
-0.926533, 273, 49, 400, 176
-0.927596, 369, 1, 496, 128
-0.930896, 257, 17, 500, 144
-0.932191, 193, 49, 320, 176
-0.932263, 201, 1, 264, 128
-0.932709, 57, 1, 120, 128
-0.932765, 161, 209, 416, 333
-0.933479, 113, 193, 240, 320
-0.933498, 353, 113, 480, 240
-0.933504, 369, 33, 432, 160
-0.933826, 161, 1, 288, 128
-0.934136, 433, 17, 496, 144
-0.93461, 169, 1, 232, 128
-0.934811, 169, 97, 232, 224
-0.935419, 193, 161, 320, 288
-0.936618, 257, 161, 500, 288
-0.937647, 129, 1, 384, 128
-0.938174, 185, 49, 248, 176
-0.93841, 57, 81, 120, 208
-0.940369, 161, 209, 288, 333
-0.940763, 113, 113, 240, 240
-0.941452, 49, 1, 176, 128
-0.941797, 65, 129, 128, 256
-0.941839, 209, 145, 272, 272
-0.942061, 233, 49, 296, 176
-0.942816, 369, 97, 432, 224
-0.94282, 129, 49, 256, 176
-0.943582, 209, 193, 272, 320
-0.943708, 409, 65, 472, 192
-0.945355, 209, 1, 272, 64
-0.945897, 185, 121, 248, 184
-0.946008, 33, 161, 160, 288
-0.946287, 321, 33, 448, 160
-0.946599, 57, 25, 120, 88
-0.946822, 225, 209, 352, 333
-0.947075, 289, 97, 416, 224
-0.947226, 201, 57, 264, 120
-0.947514, 1, 1, 128, 128
-0.947519, 233, 97, 296, 224
-0.948813, 113, 1, 240, 128
-0.948821, 233, 209, 296, 333
-0.949621, 161, 145, 416, 272
-0.950076, 257, 97, 320, 224
-0.950272, 433, 97, 496, 224
-0.950435, 177, 1, 240, 64
-0.950881, 249, 1, 312, 128
-0.951054, 161, 113, 288, 240
-0.952266, 265, 193, 328, 320
-0.95278, 289, 49, 352, 176
-0.952978, 97, 177, 160, 304
-0.953199, 113, 249, 176, 312
-0.953548, 193, 33, 256, 96
-0.953823, 201, 81, 264, 144
-0.953955, 209, 1, 336, 128
-0.954009, 433, 25, 496, 88
-0.95404, 49, 209, 176, 333
-0.954059, 169, 25, 232, 88
-0.954259, 217, 25, 280, 88
-0.954334, 65, 145, 128, 208
-0.954562, 225, 1, 288, 128
-0.954739, 257, 209, 500, 333
-0.955434, 433, 153, 496, 216
-0.955455, 393, 1, 456, 128
-0.955486, 89, 129, 152, 256
-0.95557, 217, 105, 280, 168
-0.955585, 49, 113, 176, 240
-0.955775, 257, 113, 320, 176
-0.956486, 233, 1, 296, 64
-0.95713, 185, 209, 248, 333
-0.957251, 81, 49, 208, 176
-0.95752, 425, 177, 488, 304
-0.957588, 121, 193, 184, 320
-0.958161, 369, 41, 432, 104
-0.958241, 273, 161, 400, 288
-0.958424, 97, 201, 160, 264
-0.958425, 329, 49, 392, 176
-0.958714, 217, 249, 280, 312
-0.959787, 153, 49, 216, 176
-0.959822, 1, 113, 128, 240
-0.959913, 161, 161, 224, 288
-0.959972, 425, 65, 488, 128
-0.96003, 145, 1, 208, 128
-0.960313, 153, 1, 216, 64
-0.960446, 225, 73, 288, 136
-0.960667, 81, 33, 144, 160
-0.960737, 393, 113, 456, 240
-0.960916, 185, 169, 248, 232
-0.961117, 169, 97, 232, 160
-0.961327, 209, 193, 272, 256
-0.961481, 225, 273, 288, 333
-0.961698, 185, 161, 248, 288
-0.961864, 57, 121, 120, 184
-0.962255, 273, 225, 336, 288
-0.962323, 249, 241, 312, 304
-0.962384, 433, 89, 496, 152
-0.962684, 369, 161, 496, 288
-0.963077, 401, 73, 464, 136
-0.963195, 345, 97, 408, 224
-0.963352, 369, 89, 432, 152
-0.963513, 129, 113, 192, 240
-0.963622, 41, 129, 104, 256
-0.96372, 401, 25, 464, 88
-0.963773, 105, 225, 168, 288
-0.964137, 249, 33, 312, 96
-0.964159, 393, 105, 456, 168
-0.964197, 57, 1, 120, 256
-0.96422, 393, 1, 456, 64
-0.964338, 433, 1, 496, 64
-0.964339, 257, 49, 320, 176
-0.964462, 345, 1, 408, 128
-0.964546, 213, 113, 244, 176
-0.964576, 401, 49, 464, 112
-0.964759, 353, 1, 416, 64
-0.964785, 353, 129, 416, 192
-0.964869, 81, 1, 112, 128
-0.965169, 97, 177, 160, 240
-0.965262, 209, 145, 272, 208
-0.965531, 377, 65, 440, 128
-0.965618, 49, 49, 112, 112
-0.965745, 33, 49, 96, 176
-0.965858, 213, 49, 244, 176
-0.965958, 273, 209, 400, 333
-0.966247, 225, 65, 288, 320
-0.966289, 241, 161, 304, 288
-0.966563, 237, 1, 268, 64
-0.966676, 89, 257, 152, 320
-0.966723, 33, 49, 160, 176
-0.966974, 241, 49, 272, 176
-0.967069, 225, 65, 256, 128
-0.967257, 145, 121, 208, 184
-0.967339, 81, 9, 112, 72
-0.967375, 249, 217, 312, 280
-0.967617, 25, 137, 88, 200
-0.967766, 249, 89, 312, 152
-0.967905, 193, 113, 320, 176
-0.967973, 57, 1, 120, 64
-0.968078, 225, 33, 256, 160
-0.968304, 225, 217, 288, 280
-0.968308, 225, 97, 256, 160
-0.968382, 169, 145, 232, 208
-0.968383, 265, 145, 328, 272
-0.968397, 73, 209, 136, 333
-0.968428, 433, 129, 496, 192
-0.968642, 209, 73, 336, 136
-0.968699, 169, 1, 232, 256
-0.968852, 213, 113, 244, 240
-0.968926, 169, 49, 232, 112
-0.969002, 393, 1, 456, 256
-0.969096, 185, 273, 248, 333
-0.969118, 289, 57, 352, 120
-0.969156, 409, 169, 472, 232
-0.969307, 113, 1, 176, 128
-0.96936, 145, 25, 208, 88
-0.969423, 273, 1, 400, 128
-0.969442, 201, 1, 264, 256
-0.969519, 353, 113, 480, 176
-0.969627, 229, 97, 260, 224
-0.969759, 377, 153, 440, 216
-0.969763, 361, 1, 424, 256
-0.969764, 257, 9, 320, 72
-0.969911, 97, 81, 160, 208
-0.969925, 369, 17, 496, 80
-0.970046, 193, 241, 256, 304
-0.970142, 161, 1, 288, 64
-0.970303, 161, 209, 224, 333
-0.970521, 225, 49, 288, 112
-0.970545, 121, 209, 152, 333
-0.970607, 193, 193, 320, 256
-0.97072, 65, 17, 96, 80
-0.970828, 281, 89, 344, 152
-0.971106, 289, 209, 352, 333
-0.971169, 461, 113, 492, 240
-0.971182, 369, 89, 496, 152
-0.971385, 209, 49, 240, 112
-0.971471, 81, 17, 144, 80
-0.971567, 297, 209, 360, 272
-0.971761, 33, 1, 96, 128
-0.971842, 97, 153, 160, 216
-0.97187, 337, 105, 400, 168
-0.971986, 249, 57, 312, 120
-0.972166, 201, 33, 232, 160
-0.97217, 129, 273, 192, 333
-0.972312, 105, 1, 168, 64
-0.972319, 69, 1, 100, 128
-0.972319, 281, 97, 344, 224
-0.972494, 77, 81, 108, 208
-0.972531, 97, 137, 128, 200
-0.972577, 377, 129, 440, 192
-0.972603, 213, 89, 244, 152
-0.972629, 369, 145, 432, 272
-0.972644, 53, 137, 84, 200
-0.972664, 265, 185, 328, 248
-0.972794, 261, 233, 292, 296
-0.972918, 281, 1, 344, 128
-0.972936, 213, 161, 244, 288
-0.97307, 201, 129, 232, 192
-0.973177, 49, 257, 176, 320
-0.973256, 133, 209, 164, 333
-0.973432, 353, 65, 480, 128
-0.973439, 121, 249, 152, 312
-0.973455, 225, 25, 256, 88
-0.973474, 289, 113, 352, 176
-0.973566, 201, 97, 232, 224
-0.973642, 81, 9, 208, 72
-0.973698, 377, 97, 408, 224
-0.973728, 201, 89, 232, 152
-0.97375, 129, 273, 256, 333
-0.97401, 193, 25, 224, 88
-0.974013, 397, 97, 428, 224
-0.974055, 169, 217, 232, 280
-0.974197, 461, 17, 492, 144
-0.974282, 161, 241, 288, 304
-0.974334, 17, 113, 80, 240
-0.974347, 81, 225, 144, 288
-0.974473, 233, 121, 264, 184
-0.974503, 273, 65, 400, 128
-0.974536, 393, 33, 424, 160
-0.974572, 273, 105, 400, 168
-0.974575, 205, 1, 236, 64
-0.974615, 89, 129, 152, 192
-0.974894, 73, 177, 136, 240
-0.974937, 161, 273, 224, 333
-0.975031, 393, 121, 424, 184
-0.975049, 177, 73, 240, 136
-0.975074, 161, 33, 288, 96
-0.975088, 289, 161, 352, 288
-0.975099, 237, 49, 268, 112
-0.975116, 241, 233, 368, 296
-0.975119, 337, 57, 400, 120
-0.975137, 257, 209, 288, 333
-0.975412, 161, 89, 288, 152
-0.975442, 369, 209, 496, 333
-0.975451, 129, 217, 160, 280
-0.975484, 369, 41, 496, 104
-0.975488, 33, 129, 160, 192
-0.975512, 33, 25, 96, 88
-0.975515, 197, 49, 228, 112
-0.975772, 193, 217, 256, 280
-0.97578, 1, 209, 128, 333
-0.975786, 241, 1, 272, 128
-0.975883, 73, 49, 136, 112
-0.9759, 369, 145, 496, 208
-0.97592, 177, 265, 304, 328
-0.975957, 281, 217, 312, 280
-0.975957, 209, 137, 336, 200
-0.976005, 113, 225, 240, 288
-0.976063, 97, 249, 224, 312
-0.976068, 233, 129, 296, 192
-0.976161, 305, 1, 368, 256
-0.976177, 293, 209, 324, 272
-0.976282, 305, 129, 432, 192
-0.9763, 249, 241, 280, 304
-0.976322, 425, 193, 488, 256
-0.976441, 81, 153, 208, 216
-0.976455, 249, 1, 312, 256
-0.976505, 129, 137, 256, 200
-0.976529, 193, 217, 320, 280
-0.976564, 189, 33, 220, 160
-0.976686, 65, 265, 128, 328
-0.976752, 225, 145, 256, 208
-0.976823, 189, 81, 220, 208
-0.976825, 17, 153, 144, 216
-0.976973, 9, 209, 72, 333
-0.976976, 281, 33, 344, 288
-0.977121, 81, 41, 112, 104
-0.977122, 101, 113, 132, 240
-0.977142, 181, 25, 212, 88
-0.977246, 313, 41, 376, 104
-0.977304, 273, 193, 304, 320
-0.977336, 9, 257, 72, 320
-0.977365, 457, 153, 488, 216
-0.977397, 161, 65, 288, 128
-0.977425, 209, 169, 272, 232
-0.977531, 33, 265, 96, 328
-0.977611, 321, 41, 448, 104
-0.977616, 177, 1, 208, 64
-0.977669, 145, 185, 208, 248
-0.977671, 245, 113, 276, 176
-0.977679, 145, 145, 208, 208
-0.977704, 217, 169, 248, 232
-0.977786, 49, 89, 112, 152
-0.977945, 41, 161, 104, 224
-0.977955, 145, 113, 272, 176
-0.977975, 293, 129, 324, 256
-0.978195, 433, 1, 496, 256
-0.978263, 1, 17, 128, 80
-0.97829, 153, 73, 216, 136
-0.978297, 145, 177, 272, 240
-0.978331, 237, 249, 268, 312
-0.978385, 381, 1, 412, 128
-0.978396, 189, 121, 220, 184
-0.978445, 57, 1, 120, 333
-0.978447, 129, 49, 192, 176
-0.978513, 253, 49, 284, 176
-0.978519, 129, 225, 192, 288
-0.978725, 465, 17, 496, 80
-0.978796, 281, 97, 312, 160
-0.978848, 281, 121, 312, 184
-0.97889, 305, 1, 432, 64
-0.978959, 189, 97, 220, 160
-0.979002, 105, 217, 136, 280
-0.979116, 245, 89, 276, 152
-0.979192, 109, 161, 140, 288
-0.979229, 173, 129, 204, 192
-0.979305, 389, 25, 420, 88
-0.979341, 53, 113, 84, 240
-0.979404, 185, 193, 248, 256
-0.979433, 409, 145, 472, 208
-0.979472, 233, 185, 296, 248
-0.979552, 265, 97, 296, 224
-0.979568, 369, 129, 400, 192
-0.979617, 105, 105, 168, 168
-0.97962, 369, 169, 496, 232
-0.979687, 61, 57, 92, 120
-0.979732, 81, 65, 144, 320
-0.97981, 293, 65, 324, 192
-0.979843, 137, 1, 200, 256
-0.979846, 9, 233, 72, 296
-0.9799, 233, 193, 264, 320
-0.979908, 113, 65, 240, 128
-0.979924, 101, 209, 132, 333
-0.979993, 237, 25, 268, 88
-0.979995, 249, 265, 312, 328
-0.980013, 177, 1, 208, 128
-0.980018, 181, 49, 212, 112
-0.980028, 177, 81, 208, 208
-0.980045, 61, 49, 92, 176
-0.980048, 117, 225, 148, 288
-0.980105, 213, 1, 244, 128
-0.980131, 113, 185, 144, 248
-0.980137, 321, 89, 448, 152
-0.980149, 245, 273, 276, 333
-0.980156, 217, 1, 248, 64
-0.980222, 137, 249, 200, 312
-0.980289, 225, 249, 256, 312
-0.980346, 81, 73, 144, 136
-0.980353, 245, 113, 276, 240
-0.980379, 209, 209, 240, 272
-0.98052, 261, 257, 292, 320
-0.980531, 405, 49, 436, 176
-0.98059, 233, 1, 296, 333
-0.98061, 425, 233, 488, 296
-0.980631, 381, 129, 412, 192
-0.980637, 201, 177, 232, 304
-0.980691, 393, 1, 424, 64
-0.980724, 293, 65, 324, 128
-0.980772, 109, 257, 140, 320
-0.980789, 197, 153, 228, 216
-0.980837, 265, 113, 296, 176
-0.980899, 377, 97, 408, 160
-0.980912, 469, 65, 500, 192
-0.980959, 213, 137, 244, 200
-0.980974, 345, 25, 408, 88
-0.98098, 273, 241, 304, 304
-0.981009, 445, 161, 476, 224
-0.981115, 337, 1, 400, 256
-0.981138, 329, 129, 392, 192
-0.981169, 345, 145, 408, 272
-0.981236, 377, 1, 408, 64
-0.981246, 209, 49, 336, 112
-0.981257, 209, 1, 272, 333
-0.981266, 353, 1, 416, 333
-0.981378, 209, 169, 336, 232
-0.981457, 297, 1, 360, 333
-0.981518, 101, 161, 132, 224
-0.981566, 413, 89, 444, 152
-0.98159, 281, 81, 312, 208
-0.981682, 133, 257, 164, 320
-0.981701, 89, 49, 120, 176
-0.981731, 97, 193, 224, 256
-0.981786, 305, 209, 336, 272
-0.9818, 381, 153, 412, 216
-0.981804, 241, 209, 368, 272
-0.981852, 289, 185, 352, 248
-0.981885, 225, 145, 256, 272
-0.981917, 129, 1, 192, 64
-0.981927, 81, 33, 208, 96
-0.982007, 441, 81, 472, 208
-0.982009, 465, 129, 496, 192
-0.982063, 289, 137, 352, 200
-0.982081, 293, 113, 324, 176
-0.982087, 177, 1, 240, 333
-0.98219, 373, 49, 404, 176
-0.98222, 33, 1, 96, 256
-0.982254, 405, 113, 436, 176
-0.982288, 25, 113, 88, 176
-0.982326, 1, 257, 128, 320
-0.98237, 433, 161, 464, 224
-0.982451, 321, 161, 448, 288
-0.982533, 273, 41, 400, 104
-0.98254, 225, 257, 352, 320
-0.982574, 321, 1, 384, 128
-0.982579, 293, 185, 324, 248
-0.9826, 205, 233, 236, 296
-0.982612, 165, 25, 196, 88
-0.982713, 377, 1, 440, 333
-0.982724, 345, 81, 408, 144
-0.982734, 281, 1, 344, 64
-0.982734, 433, 33, 464, 160
-0.982776, 405, 1, 436, 64
-0.982786, 449, 145, 480, 272
-0.982832, 93, 1, 124, 128
-0.982841, 401, 1, 464, 333
-0.982844, 449, 97, 480, 160
-0.982875, 201, 177, 232, 240
-0.982884, 49, 233, 176, 296
-0.982936, 273, 1, 336, 333
-0.983102, 313, 105, 376, 168
-0.983168, 209, 9, 336, 72
-0.983213, 453, 193, 484, 320
-0.983219, 209, 25, 240, 88
-0.983232, 93, 17, 124, 80
-0.983233, 193, 1, 224, 64
-0.983305, 17, 1, 80, 64
-0.983354, 185, 73, 216, 136
-0.983431, 81, 113, 112, 176
-0.983507, 33, 177, 160, 240
-0.983527, 145, 1, 208, 333
-0.983596, 469, 177, 500, 240
-0.983685, 121, 201, 184, 264
-0.983739, 89, 129, 120, 256
-0.983864, 77, 137, 108, 200
-0.983907, 81, 89, 112, 152
-0.983963, 413, 97, 444, 224
-0.983979, 453, 65, 484, 192
-0.983992, 433, 1, 496, 333
-0.984163, 365, 97, 396, 224
-0.984226, 249, 65, 280, 128
-0.984336, 261, 209, 292, 272
-0.984383, 105, 65, 168, 320
-0.984405, 257, 9, 288, 72
-0.98443, 273, 161, 336, 224
-0.984432, 169, 49, 200, 112
-0.984452, 469, 161, 500, 288
-0.984522, 149, 177, 180, 304
-0.984666, 129, 97, 192, 160
-0.984684, 461, 41, 492, 104
-0.984687, 293, 137, 324, 200
-0.984713, 101, 185, 132, 248
-0.984719, 53, 113, 84, 176
-0.984758, 57, 1, 88, 128
-0.984778, 217, 273, 248, 333
-0.984815, 257, 33, 288, 96
-0.984926, 417, 49, 448, 176
-0.984959, 113, 129, 176, 192
-0.984972, 141, 201, 172, 264
-0.984996, 245, 193, 276, 320
-0.984999, 145, 201, 272, 264
-0.985034, 81, 113, 208, 176
-0.985035, 185, 161, 216, 288
-0.985126, 137, 49, 200, 112
-0.985145, 321, 81, 384, 144
-0.985191, 453, 201, 484, 264
-0.985277, 157, 265, 188, 328
-0.985297, 277, 145, 308, 272
-0.985358, 293, 177, 324, 304
-0.985366, 93, 49, 124, 112
-0.985405, 409, 25, 440, 88
-0.985432, 221, 193, 252, 256
-0.985454, 65, 145, 96, 208
-0.985462, 65, 57, 192, 120
-0.985538, 365, 57, 396, 120
-0.985584, 113, 89, 240, 152
-0.985584, 145, 257, 176, 320
-0.985638, 53, 161, 84, 288
-0.985655, 281, 1, 312, 128
-0.985663, 321, 153, 448, 216
-0.98571, 17, 89, 144, 152
-0.985711, 425, 273, 488, 333
-0.985713, 289, 33, 352, 96
-0.985719, 361, 49, 392, 176
-0.985793, 417, 1, 448, 128
-0.985953, 97, 257, 128, 320
-0.985995, 365, 1, 396, 128
-0.986135, 465, 65, 496, 128
-0.986151, 461, 89, 492, 152
-0.986164, 293, 89, 324, 152
-0.986269, 417, 65, 448, 128
-0.986302, 197, 201, 228, 264
-0.986392, 173, 129, 204, 256
-0.986425, 125, 193, 156, 256
-0.986444, 257, 137, 320, 200
-0.986486, 109, 1, 140, 64
-0.986508, 53, 25, 84, 88
-0.986515, 141, 233, 172, 296
-0.986618, 137, 161, 168, 288
-0.986752, 109, 1, 140, 128
-0.986835, 365, 1, 396, 64
-0.98686, 113, 1, 176, 333
-0.986892, 1, 49, 128, 112
-0.986919, 1, 233, 128, 296
-0.98693, 445, 1, 476, 128
-0.986957, 17, 161, 80, 224
-0.98696, 297, 233, 360, 296
-0.986966, 49, 161, 80, 224
-0.986995, 157, 121, 188, 184
-0.987005, 121, 129, 152, 256
-0.987007, 321, 1, 384, 333
-0.98707, 289, 209, 416, 272
-0.987072, 25, 65, 88, 128
-0.987139, 213, 209, 244, 333
-0.987159, 433, 89, 464, 152
-0.987175, 437, 137, 468, 200
-0.987186, 73, 201, 136, 264
-0.987193, 277, 73, 308, 136
-0.987198, 169, 105, 200, 168
-0.987293, 405, 49, 436, 112
-0.987318, 57, 241, 120, 304
-0.987324, 165, 209, 196, 333
-0.987448, 257, 89, 288, 152
-0.987463, 77, 129, 108, 256
-0.987535, 101, 49, 132, 176
-0.987604, 189, 177, 220, 240
-0.98773, 305, 113, 336, 240
-0.987756, 65, 113, 96, 240
-0.987782, 105, 253, 168, 284
-0.987783, 321, 33, 352, 160
-0.987814, 57, 21, 120, 52
-0.987834, 453, 121, 484, 184
-0.98785, 429, 17, 460, 80
-0.987853, 153, 129, 184, 256
-0.987869, 33, 129, 288, 192
-0.987869, 401, 89, 432, 152
-0.987923, 281, 169, 312, 232
-0.988099, 253, 1, 284, 128
-0.988111, 57, 33, 120, 64
-0.988118, 257, 117, 320, 148
-0.988158, 49, 177, 112, 304
-0.988159, 297, 1, 328, 128
-0.988195, 257, 129, 384, 192
-0.988258, 309, 49, 340, 176
-0.988301, 201, 61, 264, 92
-0.988321, 65, 145, 128, 176
-0.988377, 405, 1, 436, 128
-0.988412, 17, 209, 144, 272
-0.988424, 189, 209, 220, 333
-0.988502, 209, 29, 272, 60
-0.988552, 225, 121, 480, 184
-0.9886, 257, 185, 384, 248
-0.988828, 201, 85, 264, 116
-0.988833, 257, 153, 384, 216
-0.988833, 57, 45, 120, 76
-0.988855, 201, 117, 264, 148
-0.988895, 185, 141, 248, 172
-0.988909, 209, 1, 272, 32
-0.988917, 193, 13, 256, 44
-0.988968, 105, 205, 168, 236
-0.989035, 177, 45, 240, 76
-0.989052, 1, 1, 500, 64
-0.989059, 145, 1, 176, 128
-0.989115, 225, 245, 288, 276
-0.989171, 233, 9, 296, 40
-0.989254, 169, 33, 232, 64
-0.989303, 401, 97, 464, 128
-0.989313, 433, 37, 496, 68
-0.989329, 305, 97, 368, 224
-0.989342, 73, 157, 136, 188
-0.989353, 153, 13, 216, 44
-0.989392, 89, 177, 120, 304
-0.989418, 169, 125, 232, 156
-0.989455, 257, 57, 500, 120
-0.989467, 65, 233, 320, 296
-0.989498, 257, 1, 384, 64
-0.989532, 257, 97, 500, 160
-0.989537, 233, 21, 296, 52
-0.989551, 133, 1, 164, 128
-0.989602, 233, 117, 296, 148
-0.989636, 57, 57, 120, 88
-0.989637, 193, 129, 256, 160
-0.989642, 209, 41, 272, 72
-0.989646, 241, 69, 304, 100
-0.989648, 161, 65, 416, 128
-0.989685, 281, 213, 344, 244
-0.989701, 425, 101, 488, 132
-0.989732, 185, 181, 248, 212
-0.989746, 1, 49, 256, 112
-0.989777, 433, 161, 496, 192
-0.989789, 201, 73, 264, 104
-0.989798, 385, 1, 448, 32
-0.989809, 165, 1, 196, 128
-0.989845, 369, 193, 496, 256
-0.98986, 177, 1, 240, 32
-0.989866, 401, 29, 464, 60
-0.98989, 401, 49, 464, 80
-0.989916, 113, 269, 176, 300
-0.989919, 185, 97, 248, 128
-0.989934, 369, 93, 432, 124
-0.989935, 433, 21, 496, 52
-0.989955, 377, 157, 440, 188
-0.989976, 97, 217, 160, 248
-0.989979, 145, 141, 208, 172
-0.989992, 313, 161, 376, 288
-0.990015, 225, 129, 288, 160
-0.990036, 49, 157, 112, 188
-0.990042, 165, 65, 196, 192
-0.990054, 241, 233, 304, 264
-0.990086, 209, 197, 272, 228
-0.990127, 361, 105, 424, 136
-0.99016, 49, 133, 112, 164
-0.990192, 25, 141, 88, 172
-0.990224, 469, 209, 500, 333
-0.990228, 369, 61, 432, 92
-0.990239, 377, 145, 408, 272
-0.990251, 177, 57, 240, 88
-0.990258, 377, 81, 440, 112
-0.990291, 409, 73, 472, 104
-0.990296, 153, 1, 216, 32
-0.99031, 401, 109, 464, 140
-0.990316, 433, 89, 496, 120
-0.990352, 273, 105, 336, 136
-0.99041, 169, 113, 232, 144
-0.990411, 269, 33, 300, 160
-0.990427, 217, 105, 280, 136
-0.990438, 433, 49, 496, 80
-0.990445, 1, 25, 256, 88
-0.990449, 129, 121, 384, 184
-0.990469, 169, 193, 232, 224
-0.990525, 437, 145, 468, 272
-0.990529, 113, 281, 176, 312
-0.990538, 433, 149, 496, 180
-0.990539, 233, 281, 296, 312
-0.990546, 105, 241, 168, 272
-0.990547, 185, 153, 248, 184
-0.990548, 81, 33, 144, 64
-0.990556, 9, 65, 72, 192
-0.990588, 433, 1, 496, 32
-0.990595, 433, 65, 496, 96
-0.990606, 65, 81, 192, 144
-0.990627, 233, 257, 296, 288
-0.990679, 33, 45, 96, 76
-0.990684, 369, 45, 432, 76
-0.990699, 249, 57, 312, 88
-0.990709, 401, 85, 464, 116
-0.99071, 305, 49, 368, 80
-0.990717, 225, 57, 288, 88
-0.990733, 177, 69, 240, 100
-0.990756, 249, 245, 312, 276
-0.990786, 257, 9, 320, 40
-0.9908, 385, 17, 448, 48
-0.99081, 265, 233, 328, 264
-0.990815, 129, 21, 192, 52
-0.990816, 225, 81, 288, 112
-0.990851, 257, 221, 320, 252
-0.990867, 89, 145, 152, 176
-0.990882, 225, 293, 288, 324
-0.990893, 209, 257, 272, 288
-0.990897, 33, 81, 64, 208
-0.990909, 129, 205, 192, 236
-0.99092, 249, 45, 312, 76
-0.990927, 337, 61, 400, 92
-0.990947, 33, 265, 288, 328
-0.990974, 241, 101, 304, 132
-0.99098, 129, 129, 192, 160
-0.990988, 177, 85, 240, 116
-0.990994, 193, 213, 256, 244
-0.990995, 97, 209, 352, 272
-0.990999, 73, 265, 136, 296
-0.991001, 73, 133, 136, 164
-0.991001, 193, 1, 448, 64
-0.991008, 361, 1, 424, 32
-0.991018, 257, 129, 320, 160
-0.991031, 201, 289, 264, 320
-0.99104, 409, 61, 472, 92
-0.991041, 97, 5, 160, 36
-0.991043, 161, 101, 224, 132
-0.991045, 409, 149, 472, 180
-0.991045, 233, 269, 296, 300
-0.991046, 137, 261, 200, 292
-0.991048, 289, 61, 352, 92
-0.991049, 89, 281, 152, 312
-0.991067, 281, 121, 344, 152
-0.991069, 409, 177, 472, 208
-0.99112, 369, 273, 496, 333
-0.991121, 249, 33, 312, 64
-0.991126, 161, 89, 416, 152
-0.991137, 433, 113, 496, 144
-0.99119, 433, 173, 496, 204
-0.991198, 217, 229, 280, 260
-0.991206, 25, 153, 88, 184
-0.991226, 97, 173, 160, 204
-0.991227, 169, 221, 232, 252
-0.99124, 209, 173, 272, 204
-0.991251, 153, 49, 216, 80
-0.991287, 169, 165, 232, 196
-0.991288, 353, 13, 416, 44
-0.99129, 33, 153, 288, 216
-0.99132, 377, 121, 440, 152
-0.991341, 201, 241, 264, 272
-0.991341, 433, 77, 496, 108
-0.991361, 369, 33, 432, 64
-0.991375, 353, 129, 416, 160
-0.991398, 289, 93, 352, 124
-0.991407, 73, 221, 136, 252
-0.99148, 41, 129, 72, 256
-0.991564, 193, 153, 448, 216
-0.991581, 29, 209, 60, 333
-0.991623, 333, 1, 364, 128
-0.991824, 33, 105, 288, 168
-0.991971, 349, 49, 380, 176
-0.991972, 401, 161, 464, 288
-0.991973, 225, 69, 256, 100
-0.992061, 429, 81, 460, 208
-0.992105, 73, 45, 104, 76
-0.992114, 213, 113, 244, 144
-0.992122, 353, 113, 384, 240
-0.992156, 213, 125, 244, 156
-0.992156, 237, 9, 268, 40
-0.992181, 113, 249, 144, 280
-0.992209, 65, 33, 96, 64
-0.99221, 233, 117, 264, 148
-0.992219, 237, 57, 268, 88
-0.99222, 253, 245, 284, 276
-0.992226, 289, 233, 416, 296
-0.992244, 33, 1, 96, 333
-0.992247, 209, 53, 240, 84
-0.992247, 53, 141, 84, 172
-0.99227, 245, 121, 276, 152
-0.992275, 213, 137, 244, 168
-0.992281, 81, 17, 112, 48
-0.992287, 233, 129, 264, 160
-0.992322, 189, 121, 220, 152
-0.992357, 177, 137, 208, 168
-0.992359, 177, 9, 208, 40
-0.992367, 265, 117, 296, 148
-0.992378, 205, 1, 236, 32
-0.992389, 269, 233, 300, 264
-0.992397, 33, 1, 288, 64
-0.992402, 209, 77, 240, 108
-0.992415, 65, 21, 96, 52
-0.992417, 89, 1, 152, 333
-0.992423, 89, 33, 120, 64
-0.992426, 389, 1, 420, 32
-0.992429, 297, 213, 328, 244
-0.992434, 241, 21, 272, 52
-0.992444, 133, 253, 164, 284
-0.992445, 121, 233, 152, 264
-0.992452, 225, 37, 256, 68
-0.992479, 233, 105, 264, 136
-0.99248, 201, 121, 232, 152
-0.992502, 77, 33, 108, 64
-0.992534, 205, 209, 236, 240
-0.992535, 201, 133, 232, 164
-0.992537, 189, 73, 220, 104
-0.992541, 97, 145, 128, 176
-0.992561, 465, 25, 496, 56
-0.992565, 209, 89, 240, 120
-0.992567, 193, 113, 320, 144
-0.99258, 101, 157, 132, 188
-0.992584, 137, 205, 168, 236
-0.992589, 77, 145, 108, 176
-0.992594, 109, 205, 140, 236
-0.992601, 221, 1, 252, 32
-0.992604, 193, 97, 224, 128
-0.992618, 201, 185, 232, 216
-0.992637, 189, 29, 220, 60
-0.992638, 237, 253, 268, 284
-0.992639, 461, 153, 492, 184
-0.992649, 285, 113, 316, 144
-0.992664, 101, 221, 132, 252
-0.992667, 189, 41, 220, 72
-0.992669, 225, 193, 256, 224
-0.992672, 465, 37, 496, 68
-0.992676, 227, 113, 242, 176
-0.992681, 409, 109, 440, 140
-0.992681, 1, 1, 64, 128
-0.992682, 181, 53, 212, 84
-0.992682, 457, 105, 488, 136
-0.992682, 121, 261, 152, 292
-0.992686, 293, 65, 324, 96
-0.992693, 169, 121, 200, 152
-0.992702, 233, 141, 264, 172
-0.992712, 197, 157, 228, 188
-0.992713, 265, 257, 296, 288
-0.992721, 281, 225, 312, 256
-0.992727, 377, 165, 408, 196
-0.992728, 257, 17, 288, 48
-0.992729, 153, 13, 184, 44
-0.992732, 189, 17, 220, 48
-0.992736, 121, 217, 152, 248
-0.992741, 225, 57, 256, 88
-0.992758, 213, 193, 244, 224
-0.992765, 97, 133, 128, 164
-0.992773, 193, 257, 448, 320
-0.992775, 189, 133, 220, 164
-0.992779, 101, 169, 132, 200
-0.992782, 405, 25, 436, 56
-0.992783, 225, 93, 256, 124
-0.99279, 217, 177, 248, 208
-0.992794, 397, 13, 428, 44
-0.992802, 237, 33, 268, 64
-0.992807, 285, 125, 316, 156
-0.992809, 61, 45, 92, 76
-0.992818, 177, 29, 208, 60
-0.992827, 97, 185, 352, 248
-0.992829, 85, 45, 116, 76
-0.99283, 433, 177, 464, 208
-0.992839, 241, 45, 272, 76
-0.992848, 125, 205, 156, 236
-0.992854, 245, 273, 276, 304
-0.992859, 381, 149, 412, 180
-0.992859, 201, 173, 232, 204
-0.99286, 309, 213, 340, 244
-0.992864, 169, 57, 200, 88
-0.992866, 101, 277, 132, 308
-0.992872, 393, 121, 424, 152
-0.992874, 145, 265, 176, 296
-0.992874, 237, 189, 268, 220
-0.992876, 145, 193, 176, 224
-0.992883, 373, 133, 404, 164
-0.992886, 413, 93, 444, 124
-0.992893, 197, 61, 228, 92
-0.992894, 281, 101, 312, 132
-0.992901, 209, 41, 240, 72
-0.992902, 101, 185, 132, 216
-0.992904, 201, 17, 232, 48
-0.992906, 465, 141, 496, 172
-0.992909, 161, 141, 192, 172
-0.99291, 53, 125, 84, 156
-0.992915, 441, 165, 472, 196
-0.992917, 249, 73, 280, 104
-0.992919, 221, 245, 252, 276
-0.992922, 77, 57, 108, 88
-0.992925, 133, 229, 164, 260
-0.99293, 237, 81, 268, 112
-0.99293, 153, 129, 184, 160
-0.992934, 465, 93, 496, 124
-0.992939, 257, 269, 288, 300
-0.992941, 137, 289, 168, 320
-0.992942, 101, 265, 132, 296
-0.992945, 133, 241, 164, 272
-0.99295, 117, 5, 148, 36
-0.992951, 385, 25, 416, 56
-0.992953, 209, 65, 240, 96
-0.992953, 217, 17, 248, 48
-0.992954, 141, 113, 172, 240
-0.992956, 121, 281, 152, 312
-0.992958, 369, 1, 400, 32
-0.992959, 217, 301, 248, 332
-0.992968, 225, 289, 256, 320
-0.992971, 225, 81, 256, 112
-0.992975, 65, 153, 96, 184
-0.992976, 257, 45, 288, 76
-0.992988, 193, 125, 320, 156
-0.99301, 161, 233, 416, 296
-0.993027, 17, 209, 48, 333
-0.993034, 161, 5, 288, 36
-0.993195, 67, 25, 82, 88
-0.993198, 353, 1, 384, 128
-0.993206, 49, 49, 80, 176
-0.993207, 353, 117, 480, 148
-0.993251, 161, 41, 416, 104
-0.993253, 1, 25, 500, 88
-0.993278, 99, 17, 114, 80
-0.993329, 369, 233, 496, 296
-0.993345, 219, 113, 234, 176
-0.993372, 369, 1, 496, 32
-0.993403, 369, 13, 496, 44
-0.993424, 193, 81, 320, 112
-0.993494, 89, 9, 104, 72
-0.993516, 77, 9, 92, 72
-0.993532, 193, 201, 448, 264
-0.993575, 231, 65, 246, 128
-0.993617, 257, 33, 500, 96
-0.993644, 239, 97, 254, 160
-0.993667, 211, 49, 226, 112
-0.993678, 193, 229, 320, 260
-0.993679, 237, 65, 252, 128
-0.993699, 397, 121, 412, 184
-0.993724, 475, 17, 490, 80
-0.993764, 191, 25, 206, 88
-0.993799, 227, 89, 242, 152
-0.993813, 369, 25, 496, 56
-0.993832, 265, 241, 280, 304
-0.99385, 81, 13, 208, 44
-0.993885, 233, 113, 248, 176
-0.993921, 81, 25, 208, 56
-0.993924, 33, 73, 288, 136
-0.993964, 253, 249, 268, 312
-0.993995, 273, 233, 288, 296
-0.994021, 389, 145, 420, 272
-0.994023, 117, 249, 132, 312
-0.994036, 219, 169, 234, 232
-0.994053, 5, 1, 36, 128
-0.994058, 207, 89, 222, 152
-0.994058, 1, 129, 500, 192
-0.994099, 369, 129, 496, 160
-0.994099, 221, 81, 236, 144
-0.994117, 257, 177, 500, 240
-0.994153, 257, 233, 500, 296
-0.994154, 193, 201, 320, 232
-0.994155, 259, 241, 274, 304
-0.994165, 183, 1, 198, 64
-0.994192, 213, 129, 228, 192
-0.994199, 207, 1, 222, 64
-0.994233, 161, 17, 288, 48
-0.994236, 81, 261, 208, 292
-0.994258, 193, 93, 320, 124
-0.994259, 369, 69, 496, 100
-0.994291, 227, 145, 242, 208
-0.994319, 279, 233, 294, 296
-0.994325, 141, 201, 156, 264
-0.994354, 273, 69, 400, 100
-0.994375, 387, 129, 402, 192
-0.994384, 301, 113, 316, 176
-0.994391, 135, 217, 150, 280
-0.99441, 33, 157, 160, 188
-0.994435, 201, 9, 216, 72
-0.994456, 237, 25, 252, 88
-0.994463, 365, 161, 396, 288
-0.994489, 219, 49, 234, 112
-0.994512, 83, 9, 98, 72
-0.994515, 65, 161, 96, 288
-0.994522, 265, 145, 296, 272
-0.994526, 249, 81, 264, 144
-0.994544, 61, 129, 76, 192
-0.994561, 101, 121, 116, 184
-0.994579, 129, 189, 256, 220
-0.994594, 225, 49, 240, 112
-0.994602, 1, 1, 64, 333
-0.994611, 251, 1, 266, 64
-0.994615, 1, 97, 500, 160
-0.994626, 401, 1, 416, 64
-0.994629, 161, 49, 288, 80
-0.99464, 33, 145, 160, 176
-0.994646, 369, 57, 496, 88
-0.994653, 171, 121, 186, 184
-0.994655, 209, 69, 336, 100
-0.994668, 203, 121, 218, 184
-0.994674, 109, 209, 124, 272
-0.994691, 213, 89, 228, 152
-0.994702, 211, 201, 226, 264
-0.994708, 273, 257, 400, 320
-0.994712, 369, 105, 496, 136
-0.994719, 233, 89, 248, 152
-0.99472, 55, 137, 70, 200
-0.994722, 385, 209, 448, 333
-0.994735, 353, 93, 480, 124
-0.994756, 453, 161, 468, 224
-0.994758, 145, 133, 272, 164
-0.994758, 1, 185, 256, 248
-0.99476, 81, 161, 208, 192
-0.994762, 145, 117, 272, 148
-0.994766, 289, 57, 416, 88
-0.99477, 203, 41, 218, 104
-0.99478, 1, 21, 128, 52
-0.994785, 77, 33, 92, 96
-0.994792, 111, 185, 126, 248
-0.994801, 447, 89, 462, 152
-0.994811, 353, 81, 480, 112
-0.994818, 209, 137, 336, 168
-0.994832, 117, 81, 148, 208
-0.99484, 285, 225, 300, 288
-0.99487, 49, 249, 176, 280
-0.994873, 239, 121, 254, 184
-0.994921, 145, 277, 272, 308
-0.994937, 247, 249, 262, 312
-0.994959, 309, 161, 340, 288
-0.994964, 369, 45, 496, 76
-0.99497, 185, 25, 200, 88
-0.994972, 117, 225, 132, 288
-0.994973, 111, 257, 126, 320
-0.994975, 243, 41, 258, 104
-0.994975, 67, 137, 82, 200
-0.99499, 193, 121, 208, 184
-0.994995, 177, 25, 192, 88
-0.995018, 161, 61, 288, 92
-0.995019, 125, 257, 140, 320
-0.995024, 201, 73, 216, 136
-0.995048, 293, 217, 308, 280
-0.995058, 369, 145, 496, 176
-0.995059, 247, 113, 262, 176
-0.995074, 239, 1, 254, 64
-0.995079, 273, 121, 400, 152
-0.995127, 241, 245, 368, 276
-0.995132, 193, 217, 320, 248
-0.995134, 403, 121, 418, 184
-0.99514, 293, 97, 308, 160
-0.995151, 273, 93, 400, 124
-0.995152, 419, 89, 434, 152
-0.995174, 129, 241, 256, 272
-0.995175, 145, 65, 176, 192
-0.995188, 33, 265, 160, 296
-0.995198, 113, 1, 240, 32
-0.995199, 469, 121, 484, 184
-0.995203, 177, 241, 304, 272
-0.995207, 141, 225, 156, 288
-0.995209, 209, 25, 224, 88
-0.995219, 483, 161, 498, 224
-0.995223, 129, 293, 256, 324
-0.995232, 295, 129, 310, 192
-0.995242, 381, 1, 396, 64
-0.995242, 213, 1, 228, 64
-0.995243, 305, 209, 320, 272
-0.99525, 195, 97, 210, 160
-0.995267, 209, 33, 240, 288
-0.995285, 337, 193, 400, 320
-0.995307, 111, 145, 126, 208
-0.995313, 241, 57, 368, 88
-0.995316, 233, 145, 248, 208
-0.995356, 353, 161, 480, 192
-0.99536, 97, 273, 224, 304
-0.995365, 113, 229, 240, 260
-0.995367, 145, 265, 272, 296
-0.995368, 409, 113, 424, 176
-0.995383, 221, 137, 236, 200
-0.995387, 101, 41, 116, 104
-0.995394, 1, 209, 256, 272
-0.995398, 257, 229, 384, 260
-0.995418, 289, 109, 416, 140
-0.995435, 241, 109, 368, 140
-0.995441, 229, 1, 244, 64
-0.995448, 477, 249, 492, 312
-0.995455, 283, 121, 298, 184
-0.995476, 245, 1, 260, 64
-0.995479, 273, 257, 288, 320
-0.995479, 385, 1, 416, 256
-0.995506, 187, 129, 202, 192
-0.995516, 441, 161, 456, 224
-0.995526, 1, 241, 500, 304
-0.995528, 315, 209, 330, 272
-0.995548, 299, 209, 314, 272
-0.995552, 249, 41, 264, 104
-0.995554, 41, 209, 72, 333
-0.995564, 447, 161, 462, 224
-0.995582, 73, 57, 88, 120
-0.995583, 297, 57, 312, 120
-0.995604, 179, 121, 194, 184
-0.995609, 321, 69, 448, 100
-0.995612, 217, 193, 232, 256
-0.995612, 429, 81, 444, 144
-0.995614, 113, 213, 240, 244
-0.995625, 241, 249, 256, 312
-0.995631, 241, 81, 368, 112
-0.99564, 253, 273, 268, 333
-0.995641, 193, 65, 208, 128
-0.995642, 1, 169, 500, 232
-0.995643, 33, 133, 160, 164
-0.995654, 379, 97, 394, 160
-0.995657, 77, 1, 108, 256
-0.995666, 417, 17, 432, 80
-0.995674, 97, 149, 224, 180
-0.995684, 459, 161, 474, 224
-0.995686, 1, 49, 500, 112
-0.995688, 289, 133, 416, 164
-0.995695, 117, 185, 132, 248
-0.995713, 273, 105, 288, 168
-0.995715, 161, 253, 288, 284
-0.995715, 457, 89, 472, 152
-0.995721, 407, 1, 422, 64
-0.995723, 209, 149, 336, 180
-0.995724, 337, 49, 368, 176
-0.995725, 145, 89, 272, 120
-0.995738, 205, 209, 220, 272
-0.995744, 393, 17, 408, 80
-0.995746, 407, 33, 422, 96
-0.995758, 17, 161, 80, 288
-0.995764, 5, 209, 36, 333
-0.995769, 305, 41, 432, 72
-0.99577, 129, 73, 256, 104
-0.995774, 273, 217, 400, 248
-0.995784, 125, 225, 140, 288
-0.995784, 229, 1, 260, 256
-0.995789, 183, 49, 198, 112
-0.995799, 193, 189, 320, 220
-0.995823, 401, 145, 432, 272
-0.99583, 129, 101, 256, 132
-0.995838, 353, 173, 480, 204
-0.995838, 101, 185, 116, 248
-0.99584, 195, 153, 210, 216
-0.995841, 423, 65, 438, 128
-0.995851, 381, 129, 396, 192
-0.995851, 437, 17, 452, 80
-0.995853, 73, 137, 88, 200
-0.995864, 107, 233, 122, 296
-0.995888, 161, 29, 288, 60
-0.99589, 309, 1, 340, 128
-0.995891, 387, 1, 402, 64
-0.995923, 81, 61, 208, 92
-0.995924, 189, 1, 204, 64
-0.995927, 321, 265, 448, 328
-0.995934, 33, 33, 160, 64
-0.995936, 93, 33, 108, 96
-0.995936, 209, 9, 336, 40
-0.99595, 177, 209, 208, 333
-0.995967, 437, 65, 452, 128
-0.995967, 473, 97, 488, 160
-0.995971, 225, 241, 240, 304
-0.995995, 129, 177, 256, 208
-0.996012, 321, 1, 448, 32
-0.996024, 289, 81, 416, 112
-0.996039, 49, 49, 176, 80
-0.996042, 469, 1, 500, 256
-0.996064, 321, 209, 448, 333
-0.996093, 1, 49, 128, 80
-0.996097, 193, 281, 320, 312
-0.996139, 33, 277, 160, 308
-0.996141, 209, 177, 336, 208
-0.996183, 129, 161, 256, 192
-0.996187, 321, 177, 448, 240
-0.996197, 397, 1, 428, 256
-0.996221, 145, 145, 272, 176
-0.996246, 177, 293, 304, 324
-0.996294, 97, 201, 224, 232
-0.996294, 189, 1, 220, 256
-0.996326, 81, 37, 208, 68
-0.996372, 305, 13, 432, 44
-0.996413, 97, 133, 224, 164
-0.996414, 209, 161, 336, 192
-0.996426, 273, 1, 400, 32
-0.996438, 241, 45, 368, 76
-0.996495, 97, 121, 224, 152
-0.996515, 145, 201, 272, 232
-0.996557, 1, 193, 500, 256
-0.996559, 61, 1, 92, 256
-0.996561, 81, 285, 208, 316
-0.996577, 241, 1, 272, 256
-0.996593, 305, 29, 432, 60
-0.996596, 81, 173, 208, 204
-0.996647, 425, 129, 456, 256
-0.996669, 297, 33, 328, 288
-0.996675, 1, 65, 64, 320
-0.996692, 235, 1, 250, 32
-0.996727, 89, 33, 120, 288
-0.996734, 413, 1, 444, 256
-0.996743, 1, 253, 128, 284
-0.996776, 225, 269, 352, 300
-0.996778, 215, 125, 230, 156
-0.996781, 95, 37, 110, 68
-0.996831, 77, 33, 92, 64
-0.996837, 1, 73, 500, 136
-0.996845, 141, 201, 156, 232
-0.996871, 17, 121, 144, 152
-0.996873, 453, 65, 484, 320
-0.996916, 305, 145, 432, 176
-0.996937, 225, 257, 352, 288
-0.996948, 329, 1, 360, 256
-0.996959, 239, 121, 254, 152
-0.996978, 277, 1, 308, 256
-0.996978, 33, 169, 160, 200
-0.997024, 429, 1, 460, 256
-0.997061, 1, 9, 128, 40
-0.99708, 201, 125, 216, 156
-0.997086, 115, 249, 130, 280
-0.997117, 33, 89, 160, 120
-0.997125, 101, 29, 116, 60
-0.997146, 201, 33, 216, 64
-0.997148, 223, 113, 238, 144
-0.997169, 107, 213, 122, 244
-0.997176, 49, 201, 176, 232
-0.997186, 191, 29, 206, 60
-0.997193, 245, 117, 260, 148
-0.997209, 485, 161, 500, 192
-0.997225, 209, 21, 336, 52
-0.997235, 67, 33, 82, 64
-0.99726, 215, 113, 230, 144
-0.997262, 121, 1, 152, 128
-0.997264, 73, 45, 88, 76
-0.997272, 241, 33, 368, 64
-0.997283, 77, 17, 92, 48
-0.997289, 207, 33, 222, 64
-0.997298, 83, 33, 98, 64
-0.9973, 275, 113, 290, 144
-0.997302, 269, 241, 284, 272
-0.997335, 201, 17, 216, 48
-0.997336, 1, 265, 500, 328
-0.997338, 219, 193, 234, 224
-0.997344, 441, 1, 472, 256
-0.997348, 101, 1, 132, 256
-0.997352, 305, 157, 432, 188
-0.997356, 71, 17, 86, 48
-0.997367, 373, 1, 404, 256
-0.997382, 265, 113, 280, 144
-0.997387, 239, 105, 254, 136
-0.997388, 243, 1, 258, 32
-0.997397, 301, 125, 316, 156
-0.997424, 251, 125, 266, 156
-0.997433, 237, 141, 252, 172
-0.997433, 231, 69, 246, 100
-0.997435, 225, 293, 352, 324
-0.997457, 229, 93, 244, 124
-0.997464, 209, 185, 224, 216
-0.997467, 229, 133, 244, 164
-0.997467, 207, 117, 222, 148
-0.997476, 81, 189, 208, 220
-0.997478, 177, 1, 208, 256
-0.997482, 259, 245, 274, 276
-0.997511, 273, 257, 288, 288
-0.997511, 369, 185, 496, 216
-0.997512, 265, 65, 296, 320
-0.997516, 205, 45, 220, 76
-0.997518, 475, 21, 490, 52
-0.99752, 341, 1, 372, 256
-0.997524, 1, 61, 128, 92
-0.997526, 171, 129, 186, 160
-0.997527, 101, 125, 116, 156
-0.997533, 137, 225, 152, 256
-0.997541, 33, 181, 160, 212
-0.997551, 245, 129, 260, 160
-0.997552, 145, 1, 176, 256
-0.997553, 227, 145, 242, 176
-0.997563, 83, 45, 98, 76
-0.997564, 133, 249, 148, 280
-0.997564, 167, 141, 182, 172
-0.997565, 233, 105, 248, 136
-0.997566, 249, 49, 264, 80
-0.997577, 1, 217, 500, 280
-0.997582, 447, 93, 462, 124
-0.997599, 223, 77, 238, 108
-0.997604, 251, 77, 266, 108
-0.997606, 225, 193, 240, 224
-0.997611, 265, 253, 280, 284
-0.997621, 71, 141, 86, 172
-0.997624, 241, 193, 368, 224
-0.997636, 413, 109, 428, 140
-0.997636, 53, 141, 68, 172
-0.997638, 203, 73, 218, 104
-0.997646, 193, 77, 208, 108
-0.997647, 207, 209, 222, 240
-0.997651, 95, 49, 110, 80
-0.997652, 65, 109, 192, 140
-0.997656, 181, 129, 196, 160
-0.997661, 419, 93, 434, 124
-0.997663, 97, 49, 224, 80
-0.997669, 113, 205, 128, 236
-0.997685, 95, 17, 110, 48
-0.99769, 195, 97, 210, 128
-0.9977, 431, 13, 446, 44
-0.997701, 251, 5, 266, 36
-0.997701, 191, 129, 206, 160
-0.997705, 111, 265, 126, 296
-0.997706, 57, 125, 72, 156
-0.997707, 369, 301, 496, 332
-0.997715, 299, 113, 314, 144
-0.997715, 445, 81, 460, 112
-0.99772, 313, 1, 344, 256
-0.997723, 65, 21, 80, 52
-0.997726, 253, 273, 268, 304
-0.997728, 175, 141, 190, 172
-0.997735, 125, 1, 140, 32
-0.997752, 315, 213, 330, 244
-0.997758, 281, 117, 296, 148
-0.99776, 211, 137, 226, 168
-0.997761, 213, 41, 228, 72
-0.997778, 455, 93, 470, 124
-0.997779, 183, 49, 198, 80
-0.997779, 259, 121, 274, 152
-0.997787, 229, 121, 244, 152
-0.99779, 221, 141, 236, 172
-0.9978, 241, 189, 256, 220
-0.9978, 83, 13, 98, 44
-0.997801, 379, 161, 394, 192
-0.997801, 395, 1, 410, 32
-0.997802, 277, 237, 292, 268
-0.997803, 453, 165, 468, 196
-0.997806, 155, 261, 170, 292
-0.997816, 183, 13, 198, 44
-0.997816, 183, 33, 198, 64
-0.997817, 1, 289, 128, 320
-0.997825, 199, 153, 214, 184
-0.997826, 203, 177, 218, 208
-0.997831, 33, 237, 160, 268
-0.997843, 201, 93, 216, 124
-0.997844, 101, 41, 116, 72
-0.997846, 169, 117, 184, 148
-0.997846, 201, 61, 216, 92
-0.997847, 407, 21, 422, 52
-0.997849, 17, 1, 48, 128
-0.997851, 83, 89, 98, 120
-0.997852, 89, 45, 104, 76
-0.997854, 201, 213, 216, 244
-0.997854, 239, 17, 254, 48
-0.997855, 383, 5, 398, 36
-0.997857, 73, 153, 88, 184
-0.997858, 369, 197, 496, 228
-0.997859, 139, 253, 154, 284
-0.99786, 267, 265, 282, 296
-0.997862, 257, 181, 384, 212
-0.997867, 239, 85, 254, 116
-0.997867, 395, 125, 410, 156
-0.997876, 305, 209, 336, 333
-0.997877, 127, 233, 142, 264
-0.997893, 231, 193, 246, 224
-0.997898, 213, 73, 228, 104
-0.9979, 89, 13, 104, 44
-0.997906, 421, 17, 436, 48
-0.997908, 219, 181, 234, 212
-0.997911, 247, 281, 262, 312
-0.997919, 241, 65, 256, 96
-0.997921, 203, 189, 218, 220
-0.997926, 209, 173, 224, 204
-0.99793, 389, 149, 404, 180
-0.997932, 407, 117, 422, 148
-0.997938, 207, 9, 222, 40
-0.997943, 177, 17, 192, 48
-0.997944, 229, 1, 244, 32
-0.997944, 283, 233, 298, 264
-0.997965, 81, 73, 208, 104
-0.997986, 65, 1, 192, 32
-0.997986, 241, 205, 368, 236
-0.997997, 289, 205, 416, 236
-0.998002, 321, 161, 352, 288
-0.998051, 65, 297, 192, 328
-0.998074, 369, 209, 496, 240
-0.998088, 353, 1, 384, 256
-0.998116, 17, 221, 144, 252
-0.998135, 441, 193, 472, 320
-0.998143, 257, 145, 384, 176
-0.998275, 253, 1, 284, 256
-0.998395, 57, 25, 120, 40
-0.998398, 57, 47, 120, 62
-0.998401, 193, 35, 256, 50
-0.998404, 73, 149, 136, 164
-0.998412, 241, 121, 304, 136
-0.998419, 105, 259, 168, 274
-0.99842, 65, 155, 128, 170
-0.99842, 57, 35, 120, 50
-0.998423, 215, 33, 230, 160
-0.998424, 177, 7, 240, 22
-0.998427, 125, 65, 156, 320
-0.99843, 201, 1, 264, 16
-0.998432, 185, 97, 248, 112
-0.998433, 193, 25, 256, 40
-0.998433, 97, 217, 160, 232
-0.998434, 49, 145, 112, 160
-0.99844, 201, 91, 264, 106
-0.998441, 193, 15, 256, 30
-0.998443, 297, 107, 328, 122
-0.998443, 225, 113, 256, 128
-0.998443, 145, 21, 176, 36
-0.998443, 413, 107, 444, 122
-0.998444, 177, 139, 240, 154
-0.998444, 97, 15, 128, 30
-0.998444, 429, 177, 460, 192
-0.998445, 185, 37, 216, 52
-0.998445, 189, 157, 220, 172
-0.998446, 181, 223, 212, 238
-0.998446, 225, 19, 288, 34
-0.998447, 237, 139, 268, 154
-0.998447, 265, 127, 328, 142
-0.998447, 405, 29, 436, 44
-0.998448, 237, 51, 268, 66
-0.998448, 197, 37, 228, 52
-0.998449, 237, 19, 268, 34
-0.99845, 289, 217, 352, 232
-0.99845, 105, 223, 136, 238
-0.99845, 217, 67, 280, 82
-0.998451, 181, 53, 212, 68
-0.998453, 237, 13, 268, 28
-0.998453, 117, 221, 148, 236
-0.998454, 177, 133, 240, 148
-0.998454, 189, 81, 220, 96
-0.998454, 165, 127, 196, 142
-0.998455, 189, 1, 220, 16
-0.998455, 57, 55, 120, 70
-0.998456, 57, 41, 120, 56
-0.998456, 101, 173, 132, 188
-0.998456, 225, 127, 256, 142
-0.998456, 217, 131, 280, 146
-0.998457, 465, 103, 496, 118
-0.998459, 397, 23, 428, 38
-0.99846, 117, 215, 148, 230
-0.998461, 137, 261, 168, 276
-0.998461, 177, 29, 208, 44
-0.998461, 201, 131, 232, 146
-0.998462, 57, 19, 120, 34
-0.998462, 209, 59, 240, 74
-0.998464, 73, 161, 136, 176
-0.998464, 209, 45, 272, 60
-0.998464, 225, 11, 288, 26
-0.998465, 205, 9, 236, 24
-0.998466, 101, 163, 132, 178
-0.998467, 169, 125, 232, 140
-0.998467, 53, 135, 84, 150
-0.998468, 77, 157, 108, 172
-0.998469, 85, 31, 116, 46
-0.998469, 381, 155, 412, 170
-0.99847, 285, 119, 316, 134
-0.998471, 257, 13, 288, 28
-0.998471, 281, 113, 312, 128
-0.998472, 89, 37, 120, 52
-0.998473, 257, 19, 288, 34
-0.998473, 201, 119, 232, 134
-0.998474, 281, 233, 312, 248
-0.998474, 215, 113, 230, 240
-0.998475, 289, 227, 320, 242
-0.998475, 181, 19, 212, 34
-0.998476, 201, 81, 264, 96
-0.998476, 201, 139, 264, 154
-0.998476, 193, 193, 256, 208
-0.998476, 241, 57, 272, 72
-0.998476, 465, 31, 496, 46
-0.998477, 293, 63, 324, 78
-0.998477, 237, 39, 268, 54
-0.998478, 145, 15, 176, 30
-0.998479, 425, 107, 488, 122
-0.99848, 389, 1, 420, 16
-0.998481, 409, 101, 472, 116
-0.998481, 225, 97, 256, 112
-0.998483, 193, 57, 256, 72
-0.998483, 81, 147, 112, 162
-0.998485, 133, 255, 164, 270
-0.998485, 269, 243, 300, 258
-0.998486, 249, 11, 312, 26
-0.998488, 161, 33, 224, 48
-0.998489, 97, 145, 128, 160
-0.99849, 169, 19, 232, 34
-0.99849, 209, 119, 272, 134
-0.998492, 229, 73, 260, 88
-0.998492, 177, 51, 240, 66
-0.998492, 77, 39, 108, 54
-0.998493, 225, 65, 256, 80
-0.998493, 105, 251, 168, 266
-0.998493, 225, 249, 288, 264
-0.998494, 253, 253, 284, 268
-0.998494, 193, 43, 224, 58
-0.998494, 213, 143, 244, 158
-0.998494, 121, 287, 152, 302
-0.998495, 169, 57, 200, 72
-0.998495, 145, 17, 208, 32
-0.998496, 465, 37, 496, 52
-0.998496, 201, 9, 264, 24
-0.998497, 457, 109, 488, 124
-0.998498, 237, 25, 268, 40
-0.998499, 153, 139, 216, 154
-0.998499, 285, 125, 316, 140
-0.9985, 197, 175, 228, 190
-0.9985, 361, 113, 424, 128
-0.9985, 157, 141, 188, 156
-0.998501, 461, 161, 492, 176
-0.998501, 137, 205, 168, 220
-0.998503, 241, 77, 304, 92
-0.998504, 209, 53, 240, 68
-0.998505, 65, 29, 96, 44
-0.998505, 113, 285, 176, 300
-0.998505, 185, 155, 248, 170
-0.998506, 209, 81, 240, 96
-0.998506, 157, 21, 188, 36
-0.998507, 401, 113, 464, 128
-0.998507, 169, 27, 232, 42
-0.998508, 113, 277, 176, 292
-0.998508, 229, 191, 260, 206
-0.998508, 209, 125, 272, 140
-0.998508, 177, 1, 240, 16
-0.998509, 53, 153, 84, 168
-0.998509, 225, 13, 256, 28
-0.99851, 433, 99, 496, 114
-0.99851, 113, 261, 144, 276
-0.998512, 433, 47, 496, 62
-0.998513, 201, 73, 264, 88
-0.998515, 433, 41, 496, 56
-0.998516, 257, 115, 320, 130
-0.998516, 217, 61, 280, 76
-0.998517, 121, 249, 152, 264
-0.998517, 241, 33, 272, 48
-0.998518, 241, 127, 304, 142
-0.99852, 177, 133, 208, 148
-0.99852, 97, 157, 128, 172
-0.99852, 181, 9, 212, 24
-0.998521, 153, 11, 216, 26
-0.998521, 225, 29, 288, 44
-0.998522, 225, 85, 256, 100
-0.998522, 61, 47, 92, 62
-0.998522, 53, 159, 84, 174
-0.998522, 185, 145, 248, 160
-0.998524, 233, 243, 296, 258
-0.998525, 97, 151, 128, 166
-0.998525, 217, 53, 280, 68
-0.998525, 137, 209, 152, 333
-0.998526, 169, 39, 232, 54
-0.998526, 369, 95, 432, 110
-0.998526, 193, 65, 256, 80
-0.998527, 193, 125, 224, 140
-0.998528, 369, 107, 432, 122
-0.998528, 153, 131, 216, 146
-0.998528, 161, 145, 224, 160
-0.998528, 193, 31, 224, 46
-0.998529, 433, 53, 496, 68
-0.998529, 301, 215, 332, 230
-0.998529, 225, 7, 256, 22
-0.998529, 73, 143, 136, 158
-0.99853, 369, 77, 432, 92
-0.99853, 85, 23, 116, 38
-0.998531, 273, 121, 336, 136
-0.998531, 213, 115, 244, 130
-0.998532, 189, 75, 220, 90
-0.998532, 433, 23, 496, 38
-0.998533, 239, 49, 254, 176
-0.998533, 249, 71, 312, 86
-0.998533, 401, 107, 464, 122
-0.998535, 49, 161, 112, 176
-0.998535, 417, 161, 480, 176
-0.998535, 169, 119, 232, 134
-0.998536, 201, 185, 264, 200
-0.998536, 129, 81, 160, 208
-0.998536, 169, 189, 232, 204
-0.998536, 217, 39, 280, 54
-0.998536, 401, 49, 464, 64
-0.998537, 393, 43, 456, 58
-0.998538, 97, 211, 160, 226
-0.998539, 85, 51, 116, 66
-0.998539, 113, 291, 176, 306
-0.99854, 89, 43, 120, 58
-0.998542, 217, 195, 248, 210
-0.998542, 229, 97, 244, 224
-0.998543, 105, 203, 168, 218
-0.998543, 225, 5, 288, 20
-0.998544, 57, 63, 120, 78
-0.998545, 433, 35, 496, 50
-0.998545, 393, 29, 456, 44
-0.998545, 193, 97, 224, 112
-0.998546, 69, 53, 100, 68
-0.998546, 369, 83, 432, 98
-0.998547, 237, 129, 268, 144
-0.998547, 49, 143, 80, 158
-0.998548, 105, 217, 136, 232
-0.998548, 313, 63, 376, 78
-0.998549, 113, 271, 176, 286
-0.99855, 89, 223, 152, 238
-0.99855, 137, 23, 200, 38
-0.998551, 385, 159, 448, 174
-0.998552, 249, 129, 280, 144
-0.998552, 49, 133, 112, 148
-0.998553, 185, 161, 248, 176
-0.998553, 113, 265, 176, 280
-0.998553, 241, 85, 304, 100
-0.998554, 433, 171, 496, 186
-0.998554, 249, 61, 312, 76
-0.998555, 65, 37, 96, 52
-0.998555, 173, 139, 204, 154
-0.998556, 369, 71, 432, 86
-0.998556, 225, 91, 288, 106
-0.998556, 369, 101, 432, 116
-0.998558, 377, 1, 440, 16
-0.998559, 61, 145, 92, 160
-0.99856, 197, 187, 228, 202
-0.99856, 433, 1, 496, 16
-0.998561, 227, 49, 242, 176
-0.998561, 73, 167, 136, 182
-0.998561, 169, 45, 232, 60
-0.998562, 129, 209, 192, 224
-0.998562, 25, 161, 88, 176
-0.998563, 217, 265, 280, 280
-0.998563, 433, 93, 496, 108
-0.998564, 257, 239, 320, 254
-0.998564, 225, 55, 256, 70
-0.998565, 433, 17, 496, 32
-0.998565, 249, 5, 312, 20
-0.998565, 233, 193, 296, 208
-0.998566, 233, 115, 296, 130
-0.998567, 65, 21, 96, 36
-0.998568, 385, 19, 448, 34
-0.998568, 221, 113, 236, 240
-0.998568, 213, 129, 244, 144
-0.998569, 237, 7, 268, 22
-0.998569, 41, 153, 104, 168
-0.998569, 337, 63, 400, 78
-0.998569, 209, 91, 240, 106
-0.998569, 201, 137, 232, 152
-0.998569, 369, 165, 432, 180
-0.99857, 177, 75, 240, 90
-0.99857, 241, 133, 304, 148
-0.998571, 233, 289, 296, 304
-0.998572, 189, 133, 220, 148
-0.998572, 225, 139, 256, 154
-0.998579, 213, 3, 244, 18
-0.99859, 237, 63, 268, 78
-0.998591, 273, 125, 304, 140
-0.998591, 221, 65, 236, 192
-0.998593, 213, 137, 244, 152
-0.998596, 225, 133, 256, 148
-0.998596, 213, 121, 244, 136
-0.998596, 233, 121, 264, 136
-0.9986, 73, 47, 104, 62
-0.998602, 77, 17, 108, 32
-0.998607, 75, 1, 90, 128
-0.998611, 49, 1, 80, 256
-0.998613, 113, 255, 144, 270
-0.99862, 239, 1, 254, 128
-0.998625, 249, 123, 280, 138
-0.998629, 233, 1, 264, 16
-0.998635, 261, 119, 292, 134
-0.99864, 95, 1, 110, 128
-0.998645, 475, 1, 490, 128
-0.99865, 239, 97, 254, 224
-0.998659, 233, 17, 248, 144
-0.998683, 249, 65, 264, 192
-0.998704, 205, 65, 220, 192
-0.998721, 249, 1, 264, 128
-0.998726, 113, 65, 144, 320
-0.998739, 87, 1, 102, 128
-0.998761, 209, 129, 224, 256
-0.998767, 467, 113, 482, 240
-0.998776, 101, 49, 116, 176
-0.998779, 195, 17, 210, 144
-0.998788, 407, 33, 422, 160
-0.998798, 207, 1, 222, 128
-0.998805, 103, 113, 118, 240
-0.99881, 387, 1, 402, 128
-0.998812, 131, 209, 146, 333
-0.998814, 457, 81, 472, 208
-0.998835, 411, 97, 426, 224
-0.998835, 165, 1, 196, 256
-0.998844, 399, 113, 414, 240
-0.998847, 61, 113, 76, 240
-0.998849, 111, 145, 126, 272
-0.998867, 219, 161, 234, 288
-0.998869, 393, 113, 408, 240
-0.998871, 297, 49, 312, 176
-0.998871, 81, 1, 96, 128
-0.998877, 417, 1, 432, 128
-0.998879, 201, 1, 216, 128
-0.998885, 71, 113, 86, 240
-0.998887, 379, 97, 394, 224
-0.998888, 271, 209, 286, 333
-0.998891, 143, 209, 158, 333
-0.998903, 387, 113, 402, 240
-0.998904, 461, 145, 476, 272
-0.998904, 229, 161, 244, 288
-0.998905, 295, 129, 310, 256
-0.998924, 187, 1, 202, 128
-0.998931, 69, 1, 84, 128
-0.998937, 209, 193, 224, 320
-0.998942, 73, 65, 88, 192
-0.998955, 277, 209, 292, 333
-0.998958, 475, 81, 490, 208
-0.99896, 245, 113, 260, 240
-0.998971, 485, 161, 500, 288
-0.998984, 303, 113, 318, 240
-0.998985, 195, 65, 210, 192
-0.99899, 179, 65, 194, 192
-0.998991, 435, 1, 450, 128
-0.998994, 111, 193, 126, 320
-0.998997, 291, 81, 306, 208
-0.999003, 413, 49, 428, 176
-0.999004, 385, 65, 400, 192
-0.999005, 419, 49, 434, 176
-0.999005, 123, 209, 138, 333
-0.999009, 285, 161, 300, 288
-0.999011, 303, 49, 318, 176
-0.999013, 377, 49, 392, 176
-0.999021, 243, 209, 258, 333
-0.999023, 401, 33, 416, 160
-0.999037, 405, 113, 420, 240
-0.999038, 227, 1, 242, 128
-0.999044, 101, 1, 116, 128
-0.99905, 151, 177, 166, 304
-0.999058, 255, 65, 270, 192
-0.999067, 67, 65, 82, 192
-0.999069, 479, 145, 494, 272
-0.999071, 249, 209, 264, 333
-0.999081, 427, 1, 442, 128
-0.999086, 271, 97, 286, 224
-0.999089, 441, 1, 456, 128
-0.999089, 455, 145, 470, 272
-0.99909, 189, 97, 204, 224
-0.99909, 481, 17, 496, 144
-0.999097, 97, 113, 112, 240
-0.999104, 447, 33, 462, 160
-0.999112, 117, 161, 132, 288
-0.999113, 105, 177, 120, 304
-0.999116, 395, 17, 410, 144
-0.99912, 449, 97, 464, 224
-0.999124, 261, 193, 276, 320
-0.999126, 203, 193, 218, 320
-0.999133, 21, 113, 52, 240
-0.999135, 197, 113, 212, 240
-0.999139, 91, 81, 106, 208
-0.999148, 297, 1, 312, 128
-0.999154, 79, 81, 94, 208
-0.999156, 467, 49, 482, 176
-0.999159, 237, 209, 252, 333
-0.999162, 235, 161, 250, 288
-0.999165, 325, 81, 356, 208
-0.999168, 289, 209, 304, 333
-0.999169, 173, 129, 188, 256
-0.99917, 417, 97, 432, 224
-0.999171, 149, 1, 164, 128
-0.999178, 117, 209, 132, 333
-0.999184, 295, 209, 310, 333
-0.999185, 481, 65, 496, 192
-0.999186, 203, 145, 218, 272
-0.999188, 277, 97, 292, 224
-0.999192, 175, 1, 190, 128
-0.999198, 141, 161, 156, 288
-0.999201, 373, 113, 388, 240
-0.999208, 99, 161, 114, 288
-0.99921, 305, 161, 320, 288
-0.999211, 437, 65, 452, 192
-0.999228, 253, 113, 268, 240
-0.999232, 467, 193, 482, 320
-0.999233, 377, 1, 392, 128
-0.99924, 189, 49, 204, 176
-0.999242, 255, 17, 270, 144
-0.999248, 255, 209, 270, 333
-0.999265, 329, 33, 344, 160
-0.999271, 55, 113, 70, 240
-0.999289, 259, 113, 274, 240
-0.99929, 77, 129, 92, 256
-0.99929, 283, 209, 298, 333
-0.999295, 221, 17, 236, 144
-0.999296, 477, 193, 492, 320
-0.999301, 429, 65, 444, 192
-0.999303, 287, 1, 302, 128
-0.999304, 85, 81, 100, 208
-0.999309, 167, 145, 182, 272
-0.999549, 413, 145, 444, 272
-0.999552, 53, 209, 84, 333
-0.999631, 177, 131, 192, 146
-0.999632, 207, 53, 222, 68
-0.999632, 123, 231, 138, 246
-0.999633, 175, 143, 190, 158
-0.999633, 71, 37, 86, 52
-0.999634, 207, 9, 222, 24
-0.999634, 249, 59, 264, 74
-0.999635, 199, 101, 214, 116
-0.999636, 201, 219, 216, 234
-0.999637, 183, 51, 198, 66
-0.999637, 197, 73, 212, 88
-0.999637, 155, 263, 170, 278
-0.999637, 87, 15, 102, 30
-0.999637, 233, 147, 248, 162
-0.999637, 205, 213, 220, 228
-0.999638, 83, 39, 98, 54
-0.999638, 187, 7, 202, 22
-0.999639, 77, 17, 92, 32
-0.999639, 261, 271, 276, 286
-0.999639, 69, 159, 84, 174
-0.999639, 231, 73, 246, 88
-0.99964, 237, 121, 252, 136
-0.99964, 53, 141, 68, 156
-0.99964, 215, 43, 230, 58
-0.99964, 223, 89, 238, 104
-0.999641, 315, 215, 330, 230
-0.999641, 73, 57, 88, 72
-0.999641, 245, 127, 260, 142
-0.999643, 307, 63, 322, 78
-0.999644, 207, 115, 222, 130
-0.999644, 207, 35, 222, 50
-0.999644, 409, 119, 424, 134
-0.999645, 101, 41, 116, 56
-0.999646, 261, 121, 276, 136
-0.999647, 475, 25, 490, 40
-0.999649, 127, 1, 142, 16
-0.999649, 401, 125, 416, 140
-0.999649, 281, 13, 296, 28
-0.99965, 197, 41, 212, 56
-0.99965, 133, 251, 148, 266
-0.99965, 99, 127, 114, 142
-0.99965, 239, 105, 254, 120
-0.999651, 421, 23, 436, 38
-0.999651, 69, 21, 84, 36
-0.999651, 111, 225, 126, 240
-0.999652, 67, 135, 82, 150
-0.999653, 149, 17, 164, 32
-0.999653, 171, 121, 186, 136
-0.999653, 219, 133, 234, 148
-0.999654, 219, 195, 234, 210
-0.999654, 217, 121, 232, 136
-0.999658, 227, 135, 242, 150
-0.999658, 231, 195, 246, 210
-0.999659, 327, 219, 342, 234
-0.999659, 189, 137, 204, 152
-0.99966, 441, 177, 456, 192
-0.99966, 37, 65, 68, 320
-0.99966, 137, 229, 152, 244
-0.999662, 303, 129, 318, 144
-0.999663, 199, 157, 214, 172
-0.999663, 91, 51, 106, 66
-0.999663, 275, 259, 290, 274
-0.999664, 253, 277, 268, 292
-0.999664, 251, 79, 266, 94
-0.999664, 227, 147, 242, 162
-0.999665, 193, 97, 208, 112
-0.999666, 243, 139, 258, 154
-0.999668, 83, 93, 98, 108
-0.999669, 393, 129, 408, 144
-0.999671, 93, 17, 108, 32
-0.999671, 101, 135, 116, 150
-0.999672, 167, 147, 182, 162
-0.999673, 265, 257, 280, 272
-0.999675, 249, 49, 264, 64
-0.999679, 199, 29, 214, 44
-0.999679, 239, 95, 254, 110
-0.999679, 227, 13, 242, 28
-0.999681, 215, 49, 230, 64
-0.999683, 243, 191, 258, 206
-0.999683, 247, 133, 262, 148
-0.999684, 197, 121, 212, 136
-0.999684, 207, 43, 222, 58
-0.999685, 231, 141, 246, 156
-0.999686, 83, 53, 98, 68
-0.999686, 73, 145, 88, 160
-0.999687, 101, 33, 116, 48
-0.999687, 195, 129, 210, 144
-0.999688, 65, 39, 80, 54
-0.999689, 275, 119, 290, 134
-0.99969, 251, 127, 266, 142
-0.999692, 99, 49, 114, 64
-0.999695, 203, 127, 218, 142
-0.9997, 237, 193, 252, 208
-0.9997, 485, 163, 500, 178
-0.9997, 203, 73, 218, 88
-0.999702, 267, 117, 282, 132
-0.999704, 189, 131, 204, 146
-0.999706, 237, 141, 252, 156
-0.999707, 241, 133, 256, 148
-0.999709, 237, 21, 252, 36
-0.99971, 243, 7, 258, 22
-0.999712, 253, 7, 268, 22
-0.999713, 203, 187, 218, 202
-0.999715, 141, 203, 156, 218
-0.999717, 191, 31, 206, 46
-0.99972, 201, 35, 216, 50
-0.999722, 215, 115, 230, 130
-0.999725, 281, 121, 296, 136
-0.999727, 117, 251, 132, 266
-0.99973, 179, 137, 194, 152
-0.999732, 209, 187, 224, 202
-0.999733, 169, 141, 184, 156
-0.999733, 199, 95, 214, 110
-0.999733, 275, 125, 290, 140
-0.99974, 259, 249, 274, 264
-0.999742, 85, 45, 100, 60
-0.999743, 205, 133, 220, 148
-0.999743, 77, 47, 92, 62
-0.999745, 223, 115, 238, 130
-0.999746, 207, 121, 222, 136
-0.999747, 247, 1, 262, 16
-0.999754, 215, 127, 230, 142
-0.999761, 77, 37, 92, 52
-0.999762, 237, 13, 252, 28
-0.99977, 95, 41, 110, 56
-0.999772, 213, 137, 228, 152
-0.999782, 239, 127, 254, 142
-0.999804, 243, 121, 258, 136
-0.999809, 233, 7, 248, 22
-0.999841, 107, 217, 122, 232
-0.999847, 237, 1, 252, 16
-1.00021, 17, 65, 48, 320
-1.00078, 1, 65, 32, 320
-1.00151, 361, 209, 424, 333
-1.00217, 313, 209, 376, 333
