1868
-0.293104, 1, 1, 500, 317
-0.352269, 65, 1, 320, 317
-0.393698, 1, 65, 500, 317
-0.407594, 225, 1, 480, 317
-0.465325, 129, 1, 384, 256
-0.543309, 1, 1, 256, 256
-0.555431, 257, 1, 500, 256
-0.838038, 145, 1, 272, 256
-0.839059, 145, 1, 272, 317
-0.842978, 369, 1, 496, 256
-0.846679, 193, 1, 320, 256
-0.854606, 257, 1, 384, 256
-0.856105, 1, 145, 500, 272
-0.856685, 225, 1, 352, 317
-0.861298, 305, 1, 432, 256
-0.866669, 289, 1, 416, 317
-0.867059, 353, 1, 480, 317
-0.872554, 17, 1, 144, 317
-0.874774, 1, 81, 500, 208
-0.877513, 97, 65, 224, 317
-0.882939, 1, 1, 128, 256
-0.898458, 97, 1, 224, 317
-0.905745, 49, 65, 176, 317
-0.911371, 97, 129, 352, 256
-0.912063, 257, 1, 500, 128
-0.915373, 1, 97, 256, 224
-0.917062, 129, 81, 384, 208
-0.91766, 257, 65, 500, 192
-0.919435, 177, 97, 304, 224
-0.921058, 225, 129, 480, 256
-0.924071, 257, 65, 320, 192
-0.924631, 1, 193, 500, 317
-0.926498, 129, 177, 384, 304
-0.9269, 225, 81, 288, 208
-0.927305, 129, 97, 256, 224
-0.928978, 1, 1, 500, 128
-0.929511, 65, 1, 320, 128
-0.930356, 1, 145, 256, 272
-0.931699, 209, 33, 336, 160
-0.932189, 241, 113, 368, 240
-0.93287, 193, 97, 256, 224
-0.933383, 265, 113, 328, 240
-0.937213, 217, 129, 280, 256
-0.93893, 129, 97, 192, 224
-0.939721, 177, 145, 304, 272
-0.939897, 353, 1, 480, 128
-0.940035, 257, 177, 500, 304
-0.940796, 17, 113, 80, 240
-0.941023, 425, 1, 488, 128
-0.941436, 169, 97, 232, 224
-0.941898, 289, 97, 416, 224
-0.943531, 289, 17, 416, 144
-0.943587, 337, 129, 464, 256
-0.943976, 257, 161, 384, 288
-0.944396, 161, 17, 416, 144
-0.944487, 241, 129, 304, 256
-0.945509, 177, 105, 240, 168
-0.94578, 49, 97, 176, 224
-0.945903, 393, 129, 456, 256
-0.948019, 153, 121, 216, 184
-0.948044, 257, 105, 320, 168
-0.950659, 401, 1, 464, 128
-0.950902, 217, 1, 280, 128
-0.951191, 377, 1, 440, 128
-0.951356, 129, 105, 192, 168
-0.952259, 353, 177, 416, 240
-0.952745, 345, 177, 408, 304
-0.952857, 145, 1, 272, 128
-0.952943, 225, 121, 288, 184
-0.95354, 1, 1, 64, 128
-0.953795, 1, 49, 256, 176
-0.954116, 337, 1, 400, 128
-0.954476, 305, 81, 368, 208
-0.954515, 33, 193, 288, 317
-0.954532, 201, 121, 264, 184
-0.954581, 129, 145, 256, 272
-0.954743, 177, 193, 304, 317
-0.954834, 225, 97, 288, 160
-0.954903, 281, 33, 344, 160
-0.955107, 369, 49, 496, 176
-0.95549, 409, 49, 472, 176
-0.955528, 193, 49, 256, 176
-0.955836, 161, 241, 224, 304
-0.956018, 193, 145, 256, 272
-0.956739, 417, 1, 480, 64
-0.957583, 409, 145, 472, 208
-0.957601, 129, 49, 256, 176
-0.957867, 305, 33, 368, 160
-0.957949, 177, 1, 240, 128
-0.958993, 153, 1, 216, 256
-0.959055, 353, 129, 416, 256
-0.959238, 17, 145, 80, 208
-0.959393, 97, 1, 224, 128
-0.959583, 361, 153, 424, 216
-0.959797, 241, 177, 304, 304
-0.9601, 433, 49, 496, 176
-0.960328, 409, 41, 472, 104
-0.960423, 265, 145, 328, 208
-0.960615, 257, 81, 320, 144
-0.961054, 201, 97, 264, 160
-0.961175, 313, 161, 376, 288
-0.961285, 417, 145, 480, 272
-0.96134, 81, 161, 208, 288
-0.961549, 361, 1, 424, 64
-0.961634, 385, 161, 448, 224
-0.962689, 193, 193, 256, 317
-0.962883, 17, 161, 80, 288
-0.963012, 177, 129, 240, 192
-0.963148, 337, 17, 400, 80
-0.963402, 113, 225, 176, 288
-0.963693, 153, 97, 216, 160
-0.963835, 1, 113, 128, 240
-0.963874, 289, 161, 352, 288
-0.963884, 105, 97, 168, 224
-0.963953, 265, 177, 328, 304
-0.964108, 1, 177, 128, 304
-0.964326, 257, 97, 288, 224
-0.964416, 433, 49, 496, 112
-0.964527, 305, 193, 432, 317
-0.964703, 281, 1, 344, 256
-0.964742, 201, 113, 232, 176
-0.96514, 1, 17, 128, 144
-0.965171, 417, 97, 480, 224
-0.965194, 369, 177, 496, 304
-0.965572, 241, 145, 304, 208
-0.965901, 145, 145, 208, 272
-0.966126, 257, 17, 320, 144
-0.966364, 193, 1, 256, 64
-0.966408, 353, 65, 416, 192
-0.966412, 393, 1, 456, 64
-0.966679, 265, 233, 328, 296
-0.966694, 209, 241, 272, 304
-0.966764, 185, 113, 216, 176
-0.966841, 177, 1, 240, 256
-0.966897, 177, 97, 304, 160
-0.96703, 25, 17, 88, 144
-0.96735, 281, 81, 344, 144
-0.967398, 145, 145, 208, 208
-0.96786, 201, 145, 264, 208
-0.968066, 285, 97, 316, 224
-0.968074, 289, 105, 320, 168
-0.96811, 221, 121, 252, 184
-0.96812, 145, 105, 176, 168
-0.968134, 9, 121, 72, 184
-0.968514, 217, 177, 280, 304
-0.968521, 129, 249, 192, 312
-0.968675, 145, 1, 208, 128
-0.968849, 369, 25, 432, 88
-0.968925, 377, 177, 440, 304
-0.969047, 129, 105, 256, 168
-0.969123, 169, 145, 232, 272
-0.969128, 9, 1, 72, 256
-0.969151, 121, 1, 184, 128
-0.969164, 193, 257, 320, 317
-0.969481, 241, 113, 272, 240
-0.969539, 281, 257, 344, 317
-0.96956, 409, 169, 472, 232
-0.969586, 353, 153, 480, 216
-0.969693, 273, 41, 336, 104
-0.969703, 1, 169, 64, 232
-0.969845, 225, 1, 288, 64
-0.969891, 329, 161, 392, 224
-0.969891, 313, 249, 376, 312
-0.969935, 89, 233, 152, 296
-0.970087, 177, 81, 240, 144
-0.970241, 233, 257, 296, 317
-0.970698, 153, 49, 216, 176
-0.970742, 321, 17, 448, 80
-0.970821, 201, 97, 232, 224
-0.971028, 237, 121, 268, 184
-0.97108, 385, 137, 448, 200
-0.971117, 273, 97, 304, 224
-0.97116, 281, 81, 312, 144
-0.97121, 433, 25, 496, 88
-0.971337, 49, 1, 176, 128
-0.971424, 129, 193, 256, 317
-0.97151, 269, 81, 300, 144
-0.971526, 33, 129, 64, 256
-0.971575, 153, 97, 184, 224
-0.971626, 221, 97, 252, 224
-0.971669, 425, 1, 488, 256
-0.971669, 425, 73, 488, 136
-0.971694, 105, 105, 168, 168
-0.9717, 177, 121, 304, 184
-0.971749, 281, 113, 344, 176
-0.971757, 165, 121, 196, 184
-0.971838, 297, 33, 360, 96
-0.971847, 369, 1, 496, 64
-0.971984, 25, 169, 88, 232
-0.971995, 369, 1, 432, 256
-0.972001, 265, 121, 296, 184
-0.972047, 249, 121, 280, 184
-0.972055, 17, 65, 80, 192
-0.972128, 249, 57, 312, 120
-0.972277, 137, 225, 200, 288
-0.972307, 209, 73, 272, 136
-0.97247, 289, 137, 352, 200
-0.972484, 41, 145, 104, 272
-0.972545, 393, 1, 456, 256
-0.972578, 97, 241, 224, 304
-0.97278, 161, 233, 288, 296
-0.97288, 305, 81, 368, 144
-0.973023, 177, 1, 304, 64
-0.973108, 429, 1, 460, 128
-0.973282, 201, 1, 264, 256
-0.973312, 141, 97, 172, 224
-0.973391, 241, 233, 304, 296
-0.973416, 9, 1, 72, 64
-0.973547, 449, 33, 480, 160
-0.973562, 377, 1, 408, 64
-0.973689, 265, 49, 296, 176
-0.97369, 49, 1, 112, 128
-0.974133, 305, 161, 368, 224
-0.974136, 449, 49, 480, 112
-0.974227, 369, 33, 496, 96
-0.974234, 417, 121, 480, 184
-0.974251, 105, 257, 168, 317
-0.974257, 161, 17, 224, 80
-0.974262, 385, 185, 448, 248
-0.97434, 121, 129, 184, 192
-0.974383, 337, 217, 400, 280
-0.974402, 225, 97, 352, 160
-0.974473, 289, 233, 352, 296
-0.974496, 241, 97, 272, 160
-0.974647, 385, 49, 448, 176
-0.974726, 57, 193, 120, 317
-0.974776, 313, 1, 376, 256
-0.974934, 201, 89, 232, 152
-0.974971, 241, 233, 368, 296
-0.974991, 257, 1, 320, 256
-0.97507, 49, 49, 176, 176
-0.975221, 225, 137, 352, 200
-0.975412, 377, 169, 408, 232
-0.975447, 1, 65, 128, 192
-0.975803, 281, 41, 312, 104
-0.975931, 369, 57, 496, 120
-0.976, 437, 49, 468, 112
-0.976033, 253, 81, 284, 144
-0.97605, 189, 97, 220, 224
-0.976065, 273, 161, 400, 224
-0.976085, 233, 65, 264, 192
-0.976169, 277, 105, 308, 168
-0.976209, 405, 145, 436, 208
-0.976335, 33, 1, 96, 256
-0.976471, 433, 169, 496, 232
-0.976553, 297, 33, 328, 160
-0.976623, 129, 81, 192, 144
-0.976647, 21, 121, 52, 184
-0.976665, 33, 137, 64, 200
-0.976689, 177, 145, 304, 208
-0.976796, 449, 25, 480, 88
-0.976863, 285, 33, 316, 160
-0.976914, 73, 145, 136, 272
-0.976938, 261, 145, 292, 272
-0.977052, 129, 9, 192, 72
-0.977063, 245, 65, 276, 192
-0.977115, 129, 81, 256, 144
-0.977126, 121, 65, 184, 317
-0.977133, 269, 57, 300, 120
-0.977197, 329, 193, 392, 256
-0.977229, 297, 113, 328, 240
-0.977261, 433, 145, 496, 208
-0.977262, 145, 193, 208, 317
-0.977281, 129, 145, 256, 208
-0.977386, 257, 33, 384, 96
-0.977497, 81, 113, 208, 176
-0.97753, 193, 49, 320, 112
-0.977585, 449, 1, 480, 64
-0.977685, 337, 241, 400, 304
-0.977733, 237, 1, 268, 128
-0.977782, 57, 97, 120, 224
-0.977915, 305, 129, 336, 192
-0.977973, 113, 233, 144, 296
-0.978019, 13, 97, 44, 224
-0.978125, 425, 129, 456, 256
-0.978226, 393, 169, 424, 232
-0.978228, 49, 1, 176, 64
-0.978256, 97, 161, 160, 288
-0.978261, 257, 233, 288, 296
-0.978275, 185, 241, 248, 304
-0.978339, 437, 1, 468, 64
-0.978352, 33, 161, 64, 224
-0.978531, 129, 105, 160, 168
-0.978553, 181, 241, 212, 304
-0.978564, 273, 81, 400, 144
-0.978628, 365, 1, 396, 64
-0.978643, 361, 209, 424, 272
-0.978644, 461, 57, 492, 120
-0.978713, 285, 145, 316, 208
-0.978739, 329, 113, 392, 240
-0.978776, 25, 1, 88, 317
-0.978806, 461, 1, 492, 128
-0.978858, 405, 169, 436, 232
-0.979019, 201, 49, 264, 112
-0.97902, 5, 1, 36, 64
-0.979054, 177, 73, 304, 136
-0.979067, 329, 41, 392, 104
-0.979139, 289, 113, 416, 176
-0.979193, 417, 1, 448, 128
-0.979258, 305, 113, 368, 176
-0.979261, 217, 97, 248, 160
-0.979271, 385, 49, 448, 112
-0.979304, 373, 1, 404, 128
-0.979306, 361, 233, 424, 296
-0.979379, 313, 225, 376, 288
-0.979396, 329, 49, 392, 176
-0.979428, 257, 257, 320, 317
-0.979435, 153, 1, 216, 317
-0.979511, 269, 145, 300, 208
-0.979513, 1, 137, 32, 200
-0.979559, 225, 1, 256, 128
-0.979602, 361, 177, 392, 240
-0.979603, 405, 145, 436, 272
-0.979688, 121, 161, 184, 288
-0.979742, 41, 9, 104, 72
-0.979749, 201, 145, 232, 208
-0.979796, 165, 97, 196, 224
-0.979858, 273, 137, 400, 200
-0.979926, 49, 145, 80, 272
-0.979977, 345, 65, 408, 317
-0.979997, 425, 1, 456, 64
-0.980035, 393, 145, 424, 208
-0.980059, 337, 177, 464, 240
-0.980186, 193, 217, 256, 280
-0.980246, 425, 145, 456, 208
-0.980271, 369, 129, 496, 192
-0.980343, 265, 1, 328, 317
-0.980395, 221, 49, 252, 176
-0.980464, 249, 1, 312, 64
-0.980505, 381, 145, 412, 208
-0.980531, 221, 145, 252, 272
-0.980533, 229, 97, 260, 160
-0.980588, 65, 217, 128, 280
-0.980628, 225, 1, 288, 317
-0.980659, 213, 145, 244, 208
-0.980696, 169, 233, 200, 296
-0.980702, 145, 257, 272, 317
-0.980764, 41, 145, 104, 208
-0.980802, 189, 145, 220, 208
-0.980839, 21, 153, 52, 216
-0.980958, 213, 1, 244, 128
-0.980974, 145, 137, 176, 200
-0.981029, 357, 17, 388, 144
-0.981102, 201, 257, 232, 317
-0.981131, 1, 145, 128, 208
-0.981224, 445, 73, 476, 136
-0.98126, 233, 33, 296, 288
-0.981306, 9, 1, 40, 128
-0.98137, 177, 97, 208, 224
-0.981417, 129, 97, 160, 224
-0.981453, 173, 145, 204, 208
-0.981473, 449, 153, 480, 216
-0.981557, 397, 9, 428, 72
-0.981604, 129, 17, 256, 80
-0.98166, 225, 49, 288, 112
-0.981698, 81, 217, 208, 280
-0.981703, 229, 145, 260, 208
-0.981722, 169, 217, 232, 280
-0.981759, 277, 145, 308, 272
-0.981764, 209, 49, 240, 176
-0.98181, 33, 105, 160, 168
-0.981949, 45, 153, 76, 216
-0.981983, 369, 25, 400, 88
-0.982093, 357, 177, 388, 304
-0.982163, 257, 145, 288, 208
-0.982224, 161, 97, 192, 160
-0.982234, 449, 97, 480, 224
-0.982241, 201, 1, 232, 64
-0.982281, 257, 57, 384, 120
-0.982344, 337, 73, 400, 136
-0.982414, 405, 1, 436, 128
-0.982419, 297, 41, 328, 104
-0.982437, 281, 169, 344, 232
-0.982446, 217, 217, 280, 280
-0.982475, 185, 1, 216, 128
-0.982738, 309, 81, 340, 208
-0.982741, 325, 25, 356, 88
-0.982847, 369, 81, 496, 144
-0.982875, 241, 145, 272, 208
-0.982898, 345, 1, 376, 128
-0.982962, 197, 145, 228, 272
-0.982999, 197, 1, 228, 128
-0.982999, 257, 209, 320, 272
-0.983022, 65, 1, 128, 64
-0.983031, 209, 145, 240, 272
-0.983074, 401, 1, 464, 317
-0.983097, 169, 153, 232, 216
-0.983244, 357, 153, 388, 216
-0.983253, 385, 145, 416, 272
-0.983257, 309, 17, 340, 144
-0.983312, 1, 25, 64, 88
-0.983418, 125, 233, 156, 296
-0.98353, 289, 241, 416, 304
-0.983532, 33, 225, 160, 288
-0.983545, 9, 105, 40, 168
-0.983635, 149, 1, 180, 128
-0.983643, 81, 257, 144, 317
-0.983681, 177, 1, 240, 317
-0.983697, 1, 97, 32, 224
-0.983706, 345, 1, 408, 317
-0.983819, 437, 25, 468, 88
-0.983831, 289, 9, 352, 72
-0.983853, 421, 49, 452, 176
-0.983872, 25, 193, 88, 256
-0.983905, 249, 177, 312, 240
-0.983974, 97, 233, 128, 296
-0.984008, 185, 89, 216, 152
-0.984138, 1, 1, 64, 317
-0.984181, 261, 257, 292, 317
-0.984249, 21, 177, 52, 304
-0.984277, 469, 49, 500, 176
-0.984284, 161, 145, 192, 208
-0.984284, 369, 193, 400, 317
-0.984327, 173, 97, 204, 160
-0.984348, 225, 1, 352, 64
-0.984357, 25, 81, 56, 208
-0.984367, 293, 81, 324, 144
-0.984382, 105, 1, 168, 64
-0.984407, 49, 161, 176, 224
-0.984412, 305, 41, 432, 104
-0.984423, 245, 233, 276, 296
-0.984428, 169, 193, 232, 317
-0.984462, 461, 25, 492, 88
-0.984469, 437, 145, 468, 272
-0.984487, 361, 57, 424, 120
-0.984531, 57, 1, 88, 128
-0.984593, 409, 17, 440, 80
-0.984608, 161, 209, 288, 272
-0.984656, 457, 81, 488, 144
-0.98466, 1, 9, 128, 72
-0.984732, 217, 1, 248, 64
-0.984749, 437, 65, 468, 192
-0.984853, 153, 73, 216, 136
-0.984867, 273, 233, 304, 296
-0.984873, 17, 1, 48, 64
-0.984975, 341, 161, 372, 288
-0.984981, 129, 49, 192, 176
-0.985117, 1, 177, 128, 240
-0.985201, 433, 97, 496, 160
-0.985216, 241, 209, 368, 272
-0.985225, 393, 193, 424, 256
-0.985249, 249, 33, 312, 96
-0.985302, 437, 145, 468, 208
-0.985385, 241, 257, 368, 317
-0.985426, 297, 257, 328, 317
-0.985499, 425, 1, 488, 317
-0.985611, 421, 49, 452, 112
-0.985715, 109, 257, 140, 317
-0.985749, 461, 113, 492, 176
-0.98579, 17, 81, 144, 144
-0.985847, 353, 17, 384, 80
-0.985938, 257, 1, 288, 64
-0.985953, 49, 257, 176, 317
-0.985973, 369, 145, 400, 208
-0.985983, 133, 1, 164, 64
-0.985988, 321, 249, 352, 312
-0.986019, 189, 17, 220, 80
-0.986063, 17, 177, 48, 240
-0.986091, 297, 57, 360, 120
-0.986092, 197, 49, 228, 176
-0.986104, 313, 33, 344, 96
-0.986164, 81, 137, 208, 200
-0.986171, 409, 193, 472, 317
-0.986191, 389, 33, 420, 96
-0.986214, 157, 257, 188, 317
-0.986245, 313, 9, 376, 72
-0.986247, 157, 225, 188, 288
-0.986268, 225, 177, 352, 240
-0.986276, 89, 209, 152, 272
-0.986277, 325, 33, 356, 160
-0.986455, 133, 129, 164, 192
-0.986464, 21, 1, 52, 128
-0.986472, 309, 81, 340, 144
-0.986513, 161, 145, 192, 272
-0.98655, 125, 257, 156, 317
-0.986606, 97, 97, 352, 160
-0.986684, 425, 185, 456, 248
-0.98674, 225, 193, 288, 256
-0.986789, 301, 161, 332, 288
-0.986793, 385, 209, 448, 272
-0.986824, 37, 17, 68, 144
-0.986825, 65, 1, 96, 64
-0.986908, 437, 121, 468, 184
-0.986916, 369, 1, 432, 317
-0.986956, 1, 105, 256, 168
-0.986959, 393, 1, 424, 128
-0.986967, 353, 129, 384, 256
-0.987007, 249, 161, 280, 288
-0.987009, 149, 145, 180, 272
-0.987056, 413, 97, 444, 224
-0.987144, 397, 97, 428, 224
-0.987149, 81, 81, 144, 144
-0.987195, 193, 233, 224, 296
-0.987199, 417, 193, 480, 256
-0.987204, 341, 33, 372, 96
-0.987225, 437, 169, 468, 232
-0.987244, 49, 1, 112, 317
-0.987247, 345, 153, 376, 216
-0.987267, 129, 109, 192, 140
-0.987273, 357, 65, 388, 192
-0.987412, 141, 257, 172, 317
-0.987426, 57, 97, 88, 224
-0.987469, 289, 1, 352, 317
-0.987474, 245, 1, 276, 64
-0.987618, 161, 105, 224, 136
-0.987625, 201, 25, 264, 88
-0.987658, 49, 177, 80, 240
-0.987665, 17, 249, 80, 312
-0.987696, 105, 49, 168, 176
-0.987762, 349, 177, 380, 240
-0.987778, 137, 233, 168, 296
-0.987791, 121, 201, 184, 264
-0.987809, 341, 241, 372, 304
-0.98785, 293, 233, 324, 296
-0.987861, 301, 105, 332, 168
-0.987872, 409, 97, 472, 160
-0.987877, 337, 137, 400, 200
-0.987915, 289, 185, 416, 248
-0.988044, 177, 57, 240, 120
-0.98806, 97, 65, 160, 317
-0.988082, 225, 25, 288, 88
-0.9881, 369, 145, 400, 272
-0.9881, 361, 173, 424, 204
-0.988103, 289, 217, 416, 280
-0.988129, 321, 81, 352, 208
-0.988153, 257, 57, 288, 120
-0.988154, 321, 73, 448, 136
-0.988205, 213, 241, 244, 304
-0.988205, 17, 97, 80, 160
-0.988226, 193, 25, 320, 88
-0.988238, 17, 201, 144, 264
-0.988254, 57, 1, 120, 256
-0.988293, 337, 241, 464, 304
-0.988324, 277, 257, 308, 317
-0.988325, 449, 129, 480, 192
-0.988347, 321, 1, 384, 317
-0.988361, 177, 17, 208, 80
-0.988425, 277, 17, 308, 80
-0.988442, 25, 33, 88, 96
-0.988451, 185, 109, 248, 140
-0.988634, 53, 17, 84, 80
-0.988638, 417, 1, 480, 32
-0.988655, 337, 105, 464, 168
-0.988663, 97, 233, 352, 296
-0.988734, 145, 9, 176, 72
-0.988822, 145, 121, 208, 152
-0.988828, 161, 17, 192, 144
-0.988879, 265, 117, 328, 148
-0.988886, 105, 245, 168, 276
-0.988908, 145, 249, 208, 280
-0.988954, 337, 81, 368, 208
-0.989008, 201, 1, 264, 317
-0.989015, 381, 193, 412, 317
-0.989018, 169, 253, 232, 284
-0.989025, 461, 97, 492, 224
-0.989031, 233, 161, 264, 288
-0.98905, 217, 101, 280, 132
-0.989081, 141, 81, 172, 144
-0.989106, 289, 177, 320, 304
-0.98911, 137, 269, 200, 300
-0.989143, 65, 161, 128, 224
-0.989144, 173, 193, 204, 317
-0.989176, 313, 137, 376, 200
-0.989181, 385, 233, 448, 296
-0.989191, 129, 137, 384, 200
-0.989198, 385, 173, 448, 204
-0.989211, 401, 73, 464, 136
-0.989285, 97, 129, 160, 192
-0.989303, 449, 161, 480, 288
-0.989305, 257, 101, 320, 132
-0.989328, 185, 273, 248, 304
-0.989343, 41, 105, 104, 168
-0.989364, 81, 65, 144, 192
-0.989375, 301, 17, 332, 80
-0.98938, 145, 237, 208, 268
-0.989393, 345, 185, 408, 216
-0.98941, 209, 125, 272, 156
-0.989439, 241, 85, 304, 116
-0.989471, 97, 257, 352, 317
-0.989511, 113, 233, 176, 264
-0.989522, 345, 21, 408, 52
-0.989555, 209, 85, 272, 116
-0.98958, 161, 185, 288, 248
-0.989614, 17, 161, 80, 192
-0.989653, 57, 249, 120, 312
-0.989681, 329, 161, 360, 288
-0.989694, 281, 37, 344, 68
-0.989715, 185, 93, 248, 124
-0.989779, 249, 229, 312, 260
-0.989781, 185, 145, 216, 272
-0.989806, 417, 149, 480, 180
-0.989832, 225, 169, 288, 232
-0.989835, 433, 53, 496, 84
-0.989865, 1, 149, 64, 180
-0.989879, 273, 9, 400, 72
-0.9899, 177, 129, 240, 160
-0.989913, 9, 137, 72, 168
-0.989915, 65, 81, 192, 144
-0.989974, 369, 185, 432, 216
-0.989976, 337, 201, 464, 264
-0.989988, 249, 1, 280, 128
-0.990039, 305, 201, 368, 264
-0.990054, 217, 249, 280, 280
-0.990055, 193, 5, 256, 36
-0.99007, 369, 13, 432, 44
-0.990082, 25, 1, 88, 32
-0.990114, 217, 5, 280, 36
-0.990116, 137, 49, 168, 176
-0.990123, 89, 229, 152, 260
-0.990126, 233, 117, 296, 148
-0.990127, 173, 145, 204, 272
-0.990165, 401, 21, 464, 52
-0.990231, 129, 57, 256, 120
-0.990249, 161, 269, 224, 300
-0.990254, 9, 145, 40, 272
-0.990269, 313, 161, 344, 288
-0.99028, 265, 129, 328, 160
-0.990311, 321, 29, 384, 60
-0.990369, 369, 1, 432, 32
-0.990376, 169, 241, 232, 272
-0.990439, 25, 177, 88, 208
-0.990443, 265, 89, 328, 120
-0.990469, 233, 261, 296, 292
-0.990511, 209, 193, 240, 317
-0.99053, 393, 161, 456, 192
-0.990534, 393, 189, 456, 220
-0.990562, 81, 241, 144, 272
-0.990579, 105, 265, 168, 296
-0.990587, 401, 53, 464, 84
-0.990593, 209, 113, 272, 144
-0.990599, 209, 237, 272, 268
-0.9906, 137, 1, 168, 128
-0.990602, 1, 257, 128, 317
-0.990602, 233, 129, 296, 160
-0.990622, 161, 1, 224, 32
-0.990643, 409, 137, 472, 168
-0.990647, 257, 241, 320, 272
-0.990691, 209, 273, 272, 304
-0.990693, 401, 37, 464, 68
-0.990696, 409, 49, 440, 176
-0.990703, 177, 285, 240, 316
-0.990738, 197, 193, 228, 317
-0.99076, 433, 41, 496, 72
-0.990782, 393, 5, 456, 36
-0.990787, 433, 77, 496, 108
-0.990797, 9, 13, 72, 44
-0.990823, 385, 201, 448, 232
-0.990843, 345, 33, 408, 64
-0.990846, 289, 233, 352, 264
-0.990861, 377, 33, 440, 64
-0.990872, 273, 141, 336, 172
-0.990895, 417, 161, 480, 192
-0.990897, 177, 17, 240, 48
-0.990917, 305, 125, 368, 156
-0.990931, 297, 109, 360, 140
-0.990935, 61, 161, 92, 288
-0.990945, 409, 65, 472, 96
-0.990965, 9, 125, 72, 156
-0.990999, 153, 145, 216, 176
-0.991004, 241, 1, 304, 32
-0.991011, 201, 137, 264, 168
-0.991029, 105, 277, 168, 308
-0.991034, 129, 281, 192, 312
-0.991042, 369, 153, 432, 184
-0.991043, 345, 157, 408, 188
-0.991072, 425, 13, 488, 44
-0.991098, 209, 285, 272, 316
-0.991104, 265, 49, 328, 80
-0.991125, 25, 149, 88, 180
-0.991136, 33, 9, 288, 72
-0.991151, 313, 249, 376, 280
-0.991152, 1, 129, 256, 192
-0.991169, 193, 253, 256, 284
-0.991196, 409, 173, 472, 204
-0.991202, 289, 261, 352, 292
-0.991204, 37, 177, 68, 304
-0.991216, 105, 109, 168, 140
-0.991235, 1, 113, 500, 176
-0.991239, 1, 181, 64, 212
-0.991245, 25, 189, 88, 220
-0.991264, 425, 89, 488, 120
-0.991271, 233, 141, 296, 172
-0.991281, 313, 165, 376, 196
-0.991292, 361, 197, 424, 228
-0.991297, 425, 177, 456, 304
-0.991318, 1, 145, 500, 208
-0.99132, 177, 145, 240, 176
-0.991324, 261, 193, 292, 317
-0.991358, 1, 113, 64, 144
-0.991362, 321, 41, 384, 72
-0.991377, 321, 177, 384, 208
-0.991385, 41, 81, 72, 208
-0.991402, 289, 85, 352, 116
-0.991403, 241, 49, 304, 80
-0.991437, 249, 277, 312, 308
-0.991469, 153, 133, 216, 164
-0.991475, 201, 149, 264, 180
-0.991504, 129, 9, 192, 40
-0.991513, 153, 285, 216, 316
-0.991514, 57, 233, 120, 264
-0.991516, 177, 101, 304, 132
-0.991527, 265, 261, 328, 292
-0.991542, 129, 1, 192, 317
-0.991551, 161, 93, 224, 124
-0.991553, 81, 257, 144, 288
-0.991559, 121, 97, 184, 128
-0.991563, 297, 25, 360, 56
-0.99157, 337, 245, 400, 276
-0.991584, 361, 209, 424, 240
-0.99163, 257, 145, 500, 208
-0.991679, 337, 197, 400, 228
-0.991686, 257, 41, 500, 104
-0.991696, 401, 89, 464, 120
-0.991725, 129, 105, 256, 136
-0.991726, 377, 141, 440, 172
-0.991738, 433, 65, 496, 96
-0.991744, 281, 221, 344, 252
-0.991767, 153, 21, 216, 52
-0.991777, 345, 1, 408, 32
-0.991787, 249, 73, 312, 104
-0.991787, 201, 53, 264, 84
-0.991845, 313, 221, 376, 252
-0.991871, 393, 49, 424, 176
-0.991874, 257, 17, 500, 80
-0.991883, 433, 173, 496, 204
-0.991896, 65, 5, 128, 36
-0.991922, 117, 81, 148, 208
-0.992012, 105, 161, 136, 288
-0.992029, 149, 49, 180, 176
-0.992045, 269, 1, 300, 128
-0.992065, 1, 225, 256, 288
-0.99211, 393, 165, 424, 196
-0.992138, 181, 105, 212, 136
-0.992217, 221, 105, 252, 136
-0.992238, 169, 105, 200, 136
-0.992241, 381, 169, 412, 200
-0.992241, 197, 113, 228, 144
-0.992262, 5, 9, 36, 40
-0.992264, 141, 109, 172, 140
-0.992264, 193, 113, 448, 176
-0.992276, 277, 89, 308, 120
-0.992337, 173, 1, 204, 128
-0.992354, 405, 169, 436, 200
-0.992358, 277, 101, 308, 132
-0.992371, 257, 169, 500, 232
-0.992373, 113, 241, 144, 272
-0.992394, 401, 181, 432, 212
-0.992423, 453, 57, 484, 88
-0.992431, 173, 237, 204, 268
-0.992434, 169, 121, 200, 152
-0.992442, 157, 105, 188, 136
-0.992451, 185, 125, 216, 156
-0.992451, 189, 249, 220, 280
-0.992458, 197, 101, 228, 132
-0.992474, 265, 121, 296, 152
-0.992481, 437, 1, 468, 32
-0.992501, 217, 129, 248, 160
-0.992511, 449, 5, 480, 36
-0.992513, 281, 45, 312, 76
-0.992514, 33, 177, 64, 208
-0.992519, 101, 237, 132, 268
-0.992521, 21, 157, 52, 188
-0.992523, 201, 1, 232, 32
-0.992535, 225, 277, 256, 308
-0.992541, 209, 109, 240, 140
-0.99255, 97, 1, 160, 317
-0.992554, 237, 125, 268, 156
-0.992566, 289, 109, 320, 140
-0.992574, 389, 25, 420, 56
-0.992577, 361, 173, 392, 204
-0.992593, 245, 101, 276, 132
-0.992593, 233, 105, 264, 136
-0.9926, 21, 177, 52, 208
-0.9926, 289, 89, 320, 120
-0.992604, 365, 21, 396, 52
-0.99261, 177, 249, 208, 280
-0.992612, 193, 89, 448, 152
-0.992633, 437, 45, 468, 76
-0.992638, 129, 117, 256, 148
-0.992645, 81, 161, 112, 288
-0.992648, 261, 81, 292, 112
-0.99265, 137, 233, 168, 264
-0.992651, 369, 49, 400, 176
-0.992651, 97, 169, 224, 232
-0.992651, 297, 129, 328, 160
-0.992655, 25, 125, 56, 156
-0.99266, 225, 1, 256, 32
-0.992662, 161, 237, 192, 268
-0.992665, 129, 269, 160, 300
-0.992666, 453, 157, 484, 188
-0.992678, 265, 101, 296, 132
-0.99268, 173, 269, 204, 300
-0.992681, 377, 5, 408, 36
-0.992683, 337, 29, 368, 60
-0.992687, 149, 253, 180, 284
-0.992688, 201, 253, 232, 284
-0.99269, 197, 125, 228, 156
-0.99269, 317, 33, 348, 64
-0.992694, 1, 169, 500, 232
-0.992698, 189, 137, 220, 168
-0.992704, 149, 233, 180, 264
-0.992709, 417, 5, 448, 36
-0.99271, 153, 121, 184, 152
-0.992711, 37, 145, 68, 176
-0.992715, 165, 249, 196, 280
-0.992721, 201, 89, 232, 120
-0.992724, 373, 181, 404, 212
-0.992725, 13, 133, 44, 164
-0.992729, 377, 17, 408, 48
-0.992729, 301, 37, 332, 68
-0.99273, 257, 229, 288, 260
-0.992731, 353, 25, 384, 56
-0.992731, 133, 245, 164, 276
-0.992738, 113, 229, 144, 260
-0.992741, 185, 237, 216, 268
-0.992742, 17, 17, 48, 48
-0.992746, 397, 13, 428, 44
-0.992747, 17, 145, 48, 176
-0.992749, 401, 25, 432, 56
-0.992753, 453, 37, 484, 68
-0.992763, 33, 157, 64, 188
-0.992763, 405, 157, 436, 188
-0.992765, 101, 225, 132, 256
-0.992767, 205, 281, 236, 312
-0.992771, 189, 261, 220, 292
-0.992772, 129, 109, 160, 140
-0.992777, 137, 145, 168, 272
-0.992782, 89, 237, 120, 268
-0.992783, 217, 93, 248, 124
-0.992794, 101, 249, 132, 280
-0.992795, 309, 125, 340, 156
-0.992797, 161, 273, 192, 304
-0.992803, 389, 181, 420, 212
-0.992807, 437, 57, 468, 88
-0.992809, 245, 113, 276, 144
-0.992813, 177, 137, 208, 168
-0.992814, 125, 229, 156, 260
-0.992825, 213, 269, 244, 300
-0.992826, 437, 137, 468, 168
-0.99283, 1, 81, 256, 144
-0.992833, 221, 117, 252, 148
-0.992837, 325, 249, 356, 280
-0.992862, 121, 253, 152, 284
-0.992863, 365, 5, 396, 36
-0.992864, 425, 185, 456, 216
-0.992881, 245, 85, 276, 116
-0.992882, 199, 113, 214, 176
-0.992886, 225, 141, 256, 172
-0.992889, 237, 1, 268, 32
-0.992889, 449, 169, 480, 200
-0.992892, 105, 261, 136, 292
-0.992894, 213, 5, 244, 36
-0.992898, 217, 257, 248, 288
-0.992899, 21, 113, 52, 144
-0.992902, 417, 173, 448, 204
-0.992917, 269, 45, 300, 76
-0.992919, 237, 285, 268, 316
-0.992923, 453, 141, 484, 172
-0.992927, 393, 193, 424, 224
-0.992927, 201, 137, 232, 168
-0.992929, 401, 1, 432, 32
-0.992931, 233, 93, 264, 124
-0.992932, 441, 69, 472, 100
-0.992937, 249, 125, 280, 156
-0.992943, 141, 265, 172, 296
-0.992947, 469, 61, 500, 92
-0.992952, 425, 53, 456, 84
-0.992953, 261, 1, 292, 32
-0.992955, 241, 233, 272, 264
-0.992955, 201, 269, 232, 300
-0.992959, 277, 77, 308, 108
-0.992965, 161, 1, 416, 64
-0.99297, 231, 121, 246, 184
-0.992971, 453, 77, 484, 108
-0.992971, 313, 257, 344, 288
-0.992975, 177, 281, 208, 312
-0.993034, 1, 169, 256, 232
-0.993043, 177, 121, 192, 184
-0.993077, 257, 65, 500, 128
-0.993078, 193, 225, 448, 288
-0.99313, 225, 105, 240, 168
-0.993163, 177, 245, 304, 276
-0.993178, 451, 49, 466, 112
-0.993186, 1, 257, 256, 317
-0.993225, 191, 113, 206, 176
-0.993264, 97, 241, 224, 272
-0.993274, 209, 121, 336, 152
-0.993277, 185, 121, 200, 184
-0.993298, 205, 113, 220, 176
-0.9933, 219, 113, 234, 176
-0.993319, 151, 105, 166, 168
-0.993455, 385, 97, 416, 224
-0.993455, 301, 105, 316, 168
-0.993503, 405, 169, 420, 232
-0.993526, 251, 121, 266, 184
-0.993527, 1, 1, 500, 64
-0.993562, 163, 105, 178, 168
-0.993632, 277, 193, 308, 317
-0.993638, 237, 121, 252, 184
-0.993649, 145, 277, 272, 308
-0.993651, 49, 1, 176, 32
-0.993659, 129, 253, 256, 284
-0.993663, 337, 33, 464, 64
-0.993671, 161, 41, 416, 104
-0.993674, 97, 73, 352, 136
-0.993679, 125, 161, 156, 288
-0.993696, 69, 1, 100, 128
-0.993708, 35, 161, 50, 224
-0.993749, 193, 257, 448, 317
-0.993759, 23, 129, 38, 192
-0.993788, 157, 105, 172, 168
-0.993809, 213, 113, 228, 176
-0.993815, 209, 89, 336, 120
-0.993828, 141, 105, 156, 168
-0.993858, 259, 97, 274, 160
-0.993869, 245, 121, 260, 184
-0.993878, 283, 81, 298, 144
-0.993909, 65, 193, 192, 256
-0.993933, 17, 1, 32, 64
-0.993951, 379, 1, 394, 64
-0.993973, 1, 89, 500, 152
-0.993976, 185, 193, 216, 317
-0.993981, 169, 121, 184, 184
-0.993994, 369, 1, 496, 32
-0.994017, 265, 121, 280, 184
-0.994039, 1, 33, 128, 96
-0.9941, 397, 193, 428, 317
-0.994114, 353, 173, 480, 204
-0.994135, 309, 121, 324, 184
-0.99427, 277, 113, 292, 176
-0.994289, 241, 245, 368, 276
-0.994292, 161, 193, 192, 317
-0.994343, 1, 49, 32, 176
-0.994382, 97, 229, 224, 260
-0.994386, 291, 81, 306, 144
-0.994402, 399, 169, 414, 232
-0.994426, 29, 137, 44, 200
-0.99446, 369, 13, 496, 44
-0.994463, 283, 113, 298, 176
-0.994486, 29, 113, 44, 176
-0.994533, 177, 233, 304, 264
-0.994537, 455, 1, 470, 64
-0.994539, 259, 121, 274, 184
-0.994572, 189, 1, 220, 256
-0.994605, 271, 121, 286, 184
-0.994623, 73, 1, 136, 317
-0.994626, 461, 49, 476, 112
-0.994633, 225, 201, 480, 264
-0.994652, 369, 161, 496, 192
-0.994658, 269, 81, 284, 144
-0.994664, 257, 41, 384, 72
-0.994673, 461, 145, 492, 272
-0.994677, 193, 1, 320, 32
-0.994701, 97, 185, 352, 248
-0.994703, 145, 1, 272, 32
-0.994711, 169, 1, 200, 256
-0.994713, 113, 193, 240, 256
-0.994739, 395, 145, 410, 208
-0.994755, 385, 1, 400, 64
-0.994757, 97, 269, 224, 300
-0.994765, 285, 57, 300, 120
-0.994781, 405, 145, 420, 208
-0.994784, 209, 89, 224, 152
-0.99479, 93, 193, 124, 317
-0.994793, 39, 129, 54, 192
-0.994806, 185, 49, 216, 176
-0.994825, 17, 105, 32, 168
-0.994825, 81, 109, 208, 140
-0.994835, 1, 157, 128, 188
-0.994902, 225, 101, 352, 132
-0.994907, 457, 25, 472, 88
-0.99491, 293, 105, 308, 168
-0.994919, 119, 233, 134, 296
-0.99495, 29, 161, 44, 224
-0.994998, 157, 1, 188, 256
-0.994999, 297, 49, 312, 112
-0.995019, 273, 173, 400, 204
-0.995024, 445, 41, 460, 104
-0.995027, 241, 233, 368, 264
-0.995066, 259, 233, 274, 296
-0.995074, 305, 161, 432, 192
-0.995092, 369, 149, 496, 180
-0.995096, 135, 105, 150, 168
-0.995123, 291, 49, 306, 112
-0.995133, 463, 25, 478, 88
-0.99515, 269, 233, 284, 296
-0.995174, 225, 129, 240, 192
-0.995189, 299, 145, 314, 208
-0.995207, 13, 49, 44, 176
-0.99524, 353, 65, 480, 96
-0.995256, 411, 169, 426, 232
-0.995259, 193, 53, 320, 84
-0.995266, 177, 133, 304, 164
-0.995269, 177, 257, 304, 288
-0.995277, 245, 97, 260, 160
-0.995333, 253, 97, 268, 160
-0.995344, 201, 145, 216, 208
-0.995358, 157, 137, 172, 200
-0.995364, 303, 81, 318, 144
-0.995383, 473, 57, 488, 120
-0.9954, 257, 85, 384, 116
-0.995402, 129, 233, 144, 296
-0.995407, 215, 145, 230, 208
-0.995407, 161, 161, 416, 224
-0.995424, 467, 57, 482, 120
-0.995428, 293, 145, 308, 208
-0.995436, 363, 169, 378, 232
-0.995478, 451, 153, 466, 216
-0.99548, 277, 49, 292, 112
-0.995484, 175, 145, 190, 208
-0.995493, 187, 145, 202, 208
-0.995501, 23, 9, 38, 72
-0.995515, 197, 89, 212, 152
-0.99552, 181, 225, 196, 288
-0.995522, 257, 141, 384, 172
-0.995528, 239, 97, 254, 160
-0.995528, 207, 145, 222, 208
-0.995529, 145, 89, 272, 120
-0.995547, 417, 145, 432, 208
-0.995556, 23, 105, 38, 168
-0.995571, 315, 129, 330, 192
-0.995588, 215, 89, 230, 152
-0.995589, 193, 241, 208, 304
-0.995603, 283, 145, 298, 208
-0.995605, 49, 241, 176, 272
-0.995606, 55, 153, 70, 216
-0.995607, 45, 169, 60, 232
-0.995615, 241, 145, 256, 208
-0.99562, 181, 145, 196, 208
-0.99562, 297, 81, 312, 144
-0.995624, 209, 257, 224, 317
-0.995627, 289, 29, 416, 60
-0.995641, 373, 1, 388, 64
-0.995656, 1, 257, 500, 317
-0.995656, 461, 1, 476, 64
-0.995657, 187, 241, 202, 304
-0.995683, 411, 145, 426, 208
-0.995692, 1, 1, 128, 32
-0.995711, 47, 137, 62, 200
-0.995711, 233, 97, 248, 160
-0.995717, 201, 1, 232, 256
-0.995725, 377, 161, 392, 224
-0.995729, 205, 1, 220, 64
-0.995736, 273, 145, 288, 208
-0.995743, 257, 257, 384, 288
-0.995744, 81, 253, 208, 284
-0.995745, 163, 137, 178, 200
-0.995762, 303, 33, 318, 96
-0.995765, 145, 129, 160, 192
-0.995769, 391, 169, 406, 232
-0.995774, 409, 193, 440, 317
-0.995778, 1, 33, 500, 96
-0.995779, 277, 73, 292, 136
-0.995782, 401, 1, 416, 64
-0.995783, 195, 137, 210, 200
-0.995811, 369, 153, 384, 216
-0.995821, 455, 129, 470, 192
-0.995824, 173, 225, 188, 288
-0.995825, 231, 145, 246, 208
-0.995834, 353, 49, 480, 80
-0.995839, 305, 145, 320, 208
-0.995857, 257, 113, 384, 144
-0.995868, 33, 113, 160, 144
-0.99587, 1, 185, 128, 216
-0.995872, 409, 1, 424, 64
-0.99588, 203, 89, 218, 152
-0.995887, 439, 57, 454, 120
-0.99589, 129, 257, 144, 317
-0.995894, 41, 1, 72, 256
-0.995899, 193, 77, 320, 108
-0.995937, 143, 1, 158, 64
-0.995939, 169, 145, 184, 208
-0.995944, 281, 1, 312, 256
-0.99595, 473, 81, 488, 144
-0.99596, 247, 145, 262, 208
-0.995968, 193, 277, 320, 308
-0.996001, 69, 1, 84, 64
-0.996013, 433, 1, 448, 64
-0.996018, 97, 209, 352, 272
-0.99602, 305, 1, 336, 256
-0.996045, 169, 97, 184, 160
-0.996047, 29, 1, 60, 256
-0.99606, 1, 201, 256, 264
-0.996061, 23, 153, 38, 216
-0.996064, 65, 13, 192, 44
-0.99608, 161, 221, 288, 252
-0.996082, 221, 81, 236, 144
-0.996086, 13, 1, 44, 256
-0.996093, 129, 145, 256, 176
-0.996097, 417, 9, 432, 72
-0.996116, 1, 193, 500, 256
-0.996124, 321, 17, 448, 48
-0.996127, 427, 1, 442, 64
-0.996127, 443, 1, 458, 64
-0.996137, 37, 185, 52, 248
-0.996171, 1, 57, 128, 120
-0.996185, 209, 149, 336, 180
-0.996189, 49, 125, 176, 156
-0.996228, 321, 1, 352, 256
-0.996232, 145, 193, 176, 317
-0.99634, 49, 265, 176, 296
-0.996372, 305, 45, 432, 76
-0.996396, 97, 133, 224, 164
-0.996406, 33, 229, 160, 260
-0.996438, 1, 141, 128, 172
-0.996443, 405, 169, 420, 200
-0.996482, 321, 185, 448, 216
-0.996506, 97, 281, 224, 312
-0.996547, 53, 1, 84, 256
-0.99659, 305, 249, 432, 280
-0.996625, 321, 149, 448, 180
-0.996639, 113, 17, 240, 48
-0.996649, 145, 65, 176, 317
-0.996667, 269, 33, 300, 288
-0.996673, 289, 225, 416, 256
-0.996677, 399, 169, 414, 200
-0.996682, 403, 181, 418, 212
-0.996704, 171, 109, 186, 140
-0.996707, 209, 41, 336, 72
-0.996708, 1, 1, 32, 256
-0.99672, 69, 97, 100, 224
-0.996733, 429, 1, 460, 256
-0.996769, 289, 237, 416, 268
-0.996782, 257, 53, 384, 84
-0.996818, 273, 185, 400, 216
-0.996825, 333, 1, 364, 256
-0.996839, 353, 137, 480, 168
-0.996839, 25, 141, 40, 172
-0.996842, 289, 129, 416, 160
-0.996853, 453, 1, 484, 256
-0.99689, 369, 97, 400, 224
-0.996895, 369, 97, 496, 128
-0.996906, 411, 169, 426, 200
-0.99692, 1, 13, 128, 44
-0.996931, 397, 1, 428, 256
-0.996949, 213, 1, 244, 256
-0.99696, 313, 125, 328, 156
-0.996978, 17, 101, 144, 132
-0.996989, 97, 1, 224, 32
-0.996993, 197, 101, 212, 132
-0.996994, 35, 177, 50, 208
-0.997001, 177, 109, 192, 140
-0.997003, 293, 1, 324, 256
-0.997011, 441, 1, 472, 256
-0.997036, 221, 193, 252, 317
-0.997058, 161, 105, 176, 136
-0.997068, 31, 153, 46, 184
-0.997082, 369, 189, 496, 220
-0.997098, 305, 81, 432, 112
-0.997109, 257, 65, 384, 96
-0.997117, 289, 89, 304, 120
-0.997131, 241, 221, 368, 252
-0.997167, 451, 53, 466, 84
-0.997182, 199, 113, 214, 144
-0.997184, 273, 101, 400, 132
-0.997186, 17, 5, 32, 36
-0.997219, 135, 109, 150, 140
-0.997231, 393, 169, 408, 200
-0.997232, 223, 105, 238, 136
-0.997233, 189, 125, 204, 156
-0.99724, 241, 29, 368, 60
-0.997247, 49, 213, 176, 244
-0.997256, 19, 129, 34, 160
-0.997259, 293, 101, 308, 132
-0.99726, 181, 121, 196, 152
-0.997263, 397, 185, 412, 216
-0.997264, 191, 109, 206, 140
-0.997281, 259, 101, 274, 132
-0.997283, 213, 5, 228, 36
-0.997285, 93, 145, 124, 272
-0.997286, 203, 249, 218, 280
-0.997303, 199, 125, 214, 156
-0.997313, 257, 161, 384, 192
-0.99732, 205, 1, 220, 32
-0.997323, 301, 109, 316, 140
-0.997336, 209, 109, 224, 140
-0.997346, 449, 69, 464, 100
-0.997348, 193, 241, 208, 272
-0.997373, 23, 13, 38, 44
-0.997378, 283, 89, 298, 120
-0.99738, 105, 237, 120, 268
-0.997382, 183, 101, 198, 132
-0.997385, 115, 241, 130, 272
-0.997385, 233, 125, 248, 156
-0.997389, 377, 1, 408, 256
-0.997389, 413, 181, 428, 212
-0.997397, 455, 37, 470, 68
-0.997401, 253, 1, 284, 256
-0.997409, 187, 237, 202, 268
-0.997411, 141, 109, 156, 140
-0.997412, 321, 1, 448, 32
-0.997423, 193, 29, 320, 60
-0.997424, 239, 105, 254, 136
-0.997425, 173, 121, 188, 152
-0.99743, 65, 49, 320, 112
-0.997432, 1, 169, 128, 200
-0.997436, 97, 93, 224, 124
-0.997442, 285, 45, 300, 76
-0.99746, 1, 217, 500, 280
-0.997464, 225, 177, 352, 208
-0.997484, 321, 201, 448, 232
-0.997487, 21, 161, 36, 192
-0.997494, 441, 1, 456, 32
-0.997495, 381, 49, 412, 176
-0.9975, 249, 105, 264, 136
-0.997529, 187, 249, 202, 280
-0.997533, 219, 129, 234, 160
-0.99754, 379, 1, 394, 32
-0.99754, 47, 177, 62, 208
-0.997545, 241, 285, 368, 316
-0.997557, 213, 261, 228, 292
-0.997566, 445, 49, 460, 80
-0.997568, 387, 165, 402, 196
-0.997573, 167, 121, 182, 152
-0.997575, 105, 225, 120, 256
-0.997577, 369, 77, 496, 108
-0.997596, 233, 105, 248, 136
-0.997599, 363, 177, 378, 208
-0.997599, 181, 269, 196, 300
-0.997603, 191, 137, 206, 168
-0.997608, 31, 165, 46, 196
-0.99761, 193, 65, 320, 96
-0.997617, 307, 129, 322, 160
-0.997661, 285, 77, 300, 108
-0.997662, 181, 257, 196, 288
-0.997662, 231, 273, 246, 304
-0.997675, 109, 249, 124, 280
-0.997681, 233, 1, 248, 32
-0.997681, 295, 89, 310, 120
-0.997684, 467, 157, 482, 188
-0.997685, 345, 1, 376, 256
-0.997692, 401, 157, 416, 188
-0.997693, 277, 81, 292, 112
-0.997694, 155, 105, 170, 136
-0.997696, 165, 245, 180, 276
-0.997698, 225, 269, 240, 300
-0.997703, 1, 197, 128, 228
-0.997709, 175, 237, 190, 268
-0.99771, 177, 13, 304, 44
-0.997713, 269, 117, 284, 148
-0.997717, 33, 285, 160, 316
-0.997717, 431, 5, 446, 36
-0.997718, 241, 269, 368, 300
-0.997724, 181, 237, 196, 268
-0.997729, 129, 109, 144, 140
-0.997732, 23, 177, 38, 208
-0.997734, 39, 157, 54, 188
-0.997738, 391, 17, 406, 48
-0.997742, 147, 109, 162, 140
-0.997744, 97, 217, 224, 248
-0.997746, 461, 5, 476, 36
-0.99775, 9, 1, 24, 32
-0.99775, 277, 49, 292, 80
-0.997759, 305, 113, 432, 144
-0.997765, 241, 285, 256, 316
-0.997769, 215, 109, 230, 140
-0.997772, 113, 229, 128, 260
-0.997778, 175, 133, 190, 164
-0.997779, 377, 169, 392, 200
-0.997782, 239, 125, 254, 156
-0.997783, 403, 25, 418, 56
-0.997786, 337, 237, 464, 268
-0.997786, 195, 253, 210, 284
-0.997788, 197, 137, 212, 168
-0.997789, 143, 233, 158, 264
-0.997792, 239, 1, 254, 32
-0.997794, 255, 117, 270, 148
-0.997794, 19, 145, 34, 176
-0.997797, 1, 129, 128, 160
-0.997804, 125, 241, 140, 272
-0.997805, 439, 53, 454, 84
-0.997807, 175, 257, 190, 288
-0.99781, 369, 173, 384, 204
-0.997813, 1, 25, 128, 56
-0.997823, 209, 249, 224, 280
-0.997824, 409, 1, 440, 256
-0.997835, 279, 101, 294, 132
-0.997838, 161, 233, 176, 264
-0.997842, 187, 273, 202, 304
-0.997844, 247, 93, 262, 124
-0.997848, 225, 129, 240, 160
-0.997851, 329, 33, 344, 64
-0.997853, 181, 133, 196, 164
-0.997856, 353, 109, 480, 140
-0.997862, 133, 229, 148, 260
-0.997864, 457, 57, 472, 88
-0.99787, 255, 85, 270, 116
-0.997871, 237, 65, 268, 317
-0.997874, 193, 165, 320, 196
-0.997875, 287, 101, 302, 132
-0.997878, 155, 233, 170, 264
-0.997878, 149, 233, 164, 264
-0.99788, 25, 113, 40, 144
-0.997881, 159, 245, 174, 276
-0.997883, 407, 157, 422, 188
-0.997883, 277, 117, 292, 148
-0.997891, 49, 157, 176, 188
-0.997891, 31, 141, 46, 172
-0.997892, 237, 141, 252, 172
-0.997896, 219, 5, 234, 36
-0.997897, 385, 1, 400, 32
-0.997899, 455, 73, 470, 104
-0.997901, 25, 129, 40, 160
-0.997923, 177, 181, 304, 212
-0.997948, 49, 25, 176, 88
-0.99796, 1, 245, 128, 276
-0.997995, 469, 33, 500, 288
-0.998037, 305, 213, 432, 244
-0.998053, 257, 1, 384, 32
-0.998194, 161, 41, 288, 72
-0.998221, 129, 73, 256, 104
-0.998228, 49, 201, 176, 232
-0.998232, 369, 201, 496, 232
-0.998269, 305, 69, 432, 100
-0.998279, 369, 225, 496, 256
-0.998284, 357, 65, 388, 317
-0.998291, 1, 273, 128, 304
-0.998305, 225, 65, 256, 317
-0.998318, 49, 137, 176, 168
-0.998324, 321, 261, 448, 292
-0.998334, 121, 109, 184, 124
-0.998334, 1, 65, 500, 128
-0.998355, 263, 97, 278, 224
-0.998368, 153, 107, 216, 122
-0.998371, 49, 173, 176, 204
-0.998375, 273, 13, 400, 44
-0.998393, 161, 113, 224, 128
-0.998397, 353, 181, 416, 196
-0.9984, 1, 217, 128, 248
-0.998402, 105, 245, 168, 260
-0.998403, 177, 105, 240, 120
-0.998417, 241, 99, 304, 114
-0.998423, 265, 121, 328, 136
-0.998425, 345, 27, 408, 42
-0.998431, 137, 125, 200, 140
-0.998432, 129, 119, 192, 134
-0.998442, 209, 103, 272, 118
-0.998442, 397, 27, 428, 42
-0.998443, 433, 147, 464, 162
-0.998443, 301, 133, 332, 148
-0.998443, 357, 183, 388, 198
-0.998443, 1, 89, 128, 120
-0.998444, 297, 55, 328, 70
-0.998445, 421, 93, 452, 108
-0.998445, 185, 19, 216, 34
-0.998445, 417, 7, 480, 22
-0.998446, 453, 159, 484, 174
-0.998446, 361, 115, 392, 130
-0.998447, 245, 119, 276, 134
-0.998448, 417, 11, 448, 26
-0.998448, 125, 273, 156, 288
-0.998448, 333, 123, 364, 138
-0.998448, 253, 83, 284, 98
-0.998448, 209, 255, 240, 270
-0.998449, 373, 183, 404, 198
-0.998449, 241, 209, 368, 240
-0.998451, 393, 19, 424, 34
-0.998453, 353, 173, 416, 188
-0.998453, 321, 257, 352, 272
-0.998454, 201, 281, 232, 296
-0.998455, 155, 97, 170, 224
-0.998455, 213, 127, 244, 142
-0.998456, 121, 251, 152, 266
-0.998456, 17, 145, 48, 160
-0.998457, 105, 251, 168, 266
-0.998457, 389, 163, 420, 178
-0.998458, 177, 125, 240, 140
-0.998458, 401, 1, 432, 16
-0.998459, 169, 251, 232, 266
-0.998459, 361, 187, 424, 202
-0.998459, 125, 267, 156, 282
-0.99846, 433, 55, 464, 70
-0.99846, 265, 87, 296, 102
-0.99846, 405, 163, 436, 178
-0.998461, 1, 5, 32, 20
-0.998461, 437, 89, 468, 104
-0.998461, 21, 183, 52, 198
-0.998462, 285, 43, 316, 58
-0.998463, 449, 169, 480, 184
-0.998464, 285, 55, 316, 70
-0.998465, 401, 185, 464, 200
-0.998466, 93, 239, 124, 254
-0.998467, 37, 153, 68, 168
-0.998467, 305, 127, 336, 142
-0.99847, 361, 177, 392, 192
-0.998471, 33, 145, 64, 160
-0.998471, 449, 53, 480, 68
-0.998471, 377, 177, 440, 192
-0.998472, 21, 127, 52, 142
-0.998473, 429, 9, 460, 24
-0.998474, 185, 131, 216, 146
-0.998474, 273, 133, 336, 148
-0.998474, 309, 273, 340, 288
-0.998475, 233, 125, 296, 140
-0.998476, 281, 95, 312, 110
-0.998476, 265, 101, 296, 116
-0.998477, 205, 273, 236, 288
-0.998478, 271, 97, 286, 224
-0.99848, 197, 119, 228, 134
-0.998481, 345, 35, 376, 50
-0.998482, 9, 17, 40, 32
-0.998482, 321, 267, 352, 282
-0.998483, 257, 235, 288, 250
-0.998483, 193, 119, 256, 134
-0.998484, 449, 175, 480, 190
-0.998484, 381, 19, 412, 34
-0.998485, 165, 123, 196, 138
-0.998485, 289, 37, 352, 52
-0.998485, 305, 57, 432, 88
-0.998486, 17, 147, 80, 162
-0.998486, 381, 27, 412, 42
-0.998486, 233, 289, 264, 304
-0.998487, 337, 251, 368, 266
-0.998488, 233, 3, 264, 18
-0.998488, 437, 49, 468, 64
-0.998489, 273, 197, 400, 228
-0.998489, 249, 93, 312, 108
-0.99849, 29, 177, 60, 192
-0.99849, 433, 1, 464, 16
-0.99849, 217, 7, 280, 22
-0.99849, 129, 249, 192, 264
-0.998491, 17, 157, 48, 172
-0.998491, 205, 7, 236, 22
-0.998493, 233, 85, 296, 100
-0.998495, 225, 279, 256, 294
-0.998496, 13, 139, 44, 154
-0.998497, 9, 135, 72, 150
-0.998499, 249, 101, 280, 116
-0.9985, 441, 141, 472, 156
-0.9985, 209, 125, 272, 140
-0.998501, 221, 285, 252, 300
-0.998501, 321, 31, 384, 46
-0.998502, 29, 139, 60, 154
-0.998502, 393, 1, 456, 16
-0.998503, 193, 283, 256, 298
-0.998504, 117, 243, 148, 258
-0.998504, 65, 1, 96, 256
-0.998505, 233, 105, 264, 120
-0.998505, 289, 117, 320, 132
-0.998506, 409, 185, 440, 200
-0.998507, 177, 273, 240, 288
-0.998508, 17, 165, 48, 180
-0.998508, 49, 193, 80, 317
-0.998509, 369, 29, 432, 44
-0.998509, 25, 133, 56, 148
-0.99851, 377, 167, 440, 182
-0.998511, 433, 57, 496, 72
-0.998512, 217, 97, 280, 112
-0.998512, 273, 45, 336, 60
-0.998513, 417, 179, 480, 194
-0.998513, 225, 125, 256, 140
-0.998513, 185, 99, 248, 114
-0.998513, 209, 101, 240, 116
-0.998515, 217, 107, 248, 122
-0.998517, 109, 249, 140, 264
-0.998519, 277, 89, 308, 104
-0.99852, 9, 133, 40, 148
-0.99852, 249, 95, 280, 110
-0.998521, 153, 271, 216, 286
-0.998521, 401, 191, 432, 206
-0.998522, 353, 21, 416, 36
-0.998522, 361, 193, 424, 208
-0.998522, 133, 245, 164, 260
-0.998522, 417, 151, 480, 166
-0.998523, 201, 1, 264, 16
-0.998524, 217, 253, 280, 268
-0.998524, 349, 27, 380, 42
-0.998525, 273, 127, 336, 142
-0.998525, 265, 81, 296, 96
-0.998526, 161, 287, 224, 302
-0.998527, 149, 247, 180, 262
-0.998528, 25, 17, 88, 32
-0.99853, 201, 289, 264, 304
-0.998531, 237, 97, 268, 112
-0.998532, 165, 249, 196, 264
-0.998532, 137, 285, 200, 300
-0.998534, 33, 189, 64, 204
-0.998534, 169, 279, 232, 294
-0.998535, 185, 111, 216, 126
-0.998536, 329, 251, 392, 266
-0.998537, 145, 133, 208, 148
-0.998537, 317, 127, 348, 142
-0.998537, 25, 181, 88, 196
-0.998538, 301, 39, 332, 54
-0.998539, 453, 59, 484, 74
-0.99854, 265, 115, 328, 130
-0.99854, 305, 123, 368, 138
-0.998541, 277, 101, 308, 116
-0.998541, 385, 181, 416, 196
-0.998541, 285, 111, 316, 126
-0.998541, 297, 265, 360, 280
-0.998542, 257, 245, 320, 260
-0.998542, 241, 233, 304, 248
-0.998542, 129, 269, 192, 284
-0.998543, 221, 5, 252, 20
-0.998545, 337, 39, 400, 54
-0.998545, 273, 91, 336, 106
-0.998547, 209, 121, 240, 136
-0.998548, 105, 241, 136, 256
-0.998548, 369, 1, 432, 16
-0.998548, 1, 261, 128, 292
-0.99855, 409, 55, 472, 70
-0.99855, 137, 277, 200, 292
-0.998551, 81, 245, 144, 260
-0.998551, 181, 251, 212, 266
-0.998552, 169, 119, 232, 134
-0.998552, 17, 175, 80, 190
-0.998553, 9, 141, 72, 156
-0.998554, 345, 33, 408, 48
-0.998554, 1, 153, 64, 168
-0.998554, 313, 37, 376, 52
-0.998554, 217, 277, 280, 292
-0.998555, 405, 177, 436, 192
-0.998556, 377, 17, 440, 32
-0.998556, 373, 171, 404, 186
-0.998556, 401, 171, 464, 186
-0.998557, 201, 109, 264, 124
-0.998559, 105, 265, 168, 280
-0.998559, 97, 229, 160, 244
-0.99856, 265, 51, 328, 66
-0.99856, 353, 213, 480, 244
-0.99856, 289, 271, 352, 286
-0.99856, 5, 11, 36, 26
-0.99856, 113, 283, 176, 298
-0.99856, 17, 161, 80, 176
-0.998561, 137, 255, 200, 270
-0.998563, 317, 35, 348, 50
-0.998563, 421, 1, 452, 16
-0.998564, 197, 253, 228, 268
-0.998564, 393, 191, 456, 206
-0.998565, 329, 39, 360, 54
-0.998565, 333, 31, 364, 46
-0.998566, 241, 285, 304, 300
-0.998567, 25, 189, 88, 204
-0.998567, 409, 145, 472, 160
-0.998568, 405, 169, 436, 184
-0.998568, 409, 163, 472, 178
-0.998568, 305, 255, 368, 270
-0.998568, 297, 115, 360, 130
-0.998568, 409, 25, 472, 40
-0.998569, 185, 131, 248, 146
-0.998569, 217, 283, 280, 298
-0.99857, 153, 145, 216, 160
-0.99857, 397, 185, 428, 200
-0.99857, 249, 239, 312, 254
-0.998571, 209, 91, 272, 106
-0.998571, 277, 49, 308, 64
-0.998572, 273, 85, 336, 100
-0.998572, 265, 123, 296, 138
-0.998573, 169, 259, 232, 274
-0.998573, 1, 129, 64, 144
-0.998573, 273, 265, 336, 280
-0.998575, 409, 37, 472, 52
-0.998575, 221, 101, 252, 116
-0.998577, 369, 23, 400, 38
-0.998577, 205, 109, 236, 124
-0.998577, 449, 5, 480, 20
-0.998581, 417, 17, 480, 32
-0.998581, 401, 65, 464, 80
-0.998581, 433, 143, 496, 158
-0.998584, 233, 1, 296, 16
-0.998584, 401, 47, 464, 62
-0.998585, 393, 11, 456, 26
-0.998586, 1, 23, 64, 38
-0.998586, 273, 147, 336, 162
-0.998587, 89, 113, 152, 128
-0.998588, 269, 95, 300, 110
-0.998588, 225, 293, 288, 308
-0.998589, 165, 113, 196, 128
-0.99859, 25, 5, 88, 20
-0.99859, 409, 31, 472, 46
-0.998591, 211, 97, 226, 224
-0.998591, 289, 239, 352, 254
-0.998591, 241, 125, 272, 140
-0.998592, 273, 279, 336, 294
-0.998592, 245, 113, 260, 240
-0.998594, 241, 53, 304, 68
-0.998594, 65, 239, 128, 254
-0.998594, 217, 117, 280, 132
-0.998594, 273, 139, 336, 154
-0.998596, 145, 237, 208, 252
-0.998598, 25, 11, 88, 26
-0.998598, 417, 157, 480, 172
-0.998598, 393, 201, 456, 216
-0.998599, 177, 147, 240, 162
-0.9986, 133, 111, 164, 126
-0.998601, 313, 43, 376, 58
-0.998602, 249, 105, 312, 120
-0.998602, 197, 125, 228, 140
-0.998602, 185, 7, 248, 22
-0.998605, 393, 169, 424, 184
-0.998611, 251, 113, 266, 240
-0.998618, 193, 209, 320, 240
-0.998622, 389, 175, 420, 190
-0.998625, 277, 97, 292, 224
-0.998628, 353, 125, 480, 156
-0.99863, 145, 109, 176, 124
-0.99863, 177, 125, 208, 140
-0.998634, 161, 107, 192, 122
-0.998643, 149, 97, 164, 224
-0.998652, 161, 97, 176, 224
-0.998653, 197, 103, 228, 118
-0.998654, 257, 81, 272, 208
-0.998673, 181, 105, 212, 120
-0.998682, 299, 97, 314, 224
-0.998703, 221, 113, 236, 240
-0.998706, 353, 249, 480, 280
-0.998712, 467, 1, 482, 128
-0.998729, 129, 177, 256, 208
-0.998738, 305, 97, 320, 224
-0.99874, 205, 97, 220, 224
-0.998742, 399, 145, 414, 272
-0.998744, 133, 65, 164, 317
-0.998747, 269, 145, 284, 272
-0.998781, 49, 189, 176, 220
-0.998783, 227, 129, 242, 256
-0.998793, 31, 113, 46, 240
-0.998801, 283, 97, 298, 224
-0.998818, 269, 49, 284, 176
-0.998825, 237, 113, 252, 240
-0.998839, 25, 97, 40, 224
-0.998844, 97, 1, 160, 128
-0.998844, 293, 97, 308, 224
-0.998848, 245, 65, 260, 192
-0.998872, 433, 1, 448, 128
-0.998882, 251, 65, 266, 192
-0.998888, 231, 1, 246, 128
-0.998893, 445, 1, 460, 128
-0.998894, 439, 1, 454, 128
-0.998897, 143, 97, 158, 224
-0.998917, 239, 65, 254, 192
-0.998919, 37, 113, 52, 240
-0.998923, 257, 129, 272, 256
-0.998924, 461, 33, 476, 160
-0.998925, 237, 1, 252, 128
-0.998928, 375, 1, 390, 128
-0.998935, 181, 97, 196, 224
-0.998943, 425, 1, 440, 128
-0.998947, 195, 97, 210, 224
-0.998948, 47, 129, 62, 256
-0.998954, 231, 81, 246, 208
-0.998962, 451, 33, 466, 160
-0.998968, 263, 145, 278, 272
-0.998975, 275, 145, 290, 272
-0.99898, 175, 97, 190, 224
-0.99898, 279, 49, 294, 176
-0.998984, 311, 81, 326, 208
-0.998989, 19, 97, 34, 224
-0.998993, 117, 65, 148, 317
-0.998995, 287, 49, 302, 176
-0.998995, 167, 97, 182, 224
-0.999001, 243, 1, 258, 128
-0.999009, 309, 33, 324, 160
-0.999012, 223, 65, 238, 192
-0.999042, 225, 1, 240, 128
-0.999043, 381, 1, 396, 128
-0.999046, 361, 177, 376, 304
-0.999046, 473, 49, 488, 176
-0.99905, 25, 1, 40, 128
-0.999051, 303, 33, 318, 160
-0.999069, 419, 1, 434, 128
-0.999075, 137, 81, 152, 208
-0.999078, 57, 145, 72, 272
-0.99909, 263, 49, 278, 176
-0.999096, 429, 129, 444, 256
-0.999097, 369, 17, 384, 144
-0.999112, 215, 145, 230, 272
-0.999118, 447, 145, 462, 272
-0.999118, 407, 145, 422, 272
-0.999119, 443, 65, 458, 192
-0.999123, 281, 145, 296, 272
-0.999123, 189, 113, 204, 240
-0.999125, 205, 1, 220, 128
-0.99913, 217, 65, 232, 192
-0.999143, 249, 1, 264, 128
-0.999175, 359, 129, 374, 256
-0.999179, 293, 33, 308, 160
-0.999179, 1, 1, 16, 128
-0.999183, 421, 145, 436, 272
-0.999186, 415, 129, 430, 256
-0.999188, 361, 1, 376, 128
-0.999191, 479, 33, 494, 160
-0.999194, 441, 129, 456, 256
-0.999196, 311, 129, 326, 256
-0.999196, 189, 1, 204, 128
-0.999198, 37, 161, 52, 288
-0.999208, 209, 145, 224, 272
-0.999209, 199, 1, 214, 128
-0.999213, 473, 1, 488, 128
-0.999219, 147, 1, 162, 128
-0.999219, 13, 81, 28, 208
-0.999219, 355, 1, 370, 128
-0.999221, 437, 49, 452, 176
-0.999224, 25, 145, 40, 272
-0.999228, 287, 145, 302, 272
-0.99923, 69, 1, 84, 128
-0.999234, 393, 161, 408, 288
-0.999241, 409, 97, 424, 224
-0.999243, 203, 145, 218, 272
-0.99925, 13, 1, 28, 128
-0.999252, 151, 49, 166, 176
-0.999256, 467, 65, 482, 192
-0.999265, 329, 33, 344, 160
-0.999266, 305, 145, 320, 272
-0.999272, 369, 177, 384, 304
-0.999273, 203, 49, 218, 176
-0.999275, 165, 1, 180, 128
-0.999287, 349, 1, 364, 128
-0.999289, 451, 97, 466, 224
-0.999291, 59, 17, 74, 144
-0.999293, 213, 1, 228, 128
-0.999294, 411, 1, 426, 128
-0.999299, 149, 145, 164, 272
-0.999302, 485, 49, 500, 176
-0.999306, 175, 17, 190, 144
-0.999311, 299, 145, 314, 272
-0.999313, 293, 145, 308, 272
-0.999314, 183, 1, 198, 128
-0.999317, 167, 145, 182, 272
-0.999318, 175, 145, 190, 272
-0.999318, 183, 145, 198, 272
-0.999323, 387, 145, 402, 272
-0.999326, 319, 81, 334, 208
-0.999327, 31, 161, 46, 288
-0.999331, 315, 33, 330, 160
-0.999335, 33, 17, 48, 144
-0.99934, 209, 49, 224, 176
-0.99934, 435, 129, 450, 256
-0.999344, 361, 65, 376, 192
-0.999345, 153, 1, 168, 128
-0.99942, 173, 49, 204, 176
-0.999512, 89, 65, 120, 317
-0.999568, 101, 65, 132, 317
-0.999644, 209, 119, 224, 134
-0.999644, 187, 131, 202, 146
-0.999645, 291, 43, 306, 58
-0.999647, 279, 99, 294, 114
-0.999648, 285, 101, 300, 116
-0.999648, 155, 247, 170, 262
-0.999649, 297, 105, 312, 120
-0.999649, 393, 19, 408, 34
-0.999649, 123, 243, 138, 258
-0.99965, 227, 107, 242, 122
-0.99965, 355, 29, 370, 44
-0.99965, 47, 181, 62, 196
-0.999651, 177, 113, 192, 128
-0.999651, 17, 13, 32, 28
-0.999651, 249, 123, 264, 138
-0.999653, 171, 249, 186, 264
-0.999654, 307, 123, 322, 138
-0.999654, 17, 143, 32, 158
-0.999655, 453, 141, 468, 156
-0.999656, 187, 251, 202, 266
-0.999656, 379, 23, 394, 38
-0.999657, 385, 19, 400, 34
-0.999657, 451, 73, 466, 88
-0.999657, 113, 249, 128, 264
-0.999658, 463, 5, 478, 20
-0.999658, 249, 97, 264, 112
-0.99966, 285, 81, 300, 96
-0.99966, 363, 27, 378, 42
-0.99966, 291, 91, 306, 106
-0.999662, 439, 57, 454, 72
-0.999663, 219, 127, 234, 142
-0.999664, 417, 189, 432, 204
-0.999665, 233, 99, 248, 114
-0.999665, 285, 47, 300, 62
-0.999666, 213, 7, 228, 22
-0.999667, 197, 251, 212, 266
-0.999667, 221, 121, 236, 136
-0.999668, 373, 23, 388, 38
-0.999668, 295, 49, 310, 64
-0.99967, 345, 31, 360, 46
-0.99967, 203, 251, 218, 266
-0.999671, 113, 241, 128, 256
-0.999671, 453, 57, 468, 72
-0.999672, 31, 173, 46, 188
-0.999673, 147, 109, 162, 124
-0.999673, 7, 7, 22, 22
-0.999675, 241, 289, 256, 304
-0.999676, 343, 39, 358, 54
-0.999677, 279, 77, 294, 92
-0.999677, 387, 169, 402, 184
-0.999678, 217, 257, 232, 272
-0.999678, 261, 101, 276, 116
-0.999679, 253, 103, 268, 118
-0.99968, 313, 123, 328, 138
-0.999681, 165, 115, 180, 130
-0.999681, 291, 101, 306, 116
-0.999681, 215, 103, 230, 118
-0.999682, 405, 189, 420, 204
-0.999682, 321, 127, 336, 142
-0.999682, 411, 171, 426, 186
-0.999682, 237, 3, 252, 18
-0.999682, 169, 123, 184, 138
-0.999682, 431, 1, 446, 16
-0.999682, 243, 97, 258, 112
-0.999683, 171, 113, 186, 128
-0.999683, 299, 113, 314, 128
-0.999684, 237, 105, 252, 120
-0.999685, 291, 57, 306, 72
-0.999685, 221, 101, 236, 116
-0.999686, 21, 163, 36, 178
-0.999686, 279, 49, 294, 64
-0.999689, 197, 131, 212, 146
-0.99969, 25, 137, 40, 152
-0.999691, 33, 161, 48, 176
-0.999695, 469, 161, 484, 176
-0.999697, 421, 183, 436, 198
-0.999699, 199, 111, 214, 126
-0.9997, 335, 33, 350, 48
-0.999703, 227, 101, 242, 116
-0.999704, 221, 7, 236, 22
-0.999704, 209, 255, 224, 270
-0.999705, 103, 239, 118, 254
-0.999706, 155, 109, 170, 124
-0.999706, 179, 125, 194, 140
-0.999709, 231, 5, 246, 20
-0.99971, 445, 61, 460, 76
-0.999711, 33, 179, 48, 194
-0.999712, 449, 67, 464, 82
-0.999713, 255, 125, 270, 140
-0.999713, 281, 89, 296, 104
-0.999714, 389, 25, 404, 40
-0.999716, 273, 79, 288, 94
-0.999717, 437, 1, 452, 16
-0.999719, 35, 189, 50, 204
-0.99972, 191, 125, 206, 140
-0.999721, 171, 107, 186, 122
-0.999723, 265, 123, 280, 138
-0.999723, 409, 179, 424, 194
-0.999724, 395, 179, 410, 194
-0.999726, 191, 105, 206, 120
-0.999726, 395, 165, 410, 180
-0.999727, 13, 135, 28, 150
-0.999729, 229, 127, 244, 142
-0.999734, 221, 107, 236, 122
-0.999735, 27, 149, 42, 164
-0.999741, 285, 95, 300, 110
-0.999743, 411, 185, 426, 200
-0.999743, 207, 103, 222, 118
-0.999744, 17, 7, 32, 22
-0.999745, 23, 15, 38, 30
-0.999748, 135, 111, 150, 126
-0.999749, 311, 129, 326, 144
-0.999749, 397, 185, 412, 200
-0.99975, 165, 107, 180, 122
-0.999751, 465, 167, 480, 182
-0.999751, 177, 107, 192, 122
-0.999752, 65, 57, 192, 120
-0.999754, 197, 105, 212, 120
-0.999755, 19, 131, 34, 146
-0.999759, 199, 125, 214, 140
-0.99976, 409, 165, 424, 180
-0.999761, 185, 105, 200, 120
-0.999762, 399, 191, 414, 206
-0.99978, 23, 143, 38, 158
-0.999784, 185, 125, 200, 140
-0.999789, 31, 155, 46, 170
-0.999804, 403, 173, 418, 188
-0.999814, 403, 183, 418, 198
-0.99982, 19, 137, 34, 152
-0.999842, 397, 171, 412, 186
-0.99986, 403, 167, 418, 182
-1.00004, 77, 65, 108, 317
-1.00089, 49, 49, 112, 176
-1.00416, 433, 193, 496, 317
-1.00424, 73, 17, 136, 144
