1960
-0.272877, 1, 1, 500, 375
-0.316809, 1, 129, 500, 375
-0.321569, 1, 1, 500, 256
-0.343372, 193, 1, 448, 375
-0.41553, 65, 1, 320, 375
-0.501019, 193, 1, 448, 256
-0.533317, 161, 129, 416, 375
-0.547601, 65, 1, 320, 256
-0.622686, 65, 97, 320, 352
-0.633895, 257, 97, 500, 352
-0.845652, 305, 1, 432, 256
-0.846596, 113, 1, 240, 256
-0.848309, 129, 1, 256, 375
-0.848805, 305, 1, 432, 375
-0.850422, 65, 1, 192, 375
-0.852326, 129, 97, 256, 352
-0.85423, 1, 17, 500, 144
-0.855043, 209, 1, 336, 256
-0.855175, 369, 33, 496, 288
-0.860643, 177, 1, 304, 375
-0.861876, 33, 1, 160, 256
-0.861907, 1, 97, 128, 352
-0.862748, 369, 1, 496, 375
-0.863618, 337, 129, 464, 375
-0.864437, 1, 1, 128, 375
-0.864641, 161, 1, 288, 256
-0.866688, 241, 129, 368, 375
-0.86701, 257, 33, 384, 288
-0.867597, 177, 97, 304, 352
-0.867941, 81, 97, 208, 352
-0.868571, 1, 241, 500, 368
-0.877467, 225, 1, 352, 375
-0.884543, 1, 129, 500, 256
-0.887504, 1, 193, 500, 320
-0.89568, 65, 1, 320, 128
-0.89857, 225, 241, 480, 368
-0.904871, 1, 81, 500, 208
-0.904986, 289, 129, 416, 375
-0.90857, 193, 193, 448, 320
-0.909645, 225, 33, 480, 160
-0.913945, 33, 225, 288, 352
-0.91876, 129, 241, 384, 368
-0.923185, 97, 145, 352, 272
-0.925107, 257, 145, 500, 272
-0.927654, 361, 241, 424, 368
-0.928935, 305, 225, 432, 352
-0.929597, 369, 81, 496, 208
-0.933789, 433, 81, 496, 208
-0.934255, 33, 1, 160, 128
-0.934513, 353, 241, 480, 368
-0.935248, 289, 1, 416, 128
-0.93555, 113, 241, 240, 368
-0.936115, 1, 49, 256, 176
-0.93646, 177, 1, 304, 128
-0.936538, 1, 145, 256, 272
-0.936777, 161, 241, 224, 368
-0.937265, 225, 241, 352, 368
-0.937715, 241, 1, 304, 128
-0.938452, 209, 193, 336, 320
-0.939059, 409, 81, 472, 208
-0.939946, 225, 81, 480, 208
-0.940279, 41, 1, 104, 128
-0.94061, 81, 1, 144, 128
-0.940807, 161, 145, 288, 272
-0.941591, 97, 145, 224, 272
-0.941806, 9, 1, 72, 128
-0.942616, 129, 17, 256, 144
-0.942842, 217, 1, 280, 128
-0.942912, 73, 49, 136, 176
-0.943593, 369, 17, 432, 144
-0.943613, 369, 145, 496, 272
-0.943738, 385, 241, 448, 368
-0.943819, 33, 241, 160, 368
-0.943885, 169, 17, 232, 144
-0.944404, 361, 273, 424, 336
-0.944445, 65, 97, 320, 224
-0.944531, 257, 145, 320, 272
-0.945088, 209, 113, 336, 240
-0.945452, 81, 1, 208, 128
-0.945533, 97, 49, 352, 176
-0.946015, 321, 1, 384, 128
-0.946201, 409, 129, 472, 256
-0.946287, 321, 65, 448, 192
-0.946442, 145, 193, 272, 320
-0.94654, 337, 17, 464, 144
-0.946599, 17, 193, 144, 320
-0.947151, 313, 225, 376, 352
-0.947251, 385, 81, 448, 208
-0.947802, 1, 49, 128, 176
-0.948096, 185, 193, 248, 320
-0.948525, 153, 161, 216, 288
-0.948588, 105, 1, 168, 128
-0.948709, 153, 113, 216, 240
-0.949393, 113, 241, 176, 368
-0.949649, 337, 225, 400, 352
-0.949977, 289, 177, 416, 304
-0.950281, 233, 193, 296, 320
-0.950459, 297, 145, 360, 272
-0.951089, 49, 49, 176, 176
-0.951146, 337, 305, 400, 368
-0.951212, 281, 17, 344, 144
-0.951267, 377, 305, 440, 368
-0.951424, 193, 145, 256, 272
-0.951856, 225, 17, 352, 144
-0.952248, 113, 145, 176, 272
-0.952591, 209, 193, 272, 320
-0.953045, 433, 89, 496, 152
-0.953055, 57, 241, 120, 368
-0.953419, 265, 193, 328, 320
-0.954142, 401, 33, 464, 160
-0.954393, 57, 25, 120, 88
-0.954534, 337, 25, 400, 88
-0.954938, 137, 17, 200, 144
-0.95532, 361, 65, 424, 192
-0.955346, 201, 241, 264, 368
-0.955461, 1, 113, 128, 240
-0.955518, 33, 97, 96, 160
-0.956369, 97, 193, 224, 320
-0.956643, 281, 25, 344, 88
-0.956715, 393, 89, 456, 152
-0.956724, 249, 25, 312, 88
-0.956853, 233, 241, 296, 368
-0.956881, 81, 193, 144, 320
-0.957184, 193, 17, 256, 144
-0.957185, 81, 25, 144, 88
-0.957629, 1, 17, 64, 80
-0.957767, 369, 145, 432, 272
-0.958304, 41, 49, 104, 176
-0.958362, 369, 193, 432, 320
-0.958534, 321, 113, 448, 240
-0.958544, 33, 17, 96, 80
-0.958918, 105, 17, 168, 80
-0.958992, 33, 241, 96, 368
-0.959064, 233, 145, 296, 272
-0.959491, 9, 225, 72, 352
-0.959516, 41, 273, 104, 336
-0.959608, 409, 241, 472, 368
-0.959824, 137, 25, 200, 88
-0.959825, 345, 1, 408, 128
-0.960028, 17, 121, 80, 184
-0.960891, 177, 25, 240, 88
-0.96128, 113, 193, 176, 320
-0.961301, 337, 177, 400, 304
-0.961382, 369, 193, 496, 320
-0.96141, 49, 97, 176, 224
-0.961483, 161, 97, 288, 224
-0.961624, 249, 49, 312, 112
-0.961774, 49, 145, 176, 272
-0.961834, 361, 65, 424, 128
-0.961998, 225, 25, 288, 88
-0.962422, 409, 305, 472, 368
-0.962608, 81, 113, 144, 240
-0.962687, 313, 33, 376, 96
-0.962717, 9, 113, 72, 240
-0.962981, 361, 33, 424, 96
-0.963241, 409, 129, 472, 192
-0.963302, 41, 49, 104, 112
-0.963564, 193, 97, 256, 224
-0.963697, 177, 241, 304, 368
-0.963801, 257, 129, 320, 192
-0.963804, 257, 65, 320, 192
-0.963866, 9, 249, 72, 312
-0.96397, 129, 97, 192, 224
-0.964157, 281, 241, 344, 368
-0.964305, 169, 129, 232, 192
-0.964629, 201, 25, 264, 88
-0.9648, 241, 249, 304, 312
-0.965105, 241, 273, 304, 336
-0.965171, 49, 177, 112, 304
-0.965264, 169, 1, 232, 256
-0.965332, 57, 97, 120, 160
-0.965454, 209, 305, 272, 368
-0.965542, 17, 49, 80, 176
-0.965566, 169, 49, 232, 112
-0.965603, 97, 49, 160, 176
-0.965668, 217, 129, 280, 192
-0.965682, 81, 241, 144, 368
-0.965988, 337, 281, 400, 344
-0.966001, 313, 313, 376, 375
-0.966179, 233, 97, 296, 224
-0.966357, 329, 241, 392, 304
-0.966365, 393, 241, 424, 368
-0.966478, 73, 305, 136, 368
-0.966563, 113, 313, 176, 375
-0.966586, 217, 281, 280, 344
-0.966611, 289, 49, 352, 112
-0.966707, 17, 169, 80, 232
-0.966826, 361, 241, 424, 304
-0.967075, 209, 249, 272, 312
-0.967136, 265, 273, 328, 336
-0.967201, 17, 57, 80, 120
-0.967229, 249, 313, 312, 375
-0.967279, 273, 113, 400, 240
-0.967418, 281, 65, 344, 192
-0.967439, 401, 153, 464, 216
-0.967448, 369, 33, 432, 288
-0.967526, 217, 1, 280, 256
-0.967539, 433, 33, 496, 160
-0.967548, 433, 145, 496, 272
-0.967806, 145, 1, 208, 256
-0.967861, 433, 241, 496, 368
-0.967903, 385, 281, 448, 344
-0.967914, 81, 1, 144, 256
-0.967943, 177, 97, 240, 160
-0.968023, 113, 65, 240, 192
-0.968084, 257, 65, 384, 192
-0.968227, 241, 1, 304, 256
-0.968301, 169, 129, 232, 375
-0.968423, 17, 273, 80, 336
-0.96849, 369, 89, 432, 152
-0.96867, 273, 161, 336, 224
-0.968701, 405, 81, 436, 208
-0.968717, 177, 257, 240, 320
-0.96872, 145, 185, 208, 248
-0.968813, 393, 193, 456, 320
-0.968856, 289, 1, 352, 256
-0.968896, 113, 97, 176, 160
-0.968914, 281, 305, 344, 368
-0.968936, 169, 65, 232, 192
-0.968969, 161, 289, 224, 352
-0.969211, 49, 129, 112, 192
-0.969301, 193, 33, 256, 288
-0.969332, 369, 129, 432, 192
-0.969341, 193, 129, 256, 192
-0.969378, 9, 145, 72, 208
-0.96939, 9, 97, 72, 160
-0.969396, 425, 97, 456, 160
-0.969432, 445, 89, 476, 152
-0.969439, 137, 89, 200, 152
-0.969468, 445, 81, 476, 208
-0.969607, 393, 233, 456, 296
-0.969644, 369, 89, 496, 152
-0.969646, 121, 201, 184, 264
-0.969724, 433, 129, 496, 192
-0.969764, 145, 129, 208, 192
-0.969822, 373, 241, 404, 368
-0.969836, 45, 1, 76, 128
-0.969925, 81, 97, 144, 160
-0.969972, 209, 65, 336, 192
-0.969993, 97, 49, 160, 112
-0.970033, 405, 89, 436, 152
-0.970114, 225, 57, 288, 120
-0.970231, 177, 161, 240, 224
-0.970238, 137, 209, 200, 336
-0.970279, 137, 49, 200, 112
-0.97038, 425, 65, 456, 192
-0.970481, 73, 257, 136, 320
-0.970482, 337, 305, 464, 368
-0.970485, 281, 129, 344, 192
-0.9705, 65, 49, 128, 112
-0.970551, 25, 161, 88, 288
-0.970578, 177, 25, 304, 88
-0.970715, 321, 225, 448, 288
-0.970767, 137, 97, 200, 352
-0.970917, 153, 161, 216, 224
-0.970988, 273, 249, 336, 312
-0.971069, 225, 49, 288, 176
-0.971146, 145, 313, 208, 375
-0.971269, 289, 25, 416, 88
-0.971301, 433, 305, 496, 368
-0.971359, 321, 57, 384, 120
-0.971404, 257, 241, 320, 368
-0.97141, 81, 97, 144, 352
-0.971461, 49, 25, 176, 88
-0.971498, 57, 97, 120, 352
-0.971579, 57, 113, 120, 240
-0.97162, 225, 97, 288, 352
-0.971634, 385, 1, 416, 128
-0.971666, 241, 97, 304, 160
-0.971691, 73, 233, 136, 296
-0.971764, 105, 97, 168, 352
-0.971984, 49, 233, 112, 296
-0.972092, 113, 289, 176, 352
-0.97212, 41, 1, 104, 256
-0.972291, 337, 217, 400, 280
-0.972364, 225, 281, 352, 344
-0.972387, 9, 1, 40, 128
-0.972605, 73, 121, 136, 184
-0.972667, 401, 65, 464, 128
-0.972782, 393, 81, 424, 208
-0.972846, 57, 1, 88, 128
-0.972862, 201, 161, 264, 224
-0.972995, 129, 249, 192, 312
-0.973, 17, 1, 80, 256
-0.973054, 265, 1, 296, 128
-0.973174, 81, 209, 144, 272
-0.973183, 249, 97, 312, 352
-0.973189, 57, 25, 88, 88
-0.973205, 113, 25, 144, 88
-0.973207, 85, 25, 116, 88
-0.973218, 465, 65, 496, 192
-0.973276, 1, 17, 128, 80
-0.973392, 261, 25, 292, 88
-0.973477, 209, 97, 272, 160
-0.973565, 313, 217, 376, 280
-0.973613, 241, 153, 304, 216
-0.973709, 209, 1, 272, 64
-0.973731, 249, 1, 312, 64
-0.973807, 1, 161, 64, 288
-0.973812, 345, 1, 408, 256
-0.973843, 257, 305, 384, 368
-0.973877, 97, 25, 224, 88
-0.97392, 425, 1, 488, 256
-0.973987, 413, 129, 444, 256
-0.974024, 313, 9, 376, 72
-0.974047, 113, 1, 176, 256
-0.974231, 77, 1, 108, 128
-0.974285, 321, 281, 448, 344
-0.974307, 393, 297, 424, 360
-0.974336, 45, 17, 76, 80
-0.974448, 353, 169, 416, 232
-0.974531, 121, 121, 184, 184
-0.974572, 153, 233, 216, 296
-0.974607, 41, 297, 104, 360
-0.974679, 273, 241, 400, 304
-0.974701, 281, 25, 312, 88
-0.974704, 265, 1, 328, 256
-0.974865, 169, 313, 232, 375
-0.974941, 349, 305, 380, 368
-0.974948, 41, 137, 72, 200
-0.975092, 73, 17, 104, 80
-0.975111, 29, 17, 60, 80
-0.975184, 393, 273, 424, 336
-0.975193, 369, 201, 432, 264
-0.975227, 121, 161, 184, 224
-0.975231, 369, 153, 496, 216
-0.975272, 133, 1, 164, 128
-0.9753, 369, 33, 400, 96
-0.975345, 9, 17, 40, 80
-0.975403, 89, 1, 120, 128
-0.975453, 393, 1, 456, 256
-0.975548, 17, 137, 48, 200
-0.975603, 393, 257, 456, 320
-0.975644, 301, 25, 332, 88
-0.975676, 297, 169, 360, 232
-0.975677, 61, 49, 92, 176
-0.975689, 33, 49, 160, 112
-0.97573, 425, 65, 488, 128
-0.975731, 229, 1, 260, 128
-0.975744, 433, 153, 496, 216
-0.975762, 329, 81, 392, 208
-0.975776, 101, 17, 132, 80
-0.975814, 465, 89, 496, 152
-0.975846, 185, 161, 216, 288
-0.975855, 345, 129, 408, 192
-0.975895, 221, 177, 252, 304
-0.975924, 97, 193, 224, 256
-0.975928, 21, 1, 52, 128
-0.975988, 329, 25, 360, 88
-0.975995, 305, 97, 368, 224
-0.976007, 177, 129, 304, 192
-0.976062, 369, 17, 400, 144
-0.976065, 353, 225, 384, 352
-0.97612, 197, 161, 228, 288
-0.976147, 369, 113, 496, 176
-0.976252, 285, 17, 316, 144
-0.976267, 393, 89, 424, 152
-0.976484, 313, 273, 376, 336
-0.976497, 193, 129, 256, 375
-0.976542, 1, 265, 128, 328
-0.976571, 149, 17, 180, 144
-0.976751, 73, 73, 136, 136
-0.976823, 405, 129, 436, 192
-0.976847, 321, 1, 384, 256
-0.976951, 17, 257, 48, 320
-0.976955, 337, 1, 400, 64
-0.977099, 169, 25, 200, 88
-0.977107, 329, 161, 392, 224
-0.977108, 17, 97, 144, 160
-0.977113, 373, 65, 404, 128
-0.977116, 297, 249, 360, 312
-0.977165, 305, 129, 368, 192
-0.97717, 321, 89, 448, 152
-0.977185, 373, 289, 404, 352
-0.9772, 113, 97, 240, 160
-0.977237, 161, 161, 192, 288
-0.977272, 41, 97, 72, 160
-0.977279, 97, 121, 160, 184
-0.977322, 85, 241, 116, 368
-0.977333, 53, 137, 84, 200
-0.97736, 381, 41, 412, 104
-0.977372, 289, 193, 352, 320
-0.977407, 241, 1, 272, 128
-0.977426, 153, 305, 184, 368
-0.977438, 413, 153, 444, 216
-0.977475, 373, 265, 404, 328
-0.977487, 1, 209, 64, 272
-0.977488, 237, 25, 268, 88
-0.977513, 425, 121, 456, 184
-0.977537, 133, 17, 164, 80
-0.977557, 225, 25, 352, 88
-0.977578, 33, 129, 96, 375
-0.977579, 49, 257, 176, 320
-0.977635, 369, 129, 432, 375
-0.977636, 225, 249, 352, 312
-0.977647, 329, 313, 360, 375
-0.977668, 33, 1, 64, 128
-0.977669, 161, 313, 288, 375
-0.977679, 193, 57, 256, 120
-0.977681, 145, 249, 272, 312
-0.977709, 157, 25, 188, 88
-0.977753, 105, 1, 136, 128
-0.977761, 113, 313, 240, 375
-0.977818, 361, 9, 424, 72
-0.97787, 121, 1, 152, 128
-0.977881, 241, 193, 272, 320
-0.977923, 177, 113, 208, 240
-0.977972, 205, 17, 236, 144
-0.978037, 393, 217, 424, 280
-0.978075, 113, 73, 176, 136
-0.978075, 265, 97, 328, 160
-0.978083, 61, 97, 92, 160
-0.978137, 1, 177, 128, 240
-0.978171, 417, 97, 480, 352
-0.978205, 389, 241, 420, 304
-0.978247, 257, 1, 384, 64
-0.978252, 129, 1, 192, 64
-0.978314, 281, 129, 312, 192
-0.978357, 217, 1, 248, 128
-0.978393, 345, 97, 408, 160
-0.978393, 385, 65, 416, 128
-0.978409, 253, 1, 284, 128
-0.978429, 409, 305, 440, 368
-0.978447, 173, 49, 204, 112
-0.978449, 221, 225, 252, 352
-0.97851, 97, 177, 160, 240
-0.978534, 345, 97, 408, 352
-0.978551, 361, 313, 392, 375
-0.978669, 73, 225, 104, 352
-0.97876, 173, 17, 204, 144
-0.978782, 289, 281, 352, 344
-0.978793, 17, 113, 48, 176
-0.978796, 29, 137, 60, 200
-0.978809, 17, 297, 80, 360
-0.978855, 337, 129, 400, 256
-0.978968, 321, 129, 448, 192
-0.978984, 353, 65, 480, 128
-0.978987, 233, 249, 264, 312
-0.979043, 17, 113, 48, 240
-0.979062, 289, 57, 416, 120
-0.979064, 265, 225, 328, 288
-0.979069, 81, 1, 144, 64
-0.979073, 209, 193, 240, 320
-0.979124, 81, 49, 112, 176
-0.979175, 405, 17, 436, 144
-0.979183, 429, 305, 460, 368
-0.979241, 353, 257, 480, 320
-0.979247, 425, 193, 488, 320
-0.979321, 209, 161, 336, 224
-0.979334, 157, 65, 188, 128
-0.979367, 277, 49, 308, 112
-0.979398, 269, 145, 300, 272
-0.979423, 161, 289, 288, 352
-0.979503, 49, 129, 176, 192
-0.979527, 317, 25, 348, 88
-0.979565, 321, 169, 448, 232
-0.979631, 29, 265, 60, 328
-0.979643, 97, 217, 224, 280
-0.979742, 413, 241, 444, 368
-0.979788, 329, 225, 360, 288
-0.979886, 121, 1, 184, 375
-0.979986, 281, 97, 344, 352
-0.979995, 209, 225, 336, 288
-0.980029, 17, 233, 144, 296
-0.980086, 173, 89, 204, 152
-0.980137, 61, 273, 92, 336
-0.980167, 129, 129, 256, 192
-0.980192, 345, 33, 376, 96
-0.980203, 161, 97, 192, 224
-0.980379, 329, 225, 360, 352
-0.980413, 209, 97, 336, 160
-0.980422, 357, 33, 388, 96
-0.980445, 217, 113, 248, 240
-0.980511, 5, 193, 36, 256
-0.980542, 97, 161, 224, 224
-0.980546, 1, 137, 128, 200
-0.980566, 217, 25, 248, 88
-0.980586, 305, 1, 336, 128
-0.980592, 241, 201, 368, 264
-0.980629, 45, 241, 76, 368
-0.980633, 157, 89, 188, 152
-0.980649, 193, 49, 320, 112
-0.980707, 345, 217, 376, 280
-0.980726, 321, 193, 448, 256
-0.980799, 129, 57, 256, 120
-0.980813, 49, 49, 80, 112
-0.980826, 17, 297, 144, 360
-0.980881, 45, 273, 76, 336
-0.980894, 173, 177, 204, 304
-0.980896, 185, 1, 216, 128
-0.980921, 309, 225, 340, 352
-0.980937, 265, 249, 296, 312
-0.98098, 5, 217, 36, 280
-0.981041, 17, 209, 144, 272
-0.981103, 17, 209, 48, 336
-0.981145, 445, 121, 476, 184
-0.981242, 209, 241, 240, 368
-0.981261, 469, 113, 500, 240
-0.981277, 145, 17, 176, 80
-0.981297, 9, 129, 72, 375
-0.981302, 305, 1, 432, 64
-0.981321, 145, 1, 208, 375
-0.981373, 285, 145, 316, 272
-0.981391, 369, 1, 432, 375
-0.981394, 249, 273, 280, 336
-0.981404, 301, 249, 332, 312
-0.981417, 233, 145, 264, 272
-0.98143, 253, 249, 284, 312
-0.98146, 305, 177, 336, 304
-0.981564, 321, 129, 384, 375
-0.981599, 269, 129, 300, 192
-0.981619, 161, 209, 288, 272
-0.981678, 189, 25, 220, 88
-0.981685, 17, 169, 48, 232
-0.981759, 277, 249, 308, 312
-0.981778, 41, 49, 72, 176
-0.9818, 205, 25, 236, 88
-0.981917, 337, 33, 464, 96
-0.981928, 89, 193, 120, 320
-0.981947, 253, 1, 284, 64
-0.982127, 9, 1, 72, 375
-0.98213, 57, 241, 88, 368
-0.982198, 161, 169, 192, 232
-0.982202, 101, 225, 132, 288
-0.982212, 233, 241, 264, 368
-0.982229, 393, 161, 424, 288
-0.982241, 413, 225, 444, 288
-0.982266, 161, 97, 288, 160
-0.982288, 33, 241, 64, 368
-0.982302, 253, 193, 284, 320
-0.98233, 85, 225, 116, 288
-0.982342, 241, 129, 368, 192
-0.982363, 169, 225, 200, 352
-0.982418, 93, 65, 124, 192
-0.982465, 457, 297, 488, 360
-0.982517, 161, 169, 288, 232
-0.982518, 109, 49, 140, 176
-0.982533, 161, 1, 192, 128
-0.98261, 37, 57, 68, 120
-0.982681, 441, 305, 472, 368
-0.98274, 417, 73, 448, 136
-0.982791, 217, 289, 248, 352
-0.982816, 233, 281, 264, 344
-0.982859, 373, 313, 404, 375
-0.982863, 97, 241, 224, 304
-0.982863, 297, 129, 328, 192
-0.982902, 49, 73, 176, 136
-0.982913, 197, 209, 228, 336
-0.982914, 337, 1, 400, 375
-0.982957, 249, 25, 280, 88
-0.98307, 461, 161, 492, 288
-0.983073, 425, 113, 456, 240
-0.983074, 113, 1, 240, 64
-0.983149, 65, 313, 192, 375
-0.983184, 465, 129, 496, 192
-0.983194, 409, 1, 472, 375
-0.983221, 273, 265, 400, 328
-0.983253, 257, 145, 288, 272
-0.983275, 101, 49, 132, 112
-0.983287, 101, 193, 132, 320
-0.983295, 61, 49, 92, 112
-0.983317, 149, 241, 180, 368
-0.983327, 1, 137, 32, 200
-0.983362, 29, 97, 60, 160
-0.983408, 305, 1, 368, 375
-0.983418, 81, 49, 208, 112
-0.983468, 317, 145, 348, 272
-0.983475, 69, 297, 100, 360
-0.983492, 141, 145, 172, 272
-0.983495, 5, 161, 36, 224
-0.98355, 289, 225, 320, 352
-0.983582, 201, 1, 264, 375
-0.983715, 337, 1, 368, 64
-0.983744, 213, 249, 244, 312
-0.983751, 97, 1, 160, 375
-0.98377, 209, 313, 240, 375
-0.983779, 5, 193, 36, 320
-0.983783, 81, 265, 112, 328
-0.983783, 49, 153, 176, 216
-0.983852, 105, 97, 168, 224
-0.983909, 205, 129, 236, 192
-0.983935, 225, 129, 256, 192
-0.984005, 337, 1, 368, 128
-0.984031, 381, 49, 412, 176
-0.984043, 353, 1, 384, 128
-0.984053, 101, 305, 132, 368
-0.984069, 165, 233, 196, 296
-0.984175, 393, 137, 424, 200
-0.98422, 285, 273, 316, 336
-0.984244, 405, 193, 436, 320
-0.984282, 393, 169, 424, 232
-0.984292, 393, 113, 424, 176
-0.984305, 401, 65, 432, 128
-0.984338, 373, 241, 404, 304
-0.984365, 265, 49, 296, 112
-0.984367, 469, 297, 500, 360
-0.984405, 241, 49, 368, 112
-0.984414, 273, 169, 400, 232
-0.98443, 205, 113, 236, 240
-0.984458, 33, 1, 96, 375
-0.98446, 77, 177, 108, 304
-0.984485, 377, 193, 408, 320
-0.984558, 241, 1, 304, 375
-0.984558, 329, 201, 360, 264
-0.984591, 249, 313, 280, 375
-0.984623, 1, 145, 32, 272
-0.984702, 269, 65, 300, 192
-0.984709, 341, 225, 372, 352
-0.98473, 181, 161, 212, 224
-0.984768, 125, 145, 156, 272
-0.98477, 53, 113, 84, 240
-0.984807, 97, 289, 224, 352
-0.98481, 433, 1, 496, 375
-0.984817, 357, 281, 388, 344
-0.98491, 393, 129, 456, 375
-0.984927, 369, 201, 496, 264
-0.98496, 205, 89, 236, 152
-0.984993, 145, 193, 176, 320
-0.98502, 245, 145, 276, 272
-0.985042, 33, 97, 96, 224
-0.985052, 425, 241, 456, 368
-0.985124, 173, 185, 204, 248
-0.985142, 285, 97, 316, 224
-0.985151, 465, 169, 496, 232
-0.985161, 69, 129, 100, 192
-0.985178, 297, 49, 328, 112
-0.985212, 1, 65, 32, 192
-0.985223, 113, 49, 144, 112
-0.985227, 349, 1, 380, 64
-0.98525, 249, 121, 280, 184
-0.985254, 117, 193, 148, 320
-0.985269, 369, 177, 496, 240
-0.985275, 289, 97, 320, 160
-0.985283, 101, 241, 132, 368
-0.985286, 385, 17, 416, 80
-0.985302, 269, 1, 300, 64
-0.985338, 193, 1, 320, 64
-0.985359, 177, 1, 240, 375
-0.985388, 265, 193, 296, 320
-0.985531, 57, 1, 120, 375
-0.985533, 325, 1, 356, 128
-0.985827, 65, 97, 192, 160
-0.986074, 113, 145, 144, 272
-0.986087, 49, 1, 176, 64
-0.986172, 121, 241, 152, 368
-0.98618, 245, 241, 276, 368
-0.986212, 101, 113, 132, 240
-0.986287, 369, 281, 496, 344
-0.986489, 49, 185, 176, 248
-0.986524, 257, 89, 384, 152
-0.986546, 453, 241, 484, 368
-0.986646, 329, 145, 360, 272
-0.986723, 13, 49, 44, 176
-0.986759, 425, 17, 456, 144
-0.98677, 357, 177, 388, 304
-0.986777, 457, 113, 488, 240
-0.986807, 453, 33, 484, 160
-0.986839, 121, 65, 152, 192
-0.98686, 345, 177, 376, 304
-0.986867, 129, 193, 160, 320
-0.98698, 29, 49, 60, 176
-0.987001, 369, 233, 496, 296
-0.987212, 253, 97, 284, 224
-0.987308, 65, 161, 96, 288
-0.987404, 193, 113, 224, 240
-0.987422, 241, 65, 272, 192
-0.987525, 445, 129, 476, 256
-0.987527, 41, 129, 72, 256
-0.987545, 281, 1, 344, 375
-0.987559, 437, 33, 468, 160
-0.987786, 277, 193, 308, 320
-0.987888, 437, 241, 468, 368
-0.987935, 221, 65, 252, 192
-0.98795, 301, 113, 332, 240
-0.988078, 265, 241, 296, 368
-0.988085, 17, 161, 48, 288
-0.988224, 193, 281, 448, 344
-0.988407, 193, 73, 320, 136
-0.988471, 361, 289, 424, 320
-0.988588, 353, 9, 480, 72
-0.988596, 169, 169, 232, 200
-0.988602, 337, 313, 400, 344
-0.988747, 337, 345, 400, 375
-0.988802, 361, 277, 424, 308
-0.988811, 9, 261, 72, 292
-0.989004, 401, 93, 464, 124
-0.989008, 209, 313, 336, 375
-0.989025, 337, 325, 400, 356
-0.98903, 193, 241, 448, 304
-0.989036, 65, 53, 128, 84
-0.989107, 1, 265, 256, 328
-0.989183, 361, 33, 424, 64
-0.9892, 33, 261, 96, 292
-0.989252, 49, 173, 112, 204
-0.989284, 361, 337, 424, 368
-0.989293, 33, 93, 96, 124
-0.989408, 1, 17, 500, 80
-0.989462, 209, 173, 272, 204
-0.989471, 361, 301, 424, 332
-0.9895, 41, 53, 104, 84
-0.989502, 193, 161, 256, 192
-0.989526, 73, 309, 136, 340
-0.989535, 193, 25, 448, 88
-0.989538, 97, 25, 352, 88
-0.989573, 337, 301, 400, 332
-0.989648, 377, 93, 440, 124
-0.989654, 369, 265, 432, 296
-0.989663, 337, 33, 400, 64
-0.989678, 377, 225, 440, 256
-0.98969, 305, 29, 368, 60
-0.989759, 17, 165, 80, 196
-0.989814, 265, 129, 328, 160
-0.989853, 153, 157, 216, 188
-0.989911, 153, 189, 216, 220
-0.989923, 17, 177, 80, 208
-0.989955, 145, 53, 208, 84
-0.989983, 409, 141, 472, 172
-0.990009, 121, 309, 184, 340
-0.990029, 1, 21, 64, 52
-0.990072, 81, 181, 144, 212
-0.990075, 113, 165, 176, 196
-0.99008, 409, 153, 472, 184
-0.990105, 73, 193, 136, 224
-0.990109, 73, 165, 136, 196
-0.990115, 113, 21, 176, 52
-0.990116, 313, 301, 376, 332
-0.990117, 217, 125, 280, 156
-0.990128, 289, 129, 352, 160
-0.990133, 361, 61, 424, 92
-0.990137, 33, 197, 96, 228
-0.990147, 185, 125, 248, 156
-0.990159, 1, 9, 256, 72
-0.990162, 113, 193, 176, 224
-0.990163, 281, 29, 344, 60
-0.990169, 217, 161, 280, 192
-0.990178, 385, 309, 448, 340
-0.990185, 97, 57, 160, 88
-0.990193, 177, 185, 240, 216
-0.990193, 433, 93, 496, 124
-0.990262, 113, 177, 176, 208
-0.990288, 169, 25, 232, 56
-0.990296, 129, 41, 192, 72
-0.990297, 145, 313, 208, 344
-0.990301, 57, 265, 120, 296
-0.99032, 257, 57, 320, 88
-0.990329, 81, 21, 144, 52
-0.990345, 169, 57, 232, 88
-0.990349, 17, 125, 80, 156
-0.990357, 305, 185, 368, 216
-0.990357, 177, 197, 240, 228
-0.990371, 73, 89, 136, 120
-0.990373, 433, 81, 496, 112
-0.990388, 209, 25, 272, 56
-0.990404, 233, 25, 296, 56
-0.990408, 393, 113, 456, 144
-0.99041, 17, 277, 80, 308
-0.990416, 169, 309, 232, 340
-0.990435, 33, 21, 96, 52
-0.990438, 113, 261, 176, 292
-0.990445, 33, 305, 96, 336
-0.990451, 201, 329, 264, 360
-0.990462, 145, 25, 208, 56
-0.990483, 433, 113, 496, 144
-0.990498, 273, 165, 336, 196
-0.9905, 9, 93, 72, 124
-0.990502, 345, 237, 408, 268
-0.990508, 257, 37, 320, 68
-0.990541, 49, 185, 112, 216
-0.990555, 153, 201, 216, 232
-0.990558, 361, 325, 424, 356
-0.99056, 121, 321, 184, 352
-0.990586, 169, 141, 232, 172
-0.990593, 241, 129, 304, 160
-0.990637, 361, 77, 424, 108
-0.990664, 57, 21, 120, 52
-0.990667, 329, 125, 392, 156
-0.990682, 361, 49, 424, 80
-0.990684, 9, 249, 72, 280
-0.990708, 1, 201, 64, 232
-0.990709, 209, 185, 272, 216
-0.990718, 169, 257, 232, 288
-0.990722, 113, 141, 176, 172
-0.990725, 233, 177, 296, 208
-0.990735, 129, 125, 192, 156
-0.990737, 121, 205, 184, 236
-0.990753, 169, 89, 232, 120
-0.990763, 409, 129, 472, 160
-0.990765, 281, 245, 344, 276
-0.990768, 97, 309, 160, 340
-0.990775, 321, 225, 384, 256
-0.990794, 257, 277, 320, 308
-0.990802, 337, 289, 400, 320
-0.990811, 57, 33, 120, 64
-0.990822, 337, 45, 400, 76
-0.990845, 105, 33, 168, 64
-0.990851, 81, 321, 144, 352
-0.990853, 393, 345, 456, 375
-0.990855, 153, 129, 216, 160
-0.990856, 385, 297, 448, 328
-0.990859, 1, 33, 64, 64
-0.990867, 137, 249, 200, 280
-0.990869, 313, 325, 376, 356
-0.990874, 201, 313, 264, 344
-0.990878, 257, 25, 320, 56
-0.990882, 329, 173, 392, 204
-0.99089, 305, 41, 368, 72
-0.990892, 137, 173, 200, 204
-0.990892, 97, 249, 352, 312
-0.990899, 393, 237, 456, 268
-0.990903, 369, 237, 432, 268
-0.990909, 433, 157, 496, 188
-0.990915, 49, 161, 112, 192
-0.99093, 401, 81, 464, 112
-0.990947, 209, 301, 272, 332
-0.990949, 73, 125, 136, 156
-0.990957, 273, 345, 336, 375
-0.990957, 1, 137, 64, 168
-0.991008, 225, 65, 480, 128
-0.991052, 1, 57, 256, 120
-0.991237, 225, 217, 480, 280
-0.991255, 1, 73, 128, 136
-0.991522, 225, 137, 480, 200
-0.991562, 305, 49, 368, 176
-0.991582, 225, 313, 480, 375
-0.991627, 97, 161, 352, 224
-0.991963, 1, 105, 256, 168
-0.992038, 97, 129, 352, 192
-0.992088, 1, 241, 500, 304
-0.992108, 1, 129, 500, 192
-0.992136, 153, 313, 184, 344
-0.99227, 413, 229, 444, 260
-0.992281, 61, 173, 92, 204
-0.992296, 349, 301, 380, 332
-0.99233, 389, 33, 420, 64
-0.992352, 53, 53, 84, 84
-0.992402, 385, 53, 416, 84
-0.992445, 369, 65, 400, 96
-0.992449, 97, 281, 352, 344
-0.992456, 145, 165, 176, 196
-0.992467, 161, 189, 192, 220
-0.992472, 17, 261, 48, 292
-0.992474, 81, 181, 112, 212
-0.992477, 209, 169, 240, 200
-0.99248, 41, 133, 72, 164
-0.992484, 37, 257, 68, 288
-0.992493, 401, 93, 432, 124
-0.9925, 353, 313, 384, 344
-0.992527, 393, 269, 424, 300
-0.992528, 197, 165, 228, 196
-0.992529, 333, 321, 364, 352
-0.992529, 109, 57, 140, 88
-0.99253, 97, 181, 128, 212
-0.992537, 1, 33, 256, 96
-0.992548, 333, 337, 364, 368
-0.992549, 277, 129, 308, 160
-0.992553, 237, 173, 268, 204
-0.992555, 289, 129, 320, 160
-0.992556, 161, 173, 192, 204
-0.992566, 349, 325, 380, 356
-0.992569, 221, 173, 252, 204
-0.992571, 393, 301, 424, 332
-0.992575, 317, 29, 348, 60
-0.992576, 381, 65, 412, 96
-0.992581, 433, 89, 464, 120
-0.992584, 329, 29, 360, 60
-0.992586, 389, 89, 420, 120
-0.992597, 425, 113, 456, 144
-0.992598, 177, 161, 208, 192
-0.9926, 49, 165, 80, 196
-0.992601, 21, 201, 52, 232
-0.992602, 225, 161, 256, 192
-0.992604, 89, 53, 120, 84
-0.992608, 413, 97, 444, 128
-0.992609, 337, 309, 368, 340
-0.992613, 17, 129, 48, 160
-0.992621, 173, 53, 204, 84
-0.992622, 381, 341, 412, 372
-0.992639, 257, 89, 500, 152
-0.992639, 181, 197, 212, 228
-0.992641, 53, 261, 84, 292
-0.992647, 61, 93, 92, 124
-0.992651, 393, 249, 424, 280
-0.992652, 369, 33, 400, 64
-0.992655, 353, 341, 384, 372
-0.992658, 97, 165, 128, 196
-0.992659, 373, 325, 404, 356
-0.992661, 109, 181, 140, 212
-0.992667, 445, 89, 476, 120
-0.99267, 1, 169, 256, 232
-0.992672, 33, 169, 64, 200
-0.992677, 153, 41, 184, 72
-0.992682, 177, 177, 208, 208
-0.992686, 197, 181, 228, 212
-0.992689, 301, 165, 332, 196
-0.992693, 133, 21, 164, 52
-0.992694, 57, 133, 88, 164
-0.992696, 285, 57, 316, 88
-0.992697, 157, 161, 188, 192
-0.992699, 317, 185, 348, 216
-0.9927, 345, 229, 376, 260
-0.992709, 377, 277, 408, 308
-0.992713, 405, 141, 436, 172
-0.992715, 293, 37, 324, 68
-0.992719, 221, 129, 252, 160
-0.99272, 465, 85, 496, 116
-0.99272, 389, 289, 420, 320
-0.99272, 357, 33, 388, 64
-0.992721, 85, 165, 116, 196
-0.992725, 73, 165, 104, 196
-0.992728, 33, 57, 64, 88
-0.992729, 73, 309, 104, 340
-0.992729, 145, 177, 176, 208
-0.992734, 49, 177, 80, 208
-0.99274, 49, 89, 80, 120
-0.99274, 61, 185, 92, 216
-0.992743, 409, 217, 440, 248
-0.992746, 405, 341, 436, 372
-0.992752, 249, 173, 280, 204
-0.992755, 333, 129, 364, 160
-0.992758, 109, 193, 140, 224
-0.99276, 209, 181, 240, 212
-0.992763, 81, 193, 112, 224
-0.992767, 77, 53, 108, 84
-0.992773, 413, 241, 444, 272
-0.992777, 25, 249, 56, 280
-0.992778, 5, 21, 36, 52
-0.99278, 401, 229, 432, 260
-0.99278, 345, 33, 376, 64
-0.992783, 229, 21, 260, 52
-0.992785, 129, 193, 160, 224
-0.992785, 57, 21, 88, 52
-0.992785, 33, 93, 64, 124
-0.992786, 377, 261, 408, 292
-0.992787, 157, 25, 188, 56
-0.99279, 209, 25, 240, 56
-0.992791, 41, 21, 72, 52
-0.992792, 133, 57, 164, 88
-0.992793, 13, 185, 44, 216
-0.992795, 33, 201, 64, 232
-0.992801, 241, 25, 272, 56
-0.992801, 93, 193, 124, 224
-0.992803, 25, 21, 56, 52
-0.992805, 29, 129, 60, 160
-0.99281, 373, 309, 404, 340
-0.992811, 69, 21, 100, 52
-0.992812, 373, 289, 404, 320
-0.992812, 153, 57, 184, 88
-0.992813, 197, 193, 228, 224
-0.992816, 445, 101, 476, 132
-0.99282, 197, 25, 228, 56
-0.992821, 445, 141, 476, 172
-0.992828, 309, 45, 340, 76
-0.992829, 145, 189, 176, 220
-0.992831, 85, 21, 116, 52
-0.992837, 165, 261, 196, 292
-0.992837, 301, 249, 332, 280
-0.992838, 45, 193, 76, 224
-0.992839, 233, 285, 264, 316
-0.992841, 117, 165, 148, 196
-0.992842, 9, 33, 40, 64
-0.992844, 373, 237, 404, 268
-0.992849, 161, 125, 192, 156
-0.99285, 97, 21, 128, 52
-0.99291, 97, 1, 352, 64
-0.992966, 305, 329, 432, 360
-0.993046, 1, 41, 500, 104
-0.993092, 97, 65, 352, 128
-0.993105, 193, 1, 448, 64
-0.99313, 1, 161, 500, 224
-0.993138, 161, 97, 416, 160
-0.993304, 1, 129, 256, 192
-0.99335, 423, 89, 438, 152
-0.993375, 1, 281, 500, 344
-0.993479, 33, 53, 160, 84
-0.993493, 177, 129, 304, 160
-0.993495, 417, 89, 432, 152
-0.993604, 257, 185, 500, 248
-0.993622, 369, 161, 496, 192
-0.99363, 1, 313, 500, 375
-0.993669, 289, 41, 416, 72
-0.993708, 49, 165, 176, 196
-0.99372, 97, 225, 352, 288
-0.993761, 175, 25, 190, 88
-0.993782, 1, 181, 128, 212
-0.993799, 409, 89, 424, 152
-0.99381, 193, 161, 448, 224
-0.993828, 97, 165, 224, 196
-0.993884, 321, 245, 448, 276
-0.993898, 61, 25, 76, 88
-0.993933, 429, 89, 444, 152
-0.993964, 417, 121, 432, 184
-0.993965, 439, 89, 454, 152
-0.993966, 1, 253, 128, 284
-0.994017, 105, 25, 120, 88
-0.994035, 481, 89, 496, 152
-0.994037, 97, 265, 224, 328
-0.994063, 71, 25, 86, 88
-0.994102, 321, 225, 448, 256
-0.994134, 97, 193, 224, 224
-0.994148, 305, 293, 432, 324
-0.994166, 1, 81, 256, 144
-0.994172, 97, 193, 352, 256
-0.99421, 305, 305, 432, 336
-0.994214, 113, 17, 128, 80
-0.994225, 65, 313, 320, 375
-0.994242, 209, 281, 336, 312
-0.994245, 285, 25, 300, 88
-0.994248, 77, 25, 92, 88
-0.994252, 241, 29, 368, 60
-0.994257, 209, 173, 336, 204
-0.994272, 55, 25, 70, 88
-0.994276, 17, 201, 144, 232
-0.994277, 289, 29, 416, 60
-0.994282, 81, 181, 208, 212
-0.994286, 161, 173, 288, 204
-0.994309, 177, 161, 304, 192
-0.994321, 157, 305, 172, 368
-0.994327, 275, 25, 290, 88
-0.994336, 353, 297, 368, 360
-0.994341, 369, 125, 496, 156
-0.994347, 173, 49, 188, 112
-0.994351, 353, 209, 368, 272
-0.994351, 161, 317, 288, 348
-0.994357, 471, 89, 486, 152
-0.994367, 49, 17, 64, 80
-0.994373, 113, 53, 240, 84
-0.994381, 295, 25, 310, 88
-0.994443, 83, 17, 98, 80
-0.994475, 161, 25, 288, 56
-0.994503, 353, 93, 480, 124
-0.99451, 127, 25, 142, 88
-0.994513, 97, 341, 224, 372
-0.994515, 57, 137, 72, 200
-0.994528, 251, 25, 266, 88
-0.994555, 95, 25, 110, 88
-0.994555, 305, 341, 432, 372
-0.994559, 1, 185, 500, 248
-0.994565, 89, 17, 104, 80
-0.994612, 257, 113, 500, 176
-0.994625, 177, 345, 304, 375
-0.994635, 449, 89, 464, 152
-0.994635, 209, 249, 336, 280
-0.994639, 305, 25, 320, 88
-0.994644, 39, 17, 54, 80
-0.994668, 119, 17, 134, 80
-0.994671, 177, 185, 304, 216
-0.994677, 397, 265, 412, 328
-0.994691, 413, 153, 428, 216
-0.994691, 305, 317, 432, 348
-0.994695, 365, 297, 380, 360
-0.994706, 339, 17, 354, 80
-0.994732, 459, 89, 474, 152
-0.99476, 369, 309, 496, 340
-0.994778, 257, 325, 384, 356
-0.994778, 1, 21, 128, 52
-0.994789, 137, 9, 152, 72
-0.994792, 11, 17, 26, 80
-0.994792, 49, 265, 176, 296
-0.994804, 29, 265, 44, 328
-0.994824, 1, 209, 256, 272
-0.994829, 1, 65, 500, 128
-0.994832, 383, 33, 398, 96
-0.994839, 403, 225, 418, 288
-0.994841, 269, 25, 284, 88
-0.994841, 81, 309, 208, 340
-0.994865, 305, 177, 432, 208
-0.994868, 1, 265, 128, 296
-0.994894, 79, 297, 94, 360
-0.994907, 311, 25, 326, 88
-0.994916, 113, 321, 240, 352
-0.994929, 261, 25, 276, 88
-0.994934, 17, 213, 144, 244
-0.994939, 253, 249, 268, 312
-0.994945, 369, 149, 496, 180
-0.994947, 465, 89, 480, 152
-0.994984, 17, 249, 32, 312
-0.995023, 423, 113, 438, 176
-0.995024, 113, 125, 240, 156
-0.995026, 393, 1, 424, 256
-0.995028, 145, 25, 160, 88
-0.995035, 1, 97, 500, 160
-0.995039, 29, 17, 44, 80
-0.995044, 81, 21, 208, 52
-0.995045, 283, 129, 298, 192
-0.995056, 333, 25, 348, 88
-0.995078, 183, 25, 198, 88
-0.995078, 415, 305, 430, 368
-0.99508, 49, 265, 64, 328
-0.995085, 33, 137, 48, 200
-0.995093, 145, 241, 272, 272
-0.995097, 163, 25, 178, 88
-0.995124, 387, 257, 402, 320
-0.99513, 129, 305, 256, 336
-0.99513, 163, 289, 178, 352
-0.995158, 257, 345, 384, 375
-0.995179, 75, 273, 90, 336
-0.995182, 213, 313, 228, 375
-0.995187, 237, 249, 252, 312
-0.995203, 151, 17, 166, 80
-0.995205, 177, 37, 304, 68
-0.995215, 33, 129, 160, 160
-0.995219, 1, 169, 128, 200
-0.995223, 375, 33, 390, 96
-0.995229, 383, 65, 398, 128
-0.995235, 321, 25, 336, 88
-0.995237, 43, 257, 58, 320
-0.995242, 35, 265, 50, 328
-0.995243, 109, 217, 124, 280
-0.995259, 345, 313, 360, 375
-0.99526, 1, 89, 128, 120
-0.995272, 421, 305, 436, 368
-0.995273, 393, 33, 408, 96
-0.99528, 439, 113, 454, 176
-0.995283, 81, 41, 208, 72
-0.995285, 257, 61, 384, 92
-0.995286, 23, 17, 38, 80
-0.995294, 69, 273, 84, 336
-0.995302, 65, 89, 192, 120
-0.995303, 245, 17, 260, 80
-0.995305, 427, 305, 442, 368
-0.995307, 175, 89, 190, 152
-0.995316, 1, 277, 128, 308
-0.995325, 17, 17, 32, 80
-0.995334, 409, 305, 424, 368
-0.995334, 321, 165, 448, 196
-0.995336, 1, 209, 500, 272
-0.995339, 161, 257, 288, 288
-0.99534, 353, 25, 368, 88
-0.995345, 273, 165, 400, 196
-0.995352, 21, 161, 36, 224
-0.995362, 167, 313, 182, 375
-0.995364, 273, 269, 400, 300
-0.995366, 361, 33, 376, 96
-0.995376, 193, 57, 320, 88
-0.995378, 347, 25, 362, 88
-0.995385, 243, 249, 258, 312
-0.995389, 241, 129, 368, 160
-0.995391, 57, 97, 72, 160
-0.995399, 43, 137, 58, 200
-0.995411, 23, 257, 38, 320
-0.995413, 97, 253, 224, 284
-0.995418, 447, 305, 462, 368
-0.995419, 1, 33, 128, 64
-0.995419, 399, 65, 414, 128
-0.995441, 17, 137, 32, 200
-0.995455, 43, 97, 58, 160
-0.995458, 353, 269, 480, 300
-0.995465, 153, 1, 184, 256
-0.995469, 469, 33, 500, 288
-0.995479, 265, 249, 280, 312
-0.995501, 167, 49, 182, 112
-0.995502, 291, 49, 306, 112
-0.995503, 169, 25, 184, 88
-0.995506, 369, 137, 496, 168
-0.995516, 305, 77, 432, 108
-0.995526, 293, 249, 308, 312
-0.995536, 257, 185, 384, 216
-0.995545, 177, 201, 304, 232
-0.995551, 61, 273, 76, 336
-0.995553, 321, 257, 448, 288
-0.995562, 19, 113, 34, 176
-0.995563, 55, 273, 70, 336
-0.995566, 63, 105, 78, 168
-0.995589, 273, 245, 400, 276
-0.995594, 215, 25, 230, 88
-0.995597, 353, 285, 480, 316
-0.9956, 441, 305, 456, 368
-0.995601, 257, 305, 384, 336
-0.995608, 369, 113, 496, 144
-0.995613, 303, 249, 318, 312
-0.995618, 225, 161, 352, 192
-0.995626, 359, 305, 374, 368
-0.995638, 57, 49, 72, 112
-0.99564, 305, 53, 432, 84
-0.995649, 189, 25, 204, 88
-0.995661, 177, 1, 208, 256
-0.995665, 273, 233, 400, 264
-0.995668, 279, 249, 294, 312
-0.995668, 391, 225, 406, 288
-0.995676, 229, 25, 244, 88
-0.995683, 259, 249, 274, 312
-0.995687, 21, 201, 36, 264
-0.995694, 223, 25, 238, 88
-0.995699, 413, 209, 428, 272
-0.995704, 287, 249, 302, 312
-0.995706, 433, 305, 448, 368
-0.995707, 239, 25, 254, 88
-0.995725, 367, 33, 382, 96
-0.995731, 285, 49, 300, 112
-0.995738, 109, 49, 124, 112
-0.995742, 289, 129, 416, 160
-0.995743, 1, 233, 256, 296
-0.995755, 179, 185, 194, 248
-0.995771, 469, 297, 484, 360
-0.995778, 169, 169, 184, 232
-0.995778, 231, 249, 246, 312
-0.995796, 11, 129, 26, 192
-0.995802, 179, 49, 194, 112
-0.995807, 1, 305, 128, 336
-0.995814, 353, 81, 480, 112
-0.995822, 353, 333, 480, 364
-0.995823, 129, 89, 256, 120
-0.99584, 305, 17, 432, 48
-0.995858, 209, 17, 336, 48
-0.99589, 321, 141, 448, 172
-0.995935, 217, 1, 248, 256
-0.995955, 369, 345, 496, 375
-0.995961, 321, 197, 448, 228
-0.995961, 17, 1, 48, 256
-0.995995, 301, 1, 332, 256
-0.995996, 193, 329, 320, 360
-0.995999, 209, 237, 336, 268
-0.996006, 265, 1, 296, 256
-0.99601, 197, 1, 228, 256
-0.996023, 257, 221, 384, 252
-0.99603, 33, 1, 64, 256
-0.996034, 49, 249, 176, 280
-0.996043, 353, 213, 480, 244
-0.996073, 113, 97, 144, 352
-0.996073, 209, 141, 336, 172
-0.996082, 65, 205, 192, 236
-0.996082, 225, 197, 352, 228
-0.996133, 161, 141, 288, 172
-0.996134, 49, 321, 176, 352
-0.996135, 257, 17, 384, 48
-0.996151, 141, 1, 172, 256
-0.99617, 1, 1, 32, 256
-0.996176, 53, 1, 84, 256
-0.996202, 165, 97, 196, 352
-0.996208, 449, 33, 480, 288
-0.996219, 337, 37, 464, 68
-0.99623, 289, 1, 320, 256
-0.996273, 177, 305, 304, 336
-0.996294, 129, 37, 256, 68
-0.996302, 49, 65, 176, 96
-0.996308, 381, 1, 412, 256
-0.996309, 321, 109, 448, 140
-0.996355, 369, 173, 496, 204
-0.99636, 141, 97, 172, 352
-0.996368, 209, 293, 336, 324
-0.996382, 113, 209, 240, 240
-0.996386, 165, 1, 196, 256
-0.996386, 313, 1, 344, 256
-0.9964, 245, 1, 276, 256
-0.996415, 201, 97, 232, 352
-0.99643, 277, 1, 308, 256
-0.996439, 305, 89, 432, 120
-0.996465, 85, 97, 116, 352
-0.996467, 257, 293, 384, 324
-0.996476, 229, 1, 260, 256
-0.996488, 65, 1, 96, 256
-0.99649, 289, 281, 416, 312
-0.99649, 369, 321, 496, 352
-0.996492, 97, 1, 128, 256
-0.99652, 413, 65, 444, 320
-0.996523, 353, 69, 480, 100
-0.996566, 241, 41, 368, 72
-0.996581, 273, 197, 400, 228
-0.996592, 129, 153, 256, 184
-0.996614, 249, 97, 280, 352
-0.996624, 41, 129, 72, 375
-0.996625, 113, 69, 240, 100
-0.996632, 145, 293, 272, 324
-0.996664, 129, 109, 256, 140
-0.996667, 1, 65, 128, 96
-0.996682, 393, 97, 424, 352
-0.996694, 113, 1, 144, 256
-0.996695, 177, 69, 304, 100
-0.996708, 101, 97, 132, 352
-0.996747, 257, 141, 384, 172
-0.996748, 213, 97, 244, 352
-0.996751, 369, 237, 496, 268
-0.996755, 1, 145, 128, 176
-0.996781, 377, 97, 408, 352
-0.996782, 49, 109, 176, 140
-0.996811, 129, 1, 160, 256
-0.996822, 229, 97, 260, 352
-0.996843, 1, 289, 256, 352
-0.996879, 17, 237, 144, 268
-0.996906, 257, 5, 384, 36
-0.996917, 97, 241, 224, 272
-0.996918, 321, 153, 448, 184
-0.996936, 49, 297, 176, 328
-0.996943, 81, 153, 208, 184
-0.996944, 209, 117, 336, 148
-0.996997, 177, 97, 208, 352
-0.997041, 261, 97, 292, 352
-0.997046, 17, 129, 48, 375
-0.997061, 189, 129, 220, 375
-0.997083, 73, 173, 88, 204
-0.997093, 337, 325, 352, 356
-0.997095, 77, 1, 108, 256
-0.997109, 385, 345, 400, 375
-0.997109, 281, 129, 312, 375
-0.99715, 129, 97, 160, 352
-0.997161, 355, 297, 370, 328
-0.997168, 75, 305, 90, 336
-0.997176, 425, 225, 440, 256
-0.997178, 365, 301, 380, 332
-0.997208, 329, 1, 360, 256
-0.997215, 25, 197, 40, 228
-0.997243, 157, 313, 172, 344
-0.997256, 339, 21, 354, 52
-0.997295, 429, 65, 460, 320
-0.997295, 353, 217, 368, 248
-0.997307, 369, 1, 400, 256
-0.997341, 225, 177, 240, 208
-0.997345, 343, 317, 358, 348
-0.997354, 65, 173, 80, 204
-0.997373, 79, 173, 94, 204
-0.997386, 301, 97, 332, 352
-0.997394, 409, 93, 424, 124
-0.997412, 233, 173, 248, 204
-0.997413, 111, 181, 126, 212
-0.997413, 219, 173, 234, 204
-0.997414, 253, 321, 268, 352
-0.997423, 45, 265, 60, 296
-0.99744, 85, 181, 100, 212
-0.997444, 173, 53, 188, 84
-0.997448, 465, 129, 496, 375
-0.997491, 415, 149, 430, 180
-0.9975, 243, 173, 258, 204
-0.997503, 297, 129, 312, 160
-0.997512, 457, 89, 472, 120
-0.997517, 53, 129, 84, 375
-0.99752, 153, 129, 184, 375
-0.997521, 375, 65, 390, 96
-0.997521, 439, 113, 454, 144
-0.997529, 351, 325, 366, 356
-0.997537, 117, 181, 132, 212
-0.997538, 41, 165, 56, 196
-0.997564, 383, 33, 398, 64
-0.997567, 389, 257, 404, 288
-0.997569, 39, 93, 54, 124
-0.997576, 397, 33, 412, 64
-0.997581, 213, 169, 228, 200
-0.997581, 99, 181, 114, 212
-0.997583, 415, 93, 430, 124
-0.997587, 353, 341, 368, 372
-0.997593, 157, 165, 172, 196
-0.997608, 249, 173, 264, 204
-0.997609, 23, 257, 38, 288
-0.997617, 201, 181, 216, 212
-0.997627, 53, 165, 68, 196
-0.997648, 429, 101, 444, 132
-0.99765, 231, 161, 246, 192
-0.997655, 75, 193, 90, 224
-0.997656, 225, 161, 240, 192
-0.997657, 37, 197, 52, 228
-0.997659, 385, 61, 400, 92
-0.99766, 45, 89, 60, 120
-0.997674, 249, 333, 264, 364
-0.997676, 37, 257, 52, 288
-0.997676, 163, 309, 178, 340
-0.997678, 479, 89, 494, 120
-0.997679, 173, 33, 188, 64
-0.99768, 365, 33, 380, 64
-0.997681, 93, 181, 108, 212
-0.997691, 249, 25, 264, 56
-0.997693, 117, 57, 132, 88
-0.997695, 353, 1, 384, 256
-0.997699, 171, 317, 186, 348
-0.9977, 421, 141, 436, 172
-0.997707, 365, 313, 380, 344
-0.997712, 105, 181, 120, 212
-0.997714, 73, 97, 104, 352
-0.997721, 199, 169, 214, 200
-0.997725, 149, 165, 164, 196
-0.997725, 51, 257, 66, 288
-0.997726, 193, 161, 208, 192
-0.997726, 167, 157, 182, 188
-0.997728, 333, 29, 348, 60
-0.997729, 45, 253, 60, 284
-0.997731, 361, 97, 392, 352
-0.997735, 325, 245, 340, 276
-0.997738, 35, 173, 50, 204
-0.99774, 375, 33, 390, 64
-0.997743, 57, 177, 72, 208
-0.997745, 29, 129, 60, 375
-0.997747, 401, 93, 416, 124
-0.997747, 359, 33, 374, 64
-0.99775, 69, 193, 84, 224
-0.997752, 467, 89, 482, 120
-0.997755, 71, 261, 86, 292
-0.997756, 443, 89, 458, 120
-0.997756, 59, 53, 74, 84
-0.997761, 55, 133, 70, 164
-0.997766, 345, 29, 360, 60
-0.997766, 101, 165, 116, 196
-0.997771, 75, 53, 90, 84
-0.997773, 429, 89, 444, 120
-0.997775, 289, 129, 304, 160
-0.997776, 421, 89, 436, 120
-0.997781, 389, 33, 404, 64
-0.997782, 485, 81, 500, 112
-0.997788, 27, 185, 42, 216
-0.99779, 331, 317, 346, 348
-0.997792, 55, 21, 70, 52
-0.997792, 473, 89, 488, 120
-0.997797, 425, 237, 440, 268
-0.9978, 333, 97, 364, 352
-0.997801, 137, 21, 152, 52
-0.997806, 227, 25, 242, 56
-0.997807, 239, 161, 254, 192
-0.997807, 213, 25, 228, 56
-0.997808, 407, 289, 422, 320
-0.997814, 5, 97, 36, 352
-0.997816, 21, 129, 36, 160
-0.997816, 163, 41, 178, 72
-0.997819, 403, 33, 418, 64
-0.997825, 409, 341, 424, 372
-0.997829, 171, 249, 186, 280
-0.99783, 261, 317, 276, 348
-0.997837, 353, 33, 368, 64
-0.997838, 109, 213, 124, 244
-0.997841, 105, 193, 120, 224
-0.997843, 303, 37, 318, 68
-0.997848, 321, 29, 336, 60
-0.99785, 109, 165, 124, 196
-0.99785, 419, 225, 434, 256
-0.99785, 85, 193, 100, 224
-0.997852, 207, 181, 222, 212
-0.997855, 389, 173, 404, 204
-0.997855, 49, 61, 64, 92
-0.997857, 105, 53, 120, 84
-0.99786, 81, 309, 96, 340
-0.997861, 59, 165, 74, 196
-0.997862, 49, 21, 64, 52
-0.997865, 57, 269, 72, 300
-0.997865, 215, 189, 230, 220
-0.997866, 169, 261, 184, 292
-0.997868, 315, 165, 330, 196
-0.997869, 123, 193, 138, 224
-0.997869, 409, 109, 424, 140
-0.997872, 29, 257, 44, 288
-0.997909, 341, 1, 372, 256
-0.998166, 317, 97, 348, 352
-0.998245, 349, 97, 380, 352
-0.998394, 169, 167, 232, 182
-0.998398, 337, 313, 400, 328
-0.998424, 337, 319, 400, 334
-0.998425, 33, 271, 96, 286
-0.998427, 361, 291, 424, 306
-0.99843, 361, 283, 424, 298
-0.998446, 153, 161, 216, 176
-0.998447, 329, 325, 392, 340
-0.99845, 101, 317, 132, 332
-0.99845, 353, 347, 384, 362
-0.99845, 373, 343, 404, 358
-0.998451, 161, 169, 192, 184
-0.998452, 109, 137, 140, 152
-0.998452, 73, 309, 136, 324
-0.998452, 257, 315, 288, 330
-0.998453, 437, 93, 468, 108
-0.998453, 329, 313, 360, 328
-0.998454, 153, 325, 184, 340
-0.998454, 5, 189, 36, 204
-0.998455, 337, 339, 400, 354
-0.998455, 301, 171, 332, 186
-0.998456, 97, 131, 128, 146
-0.998456, 353, 341, 384, 356
-0.998456, 33, 179, 64, 194
-0.998457, 61, 267, 92, 282
-0.998457, 409, 245, 440, 260
-0.998458, 33, 99, 96, 114
-0.998458, 173, 177, 204, 192
-0.998459, 121, 205, 152, 220
-0.998459, 37, 261, 68, 276
-0.998459, 41, 269, 72, 284
-0.998459, 329, 225, 360, 240
-0.99846, 265, 93, 296, 108
-0.99846, 361, 339, 424, 354
-0.99846, 233, 21, 264, 36
-0.99846, 69, 205, 100, 220
-0.998461, 121, 129, 152, 144
-0.998462, 361, 277, 424, 292
-0.998463, 373, 285, 404, 300
-0.998463, 337, 301, 400, 316
-0.998463, 153, 307, 184, 322
-0.998464, 369, 269, 432, 284
-0.998464, 189, 201, 220, 216
-0.998465, 265, 61, 328, 76
-0.998465, 329, 305, 360, 320
-0.998466, 261, 175, 292, 190
-0.998466, 273, 175, 304, 190
-0.998466, 445, 153, 476, 168
-0.998466, 161, 205, 192, 220
-0.998466, 249, 95, 280, 110
-0.998467, 73, 317, 104, 332
-0.998467, 161, 191, 192, 206
-0.998468, 333, 133, 364, 148
-0.998468, 9, 273, 72, 288
-0.998469, 25, 253, 56, 268
-0.99847, 29, 167, 60, 182
-0.99847, 317, 133, 348, 148
-0.99847, 105, 179, 136, 194
-0.998471, 361, 297, 424, 312
-0.998472, 389, 49, 420, 64
-0.998472, 145, 165, 176, 180
-0.998473, 33, 93, 96, 108
-0.998473, 465, 219, 496, 234
-0.998474, 93, 179, 124, 194
-0.998474, 417, 107, 448, 122
-0.998475, 397, 269, 428, 284
-0.998475, 377, 307, 440, 322
-0.998475, 153, 177, 216, 192
-0.998475, 77, 93, 108, 108
-0.998476, 373, 325, 404, 340
-0.998477, 81, 179, 112, 194
-0.998479, 185, 175, 216, 190
-0.99848, 373, 291, 404, 306
-0.99848, 53, 55, 84, 70
-0.99848, 397, 95, 428, 110
-0.99848, 361, 37, 424, 52
-0.998481, 41, 95, 72, 110
-0.998481, 393, 237, 424, 252
-0.998481, 437, 101, 468, 116
-0.998481, 257, 137, 320, 152
-0.998482, 373, 319, 404, 334
-0.998482, 73, 319, 136, 334
-0.998483, 353, 301, 384, 316
-0.998484, 25, 261, 56, 276
-0.998484, 337, 347, 400, 362
-0.998484, 201, 201, 232, 216
-0.998485, 345, 129, 376, 144
-0.998485, 17, 171, 48, 186
-0.998485, 253, 321, 284, 336
-0.998486, 97, 55, 128, 70
-0.998486, 169, 57, 200, 72
-0.998487, 249, 279, 312, 294
-0.998487, 85, 313, 116, 328
-0.998487, 377, 101, 440, 116
-0.998488, 105, 65, 136, 80
-0.998488, 61, 97, 92, 112
-0.998488, 113, 313, 176, 328
-0.998488, 249, 197, 280, 212
-0.998489, 253, 65, 284, 80
-0.998489, 341, 317, 372, 332
-0.998492, 465, 85, 496, 100
-0.998492, 41, 177, 104, 192
-0.998492, 361, 69, 424, 84
-0.998494, 277, 127, 308, 142
-0.998494, 393, 277, 424, 292
-0.998494, 385, 237, 448, 252
-0.998495, 381, 353, 412, 368
-0.998495, 445, 107, 476, 122
-0.998495, 149, 209, 180, 224
-0.998495, 393, 93, 456, 108
-0.998497, 385, 75, 416, 90
-0.998497, 41, 55, 104, 70
-0.998497, 373, 331, 404, 346
-0.998498, 405, 343, 436, 358
-0.9985, 53, 65, 84, 80
-0.9985, 33, 55, 64, 70
-0.998501, 333, 345, 364, 360
-0.998501, 45, 179, 76, 194
-0.998501, 33, 173, 64, 188
-0.998502, 313, 307, 376, 322
-0.998502, 373, 337, 404, 352
-0.998504, 33, 61, 64, 76
-0.998505, 281, 135, 344, 150
-0.998505, 161, 175, 192, 190
-0.998505, 293, 137, 324, 152
-0.998506, 9, 95, 72, 110
-0.998506, 105, 63, 168, 78
-0.998507, 49, 63, 112, 78
-0.998509, 177, 199, 240, 214
-0.998509, 185, 175, 248, 190
-0.99851, 33, 141, 64, 156
-0.998511, 137, 207, 200, 222
-0.998512, 197, 165, 228, 180
-0.998513, 41, 275, 72, 290
-0.998513, 169, 67, 232, 82
-0.998513, 73, 179, 136, 194
-0.998514, 349, 223, 380, 238
-0.998515, 1, 179, 64, 194
-0.998515, 393, 305, 424, 320
-0.998516, 113, 179, 176, 194
-0.998516, 17, 137, 48, 152
-0.998518, 393, 111, 456, 126
-0.998519, 417, 101, 448, 116
-0.998519, 249, 315, 312, 330
-0.998519, 21, 209, 52, 224
-0.998519, 53, 273, 84, 288
-0.99852, 333, 339, 364, 354
-0.99852, 269, 315, 300, 330
-0.998521, 337, 353, 400, 368
-0.998522, 433, 107, 496, 122
-0.998523, 377, 275, 408, 290
-0.998523, 329, 321, 360, 336
-0.998523, 217, 65, 280, 80
-0.998524, 273, 175, 336, 190
-0.998525, 401, 101, 464, 116
-0.998525, 261, 59, 292, 74
-0.998525, 17, 205, 80, 220
-0.998526, 409, 143, 472, 158
-0.998526, 393, 103, 424, 118
-0.998526, 229, 201, 260, 216
-0.998527, 345, 333, 408, 348
-0.998527, 209, 175, 272, 190
-0.998529, 121, 321, 184, 336
-0.998529, 153, 359, 216, 374
-0.99853, 353, 319, 384, 334
-0.99853, 377, 345, 440, 360
-0.998532, 217, 203, 280, 218
-0.998532, 361, 239, 424, 254
-0.998534, 145, 57, 208, 72
-0.998534, 273, 359, 336, 374
-0.998535, 73, 57, 136, 72
-0.998536, 169, 313, 232, 328
-0.998536, 113, 209, 176, 224
-0.998536, 17, 171, 80, 186
-0.998537, 265, 129, 328, 144
-0.998538, 209, 135, 272, 150
-0.998538, 353, 171, 416, 186
-0.998538, 241, 65, 304, 80
-0.998538, 217, 93, 280, 108
-0.998539, 233, 175, 296, 190
-0.998539, 197, 173, 228, 188
-0.99854, 409, 121, 472, 136
-0.99854, 423, 81, 438, 208
-0.99854, 161, 161, 192, 176
-0.998542, 169, 319, 232, 334
-0.998542, 33, 305, 96, 320
-0.998542, 9, 279, 72, 294
-0.998543, 225, 197, 288, 212
-0.998544, 297, 171, 360, 186
-0.998544, 337, 225, 400, 240
-0.998545, 177, 137, 240, 152
-0.998545, 121, 329, 184, 344
-0.998546, 145, 321, 208, 336
-0.998546, 113, 131, 176, 146
-0.998546, 269, 133, 300, 148
-0.998547, 337, 43, 400, 58
-0.998548, 409, 161, 472, 176
-0.998548, 53, 169, 84, 184
-0.998549, 409, 149, 472, 164
-0.998549, 17, 263, 80, 278
-0.99855, 17, 271, 48, 286
-0.99855, 409, 93, 440, 108
-0.99855, 385, 63, 416, 78
-0.998551, 337, 359, 400, 374
-0.998551, 389, 37, 420, 52
-0.998551, 1, 187, 64, 202
-0.998552, 17, 165, 80, 180
-0.998552, 257, 165, 320, 180
-0.998552, 45, 137, 76, 152
-0.998553, 73, 93, 136, 108
-0.998553, 413, 229, 444, 244
-0.998553, 177, 129, 240, 144
-0.998554, 133, 209, 164, 224
-0.998555, 433, 307, 496, 322
-0.998555, 321, 129, 384, 144
-0.998555, 401, 85, 464, 100
-0.998555, 337, 307, 400, 322
-0.998556, 17, 129, 80, 144
-0.998556, 73, 131, 136, 146
-0.998557, 41, 69, 104, 84
-0.998557, 281, 313, 344, 328
-0.998558, 393, 257, 424, 272
-0.998558, 433, 155, 496, 170
-0.998559, 353, 75, 416, 90
-0.998559, 249, 93, 312, 108
-0.998559, 433, 87, 496, 102
-0.99856, 241, 59, 304, 74
-0.99856, 57, 135, 88, 150
-0.998561, 369, 263, 432, 278
-0.998561, 377, 231, 440, 246
-0.998561, 217, 129, 280, 144
-0.998562, 417, 93, 480, 108
-0.998562, 413, 239, 444, 254
-0.998563, 425, 219, 488, 234
-0.998564, 265, 195, 328, 210
-0.998564, 65, 265, 128, 280
-0.998564, 393, 245, 456, 260
-0.998565, 9, 63, 72, 78
-0.998566, 121, 263, 184, 278
-0.998567, 9, 139, 72, 154
-0.998569, 289, 129, 352, 144
-0.998569, 345, 129, 408, 144
-0.998569, 49, 171, 112, 186
-0.998569, 313, 301, 376, 316
-0.99857, 137, 201, 168, 216
-0.99857, 305, 317, 368, 332
-0.998571, 385, 267, 416, 282
-0.998571, 153, 319, 184, 334
-0.998572, 305, 33, 368, 48
-0.998573, 153, 193, 216, 208
-0.998573, 161, 327, 224, 342
-0.998573, 313, 341, 376, 356
-0.998574, 249, 351, 312, 366
-0.998574, 145, 315, 208, 330
-0.998574, 145, 65, 208, 80
-0.998585, 289, 131, 320, 146
-0.998593, 153, 313, 184, 328
-0.9986, 177, 165, 208, 180
-0.998606, 385, 69, 416, 84
-0.998607, 439, 81, 454, 208
-0.998619, 365, 69, 396, 84
-0.998635, 409, 81, 424, 208
-0.998636, 349, 311, 380, 326
-0.998678, 67, 1, 82, 128
-0.998693, 247, 1, 262, 128
-0.998719, 49, 1, 64, 128
-0.998721, 83, 1, 98, 128
-0.998731, 415, 81, 430, 208
-0.998734, 449, 81, 464, 208
-0.998738, 429, 65, 444, 192
-0.998744, 61, 1, 76, 128
-0.99876, 73, 1, 88, 128
-0.998763, 459, 81, 474, 208
-0.998763, 37, 1, 52, 128
-0.998784, 55, 1, 70, 128
-0.998799, 239, 1, 254, 128
-0.998804, 225, 241, 240, 368
-0.998833, 201, 161, 216, 288
-0.998835, 383, 1, 398, 128
-0.998838, 229, 1, 244, 128
-0.998843, 395, 17, 410, 144
-0.998845, 207, 161, 222, 288
-0.998845, 453, 129, 484, 375
-0.998847, 231, 177, 246, 304
-0.998852, 469, 65, 484, 192
-0.998855, 385, 225, 400, 352
-0.998857, 137, 1, 152, 128
-0.998861, 413, 145, 428, 272
-0.998871, 281, 1, 296, 128
-0.998871, 235, 225, 250, 352
-0.998873, 185, 177, 200, 304
-0.998875, 19, 1, 34, 128
-0.998878, 267, 1, 282, 128
-0.998886, 259, 1, 274, 128
-0.998888, 291, 17, 306, 144
-0.99889, 101, 1, 116, 128
-0.9989, 117, 1, 132, 128
-0.998902, 253, 1, 268, 128
-0.998903, 217, 225, 232, 352
-0.998904, 395, 241, 410, 368
-0.998908, 221, 17, 236, 144
-0.998918, 365, 225, 380, 352
-0.998918, 299, 17, 314, 144
-0.998924, 11, 1, 26, 128
-0.998924, 173, 17, 188, 144
-0.99893, 89, 1, 104, 128
-0.998935, 161, 241, 176, 368
-0.998936, 77, 49, 92, 176
-0.998938, 375, 1, 390, 128
-0.998938, 273, 1, 288, 128
-0.998942, 377, 241, 392, 368
-0.998944, 169, 193, 184, 320
-0.998949, 165, 17, 180, 144
-0.998949, 153, 17, 168, 144
-0.998953, 111, 1, 126, 128
-0.998956, 403, 81, 418, 208
-0.998959, 225, 193, 240, 320
-0.998959, 213, 17, 228, 144
-0.998962, 407, 17, 422, 144
-0.998965, 95, 1, 110, 128
-0.998966, 123, 1, 138, 128
-0.998976, 481, 81, 496, 208
-0.998979, 403, 225, 418, 352
-0.998984, 431, 113, 446, 240
-0.998992, 191, 17, 206, 144
-0.998996, 207, 17, 222, 144
-0.999, 469, 145, 484, 272
-0.999001, 195, 161, 210, 288
-0.999001, 25, 1, 40, 128
-0.999006, 475, 81, 490, 208
-0.999006, 201, 1, 216, 128
-0.999007, 357, 225, 372, 352
-0.999013, 145, 17, 160, 144
-0.999014, 213, 145, 228, 272
-0.999014, 179, 177, 194, 304
-0.999016, 245, 193, 260, 320
-0.999019, 89, 49, 104, 176
-0.99902, 413, 241, 428, 368
-0.999028, 369, 1, 384, 128
-0.999033, 241, 241, 256, 368
-0.999035, 211, 209, 226, 336
-0.999039, 31, 1, 46, 128
-0.99904, 277, 145, 292, 272
-0.999041, 75, 241, 90, 368
-0.999041, 419, 129, 434, 256
-0.999042, 61, 49, 76, 176
-0.999046, 15, 145, 30, 272
-0.999048, 83, 241, 98, 368
-0.99905, 179, 113, 194, 240
-0.999058, 423, 241, 438, 368
-0.99906, 43, 1, 58, 128
-0.999065, 159, 193, 174, 320
-0.999066, 37, 241, 52, 368
-0.999067, 351, 209, 366, 336
-0.999067, 69, 241, 84, 368
-0.99907, 109, 209, 124, 336
-0.999073, 413, 33, 428, 160
-0.999073, 21, 209, 36, 336
-0.999076, 99, 241, 114, 368
-0.999076, 389, 1, 404, 128
-0.999076, 429, 241, 444, 368
-0.999077, 179, 17, 194, 144
-0.999077, 21, 113, 36, 240
-0.99908, 63, 241, 78, 368
-0.999082, 131, 1, 146, 128
-0.999082, 89, 241, 104, 368
-0.999086, 401, 1, 416, 128
-0.999093, 131, 145, 146, 272
-0.999095, 241, 145, 256, 272
-0.999098, 281, 65, 296, 192
-0.999101, 115, 193, 130, 320
-0.999108, 267, 145, 282, 272
-0.99911, 317, 225, 332, 352
-0.999112, 185, 1, 200, 128
-0.999112, 11, 97, 26, 224
-0.999113, 257, 193, 272, 320
-0.999114, 389, 49, 404, 176
-0.999114, 157, 145, 172, 272
-0.999114, 283, 145, 298, 272
-0.999116, 103, 193, 118, 320
-0.999121, 307, 193, 322, 320
-0.999122, 171, 241, 186, 368
-0.999128, 5, 1, 20, 128
-0.999131, 205, 241, 220, 368
-0.999133, 475, 161, 490, 288
-0.999134, 303, 145, 318, 272
-0.999135, 45, 241, 60, 368
-0.999146, 325, 225, 340, 352
-0.99915, 339, 1, 354, 128
-0.99915, 273, 97, 288, 224
-0.999154, 93, 161, 108, 288
-0.999629, 481, 93, 496, 108
-0.999629, 367, 71, 382, 86
-0.999629, 81, 167, 96, 182
-0.999629, 21, 251, 36, 266
-0.999629, 49, 67, 64, 82
-0.999629, 61, 205, 76, 220
-0.999629, 353, 345, 368, 360
-0.99963, 221, 177, 236, 192
-0.999631, 203, 171, 218, 186
-0.999632, 73, 95, 88, 110
-0.999632, 63, 129, 78, 144
-0.999632, 73, 273, 88, 288
-0.999633, 191, 203, 206, 218
-0.999633, 437, 93, 452, 108
-0.999633, 279, 175, 294, 190
-0.999634, 267, 93, 282, 108
-0.999634, 439, 117, 454, 132
-0.999634, 43, 101, 58, 116
-0.999635, 375, 341, 390, 356
-0.999635, 405, 47, 420, 62
-0.999635, 251, 323, 266, 338
-0.999635, 53, 181, 68, 196
-0.999635, 263, 175, 278, 190
-0.999636, 173, 57, 188, 72
-0.999637, 203, 165, 218, 180
-0.999637, 61, 273, 76, 288
-0.999637, 263, 319, 278, 334
-0.999637, 203, 355, 218, 370
-0.999638, 353, 233, 368, 248
-0.999638, 467, 87, 482, 102
-0.999638, 413, 105, 428, 120
-0.999638, 279, 313, 294, 328
-0.999638, 55, 167, 70, 182
-0.999638, 247, 331, 262, 346
-0.999639, 385, 73, 400, 88
-0.999639, 73, 63, 88, 78
-0.99964, 99, 179, 114, 194
-0.99964, 47, 91, 62, 106
-0.99964, 45, 269, 60, 284
-0.99964, 249, 197, 264, 212
-0.99964, 157, 167, 172, 182
-0.999641, 303, 135, 318, 150
-0.999641, 403, 261, 418, 276
-0.999642, 77, 101, 92, 116
-0.999642, 41, 95, 56, 110
-0.999643, 165, 309, 180, 324
-0.999643, 243, 199, 258, 214
-0.999644, 337, 329, 352, 344
-0.999645, 67, 209, 82, 224
-0.999646, 105, 179, 120, 194
-0.999646, 243, 19, 258, 34
-0.999647, 325, 259, 340, 274
-0.999647, 397, 301, 412, 316
-0.999648, 273, 175, 288, 190
-0.999648, 77, 205, 92, 220
-0.999649, 269, 137, 284, 152
-0.99965, 39, 175, 54, 190
-0.999651, 27, 255, 42, 270
-0.999651, 409, 343, 424, 358
-0.999651, 117, 179, 132, 194
-0.999653, 485, 171, 500, 186
-0.999653, 59, 179, 74, 194
-0.999653, 39, 169, 54, 184
-0.999653, 41, 275, 56, 290
-0.999653, 177, 161, 192, 176
-0.999654, 431, 237, 446, 252
-0.999654, 413, 93, 428, 108
-0.999655, 189, 177, 204, 192
-0.999656, 169, 189, 184, 204
-0.999656, 137, 207, 152, 222
-0.999657, 393, 257, 408, 272
-0.999657, 309, 133, 324, 148
-0.999657, 79, 307, 94, 322
-0.999658, 347, 321, 362, 336
-0.999658, 111, 179, 126, 194
-0.999659, 47, 61, 62, 76
-0.999659, 155, 321, 170, 336
-0.999659, 115, 351, 130, 366
-0.999659, 401, 93, 416, 108
-0.99966, 233, 201, 248, 216
-0.99966, 39, 55, 54, 70
-0.99966, 365, 317, 380, 332
-0.99966, 401, 267, 416, 282
-0.999661, 183, 177, 198, 192
-0.999661, 45, 167, 60, 182
-0.999662, 263, 329, 278, 344
-0.999663, 297, 135, 312, 150
-0.999663, 167, 161, 182, 176
-0.999665, 161, 329, 176, 344
-0.999665, 53, 275, 68, 290
-0.999666, 77, 323, 92, 338
-0.999667, 53, 135, 68, 150
-0.999671, 385, 67, 400, 82
-0.999671, 47, 275, 62, 290
-0.999672, 109, 311, 124, 326
-0.999672, 143, 201, 158, 216
-0.999676, 193, 167, 208, 182
-0.999677, 237, 19, 252, 34
-0.999677, 355, 301, 370, 316
-0.999678, 435, 111, 450, 126
-0.999678, 195, 175, 210, 190
-0.999679, 339, 23, 354, 38
-0.99968, 159, 313, 174, 328
-0.999684, 425, 241, 440, 256
-0.999686, 157, 203, 172, 218
-0.999686, 397, 45, 412, 60
-0.999689, 253, 329, 268, 344
-0.999689, 425, 235, 440, 250
-0.99969, 111, 65, 126, 80
-0.999691, 335, 321, 350, 336
-0.999694, 471, 217, 486, 232
-0.999697, 265, 313, 280, 328
-0.999698, 23, 209, 38, 224
-0.999702, 377, 69, 392, 84
-0.999705, 171, 329, 186, 344
-0.999706, 389, 265, 404, 280
-0.999712, 151, 209, 166, 224
-0.999714, 45, 177, 60, 192
-0.999716, 403, 37, 418, 52
-0.999718, 365, 311, 380, 326
-0.999719, 341, 321, 356, 336
-0.999724, 385, 347, 400, 362
-0.999727, 429, 101, 444, 116
-0.999729, 425, 229, 440, 244
-0.999729, 257, 321, 272, 336
-0.999732, 293, 129, 308, 144
-0.999732, 33, 207, 48, 222
-0.999738, 349, 339, 364, 354
-0.999739, 59, 137, 74, 152
-0.999755, 353, 221, 368, 236
-0.999868, 441, 129, 472, 375
