2048
-0.763565, 1, 129, 500, 375
-0.78007, 1, 1, 500, 256
-0.932867, 1, 1, 500, 375
-0.944921, 193, 1, 448, 375
-0.949064, 1, 1, 256, 375
-0.97219, 97, 1, 352, 375
-0.972284, 225, 1, 352, 375
-0.975878, 145, 1, 272, 375
-0.978281, 193, 129, 320, 375
-0.978832, 145, 129, 272, 375
-0.984076, 241, 169, 272, 232
-0.985075, 209, 161, 272, 224
-0.985212, 97, 1, 224, 375
-0.985569, 1, 1, 128, 375
-0.985569, 49, 1, 176, 375
-0.985569, 273, 1, 400, 375
-0.985569, 321, 1, 448, 375
-0.985569, 369, 1, 496, 375
-0.985762, 209, 33, 336, 288
-0.986018, 113, 33, 240, 288
-0.987224, 225, 185, 288, 248
-0.989846, 229, 153, 260, 216
-0.99187, 237, 145, 268, 272
-0.991948, 225, 189, 288, 220
-0.99216, 209, 165, 272, 196
-0.992251, 209, 177, 272, 208
-0.992804, 241, 181, 272, 212
-0.992877, 233, 177, 296, 208
-0.993009, 233, 165, 264, 196
-0.993125, 185, 173, 248, 204
-0.993129, 161, 161, 288, 224
-0.993204, 233, 161, 296, 192
-0.993242, 233, 145, 296, 208
-0.993353, 221, 177, 252, 208
-0.993458, 129, 161, 384, 288
-0.99349, 245, 149, 276, 180
-0.993496, 245, 169, 276, 200
-0.99351, 253, 189, 284, 220
-0.993535, 229, 193, 260, 224
-0.993565, 221, 165, 252, 196
-0.993575, 221, 205, 252, 236
-0.993578, 233, 153, 264, 184
-0.993594, 241, 193, 272, 224
-0.99362, 201, 153, 264, 184
-0.993695, 201, 189, 264, 220
-0.99372, 261, 173, 292, 204
-0.993756, 217, 161, 248, 224
-0.993783, 217, 193, 248, 224
-0.993807, 209, 169, 240, 200
-0.993827, 241, 149, 304, 180
-0.993828, 233, 209, 264, 240
-0.993867, 233, 141, 264, 172
-0.993934, 221, 153, 252, 184
-0.993954, 193, 209, 256, 240
-0.993958, 209, 157, 240, 188
-0.993981, 265, 185, 296, 216
-0.994003, 253, 137, 284, 168
-0.994043, 257, 173, 320, 204
-0.9941, 209, 205, 240, 236
-0.994113, 197, 165, 228, 196
-0.994113, 201, 141, 264, 172
-0.99412, 221, 217, 252, 248
-0.99413, 233, 129, 264, 160
-0.994137, 257, 161, 288, 192
-0.994148, 265, 197, 296, 228
-0.994154, 205, 193, 236, 224
-0.994157, 161, 145, 288, 272
-0.994188, 221, 141, 252, 172
-0.99419, 257, 149, 288, 180
-0.994198, 225, 201, 288, 232
-0.994221, 253, 125, 284, 156
-0.994236, 189, 153, 220, 184
-0.99424, 209, 181, 240, 212
-0.99425, 233, 221, 264, 252
-0.994259, 277, 185, 308, 216
-0.994259, 245, 205, 276, 236
-0.994274, 1, 161, 500, 288
-0.994279, 273, 173, 304, 204
-0.99428, 185, 165, 216, 196
-0.994288, 245, 217, 276, 248
-0.994295, 197, 177, 228, 208
-0.994299, 205, 145, 236, 176
-0.994306, 193, 197, 224, 228
-0.994311, 241, 117, 272, 148
-0.994323, 213, 129, 244, 160
-0.994325, 397, 321, 428, 352
-0.994325, 409, 321, 440, 352
-0.994325, 421, 321, 452, 352
-0.994325, 433, 321, 464, 352
-0.994325, 445, 321, 476, 352
-0.994325, 457, 321, 488, 352
-0.994325, 469, 321, 500, 352
-0.994325, 1, 333, 32, 364
-0.994325, 13, 333, 44, 364
-0.994325, 25, 333, 56, 364
-0.994325, 37, 333, 68, 364
-0.994325, 49, 333, 80, 364
-0.994325, 61, 333, 92, 364
-0.994325, 73, 333, 104, 364
-0.994325, 85, 333, 116, 364
-0.994325, 97, 333, 128, 364
-0.994325, 109, 333, 140, 364
-0.994325, 121, 333, 152, 364
-0.994325, 133, 333, 164, 364
-0.994325, 145, 333, 176, 364
-0.994325, 157, 333, 188, 364
-0.994325, 169, 333, 200, 364
-0.994325, 181, 333, 212, 364
-0.994325, 193, 333, 224, 364
-0.994325, 205, 333, 236, 364
-0.994325, 217, 333, 248, 364
-0.994325, 229, 333, 260, 364
-0.994325, 241, 333, 272, 364
-0.994325, 253, 333, 284, 364
-0.994325, 265, 333, 296, 364
-0.994325, 277, 333, 308, 364
-0.994325, 289, 333, 320, 364
-0.994325, 301, 333, 332, 364
-0.994325, 313, 333, 344, 364
-0.994325, 325, 333, 356, 364
-0.994325, 337, 333, 368, 364
-0.994325, 349, 333, 380, 364
-0.994325, 361, 333, 392, 364
-0.994325, 373, 333, 404, 364
-0.994325, 385, 333, 416, 364
-0.994325, 397, 333, 428, 364
-0.994325, 409, 333, 440, 364
-0.994325, 421, 333, 452, 364
-0.994325, 433, 333, 464, 364
-0.994325, 445, 333, 476, 364
-0.994325, 457, 333, 488, 364
-0.994325, 469, 333, 500, 364
-0.994325, 1, 345, 32, 375
-0.994325, 13, 345, 44, 375
-0.994325, 25, 345, 56, 375
-0.994325, 37, 345, 68, 375
-0.994325, 49, 345, 80, 375
-0.994325, 61, 345, 92, 375
-0.994325, 73, 345, 104, 375
-0.994325, 85, 345, 116, 375
-0.994325, 97, 345, 128, 375
-0.994325, 109, 345, 140, 375
-0.994325, 121, 345, 152, 375
-0.994325, 133, 345, 164, 375
-0.994325, 145, 345, 176, 375
-0.994325, 157, 345, 188, 375
-0.994325, 169, 345, 200, 375
-0.994325, 181, 345, 212, 375
-0.994325, 193, 345, 224, 375
-0.994325, 205, 345, 236, 375
-0.994325, 217, 345, 248, 375
-0.994325, 229, 345, 260, 375
-0.994325, 241, 345, 272, 375
-0.994325, 253, 345, 284, 375
-0.994325, 265, 345, 296, 375
-0.994325, 277, 345, 308, 375
-0.994325, 289, 345, 320, 375
-0.994325, 301, 345, 332, 375
-0.994325, 313, 345, 344, 375
-0.994325, 325, 345, 356, 375
-0.994325, 337, 345, 368, 375
-0.994325, 349, 345, 380, 375
-0.994325, 361, 345, 392, 375
-0.994325, 373, 345, 404, 375
-0.994325, 385, 345, 416, 375
-0.994325, 397, 345, 428, 375
-0.994325, 409, 345, 440, 375
-0.994325, 421, 345, 452, 375
-0.994325, 433, 345, 464, 375
-0.994325, 445, 345, 476, 375
-0.994325, 457, 345, 488, 375
-0.994325, 469, 345, 500, 375
-0.994346, 217, 213, 280, 244
-0.994473, 177, 157, 240, 188
-0.994544, 249, 189, 312, 220
-0.994632, 177, 197, 240, 228
-0.994668, 233, 137, 296, 168
-0.99479, 241, 145, 272, 208
-0.994903, 201, 129, 264, 160
-0.994936, 177, 185, 240, 216
-0.994966, 161, 173, 224, 204
-0.994989, 153, 161, 216, 192
-0.995012, 233, 125, 296, 156
-0.995049, 193, 221, 256, 252
-0.995073, 249, 205, 312, 236
-0.995109, 241, 217, 304, 248
-0.995145, 273, 185, 336, 216
-0.995147, 177, 145, 240, 176
-0.995174, 209, 117, 272, 148
-0.995183, 257, 161, 320, 192
-0.9952, 241, 113, 304, 144
-0.995205, 145, 149, 208, 180
-0.995208, 169, 209, 232, 240
-0.995216, 265, 149, 328, 180
-0.995221, 433, 285, 496, 316
-0.995221, 1, 297, 64, 328
-0.995221, 25, 297, 88, 328
-0.995221, 49, 297, 112, 328
-0.995221, 73, 297, 136, 328
-0.995221, 97, 297, 160, 328
-0.995221, 121, 297, 184, 328
-0.995221, 145, 297, 208, 328
-0.995221, 169, 297, 232, 328
-0.995221, 193, 297, 256, 328
-0.995221, 217, 297, 280, 328
-0.995221, 241, 297, 304, 328
-0.995221, 265, 297, 328, 328
-0.995221, 289, 297, 352, 328
-0.995221, 313, 297, 376, 328
-0.995221, 337, 297, 400, 328
-0.995221, 361, 297, 424, 328
-0.995221, 385, 297, 448, 328
-0.995221, 409, 297, 472, 328
-0.995221, 433, 297, 496, 328
-0.995221, 1, 309, 64, 340
-0.995221, 25, 309, 88, 340
-0.995221, 49, 309, 112, 340
-0.995221, 73, 309, 136, 340
-0.995221, 97, 309, 160, 340
-0.995221, 121, 309, 184, 340
-0.995221, 145, 309, 208, 340
-0.995221, 169, 309, 232, 340
-0.995221, 193, 309, 256, 340
-0.995221, 217, 309, 280, 340
-0.995221, 241, 309, 304, 340
-0.995221, 265, 309, 328, 340
-0.995221, 289, 309, 352, 340
-0.995221, 313, 309, 376, 340
-0.995221, 337, 309, 400, 340
-0.995221, 361, 309, 424, 340
-0.995221, 385, 309, 448, 340
-0.995221, 409, 309, 472, 340
-0.995221, 433, 309, 496, 340
-0.995221, 1, 321, 64, 352
-0.995221, 25, 321, 88, 352
-0.995221, 49, 321, 112, 352
-0.995221, 73, 321, 136, 352
-0.995221, 97, 321, 160, 352
-0.995221, 121, 321, 184, 352
-0.995221, 145, 321, 208, 352
-0.995221, 169, 321, 232, 352
-0.995221, 193, 321, 256, 352
-0.995221, 217, 321, 280, 352
-0.995221, 241, 321, 304, 352
-0.995221, 265, 321, 328, 352
-0.995221, 289, 321, 352, 352
-0.995221, 313, 321, 376, 352
-0.995221, 337, 321, 400, 352
-0.995221, 361, 321, 424, 352
-0.995221, 385, 321, 448, 352
-0.995221, 409, 321, 472, 352
-0.995221, 433, 321, 496, 352
-0.995221, 1, 333, 64, 364
-0.995221, 25, 333, 88, 364
-0.995221, 49, 333, 112, 364
-0.995221, 73, 333, 136, 364
-0.995221, 97, 333, 160, 364
-0.995221, 121, 333, 184, 364
-0.995221, 145, 333, 208, 364
-0.995221, 169, 333, 232, 364
-0.995221, 193, 333, 256, 364
-0.995221, 217, 333, 280, 364
-0.995221, 241, 333, 304, 364
-0.995221, 265, 333, 328, 364
-0.995221, 289, 333, 352, 364
-0.995221, 313, 333, 376, 364
-0.995221, 337, 333, 400, 364
-0.995221, 361, 333, 424, 364
-0.995221, 385, 333, 448, 364
-0.995221, 409, 333, 472, 364
-0.995221, 433, 333, 496, 364
-0.995221, 1, 345, 64, 375
-0.995221, 25, 345, 88, 375
-0.995221, 49, 345, 112, 375
-0.995221, 73, 345, 136, 375
-0.995221, 97, 345, 160, 375
-0.995221, 121, 345, 184, 375
-0.995221, 145, 345, 208, 375
-0.995221, 169, 345, 232, 375
-0.995221, 193, 345, 256, 375
-0.995221, 217, 345, 280, 375
-0.995221, 241, 345, 304, 375
-0.995221, 265, 345, 328, 375
-0.995221, 289, 345, 352, 375
-0.995221, 313, 345, 376, 375
-0.995221, 337, 345, 400, 375
-0.995221, 361, 345, 424, 375
-0.995221, 385, 345, 448, 375
-0.995221, 409, 345, 472, 375
-0.995221, 433, 345, 496, 375
-0.995339, 245, 153, 260, 216
-0.995373, 225, 129, 480, 256
-0.995416, 225, 153, 352, 216
-0.995772, 185, 169, 248, 232
-0.995917, 209, 145, 272, 272
-0.996773, 241, 177, 256, 240
-0.996816, 161, 1, 288, 256
-0.996998, 229, 177, 260, 240
-0.997103, 235, 153, 250, 216
-0.997188, 235, 193, 250, 256
-0.997203, 221, 201, 252, 264
-0.997296, 251, 145, 266, 208
-0.99731, 257, 65, 384, 320
-0.9975, 209, 137, 272, 200
-0.997549, 97, 129, 224, 375
-0.997617, 225, 129, 352, 192
-0.997675, 209, 177, 336, 240
-0.997888, 229, 169, 244, 232
-0.997888, 253, 145, 284, 208
-0.997968, 251, 169, 266, 232
-0.998001, 249, 169, 264, 200
-0.998035, 243, 185, 258, 216
-0.998042, 145, 173, 272, 204
-0.998055, 33, 113, 288, 240
-0.998066, 217, 355, 248, 370
-0.998066, 229, 355, 260, 370
-0.998066, 241, 355, 272, 370
-0.998066, 253, 355, 284, 370
-0.998066, 265, 355, 296, 370
-0.998066, 277, 355, 308, 370
-0.998066, 289, 355, 320, 370
-0.998066, 301, 355, 332, 370
-0.998066, 313, 355, 344, 370
-0.998066, 325, 355, 356, 370
-0.998066, 337, 355, 368, 370
-0.998066, 349, 355, 380, 370
-0.998066, 361, 355, 392, 370
-0.998066, 373, 355, 404, 370
-0.998066, 385, 355, 416, 370
-0.998066, 397, 355, 428, 370
-0.998066, 409, 355, 440, 370
-0.998066, 421, 355, 452, 370
-0.998066, 433, 355, 464, 370
-0.998066, 445, 355, 476, 370
-0.998066, 457, 355, 488, 370
-0.998066, 469, 355, 500, 370
-0.998066, 1, 361, 32, 375
-0.998066, 13, 361, 44, 375
-0.998066, 25, 361, 56, 375
-0.998066, 37, 361, 68, 375
-0.998066, 49, 361, 80, 375
-0.998066, 61, 361, 92, 375
-0.998066, 73, 361, 104, 375
-0.998066, 85, 361, 116, 375
-0.998066, 97, 361, 128, 375
-0.998066, 109, 361, 140, 375
-0.998066, 121, 361, 152, 375
-0.998066, 133, 361, 164, 375
-0.998066, 145, 361, 176, 375
-0.998066, 157, 361, 188, 375
-0.998066, 169, 361, 200, 375
-0.998066, 181, 361, 212, 375
-0.998066, 193, 361, 224, 375
-0.998066, 205, 361, 236, 375
-0.998066, 217, 361, 248, 375
-0.998066, 229, 361, 260, 375
-0.998066, 241, 361, 272, 375
-0.998066, 253, 361, 284, 375
-0.998066, 265, 361, 296, 375
-0.998066, 277, 361, 308, 375
-0.998066, 289, 361, 320, 375
-0.998066, 301, 361, 332, 375
-0.998066, 313, 361, 344, 375
-0.998066, 325, 361, 356, 375
-0.998066, 337, 361, 368, 375
-0.998066, 349, 361, 380, 375
-0.998066, 361, 361, 392, 375
-0.998066, 373, 361, 404, 375
-0.998066, 385, 361, 416, 375
-0.998066, 397, 361, 428, 375
-0.998066, 409, 361, 440, 375
-0.998066, 421, 361, 452, 375
-0.998066, 433, 361, 464, 375
-0.998066, 445, 361, 476, 375
-0.998066, 457, 361, 488, 375
-0.998066, 469, 361, 500, 375
-0.998066, 237, 129, 268, 144
-0.998066, 249, 129, 280, 144
-0.998067, 209, 181, 240, 196
-0.998067, 197, 209, 228, 224
-0.998068, 261, 203, 292, 218
-0.998068, 273, 203, 304, 218
-0.998069, 209, 151, 240, 166
-0.998071, 205, 195, 236, 210
-0.998071, 269, 179, 300, 194
-0.998074, 257, 165, 288, 180
-0.998075, 237, 135, 268, 150
-0.998077, 249, 209, 280, 224
-0.998077, 185, 171, 216, 186
-0.99808, 209, 189, 240, 204
-0.998082, 221, 145, 252, 160
-0.998083, 233, 221, 264, 236
-0.998085, 253, 137, 284, 152
-0.998087, 209, 157, 240, 172
-0.998088, 245, 215, 276, 230
-0.998091, 257, 159, 288, 174
-0.998092, 277, 191, 308, 206
-0.998092, 197, 177, 228, 192
-0.998092, 197, 203, 228, 218
-0.998093, 249, 149, 264, 180
-0.998097, 257, 149, 288, 164
-0.998097, 269, 197, 300, 212
-0.998098, 221, 219, 252, 234
-0.99811, 209, 201, 240, 216
-0.998115, 221, 153, 252, 168
-0.998118, 233, 141, 264, 156
-0.99812, 209, 213, 240, 228
-0.998122, 189, 165, 220, 180
-0.998131, 193, 201, 256, 264
-0.998136, 205, 163, 236, 178
-0.99814, 253, 143, 284, 158
-0.998147, 233, 215, 264, 230
-0.998147, 269, 185, 300, 200
-0.998151, 257, 171, 288, 186
-0.998154, 257, 197, 288, 212
-0.998161, 209, 207, 240, 222
-0.998165, 197, 171, 228, 186
-0.998168, 217, 163, 248, 178
-0.99817, 217, 195, 248, 210
-0.998177, 265, 191, 296, 206
-0.998182, 257, 177, 288, 192
-0.998187, 129, 137, 256, 200
-0.998189, 233, 147, 264, 162
-0.998193, 237, 209, 268, 224
-0.998198, 209, 175, 240, 190
-0.998199, 233, 153, 264, 168
-0.998202, 245, 167, 276, 182
-0.998204, 245, 175, 276, 190
-0.998211, 245, 149, 276, 164
-0.998214, 233, 201, 264, 216
-0.998219, 229, 195, 260, 210
-0.99823, 245, 155, 276, 170
-0.998237, 221, 213, 252, 228
-0.998241, 257, 185, 288, 200
-0.998247, 253, 191, 284, 206
-0.998253, 221, 201, 252, 216
-0.998255, 221, 179, 252, 194
-0.998259, 241, 193, 272, 208
-0.998262, 235, 193, 250, 224
-0.998269, 221, 189, 252, 204
-0.998273, 213, 169, 244, 184
-0.998279, 245, 161, 276, 176
-0.998284, 229, 159, 260, 174
-0.998287, 221, 207, 252, 222
-0.998298, 233, 173, 264, 188
-0.99831, 233, 165, 264, 180
-0.99835, 241, 181, 272, 196
-0.998389, 243, 165, 258, 196
-0.998461, 241, 187, 272, 202
-0.998537, 321, 129, 448, 375
-0.998547, 243, 153, 258, 184
-0.99857, 209, 161, 336, 192
-0.998615, 255, 181, 270, 212
-0.998626, 235, 165, 250, 196
-0.998646, 231, 177, 246, 208
-0.998657, 225, 189, 288, 204
-0.99866, 17, 33, 144, 288
-0.99866, 65, 33, 192, 288
-0.99866, 321, 33, 448, 288
-0.99866, 369, 33, 496, 288
-0.99866, 1, 129, 128, 375
-0.99866, 49, 129, 176, 375
-0.99866, 369, 129, 496, 375
-0.998672, 225, 183, 288, 198
-0.998684, 209, 167, 272, 182
-0.998704, 237, 181, 252, 212
-0.998729, 201, 187, 264, 202
-0.998735, 209, 177, 272, 192
-0.998736, 245, 129, 260, 192
-0.998752, 185, 177, 248, 192
-0.998758, 225, 195, 288, 210
-0.998759, 233, 161, 296, 176
-0.998761, 201, 161, 264, 176
-0.998764, 249, 183, 312, 198
-0.998776, 233, 177, 296, 192
-0.998785, 257, 177, 272, 240
-0.998789, 257, 189, 320, 204
-0.99879, 193, 211, 256, 226
-0.998793, 185, 171, 248, 186
-0.998795, 217, 205, 280, 220
-0.998798, 231, 205, 246, 236
-0.9988, 209, 155, 272, 170
-0.998802, 233, 167, 296, 182
-0.998807, 193, 193, 256, 208
-0.998814, 233, 155, 296, 170
-0.998818, 193, 199, 256, 214
-0.998821, 193, 205, 256, 220
-0.998828, 233, 149, 296, 164
-0.99883, 209, 149, 272, 164
-0.99883, 233, 211, 296, 226
-0.998832, 257, 175, 320, 190
-0.998835, 201, 217, 264, 232
-0.998839, 161, 167, 224, 182
-0.998842, 225, 217, 288, 232
-0.998843, 261, 185, 276, 216
-0.998849, 209, 143, 272, 158
-0.998849, 177, 161, 240, 176
-0.99885, 161, 173, 224, 188
-0.99885, 233, 143, 296, 158
-0.998852, 249, 195, 312, 210
-0.99886, 169, 203, 232, 218
-0.99886, 257, 153, 272, 216
-0.998863, 177, 187, 240, 202
-0.998865, 185, 155, 248, 170
-0.998866, 257, 159, 320, 174
-0.998871, 233, 137, 296, 152
-0.998872, 193, 137, 256, 152
-0.998876, 241, 205, 304, 220
-0.998879, 169, 209, 232, 224
-0.998881, 169, 197, 232, 212
-0.998882, 257, 143, 320, 158
-0.998882, 273, 183, 336, 198
-0.998883, 185, 143, 248, 158
-0.998884, 281, 191, 344, 206
-0.998884, 265, 203, 328, 218
-0.998884, 209, 223, 272, 238
-0.998884, 233, 223, 296, 238
-0.998885, 225, 131, 288, 146
-0.998885, 265, 165, 328, 180
-0.998886, 201, 129, 264, 144
-0.998886, 409, 337, 472, 352
-0.998886, 433, 337, 496, 352
-0.998886, 1, 343, 64, 358
-0.998886, 25, 343, 88, 358
-0.998886, 49, 343, 112, 358
-0.998886, 73, 343, 136, 358
-0.998886, 97, 343, 160, 358
-0.998886, 121, 343, 184, 358
-0.998886, 145, 343, 208, 358
-0.998886, 169, 343, 232, 358
-0.998886, 193, 343, 256, 358
-0.998886, 217, 343, 280, 358
-0.998886, 241, 343, 304, 358
-0.998886, 265, 343, 328, 358
-0.998886, 289, 343, 352, 358
-0.998886, 313, 343, 376, 358
-0.998886, 337, 343, 400, 358
-0.998886, 361, 343, 424, 358
-0.998886, 385, 343, 448, 358
-0.998886, 409, 343, 472, 358
-0.998886, 433, 343, 496, 358
-0.998886, 1, 349, 64, 364
-0.998886, 25, 349, 88, 364
-0.998886, 49, 349, 112, 364
-0.998886, 73, 349, 136, 364
-0.998886, 97, 349, 160, 364
-0.998886, 121, 349, 184, 364
-0.998886, 145, 349, 208, 364
-0.998886, 169, 349, 232, 364
-0.998886, 193, 349, 256, 364
-0.998886, 217, 349, 280, 364
-0.998886, 241, 349, 304, 364
-0.998886, 265, 349, 328, 364
-0.998886, 289, 349, 352, 364
-0.998886, 313, 349, 376, 364
-0.998886, 337, 349, 400, 364
-0.998886, 361, 349, 424, 364
-0.998886, 385, 349, 448, 364
-0.998886, 409, 349, 472, 364
-0.998886, 433, 349, 496, 364
-0.998886, 1, 355, 64, 370
-0.998886, 25, 355, 88, 370
-0.998886, 49, 355, 112, 370
-0.998886, 73, 355, 136, 370
-0.998886, 97, 355, 160, 370
-0.998886, 121, 355, 184, 370
-0.998886, 145, 355, 208, 370
-0.998886, 169, 355, 232, 370
-0.998886, 193, 355, 256, 370
-0.998886, 217, 355, 280, 370
-0.998886, 241, 355, 304, 370
-0.998886, 265, 355, 328, 370
-0.998886, 289, 355, 352, 370
-0.998886, 313, 355, 376, 370
-0.998886, 337, 355, 400, 370
-0.998886, 361, 355, 424, 370
-0.998886, 385, 355, 448, 370
-0.998886, 409, 355, 472, 370
-0.998886, 433, 355, 496, 370
-0.998886, 1, 361, 64, 375
-0.998886, 25, 361, 88, 375
-0.998886, 49, 361, 112, 375
-0.998886, 73, 361, 136, 375
-0.998886, 97, 361, 160, 375
-0.998886, 121, 361, 184, 375
-0.998886, 145, 361, 208, 375
-0.998886, 169, 361, 232, 375
-0.998886, 193, 361, 256, 375
-0.998886, 217, 361, 280, 375
-0.998886, 241, 361, 304, 375
-0.998886, 265, 361, 328, 375
-0.998886, 289, 361, 352, 375
-0.998886, 313, 361, 376, 375
-0.998886, 337, 361, 400, 375
-0.998886, 361, 361, 424, 375
-0.998886, 385, 361, 448, 375
-0.998886, 409, 361, 472, 375
-0.998886, 433, 361, 496, 375
-0.99891, 241, 197, 256, 228
-0.998932, 255, 145, 270, 176
-0.998983, 227, 165, 242, 196
-0.998988, 223, 153, 238, 216
-0.998994, 257, 169, 272, 200
-0.999018, 1, 81, 500, 208
-0.999032, 243, 141, 258, 172
-0.999038, 237, 129, 252, 192
-0.999047, 249, 181, 264, 212
-0.999088, 255, 121, 270, 184
-0.999092, 229, 193, 244, 224
-0.99915, 229, 193, 244, 256
-0.999217, 225, 97, 352, 224
-0.999229, 263, 185, 278, 248
-0.999268, 237, 209, 252, 240
-0.999293, 193, 177, 320, 208
-0.999299, 225, 177, 240, 208
-0.999309, 237, 153, 252, 184
-0.999315, 323, 361, 338, 375
-0.999315, 329, 361, 344, 375
-0.999315, 335, 361, 350, 375
-0.999315, 341, 361, 356, 375
-0.999315, 347, 361, 362, 375
-0.999315, 353, 361, 368, 375
-0.999315, 359, 361, 374, 375
-0.999315, 365, 361, 380, 375
-0.999315, 371, 361, 386, 375
-0.999315, 377, 361, 392, 375
-0.999315, 383, 361, 398, 375
-0.999315, 389, 361, 404, 375
-0.999315, 395, 361, 410, 375
-0.999315, 401, 361, 416, 375
-0.999315, 407, 361, 422, 375
-0.999315, 413, 361, 428, 375
-0.999315, 419, 361, 434, 375
-0.999315, 425, 361, 440, 375
-0.999315, 431, 361, 446, 375
-0.999315, 437, 361, 452, 375
-0.999315, 443, 361, 458, 375
-0.999315, 449, 361, 464, 375
-0.999315, 455, 361, 470, 375
-0.999315, 461, 361, 476, 375
-0.999315, 467, 361, 482, 375
-0.999315, 473, 361, 488, 375
-0.999315, 479, 361, 494, 375
-0.999315, 485, 361, 500, 375
-0.999315, 217, 153, 232, 168
-0.999316, 209, 209, 224, 224
-0.999316, 247, 221, 262, 236
-0.999316, 223, 187, 238, 202
-0.999317, 249, 129, 264, 144
-0.999317, 215, 181, 230, 196
-0.999318, 261, 147, 276, 162
-0.999318, 227, 149, 242, 164
-0.999318, 235, 143, 250, 158
-0.999319, 197, 171, 212, 186
-0.999319, 203, 177, 218, 192
-0.99932, 263, 165, 278, 180
-0.999321, 207, 159, 222, 174
-0.999321, 241, 135, 256, 150
-0.999324, 257, 197, 272, 212
-0.999325, 217, 197, 232, 212
-0.999325, 225, 219, 240, 234
-0.999325, 249, 209, 264, 224
-0.999326, 259, 141, 274, 156
-0.999327, 277, 187, 292, 202
-0.999327, 251, 193, 266, 208
-0.999327, 275, 199, 290, 214
-0.999327, 245, 129, 260, 256
-0.999333, 199, 165, 214, 180
-0.999334, 217, 213, 232, 228
-0.999338, 247, 215, 262, 230
-0.999342, 247, 137, 262, 152
-0.999343, 253, 135, 268, 150
-0.999345, 271, 181, 286, 196
-0.999345, 213, 203, 228, 218
-0.999347, 235, 151, 250, 166
-0.999347, 241, 221, 256, 236
-0.999349, 223, 199, 238, 214
-0.999351, 209, 177, 224, 192
-0.999352, 225, 155, 240, 170
-0.999355, 225, 193, 240, 208
-0.999359, 205, 165, 220, 180
-0.999362, 203, 171, 218, 186
-0.999362, 241, 141, 256, 156
-0.999364, 215, 163, 230, 178
-0.999367, 267, 189, 282, 220
-0.99937, 275, 193, 290, 208
-0.999376, 257, 167, 272, 182
-0.99938, 269, 199, 284, 214
-0.999382, 219, 207, 234, 222
-0.999388, 229, 187, 244, 202
-0.999389, 221, 165, 236, 196
-0.999389, 223, 213, 238, 228
-0.99939, 235, 219, 250, 234
-0.99939, 215, 175, 230, 190
-0.99939, 255, 133, 270, 164
-0.999397, 223, 177, 238, 240
-0.999402, 265, 179, 280, 194
-0.999403, 259, 179, 274, 194
-0.99941, 243, 209, 258, 224
-0.999412, 235, 157, 250, 172
-0.999413, 253, 141, 268, 156
-0.999415, 241, 147, 256, 162
-0.999419, 255, 159, 270, 174
-0.99942, 253, 173, 268, 188
-0.99942, 263, 197, 278, 212
-0.99942, 221, 177, 236, 192
-0.999421, 209, 171, 224, 186
-0.999422, 255, 157, 270, 188
-0.999426, 225, 161, 240, 176
-0.999427, 229, 213, 244, 228
-0.999431, 271, 187, 286, 202
-0.999432, 241, 215, 256, 230
-0.999435, 241, 153, 256, 168
-0.999435, 235, 169, 250, 184
-0.999436, 265, 185, 280, 200
-0.999441, 259, 173, 274, 188
-0.999445, 225, 207, 240, 222
-0.999448, 255, 153, 270, 168
-0.999454, 269, 193, 284, 208
-0.999456, 215, 169, 230, 184
-0.999456, 257, 191, 272, 206
-0.999462, 227, 177, 242, 192
-0.999465, 249, 187, 264, 202
-0.999466, 231, 193, 246, 208
-0.99947, 247, 143, 262, 158
-0.999471, 241, 199, 256, 214
-0.999473, 237, 207, 252, 222
-0.999474, 231, 163, 246, 178
-0.999476, 255, 147, 270, 162
-0.999477, 249, 137, 264, 168
-0.99948, 221, 169, 236, 184
-0.999481, 239, 161, 254, 288
-0.999481, 243, 193, 258, 208
-0.999482, 237, 163, 252, 178
-0.999486, 229, 201, 244, 216
-0.999487, 237, 179, 252, 194
-0.999491, 241, 171, 256, 186
-0.999493, 265, 173, 280, 204
-0.999495, 229, 169, 244, 184
-0.999496, 245, 181, 260, 196
-0.999519, 235, 213, 250, 228
-0.999532, 263, 191, 278, 206
-0.999534, 235, 199, 250, 214
-0.999535, 243, 159, 258, 174
-0.999537, 247, 175, 262, 190
-0.999541, 237, 193, 252, 208
-0.999542, 235, 187, 250, 202
-0.999546, 253, 179, 268, 194
-0.999549, 225, 205, 240, 236
-0.999551, 249, 155, 264, 170
-0.999558, 145, 157, 272, 188
-0.999558, 247, 149, 262, 164
-0.999559, 231, 207, 246, 222
-0.99956, 231, 153, 246, 184
-0.999563, 253, 177, 284, 240
-0.999563, 243, 165, 258, 180
-0.999572, 259, 185, 274, 200
-0.999581, 1, 33, 500, 160
-0.999583, 65, 169, 320, 232
-0.999591, 229, 145, 244, 208
-0.999592, 249, 165, 264, 180
-0.999599, 217, 129, 248, 256
-0.999602, 243, 187, 258, 202
-0.999618, 251, 145, 266, 272
-0.999622, 215, 165, 230, 196
-0.999624, 217, 153, 232, 216
-0.999636, 241, 173, 368, 204
-0.999687, 233, 129, 248, 256
-0.999688, 271, 177, 286, 208
-0.999711, 221, 153, 236, 184
-0.999739, 255, 193, 270, 224
-0.999742, 231, 217, 246, 248
-0.999756, 261, 197, 276, 228
-0.999758, 241, 201, 256, 264
-0.999782, 233, 177, 248, 304
-0.999791, 237, 141, 252, 172
-0.999796, 243, 129, 258, 160
-0.999806, 1, 241, 500, 368
-0.999809, 209, 165, 224, 196
-0.999831, 239, 113, 254, 240
-0.99984, 255, 97, 270, 224
-0.999846, 223, 193, 238, 224
-0.999853, 243, 213, 258, 244
-0.999869, 193, 189, 320, 220
-0.999869, 273, 189, 288, 220
-0.999872, 227, 145, 242, 272
-0.999893, 219, 177, 234, 208
-0.999899, 209, 145, 336, 272
-0.999916, 257, 145, 272, 272
-0.999924, 245, 81, 260, 208
-0.999925, 261, 157, 276, 188
-0.999938, 219, 205, 234, 236
-0.999953, 221, 129, 236, 256
-0.999954, 211, 177, 226, 208
-0.999963, 215, 153, 230, 184
-0.999963, 203, 165, 218, 196
-0.999968, 245, 177, 260, 304
-0.999979, 263, 153, 278, 216
-0.999985, 271, 201, 286, 232
-0.999989, 217, 177, 232, 240
-0.999989, 253, 121, 268, 152
-0.999995, 217, 193, 232, 224
-1.00001, 237, 221, 252, 252
-1.00002, 215, 129, 230, 256
-1.00003, 193, 177, 448, 240
-1.00003, 209, 153, 224, 184
-1.00004, 247, 201, 262, 232
-1.00005, 227, 97, 242, 224
-1.00005, 201, 153, 216, 184
-1.00006, 211, 153, 226, 216
-1.00007, 233, 81, 248, 208
-1.00008, 223, 129, 238, 192
-1.00008, 255, 193, 270, 320
-1.00008, 263, 145, 278, 272
-1.0001, 205, 177, 220, 208
-1.0001, 225, 217, 240, 248
-1.00011, 193, 145, 448, 208
-1.00012, 211, 197, 226, 228
-1.00012, 209, 129, 224, 256
-1.00012, 277, 177, 292, 208
-1.00014, 279, 189, 294, 220
-1.00014, 213, 209, 228, 240
-1.00014, 219, 177, 234, 304
-1.00014, 221, 81, 236, 208
-1.00015, 223, 141, 238, 172
-1.00015, 245, 117, 260, 148
-1.00016, 261, 137, 276, 168
-1.00016, 263, 97, 278, 224
-1.00016, 213, 177, 228, 304
-1.00016, 229, 133, 244, 164
-1.00016, 239, 65, 254, 192
-1.00016, 197, 169, 212, 200
-1.00016, 249, 213, 264, 244
-1.00017, 261, 125, 276, 156
-1.00017, 217, 137, 232, 168
-1.00017, 125, 345, 140, 375
-1.00017, 131, 345, 146, 375
-1.00017, 137, 345, 152, 375
-1.00017, 143, 345, 158, 375
-1.00017, 149, 345, 164, 375
-1.00017, 155, 345, 170, 375
-1.00017, 161, 345, 176, 375
-1.00017, 167, 345, 182, 375
-1.00017, 173, 345, 188, 375
-1.00017, 179, 345, 194, 375
-1.00017, 185, 345, 200, 375
-1.00017, 191, 345, 206, 375
-1.00017, 197, 345, 212, 375
-1.00017, 203, 345, 218, 375
-1.00017, 209, 345, 224, 375
-1.00017, 215, 345, 230, 375
-1.00017, 221, 345, 236, 375
-1.00017, 227, 345, 242, 375
-1.00017, 233, 345, 248, 375
-1.00017, 239, 345, 254, 375
-1.00017, 245, 345, 260, 375
-1.00017, 251, 345, 266, 375
-1.00017, 257, 345, 272, 375
-1.00017, 263, 345, 278, 375
-1.00017, 269, 345, 284, 375
-1.00017, 275, 345, 290, 375
-1.00017, 281, 345, 296, 375
-1.00017, 287, 345, 302, 375
-1.00017, 293, 345, 308, 375
-1.00017, 299, 345, 314, 375
-1.00017, 305, 345, 320, 375
-1.00017, 311, 345, 326, 375
-1.00017, 317, 345, 332, 375
-1.00017, 323, 345, 338, 375
-1.00017, 329, 345, 344, 375
-1.00017, 335, 345, 350, 375
-1.00017, 341, 345, 356, 375
-1.00017, 347, 345, 362, 375
-1.00017, 353, 345, 368, 375
-1.00017, 359, 345, 374, 375
-1.00017, 365, 345, 380, 375
-1.00017, 371, 345, 386, 375
-1.00017, 377, 345, 392, 375
-1.00017, 383, 345, 398, 375
-1.00017, 389, 345, 404, 375
-1.00017, 395, 345, 410, 375
-1.00017, 401, 345, 416, 375
-1.00017, 407, 345, 422, 375
-1.00017, 413, 345, 428, 375
-1.00017, 419, 345, 434, 375
-1.00017, 425, 345, 440, 375
-1.00017, 431, 345, 446, 375
-1.00017, 437, 345, 452, 375
-1.00017, 443, 345, 458, 375
-1.00017, 449, 345, 464, 375
-1.00017, 455, 345, 470, 375
-1.00017, 461, 345, 476, 375
-1.00017, 467, 345, 482, 375
-1.00017, 473, 345, 488, 375
-1.00017, 479, 345, 494, 375
-1.00017, 485, 345, 500, 375
-1.00017, 215, 81, 230, 208
-1.00017, 209, 149, 336, 180
-1.00018, 261, 193, 276, 320
-1.00018, 245, 105, 260, 168
-1.00019, 255, 49, 270, 176
-1.00019, 239, 209, 254, 336
-1.00021, 225, 193, 240, 320
-1.00021, 203, 97, 218, 224
-1.00021, 209, 81, 224, 208
-1.00022, 269, 129, 284, 256
-1.00023, 203, 161, 218, 288
-1.00024, 233, 217, 248, 280
-1.00024, 245, 225, 260, 352
-1.00025, 245, 17, 260, 144
-1.00026, 271, 81, 286, 208
-1.00026, 395, 193, 410, 320
-1.00026, 401, 193, 416, 320
-1.00026, 407, 193, 422, 320
-1.00026, 413, 193, 428, 320
-1.00026, 419, 193, 434, 320
-1.00026, 425, 193, 440, 320
-1.00026, 431, 193, 446, 320
-1.00026, 437, 193, 452, 320
-1.00026, 443, 193, 458, 320
-1.00026, 449, 193, 464, 320
-1.00026, 455, 193, 470, 320
-1.00026, 461, 193, 476, 320
-1.00026, 467, 193, 482, 320
-1.00026, 473, 193, 488, 320
-1.00026, 479, 193, 494, 320
-1.00026, 485, 193, 500, 320
-1.00026, 5, 241, 20, 368
-1.00026, 11, 241, 26, 368
-1.00026, 17, 241, 32, 368
-1.00026, 23, 241, 38, 368
-1.00026, 29, 241, 44, 368
-1.00026, 35, 241, 50, 368
-1.00026, 41, 241, 56, 368
-1.00026, 47, 241, 62, 368
-1.00026, 53, 241, 68, 368
-1.00026, 59, 241, 74, 368
-1.00026, 65, 241, 80, 368
-1.00026, 71, 241, 86, 368
-1.00026, 77, 241, 92, 368
-1.00026, 83, 241, 98, 368
-1.00026, 89, 241, 104, 368
-1.00026, 95, 241, 110, 368
-1.00026, 101, 241, 116, 368
-1.00026, 107, 241, 122, 368
-1.00026, 113, 241, 128, 368
-1.00026, 119, 241, 134, 368
-1.00026, 125, 241, 140, 368
-1.00026, 131, 241, 146, 368
-1.00026, 137, 241, 152, 368
-1.00026, 143, 241, 158, 368
-1.00026, 149, 241, 164, 368
-1.00026, 155, 241, 170, 368
-1.00026, 161, 241, 176, 368
-1.00026, 167, 241, 182, 368
-1.00026, 173, 241, 188, 368
-1.00026, 179, 241, 194, 368
-1.00026, 185, 241, 200, 368
-1.00026, 191, 241, 206, 368
-1.00026, 197, 241, 212, 368
-1.00026, 203, 241, 218, 368
-1.00026, 209, 241, 224, 368
-1.00026, 215, 241, 230, 368
-1.00026, 221, 241, 236, 368
-1.00026, 227, 241, 242, 368
-1.00026, 233, 241, 248, 368
-1.00026, 251, 241, 266, 368
-1.00026, 257, 241, 272, 368
-1.00026, 263, 241, 278, 368
-1.00026, 269, 241, 284, 368
-1.00026, 275, 241, 290, 368
-1.00026, 281, 241, 296, 368
-1.00026, 287, 241, 302, 368
-1.00026, 293, 241, 308, 368
-1.00026, 299, 241, 314, 368
-1.00026, 305, 241, 320, 368
-1.00026, 311, 241, 326, 368
-1.00026, 317, 241, 332, 368
-1.00026, 323, 241, 338, 368
-1.00026, 329, 241, 344, 368
-1.00026, 335, 241, 350, 368
-1.00026, 341, 241, 356, 368
-1.00026, 347, 241, 362, 368
-1.00026, 353, 241, 368, 368
-1.00026, 359, 241, 374, 368
-1.00026, 365, 241, 380, 368
-1.00026, 371, 241, 386, 368
-1.00026, 377, 241, 392, 368
-1.00026, 383, 241, 398, 368
-1.00026, 389, 241, 404, 368
-1.00026, 395, 241, 410, 368
-1.00026, 401, 241, 416, 368
-1.00026, 407, 241, 422, 368
-1.00026, 413, 241, 428, 368
-1.00026, 419, 241, 434, 368
-1.00026, 425, 241, 440, 368
-1.00026, 431, 241, 446, 368
-1.00026, 437, 241, 452, 368
-1.00026, 443, 241, 458, 368
-1.00026, 449, 241, 464, 368
-1.00026, 455, 241, 470, 368
-1.00026, 461, 241, 476, 368
-1.00026, 467, 241, 482, 368
-1.00026, 473, 241, 488, 368
-1.00026, 479, 241, 494, 368
-1.00026, 485, 241, 500, 368
-1.00026, 271, 177, 286, 240
-1.00028, 113, 169, 240, 232
-1.00028, 229, 129, 260, 192
-1.0003, 233, 97, 264, 352
-1.00031, 221, 201, 236, 264
-1.00032, 145, 145, 272, 176
-1.00033, 213, 129, 244, 375
-1.0004, 33, 145, 288, 208
-1.0004, 241, 1, 304, 375
-1.00044, 211, 177, 226, 240
-1.00048, 145, 185, 272, 216
-1.00049, 217, 129, 232, 192
-1.0005, 241, 185, 368, 216
-1.00051, 269, 153, 284, 216
-1.00055, 205, 153, 220, 216
-1.00056, 251, 193, 266, 256
-1.00059, 227, 217, 242, 280
-1.0006, 231, 121, 246, 184
-1.00065, 211, 129, 226, 192
-1.00066, 97, 161, 224, 192
-1.00068, 161, 209, 288, 240
-1.00071, 215, 209, 230, 272
-1.00073, 269, 201, 284, 264
-1.00073, 253, 97, 268, 160
-1.00074, 241, 137, 368, 168
-1.00074, 209, 201, 336, 232
-1.00078, 213, 33, 244, 288
-1.00079, 129, 197, 256, 228
-1.00079, 205, 129, 220, 192
-1.0008, 247, 217, 262, 280
-1.00081, 161, 185, 288, 248
-1.00083, 241, 225, 256, 288
-1.00087, 275, 153, 290, 216
-1.0009, 263, 129, 278, 192
-1.0009, 113, 209, 240, 240
-1.00093, 209, 213, 336, 244
-1.00093, 161, 133, 288, 164
-1.00094, 277, 177, 292, 240
-1.00096, 199, 145, 214, 208
-1.00098, 185, 137, 248, 200
-1.00099, 205, 177, 220, 240
-1.001, 245, 81, 260, 144
-1.00101, 231, 97, 246, 160
-1.00102, 199, 121, 214, 184
-1.00102, 209, 201, 224, 264
-1.00102, 257, 149, 384, 180
-1.00102, 209, 125, 336, 156
-1.00103, 11, 313, 26, 375
-1.00103, 17, 313, 32, 375
-1.00103, 23, 313, 38, 375
-1.00103, 29, 313, 44, 375
-1.00103, 35, 313, 50, 375
-1.00103, 41, 313, 56, 375
-1.00103, 47, 313, 62, 375
-1.00103, 53, 313, 68, 375
-1.00103, 59, 313, 74, 375
-1.00103, 65, 313, 80, 375
-1.00103, 71, 313, 86, 375
-1.00103, 77, 313, 92, 375
-1.00103, 83, 313, 98, 375
-1.00103, 89, 313, 104, 375
-1.00103, 95, 313, 110, 375
-1.00103, 101, 313, 116, 375
-1.00103, 107, 313, 122, 375
-1.00103, 113, 313, 128, 375
-1.00103, 119, 313, 134, 375
-1.00103, 125, 313, 140, 375
-1.00103, 131, 313, 146, 375
-1.00103, 137, 313, 152, 375
-1.00103, 143, 313, 158, 375
-1.00103, 149, 313, 164, 375
-1.00103, 155, 313, 170, 375
-1.00103, 161, 313, 176, 375
-1.00103, 167, 313, 182, 375
-1.00103, 173, 313, 188, 375
-1.00103, 179, 313, 194, 375
-1.00103, 185, 313, 200, 375
-1.00103, 191, 313, 206, 375
-1.00103, 197, 313, 212, 375
-1.00103, 203, 313, 218, 375
-1.00103, 209, 313, 224, 375
-1.00103, 215, 313, 230, 375
-1.00103, 221, 313, 236, 375
-1.00103, 227, 313, 242, 375
-1.00103, 233, 313, 248, 375
-1.00103, 239, 313, 254, 375
-1.00103, 245, 313, 260, 375
-1.00103, 251, 313, 266, 375
-1.00103, 257, 313, 272, 375
-1.00103, 263, 313, 278, 375
-1.00103, 269, 313, 284, 375
-1.00103, 275, 313, 290, 375
-1.00103, 281, 313, 296, 375
-1.00103, 287, 313, 302, 375
-1.00103, 293, 313, 308, 375
-1.00103, 299, 313, 314, 375
-1.00103, 305, 313, 320, 375
-1.00103, 311, 313, 326, 375
-1.00103, 317, 313, 332, 375
-1.00103, 323, 313, 338, 375
-1.00103, 329, 313, 344, 375
-1.00103, 335, 313, 350, 375
-1.00103, 341, 313, 356, 375
-1.00103, 347, 313, 362, 375
-1.00103, 353, 313, 368, 375
-1.00103, 359, 313, 374, 375
-1.00103, 365, 313, 380, 375
-1.00103, 371, 313, 386, 375
-1.00103, 377, 313, 392, 375
-1.00103, 383, 313, 398, 375
-1.00103, 389, 313, 404, 375
-1.00103, 395, 313, 410, 375
-1.00103, 401, 313, 416, 375
-1.00103, 407, 313, 422, 375
-1.00103, 413, 313, 428, 375
-1.00103, 419, 313, 434, 375
-1.00103, 425, 313, 440, 375
-1.00103, 431, 313, 446, 375
-1.00103, 437, 313, 452, 375
-1.00103, 443, 313, 458, 375
-1.00103, 449, 313, 464, 375
-1.00103, 455, 313, 470, 375
-1.00103, 461, 313, 476, 375
-1.00103, 467, 313, 482, 375
-1.00103, 473, 313, 488, 375
-1.00103, 479, 313, 494, 375
-1.00103, 485, 313, 500, 375
-1.00104, 257, 161, 384, 192
-1.00105, 145, 121, 272, 152
-1.00105, 81, 149, 208, 180
-1.00106, 233, 97, 264, 224
-1.00107, 369, 165, 496, 196
-1.00107, 33, 177, 160, 208
-1.00107, 81, 177, 208, 208
-1.00107, 321, 177, 448, 208
-1.00107, 369, 177, 496, 208
-1.00107, 33, 189, 160, 220
-1.00107, 81, 189, 208, 220
-1.00107, 321, 189, 448, 220
-1.00107, 369, 189, 496, 220
-1.00107, 17, 201, 144, 232
-1.00107, 65, 201, 192, 232
-1.00107, 273, 201, 400, 232
-1.00107, 321, 201, 448, 232
-1.00107, 369, 201, 496, 232
-1.00107, 17, 213, 144, 244
-1.00107, 65, 213, 192, 244
-1.00107, 273, 213, 400, 244
-1.00107, 321, 213, 448, 244
-1.00107, 369, 213, 496, 244
-1.00107, 33, 225, 160, 256
-1.00107, 81, 225, 208, 256
-1.00107, 129, 225, 256, 256
-1.00107, 177, 225, 304, 256
-1.00107, 225, 225, 352, 256
-1.00107, 273, 225, 400, 256
-1.00107, 321, 225, 448, 256
-1.00107, 369, 225, 496, 256
-1.00107, 33, 237, 160, 268
-1.00107, 81, 237, 208, 268
-1.00107, 129, 237, 256, 268
-1.00107, 177, 237, 304, 268
-1.00107, 225, 237, 352, 268
-1.00107, 273, 237, 400, 268
-1.00107, 321, 237, 448, 268
-1.00107, 369, 237, 496, 268
-1.00107, 33, 249, 160, 280
-1.00107, 81, 249, 208, 280
-1.00107, 129, 249, 256, 280
-1.00107, 177, 249, 304, 280
-1.00107, 225, 249, 352, 280
-1.00107, 273, 249, 400, 280
-1.00107, 321, 249, 448, 280
-1.00107, 369, 249, 496, 280
-1.00107, 33, 261, 160, 292
-1.00107, 81, 261, 208, 292
-1.00107, 129, 261, 256, 292
-1.00107, 177, 261, 304, 292
-1.00107, 225, 261, 352, 292
-1.00107, 273, 261, 400, 292
-1.00107, 321, 261, 448, 292
-1.00107, 369, 261, 496, 292
-1.00107, 33, 273, 160, 304
-1.00107, 81, 273, 208, 304
-1.00107, 129, 273, 256, 304
-1.00107, 177, 273, 304, 304
-1.00107, 225, 273, 352, 304
-1.00107, 273, 273, 400, 304
-1.00107, 321, 273, 448, 304
-1.00107, 369, 273, 496, 304
-1.00107, 33, 285, 160, 316
-1.00107, 81, 285, 208, 316
-1.00107, 129, 285, 256, 316
-1.00107, 177, 285, 304, 316
-1.00107, 225, 285, 352, 316
-1.00107, 273, 285, 400, 316
-1.00107, 321, 285, 448, 316
-1.00107, 369, 285, 496, 316
-1.00107, 33, 297, 160, 328
-1.00107, 81, 297, 208, 328
-1.00107, 129, 297, 256, 328
-1.00107, 177, 297, 304, 328
-1.00107, 225, 297, 352, 328
-1.00107, 273, 297, 400, 328
-1.00107, 321, 297, 448, 328
-1.00107, 369, 297, 496, 328
-1.00107, 33, 309, 160, 340
-1.00107, 81, 309, 208, 340
-1.00107, 129, 309, 256, 340
-1.00107, 177, 309, 304, 340
-1.00107, 225, 309, 352, 340
-1.00107, 273, 309, 400, 340
-1.00107, 321, 309, 448, 340
-1.00107, 369, 309, 496, 340
-1.00107, 33, 321, 160, 352
-1.00107, 81, 321, 208, 352
-1.00107, 129, 321, 256, 352
-1.00107, 177, 321, 304, 352
-1.00107, 225, 321, 352, 352
-1.00107, 273, 321, 400, 352
-1.00107, 321, 321, 448, 352
-1.00107, 369, 321, 496, 352
-1.00107, 33, 333, 160, 364
-1.00107, 81, 333, 208, 364
-1.00107, 129, 333, 256, 364
-1.00107, 177, 333, 304, 364
-1.00107, 225, 333, 352, 364
-1.00107, 273, 333, 400, 364
-1.00107, 321, 333, 448, 364
-1.00107, 369, 333, 496, 364
-1.00107, 33, 345, 160, 375
-1.00107, 81, 345, 208, 375
-1.00107, 129, 345, 256, 375
-1.00107, 177, 345, 304, 375
-1.00107, 225, 345, 352, 375
-1.00107, 273, 345, 400, 375
-1.00107, 321, 345, 448, 375
-1.00107, 369, 345, 496, 375
-1.00111, 233, 1, 264, 256
-1.00112, 201, 1, 264, 375
-1.00115, 221, 177, 252, 304
-1.00117, 145, 97, 272, 224
-1.00117, 177, 129, 304, 192
-1.00122, 201, 97, 232, 352
-1.00123, 245, 97, 276, 352
-1.00137, 233, 161, 296, 288
-1.00141, 65, 193, 320, 256
-1.00155, 193, 121, 448, 184
-1.00155, 245, 1, 276, 256
-1.00158, 161, 201, 416, 264
-1.00159, 257, 97, 288, 352
-1.0016, 177, 209, 304, 272
-1.0016, 189, 33, 220, 288
-1.00165, 177, 1, 240, 375
-1.00165, 201, 1, 232, 256
-1.00168, 257, 1, 288, 256
-1.00172, 249, 161, 280, 288
-1.00173, 189, 129, 220, 375
-1.00184, 9, 33, 40, 288
-1.00184, 21, 33, 52, 288
-1.00184, 33, 33, 64, 288
-1.00184, 45, 33, 76, 288
-1.00184, 57, 33, 88, 288
-1.00184, 69, 33, 100, 288
-1.00184, 81, 33, 112, 288
-1.00184, 93, 33, 124, 288
-1.00184, 105, 33, 136, 288
-1.00184, 117, 33, 148, 288
-1.00184, 129, 33, 160, 288
-1.00184, 141, 33, 172, 288
-1.00184, 153, 33, 184, 288
-1.00184, 165, 33, 196, 288
-1.00184, 177, 33, 208, 288
-1.00184, 277, 33, 308, 288
-1.00184, 289, 33, 320, 288
-1.00184, 301, 33, 332, 288
-1.00184, 313, 33, 344, 288
-1.00184, 325, 33, 356, 288
-1.00184, 337, 33, 368, 288
-1.00184, 349, 33, 380, 288
-1.00184, 361, 33, 392, 288
-1.00184, 373, 33, 404, 288
-1.00184, 385, 33, 416, 288
-1.00184, 397, 33, 428, 288
-1.00184, 409, 33, 440, 288
-1.00184, 421, 33, 452, 288
-1.00184, 433, 33, 464, 288
-1.00184, 445, 33, 476, 288
-1.00184, 457, 33, 488, 288
-1.00184, 469, 33, 500, 288
-1.00184, 9, 129, 40, 375
-1.00184, 21, 129, 52, 375
-1.00184, 33, 129, 64, 375
-1.00184, 45, 129, 76, 375
-1.00184, 57, 129, 88, 375
-1.00184, 69, 129, 100, 375
-1.00184, 81, 129, 112, 375
-1.00184, 93, 129, 124, 375
-1.00184, 105, 129, 136, 375
-1.00184, 117, 129, 148, 375
-1.00184, 129, 129, 160, 375
-1.00184, 141, 129, 172, 375
-1.00184, 153, 129, 184, 375
-1.00184, 165, 129, 196, 375
-1.00184, 177, 129, 208, 375
-1.00184, 277, 129, 308, 375
-1.00184, 289, 129, 320, 375
-1.00184, 301, 129, 332, 375
-1.00184, 313, 129, 344, 375
-1.00184, 325, 129, 356, 375
-1.00184, 337, 129, 368, 375
-1.00184, 349, 129, 380, 375
-1.00184, 361, 129, 392, 375
-1.00184, 373, 129, 404, 375
-1.00184, 385, 129, 416, 375
-1.00184, 397, 129, 428, 375
-1.00184, 409, 129, 440, 375
-1.00184, 421, 129, 452, 375
-1.00184, 433, 129, 464, 375
-1.00184, 445, 129, 476, 375
-1.00184, 457, 129, 488, 375
-1.00184, 469, 129, 500, 375
-1.00188, 33, 121, 288, 184
-1.002, 65, 217, 320, 280
-1.00202, 257, 185, 384, 248
-1.00205, 257, 169, 320, 232
-1.00211, 97, 97, 352, 160
-1.00211, 193, 97, 448, 160
-1.00212, 161, 1, 416, 64
-1.00212, 257, 1, 500, 64
-1.00212, 65, 17, 320, 80
-1.00212, 161, 25, 416, 88
-1.00212, 257, 25, 500, 88
-1.00212, 65, 41, 320, 104
-1.00212, 161, 49, 416, 112
-1.00212, 257, 49, 500, 112
-1.00212, 65, 65, 320, 128
-1.00212, 161, 73, 416, 136
-1.00212, 257, 73, 500, 136
-1.00212, 1, 89, 256, 152
-1.00212, 257, 217, 500, 280
-1.00212, 65, 241, 320, 304
-1.00212, 161, 241, 416, 304
-1.00212, 257, 241, 500, 304
-1.00212, 65, 265, 320, 328
-1.00212, 161, 265, 416, 328
-1.00212, 257, 265, 500, 328
-1.00212, 65, 289, 320, 352
-1.00212, 161, 289, 416, 352
-1.00212, 257, 289, 500, 352
-1.00212, 65, 313, 320, 375
-1.00212, 161, 313, 416, 375
-1.00212, 257, 313, 500, 375
-1.00215, 273, 161, 400, 224
-1.00221, 241, 193, 272, 256
-1.00227, 225, 81, 480, 208
-1.00231, 113, 193, 240, 256
-1.00239, 225, 209, 352, 272
-1.00243, 161, 105, 288, 168
-1.00247, 81, 145, 208, 208
-1.00247, 129, 217, 256, 280
-1.00252, 113, 113, 240, 176
-1.00266, 217, 137, 248, 200
-1.00283, 209, 97, 336, 160
-1.00291, 33, 1, 160, 64
-1.00291, 81, 1, 208, 64
-1.00291, 225, 1, 352, 64
-1.00291, 273, 1, 400, 64
-1.00291, 321, 1, 448, 64
-1.00291, 369, 1, 496, 64
-1.00291, 177, 9, 304, 72
-1.00291, 129, 17, 256, 80
-1.00291, 33, 25, 160, 88
-1.00291, 81, 25, 208, 88
-1.00291, 225, 25, 352, 88
-1.00291, 273, 25, 400, 88
-1.00291, 321, 25, 448, 88
-1.00291, 369, 25, 496, 88
-1.00291, 177, 33, 304, 96
-1.00291, 129, 41, 256, 104
-1.00291, 17, 49, 144, 112
-1.00291, 65, 49, 192, 112
-1.00291, 225, 49, 352, 112
-1.00291, 273, 49, 400, 112
-1.00291, 321, 49, 448, 112
-1.00291, 369, 49, 496, 112
-1.00291, 177, 57, 304, 120
-1.00291, 113, 65, 240, 128
-1.00291, 17, 73, 144, 136
-1.00291, 65, 73, 192, 136
-1.00291, 225, 73, 352, 136
-1.00291, 273, 73, 400, 136
-1.00291, 321, 73, 448, 136
-1.00291, 369, 73, 496, 136
-1.00291, 161, 81, 288, 144
-1.00291, 113, 89, 240, 152
-1.00291, 17, 97, 144, 160
-1.00291, 65, 97, 192, 160
-1.00291, 273, 97, 400, 160
-1.00291, 321, 97, 448, 160
-1.00291, 369, 97, 496, 160
-1.00291, 17, 121, 144, 184
-1.00291, 65, 121, 192, 184
-1.00291, 273, 121, 400, 184
-1.00291, 321, 121, 448, 184
-1.00291, 369, 121, 496, 184
-1.00291, 33, 145, 160, 208
-1.00291, 321, 145, 448, 208
-1.00291, 369, 145, 496, 208
-1.00291, 17, 169, 144, 232
-1.00291, 65, 169, 192, 232
-1.00291, 321, 169, 448, 232
-1.00291, 369, 169, 496, 232
-1.00291, 17, 193, 144, 256
-1.00291, 65, 193, 192, 256
-1.00291, 321, 193, 448, 256
-1.00291, 369, 193, 496, 256
-1.00291, 33, 217, 160, 280
-1.00291, 81, 217, 208, 280
-1.00291, 273, 217, 400, 280
-1.00291, 321, 217, 448, 280
-1.00291, 369, 217, 496, 280
-1.00291, 33, 241, 160, 304
-1.00291, 81, 241, 208, 304
-1.00291, 129, 241, 256, 304
-1.00291, 177, 241, 304, 304
-1.00291, 225, 241, 352, 304
-1.00291, 273, 241, 400, 304
-1.00291, 321, 241, 448, 304
-1.00291, 369, 241, 496, 304
-1.00291, 33, 265, 160, 328
-1.00291, 81, 265, 208, 328
-1.00291, 129, 265, 256, 328
-1.00291, 177, 265, 304, 328
-1.00291, 225, 265, 352, 328
-1.00291, 273, 265, 400, 328
-1.00291, 321, 265, 448, 328
-1.00291, 369, 265, 496, 328
-1.00291, 33, 289, 160, 352
-1.00291, 81, 289, 208, 352
-1.00291, 129, 289, 256, 352
-1.00291, 177, 289, 304, 352
-1.00291, 225, 289, 352, 352
-1.00291, 273, 289, 400, 352
-1.00291, 321, 289, 448, 352
-1.00291, 369, 289, 496, 352
-1.00291, 33, 313, 160, 375
-1.00291, 81, 313, 208, 375
-1.00291, 129, 313, 256, 375
-1.00291, 177, 313, 304, 375
-1.00291, 225, 313, 352, 375
-1.00291, 273, 313, 400, 375
-1.00291, 321, 313, 448, 375
-1.00291, 369, 313, 496, 375
-1.00292, 253, 113, 284, 240
-1.00309, 205, 169, 236, 232
-1.00315, 1, 169, 500, 232
-1.00324, 153, 1, 216, 375
-1.00326, 1, 1, 64, 375
-1.00326, 25, 1, 88, 375
-1.00326, 49, 1, 112, 375
-1.00326, 73, 1, 136, 375
-1.00326, 97, 1, 160, 375
-1.00326, 121, 1, 184, 375
-1.00326, 265, 1, 328, 375
-1.00326, 289, 1, 352, 375
-1.00326, 313, 1, 376, 375
-1.00326, 337, 1, 400, 375
-1.00326, 361, 1, 424, 375
-1.00326, 385, 1, 448, 375
-1.00326, 409, 1, 472, 375
-1.00326, 433, 1, 496, 375
-1.00326, 201, 129, 264, 375
-1.00378, 1, 129, 500, 192
-1.00383, 1, 105, 500, 168
-1.00386, 249, 121, 280, 184
-1.00387, 1, 9, 500, 72
-1.00387, 1, 33, 500, 96
-1.00387, 1, 57, 500, 120
-1.00387, 1, 81, 500, 144
-1.00387, 1, 193, 500, 256
-1.00387, 1, 217, 500, 280
-1.00387, 1, 241, 500, 304
-1.00387, 1, 265, 500, 328
-1.00387, 1, 289, 500, 352
-1.00387, 1, 313, 500, 375
-1.00403, 265, 169, 296, 232
-1.0041, 217, 209, 280, 272
-1.0043, 257, 145, 320, 208
-1.00446, 249, 121, 312, 184
-1.00464, 185, 145, 248, 272
-1.00471, 33, 177, 288, 304
-1.00473, 201, 113, 264, 176
-1.00497, 225, 97, 288, 352
-1.005, 221, 81, 252, 208
-1.00516, 205, 129, 236, 256
-1.00517, 33, 65, 288, 192
-1.00565, 205, 137, 236, 200
-1.00571, 233, 113, 296, 240
-1.00576, 249, 193, 312, 256
-1.00588, 177, 97, 240, 352
-1.0059, 237, 193, 268, 320
-1.00629, 201, 97, 264, 224
-1.00647, 209, 201, 240, 264
-1.0065, 209, 177, 240, 304
-1.00661, 265, 145, 296, 208
-1.00688, 193, 137, 224, 200
-1.00692, 257, 145, 384, 272
-1.00694, 161, 137, 224, 200
-1.00706, 257, 177, 500, 304
-1.00712, 261, 177, 292, 304
-1.00718, 113, 161, 240, 288
-1.00723, 253, 65, 284, 192
-1.00735, 265, 113, 296, 240
-1.00738, 129, 81, 384, 208
-1.00752, 193, 169, 224, 232
-1.00757, 233, 217, 264, 280
-1.00757, 209, 193, 272, 320
-1.00761, 97, 113, 224, 240
-1.00772, 265, 193, 296, 256
-1.00774, 253, 201, 284, 264
-1.00775, 193, 97, 224, 224
-1.00779, 209, 81, 240, 208
-1.00788, 169, 193, 232, 256
-1.00791, 201, 1, 264, 256
-1.00791, 225, 1, 288, 256
-1.00842, 193, 161, 224, 288
-1.00847, 225, 113, 288, 176
-1.00858, 233, 105, 264, 168
-1.00859, 193, 193, 320, 320
-1.00859, 241, 193, 368, 320
-1.00859, 277, 169, 308, 232
-1.00869, 241, 217, 304, 280
-1.00871, 161, 169, 224, 232
-1.00878, 193, 225, 256, 288
-1.00889, 169, 1, 232, 256
-1.00902, 197, 193, 228, 256
-1.00906, 225, 89, 288, 152
-1.0091, 221, 225, 252, 288
-1.0092, 201, 81, 264, 144
-1.00924, 225, 49, 352, 176
-1.00927, 197, 49, 228, 176
-1.00929, 337, 169, 400, 232
-1.00929, 361, 169, 424, 232
-1.00929, 385, 169, 448, 232
-1.00929, 409, 169, 472, 232
-1.00929, 433, 169, 496, 232
-1.00929, 1, 193, 64, 256
-1.00929, 25, 193, 88, 256
-1.00929, 49, 193, 112, 256
-1.00929, 73, 193, 136, 256
-1.00929, 97, 193, 160, 256
-1.00929, 121, 193, 184, 256
-1.00929, 145, 193, 208, 256
-1.00929, 289, 193, 352, 256
-1.00929, 313, 193, 376, 256
-1.00929, 337, 193, 400, 256
-1.00929, 361, 193, 424, 256
-1.00929, 385, 193, 448, 256
-1.00929, 409, 193, 472, 256
-1.00929, 433, 193, 496, 256
-1.00929, 17, 217, 80, 280
-1.00929, 41, 217, 104, 280
-1.00929, 65, 217, 128, 280
-1.00929, 89, 217, 152, 280
-1.00929, 113, 217, 176, 280
-1.00929, 137, 217, 200, 280
-1.00929, 161, 217, 224, 280
-1.00929, 265, 217, 328, 280
-1.00929, 289, 217, 352, 280
-1.00929, 313, 217, 376, 280
-1.00929, 337, 217, 400, 280
-1.00929, 361, 217, 424, 280
-1.00929, 385, 217, 448, 280
-1.00929, 409, 217, 472, 280
-1.00929, 433, 217, 496, 280
-1.00929, 1, 241, 64, 304
-1.00929, 25, 241, 88, 304
-1.00929, 49, 241, 112, 304
-1.00929, 73, 241, 136, 304
-1.00929, 97, 241, 160, 304
-1.00929, 121, 241, 184, 304
-1.00929, 145, 241, 208, 304
-1.00929, 169, 241, 232, 304
-1.00929, 217, 241, 280, 304
-1.00929, 241, 241, 304, 304
-1.00929, 265, 241, 328, 304
-1.00929, 289, 241, 352, 304
-1.00929, 313, 241, 376, 304
-1.00929, 337, 241, 400, 304
-1.00929, 361, 241, 424, 304
-1.00929, 385, 241, 448, 304
-1.00929, 409, 241, 472, 304
-1.00929, 433, 241, 496, 304
-1.00929, 1, 265, 64, 328
-1.00929, 25, 265, 88, 328
-1.00929, 49, 265, 112, 328
-1.00929, 73, 265, 136, 328
-1.00929, 97, 265, 160, 328
-1.00929, 121, 265, 184, 328
-1.00929, 145, 265, 208, 328
-1.00929, 169, 265, 232, 328
-1.00929, 193, 265, 256, 328
-1.00929, 217, 265, 280, 328
-1.00929, 241, 265, 304, 328
-1.00929, 265, 265, 328, 328
-1.00929, 289, 265, 352, 328
-1.00929, 313, 265, 376, 328
-1.00929, 337, 265, 400, 328
-1.00929, 361, 265, 424, 328
-1.00929, 385, 265, 448, 328
-1.00929, 409, 265, 472, 328
-1.00929, 433, 265, 496, 328
-1.00929, 1, 289, 64, 352
-1.00929, 25, 289, 88, 352
-1.00929, 49, 289, 112, 352
-1.00929, 73, 289, 136, 352
-1.00929, 97, 289, 160, 352
-1.00929, 121, 289, 184, 352
-1.00929, 145, 289, 208, 352
-1.00929, 169, 289, 232, 352
-1.00929, 193, 289, 256, 352
-1.00929, 217, 289, 280, 352
-1.00929, 241, 289, 304, 352
-1.00929, 265, 289, 328, 352
-1.00929, 289, 289, 352, 352
-1.00929, 313, 289, 376, 352
-1.00929, 337, 289, 400, 352
-1.00929, 361, 289, 424, 352
-1.00929, 385, 289, 448, 352
-1.00929, 409, 289, 472, 352
-1.00929, 433, 289, 496, 352
-1.00929, 1, 313, 64, 375
-1.00929, 25, 313, 88, 375
-1.00929, 49, 313, 112, 375
-1.00929, 73, 313, 136, 375
-1.00929, 97, 313, 160, 375
-1.00929, 121, 313, 184, 375
-1.00929, 145, 313, 208, 375
-1.00929, 169, 313, 232, 375
-1.00929, 193, 313, 256, 375
-1.00929, 217, 313, 280, 375
-1.00929, 241, 313, 304, 375
-1.00929, 265, 313, 328, 375
-1.00929, 289, 313, 352, 375
-1.00929, 313, 313, 376, 375
-1.00929, 337, 313, 400, 375
-1.00929, 361, 313, 424, 375
-1.00929, 385, 313, 448, 375
-1.00929, 409, 313, 472, 375
-1.00929, 433, 313, 496, 375
-1.0093, 205, 113, 236, 176
-1.00936, 245, 89, 276, 152
-1.00939, 225, 225, 256, 352
-1.00942, 277, 145, 308, 208
-1.00944, 181, 145, 212, 208
-1.00947, 241, 17, 272, 144
-1.00947, 193, 113, 224, 176
-1.00955, 261, 105, 292, 168
-1.00956, 397, 97, 428, 224
-1.00956, 409, 97, 440, 224
-1.00956, 421, 97, 452, 224
-1.00956, 433, 97, 464, 224
-1.00956, 445, 97, 476, 224
-1.00956, 457, 97, 488, 224
-1.00956, 469, 97, 500, 224
-1.00956, 1, 145, 32, 272
-1.00956, 13, 145, 44, 272
-1.00956, 25, 145, 56, 272
-1.00956, 37, 145, 68, 272
-1.00956, 49, 145, 80, 272
-1.00956, 61, 145, 92, 272
-1.00956, 73, 145, 104, 272
-1.00956, 85, 145, 116, 272
-1.00956, 97, 145, 128, 272
-1.00956, 109, 145, 140, 272
-1.00956, 121, 145, 152, 272
-1.00956, 133, 145, 164, 272
-1.00956, 145, 145, 176, 272
-1.00956, 157, 145, 188, 272
-1.00956, 169, 145, 200, 272
-1.00956, 181, 145, 212, 272
-1.00956, 277, 145, 308, 272
-1.00956, 289, 145, 320, 272
-1.00956, 301, 145, 332, 272
-1.00956, 313, 145, 344, 272
-1.00956, 325, 145, 356, 272
-1.00956, 337, 145, 368, 272
-1.00956, 349, 145, 380, 272
-1.00956, 361, 145, 392, 272
-1.00956, 373, 145, 404, 272
-1.00956, 385, 145, 416, 272
-1.00956, 397, 145, 428, 272
-1.00956, 409, 145, 440, 272
-1.00956, 421, 145, 452, 272
-1.00956, 433, 145, 464, 272
-1.00956, 445, 145, 476, 272
-1.00956, 457, 145, 488, 272
-1.00956, 469, 145, 500, 272
-1.00956, 1, 193, 32, 320
-1.00956, 13, 193, 44, 320
-1.00956, 25, 193, 56, 320
-1.00956, 37, 193, 68, 320
-1.00956, 49, 193, 80, 320
-1.00956, 61, 193, 92, 320
-1.00956, 73, 193, 104, 320
-1.00956, 85, 193, 116, 320
-1.00956, 97, 193, 128, 320
-1.00956, 109, 193, 140, 320
-1.00956, 121, 193, 152, 320
-1.00956, 133, 193, 164, 320
-1.00956, 145, 193, 176, 320
-1.00956, 157, 193, 188, 320
-1.00956, 169, 193, 200, 320
-1.00956, 181, 193, 212, 320
-1.00956, 277, 193, 308, 320
-1.00956, 289, 193, 320, 320
-1.00956, 301, 193, 332, 320
-1.00956, 313, 193, 344, 320
-1.00956, 325, 193, 356, 320
-1.00956, 337, 193, 368, 320
-1.00956, 349, 193, 380, 320
-1.00956, 361, 193, 392, 320
-1.00956, 373, 193, 404, 320
-1.00956, 385, 193, 416, 320
-1.00956, 397, 193, 428, 320
-1.00956, 409, 193, 440, 320
-1.00956, 421, 193, 452, 320
-1.00956, 433, 193, 464, 320
-1.00956, 445, 193, 476, 320
-1.00956, 457, 193, 488, 320
-1.00956, 469, 193, 500, 320
-1.00956, 9, 241, 40, 368
-1.00956, 21, 241, 52, 368
-1.00956, 33, 241, 64, 368
-1.00956, 45, 241, 76, 368
-1.00956, 57, 241, 88, 368
-1.00956, 69, 241, 100, 368
-1.00956, 81, 241, 112, 368
-1.00956, 93, 241, 124, 368
-1.00956, 105, 241, 136, 368
-1.00956, 117, 241, 148, 368
-1.00956, 129, 241, 160, 368
-1.00956, 141, 241, 172, 368
-1.00956, 153, 241, 184, 368
-1.00956, 165, 241, 196, 368
-1.00956, 177, 241, 208, 368
-1.00956, 189, 241, 220, 368
-1.00956, 201, 241, 232, 368
-1.00956, 213, 241, 244, 368
-1.00956, 241, 241, 272, 368
-1.00956, 253, 241, 284, 368
-1.00956, 265, 241, 296, 368
-1.00956, 277, 241, 308, 368
-1.00956, 289, 241, 320, 368
-1.00956, 301, 241, 332, 368
-1.00956, 313, 241, 344, 368
-1.00956, 325, 241, 356, 368
-1.00956, 337, 241, 368, 368
-1.00956, 349, 241, 380, 368
-1.00956, 361, 241, 392, 368
-1.00956, 373, 241, 404, 368
-1.00956, 385, 241, 416, 368
-1.00956, 397, 241, 428, 368
-1.00956, 409, 241, 440, 368
-1.00956, 421, 241, 452, 368
-1.00956, 433, 241, 464, 368
-1.00956, 445, 241, 476, 368
-1.00956, 457, 241, 488, 368
-1.00956, 469, 241, 500, 368
-1.00958, 181, 121, 212, 184
-1.00961, 277, 265, 308, 328
-1.00961, 289, 265, 320, 328
-1.00961, 301, 265, 332, 328
-1.00961, 313, 265, 344, 328
-1.00961, 325, 265, 356, 328
-1.00961, 337, 265, 368, 328
-1.00961, 349, 265, 380, 328
-1.00961, 361, 265, 392, 328
-1.00961, 373, 265, 404, 328
-1.00961, 385, 265, 416, 328
-1.00961, 397, 265, 428, 328
-1.00961, 409, 265, 440, 328
-1.00961, 421, 265, 452, 328
-1.00961, 433, 265, 464, 328
-1.00961, 445, 265, 476, 328
-1.00961, 457, 265, 488, 328
-1.00961, 469, 265, 500, 328
-1.00961, 1, 289, 32, 352
-1.00961, 13, 289, 44, 352
-1.00961, 25, 289, 56, 352
-1.00961, 37, 289, 68, 352
-1.00961, 49, 289, 80, 352
-1.00961, 61, 289, 92, 352
-1.00961, 73, 289, 104, 352
-1.00961, 85, 289, 116, 352
-1.00961, 97, 289, 128, 352
-1.00961, 109, 289, 140, 352
-1.00961, 121, 289, 152, 352
-1.00961, 133, 289, 164, 352
-1.00961, 145, 289, 176, 352
-1.00961, 157, 289, 188, 352
-1.00961, 169, 289, 200, 352
-1.00961, 181, 289, 212, 352
-1.00961, 193, 289, 224, 352
-1.00961, 205, 289, 236, 352
-1.00961, 217, 289, 248, 352
-1.00961, 229, 289, 260, 352
-1.00961, 241, 289, 272, 352
-1.00961, 253, 289, 284, 352
-1.00961, 265, 289, 296, 352
-1.00961, 277, 289, 308, 352
-1.00961, 289, 289, 320, 352
-1.00961, 301, 289, 332, 352
-1.00961, 313, 289, 344, 352
-1.00961, 325, 289, 356, 352
-1.00961, 337, 289, 368, 352
-1.00961, 349, 289, 380, 352
-1.00961, 361, 289, 392, 352
-1.00961, 373, 289, 404, 352
-1.00961, 385, 289, 416, 352
-1.00961, 397, 289, 428, 352
-1.00961, 409, 289, 440, 352
-1.00961, 421, 289, 452, 352
-1.00961, 433, 289, 464, 352
-1.00961, 445, 289, 476, 352
-1.00961, 457, 289, 488, 352
-1.00961, 469, 289, 500, 352
-1.00961, 1, 313, 32, 375
-1.00961, 13, 313, 44, 375
-1.00961, 25, 313, 56, 375
-1.00961, 37, 313, 68, 375
-1.00961, 49, 313, 80, 375
-1.00961, 61, 313, 92, 375
-1.00961, 73, 313, 104, 375
-1.00961, 85, 313, 116, 375
-1.00961, 97, 313, 128, 375
-1.00961, 109, 313, 140, 375
-1.00961, 121, 313, 152, 375
-1.00961, 133, 313, 164, 375
-1.00961, 145, 313, 176, 375
-1.00961, 157, 313, 188, 375
-1.00961, 169, 313, 200, 375
-1.00961, 181, 313, 212, 375
-1.00961, 193, 313, 224, 375
-1.00961, 205, 313, 236, 375
-1.00961, 217, 313, 248, 375
-1.00961, 229, 313, 260, 375
-1.00961, 241, 313, 272, 375
-1.00961, 253, 313, 284, 375
-1.00961, 265, 313, 296, 375
-1.00961, 277, 313, 308, 375
-1.00961, 289, 313, 320, 375
-1.00961, 301, 313, 332, 375
-1.00961, 313, 313, 344, 375
-1.00961, 325, 313, 356, 375
-1.00961, 337, 313, 368, 375
-1.00961, 349, 313, 380, 375
-1.00961, 361, 313, 392, 375
-1.00961, 373, 313, 404, 375
-1.00961, 385, 313, 416, 375
-1.00961, 397, 313, 428, 375
-1.00961, 409, 313, 440, 375
-1.00961, 421, 313, 452, 375
-1.00961, 433, 313, 464, 375
-1.00961, 445, 313, 476, 375
-1.00961, 457, 313, 488, 375
-1.00961, 469, 313, 500, 375
-1.00966, 161, 33, 288, 160
-1.00968, 169, 97, 232, 224
-1.00977, 249, 65, 312, 320
-1.00989, 113, 49, 240, 176
-1.00995, 193, 33, 448, 160
-1.00997, 257, 113, 320, 240
-1.01005, 273, 97, 400, 224
-1.01038, 17, 1, 144, 128
-1.01038, 65, 1, 192, 128
-1.01038, 113, 1, 240, 128
-1.01038, 225, 1, 352, 128
-1.01038, 273, 1, 400, 128
-1.01038, 321, 1, 448, 128
-1.01038, 369, 1, 496, 128
-1.01038, 17, 49, 144, 176
-1.01038, 65, 49, 192, 176
-1.01038, 273, 49, 400, 176
-1.01038, 321, 49, 448, 176
-1.01038, 369, 49, 496, 176
-1.01038, 1, 97, 128, 224
-1.01038, 49, 97, 176, 224
-1.01038, 321, 97, 448, 224
-1.01038, 369, 97, 496, 224
-1.01038, 1, 145, 128, 272
-1.01038, 49, 145, 176, 272
-1.01038, 321, 145, 448, 272
-1.01038, 369, 145, 496, 272
-1.01038, 17, 193, 144, 320
-1.01038, 65, 193, 192, 320
-1.01038, 321, 193, 448, 320
-1.01038, 369, 193, 496, 320
-1.01038, 33, 241, 160, 368
-1.01038, 81, 241, 208, 368
-1.01038, 129, 241, 256, 368
-1.01038, 177, 241, 304, 368
-1.01038, 225, 241, 352, 368
-1.01038, 273, 241, 400, 368
-1.01038, 321, 241, 448, 368
-1.01038, 369, 241, 496, 368
-1.01045, 153, 97, 216, 352
-1.01047, 1, 17, 256, 144
-1.01047, 97, 17, 352, 144
-1.01047, 65, 241, 320, 368
-1.01047, 161, 241, 416, 368
-1.01047, 257, 241, 500, 368
-1.01082, 145, 1, 208, 256
-1.01086, 1, 33, 64, 288
-1.01086, 25, 33, 88, 288
-1.01086, 49, 33, 112, 288
-1.01086, 73, 33, 136, 288
-1.01086, 97, 33, 160, 288
-1.01086, 121, 33, 184, 288
-1.01086, 289, 33, 352, 288
-1.01086, 313, 33, 376, 288
-1.01086, 337, 33, 400, 288
-1.01086, 361, 33, 424, 288
-1.01086, 385, 33, 448, 288
-1.01086, 409, 33, 472, 288
-1.01086, 433, 33, 496, 288
-1.01086, 9, 129, 72, 375
-1.01086, 33, 129, 96, 375
-1.01086, 57, 129, 120, 375
-1.01086, 81, 129, 144, 375
-1.01086, 105, 129, 168, 375
-1.01086, 129, 129, 192, 375
-1.01086, 289, 129, 352, 375
-1.01086, 313, 129, 376, 375
-1.01086, 337, 129, 400, 375
-1.01086, 361, 129, 424, 375
-1.01086, 385, 129, 448, 375
-1.01086, 409, 129, 472, 375
-1.01086, 433, 129, 496, 375
-1.01236, 233, 65, 296, 192
-1.01267, 257, 177, 320, 304
-1.01293, 185, 209, 248, 336
-1.0138, 257, 65, 320, 192
-1.01393, 209, 33, 272, 160
-1.01439, 161, 145, 224, 272
-1.01442, 233, 225, 296, 352
-1.01458, 241, 17, 304, 144
-1.01471, 177, 49, 240, 176
-1.01478, 17, 1, 80, 128
-1.01478, 41, 1, 104, 128
-1.01478, 65, 1, 128, 128
-1.01478, 89, 1, 152, 128
-1.01478, 113, 1, 176, 128
-1.01478, 137, 1, 200, 128
-1.01478, 161, 1, 224, 128
-1.01478, 185, 1, 248, 128
-1.01478, 289, 1, 352, 128
-1.01478, 313, 1, 376, 128
-1.01478, 337, 1, 400, 128
-1.01478, 361, 1, 424, 128
-1.01478, 385, 1, 448, 128
-1.01478, 409, 1, 472, 128
-1.01478, 433, 1, 496, 128
-1.01478, 265, 17, 328, 144
-1.01478, 1, 49, 64, 176
-1.01478, 25, 49, 88, 176
-1.01478, 49, 49, 112, 176
-1.01478, 73, 49, 136, 176
-1.01478, 97, 49, 160, 176
-1.01478, 121, 49, 184, 176
-1.01478, 145, 49, 208, 176
-1.01478, 289, 49, 352, 176
-1.01478, 313, 49, 376, 176
-1.01478, 337, 49, 400, 176
-1.01478, 361, 49, 424, 176
-1.01478, 385, 49, 448, 176
-1.01478, 409, 49, 472, 176
-1.01478, 433, 49, 496, 176
-1.01478, 1, 97, 64, 224
-1.01478, 25, 97, 88, 224
-1.01478, 49, 97, 112, 224
-1.01478, 73, 97, 136, 224
-1.01478, 97, 97, 160, 224
-1.01478, 121, 97, 184, 224
-1.01478, 145, 97, 208, 224
-1.01478, 289, 97, 352, 224
-1.01478, 313, 97, 376, 224
-1.01478, 337, 97, 400, 224
-1.01478, 361, 97, 424, 224
-1.01478, 385, 97, 448, 224
-1.01478, 409, 97, 472, 224
-1.01478, 433, 97, 496, 224
-1.01478, 17, 145, 80, 272
-1.01478, 41, 145, 104, 272
-1.01478, 65, 145, 128, 272
-1.01478, 89, 145, 152, 272
-1.01478, 113, 145, 176, 272
-1.01478, 137, 145, 200, 272
-1.01478, 289, 145, 352, 272
-1.01478, 313, 145, 376, 272
-1.01478, 337, 145, 400, 272
-1.01478, 361, 145, 424, 272
-1.01478, 385, 145, 448, 272
-1.01478, 409, 145, 472, 272
-1.01478, 433, 145, 496, 272
-1.01478, 17, 193, 80, 320
-1.01478, 41, 193, 104, 320
-1.01478, 65, 193, 128, 320
-1.01478, 89, 193, 152, 320
-1.01478, 113, 193, 176, 320
-1.01478, 137, 193, 200, 320
-1.01478, 161, 193, 224, 320
-1.01478, 289, 193, 352, 320
-1.01478, 313, 193, 376, 320
-1.01478, 337, 193, 400, 320
-1.01478, 361, 193, 424, 320
-1.01478, 385, 193, 448, 320
-1.01478, 409, 193, 472, 320
-1.01478, 433, 193, 496, 320
-1.01478, 17, 241, 80, 368
-1.01478, 41, 241, 104, 368
-1.01478, 65, 241, 128, 368
-1.01478, 89, 241, 152, 368
-1.01478, 113, 241, 176, 368
-1.01478, 137, 241, 200, 368
-1.01478, 161, 241, 224, 368
-1.01478, 209, 241, 272, 368
-1.01478, 265, 241, 328, 368
-1.01478, 289, 241, 352, 368
-1.01478, 313, 241, 376, 368
-1.01478, 337, 241, 400, 368
-1.01478, 361, 241, 424, 368
-1.01478, 385, 241, 448, 368
-1.01478, 409, 241, 472, 368
-1.01478, 433, 241, 496, 368
-1.04299, 65, 129, 320, 375
-1.04299, 161, 129, 416, 375
-1.05701, 193, 33, 448, 288
-1.06014, 1, 33, 256, 288
-1.09444, 257, 129, 500, 375
-1.09758, 97, 1, 352, 256
