1873
-0.276597, 1, 1, 500, 334
-0.406196, 225, 1, 480, 334
-0.424093, 1, 65, 500, 320
-0.526847, 193, 1, 448, 256
-0.543277, 33, 1, 288, 334
-0.588394, 129, 1, 384, 334
-0.632261, 97, 65, 352, 320
-0.694312, 1, 65, 256, 320
-0.852017, 321, 1, 448, 256
-0.859451, 273, 1, 400, 334
-0.861729, 33, 1, 160, 334
-0.86312, 193, 33, 320, 288
-0.868492, 145, 65, 272, 320
-0.873305, 321, 1, 448, 334
-0.876852, 225, 1, 352, 334
-0.877319, 273, 1, 400, 256
-0.879741, 113, 1, 240, 334
-0.88, 1, 145, 500, 272
-0.884205, 49, 65, 176, 320
-0.891827, 369, 1, 496, 256
-0.892725, 369, 1, 496, 334
-0.895365, 97, 33, 224, 288
-0.89547, 1, 81, 500, 208
-0.896093, 1, 193, 500, 320
-0.898444, 1, 33, 128, 288
-0.898761, 1, 33, 500, 160
-0.902353, 161, 1, 288, 334
-0.913899, 33, 145, 288, 272
-0.916397, 193, 65, 448, 192
-0.918395, 1, 97, 256, 224
-0.918634, 225, 1, 480, 128
-0.918754, 97, 81, 352, 208
-0.922906, 193, 129, 448, 256
-0.923724, 33, 209, 288, 334
-0.927326, 193, 65, 320, 192
-0.932733, 129, 161, 256, 288
-0.93647, 113, 97, 240, 224
-0.936981, 49, 193, 176, 320
-0.939165, 369, 65, 496, 192
-0.939442, 33, 145, 160, 272
-0.940274, 377, 65, 440, 192
-0.941429, 129, 177, 384, 304
-0.942933, 97, 145, 160, 272
-0.943133, 257, 177, 500, 304
-0.943586, 137, 161, 200, 288
-0.943843, 257, 49, 320, 176
-0.944422, 273, 33, 400, 160
-0.945521, 65, 17, 320, 144
-0.945966, 33, 81, 96, 208
-0.94666, 337, 113, 464, 240
-0.947125, 345, 1, 408, 128
-0.947565, 33, 81, 160, 208
-0.94789, 305, 1, 368, 128
-0.949649, 121, 113, 184, 240
-0.950181, 177, 97, 240, 224
-0.950377, 25, 177, 88, 304
-0.951616, 217, 65, 280, 192
-0.951677, 193, 113, 320, 240
-0.951896, 73, 113, 136, 240
-0.953284, 433, 97, 496, 224
-0.953641, 9, 65, 72, 192
-0.95368, 105, 209, 168, 334
-0.954037, 281, 65, 344, 192
-0.954254, 153, 97, 216, 224
-0.954657, 81, 145, 208, 272
-0.954997, 321, 49, 448, 176
-0.955213, 161, 161, 224, 288
-0.955565, 401, 113, 464, 240
-0.955887, 65, 193, 128, 320
-0.956022, 321, 1, 448, 128
-0.956355, 273, 81, 400, 208
-0.956601, 401, 65, 464, 192
-0.956671, 57, 65, 120, 192
-0.95669, 41, 89, 104, 152
-0.956862, 201, 145, 264, 272
-0.957142, 361, 113, 424, 240
-0.958486, 433, 145, 496, 272
-0.958638, 249, 81, 312, 144
-0.958921, 209, 97, 272, 160
-0.959069, 369, 161, 496, 288
-0.959202, 97, 97, 160, 224
-0.959296, 321, 73, 384, 136
-0.959577, 425, 49, 488, 176
-0.960266, 49, 129, 112, 256
-0.960666, 81, 121, 144, 184
-0.960795, 361, 57, 424, 120
-0.961031, 137, 177, 200, 240
-0.961103, 145, 49, 272, 176
-0.961481, 265, 113, 328, 240
-0.961502, 145, 209, 272, 334
-0.962568, 241, 97, 304, 224
-0.962577, 337, 65, 400, 192
-0.962666, 1, 65, 64, 128
-0.96275, 201, 153, 264, 216
-0.962951, 281, 17, 344, 144
-0.962986, 321, 193, 448, 320
-0.963009, 289, 113, 352, 240
-0.963085, 369, 1, 496, 128
-0.963169, 225, 17, 352, 144
-0.963356, 321, 113, 384, 240
-0.963846, 369, 17, 432, 144
-0.963955, 433, 161, 496, 224
-0.964112, 433, 113, 496, 176
-0.964184, 417, 81, 480, 144
-0.964263, 209, 73, 272, 136
-0.964291, 241, 129, 368, 256
-0.964323, 73, 97, 136, 160
-0.964422, 1, 193, 128, 320
-0.964497, 345, 81, 408, 144
-0.964797, 1, 33, 128, 160
-0.965294, 121, 137, 184, 200
-0.965477, 177, 161, 304, 288
-0.965705, 297, 81, 360, 144
-0.965884, 265, 57, 328, 120
-0.965965, 369, 81, 432, 144
-0.966338, 1, 17, 64, 144
-0.96638, 417, 1, 480, 128
-0.966387, 361, 161, 424, 288
-0.966468, 401, 161, 464, 288
-0.96654, 169, 97, 232, 160
-0.967, 305, 65, 368, 192
-0.967227, 65, 33, 192, 160
-0.967236, 313, 17, 376, 80
-0.96734, 329, 49, 392, 112
-0.96755, 25, 185, 88, 248
-0.967878, 177, 169, 240, 232
-0.968271, 401, 129, 464, 192
-0.968503, 89, 209, 152, 272
-0.968871, 361, 153, 424, 216
-0.96904, 273, 89, 336, 152
-0.969153, 25, 129, 88, 256
-0.969174, 401, 161, 464, 224
-0.969198, 153, 209, 216, 334
-0.969418, 65, 273, 128, 334
-0.969979, 401, 57, 464, 120
-0.970049, 433, 49, 496, 112
-0.970079, 249, 1, 312, 128
-0.970243, 461, 81, 492, 208
-0.970285, 33, 33, 96, 160
-0.97037, 129, 201, 192, 264
-0.970503, 353, 9, 416, 72
-0.970578, 1, 161, 64, 288
-0.970635, 241, 145, 304, 272
-0.970642, 97, 169, 160, 232
-0.970874, 401, 33, 464, 288
-0.970899, 321, 137, 384, 200
-0.970978, 305, 49, 368, 112
-0.971009, 329, 1, 392, 256
-0.971248, 217, 193, 280, 320
-0.97127, 9, 161, 72, 224
-0.971388, 113, 241, 176, 304
-0.97155, 233, 105, 296, 168
-0.97164, 209, 81, 336, 144
-0.971656, 57, 145, 120, 208
-0.971701, 393, 17, 456, 144
-0.971898, 25, 209, 88, 272
-0.971923, 257, 81, 288, 144
-0.971941, 321, 161, 384, 288
-0.971949, 113, 89, 176, 152
-0.972339, 317, 1, 348, 64
-0.972488, 65, 233, 128, 296
-0.97255, 393, 209, 456, 334
-0.972609, 281, 113, 344, 176
-0.972714, 305, 41, 432, 104
-0.972732, 241, 49, 368, 112
-0.972909, 401, 185, 464, 248
-0.972979, 225, 193, 352, 320
-0.973051, 17, 97, 80, 160
-0.973066, 225, 145, 288, 208
-0.973359, 145, 177, 176, 304
-0.973523, 177, 73, 240, 136
-0.973706, 209, 89, 240, 152
-0.973737, 113, 273, 176, 334
-0.973834, 129, 177, 256, 240
-0.974082, 241, 193, 304, 320
-0.974121, 201, 65, 264, 320
-0.974129, 145, 1, 272, 128
-0.974249, 65, 73, 128, 136
-0.974271, 289, 81, 416, 144
-0.974284, 289, 145, 416, 272
-0.974388, 289, 17, 416, 80
-0.974475, 225, 33, 288, 288
-0.974754, 277, 49, 308, 176
-0.974829, 389, 49, 420, 176
-0.974872, 217, 177, 280, 240
-0.974904, 161, 49, 224, 176
-0.974912, 361, 129, 424, 192
-0.975074, 161, 97, 288, 160
-0.975094, 41, 65, 104, 128
-0.975413, 157, 161, 188, 288
-0.975415, 49, 193, 176, 256
-0.975417, 113, 113, 240, 176
-0.975459, 337, 105, 400, 168
-0.97553, 33, 145, 96, 208
-0.975626, 65, 201, 128, 264
-0.975729, 81, 49, 144, 176
-0.975787, 369, 121, 496, 184
-0.975818, 393, 209, 456, 272
-0.97588, 269, 97, 300, 224
-0.975902, 441, 97, 472, 224
-0.975926, 393, 57, 424, 120
-0.975936, 45, 65, 76, 192
-0.975979, 393, 273, 456, 334
-0.976048, 433, 65, 496, 320
-0.976101, 277, 81, 308, 144
-0.976173, 393, 89, 456, 152
-0.976216, 145, 233, 208, 296
-0.976241, 57, 121, 120, 184
-0.976247, 25, 121, 88, 184
-0.976267, 337, 161, 400, 224
-0.976513, 209, 105, 336, 168
-0.976558, 65, 89, 192, 152
-0.976605, 1, 73, 128, 136
-0.976616, 45, 81, 76, 144
-0.976634, 97, 209, 224, 334
-0.97668, 57, 97, 88, 224
-0.976703, 353, 1, 416, 256
-0.976733, 337, 65, 464, 128
-0.976787, 369, 33, 432, 96
-0.9769, 105, 49, 168, 176
-0.976911, 113, 65, 176, 320
-0.976912, 233, 57, 296, 120
-0.976986, 33, 161, 160, 224
-0.977002, 49, 217, 176, 280
-0.977039, 97, 145, 160, 208
-0.977165, 285, 97, 316, 224
-0.977195, 73, 113, 104, 240
-0.977361, 209, 121, 272, 184
-0.97753, 465, 33, 496, 160
-0.977626, 57, 169, 120, 232
-0.977697, 1, 185, 64, 248
-0.977716, 321, 1, 352, 128
-0.977723, 409, 65, 440, 192
-0.97775, 201, 97, 232, 224
-0.977807, 461, 97, 492, 160
-0.97799, 337, 145, 464, 208
-0.97802, 393, 1, 456, 64
-0.978024, 101, 81, 132, 208
-0.978125, 1, 113, 64, 240
-0.978207, 97, 97, 128, 160
-0.978243, 25, 1, 88, 256
-0.978376, 17, 97, 144, 160
-0.978503, 301, 89, 332, 152
-0.978568, 69, 129, 100, 192
-0.97863, 197, 97, 228, 160
-0.978638, 273, 1, 336, 256
-0.978778, 417, 209, 480, 334
-0.978805, 65, 241, 192, 304
-0.978823, 353, 1, 384, 128
-0.978827, 389, 81, 420, 144
-0.978832, 161, 145, 288, 208
-0.978855, 57, 17, 120, 144
-0.978887, 297, 1, 360, 256
-0.978908, 249, 33, 312, 288
-0.978965, 313, 89, 344, 152
-0.978979, 125, 129, 156, 256
-0.979073, 261, 57, 292, 120
-0.9791, 129, 209, 192, 334
-0.979106, 49, 273, 176, 334
-0.979166, 277, 105, 308, 168
-0.979205, 289, 105, 320, 168
-0.979227, 257, 105, 384, 168
-0.979247, 225, 1, 288, 128
-0.979253, 441, 145, 472, 272
-0.979272, 225, 97, 256, 160
-0.979288, 145, 65, 208, 320
-0.979299, 85, 97, 116, 160
-0.979317, 289, 9, 352, 72
-0.979319, 333, 17, 364, 144
-0.979361, 393, 241, 456, 304
-0.979373, 193, 161, 224, 288
-0.979466, 361, 209, 424, 334
-0.97951, 241, 209, 304, 272
-0.979571, 213, 129, 244, 256
-0.979587, 361, 57, 392, 120
-0.979589, 361, 105, 424, 168
-0.979622, 433, 137, 496, 200
-0.979647, 141, 241, 172, 304
-0.97966, 249, 137, 312, 200
-0.979671, 81, 137, 208, 200
-0.979705, 449, 113, 480, 176
-0.979706, 69, 209, 100, 334
-0.97971, 177, 145, 240, 208
-0.979753, 153, 273, 216, 334
-0.979773, 377, 33, 440, 288
-0.979798, 465, 57, 496, 120
-0.979813, 421, 129, 452, 256
-0.979898, 293, 33, 324, 160
-0.979939, 149, 113, 180, 240
-0.980033, 149, 169, 180, 232
-0.980038, 57, 89, 88, 152
-0.980111, 417, 25, 480, 88
-0.980116, 169, 65, 232, 320
-0.980161, 133, 193, 164, 320
-0.980219, 105, 129, 136, 192
-0.980337, 141, 193, 172, 256
-0.980368, 253, 49, 284, 176
-0.980392, 69, 89, 100, 152
-0.980399, 245, 73, 276, 136
-0.980478, 409, 73, 440, 136
-0.98049, 369, 209, 496, 334
-0.980523, 193, 17, 256, 144
-0.980717, 265, 25, 328, 88
-0.980766, 137, 129, 168, 256
-0.980769, 33, 121, 160, 184
-0.980851, 453, 129, 484, 256
-0.980901, 181, 161, 212, 288
-0.980931, 433, 1, 496, 64
-0.981084, 145, 113, 208, 176
-0.981102, 29, 177, 60, 240
-0.981109, 353, 89, 480, 152
-0.981131, 85, 113, 116, 240
-0.981286, 1, 161, 32, 224
-0.981305, 369, 41, 496, 104
-0.981346, 321, 65, 352, 128
-0.981431, 145, 273, 272, 334
-0.981468, 213, 145, 244, 208
-0.981534, 361, 201, 424, 264
-0.981552, 57, 65, 120, 320
-0.981635, 33, 65, 64, 192
-0.981707, 369, 81, 400, 144
-0.98181, 85, 65, 116, 192
-0.981826, 241, 129, 368, 192
-0.981842, 245, 177, 276, 240
-0.981886, 433, 185, 496, 248
-0.981913, 161, 73, 288, 136
-0.981916, 457, 153, 488, 216
-0.981923, 265, 49, 296, 176
-0.981928, 353, 17, 384, 80
-0.981943, 241, 17, 368, 80
-0.982016, 393, 33, 456, 96
-0.982063, 33, 1, 96, 334
-0.982071, 57, 145, 88, 272
-0.982086, 381, 57, 412, 120
-0.982121, 313, 113, 376, 176
-0.982147, 353, 169, 480, 232
-0.982157, 357, 153, 388, 216
-0.982167, 225, 153, 256, 216
-0.982195, 129, 201, 256, 264
-0.982237, 441, 153, 472, 216
-0.982244, 321, 273, 448, 334
-0.982251, 253, 105, 284, 168
-0.982334, 169, 161, 200, 288
-0.982341, 421, 161, 452, 224
-0.98248, 377, 177, 440, 240
-0.982505, 417, 273, 480, 334
-0.982535, 37, 113, 68, 240
-0.982565, 53, 129, 84, 192
-0.98262, 289, 65, 320, 128
-0.982674, 357, 81, 388, 144
-0.982805, 241, 177, 304, 240
-0.982828, 345, 73, 376, 136
-0.982847, 57, 153, 88, 216
-0.982883, 373, 65, 404, 192
-0.982949, 113, 145, 144, 272
-0.982998, 81, 169, 208, 232
-0.98305, 381, 1, 412, 128
-0.983061, 69, 65, 100, 192
-0.983062, 209, 209, 272, 272
-0.983078, 297, 81, 328, 208
-0.983132, 269, 145, 300, 272
-0.983181, 153, 153, 216, 216
-0.983207, 177, 41, 304, 104
-0.983211, 161, 113, 192, 240
-0.983238, 129, 65, 192, 192
-0.983251, 405, 265, 436, 328
-0.983268, 73, 161, 104, 288
-0.983294, 289, 145, 352, 208
-0.983352, 337, 201, 464, 264
-0.983366, 365, 1, 396, 128
-0.983373, 417, 273, 448, 334
-0.983389, 225, 145, 256, 272
-0.983449, 329, 273, 360, 334
-0.983471, 337, 9, 464, 72
-0.983553, 237, 97, 268, 160
-0.98363, 29, 161, 60, 288
-0.983637, 217, 81, 248, 208
-0.983641, 261, 201, 292, 264
-0.983735, 333, 9, 364, 72
-0.983792, 305, 113, 432, 176
-0.983842, 177, 169, 304, 232
-0.983865, 361, 225, 424, 288
-0.983884, 417, 249, 480, 312
-0.983895, 265, 137, 296, 200
-0.983941, 89, 161, 120, 288
-0.984, 1, 137, 64, 200
-0.98407, 1, 1, 64, 256
-0.984078, 1, 209, 128, 272
-0.984096, 241, 153, 272, 216
-0.984115, 389, 153, 420, 216
-0.98412, 1, 209, 64, 334
-0.984176, 289, 193, 352, 320
-0.984224, 393, 1, 456, 334
-0.984235, 125, 209, 156, 272
-0.98424, 265, 33, 296, 96
-0.984248, 257, 113, 320, 176
-0.984255, 317, 65, 348, 192
-0.984289, 369, 129, 400, 192
-0.984311, 81, 129, 112, 192
-0.984361, 389, 121, 420, 184
-0.984413, 189, 97, 220, 224
-0.984417, 333, 89, 364, 152
-0.984422, 25, 273, 88, 334
-0.98443, 141, 273, 172, 334
-0.984471, 49, 217, 80, 280
-0.9845, 57, 49, 88, 176
-0.98455, 201, 153, 232, 216
-0.984567, 321, 129, 352, 192
-0.984587, 221, 73, 252, 136
-0.984588, 413, 1, 444, 128
-0.98465, 193, 193, 256, 320
-0.98474, 65, 65, 96, 128
-0.984771, 437, 129, 468, 192
-0.98479, 189, 169, 220, 232
-0.984836, 277, 41, 308, 104
-0.984845, 121, 113, 184, 176
-0.984847, 409, 113, 440, 240
-0.984848, 265, 105, 296, 168
-0.9849, 225, 273, 352, 334
-0.984927, 313, 25, 344, 88
-0.984935, 377, 153, 408, 216
-0.985072, 53, 193, 84, 256
-0.98519, 329, 1, 392, 334
-0.985218, 273, 1, 336, 334
-0.985228, 209, 41, 272, 104
-0.985331, 57, 1, 120, 334
-0.985379, 421, 137, 452, 200
-0.985383, 113, 225, 240, 288
-0.985383, 365, 1, 396, 64
-0.985415, 417, 209, 480, 272
-0.98542, 261, 169, 292, 232
-0.98542, 89, 233, 152, 296
-0.985427, 421, 177, 452, 304
-0.985565, 153, 65, 216, 128
-0.985594, 201, 273, 264, 334
-0.985671, 333, 65, 364, 128
-0.985678, 309, 49, 340, 112
-0.985683, 81, 73, 112, 136
-0.985693, 89, 33, 152, 288
-0.985706, 1, 81, 32, 144
-0.985785, 409, 113, 440, 176
-0.98579, 145, 249, 272, 312
-0.985824, 393, 33, 424, 96
-0.98593, 165, 177, 196, 240
-0.985965, 325, 41, 356, 104
-0.985973, 241, 1, 304, 334
-0.985979, 1, 57, 32, 120
-0.98598, 49, 193, 80, 320
-0.986111, 409, 49, 440, 112
-0.98612, 45, 105, 76, 168
-0.986124, 113, 89, 240, 152
-0.986168, 173, 97, 204, 224
-0.98619, 409, 209, 440, 334
-0.986232, 341, 129, 372, 192
-0.986308, 185, 121, 248, 184
-0.98634, 437, 177, 468, 240
-0.986448, 29, 153, 60, 216
-0.986453, 297, 41, 328, 104
-0.986456, 1, 97, 32, 224
-0.986505, 305, 33, 336, 160
-0.986528, 1, 185, 128, 248
-0.986589, 25, 233, 88, 296
-0.986636, 1, 209, 64, 272
-0.986638, 289, 153, 416, 216
-0.986667, 273, 193, 400, 320
-0.986704, 469, 33, 500, 96
-0.986715, 393, 97, 424, 224
-0.986723, 33, 97, 64, 160
-0.986737, 205, 177, 236, 304
-0.986807, 73, 225, 104, 288
-0.986836, 201, 249, 264, 312
-0.986866, 1, 49, 32, 176
-0.986894, 429, 65, 460, 192
-0.986909, 361, 1, 424, 334
-0.986979, 69, 249, 100, 312
-0.986994, 321, 273, 384, 334
-0.987016, 333, 129, 364, 256
-0.987078, 209, 209, 336, 272
-0.987119, 281, 145, 312, 272
-0.987168, 225, 249, 288, 312
-0.987247, 345, 49, 376, 112
-0.987285, 313, 169, 376, 232
-0.987337, 369, 113, 400, 240
-0.987405, 277, 129, 308, 192
-0.987414, 417, 1, 448, 64
-0.987443, 21, 49, 52, 176
-0.987463, 433, 193, 464, 320
-0.987515, 69, 153, 100, 216
-0.987516, 241, 33, 304, 96
-0.987532, 453, 73, 484, 136
-0.987559, 265, 161, 328, 288
-0.987561, 157, 233, 188, 296
-0.987565, 1, 233, 128, 296
-0.987597, 101, 129, 132, 256
-0.987599, 261, 1, 292, 128
-0.987686, 153, 209, 216, 272
-0.987687, 17, 161, 48, 288
-0.987708, 225, 169, 352, 232
-0.987786, 177, 201, 240, 264
-0.98783, 465, 145, 496, 272
-0.987867, 13, 145, 44, 208
-0.987937, 237, 97, 268, 224
-0.987956, 305, 233, 432, 296
-0.987991, 161, 121, 288, 184
-0.988016, 21, 97, 52, 224
-0.988025, 97, 1, 160, 334
-0.988035, 433, 1, 496, 334
-0.988085, 81, 65, 208, 128
-0.98812, 41, 185, 72, 248
-0.988133, 129, 129, 160, 192
-0.988143, 113, 89, 144, 152
-0.988156, 205, 177, 236, 240
-0.988166, 409, 137, 440, 200
-0.988187, 421, 201, 452, 264
-0.988219, 177, 169, 208, 232
-0.988272, 113, 81, 144, 208
-0.988278, 145, 1, 208, 334
-0.988283, 257, 97, 288, 224
-0.988294, 9, 1, 72, 334
-0.988298, 145, 1, 208, 128
-0.988306, 297, 1, 360, 334
-0.988393, 217, 121, 248, 184
-0.98841, 9, 185, 40, 248
-0.988448, 121, 209, 152, 334
-0.988465, 129, 81, 160, 208
-0.988466, 233, 73, 264, 136
-0.988543, 281, 273, 344, 334
-0.988551, 305, 177, 432, 240
-0.988621, 1, 49, 128, 112
-0.988672, 101, 177, 132, 304
-0.988699, 249, 81, 312, 112
-0.988706, 233, 193, 264, 320
-0.988843, 157, 209, 188, 334
-0.988873, 361, 77, 424, 108
-0.988883, 361, 65, 424, 96
-0.989001, 217, 177, 248, 240
-0.989103, 217, 1, 280, 334
-0.989121, 137, 217, 168, 280
-0.989181, 73, 201, 104, 264
-0.989191, 93, 121, 124, 184
-0.989219, 141, 137, 172, 200
-0.989223, 357, 49, 388, 176
-0.989234, 209, 85, 272, 116
-0.989312, 161, 105, 192, 168
-0.989324, 461, 121, 492, 184
-0.989374, 81, 129, 144, 160
-0.98938, 469, 153, 500, 216
-0.989403, 345, 65, 376, 192
-0.989446, 309, 113, 340, 176
-0.989514, 329, 21, 392, 52
-0.989529, 241, 93, 304, 124
-0.989529, 141, 65, 172, 192
-0.989573, 193, 89, 448, 152
-0.989645, 1, 105, 32, 168
-0.989687, 37, 209, 68, 272
-0.989695, 125, 233, 156, 296
-0.989724, 89, 257, 152, 320
-0.989781, 169, 109, 232, 140
-0.989789, 177, 233, 240, 296
-0.989813, 161, 273, 192, 334
-0.98982, 249, 161, 280, 288
-0.989821, 329, 77, 392, 108
-0.989845, 209, 105, 272, 136
-0.989865, 193, 65, 448, 128
-0.989906, 57, 93, 120, 124
-0.989947, 93, 73, 124, 136
-0.989947, 313, 33, 376, 64
-0.989968, 421, 113, 452, 176
-0.990008, 401, 137, 464, 168
-0.99001, 5, 145, 36, 272
-0.990022, 409, 161, 440, 288
-0.990023, 329, 9, 392, 40
-0.99005, 153, 177, 216, 208
-0.990074, 65, 113, 320, 176
-0.990076, 289, 81, 352, 112
-0.990107, 193, 169, 256, 200
-0.990115, 353, 225, 480, 288
-0.990116, 45, 17, 76, 144
-0.99013, 297, 93, 360, 124
-0.990138, 225, 1, 288, 64
-0.99021, 1, 161, 64, 192
-0.990211, 313, 301, 376, 332
-0.990237, 401, 157, 464, 188
-0.99025, 57, 153, 120, 184
-0.990277, 297, 17, 360, 48
-0.990299, 33, 137, 288, 200
-0.99031, 417, 101, 480, 132
-0.990317, 169, 1, 232, 334
-0.990318, 393, 1, 424, 128
-0.990324, 249, 69, 312, 100
-0.990343, 33, 89, 96, 120
-0.990353, 433, 153, 496, 184
-0.990371, 257, 105, 320, 136
-0.990394, 73, 141, 136, 172
-0.990411, 393, 69, 456, 100
-0.990424, 161, 17, 288, 80
-0.990427, 417, 121, 480, 152
-0.990474, 353, 17, 416, 48
-0.990476, 321, 113, 352, 240
-0.990483, 393, 293, 456, 324
-0.99051, 161, 225, 288, 288
-0.990532, 9, 85, 72, 116
-0.990538, 425, 1, 456, 128
-0.990539, 433, 73, 496, 104
-0.99056, 425, 141, 488, 172
-0.990562, 377, 89, 440, 120
-0.990564, 329, 57, 392, 88
-0.990568, 33, 169, 288, 232
-0.990621, 73, 169, 136, 200
-0.990632, 281, 69, 344, 100
-0.99064, 201, 157, 264, 188
-0.990667, 217, 169, 280, 200
-0.990684, 9, 173, 72, 204
-0.990691, 289, 37, 352, 68
-0.990751, 417, 89, 480, 120
-0.990772, 73, 109, 136, 140
-0.990778, 321, 209, 384, 334
-0.990779, 97, 265, 224, 328
-0.990789, 33, 225, 96, 256
-0.990797, 89, 153, 152, 184
-0.990828, 129, 205, 192, 236
-0.99083, 25, 213, 88, 244
-0.99083, 225, 145, 288, 176
-0.990844, 41, 117, 104, 148
-0.990855, 337, 161, 400, 192
-0.990857, 105, 233, 168, 264
-0.99094, 401, 185, 464, 216
-0.990953, 361, 161, 424, 192
-0.990975, 33, 105, 96, 136
-0.99098, 193, 113, 448, 176
-0.990986, 193, 137, 448, 200
-0.990987, 389, 145, 420, 272
-0.990997, 333, 65, 364, 192
-0.991008, 113, 245, 176, 276
-0.991013, 97, 189, 160, 220
-0.991018, 393, 209, 456, 240
-0.991018, 1, 41, 64, 104
-0.991019, 385, 121, 448, 152
-0.99103, 321, 93, 384, 124
-0.991047, 273, 1, 304, 128
-0.99109, 9, 185, 72, 216
-0.991109, 321, 149, 384, 180
-0.991131, 361, 53, 424, 84
-0.991133, 225, 117, 288, 148
-0.991169, 57, 281, 120, 312
-0.991184, 393, 221, 456, 252
-0.991187, 393, 57, 456, 88
-0.991196, 321, 161, 352, 288
-0.991208, 169, 97, 232, 128
-0.99121, 25, 145, 88, 176
-0.99121, 41, 77, 104, 108
-0.991212, 105, 177, 168, 208
-0.991217, 353, 89, 416, 120
-0.991224, 65, 293, 128, 324
-0.991225, 113, 273, 176, 304
-0.99126, 225, 73, 288, 104
-0.991267, 257, 57, 320, 88
-0.991271, 65, 221, 128, 252
-0.991278, 361, 149, 424, 180
-0.991292, 105, 125, 168, 156
-0.991296, 297, 57, 360, 88
-0.991314, 65, 41, 192, 104
-0.991333, 1, 89, 500, 152
-0.991343, 57, 129, 120, 160
-0.991346, 265, 93, 328, 124
-0.991362, 289, 137, 352, 168
-0.991375, 229, 49, 260, 176
-0.991383, 265, 117, 328, 148
-0.991391, 33, 209, 288, 272
-0.991392, 1, 113, 64, 144
-0.991397, 433, 165, 496, 196
-0.991408, 169, 165, 232, 196
-0.991417, 9, 97, 72, 128
-0.991422, 297, 113, 360, 144
-0.991437, 377, 233, 440, 264
-0.991442, 313, 289, 376, 320
-0.991455, 121, 137, 184, 168
-0.991463, 137, 225, 200, 256
-0.991473, 105, 221, 168, 252
-0.991476, 393, 281, 456, 312
-0.991525, 1, 65, 64, 96
-0.991525, 393, 197, 456, 228
-0.991534, 269, 193, 300, 320
-0.991548, 49, 165, 112, 196
-0.991555, 241, 49, 272, 176
-0.991557, 369, 265, 432, 328
-0.99158, 113, 165, 176, 196
-0.99159, 113, 261, 176, 292
-0.991595, 97, 209, 160, 240
-0.991598, 193, 181, 256, 212
-0.991599, 33, 17, 64, 144
-0.991606, 137, 193, 200, 224
-0.991607, 17, 197, 80, 228
-0.991612, 433, 61, 496, 92
-0.991619, 265, 45, 328, 76
-0.991648, 137, 241, 200, 272
-0.991658, 425, 33, 488, 64
-0.991666, 33, 1, 96, 64
-0.991673, 81, 89, 144, 120
-0.991684, 201, 145, 264, 176
-0.991728, 353, 237, 416, 268
-0.991729, 401, 169, 464, 200
-0.991734, 201, 117, 264, 148
-0.991747, 217, 181, 280, 212
-0.991769, 25, 161, 88, 192
-0.991776, 241, 213, 304, 244
-0.991787, 65, 205, 128, 236
-0.991789, 417, 197, 480, 228
-0.9918, 57, 181, 120, 212
-0.991808, 433, 21, 496, 52
-0.991813, 105, 57, 168, 120
-0.991827, 337, 33, 400, 64
-0.991832, 433, 177, 496, 208
-0.991878, 9, 129, 72, 160
-0.99188, 345, 113, 376, 240
-0.99189, 65, 237, 128, 268
-0.991891, 393, 305, 456, 334
-0.991903, 289, 5, 352, 36
-0.991903, 361, 177, 424, 208
-0.991913, 433, 209, 496, 240
-0.991914, 33, 81, 288, 144
-0.991958, 453, 33, 484, 160
-0.991982, 97, 1, 224, 64
-0.992034, 281, 225, 344, 288
-0.992045, 137, 89, 200, 152
-0.992185, 33, 233, 288, 296
-0.992224, 245, 1, 276, 128
-0.992229, 1, 257, 128, 320
-0.992246, 121, 1, 184, 334
-0.992262, 337, 21, 368, 52
-0.992323, 401, 69, 432, 100
-0.99233, 261, 85, 292, 116
-0.99238, 373, 69, 404, 100
-0.992395, 357, 17, 388, 48
-0.992397, 257, 193, 500, 256
-0.992412, 45, 85, 76, 116
-0.992423, 177, 257, 240, 320
-0.992434, 389, 69, 420, 100
-0.992438, 357, 113, 388, 240
-0.992438, 257, 209, 384, 272
-0.992486, 469, 61, 500, 92
-0.992493, 85, 209, 116, 334
-0.992512, 193, 161, 448, 224
-0.99252, 69, 153, 100, 184
-0.992542, 393, 57, 424, 88
-0.992553, 241, 81, 272, 112
-0.992556, 417, 293, 448, 324
-0.992559, 209, 93, 240, 124
-0.992575, 385, 81, 416, 112
-0.992578, 213, 105, 244, 136
-0.992582, 273, 101, 304, 132
-0.992622, 221, 85, 252, 116
-0.992627, 337, 193, 400, 256
-0.992636, 77, 93, 108, 124
-0.992647, 325, 81, 356, 112
-0.992655, 249, 233, 312, 296
-0.992658, 361, 77, 392, 108
-0.992663, 449, 121, 480, 152
-0.992674, 433, 165, 464, 196
-0.992675, 9, 161, 40, 192
-0.992683, 353, 33, 384, 64
-0.992684, 89, 93, 120, 124
-0.992695, 437, 133, 468, 164
-0.992699, 353, 1, 384, 32
-0.9927, 1, 185, 500, 248
-0.992702, 457, 101, 488, 132
-0.992702, 281, 85, 312, 116
-0.992713, 153, 177, 184, 208
-0.992719, 461, 77, 492, 108
-0.992722, 1, 113, 500, 176
-0.992732, 373, 13, 404, 44
-0.992737, 421, 153, 452, 184
-0.992742, 369, 161, 400, 192
-0.992747, 285, 101, 316, 132
-0.99275, 225, 249, 352, 312
-0.992753, 53, 221, 84, 252
-0.992754, 1, 173, 32, 204
-0.992767, 325, 297, 356, 328
-0.992769, 441, 153, 472, 184
-0.992774, 313, 81, 344, 112
-0.992777, 261, 61, 292, 92
-0.99278, 53, 149, 84, 180
-0.992781, 109, 129, 140, 160
-0.992783, 201, 105, 232, 136
-0.992785, 241, 101, 272, 132
-0.992787, 317, 9, 348, 40
-0.992788, 421, 133, 452, 164
-0.99279, 389, 93, 420, 124
-0.99279, 121, 221, 152, 252
-0.992795, 225, 81, 352, 112
-0.992797, 205, 165, 236, 196
-0.992803, 437, 121, 468, 152
-0.992809, 349, 77, 380, 108
-0.992812, 325, 37, 356, 68
-0.992813, 305, 61, 336, 92
-0.992815, 405, 289, 436, 320
-0.992817, 277, 125, 308, 156
-0.992826, 105, 141, 136, 172
-0.992835, 65, 89, 96, 120
-0.992843, 97, 113, 128, 144
-0.992852, 409, 121, 440, 152
-0.992853, 421, 169, 452, 200
-0.992862, 265, 193, 328, 256
-0.992866, 9, 1, 72, 64
-0.992875, 453, 161, 484, 192
-0.992877, 129, 209, 384, 272
-0.992881, 389, 153, 420, 184
-0.992886, 97, 125, 128, 156
-0.992889, 277, 49, 308, 80
-0.99289, 225, 173, 256, 204
-0.992891, 137, 241, 168, 272
-0.992892, 337, 77, 368, 108
-0.992892, 401, 81, 432, 112
-0.992895, 309, 113, 340, 240
-0.992907, 285, 65, 316, 96
-0.992908, 325, 21, 356, 52
-0.992908, 101, 153, 132, 184
-0.99291, 405, 277, 436, 308
-0.99291, 33, 125, 64, 156
-0.992914, 417, 281, 448, 312
-0.992917, 361, 65, 392, 96
-0.992927, 333, 93, 364, 124
-0.992929, 333, 285, 364, 316
-0.992933, 29, 181, 60, 212
-0.99294, 337, 37, 368, 68
-0.99295, 273, 65, 304, 96
-0.992952, 321, 137, 352, 168
-0.992957, 57, 161, 88, 192
-0.992957, 89, 161, 120, 192
-0.992959, 277, 113, 308, 144
-0.992963, 309, 29, 340, 60
-0.992964, 37, 105, 68, 136
-0.992966, 185, 177, 216, 208
-0.992972, 293, 89, 324, 120
-0.992974, 289, 117, 320, 148
-0.992975, 373, 81, 404, 112
-0.992977, 137, 201, 168, 232
-0.99298, 169, 109, 200, 140
-0.992982, 85, 109, 116, 140
-0.992984, 57, 209, 88, 240
-0.992986, 165, 177, 196, 208
-0.992988, 125, 233, 156, 264
-0.992992, 81, 133, 112, 164
-0.992998, 337, 301, 368, 332
-0.993003, 297, 37, 328, 68
-0.993005, 437, 189, 468, 220
-0.993008, 273, 37, 304, 68
-0.993013, 129, 49, 256, 112
-0.993017, 273, 137, 304, 168
-0.993017, 73, 213, 104, 244
-0.993021, 141, 261, 172, 292
-0.993022, 65, 117, 96, 148
-0.993024, 321, 93, 352, 124
-0.993025, 453, 89, 484, 120
-0.993026, 465, 117, 496, 148
-0.993026, 73, 225, 104, 256
-0.993029, 229, 101, 260, 132
-0.993032, 133, 129, 164, 160
-0.993032, 381, 57, 412, 88
-0.993032, 25, 141, 56, 172
-0.993036, 301, 73, 332, 104
-0.993037, 357, 157, 388, 188
-0.993039, 229, 161, 260, 192
-0.993039, 73, 105, 104, 136
-0.993043, 241, 161, 272, 192
-0.993047, 257, 117, 288, 148
-0.993064, 265, 49, 296, 80
-0.993064, 369, 145, 400, 176
-0.993065, 421, 181, 452, 212
-0.993066, 309, 41, 340, 72
-0.993069, 253, 101, 284, 132
-0.993069, 13, 113, 44, 144
-0.99307, 57, 101, 88, 132
-0.993071, 141, 277, 172, 308
-0.993075, 421, 121, 452, 152
-0.993083, 161, 297, 192, 328
-0.993123, 33, 273, 288, 334
-0.99314, 17, 25, 144, 88
-0.99326, 97, 33, 128, 160
-0.993301, 21, 209, 52, 334
-0.993348, 469, 193, 500, 320
-0.993429, 193, 101, 320, 132
-0.993448, 441, 33, 472, 160
-0.993523, 241, 273, 304, 334
-0.993533, 257, 233, 500, 296
-0.993627, 225, 41, 480, 104
-0.99364, 257, 17, 500, 80
-0.993727, 305, 69, 432, 100
-0.993756, 5, 1, 36, 128
-0.993796, 129, 177, 256, 208
-0.993842, 65, 57, 320, 120
-0.993859, 405, 57, 420, 120
-0.994017, 349, 161, 380, 288
-0.994023, 273, 37, 400, 68
-0.994029, 1, 1, 128, 64
-0.994068, 37, 209, 68, 334
-0.994135, 269, 81, 284, 144
-0.994226, 281, 193, 312, 320
-0.994233, 1, 225, 500, 288
-0.99427, 321, 81, 448, 112
-0.994285, 369, 121, 496, 152
-0.99429, 1, 137, 500, 200
-0.994291, 241, 93, 368, 124
-0.994404, 399, 41, 414, 104
-0.994422, 129, 185, 384, 248
-0.99444, 353, 69, 480, 100
-0.994458, 273, 57, 400, 88
-0.994482, 261, 81, 276, 144
-0.994509, 403, 81, 418, 144
-0.994523, 279, 81, 294, 144
-0.994565, 205, 17, 236, 144
-0.994567, 139, 201, 154, 264
-0.994572, 17, 1, 48, 128
-0.994578, 1, 65, 500, 128
-0.994583, 237, 145, 268, 272
-0.994615, 193, 1, 256, 334
-0.99462, 369, 249, 496, 312
-0.994648, 327, 1, 342, 64
-0.994654, 461, 81, 476, 144
-0.994672, 69, 17, 100, 144
-0.99477, 441, 169, 456, 232
-0.994775, 129, 273, 384, 334
-0.994785, 65, 241, 192, 272
-0.994796, 289, 93, 416, 124
-0.994807, 153, 49, 184, 176
-0.994833, 1, 165, 128, 196
-0.994835, 273, 21, 400, 52
-0.994861, 213, 81, 228, 144
-0.994871, 225, 65, 352, 96
-0.994889, 65, 305, 192, 334
-0.994893, 365, 161, 396, 288
-0.994901, 353, 153, 480, 184
-0.994919, 369, 1, 384, 64
-0.994924, 1, 249, 500, 312
-0.994931, 219, 81, 234, 144
-0.994949, 413, 65, 428, 128
-0.99497, 177, 89, 304, 120
-0.994989, 313, 89, 328, 152
-0.994993, 335, 9, 350, 72
-0.994999, 193, 49, 224, 176
-0.995006, 177, 161, 304, 192
-0.995006, 83, 89, 98, 152
-0.995028, 1, 161, 500, 224
-0.99503, 1, 89, 128, 120
-0.995051, 145, 193, 160, 256
-0.99506, 147, 241, 162, 304
-0.995105, 361, 17, 376, 80
-0.995117, 257, 273, 500, 334
-0.995137, 273, 81, 400, 112
-0.995145, 263, 57, 278, 120
-0.995161, 109, 97, 124, 160
-0.995181, 65, 229, 192, 260
-0.995202, 371, 57, 386, 120
-0.995219, 57, 81, 72, 144
-0.99523, 103, 89, 118, 152
-0.995243, 389, 193, 420, 320
-0.995259, 369, 49, 496, 80
-0.995268, 467, 65, 482, 128
-0.995269, 1, 41, 500, 104
-0.995272, 155, 169, 170, 232
-0.995285, 429, 1, 444, 64
-0.995286, 129, 33, 384, 96
-0.995297, 273, 1, 400, 32
-0.995299, 321, 13, 448, 44
-0.99532, 461, 121, 476, 184
-0.995328, 49, 173, 176, 204
-0.995363, 145, 113, 272, 144
-0.995363, 381, 81, 396, 144
-0.995363, 257, 113, 384, 144
-0.995369, 193, 145, 320, 176
-0.99538, 51, 81, 66, 144
-0.995393, 307, 89, 322, 152
-0.99541, 49, 217, 176, 248
-0.995411, 393, 57, 408, 120
-0.99542, 17, 117, 144, 148
-0.995455, 65, 97, 192, 128
-0.99547, 161, 1, 416, 64
-0.995503, 429, 273, 444, 334
-0.995507, 255, 73, 270, 136
-0.995516, 353, 93, 480, 124
-0.995535, 337, 173, 464, 204
-0.995545, 1, 153, 128, 184
-0.995558, 369, 137, 496, 168
-0.995562, 295, 97, 310, 160
-0.995563, 1, 273, 500, 334
-0.995577, 321, 57, 448, 88
-0.995577, 17, 105, 144, 136
-0.995583, 113, 225, 240, 256
-0.995586, 49, 197, 176, 228
-0.995593, 231, 97, 246, 160
-0.995596, 229, 145, 244, 208
-0.995609, 447, 161, 462, 224
-0.995621, 207, 97, 222, 160
-0.99563, 119, 121, 134, 184
-0.995639, 319, 1, 334, 64
-0.995663, 1, 65, 16, 128
-0.995681, 375, 81, 390, 144
-0.995703, 455, 121, 470, 184
-0.995728, 455, 97, 470, 160
-0.995729, 129, 189, 256, 220
-0.995736, 225, 97, 240, 160
-0.995742, 193, 117, 320, 148
-0.99575, 1, 77, 128, 108
-0.995761, 113, 137, 240, 168
-0.99578, 75, 97, 90, 160
-0.995787, 217, 33, 248, 160
-0.995796, 321, 37, 448, 68
-0.995802, 365, 81, 380, 144
-0.995805, 387, 73, 402, 136
-0.995805, 91, 89, 106, 152
-0.995806, 255, 97, 270, 160
-0.995807, 113, 33, 144, 160
-0.995809, 373, 153, 388, 216
-0.995821, 359, 73, 374, 136
-0.995824, 305, 297, 432, 328
-0.995833, 285, 105, 300, 168
-0.995835, 439, 145, 454, 208
-0.995838, 377, 161, 408, 288
-0.995842, 241, 97, 256, 160
-0.995847, 57, 1, 88, 128
-0.995848, 45, 81, 60, 144
-0.99585, 369, 185, 496, 216
-0.995855, 321, 65, 336, 128
-0.995857, 33, 129, 160, 160
-0.995859, 225, 37, 352, 68
-0.995873, 377, 57, 392, 120
-0.995875, 97, 89, 112, 152
-0.995879, 269, 105, 284, 168
-0.995888, 113, 25, 240, 88
-0.995897, 49, 293, 176, 324
-0.995897, 477, 33, 492, 96
-0.995906, 249, 97, 264, 160
-0.99591, 153, 249, 168, 312
-0.995919, 473, 153, 488, 216
-0.995928, 177, 77, 304, 108
-0.995935, 49, 269, 176, 300
-0.995971, 141, 225, 156, 288
-0.99598, 1, 181, 128, 212
-0.995985, 257, 125, 384, 156
-0.995985, 339, 89, 354, 152
-0.996, 369, 105, 496, 136
-0.996006, 63, 81, 78, 144
-0.99601, 333, 113, 348, 176
-0.996014, 49, 281, 176, 312
-0.996026, 193, 209, 224, 334
-0.996035, 145, 305, 272, 334
-0.996043, 321, 25, 448, 56
-0.996063, 285, 81, 300, 144
-0.996065, 77, 129, 92, 192
-0.996066, 369, 81, 496, 112
-0.99607, 97, 161, 224, 192
-0.996082, 341, 17, 356, 80
-0.996095, 383, 129, 398, 192
-0.996098, 469, 33, 500, 288
-0.996103, 467, 105, 482, 168
-0.996114, 261, 169, 276, 232
-0.996116, 351, 81, 366, 144
-0.996116, 161, 169, 176, 232
-0.996145, 485, 9, 500, 72
-0.99616, 279, 41, 294, 104
-0.996177, 369, 273, 496, 334
-0.996177, 217, 145, 232, 208
-0.996196, 321, 285, 448, 316
-0.996197, 145, 293, 272, 324
-0.996206, 93, 113, 108, 176
-0.996212, 263, 193, 278, 256
-0.996212, 65, 109, 192, 140
-0.99622, 83, 129, 98, 192
-0.996221, 145, 101, 272, 132
-0.996224, 189, 169, 204, 232
-0.996233, 333, 89, 348, 152
-0.996233, 279, 105, 294, 168
-0.996248, 5, 193, 36, 320
-0.996264, 347, 17, 362, 80
-0.996269, 273, 41, 288, 104
-0.996275, 311, 49, 326, 112
-0.996282, 51, 177, 66, 240
-0.996285, 321, 25, 336, 88
-0.996287, 319, 89, 334, 152
-0.996289, 343, 65, 358, 128
-0.9963, 289, 57, 304, 120
-0.996321, 65, 257, 192, 288
-0.99633, 481, 185, 496, 248
-0.996356, 113, 129, 128, 192
-0.996359, 473, 97, 488, 160
-0.996362, 429, 41, 444, 104
-0.996362, 301, 81, 316, 144
-0.996364, 321, 233, 448, 264
-0.996371, 241, 297, 368, 328
-0.996382, 155, 273, 170, 334
-0.996384, 481, 81, 496, 144
-0.996395, 229, 73, 244, 136
-0.996413, 291, 121, 306, 184
-0.996414, 395, 81, 410, 144
-0.996423, 321, 1, 448, 32
-0.996425, 195, 177, 210, 240
-0.996427, 71, 129, 86, 192
-0.996438, 113, 213, 240, 244
-0.996442, 7, 81, 22, 144
-0.996452, 209, 133, 336, 164
-0.996457, 335, 137, 350, 200
-0.996459, 63, 105, 78, 168
-0.996467, 273, 1, 304, 256
-0.996468, 329, 25, 344, 88
-0.996468, 261, 33, 292, 288
-0.996473, 69, 73, 84, 136
-0.99648, 353, 17, 368, 80
-0.996484, 325, 89, 340, 152
-0.996484, 389, 153, 404, 216
-0.996492, 129, 233, 384, 296
-0.996493, 129, 129, 144, 192
-0.99651, 365, 161, 380, 224
-0.996512, 113, 149, 240, 180
-0.996521, 329, 273, 344, 334
-0.996527, 5, 161, 20, 224
-0.996528, 123, 145, 138, 208
-0.996537, 225, 281, 352, 312
-0.996543, 321, 109, 448, 140
-0.996557, 207, 161, 222, 224
-0.996568, 473, 57, 488, 120
-0.996595, 369, 33, 384, 96
-0.996596, 45, 177, 60, 240
-0.996596, 423, 273, 438, 334
-0.996611, 457, 65, 488, 320
-0.996617, 453, 145, 468, 208
-0.996627, 145, 237, 272, 268
-0.996635, 353, 57, 368, 120
-0.996636, 365, 129, 380, 192
-0.996642, 365, 57, 380, 120
-0.996649, 177, 177, 192, 240
-0.996658, 421, 33, 452, 288
-0.99666, 321, 129, 448, 160
-0.996679, 113, 125, 240, 156
-0.996709, 145, 281, 272, 312
-0.996754, 273, 273, 400, 334
-0.996776, 129, 201, 256, 232
-0.996777, 1, 1, 500, 64
-0.996823, 403, 69, 418, 100
-0.996838, 33, 141, 160, 172
-0.996867, 81, 185, 208, 216
-0.99688, 341, 1, 372, 256
-0.996911, 1, 205, 128, 236
-0.996913, 145, 269, 272, 300
-0.996941, 343, 21, 358, 52
-0.996951, 177, 173, 304, 204
-0.996978, 1, 229, 128, 260
-0.997006, 213, 65, 244, 320
-0.997016, 403, 53, 418, 84
-0.997048, 411, 69, 426, 100
-0.99707, 229, 65, 260, 320
-0.997078, 49, 153, 176, 184
-0.997079, 285, 1, 316, 256
-0.997079, 157, 65, 188, 320
-0.997094, 1, 193, 128, 224
-0.997129, 409, 33, 440, 288
-0.997133, 443, 169, 458, 200
-0.997136, 305, 161, 432, 192
-0.997148, 249, 33, 280, 288
-0.99717, 177, 65, 304, 96
-0.997203, 369, 37, 496, 68
-0.997208, 349, 21, 364, 52
-0.997225, 1, 217, 128, 248
-0.997242, 429, 289, 444, 320
-0.997253, 409, 57, 424, 88
-0.997257, 225, 173, 352, 204
-0.997261, 137, 65, 168, 320
-0.997266, 289, 149, 416, 180
-0.997275, 209, 101, 224, 132
-0.997292, 369, 17, 496, 48
-0.997295, 265, 209, 328, 334
-0.997307, 125, 65, 156, 320
-0.997324, 209, 25, 336, 56
-0.997324, 337, 197, 464, 228
-0.997325, 451, 157, 466, 188
-0.997332, 225, 49, 352, 80
-0.997372, 145, 257, 272, 288
-0.997382, 121, 1, 184, 128
-0.997396, 357, 1, 388, 256
-0.997404, 253, 81, 268, 112
-0.997414, 403, 81, 418, 112
-0.997423, 197, 65, 228, 320
-0.997423, 395, 65, 410, 96
-0.997424, 397, 77, 412, 108
-0.997432, 353, 221, 480, 252
-0.99749, 361, 17, 376, 48
-0.997494, 379, 69, 394, 100
-0.997494, 49, 85, 176, 116
-0.99751, 337, 21, 352, 52
-0.997525, 327, 81, 342, 112
-0.997534, 41, 1, 72, 256
-0.99754, 277, 81, 292, 112
-0.997558, 385, 69, 400, 100
-0.997561, 369, 17, 384, 48
-0.997569, 437, 33, 468, 288
-0.997581, 217, 85, 232, 116
-0.99759, 459, 101, 474, 132
-0.997592, 289, 93, 304, 124
-0.997595, 135, 217, 150, 248
-0.997603, 215, 105, 230, 136
-0.997612, 261, 81, 276, 112
-0.997613, 241, 145, 368, 176
-0.997624, 5, 169, 20, 200
-0.997647, 391, 77, 406, 108
-0.997649, 305, 245, 432, 276
-0.997682, 389, 33, 420, 288
-0.997702, 177, 45, 304, 76
-0.997704, 81, 89, 96, 120
-0.997705, 441, 157, 456, 188
-0.997709, 225, 1, 352, 32
-0.997725, 423, 289, 438, 320
-0.997727, 449, 121, 464, 152
-0.99773, 101, 93, 116, 124
-0.997733, 337, 33, 352, 64
-0.997739, 59, 85, 74, 116
-0.997751, 329, 1, 360, 256
-0.997776, 329, 297, 344, 328
-0.99778, 129, 81, 256, 112
-0.997784, 147, 241, 162, 272
-0.997793, 295, 89, 310, 120
-0.997803, 333, 137, 348, 168
-0.997805, 223, 85, 238, 116
-0.99781, 355, 21, 370, 52
-0.997811, 369, 73, 384, 104
-0.997815, 333, 81, 348, 112
-0.997815, 65, 1, 320, 64
-0.997829, 225, 229, 352, 260
-0.997837, 441, 181, 456, 212
-0.997841, 299, 101, 314, 132
-0.997844, 29, 1, 60, 256
-0.997853, 107, 93, 122, 124
-0.997873, 271, 81, 286, 112
-0.997877, 341, 81, 356, 112
-0.99788, 261, 93, 276, 124
-0.99788, 49, 1, 176, 64
-0.997887, 327, 1, 342, 32
-0.997887, 67, 221, 82, 252
-0.997892, 385, 81, 400, 112
-0.997895, 173, 1, 204, 256
-0.997901, 177, 185, 304, 216
-0.997909, 207, 113, 222, 144
-0.997912, 53, 1, 84, 256
-0.997919, 455, 121, 470, 152
-0.997919, 153, 185, 168, 216
-0.99792, 211, 89, 226, 120
-0.997922, 439, 129, 454, 160
-0.997923, 141, 205, 156, 236
-0.997938, 429, 277, 444, 308
-0.99794, 269, 45, 284, 76
-0.997942, 91, 97, 106, 128
-0.997945, 1, 73, 16, 104
-0.997951, 241, 85, 256, 116
-0.997952, 281, 97, 296, 128
-0.997952, 103, 125, 118, 156
-0.997955, 437, 169, 452, 200
-0.997955, 185, 65, 216, 320
-0.997957, 363, 73, 378, 104
-0.997957, 451, 133, 466, 164
-0.99796, 311, 33, 326, 64
-0.997966, 367, 1, 382, 32
-0.997966, 203, 97, 218, 128
-0.997977, 307, 57, 322, 88
-0.997978, 331, 25, 346, 56
-0.997999, 305, 185, 432, 216
-0.998007, 167, 177, 182, 208
-0.998013, 1, 33, 256, 96
-0.998014, 225, 161, 352, 192
-0.998014, 47, 85, 62, 116
-0.998016, 283, 81, 298, 112
-0.998019, 355, 33, 370, 64
-0.998021, 29, 145, 44, 176
-0.998025, 251, 101, 266, 132
-0.998029, 409, 81, 424, 112
-0.99803, 123, 129, 138, 160
-0.998039, 71, 149, 86, 180
-0.99804, 93, 133, 108, 164
-0.998046, 333, 9, 348, 40
-0.998047, 101, 109, 116, 140
-0.998049, 343, 37, 358, 68
-0.99805, 33, 129, 48, 160
-0.99805, 347, 77, 362, 108
-0.998057, 457, 149, 472, 180
-0.99806, 247, 85, 262, 116
-0.99806, 429, 133, 444, 164
-0.998065, 471, 157, 486, 188
-0.998066, 177, 213, 304, 244
-0.998069, 121, 141, 136, 172
-0.998069, 371, 157, 386, 188
-0.998069, 1, 257, 128, 288
-0.998072, 225, 185, 352, 216
-0.998072, 383, 165, 398, 196
-0.998083, 95, 153, 110, 184
-0.998089, 221, 105, 236, 136
-0.99809, 461, 121, 476, 152
-0.998091, 281, 45, 296, 76
-0.998092, 465, 89, 480, 120
-0.998094, 335, 93, 350, 124
-0.998094, 335, 285, 350, 316
-0.998096, 427, 21, 442, 52
-0.9981, 331, 37, 346, 68
-0.998105, 341, 289, 356, 320
-0.998106, 321, 269, 448, 300
-0.998108, 275, 45, 290, 76
-0.998109, 1, 65, 32, 320
-0.998109, 341, 93, 356, 124
-0.998109, 273, 93, 288, 124
-0.998112, 141, 233, 156, 264
-0.998122, 369, 209, 496, 240
-0.998122, 379, 81, 394, 112
-0.998129, 369, 233, 496, 264
-0.99813, 157, 169, 172, 200
-0.998132, 377, 1, 408, 256
-0.998134, 445, 133, 460, 164
-0.998136, 213, 117, 228, 148
-0.998137, 273, 233, 400, 264
-0.998138, 287, 41, 302, 72
-0.998142, 287, 105, 302, 136
-0.998145, 429, 1, 444, 32
-0.998146, 353, 77, 368, 108
-0.998148, 113, 133, 128, 164
-0.998152, 347, 301, 362, 332
-0.998153, 349, 37, 364, 68
-0.998157, 269, 117, 284, 148
-0.998158, 289, 173, 416, 204
-0.998159, 319, 81, 334, 112
-0.998164, 325, 25, 340, 56
-0.998167, 9, 89, 24, 120
-0.998173, 445, 145, 460, 176
-0.998174, 365, 157, 380, 188
-0.998176, 317, 65, 332, 96
-0.998176, 145, 193, 160, 224
-0.998177, 259, 161, 274, 192
-0.998221, 305, 221, 432, 252
-0.998221, 305, 1, 336, 256
-0.998245, 97, 285, 224, 316
-0.998263, 1, 269, 128, 300
-0.9983, 161, 129, 288, 160
-0.998325, 225, 13, 352, 44
-0.998336, 161, 225, 288, 256
-0.998352, 369, 5, 496, 36
-0.998375, 1, 289, 128, 320
-0.998379, 129, 69, 256, 100
-0.998401, 69, 65, 100, 320
-0.998405, 301, 93, 332, 108
-0.998405, 409, 87, 440, 102
-0.998406, 277, 123, 308, 138
-0.998406, 325, 139, 356, 154
-0.998406, 325, 291, 356, 306
-0.998406, 417, 279, 448, 294
-0.998407, 137, 209, 168, 224
-0.998407, 285, 55, 316, 70
-0.998408, 417, 287, 448, 302
-0.998408, 185, 107, 216, 122
-0.998408, 337, 299, 368, 314
-0.998409, 145, 233, 176, 248
-0.998411, 153, 181, 184, 196
-0.998411, 265, 49, 296, 64
-0.998413, 297, 61, 328, 76
-0.998413, 333, 37, 364, 52
-0.998413, 449, 131, 480, 146
-0.998413, 393, 59, 424, 74
-0.998414, 421, 135, 452, 150
-0.998414, 105, 155, 136, 170
-0.998415, 277, 39, 308, 54
-0.998416, 121, 131, 152, 146
-0.998417, 317, 5, 348, 20
-0.998417, 305, 53, 336, 68
-0.998418, 409, 123, 440, 138
-0.998418, 101, 161, 132, 176
-0.998419, 353, 7, 384, 22
-0.998419, 365, 87, 396, 102
-0.99842, 133, 237, 164, 252
-0.99842, 241, 171, 272, 186
-0.998421, 45, 97, 76, 112
-0.998422, 273, 141, 304, 156
-0.998422, 453, 111, 484, 126
-0.998423, 73, 219, 104, 234
-0.998424, 301, 99, 332, 114
-0.998425, 269, 203, 300, 218
-0.998425, 277, 117, 308, 132
-0.998425, 57, 89, 88, 104
-0.998425, 9, 191, 40, 206
-0.998426, 325, 89, 356, 104
-0.998426, 273, 65, 304, 80
-0.998427, 249, 97, 280, 112
-0.998428, 93, 103, 124, 118
-0.998428, 57, 99, 88, 114
-0.998429, 85, 165, 116, 180
-0.998429, 269, 57, 300, 72
-0.99843, 337, 91, 368, 106
-0.998431, 81, 133, 112, 148
-0.998431, 345, 39, 376, 54
-0.998432, 365, 81, 396, 96
-0.998432, 285, 47, 316, 62
-0.998432, 305, 35, 336, 50
-0.998432, 273, 101, 304, 116
-0.998433, 433, 125, 464, 140
-0.998435, 185, 177, 216, 192
-0.998435, 453, 119, 484, 134
-0.998437, 405, 285, 436, 300
-0.998438, 333, 23, 364, 38
-0.998438, 409, 73, 440, 88
-0.998438, 409, 131, 440, 146
-0.998438, 53, 151, 84, 166
-0.998439, 389, 159, 420, 174
-0.998439, 261, 65, 292, 80
-0.998439, 461, 95, 492, 110
-0.99844, 29, 181, 60, 196
-0.998441, 5, 175, 36, 190
-0.998441, 121, 225, 152, 240
-0.998441, 361, 71, 424, 86
-0.998442, 225, 179, 256, 194
-0.998443, 285, 63, 316, 78
-0.998443, 213, 91, 244, 106
-0.998444, 205, 101, 236, 116
-0.998445, 77, 93, 108, 108
-0.998445, 421, 159, 452, 174
-0.998446, 37, 125, 68, 140
-0.998448, 469, 65, 500, 80
-0.998449, 453, 163, 484, 178
-0.998449, 461, 155, 492, 170
-0.998449, 65, 153, 96, 168
-0.998452, 57, 223, 88, 238
-0.998452, 297, 43, 328, 58
-0.998452, 257, 95, 320, 110
-0.998453, 313, 91, 344, 106
-0.998454, 65, 131, 96, 146
-0.998455, 377, 155, 408, 170
-0.998455, 457, 101, 488, 116
-0.998456, 45, 85, 76, 100
-0.99846, 305, 69, 336, 84
-0.998461, 217, 85, 280, 100
-0.998462, 317, 35, 348, 50
-0.998463, 101, 129, 132, 144
-0.998464, 229, 163, 260, 178
-0.998464, 421, 181, 452, 196
-0.998464, 357, 31, 388, 46
-0.998465, 89, 95, 120, 110
-0.998465, 405, 295, 436, 310
-0.998466, 1, 91, 32, 106
-0.998467, 329, 11, 392, 26
-0.998467, 321, 257, 448, 288
-0.998468, 193, 113, 224, 128
-0.998468, 317, 11, 348, 26
-0.998471, 445, 157, 476, 172
-0.998473, 433, 155, 464, 170
-0.998473, 377, 85, 440, 100
-0.998474, 421, 173, 452, 188
-0.998475, 165, 179, 196, 194
-0.998475, 417, 299, 448, 314
-0.998476, 161, 113, 224, 128
-0.998476, 357, 159, 388, 174
-0.998476, 449, 125, 480, 140
-0.998478, 249, 83, 280, 98
-0.998478, 353, 21, 384, 36
-0.998478, 97, 1, 160, 128
-0.99848, 289, 71, 320, 86
-0.99848, 461, 89, 492, 104
-0.99848, 1, 21, 128, 52
-0.998481, 325, 297, 356, 312
-0.998486, 425, 155, 488, 170
-0.998492, 221, 85, 252, 100
-0.998495, 437, 131, 468, 146
-0.998497, 465, 81, 496, 96
-0.998497, 373, 71, 404, 86
-0.998498, 237, 85, 268, 100
-0.998499, 205, 107, 236, 122
-0.998499, 257, 63, 320, 78
-0.998501, 261, 85, 292, 100
-0.998501, 393, 71, 424, 86
-0.998502, 369, 163, 400, 178
-0.99851, 417, 293, 448, 308
-0.99851, 329, 21, 392, 36
-0.998511, 73, 159, 104, 174
-0.998511, 401, 157, 464, 172
-0.998512, 437, 165, 468, 180
-0.998513, 245, 165, 276, 180
-0.998514, 241, 83, 304, 98
-0.998515, 73, 155, 136, 170
-0.998517, 469, 71, 500, 86
-0.998518, 321, 39, 384, 54
-0.99852, 377, 87, 408, 102
-0.99852, 345, 81, 408, 96
-0.998522, 153, 179, 216, 194
-0.998523, 377, 81, 408, 96
-0.998523, 313, 33, 376, 48
-0.998524, 321, 89, 384, 104
-0.998526, 105, 33, 136, 288
-0.998526, 261, 95, 292, 110
-0.998527, 321, 209, 448, 240
-0.998527, 193, 171, 256, 186
-0.998529, 329, 161, 392, 176
-0.998531, 281, 95, 312, 110
-0.998531, 201, 107, 264, 122
-0.998533, 281, 71, 344, 86
-0.998534, 217, 165, 280, 180
-0.998536, 417, 107, 480, 122
-0.998536, 385, 79, 448, 94
-0.998539, 73, 147, 136, 162
-0.99854, 9, 171, 72, 186
-0.99854, 345, 33, 376, 48
-0.998541, 297, 91, 360, 106
-0.998543, 33, 87, 96, 102
-0.998545, 361, 159, 424, 174
-0.998547, 393, 63, 456, 78
-0.998549, 369, 65, 432, 80
-0.998549, 393, 291, 456, 306
-0.99855, 353, 165, 416, 180
-0.99855, 417, 117, 480, 132
-0.998554, 313, 297, 376, 312
-0.998555, 393, 65, 424, 80
-0.998557, 225, 147, 288, 162
-0.998559, 257, 89, 320, 104
-0.998559, 25, 181, 88, 196
-0.99856, 177, 197, 304, 228
-0.998563, 85, 65, 116, 320
-0.998564, 57, 93, 120, 108
-0.998564, 393, 297, 456, 312
-0.998564, 9, 95, 72, 110
-0.998564, 73, 161, 136, 176
-0.998565, 377, 91, 440, 106
-0.998566, 401, 131, 464, 146
-0.998566, 105, 235, 168, 250
-0.998567, 289, 33, 352, 48
-0.998567, 41, 105, 104, 120
-0.998568, 273, 79, 336, 94
-0.998568, 81, 131, 144, 146
-0.998568, 353, 89, 416, 104
-0.998569, 433, 125, 496, 140
-0.99857, 417, 83, 480, 98
-0.99857, 73, 99, 136, 114
-0.998572, 41, 125, 104, 140
-0.998573, 353, 17, 416, 32
-0.998573, 105, 191, 168, 206
-0.998573, 49, 155, 112, 170
-0.998573, 321, 75, 384, 90
-0.998575, 297, 39, 360, 54
-0.998575, 41, 99, 104, 114
-0.998578, 393, 211, 456, 226
-0.998578, 209, 91, 272, 106
-0.998579, 225, 241, 352, 272
-0.998579, 425, 91, 488, 106
-0.998581, 241, 101, 304, 116
-0.998583, 217, 181, 280, 196
-0.998583, 49, 165, 112, 180
-0.998584, 9, 187, 72, 202
-0.998584, 425, 97, 488, 112
-0.998585, 385, 71, 448, 86
-0.998585, 257, 71, 320, 86
-0.998586, 321, 83, 384, 98
-0.998586, 257, 55, 320, 70
-0.998587, 161, 107, 224, 122
-0.998588, 389, 87, 420, 102
-0.998588, 289, 99, 352, 114
-0.998589, 1, 89, 64, 104
-0.998589, 361, 153, 424, 168
-0.99859, 321, 5, 384, 20
-0.998591, 105, 131, 168, 146
-0.998592, 433, 161, 496, 176
-0.998593, 401, 189, 464, 204
-0.998593, 113, 243, 176, 258
-0.998593, 65, 287, 128, 302
-0.998594, 33, 93, 96, 108
-0.998595, 425, 131, 488, 146
-0.998597, 425, 149, 488, 164
-0.998597, 193, 177, 256, 192
-0.998597, 145, 241, 208, 256
-0.998597, 401, 163, 464, 178
-0.998599, 233, 77, 296, 92
-0.9986, 65, 223, 128, 238
-0.9986, 73, 123, 136, 138
-0.998602, 265, 39, 328, 54
-0.998606, 129, 209, 192, 224
-0.998606, 337, 31, 400, 46
-0.998606, 73, 167, 136, 182
-0.998607, 41, 119, 104, 134
-0.998607, 401, 183, 464, 198
-0.998607, 313, 303, 376, 318
-0.998608, 425, 71, 488, 86
-0.998608, 321, 153, 384, 168
-0.998608, 193, 161, 256, 176
-0.998609, 425, 59, 488, 74
-0.99861, 1, 127, 64, 142
-0.998611, 313, 319, 376, 334
-0.998611, 105, 179, 168, 194
-0.998611, 65, 281, 128, 296
-0.998612, 145, 185, 208, 200
-0.998613, 393, 229, 456, 244
-0.998613, 369, 59, 432, 74
-0.998613, 41, 223, 104, 238
-0.998614, 361, 239, 424, 254
-0.998614, 193, 99, 256, 114
-0.998615, 305, 23, 368, 38
-0.998616, 313, 311, 376, 326
-0.998616, 233, 95, 296, 110
-0.998616, 1, 181, 64, 196
-0.998618, 89, 213, 152, 228
-0.998618, 401, 125, 464, 140
-0.998619, 313, 289, 376, 304
-0.998619, 281, 45, 344, 60
-0.998619, 97, 197, 160, 212
-0.998621, 217, 171, 280, 186
-0.998621, 433, 77, 496, 92
-0.998622, 73, 105, 136, 120
-0.998622, 137, 231, 200, 246
-0.998622, 281, 59, 344, 74
-0.998623, 97, 147, 160, 162
-0.998623, 425, 65, 488, 80
-0.998623, 9, 165, 72, 180
-0.998624, 33, 229, 96, 244
-0.998624, 149, 177, 164, 304
-0.998626, 457, 97, 472, 224
-0.998628, 393, 81, 424, 96
-0.99868, 485, 1, 500, 128
-0.998762, 403, 33, 418, 160
-0.998784, 465, 65, 480, 192
-0.998796, 143, 193, 158, 320
-0.998822, 449, 113, 464, 240
-0.99883, 439, 161, 454, 288
-0.998837, 413, 65, 428, 192
-0.998859, 207, 97, 222, 224
-0.998885, 17, 65, 48, 320
-0.998886, 49, 65, 64, 192
-0.998925, 57, 65, 72, 192
-0.99893, 473, 49, 488, 176
-0.998934, 279, 81, 294, 208
-0.998948, 155, 177, 170, 304
-0.998954, 335, 1, 350, 128
-0.998965, 161, 161, 176, 288
-0.998965, 479, 17, 494, 144
-0.998968, 317, 1, 348, 256
-0.998971, 351, 1, 366, 128
-0.998981, 263, 49, 278, 176
-0.998984, 479, 65, 494, 192
-0.999004, 219, 97, 234, 224
-0.999009, 445, 161, 460, 288
-0.999016, 83, 113, 98, 240
-0.999025, 289, 113, 304, 240
-0.999026, 93, 65, 108, 192
-0.999029, 381, 65, 396, 192
-0.999031, 97, 113, 112, 240
-0.999032, 179, 161, 194, 288
-0.999035, 293, 33, 308, 160
-0.999035, 161, 113, 176, 240
-0.999038, 77, 113, 92, 240
-0.999039, 443, 113, 458, 240
-0.999042, 429, 1, 444, 128
-0.999047, 185, 161, 200, 288
-0.999048, 155, 113, 170, 240
-0.999056, 205, 161, 220, 288
-0.99906, 269, 49, 284, 176
-0.999061, 71, 209, 86, 334
-0.999064, 343, 17, 358, 144
-0.999064, 83, 65, 98, 192
-0.999067, 113, 81, 128, 208
-0.999068, 43, 81, 58, 208
-0.999069, 287, 33, 302, 160
-0.999072, 103, 81, 118, 208
-0.999074, 271, 113, 286, 240
-0.999075, 193, 161, 208, 288
-0.999077, 77, 65, 92, 192
-0.99908, 211, 145, 226, 272
-0.999081, 299, 33, 314, 160
-0.999087, 389, 33, 404, 160
-0.999102, 167, 161, 182, 288
-0.999112, 329, 1, 344, 128
-0.999112, 145, 129, 160, 256
-0.999112, 369, 1, 384, 128
-0.999114, 213, 97, 228, 224
-0.999118, 51, 113, 66, 240
-0.999127, 309, 33, 324, 160
-0.999129, 63, 65, 78, 192
-0.999131, 169, 1, 232, 128
-0.999136, 201, 97, 216, 224
-0.999139, 89, 113, 104, 240
-0.999146, 71, 65, 86, 192
-0.99915, 167, 97, 182, 224
-0.999157, 455, 145, 470, 272
-0.999175, 137, 193, 152, 320
-0.999177, 107, 129, 122, 256
-0.999177, 199, 161, 214, 288
-0.999181, 173, 161, 188, 288
-0.999183, 397, 33, 412, 160
-0.999183, 381, 1, 396, 128
-0.999184, 3, 65, 18, 192
-0.999194, 463, 113, 478, 240
-0.999196, 231, 145, 246, 272
-0.999196, 471, 97, 486, 224
-0.999201, 413, 113, 428, 240
-0.999213, 295, 81, 310, 208
-0.999214, 485, 81, 500, 208
-0.999216, 319, 1, 334, 128
-0.999224, 139, 129, 154, 256
-0.999239, 219, 177, 234, 304
-0.999243, 403, 81, 418, 208
-0.999245, 359, 1, 374, 128
-0.999256, 129, 113, 144, 240
-0.999256, 35, 161, 50, 288
-0.99927, 53, 161, 68, 288
-0.999272, 429, 113, 444, 240
-0.999273, 315, 49, 330, 176
-0.999277, 61, 129, 76, 256
-0.99928, 283, 161, 298, 288
-0.999284, 121, 81, 136, 208
-0.999292, 73, 161, 88, 288
-0.999297, 225, 129, 240, 256
-0.999301, 173, 97, 188, 224
-0.999301, 231, 97, 246, 224
-0.999301, 331, 113, 346, 240
-0.999314, 279, 33, 294, 160
-0.999315, 123, 145, 138, 272
-0.999315, 371, 113, 386, 240
-0.999317, 227, 49, 242, 176
-0.999323, 37, 81, 52, 208
-0.999325, 333, 161, 348, 288
-0.99933, 337, 113, 352, 240
-0.99933, 41, 161, 56, 288
-0.999333, 115, 129, 130, 256
-0.999344, 9, 81, 24, 208
-0.999346, 303, 81, 318, 208
-0.999348, 241, 161, 256, 288
-0.999351, 87, 161, 102, 288
-0.999352, 485, 177, 500, 304
-0.999353, 437, 81, 452, 208
-0.999355, 375, 65, 390, 192
-0.999361, 241, 97, 256, 224
-0.999362, 29, 161, 44, 288
-0.999367, 321, 65, 336, 192
-0.999368, 391, 81, 406, 208
-0.999373, 189, 113, 204, 240
-0.999374, 433, 161, 448, 288
-0.999376, 423, 17, 438, 144
-0.999383, 479, 145, 494, 272
-0.999384, 419, 65, 434, 192
-0.999385, 257, 49, 272, 176
-0.999387, 71, 113, 86, 240
-0.999388, 61, 209, 76, 334
-0.999389, 333, 65, 348, 192
-0.999394, 257, 1, 272, 128
-0.999394, 51, 17, 66, 144
-0.999396, 179, 97, 194, 224
-0.999403, 67, 161, 82, 288
-0.999405, 47, 161, 62, 288
-0.999408, 261, 97, 276, 224
-0.999597, 423, 279, 438, 294
-0.999598, 95, 157, 110, 172
-0.999599, 383, 155, 398, 170
-0.999599, 315, 93, 330, 108
-0.999599, 439, 161, 454, 176
-0.999599, 447, 171, 462, 186
-0.999599, 281, 49, 296, 64
-0.999599, 269, 91, 284, 106
-0.9996, 135, 227, 150, 242
-0.9996, 429, 281, 444, 296
-0.999601, 123, 129, 138, 144
-0.999601, 289, 103, 304, 118
-0.999602, 297, 69, 312, 84
-0.999602, 339, 91, 354, 106
-0.999602, 81, 131, 96, 146
-0.999603, 123, 135, 138, 150
-0.999604, 335, 139, 350, 154
-0.999604, 257, 97, 272, 112
-0.999605, 331, 39, 346, 54
-0.999605, 13, 93, 28, 108
-0.999608, 433, 45, 448, 60
-0.999608, 275, 83, 290, 98
-0.999608, 137, 233, 152, 248
-0.999609, 211, 117, 226, 132
-0.999609, 365, 29, 380, 44
-0.99961, 409, 87, 424, 102
-0.99961, 383, 165, 398, 180
-0.99961, 335, 17, 350, 32
-0.99961, 235, 83, 250, 98
-0.999611, 77, 217, 92, 232
-0.999611, 251, 165, 266, 180
-0.999612, 323, 93, 338, 108
-0.999612, 141, 239, 156, 254
-0.999612, 367, 21, 382, 36
-0.999612, 275, 91, 290, 106
-0.999612, 361, 21, 376, 36
-0.999612, 147, 245, 162, 260
-0.999613, 81, 91, 96, 106
-0.999614, 465, 153, 480, 168
-0.999614, 79, 155, 94, 170
-0.999614, 287, 39, 302, 54
-0.999615, 269, 51, 284, 66
-0.999615, 363, 39, 378, 54
-0.999615, 477, 151, 492, 166
-0.999615, 461, 125, 476, 140
-0.999617, 61, 89, 76, 104
-0.999619, 459, 109, 474, 124
-0.999621, 365, 165, 380, 180
-0.999621, 109, 97, 124, 112
-0.999622, 101, 95, 116, 110
-0.999623, 327, 7, 342, 22
-0.999624, 391, 69, 406, 84
-0.999624, 325, 33, 340, 48
-0.999625, 353, 37, 368, 52
-0.999625, 281, 97, 296, 112
-0.999625, 353, 23, 368, 38
-0.999625, 207, 97, 222, 112
-0.999625, 241, 183, 256, 198
-0.999626, 3, 177, 18, 192
-0.999627, 401, 71, 416, 86
-0.999628, 443, 181, 458, 196
-0.999629, 409, 81, 424, 96
-0.999629, 289, 47, 304, 62
-0.99963, 385, 69, 400, 84
-0.99963, 139, 207, 154, 222
-0.999631, 69, 223, 84, 238
-0.999632, 337, 41, 352, 56
-0.999632, 223, 85, 238, 100
-0.999633, 399, 49, 414, 64
-0.999634, 167, 179, 182, 194
-0.999635, 5, 169, 20, 184
-0.999635, 263, 85, 278, 100
-0.999637, 229, 85, 244, 100
-0.999638, 105, 287, 120, 302
-0.999639, 155, 183, 170, 198
-0.999639, 379, 71, 394, 86
-0.999639, 217, 89, 232, 104
-0.999641, 381, 79, 396, 94
-0.999641, 439, 187, 454, 202
-0.999642, 275, 97, 290, 112
-0.999643, 315, 37, 330, 52
-0.999643, 91, 165, 106, 180
-0.999643, 457, 115, 472, 130
-0.999643, 201, 107, 216, 122
-0.999644, 403, 55, 418, 70
-0.999647, 213, 107, 228, 122
-0.99965, 331, 33, 346, 48
-0.999651, 279, 41, 294, 56
-0.999653, 431, 23, 446, 38
-0.999653, 269, 97, 284, 112
-0.999653, 253, 83, 268, 98
-0.999654, 447, 157, 462, 172
-0.999654, 453, 131, 468, 146
-0.999654, 449, 125, 464, 140
-0.999655, 293, 95, 308, 110
-0.999659, 397, 81, 412, 96
-0.999662, 445, 165, 460, 180
-0.999664, 437, 181, 452, 196
-0.999666, 403, 87, 418, 102
-0.999666, 121, 143, 136, 158
-0.999667, 205, 113, 220, 128
-0.999667, 243, 163, 258, 178
-0.999669, 429, 1, 444, 16
-0.999669, 329, 295, 344, 310
-0.99967, 395, 87, 410, 102
-0.999672, 263, 93, 278, 108
-0.999675, 269, 43, 284, 58
-0.999677, 379, 85, 394, 100
-0.999678, 391, 79, 406, 94
-0.999679, 259, 163, 274, 178
-0.999681, 471, 155, 486, 170
-0.999682, 455, 159, 470, 174
-0.999683, 441, 173, 456, 188
-0.999685, 399, 65, 414, 80
-0.999686, 455, 125, 470, 140
-0.99969, 207, 103, 222, 118
-0.99969, 359, 31, 374, 46
-0.999693, 353, 31, 368, 46
-0.999693, 343, 35, 358, 50
-0.999699, 309, 37, 324, 52
-0.9997, 413, 73, 428, 88
-0.9997, 451, 165, 466, 180
-0.999702, 427, 289, 442, 304
-0.999717, 337, 35, 352, 50
-0.999719, 373, 159, 388, 174
-0.999719, 405, 61, 420, 76
-0.999733, 439, 167, 454, 182
-0.999744, 407, 67, 422, 82
-0.999769, 403, 81, 418, 96
-0.999783, 389, 85, 404, 100
