1880
-0.230453, 1, 1, 500, 335
-0.333436, 1, 1, 500, 256
-0.350451, 225, 1, 480, 335
-0.537474, 97, 1, 352, 335
-0.583293, 129, 1, 384, 256
-0.592274, 1, 1, 256, 335
-0.618058, 225, 33, 480, 288
-0.663711, 33, 33, 288, 288
-0.822689, 337, 1, 464, 335
-0.850494, 273, 1, 400, 335
-0.856519, 193, 1, 320, 335
-0.857504, 145, 1, 272, 256
-0.859035, 337, 33, 464, 288
-0.862434, 1, 1, 128, 335
-0.869049, 1, 177, 500, 304
-0.87544, 241, 1, 368, 256
-0.878321, 1, 113, 500, 240
-0.878698, 1, 1, 500, 128
-0.88065, 1, 33, 128, 288
-0.880681, 81, 65, 208, 320
-0.883217, 193, 33, 320, 288
-0.887637, 289, 1, 416, 256
-0.896982, 145, 1, 272, 335
-0.898683, 193, 161, 448, 288
-0.902264, 81, 1, 208, 335
-0.908575, 1, 65, 500, 192
-0.910896, 33, 129, 288, 256
-0.912823, 33, 177, 288, 304
-0.918067, 129, 209, 384, 335
-0.924265, 193, 193, 320, 320
-0.924837, 225, 209, 480, 335
-0.930587, 337, 209, 464, 335
-0.930875, 161, 145, 288, 272
-0.932032, 185, 161, 248, 288
-0.932865, 209, 161, 272, 288
-0.933582, 369, 81, 496, 208
-0.933627, 257, 113, 500, 240
-0.934962, 97, 1, 352, 128
-0.93513, 65, 97, 192, 224
-0.935189, 385, 161, 448, 288
-0.935585, 257, 193, 320, 320
-0.936011, 129, 113, 384, 240
-0.936296, 417, 97, 480, 224
-0.936758, 289, 177, 416, 304
-0.936866, 225, 209, 288, 335
-0.93849, 1, 1, 256, 128
-0.939077, 193, 209, 256, 335
-0.941506, 33, 81, 288, 208
-0.943305, 65, 145, 192, 272
-0.943385, 241, 209, 368, 335
-0.943619, 233, 161, 296, 288
-0.943641, 1, 97, 128, 224
-0.943642, 257, 17, 500, 144
-0.946034, 209, 145, 336, 272
-0.946416, 121, 97, 184, 224
-0.946936, 257, 145, 320, 272
-0.947586, 161, 97, 288, 224
-0.947743, 161, 193, 224, 320
-0.94779, 425, 33, 488, 160
-0.947924, 337, 129, 464, 256
-0.948489, 369, 33, 496, 160
-0.94863, 161, 145, 224, 272
-0.948653, 289, 209, 352, 335
-0.948975, 129, 209, 256, 335
-0.94936, 185, 113, 248, 240
-0.950698, 257, 265, 320, 328
-0.951177, 217, 225, 280, 288
-0.951253, 209, 1, 336, 128
-0.951364, 425, 145, 488, 272
-0.951377, 1, 209, 128, 335
-0.951621, 257, 129, 384, 256
-0.952067, 257, 209, 320, 272
-0.952175, 33, 1, 160, 128
-0.952332, 113, 129, 240, 256
-0.952652, 225, 113, 288, 240
-0.952713, 257, 65, 500, 192
-0.95326, 209, 249, 272, 312
-0.953288, 185, 249, 248, 312
-0.953419, 233, 257, 296, 320
-0.955199, 369, 209, 432, 335
-0.955543, 1, 49, 128, 176
-0.955726, 289, 129, 352, 256
-0.955869, 129, 1, 256, 128
-0.956004, 161, 97, 224, 224
-0.95634, 185, 193, 248, 256
-0.956657, 385, 81, 448, 208
-0.956981, 409, 193, 472, 320
-0.957228, 121, 1, 184, 128
-0.957324, 41, 1, 104, 128
-0.957465, 113, 81, 240, 208
-0.957536, 329, 193, 392, 320
-0.95779, 209, 177, 272, 240
-0.957826, 169, 145, 232, 208
-0.957837, 129, 65, 384, 192
-0.958146, 129, 129, 192, 192
-0.958492, 65, 249, 128, 312
-0.958912, 193, 225, 256, 288
-0.959043, 81, 1, 144, 128
-0.959591, 33, 193, 96, 320
-0.959643, 129, 145, 192, 272
-0.959848, 1, 161, 128, 288
-0.960058, 17, 97, 80, 224
-0.960108, 161, 265, 224, 328
-0.960405, 89, 97, 152, 224
-0.960998, 377, 33, 440, 160
-0.961042, 281, 249, 344, 312
-0.961423, 417, 97, 480, 160
-0.961577, 321, 273, 384, 335
-0.961731, 81, 1, 208, 128
-0.961859, 393, 217, 456, 280
-0.962053, 321, 81, 448, 208
-0.96247, 121, 105, 184, 168
-0.962671, 249, 233, 312, 296
-0.963169, 209, 97, 336, 224
-0.96332, 17, 233, 80, 296
-0.963653, 9, 161, 72, 288
-0.963727, 41, 97, 104, 224
-0.963945, 137, 241, 200, 304
-0.964131, 305, 241, 368, 304
-0.964291, 321, 17, 448, 144
-0.964308, 169, 169, 232, 232
-0.96432, 177, 1, 240, 128
-0.964505, 25, 257, 88, 320
-0.964548, 353, 129, 416, 256
-0.964567, 401, 33, 464, 160
-0.9646, 81, 193, 208, 320
-0.964933, 377, 241, 440, 304
-0.96526, 249, 1, 312, 128
-0.96542, 225, 201, 288, 264
-0.965557, 401, 241, 464, 304
-0.965563, 17, 17, 80, 144
-0.965614, 401, 65, 464, 320
-0.966051, 65, 161, 128, 288
-0.966228, 417, 161, 480, 224
-0.966258, 209, 273, 272, 335
-0.966683, 433, 193, 496, 320
-0.966715, 105, 249, 168, 312
-0.966768, 417, 57, 480, 120
-0.966783, 201, 1, 264, 128
-0.967111, 65, 273, 128, 335
-0.967148, 49, 49, 176, 176
-0.96755, 393, 81, 456, 144
-0.967883, 161, 241, 224, 304
-0.96795, 417, 129, 480, 192
-0.968019, 161, 1, 224, 256
-0.968327, 65, 113, 128, 240
-0.968614, 225, 153, 288, 216
-0.968667, 185, 273, 248, 335
-0.968715, 385, 193, 448, 256
-0.968791, 145, 153, 208, 216
-0.96896, 225, 1, 288, 128
-0.969091, 137, 265, 200, 328
-0.969181, 145, 1, 208, 128
-0.969218, 113, 249, 240, 312
-0.969529, 313, 129, 376, 256
-0.96981, 353, 217, 416, 280
-0.969972, 361, 81, 424, 208
-0.970037, 1, 249, 128, 312
-0.970155, 1, 145, 64, 208
-0.970208, 257, 185, 320, 248
-0.97036, 153, 121, 216, 184
-0.970528, 425, 225, 488, 288
-0.970552, 161, 185, 288, 248
-0.97061, 205, 249, 236, 312
-0.970617, 329, 249, 392, 312
-0.970712, 225, 209, 256, 335
-0.97072, 409, 1, 472, 64
-0.97088, 209, 209, 336, 272
-0.970888, 209, 1, 272, 256
-0.970905, 281, 145, 344, 208
-0.971056, 161, 201, 224, 264
-0.971126, 289, 209, 320, 335
-0.971253, 137, 193, 200, 320
-0.971255, 273, 17, 400, 144
-0.971303, 281, 273, 344, 335
-0.971435, 353, 241, 480, 304
-0.971554, 209, 257, 336, 320
-0.971983, 89, 161, 152, 288
-0.972313, 433, 65, 496, 320
-0.972335, 193, 153, 256, 216
-0.972361, 241, 161, 272, 288
-0.972519, 161, 265, 288, 328
-0.972554, 345, 17, 408, 144
-0.97266, 273, 265, 400, 328
-0.972847, 161, 129, 192, 192
-0.972864, 233, 177, 296, 240
-0.973014, 265, 265, 296, 328
-0.973235, 213, 193, 244, 320
-0.97326, 369, 1, 432, 256
-0.973386, 209, 177, 336, 240
-0.973537, 305, 145, 368, 208
-0.973552, 161, 161, 288, 224
-0.973623, 57, 209, 120, 335
-0.973628, 89, 273, 152, 335
-0.973684, 253, 209, 284, 335
-0.973791, 221, 225, 252, 288
-0.973828, 161, 49, 224, 176
-0.973873, 425, 249, 488, 312
-0.973996, 173, 153, 204, 216
-0.974049, 161, 97, 224, 160
-0.974055, 369, 97, 496, 160
-0.974076, 193, 233, 320, 296
-0.974113, 385, 169, 448, 232
-0.974372, 221, 265, 252, 328
-0.974384, 65, 249, 192, 312
-0.974462, 285, 265, 316, 328
-0.974476, 281, 169, 344, 232
-0.974705, 81, 129, 208, 192
-0.974728, 145, 137, 272, 200
-0.974762, 241, 1, 304, 256
-0.974801, 33, 17, 96, 80
-0.974841, 185, 1, 248, 256
-0.975028, 193, 193, 224, 320
-0.975101, 89, 129, 152, 192
-0.975116, 193, 265, 224, 328
-0.975163, 289, 209, 320, 272
-0.97524, 433, 1, 496, 64
-0.975382, 369, 65, 496, 128
-0.975428, 141, 129, 172, 192
-0.975432, 121, 153, 184, 216
-0.975438, 225, 161, 256, 288
-0.975626, 289, 225, 416, 288
-0.975742, 425, 97, 456, 224
-0.975844, 49, 273, 176, 335
-0.975872, 405, 161, 436, 288
-0.975908, 361, 169, 424, 232
-0.975962, 185, 121, 248, 184
-0.97603, 181, 145, 212, 272
-0.976075, 121, 49, 184, 176
-0.976091, 201, 65, 264, 192
-0.976093, 9, 33, 72, 288
-0.976116, 77, 241, 108, 304
-0.976151, 353, 241, 416, 304
-0.97616, 281, 225, 344, 288
-0.97625, 241, 209, 272, 335
-0.976252, 253, 225, 284, 288
-0.976282, 33, 145, 96, 272
-0.976394, 273, 1, 336, 128
-0.976515, 81, 105, 208, 168
-0.976562, 97, 49, 160, 176
-0.976565, 121, 73, 184, 136
-0.976719, 213, 193, 244, 256
-0.976854, 137, 177, 200, 240
-0.976885, 161, 209, 288, 272
-0.976924, 353, 217, 480, 280
-0.976951, 253, 257, 284, 320
-0.977055, 273, 185, 400, 248
-0.977154, 209, 145, 240, 272
-0.977246, 41, 49, 104, 176
-0.977247, 269, 193, 300, 256
-0.977291, 1, 105, 128, 168
-0.977348, 277, 193, 308, 320
-0.977355, 449, 81, 480, 208
-0.977404, 425, 185, 488, 248
-0.977483, 97, 105, 160, 168
-0.977486, 149, 97, 180, 224
-0.977662, 213, 169, 244, 232
-0.977839, 385, 1, 448, 335
-0.97797, 185, 193, 216, 256
-0.978025, 257, 145, 320, 208
-0.978043, 385, 57, 448, 120
-0.978047, 77, 209, 108, 335
-0.978114, 449, 113, 480, 176
-0.978181, 265, 97, 328, 224
-0.978234, 273, 81, 400, 208
-0.978243, 345, 1, 408, 256
-0.978249, 369, 121, 496, 184
-0.978291, 17, 241, 48, 304
-0.978349, 205, 225, 236, 288
-0.97839, 89, 225, 152, 288
-0.978414, 237, 249, 268, 312
-0.978529, 329, 225, 392, 288
-0.978822, 353, 193, 416, 256
-0.978879, 137, 97, 168, 224
-0.978989, 361, 265, 424, 328
-0.979, 149, 105, 180, 168
-0.979111, 265, 193, 296, 320
-0.979122, 417, 33, 480, 96
-0.979153, 161, 73, 224, 136
-0.979155, 241, 225, 272, 288
-0.979244, 269, 145, 300, 272
-0.979395, 321, 177, 384, 240
-0.979433, 273, 241, 304, 304
-0.979505, 301, 129, 332, 256
-0.979546, 421, 193, 452, 320
-0.979586, 33, 1, 96, 256
-0.979659, 297, 249, 328, 312
-0.979845, 385, 193, 416, 320
-0.979855, 425, 217, 456, 280
-0.979914, 17, 105, 80, 168
-0.979925, 349, 265, 380, 328
-0.979941, 357, 209, 388, 335
-0.979945, 289, 161, 320, 288
-0.980016, 241, 233, 368, 296
-0.980058, 449, 33, 480, 160
-0.980066, 57, 257, 88, 320
-0.980095, 201, 185, 232, 248
-0.980099, 69, 161, 100, 288
-0.980192, 209, 113, 272, 176
-0.980258, 137, 249, 168, 312
-0.980317, 161, 113, 192, 240
-0.980325, 441, 161, 472, 288
-0.98035, 429, 241, 460, 304
-0.980437, 465, 81, 496, 144
-0.980467, 77, 1, 108, 128
-0.980526, 61, 209, 92, 335
-0.980536, 233, 177, 264, 240
-0.980538, 209, 153, 336, 216
-0.980596, 237, 201, 268, 264
-0.980649, 161, 113, 288, 176
-0.980684, 49, 105, 112, 168
-0.980824, 381, 217, 412, 280
-0.980847, 313, 1, 376, 256
-0.98092, 337, 17, 400, 80
-0.980928, 469, 65, 500, 192
-0.980989, 181, 265, 212, 328
-0.981054, 305, 217, 368, 280
-0.981071, 289, 1, 352, 256
-0.981092, 361, 145, 424, 208
-0.981103, 161, 105, 192, 168
-0.981119, 393, 145, 456, 208
-0.98112, 377, 33, 440, 96
-0.981169, 297, 17, 360, 144
-0.981253, 329, 129, 392, 192
-0.981264, 113, 273, 176, 335
-0.981296, 369, 81, 432, 144
-0.981309, 65, 9, 128, 72
-0.981313, 353, 193, 480, 256
-0.981367, 409, 161, 440, 224
-0.981518, 225, 153, 256, 216
-0.981621, 297, 273, 328, 335
-0.981657, 89, 81, 152, 144
-0.981659, 321, 81, 384, 208
-0.98169, 361, 1, 424, 335
-0.981784, 361, 113, 424, 176
-0.981798, 145, 81, 272, 144
-0.981839, 265, 1, 328, 256
-0.981897, 173, 129, 204, 192
-0.981906, 197, 145, 228, 272
-0.981906, 257, 145, 288, 272
-0.981915, 57, 145, 120, 208
-0.981935, 81, 153, 208, 216
-0.982041, 101, 97, 132, 224
-0.982064, 113, 273, 240, 335
-0.98218, 165, 265, 196, 328
-0.982182, 65, 49, 128, 176
-0.982266, 89, 129, 120, 256
-0.982274, 437, 113, 468, 240
-0.982276, 201, 89, 264, 152
-0.982292, 9, 97, 40, 224
-0.982296, 301, 209, 332, 335
-0.982326, 321, 273, 352, 335
-0.982328, 393, 105, 456, 168
-0.982339, 205, 273, 236, 335
-0.982349, 17, 265, 48, 328
-0.98239, 29, 81, 60, 208
-0.982406, 41, 65, 104, 128
-0.982533, 29, 249, 60, 312
-0.982605, 177, 9, 240, 72
-0.982774, 1, 273, 128, 335
-0.982787, 9, 137, 40, 200
-0.982845, 1, 257, 64, 320
-0.982872, 257, 1, 320, 335
-0.982873, 185, 225, 216, 288
-0.9829, 197, 153, 228, 216
-0.982903, 181, 193, 212, 320
-0.982914, 409, 1, 472, 335
-0.982932, 165, 161, 196, 288
-0.982946, 225, 1, 288, 335
-0.98296, 57, 161, 88, 288
-0.982969, 121, 9, 184, 72
-0.982994, 321, 265, 448, 328
-0.983067, 433, 209, 464, 335
-0.983129, 153, 153, 184, 216
-0.983141, 5, 257, 36, 320
-0.983183, 153, 265, 184, 328
-0.983242, 441, 73, 472, 136
-0.983321, 437, 1, 468, 128
-0.983321, 185, 161, 216, 224
-0.983371, 337, 153, 464, 216
-0.983389, 125, 81, 156, 208
-0.983405, 1, 145, 128, 208
-0.983445, 357, 233, 388, 296
-0.983449, 285, 241, 316, 304
-0.983464, 113, 177, 240, 240
-0.983486, 237, 273, 268, 335
-0.98357, 137, 1, 200, 256
-0.983592, 249, 169, 280, 232
-0.983804, 65, 81, 192, 144
-0.983846, 41, 233, 104, 296
-0.983896, 273, 161, 400, 224
-0.98392, 125, 265, 156, 328
-0.983971, 89, 153, 152, 216
-0.98398, 1, 81, 64, 144
-0.983992, 229, 113, 260, 240
-0.984073, 173, 97, 204, 224
-0.984113, 9, 209, 72, 335
-0.984134, 93, 257, 124, 320
-0.984167, 433, 1, 496, 335
-0.984178, 77, 97, 108, 224
-0.984242, 137, 1, 168, 128
-0.984254, 425, 97, 456, 160
-0.984296, 65, 225, 128, 288
-0.984347, 113, 65, 176, 320
-0.984349, 457, 145, 488, 208
-0.984351, 417, 241, 448, 304
-0.984371, 25, 209, 88, 272
-0.984381, 257, 201, 288, 264
-0.984458, 81, 209, 144, 335
-0.984471, 161, 49, 288, 176
-0.984485, 209, 49, 336, 176
-0.984518, 137, 105, 168, 168
-0.984518, 337, 1, 400, 335
-0.984523, 317, 145, 348, 208
-0.98453, 417, 145, 448, 272
-0.984594, 369, 41, 496, 104
-0.984608, 369, 193, 400, 320
-0.984618, 81, 265, 112, 328
-0.984667, 153, 1, 184, 128
-0.984702, 49, 1, 80, 128
-0.98478, 73, 105, 136, 168
-0.984818, 393, 217, 424, 280
-0.984838, 297, 193, 360, 256
-0.98486, 309, 241, 340, 304
-0.984863, 113, 225, 240, 288
-0.984865, 289, 17, 352, 80
-0.984937, 321, 25, 448, 88
-0.985034, 65, 73, 128, 136
-0.98531, 217, 17, 280, 80
-0.985352, 333, 257, 364, 320
-0.985383, 437, 177, 468, 240
-0.985459, 273, 137, 400, 200
-0.985491, 305, 121, 368, 184
-0.985501, 461, 1, 492, 128
-0.98552, 305, 1, 368, 335
-0.985559, 121, 49, 184, 112
-0.985567, 457, 129, 488, 256
-0.98557, 173, 1, 204, 128
-0.985628, 269, 169, 300, 232
-0.985633, 289, 169, 320, 232
-0.985638, 49, 9, 176, 72
-0.985638, 9, 1, 72, 335
-0.985639, 245, 113, 276, 240
-0.985658, 345, 241, 376, 304
-0.985711, 49, 97, 80, 224
-0.985723, 457, 1, 488, 64
-0.985727, 129, 145, 160, 208
-0.985733, 185, 129, 216, 192
-0.985841, 117, 1, 148, 128
-0.985901, 61, 97, 92, 224
-0.985903, 305, 137, 336, 200
-0.985905, 1, 65, 128, 128
-0.985953, 433, 153, 464, 216
-0.986016, 217, 1, 248, 128
-0.986027, 61, 1, 92, 128
-0.986054, 169, 241, 200, 304
-0.986081, 369, 249, 400, 312
-0.986101, 25, 145, 88, 208
-0.986218, 17, 225, 144, 288
-0.986286, 9, 33, 72, 96
-0.986291, 369, 1, 496, 64
-0.986305, 173, 201, 204, 264
-0.98633, 437, 49, 468, 176
-0.98634, 441, 1, 472, 64
-0.986352, 237, 145, 268, 208
-0.98641, 157, 241, 188, 304
-0.986448, 321, 17, 384, 144
-0.986476, 65, 65, 128, 320
-0.986612, 421, 17, 452, 144
-0.986642, 249, 17, 312, 80
-0.986689, 165, 177, 196, 240
-0.9867, 1, 57, 64, 120
-0.986724, 197, 1, 228, 128
-0.986796, 1, 25, 128, 88
-0.986797, 401, 241, 432, 304
-0.986818, 89, 9, 152, 72
-0.986862, 317, 209, 348, 335
-0.986873, 25, 33, 56, 160
-0.986902, 41, 217, 72, 280
-0.986942, 229, 1, 260, 128
-0.986955, 5, 233, 36, 296
-0.986994, 137, 209, 200, 272
-0.987032, 145, 9, 208, 72
-0.987036, 425, 73, 456, 136
-0.98707, 321, 129, 448, 192
-0.987091, 85, 145, 116, 208
-0.987095, 397, 81, 428, 208
-0.987101, 169, 1, 232, 335
-0.987103, 33, 1, 96, 335
-0.987184, 273, 17, 400, 80
-0.987218, 309, 273, 340, 335
-0.98725, 185, 1, 216, 128
-0.987256, 321, 81, 448, 144
-0.987282, 385, 1, 448, 64
-0.987295, 101, 113, 132, 176
-0.987304, 113, 201, 240, 264
-0.987364, 441, 233, 472, 296
-0.987384, 369, 217, 400, 280
-0.987413, 301, 217, 332, 280
-0.987467, 245, 1, 276, 128
-0.987631, 121, 113, 152, 176
-0.987692, 25, 245, 88, 276
-0.987725, 149, 49, 180, 176
-0.987744, 193, 17, 320, 80
-0.987746, 273, 1, 304, 128
-0.987755, 89, 209, 120, 335
-0.987775, 285, 1, 316, 128
-0.987786, 449, 209, 480, 335
-0.987797, 105, 209, 168, 335
-0.987806, 281, 1, 344, 335
-0.987809, 397, 209, 428, 335
-0.987817, 141, 273, 172, 335
-0.987818, 129, 9, 256, 72
-0.987854, 345, 89, 408, 152
-0.987882, 89, 1, 120, 128
-0.987914, 385, 17, 416, 144
-0.987915, 345, 209, 376, 335
-0.988039, 225, 65, 288, 192
-0.988064, 89, 233, 120, 296
-0.988121, 65, 225, 192, 288
-0.988165, 233, 129, 296, 192
-0.988171, 77, 217, 108, 280
-0.988181, 213, 137, 244, 200
-0.9882, 329, 153, 392, 216
-0.988201, 381, 145, 412, 272
-0.988206, 149, 145, 180, 272
-0.988242, 381, 241, 412, 304
-0.988292, 21, 33, 52, 96
-0.988294, 429, 129, 460, 192
-0.988356, 13, 33, 44, 160
-0.988358, 409, 33, 440, 160
-0.98839, 465, 257, 496, 320
-0.988415, 9, 105, 40, 168
-0.988417, 445, 153, 476, 216
-0.988462, 65, 177, 192, 240
-0.988515, 89, 1, 152, 256
-0.988578, 69, 273, 100, 335
-0.988589, 81, 41, 144, 104
-0.988593, 45, 209, 76, 335
-0.988631, 313, 161, 344, 288
-0.988644, 213, 97, 244, 224
-0.988694, 177, 193, 240, 224
-0.988698, 373, 193, 404, 256
-0.988735, 285, 145, 316, 208
-0.988766, 313, 17, 376, 80
-0.988767, 21, 137, 52, 200
-0.988796, 161, 65, 192, 192
-0.988811, 329, 201, 392, 264
-0.988815, 113, 97, 144, 224
-0.988832, 145, 81, 176, 144
-0.988892, 321, 105, 448, 168
-0.988941, 429, 1, 460, 64
-0.988982, 33, 41, 96, 104
-0.989003, 201, 65, 264, 128
-0.989037, 21, 129, 52, 256
-0.989051, 257, 213, 320, 244
-0.989136, 97, 249, 352, 312
-0.989137, 289, 113, 320, 240
-0.989152, 185, 213, 248, 244
-0.989154, 425, 41, 456, 104
-0.989208, 41, 145, 72, 272
-0.989235, 225, 157, 288, 188
-0.989264, 169, 181, 232, 212
-0.989333, 65, 261, 128, 292
-0.989355, 253, 145, 284, 208
-0.989358, 37, 17, 68, 144
-0.989358, 217, 225, 280, 256
-0.98941, 105, 1, 136, 128
-0.989416, 257, 1, 288, 128
-0.989475, 209, 121, 336, 184
-0.989481, 225, 201, 256, 264
-0.989506, 193, 177, 448, 240
-0.989547, 441, 201, 472, 264
-0.989575, 233, 257, 296, 288
-0.989591, 89, 81, 120, 208
-0.989596, 97, 1, 160, 335
-0.989608, 257, 241, 500, 304
-0.989634, 265, 233, 328, 264
-0.989651, 169, 169, 232, 200
-0.989657, 117, 137, 148, 200
-0.989709, 321, 49, 448, 112
-0.989714, 377, 241, 440, 272
-0.989728, 417, 77, 480, 108
-0.98974, 25, 257, 88, 288
-0.989755, 249, 273, 312, 304
-0.989779, 281, 121, 344, 184
-0.989799, 125, 129, 156, 256
-0.989811, 321, 285, 384, 316
-0.98982, 225, 89, 288, 152
-0.989836, 57, 9, 88, 72
-0.989865, 201, 1, 264, 335
-0.989903, 461, 209, 492, 335
-0.989936, 273, 289, 336, 320
-0.989937, 145, 157, 208, 188
-0.989939, 353, 137, 384, 200
-0.989943, 25, 209, 56, 335
-0.98997, 225, 213, 288, 244
-0.989971, 345, 161, 376, 288
-0.989975, 25, 105, 56, 168
-0.989995, 417, 105, 480, 136
-0.990001, 25, 217, 56, 280
-0.990022, 49, 245, 112, 276
-0.990026, 217, 237, 280, 268
-0.990027, 169, 209, 200, 335
-0.990028, 57, 293, 120, 324
-0.990029, 401, 245, 464, 276
-0.990033, 373, 105, 404, 168
-0.990035, 413, 57, 444, 120
-0.99004, 61, 233, 92, 296
-0.990043, 249, 157, 312, 188
-0.990047, 13, 57, 44, 120
-0.990055, 29, 273, 60, 335
-0.99006, 65, 277, 128, 308
-0.990069, 249, 201, 312, 232
-0.990075, 193, 249, 256, 280
-0.990108, 397, 17, 428, 144
-0.990117, 1, 245, 64, 276
-0.990153, 209, 177, 272, 208
-0.990154, 321, 273, 384, 304
-0.990169, 329, 137, 360, 200
-0.99022, 265, 253, 328, 284
-0.990244, 385, 85, 448, 116
-0.990246, 1, 265, 256, 328
-0.990258, 201, 161, 264, 192
-0.99027, 185, 149, 248, 180
-0.990294, 129, 145, 192, 176
-0.990313, 201, 201, 264, 232
-0.990321, 365, 145, 396, 272
-0.99035, 297, 253, 360, 284
-0.990352, 445, 257, 476, 320
-0.990354, 105, 273, 136, 335
-0.990395, 373, 81, 404, 208
-0.990398, 321, 297, 384, 328
-0.990427, 317, 97, 348, 224
-0.990443, 193, 217, 448, 280
-0.990454, 225, 201, 288, 232
-0.990455, 81, 293, 144, 324
-0.990474, 129, 1, 192, 335
-0.990492, 305, 241, 368, 272
-0.990533, 25, 293, 88, 324
-0.990534, 425, 121, 488, 152
-0.990595, 197, 81, 228, 208
-0.990596, 225, 281, 288, 312
-0.990612, 185, 225, 248, 256
-0.990619, 153, 193, 216, 224
-0.990619, 289, 265, 352, 296
-0.990646, 425, 1, 488, 32
-0.990648, 297, 285, 360, 316
-0.990654, 89, 281, 152, 312
-0.990695, 289, 149, 352, 180
-0.990721, 25, 273, 88, 304
-0.990734, 201, 273, 264, 304
-0.990751, 417, 161, 480, 192
-0.990768, 121, 113, 184, 144
-0.990769, 345, 229, 408, 260
-0.990802, 225, 189, 288, 220
-0.990804, 417, 93, 480, 124
-0.990832, 65, 305, 128, 335
-0.990837, 177, 265, 240, 296
-0.990877, 329, 241, 392, 272
-0.990903, 425, 133, 488, 164
-0.990906, 121, 101, 184, 132
-0.990924, 393, 221, 456, 252
-0.990942, 249, 285, 312, 316
-0.990944, 153, 145, 216, 176
-0.99096, 193, 273, 448, 335
-0.990963, 1, 293, 64, 324
-0.990974, 337, 261, 400, 292
-0.990974, 25, 305, 88, 335
-0.990989, 137, 181, 200, 212
-0.990999, 65, 49, 96, 176
-0.991021, 89, 249, 152, 280
-0.991027, 193, 81, 320, 144
-0.991044, 89, 261, 152, 292
-0.991069, 89, 133, 152, 164
-0.99111, 193, 237, 256, 268
-0.991116, 393, 145, 424, 272
-0.991138, 169, 249, 232, 280
-0.991144, 393, 177, 456, 208
-0.991154, 129, 249, 192, 280
-0.991174, 5, 161, 36, 288
-0.991195, 297, 81, 360, 208
-0.991202, 105, 145, 168, 176
-0.99122, 433, 237, 496, 268
-0.991244, 353, 185, 416, 216
-0.991259, 129, 125, 192, 156
-0.991297, 209, 261, 272, 292
-0.991298, 201, 189, 264, 220
-0.991311, 409, 145, 472, 176
-0.991322, 161, 105, 224, 136
-0.991332, 241, 245, 304, 276
-0.991335, 385, 81, 416, 208
-0.991339, 249, 305, 312, 335
-0.991361, 73, 1, 136, 335
-0.991363, 313, 137, 376, 168
-0.991367, 273, 161, 336, 192
-0.99137, 33, 21, 96, 52
-0.991379, 289, 137, 352, 168
-0.991405, 113, 157, 176, 188
-0.991408, 393, 205, 456, 236
-0.991425, 209, 145, 272, 176
-0.991426, 241, 225, 304, 256
-0.991441, 81, 145, 144, 176
-0.991456, 281, 305, 344, 335
-0.991491, 161, 93, 224, 124
-0.991495, 241, 169, 304, 200
-0.991496, 97, 273, 352, 335
-0.9915, 161, 205, 224, 236
-0.991507, 129, 153, 384, 216
-0.991512, 401, 233, 464, 264
-0.991516, 353, 205, 416, 236
-0.991519, 97, 109, 160, 140
-0.991523, 161, 237, 224, 268
-0.991528, 105, 293, 168, 324
-0.991539, 417, 185, 480, 216
-0.99154, 433, 261, 496, 292
-0.991553, 121, 85, 184, 116
-0.991615, 9, 233, 72, 264
-0.991628, 257, 145, 320, 176
-0.99164, 1, 149, 64, 180
-0.991661, 25, 33, 88, 64
-0.991663, 393, 97, 456, 128
-0.991663, 1, 257, 64, 288
-0.991668, 313, 149, 376, 180
-0.991689, 385, 189, 448, 220
-0.991692, 65, 9, 128, 40
-0.991709, 97, 121, 160, 152
-0.991723, 385, 165, 448, 196
-0.991731, 121, 269, 184, 300
-0.991747, 273, 105, 400, 168
-0.991758, 273, 277, 336, 308
-0.991759, 417, 65, 480, 96
-0.991771, 425, 197, 488, 228
-0.991787, 233, 145, 296, 176
-0.991794, 361, 173, 424, 204
-0.9918, 305, 221, 368, 252
-0.99182, 129, 281, 192, 312
-0.991839, 177, 281, 240, 312
-0.991864, 417, 41, 480, 72
-0.991865, 361, 17, 392, 144
-0.991868, 33, 153, 288, 216
-0.991958, 113, 57, 240, 120
-0.992038, 113, 161, 144, 288
-0.992062, 1, 225, 500, 288
-0.992095, 97, 217, 352, 280
-0.992097, 73, 257, 104, 288
-0.992121, 13, 241, 44, 272
-0.992145, 53, 245, 84, 276
-0.992219, 5, 209, 36, 335
-0.992224, 1, 129, 500, 192
-0.992275, 273, 81, 400, 144
-0.992321, 17, 169, 144, 232
-0.992371, 213, 193, 244, 224
-0.992397, 181, 193, 212, 224
-0.992399, 233, 161, 264, 192
-0.992413, 89, 269, 120, 300
-0.992424, 257, 281, 288, 312
-0.992428, 413, 81, 444, 208
-0.992435, 273, 197, 304, 228
-0.992441, 173, 181, 204, 212
-0.992451, 221, 177, 252, 208
-0.992462, 273, 257, 304, 288
-0.99247, 289, 213, 320, 244
-0.992471, 77, 245, 108, 276
-0.992502, 217, 225, 248, 256
-0.992508, 81, 293, 112, 324
-0.992518, 273, 269, 304, 300
-0.992527, 37, 245, 68, 276
-0.992554, 249, 157, 280, 188
-0.992565, 429, 249, 460, 280
-0.992597, 65, 245, 96, 276
-0.992614, 25, 249, 56, 280
-0.992615, 261, 293, 292, 324
-0.992616, 33, 293, 64, 324
-0.992616, 205, 249, 236, 280
-0.992618, 161, 145, 192, 176
-0.992622, 77, 273, 108, 304
-0.992627, 65, 129, 320, 192
-0.992644, 465, 85, 496, 116
-0.992664, 173, 169, 204, 200
-0.992667, 261, 257, 292, 288
-0.992679, 241, 229, 272, 260
-0.992681, 273, 289, 304, 320
-0.992694, 257, 213, 288, 244
-0.992698, 93, 305, 124, 335
-0.992708, 313, 305, 344, 335
-0.992711, 261, 157, 292, 188
-0.992715, 245, 289, 276, 320
-0.992715, 141, 145, 172, 176
-0.992721, 285, 269, 316, 300
-0.992729, 389, 241, 420, 272
-0.992733, 345, 273, 376, 304
-0.992734, 445, 97, 476, 128
-0.992739, 301, 1, 332, 128
-0.992739, 285, 253, 316, 284
-0.992741, 169, 157, 200, 188
-0.992747, 1, 241, 256, 304
-0.992754, 213, 209, 244, 240
-0.992761, 21, 293, 52, 324
-0.992764, 137, 49, 168, 176
-0.992771, 265, 245, 296, 276
-0.992772, 261, 269, 292, 300
-0.992775, 237, 217, 268, 248
-0.992778, 193, 181, 224, 212
-0.992784, 89, 253, 120, 284
-0.992789, 221, 165, 252, 196
-0.992791, 5, 257, 36, 288
-0.992795, 301, 233, 332, 264
-0.992799, 101, 289, 132, 320
-0.992803, 373, 17, 404, 144
-0.992804, 253, 233, 284, 264
-0.992811, 353, 285, 384, 316
-0.992822, 201, 213, 232, 244
-0.992822, 25, 233, 56, 264
-0.992828, 229, 229, 260, 260
-0.992833, 201, 201, 232, 232
-0.992838, 49, 57, 176, 120
-0.992841, 409, 165, 440, 196
-0.992853, 189, 205, 220, 236
-0.99286, 449, 117, 480, 148
-0.992863, 17, 261, 48, 292
-0.992865, 325, 285, 356, 316
-0.992866, 1, 1, 128, 64
-0.992877, 157, 161, 188, 192
-0.992878, 101, 277, 132, 308
-0.992883, 401, 241, 432, 272
-0.992892, 81, 305, 112, 335
-0.992892, 313, 285, 344, 316
-0.992894, 325, 273, 356, 304
-0.992895, 153, 105, 184, 136
-0.992897, 205, 181, 236, 212
-0.992898, 113, 293, 144, 324
-0.992915, 257, 285, 384, 316
-0.992915, 209, 265, 240, 296
-0.992924, 233, 205, 264, 236
-0.992925, 61, 257, 92, 288
-0.992927, 221, 241, 252, 272
-0.992933, 377, 229, 408, 260
-0.992933, 341, 261, 372, 292
-0.992934, 233, 181, 264, 212
-0.992936, 273, 161, 304, 192
-0.992939, 65, 277, 96, 308
-0.992943, 257, 305, 288, 335
-0.992947, 5, 141, 36, 172
-0.992949, 221, 273, 252, 304
-0.992958, 241, 145, 272, 176
-0.992965, 357, 269, 388, 300
-0.992973, 449, 129, 480, 160
-0.992973, 97, 133, 128, 164
-0.992979, 21, 281, 52, 312
-0.992979, 425, 233, 456, 264
-0.992987, 245, 173, 276, 204
-0.99299, 221, 153, 252, 184
-0.992995, 185, 237, 216, 268
-0.992996, 293, 157, 324, 188
-0.993006, 193, 265, 224, 296
-0.993008, 409, 177, 440, 208
-0.99301, 141, 113, 172, 144
-0.99301, 89, 281, 120, 312
-0.993016, 429, 53, 460, 84
-0.993017, 73, 233, 104, 264
-0.993019, 85, 141, 116, 172
-0.99302, 69, 293, 100, 324
-0.993023, 413, 245, 444, 276
-0.993027, 425, 97, 456, 128
-0.993028, 301, 285, 332, 316
-0.993031, 9, 285, 40, 316
-0.993032, 305, 137, 336, 168
-0.993033, 185, 161, 216, 192
-0.993034, 105, 121, 136, 152
-0.993036, 249, 245, 280, 276
-0.993036, 305, 245, 336, 276
-0.993044, 453, 153, 484, 184
-0.993048, 137, 249, 168, 280
-0.99305, 429, 113, 460, 144
-0.993054, 285, 285, 316, 316
-0.993055, 173, 145, 204, 176
-0.993057, 281, 241, 312, 272
-0.993058, 193, 249, 224, 280
-0.993059, 209, 161, 240, 192
-0.993061, 57, 289, 88, 320
-0.993076, 141, 133, 172, 164
-0.993077, 209, 145, 240, 176
-0.99308, 361, 241, 392, 272
-0.993083, 125, 105, 156, 136
-0.993087, 337, 241, 368, 272
-0.993088, 45, 297, 76, 328
-0.993091, 221, 261, 252, 292
-0.993175, 17, 249, 144, 280
-0.993199, 1, 201, 500, 264
-0.993318, 1, 249, 500, 312
-0.99337, 217, 249, 232, 312
-0.993371, 329, 209, 360, 335
-0.99344, 101, 161, 132, 288
-0.99348, 301, 81, 332, 208
-0.993544, 173, 49, 204, 176
-0.993566, 361, 97, 392, 224
-0.993578, 277, 265, 292, 328
-0.993587, 225, 153, 480, 216
-0.993614, 167, 105, 182, 168
-0.99366, 209, 233, 336, 264
-0.993673, 65, 177, 320, 240
-0.993676, 369, 265, 496, 328
-0.993725, 1, 273, 500, 335
-0.993729, 221, 177, 236, 240
-0.993744, 1, 105, 256, 168
-0.993861, 161, 197, 288, 228
-0.993873, 173, 129, 188, 192
-0.993885, 233, 65, 264, 192
-0.993958, 437, 217, 452, 280
-0.993975, 17, 281, 144, 312
-0.993992, 269, 265, 284, 328
-0.993995, 209, 209, 336, 240
-0.993997, 209, 57, 336, 120
-0.994069, 161, 161, 288, 192
-0.994112, 207, 249, 222, 312
-0.994117, 261, 97, 292, 224
-0.994149, 287, 265, 302, 328
-0.994157, 29, 249, 44, 312
-0.99416, 145, 185, 272, 216
-0.994161, 21, 233, 36, 296
-0.994232, 353, 245, 480, 276
-0.994274, 1, 9, 256, 72
-0.994314, 81, 145, 208, 176
-0.994321, 1, 17, 500, 80
-0.994372, 201, 265, 216, 328
-0.994413, 161, 145, 288, 176
-0.994415, 1, 105, 500, 168
-0.994418, 103, 265, 118, 328
-0.994434, 223, 249, 238, 312
-0.994462, 369, 81, 496, 112
-0.994472, 289, 225, 416, 256
-0.994475, 167, 129, 182, 192
-0.994506, 193, 253, 320, 284
-0.99452, 161, 129, 176, 192
-0.994542, 209, 225, 224, 288
-0.994544, 263, 209, 278, 272
-0.994584, 23, 265, 38, 328
-0.994615, 79, 241, 94, 304
-0.994626, 369, 93, 496, 124
-0.994627, 229, 177, 244, 240
-0.994632, 181, 137, 196, 200
-0.994654, 209, 265, 336, 296
-0.994672, 277, 97, 308, 224
-0.994716, 273, 269, 400, 300
-0.994748, 235, 265, 250, 328
-0.994762, 229, 265, 244, 328
-0.994765, 161, 209, 288, 240
-0.994766, 297, 265, 312, 328
-0.99477, 409, 209, 440, 335
-0.994771, 1, 269, 128, 300
-0.994775, 97, 249, 112, 312
-0.994812, 129, 245, 256, 276
-0.99486, 289, 237, 416, 268
-0.994864, 303, 209, 318, 272
-0.994882, 1, 177, 500, 240
-0.994892, 209, 197, 336, 228
-0.994901, 33, 293, 160, 324
-0.994906, 329, 97, 360, 224
-0.994906, 113, 157, 240, 188
-0.994908, 225, 25, 480, 88
-0.994912, 233, 233, 248, 296
-0.994929, 1, 217, 256, 280
-0.994957, 469, 113, 500, 240
-0.99498, 215, 225, 230, 288
-0.994985, 353, 221, 480, 252
-0.994987, 137, 161, 168, 288
-0.994993, 257, 129, 500, 192
-0.995005, 257, 257, 384, 288
-0.995008, 243, 153, 258, 216
-0.995022, 443, 233, 458, 296
-0.995037, 193, 185, 320, 216
-0.995052, 255, 209, 270, 272
-0.995056, 139, 265, 154, 328
-0.995057, 81, 125, 208, 156
-0.995058, 81, 281, 208, 312
-0.995058, 195, 265, 210, 328
-0.995064, 369, 125, 496, 156
-0.995078, 189, 185, 204, 248
-0.995098, 303, 249, 318, 312
-0.995105, 223, 225, 238, 288
-0.995125, 185, 161, 200, 224
-0.995132, 369, 105, 496, 136
-0.995135, 1, 153, 500, 216
-0.995151, 129, 105, 384, 168
-0.995151, 155, 113, 170, 176
-0.995158, 209, 157, 336, 188
-0.995196, 149, 265, 164, 328
-0.995204, 49, 237, 176, 268
-0.99521, 273, 201, 400, 232
-0.995211, 91, 257, 106, 320
-0.995231, 349, 17, 380, 144
-0.99524, 187, 249, 202, 312
-0.99525, 217, 1, 248, 256
-0.995258, 239, 225, 254, 288
-0.995261, 1, 73, 500, 136
-0.99527, 245, 225, 260, 288
-0.995285, 243, 249, 258, 312
-0.995299, 173, 105, 188, 168
-0.995315, 439, 97, 454, 160
-0.995316, 213, 201, 228, 264
-0.995316, 321, 1, 448, 64
-0.995347, 161, 129, 416, 192
-0.9954, 263, 257, 278, 320
-0.995403, 193, 173, 320, 204
-0.995405, 71, 257, 86, 320
-0.995423, 241, 221, 368, 252
-0.995434, 293, 241, 308, 304
-0.995436, 161, 57, 288, 120
-0.995448, 133, 257, 148, 320
-0.995471, 337, 189, 464, 220
-0.995473, 469, 81, 484, 144
-0.995475, 179, 265, 194, 328
-0.995492, 285, 193, 300, 256
-0.995494, 223, 201, 238, 264
-0.9955, 369, 137, 496, 168
-0.995502, 161, 225, 288, 256
-0.995503, 257, 249, 272, 312
-0.995529, 49, 97, 176, 128
-0.99555, 309, 217, 324, 280
-0.995556, 297, 209, 312, 272
-0.995558, 145, 173, 272, 204
-0.995563, 291, 201, 306, 264
-0.995564, 239, 177, 254, 240
-0.995583, 81, 269, 208, 300
-0.995609, 223, 273, 238, 335
-0.995614, 221, 153, 236, 216
-0.995615, 1, 133, 128, 164
-0.995616, 277, 233, 292, 296
-0.995618, 161, 105, 176, 168
-0.995631, 273, 57, 400, 120
-0.995638, 321, 265, 448, 296
-0.995638, 161, 269, 288, 300
-0.995643, 225, 49, 480, 112
-0.995659, 431, 241, 446, 304
-0.995677, 211, 153, 226, 216
-0.995686, 161, 285, 288, 316
-0.995703, 33, 81, 288, 144
-0.995704, 201, 241, 216, 304
-0.995716, 255, 169, 270, 232
-0.99572, 199, 201, 214, 264
-0.995721, 309, 249, 324, 312
-0.995732, 205, 201, 220, 264
-0.995733, 365, 265, 380, 328
-0.995733, 231, 153, 246, 216
-0.995742, 173, 265, 188, 328
-0.995743, 225, 301, 352, 332
-0.995747, 173, 169, 188, 232
-0.995752, 217, 273, 232, 335
-0.995753, 231, 209, 246, 272
-0.995753, 155, 137, 170, 200
-0.995754, 225, 89, 480, 152
-0.995757, 65, 253, 192, 284
-0.995761, 425, 65, 456, 320
-0.995777, 145, 241, 160, 304
-0.995828, 211, 273, 226, 335
-0.995832, 157, 265, 172, 328
-0.995835, 139, 241, 154, 304
-0.995836, 465, 113, 480, 176
-0.995842, 87, 225, 102, 288
-0.995843, 23, 137, 38, 200
-0.995853, 431, 201, 446, 264
-0.995857, 179, 201, 194, 264
-0.995858, 287, 241, 302, 304
-0.995868, 393, 217, 408, 280
-0.995872, 271, 193, 286, 256
-0.995872, 143, 121, 158, 184
-0.995879, 289, 213, 416, 244
-0.99588, 241, 245, 368, 276
-0.995882, 277, 185, 292, 248
-0.995902, 257, 273, 272, 335
-0.995908, 197, 161, 212, 224
-0.995912, 67, 233, 82, 296
-0.995917, 249, 145, 264, 208
-0.995924, 165, 265, 180, 328
-0.99593, 273, 181, 400, 212
-0.995966, 1, 237, 128, 268
-0.995976, 251, 233, 266, 296
-0.995979, 337, 233, 464, 264
-0.995981, 453, 161, 468, 224
-0.995985, 1, 305, 128, 335
-0.995991, 237, 153, 252, 216
-0.996, 309, 273, 324, 335
-0.996026, 325, 273, 340, 335
-0.99604, 337, 209, 464, 240
-0.99605, 113, 257, 240, 288
-0.996062, 319, 273, 334, 335
-0.996062, 215, 177, 230, 240
-0.996073, 11, 241, 26, 304
-0.99609, 417, 241, 432, 304
-0.99609, 65, 157, 192, 188
-0.996096, 417, 145, 432, 208
-0.996098, 287, 169, 302, 232
-0.9961, 257, 157, 384, 188
-0.996127, 273, 297, 400, 328
-0.996128, 81, 113, 208, 144
-0.99614, 451, 1, 466, 64
-0.996151, 149, 113, 164, 176
-0.996171, 85, 273, 100, 335
-0.996172, 191, 153, 206, 216
-0.996184, 97, 9, 352, 72
-0.996193, 425, 241, 440, 304
-0.996198, 263, 233, 278, 296
-0.996198, 251, 265, 266, 328
-0.996246, 17, 257, 32, 320
-0.996254, 81, 293, 208, 324
-0.996261, 77, 265, 92, 328
-0.996261, 349, 249, 364, 312
-0.996274, 319, 137, 334, 200
-0.996295, 49, 33, 176, 96
-0.996297, 179, 241, 194, 304
-0.9963, 261, 169, 276, 232
-0.996301, 151, 241, 166, 304
-0.996333, 413, 33, 444, 288
-0.996343, 65, 265, 80, 328
-0.99636, 1, 201, 128, 264
-0.996364, 189, 225, 204, 288
-0.996368, 471, 129, 486, 192
-0.996368, 27, 225, 42, 288
-0.996369, 475, 1, 490, 64
-0.996374, 355, 257, 370, 320
-0.9964, 311, 145, 326, 208
-0.99641, 1, 93, 128, 124
-0.996422, 33, 13, 160, 44
-0.996458, 369, 257, 496, 288
-0.996491, 209, 285, 336, 316
-0.996496, 257, 169, 384, 200
-0.996527, 129, 101, 256, 132
-0.996528, 241, 1, 272, 256
-0.996537, 257, 145, 384, 176
-0.99656, 229, 1, 260, 256
-0.996565, 369, 69, 496, 100
-0.996584, 249, 49, 312, 176
-0.99666, 153, 1, 184, 256
-0.996664, 1, 105, 128, 136
-0.996737, 1, 145, 128, 176
-0.996786, 321, 277, 448, 308
-0.996799, 81, 173, 208, 204
-0.99681, 173, 1, 204, 256
-0.996824, 73, 249, 88, 280
-0.996852, 337, 173, 464, 204
-0.996855, 465, 65, 496, 320
-0.996866, 449, 65, 480, 320
-0.996883, 91, 269, 106, 300
-0.996928, 129, 125, 256, 156
-0.996932, 87, 249, 102, 280
-0.996954, 161, 17, 288, 48
-0.996966, 337, 29, 464, 60
-0.996974, 437, 65, 468, 320
-0.996983, 305, 137, 432, 168
-0.997002, 21, 1, 52, 256
-0.997017, 209, 145, 336, 176
-0.997031, 89, 281, 104, 312
-0.997034, 199, 201, 214, 232
-0.997061, 369, 149, 496, 180
-0.997072, 337, 161, 464, 192
-0.997073, 95, 285, 110, 316
-0.997086, 1, 121, 128, 152
-0.997091, 1, 49, 500, 112
-0.997091, 81, 85, 208, 116
-0.997097, 321, 89, 448, 120
-0.997134, 257, 157, 272, 188
-0.997138, 219, 189, 234, 220
-0.99714, 65, 245, 80, 276
-0.99714, 81, 265, 96, 296
-0.997154, 129, 65, 384, 128
-0.997164, 129, 85, 256, 116
-0.997174, 129, 113, 256, 144
-0.997185, 389, 1, 420, 256
-0.997188, 377, 1, 408, 256
-0.997195, 197, 1, 228, 256
-0.997195, 305, 253, 432, 284
-0.997215, 275, 269, 290, 300
-0.997228, 337, 289, 464, 320
-0.997249, 243, 161, 258, 192
-0.997258, 101, 269, 116, 300
-0.997264, 269, 289, 284, 320
-0.997267, 231, 177, 246, 208
-0.997274, 279, 257, 294, 288
-0.997285, 187, 193, 202, 224
-0.997287, 253, 1, 284, 256
-0.997292, 401, 65, 432, 320
-0.9973, 227, 193, 242, 224
-0.997317, 267, 277, 282, 308
-0.99732, 97, 13, 224, 44
-0.997324, 337, 45, 464, 76
-0.997328, 273, 257, 288, 288
-0.99733, 277, 289, 292, 320
-0.997349, 337, 57, 464, 88
-0.997374, 19, 265, 34, 296
-0.997387, 81, 237, 96, 268
-0.997398, 19, 237, 34, 268
-0.997403, 251, 161, 266, 192
-0.997404, 261, 213, 276, 244
-0.997412, 29, 249, 44, 280
-0.99743, 289, 21, 416, 52
-0.997431, 101, 257, 116, 288
-0.997459, 237, 165, 252, 196
-0.997459, 221, 177, 236, 208
-0.997482, 23, 281, 38, 312
-0.997489, 241, 21, 368, 52
-0.997502, 177, 297, 304, 328
-0.997504, 257, 1, 500, 64
-0.997508, 303, 213, 318, 244
-0.997512, 81, 193, 208, 224
-0.997517, 289, 1, 320, 256
-0.997534, 353, 1, 384, 256
-0.997567, 235, 225, 250, 256
-0.997575, 91, 297, 106, 328
-0.99759, 195, 189, 210, 220
-0.997599, 317, 1, 348, 256
-0.997602, 289, 269, 304, 300
-0.99764, 167, 145, 182, 176
-0.997643, 47, 245, 62, 276
-0.997646, 17, 161, 144, 192
-0.997655, 75, 261, 90, 292
-0.997656, 283, 269, 298, 300
-0.997661, 263, 301, 278, 332
-0.997663, 1, 49, 256, 112
-0.997667, 369, 17, 496, 48
-0.997669, 83, 289, 98, 320
-0.997671, 35, 245, 50, 276
-0.997675, 227, 209, 242, 240
-0.997676, 93, 257, 108, 288
-0.997676, 211, 181, 226, 212
-0.99768, 235, 153, 250, 184
-0.997683, 29, 237, 44, 268
-0.997687, 267, 261, 282, 292
-0.99769, 81, 253, 96, 284
-0.997698, 101, 285, 116, 316
-0.997727, 9, 33, 40, 288
-0.99773, 85, 305, 100, 335
-0.997733, 113, 33, 240, 96
-0.997734, 239, 185, 254, 216
-0.997735, 263, 157, 278, 188
-0.997738, 53, 245, 68, 276
-0.997742, 29, 289, 44, 320
-0.997746, 295, 269, 310, 300
-0.997747, 305, 1, 336, 256
-0.997749, 161, 145, 176, 176
-0.997754, 255, 289, 270, 320
-0.997754, 37, 33, 68, 288
-0.997754, 365, 285, 380, 316
-0.99776, 337, 301, 464, 332
-0.997763, 285, 257, 300, 288
-0.997767, 261, 285, 276, 316
-0.997768, 365, 1, 396, 256
-0.997775, 83, 277, 98, 308
-0.997776, 69, 33, 100, 288
-0.997776, 309, 233, 324, 264
-0.997778, 267, 245, 282, 276
-0.997781, 23, 249, 38, 280
-0.997797, 67, 273, 82, 304
-0.9978, 35, 289, 50, 320
-0.997801, 315, 305, 330, 335
-0.997804, 87, 229, 102, 260
-0.997805, 59, 245, 74, 276
-0.997805, 167, 109, 182, 140
-0.997807, 41, 245, 56, 276
-0.997808, 441, 241, 456, 272
-0.997812, 177, 177, 192, 208
-0.997824, 97, 205, 224, 236
-0.997825, 227, 161, 242, 192
-0.997829, 1, 81, 128, 112
-0.997837, 289, 201, 304, 232
-0.997843, 49, 305, 176, 335
-0.997854, 269, 1, 300, 256
-0.997856, 279, 245, 294, 276
-0.997864, 211, 197, 226, 228
-0.997865, 327, 285, 342, 316
-0.997865, 65, 201, 192, 264
-0.997871, 351, 265, 366, 296
-0.997875, 247, 149, 262, 180
-0.997878, 45, 293, 60, 324
-0.997881, 417, 157, 432, 188
-0.997889, 207, 209, 222, 240
-0.997895, 359, 269, 374, 300
-0.997898, 9, 253, 24, 284
-0.997899, 281, 305, 296, 335
-0.997905, 321, 125, 448, 156
-0.997906, 57, 33, 88, 288
-0.997909, 283, 285, 298, 316
-0.997911, 113, 233, 240, 264
-0.997912, 29, 261, 44, 292
-0.997916, 97, 297, 112, 328
-0.997918, 439, 101, 454, 132
-0.997926, 337, 273, 352, 304
-0.997926, 171, 181, 186, 212
-0.997926, 289, 285, 304, 316
-0.99793, 185, 1, 216, 256
-0.997935, 229, 221, 244, 252
-0.997939, 259, 233, 274, 264
-0.99794, 335, 285, 350, 316
-0.997943, 49, 73, 176, 104
-0.997947, 333, 1, 364, 256
-0.99795, 273, 245, 288, 276
-0.997955, 155, 145, 170, 176
-0.997963, 205, 197, 220, 228
-0.99797, 243, 229, 258, 260
-0.997973, 173, 145, 188, 176
-0.997976, 107, 257, 122, 288
-0.997976, 283, 193, 298, 224
-0.997981, 221, 161, 236, 192
-0.997997, 217, 201, 232, 232
-0.997998, 81, 65, 112, 320
-0.998, 469, 85, 484, 116
-0.998001, 193, 201, 208, 232
-0.998008, 167, 157, 182, 188
-0.998013, 219, 249, 234, 280
-0.998018, 305, 149, 432, 180
-0.998027, 1, 49, 128, 80
-0.998034, 207, 245, 222, 276
-0.998036, 99, 141, 114, 172
-0.998043, 271, 201, 286, 232
-0.99805, 431, 245, 446, 276
-0.998054, 103, 297, 118, 328
-0.998054, 437, 229, 452, 260
-0.998056, 321, 285, 336, 316
-0.998057, 323, 301, 338, 332
-0.998062, 275, 161, 290, 192
-0.998065, 233, 197, 248, 228
-0.998067, 313, 137, 328, 168
-0.998075, 161, 157, 176, 188
-0.998077, 315, 237, 330, 268
-0.998079, 223, 273, 238, 304
-0.99808, 253, 225, 268, 256
-0.998081, 255, 145, 270, 176
-0.998083, 55, 293, 70, 324
-0.998091, 197, 213, 212, 244
-0.998092, 141, 33, 172, 288
-0.998099, 135, 253, 150, 284
-0.998111, 289, 77, 416, 108
-0.998127, 1, 33, 128, 64
-0.998142, 289, 113, 416, 144
-0.998157, 321, 101, 448, 132
-0.99818, 129, 297, 256, 328
-0.998199, 369, 5, 496, 36
-0.998201, 225, 133, 352, 164
-0.998222, 113, 73, 240, 104
-0.998358, 1, 69, 128, 100
-0.998401, 449, 129, 480, 144
-0.998401, 41, 307, 72, 322
-0.998402, 201, 157, 232, 172
-0.998402, 153, 111, 184, 126
-0.998402, 177, 285, 208, 300
-0.998402, 381, 253, 412, 268
-0.998404, 25, 255, 88, 270
-0.998408, 353, 285, 384, 300
-0.998408, 133, 117, 164, 132
-0.998408, 321, 311, 352, 326
-0.998409, 237, 159, 268, 174
-0.99841, 69, 317, 100, 332
-0.998411, 373, 237, 404, 252
-0.998411, 257, 289, 288, 304
-0.998412, 205, 263, 236, 278
-0.998413, 213, 173, 244, 188
-0.998414, 201, 197, 232, 212
-0.998414, 185, 165, 216, 180
-0.998415, 17, 285, 48, 300
-0.998415, 233, 165, 264, 180
-0.998416, 253, 259, 284, 274
-0.998416, 29, 303, 60, 318
-0.998416, 261, 265, 292, 280
-0.998416, 269, 189, 300, 204
-0.998416, 141, 289, 172, 304
-0.998417, 97, 137, 128, 152
-0.998417, 189, 159, 220, 174
-0.998417, 125, 287, 156, 302
-0.998417, 253, 239, 284, 254
-0.998419, 305, 137, 336, 152
-0.99842, 193, 93, 320, 124
-0.998421, 205, 203, 236, 218
-0.998422, 169, 185, 232, 200
-0.998422, 141, 143, 172, 158
-0.998424, 261, 309, 292, 324
-0.998424, 1, 249, 64, 264
-0.998425, 233, 245, 264, 260
-0.998426, 169, 159, 200, 174
-0.998426, 409, 167, 440, 182
-0.998428, 193, 121, 320, 152
-0.998428, 153, 143, 184, 158
-0.998429, 105, 287, 136, 302
-0.998429, 161, 287, 192, 302
-0.998429, 97, 279, 128, 294
-0.998429, 445, 109, 476, 124
-0.998429, 237, 171, 268, 186
-0.998429, 277, 261, 308, 276
-0.99843, 345, 277, 376, 292
-0.998431, 409, 177, 440, 192
-0.998431, 449, 123, 480, 138
-0.998431, 177, 183, 208, 198
-0.998432, 193, 179, 224, 194
-0.998433, 9, 147, 40, 162
-0.998434, 221, 159, 252, 174
-0.998434, 89, 309, 120, 324
-0.998434, 93, 293, 124, 308
-0.998435, 401, 243, 432, 258
-0.998436, 61, 215, 92, 230
-0.998436, 309, 305, 340, 320
-0.998437, 93, 259, 124, 274
-0.998439, 85, 303, 116, 318
-0.998441, 213, 285, 244, 300
-0.998441, 185, 211, 216, 226
-0.998442, 217, 267, 248, 282
-0.998442, 265, 281, 296, 296
-0.998442, 445, 97, 476, 112
-0.998443, 225, 285, 288, 300
-0.998447, 25, 297, 56, 312
-0.998448, 25, 259, 56, 274
-0.998448, 173, 175, 204, 190
-0.998449, 65, 273, 96, 288
-0.998449, 161, 193, 224, 208
-0.99845, 189, 195, 220, 210
-0.998451, 73, 245, 104, 260
-0.998453, 33, 249, 96, 264
-0.998455, 197, 213, 228, 228
-0.998456, 169, 203, 232, 218
-0.998456, 5, 259, 36, 274
-0.998457, 309, 313, 340, 328
-0.998458, 469, 85, 500, 100
-0.998458, 57, 293, 88, 308
-0.998458, 297, 311, 328, 326
-0.99846, 285, 253, 316, 268
-0.998462, 249, 159, 280, 174
-0.998463, 257, 295, 288, 310
-0.998464, 305, 245, 336, 260
-0.998464, 225, 175, 256, 190
-0.998464, 41, 301, 72, 316
-0.998465, 69, 257, 100, 272
-0.998466, 197, 187, 228, 202
-0.998468, 273, 207, 304, 222
-0.998469, 37, 255, 68, 270
-0.99847, 77, 279, 108, 294
-0.99847, 257, 213, 288, 228
-0.998472, 229, 285, 260, 300
-0.998473, 389, 243, 420, 258
-0.998474, 237, 219, 268, 234
-0.998475, 13, 243, 44, 258
-0.998475, 65, 269, 128, 284
-0.998476, 193, 199, 256, 214
-0.998477, 429, 249, 460, 264
-0.998479, 289, 317, 320, 332
-0.99848, 445, 103, 476, 118
-0.998482, 225, 259, 288, 274
-0.998483, 145, 117, 176, 132
-0.998483, 241, 227, 272, 242
-0.998486, 241, 285, 272, 300
-0.998489, 217, 227, 280, 242
-0.998489, 297, 235, 328, 250
-0.998491, 185, 191, 248, 206
-0.998491, 265, 259, 328, 274
-0.998494, 241, 239, 272, 254
-0.998496, 217, 223, 248, 238
-0.998497, 229, 161, 244, 288
-0.998501, 89, 267, 120, 282
-0.998502, 177, 133, 304, 164
-0.998502, 205, 247, 236, 262
-0.998503, 25, 249, 56, 264
-0.998503, 249, 211, 312, 226
-0.998503, 425, 83, 488, 98
-0.998504, 193, 213, 256, 228
-0.998504, 213, 209, 244, 224
-0.998505, 137, 149, 168, 164
-0.998505, 57, 251, 120, 266
-0.998507, 241, 233, 272, 248
-0.998508, 221, 229, 252, 244
-0.998508, 57, 263, 120, 278
-0.998509, 221, 241, 252, 256
-0.99851, 377, 243, 440, 258
-0.998512, 209, 181, 272, 196
-0.998513, 89, 273, 120, 288
-0.998513, 265, 255, 296, 270
-0.998514, 169, 179, 232, 194
-0.998515, 41, 297, 104, 312
-0.998516, 77, 269, 108, 284
-0.998516, 253, 283, 284, 298
-0.998517, 257, 253, 320, 268
-0.998518, 173, 189, 204, 204
-0.998518, 257, 303, 288, 318
-0.99852, 89, 143, 152, 158
-0.998523, 185, 203, 216, 218
-0.998523, 209, 221, 272, 236
-0.998527, 185, 155, 248, 170
-0.998529, 25, 291, 56, 306
-0.99853, 81, 295, 112, 310
-0.998533, 225, 203, 288, 218
-0.998534, 273, 311, 336, 326
-0.998534, 273, 201, 304, 216
-0.998535, 201, 243, 264, 258
-0.998535, 105, 149, 168, 164
-0.998536, 81, 257, 112, 272
-0.998536, 417, 107, 480, 122
-0.998536, 273, 289, 304, 304
-0.998537, 269, 195, 300, 210
-0.998537, 193, 81, 320, 112
-0.998538, 225, 197, 288, 212
-0.998538, 213, 195, 244, 210
-0.998538, 53, 253, 84, 268
-0.998538, 37, 295, 68, 310
-0.99854, 265, 289, 328, 304
-0.99854, 321, 287, 384, 302
-0.99854, 73, 251, 104, 266
-0.998541, 25, 291, 88, 306
-0.998543, 233, 239, 296, 254
-0.998545, 209, 233, 272, 248
-0.998547, 417, 115, 480, 130
-0.998547, 225, 213, 288, 228
-0.998549, 169, 173, 232, 188
-0.99855, 97, 289, 160, 304
-0.998551, 417, 99, 480, 114
-0.998552, 185, 221, 248, 236
-0.998553, 57, 309, 120, 324
-0.998553, 225, 245, 288, 260
-0.998553, 13, 249, 44, 264
-0.998556, 37, 247, 68, 262
-0.998556, 121, 113, 184, 128
-0.998556, 249, 283, 312, 298
-0.998556, 281, 317, 344, 332
-0.998557, 233, 265, 296, 280
-0.998559, 305, 311, 368, 326
-0.998559, 297, 155, 360, 170
-0.998559, 137, 157, 200, 172
-0.998559, 129, 287, 192, 302
-0.998559, 225, 293, 288, 308
-0.99856, 145, 143, 208, 158
-0.99856, 225, 191, 288, 206
-0.998563, 193, 207, 256, 222
-0.998564, 193, 285, 256, 300
-0.998564, 169, 285, 232, 300
-0.998565, 65, 293, 128, 308
-0.998567, 65, 257, 128, 272
-0.998568, 425, 199, 488, 214
-0.998569, 385, 89, 448, 104
-0.998569, 265, 235, 328, 250
-0.998569, 345, 239, 408, 254
-0.998572, 225, 159, 288, 174
-0.998573, 233, 251, 296, 266
-0.998574, 425, 133, 488, 148
-0.998575, 81, 283, 144, 298
-0.998575, 417, 77, 480, 92
-0.998575, 89, 259, 152, 274
-0.998576, 121, 125, 184, 140
-0.998576, 57, 277, 120, 292
-0.998576, 425, 141, 488, 156
-0.998579, 193, 263, 256, 278
-0.998579, 185, 161, 248, 176
-0.99858, 249, 229, 312, 244
-0.998582, 265, 201, 328, 216
-0.998582, 193, 249, 256, 264
-0.998582, 425, 3, 488, 18
-0.998582, 401, 249, 464, 264
-0.998583, 257, 267, 320, 282
-0.998585, 177, 195, 208, 210
-0.998585, 89, 137, 152, 152
-0.998587, 233, 219, 296, 234
-0.998587, 169, 211, 232, 226
-0.998588, 297, 255, 360, 270
-0.99859, 121, 99, 184, 114
-0.998591, 417, 93, 480, 108
-0.998591, 217, 181, 248, 196
-0.998592, 265, 247, 328, 262
-0.998592, 321, 305, 384, 320
-0.998592, 17, 303, 80, 318
-0.998593, 257, 317, 320, 332
-0.998593, 201, 175, 264, 190
-0.998593, 137, 249, 200, 264
-0.998593, 145, 151, 208, 166
-0.998593, 401, 157, 464, 172
-0.998595, 249, 161, 312, 176
-0.998595, 193, 269, 256, 284
-0.998595, 185, 229, 248, 244
-0.998596, 257, 223, 320, 238
-0.998596, 257, 217, 320, 232
-0.998597, 297, 145, 360, 160
-0.998597, 41, 215, 104, 230
-0.998598, 385, 195, 448, 210
-0.998598, 289, 215, 320, 230
-0.998598, 273, 157, 336, 172
-0.998598, 425, 125, 488, 140
-0.998599, 425, 193, 488, 208
-0.998599, 25, 285, 88, 300
-0.998599, 297, 287, 360, 302
-0.9986, 25, 313, 88, 328
-0.998601, 81, 151, 144, 166
-0.998601, 121, 119, 184, 134
-0.998601, 1, 293, 64, 308
-0.998602, 53, 247, 84, 262
-0.998602, 25, 261, 88, 276
-0.998604, 329, 297, 392, 312
-0.998604, 121, 143, 184, 158
-0.998605, 385, 177, 448, 192
-0.998605, 89, 251, 152, 266
-0.998606, 57, 245, 120, 260
-0.998606, 337, 263, 400, 278
-0.998607, 249, 277, 312, 292
-0.998607, 73, 317, 136, 332
-0.998607, 97, 119, 160, 134
-0.998607, 385, 223, 448, 238
-0.998608, 1, 255, 64, 270
-0.998608, 353, 197, 416, 212
-0.998609, 113, 157, 176, 172
-0.99861, 177, 243, 240, 258
-0.998611, 241, 311, 304, 326
-0.998612, 161, 107, 224, 122
-0.998614, 69, 263, 100, 278
-0.998625, 241, 9, 368, 40
-0.998636, 193, 105, 320, 136
-0.998656, 81, 217, 208, 248
-0.998659, 303, 209, 318, 335
-0.99867, 273, 49, 336, 176
-0.99868, 267, 193, 282, 320
-0.998715, 49, 1, 176, 32
-0.998731, 203, 193, 218, 320
-0.998742, 161, 5, 288, 36
-0.998752, 241, 193, 256, 320
-0.998753, 121, 33, 152, 288
-0.998759, 433, 193, 448, 320
-0.998776, 233, 209, 248, 335
-0.998815, 167, 97, 182, 224
-0.998837, 219, 209, 234, 335
-0.998845, 273, 125, 400, 156
-0.998863, 113, 1, 240, 32
-0.998873, 295, 209, 310, 335
-0.998877, 299, 161, 314, 288
-0.99888, 273, 101, 400, 132
-0.998893, 235, 161, 250, 288
-0.998896, 257, 209, 272, 335
-0.998903, 217, 161, 232, 288
-0.998904, 273, 177, 288, 304
-0.998908, 263, 145, 278, 272
-0.998916, 251, 129, 266, 256
-0.998918, 145, 97, 160, 224
-0.998931, 153, 97, 168, 224
-0.998937, 227, 209, 242, 335
-0.99894, 309, 209, 324, 335
-0.998941, 463, 97, 478, 224
-0.998947, 199, 145, 214, 272
-0.998961, 173, 97, 188, 224
-0.998968, 77, 209, 92, 335
-0.998975, 197, 193, 212, 320
-0.998978, 289, 209, 304, 335
-0.99898, 193, 145, 208, 272
-0.998987, 177, 193, 192, 320
-0.998987, 83, 161, 98, 288
-0.998997, 207, 145, 222, 272
-0.999002, 285, 161, 300, 288
-0.999006, 279, 145, 294, 272
-0.999018, 293, 161, 308, 288
-0.999019, 439, 97, 454, 224
-0.99902, 439, 209, 454, 335
-0.999034, 241, 145, 256, 272
-0.999038, 65, 177, 80, 304
-0.99904, 71, 177, 86, 304
-0.999049, 437, 33, 452, 160
-0.999056, 81, 1, 96, 128
-0.999058, 177, 145, 192, 272
-0.99906, 279, 193, 294, 320
-0.999064, 399, 193, 414, 320
-0.999065, 305, 129, 320, 256
-0.999079, 159, 97, 174, 224
-0.99908, 223, 161, 238, 288
-0.999085, 95, 161, 110, 288
-0.999085, 417, 145, 432, 272
-0.999088, 187, 161, 202, 288
-0.999099, 257, 145, 272, 272
-0.999101, 407, 161, 422, 288
-0.999105, 473, 65, 488, 192
-0.999116, 77, 97, 92, 224
-0.999118, 443, 1, 458, 128
-0.999123, 139, 97, 154, 224
-0.999124, 77, 161, 92, 288
-0.999124, 447, 177, 462, 304
-0.999128, 209, 193, 224, 320
-0.999136, 427, 177, 442, 304
-0.999144, 167, 145, 182, 272
-0.999157, 91, 113, 106, 240
-0.999158, 311, 161, 326, 288
-0.999168, 33, 173, 160, 204
-0.99917, 451, 1, 466, 128
-0.999174, 121, 97, 136, 224
-0.999179, 439, 161, 454, 288
-0.999182, 321, 9, 448, 40
-0.999182, 453, 193, 468, 320
-0.999184, 271, 129, 286, 256
-0.999196, 381, 193, 396, 320
-0.999206, 469, 1, 484, 128
-0.999212, 451, 65, 466, 192
-0.999213, 73, 1, 88, 128
-0.999216, 109, 1, 140, 256
-0.999218, 143, 1, 158, 128
-0.999219, 23, 97, 38, 224
-0.999222, 391, 193, 406, 320
-0.999226, 225, 113, 240, 240
-0.999227, 31, 81, 46, 208
-0.999234, 101, 129, 116, 256
-0.999235, 247, 209, 262, 335
-0.999237, 369, 277, 496, 308
-0.999239, 13, 81, 28, 208
-0.999246, 63, 97, 78, 224
-0.999246, 57, 97, 72, 224
-0.999246, 371, 193, 386, 320
-0.999247, 133, 1, 148, 128
-0.99925, 243, 1, 258, 128
-0.99925, 231, 113, 246, 240
-0.999254, 167, 1, 182, 128
-0.999255, 89, 209, 104, 335
-0.999262, 231, 1, 246, 128
-0.999267, 237, 1, 252, 128
-0.99927, 209, 1, 224, 128
-0.999271, 71, 113, 86, 240
-0.999271, 445, 113, 460, 240
-0.999272, 185, 113, 200, 240
-0.999276, 133, 97, 148, 224
-0.999281, 459, 145, 474, 272
-0.999285, 87, 1, 102, 128
-0.999286, 217, 1, 232, 128
-0.999291, 39, 97, 54, 224
-0.999291, 469, 113, 484, 240
-0.999292, 177, 1, 192, 128
-0.999299, 203, 1, 218, 128
-0.999301, 33, 17, 48, 144
-0.999303, 95, 209, 110, 335
-0.999303, 19, 161, 34, 288
-0.999304, 363, 209, 378, 335
-0.999305, 55, 145, 70, 272
-0.999307, 97, 65, 128, 320
-0.999312, 83, 209, 98, 335
-0.999315, 317, 129, 332, 256
-0.999319, 431, 81, 446, 208
-0.999326, 161, 1, 176, 128
-0.999327, 311, 113, 326, 240
-0.999328, 249, 1, 264, 128
-0.999329, 45, 97, 60, 224
-0.999331, 149, 1, 164, 128
-0.999332, 217, 113, 232, 240
-0.999335, 463, 1, 478, 128
-0.999335, 193, 1, 208, 128
-0.999339, 461, 209, 476, 335
-0.99934, 127, 97, 142, 224
-0.999342, 127, 1, 142, 128
-0.999343, 257, 1, 272, 128
-0.999344, 115, 97, 130, 224
-0.999345, 225, 1, 240, 128
-0.999346, 287, 1, 302, 128
-0.999348, 185, 1, 200, 128
-0.999356, 239, 97, 254, 224
-0.999357, 61, 1, 76, 128
-0.999359, 161, 145, 176, 272
-0.999366, 83, 97, 98, 224
-0.999458, 97, 41, 352, 104
-0.999621, 283, 317, 298, 332
-0.999622, 111, 281, 126, 296
-0.999623, 173, 287, 188, 302
-0.999624, 311, 133, 326, 148
-0.999625, 225, 285, 240, 300
-0.999626, 73, 265, 88, 280
-0.999626, 305, 247, 320, 262
-0.999626, 201, 213, 216, 228
-0.999626, 235, 287, 250, 302
-0.999626, 271, 195, 286, 210
-0.999627, 191, 157, 206, 172
-0.999627, 117, 285, 132, 300
-0.999627, 97, 279, 112, 294
-0.999628, 227, 157, 242, 172
-0.999628, 273, 303, 288, 318
-0.999628, 177, 185, 192, 200
-0.999629, 261, 299, 276, 314
-0.999629, 237, 155, 252, 170
-0.999629, 167, 109, 182, 124
-0.99963, 77, 317, 92, 332
-0.999631, 205, 199, 220, 214
-0.999631, 317, 139, 332, 154
-0.999632, 245, 233, 260, 248
-0.999632, 243, 239, 258, 254
-0.999633, 227, 209, 242, 224
-0.999633, 219, 179, 234, 194
-0.999633, 89, 281, 104, 296
-0.999634, 287, 201, 302, 216
-0.999635, 473, 83, 488, 98
-0.999635, 71, 321, 86, 335
-0.999636, 255, 229, 270, 244
-0.999637, 267, 259, 282, 274
-0.999637, 261, 285, 276, 300
-0.999637, 281, 303, 296, 318
-0.999638, 323, 307, 338, 322
-0.999638, 269, 251, 284, 266
-0.999638, 93, 259, 108, 274
-0.999638, 83, 291, 98, 306
-0.999639, 279, 261, 294, 276
-0.99964, 51, 297, 66, 312
-0.99964, 273, 267, 288, 282
-0.999641, 161, 117, 176, 132
-0.999641, 93, 289, 108, 304
-0.999642, 273, 261, 288, 276
-0.999642, 281, 195, 296, 210
-0.999642, 147, 117, 162, 132
-0.999643, 391, 243, 406, 258
-0.999644, 103, 295, 118, 310
-0.999644, 267, 273, 282, 288
-0.999645, 309, 235, 324, 250
-0.999647, 251, 179, 266, 194
-0.999647, 81, 243, 96, 258
-0.999647, 289, 319, 304, 334
-0.99965, 187, 163, 202, 178
-0.999653, 95, 145, 110, 160
-0.999653, 303, 215, 318, 230
-0.999653, 103, 309, 118, 324
-0.999654, 69, 275, 84, 290
-0.999654, 169, 195, 184, 210
-0.999654, 241, 285, 256, 300
-0.999655, 79, 283, 94, 298
-0.999657, 241, 175, 256, 190
-0.999657, 85, 297, 100, 312
-0.999659, 9, 257, 24, 272
-0.999662, 289, 311, 304, 326
-0.999662, 207, 211, 222, 226
-0.999663, 27, 263, 42, 278
-0.999663, 229, 223, 244, 238
-0.999663, 87, 261, 102, 276
-0.999664, 243, 163, 258, 178
-0.999665, 213, 185, 228, 200
-0.999665, 53, 247, 68, 262
-0.999666, 153, 117, 168, 132
-0.999666, 185, 201, 200, 216
-0.999666, 19, 279, 34, 294
-0.999667, 315, 317, 330, 332
-0.999668, 85, 269, 100, 284
-0.999669, 19, 271, 34, 286
-0.999669, 209, 179, 224, 194
-0.99967, 43, 295, 58, 310
-0.99967, 87, 253, 102, 268
-0.99967, 27, 257, 42, 272
-0.999673, 273, 189, 288, 204
-0.999673, 219, 187, 234, 202
-0.999674, 249, 159, 264, 174
-0.999674, 41, 249, 56, 264
-0.999675, 321, 313, 336, 328
-0.999675, 315, 307, 330, 322
-0.999675, 261, 215, 276, 230
-0.999676, 79, 251, 94, 266
-0.999676, 237, 161, 252, 176
-0.999676, 223, 229, 238, 244
-0.999676, 239, 231, 254, 246
-0.999677, 61, 247, 76, 262
-0.999677, 99, 257, 114, 272
-0.999678, 27, 291, 42, 306
-0.999678, 67, 253, 82, 268
-0.999678, 267, 293, 282, 308
-0.999679, 229, 197, 244, 212
-0.99968, 103, 267, 118, 282
-0.999681, 211, 247, 226, 262
-0.999681, 275, 289, 290, 304
-0.999686, 93, 295, 108, 310
-0.999688, 177, 191, 192, 206
-0.999691, 19, 239, 34, 254
-0.999691, 167, 117, 182, 132
-0.999692, 33, 293, 48, 308
-0.999694, 29, 251, 44, 266
-0.999697, 35, 249, 50, 264
-0.999698, 295, 319, 310, 334
-0.999698, 267, 283, 282, 298
-0.999701, 305, 313, 320, 328
-0.999703, 197, 197, 212, 212
-0.999703, 277, 255, 292, 270
-0.999703, 67, 247, 82, 262
-0.999703, 97, 301, 112, 316
-0.999709, 235, 225, 250, 240
-0.999712, 221, 193, 236, 208
-0.999715, 87, 247, 102, 262
-0.999716, 95, 267, 110, 282
-0.999722, 91, 275, 106, 290
-0.999723, 75, 259, 90, 274
-0.999725, 47, 247, 62, 262
-0.999728, 199, 203, 214, 218
-0.999731, 101, 273, 116, 288
-0.999735, 267, 299, 282, 314
-0.999735, 23, 285, 38, 300
-0.99974, 73, 249, 88, 264
-0.999749, 21, 263, 36, 278
-0.999763, 189, 195, 204, 210
