1913
-0.321334, 1, 1, 333, 500
-0.392147, 1, 1, 333, 256
-0.422083, 1, 129, 333, 384
-0.438761, 33, 1, 288, 500
-0.507993, 1, 225, 333, 480
-0.51226, 65, 1, 320, 256
-0.601964, 65, 193, 320, 448
-0.698171, 65, 97, 320, 352
-0.834236, 113, 1, 240, 256
-0.843636, 177, 97, 304, 352
-0.847044, 113, 1, 240, 500
-0.848745, 161, 1, 288, 500
-0.857195, 129, 193, 256, 448
-0.859445, 161, 1, 288, 256
-0.867275, 209, 193, 333, 448
-0.871532, 49, 33, 176, 288
-0.874926, 1, 129, 333, 256
-0.878507, 65, 1, 192, 500
-0.878806, 129, 97, 256, 352
-0.880414, 1, 17, 333, 144
-0.887231, 209, 1, 333, 500
-0.891112, 1, 193, 333, 320
-0.897081, 81, 161, 208, 416
-0.910567, 1, 81, 333, 208
-0.911098, 65, 177, 320, 304
-0.911483, 1, 1, 128, 256
-0.911929, 33, 129, 160, 384
-0.912876, 65, 17, 320, 144
-0.917019, 1, 305, 333, 432
-0.922156, 17, 1, 144, 500
-0.922802, 65, 129, 320, 256
-0.924145, 1, 257, 333, 384
-0.927487, 81, 257, 208, 500
-0.929489, 177, 129, 304, 256
-0.930165, 209, 1, 333, 256
-0.931723, 65, 225, 320, 352
-0.93317, 65, 65, 320, 192
-0.934399, 97, 33, 224, 160
-0.934549, 113, 177, 240, 304
-0.934553, 209, 289, 333, 416
-0.937727, 65, 289, 320, 416
-0.939455, 225, 129, 288, 256
-0.940702, 177, 209, 304, 336
-0.941669, 33, 225, 160, 480
-0.942677, 129, 129, 256, 256
-0.943889, 49, 97, 176, 224
-0.944146, 193, 97, 256, 224
-0.945723, 97, 33, 160, 160
-0.945928, 185, 145, 248, 272
-0.946282, 145, 17, 272, 144
-0.947321, 249, 273, 312, 400
-0.947739, 89, 97, 152, 224
-0.947887, 1, 353, 333, 480
-0.948266, 129, 177, 192, 304
-0.948795, 113, 81, 240, 208
-0.949508, 161, 81, 288, 208
-0.949589, 153, 17, 216, 144
-0.950139, 209, 49, 333, 176
-0.950223, 177, 17, 240, 144
-0.951251, 1, 1, 128, 128
-0.951791, 241, 225, 304, 352
-0.952169, 233, 177, 296, 304
-0.952906, 153, 177, 216, 304
-0.953942, 33, 337, 288, 464
-0.954032, 209, 193, 272, 320
-0.954364, 145, 129, 208, 256
-0.955561, 249, 265, 312, 328
-0.955595, 121, 33, 184, 160
-0.956948, 217, 65, 280, 192
-0.958115, 201, 1, 264, 128
-0.959357, 1, 49, 128, 176
-0.959979, 65, 1, 128, 128
-0.960066, 161, 257, 288, 384
-0.960531, 265, 81, 328, 208
-0.960544, 49, 145, 176, 272
-0.960849, 113, 241, 240, 368
-0.961201, 97, 33, 160, 96
-0.961637, 225, 273, 288, 400
-0.962398, 209, 1, 333, 128
-0.962498, 169, 81, 232, 208
-0.962799, 217, 113, 280, 176
-0.96306, 257, 177, 320, 304
-0.96323, 193, 241, 256, 368
-0.96331, 49, 33, 176, 160
-0.963522, 121, 129, 184, 256
-0.963823, 65, 97, 128, 224
-0.964283, 193, 97, 256, 160
-0.964487, 225, 273, 288, 336
-0.964926, 249, 289, 312, 352
-0.965044, 113, 289, 240, 416
-0.965169, 185, 177, 248, 240
-0.965477, 161, 321, 288, 448
-0.966061, 129, 185, 192, 248
-0.966114, 161, 33, 224, 96
-0.966169, 225, 145, 288, 208
-0.966226, 273, 289, 333, 416
-0.96705, 233, 177, 296, 240
-0.967061, 105, 177, 168, 304
-0.967163, 105, 1, 168, 256
-0.967671, 153, 185, 216, 248
-0.967861, 185, 193, 248, 320
-0.968036, 217, 209, 280, 272
-0.968356, 169, 1, 232, 256
-0.968815, 57, 49, 120, 176
-0.968992, 137, 33, 200, 96
-0.970078, 1, 97, 128, 224
-0.970117, 129, 161, 192, 224
-0.970417, 137, 1, 200, 256
-0.970542, 233, 161, 296, 416
-0.970927, 185, 33, 248, 96
-0.970996, 273, 337, 333, 464
-0.971089, 249, 265, 280, 328
-0.97126, 225, 89, 288, 152
-0.971449, 193, 201, 256, 264
-0.971796, 81, 145, 144, 272
-0.971802, 209, 337, 333, 464
-0.971909, 113, 193, 240, 256
-0.972148, 65, 1, 128, 64
-0.972377, 241, 241, 304, 304
-0.972435, 129, 297, 192, 360
-0.972461, 113, 81, 176, 208
-0.97247, 265, 225, 328, 352
-0.972491, 201, 9, 264, 72
-0.972541, 89, 105, 152, 168
-0.972634, 129, 305, 192, 432
-0.972972, 177, 105, 304, 168
-0.972984, 177, 161, 304, 224
-0.973031, 273, 273, 304, 336
-0.973115, 65, 305, 192, 432
-0.973177, 89, 273, 152, 400
-0.973179, 81, 33, 208, 96
-0.973755, 153, 281, 216, 344
-0.973805, 177, 9, 240, 72
-0.97388, 257, 105, 320, 168
-0.974101, 65, 193, 192, 320
-0.974155, 185, 225, 248, 288
-0.974234, 81, 1, 144, 256
-0.974558, 209, 313, 333, 376
-0.974562, 201, 257, 264, 320
-0.974674, 129, 33, 256, 96
-0.974697, 105, 33, 136, 160
-0.974701, 89, 81, 152, 144
-0.974711, 261, 193, 292, 320
-0.974754, 257, 313, 320, 376
-0.974908, 241, 81, 304, 208
-0.974949, 129, 161, 192, 416
-0.974957, 201, 305, 264, 432
-0.975058, 193, 33, 256, 288
-0.975082, 65, 105, 128, 168
-0.975083, 169, 273, 232, 400
-0.975192, 185, 129, 248, 384
-0.975522, 193, 129, 256, 192
-0.975715, 177, 129, 304, 192
-0.97576, 153, 329, 216, 392
-0.976019, 129, 265, 192, 328
-0.976087, 49, 257, 176, 384
-0.976113, 153, 129, 216, 384
-0.976202, 113, 353, 240, 480
-0.976263, 209, 1, 240, 128
-0.976284, 253, 145, 284, 272
-0.976366, 273, 65, 333, 320
-0.976385, 1, 65, 64, 192
-0.976572, 153, 161, 216, 224
-0.976581, 177, 201, 304, 264
-0.976612, 217, 233, 280, 296
-0.976969, 225, 65, 288, 320
-0.977078, 261, 257, 292, 320
-0.977133, 253, 257, 284, 384
-0.977214, 273, 257, 304, 384
-0.977225, 193, 313, 256, 376
-0.977268, 273, 345, 333, 408
-0.977691, 217, 97, 248, 224
-0.977754, 225, 17, 288, 144
-0.97783, 233, 297, 264, 360
-0.977883, 117, 33, 148, 160
-0.977988, 217, 105, 248, 168
-0.978081, 273, 281, 333, 344
-0.978176, 173, 129, 204, 256
-0.978197, 145, 81, 208, 208
-0.978371, 105, 265, 168, 328
-0.978391, 249, 129, 312, 256
-0.978396, 273, 73, 333, 136
-0.978412, 93, 17, 124, 144
-0.978498, 197, 17, 228, 144
-0.978532, 105, 9, 168, 72
-0.978565, 217, 65, 280, 128
-0.978665, 89, 177, 152, 240
-0.978668, 177, 265, 240, 328
-0.978865, 209, 161, 272, 416
-0.978903, 225, 305, 288, 368
-0.978962, 201, 81, 232, 208
-0.979025, 177, 265, 304, 328
-0.979104, 169, 89, 232, 152
-0.979138, 273, 193, 333, 256
-0.979244, 177, 241, 304, 304
-0.979282, 273, 17, 333, 144
-0.979302, 9, 89, 72, 152
-0.979313, 145, 1, 208, 500
-0.979329, 129, 305, 256, 368
-0.979445, 169, 353, 232, 480
-0.979498, 197, 129, 228, 256
-0.979638, 257, 161, 320, 416
-0.979642, 169, 129, 232, 192
-0.979695, 89, 321, 152, 384
-0.979723, 161, 225, 224, 352
-0.979832, 129, 265, 256, 328
-0.980208, 101, 81, 132, 208
-0.980242, 189, 81, 220, 208
-0.980287, 169, 177, 200, 304
-0.980381, 89, 201, 152, 264
-0.980436, 185, 177, 216, 304
-0.980467, 129, 257, 192, 384
-0.980516, 209, 289, 333, 352
-0.980581, 25, 97, 88, 224
-0.98065, 209, 337, 333, 400
-0.980658, 261, 233, 292, 296
-0.980684, 173, 17, 204, 144
-0.980687, 81, 289, 208, 352
-0.98069, 173, 193, 204, 256
-0.980709, 249, 257, 312, 500
-0.980732, 129, 105, 256, 168
-0.980753, 125, 177, 156, 304
-0.980756, 129, 329, 192, 392
-0.980767, 161, 225, 224, 288
-0.980785, 89, 137, 152, 200
-0.980817, 177, 289, 240, 352
-0.980894, 81, 1, 112, 128
-0.980913, 129, 9, 192, 72
-0.980931, 73, 25, 136, 88
-0.980959, 73, 193, 136, 320
-0.981017, 105, 289, 168, 352
-0.98111, 185, 1, 248, 500
-0.981162, 205, 97, 236, 160
-0.981182, 65, 353, 192, 480
-0.981234, 129, 177, 160, 240
-0.981271, 49, 73, 112, 136
-0.98132, 205, 9, 236, 72
-0.981379, 157, 177, 188, 304
-0.981387, 141, 17, 172, 144
-0.981402, 185, 17, 216, 144
-0.981411, 89, 97, 120, 160
-0.98146, 265, 161, 328, 224
-0.981508, 225, 201, 256, 264
-0.981622, 213, 49, 244, 176
-0.981755, 193, 257, 224, 320
-0.981766, 153, 9, 216, 72
-0.981838, 185, 225, 248, 480
-0.981887, 177, 289, 208, 352
-0.982014, 253, 153, 284, 216
-0.982025, 113, 169, 240, 232
-0.982078, 113, 225, 240, 288
-0.982091, 273, 129, 333, 256
-0.982143, 273, 257, 333, 500
-0.982205, 225, 321, 288, 448
-0.98226, 237, 273, 268, 400
-0.982473, 245, 209, 276, 336
-0.98248, 153, 33, 184, 96
-0.982505, 133, 129, 164, 256
-0.982556, 129, 129, 256, 192
-0.982562, 121, 1, 184, 500
-0.982578, 105, 225, 168, 352
-0.982581, 265, 233, 328, 296
-0.982659, 73, 49, 136, 112
-0.982675, 33, 105, 160, 168
-0.982702, 153, 305, 216, 368
-0.982733, 89, 97, 152, 352
-0.982737, 1, 73, 128, 136
-0.982741, 77, 1, 108, 64
-0.982745, 169, 33, 200, 96
-0.9828, 177, 153, 240, 216
-0.982979, 49, 145, 112, 272
-0.983161, 89, 97, 120, 224
-0.983172, 57, 1, 120, 256
-0.983318, 9, 17, 72, 144
-0.98336, 185, 129, 216, 256
-0.983375, 209, 81, 333, 144
-0.983377, 97, 1, 224, 64
-0.983406, 241, 129, 272, 256
-0.983419, 129, 17, 160, 144
-0.983437, 153, 129, 184, 256
-0.98346, 157, 17, 188, 144
-0.983485, 109, 33, 140, 96
-0.983485, 189, 33, 220, 96
-0.983544, 169, 393, 232, 456
-0.983574, 153, 177, 184, 240
-0.983667, 177, 265, 208, 328
-0.983723, 249, 201, 312, 264
-0.983855, 197, 177, 228, 304
-0.983856, 97, 81, 224, 144
-0.983916, 33, 9, 160, 72
-0.984016, 145, 129, 208, 192
-0.984028, 209, 145, 240, 272
-0.984037, 301, 33, 332, 160
-0.984129, 217, 193, 248, 320
-0.984167, 249, 33, 312, 160
-0.984179, 89, 9, 120, 72
-0.98418, 41, 97, 104, 160
-0.984195, 153, 257, 216, 320
-0.984204, 137, 25, 168, 88
-0.984245, 193, 73, 256, 136
-0.984263, 273, 49, 333, 112
-0.984356, 161, 9, 288, 72
-0.98438, 125, 33, 156, 96
-0.984436, 301, 57, 332, 120
-0.984467, 201, 281, 264, 344
-0.984535, 17, 209, 144, 336
-0.984597, 289, 305, 320, 432
-0.984603, 229, 113, 260, 240
-0.984608, 185, 345, 248, 408
-0.984685, 217, 1, 280, 500
-0.984689, 197, 225, 228, 352
-0.984734, 1, 65, 64, 128
-0.984761, 81, 105, 208, 168
-0.984775, 141, 177, 172, 304
-0.98485, 253, 177, 284, 240
-0.984861, 137, 353, 200, 416
-0.98489, 113, 97, 144, 224
-0.984957, 217, 329, 280, 392
-0.984959, 65, 169, 192, 232
-0.984967, 161, 329, 288, 392
-0.985084, 113, 329, 240, 392
-0.985118, 209, 49, 333, 112
-0.98512, 245, 289, 276, 352
-0.985151, 105, 81, 136, 144
-0.985161, 49, 129, 112, 192
-0.985229, 273, 369, 333, 432
-0.985292, 209, 225, 240, 288
-0.985321, 229, 113, 260, 176
-0.985338, 229, 65, 260, 192
-0.985433, 81, 265, 144, 328
-0.985464, 9, 113, 72, 176
-0.985504, 41, 1, 104, 64
-0.985564, 161, 369, 288, 496
-0.985663, 217, 1, 248, 64
-0.985675, 65, 329, 192, 392
-0.985702, 185, 225, 216, 288
-0.98574, 49, 129, 176, 192
-0.985862, 209, 169, 272, 232
-0.9859, 193, 89, 224, 152
-0.985989, 1, 49, 128, 112
-0.98601, 257, 209, 288, 272
-0.986151, 161, 81, 288, 144
-0.986151, 173, 169, 204, 232
-0.986151, 233, 177, 264, 240
-0.986165, 113, 73, 176, 136
-0.986178, 273, 209, 304, 336
-0.986237, 205, 249, 236, 312
-0.986245, 129, 297, 160, 360
-0.986286, 113, 113, 176, 176
-0.986305, 185, 185, 216, 248
-0.986305, 81, 265, 208, 328
-0.986315, 269, 97, 300, 224
-0.986375, 241, 105, 272, 168
-0.986443, 209, 17, 333, 80
-0.986471, 241, 65, 272, 192
-0.986647, 157, 281, 188, 344
-0.986671, 197, 193, 228, 256
-0.986716, 265, 1, 328, 500
-0.986723, 185, 321, 216, 384
-0.986808, 209, 41, 272, 104
-0.986924, 133, 153, 164, 216
-0.986926, 265, 137, 328, 200
-0.986947, 137, 105, 200, 168
-0.986949, 225, 257, 288, 500
-0.987024, 141, 185, 172, 248
-0.987132, 141, 305, 172, 368
-0.987252, 97, 1, 160, 500
-0.987296, 229, 193, 260, 320
-0.987337, 89, 321, 152, 448
-0.98738, 1, 145, 128, 272
-0.987461, 121, 241, 184, 304
-0.987518, 241, 1, 304, 500
-0.987532, 161, 225, 224, 480
-0.987542, 245, 129, 276, 192
-0.98761, 33, 49, 96, 176
-0.987628, 65, 193, 192, 256
-0.987654, 165, 305, 196, 368
-0.987747, 301, 337, 332, 464
-0.987764, 265, 145, 296, 272
-0.98784, 281, 305, 312, 368
-0.987857, 97, 33, 128, 96
-0.987872, 293, 337, 324, 400
-0.987899, 121, 273, 152, 400
-0.98792, 129, 353, 192, 480
-0.987921, 49, 81, 176, 144
-0.98798, 105, 193, 168, 448
-0.98801, 261, 105, 292, 168
-0.988019, 81, 57, 208, 120
-0.988065, 77, 97, 108, 224
-0.9882, 65, 225, 128, 288
-0.988253, 253, 97, 284, 224
-0.988307, 273, 193, 304, 256
-0.988321, 165, 329, 196, 392
-0.988351, 249, 57, 312, 120
-0.988461, 161, 57, 288, 120
-0.988468, 249, 81, 312, 144
-0.988487, 1, 65, 64, 320
-0.988539, 301, 361, 332, 424
-0.988612, 249, 285, 312, 316
-0.988628, 213, 161, 244, 224
-0.988632, 225, 289, 256, 416
-0.988672, 273, 257, 333, 320
-0.988709, 113, 177, 144, 304
-0.988788, 257, 289, 288, 352
-0.988872, 129, 265, 160, 328
-0.988877, 197, 129, 228, 192
-0.988899, 249, 65, 312, 320
-0.988916, 185, 273, 216, 400
-0.98895, 273, 25, 333, 88
-0.988972, 289, 73, 320, 136
-0.988991, 201, 353, 264, 480
-0.989017, 25, 145, 88, 272
-0.989121, 225, 1, 288, 64
-0.989125, 101, 105, 132, 168
-0.989163, 185, 225, 216, 352
-0.989249, 65, 97, 128, 352
-0.989275, 221, 1, 252, 128
-0.989394, 41, 1, 104, 128
-0.989408, 9, 41, 72, 104
-0.989414, 81, 297, 144, 360
-0.989446, 265, 169, 296, 232
-0.989451, 249, 273, 312, 304
-0.989471, 97, 241, 160, 304
-0.989568, 245, 225, 276, 288
-0.989593, 153, 153, 184, 216
-0.989618, 153, 9, 184, 72
-0.989641, 233, 273, 264, 336
-0.989668, 129, 193, 192, 224
-0.98974, 153, 305, 184, 368
-0.989832, 169, 57, 232, 120
-0.989838, 65, 201, 128, 264
-0.989903, 81, 49, 112, 176
-0.989906, 113, 353, 240, 416
-0.989916, 33, 265, 160, 328
-0.989955, 249, 297, 312, 328
-0.989964, 113, 137, 176, 200
-0.989967, 121, 321, 152, 384
-0.99002, 217, 129, 248, 192
-0.990041, 193, 113, 256, 144
-0.990098, 109, 257, 140, 384
-0.990124, 185, 209, 248, 240
-0.99013, 129, 33, 192, 64
-0.990188, 121, 241, 152, 304
-0.99019, 117, 169, 148, 232
-0.990207, 77, 113, 108, 176
-0.990219, 197, 225, 228, 288
-0.990256, 97, 37, 160, 68
-0.9903, 161, 37, 224, 68
-0.990344, 65, 241, 128, 368
-0.990362, 65, 201, 320, 264
-0.990382, 113, 401, 240, 464
-0.990383, 125, 81, 156, 208
-0.990384, 289, 49, 320, 176
-0.990428, 213, 201, 244, 264
-0.990451, 13, 73, 44, 136
-0.99047, 177, 433, 240, 496
-0.990518, 177, 81, 208, 208
-0.990535, 285, 193, 316, 320
-0.990566, 213, 313, 244, 376
-0.990571, 245, 81, 276, 144
-0.990636, 185, 197, 248, 228
-0.990647, 149, 329, 180, 392
-0.990659, 165, 9, 196, 72
-0.990683, 101, 129, 132, 256
-0.990709, 225, 97, 288, 128
-0.990717, 225, 277, 288, 308
-0.990723, 225, 153, 288, 184
-0.990735, 49, 25, 112, 88
-0.99075, 225, 121, 288, 152
-0.990787, 137, 293, 200, 324
-0.990794, 273, 241, 304, 304
-0.99081, 153, 197, 216, 228
-0.990822, 109, 1, 140, 64
-0.990856, 173, 305, 204, 432
-0.990864, 233, 201, 296, 232
-0.990869, 213, 241, 244, 368
-0.990905, 217, 213, 280, 244
-0.990919, 257, 313, 320, 344
-0.990939, 117, 193, 148, 256
-0.99094, 129, 181, 192, 212
-0.99098, 109, 257, 140, 320
-0.990996, 133, 305, 164, 432
-0.991073, 301, 81, 332, 144
-0.991093, 225, 301, 288, 332
-0.991095, 181, 89, 212, 152
-0.991096, 161, 401, 288, 464
-0.991127, 1, 17, 64, 80
-0.991153, 193, 101, 256, 132
-0.991159, 185, 37, 248, 68
-0.991168, 233, 189, 296, 220
-0.991188, 217, 109, 280, 140
-0.991197, 225, 133, 288, 164
-0.991222, 301, 33, 332, 96
-0.991234, 81, 109, 144, 140
-0.991245, 161, 361, 224, 424
-0.991249, 185, 161, 216, 224
-0.991252, 233, 177, 296, 208
-0.991259, 153, 185, 216, 216
-0.991262, 193, 293, 256, 324
-0.991264, 273, 285, 333, 316
-0.991264, 65, 353, 192, 416
-0.991276, 193, 325, 256, 356
-0.991301, 201, 33, 232, 96
-0.991301, 233, 165, 296, 196
-0.991338, 73, 25, 136, 56
-0.99134, 225, 153, 256, 216
-0.991348, 185, 221, 248, 252
-0.99139, 49, 101, 112, 132
-0.991424, 65, 161, 128, 224
-0.991445, 161, 353, 288, 416
-0.99145, 233, 233, 296, 264
-0.99146, 225, 289, 288, 320
-0.99148, 25, 65, 88, 320
-0.991494, 17, 305, 144, 432
-0.99152, 49, 193, 112, 320
-0.991531, 241, 201, 272, 264
-0.991541, 1, 33, 256, 96
-0.991562, 141, 281, 172, 344
-0.991566, 1, 49, 32, 112
-0.991572, 209, 65, 240, 128
-0.991606, 49, 217, 176, 280
-0.991627, 97, 25, 160, 56
-0.991628, 105, 189, 168, 220
-0.991641, 189, 9, 220, 72
-0.991676, 81, 193, 144, 448
-0.991724, 133, 329, 164, 392
-0.991736, 1, 93, 64, 124
-0.991765, 145, 337, 208, 368
-0.991774, 233, 261, 296, 292
-0.991777, 137, 57, 200, 120
-0.991788, 257, 105, 320, 136
-0.99179, 33, 305, 160, 368
-0.991794, 65, 177, 320, 240
-0.991812, 185, 25, 248, 56
-0.991836, 233, 313, 296, 344
-0.991843, 273, 373, 333, 404
-0.991854, 57, 9, 120, 40
-0.991859, 265, 341, 328, 372
-0.991875, 201, 281, 264, 312
-0.991877, 89, 329, 152, 360
-0.991916, 153, 25, 216, 56
-0.991925, 129, 169, 192, 200
-0.991926, 185, 233, 248, 264
-0.991934, 25, 65, 88, 128
-0.991942, 89, 89, 152, 120
-0.991954, 185, 113, 216, 176
-0.991961, 193, 133, 256, 164
-0.991973, 217, 1, 280, 32
-0.991989, 169, 277, 232, 308
-0.992012, 145, 277, 208, 308
-0.992022, 105, 177, 168, 208
-0.992023, 265, 325, 328, 356
-0.99204, 189, 281, 220, 344
-0.992059, 273, 361, 333, 392
-0.992075, 89, 201, 152, 232
-0.992095, 257, 269, 288, 300
-0.9921, 181, 345, 212, 408
-0.992141, 9, 105, 72, 136
-0.992171, 89, 217, 152, 248
-0.992175, 273, 297, 333, 328
-0.992189, 233, 65, 264, 128
-0.992196, 81, 189, 144, 220
-0.992201, 105, 345, 168, 408
-0.99221, 161, 289, 224, 320
-0.992211, 273, 273, 333, 304
-0.992212, 201, 13, 264, 44
-0.992212, 241, 245, 304, 276
-0.992221, 253, 281, 284, 312
-0.99223, 65, 225, 320, 288
-0.992237, 233, 325, 296, 356
-0.992243, 173, 257, 204, 384
-0.992246, 121, 329, 184, 360
-0.992255, 265, 161, 328, 192
-0.992256, 177, 185, 240, 216
-0.992269, 177, 89, 240, 120
-0.992272, 221, 81, 252, 144
-0.992273, 33, 297, 288, 360
-0.992291, 153, 173, 216, 204
-0.992299, 265, 145, 328, 176
-0.992317, 265, 173, 328, 204
-0.992319, 121, 273, 184, 304
-0.992322, 265, 261, 328, 292
-0.992336, 105, 129, 168, 160
-0.992339, 217, 85, 280, 116
-0.992342, 273, 85, 333, 116
-0.992351, 73, 37, 136, 68
-0.992378, 209, 261, 272, 292
-0.992385, 81, 121, 144, 152
-0.992402, 269, 277, 300, 308
-0.992406, 13, 65, 44, 192
-0.992417, 153, 209, 216, 240
-0.992426, 105, 305, 168, 336
-0.992427, 161, 225, 224, 256
-0.99244, 301, 81, 332, 208
-0.99245, 177, 245, 240, 276
-0.992454, 209, 233, 272, 264
-0.992461, 225, 337, 288, 368
-0.992466, 73, 137, 136, 168
-0.992466, 209, 313, 272, 344
-0.992485, 81, 145, 112, 272
-0.992499, 121, 9, 152, 72
-0.992514, 1, 137, 333, 200
-0.992515, 129, 257, 192, 500
-0.992516, 49, 117, 112, 148
-0.992518, 9, 61, 72, 92
-0.992519, 117, 289, 148, 352
-0.992519, 145, 125, 208, 156
-0.992534, 233, 305, 264, 336
-0.992538, 153, 305, 184, 432
-0.992541, 185, 49, 248, 80
-0.992543, 193, 173, 256, 204
-0.99255, 169, 405, 232, 436
-0.99255, 145, 357, 208, 388
-0.992552, 89, 49, 152, 80
-0.992557, 273, 53, 333, 84
-0.992561, 273, 289, 304, 320
-0.992562, 265, 185, 328, 216
-0.992573, 193, 425, 320, 488
-0.992585, 145, 137, 208, 168
-0.992586, 89, 273, 152, 304
-0.992588, 169, 341, 232, 372
-0.992601, 145, 309, 208, 340
-0.992612, 89, 293, 152, 324
-0.992612, 89, 73, 120, 136
-0.992628, 257, 121, 320, 152
-0.992631, 169, 353, 200, 416
-0.99264, 273, 73, 333, 104
-0.992647, 209, 25, 272, 56
-0.992661, 177, 305, 240, 336
-0.992661, 65, 241, 192, 304
-0.992663, 273, 197, 333, 228
-0.992665, 217, 245, 280, 276
-0.992671, 97, 141, 160, 172
-0.992682, 153, 33, 184, 64
-0.992689, 249, 93, 312, 124
-0.992698, 133, 189, 164, 220
-0.992698, 73, 1, 136, 500
-0.992701, 217, 109, 248, 140
-0.992709, 201, 349, 264, 380
-0.992712, 257, 133, 320, 164
-0.992721, 65, 369, 128, 496
-0.992721, 81, 261, 144, 292
-0.992722, 105, 177, 136, 240
-0.992725, 209, 197, 272, 228
-0.99273, 65, 129, 320, 192
-0.992737, 117, 81, 148, 144
-0.992739, 1, 33, 32, 160
-0.99274, 113, 345, 176, 376
-0.99274, 209, 185, 272, 216
-0.992746, 173, 201, 204, 232
-0.992752, 89, 341, 152, 372
-0.992755, 169, 133, 232, 164
-0.992755, 249, 293, 280, 324
-0.992771, 169, 37, 200, 68
-0.992801, 189, 353, 220, 480
-0.992804, 209, 53, 272, 84
-0.992822, 137, 37, 168, 68
-0.99283, 153, 185, 184, 216
-0.992834, 1, 81, 64, 112
-0.992835, 193, 161, 256, 192
-0.992835, 185, 257, 248, 288
-0.992842, 225, 213, 256, 244
-0.992847, 213, 41, 244, 104
-0.99285, 65, 105, 320, 168
-0.992857, 253, 165, 284, 196
-0.992862, 189, 37, 220, 68
-0.992867, 197, 273, 228, 400
-0.992888, 69, 1, 100, 32
-0.992897, 253, 153, 284, 184
-0.992899, 105, 37, 136, 68
-0.99291, 173, 145, 204, 208
-0.992953, 241, 109, 272, 140
-0.992962, 241, 281, 272, 312
-0.992994, 85, 17, 116, 48
-0.992994, 257, 257, 288, 288
-0.993007, 257, 229, 288, 260
-0.993011, 169, 289, 200, 320
-0.993015, 189, 269, 220, 300
-0.993021, 65, 377, 192, 440
-0.993025, 205, 97, 236, 128
-0.993039, 165, 257, 196, 320
-0.99305, 125, 37, 156, 68
-0.993057, 193, 257, 224, 288
-0.993057, 69, 1, 100, 128
-0.99307, 169, 185, 200, 216
-0.993074, 201, 29, 232, 60
-0.993081, 245, 137, 276, 168
-0.993083, 253, 181, 284, 212
-0.99309, 237, 121, 268, 152
-0.993096, 229, 201, 260, 232
-0.993107, 85, 113, 116, 144
-0.993112, 113, 209, 176, 272
-0.993113, 101, 25, 132, 56
-0.993119, 109, 89, 140, 120
-0.993122, 181, 185, 212, 216
-0.993129, 273, 301, 304, 332
-0.99313, 293, 361, 324, 392
-0.993132, 269, 265, 300, 296
-0.993135, 181, 289, 212, 320
-0.993136, 217, 5, 248, 36
-0.993139, 245, 269, 276, 300
-0.993146, 217, 233, 248, 264
-0.993151, 125, 177, 156, 208
-0.993153, 93, 97, 124, 128
-0.993154, 93, 37, 124, 68
-0.993166, 241, 177, 272, 208
-0.993167, 301, 377, 332, 408
-0.993168, 157, 197, 188, 228
-0.99317, 257, 241, 288, 272
-0.993172, 253, 213, 284, 244
-0.993177, 205, 233, 236, 264
-0.993179, 149, 173, 180, 204
-0.99319, 193, 93, 224, 124
-0.993194, 173, 273, 204, 304
-0.9932, 205, 217, 236, 248
-0.993205, 229, 289, 260, 320
-0.993206, 253, 193, 284, 224
-0.993213, 181, 345, 212, 376
-0.993217, 137, 177, 168, 208
-0.993219, 301, 65, 332, 96
-0.993219, 197, 245, 228, 276
-0.993222, 193, 197, 224, 228
-0.993224, 113, 181, 144, 212
-0.993233, 81, 5, 112, 36
-0.993243, 209, 249, 240, 280
-0.993245, 69, 49, 100, 176
-0.993259, 121, 193, 152, 224
-0.993265, 205, 17, 236, 48
-0.993266, 297, 49, 328, 80
-0.993269, 125, 273, 156, 304
-0.993276, 289, 349, 320, 380
-0.993276, 217, 97, 248, 128
-0.993279, 293, 85, 324, 116
-0.993294, 169, 337, 200, 368
-0.993301, 109, 205, 140, 236
-0.993305, 281, 313, 312, 344
-0.993305, 225, 121, 256, 152
-0.99331, 261, 125, 292, 156
-0.993314, 193, 229, 224, 260
-0.993315, 221, 165, 252, 196
-0.993324, 189, 333, 220, 364
-0.993329, 65, 257, 320, 320
-0.993334, 113, 21, 144, 52
-0.993334, 133, 289, 164, 320
-0.993334, 165, 25, 196, 56
-0.993339, 233, 317, 264, 348
-0.993348, 9, 85, 40, 116
-0.993348, 197, 321, 228, 384
-0.993355, 41, 109, 72, 140
-0.993356, 193, 293, 224, 324
-0.993363, 253, 317, 284, 348
-0.993368, 213, 321, 244, 352
-0.993368, 229, 1, 260, 32
-0.993369, 241, 197, 272, 228
-0.993371, 193, 185, 224, 216
-0.993372, 81, 101, 112, 132
-0.993373, 265, 197, 296, 228
-0.993373, 181, 301, 212, 332
-0.993375, 229, 101, 260, 132
-0.993377, 97, 109, 128, 140
-0.993377, 269, 105, 300, 136
-0.993377, 121, 257, 152, 288
-0.99338, 269, 253, 300, 284
-0.993382, 121, 329, 152, 360
-0.993386, 217, 185, 248, 216
-0.993393, 205, 201, 236, 232
-0.993394, 185, 25, 216, 56
-0.993395, 189, 133, 220, 164
-0.993397, 169, 349, 200, 380
-0.9934, 213, 45, 244, 76
-0.993401, 285, 337, 316, 368
-0.993401, 285, 325, 316, 356
-0.993403, 245, 305, 276, 336
-0.993407, 193, 281, 224, 312
-0.993407, 157, 293, 188, 324
-0.993412, 181, 221, 212, 252
-0.993415, 177, 261, 208, 292
-0.993418, 157, 49, 188, 80
-0.993419, 73, 121, 104, 152
-0.99342, 133, 333, 164, 364
-0.993422, 209, 121, 240, 152
-0.993426, 145, 293, 176, 324
-0.993428, 245, 225, 276, 256
-0.993429, 237, 329, 268, 360
-0.993433, 137, 25, 168, 56
-0.993433, 221, 133, 252, 164
-0.99344, 265, 217, 296, 248
-0.993441, 261, 297, 292, 328
-0.993451, 193, 217, 224, 248
-0.993454, 177, 9, 208, 72
-0.993467, 121, 225, 152, 352
-0.993471, 117, 113, 148, 176
-0.993496, 49, 97, 80, 224
-0.9935, 45, 105, 76, 168
-0.993565, 65, 321, 128, 448
-0.993627, 1, 129, 128, 192
-0.993644, 65, 153, 320, 216
-0.993692, 17, 369, 144, 496
-0.993711, 169, 353, 200, 480
-0.993724, 129, 433, 256, 496
-0.993774, 1, 233, 128, 296
-0.99385, 133, 257, 164, 384
-0.993854, 69, 89, 100, 152
-0.993964, 129, 37, 256, 68
-0.993974, 105, 201, 136, 264
-0.993979, 1, 1, 64, 500
-0.993996, 1, 209, 333, 272
-0.993996, 237, 249, 268, 312
-0.994007, 261, 81, 292, 144
-0.994038, 65, 57, 320, 120
-0.994063, 241, 153, 272, 216
-0.994076, 233, 321, 264, 384
-0.994078, 177, 113, 304, 144
-0.994079, 217, 281, 248, 344
-0.994115, 93, 209, 124, 336
-0.994119, 261, 49, 292, 176
-0.994167, 49, 1, 112, 500
-0.99417, 173, 233, 204, 296
-0.994186, 267, 257, 282, 320
-0.994192, 205, 337, 236, 464
-0.99421, 1, 185, 333, 248
-0.994234, 113, 197, 240, 228
-0.994239, 85, 41, 116, 104
-0.994253, 177, 193, 304, 224
-0.994279, 1, 145, 64, 272
-0.994329, 65, 81, 320, 144
-0.994351, 1, 73, 32, 136
-0.994352, 279, 265, 294, 328
-0.994353, 209, 393, 333, 456
-0.994353, 89, 137, 120, 200
-0.994421, 197, 65, 228, 128
-0.994428, 33, 97, 64, 160
-0.994469, 33, 345, 288, 408
-0.994534, 273, 1, 333, 64
-0.994541, 41, 185, 104, 248
-0.994552, 137, 81, 200, 144
-0.994563, 17, 169, 144, 232
-0.994583, 225, 241, 256, 368
-0.994604, 17, 329, 144, 392
-0.994636, 41, 161, 104, 416
-0.994643, 97, 225, 128, 288
-0.994698, 65, 321, 320, 384
-0.994733, 65, 393, 128, 456
-0.994737, 273, 89, 304, 152
-0.994765, 101, 137, 132, 200
-0.99478, 37, 65, 68, 192
-0.994823, 209, 361, 333, 424
-0.994837, 209, 321, 333, 352
-0.994905, 17, 193, 144, 256
-0.994923, 81, 37, 208, 68
-0.994974, 57, 145, 88, 272
-0.994976, 49, 401, 176, 464
-0.994985, 225, 105, 240, 168
-0.994994, 217, 337, 248, 464
-0.995054, 33, 1, 288, 64
-0.995095, 113, 377, 240, 440
-0.995114, 1, 161, 333, 224
-0.99512, 195, 257, 210, 320
-0.995124, 41, 289, 104, 416
-0.995147, 129, 417, 192, 480
-0.995152, 209, 341, 333, 372
-0.995159, 257, 273, 272, 336
-0.99516, 161, 377, 288, 440
-0.99519, 233, 25, 296, 88
-0.995192, 177, 129, 304, 160
-0.995193, 177, 181, 304, 212
-0.995214, 69, 369, 100, 496
-0.995228, 1, 41, 333, 104
-0.99524, 249, 353, 312, 416
-0.995248, 247, 289, 262, 352
-0.995258, 41, 209, 104, 272
-0.995292, 219, 97, 234, 160
-0.995315, 223, 209, 238, 272
-0.995339, 273, 265, 288, 328
-0.995341, 177, 205, 304, 236
-0.995363, 177, 165, 304, 196
-0.995364, 185, 193, 200, 256
-0.995371, 261, 137, 276, 200
-0.995376, 231, 105, 246, 168
-0.995377, 177, 217, 304, 248
-0.995383, 65, 425, 192, 488
-0.995437, 233, 17, 264, 144
-0.995447, 317, 25, 332, 88
-0.995509, 177, 101, 304, 132
-0.995529, 311, 49, 326, 112
-0.99559, 165, 81, 196, 208
-0.995605, 161, 261, 288, 292
-0.995632, 201, 417, 264, 480
-0.995656, 209, 293, 333, 324
-0.995662, 231, 201, 246, 264
-0.995679, 209, 309, 333, 340
-0.995686, 317, 65, 332, 128
-0.995735, 213, 289, 244, 416
-0.995748, 265, 161, 280, 224
-0.995767, 249, 321, 312, 448
-0.995772, 213, 97, 228, 160
-0.995821, 161, 25, 176, 88
-0.995841, 169, 33, 184, 96
-0.995841, 149, 33, 164, 96
-0.995864, 33, 233, 96, 296
-0.9959, 261, 305, 292, 432
-0.995929, 257, 417, 320, 480
-0.995934, 1, 337, 333, 400
-0.995936, 109, 1, 140, 256
-0.995968, 275, 233, 290, 296
-0.995972, 277, 145, 308, 272
-0.995975, 1, 297, 333, 360
-0.995988, 197, 1, 228, 256
-0.995991, 1, 89, 333, 152
-0.995996, 97, 105, 112, 168
-0.995997, 25, 417, 88, 480
-0.996016, 239, 297, 254, 360
-0.996018, 113, 209, 240, 240
-0.996048, 185, 281, 200, 344
-0.99605, 87, 1, 102, 64
-0.996053, 101, 17, 116, 80
-0.996053, 133, 185, 148, 248
-0.996056, 267, 217, 282, 280
-0.996062, 223, 1, 238, 64
-0.996064, 259, 249, 274, 312
-0.996065, 209, 393, 272, 456
-0.996085, 1, 393, 256, 456
-0.996096, 207, 89, 222, 152
-0.996125, 33, 113, 160, 144
-0.996141, 215, 225, 230, 288
-0.996142, 1, 385, 128, 448
-0.996168, 173, 1, 204, 256
-0.996169, 139, 33, 154, 96
-0.996187, 133, 33, 148, 96
-0.996188, 129, 293, 256, 324
-0.996195, 177, 141, 304, 172
-0.996196, 157, 257, 188, 384
-0.996201, 41, 153, 104, 216
-0.996201, 137, 1, 168, 256
-0.996203, 175, 33, 190, 96
-0.99621, 217, 1, 232, 64
-0.99621, 193, 245, 320, 276
-0.996235, 177, 281, 304, 312
-0.996241, 127, 33, 142, 96
-0.996264, 175, 193, 190, 256
-0.996266, 177, 233, 304, 264
-0.996277, 237, 113, 252, 176
-0.996278, 145, 257, 176, 384
-0.996284, 121, 1, 152, 256
-0.996287, 93, 9, 108, 72
-0.996298, 189, 257, 204, 320
-0.996308, 113, 185, 240, 216
-0.996316, 155, 25, 170, 88
-0.996319, 209, 89, 333, 120
-0.996328, 185, 1, 216, 256
-0.996344, 251, 265, 266, 328
-0.996365, 1, 353, 128, 416
-0.996366, 177, 265, 192, 328
-0.996368, 81, 345, 144, 408
-0.996369, 107, 25, 122, 88
-0.99637, 197, 97, 228, 352
-0.996375, 113, 121, 240, 152
-0.996377, 161, 305, 288, 336
-0.99639, 185, 345, 200, 408
-0.996455, 177, 153, 304, 184
-0.996457, 129, 333, 256, 364
-0.996462, 129, 221, 256, 252
-0.996467, 1, 101, 128, 132
-0.996467, 113, 249, 240, 280
-0.996469, 1, 233, 333, 296
-0.996476, 183, 33, 198, 96
-0.99648, 153, 1, 184, 256
-0.996488, 269, 289, 284, 352
-0.996491, 89, 1, 120, 256
-0.996499, 121, 33, 136, 96
-0.996506, 191, 33, 206, 96
-0.996506, 129, 49, 256, 80
-0.996509, 163, 169, 178, 232
-0.99651, 261, 225, 276, 288
-0.99652, 253, 161, 284, 416
-0.996535, 171, 289, 186, 352
-0.996537, 311, 361, 326, 424
-0.996542, 211, 9, 226, 72
-0.996544, 265, 185, 280, 248
-0.996552, 287, 281, 302, 344
-0.996566, 141, 305, 156, 368
-0.99657, 225, 129, 240, 192
-0.996592, 305, 345, 320, 408
-0.996597, 81, 293, 208, 324
-0.996605, 203, 249, 218, 312
-0.996621, 169, 185, 184, 248
-0.996629, 199, 225, 214, 288
-0.99663, 277, 305, 308, 432
-0.996642, 149, 305, 164, 368
-0.996642, 237, 185, 252, 248
-0.996644, 1, 113, 333, 176
-0.996645, 81, 25, 208, 56
-0.996654, 113, 81, 128, 144
-0.996657, 209, 241, 224, 304
-0.996668, 245, 17, 276, 144
-0.996681, 177, 305, 192, 368
-0.996682, 1, 417, 128, 480
-0.996682, 1, 81, 32, 208
-0.996688, 177, 169, 192, 232
-0.996694, 197, 33, 212, 96
-0.996697, 7, 49, 22, 112
-0.996698, 185, 129, 216, 384
-0.996703, 91, 105, 106, 168
-0.996704, 297, 313, 312, 376
-0.996721, 171, 265, 186, 328
-0.996724, 113, 33, 128, 96
-0.996731, 65, 177, 192, 208
-0.996732, 81, 49, 208, 80
-0.996732, 209, 193, 240, 448
-0.99674, 203, 33, 218, 96
-0.996746, 25, 1, 88, 500
-0.996783, 263, 281, 278, 344
-0.996791, 113, 97, 240, 128
-0.996796, 129, 173, 256, 204
-0.99681, 103, 97, 118, 160
-0.996812, 129, 109, 256, 140
-0.996822, 1, 257, 128, 384
-0.996823, 1, 61, 128, 92
-0.996826, 317, 377, 332, 440
-0.996858, 141, 65, 172, 192
-0.996876, 153, 177, 168, 240
-0.996877, 139, 185, 154, 248
-0.996903, 123, 177, 138, 240
-0.996914, 25, 65, 56, 192
-0.996923, 201, 89, 216, 152
-0.996933, 177, 329, 192, 392
-0.996939, 33, 369, 288, 432
-0.996943, 1, 65, 333, 128
-0.996949, 49, 137, 176, 168
-0.99696, 189, 321, 204, 384
-0.996961, 13, 17, 44, 144
-0.99697, 259, 185, 274, 248
-0.996971, 265, 161, 296, 416
-0.996971, 161, 129, 192, 384
-0.997003, 133, 161, 148, 224
-0.997012, 185, 169, 200, 232
-0.997018, 113, 133, 240, 164
-0.997024, 265, 105, 280, 168
-0.997025, 131, 297, 146, 360
-0.997036, 65, 369, 128, 432
-0.997036, 65, 425, 128, 488
-0.997043, 25, 337, 88, 464
-0.997044, 113, 261, 240, 292
-0.997046, 33, 425, 288, 488
-0.997058, 1, 45, 128, 76
-0.997072, 129, 161, 256, 192
-0.997079, 129, 149, 256, 180
-0.997085, 225, 161, 240, 224
-0.997105, 97, 309, 224, 340
-0.997122, 209, 45, 333, 76
-0.997123, 147, 185, 162, 248
-0.997126, 119, 81, 134, 144
-0.997129, 57, 313, 120, 376
-0.997129, 81, 1, 96, 64
-0.997133, 277, 269, 292, 300
-0.997138, 209, 61, 333, 92
-0.99715, 229, 1, 244, 64
-0.997156, 1, 257, 333, 320
-0.997166, 229, 313, 244, 376
-0.997167, 155, 305, 170, 368
-0.997178, 149, 353, 180, 480
-0.99719, 65, 189, 192, 220
-0.997198, 165, 289, 180, 352
-0.997198, 213, 201, 228, 264
-0.997204, 301, 289, 332, 416
-0.997205, 183, 257, 198, 320
-0.997208, 201, 9, 216, 72
-0.997214, 243, 177, 258, 240
-0.997214, 175, 9, 190, 72
-0.997219, 171, 161, 186, 224
-0.997235, 129, 281, 256, 312
-0.99725, 195, 201, 210, 264
-0.997256, 303, 65, 318, 128
-0.997257, 69, 177, 100, 304
-0.997265, 215, 129, 230, 192
-0.997278, 269, 281, 284, 312
-0.997285, 81, 109, 208, 140
-0.997288, 271, 193, 286, 256
-0.99729, 85, 113, 100, 176
-0.997291, 1, 1, 333, 64
-0.997297, 191, 281, 206, 344
-0.997317, 201, 129, 216, 192
-0.997333, 131, 321, 146, 384
-0.99735, 277, 193, 292, 256
-0.99735, 161, 349, 288, 380
-0.997351, 245, 265, 260, 328
-0.997352, 225, 81, 240, 144
-0.997354, 113, 237, 240, 268
-0.997362, 309, 73, 324, 136
-0.997369, 209, 353, 333, 384
-0.997376, 149, 329, 164, 392
-0.997385, 1, 33, 128, 64
-0.997386, 139, 153, 154, 216
-0.997395, 141, 281, 156, 344
-0.997401, 49, 125, 176, 156
-0.997425, 161, 25, 288, 56
-0.997428, 209, 97, 240, 352
-0.997429, 209, 77, 333, 108
-0.997429, 193, 225, 208, 288
-0.99743, 135, 9, 150, 72
-0.997431, 269, 269, 284, 300
-0.997432, 13, 65, 28, 128
-0.997434, 161, 321, 288, 352
-0.997435, 197, 177, 212, 240
-0.997441, 209, 1, 240, 256
-0.997446, 257, 113, 272, 176
-0.997454, 191, 361, 206, 424
-0.997464, 141, 161, 172, 416
-0.997465, 81, 353, 208, 384
-0.997466, 167, 9, 182, 72
-0.997474, 129, 161, 160, 416
-0.99748, 285, 257, 316, 384
-0.99748, 1, 1, 128, 32
-0.997494, 209, 29, 333, 60
-0.997495, 221, 129, 252, 384
-0.997499, 109, 105, 124, 168
-0.997506, 1, 89, 128, 120
-0.997506, 129, 61, 256, 92
-0.997511, 147, 161, 162, 224
-0.997524, 81, 61, 208, 92
-0.99753, 149, 9, 164, 72
-0.997536, 173, 97, 204, 352
-0.997537, 17, 21, 144, 52
-0.997542, 237, 161, 268, 416
-0.997548, 261, 265, 276, 296
-0.997592, 1, 209, 64, 336
-0.9976, 245, 289, 260, 320
-0.997609, 161, 89, 288, 120
-0.997617, 197, 225, 228, 480
-0.997624, 49, 149, 176, 180
-0.99763, 161, 33, 176, 64
-0.997647, 225, 33, 256, 288
-0.997653, 1, 369, 333, 432
-0.997663, 173, 193, 204, 448
-0.997665, 227, 217, 242, 248
-0.997666, 257, 281, 272, 312
-0.997682, 49, 341, 176, 372
-0.997688, 213, 245, 228, 276
-0.99769, 289, 1, 320, 128
-0.997694, 297, 241, 328, 368
-0.997728, 219, 233, 234, 264
-0.997739, 269, 257, 300, 500
-0.997778, 185, 369, 248, 432
-0.997785, 233, 113, 248, 144
-0.997799, 281, 281, 296, 312
-0.99781, 81, 193, 112, 320
-0.997825, 167, 33, 182, 64
-0.997829, 191, 281, 206, 312
-0.997829, 209, 269, 333, 300
-0.997844, 97, 257, 128, 384
-0.997845, 197, 261, 212, 292
-0.997856, 301, 33, 332, 288
-0.997876, 221, 221, 236, 252
-0.997887, 49, 161, 176, 192
-0.997892, 175, 37, 190, 68
-0.997927, 245, 65, 276, 320
-0.99795, 97, 81, 224, 112
-0.997963, 155, 33, 170, 64
-0.997965, 105, 25, 120, 56
-0.997971, 1, 125, 128, 156
-0.997975, 79, 1, 94, 32
-0.997977, 239, 301, 254, 332
-0.997991, 277, 161, 308, 416
-0.998, 33, 205, 160, 236
-0.998021, 89, 9, 104, 40
-0.998029, 273, 65, 304, 320
-0.998045, 81, 221, 208, 252
-0.998046, 135, 189, 150, 220
-0.998049, 187, 201, 202, 232
-0.998052, 99, 17, 114, 48
-0.998058, 181, 37, 196, 68
-0.998071, 149, 37, 164, 68
-0.998073, 1, 73, 128, 104
-0.998077, 245, 305, 260, 336
-0.998083, 267, 221, 282, 252
-0.998083, 81, 273, 208, 304
-0.998085, 233, 201, 248, 232
-0.998086, 237, 321, 268, 448
-0.998095, 201, 249, 216, 280
-0.998098, 261, 149, 276, 180
-0.998099, 183, 289, 198, 320
-0.998121, 281, 257, 312, 500
-0.998122, 191, 37, 206, 68
-0.998122, 251, 281, 266, 312
-0.998124, 107, 37, 122, 68
-0.998124, 253, 257, 284, 500
-0.998155, 169, 185, 184, 216
-0.998159, 139, 37, 154, 68
-0.99816, 277, 33, 308, 160
-0.998171, 259, 137, 274, 168
-0.998183, 239, 117, 254, 148
-0.998187, 65, 329, 192, 360
-0.99819, 255, 269, 270, 300
-0.998209, 163, 185, 178, 216
-0.998226, 271, 257, 286, 288
-0.998227, 141, 185, 156, 216
-0.998241, 193, 9, 320, 40
-0.998245, 25, 225, 88, 352
-0.998247, 185, 349, 200, 380
-0.99825, 197, 37, 212, 68
-0.998252, 133, 37, 148, 68
-0.998259, 191, 269, 206, 300
-0.99826, 311, 53, 326, 84
-0.998261, 99, 105, 114, 136
-0.998261, 97, 5, 224, 36
-0.998262, 175, 197, 190, 228
-0.998264, 33, 217, 160, 248
-0.998266, 161, 73, 288, 104
-0.998269, 65, 261, 192, 292
-0.998271, 245, 177, 260, 208
-0.998275, 127, 181, 142, 212
-0.998281, 227, 205, 242, 236
-0.998281, 265, 181, 280, 212
-0.998282, 311, 65, 326, 96
-0.998282, 271, 301, 286, 332
-0.998294, 297, 193, 328, 448
-0.998299, 217, 101, 232, 132
-0.998301, 217, 323, 248, 338
-0.998302, 129, 33, 160, 48
-0.998302, 129, 289, 160, 304
-0.998302, 177, 207, 208, 222
-0.998303, 205, 219, 236, 234
-0.998303, 245, 231, 276, 246
-0.998303, 257, 207, 288, 222
-0.998304, 277, 313, 308, 328
-0.998304, 265, 225, 296, 240
-0.998304, 225, 171, 256, 186
-0.998305, 225, 133, 256, 148
-0.998307, 257, 249, 288, 264
-0.998308, 201, 241, 232, 256
-0.998308, 285, 341, 316, 356
-0.998308, 201, 227, 232, 242
-0.99831, 193, 301, 224, 316
-0.99831, 213, 255, 244, 270
-0.998311, 269, 159, 300, 174
-0.998311, 227, 109, 242, 140
-0.998311, 197, 95, 228, 110
-0.998312, 201, 253, 232, 268
-0.998312, 169, 353, 200, 368
-0.998312, 117, 35, 148, 50
-0.998314, 225, 7, 256, 22
-0.998314, 89, 103, 120, 118
-0.998314, 205, 103, 236, 118
-0.998314, 145, 183, 176, 198
-0.998315, 185, 33, 216, 48
-0.998316, 125, 277, 156, 292
-0.998316, 65, 97, 96, 224
-0.998318, 185, 261, 216, 276
-0.998318, 181, 353, 212, 368
-0.998319, 13, 93, 44, 108
-0.998319, 165, 293, 196, 308
-0.998319, 257, 201, 288, 216
-0.998319, 181, 305, 212, 320
-0.99832, 237, 179, 268, 194
-0.99832, 209, 257, 333, 288
-0.998321, 93, 37, 124, 52
-0.998321, 209, 213, 240, 228
-0.998321, 121, 269, 152, 284
-0.998322, 105, 89, 136, 104
-0.998322, 233, 317, 264, 332
-0.998323, 289, 357, 320, 372
-0.998323, 257, 319, 288, 334
-0.998325, 297, 49, 328, 64
-0.998325, 181, 275, 212, 290
-0.998325, 237, 109, 268, 124
-0.998326, 193, 201, 224, 216
-0.998326, 305, 357, 320, 388
-0.998327, 297, 373, 328, 388
-0.998327, 207, 257, 222, 288
-0.998328, 169, 187, 200, 202
-0.998328, 169, 287, 200, 302
-0.998328, 261, 65, 292, 320
-0.998329, 213, 9, 244, 24
-0.998329, 229, 207, 260, 222
-0.99833, 185, 229, 216, 244
-0.998331, 217, 233, 248, 248
-0.998331, 233, 323, 264, 338
-0.998331, 125, 191, 156, 206
-0.998332, 257, 263, 288, 278
-0.998334, 221, 121, 252, 136
-0.998334, 85, 119, 116, 134
-0.998339, 293, 365, 324, 380
-0.998339, 273, 305, 304, 320
-0.99834, 253, 213, 284, 228
-0.99834, 227, 1, 242, 32
-0.998341, 129, 197, 160, 212
-0.998341, 301, 383, 332, 398
-0.998342, 233, 289, 264, 304
-0.998342, 221, 225, 252, 240
-0.998344, 229, 1, 260, 16
-0.998345, 113, 37, 128, 68
-0.998345, 113, 189, 144, 204
-0.998346, 249, 303, 280, 318
-0.998348, 89, 23, 120, 38
-0.998349, 205, 233, 236, 248
-0.998351, 253, 195, 284, 210
-0.998352, 125, 185, 156, 200
-0.998352, 253, 221, 284, 236
-0.998352, 93, 31, 124, 46
-0.998355, 245, 141, 276, 156
-0.998356, 257, 231, 288, 246
-0.998359, 241, 131, 272, 146
-0.998363, 269, 269, 300, 284
-0.998363, 183, 189, 198, 220
-0.998364, 177, 195, 208, 210
-0.998366, 261, 237, 292, 252
-0.998368, 253, 185, 284, 200
-0.99837, 263, 281, 278, 312
-0.998371, 237, 279, 268, 294
-0.998372, 93, 113, 124, 128
-0.998373, 185, 287, 216, 302
-0.998373, 177, 185, 192, 216
-0.998376, 253, 157, 284, 172
-0.998376, 221, 219, 252, 234
-0.998377, 233, 295, 264, 310
-0.998378, 261, 243, 292, 258
-0.998379, 209, 365, 333, 396
-0.998381, 105, 35, 136, 50
-0.998382, 185, 269, 200, 300
-0.998382, 189, 337, 204, 368
-0.998383, 97, 97, 128, 352
-0.998383, 201, 37, 232, 52
-0.998384, 225, 213, 256, 228
-0.998385, 129, 39, 160, 54
-0.998386, 241, 117, 272, 132
-0.998389, 189, 39, 220, 54
-0.998389, 117, 41, 148, 56
-0.998392, 253, 179, 284, 194
-0.998393, 149, 189, 180, 204
-0.998393, 269, 275, 300, 290
-0.998394, 277, 281, 308, 296
-0.998398, 173, 201, 204, 216
-0.9984, 49, 97, 176, 128
-0.998401, 177, 39, 208, 54
-0.998403, 249, 151, 280, 166
-0.998404, 233, 305, 264, 320
-0.998404, 121, 37, 136, 68
-0.998405, 81, 17, 112, 32
-0.998406, 65, 1, 96, 16
-0.998407, 241, 123, 272, 138
-0.99841, 73, 7, 104, 22
-0.998411, 197, 261, 228, 276
-0.998413, 141, 37, 172, 52
-0.998414, 157, 197, 188, 212
-0.998417, 165, 37, 196, 52
-0.998421, 253, 171, 284, 186
-0.998421, 253, 165, 284, 180
-0.998421, 77, 1, 108, 256
-0.998426, 189, 267, 220, 282
-0.998427, 177, 293, 208, 308
-0.998428, 315, 377, 330, 408
-0.998429, 205, 33, 220, 64
-0.998433, 253, 297, 284, 312
-0.998438, 213, 109, 244, 124
-0.998438, 245, 287, 276, 302
-0.998441, 157, 185, 172, 216
-0.998447, 263, 117, 278, 148
-0.998448, 127, 41, 142, 72
-0.998449, 249, 283, 312, 298
-0.998459, 105, 41, 136, 56
-0.998461, 273, 299, 304, 314
-0.998463, 317, 37, 332, 68
-0.998463, 275, 289, 290, 320
-0.998468, 93, 305, 124, 432
-0.998469, 137, 191, 168, 206
-0.998475, 221, 115, 252, 130
-0.998478, 169, 197, 184, 228
-0.998481, 147, 185, 162, 216
-0.998481, 153, 37, 184, 52
-0.998482, 213, 233, 228, 264
-0.998488, 219, 9, 234, 40
-0.998491, 233, 289, 296, 304
-0.998492, 175, 293, 190, 324
-0.998492, 273, 293, 304, 308
-0.998496, 93, 97, 108, 128
-0.998497, 239, 193, 254, 224
-0.9985, 249, 295, 312, 310
-0.9985, 249, 277, 312, 292
-0.9985, 81, 337, 112, 464
-0.9985, 225, 225, 256, 480
-0.998504, 269, 287, 300, 302
-0.998505, 97, 41, 160, 56
-0.998509, 129, 195, 192, 210
-0.998509, 137, 37, 200, 52
-0.998512, 185, 213, 248, 228
-0.998517, 249, 301, 312, 316
-0.998517, 185, 225, 216, 480
-0.998518, 211, 25, 226, 56
-0.998521, 193, 113, 256, 128
-0.998522, 317, 53, 332, 84
-0.998522, 117, 161, 148, 416
-0.998525, 253, 281, 284, 296
-0.998527, 309, 369, 324, 400
-0.998536, 225, 111, 288, 126
-0.998538, 301, 345, 316, 376
-0.998541, 91, 113, 106, 144
-0.998543, 179, 337, 194, 368
-0.99855, 193, 293, 208, 324
-0.998551, 257, 269, 288, 284
-0.998555, 229, 97, 244, 128
-0.998556, 257, 287, 288, 302
-0.998557, 225, 105, 288, 120
-0.998561, 207, 93, 222, 124
-0.998566, 241, 271, 304, 286
-0.998568, 49, 85, 176, 116
-0.998569, 207, 245, 222, 276
-0.998572, 185, 219, 248, 234
-0.998574, 265, 281, 296, 296
-0.998576, 217, 117, 280, 132
-0.998579, 287, 293, 302, 324
-0.99858, 177, 39, 240, 54
-0.998581, 113, 85, 128, 116
-0.998583, 255, 321, 270, 352
-0.998585, 103, 93, 118, 124
-0.998587, 185, 207, 248, 222
-0.998587, 119, 85, 134, 116
-0.998589, 87, 101, 102, 132
-0.998589, 225, 155, 288, 170
-0.99859, 259, 205, 274, 236
-0.998591, 257, 275, 288, 290
-0.998591, 233, 163, 296, 178
-0.998592, 193, 425, 320, 456
-0.998592, 233, 187, 296, 202
-0.998592, 217, 133, 280, 148
-0.998593, 269, 209, 284, 240
-0.998593, 217, 215, 280, 230
-0.998595, 225, 283, 288, 298
-0.998596, 233, 173, 296, 188
-0.998596, 193, 119, 256, 134
-0.998598, 257, 317, 320, 332
-0.998598, 129, 405, 256, 436
-0.998599, 113, 321, 240, 352
-0.998601, 239, 181, 254, 212
-0.998602, 277, 257, 292, 288
-0.998603, 179, 273, 194, 304
-0.998606, 73, 1, 88, 32
-0.998607, 265, 193, 280, 224
-0.998607, 49, 305, 176, 336
-0.99861, 201, 299, 264, 314
-0.998611, 97, 35, 160, 50
-0.998611, 185, 231, 248, 246
-0.998613, 145, 187, 208, 202
-0.998615, 129, 197, 144, 228
-0.998616, 233, 307, 296, 322
-0.99862, 225, 277, 288, 292
-0.998621, 233, 179, 296, 194
-0.998622, 249, 165, 264, 196
-0.998623, 105, 191, 168, 206
-0.998624, 153, 201, 216, 216
-0.998624, 225, 209, 288, 224
-0.998627, 225, 149, 288, 164
-0.99863, 161, 31, 224, 46
-0.998631, 153, 293, 216, 308
-0.998631, 273, 289, 333, 304
-0.998631, 225, 127, 288, 142
-0.998632, 317, 65, 332, 96
-0.998634, 265, 269, 328, 284
-0.998634, 223, 93, 238, 124
-0.998634, 49, 49, 80, 176
-0.998635, 225, 301, 288, 316
-0.998636, 225, 139, 288, 154
-0.998636, 257, 311, 320, 326
-0.998637, 185, 225, 248, 240
-0.998638, 49, 109, 112, 124
-0.998638, 81, 113, 144, 128
-0.998638, 257, 323, 320, 338
-0.99864, 273, 295, 333, 310
-0.99864, 73, 35, 136, 50
-0.99864, 225, 295, 288, 310
-0.998641, 193, 107, 256, 122
-0.998641, 207, 233, 222, 264
-0.998642, 233, 193, 296, 208
-0.998643, 161, 361, 288, 392
-0.998644, 185, 287, 248, 302
-0.998646, 121, 189, 136, 220
-0.998648, 185, 199, 248, 214
-0.998648, 233, 247, 296, 262
-0.998648, 145, 287, 208, 302
-0.998649, 239, 289, 254, 320
-0.998649, 121, 293, 184, 308
-0.99865, 145, 13, 272, 44
-0.99865, 273, 283, 333, 298
-0.998651, 169, 193, 232, 208
-0.998651, 265, 351, 328, 366
-0.998652, 273, 359, 333, 374
-0.998655, 273, 375, 333, 390
-0.998655, 49, 73, 176, 104
-0.998656, 253, 293, 268, 324
-0.998657, 185, 33, 248, 48
-0.998659, 265, 159, 328, 174
-0.998659, 233, 203, 296, 218
-0.998661, 193, 327, 256, 342
-0.998662, 45, 109, 60, 140
-0.998662, 217, 99, 280, 114
-0.998663, 185, 241, 248, 256
-0.998664, 57, 15, 120, 30
-0.998665, 217, 231, 280, 246
-0.998666, 49, 7, 112, 22
-0.998667, 241, 117, 304, 132
-0.998667, 153, 207, 216, 222
-0.998668, 233, 321, 296, 336
-0.998668, 219, 245, 234, 276
-0.998668, 9, 109, 72, 124
-0.998669, 201, 293, 264, 308
-0.998669, 265, 343, 328, 358
-0.998669, 201, 21, 216, 52
-0.998671, 291, 309, 306, 340
-0.998672, 1, 95, 64, 110
-0.998672, 105, 185, 168, 200
-0.998673, 81, 119, 144, 134
-0.998673, 135, 177, 150, 208
-0.998673, 173, 25, 188, 56
-0.998674, 89, 217, 152, 232
-0.998674, 73, 25, 136, 40
-0.998674, 265, 165, 328, 180
-0.998675, 129, 181, 192, 196
-0.998675, 225, 221, 288, 236
-0.998675, 89, 197, 152, 212
-0.998676, 121, 335, 184, 350
-0.998676, 213, 257, 228, 288
-0.998676, 265, 151, 328, 166
-0.998677, 81, 207, 144, 222
-0.998677, 177, 133, 240, 148
-0.998677, 265, 329, 328, 344
-0.998677, 265, 179, 328, 194
-0.998678, 217, 7, 280, 22
-0.998678, 265, 337, 328, 352
-0.998678, 145, 281, 208, 296
-0.998679, 241, 241, 304, 256
-0.998679, 1, 101, 64, 116
-0.998681, 257, 111, 320, 126
-0.998682, 1, 425, 333, 488
-0.998682, 185, 101, 248, 116
-0.998682, 41, 1, 104, 16
-0.998684, 81, 107, 144, 122
-0.998684, 89, 95, 152, 110
-0.998684, 273, 369, 333, 384
-0.998684, 233, 313, 296, 328
-0.998684, 265, 169, 280, 200
-0.998685, 73, 41, 136, 56
-0.998685, 265, 145, 328, 160
-0.998687, 209, 93, 272, 108
-0.998687, 217, 239, 280, 254
-0.998687, 233, 327, 296, 342
-0.998687, 265, 171, 328, 186
-0.998688, 81, 341, 144, 356
-0.998688, 113, 29, 176, 44
-0.998688, 97, 135, 160, 150
-0.998689, 89, 225, 152, 240
-0.998689, 241, 265, 304, 280
-0.99869, 57, 115, 120, 130
-0.99869, 185, 139, 248, 154
-0.998691, 221, 209, 236, 240
-0.998691, 81, 101, 144, 116
-0.998692, 129, 201, 192, 216
-0.998693, 153, 223, 216, 238
-0.998694, 201, 27, 264, 42
-0.998695, 115, 25, 130, 56
-0.998695, 185, 127, 248, 142
-0.998695, 185, 305, 248, 320
-0.998696, 201, 19, 264, 34
-0.998696, 273, 277, 333, 292
-0.998697, 89, 331, 152, 346
-0.998697, 137, 301, 200, 316
-0.998698, 317, 389, 332, 420
-0.998698, 241, 235, 304, 250
-0.998703, 49, 233, 176, 264
-0.998704, 195, 205, 210, 236
-0.998706, 197, 273, 212, 304
-0.998707, 233, 1, 248, 32
-0.998707, 213, 89, 228, 120
-0.998709, 303, 73, 318, 104
-0.998716, 289, 353, 320, 480
-0.998761, 289, 65, 320, 320
-0.998776, 265, 145, 280, 272
-0.998785, 33, 293, 160, 324
-0.99879, 5, 65, 36, 320
-0.998815, 113, 421, 240, 452
-0.998824, 117, 33, 132, 160
-0.998828, 193, 437, 320, 468
-0.99892, 105, 17, 120, 144
-0.99892, 33, 249, 160, 280
-0.998926, 123, 33, 138, 160
-0.998931, 317, 17, 332, 144
-0.998934, 271, 193, 286, 320
-0.998935, 201, 81, 216, 208
-0.998937, 111, 33, 126, 160
-0.998949, 209, 81, 224, 208
-0.998952, 219, 97, 234, 224
-0.998955, 181, 129, 196, 256
-0.998958, 203, 17, 218, 144
-0.998981, 197, 17, 212, 144
-0.998987, 223, 145, 238, 272
-0.998995, 213, 1, 228, 128
-0.998998, 229, 81, 244, 208
-0.999001, 237, 257, 268, 500
-0.999002, 17, 317, 144, 348
-0.999007, 185, 177, 200, 304
-0.999007, 191, 17, 206, 144
-0.999008, 129, 33, 144, 160
-0.99902, 17, 329, 144, 360
-0.999021, 49, 1, 176, 32
-0.999021, 259, 209, 274, 336
-0.999023, 259, 129, 274, 256
-0.999024, 249, 305, 280, 432
-0.999027, 145, 1, 272, 32
-0.999034, 193, 397, 320, 428
-0.999038, 187, 129, 202, 256
-0.999048, 277, 225, 292, 352
-0.999051, 53, 65, 84, 320
-0.999063, 267, 257, 282, 384
-0.999072, 97, 97, 112, 224
-0.999075, 33, 281, 160, 312
-0.999085, 135, 145, 150, 272
-0.99909, 105, 193, 136, 448
-0.999095, 229, 129, 244, 256
-0.999101, 103, 97, 118, 224
-0.999115, 111, 81, 126, 208
-0.999119, 65, 417, 192, 448
-0.999121, 95, 1, 110, 128
-0.999126, 1, 137, 128, 168
-0.999129, 219, 1, 234, 128
-0.999133, 147, 17, 162, 144
-0.999135, 265, 193, 280, 320
-0.999138, 85, 97, 116, 352
-0.999142, 193, 413, 320, 444
-0.999143, 183, 17, 198, 144
-0.999144, 219, 209, 234, 336
-0.999146, 157, 1, 172, 128
-0.999146, 193, 129, 208, 256
-0.999153, 157, 129, 172, 256
-0.999157, 17, 193, 144, 224
-0.999162, 177, 177, 192, 304
-0.999165, 113, 441, 240, 472
-0.999166, 171, 177, 186, 304
-0.999174, 217, 145, 232, 272
-0.999179, 193, 273, 208, 400
-0.999179, 277, 353, 308, 480
-0.999186, 163, 129, 178, 256
-0.999191, 221, 49, 236, 176
-0.999191, 37, 65, 68, 320
-0.999194, 195, 81, 210, 208
-0.999196, 17, 261, 144, 292
-0.9992, 237, 113, 252, 240
-0.999201, 249, 273, 264, 400
-0.999202, 175, 129, 190, 256
-0.999203, 311, 49, 326, 176
-0.999205, 147, 177, 162, 304
-0.999206, 177, 17, 192, 144
-0.999207, 295, 305, 310, 432
-0.999218, 163, 17, 178, 144
-0.999226, 141, 17, 156, 144
-0.999227, 199, 225, 214, 352
-0.999229, 163, 177, 178, 304
-0.999229, 127, 177, 142, 304
-0.99923, 229, 193, 244, 320
-0.999231, 203, 129, 218, 256
-0.999232, 91, 97, 106, 224
-0.999232, 193, 193, 208, 320
-0.999233, 157, 177, 172, 304
-0.999235, 117, 81, 132, 208
-0.999237, 157, 257, 188, 500
-0.999239, 171, 1, 186, 128
-0.999241, 135, 33, 150, 160
-0.999244, 65, 373, 192, 404
-0.999247, 141, 129, 156, 256
-0.99925, 283, 273, 298, 400
-0.999252, 257, 257, 272, 384
-0.999255, 141, 177, 156, 304
-0.999259, 95, 49, 110, 176
-0.999259, 289, 289, 304, 416
-0.999269, 211, 129, 226, 256
-0.999276, 209, 177, 224, 304
-0.999279, 213, 225, 228, 352
-0.999279, 215, 49, 230, 176
-0.999283, 309, 353, 324, 480
-0.999287, 239, 289, 254, 416
-0.999289, 315, 369, 330, 496
-0.999289, 49, 429, 176, 460
-0.999292, 125, 97, 140, 224
-0.999293, 147, 129, 162, 256
-0.999302, 301, 321, 316, 448
-0.999316, 189, 81, 204, 208
-0.999317, 227, 33, 242, 160
-0.999317, 169, 129, 184, 256
-0.999326, 235, 49, 250, 176
-0.999328, 265, 97, 280, 224
-0.999333, 205, 225, 220, 352
-0.999339, 271, 97, 286, 224
-0.999341, 277, 273, 292, 400
-0.999344, 187, 305, 202, 432
-0.999359, 199, 177, 214, 304
-0.999362, 49, 385, 176, 416
-0.999363, 253, 129, 268, 256
-0.999373, 253, 193, 268, 320
-0.999375, 131, 97, 146, 224
-0.999377, 25, 65, 56, 320
-0.999377, 65, 405, 192, 436
-0.999378, 123, 273, 138, 400
-0.999389, 1, 145, 32, 272
-0.999402, 241, 65, 256, 192
-0.999413, 49, 469, 176, 500
-0.999416, 317, 65, 332, 192
-0.999418, 195, 353, 210, 480
-0.999426, 201, 273, 216, 400
-0.999431, 235, 161, 250, 288
-0.999432, 187, 257, 202, 384
-0.999432, 247, 161, 262, 288
-0.999434, 303, 49, 318, 176
-0.999439, 133, 193, 148, 320
-0.99944, 277, 177, 292, 304
-0.999458, 283, 193, 298, 320
-0.99946, 259, 65, 274, 192
-0.999462, 233, 289, 248, 416
-0.999464, 129, 273, 144, 400
-0.999465, 247, 209, 262, 336
-0.999467, 239, 241, 254, 368
-0.999468, 121, 321, 152, 448
-0.99948, 113, 365, 240, 396
-0.999481, 117, 257, 148, 500
-0.999481, 87, 1, 102, 128
-0.999481, 201, 353, 216, 480
-0.999488, 271, 145, 286, 272
-0.999491, 181, 305, 196, 432
-0.999492, 145, 305, 160, 432
-0.999493, 65, 161, 96, 416
-0.999495, 89, 49, 104, 176
-0.999496, 1, 345, 128, 376
-0.9995, 113, 129, 128, 256
-0.999501, 15, 65, 30, 192
-0.999501, 79, 1, 94, 128
-0.999506, 151, 305, 166, 432
-0.999514, 265, 179, 280, 194
-0.999515, 303, 359, 318, 374
-0.999515, 199, 31, 214, 46
-0.999515, 7, 49, 22, 176
-0.999515, 161, 373, 288, 404
-0.999516, 277, 299, 292, 314
-0.999516, 239, 177, 254, 192
-0.999516, 201, 295, 216, 310
-0.999516, 87, 15, 102, 30
-0.999517, 41, 145, 72, 272
-0.999518, 199, 269, 214, 284
-0.999518, 309, 47, 324, 62
-0.999518, 179, 191, 194, 206
-0.999519, 121, 209, 136, 336
-0.99952, 265, 167, 280, 182
-0.99952, 169, 191, 184, 206
-0.999521, 181, 341, 196, 356
-0.999521, 309, 375, 324, 390
-0.999521, 133, 197, 148, 212
-0.999523, 265, 197, 280, 212
-0.999524, 183, 295, 198, 310
-0.999526, 239, 195, 254, 210
-0.999526, 207, 35, 222, 50
-0.999527, 317, 391, 332, 406
-0.999528, 139, 305, 154, 432
-0.999529, 123, 195, 138, 210
-0.99953, 213, 235, 228, 250
-0.99953, 241, 121, 256, 136
-0.999532, 131, 181, 146, 196
-0.999532, 115, 35, 130, 50
-0.999532, 189, 341, 204, 356
-0.999533, 147, 189, 162, 204
-0.999534, 265, 299, 280, 314
-0.999534, 307, 61, 322, 76
-0.999534, 221, 9, 236, 24
-0.999535, 209, 257, 224, 272
-0.999536, 217, 111, 232, 126
-0.999536, 193, 301, 208, 316
-0.999536, 179, 347, 194, 362
-0.999537, 279, 293, 294, 308
-0.999537, 49, 457, 176, 488
-0.999539, 265, 191, 280, 206
-0.99954, 237, 307, 252, 322
-0.99954, 223, 109, 238, 124
-0.99954, 189, 273, 204, 288
-0.99954, 243, 113, 258, 240
-0.999541, 233, 203, 248, 218
-0.999541, 101, 25, 116, 40
-0.999543, 209, 245, 224, 260
-0.999543, 211, 29, 226, 44
-0.999543, 85, 97, 100, 224
-0.999543, 215, 229, 230, 244
-0.999544, 227, 5, 242, 20
-0.999545, 177, 291, 192, 306
-0.999545, 139, 39, 154, 54
-0.999546, 263, 157, 278, 172
-0.999546, 1, 237, 128, 268
-0.999547, 1, 149, 128, 180
-0.999547, 259, 141, 274, 156
-0.999548, 243, 185, 258, 200
-0.99955, 129, 41, 144, 56
-0.999551, 247, 289, 262, 304
-0.999551, 161, 189, 176, 204
-0.999552, 311, 67, 326, 82
-0.999553, 245, 179, 260, 194
-0.999553, 193, 267, 208, 282
-0.999554, 129, 257, 160, 500
-0.999555, 171, 305, 186, 432
-0.999555, 271, 301, 286, 316
-0.999555, 221, 213, 236, 228
-0.999558, 249, 81, 264, 208
-0.999558, 145, 39, 160, 54
-0.999559, 99, 113, 114, 128
-0.999559, 127, 187, 142, 202
-0.999559, 265, 185, 280, 200
-0.99956, 269, 263, 284, 278
-0.999561, 195, 39, 210, 54
-0.999561, 189, 203, 204, 218
-0.999562, 193, 259, 208, 274
-0.999562, 177, 201, 192, 216
-0.999562, 217, 247, 232, 262
-0.999563, 181, 37, 196, 52
-0.999564, 233, 1, 248, 16
-0.999565, 267, 223, 282, 238
-0.999566, 257, 321, 272, 336
-0.999567, 253, 277, 268, 292
-0.999569, 181, 353, 196, 368
-0.99957, 121, 41, 136, 56
-0.99957, 197, 275, 212, 290
-0.99957, 1, 33, 16, 160
-0.999571, 97, 19, 112, 34
-0.999573, 61, 97, 76, 224
-0.999573, 279, 287, 294, 302
-0.999574, 183, 289, 198, 304
-0.999575, 171, 197, 186, 212
-0.999576, 229, 111, 244, 126
-0.999578, 201, 37, 216, 52
-0.999579, 219, 219, 234, 234
-0.99958, 221, 237, 236, 252
-0.999582, 105, 31, 120, 46
-0.999582, 115, 41, 130, 56
-0.999586, 135, 191, 150, 206
-0.999587, 215, 241, 230, 256
-0.999587, 175, 37, 190, 52
-0.999588, 267, 229, 282, 244
-0.999588, 189, 279, 204, 294
-0.999591, 1, 461, 128, 492
-0.999592, 187, 37, 202, 52
-0.999592, 189, 293, 204, 308
-0.999593, 161, 35, 176, 50
-0.999593, 81, 5, 96, 20
-0.999594, 199, 263, 214, 278
-0.999594, 151, 37, 166, 52
-0.999595, 269, 269, 284, 284
-0.999596, 93, 13, 108, 28
-0.999598, 271, 295, 286, 310
-0.999599, 187, 347, 202, 362
-0.9996, 225, 221, 240, 236
-0.999601, 261, 151, 276, 166
-0.999601, 235, 117, 250, 132
-0.999604, 1, 361, 128, 392
-0.999606, 247, 301, 262, 316
-0.999607, 231, 209, 246, 224
-0.999609, 211, 251, 226, 266
-0.999611, 141, 189, 156, 204
-0.999613, 259, 275, 274, 290
-0.999616, 87, 9, 102, 24
-0.999617, 223, 231, 238, 246
-0.999617, 253, 283, 268, 298
-0.999617, 169, 37, 184, 52
-0.999618, 75, 1, 90, 16
-0.999619, 241, 301, 256, 316
-0.99962, 243, 307, 258, 322
-0.999622, 193, 385, 320, 416
-0.999623, 107, 37, 122, 52
-0.999626, 185, 197, 200, 212
-0.999628, 229, 215, 244, 230
-0.999632, 245, 295, 260, 310
-0.999633, 65, 65, 96, 320
-0.999633, 259, 285, 274, 300
-0.999634, 193, 285, 208, 300
-0.999642, 203, 257, 218, 272
-0.999643, 275, 269, 290, 284
-0.999644, 263, 269, 278, 284
-0.999657, 279, 281, 294, 296
-0.999658, 269, 289, 284, 304
-0.999666, 267, 275, 282, 290
-0.999696, 1, 381, 128, 412
-0.999699, 277, 275, 292, 290
-0.999706, 1, 397, 128, 428
-0.999711, 209, 461, 333, 492
-0.999725, 29, 145, 60, 272
-0.999725, 269, 281, 284, 296
-0.99976, 141, 257, 172, 500
-0.999768, 1, 393, 333, 456
-0.999795, 77, 193, 108, 448
-0.999801, 89, 193, 120, 448
-0.999803, 225, 369, 288, 496
-0.999814, 281, 97, 312, 224
-0.999851, 297, 193, 328, 320
-0.999868, 73, 241, 104, 368
-1.00016, 249, 369, 312, 496
-1.00016, 1, 161, 32, 416
-1.00017, 45, 161, 76, 416
-1.00018, 57, 1, 88, 128
-1.00025, 1, 161, 64, 416
-1.00026, 17, 225, 48, 480
-1.00031, 69, 289, 100, 416
-1.00031, 33, 161, 64, 416
-1.00047, 41, 257, 104, 500
-1.00052, 65, 257, 96, 500
-1.00063, 37, 17, 68, 144
-1.00076, 153, 81, 184, 208
-1.00084, 53, 257, 84, 500
-1.00091, 29, 257, 60, 500
-1.001, 1, 257, 32, 500
-1.00103, 41, 257, 72, 500
-1.00347, 105, 369, 168, 496
-1.00377, 9, 257, 72, 500
-1.005, 9, 273, 72, 400
-1.00587, 1, 337, 64, 464
