1952
-0.484112, 1, 193, 375, 448
-0.608629, 1, 97, 375, 352
-0.630303, 1, 1, 375, 500
-0.668086, 1, 1, 256, 500
-0.738741, 1, 1, 375, 256
-0.739843, 129, 1, 375, 500
-0.796571, 129, 193, 375, 448
-0.842048, 1, 193, 256, 448
-0.890744, 1, 97, 256, 352
-0.904555, 193, 1, 320, 500
-0.905158, 241, 1, 368, 500
-0.909913, 161, 193, 288, 448
-0.917037, 129, 97, 375, 352
-0.919402, 33, 1, 160, 500
-0.922289, 1, 321, 375, 448
-0.922745, 81, 193, 208, 448
-0.923471, 129, 1, 256, 500
-0.927032, 225, 193, 352, 448
-0.929864, 33, 193, 160, 448
-0.935855, 241, 97, 368, 352
-0.935948, 1, 369, 375, 496
-0.93739, 1, 145, 375, 272
-0.939323, 1, 193, 375, 320
-0.941567, 97, 321, 352, 448
-0.941938, 161, 97, 288, 352
-0.941942, 1, 241, 375, 368
-0.944309, 81, 1, 208, 500
-0.948903, 97, 97, 224, 352
-0.951039, 113, 145, 176, 272
-0.951879, 145, 145, 208, 272
-0.95271, 113, 81, 176, 208
-0.953745, 313, 81, 375, 208
-0.954968, 49, 65, 176, 320
-0.956307, 1, 49, 375, 176
-0.956349, 289, 81, 352, 208
-0.95672, 1, 97, 128, 352
-0.95705, 145, 1, 272, 256
-0.957599, 185, 145, 248, 272
-0.957687, 129, 81, 375, 208
-0.957881, 1, 129, 64, 256
-0.958033, 145, 81, 208, 208
-0.958665, 129, 145, 375, 272
-0.959274, 41, 145, 104, 272
-0.959584, 209, 81, 272, 208
-0.959601, 169, 81, 232, 208
-0.959614, 1, 97, 375, 224
-0.95963, 129, 273, 256, 400
-0.960737, 161, 145, 288, 272
-0.96081, 1, 353, 256, 480
-0.960872, 73, 81, 136, 208
-0.961359, 257, 81, 320, 208
-0.961616, 1, 81, 64, 208
-0.961818, 113, 321, 240, 448
-0.962364, 1, 145, 256, 272
-0.962486, 145, 209, 208, 336
-0.962838, 225, 1, 352, 256
-0.963127, 193, 337, 320, 464
-0.963147, 313, 129, 375, 256
-0.963283, 1, 193, 256, 320
-0.963326, 281, 129, 344, 256
-0.963335, 17, 193, 80, 320
-0.964267, 97, 273, 352, 400
-0.964597, 73, 129, 136, 256
-0.964616, 257, 145, 320, 272
-0.96492, 1, 1, 375, 128
-0.964978, 129, 209, 256, 336
-0.965481, 129, 209, 375, 336
-0.966149, 1, 305, 256, 432
-0.966608, 209, 129, 272, 256
-0.9668, 49, 353, 176, 480
-0.966832, 97, 369, 352, 496
-0.966926, 41, 65, 104, 192
-0.967307, 225, 81, 352, 208
-0.967357, 241, 321, 304, 448
-0.967544, 313, 17, 375, 144
-0.96867, 9, 1, 72, 128
-0.969035, 185, 201, 248, 264
-0.969184, 177, 289, 304, 416
-0.969202, 249, 17, 312, 144
-0.969307, 41, 209, 104, 336
-0.969372, 201, 321, 264, 448
-0.969447, 273, 17, 336, 144
-0.969464, 145, 225, 208, 288
-0.969541, 129, 17, 375, 144
-0.969561, 161, 81, 288, 208
-0.96972, 97, 1, 352, 256
-0.969759, 1, 1, 128, 256
-0.970433, 1, 241, 256, 368
-0.970436, 177, 209, 304, 336
-0.970478, 89, 193, 152, 320
-0.970702, 241, 345, 304, 408
-0.97122, 241, 145, 368, 272
-0.971372, 81, 145, 208, 272
-0.971558, 49, 1, 112, 64
-0.971577, 73, 369, 136, 432
-0.971714, 97, 337, 160, 464
-0.971967, 161, 321, 224, 448
-0.972405, 257, 369, 320, 432
-0.972468, 73, 353, 136, 480
-0.972876, 113, 193, 176, 320
-0.973076, 153, 201, 216, 264
-0.973187, 49, 265, 112, 328
-0.973286, 1, 81, 256, 208
-0.973459, 145, 257, 208, 384
-0.973681, 185, 225, 248, 352
-0.973686, 49, 273, 112, 400
-0.97376, 185, 17, 248, 144
-0.973807, 41, 1, 104, 128
-0.974082, 81, 209, 208, 336
-0.974418, 249, 1, 312, 64
-0.974505, 265, 321, 328, 448
-0.974526, 257, 273, 320, 400
-0.974526, 209, 225, 272, 288
-0.974572, 81, 273, 208, 400
-0.974773, 145, 1, 208, 128
-0.975107, 113, 81, 240, 208
-0.975278, 217, 1, 280, 64
-0.975293, 265, 345, 328, 408
-0.975429, 105, 345, 168, 408
-0.975471, 97, 1, 224, 256
-0.975608, 281, 369, 344, 432
-0.975823, 217, 17, 280, 144
-0.975917, 153, 65, 216, 128
-0.976464, 1, 265, 64, 328
-0.976471, 113, 33, 176, 160
-0.976668, 185, 233, 248, 296
-0.976707, 281, 273, 344, 400
-0.976708, 177, 57, 240, 120
-0.976728, 33, 377, 96, 440
-0.976771, 153, 265, 216, 328
-0.976781, 281, 209, 344, 336
-0.976836, 241, 305, 368, 432
-0.977332, 281, 225, 344, 288
-0.977356, 33, 145, 160, 272
-0.977712, 73, 273, 136, 400
-0.977796, 249, 369, 312, 496
-0.977825, 257, 225, 320, 288
-0.977831, 217, 369, 280, 496
-0.977846, 233, 369, 296, 432
-0.978008, 129, 321, 192, 448
-0.978118, 249, 257, 312, 320
-0.978298, 113, 1, 176, 64
-0.978428, 225, 65, 288, 128
-0.978428, 17, 289, 144, 416
-0.978456, 153, 1, 216, 64
-0.978489, 113, 57, 176, 120
-0.978645, 281, 369, 344, 496
-0.978844, 1, 49, 128, 176
-0.978867, 225, 265, 288, 328
-0.978873, 281, 1, 344, 64
-0.978919, 17, 209, 144, 336
-0.979185, 89, 265, 152, 328
-0.979196, 177, 257, 240, 320
-0.979252, 209, 273, 272, 400
-0.979317, 281, 257, 344, 320
-0.979555, 233, 65, 296, 192
-0.979728, 113, 225, 176, 288
-0.980149, 49, 233, 112, 296
-0.980196, 289, 345, 352, 408
-0.980282, 241, 369, 368, 496
-0.980425, 49, 81, 176, 208
-0.980502, 17, 1, 80, 64
-0.980523, 97, 289, 160, 416
-0.980577, 89, 1, 152, 64
-0.980666, 177, 353, 240, 416
-0.980676, 97, 369, 224, 496
-0.980689, 313, 193, 375, 320
-0.980709, 1, 1, 256, 128
-0.980733, 233, 145, 296, 272
-0.980808, 89, 65, 152, 128
-0.980891, 9, 201, 72, 264
-0.980994, 97, 377, 160, 440
-0.981006, 49, 201, 112, 264
-0.981024, 209, 345, 272, 408
-0.981027, 9, 57, 72, 120
-0.981086, 225, 17, 352, 144
-0.981195, 249, 33, 312, 96
-0.981315, 129, 217, 256, 280
-0.981374, 121, 265, 184, 328
-0.981677, 137, 329, 200, 392
-0.981743, 17, 273, 80, 400
-0.981758, 185, 1, 248, 64
-0.98198, 41, 65, 104, 128
-0.982063, 17, 33, 80, 96
-0.982177, 145, 369, 272, 496
-0.982181, 129, 265, 256, 328
-0.982247, 81, 33, 144, 160
-0.982252, 185, 273, 248, 400
-0.982305, 289, 65, 352, 128
-0.98232, 73, 225, 136, 288
-0.982323, 249, 65, 312, 128
-0.982363, 113, 201, 176, 264
-0.982387, 345, 65, 375, 192
-0.982388, 17, 225, 80, 288
-0.982548, 113, 33, 176, 96
-0.982608, 305, 1, 368, 64
-0.98266, 149, 217, 180, 280
-0.982898, 217, 201, 280, 264
-0.982912, 197, 81, 228, 208
-0.982929, 137, 33, 200, 96
-0.982941, 225, 361, 352, 424
-0.982963, 213, 145, 244, 272
-0.983062, 313, 225, 375, 288
-0.983175, 145, 161, 208, 416
-0.98321, 185, 193, 248, 448
-0.983234, 313, 57, 375, 120
-0.983294, 145, 353, 208, 416
-0.983301, 225, 193, 288, 320
-0.983334, 289, 201, 352, 264
-0.983371, 49, 353, 112, 480
-0.983516, 49, 33, 112, 96
-0.983546, 109, 129, 140, 256
-0.983588, 121, 241, 184, 368
-0.983604, 49, 289, 112, 352
-0.983643, 1, 353, 128, 480
-0.983807, 177, 33, 304, 160
-0.983914, 281, 81, 312, 208
-0.983939, 145, 1, 176, 64
-0.983968, 185, 369, 248, 496
-0.983976, 261, 81, 292, 208
-0.983976, 313, 257, 375, 320
-0.984061, 241, 257, 368, 384
-0.984067, 261, 345, 292, 408
-0.984082, 97, 129, 128, 256
-0.984225, 81, 353, 208, 416
-0.984372, 273, 25, 336, 88
-0.984393, 129, 193, 256, 256
-0.984458, 89, 193, 152, 448
-0.984462, 109, 65, 140, 192
-0.984465, 249, 201, 312, 264
-0.98452, 41, 129, 104, 384
-0.984523, 313, 193, 375, 256
-0.984603, 93, 193, 124, 320
-0.984627, 29, 81, 60, 208
-0.984669, 145, 289, 208, 352
-0.984681, 225, 321, 288, 384
-0.984747, 217, 129, 280, 192
-0.984815, 257, 193, 320, 320
-0.984858, 169, 129, 232, 192
-0.984858, 25, 265, 88, 328
-0.984874, 213, 1, 244, 64
-0.984876, 81, 345, 144, 408
-0.984881, 97, 81, 128, 208
-0.985057, 13, 49, 44, 176
-0.985062, 209, 369, 272, 432
-0.985069, 161, 345, 288, 408
-0.985093, 305, 369, 368, 432
-0.985133, 65, 193, 128, 320
-0.985134, 193, 337, 224, 400
-0.985235, 129, 369, 192, 496
-0.98532, 229, 81, 260, 208
-0.985321, 289, 321, 352, 448
-0.985361, 177, 1, 208, 64
-0.985377, 277, 1, 308, 64
-0.985383, 265, 289, 328, 352
-0.985614, 149, 145, 180, 272
-0.985632, 129, 81, 160, 208
-0.985634, 297, 81, 328, 208
-0.985642, 17, 1, 144, 128
-0.985642, 213, 65, 244, 192
-0.985676, 29, 129, 60, 256
-0.985691, 129, 289, 256, 352
-0.985712, 209, 337, 336, 400
-0.985777, 41, 129, 72, 256
-0.985782, 329, 81, 360, 208
-0.985808, 225, 209, 352, 336
-0.985829, 273, 89, 336, 152
-0.985839, 145, 81, 176, 208
-0.985914, 49, 225, 112, 480
-0.985915, 249, 89, 312, 152
-0.985916, 257, 321, 288, 448
-0.985938, 121, 193, 184, 448
-0.985969, 177, 265, 304, 328
-0.986024, 77, 65, 108, 192
-0.986036, 113, 1, 240, 128
-0.986036, 217, 225, 248, 288
-0.986054, 185, 33, 248, 96
-0.986103, 149, 193, 180, 320
-0.986141, 9, 129, 72, 384
-0.986164, 281, 145, 312, 272
-0.986167, 257, 193, 320, 448
-0.986178, 193, 217, 320, 280
-0.986258, 45, 1, 76, 64
-0.986297, 277, 369, 308, 432
-0.986328, 149, 193, 180, 256
-0.986347, 249, 65, 280, 192
-0.986394, 165, 161, 196, 288
-0.986397, 181, 65, 212, 192
-0.986431, 249, 129, 280, 256
-0.986442, 113, 329, 240, 392
-0.986475, 245, 329, 276, 392
-0.986476, 129, 145, 160, 272
-0.986575, 33, 369, 160, 432
-0.986583, 185, 89, 248, 152
-0.986608, 161, 201, 192, 264
-0.986734, 201, 313, 264, 376
-0.986758, 109, 1, 140, 64
-0.986866, 209, 193, 272, 448
-0.986873, 233, 321, 264, 448
-0.986876, 217, 33, 280, 96
-0.986912, 285, 217, 316, 280
-0.986919, 161, 313, 224, 376
-0.987053, 9, 57, 40, 120
-0.987061, 65, 33, 192, 160
-0.987076, 193, 129, 320, 192
-0.98708, 113, 177, 144, 304
-0.987118, 165, 233, 196, 296
-0.987144, 313, 65, 344, 192
-0.987171, 73, 201, 136, 264
-0.987176, 81, 1, 112, 64
-0.987181, 161, 369, 224, 496
-0.987186, 281, 193, 344, 448
-0.987209, 181, 225, 212, 288
-0.98723, 161, 65, 192, 128
-0.98727, 165, 81, 196, 208
-0.987343, 121, 289, 184, 352
-0.987361, 33, 353, 96, 416
-0.987364, 129, 241, 256, 304
-0.987366, 209, 193, 336, 256
-0.9874, 233, 273, 296, 400
-0.987403, 257, 369, 288, 432
-0.987412, 9, 193, 40, 256
-0.987419, 241, 65, 368, 128
-0.987448, 345, 113, 375, 240
-0.98746, 149, 265, 180, 328
-0.987501, 145, 169, 208, 232
-0.987574, 329, 17, 360, 144
-0.987582, 313, 361, 344, 424
-0.987594, 93, 369, 124, 432
-0.987635, 73, 33, 136, 96
-0.987681, 193, 153, 320, 216
-0.987683, 29, 193, 60, 320
-0.987756, 197, 145, 228, 272
-0.987781, 81, 377, 208, 440
-0.987782, 217, 1, 280, 500
-0.987812, 93, 265, 124, 328
-0.987825, 241, 1, 272, 64
-0.987862, 13, 1, 44, 128
-0.987895, 81, 273, 112, 400
-0.98791, 249, 137, 312, 200
-0.987965, 177, 377, 304, 440
-0.987974, 185, 1, 248, 500
-0.987981, 17, 289, 80, 352
-0.987983, 41, 1, 104, 500
-0.988086, 145, 97, 208, 160
-0.98811, 81, 265, 208, 328
-0.988113, 217, 201, 248, 264
-0.988191, 341, 1, 372, 64
-0.988209, 149, 57, 180, 120
-0.988228, 45, 177, 76, 304
-0.988262, 161, 321, 288, 384
-0.988286, 245, 353, 276, 480
-0.988327, 73, 289, 136, 352
-0.988356, 1, 97, 128, 224
-0.988397, 193, 89, 320, 152
-0.988404, 209, 289, 272, 352
-0.988424, 193, 49, 320, 112
-0.98845, 177, 129, 208, 256
-0.988489, 9, 145, 40, 272
-0.988528, 185, 281, 248, 344
-0.988538, 193, 337, 224, 464
-0.98858, 245, 361, 276, 424
-0.988618, 233, 265, 264, 328
-0.988624, 209, 97, 272, 160
-0.98863, 277, 17, 308, 144
-0.98866, 61, 81, 92, 208
-0.988679, 345, 17, 375, 144
-0.988706, 1, 49, 32, 176
-0.988709, 265, 145, 296, 272
-0.988715, 245, 289, 276, 416
-0.988769, 129, 65, 256, 128
-0.988788, 129, 345, 160, 408
-0.988837, 261, 17, 292, 144
-0.988883, 301, 265, 332, 328
-0.988894, 129, 193, 160, 320
-0.988914, 61, 129, 92, 256
-0.988968, 229, 17, 260, 144
-0.988993, 141, 289, 172, 416
-0.989014, 309, 1, 340, 64
-0.989032, 313, 33, 375, 96
-0.989038, 209, 153, 272, 216
-0.989065, 65, 369, 96, 432
-0.989115, 97, 65, 128, 128
-0.989123, 293, 321, 324, 448
-0.989262, 9, 97, 40, 224
-0.989264, 49, 129, 112, 192
-0.989278, 105, 369, 136, 496
-0.989293, 165, 265, 196, 328
-0.989302, 229, 201, 260, 264
-0.989321, 81, 217, 208, 280
-0.989346, 113, 321, 144, 448
-0.989348, 241, 129, 368, 192
-0.98935, 241, 297, 304, 360
-0.989401, 81, 297, 208, 360
-0.989413, 289, 361, 320, 424
-0.989454, 249, 321, 312, 384
-0.989457, 9, 1, 40, 64
-0.989459, 81, 145, 112, 272
-0.989469, 165, 225, 196, 352
-0.989489, 185, 161, 248, 224
-0.989529, 129, 265, 160, 328
-0.98953, 313, 241, 375, 368
-0.98953, 249, 1, 312, 500
-0.989654, 41, 369, 72, 432
-0.989695, 285, 257, 316, 320
-0.989728, 269, 337, 300, 464
-0.98975, 225, 1, 352, 64
-0.989755, 33, 265, 160, 328
-0.989837, 205, 321, 236, 448
-0.989903, 81, 273, 112, 336
-0.989933, 233, 193, 264, 320
-0.989946, 181, 57, 212, 120
-0.989947, 145, 1, 208, 500
-0.989949, 49, 161, 112, 224
-0.98995, 177, 193, 208, 320
-0.989959, 289, 281, 352, 344
-0.98996, 113, 345, 144, 408
-0.989963, 233, 233, 264, 296
-0.990019, 149, 241, 180, 368
-0.990092, 161, 1, 288, 64
-0.990106, 161, 129, 192, 192
-0.990155, 221, 321, 252, 448
-0.990179, 29, 17, 60, 144
-0.990185, 145, 137, 208, 200
-0.990198, 281, 1, 344, 500
-0.990207, 77, 225, 108, 352
-0.990214, 265, 265, 296, 328
-0.990226, 29, 65, 60, 128
-0.990234, 197, 17, 228, 144
-0.990246, 313, 89, 375, 152
-0.990342, 57, 345, 120, 408
-0.990348, 177, 289, 208, 416
-0.990367, 45, 81, 76, 208
-0.990398, 61, 65, 92, 128
-0.990422, 145, 25, 176, 88
-0.990427, 181, 353, 212, 416
-0.990456, 149, 89, 180, 152
-0.990459, 213, 273, 244, 400
-0.990475, 193, 65, 224, 128
-0.990476, 9, 1, 72, 500
-0.990487, 61, 265, 92, 328
-0.990495, 129, 209, 160, 272
-0.99051, 97, 17, 128, 144
-0.990534, 29, 265, 60, 328
-0.990571, 141, 337, 172, 400
-0.990592, 329, 145, 360, 272
-0.990602, 61, 193, 92, 320
-0.990609, 257, 393, 320, 456
-0.99062, 201, 65, 264, 128
-0.990634, 233, 145, 264, 272
-0.990638, 81, 57, 112, 120
-0.990642, 197, 233, 228, 296
-0.990654, 281, 57, 312, 120
-0.990666, 89, 321, 120, 448
-0.990675, 345, 225, 375, 352
-0.990706, 241, 97, 368, 160
-0.99072, 137, 337, 168, 464
-0.990748, 149, 153, 180, 216
-0.990748, 177, 377, 240, 440
-0.990774, 29, 193, 60, 256
-0.990784, 61, 17, 92, 144
-0.990787, 73, 373, 136, 404
-0.990818, 213, 17, 244, 144
-0.990822, 33, 1, 160, 64
-0.990834, 345, 57, 375, 120
-0.990858, 9, 257, 40, 320
-0.990868, 145, 229, 208, 260
-0.99088, 249, 373, 312, 404
-0.990895, 105, 377, 136, 440
-0.990906, 241, 33, 368, 96
-0.990912, 65, 73, 192, 136
-0.990926, 241, 385, 368, 448
-0.990955, 185, 221, 248, 252
-0.990963, 149, 289, 180, 352
-0.990982, 193, 25, 320, 88
-0.990998, 257, 321, 288, 384
-0.991054, 213, 57, 244, 120
-0.991066, 153, 65, 216, 320
-0.991078, 129, 161, 256, 224
-0.991083, 297, 145, 328, 272
-0.991102, 113, 97, 176, 352
-0.991102, 309, 17, 340, 144
-0.991116, 233, 393, 296, 456
-0.99114, 29, 233, 60, 296
-0.991159, 65, 65, 128, 128
-0.991184, 81, 137, 144, 200
-0.991187, 65, 393, 128, 456
-0.991228, 145, 205, 208, 236
-0.991315, 241, 153, 368, 216
-0.991316, 17, 129, 80, 192
-0.991322, 217, 209, 248, 336
-0.991338, 129, 233, 160, 296
-0.991356, 129, 89, 256, 152
-0.991363, 97, 305, 160, 368
-0.991363, 25, 321, 88, 448
-0.991384, 49, 89, 112, 152
-0.991401, 41, 265, 72, 328
-0.991429, 285, 273, 316, 400
-0.991432, 193, 289, 320, 352
-0.991441, 293, 1, 324, 128
-0.991448, 109, 265, 140, 328
-0.991485, 249, 293, 312, 324
-0.9915, 77, 361, 108, 424
-0.991521, 217, 257, 248, 320
-0.991532, 33, 381, 96, 412
-0.991542, 197, 193, 228, 320
-0.991555, 153, 377, 216, 440
-0.991561, 261, 129, 292, 192
-0.991562, 129, 17, 160, 144
-0.99157, 113, 149, 176, 180
-0.991571, 97, 241, 160, 368
-0.991579, 17, 153, 80, 184
-0.99158, 145, 293, 208, 324
-0.991595, 129, 129, 256, 192
-0.99162, 289, 129, 352, 192
-0.991623, 129, 377, 192, 440
-0.991627, 145, 217, 208, 248
-0.991651, 49, 281, 112, 312
-0.991661, 9, 201, 72, 232
-0.991671, 145, 149, 208, 180
-0.991676, 273, 345, 304, 408
-0.991682, 185, 293, 248, 324
-0.9917, 49, 217, 112, 248
-0.991704, 9, 1, 72, 256
-0.99171, 177, 197, 240, 228
-0.99171, 209, 129, 272, 160
-0.991711, 17, 269, 80, 300
-0.991712, 29, 1, 60, 64
-0.99172, 41, 265, 104, 296
-0.991726, 217, 97, 280, 352
-0.991765, 81, 149, 144, 180
-0.991765, 49, 149, 112, 180
-0.991775, 181, 257, 212, 320
-0.991776, 249, 149, 312, 180
-0.991787, 313, 201, 375, 232
-0.991822, 145, 329, 208, 360
-0.991822, 273, 377, 336, 408
-0.991848, 229, 353, 260, 416
-0.991867, 49, 293, 112, 324
-0.991867, 181, 337, 212, 464
-0.99187, 145, 193, 208, 224
-0.991885, 9, 161, 72, 224
-0.991887, 81, 241, 112, 304
-0.991888, 281, 293, 344, 324
-0.991891, 249, 21, 312, 52
-0.991902, 281, 225, 344, 256
-0.99193, 281, 1, 344, 32
-0.991932, 9, 221, 72, 252
-0.991937, 1, 133, 64, 164
-0.991939, 249, 225, 280, 288
-0.991949, 9, 225, 40, 352
-0.991952, 81, 285, 144, 316
-0.991957, 177, 149, 240, 180
-0.991968, 289, 365, 352, 396
-0.991972, 113, 1, 176, 32
-0.991974, 281, 165, 344, 196
-0.991979, 209, 293, 272, 324
-0.991979, 105, 357, 168, 388
-0.991985, 97, 233, 128, 296
-0.991989, 201, 361, 264, 392
-0.991991, 9, 369, 72, 432
-0.991995, 113, 293, 176, 324
-0.991999, 113, 129, 176, 160
-0.992011, 41, 21, 104, 52
-0.992013, 281, 353, 312, 480
-0.992032, 209, 229, 272, 260
-0.992038, 113, 213, 176, 244
-0.992039, 81, 197, 144, 228
-0.992041, 209, 145, 272, 176
-0.992049, 193, 33, 224, 96
-0.992051, 41, 197, 104, 228
-0.992063, 81, 273, 144, 304
-0.992072, 145, 1, 208, 32
-0.992078, 61, 233, 92, 296
-0.992079, 129, 369, 256, 432
-0.992081, 9, 1, 72, 32
-0.992082, 177, 129, 240, 160
-0.992082, 41, 129, 104, 160
-0.992082, 33, 345, 160, 408
-0.992088, 249, 129, 312, 160
-0.992097, 65, 49, 192, 112
-0.992097, 113, 225, 176, 256
-0.992102, 73, 89, 136, 152
-0.992104, 217, 377, 280, 408
-0.992109, 113, 197, 176, 228
-0.992128, 201, 1, 232, 64
-0.992133, 241, 1, 304, 32
-0.992134, 177, 17, 208, 144
-0.992141, 153, 133, 216, 164
-0.992143, 209, 161, 272, 192
-0.992148, 145, 161, 208, 192
-0.992151, 217, 205, 280, 236
-0.992155, 185, 209, 248, 240
-0.992161, 49, 1, 112, 32
-0.992164, 73, 229, 136, 260
-0.992173, 1, 225, 64, 480
-0.992177, 17, 293, 80, 324
-0.992178, 249, 225, 312, 256
-0.992182, 153, 269, 216, 300
-0.992184, 301, 361, 332, 424
-0.992189, 109, 273, 140, 400
-0.99219, 61, 1, 92, 64
-0.992192, 281, 265, 344, 296
-0.992203, 281, 149, 344, 180
-0.992208, 17, 21, 80, 52
-0.992224, 73, 297, 136, 328
-0.992235, 313, 213, 375, 244
-0.992239, 309, 337, 340, 400
-0.992247, 313, 1, 375, 32
-0.992252, 245, 265, 276, 328
-0.992263, 257, 393, 320, 424
-0.992263, 81, 137, 144, 168
-0.99227, 209, 1, 272, 32
-0.992275, 113, 57, 144, 120
-0.992275, 113, 265, 176, 296
-0.992276, 121, 165, 184, 196
-0.992277, 177, 265, 240, 296
-0.992303, 9, 281, 72, 312
-0.992309, 113, 121, 176, 184
-0.992319, 281, 281, 344, 312
-0.992323, 241, 165, 304, 196
-0.992325, 17, 73, 144, 136
-0.992337, 81, 217, 144, 248
-0.99234, 313, 149, 375, 180
-0.992341, 125, 321, 156, 448
-0.992348, 233, 357, 296, 388
-0.992352, 113, 169, 176, 232
-0.992357, 201, 257, 264, 320
-0.992366, 137, 341, 200, 372
-0.992367, 313, 1, 375, 500
-0.992378, 289, 393, 352, 424
-0.99239, 281, 213, 344, 244
-0.992401, 297, 65, 328, 128
-0.992408, 217, 217, 280, 248
-0.992409, 181, 321, 212, 384
-0.992414, 281, 129, 344, 160
-0.992416, 49, 229, 112, 260
-0.992419, 313, 165, 375, 196
-0.992426, 281, 197, 344, 228
-0.992432, 9, 65, 72, 96
-0.992433, 257, 357, 320, 388
-0.992434, 313, 129, 375, 160
-0.992445, 9, 89, 72, 152
-0.992449, 213, 25, 244, 88
-0.992462, 145, 281, 208, 312
-0.992466, 89, 1, 152, 32
-0.992468, 65, 393, 128, 424
-0.992472, 257, 305, 320, 336
-0.992473, 185, 281, 248, 312
-0.992487, 317, 129, 348, 256
-0.992488, 313, 121, 375, 184
-0.992488, 281, 353, 344, 384
-0.992499, 153, 65, 216, 96
-0.992509, 225, 369, 256, 496
-0.992512, 177, 65, 240, 96
-0.992513, 197, 201, 228, 264
-0.992513, 265, 233, 296, 296
-0.992523, 49, 85, 112, 116
-0.992525, 1, 1, 32, 128
-0.992529, 49, 161, 112, 192
-0.99253, 197, 265, 228, 328
-0.992536, 217, 265, 280, 296
-0.992544, 145, 357, 208, 388
-0.992544, 129, 33, 192, 64
-0.992555, 169, 233, 232, 264
-0.992558, 313, 225, 375, 256
-0.992559, 177, 1, 240, 32
-0.992572, 305, 293, 368, 324
-0.992575, 249, 65, 312, 96
-0.992576, 97, 33, 128, 96
-0.992583, 345, 217, 375, 280
-0.992585, 241, 273, 368, 336
-0.992588, 233, 341, 296, 372
-0.992594, 33, 393, 96, 424
-0.992595, 145, 257, 208, 288
-0.992613, 257, 33, 320, 64
-0.992614, 281, 21, 344, 52
-0.992616, 113, 21, 176, 52
-0.992621, 113, 281, 176, 312
-0.992623, 9, 233, 40, 296
-0.992624, 177, 161, 240, 192
-0.992624, 249, 265, 312, 296
-0.99263, 113, 65, 176, 96
-0.99263, 217, 85, 280, 116
-0.992632, 297, 377, 360, 408
-0.992635, 193, 305, 256, 336
-0.992638, 265, 273, 296, 400
-0.9927, 229, 65, 260, 128
-0.992702, 113, 33, 240, 96
-0.992716, 65, 353, 96, 480
-0.992733, 117, 369, 148, 496
-0.992733, 305, 193, 368, 448
-0.992735, 193, 241, 320, 304
-0.992749, 253, 297, 284, 360
-0.992761, 25, 369, 88, 496
-0.992774, 165, 1, 196, 64
-0.992787, 121, 1, 184, 500
-0.992792, 81, 97, 144, 352
-0.99282, 145, 129, 176, 192
-0.992841, 129, 65, 160, 128
-0.992855, 229, 33, 260, 96
-0.992872, 217, 289, 248, 352
-0.99288, 333, 193, 364, 256
-0.992906, 97, 1, 224, 64
-0.992909, 261, 49, 292, 112
-0.992914, 133, 241, 164, 368
-0.992924, 145, 293, 176, 324
-0.992943, 49, 193, 176, 256
-0.992957, 81, 1, 144, 500
-0.99296, 217, 293, 248, 324
-0.992961, 49, 305, 80, 432
-0.992967, 149, 149, 180, 180
-0.992978, 237, 361, 268, 392
-0.992991, 149, 225, 180, 256
-0.992992, 97, 201, 128, 264
-0.992993, 217, 225, 248, 256
-0.992996, 17, 289, 144, 352
-0.993008, 257, 357, 288, 388
-0.993015, 77, 337, 108, 464
-0.993042, 285, 293, 316, 324
-0.99308, 253, 373, 284, 404
-0.993086, 261, 153, 292, 184
-0.993087, 153, 289, 184, 416
-0.993087, 253, 333, 284, 364
-0.993094, 97, 373, 128, 404
-0.993098, 149, 205, 180, 236
-0.993106, 45, 1, 76, 128
-0.993112, 329, 65, 360, 128
-0.993126, 205, 345, 236, 408
-0.993129, 185, 97, 248, 352
-0.993131, 265, 193, 296, 256
-0.993137, 281, 157, 312, 188
-0.993147, 165, 289, 196, 320
-0.99315, 217, 213, 248, 244
-0.993158, 161, 33, 192, 96
-0.993158, 161, 217, 192, 248
-0.993167, 161, 201, 192, 232
-0.993168, 161, 33, 192, 160
-0.993178, 281, 377, 312, 408
-0.993179, 129, 353, 160, 384
-0.993184, 129, 293, 160, 324
-0.993189, 9, 65, 40, 96
-0.993191, 81, 149, 112, 180
-0.9932, 141, 341, 172, 372
-0.9932, 149, 89, 180, 120
-0.993201, 161, 133, 192, 164
-0.993204, 285, 225, 316, 256
-0.993206, 81, 273, 112, 304
-0.993216, 9, 197, 40, 228
-0.993217, 149, 161, 180, 192
-0.993226, 161, 153, 192, 184
-0.99323, 149, 25, 180, 56
-0.993234, 97, 153, 128, 184
-0.993235, 45, 381, 76, 412
-0.993239, 301, 233, 332, 296
-0.993242, 265, 373, 296, 404
-0.993246, 229, 201, 260, 232
-0.993246, 29, 221, 60, 252
-0.993249, 345, 149, 375, 180
-0.993252, 61, 377, 92, 408
-0.993254, 93, 269, 124, 300
-0.993259, 261, 133, 292, 164
-0.993264, 253, 345, 284, 376
-0.99327, 29, 153, 60, 184
-0.993274, 165, 261, 196, 292
-0.993275, 169, 229, 200, 260
-0.993284, 109, 281, 140, 312
-0.993285, 213, 1, 244, 32
-0.993294, 73, 373, 104, 404
-0.993295, 249, 129, 280, 160
-0.993295, 29, 201, 60, 232
-0.993298, 97, 133, 128, 164
-0.993303, 241, 377, 272, 408
-0.993307, 177, 269, 208, 300
-0.993309, 149, 273, 180, 304
-0.993312, 261, 385, 292, 416
-0.993313, 109, 269, 140, 300
-0.993313, 277, 25, 308, 88
-0.993313, 197, 345, 228, 376
-0.993314, 253, 301, 284, 332
-0.993314, 129, 217, 160, 248
-0.993315, 177, 297, 208, 328
-0.993315, 129, 261, 160, 292
-0.993317, 213, 161, 244, 192
-0.993317, 93, 129, 124, 192
-0.993319, 77, 293, 108, 324
-0.99332, 149, 129, 180, 160
-0.993322, 265, 293, 296, 324
-0.993324, 229, 221, 260, 252
-0.993324, 97, 201, 128, 232
-0.993326, 233, 285, 264, 316
-0.993326, 281, 85, 312, 116
-0.993328, 9, 81, 40, 112
-0.993329, 241, 349, 272, 380
-0.99333, 141, 353, 172, 384
-0.993332, 109, 293, 140, 324
-0.993336, 9, 265, 40, 296
-0.993339, 77, 225, 108, 256
-0.99334, 117, 205, 148, 236
-0.99334, 109, 137, 140, 168
-0.99334, 249, 149, 280, 180
-0.993342, 29, 133, 60, 164
-0.993344, 149, 77, 180, 108
-0.993345, 49, 1, 80, 32
-0.993347, 97, 221, 128, 252
-0.993348, 9, 1, 40, 32
-0.99335, 81, 93, 112, 124
-0.993353, 129, 281, 160, 312
-0.993353, 85, 373, 116, 404
-0.993356, 181, 1, 212, 32
-0.993358, 197, 293, 228, 324
-0.993358, 345, 1, 375, 32
-0.993368, 233, 269, 264, 300
-0.993368, 117, 373, 148, 404
-0.993368, 177, 205, 208, 236
-0.993368, 197, 221, 228, 252
-0.993374, 297, 153, 328, 184
-0.993376, 93, 289, 124, 320
-0.993378, 149, 65, 180, 96
-0.99338, 9, 221, 40, 252
-0.993381, 45, 265, 76, 296
-0.993381, 161, 69, 192, 100
-0.993381, 129, 229, 160, 260
-0.993382, 81, 241, 208, 304
-0.993382, 185, 349, 216, 380
-0.993385, 245, 1, 276, 32
-0.993385, 61, 269, 92, 300
-0.993387, 165, 277, 196, 308
-0.993388, 81, 137, 112, 168
-0.993389, 113, 1, 144, 32
-0.99339, 217, 197, 248, 228
-0.99339, 317, 369, 348, 400
-0.993392, 313, 1, 344, 32
-0.993393, 129, 153, 160, 184
-0.993394, 225, 1, 256, 64
-0.993395, 41, 201, 72, 232
-0.993396, 345, 161, 375, 192
-0.993396, 329, 1, 360, 64
-0.993396, 225, 17, 256, 48
-0.993398, 81, 197, 112, 228
-0.993399, 277, 1, 308, 32
-0.9934, 81, 161, 112, 192
-0.993404, 181, 233, 212, 264
-0.993404, 41, 137, 72, 168
-0.993405, 109, 149, 140, 180
-0.99341, 197, 153, 228, 184
-0.99341, 329, 153, 360, 184
-0.993411, 145, 37, 176, 68
-0.993412, 197, 333, 228, 364
-0.993413, 213, 149, 244, 180
-0.993414, 149, 193, 180, 224
-0.993415, 97, 301, 128, 332
-0.993417, 29, 269, 60, 300
-0.993417, 149, 237, 180, 268
-0.993417, 61, 397, 92, 428
-0.993418, 97, 69, 128, 100
-0.993442, 281, 289, 312, 352
-0.993445, 233, 273, 264, 400
-0.993447, 113, 17, 144, 144
-0.993449, 1, 49, 128, 112
-0.993451, 241, 217, 368, 280
-0.993468, 177, 193, 208, 256
-0.993481, 1, 225, 128, 288
-0.993497, 345, 129, 375, 192
-0.993499, 145, 33, 176, 160
-0.993526, 313, 289, 375, 416
-0.993533, 97, 345, 352, 408
-0.993571, 1, 193, 128, 256
-0.993587, 25, 257, 88, 500
-0.99359, 245, 17, 276, 144
-0.993601, 241, 305, 272, 368
-0.993612, 281, 89, 312, 152
-0.993634, 149, 241, 180, 304
-0.993634, 101, 321, 132, 448
-0.993669, 53, 353, 84, 416
-0.993726, 165, 273, 196, 400
-0.993734, 281, 137, 312, 200
-0.993749, 153, 257, 216, 500
-0.993771, 193, 289, 224, 416
-0.993783, 201, 313, 232, 376
-0.99379, 301, 193, 332, 320
-0.993827, 241, 305, 368, 368
-0.993942, 241, 249, 368, 312
-0.994007, 233, 193, 296, 448
-0.99407, 17, 393, 144, 456
-0.994209, 77, 17, 108, 144
-0.994214, 209, 369, 240, 496
-0.994263, 249, 1, 312, 256
-0.994266, 193, 401, 320, 464
-0.994273, 305, 321, 336, 448
-0.99433, 241, 97, 304, 352
-0.994357, 305, 369, 336, 496
-0.99453, 1, 97, 128, 160
-0.994545, 281, 97, 344, 352
-0.994617, 281, 1, 344, 256
-0.994728, 49, 97, 176, 160
-0.994818, 93, 369, 124, 496
-0.994824, 177, 241, 208, 368
-0.994841, 97, 273, 128, 400
-0.994845, 129, 369, 375, 432
-0.994957, 285, 209, 316, 336
-0.995024, 1, 129, 128, 192
-0.995044, 1, 369, 256, 432
-0.995079, 61, 273, 92, 400
-0.995098, 165, 321, 196, 448
-0.9951, 113, 225, 144, 352
-0.995116, 1, 193, 256, 256
-0.995124, 1, 361, 375, 424
-0.99516, 1, 161, 128, 224
-0.995171, 1, 265, 256, 328
-0.995174, 65, 25, 192, 88
-0.995207, 333, 193, 364, 320
-0.995258, 249, 209, 280, 336
-0.995329, 257, 369, 288, 496
-0.995453, 65, 129, 192, 192
-0.995473, 305, 97, 368, 352
-0.995598, 97, 233, 352, 296
-0.99566, 225, 377, 352, 408
-0.995738, 41, 1, 104, 256
-0.995745, 157, 217, 172, 280
-0.995847, 65, 153, 192, 216
-0.995884, 33, 313, 160, 376
-0.995904, 97, 265, 352, 328
-0.99593, 293, 217, 308, 280
-0.99596, 285, 1, 300, 64
-0.995965, 157, 1, 172, 64
-0.995981, 223, 1, 238, 64
-0.996001, 129, 65, 375, 128
-0.996025, 287, 217, 302, 280
-0.996025, 151, 217, 166, 280
-0.996027, 91, 1, 106, 64
-0.996067, 129, 293, 256, 324
-0.996138, 219, 217, 234, 280
-0.996154, 215, 1, 230, 64
-0.996206, 261, 329, 276, 392
-0.996208, 149, 1, 164, 64
-0.996226, 17, 25, 144, 88
-0.996269, 313, 353, 375, 480
-0.996277, 193, 149, 320, 180
-0.996281, 17, 373, 144, 404
-0.99636, 151, 265, 166, 328
-0.996365, 279, 1, 294, 64
-0.996393, 199, 337, 214, 400
-0.996393, 129, 225, 256, 256
-0.996396, 255, 369, 270, 432
-0.996417, 225, 217, 240, 280
-0.996422, 129, 1, 375, 64
-0.996478, 151, 193, 166, 256
-0.996481, 353, 217, 368, 280
-0.996487, 77, 369, 92, 432
-0.996491, 331, 361, 346, 424
-0.996506, 129, 277, 256, 308
-0.996537, 349, 1, 364, 64
-0.99654, 1, 193, 375, 256
-0.996544, 85, 1, 100, 64
-0.996587, 251, 329, 266, 392
-0.996611, 97, 289, 352, 352
-0.996647, 97, 201, 352, 264
-0.996662, 129, 265, 256, 296
-0.996719, 81, 65, 96, 128
-0.996743, 107, 369, 122, 432
-0.996771, 289, 369, 304, 432
-0.996783, 53, 1, 68, 64
-0.996799, 45, 369, 60, 432
-0.996828, 161, 361, 288, 392
-0.996834, 161, 265, 176, 328
-0.996866, 291, 1, 306, 64
-0.996873, 209, 161, 336, 192
-0.996874, 299, 369, 314, 432
-0.996883, 291, 265, 306, 328
-0.996885, 359, 217, 374, 280
-0.996888, 283, 369, 298, 432
-0.996933, 225, 57, 240, 120
-0.99694, 193, 337, 208, 400
-0.99695, 49, 265, 64, 328
-0.996954, 147, 65, 162, 128
-0.996964, 87, 65, 102, 128
-0.996968, 153, 65, 168, 128
-0.99701, 159, 65, 174, 128
-0.997017, 325, 361, 340, 424
-0.997027, 129, 213, 256, 244
-0.997038, 285, 65, 300, 128
-0.997047, 187, 1, 202, 64
-0.997049, 161, 289, 176, 352
-0.997054, 217, 265, 232, 328
-0.997061, 65, 373, 192, 404
-0.997064, 183, 225, 198, 288
-0.997064, 177, 297, 304, 328
-0.997068, 295, 193, 310, 256
-0.997076, 289, 193, 304, 256
-0.997089, 241, 365, 368, 396
-0.997095, 277, 361, 292, 424
-0.997103, 267, 337, 282, 400
-0.997112, 253, 1, 268, 64
-0.99712, 187, 49, 202, 112
-0.997124, 1, 129, 256, 192
-0.997132, 219, 65, 234, 128
-0.997134, 157, 193, 172, 256
-0.997147, 357, 73, 372, 136
-0.997154, 297, 265, 312, 328
-0.997163, 291, 65, 306, 128
-0.997187, 81, 361, 208, 392
-0.997208, 129, 197, 256, 228
-0.997218, 47, 1, 62, 64
-0.997221, 355, 1, 370, 64
-0.997227, 59, 1, 74, 64
-0.997231, 285, 265, 300, 328
-0.997232, 227, 265, 242, 328
-0.997239, 79, 265, 94, 328
-0.99724, 113, 377, 128, 440
-0.99724, 265, 361, 280, 424
-0.997244, 101, 369, 116, 432
-0.99725, 305, 361, 320, 424
-0.997252, 179, 1, 194, 64
-0.997261, 315, 1, 330, 64
-0.997261, 1, 273, 375, 336
-0.997265, 271, 361, 286, 424
-0.997271, 13, 193, 28, 256
-0.997276, 177, 373, 304, 404
-0.997278, 93, 65, 108, 128
-0.99728, 299, 345, 314, 408
-0.997283, 219, 193, 234, 256
-0.997291, 1, 337, 375, 400
-0.997291, 245, 1, 260, 64
-0.997292, 193, 205, 320, 236
-0.997303, 115, 1, 130, 64
-0.997325, 137, 337, 152, 400
-0.997341, 351, 65, 366, 128
-0.997348, 289, 345, 304, 408
-0.997348, 123, 1, 138, 64
-0.997372, 195, 265, 210, 328
-0.997378, 263, 265, 278, 328
-0.997387, 245, 353, 260, 416
-0.997393, 161, 161, 288, 192
-0.997408, 241, 393, 368, 424
-0.997412, 213, 65, 228, 128
-0.997416, 163, 225, 178, 288
-0.997418, 81, 297, 208, 328
-0.997421, 65, 321, 320, 384
-0.997422, 65, 401, 192, 464
-0.997422, 225, 25, 240, 88
-0.99743, 165, 65, 180, 128
-0.997448, 185, 201, 200, 264
-0.99745, 91, 361, 106, 424
-0.997469, 43, 265, 58, 328
-0.997469, 1, 233, 256, 296
-0.997471, 149, 289, 164, 352
-0.997477, 343, 1, 358, 64
-0.997479, 191, 225, 206, 288
-0.997482, 225, 349, 352, 380
-0.99749, 125, 345, 140, 408
-0.997491, 71, 369, 86, 432
-0.997492, 215, 25, 230, 88
-0.997496, 167, 193, 182, 256
-0.997501, 263, 297, 278, 360
-0.997516, 279, 65, 294, 128
-0.997517, 355, 193, 370, 256
-0.99752, 281, 25, 296, 88
-0.997527, 287, 129, 302, 192
-0.997529, 131, 345, 146, 408
-0.997545, 213, 217, 228, 280
-0.997548, 159, 89, 174, 152
-0.997548, 311, 361, 326, 424
-0.997548, 317, 361, 332, 424
-0.997551, 161, 129, 288, 160
-0.997572, 113, 1, 176, 256
-0.997577, 189, 249, 204, 312
-0.997587, 225, 129, 240, 192
-0.997589, 23, 57, 38, 120
-0.997597, 175, 201, 190, 264
-0.997605, 1, 49, 256, 112
-0.997609, 87, 265, 102, 328
-0.997609, 269, 265, 284, 328
-0.99761, 1, 345, 256, 408
-0.997612, 65, 229, 192, 260
-0.997613, 129, 129, 375, 192
-0.997615, 241, 133, 368, 164
-0.99762, 11, 257, 26, 320
-0.997624, 293, 137, 308, 200
-0.997634, 51, 369, 66, 432
-0.997641, 225, 241, 240, 304
-0.997645, 283, 345, 298, 408
-0.997652, 159, 129, 174, 192
-0.997656, 159, 25, 174, 88
-0.99766, 225, 89, 240, 152
-0.99766, 205, 345, 220, 408
-0.997661, 167, 265, 182, 328
-0.997669, 147, 33, 162, 96
-0.997671, 177, 285, 304, 316
-0.997675, 193, 57, 208, 120
-0.997675, 117, 345, 132, 408
-0.997685, 11, 233, 26, 296
-0.997685, 23, 265, 38, 328
-0.997731, 161, 333, 288, 364
-0.997731, 113, 153, 240, 184
-0.997743, 145, 409, 272, 472
-0.997743, 241, 409, 368, 472
-0.997767, 177, 93, 304, 124
-0.997783, 161, 345, 288, 376
-0.997795, 193, 217, 320, 248
-0.997824, 97, 33, 352, 96
-0.997847, 177, 229, 304, 260
-0.997868, 113, 341, 240, 372
-0.997898, 129, 305, 256, 336
-0.997939, 241, 97, 368, 128
-0.997946, 225, 85, 352, 116
-0.997957, 193, 393, 320, 424
-0.997973, 193, 193, 320, 224
-0.998011, 261, 333, 276, 364
-0.998028, 49, 285, 176, 316
-0.998047, 241, 29, 368, 60
-0.998052, 1, 129, 375, 192
-0.998054, 113, 93, 240, 124
-0.998056, 177, 269, 304, 300
-0.998067, 65, 153, 192, 184
-0.998073, 241, 145, 368, 176
-0.99808, 129, 237, 256, 268
-0.998098, 157, 225, 172, 256
-0.998117, 151, 293, 166, 324
-0.998118, 255, 353, 270, 384
-0.998121, 1, 229, 128, 260
-0.998121, 17, 297, 144, 328
-0.998142, 33, 393, 160, 424
-0.998151, 151, 225, 166, 256
-0.998159, 97, 153, 352, 216
-0.998173, 293, 225, 308, 256
-0.998183, 287, 225, 302, 256
-0.998185, 129, 253, 256, 284
-0.998189, 241, 293, 368, 324
-0.998193, 1, 385, 375, 448
-0.998202, 221, 293, 236, 324
-0.998207, 219, 225, 234, 256
-0.99823, 259, 373, 274, 404
-0.998234, 281, 193, 312, 448
-0.998241, 241, 217, 368, 248
-0.998258, 193, 29, 320, 60
-0.99826, 49, 217, 176, 248
-0.998273, 199, 337, 214, 368
-0.998278, 229, 293, 244, 324
-0.99828, 157, 149, 172, 180
-0.998283, 241, 73, 368, 104
-0.998287, 285, 157, 300, 188
-0.998291, 289, 293, 304, 324
-0.998309, 141, 353, 156, 384
-0.99832, 273, 375, 304, 390
-0.998321, 81, 133, 112, 148
-0.998321, 261, 145, 292, 160
-0.998321, 265, 197, 296, 212
-0.998323, 109, 201, 140, 216
-0.998323, 317, 267, 348, 282
-0.998323, 261, 1, 292, 16
-0.998323, 45, 305, 76, 320
-0.998323, 13, 229, 44, 244
-0.998324, 9, 269, 40, 284
-0.998324, 9, 299, 40, 314
-0.998325, 149, 21, 180, 36
-0.998325, 217, 219, 248, 234
-0.998325, 29, 229, 60, 244
-0.998325, 29, 199, 60, 214
-0.998326, 81, 21, 112, 36
-0.998326, 249, 133, 280, 148
-0.998326, 29, 163, 60, 178
-0.998327, 229, 3, 260, 18
-0.998327, 29, 213, 60, 228
-0.998327, 161, 143, 192, 158
-0.998328, 13, 133, 44, 148
-0.998328, 129, 195, 160, 210
-0.998328, 29, 133, 60, 148
-0.998328, 81, 199, 112, 214
-0.998329, 149, 233, 180, 248
-0.998329, 333, 297, 364, 312
-0.998329, 93, 281, 124, 296
-0.998329, 109, 135, 140, 150
-0.998329, 277, 31, 308, 46
-0.998329, 9, 87, 40, 102
-0.99833, 9, 95, 40, 110
-0.99833, 9, 81, 40, 96
-0.99833, 149, 133, 180, 148
-0.99833, 149, 211, 180, 226
-0.99833, 113, 329, 240, 360
-0.998331, 1, 225, 375, 288
-0.998332, 45, 67, 76, 82
-0.998332, 109, 287, 140, 302
-0.998332, 149, 85, 180, 100
-0.998332, 81, 281, 112, 296
-0.998333, 97, 67, 128, 82
-0.998334, 149, 1, 180, 16
-0.998334, 81, 29, 112, 44
-0.998334, 149, 151, 180, 166
-0.998334, 97, 217, 128, 232
-0.998335, 309, 3, 340, 18
-0.998335, 145, 99, 176, 114
-0.998335, 157, 333, 188, 348
-0.998336, 81, 67, 112, 82
-0.998336, 209, 67, 240, 82
-0.998336, 149, 305, 180, 320
-0.998336, 97, 299, 128, 314
-0.998336, 161, 207, 192, 222
-0.998337, 233, 267, 264, 282
-0.998337, 45, 377, 60, 408
-0.998337, 149, 161, 180, 416
-0.998338, 9, 199, 40, 214
-0.998338, 29, 69, 60, 84
-0.998338, 137, 357, 168, 372
-0.998339, 229, 201, 260, 216
-0.998339, 165, 297, 196, 312
-0.99834, 345, 31, 375, 46
-0.998341, 261, 153, 292, 168
-0.998341, 181, 1, 212, 16
-0.998341, 9, 29, 40, 44
-0.998341, 109, 301, 140, 316
-0.998342, 149, 269, 180, 284
-0.998342, 253, 347, 284, 362
-0.998342, 81, 273, 112, 288
-0.998342, 261, 163, 292, 178
-0.998343, 149, 287, 180, 302
-0.998344, 213, 21, 244, 36
-0.998344, 249, 199, 280, 214
-0.998344, 341, 3, 372, 18
-0.998345, 109, 67, 140, 82
-0.998345, 161, 69, 192, 84
-0.998345, 157, 273, 172, 304
-0.998346, 165, 229, 196, 244
-0.998346, 81, 261, 208, 292
-0.998346, 209, 61, 336, 92
-0.998347, 165, 267, 196, 282
-0.998347, 161, 135, 192, 150
-0.998347, 241, 333, 272, 348
-0.998348, 177, 201, 208, 216
-0.998348, 121, 355, 152, 370
-0.998349, 253, 337, 284, 352
-0.99835, 317, 199, 348, 214
-0.998351, 85, 371, 116, 386
-0.998351, 263, 357, 278, 388
-0.998352, 285, 199, 316, 214
-0.998352, 185, 357, 216, 372
-0.998352, 249, 267, 280, 282
-0.998353, 185, 271, 216, 286
-0.998353, 213, 161, 244, 176
-0.998353, 245, 67, 276, 82
-0.998355, 81, 219, 112, 234
-0.998356, 181, 67, 212, 82
-0.998356, 285, 267, 316, 282
-0.998357, 217, 297, 248, 312
-0.998359, 149, 67, 180, 82
-0.998359, 145, 29, 176, 44
-0.998359, 109, 1, 140, 16
-0.998363, 149, 201, 180, 216
-0.998363, 261, 373, 292, 388
-0.998363, 81, 161, 112, 176
-0.998366, 81, 287, 112, 302
-0.998367, 281, 95, 312, 110
-0.998368, 345, 67, 375, 82
-0.998368, 161, 149, 192, 164
-0.998368, 281, 67, 312, 82
-0.998369, 161, 201, 192, 216
-0.998369, 345, 95, 375, 110
-0.99837, 217, 199, 248, 214
-0.99837, 129, 299, 160, 314
-0.998373, 77, 1, 108, 16
-0.998374, 81, 297, 112, 312
-0.998374, 313, 67, 344, 82
-0.998375, 45, 1, 76, 16
-0.998376, 149, 219, 180, 234
-0.998377, 213, 1, 244, 16
-0.99838, 209, 95, 240, 110
-0.99838, 81, 95, 112, 110
-0.998382, 345, 161, 375, 176
-0.998383, 161, 213, 192, 228
-0.998387, 9, 67, 40, 82
-0.998389, 9, 1, 40, 16
-0.99839, 149, 93, 180, 108
-0.998393, 213, 29, 244, 44
-0.998395, 81, 229, 112, 244
-0.998395, 285, 227, 316, 242
-0.998405, 281, 373, 296, 404
-0.998407, 133, 351, 164, 366
-0.998414, 201, 349, 216, 380
-0.998417, 285, 295, 316, 310
-0.998418, 249, 361, 264, 392
-0.998419, 225, 225, 240, 256
-0.99842, 281, 161, 312, 176
-0.998424, 149, 161, 180, 176
-0.998427, 295, 293, 310, 324
-0.998427, 149, 297, 180, 312
-0.998429, 157, 293, 172, 324
-0.998429, 251, 333, 266, 364
-0.998431, 293, 149, 308, 180
-0.998435, 217, 229, 248, 244
-0.998435, 33, 361, 160, 392
-0.998446, 217, 161, 232, 192
-0.998447, 223, 161, 238, 192
-0.998452, 149, 227, 180, 242
-0.998458, 1, 161, 128, 192
-0.998461, 113, 165, 240, 196
-0.998466, 145, 341, 160, 372
-0.99847, 129, 81, 256, 112
-0.998477, 135, 349, 150, 380
-0.998481, 353, 225, 368, 256
-0.998481, 217, 193, 248, 448
-0.998486, 77, 373, 92, 404
-0.998488, 285, 25, 300, 56
-0.99849, 149, 149, 164, 180
-0.99849, 165, 193, 196, 448
-0.998491, 97, 89, 352, 152
-0.998492, 225, 273, 240, 304
-0.998492, 89, 157, 104, 188
-0.998494, 49, 97, 176, 128
-0.998504, 151, 205, 166, 236
-0.99851, 285, 93, 300, 124
-0.998512, 331, 369, 346, 400
-0.998515, 287, 205, 302, 236
-0.998515, 269, 373, 284, 404
-0.99852, 253, 373, 268, 404
-0.99852, 151, 341, 166, 372
-0.998523, 103, 373, 118, 404
-0.998536, 163, 293, 178, 324
-0.998536, 159, 161, 174, 192
-0.998538, 85, 73, 100, 104
-0.998542, 351, 161, 366, 192
-0.99855, 81, 385, 208, 416
-0.998556, 295, 213, 310, 244
-0.998557, 191, 297, 206, 328
-0.998558, 359, 149, 374, 180
-0.998564, 1, 25, 256, 88
-0.998566, 219, 205, 234, 236
-0.998569, 209, 1, 272, 256
-0.998569, 249, 375, 312, 390
-0.99857, 81, 397, 208, 428
-0.998575, 73, 375, 136, 390
-0.998576, 45, 161, 76, 416
-0.998579, 145, 231, 208, 246
-0.998581, 289, 377, 304, 408
-0.998584, 49, 299, 112, 314
-0.998584, 155, 25, 170, 56
-0.998587, 217, 149, 232, 180
-0.998587, 83, 149, 98, 180
-0.998588, 195, 269, 210, 300
-0.998592, 89, 225, 104, 256
-0.998595, 185, 229, 248, 244
-0.998597, 177, 199, 240, 214
-0.998599, 1, 297, 256, 360
-0.998599, 263, 345, 278, 376
-0.9986, 113, 373, 240, 404
-0.998603, 357, 85, 372, 116
-0.998604, 81, 229, 96, 260
-0.998606, 355, 293, 370, 324
-0.998607, 89, 93, 104, 124
-0.99861, 81, 89, 96, 120
-0.998611, 109, 377, 124, 408
-0.998611, 275, 373, 290, 404
-0.998612, 83, 293, 98, 324
-0.998614, 273, 297, 336, 312
-0.998614, 49, 213, 112, 228
-0.998616, 145, 199, 208, 214
-0.998618, 145, 1, 208, 16
-0.998618, 9, 1, 72, 16
-0.998619, 49, 229, 112, 244
-0.998619, 33, 383, 96, 398
-0.998619, 177, 267, 240, 282
-0.998619, 145, 97, 208, 112
-0.998619, 9, 67, 72, 82
-0.99862, 113, 1, 176, 16
-0.99862, 49, 163, 112, 178
-0.998621, 209, 67, 272, 82
-0.998621, 281, 229, 344, 244
-0.998621, 249, 31, 312, 46
-0.998622, 41, 199, 104, 214
-0.998625, 249, 95, 312, 110
-0.998625, 73, 1, 136, 16
-0.998625, 259, 297, 274, 328
-0.998626, 313, 199, 375, 214
-0.998626, 89, 29, 104, 60
-0.998626, 49, 1, 112, 16
-0.998627, 137, 69, 200, 84
-0.998627, 241, 67, 304, 82
-0.998628, 291, 161, 306, 192
-0.998629, 241, 1, 304, 16
-0.998629, 41, 133, 104, 148
-0.998629, 81, 287, 144, 302
-0.998629, 291, 85, 306, 116
-0.99863, 145, 213, 208, 228
-0.998631, 17, 201, 80, 216
-0.998632, 113, 67, 176, 82
-0.998633, 113, 103, 176, 118
-0.998635, 281, 199, 344, 214
-0.998635, 177, 67, 240, 82
-0.998636, 217, 199, 280, 214
-0.998636, 17, 305, 80, 320
-0.998636, 137, 103, 200, 118
-0.998636, 29, 129, 60, 384
-0.998637, 49, 287, 112, 302
-0.998637, 313, 67, 375, 82
-0.998637, 209, 1, 272, 16
-0.998637, 1, 299, 64, 314
-0.998638, 113, 201, 176, 216
-0.998639, 209, 31, 272, 46
-0.99864, 313, 3, 375, 18
-0.998641, 281, 3, 344, 18
-0.998641, 159, 137, 174, 168
-0.998641, 217, 269, 280, 284
-0.998642, 281, 267, 344, 282
-0.998642, 73, 297, 136, 312
-0.998642, 145, 219, 208, 234
-0.998642, 113, 125, 240, 156
-0.998642, 73, 229, 136, 244
-0.998643, 113, 169, 176, 184
-0.998644, 149, 161, 164, 192
-0.998644, 273, 95, 336, 110
-0.998645, 49, 281, 112, 296
-0.998645, 49, 273, 176, 304
-0.998645, 49, 67, 112, 82
-0.998646, 185, 1, 248, 16
-0.998646, 17, 229, 80, 244
-0.998646, 45, 269, 60, 300
-0.998646, 9, 163, 72, 178
-0.998646, 273, 67, 336, 82
-0.998647, 209, 229, 272, 244
-0.998647, 145, 267, 208, 282
-0.998648, 185, 97, 248, 112
-0.998648, 257, 267, 320, 282
-0.998649, 81, 219, 144, 234
-0.99865, 293, 273, 308, 304
-0.99865, 257, 229, 320, 244
-0.99865, 161, 93, 176, 124
-0.998651, 177, 81, 304, 112
-0.998651, 81, 67, 144, 82
-0.998651, 209, 133, 272, 148
-0.998651, 257, 1, 272, 32
-0.998652, 209, 21, 272, 36
-0.998653, 153, 63, 216, 78
-0.998653, 9, 133, 72, 148
-0.998653, 49, 21, 112, 36
-0.998653, 289, 137, 304, 168
-0.998654, 249, 199, 312, 214
-0.998654, 49, 219, 112, 234
-0.998654, 41, 267, 104, 282
-0.998654, 81, 281, 144, 296
-0.998655, 185, 213, 248, 228
-0.998656, 49, 97, 112, 112
-0.998657, 145, 225, 208, 240
-0.998657, 17, 269, 80, 284
-0.998657, 145, 299, 208, 314
-0.998658, 185, 161, 248, 176
-0.998659, 177, 151, 240, 166
-0.998659, 145, 31, 208, 46
-0.998659, 81, 213, 144, 228
-0.99866, 113, 37, 176, 52
-0.99866, 113, 133, 176, 148
-0.998662, 185, 223, 248, 238
-0.998662, 145, 357, 208, 372
-0.998662, 145, 21, 208, 36
-0.998663, 217, 145, 280, 160
-0.998663, 209, 161, 272, 176
-0.998664, 153, 131, 216, 146
-0.998664, 221, 29, 236, 60
-0.998665, 283, 81, 298, 112
-0.998665, 73, 97, 136, 112
-0.998667, 73, 163, 136, 178
-0.998667, 9, 217, 72, 232
-0.998667, 249, 151, 312, 166
-0.998667, 113, 195, 176, 210
-0.998667, 225, 149, 240, 180
-0.998668, 145, 163, 208, 178
-0.998668, 89, 305, 152, 320
-0.998669, 81, 201, 144, 216
-0.99867, 257, 393, 320, 408
-0.998671, 177, 145, 240, 160
-0.998671, 121, 299, 184, 314
-0.998671, 145, 169, 208, 184
-0.998671, 297, 303, 360, 318
-0.998672, 241, 21, 304, 36
-0.998673, 113, 219, 176, 234
-0.998673, 129, 351, 192, 366
-0.998675, 177, 131, 240, 146
-0.998675, 41, 305, 104, 320
-0.998675, 209, 97, 272, 112
-0.998675, 265, 193, 296, 448
-0.998675, 49, 293, 112, 308
-0.998675, 359, 129, 374, 160
-0.998675, 81, 133, 144, 148
-0.998675, 93, 193, 124, 448
-0.998676, 249, 295, 312, 310
-0.998676, 49, 31, 112, 46
-0.998676, 249, 133, 312, 148
-0.998677, 209, 151, 272, 166
-0.998677, 147, 25, 162, 56
-0.998677, 281, 235, 344, 250
-0.998678, 81, 21, 144, 36
-0.998678, 249, 161, 312, 176
-0.998678, 289, 381, 352, 396
-0.998679, 145, 193, 208, 208
-0.998679, 113, 287, 176, 302
-0.998679, 145, 285, 208, 300
-0.998679, 185, 299, 248, 314
-0.998679, 241, 7, 304, 22
-0.99868, 113, 267, 176, 282
-0.99868, 89, 145, 104, 176
-0.99868, 65, 85, 192, 116
-0.998681, 113, 21, 176, 36
-0.998684, 51, 137, 66, 168
-0.998688, 151, 273, 166, 304
-0.998689, 13, 221, 28, 252
-0.998689, 355, 21, 370, 52
-0.998691, 129, 185, 256, 216
-0.998691, 191, 1, 206, 32
-0.998692, 195, 285, 210, 316
-0.998695, 1, 217, 128, 248
-0.998695, 81, 161, 112, 416
-0.9987, 355, 1, 370, 32
-0.998704, 181, 201, 196, 232
-0.998706, 113, 193, 144, 448
-0.998706, 271, 353, 286, 384
-0.998706, 161, 29, 176, 60
-0.998708, 185, 297, 200, 328
-0.998709, 225, 81, 240, 112
-0.99871, 157, 205, 172, 236
-0.998714, 161, 321, 288, 352
-0.998715, 151, 85, 166, 116
-0.998718, 159, 73, 174, 104
-0.998723, 83, 161, 98, 192
-0.998723, 359, 225, 374, 256
-0.998725, 17, 73, 144, 104
-0.998728, 163, 225, 178, 256
-0.998729, 349, 89, 364, 120
-0.99873, 13, 153, 28, 184
-0.998733, 225, 405, 352, 436
-0.998736, 71, 381, 86, 412
-0.998741, 145, 397, 272, 428
-0.998743, 23, 149, 38, 180
-0.998746, 215, 25, 230, 56
-0.998746, 83, 265, 98, 296
-0.998748, 91, 293, 106, 324
-0.998749, 147, 9, 162, 40
-0.99875, 177, 193, 208, 448
-0.998752, 159, 1, 174, 32
-0.998759, 313, 1, 328, 32
-0.998759, 181, 229, 196, 260
-0.99876, 197, 297, 212, 328
-0.998761, 151, 73, 166, 104
-0.998762, 279, 29, 294, 60
-0.998765, 357, 205, 372, 236
-0.998767, 323, 1, 338, 32
-0.998768, 163, 281, 178, 312
-0.998769, 65, 393, 80, 424
-0.998774, 193, 133, 208, 164
-0.998776, 17, 205, 144, 236
-0.998777, 191, 325, 206, 356
-0.998778, 291, 21, 306, 52
-0.998779, 1, 21, 128, 52
-0.99878, 251, 297, 266, 328
-0.998783, 351, 149, 366, 180
-0.998785, 175, 221, 190, 252
-0.998785, 349, 29, 364, 60
-0.998788, 17, 145, 144, 176
-0.998789, 83, 373, 98, 404
-0.998791, 11, 265, 26, 296
-0.998811, 9, 129, 40, 384
-0.998816, 129, 141, 256, 172
-0.998826, 241, 193, 368, 224
-0.998855, 81, 309, 208, 340
-0.998858, 129, 69, 256, 100
-0.998859, 193, 173, 320, 204
-0.998864, 345, 193, 375, 448
-0.998884, 33, 1, 288, 64
-0.998886, 233, 193, 264, 448
-0.99889, 33, 261, 160, 292
-0.998897, 81, 257, 112, 500
-0.998907, 33, 1, 160, 32
-0.998926, 61, 129, 92, 384
-0.998928, 137, 193, 168, 448
-0.99893, 1, 73, 256, 136
-0.998931, 49, 349, 176, 380
-0.998942, 81, 185, 208, 216
-0.998943, 225, 121, 352, 152
-0.998945, 241, 229, 368, 260
-0.998947, 177, 1, 240, 256
-0.998951, 65, 21, 192, 52
-0.998954, 9, 1, 40, 256
-0.998974, 65, 33, 192, 64
-0.998983, 49, 165, 176, 196
-0.998986, 333, 193, 364, 448
-0.999009, 1, 93, 128, 124
-0.999018, 113, 33, 240, 64
-0.999023, 177, 309, 304, 340
-0.999036, 241, 17, 368, 48
-0.999044, 145, 21, 272, 52
-0.999049, 197, 193, 228, 448
-0.999052, 1, 393, 256, 456
-0.999055, 193, 17, 320, 48
-0.999057, 97, 393, 352, 456
-0.999067, 1, 281, 128, 312
-0.999069, 249, 225, 280, 480
-0.99907, 1, 405, 128, 436
-0.999072, 1, 249, 375, 312
-0.999078, 1, 193, 128, 224
-0.99909, 241, 1, 368, 32
-0.999094, 65, 125, 192, 156
-0.999104, 301, 129, 332, 384
-0.999105, 123, 129, 138, 256
-0.999119, 249, 321, 264, 448
-0.99912, 97, 1, 224, 32
-0.999127, 49, 409, 176, 440
-0.999132, 177, 1, 304, 32
-0.999146, 47, 129, 62, 256
-0.999157, 257, 337, 272, 464
-0.999173, 157, 65, 188, 320
-0.99918, 241, 261, 368, 292
-0.999186, 241, 205, 368, 236
-0.999197, 55, 145, 70, 272
-0.999206, 291, 81, 306, 208
-0.999209, 263, 321, 278, 448
-0.999212, 117, 129, 132, 256
-0.999215, 145, 385, 272, 416
-0.999217, 357, 81, 372, 208
-0.999218, 185, 161, 200, 288
-0.999223, 177, 257, 304, 288
-0.999234, 69, 225, 100, 480
-0.999244, 161, 117, 288, 148
-0.999246, 217, 65, 232, 192
-0.999254, 65, 61, 192, 92
-0.999264, 225, 81, 240, 208
-0.99927, 225, 313, 352, 344
-0.999274, 123, 81, 138, 208
-0.999274, 97, 97, 128, 352
-0.999276, 125, 129, 156, 384
-0.999276, 161, 409, 288, 440
-0.999281, 23, 49, 38, 176
-0.99929, 193, 129, 208, 256
-0.999292, 41, 257, 72, 500
-0.999293, 15, 49, 30, 176
-0.999295, 351, 113, 366, 240
-0.999295, 113, 53, 240, 84
-0.999317, 113, 409, 240, 440
-0.99932, 17, 61, 144, 92
-0.999323, 1, 65, 375, 128
-0.999326, 65, 201, 192, 232
-0.999327, 17, 33, 144, 64
-0.999329, 209, 337, 336, 368
-0.999331, 189, 81, 204, 208
-0.999332, 293, 129, 308, 256
-0.999332, 349, 65, 364, 192
-0.999341, 257, 81, 272, 208
-0.999341, 65, 141, 192, 172
-0.999342, 283, 81, 298, 208
-0.999343, 243, 337, 258, 464
-0.999346, 13, 225, 44, 480
-0.999346, 143, 289, 158, 416
-0.999351, 259, 129, 274, 256
-0.999352, 217, 113, 232, 240
-0.999354, 81, 249, 208, 280
-0.999355, 117, 81, 132, 208
-0.999358, 17, 129, 144, 160
-0.999359, 109, 369, 124, 496
-0.999362, 159, 145, 174, 272
-0.999364, 289, 225, 304, 352
-0.999369, 199, 289, 214, 416
-0.99937, 281, 321, 296, 448
-0.999372, 151, 209, 166, 336
-0.999372, 263, 273, 278, 400
-0.999376, 81, 65, 96, 192
-0.99938, 183, 113, 198, 240
-0.999382, 325, 81, 340, 208
-0.999384, 159, 65, 174, 192
-0.999387, 209, 321, 224, 448
-0.999391, 237, 321, 252, 448
-0.999393, 65, 73, 192, 104
-0.999394, 53, 257, 84, 500
-0.999394, 191, 209, 206, 336
-0.999396, 361, 145, 375, 272
-0.999398, 241, 281, 368, 312
-0.999401, 213, 97, 244, 352
-0.999402, 97, 177, 352, 240
-0.999407, 281, 17, 296, 144
-0.999409, 289, 17, 304, 144
-0.999409, 49, 209, 64, 336
-0.99941, 285, 145, 300, 272
-0.999414, 251, 113, 266, 240
-0.999416, 355, 17, 370, 144
-0.999417, 291, 369, 306, 496
-0.999419, 149, 289, 164, 416
-0.99942, 201, 337, 216, 464
-0.999421, 137, 321, 152, 448
-0.999422, 91, 81, 106, 208
-0.999422, 247, 273, 262, 400
-0.999423, 123, 177, 138, 304
-0.999425, 113, 321, 128, 448
-0.999427, 231, 321, 246, 448
-0.999428, 185, 209, 200, 336
-0.99943, 249, 65, 264, 192
-0.99943, 227, 145, 242, 272
-0.999431, 15, 1, 30, 128
-0.999435, 147, 337, 162, 464
-0.999435, 181, 65, 196, 192
-0.999435, 51, 81, 66, 208
-0.999436, 347, 17, 362, 144
-0.999438, 229, 273, 244, 400
-0.999439, 161, 53, 288, 84
-0.999442, 177, 193, 192, 320
-0.999444, 107, 321, 122, 448
-0.999448, 317, 81, 332, 208
-0.999448, 295, 225, 310, 352
-0.999451, 57, 81, 72, 208
-0.999451, 147, 65, 162, 192
-0.999454, 161, 209, 176, 336
-0.999456, 113, 113, 240, 144
-0.999462, 251, 369, 266, 496
-0.999467, 317, 225, 348, 480
-0.999468, 81, 161, 96, 288
-0.999471, 251, 161, 266, 288
-0.999472, 101, 321, 116, 448
-0.999476, 219, 321, 234, 448
-0.999476, 149, 257, 180, 500
-0.999477, 21, 1, 36, 128
-0.999481, 269, 273, 284, 400
-0.999484, 13, 225, 28, 352
-0.999486, 221, 241, 236, 368
-0.999488, 129, 129, 144, 256
-0.999489, 257, 17, 272, 144
-0.999489, 17, 309, 144, 340
-0.99949, 119, 321, 134, 448
-0.999491, 211, 273, 226, 400
-0.999491, 61, 129, 76, 256
-0.999491, 193, 105, 320, 136
-0.999493, 191, 337, 206, 464
-0.999494, 225, 321, 240, 448
-0.999496, 277, 81, 292, 208
-0.999496, 293, 257, 324, 500
-0.999498, 175, 145, 190, 272
-0.999498, 293, 321, 308, 448
-0.999498, 83, 225, 98, 352
-0.999498, 29, 225, 60, 480
-0.999502, 299, 273, 314, 400
-0.999502, 257, 289, 272, 416
-0.999503, 323, 17, 338, 144
-0.999504, 115, 177, 130, 304
-0.999504, 327, 129, 342, 256
-0.999505, 55, 209, 70, 336
-0.999505, 311, 321, 326, 448
-0.999507, 131, 321, 146, 448
-0.999512, 169, 113, 184, 240
-0.999513, 149, 145, 164, 272
-0.999514, 115, 369, 130, 496
-0.999516, 355, 225, 370, 352
-0.999523, 13, 145, 28, 272
-0.999524, 159, 67, 174, 82
-0.999524, 91, 95, 106, 110
-0.999525, 23, 97, 38, 224
-0.999525, 89, 29, 104, 44
-0.999526, 137, 361, 152, 376
-0.999526, 323, 3, 338, 18
-0.999527, 25, 133, 40, 148
-0.999527, 223, 33, 238, 160
-0.999527, 203, 333, 218, 348
-0.999527, 283, 375, 298, 390
-0.999527, 215, 17, 230, 144
-0.999527, 271, 337, 286, 464
-0.999527, 117, 377, 132, 392
-0.999527, 287, 29, 302, 44
-0.999528, 195, 285, 210, 300
-0.999528, 13, 97, 28, 224
-0.999528, 143, 353, 158, 368
-0.999528, 345, 3, 360, 18
-0.999528, 81, 133, 96, 148
-0.999528, 55, 199, 70, 214
-0.999529, 291, 95, 306, 110
-0.999529, 147, 1, 162, 16
-0.999529, 105, 377, 120, 392
-0.999529, 249, 1, 264, 16
-0.999529, 123, 199, 138, 214
-0.999529, 329, 209, 344, 336
-0.999529, 25, 1, 40, 16
-0.999529, 123, 67, 138, 82
-0.999529, 199, 343, 214, 358
-0.99953, 123, 1, 138, 16
-0.99953, 161, 287, 176, 302
-0.99953, 259, 67, 274, 82
-0.99953, 215, 1, 230, 16
-0.99953, 357, 161, 372, 176
-0.99953, 83, 161, 98, 176
-0.99953, 283, 273, 298, 400
-0.99953, 213, 21, 228, 36
-0.999531, 355, 3, 370, 18
-0.999531, 93, 19, 108, 34
-0.999531, 161, 201, 176, 216
-0.999531, 255, 267, 270, 282
-0.999532, 347, 67, 362, 82
-0.999532, 151, 219, 166, 234
-0.999532, 191, 1, 206, 16
-0.999532, 355, 29, 370, 44
-0.999533, 51, 67, 66, 82
-0.999533, 47, 133, 62, 148
-0.999534, 47, 373, 62, 388
-0.999534, 229, 267, 244, 282
-0.999534, 233, 65, 264, 320
-0.999534, 297, 267, 312, 282
-0.999534, 217, 65, 232, 80
-0.999535, 293, 151, 308, 166
-0.999535, 287, 295, 302, 310
-0.999535, 147, 1, 162, 128
-0.999535, 81, 19, 96, 34
-0.999536, 229, 295, 244, 310
-0.999536, 225, 95, 240, 110
-0.999536, 211, 81, 226, 208
-0.999537, 89, 67, 104, 82
-0.999537, 145, 209, 160, 336
-0.999537, 357, 67, 372, 82
-0.999537, 225, 229, 240, 244
-0.999537, 321, 199, 336, 214
-0.999537, 289, 1, 304, 16
-0.999538, 191, 357, 206, 372
-0.999539, 217, 199, 232, 214
-0.999539, 329, 97, 360, 352
-0.999539, 249, 67, 264, 82
-0.999539, 281, 67, 296, 82
-0.999539, 255, 355, 270, 370
-0.99954, 163, 273, 178, 400
-0.99954, 287, 199, 302, 214
-0.999541, 221, 21, 236, 36
-0.999541, 227, 199, 242, 214
-0.999542, 329, 199, 344, 214
-0.999542, 263, 345, 278, 360
-0.999542, 155, 29, 170, 44
-0.999542, 15, 1, 30, 16
-0.999543, 199, 355, 214, 370
-0.999543, 255, 327, 270, 342
-0.999543, 193, 199, 208, 214
-0.999543, 361, 199, 375, 214
-0.999543, 153, 337, 168, 464
-0.999543, 351, 161, 366, 176
-0.999543, 43, 273, 58, 400
-0.999543, 249, 331, 264, 346
-0.999543, 161, 271, 176, 286
-0.999544, 115, 67, 130, 82
-0.999544, 163, 295, 178, 310
-0.999544, 81, 1, 96, 16
-0.999544, 301, 321, 316, 448
-0.999545, 263, 267, 278, 282
-0.999545, 257, 1, 272, 16
-0.999545, 191, 267, 206, 282
-0.999545, 89, 229, 104, 244
-0.999545, 325, 67, 340, 82
-0.999546, 217, 95, 232, 110
-0.999546, 353, 227, 368, 242
-0.999546, 147, 19, 162, 34
-0.999546, 81, 67, 96, 82
-0.999546, 125, 321, 140, 448
-0.999547, 253, 347, 268, 362
-0.999548, 157, 295, 172, 310
-0.999548, 223, 151, 238, 166
-0.999548, 83, 297, 98, 312
-0.999548, 71, 369, 86, 496
-0.999549, 315, 67, 330, 82
-0.999549, 83, 229, 98, 244
-0.999549, 185, 199, 200, 214
-0.99955, 297, 295, 312, 310
-0.99955, 193, 241, 320, 272
-0.99955, 281, 31, 296, 46
-0.99955, 343, 81, 358, 208
-0.99955, 279, 145, 294, 272
-0.99955, 215, 29, 230, 44
-0.999551, 81, 113, 96, 240
-0.999551, 13, 133, 28, 148
-0.999551, 251, 337, 266, 352
-0.999551, 131, 355, 146, 370
-0.999551, 349, 31, 364, 46
-0.999552, 349, 95, 364, 110
-0.999552, 217, 161, 232, 176
-0.999552, 111, 129, 126, 256
-0.999553, 151, 229, 166, 244
-0.999553, 159, 21, 174, 36
-0.999553, 259, 375, 274, 390
-0.999554, 355, 95, 370, 110
-0.999554, 157, 95, 172, 110
-0.999555, 41, 129, 56, 256
-0.999556, 253, 199, 268, 214
-0.999556, 219, 229, 234, 244
-0.999556, 167, 193, 182, 320
-0.999557, 293, 159, 308, 174
-0.999558, 85, 95, 100, 110
-0.999562, 89, 297, 104, 312
-0.999562, 137, 369, 152, 496
-0.999562, 227, 225, 242, 352
-0.999563, 223, 161, 238, 176
-0.999563, 115, 1, 130, 16
-0.999565, 291, 67, 306, 82
-0.999565, 261, 199, 276, 214
-0.999566, 221, 29, 236, 44
-0.999566, 159, 227, 174, 242
-0.999568, 225, 67, 240, 82
-0.999569, 295, 199, 310, 214
-0.999572, 287, 227, 302, 242
-0.999574, 157, 161, 172, 176
-0.99958, 305, 257, 336, 500
-0.999582, 287, 161, 302, 176
-0.999584, 199, 349, 214, 364
-0.999587, 73, 1, 136, 256
-0.999588, 151, 161, 166, 176
-0.999588, 293, 227, 308, 242
-0.999592, 285, 95, 300, 110
-0.999597, 261, 339, 276, 354
-0.9996, 213, 1, 244, 256
-0.999601, 151, 295, 166, 310
-0.999608, 197, 65, 228, 320
-0.99964, 249, 129, 280, 384
-0.999643, 137, 353, 152, 368
-0.999648, 145, 33, 176, 288
-0.999649, 257, 333, 272, 348
-0.999704, 81, 65, 112, 320
-0.999726, 29, 33, 60, 288
-0.99973, 241, 325, 368, 356
-0.999754, 177, 97, 208, 352
-0.999772, 261, 97, 292, 352
-0.999773, 317, 129, 348, 384
-0.999776, 1, 1, 375, 64
-0.999789, 281, 97, 312, 352
-0.999793, 109, 1, 140, 256
-0.999805, 109, 97, 140, 352
-0.999815, 129, 33, 160, 288
-0.999887, 1, 225, 32, 480
-0.999909, 345, 97, 375, 352
-0.999949, 313, 1, 375, 256
-0.99995, 97, 1, 128, 256
-1.00003, 313, 33, 344, 288
-1.00003, 177, 1, 208, 256
-1.00008, 277, 1, 308, 256
-1.0001, 61, 1, 92, 256
-1.0001, 1, 297, 375, 360
-1.00012, 125, 257, 156, 500
-1.00018, 49, 1, 80, 256
-1.00018, 341, 1, 372, 256
-1.00023, 1, 169, 256, 232
-1.00024, 17, 417, 144, 480
-1.00029, 297, 33, 328, 288
-1.00031, 265, 1, 296, 256
-1.00032, 249, 33, 280, 288
-1.00053, 329, 1, 360, 256
-1.00066, 1, 97, 256, 160
-1.00081, 1, 321, 64, 448
-1.00102, 129, 417, 375, 480
-1.00106, 1, 417, 256, 480
-1.00118, 1, 25, 375, 88
-1.00155, 1, 169, 375, 232
-1.00167, 1, 89, 375, 152
-1.00209, 1, 409, 375, 472
-1.0023, 81, 425, 208, 488
-1.0025, 193, 425, 320, 488
-1.00259, 129, 433, 256, 496
-1.00279, 241, 433, 368, 496
-1.00286, 1, 369, 64, 496
-1.00393, 1, 433, 375, 496
-1.01041, 1, 1, 256, 256
