1863
-0.546949, 1, 1, 500, 333
-0.558816, 1, 1, 500, 256
-0.661828, 129, 1, 384, 333
-0.675847, 257, 1, 500, 333
-0.723149, 33, 1, 288, 333
-0.776554, 193, 1, 448, 256
-0.820382, 97, 1, 352, 256
-0.872313, 1, 1, 256, 256
-0.903392, 113, 1, 240, 333
-0.907659, 81, 33, 208, 288
-0.914496, 129, 65, 256, 320
-0.916432, 273, 1, 400, 256
-0.919432, 273, 1, 400, 333
-0.921498, 161, 1, 288, 333
-0.927515, 65, 1, 192, 333
-0.927595, 337, 1, 464, 333
-0.927601, 33, 1, 160, 256
-0.928012, 209, 1, 336, 256
-0.928135, 337, 1, 464, 256
-0.930496, 1, 1, 500, 128
-0.933224, 1, 97, 500, 224
-0.937016, 1, 49, 500, 176
-0.938411, 1, 1, 128, 333
-0.948416, 225, 1, 352, 333
-0.950013, 193, 129, 448, 256
-0.951941, 1, 145, 500, 272
-0.953804, 193, 49, 448, 176
-0.954993, 97, 1, 352, 128
-0.955592, 1, 193, 500, 320
-0.956915, 225, 193, 480, 320
-0.956946, 81, 33, 208, 160
-0.956955, 81, 81, 208, 208
-0.958499, 33, 161, 288, 288
-0.95902, 33, 81, 288, 208
-0.959894, 129, 209, 384, 333
-0.961171, 129, 81, 256, 208
-0.96297, 193, 1, 448, 128
-0.963909, 289, 209, 352, 333
-0.964159, 345, 1, 408, 128
-0.965069, 313, 209, 376, 333
-0.96517, 257, 113, 384, 240
-0.96613, 121, 49, 184, 176
-0.966169, 257, 209, 384, 333
-0.966575, 129, 33, 256, 160
-0.967609, 257, 177, 320, 304
-0.967744, 145, 65, 208, 192
-0.967779, 33, 49, 160, 176
-0.969524, 113, 1, 176, 128
-0.970301, 1, 1, 256, 128
-0.97034, 81, 129, 208, 256
-0.970352, 105, 97, 168, 224
-0.970826, 209, 161, 336, 288
-0.971026, 145, 1, 208, 128
-0.971137, 105, 73, 168, 136
-0.971616, 273, 257, 336, 320
-0.971978, 337, 65, 464, 192
-0.973019, 129, 161, 256, 288
-0.974044, 145, 1, 208, 64
-0.974426, 145, 65, 208, 128
-0.974652, 289, 161, 352, 288
-0.974682, 305, 193, 432, 320
-0.974769, 257, 33, 384, 160
-0.974914, 1, 113, 128, 240
-0.975274, 345, 129, 408, 256
-0.975729, 1, 1, 128, 128
-0.97609, 257, 185, 320, 248
-0.976424, 153, 113, 216, 240
-0.976507, 337, 1, 400, 64
-0.976607, 121, 97, 184, 160
-0.977094, 97, 49, 160, 176
-0.977155, 193, 193, 256, 320
-0.97742, 153, 193, 216, 320
-0.9775, 201, 249, 264, 312
-0.977553, 337, 129, 464, 256
-0.977568, 241, 249, 304, 312
-0.977751, 177, 1, 304, 128
-0.978153, 81, 73, 144, 136
-0.978202, 313, 257, 376, 320
-0.978247, 121, 49, 184, 112
-0.978307, 281, 193, 344, 256
-0.978604, 337, 1, 464, 128
-0.978621, 177, 113, 304, 240
-0.978857, 161, 249, 224, 312
-0.979079, 305, 33, 368, 160
-0.979212, 145, 209, 272, 333
-0.979292, 33, 161, 160, 288
-0.979401, 177, 113, 240, 240
-0.979849, 273, 217, 336, 280
-0.979927, 233, 273, 296, 333
-0.980015, 217, 209, 280, 333
-0.980298, 313, 217, 376, 280
-0.98035, 209, 209, 336, 333
-0.98056, 153, 97, 216, 160
-0.980642, 65, 81, 128, 208
-0.980718, 81, 65, 208, 128
-0.98091, 337, 177, 400, 304
-0.980994, 353, 81, 416, 208
-0.981213, 81, 193, 208, 320
-0.98147, 121, 241, 184, 304
-0.981481, 33, 209, 288, 333
-0.981491, 97, 97, 160, 160
-0.981581, 153, 137, 216, 200
-0.981668, 313, 113, 376, 240
-0.981731, 113, 25, 176, 88
-0.981743, 425, 177, 488, 304
-0.98189, 257, 129, 320, 256
-0.981921, 193, 49, 320, 176
-0.981977, 233, 177, 296, 240
-0.982184, 257, 161, 384, 288
-0.982216, 81, 89, 208, 152
-0.982231, 313, 161, 376, 288
-0.98225, 353, 177, 480, 304
-0.982259, 1, 209, 128, 333
-0.982552, 313, 177, 376, 240
-0.982648, 193, 33, 256, 160
-0.982895, 193, 273, 256, 333
-0.983095, 145, 41, 208, 104
-0.983151, 345, 153, 408, 216
-0.983155, 313, 129, 376, 192
-0.983236, 81, 1, 144, 128
-0.98335, 81, 41, 208, 104
-0.983473, 305, 49, 368, 112
-0.983547, 345, 193, 408, 256
-0.983571, 257, 137, 384, 200
-0.983593, 169, 65, 232, 192
-0.983655, 121, 1, 184, 64
-0.983724, 121, 161, 184, 288
-0.983845, 305, 193, 336, 320
-0.983887, 337, 25, 400, 88
-0.983933, 25, 129, 88, 192
-0.98412, 233, 1, 296, 128
-0.984144, 345, 73, 408, 136
-0.984233, 161, 249, 288, 312
-0.984239, 81, 137, 208, 200
-0.984251, 81, 129, 144, 256
-0.984251, 257, 185, 384, 248
-0.984308, 361, 49, 424, 112
-0.984316, 97, 193, 160, 320
-0.984476, 97, 249, 224, 312
-0.984585, 353, 1, 384, 128
-0.984588, 257, 161, 320, 224
-0.984648, 177, 17, 240, 80
-0.984676, 305, 25, 368, 88
-0.984694, 193, 137, 256, 200
-0.984771, 129, 65, 256, 128
-0.984791, 113, 1, 240, 64
-0.984853, 161, 153, 288, 216
-0.984924, 209, 201, 336, 264
-0.984994, 81, 49, 144, 112
-0.985046, 201, 129, 264, 256
-0.985065, 177, 113, 240, 176
-0.985086, 65, 177, 128, 304
-0.98509, 257, 257, 384, 320
-0.985165, 153, 1, 216, 256
-0.985179, 241, 209, 304, 272
-0.985198, 201, 225, 264, 288
-0.985319, 409, 49, 472, 112
-0.98535, 369, 257, 432, 320
-0.985354, 289, 185, 320, 248
-0.985458, 137, 265, 200, 328
-0.985543, 17, 81, 80, 208
-0.985554, 209, 257, 336, 320
-0.985739, 329, 65, 392, 192
-0.985833, 129, 89, 256, 152
-0.985881, 169, 1, 232, 128
-0.985915, 217, 17, 280, 80
-0.986021, 121, 1, 184, 256
-0.986122, 97, 233, 160, 296
-0.986127, 81, 161, 208, 224
-0.986127, 305, 209, 336, 272
-0.986254, 113, 113, 240, 176
-0.986272, 353, 1, 384, 64
-0.986318, 25, 129, 88, 256
-0.986389, 257, 49, 384, 112
-0.986402, 277, 257, 308, 320
-0.986453, 249, 25, 312, 88
-0.986551, 257, 161, 384, 224
-0.986562, 157, 81, 188, 144
-0.986574, 377, 113, 440, 240
-0.986636, 345, 273, 408, 333
-0.986639, 325, 241, 356, 304
-0.986679, 225, 129, 288, 256
-0.986684, 33, 33, 96, 160
-0.986796, 65, 113, 128, 176
-0.986814, 209, 177, 336, 240
-0.98684, 401, 49, 464, 176
-0.986905, 369, 209, 432, 333
-0.986962, 129, 33, 256, 96
-0.987099, 193, 25, 320, 88
-0.987161, 1, 49, 64, 112
-0.987188, 433, 33, 496, 160
-0.987256, 141, 81, 172, 144
-0.987463, 157, 1, 188, 128
-0.987482, 113, 137, 176, 200
-0.987532, 313, 105, 376, 168
-0.987536, 157, 1, 188, 64
-0.98755, 169, 73, 232, 136
-0.987579, 81, 137, 144, 200
-0.987585, 121, 169, 184, 232
-0.9876, 169, 273, 232, 333
-0.987618, 209, 129, 336, 192
-0.987681, 353, 153, 480, 216
-0.987708, 1, 57, 128, 120
-0.987735, 121, 73, 152, 136
-0.987736, 345, 97, 408, 160
-0.987776, 57, 129, 120, 256
-0.987825, 313, 153, 376, 216
-0.98788, 337, 9, 464, 72
-0.987894, 49, 113, 176, 176
-0.987961, 321, 73, 448, 136
-0.987996, 353, 129, 416, 192
-0.988048, 269, 193, 300, 256
-0.988182, 289, 1, 416, 64
-0.988193, 33, 81, 160, 144
-0.988197, 289, 105, 416, 168
-0.988262, 129, 225, 256, 288
-0.988361, 153, 161, 216, 224
-0.988372, 161, 129, 288, 192
-0.988457, 81, 201, 144, 264
-0.988522, 289, 257, 320, 320
-0.988561, 289, 177, 320, 304
-0.988638, 249, 265, 280, 328
-0.988657, 161, 273, 288, 333
-0.988721, 353, 65, 384, 128
-0.988732, 281, 41, 344, 104
-0.98875, 177, 225, 240, 288
-0.988753, 385, 201, 448, 264
-0.988763, 337, 33, 464, 96
-0.988775, 401, 25, 464, 88
-0.988881, 433, 129, 496, 256
-0.988932, 337, 217, 400, 280
-0.98898, 321, 265, 448, 328
-0.988985, 185, 161, 248, 224
-0.989007, 225, 153, 288, 216
-0.989017, 281, 33, 344, 160
-0.989065, 105, 73, 136, 136
-0.989078, 81, 161, 144, 224
-0.989088, 337, 185, 464, 248
-0.98909, 361, 145, 392, 208
-0.989107, 121, 209, 184, 333
-0.989121, 153, 49, 184, 176
-0.989267, 1, 121, 64, 184
-0.989295, 257, 25, 384, 88
-0.989308, 57, 1, 120, 128
-0.989313, 17, 193, 80, 320
-0.989326, 65, 9, 192, 72
-0.989395, 325, 209, 356, 333
-0.989444, 289, 217, 416, 280
-0.989542, 169, 1, 200, 64
-0.989544, 161, 177, 288, 240
-0.989565, 129, 113, 192, 240
-0.989567, 241, 97, 368, 160
-0.989592, 249, 1, 312, 64
-0.989603, 313, 1, 376, 64
-0.989649, 197, 249, 228, 312
-0.98965, 1, 97, 64, 160
-0.98973, 97, 33, 160, 288
-0.989746, 417, 185, 480, 248
-0.989792, 41, 57, 104, 120
-0.9898, 353, 241, 480, 304
-0.989877, 273, 169, 304, 232
-0.9899, 161, 1, 288, 64
-0.990002, 273, 17, 336, 80
-0.990003, 289, 113, 352, 240
-0.990014, 161, 97, 192, 224
-0.990068, 161, 105, 192, 168
-0.990077, 105, 265, 168, 328
-0.990097, 81, 225, 208, 288
-0.990148, 201, 81, 264, 208
-0.990233, 281, 65, 344, 320
-0.990234, 157, 57, 188, 120
-0.990234, 433, 33, 496, 96
-0.990248, 333, 217, 364, 280
-0.990311, 33, 145, 160, 208
-0.990316, 145, 1, 176, 128
-0.990319, 121, 1, 184, 333
-0.99035, 177, 225, 304, 288
-0.990373, 305, 1, 368, 256
-0.990379, 169, 81, 200, 144
-0.990405, 1, 33, 64, 160
-0.990457, 113, 273, 240, 333
-0.990474, 229, 193, 260, 320
-0.990503, 73, 225, 136, 288
-0.990508, 337, 209, 368, 333
-0.990528, 57, 137, 120, 200
-0.990594, 209, 249, 240, 312
-0.990618, 1, 121, 128, 184
-0.990628, 33, 33, 160, 96
-0.99066, 273, 205, 336, 236
-0.99068, 265, 193, 328, 224
-0.990692, 337, 129, 464, 192
-0.990712, 345, 1, 408, 256
-0.990738, 369, 1, 432, 64
-0.990839, 261, 169, 292, 232
-0.990843, 337, 209, 464, 272
-0.990903, 209, 153, 336, 216
-0.990927, 9, 257, 72, 320
-0.990945, 1, 9, 128, 72
-0.990951, 145, 9, 208, 40
-0.990977, 249, 49, 312, 112
-0.991013, 25, 25, 88, 88
-0.991031, 193, 265, 256, 296
-0.991042, 273, 261, 336, 292
-0.991054, 105, 77, 168, 108
-0.991085, 101, 17, 132, 144
-0.991127, 257, 129, 320, 192
-0.991199, 177, 41, 240, 104
-0.991216, 365, 1, 396, 128
-0.991226, 357, 65, 388, 192
-0.99125, 233, 269, 296, 300
-0.991258, 257, 49, 320, 176
-0.991292, 409, 241, 472, 304
-0.991303, 201, 105, 264, 168
-0.991357, 121, 97, 184, 128
-0.991362, 289, 129, 320, 256
-0.991436, 145, 97, 176, 224
-0.991442, 245, 161, 276, 224
-0.991449, 425, 9, 488, 72
-0.991518, 313, 273, 344, 333
-0.991586, 313, 265, 376, 296
-0.991604, 241, 201, 304, 232
-0.991634, 385, 177, 448, 240
-0.991639, 137, 81, 200, 112
-0.991647, 193, 1, 224, 64
-0.991651, 169, 253, 232, 284
-0.991659, 173, 249, 204, 312
-0.991661, 329, 217, 392, 248
-0.991676, 241, 33, 304, 288
-0.991687, 197, 193, 228, 320
-0.991693, 149, 105, 180, 168
-0.991698, 245, 209, 276, 333
-0.99171, 337, 105, 464, 168
-0.991712, 81, 257, 144, 320
-0.99172, 161, 1, 224, 333
-0.991723, 433, 81, 496, 208
-0.991724, 241, 185, 304, 216
-0.991724, 225, 233, 352, 296
-0.991744, 245, 233, 276, 296
-0.991748, 177, 1, 240, 256
-0.991749, 73, 17, 136, 80
-0.991757, 265, 181, 328, 212
-0.991777, 305, 233, 336, 296
-0.99178, 241, 173, 304, 204
-0.991785, 113, 65, 176, 96
-0.991791, 273, 273, 336, 304
-0.991831, 113, 1, 176, 32
-0.991834, 73, 65, 136, 320
-0.991838, 233, 257, 296, 288
-0.991843, 1, 225, 128, 288
-0.991861, 417, 1, 480, 256
-0.991872, 345, 1, 408, 32
-0.991873, 305, 197, 368, 228
-0.991897, 169, 1, 200, 128
-0.991897, 313, 1, 376, 333
-0.991911, 145, 21, 208, 52
-0.99192, 109, 49, 140, 112
-0.991954, 265, 177, 296, 304
-0.991961, 153, 101, 216, 132
-0.991961, 257, 41, 320, 72
-0.991968, 281, 169, 344, 232
-0.991979, 81, 77, 144, 108
-0.991999, 105, 209, 168, 272
-0.99201, 305, 37, 368, 68
-0.992049, 149, 249, 180, 312
-0.992055, 201, 193, 264, 256
-0.992083, 193, 253, 256, 284
-0.99209, 97, 93, 160, 124
-0.992092, 145, 61, 208, 92
-0.992148, 289, 249, 352, 280
-0.992156, 353, 205, 416, 236
-0.992164, 49, 249, 176, 312
-0.992171, 337, 57, 368, 120
-0.992177, 277, 177, 308, 304
-0.992182, 353, 145, 416, 176
-0.992182, 169, 269, 232, 300
-0.992188, 233, 285, 296, 316
-0.992188, 437, 57, 468, 120
-0.992213, 433, 265, 496, 328
-0.992231, 297, 209, 360, 240
-0.992245, 345, 73, 408, 104
-0.99225, 353, 157, 416, 188
-0.99225, 329, 145, 392, 176
-0.992252, 233, 249, 264, 312
-0.992257, 313, 61, 376, 92
-0.992268, 261, 257, 292, 320
-0.992278, 153, 113, 216, 144
-0.992291, 145, 49, 208, 80
-0.992297, 113, 49, 144, 176
-0.992312, 161, 153, 192, 216
-0.992323, 273, 217, 336, 248
-0.992335, 193, 277, 256, 308
-0.992338, 393, 1, 456, 256
-0.992345, 233, 129, 296, 192
-0.992367, 153, 133, 216, 164
-0.992373, 329, 277, 392, 308
-0.992382, 305, 49, 368, 80
-0.992401, 177, 21, 240, 52
-0.992403, 357, 129, 388, 256
-0.992409, 193, 113, 256, 144
-0.992411, 153, 157, 216, 188
-0.992416, 233, 29, 296, 60
-0.992417, 193, 81, 256, 144
-0.992436, 145, 253, 208, 284
-0.992447, 65, 125, 128, 156
-0.992449, 229, 273, 260, 333
-0.992458, 241, 1, 304, 333
-0.992463, 121, 169, 184, 200
-0.992465, 313, 249, 376, 280
-0.992479, 113, 53, 176, 84
-0.992505, 281, 45, 344, 76
-0.992557, 313, 133, 376, 164
-0.992562, 145, 37, 208, 68
-0.992565, 345, 37, 408, 68
-0.992567, 105, 145, 168, 176
-0.992574, 289, 237, 352, 268
-0.992577, 369, 25, 432, 88
-0.99259, 113, 29, 176, 60
-0.992596, 193, 105, 320, 168
-0.992604, 345, 97, 408, 128
-0.99261, 305, 185, 368, 216
-0.992618, 313, 237, 376, 268
-0.992619, 289, 217, 320, 280
-0.992624, 329, 49, 392, 112
-0.992624, 337, 265, 400, 296
-0.99263, 185, 193, 216, 320
-0.992631, 293, 193, 324, 224
-0.992634, 169, 89, 232, 120
-0.992634, 353, 177, 416, 208
-0.992645, 361, 273, 424, 304
-0.992645, 265, 285, 328, 316
-0.99265, 353, 125, 416, 156
-0.992652, 433, 81, 496, 144
-0.992657, 433, 37, 496, 68
-0.992664, 321, 5, 384, 36
-0.992666, 121, 249, 184, 280
-0.992666, 153, 145, 216, 176
-0.992669, 121, 181, 184, 212
-0.99267, 97, 1, 160, 64
-0.99267, 257, 249, 320, 280
-0.992674, 81, 173, 144, 204
-0.992676, 145, 265, 208, 296
-0.992686, 409, 45, 472, 76
-0.992693, 81, 157, 144, 188
-0.992695, 209, 21, 272, 52
-0.992702, 105, 157, 168, 188
-0.992711, 193, 289, 256, 320
-0.99272, 353, 189, 416, 220
-0.992723, 345, 85, 408, 116
-0.992729, 81, 109, 144, 140
-0.992736, 345, 17, 408, 48
-0.992739, 393, 189, 456, 220
-0.992741, 305, 145, 336, 272
-0.992744, 81, 61, 144, 92
-0.992744, 169, 281, 232, 312
-0.992747, 401, 97, 464, 224
-0.992749, 113, 41, 176, 72
-0.992753, 177, 49, 304, 112
-0.99276, 97, 249, 160, 280
-0.992763, 329, 49, 392, 80
-0.992765, 193, 9, 256, 40
-0.992765, 193, 101, 256, 132
-0.99277, 65, 141, 128, 172
-0.992777, 393, 177, 456, 304
-0.992783, 193, 157, 256, 188
-0.992783, 1, 1, 64, 256
-0.992783, 313, 121, 376, 152
-0.992791, 377, 121, 440, 184
-0.992796, 113, 13, 176, 44
-0.992799, 193, 141, 256, 172
-0.992801, 361, 57, 424, 88
-0.992805, 329, 157, 392, 188
-0.992805, 141, 49, 172, 176
-0.992807, 393, 213, 456, 244
-0.99281, 217, 205, 280, 236
-0.992814, 105, 133, 168, 164
-0.992816, 161, 185, 224, 248
-0.99282, 425, 49, 456, 112
-0.992822, 417, 65, 480, 96
-0.992833, 97, 189, 160, 220
-0.992837, 197, 273, 228, 333
-0.992837, 33, 153, 96, 216
-0.992852, 297, 277, 360, 308
-0.992854, 121, 109, 184, 140
-0.992857, 177, 33, 240, 64
-0.992862, 425, 209, 488, 272
-0.992865, 305, 205, 336, 236
-0.992877, 377, 201, 440, 232
-0.992882, 277, 33, 308, 96
-0.992883, 369, 261, 432, 292
-0.992884, 317, 217, 348, 280
-0.99289, 217, 153, 280, 184
-0.992895, 289, 289, 352, 320
-0.992896, 305, 21, 368, 52
-0.992898, 25, 129, 88, 160
-0.992899, 257, 125, 320, 156
-0.992902, 241, 213, 304, 244
-0.992926, 1, 69, 64, 100
-0.992929, 177, 301, 240, 332
-0.992932, 193, 189, 256, 220
-0.992936, 217, 177, 280, 208
-0.992941, 205, 145, 236, 272
-0.992952, 377, 145, 440, 176
-0.992971, 81, 233, 144, 264
-0.992991, 9, 117, 72, 148
-0.992992, 157, 1, 188, 32
-0.992997, 81, 221, 144, 252
-0.993003, 225, 81, 288, 208
-0.993007, 269, 201, 300, 232
-0.993007, 153, 169, 216, 200
-0.993007, 417, 201, 480, 232
-0.993021, 273, 189, 304, 220
-0.99304, 209, 193, 240, 320
-0.993046, 81, 193, 208, 256
-0.993056, 349, 1, 380, 32
-0.993091, 225, 41, 288, 104
-0.993118, 357, 77, 388, 108
-0.993121, 361, 145, 392, 176
-0.993121, 289, 205, 320, 236
-0.993144, 201, 1, 264, 333
-0.993147, 109, 77, 140, 108
-0.993161, 161, 101, 192, 132
-0.993167, 197, 269, 228, 300
-0.993176, 161, 249, 192, 312
-0.993176, 185, 265, 216, 328
-0.993189, 321, 261, 352, 292
-0.993189, 305, 161, 432, 224
-0.993196, 193, 17, 224, 48
-0.993204, 305, 261, 336, 292
-0.993208, 277, 261, 308, 292
-0.993216, 369, 65, 496, 128
-0.993217, 101, 25, 132, 88
-0.993219, 121, 77, 152, 108
-0.993223, 197, 253, 228, 284
-0.993224, 273, 177, 304, 208
-0.993228, 201, 33, 264, 288
-0.993236, 305, 217, 336, 248
-0.993238, 141, 85, 172, 116
-0.99324, 253, 269, 284, 300
-0.993246, 277, 273, 308, 304
-0.993263, 361, 157, 392, 188
-0.993269, 333, 217, 364, 248
-0.993284, 345, 265, 376, 296
-0.993284, 173, 65, 204, 192
-0.993294, 325, 229, 356, 260
-0.993297, 149, 97, 180, 128
-0.993299, 401, 1, 464, 128
-0.993302, 245, 253, 276, 284
-0.993305, 137, 97, 168, 128
-0.993306, 173, 89, 204, 120
-0.993308, 257, 193, 288, 224
-0.993314, 153, 81, 184, 112
-0.993322, 353, 65, 384, 96
-0.993322, 157, 13, 188, 44
-0.993325, 289, 257, 320, 288
-0.99333, 257, 25, 288, 88
-0.99333, 5, 249, 36, 312
-0.993332, 321, 273, 352, 304
-0.993334, 357, 265, 388, 296
-0.993335, 277, 37, 308, 68
-0.993337, 325, 241, 356, 272
-0.99334, 145, 1, 176, 32
-0.993341, 285, 181, 316, 212
-0.993342, 177, 253, 208, 284
-0.993348, 37, 113, 68, 240
-0.993357, 161, 157, 192, 188
-0.993357, 333, 265, 364, 296
-0.993359, 121, 177, 152, 208
-0.993361, 101, 81, 132, 208
-0.993362, 269, 285, 300, 316
-0.993363, 189, 33, 220, 160
-0.993366, 169, 9, 200, 40
-0.993369, 129, 201, 256, 264
-0.993371, 305, 193, 336, 224
-0.993372, 157, 69, 188, 100
-0.993377, 157, 177, 188, 208
-0.99338, 257, 29, 288, 60
-0.993381, 217, 253, 248, 284
-0.993387, 385, 221, 416, 252
-0.993387, 157, 33, 188, 96
-0.993393, 197, 289, 228, 320
-0.993394, 113, 241, 144, 304
-0.993394, 353, 257, 384, 320
-0.993396, 309, 273, 340, 304
-0.9934, 145, 57, 176, 120
-0.9934, 317, 205, 348, 236
-0.993401, 101, 25, 132, 56
-0.993403, 261, 181, 292, 212
-0.993405, 289, 41, 320, 72
-0.993406, 173, 105, 204, 136
-0.99341, 229, 265, 260, 296
-0.99341, 105, 145, 136, 272
-0.993411, 381, 141, 412, 172
-0.993412, 145, 13, 176, 44
-0.993413, 5, 257, 36, 288
-0.993414, 125, 93, 156, 124
-0.993418, 145, 177, 176, 208
-0.993418, 361, 177, 392, 240
-0.99342, 241, 269, 272, 300
-0.993423, 201, 29, 232, 60
-0.993432, 261, 169, 292, 200
-0.993433, 161, 117, 192, 148
-0.993433, 253, 281, 284, 312
-0.993435, 461, 81, 492, 112
-0.993437, 457, 69, 488, 100
-0.993439, 249, 169, 280, 200
-0.99344, 185, 93, 216, 124
-0.99344, 161, 145, 192, 272
-0.99344, 181, 17, 212, 48
-0.993441, 101, 37, 132, 68
-0.993441, 157, 25, 188, 56
-0.993442, 161, 145, 192, 176
-0.993442, 253, 205, 284, 236
-0.993443, 109, 65, 140, 96
-0.993446, 157, 49, 188, 80
-0.993448, 309, 49, 340, 80
-0.993452, 413, 69, 444, 100
-0.993454, 105, 173, 136, 204
-0.993456, 197, 241, 228, 272
-0.993459, 337, 61, 368, 92
-0.99346, 225, 149, 256, 180
-0.99346, 257, 257, 288, 288
-0.993464, 105, 93, 136, 124
-0.993468, 437, 57, 468, 88
-0.993468, 249, 157, 280, 188
-0.993468, 169, 169, 200, 200
-0.993471, 237, 17, 268, 80
-0.993471, 161, 129, 192, 160
-0.993471, 185, 109, 216, 140
-0.993472, 385, 205, 416, 236
-0.993474, 373, 221, 404, 252
-0.993475, 409, 153, 440, 184
-0.993477, 193, 5, 224, 36
-0.993477, 241, 185, 272, 216
-0.993478, 361, 1, 392, 32
-0.99348, 445, 181, 476, 212
-0.993481, 317, 193, 348, 224
-0.993482, 309, 237, 340, 268
-0.993484, 401, 53, 432, 84
-0.993484, 213, 29, 244, 60
-0.993484, 205, 137, 236, 168
-0.993495, 289, 245, 320, 276
-0.993496, 393, 233, 424, 264
-0.993497, 465, 41, 496, 72
-0.993499, 269, 297, 300, 328
-0.9935, 229, 197, 260, 228
-0.993501, 157, 37, 188, 68
-0.993501, 429, 193, 460, 224
-0.993501, 157, 253, 188, 284
-0.993502, 361, 185, 392, 216
-0.993505, 245, 293, 276, 324
-0.993507, 261, 41, 292, 72
-0.99351, 349, 141, 380, 172
-0.993512, 453, 161, 484, 192
-0.993513, 245, 25, 276, 56
-0.993519, 113, 249, 144, 280
-0.993519, 261, 125, 292, 156
-0.99352, 333, 49, 364, 80
-0.99352, 229, 169, 260, 200
-0.99352, 317, 217, 348, 248
-0.993521, 181, 1, 212, 32
-0.993524, 33, 169, 160, 232
-0.993525, 321, 57, 352, 88
-0.993529, 213, 269, 244, 300
-0.993548, 41, 97, 104, 160
-0.993559, 257, 193, 288, 256
-0.993563, 1, 249, 128, 312
-0.993585, 189, 113, 220, 240
-0.993595, 425, 161, 488, 224
-0.993664, 273, 73, 400, 136
-0.993672, 185, 89, 216, 152
-0.993694, 113, 1, 144, 128
-0.993745, 369, 265, 496, 328
-0.993763, 81, 1, 144, 333
-0.993787, 1, 169, 64, 232
-0.993806, 357, 89, 388, 152
-0.99383, 385, 233, 448, 296
-0.993839, 249, 145, 280, 272
-0.993855, 385, 65, 448, 128
-0.993879, 257, 105, 320, 168
-0.993888, 177, 73, 304, 136
-0.993938, 129, 257, 384, 320
-0.993948, 377, 49, 440, 176
-0.993949, 449, 177, 480, 240
-0.993959, 161, 129, 192, 192
-0.993966, 225, 105, 288, 168
-0.994034, 17, 225, 80, 288
-0.994055, 145, 1, 176, 64
-0.994062, 109, 193, 140, 320
-0.994071, 341, 137, 372, 200
-0.994087, 393, 1, 456, 333
-0.994105, 457, 65, 488, 128
-0.994179, 377, 1, 440, 128
-0.994179, 33, 177, 96, 240
-0.994196, 209, 273, 240, 333
-0.99421, 429, 137, 460, 200
-0.994239, 397, 1, 428, 128
-0.994256, 1, 73, 64, 136
-0.994285, 333, 273, 364, 333
-0.994287, 361, 217, 424, 280
-0.994289, 205, 153, 236, 216
-0.994308, 121, 97, 152, 160
-0.994337, 409, 73, 472, 136
-0.994342, 285, 161, 316, 224
-0.99438, 57, 177, 120, 240
-0.994431, 381, 209, 412, 333
-0.994448, 49, 217, 112, 280
-0.994466, 445, 161, 476, 288
-0.994473, 401, 273, 464, 333
-0.994476, 289, 129, 352, 192
-0.99448, 281, 1, 344, 333
-0.994528, 349, 209, 380, 333
-0.994533, 221, 249, 252, 312
-0.994541, 313, 73, 376, 136
-0.994565, 1, 1, 64, 64
-0.994567, 125, 241, 156, 304
-0.994598, 373, 49, 404, 112
-0.994645, 153, 225, 216, 288
-0.99467, 301, 257, 332, 320
-0.994689, 173, 105, 204, 168
-0.99469, 113, 97, 144, 224
-0.99472, 29, 65, 60, 192
-0.994732, 269, 217, 300, 280
-0.994739, 65, 273, 192, 333
-0.994751, 5, 49, 36, 112
-0.994804, 25, 1, 88, 333
-0.994842, 337, 241, 368, 304
-0.994873, 369, 1, 432, 256
-0.994878, 205, 129, 236, 192
-0.994888, 393, 217, 424, 280
-0.994904, 325, 193, 356, 256
-0.99492, 149, 145, 180, 272
-0.994925, 193, 153, 448, 216
-0.99494, 189, 177, 220, 240
-0.99496, 1, 201, 128, 264
-0.995002, 273, 113, 304, 240
-0.995006, 173, 113, 204, 240
-0.99502, 97, 137, 352, 200
-0.995034, 229, 145, 260, 272
-0.995076, 101, 1, 132, 64
-0.9951, 457, 1, 488, 128
-0.995124, 105, 97, 136, 160
-0.99513, 209, 1, 336, 64
-0.995151, 193, 129, 448, 192
-0.995163, 353, 41, 384, 104
-0.995194, 205, 1, 236, 128
-0.995203, 61, 137, 92, 200
-0.995213, 149, 137, 180, 200
-0.995225, 201, 225, 232, 288
-0.995246, 337, 33, 368, 160
-0.995301, 241, 73, 304, 136
-0.995308, 57, 249, 120, 312
-0.995311, 205, 25, 236, 88
-0.995321, 437, 33, 468, 96
-0.995325, 373, 1, 404, 64
-0.995331, 305, 185, 336, 248
-0.995354, 125, 49, 156, 176
-0.995397, 93, 57, 124, 120
-0.995412, 357, 121, 388, 184
-0.995437, 81, 77, 208, 108
-0.99546, 373, 257, 404, 320
-0.995492, 305, 241, 432, 304
-0.995494, 257, 201, 500, 264
-0.995495, 461, 153, 492, 216
-0.995498, 457, 145, 488, 272
-0.995505, 457, 41, 488, 104
-0.995538, 161, 65, 416, 128
-0.995545, 233, 1, 264, 128
-0.995567, 397, 249, 428, 312
-0.995592, 33, 105, 288, 168
-0.995633, 97, 17, 352, 80
-0.995653, 273, 197, 400, 228
-0.995661, 113, 1, 144, 64
-0.995683, 81, 97, 208, 128
-0.995713, 193, 177, 448, 240
-0.99577, 225, 265, 480, 328
-0.995775, 137, 249, 168, 312
-0.995803, 129, 233, 384, 296
-0.995829, 345, 1, 408, 333
-0.995875, 257, 57, 500, 120
-0.99588, 89, 33, 120, 160
-0.995914, 193, 33, 224, 96
-0.99594, 217, 9, 248, 72
-0.99594, 373, 225, 404, 288
-0.995955, 337, 33, 368, 96
-0.995991, 173, 161, 204, 288
-0.996028, 317, 161, 348, 288
-0.996053, 121, 209, 152, 333
-0.996085, 205, 97, 236, 224
-0.996132, 193, 89, 448, 152
-0.99617, 97, 177, 352, 240
-0.996175, 181, 1, 212, 64
-0.996201, 257, 265, 384, 296
-0.996201, 393, 209, 424, 333
-0.996218, 277, 9, 308, 72
-0.996218, 185, 65, 216, 128
-0.996233, 81, 65, 208, 96
-0.996243, 209, 201, 336, 232
-0.996268, 369, 73, 400, 136
-0.996292, 337, 145, 368, 272
-0.9963, 97, 41, 352, 104
-0.996309, 1, 1, 64, 333
-0.996312, 377, 81, 408, 208
-0.996329, 469, 81, 500, 208
-0.996357, 1, 33, 32, 160
-0.996385, 113, 29, 240, 60
-0.996405, 229, 145, 260, 208
-0.996414, 369, 1, 432, 333
-0.996417, 449, 17, 480, 80
-0.996433, 345, 217, 376, 280
-0.996443, 257, 17, 500, 80
-0.996448, 5, 81, 36, 144
-0.996453, 261, 129, 292, 256
-0.996504, 57, 129, 88, 256
-0.996519, 161, 177, 192, 240
-0.996531, 1, 57, 500, 120
-0.996534, 273, 49, 304, 176
-0.996543, 401, 49, 432, 112
-0.99656, 369, 121, 400, 184
-0.996579, 105, 169, 136, 232
-0.996602, 161, 153, 288, 184
-0.996603, 105, 217, 136, 280
-0.996646, 81, 53, 208, 84
-0.996653, 81, 145, 208, 176
-0.996655, 129, 17, 256, 48
-0.996656, 209, 185, 336, 216
-0.996661, 425, 1, 488, 333
-0.996694, 413, 49, 444, 176
-0.996697, 241, 209, 272, 272
-0.996698, 281, 193, 296, 256
-0.996701, 25, 89, 56, 152
-0.996704, 129, 101, 256, 132
-0.996715, 93, 81, 124, 144
-0.996718, 121, 169, 152, 232
-0.996726, 269, 1, 300, 128
-0.99673, 185, 113, 216, 176
-0.996733, 225, 225, 480, 288
-0.996744, 341, 81, 372, 208
-0.996745, 81, 165, 208, 196
-0.996754, 13, 33, 44, 160
-0.996771, 337, 113, 368, 176
-0.996786, 469, 33, 500, 96
-0.996791, 273, 185, 400, 216
-0.996803, 363, 145, 378, 208
-0.996807, 265, 129, 296, 192
-0.996809, 273, 169, 288, 232
-0.996815, 161, 113, 288, 144
-0.996825, 129, 1, 256, 32
-0.996825, 33, 121, 64, 184
-0.996826, 81, 109, 208, 140
-0.996826, 97, 253, 224, 284
-0.996831, 153, 81, 168, 144
-0.996852, 331, 241, 346, 304
-0.996865, 129, 65, 256, 96
-0.996869, 389, 97, 420, 160
-0.996871, 173, 161, 204, 224
-0.996876, 161, 1, 176, 64
-0.996885, 25, 49, 56, 112
-0.996898, 33, 249, 288, 312
-0.996907, 1, 33, 256, 96
-0.99691, 245, 137, 276, 200
-0.996912, 149, 225, 180, 288
-0.996929, 129, 85, 256, 116
-0.996936, 289, 49, 320, 176
-0.996952, 203, 249, 218, 312
-0.996971, 193, 285, 320, 316
-0.996975, 279, 169, 294, 232
-0.997002, 177, 29, 304, 60
-0.997023, 81, 129, 208, 160
-0.997025, 129, 201, 384, 264
-0.997049, 289, 177, 304, 240
-0.997059, 177, 249, 304, 280
-0.997062, 123, 73, 138, 136
-0.997064, 257, 117, 384, 148
-0.997072, 355, 1, 370, 64
-0.997095, 249, 249, 264, 312
-0.997118, 81, 41, 208, 72
-0.997121, 81, 1, 208, 32
-0.997126, 129, 169, 256, 200
-0.997152, 291, 249, 306, 312
-0.997156, 283, 257, 298, 320
-0.997164, 33, 81, 288, 144
-0.997177, 177, 265, 304, 296
-0.99718, 325, 257, 340, 320
-0.997183, 17, 273, 144, 333
-0.997187, 289, 217, 416, 248
-0.997188, 81, 17, 208, 48
-0.997198, 163, 81, 178, 144
-0.99722, 255, 233, 270, 296
-0.997231, 321, 49, 448, 80
-0.997235, 245, 177, 260, 240
-0.997236, 133, 73, 148, 136
-0.99725, 393, 49, 424, 176
-0.997251, 289, 277, 416, 308
-0.99728, 353, 193, 480, 224
-0.997282, 269, 273, 284, 333
-0.997282, 287, 25, 302, 88
-0.997284, 309, 193, 324, 256
-0.997299, 81, 177, 208, 208
-0.997307, 211, 233, 226, 296
-0.997312, 337, 1, 464, 32
-0.997312, 1, 245, 128, 276
-0.997319, 115, 65, 130, 128
-0.997341, 299, 185, 314, 248
-0.997348, 77, 97, 108, 224
-0.997348, 145, 81, 160, 144
-0.99735, 337, 65, 464, 96
-0.997357, 1, 1, 256, 64
-0.997363, 171, 1, 186, 64
-0.997373, 267, 169, 282, 232
-0.997391, 337, 209, 464, 240
-0.997402, 241, 297, 368, 328
-0.997404, 257, 53, 384, 84
-0.997405, 249, 1, 264, 64
-0.997412, 241, 105, 368, 136
-0.997413, 1, 81, 500, 144
-0.997418, 49, 1, 112, 333
-0.997423, 33, 61, 160, 92
-0.997423, 215, 265, 230, 328
-0.997433, 209, 41, 336, 72
-0.997435, 129, 137, 256, 168
-0.997446, 241, 281, 368, 312
-0.997448, 257, 29, 384, 60
-0.997462, 25, 113, 56, 240
-0.997469, 1, 129, 500, 192
-0.997475, 253, 25, 268, 88
-0.997484, 161, 301, 288, 332
-0.997485, 315, 201, 330, 264
-0.99749, 209, 129, 336, 160
-0.997491, 13, 97, 44, 224
-0.997491, 393, 97, 424, 224
-0.997499, 245, 153, 260, 216
-0.997532, 337, 153, 464, 184
-0.997538, 369, 261, 496, 292
-0.997548, 255, 209, 270, 272
-0.997562, 129, 45, 256, 76
-0.99757, 239, 177, 254, 240
-0.997584, 33, 1, 96, 256
-0.997587, 257, 1, 320, 128
-0.997598, 273, 193, 288, 256
-0.9976, 1, 145, 256, 208
-0.99761, 209, 257, 224, 320
-0.997617, 321, 125, 448, 156
-0.997617, 273, 169, 400, 200
-0.997623, 361, 1, 376, 64
-0.997627, 357, 65, 372, 128
-0.997647, 377, 1, 408, 128
-0.997667, 1, 97, 32, 224
-0.997667, 1, 73, 128, 104
-0.997669, 243, 257, 258, 320
-0.997671, 329, 217, 344, 280
-0.997675, 311, 197, 326, 228
-0.997677, 121, 161, 152, 288
-0.997682, 205, 1, 220, 64
-0.997696, 441, 113, 472, 240
-0.997697, 273, 141, 400, 172
-0.997699, 339, 217, 354, 280
-0.997705, 161, 57, 176, 120
-0.997713, 209, 213, 336, 244
-0.997719, 129, 125, 256, 156
-0.997721, 299, 233, 314, 296
-0.997722, 211, 209, 226, 272
-0.997736, 371, 265, 386, 328
-0.997738, 1, 17, 500, 80
-0.997739, 301, 257, 316, 320
-0.997744, 225, 253, 352, 284
-0.997766, 193, 173, 320, 204
-0.997773, 321, 25, 336, 88
-0.997773, 191, 249, 206, 312
-0.997776, 199, 1, 214, 64
-0.997776, 373, 145, 388, 208
-0.997778, 33, 89, 160, 120
-0.997778, 33, 105, 160, 136
-0.997788, 201, 177, 216, 240
-0.997797, 173, 249, 188, 312
-0.997806, 33, 273, 288, 333
-0.997807, 249, 273, 264, 333
-0.997807, 65, 29, 192, 60
-0.997808, 277, 257, 292, 320
-0.997814, 257, 129, 384, 160
-0.997818, 249, 97, 280, 224
-0.997818, 161, 249, 176, 312
-0.997849, 321, 265, 448, 296
-0.997869, 255, 161, 270, 224
-0.997874, 1, 145, 64, 272
-0.997874, 161, 33, 176, 96
-0.997883, 33, 117, 160, 148
-0.997893, 289, 217, 304, 280
-0.997894, 337, 17, 464, 48
-0.997898, 365, 257, 380, 320
-0.997904, 259, 25, 274, 88
-0.997905, 289, 201, 304, 232
-0.99791, 175, 105, 190, 168
-0.997911, 249, 17, 280, 144
-0.997912, 333, 273, 348, 333
-0.997914, 1, 129, 128, 160
-0.997921, 393, 161, 424, 288
-0.997923, 1, 257, 500, 320
-0.997925, 177, 13, 304, 44
-0.997928, 129, 237, 256, 268
-0.997928, 359, 257, 374, 320
-0.997931, 369, 73, 384, 136
-0.997932, 145, 289, 272, 320
-0.997934, 153, 249, 168, 312
-0.99794, 81, 189, 208, 220
-0.997942, 155, 57, 170, 120
-0.997949, 165, 105, 180, 168
-0.997953, 1, 169, 256, 232
-0.997964, 257, 17, 384, 48
-0.997965, 153, 1, 168, 64
-0.997967, 235, 145, 250, 208
-0.997973, 353, 165, 480, 196
-0.997976, 321, 217, 336, 280
-0.997979, 255, 185, 270, 248
-0.99798, 159, 1, 174, 32
-0.99799, 209, 89, 224, 152
-0.997998, 265, 201, 280, 264
-0.997998, 361, 177, 392, 304
-0.998001, 293, 41, 308, 104
-0.998002, 209, 117, 336, 148
-0.998005, 161, 189, 288, 220
-0.99801, 153, 105, 168, 168
-0.998011, 321, 97, 448, 128
-0.998017, 33, 157, 160, 188
-0.998018, 209, 233, 336, 264
-0.998022, 173, 81, 188, 144
-0.998028, 363, 177, 378, 240
-0.998033, 245, 209, 260, 272
-0.99804, 259, 265, 274, 328
-0.998047, 469, 1, 500, 128
-0.998057, 287, 153, 302, 216
-0.99806, 33, 181, 160, 212
-0.998062, 357, 137, 372, 200
-0.998063, 33, 13, 160, 44
-0.998067, 217, 241, 232, 304
-0.998068, 139, 81, 154, 144
-0.99807, 329, 193, 344, 256
-0.998076, 289, 5, 416, 36
-0.998083, 289, 273, 304, 333
-0.998085, 81, 265, 208, 296
-0.998085, 167, 241, 182, 304
-0.998088, 181, 1, 196, 64
-0.998095, 337, 181, 464, 212
-0.998101, 337, 241, 352, 304
-0.998105, 305, 205, 320, 236
-0.998113, 401, 209, 416, 272
-0.998119, 383, 121, 398, 184
-0.998123, 175, 153, 190, 216
-0.998126, 349, 57, 364, 120
-0.998126, 321, 109, 448, 140
-0.998127, 257, 137, 272, 200
-0.998128, 197, 265, 212, 328
-0.998129, 427, 161, 442, 224
-0.998131, 485, 105, 500, 168
-0.998135, 107, 81, 122, 144
-0.998137, 283, 201, 298, 232
-0.998139, 1, 45, 128, 76
-0.998152, 451, 33, 466, 96
-0.998152, 479, 73, 494, 136
-0.998155, 389, 217, 404, 280
-0.998156, 1, 81, 16, 144
-0.998161, 33, 141, 160, 172
-0.998161, 287, 189, 302, 220
-0.998161, 305, 193, 320, 224
-0.998163, 113, 265, 128, 328
-0.998168, 281, 25, 296, 88
-0.998175, 297, 193, 312, 224
-0.998177, 257, 153, 384, 184
-0.998187, 257, 65, 384, 96
-0.998189, 145, 241, 160, 304
-0.998194, 119, 225, 134, 288
-0.998197, 113, 41, 128, 104
-0.998199, 353, 1, 368, 32
-0.9982, 165, 129, 180, 192
-0.998204, 185, 249, 200, 312
-0.998205, 81, 241, 208, 272
-0.998206, 3, 41, 18, 104
-0.998212, 113, 1, 128, 64
-0.998214, 41, 209, 104, 333
-0.998217, 343, 257, 358, 320
-0.99822, 237, 265, 252, 328
-0.998222, 399, 97, 414, 160
-0.998231, 1, 105, 500, 168
-0.998238, 179, 249, 194, 312
-0.998241, 211, 185, 226, 248
-0.998241, 433, 145, 448, 208
-0.998246, 451, 57, 466, 120
-0.998249, 269, 249, 284, 312
-0.998254, 353, 257, 368, 320
-0.998257, 257, 41, 384, 72
-0.998261, 329, 229, 344, 260
-0.998262, 125, 249, 140, 312
-0.998266, 165, 177, 180, 240
-0.998267, 283, 217, 298, 280
-0.998268, 21, 257, 36, 320
-0.998269, 167, 265, 182, 328
-0.998273, 337, 77, 464, 108
-0.998277, 209, 303, 240, 318
-0.998277, 305, 253, 336, 268
-0.998278, 245, 281, 276, 296
-0.998278, 453, 165, 484, 180
-0.998278, 273, 35, 304, 50
-0.998278, 357, 85, 388, 100
-0.998278, 141, 83, 172, 98
-0.998279, 205, 157, 236, 172
-0.99828, 261, 125, 292, 140
-0.99828, 277, 271, 308, 286
-0.99828, 257, 261, 288, 276
-0.998281, 161, 121, 192, 136
-0.998281, 345, 269, 376, 284
-0.998281, 201, 35, 232, 50
-0.998282, 417, 63, 448, 78
-0.998282, 197, 273, 228, 288
-0.998283, 373, 223, 404, 238
-0.998284, 373, 77, 404, 92
-0.998284, 221, 265, 252, 280
-0.998284, 229, 97, 260, 224
-0.998284, 273, 177, 304, 192
-0.998285, 313, 281, 344, 296
-0.998285, 109, 85, 140, 100
-0.998285, 157, 25, 188, 40
-0.998285, 309, 49, 340, 64
-0.998286, 257, 97, 272, 160
-0.998286, 1, 77, 32, 92
-0.998286, 317, 259, 348, 274
-0.998287, 325, 215, 356, 230
-0.998287, 207, 25, 222, 88
-0.998287, 205, 151, 236, 166
-0.998287, 193, 15, 224, 30
-0.998287, 333, 273, 364, 288
-0.998287, 325, 243, 356, 258
-0.998287, 213, 27, 244, 42
-0.998289, 153, 193, 184, 320
-0.998289, 293, 137, 324, 152
-0.998289, 123, 49, 138, 112
-0.99829, 157, 31, 188, 46
-0.998291, 101, 25, 132, 40
-0.998291, 125, 79, 156, 94
-0.998291, 373, 157, 404, 172
-0.998291, 101, 41, 132, 56
-0.998292, 157, 57, 188, 72
-0.998292, 229, 155, 260, 170
-0.998292, 161, 161, 192, 176
-0.998292, 161, 143, 192, 158
-0.998293, 465, 43, 496, 58
-0.998293, 253, 287, 284, 302
-0.998293, 197, 285, 228, 300
-0.998294, 101, 47, 132, 62
-0.998295, 341, 61, 372, 76
-0.998295, 161, 115, 192, 130
-0.998296, 269, 297, 300, 312
-0.998296, 261, 197, 292, 212
-0.998296, 121, 183, 152, 198
-0.998297, 161, 169, 192, 184
-0.998298, 149, 103, 180, 118
-0.998298, 157, 67, 188, 82
-0.998299, 321, 49, 336, 112
-0.998299, 5, 259, 36, 274
-0.998299, 189, 29, 220, 44
-0.998299, 145, 13, 176, 28
-0.9983, 289, 53, 320, 68
-0.998301, 161, 181, 192, 196
-0.998301, 257, 209, 288, 224
-0.998301, 161, 135, 192, 150
-0.998301, 201, 255, 232, 270
-0.998302, 381, 143, 412, 158
-0.998302, 185, 109, 216, 124
-0.998304, 321, 273, 352, 288
-0.998304, 277, 277, 308, 292
-0.998305, 397, 53, 428, 68
-0.998305, 221, 259, 252, 274
-0.998305, 197, 267, 228, 282
-0.998306, 169, 7, 200, 22
-0.998306, 257, 267, 288, 282
-0.998307, 273, 283, 304, 298
-0.998309, 319, 205, 334, 236
-0.998309, 381, 151, 412, 166
-0.99831, 273, 45, 304, 60
-0.998312, 241, 259, 272, 274
-0.998312, 173, 105, 204, 120
-0.998312, 101, 31, 132, 46
-0.998312, 385, 227, 416, 242
-0.998313, 433, 193, 464, 208
-0.998314, 361, 145, 392, 160
-0.998315, 353, 9, 384, 24
-0.998315, 465, 85, 496, 100
-0.998317, 333, 221, 364, 236
-0.998317, 157, 77, 188, 92
-0.998319, 257, 39, 288, 54
-0.99832, 353, 73, 384, 88
-0.99832, 437, 61, 468, 76
-0.998321, 201, 29, 232, 44
-0.998323, 193, 279, 224, 294
-0.998324, 305, 265, 336, 280
-0.998324, 333, 267, 364, 282
-0.998324, 129, 265, 256, 296
-0.998324, 277, 261, 308, 276
-0.998325, 289, 259, 320, 274
-0.998327, 161, 109, 192, 124
-0.998327, 265, 171, 296, 186
-0.998328, 245, 269, 276, 284
-0.998328, 1, 161, 500, 224
-0.998328, 289, 189, 320, 204
-0.998328, 273, 191, 304, 206
-0.99833, 369, 1, 400, 16
-0.99833, 305, 215, 336, 230
-0.998333, 305, 197, 336, 212
-0.998335, 157, 7, 188, 22
-0.998336, 41, 81, 104, 208
-0.998336, 321, 265, 352, 280
-0.998336, 325, 237, 356, 252
-0.998337, 361, 153, 392, 168
-0.998337, 157, 13, 188, 28
-0.998338, 429, 1, 460, 128
-0.998339, 195, 13, 210, 44
-0.998339, 269, 209, 300, 224
-0.99834, 137, 97, 168, 112
-0.998341, 125, 93, 156, 108
-0.998342, 249, 199, 280, 214
-0.998344, 149, 97, 180, 112
-0.998351, 33, 169, 160, 200
-0.998352, 109, 77, 140, 92
-0.998357, 313, 203, 344, 218
-0.998357, 193, 21, 224, 36
-0.998358, 273, 183, 304, 198
-0.998358, 161, 103, 192, 118
-0.998362, 325, 231, 356, 246
-0.998362, 357, 269, 388, 284
-0.998365, 1, 33, 128, 64
-0.998365, 457, 81, 488, 208
-0.998365, 293, 209, 324, 224
-0.998368, 361, 159, 392, 174
-0.998371, 273, 197, 304, 212
-0.998384, 153, 1, 184, 16
-0.998385, 353, 79, 384, 94
-0.998387, 1, 257, 128, 288
-0.99839, 267, 169, 282, 200
-0.998396, 195, 1, 210, 32
-0.998402, 373, 145, 388, 176
-0.998411, 281, 189, 296, 220
-0.998412, 137, 193, 168, 320
-0.998415, 337, 37, 464, 68
-0.998418, 261, 203, 292, 218
-0.99842, 297, 203, 328, 218
-0.998422, 275, 201, 290, 232
-0.998427, 321, 289, 448, 320
-0.998428, 305, 209, 336, 224
-0.99843, 349, 3, 380, 18
-0.998431, 293, 181, 308, 212
-0.998435, 325, 261, 340, 292
-0.998438, 293, 195, 324, 210
-0.998448, 149, 1, 180, 256
-0.998449, 125, 97, 156, 224
-0.998457, 273, 203, 304, 218
-0.998498, 285, 201, 316, 216
-0.998502, 205, 9, 220, 40
-0.998504, 289, 249, 416, 280
-0.998505, 125, 77, 140, 108
-0.998506, 287, 33, 302, 64
-0.99852, 105, 1, 136, 256
-0.998521, 287, 177, 302, 208
-0.998539, 265, 203, 328, 218
-0.998542, 331, 253, 346, 284
-0.998546, 129, 277, 256, 308
-0.998546, 369, 289, 496, 320
-0.998549, 369, 233, 496, 264
-0.998553, 249, 257, 264, 288
-0.998554, 313, 209, 328, 240
-0.998555, 387, 217, 402, 248
-0.998555, 369, 53, 496, 84
-0.998555, 245, 185, 260, 216
-0.998569, 369, 97, 496, 128
-0.998571, 147, 81, 162, 112
-0.998577, 41, 1, 72, 128
-0.998577, 217, 1, 248, 128
-0.998577, 203, 253, 218, 284
-0.998577, 265, 197, 328, 212
-0.998578, 199, 269, 214, 300
-0.99858, 133, 77, 148, 108
-0.998588, 241, 201, 304, 216
-0.998598, 269, 285, 284, 316
-0.9986, 329, 269, 392, 284
-0.998604, 211, 269, 226, 300
-0.998607, 273, 169, 288, 200
-0.998608, 233, 269, 296, 284
-0.998608, 255, 237, 270, 268
-0.99861, 1, 1, 128, 32
-0.998611, 253, 33, 268, 64
-0.998613, 97, 79, 160, 94
-0.998614, 359, 69, 374, 100
-0.998615, 475, 37, 490, 68
-0.998615, 265, 191, 328, 206
-0.998615, 273, 263, 336, 278
-0.998617, 49, 253, 176, 284
-0.998619, 169, 1, 184, 32
-0.998619, 373, 161, 388, 192
-0.998619, 281, 209, 344, 224
-0.998623, 369, 69, 384, 100
-0.998624, 397, 221, 412, 252
-0.998624, 275, 281, 290, 312
-0.998628, 145, 13, 208, 28
-0.998629, 193, 265, 256, 280
-0.998629, 145, 21, 208, 36
-0.998631, 249, 263, 312, 278
-0.998633, 121, 83, 184, 98
-0.998636, 201, 177, 216, 208
-0.998637, 105, 97, 168, 112
-0.998638, 273, 269, 336, 284
-0.998638, 353, 141, 480, 172
-0.998639, 257, 209, 320, 224
-0.998641, 241, 195, 304, 210
-0.998643, 233, 171, 296, 186
-0.998645, 113, 301, 240, 332
-0.998646, 255, 165, 270, 196
-0.998646, 289, 257, 352, 272
-0.998647, 145, 7, 208, 22
-0.998647, 113, 73, 176, 88
-0.998647, 133, 1, 164, 128
-0.998647, 345, 7, 408, 22
-0.99865, 353, 205, 416, 220
-0.998651, 209, 157, 336, 188
-0.998654, 305, 49, 368, 64
-0.998657, 305, 203, 368, 218
-0.998657, 153, 139, 216, 154
-0.998658, 345, 159, 408, 174
-0.998659, 273, 189, 288, 220
-0.99866, 145, 1, 208, 16
-0.99866, 371, 265, 386, 296
-0.99866, 361, 265, 376, 296
-0.998661, 119, 73, 134, 104
-0.998662, 297, 265, 360, 280
-0.998662, 153, 109, 216, 124
-0.998665, 241, 177, 304, 192
-0.998665, 273, 275, 336, 290
-0.998666, 257, 171, 320, 186
-0.998667, 401, 61, 464, 76
-0.998667, 145, 77, 208, 92
-0.998668, 321, 1, 384, 16
-0.998668, 233, 283, 296, 298
-0.998668, 241, 187, 304, 202
-0.998669, 1, 201, 500, 264
-0.998669, 257, 283, 320, 298
-0.99867, 345, 199, 408, 214
-0.99867, 289, 251, 352, 266
-0.99867, 313, 215, 376, 230
-0.99867, 193, 271, 256, 286
-0.998671, 153, 115, 216, 130
-0.998671, 329, 149, 392, 164
-0.998671, 331, 241, 346, 272
-0.998672, 145, 65, 208, 80
-0.998672, 305, 197, 368, 212
-0.998673, 145, 27, 208, 42
-0.998673, 345, 1, 408, 16
-0.998673, 165, 97, 180, 128
-0.998673, 153, 131, 216, 146
-0.998673, 113, 67, 176, 82
-0.998674, 65, 173, 128, 188
-0.998675, 329, 221, 392, 236
-0.998675, 121, 1, 184, 16
-0.998677, 97, 91, 160, 106
-0.998677, 209, 259, 272, 274
-0.998677, 323, 45, 338, 76
-0.998678, 153, 165, 216, 180
-0.998678, 113, 61, 176, 76
-0.998678, 97, 85, 160, 100
-0.998678, 369, 149, 432, 164
-0.998678, 189, 1, 220, 256
-0.99868, 433, 39, 496, 54
-0.99868, 145, 45, 208, 60
-0.99868, 113, 13, 176, 28
-0.998681, 329, 275, 392, 290
-0.998682, 305, 43, 368, 58
-0.998682, 193, 285, 256, 300
-0.998683, 289, 229, 352, 244
-0.998684, 385, 195, 448, 210
-0.998684, 359, 1, 374, 32
-0.998684, 425, 193, 488, 208
-0.998684, 361, 73, 424, 88
-0.998684, 265, 47, 328, 62
-0.998684, 153, 171, 216, 186
-0.998685, 185, 23, 248, 38
-0.998685, 317, 261, 332, 292
-0.998685, 353, 271, 416, 286
-0.998685, 153, 71, 216, 86
-0.998685, 153, 125, 216, 140
-0.998686, 145, 59, 208, 74
-0.998687, 145, 53, 208, 68
-0.998688, 313, 235, 376, 250
-0.998688, 93, 177, 124, 304
-0.998689, 233, 275, 296, 290
-0.998689, 345, 79, 408, 94
-0.99869, 313, 259, 376, 274
-0.99869, 169, 267, 232, 282
-0.99869, 289, 215, 352, 230
-0.998691, 337, 49, 400, 64
-0.998691, 121, 103, 184, 118
-0.998691, 153, 103, 216, 118
-0.998692, 121, 189, 184, 204
-0.998692, 233, 289, 296, 304
-0.998692, 113, 55, 176, 70
-0.998692, 113, 25, 176, 40
-0.998692, 345, 131, 408, 146
-0.998692, 193, 117, 256, 132
-0.998692, 241, 127, 304, 142
-0.998692, 81, 115, 144, 130
-0.998693, 369, 155, 432, 170
-0.998694, 137, 89, 200, 104
-0.998694, 169, 279, 232, 294
-0.998695, 17, 257, 80, 272
-0.998697, 345, 103, 408, 118
-0.998697, 337, 143, 400, 158
-0.998697, 113, 35, 176, 50
-0.998697, 153, 145, 216, 160
-0.998697, 81, 163, 144, 178
-0.998697, 313, 209, 376, 224
-0.998698, 145, 39, 208, 54
-0.998698, 217, 253, 280, 268
-0.998698, 353, 187, 416, 202
-0.998699, 113, 145, 176, 160
-0.998699, 305, 37, 368, 52
-0.998699, 337, 41, 400, 56
-0.998699, 289, 235, 352, 250
-0.9987, 345, 17, 408, 32
-0.998701, 373, 161, 404, 288
-0.998701, 289, 283, 352, 298
-0.998701, 321, 57, 384, 72
-0.998701, 265, 185, 328, 200
-0.998702, 217, 123, 280, 138
-0.998702, 81, 151, 144, 166
-0.998702, 329, 227, 392, 242
-0.998702, 105, 163, 168, 178
-0.998702, 265, 41, 328, 56
-0.998703, 97, 181, 160, 196
-0.998703, 113, 43, 176, 58
-0.998703, 113, 49, 176, 64
-0.998703, 113, 157, 176, 172
-0.998704, 153, 273, 216, 288
-0.998705, 97, 251, 160, 266
-0.998705, 369, 265, 432, 280
-0.998705, 361, 157, 376, 188
-0.998706, 121, 175, 184, 190
-0.998708, 475, 81, 490, 112
-0.998715, 265, 205, 280, 236
-0.998716, 367, 145, 382, 176
-0.998723, 289, 261, 304, 292
-0.998725, 209, 253, 224, 284
-0.998728, 157, 81, 172, 112
-0.998729, 297, 41, 312, 72
-0.998734, 481, 73, 496, 104
-0.998734, 333, 273, 348, 304
-0.998735, 281, 173, 296, 204
-0.998736, 167, 177, 182, 208
-0.998737, 13, 253, 28, 284
-0.998739, 205, 269, 220, 300
-0.998744, 203, 97, 218, 128
-0.998747, 289, 77, 416, 108
-0.99875, 1, 225, 256, 288
-0.99875, 193, 141, 320, 172
-0.998755, 213, 233, 228, 264
-0.998756, 255, 225, 270, 256
-0.998757, 289, 229, 416, 260
-0.998762, 199, 289, 214, 320
-0.998763, 351, 265, 366, 296
-0.998765, 361, 145, 376, 176
-0.998765, 209, 97, 224, 128
-0.998766, 247, 17, 262, 48
-0.998774, 173, 93, 188, 124
-0.998775, 161, 13, 176, 44
-0.998776, 177, 1, 304, 32
-0.998779, 415, 53, 430, 84
-0.998779, 321, 301, 448, 332
-0.998781, 195, 253, 210, 284
-0.998782, 341, 265, 356, 296
-0.998789, 245, 173, 260, 204
-0.99879, 139, 81, 154, 112
-0.998796, 299, 205, 314, 236
-0.998797, 329, 217, 344, 248
-0.998799, 281, 261, 296, 292
-0.9988, 175, 165, 190, 196
-0.998804, 311, 261, 326, 292
-0.998808, 187, 93, 202, 124
-0.998809, 129, 225, 256, 256
-0.99881, 217, 145, 248, 272
-0.998817, 151, 1, 166, 32
-0.998818, 1, 57, 256, 120
-0.998823, 183, 105, 198, 136
-0.998825, 357, 33, 388, 288
-0.998826, 437, 1, 468, 256
-0.998828, 247, 273, 262, 304
-0.99883, 177, 69, 304, 100
-0.99883, 101, 105, 116, 136
-0.998831, 349, 61, 364, 92
-0.998832, 211, 217, 226, 248
-0.998833, 337, 277, 464, 308
-0.998835, 125, 93, 140, 124
-0.998835, 457, 161, 472, 192
-0.998836, 259, 33, 274, 64
-0.99884, 151, 97, 166, 128
-0.998841, 33, 201, 288, 264
-0.998842, 379, 149, 394, 180
-0.998843, 217, 269, 232, 300
-0.998844, 281, 37, 296, 68
-0.998845, 161, 33, 176, 64
-0.998848, 197, 25, 212, 56
-0.998858, 275, 269, 290, 300
-0.998859, 425, 157, 440, 188
-0.99886, 439, 49, 454, 80
-0.99886, 173, 105, 188, 136
-0.99886, 13, 129, 28, 160
-0.998861, 299, 249, 314, 280
-0.998861, 317, 273, 332, 304
-0.998863, 337, 221, 464, 252
-0.998864, 255, 213, 270, 244
-0.998867, 481, 93, 496, 124
-0.998872, 165, 161, 180, 192
-0.998874, 235, 173, 250, 204
-0.998874, 433, 145, 448, 176
-0.998874, 245, 197, 260, 228
-0.998875, 207, 29, 222, 60
-0.998876, 353, 245, 480, 276
-0.998876, 265, 157, 280, 188
-0.998876, 255, 249, 270, 280
-0.998876, 217, 253, 232, 284
-0.998877, 241, 265, 256, 296
-0.998878, 81, 285, 208, 316
-0.998881, 357, 81, 372, 112
-0.998883, 177, 97, 304, 128
-0.998891, 389, 229, 404, 260
-0.998891, 471, 257, 486, 288
-0.998892, 169, 253, 184, 284
-0.998896, 181, 253, 196, 284
-0.998898, 209, 289, 224, 320
-0.9989, 161, 49, 176, 80
-0.998918, 1, 233, 128, 264
-0.998925, 81, 229, 208, 260
-0.998942, 469, 177, 500, 304
-0.998951, 257, 89, 384, 120
-0.998977, 49, 209, 176, 240
-0.99901, 369, 161, 432, 288
-0.999021, 457, 1, 488, 256
-0.999027, 1, 197, 128, 228
-0.999065, 5, 1, 36, 256
-0.999079, 225, 73, 352, 136
-0.99909, 129, 205, 256, 236
-0.999113, 177, 53, 304, 84
-0.99912, 1, 273, 128, 304
-0.999137, 121, 65, 152, 320
-0.999188, 367, 1, 382, 128
-0.999201, 309, 17, 340, 144
-0.999212, 93, 129, 124, 256
-0.999224, 241, 1, 272, 256
-0.999231, 405, 145, 436, 272
-0.99926, 137, 1, 168, 256
-0.999264, 337, 65, 368, 320
-0.999297, 161, 65, 192, 320
-0.999316, 273, 1, 304, 256
-0.999318, 289, 65, 320, 320
-0.99936, 307, 177, 322, 304
-0.999381, 329, 193, 344, 320
-0.999384, 89, 81, 120, 208
-0.999404, 207, 209, 222, 333
-0.999409, 115, 49, 130, 176
-0.999422, 297, 209, 312, 333
-0.999434, 161, 1, 176, 128
-0.999434, 201, 177, 216, 304
-0.999438, 93, 1, 124, 256
-0.99945, 165, 81, 180, 208
-0.999453, 249, 209, 264, 333
-0.999455, 255, 161, 270, 288
-0.999457, 317, 209, 332, 333
-0.999459, 305, 97, 336, 224
-0.999472, 323, 209, 338, 333
-0.999486, 339, 209, 354, 333
-0.999491, 155, 1, 170, 128
-0.999496, 401, 47, 416, 62
-0.999496, 409, 65, 424, 80
-0.999496, 223, 259, 238, 274
-0.999496, 203, 101, 218, 116
-0.999497, 365, 7, 380, 22
-0.999497, 199, 109, 214, 124
-0.999497, 399, 227, 414, 242
-0.999498, 293, 43, 308, 58
-0.999498, 249, 25, 264, 40
-0.999498, 211, 225, 226, 240
-0.999498, 193, 29, 208, 44
-0.999498, 359, 81, 374, 96
-0.999498, 273, 291, 288, 306
-0.999498, 207, 279, 222, 294
-0.999499, 363, 269, 378, 284
-0.999499, 369, 1, 384, 16
-0.999499, 201, 181, 216, 196
-0.9995, 329, 217, 344, 232
-0.9995, 289, 209, 304, 224
-0.9995, 455, 163, 470, 178
-0.9995, 165, 173, 180, 188
-0.9995, 163, 107, 178, 122
-0.999501, 383, 155, 398, 170
-0.999501, 207, 27, 222, 42
-0.999501, 397, 145, 412, 160
-0.999502, 413, 57, 428, 72
-0.999502, 161, 33, 176, 48
-0.999502, 257, 37, 272, 52
-0.999503, 243, 153, 258, 168
-0.999503, 201, 283, 216, 298
-0.999503, 373, 7, 388, 22
-0.999504, 171, 5, 186, 20
-0.999504, 307, 263, 322, 278
-0.999505, 167, 179, 182, 194
-0.999505, 245, 191, 260, 206
-0.999505, 233, 259, 248, 274
-0.999505, 419, 61, 434, 76
-0.999505, 135, 183, 150, 198
-0.999505, 281, 37, 296, 52
-0.999505, 213, 239, 228, 254
-0.999506, 201, 17, 216, 32
-0.999506, 265, 285, 280, 300
-0.999507, 375, 1, 390, 16
-0.999507, 473, 87, 488, 102
-0.999507, 405, 147, 420, 162
-0.999507, 277, 43, 292, 58
-0.999507, 367, 155, 382, 170
-0.999508, 255, 227, 270, 242
-0.999508, 215, 23, 230, 38
-0.999508, 471, 79, 486, 94
-0.999508, 361, 163, 376, 178
-0.999508, 289, 209, 304, 333
-0.999508, 1, 81, 16, 96
-0.99951, 317, 51, 332, 66
-0.99951, 143, 185, 158, 200
-0.999511, 443, 47, 458, 62
-0.999511, 385, 221, 400, 236
-0.999511, 173, 105, 188, 120
-0.999511, 255, 235, 270, 250
-0.999512, 313, 197, 328, 212
-0.999512, 323, 53, 338, 68
-0.999513, 433, 153, 448, 168
-0.999515, 331, 257, 346, 272
-0.999515, 331, 247, 346, 262
-0.999515, 179, 7, 194, 22
-0.999515, 275, 171, 290, 186
-0.999515, 113, 1, 128, 128
-0.999515, 153, 65, 168, 192
-0.999516, 273, 209, 288, 224
-0.999516, 183, 105, 198, 120
-0.999517, 341, 267, 356, 282
-0.999517, 205, 11, 220, 26
-0.999518, 369, 83, 384, 98
-0.999518, 401, 237, 416, 252
-0.999519, 153, 1, 168, 16
-0.999519, 255, 251, 270, 266
-0.999519, 295, 191, 310, 206
-0.999519, 213, 233, 228, 248
-0.999519, 275, 281, 290, 296
-0.999519, 293, 51, 308, 66
-0.999519, 317, 265, 332, 280
-0.99952, 323, 265, 338, 280
-0.999521, 287, 39, 302, 54
-0.999521, 281, 209, 296, 224
-0.999521, 173, 1, 188, 128
-0.999522, 139, 93, 154, 108
-0.999522, 335, 229, 350, 244
-0.999523, 255, 245, 270, 260
-0.999523, 369, 71, 384, 86
-0.999523, 153, 97, 168, 112
-0.999524, 295, 185, 310, 200
-0.999524, 287, 185, 302, 200
-0.999524, 245, 185, 260, 200
-0.999526, 255, 1, 270, 128
-0.999526, 159, 11, 174, 26
-0.999527, 361, 1, 376, 16
-0.999528, 365, 77, 380, 92
-0.999529, 13, 255, 28, 270
-0.99953, 195, 21, 210, 36
-0.999531, 305, 191, 320, 206
-0.999532, 199, 5, 214, 20
-0.999532, 433, 49, 464, 176
-0.999533, 393, 225, 408, 240
-0.999534, 363, 161, 378, 288
-0.999534, 479, 87, 494, 102
-0.999534, 199, 1, 214, 128
-0.999541, 163, 99, 178, 114
-0.999542, 371, 269, 386, 284
-0.999545, 373, 149, 388, 164
-0.999545, 359, 75, 374, 90
-0.999547, 287, 191, 302, 206
-0.999548, 147, 95, 162, 110
-0.999548, 329, 223, 344, 238
-0.999549, 265, 203, 280, 218
-0.99955, 287, 179, 302, 194
-0.99955, 165, 1, 180, 16
-0.999552, 361, 157, 376, 172
-0.999552, 357, 209, 372, 333
-0.999552, 291, 161, 306, 288
-0.999558, 283, 197, 298, 212
-0.999559, 195, 15, 210, 30
-0.999561, 329, 237, 344, 252
-0.999564, 373, 159, 388, 174
-0.999565, 299, 161, 314, 288
-0.999565, 475, 39, 490, 54
-0.999568, 213, 193, 228, 320
-0.999571, 201, 33, 232, 288
-0.999573, 355, 1, 370, 16
-0.999574, 159, 1, 174, 16
-0.999574, 271, 201, 286, 216
-0.999575, 371, 97, 386, 224
-0.999576, 165, 177, 180, 304
-0.999577, 285, 1, 300, 128
-0.999578, 477, 81, 492, 96
-0.99958, 469, 1, 484, 128
-0.99958, 361, 1, 376, 128
-0.99958, 289, 197, 304, 212
-0.999582, 329, 231, 344, 246
-0.999582, 117, 193, 132, 320
-0.999586, 267, 169, 282, 184
-0.999586, 175, 145, 190, 272
-0.999586, 223, 193, 238, 320
-0.999589, 297, 197, 312, 212
-0.999589, 243, 193, 258, 320
-0.999589, 37, 65, 52, 192
-0.999592, 283, 145, 298, 272
-0.999592, 315, 209, 330, 224
-0.999592, 237, 193, 252, 320
-0.999592, 307, 197, 322, 212
-0.999594, 359, 81, 374, 208
-0.999596, 259, 209, 274, 333
-0.999598, 123, 49, 138, 176
-0.999598, 277, 203, 292, 218
-0.999599, 353, 129, 368, 256
-0.999605, 175, 97, 190, 224
-0.999611, 229, 33, 260, 288
-0.999617, 313, 65, 344, 320
-0.999619, 285, 97, 300, 224
-0.99962, 283, 209, 298, 333
-0.999621, 297, 203, 312, 218
-0.999622, 209, 1, 224, 128
-0.999623, 485, 17, 500, 144
-0.999624, 247, 1, 262, 128
-0.999625, 313, 203, 328, 218
-0.999628, 211, 145, 226, 272
-0.999629, 243, 145, 258, 272
-0.99963, 397, 49, 412, 176
-0.99963, 195, 193, 210, 320
-0.99963, 377, 1, 408, 256
-0.999632, 255, 113, 270, 240
-0.999634, 125, 97, 140, 224
-0.999637, 351, 33, 366, 160
-0.999641, 463, 1, 478, 128
-0.999643, 149, 1, 164, 128
-0.999643, 201, 65, 216, 192
-0.999644, 483, 81, 498, 208
-0.999645, 319, 161, 334, 288
-0.999646, 223, 145, 238, 272
-0.999646, 115, 97, 130, 224
-0.999646, 283, 203, 298, 218
-0.999646, 291, 113, 306, 240
-0.999648, 173, 65, 204, 320
-0.999655, 107, 49, 122, 176
-0.999655, 125, 193, 140, 320
-0.999656, 17, 1, 48, 256
-0.999658, 475, 177, 490, 304
-0.999658, 307, 207, 322, 222
-0.999659, 321, 17, 336, 144
-0.999667, 289, 203, 304, 218
-0.999669, 349, 209, 364, 333
-0.99967, 165, 129, 180, 256
-0.999675, 159, 145, 174, 272
-0.999675, 461, 161, 476, 288
-0.999675, 69, 145, 100, 272
-0.999677, 477, 65, 492, 192
-0.999678, 329, 145, 344, 272
-0.999679, 187, 193, 202, 320
-0.999683, 253, 65, 268, 192
-0.999683, 205, 113, 220, 240
-0.999684, 241, 1, 256, 128
-0.999687, 289, 49, 304, 176
-0.999688, 59, 129, 74, 256
-0.99969, 57, 1, 88, 256
-0.999691, 275, 145, 290, 272
-0.999691, 63, 1, 78, 128
-0.999694, 475, 1, 490, 128
-0.999694, 373, 1, 388, 128
-0.999695, 35, 113, 50, 240
-0.999695, 123, 1, 138, 128
-0.999695, 263, 129, 278, 256
-0.999696, 183, 1, 198, 128
-0.999697, 231, 193, 246, 320
-0.999699, 407, 97, 422, 224
-0.999701, 105, 97, 120, 224
-0.999703, 95, 113, 110, 240
-0.999705, 395, 209, 410, 333
-0.999705, 387, 1, 402, 128
-0.999707, 27, 113, 42, 240
-0.999708, 485, 129, 500, 256
-0.99971, 129, 49, 144, 176
-0.999711, 299, 97, 314, 224
-0.999711, 265, 193, 280, 320
-0.999716, 259, 49, 274, 176
-0.999716, 11, 1, 26, 128
-0.999717, 353, 81, 368, 208
-0.999718, 407, 49, 422, 176
-0.999718, 1, 1, 16, 128
-0.999718, 1, 65, 16, 192
-0.999721, 397, 129, 412, 256
-0.999723, 175, 49, 190, 176
-0.999723, 185, 65, 200, 192
-0.999724, 313, 145, 328, 272
-0.999725, 73, 129, 88, 256
-0.999727, 247, 97, 262, 224
-0.999727, 147, 65, 162, 192
-0.999728, 363, 209, 378, 333
-0.999729, 101, 33, 116, 160
-0.999733, 29, 49, 44, 176
-0.999734, 387, 209, 402, 333
-0.999735, 469, 129, 484, 256
-0.999736, 209, 65, 224, 192
-0.999737, 279, 1, 294, 128
-0.999737, 1, 193, 32, 320
-0.999739, 451, 1, 466, 128
-0.999739, 249, 161, 264, 288
-0.999742, 57, 1, 72, 128
-0.999743, 137, 49, 152, 176
-0.999744, 159, 49, 174, 176
-0.999746, 469, 177, 484, 304
-0.999747, 295, 33, 310, 160
-0.999748, 365, 113, 380, 240
-0.999748, 393, 1, 408, 128
-0.99975, 453, 97, 468, 224
-0.99975, 51, 113, 66, 240
-0.999751, 319, 65, 334, 192
-0.999757, 57, 177, 88, 304
-0.999801, 57, 65, 88, 192
-0.999848, 205, 49, 236, 176
-0.999868, 433, 161, 464, 288
-0.99987, 1, 233, 500, 296
-0.99989, 425, 1, 456, 256
-0.999893, 253, 65, 284, 320
-0.99991, 397, 1, 428, 256
-0.99993, 41, 65, 72, 192
-0.99994, 469, 65, 500, 320
-0.999943, 217, 65, 248, 320
-0.999947, 417, 1, 448, 128
-1.00001, 261, 49, 292, 176
-1.00006, 325, 65, 356, 320
-1.00006, 37, 33, 68, 288
-1.00019, 441, 1, 472, 128
-1.00019, 409, 1, 440, 256
-1.00019, 77, 33, 108, 288
-1.00025, 53, 1, 84, 128
-1.00028, 229, 49, 260, 176
-1.0003, 301, 1, 332, 256
-1.00032, 173, 209, 204, 333
-1.00036, 413, 193, 444, 320
-1.00037, 285, 1, 316, 128
-1.00039, 81, 145, 112, 272
-1.00043, 457, 193, 488, 320
-1.00058, 217, 49, 248, 176
-1.00067, 17, 193, 48, 320
-1.00071, 45, 161, 76, 288
-1.00076, 69, 193, 100, 320
-1.00082, 429, 209, 460, 333
-1.00085, 445, 65, 476, 192
-1.00106, 13, 145, 44, 272
-1.00121, 77, 1, 108, 128
-1.00141, 25, 1, 56, 128
