1956
-0.407938, 1, 97, 500, 352
-0.445142, 225, 1, 480, 375
-0.454529, 129, 1, 384, 375
-0.485404, 1, 1, 500, 375
-0.505774, 97, 97, 352, 352
-0.548515, 1, 1, 500, 256
-0.559787, 193, 65, 448, 320
-0.584443, 33, 1, 288, 375
-0.588242, 1, 129, 256, 375
-0.76389, 97, 1, 352, 256
-0.815675, 1, 33, 256, 288
-0.823953, 209, 65, 336, 320
-0.843145, 225, 1, 352, 375
-0.843314, 129, 97, 256, 352
-0.851801, 273, 33, 400, 288
-0.855925, 273, 1, 400, 375
-0.865947, 289, 129, 416, 375
-0.870008, 129, 1, 256, 375
-0.877438, 33, 97, 160, 352
-0.877658, 369, 1, 496, 375
-0.878163, 321, 1, 448, 375
-0.880048, 1, 65, 500, 192
-0.887031, 177, 1, 304, 375
-0.888713, 1, 113, 500, 240
-0.889992, 353, 33, 480, 288
-0.892032, 1, 241, 500, 368
-0.900524, 1, 193, 500, 320
-0.90093, 65, 97, 320, 224
-0.901174, 17, 1, 144, 375
-0.90297, 337, 129, 464, 375
-0.907929, 129, 209, 384, 336
-0.90841, 193, 81, 448, 208
-0.908656, 193, 161, 448, 288
-0.909803, 81, 129, 208, 375
-0.916911, 65, 1, 192, 375
-0.917016, 97, 145, 352, 272
-0.918263, 145, 1, 272, 256
-0.922842, 257, 241, 500, 368
-0.923063, 81, 33, 208, 288
-0.926406, 33, 225, 288, 352
-0.926775, 209, 81, 336, 208
-0.93171, 209, 177, 336, 304
-0.93331, 257, 145, 384, 272
-0.93343, 225, 193, 288, 320
-0.934221, 1, 177, 256, 304
-0.935352, 17, 1, 144, 256
-0.935546, 1, 1, 500, 128
-0.935903, 257, 33, 500, 160
-0.937779, 145, 145, 272, 272
-0.938912, 257, 209, 384, 336
-0.939088, 145, 209, 272, 336
-0.939537, 201, 129, 264, 256
-0.940913, 225, 81, 288, 208
-0.942205, 265, 65, 328, 192
-0.943244, 129, 97, 256, 224
-0.943892, 201, 209, 264, 336
-0.944083, 257, 225, 320, 352
-0.944879, 297, 241, 360, 368
-0.9451, 273, 129, 336, 256
-0.94545, 209, 129, 336, 256
-0.947263, 321, 161, 448, 288
-0.948142, 201, 81, 264, 208
-0.948352, 297, 113, 360, 240
-0.949076, 209, 225, 336, 352
-0.94989, 369, 241, 496, 368
-0.950398, 329, 113, 392, 240
-0.950781, 305, 241, 432, 368
-0.951329, 345, 225, 408, 352
-0.952008, 289, 97, 416, 224
-0.952647, 305, 65, 368, 192
-0.95347, 273, 49, 400, 176
-0.954263, 393, 241, 456, 368
-0.954264, 97, 49, 352, 176
-0.954347, 425, 1, 488, 128
-0.955908, 209, 217, 272, 280
-0.956301, 65, 241, 192, 368
-0.956426, 177, 81, 240, 208
-0.956605, 329, 177, 392, 304
-0.957392, 337, 49, 464, 176
-0.957898, 353, 145, 416, 272
-0.958382, 81, 97, 208, 224
-0.958397, 241, 129, 304, 256
-0.958614, 273, 177, 336, 304
-0.958969, 337, 49, 400, 176
-0.959308, 225, 241, 288, 304
-0.959602, 353, 297, 416, 360
-0.95971, 257, 281, 320, 344
-0.960128, 297, 121, 360, 184
-0.960384, 329, 289, 392, 352
-0.960437, 217, 97, 280, 160
-0.960849, 225, 241, 288, 368
-0.960909, 321, 241, 384, 368
-0.961096, 369, 129, 496, 256
-0.961302, 289, 265, 352, 328
-0.961374, 273, 129, 336, 192
-0.961941, 217, 97, 280, 352
-0.962144, 193, 33, 320, 160
-0.962498, 297, 161, 360, 288
-0.962712, 281, 153, 344, 216
-0.962742, 217, 193, 280, 256
-0.962837, 193, 97, 256, 160
-0.963529, 265, 65, 328, 128
-0.963538, 177, 129, 240, 256
-0.963955, 241, 209, 304, 272
-0.963997, 17, 129, 144, 256
-0.964066, 329, 193, 392, 256
-0.964147, 201, 249, 264, 312
-0.96449, 249, 257, 312, 320
-0.964518, 289, 57, 352, 120
-0.964688, 297, 1, 360, 128
-0.964709, 177, 177, 240, 304
-0.964808, 177, 121, 240, 184
-0.964871, 193, 129, 256, 375
-0.965327, 305, 145, 368, 208
-0.965547, 161, 97, 224, 160
-0.965663, 241, 177, 304, 240
-0.965867, 369, 225, 432, 352
-0.966135, 65, 113, 128, 240
-0.966178, 225, 273, 288, 336
-0.966286, 401, 33, 464, 160
-0.966287, 369, 1, 496, 128
-0.967176, 209, 169, 272, 232
-0.967535, 193, 145, 256, 208
-0.967652, 97, 177, 224, 304
-0.967849, 89, 97, 152, 224
-0.967931, 297, 193, 360, 256
-0.968091, 361, 265, 424, 328
-0.968148, 377, 129, 440, 256
-0.96824, 369, 169, 432, 232
-0.968544, 49, 193, 176, 320
-0.968738, 1, 49, 256, 176
-0.968878, 425, 225, 488, 352
-0.968956, 257, 1, 384, 128
-0.968957, 265, 185, 328, 248
-0.969, 241, 153, 304, 216
-0.969091, 281, 33, 344, 288
-0.969449, 377, 297, 440, 360
-0.969568, 229, 161, 260, 288
-0.969604, 113, 49, 240, 176
-0.96975, 209, 209, 336, 272
-0.969848, 305, 129, 336, 192
-0.969972, 201, 33, 264, 160
-0.97008, 257, 65, 320, 320
-0.970136, 249, 177, 312, 304
-0.970271, 305, 289, 368, 352
-0.970432, 313, 313, 376, 375
-0.97083, 369, 49, 432, 176
-0.970855, 193, 97, 320, 160
-0.97096, 329, 161, 392, 224
-0.971047, 121, 97, 184, 224
-0.971047, 177, 225, 240, 352
-0.971214, 265, 217, 328, 280
-0.971414, 329, 129, 392, 192
-0.971449, 289, 313, 352, 375
-0.97172, 241, 193, 272, 320
-0.971749, 393, 225, 456, 288
-0.971895, 161, 1, 416, 128
-0.971988, 377, 177, 440, 304
-0.972031, 241, 73, 304, 136
-0.972442, 221, 81, 252, 208
-0.972556, 353, 193, 416, 256
-0.97265, 225, 177, 352, 240
-0.97267, 329, 217, 392, 280
-0.972799, 225, 209, 256, 336
-0.972821, 281, 129, 344, 375
-0.972937, 401, 1, 464, 64
-0.972945, 209, 233, 336, 296
-0.972947, 289, 289, 416, 352
-0.973006, 297, 33, 360, 96
-0.973015, 225, 217, 256, 280
-0.973246, 273, 209, 304, 336
-0.973264, 225, 153, 352, 216
-0.973387, 177, 233, 240, 296
-0.973491, 213, 225, 244, 288
-0.973555, 417, 305, 480, 368
-0.973673, 241, 81, 272, 208
-0.973866, 369, 193, 496, 320
-0.97395, 321, 1, 448, 128
-0.973969, 329, 241, 392, 304
-0.974102, 385, 273, 448, 336
-0.974319, 433, 225, 496, 288
-0.974411, 265, 305, 328, 368
-0.974486, 241, 1, 304, 128
-0.974597, 289, 129, 416, 192
-0.974627, 369, 217, 432, 280
-0.974645, 209, 281, 336, 344
-0.974726, 401, 177, 464, 304
-0.97485, 417, 33, 480, 96
-0.974927, 193, 73, 256, 136
-0.974955, 301, 49, 332, 176
-0.975064, 273, 17, 336, 144
-0.975094, 129, 225, 256, 288
-0.975249, 105, 209, 168, 336
-0.975497, 393, 49, 456, 112
-0.975526, 145, 97, 208, 224
-0.975527, 361, 241, 424, 304
-0.975609, 17, 81, 144, 208
-0.975665, 313, 65, 376, 320
-0.975902, 289, 265, 416, 328
-0.975916, 305, 169, 368, 232
-0.975919, 233, 129, 296, 192
-0.976137, 209, 121, 336, 184
-0.976305, 121, 161, 184, 288
-0.976406, 145, 241, 208, 368
-0.976485, 9, 145, 72, 272
-0.976488, 329, 265, 392, 328
-0.976496, 233, 241, 264, 304
-0.976726, 177, 185, 304, 248
-0.976903, 1, 225, 64, 352
-0.976915, 97, 105, 160, 168
-0.976975, 213, 209, 244, 336
-0.976987, 253, 209, 284, 272
-0.976996, 209, 97, 240, 224
-0.977001, 325, 121, 356, 184
-0.977041, 145, 249, 272, 312
-0.977066, 289, 169, 416, 232
-0.977188, 129, 121, 256, 184
-0.977372, 289, 193, 416, 256
-0.977382, 393, 193, 456, 256
-0.97743, 337, 105, 400, 168
-0.977506, 193, 33, 256, 288
-0.977586, 137, 273, 200, 336
-0.977703, 197, 81, 228, 208
-0.977773, 217, 145, 248, 272
-0.977773, 297, 97, 360, 160
-0.977819, 317, 153, 348, 216
-0.977828, 357, 289, 388, 352
-0.977852, 253, 193, 284, 320
-0.977962, 305, 113, 336, 240
-0.978014, 277, 65, 308, 192
-0.978066, 409, 241, 440, 368
-0.978103, 65, 121, 128, 184
-0.978155, 353, 97, 416, 224
-0.978279, 369, 33, 432, 288
-0.978327, 169, 97, 232, 352
-0.978396, 241, 81, 368, 144
-0.978401, 273, 241, 336, 304
-0.978428, 337, 297, 464, 360
-0.978616, 337, 169, 464, 232
-0.97862, 337, 129, 400, 375
-0.978632, 337, 297, 368, 360
-0.978804, 97, 145, 160, 272
-0.978845, 197, 97, 228, 160
-0.978895, 337, 193, 464, 256
-0.978897, 377, 145, 440, 208
-0.979051, 145, 145, 272, 208
-0.97909, 289, 313, 416, 375
-0.979171, 317, 129, 348, 256
-0.979196, 409, 113, 472, 240
-0.979296, 237, 217, 268, 280
-0.979438, 289, 49, 320, 176
-0.979515, 353, 265, 480, 328
-0.979611, 169, 209, 232, 272
-0.979803, 425, 193, 488, 256
-0.979828, 145, 297, 208, 360
-0.979846, 245, 249, 276, 312
-0.979855, 265, 65, 296, 192
-0.979908, 145, 273, 272, 336
-0.980028, 221, 97, 252, 160
-0.980066, 293, 49, 324, 112
-0.98011, 153, 49, 216, 176
-0.98014, 153, 161, 216, 288
-0.980236, 245, 273, 276, 336
-0.980295, 65, 1, 320, 128
-0.98036, 209, 257, 336, 320
-0.980427, 25, 241, 88, 368
-0.980455, 309, 241, 340, 368
-0.980458, 245, 241, 276, 368
-0.980495, 353, 233, 480, 296
-0.98051, 337, 57, 400, 120
-0.980528, 129, 97, 256, 160
-0.980542, 257, 217, 384, 280
-0.980548, 201, 273, 264, 336
-0.980577, 1, 241, 128, 368
-0.980638, 1, 177, 128, 304
-0.980669, 353, 241, 384, 368
-0.980698, 433, 177, 496, 304
-0.980721, 225, 265, 256, 328
-0.980746, 293, 225, 324, 352
-0.980781, 89, 97, 152, 352
-0.980842, 325, 65, 356, 192
-0.981055, 237, 193, 268, 256
-0.981089, 297, 233, 360, 296
-0.981191, 353, 193, 384, 320
-0.981212, 265, 217, 296, 280
-0.981364, 337, 33, 400, 288
-0.981408, 221, 145, 252, 208
-0.981432, 333, 241, 364, 368
-0.981449, 129, 201, 256, 264
-0.981467, 217, 1, 280, 375
-0.981508, 257, 257, 288, 320
-0.981598, 65, 49, 192, 176
-0.981612, 357, 193, 388, 256
-0.981661, 245, 145, 276, 208
-0.981711, 273, 249, 304, 312
-0.981756, 409, 169, 472, 232
-0.981824, 273, 57, 400, 120
-0.981827, 281, 65, 312, 128
-0.98189, 81, 313, 208, 375
-0.982055, 377, 257, 408, 320
-0.982066, 121, 113, 184, 176
-0.982089, 273, 1, 336, 375
-0.98215, 365, 161, 396, 288
-0.982262, 209, 129, 240, 192
-0.982291, 217, 65, 280, 128
-0.982341, 113, 209, 176, 272
-0.982374, 293, 121, 324, 184
-0.982404, 321, 241, 352, 368
-0.982505, 353, 145, 416, 208
-0.982552, 241, 305, 368, 368
-0.982581, 201, 121, 264, 184
-0.982587, 353, 1, 416, 128
-0.982633, 429, 1, 460, 128
-0.982648, 425, 49, 488, 176
-0.982648, 65, 65, 128, 192
-0.982724, 185, 97, 216, 160
-0.982744, 209, 89, 240, 152
-0.982819, 145, 97, 208, 352
-0.982821, 233, 1, 296, 256
-0.982827, 113, 177, 176, 240
-0.982888, 289, 105, 416, 168
-0.982932, 361, 113, 392, 240
-0.983008, 369, 281, 400, 344
-0.983041, 345, 49, 376, 176
-0.983066, 277, 281, 308, 344
-0.983079, 389, 297, 420, 360
-0.983086, 337, 113, 368, 240
-0.983101, 193, 73, 320, 136
-0.983157, 41, 65, 104, 192
-0.983199, 361, 129, 424, 375
-0.983201, 321, 305, 352, 368
-0.983227, 253, 145, 284, 272
-0.983252, 357, 265, 388, 328
-0.983325, 413, 225, 444, 288
-0.983332, 369, 145, 496, 208
-0.983334, 369, 49, 496, 112
-0.983357, 97, 49, 160, 176
-0.983395, 81, 113, 208, 176
-0.983423, 393, 241, 424, 304
-0.983433, 405, 313, 436, 375
-0.983542, 301, 161, 332, 288
-0.983544, 417, 249, 480, 312
-0.983605, 177, 257, 240, 320
-0.98368, 241, 1, 304, 375
-0.983738, 249, 33, 312, 96
-0.983742, 285, 129, 316, 256
-0.983759, 177, 185, 240, 248
-0.983802, 369, 169, 400, 232
-0.983934, 301, 265, 332, 328
-0.983944, 309, 105, 340, 168
-0.983987, 417, 1, 480, 256
-0.983998, 313, 57, 376, 120
-0.984045, 81, 289, 208, 352
-0.984063, 377, 121, 440, 184
-0.984088, 337, 177, 368, 304
-0.984155, 81, 257, 208, 320
-0.984238, 349, 129, 380, 256
-0.984276, 257, 169, 288, 232
-0.984326, 25, 281, 88, 344
-0.984336, 369, 241, 400, 368
-0.984392, 337, 129, 368, 192
-0.984421, 337, 1, 464, 64
-0.984434, 153, 73, 216, 136
-0.984434, 145, 241, 208, 304
-0.984462, 345, 273, 376, 336
-0.984462, 421, 313, 452, 375
-0.984474, 273, 105, 336, 168
-0.984523, 213, 257, 244, 320
-0.984543, 237, 89, 268, 152
-0.984573, 433, 9, 496, 72
-0.98458, 233, 169, 264, 232
-0.984587, 145, 297, 272, 360
-0.984669, 393, 249, 456, 312
-0.984694, 113, 233, 176, 296
-0.984727, 289, 81, 416, 144
-0.98474, 169, 297, 232, 360
-0.984757, 113, 97, 176, 352
-0.984792, 305, 313, 336, 375
-0.984817, 253, 81, 284, 208
-0.984828, 393, 241, 424, 368
-0.984871, 349, 313, 380, 375
-0.984873, 269, 73, 300, 136
-0.984876, 321, 1, 384, 375
-0.985146, 469, 241, 500, 368
-0.985165, 357, 153, 388, 216
-0.98524, 305, 33, 336, 96
-0.985273, 41, 129, 104, 256
-0.985277, 9, 97, 72, 224
-0.985337, 65, 97, 128, 352
-0.985454, 9, 257, 72, 320
-0.985538, 257, 81, 288, 144
-0.985538, 337, 185, 368, 248
-0.985541, 433, 305, 464, 368
-0.985547, 129, 169, 256, 232
-0.985584, 257, 281, 288, 344
-0.985615, 185, 1, 248, 375
-0.985627, 277, 217, 308, 280
-0.985657, 97, 97, 128, 224
-0.985683, 113, 257, 176, 320
-0.985686, 33, 305, 96, 368
-0.985745, 305, 241, 432, 304
-0.985773, 89, 137, 152, 200
-0.985868, 33, 241, 160, 304
-0.985896, 421, 241, 452, 368
-0.985912, 169, 161, 232, 224
-0.985935, 337, 121, 464, 184
-0.985977, 257, 241, 384, 304
-0.986057, 17, 113, 144, 176
-0.986085, 325, 97, 356, 160
-0.98619, 33, 137, 160, 200
-0.986257, 437, 209, 468, 272
-0.986258, 113, 313, 176, 375
-0.986259, 369, 121, 400, 184
-0.986313, 381, 241, 412, 368
-0.986336, 417, 57, 480, 120
-0.986373, 257, 241, 288, 368
-0.986433, 113, 1, 176, 256
-0.986447, 409, 145, 472, 208
-0.986458, 357, 241, 388, 304
-0.986485, 9, 129, 72, 375
-0.986559, 453, 1, 484, 128
-0.986578, 305, 73, 336, 136
-0.986587, 293, 145, 324, 208
-0.986599, 113, 97, 144, 224
-0.986605, 33, 177, 96, 304
-0.98661, 293, 297, 324, 360
-0.986634, 197, 121, 228, 184
-0.986666, 341, 209, 372, 272
-0.986669, 345, 33, 408, 96
-0.986678, 317, 201, 348, 264
-0.986728, 373, 113, 404, 240
-0.98679, 57, 273, 120, 336
-0.986806, 213, 201, 244, 264
-0.98681, 321, 57, 448, 120
-0.986875, 81, 193, 144, 320
-0.986879, 421, 1, 452, 64
-0.986907, 385, 25, 448, 88
-0.986932, 9, 153, 72, 216
-0.986961, 65, 241, 128, 368
-0.986969, 153, 121, 216, 184
-0.986987, 305, 217, 432, 280
-0.98699, 249, 97, 312, 160
-0.986998, 145, 1, 272, 128
-0.987062, 329, 1, 392, 128
-0.987086, 89, 113, 120, 176
-0.987139, 41, 129, 104, 192
-0.98714, 201, 177, 232, 304
-0.987175, 369, 305, 400, 368
-0.987228, 417, 1, 448, 128
-0.98724, 33, 265, 160, 328
-0.987246, 81, 233, 208, 296
-0.987258, 393, 1, 456, 375
-0.987262, 377, 1, 440, 128
-0.987275, 65, 97, 128, 160
-0.987284, 321, 81, 384, 144
-0.987304, 369, 1, 432, 375
-0.987344, 321, 25, 448, 88
-0.987385, 437, 33, 468, 96
-0.987432, 209, 49, 240, 176
-0.987436, 309, 289, 340, 352
-0.987463, 305, 153, 336, 216
-0.987473, 377, 233, 408, 296
-0.987486, 437, 241, 468, 368
-0.987511, 281, 137, 312, 200
-0.987527, 17, 145, 48, 272
-0.987603, 81, 209, 144, 272
-0.987614, 1, 297, 128, 360
-0.987639, 97, 145, 224, 208
-0.987648, 269, 129, 300, 256
-0.987714, 393, 33, 456, 288
-0.987722, 65, 201, 192, 264
-0.987774, 265, 137, 296, 200
-0.987807, 145, 145, 208, 208
-0.987956, 393, 273, 424, 336
-0.987967, 297, 1, 360, 375
-0.987977, 449, 241, 480, 368
-0.987978, 345, 1, 408, 375
-0.987993, 57, 305, 120, 368
-0.988056, 425, 233, 456, 296
-0.98808, 185, 97, 216, 224
-0.988157, 145, 201, 208, 264
-0.988206, 369, 65, 432, 128
-0.988219, 461, 313, 492, 375
-0.988221, 293, 73, 324, 136
-0.98824, 441, 1, 472, 128
-0.988258, 401, 177, 432, 304
-0.988275, 177, 33, 240, 160
-0.988301, 369, 97, 496, 160
-0.988329, 333, 273, 364, 336
-0.988357, 313, 33, 344, 160
-0.988359, 433, 97, 496, 224
-0.988381, 305, 201, 336, 264
-0.988395, 465, 1, 496, 128
-0.988407, 57, 249, 120, 312
-0.988468, 373, 193, 404, 256
-0.988484, 85, 97, 116, 224
-0.988524, 121, 49, 184, 176
-0.988531, 413, 177, 444, 304
-0.988533, 81, 89, 208, 152
-0.988564, 105, 281, 168, 344
-0.988578, 285, 241, 316, 304
-0.988618, 129, 289, 384, 352
-0.988621, 153, 241, 184, 368
-0.988625, 125, 97, 156, 224
-0.988647, 201, 233, 232, 296
-0.988725, 97, 73, 160, 136
-0.988764, 317, 225, 348, 288
-0.988777, 409, 201, 440, 264
-0.988808, 453, 289, 484, 352
-0.988812, 297, 241, 328, 304
-0.988832, 377, 161, 408, 288
-0.988839, 377, 97, 440, 160
-0.988866, 433, 281, 496, 344
-0.988873, 301, 1, 332, 128
-0.988937, 453, 233, 484, 296
-0.988946, 17, 217, 144, 280
-0.989046, 241, 65, 272, 128
-0.989078, 249, 285, 312, 316
-0.989078, 273, 33, 400, 96
-0.989158, 397, 49, 428, 176
-0.989187, 249, 33, 280, 160
-0.989195, 129, 73, 256, 136
-0.989455, 265, 73, 328, 104
-0.989459, 225, 277, 288, 308
-0.989463, 265, 193, 296, 256
-0.989473, 405, 273, 436, 336
-0.989508, 209, 225, 272, 256
-0.989591, 221, 33, 252, 160
-0.989605, 409, 281, 472, 344
-0.98964, 217, 245, 280, 276
-0.989655, 197, 129, 228, 256
-0.98969, 49, 161, 176, 224
-0.989723, 273, 1, 304, 128
-0.989726, 341, 65, 372, 128
-0.989736, 193, 209, 448, 272
-0.989741, 369, 25, 496, 88
-0.989791, 289, 137, 352, 168
-0.989794, 269, 169, 300, 232
-0.989803, 225, 257, 288, 288
-0.989832, 193, 185, 448, 248
-0.98984, 233, 161, 296, 192
-0.98985, 113, 153, 176, 216
-0.989854, 177, 49, 304, 112
-0.989902, 225, 213, 288, 244
-0.989945, 241, 173, 304, 204
-0.989963, 193, 101, 256, 132
-0.989971, 9, 233, 72, 296
-0.989982, 305, 317, 368, 348
-0.989992, 369, 73, 496, 136
-0.989994, 425, 41, 456, 104
-0.990024, 249, 273, 312, 304
-0.990054, 145, 1, 208, 375
-0.990071, 361, 317, 424, 348
-0.990138, 297, 125, 360, 156
-0.990168, 241, 237, 304, 268
-0.990169, 321, 41, 352, 104
-0.990178, 41, 97, 104, 352
-0.9902, 377, 145, 408, 208
-0.990219, 297, 305, 360, 336
-0.990228, 137, 177, 200, 240
-0.990229, 349, 121, 380, 184
-0.990249, 81, 161, 144, 224
-0.99029, 129, 265, 384, 328
-0.990308, 397, 217, 428, 280
-0.990315, 281, 157, 344, 188
-0.990341, 313, 177, 344, 304
-0.99041, 81, 313, 144, 375
-0.990416, 329, 309, 392, 340
-0.990429, 265, 221, 328, 252
-0.990481, 89, 185, 152, 248
-0.990485, 193, 153, 448, 216
-0.9905, 249, 85, 312, 116
-0.9905, 353, 297, 416, 328
-0.990501, 325, 177, 356, 304
-0.990553, 289, 69, 352, 100
-0.990567, 293, 97, 324, 160
-0.990567, 257, 297, 320, 328
-0.990568, 161, 97, 416, 160
-0.990571, 297, 177, 328, 240
-0.990581, 201, 297, 264, 360
-0.990587, 17, 89, 144, 152
-0.990638, 97, 145, 352, 208
-0.990648, 329, 153, 360, 216
-0.990652, 313, 145, 376, 176
-0.990657, 145, 1, 208, 256
-0.990666, 209, 197, 272, 228
-0.990666, 193, 165, 256, 196
-0.990674, 89, 1, 152, 256
-0.99068, 201, 185, 264, 216
-0.990692, 1, 161, 128, 224
-0.990719, 225, 97, 288, 128
-0.990722, 105, 1, 168, 375
-0.990768, 185, 149, 248, 180
-0.990771, 265, 309, 328, 340
-0.990773, 193, 261, 256, 292
-0.990777, 313, 193, 376, 224
-0.990789, 357, 217, 388, 280
-0.990806, 289, 281, 352, 312
-0.990819, 385, 317, 448, 348
-0.990821, 1, 113, 64, 176
-0.990833, 185, 89, 248, 120
-0.990846, 377, 1, 440, 64
-0.990848, 169, 125, 232, 156
-0.990855, 329, 161, 392, 192
-0.990874, 353, 261, 416, 292
-0.99088, 321, 177, 352, 240
-0.990882, 441, 1, 472, 64
-0.99091, 5, 145, 36, 272
-0.990918, 169, 1, 232, 256
-0.990918, 225, 73, 256, 136
-0.990918, 249, 261, 312, 292
-0.990944, 33, 121, 288, 184
-0.990955, 353, 329, 416, 360
-0.990963, 393, 229, 456, 260
-0.990968, 425, 221, 488, 252
-0.99098, 153, 97, 216, 128
-0.990995, 193, 305, 320, 368
-0.991005, 265, 141, 328, 172
-0.99102, 377, 257, 440, 288
-0.991023, 177, 137, 240, 168
-0.991035, 401, 217, 464, 248
-0.991042, 417, 321, 480, 352
-0.991064, 305, 217, 368, 248
-0.991072, 361, 197, 424, 228
-0.991075, 433, 153, 496, 216
-0.991079, 345, 153, 376, 216
-0.991079, 445, 313, 476, 375
-0.991082, 289, 57, 352, 88
-0.991085, 337, 141, 400, 172
-0.991085, 1, 185, 128, 248
-0.991086, 325, 17, 356, 144
-0.991094, 193, 121, 448, 184
-0.991112, 129, 313, 384, 375
-0.991131, 97, 185, 352, 248
-0.991133, 257, 57, 288, 120
-0.991142, 265, 169, 328, 200
-0.991154, 305, 205, 368, 236
-0.991181, 337, 125, 400, 156
-0.991187, 369, 169, 432, 200
-0.991193, 453, 193, 484, 256
-0.991212, 129, 233, 384, 296
-0.991223, 161, 109, 224, 140
-0.991238, 257, 157, 320, 188
-0.991239, 305, 165, 368, 196
-0.991255, 433, 1, 496, 375
-0.99126, 393, 329, 456, 360
-0.99128, 385, 305, 448, 336
-0.991296, 361, 237, 424, 268
-0.99133, 289, 217, 320, 280
-0.991332, 289, 273, 320, 336
-0.99134, 225, 149, 288, 180
-0.991353, 377, 157, 440, 188
-0.991366, 353, 209, 416, 240
-0.991366, 289, 177, 320, 304
-0.991374, 109, 145, 140, 272
-0.991374, 385, 205, 448, 236
-0.99139, 193, 113, 256, 144
-0.991393, 185, 229, 248, 260
-0.991407, 369, 181, 432, 212
-0.991445, 353, 157, 416, 188
-0.991448, 381, 49, 412, 176
-0.991453, 281, 321, 344, 352
-0.991457, 401, 253, 464, 284
-0.99146, 65, 1, 128, 375
-0.991467, 357, 33, 388, 160
-0.991467, 289, 293, 352, 324
-0.991468, 401, 269, 464, 300
-0.991472, 321, 329, 384, 360
-0.991499, 329, 177, 392, 208
-0.991503, 289, 1, 320, 128
-0.991504, 229, 121, 260, 184
-0.991516, 337, 193, 400, 224
-0.991516, 389, 129, 420, 192
-0.991518, 437, 233, 468, 296
-0.991532, 217, 173, 280, 204
-0.991547, 469, 257, 500, 320
-0.991557, 317, 257, 348, 320
-0.991559, 137, 97, 168, 224
-0.991567, 329, 249, 392, 280
-0.991571, 241, 225, 304, 256
-0.991587, 417, 309, 480, 340
-0.991587, 257, 273, 500, 336
-0.991589, 289, 269, 352, 300
-0.991591, 313, 273, 376, 304
-0.991599, 377, 273, 440, 304
-0.991603, 185, 249, 248, 280
-0.991605, 421, 177, 452, 240
-0.991617, 417, 129, 480, 375
-0.991622, 201, 273, 264, 304
-0.991626, 341, 233, 372, 296
-0.991626, 149, 265, 180, 328
-0.991647, 17, 33, 144, 160
-0.991652, 433, 249, 496, 280
-0.991657, 329, 217, 392, 248
-0.991662, 225, 137, 288, 168
-0.991668, 401, 241, 464, 272
-0.99167, 385, 113, 416, 240
-0.991671, 329, 205, 392, 236
-0.991688, 109, 105, 140, 168
-0.991719, 421, 201, 452, 264
-0.991728, 353, 281, 416, 312
-0.991735, 241, 185, 304, 216
-0.991768, 305, 229, 368, 260
-0.991768, 329, 297, 392, 328
-0.991779, 329, 233, 360, 296
-0.991809, 369, 49, 400, 176
-0.991828, 409, 9, 472, 40
-0.991832, 449, 25, 480, 88
-0.991867, 385, 1, 448, 32
-0.991882, 433, 333, 496, 364
-0.991888, 145, 337, 208, 368
-0.99189, 265, 53, 328, 84
-0.99189, 281, 209, 344, 240
-0.991897, 417, 49, 448, 176
-0.991899, 265, 233, 328, 264
-0.99191, 321, 261, 384, 292
-0.991911, 185, 209, 248, 240
-0.991912, 305, 113, 368, 144
-0.991922, 241, 201, 304, 232
-0.991927, 237, 33, 268, 160
-0.99193, 273, 253, 336, 284
-0.991935, 353, 221, 416, 252
-0.991937, 137, 277, 200, 308
-0.991938, 433, 237, 496, 268
-0.991941, 401, 293, 464, 324
-0.991946, 265, 129, 328, 160
-0.991946, 209, 81, 272, 112
-0.991959, 337, 113, 400, 144
-0.991961, 433, 33, 496, 64
-0.991966, 377, 217, 440, 248
-0.992004, 93, 49, 124, 176
-0.992015, 97, 113, 160, 144
-0.99203, 209, 125, 272, 156
-0.992055, 197, 73, 228, 136
-0.992055, 153, 97, 184, 224
-0.992059, 145, 321, 208, 352
-0.992063, 1, 281, 256, 344
-0.992073, 241, 129, 272, 256
-0.992074, 329, 209, 360, 272
-0.99208, 273, 181, 336, 212
-0.99208, 41, 325, 104, 356
-0.992086, 289, 81, 352, 112
-0.992093, 25, 313, 88, 344
-0.992129, 137, 289, 200, 320
-0.992129, 393, 193, 456, 224
-0.99213, 137, 265, 200, 296
-0.992133, 401, 53, 464, 84
-0.992134, 381, 169, 412, 232
-0.99216, 329, 285, 392, 316
-0.992161, 425, 209, 488, 240
-0.992165, 277, 41, 308, 104
-0.992165, 33, 257, 288, 320
-0.992209, 1, 113, 500, 176
-0.992231, 49, 1, 112, 256
-0.992385, 1, 289, 500, 352
-0.992392, 277, 285, 308, 316
-0.992423, 113, 193, 144, 320
-0.992425, 225, 245, 256, 276
-0.992448, 225, 225, 256, 256
-0.992503, 301, 133, 332, 164
-0.992533, 245, 281, 276, 312
-0.992534, 133, 177, 164, 304
-0.992557, 257, 305, 500, 368
-0.992561, 177, 33, 208, 160
-0.992572, 325, 133, 356, 164
-0.992583, 73, 113, 104, 240
-0.992592, 313, 309, 344, 340
-0.992601, 313, 125, 344, 156
-0.99264, 65, 209, 320, 272
-0.992655, 289, 65, 320, 96
-0.992657, 261, 269, 292, 300
-0.992658, 237, 221, 268, 252
-0.992668, 245, 161, 276, 192
-0.992677, 213, 229, 244, 260
-0.99269, 301, 309, 332, 340
-0.992716, 381, 305, 412, 336
-0.992722, 37, 145, 68, 272
-0.992749, 273, 77, 304, 108
-0.99275, 369, 317, 400, 348
-0.992757, 205, 101, 236, 132
-0.992757, 365, 261, 396, 292
-0.992759, 325, 145, 356, 176
-0.99277, 305, 145, 336, 176
-0.992778, 237, 249, 268, 280
-0.99278, 257, 213, 288, 244
-0.99279, 241, 269, 272, 300
-0.992796, 301, 57, 332, 88
-0.992805, 225, 269, 256, 300
-0.992806, 213, 241, 244, 272
-0.992821, 321, 321, 352, 352
-0.992824, 1, 313, 500, 375
-0.992828, 213, 113, 244, 144
-0.99283, 181, 97, 212, 128
-0.992838, 337, 305, 368, 336
-0.992839, 269, 217, 300, 248
-0.992843, 233, 101, 264, 132
-0.992844, 261, 85, 292, 116
-0.992855, 257, 57, 500, 120
-0.992856, 225, 33, 352, 96
-0.992856, 33, 233, 288, 296
-0.992859, 245, 209, 276, 240
-0.992865, 313, 157, 344, 188
-0.992865, 357, 297, 388, 328
-0.992866, 33, 313, 288, 375
-0.992874, 249, 229, 280, 260
-0.992884, 213, 261, 244, 292
-0.9929, 261, 161, 292, 192
-0.992901, 301, 121, 332, 152
-0.992914, 213, 149, 244, 180
-0.992915, 385, 261, 416, 292
-0.992918, 197, 89, 228, 120
-0.992926, 265, 237, 296, 268
-0.992933, 125, 225, 156, 352
-0.992954, 197, 33, 228, 160
-0.992955, 369, 201, 400, 232
-0.992959, 205, 133, 236, 164
-0.99296, 413, 229, 444, 260
-0.992967, 309, 325, 340, 356
-0.992973, 349, 317, 380, 348
-0.992977, 97, 1, 224, 128
-0.992979, 257, 285, 288, 316
-0.992982, 337, 325, 368, 356
-0.992984, 325, 121, 356, 152
-0.992987, 221, 165, 252, 196
-0.992987, 421, 321, 452, 352
-0.992995, 301, 225, 332, 256
-0.993, 285, 301, 316, 332
-0.99301, 261, 17, 292, 144
-0.993015, 237, 149, 268, 180
-0.993018, 437, 225, 468, 256
-0.993022, 353, 261, 384, 292
-0.993026, 237, 237, 268, 268
-0.993028, 369, 297, 400, 328
-0.99303, 17, 65, 144, 128
-0.993033, 237, 197, 268, 228
-0.993034, 225, 257, 256, 288
-0.99304, 437, 321, 468, 352
-0.993043, 365, 277, 396, 308
-0.993044, 393, 309, 424, 340
-0.993045, 365, 161, 396, 192
-0.993046, 277, 273, 308, 304
-0.993054, 365, 189, 396, 220
-0.993056, 405, 317, 436, 348
-0.993057, 217, 101, 248, 132
-0.993059, 245, 173, 276, 204
-0.993072, 229, 181, 260, 212
-0.993072, 193, 117, 224, 148
-0.993079, 341, 129, 372, 160
-0.99308, 273, 301, 400, 332
-0.99308, 325, 157, 356, 188
-0.993091, 413, 1, 444, 32
-0.993092, 321, 217, 352, 248
-0.993098, 357, 329, 388, 360
-0.993102, 289, 121, 320, 152
-0.993104, 201, 225, 232, 352
-0.993105, 317, 201, 348, 232
-0.993108, 313, 113, 344, 144
-0.993112, 377, 273, 408, 304
-0.993114, 297, 273, 328, 304
-0.993116, 353, 241, 384, 272
-0.993122, 349, 273, 380, 304
-0.993129, 377, 185, 408, 216
-0.99313, 273, 253, 304, 284
-0.99314, 385, 293, 416, 324
-0.993141, 393, 237, 424, 268
-0.993143, 281, 137, 312, 168
-0.993148, 369, 141, 400, 172
-0.993151, 25, 209, 56, 336
-0.993153, 393, 217, 424, 248
-0.993155, 429, 213, 460, 244
-0.993158, 441, 33, 472, 64
-0.99316, 301, 289, 332, 320
-0.993165, 381, 317, 412, 348
-0.993168, 337, 193, 368, 224
-0.993175, 429, 237, 460, 268
-0.993177, 401, 273, 432, 304
-0.993178, 469, 325, 500, 356
-0.993183, 33, 97, 288, 160
-0.993184, 249, 257, 280, 288
-0.993184, 209, 221, 336, 252
-0.993185, 369, 249, 400, 280
-0.993185, 377, 173, 408, 204
-0.993187, 285, 149, 316, 180
-0.993195, 357, 201, 388, 232
-0.993197, 249, 93, 280, 124
-0.993199, 221, 125, 252, 156
-0.993213, 249, 245, 280, 276
-0.993215, 217, 209, 248, 240
-0.99322, 285, 77, 316, 108
-0.993229, 265, 149, 296, 180
-0.993231, 273, 161, 304, 192
-0.993235, 341, 1, 372, 128
-0.993236, 337, 141, 368, 172
-0.993238, 369, 121, 400, 152
-0.993238, 297, 321, 328, 352
-0.99324, 405, 217, 436, 248
-0.99324, 453, 221, 484, 252
-0.993241, 413, 205, 444, 236
-0.993241, 433, 309, 464, 340
-0.993243, 289, 221, 320, 252
-0.993245, 253, 185, 284, 216
-0.993245, 457, 317, 488, 348
-0.993247, 337, 277, 368, 308
-0.993248, 289, 53, 320, 84
-0.993253, 413, 257, 444, 288
-0.993256, 393, 321, 424, 352
-0.993257, 389, 277, 420, 308
-0.993259, 229, 137, 260, 168
-0.993275, 225, 249, 480, 312
-0.993332, 1, 1, 64, 375
-0.993342, 161, 73, 416, 136
-0.993463, 1, 177, 500, 240
-0.99347, 385, 129, 448, 375
-0.993475, 41, 1, 104, 375
-0.99351, 1, 33, 64, 288
-0.993523, 225, 185, 352, 216
-0.993551, 145, 193, 176, 320
-0.993901, 65, 241, 96, 368
-0.993909, 237, 233, 252, 296
-0.99398, 165, 97, 196, 224
-0.994057, 229, 225, 244, 288
-0.994068, 1, 201, 500, 264
-0.994074, 45, 241, 76, 368
-0.994087, 413, 129, 444, 256
-0.994094, 241, 197, 368, 228
-0.994199, 221, 225, 236, 288
-0.994202, 397, 129, 428, 256
-0.994281, 209, 289, 336, 320
-0.994285, 229, 65, 260, 320
-0.994333, 433, 177, 464, 304
-0.994368, 1, 137, 500, 200
-0.994384, 193, 121, 320, 152
-0.994396, 209, 153, 336, 184
-0.994413, 1, 89, 500, 152
-0.994443, 289, 125, 416, 156
-0.994516, 289, 313, 416, 344
-0.994519, 249, 193, 264, 256
-0.994591, 225, 209, 352, 240
-0.994615, 319, 121, 334, 184
-0.994622, 465, 177, 496, 304
-0.994622, 1, 265, 500, 328
-0.994698, 453, 193, 484, 320
-0.994729, 225, 173, 352, 204
-0.99475, 9, 97, 40, 224
-0.994752, 193, 237, 320, 268
-0.994753, 209, 133, 336, 164
-0.99476, 113, 49, 144, 176
-0.994778, 289, 165, 416, 196
-0.994826, 121, 145, 152, 272
-0.994844, 1, 49, 64, 176
-0.994859, 289, 197, 416, 228
-0.994868, 273, 281, 400, 312
-0.994868, 1, 41, 128, 104
-0.994904, 129, 229, 256, 260
-0.994925, 255, 201, 270, 264
-0.994928, 81, 65, 208, 128
-0.994943, 161, 277, 288, 308
-0.994984, 267, 257, 282, 320
-0.994987, 161, 173, 288, 204
-0.99499, 1, 185, 256, 248
-0.994992, 359, 289, 374, 352
-0.995023, 25, 17, 88, 144
-0.995053, 469, 81, 500, 208
-0.995059, 289, 137, 416, 168
-0.9951, 241, 81, 368, 112
-0.995104, 129, 241, 256, 272
-0.99512, 307, 129, 322, 192
-0.995148, 33, 1, 160, 64
-0.995228, 369, 289, 384, 352
-0.995239, 231, 249, 246, 312
-0.995255, 81, 345, 208, 375
-0.995258, 225, 305, 352, 336
-0.995262, 299, 49, 314, 112
-0.99527, 161, 197, 288, 228
-0.99529, 185, 145, 216, 272
-0.995292, 177, 97, 304, 128
-0.995292, 225, 33, 480, 96
-0.995295, 213, 97, 244, 352
-0.99533, 289, 213, 416, 244
-0.995354, 97, 145, 128, 272
-0.995358, 257, 1, 500, 64
-0.99536, 161, 145, 288, 176
-0.995369, 371, 185, 386, 248
-0.995405, 289, 185, 416, 216
-0.995438, 271, 209, 286, 272
-0.995438, 257, 225, 384, 256
-0.995506, 305, 49, 320, 112
-0.995509, 337, 201, 464, 232
-0.99552, 353, 273, 368, 336
-0.995539, 129, 257, 256, 288
-0.995554, 201, 97, 216, 160
-0.99556, 209, 249, 336, 280
-0.995572, 1, 233, 500, 296
-0.995587, 323, 145, 338, 208
-0.995594, 9, 209, 40, 336
-0.995598, 129, 133, 256, 164
-0.995612, 129, 121, 256, 152
-0.995618, 433, 305, 448, 368
-0.995644, 353, 317, 480, 348
-0.995648, 161, 209, 288, 240
-0.995665, 399, 289, 414, 352
-0.995678, 241, 89, 256, 152
-0.995681, 45, 193, 76, 320
-0.995691, 321, 301, 448, 332
-0.995699, 303, 305, 318, 368
-0.995708, 337, 121, 352, 184
-0.995718, 353, 297, 368, 360
-0.995722, 249, 233, 264, 296
-0.995725, 207, 97, 222, 160
-0.995736, 209, 277, 336, 308
-0.995737, 337, 165, 464, 196
-0.995749, 129, 101, 256, 132
-0.995755, 241, 209, 256, 272
-0.99576, 243, 241, 258, 304
-0.995771, 177, 109, 304, 140
-0.995775, 65, 333, 192, 364
-0.995777, 299, 273, 314, 336
-0.995778, 319, 297, 334, 360
-0.995783, 161, 157, 288, 188
-0.995786, 243, 177, 258, 240
-0.995794, 225, 1, 352, 64
-0.995799, 273, 237, 400, 268
-0.995804, 263, 281, 278, 344
-0.995818, 225, 261, 352, 292
-0.995828, 237, 265, 252, 328
-0.995831, 261, 209, 276, 272
-0.995838, 313, 297, 328, 360
-0.995848, 279, 249, 294, 312
-0.995849, 145, 1, 272, 64
-0.995861, 231, 97, 246, 160
-0.995867, 195, 89, 210, 152
-0.995886, 427, 313, 442, 375
-0.995902, 359, 257, 374, 320
-0.995905, 371, 265, 386, 328
-0.995908, 261, 257, 276, 320
-0.995915, 325, 121, 340, 184
-0.995924, 305, 329, 432, 360
-0.995939, 391, 257, 406, 320
-0.99595, 279, 217, 294, 280
-0.99596, 213, 97, 228, 160
-0.995963, 257, 153, 384, 184
-0.99597, 381, 289, 396, 352
-0.995977, 273, 9, 400, 72
-0.995987, 389, 177, 420, 304
-0.995989, 73, 65, 104, 192
-0.995993, 241, 317, 368, 348
-0.996005, 241, 65, 272, 320
-0.996016, 293, 65, 308, 128
-0.996019, 65, 49, 320, 112
-0.996026, 215, 225, 230, 288
-0.996043, 347, 273, 362, 336
-0.996075, 273, 69, 400, 100
-0.996093, 225, 145, 240, 208
-0.996093, 393, 297, 408, 360
-0.996094, 1, 1, 64, 128
-0.996099, 329, 153, 344, 216
-0.996104, 161, 185, 288, 216
-0.996104, 253, 273, 268, 336
-0.996117, 125, 49, 156, 176
-0.996119, 219, 105, 234, 168
-0.99613, 231, 153, 246, 216
-0.996132, 363, 209, 378, 272
-0.996135, 237, 161, 252, 224
-0.996149, 273, 273, 288, 336
-0.996154, 387, 305, 402, 368
-0.996162, 377, 257, 392, 320
-0.996166, 291, 281, 306, 344
-0.996167, 313, 129, 328, 192
-0.996167, 409, 313, 424, 375
-0.996186, 305, 281, 320, 344
-0.996193, 65, 313, 192, 344
-0.996219, 397, 265, 412, 328
-0.996219, 361, 313, 376, 375
-0.99623, 297, 33, 328, 288
-0.996231, 331, 313, 346, 375
-0.996236, 113, 217, 240, 248
-0.996237, 243, 265, 258, 328
-0.996237, 405, 241, 420, 304
-0.996239, 337, 273, 464, 304
-0.99625, 443, 297, 458, 360
-0.996262, 321, 225, 448, 256
-0.996265, 397, 1, 428, 128
-0.99628, 425, 129, 456, 256
-0.996281, 219, 137, 234, 200
-0.996282, 297, 297, 312, 360
-0.996294, 1, 145, 256, 208
-0.99631, 301, 121, 316, 184
-0.996315, 281, 73, 296, 136
-0.996325, 253, 65, 284, 320
-0.996326, 289, 257, 304, 320
-0.996334, 379, 169, 394, 232
-0.996334, 285, 33, 316, 288
-0.99634, 81, 1, 208, 64
-0.996343, 201, 65, 232, 320
-0.996372, 267, 81, 282, 144
-0.996385, 331, 121, 346, 184
-0.996385, 347, 121, 362, 184
-0.996408, 425, 225, 440, 288
-0.996418, 339, 185, 354, 248
-0.996426, 409, 217, 424, 280
-0.996429, 457, 297, 472, 360
-0.99645, 365, 129, 396, 375
-0.996463, 369, 177, 496, 208
-0.996464, 225, 97, 240, 160
-0.996465, 235, 209, 250, 272
-0.996475, 177, 85, 304, 116
-0.996477, 287, 65, 302, 128
-0.996479, 463, 305, 478, 368
-0.996479, 145, 305, 272, 336
-0.996483, 415, 225, 430, 288
-0.996485, 347, 297, 362, 360
-0.996487, 273, 241, 288, 304
-0.996488, 259, 89, 274, 152
-0.996496, 49, 33, 176, 96
-0.9965, 25, 81, 56, 208
-0.996519, 61, 129, 92, 256
-0.996523, 375, 297, 390, 360
-0.996543, 339, 209, 354, 272
-0.996547, 225, 93, 352, 124
-0.996549, 429, 49, 460, 176
-0.996549, 337, 213, 464, 244
-0.996551, 145, 49, 176, 176
-0.996561, 383, 265, 398, 328
-0.996561, 289, 269, 416, 300
-0.996596, 311, 105, 326, 168
-0.996598, 65, 17, 128, 144
-0.996615, 61, 81, 92, 208
-0.996623, 225, 249, 240, 312
-0.996623, 305, 153, 432, 184
-0.996632, 33, 73, 288, 136
-0.996638, 369, 229, 496, 260
-0.996639, 305, 113, 432, 144
-0.996648, 275, 73, 290, 136
-0.996681, 415, 313, 430, 375
-0.996693, 81, 117, 208, 148
-0.996694, 213, 129, 228, 192
-0.996696, 49, 289, 176, 320
-0.996697, 341, 297, 356, 360
-0.996699, 247, 97, 262, 160
-0.9967, 33, 265, 160, 296
-0.996707, 409, 273, 424, 336
-0.996712, 257, 89, 500, 152
-0.996731, 355, 209, 370, 272
-0.996738, 365, 265, 380, 328
-0.996759, 265, 129, 296, 375
-0.996761, 321, 249, 448, 280
-0.996772, 145, 341, 272, 372
-0.996772, 369, 313, 384, 375
-0.996783, 369, 329, 496, 360
-0.996799, 339, 145, 354, 208
-0.996813, 267, 57, 282, 120
-0.996814, 145, 321, 272, 352
-0.996821, 97, 193, 224, 224
-0.996824, 261, 185, 276, 248
-0.996827, 289, 217, 304, 280
-0.996836, 229, 201, 244, 264
-0.996848, 311, 273, 326, 336
-0.996857, 223, 193, 238, 256
-0.99686, 449, 313, 464, 375
-0.996868, 299, 241, 314, 304
-0.996873, 207, 121, 222, 184
-0.996874, 325, 313, 340, 375
-0.996874, 365, 233, 380, 296
-0.996878, 161, 289, 288, 320
-0.996882, 415, 193, 430, 256
-0.996884, 369, 145, 496, 176
-0.996886, 347, 185, 362, 248
-0.996888, 349, 249, 364, 312
-0.996897, 435, 233, 450, 296
-0.996913, 369, 125, 496, 156
-0.996917, 359, 233, 374, 296
-0.996917, 25, 1, 88, 256
-0.996929, 483, 313, 498, 375
-0.99693, 313, 129, 344, 375
-0.996949, 353, 261, 480, 292
-0.996951, 1, 41, 500, 104
-0.996956, 177, 265, 304, 296
-0.996961, 241, 121, 368, 152
-0.996962, 371, 241, 386, 304
-0.996971, 307, 233, 322, 296
-0.996978, 385, 233, 400, 296
-0.996991, 353, 189, 480, 220
-0.997005, 227, 121, 242, 184
-0.997009, 337, 57, 464, 88
-0.997016, 325, 33, 356, 288
-0.997016, 399, 313, 414, 375
-0.99702, 421, 1, 436, 64
-0.997021, 353, 289, 480, 320
-0.997025, 81, 273, 208, 304
-0.997047, 65, 233, 192, 264
-0.997061, 65, 301, 192, 332
-0.997099, 289, 81, 416, 112
-0.997117, 177, 241, 208, 368
-0.99713, 285, 129, 316, 375
-0.997146, 81, 261, 208, 292
-0.997154, 161, 177, 192, 304
-0.997157, 297, 129, 328, 375
-0.997172, 321, 69, 448, 100
-0.997207, 257, 57, 384, 88
-0.997226, 357, 33, 388, 288
-0.997235, 353, 1, 480, 32
-0.99726, 81, 241, 112, 368
-0.997263, 273, 33, 304, 288
-0.997267, 177, 25, 304, 88
-0.997297, 49, 145, 80, 272
-0.9973, 369, 245, 496, 276
-0.997306, 113, 145, 240, 176
-0.997308, 97, 205, 224, 236
-0.997311, 33, 253, 160, 284
-0.997316, 315, 309, 330, 340
-0.997333, 273, 257, 400, 288
-0.997337, 33, 145, 160, 176
-0.997362, 193, 73, 320, 104
-0.997377, 121, 97, 152, 352
-0.997395, 271, 277, 286, 308
-0.997467, 231, 225, 246, 256
-0.997478, 345, 33, 376, 288
-0.997483, 1, 341, 128, 372
-0.997487, 65, 129, 192, 160
-0.997489, 37, 97, 68, 224
-0.9975, 353, 17, 480, 48
-0.997521, 97, 181, 224, 212
-0.997528, 33, 277, 160, 308
-0.997537, 321, 237, 448, 268
-0.997554, 369, 69, 496, 100
-0.997564, 113, 157, 240, 188
-0.997578, 337, 45, 464, 76
-0.997585, 49, 161, 176, 192
-0.997589, 237, 221, 252, 252
-0.99762, 337, 33, 464, 64
-0.997625, 377, 33, 408, 288
-0.997648, 65, 217, 192, 248
-0.997651, 313, 33, 344, 288
-0.997656, 257, 341, 384, 372
-0.997656, 129, 89, 256, 120
-0.997657, 303, 57, 318, 88
-0.997662, 261, 285, 276, 316
-0.997682, 295, 293, 310, 324
-0.997685, 257, 329, 384, 360
-0.997704, 217, 1, 248, 256
-0.997707, 347, 129, 362, 160
-0.997725, 341, 129, 372, 375
-0.997733, 17, 241, 144, 272
-0.997757, 237, 165, 252, 196
-0.997759, 315, 129, 330, 160
-0.997763, 305, 125, 320, 156
-0.997798, 17, 121, 144, 152
-0.997801, 49, 197, 176, 228
-0.997806, 301, 305, 316, 336
-0.997809, 235, 101, 250, 132
-0.997817, 353, 129, 384, 375
-0.997824, 97, 285, 224, 316
-0.997827, 321, 149, 336, 180
-0.997831, 237, 241, 252, 272
-0.997841, 357, 297, 372, 328
-0.997841, 191, 93, 206, 124
-0.997844, 385, 313, 400, 344
-0.997853, 273, 45, 400, 76
-0.997865, 327, 149, 342, 180
-0.997868, 253, 201, 268, 232
-0.997873, 431, 321, 446, 352
-0.997876, 289, 285, 304, 316
-0.997882, 273, 101, 400, 132
-0.997892, 363, 329, 378, 360
-0.997892, 339, 125, 354, 156
-0.997894, 1, 301, 128, 332
-0.997895, 81, 105, 208, 136
-0.997899, 297, 65, 312, 96
-0.997905, 141, 97, 172, 352
-0.997906, 225, 109, 352, 140
-0.997908, 225, 245, 240, 276
-0.997909, 81, 249, 208, 280
-0.997919, 349, 309, 364, 340
-0.997929, 271, 289, 286, 320
-0.99793, 235, 269, 250, 300
-0.997932, 235, 257, 250, 288
-0.99796, 231, 237, 246, 268
-0.997963, 369, 113, 496, 144
-0.997964, 259, 209, 274, 240
-0.997968, 93, 97, 124, 352
-0.997978, 1, 213, 128, 244
-0.997992, 321, 325, 336, 356
-0.998001, 241, 177, 256, 208
-0.998011, 1, 329, 128, 360
-0.998014, 221, 229, 236, 260
-0.998029, 197, 97, 212, 128
-0.998029, 369, 305, 496, 336
-0.998033, 97, 169, 224, 200
-0.998035, 355, 313, 370, 344
-0.998039, 105, 65, 136, 320
-0.99804, 307, 313, 322, 344
-0.99804, 277, 81, 292, 112
-0.998042, 231, 153, 246, 184
-0.998047, 241, 261, 256, 292
-0.99806, 351, 277, 366, 308
-0.998066, 273, 217, 288, 248
-0.998072, 377, 321, 392, 352
-0.998075, 229, 257, 244, 288
-0.998081, 305, 221, 320, 252
-0.998086, 283, 77, 298, 108
-0.998087, 265, 273, 280, 304
-0.998089, 255, 281, 270, 312
-0.998093, 329, 321, 344, 352
-0.998094, 321, 125, 336, 156
-0.998111, 315, 117, 330, 148
-0.998117, 225, 101, 240, 132
-0.998118, 199, 109, 214, 140
-0.998122, 1, 289, 128, 320
-0.998125, 225, 145, 240, 176
-0.998126, 105, 1, 168, 128
-0.998127, 405, 33, 436, 288
-0.998127, 385, 269, 400, 300
-0.99813, 249, 217, 264, 248
-0.998143, 449, 325, 464, 356
-0.998144, 243, 237, 258, 268
-0.998148, 299, 125, 314, 156
-0.998148, 357, 269, 372, 300
-0.998148, 129, 25, 256, 88
-0.998151, 243, 217, 258, 248
-0.998153, 247, 189, 262, 220
-0.998155, 289, 73, 304, 104
-0.998157, 17, 133, 144, 164
-0.998167, 1, 225, 128, 256
-0.998169, 41, 129, 72, 375
-0.998176, 263, 89, 278, 120
-0.99818, 49, 173, 176, 204
-0.998187, 57, 193, 120, 320
-0.998194, 189, 65, 220, 320
-0.9982, 315, 225, 330, 256
-0.998207, 361, 313, 376, 344
-0.998235, 219, 137, 234, 168
-0.998241, 371, 321, 386, 352
-0.998245, 393, 33, 424, 288
-0.998247, 375, 257, 390, 288
-0.998248, 309, 113, 324, 144
-0.998257, 327, 137, 342, 168
-0.998262, 377, 129, 408, 375
-0.998264, 339, 141, 354, 172
-0.998267, 433, 233, 448, 264
-0.998269, 269, 85, 284, 116
-0.998269, 241, 101, 256, 132
-0.998272, 241, 277, 256, 308
-0.998272, 313, 325, 328, 356
-0.998272, 57, 129, 88, 375
-0.998275, 265, 161, 280, 192
-0.998277, 417, 1, 432, 32
-0.998288, 379, 269, 394, 300
-0.99829, 383, 301, 398, 332
-0.9983, 309, 69, 324, 100
-0.998302, 265, 213, 280, 244
-0.998302, 407, 333, 422, 364
-0.998306, 271, 237, 286, 268
-0.998308, 441, 333, 456, 364
-0.99831, 229, 269, 244, 300
-0.998319, 329, 129, 360, 375
-0.998324, 297, 273, 312, 304
-0.998324, 377, 185, 392, 216
-0.99833, 309, 301, 324, 332
-0.998348, 277, 281, 292, 312
-0.998351, 1, 65, 500, 128
-0.998358, 381, 333, 412, 348
-0.998358, 417, 317, 432, 348
-0.998359, 373, 311, 404, 326
-0.998359, 213, 263, 244, 278
-0.99836, 437, 213, 468, 228
-0.99836, 405, 205, 436, 220
-0.99836, 337, 315, 368, 330
-0.99836, 203, 97, 218, 128
-0.998362, 229, 187, 260, 202
-0.998362, 357, 329, 388, 344
-0.998363, 343, 57, 358, 88
-0.998364, 393, 239, 424, 254
-0.998364, 313, 135, 344, 150
-0.998364, 309, 227, 340, 242
-0.998364, 317, 203, 348, 218
-0.998364, 417, 323, 448, 338
-0.998365, 205, 141, 236, 156
-0.998365, 357, 329, 372, 360
-0.998367, 369, 327, 400, 342
-0.998367, 277, 281, 308, 296
-0.998368, 365, 171, 396, 186
-0.998368, 209, 237, 240, 252
-0.998369, 253, 93, 284, 108
-0.998369, 391, 321, 406, 352
-0.99837, 281, 299, 312, 314
-0.99837, 449, 265, 480, 280
-0.998372, 281, 221, 312, 236
-0.998372, 293, 283, 324, 298
-0.998373, 365, 163, 396, 178
-0.998374, 407, 321, 422, 352
-0.998374, 269, 171, 300, 186
-0.998375, 237, 245, 268, 260
-0.998375, 191, 105, 206, 136
-0.998375, 335, 325, 350, 356
-0.998376, 249, 229, 264, 260
-0.998377, 303, 113, 318, 144
-0.998377, 405, 1, 436, 16
-0.998378, 349, 303, 380, 318
-0.998378, 245, 213, 276, 228
-0.998379, 325, 125, 356, 140
-0.99838, 289, 65, 320, 80
-0.99838, 441, 327, 472, 342
-0.99838, 225, 177, 256, 192
-0.99838, 233, 195, 264, 210
-0.998381, 251, 97, 266, 128
-0.998381, 411, 221, 426, 252
-0.998381, 309, 319, 340, 334
-0.998381, 289, 57, 320, 72
-0.998382, 225, 97, 256, 112
-0.998383, 209, 147, 240, 162
-0.998383, 469, 329, 500, 344
-0.998383, 369, 305, 400, 320
-0.998383, 275, 161, 290, 192
-0.998384, 265, 165, 296, 180
-0.998384, 389, 301, 404, 332
-0.998384, 221, 167, 252, 182
-0.998384, 237, 203, 268, 218
-0.998384, 365, 265, 396, 280
-0.998384, 405, 273, 436, 288
-0.998384, 325, 223, 356, 238
-0.998384, 233, 279, 264, 294
-0.998385, 221, 271, 252, 286
-0.998385, 337, 305, 368, 320
-0.998386, 241, 267, 272, 282
-0.998386, 309, 123, 340, 138
-0.998386, 417, 5, 448, 20
-0.998386, 293, 307, 324, 322
-0.998387, 245, 251, 276, 266
-0.998389, 399, 321, 414, 352
-0.998389, 371, 193, 386, 224
-0.99839, 385, 317, 416, 332
-0.998391, 177, 95, 208, 110
-0.998392, 485, 325, 500, 356
-0.998392, 261, 273, 292, 288
-0.998393, 365, 205, 396, 220
-0.998393, 321, 149, 352, 164
-0.998393, 385, 297, 416, 312
-0.998393, 459, 321, 474, 352
-0.998394, 233, 227, 264, 242
-0.998394, 309, 159, 340, 174
-0.998395, 217, 161, 248, 176
-0.998395, 221, 235, 252, 250
-0.998396, 349, 271, 380, 286
-0.998399, 305, 147, 336, 162
-0.998401, 241, 163, 272, 178
-0.998403, 213, 155, 244, 170
-0.998403, 429, 325, 460, 340
-0.998404, 409, 229, 440, 244
-0.998405, 293, 319, 324, 334
-0.998405, 245, 219, 276, 234
-0.998406, 257, 93, 272, 124
-0.998407, 297, 223, 328, 238
-0.998408, 217, 103, 248, 118
-0.998408, 325, 161, 356, 176
-0.998409, 237, 237, 268, 252
-0.99841, 369, 199, 400, 214
-0.99841, 341, 329, 372, 344
-0.998411, 361, 315, 392, 330
-0.998411, 307, 45, 322, 76
-0.998411, 389, 303, 420, 318
-0.998412, 301, 65, 332, 80
-0.998414, 345, 133, 376, 148
-0.998415, 325, 143, 356, 158
-0.998415, 365, 273, 396, 288
-0.998416, 301, 301, 332, 316
-0.998416, 229, 103, 260, 118
-0.998417, 405, 273, 420, 304
-0.998417, 323, 309, 338, 340
-0.998418, 313, 325, 344, 340
-0.998419, 241, 99, 272, 114
-0.998419, 367, 277, 382, 308
-0.99842, 205, 107, 236, 122
-0.998425, 225, 265, 256, 280
-0.998425, 301, 137, 332, 152
-0.998425, 425, 229, 440, 260
-0.998426, 245, 175, 276, 190
-0.998426, 265, 89, 296, 104
-0.998427, 275, 265, 290, 296
-0.99843, 199, 85, 214, 116
-0.99843, 249, 289, 280, 304
-0.998431, 297, 125, 328, 140
-0.998431, 265, 291, 296, 306
-0.998433, 213, 243, 244, 258
-0.998435, 241, 273, 272, 288
-0.998435, 249, 235, 280, 250
-0.998435, 357, 297, 388, 312
-0.998436, 273, 83, 304, 98
-0.998438, 189, 95, 220, 110
-0.998438, 265, 257, 280, 288
-0.998439, 5, 129, 36, 375
-0.998439, 301, 59, 332, 74
-0.998439, 333, 137, 348, 168
-0.99844, 241, 169, 272, 184
-0.99844, 281, 269, 296, 300
-0.998441, 249, 241, 264, 272
-0.998441, 385, 271, 416, 286
-0.998443, 259, 225, 274, 256
-0.998444, 221, 249, 252, 264
-0.998444, 385, 311, 416, 326
-0.998445, 213, 129, 228, 160
-0.998446, 325, 155, 356, 170
-0.998447, 225, 217, 240, 248
-0.998448, 1, 9, 500, 72
-0.998451, 221, 257, 236, 288
-0.998452, 285, 77, 316, 92
-0.998454, 309, 153, 340, 168
-0.998455, 249, 285, 312, 300
-0.998457, 325, 131, 356, 146
-0.998459, 221, 225, 252, 240
-0.99846, 329, 323, 360, 338
-0.998465, 265, 285, 296, 300
-0.99847, 197, 101, 228, 116
-0.998471, 399, 293, 414, 324
-0.998471, 393, 333, 408, 364
-0.998471, 257, 291, 320, 306
-0.998472, 349, 321, 380, 336
-0.998476, 345, 69, 360, 100
-0.998476, 417, 225, 432, 256
-0.998484, 257, 215, 288, 230
-0.998484, 233, 221, 264, 236
-0.998486, 225, 255, 256, 270
-0.998486, 277, 293, 308, 308
-0.998487, 29, 129, 60, 375
-0.99849, 261, 279, 292, 294
-0.998491, 289, 139, 352, 154
-0.998492, 233, 173, 296, 188
-0.998492, 185, 101, 248, 116
-0.9985, 313, 129, 344, 144
-0.9985, 309, 313, 340, 328
-0.998502, 297, 131, 328, 146
-0.998502, 249, 279, 312, 294
-0.998507, 225, 243, 256, 258
-0.998507, 325, 137, 356, 152
-0.998512, 297, 317, 360, 332
-0.998512, 247, 177, 262, 304
-0.998514, 305, 307, 336, 322
-0.998519, 233, 217, 296, 232
-0.998522, 225, 261, 288, 276
-0.998525, 225, 283, 288, 298
-0.998528, 297, 323, 360, 338
-0.998528, 225, 269, 288, 284
-0.99853, 217, 227, 280, 242
-0.99853, 273, 75, 336, 90
-0.998533, 245, 283, 276, 298
-0.998537, 241, 181, 304, 196
-0.99854, 289, 71, 320, 86
-0.998543, 185, 95, 248, 110
-0.998544, 289, 305, 352, 320
-0.998544, 265, 81, 328, 96
-0.998547, 321, 197, 384, 212
-0.998547, 241, 237, 304, 252
-0.998548, 353, 297, 416, 312
-0.99855, 257, 297, 320, 312
-0.998552, 257, 89, 320, 104
-0.998555, 201, 243, 264, 258
-0.998555, 289, 133, 352, 148
-0.998555, 185, 107, 248, 122
-0.998556, 289, 299, 352, 314
-0.998561, 425, 1, 456, 256
-0.998561, 297, 151, 360, 166
-0.998564, 209, 255, 272, 270
-0.998565, 193, 167, 256, 182
-0.998565, 265, 319, 328, 334
-0.998566, 233, 167, 296, 182
-0.998566, 225, 99, 288, 114
-0.998567, 297, 311, 360, 326
-0.99857, 225, 161, 288, 176
-0.998571, 177, 141, 240, 156
-0.998572, 289, 145, 352, 160
-0.998573, 369, 267, 432, 282
-0.998575, 217, 233, 280, 248
-0.99858, 201, 187, 264, 202
-0.998581, 185, 155, 248, 170
-0.998582, 353, 273, 416, 288
-0.998582, 353, 303, 416, 318
-0.998584, 265, 307, 328, 322
-0.998585, 277, 287, 308, 302
-0.998585, 281, 161, 344, 176
-0.998586, 321, 139, 384, 154
-0.998587, 209, 205, 272, 220
-0.998587, 225, 289, 288, 304
-0.998588, 337, 165, 400, 180
-0.998589, 353, 313, 416, 328
-0.99859, 409, 271, 472, 286
-0.99859, 321, 323, 384, 338
-0.99859, 177, 135, 240, 150
-0.998592, 209, 277, 272, 292
-0.998592, 265, 137, 328, 152
-0.998594, 337, 329, 400, 344
-0.998594, 185, 263, 248, 278
-0.998596, 241, 195, 304, 210
-0.998597, 377, 325, 440, 340
-0.998597, 169, 127, 232, 142
-0.998598, 361, 205, 424, 220
-0.998598, 225, 211, 288, 226
-0.9986, 193, 173, 256, 188
-0.9986, 313, 157, 376, 172
-0.9986, 193, 113, 256, 128
-0.998601, 393, 237, 456, 252
-0.998602, 329, 313, 392, 328
-0.998602, 265, 313, 328, 328
-0.998603, 201, 181, 264, 196
-0.998603, 377, 317, 440, 332
-0.998603, 209, 249, 272, 264
-0.998603, 249, 273, 312, 288
-0.998603, 241, 255, 304, 270
-0.998604, 393, 309, 456, 324
-0.998605, 393, 243, 456, 258
-0.998605, 249, 95, 312, 110
-0.998606, 289, 219, 352, 234
-0.998606, 185, 147, 248, 162
-0.998606, 289, 293, 352, 308
-0.998607, 193, 161, 256, 176
-0.998608, 305, 69, 368, 84
-0.99861, 369, 171, 432, 186
-0.99861, 217, 141, 280, 156
-0.99861, 281, 285, 344, 300
-0.998611, 225, 155, 288, 170
-0.998612, 153, 111, 216, 126
-0.998613, 209, 197, 272, 212
-0.998614, 393, 213, 456, 228
-0.998614, 265, 231, 328, 246
-0.998614, 361, 197, 424, 212
-0.998617, 257, 223, 320, 238
-0.998617, 273, 153, 336, 168
-0.998619, 337, 159, 400, 174
-0.998619, 393, 333, 456, 348
-0.998619, 361, 217, 424, 232
-0.998619, 249, 75, 312, 90
-0.998619, 425, 229, 488, 244
-0.998619, 161, 99, 224, 114
-0.998619, 345, 323, 408, 338
-0.99862, 169, 121, 232, 136
-0.998621, 321, 151, 384, 166
-0.998621, 305, 205, 368, 220
-0.998621, 257, 143, 320, 158
-0.998622, 289, 57, 352, 72
-0.998622, 329, 221, 392, 236
-0.998622, 369, 177, 432, 192
-0.998623, 353, 211, 416, 226
-0.998624, 337, 133, 400, 148
-0.998625, 273, 213, 336, 228
-0.998626, 361, 333, 424, 348
-0.998626, 377, 275, 440, 290
-0.998627, 241, 245, 304, 260
-0.998628, 265, 171, 328, 186
-0.998628, 377, 227, 440, 242
-0.998628, 425, 237, 488, 252
-0.998628, 417, 323, 480, 338
-0.998629, 193, 271, 256, 286
-0.998629, 337, 171, 400, 186
-0.998632, 209, 221, 272, 236
-0.998632, 337, 267, 400, 282
-0.998634, 313, 227, 376, 242
-0.998634, 313, 273, 376, 288
-0.998635, 297, 127, 360, 142
-0.998635, 321, 191, 384, 206
-0.998636, 225, 149, 288, 164
-0.998638, 329, 305, 392, 320
-0.998638, 185, 257, 248, 272
-0.998638, 249, 261, 312, 276
-0.998638, 393, 265, 456, 280
-0.998638, 265, 69, 328, 84
-0.99864, 231, 209, 246, 336
-0.998651, 239, 161, 254, 288
-0.998665, 161, 97, 192, 352
-0.998691, 129, 49, 256, 112
-0.998715, 239, 225, 254, 352
-0.998723, 233, 81, 248, 208
-0.998743, 225, 81, 240, 208
-0.998763, 241, 81, 256, 208
-0.998771, 129, 25, 384, 88
-0.998823, 441, 1, 472, 256
-0.998833, 223, 129, 238, 256
-0.998833, 219, 81, 234, 208
-0.998839, 273, 193, 288, 320
-0.998841, 233, 145, 248, 272
-0.998844, 223, 209, 238, 336
-0.998846, 17, 129, 48, 375
-0.998852, 117, 1, 148, 256
-0.998907, 357, 241, 372, 368
-0.998913, 307, 225, 322, 352
-0.998931, 301, 33, 316, 160
-0.998946, 313, 65, 328, 192
-0.998951, 267, 241, 282, 368
-0.998954, 279, 209, 294, 336
-0.998954, 73, 97, 104, 352
-0.998965, 141, 1, 172, 256
-0.998979, 321, 113, 336, 240
-0.998981, 213, 81, 228, 208
-0.998982, 297, 225, 312, 352
-0.998993, 277, 65, 292, 192
-0.998995, 217, 209, 232, 336
-0.999009, 423, 241, 438, 368
-0.999019, 347, 241, 362, 368
-0.999025, 177, 97, 208, 352
-0.999025, 253, 193, 268, 320
-0.999027, 295, 65, 310, 192
-0.99903, 323, 241, 338, 368
-0.999031, 217, 129, 232, 256
-0.999031, 307, 33, 322, 160
-0.999032, 339, 241, 354, 368
-0.999032, 255, 81, 270, 208
-0.999032, 313, 241, 328, 368
-0.999036, 373, 177, 388, 304
-0.999038, 247, 81, 262, 208
-0.999049, 305, 113, 320, 240
-0.999064, 431, 1, 446, 128
-0.999072, 245, 225, 260, 352
-0.999074, 365, 193, 380, 320
-0.999075, 415, 241, 430, 368
-0.999083, 265, 81, 280, 208
-0.999085, 339, 129, 354, 256
-0.999093, 315, 113, 330, 240
-0.999095, 267, 193, 282, 320
-0.999096, 405, 129, 436, 375
-0.999098, 287, 65, 302, 192
-0.999122, 271, 65, 286, 192
-0.999137, 285, 209, 300, 336
-0.999142, 409, 241, 424, 368
-0.999166, 333, 241, 348, 368
-0.999167, 203, 81, 218, 208
-0.999176, 273, 241, 288, 368
-0.999185, 373, 113, 388, 240
-0.999187, 423, 177, 438, 304
-0.999196, 245, 129, 260, 256
-0.999201, 345, 113, 360, 240
-0.999201, 363, 129, 378, 256
-0.999213, 345, 65, 360, 192
-0.999216, 429, 241, 444, 368
-0.999216, 177, 1, 208, 256
-0.999217, 373, 241, 388, 368
-0.999229, 399, 241, 414, 368
-0.999249, 337, 177, 352, 304
-0.999253, 257, 241, 272, 368
-0.999269, 355, 49, 370, 176
-0.999284, 455, 241, 470, 368
-0.999287, 467, 1, 482, 128
-0.999288, 259, 193, 274, 320
-0.999292, 129, 1, 160, 256
-0.999293, 357, 193, 372, 320
-0.999293, 291, 209, 306, 336
-0.999296, 327, 97, 342, 224
-0.999297, 281, 145, 296, 272
-0.999299, 437, 1, 452, 128
-0.999299, 305, 161, 320, 288
-0.999301, 315, 161, 330, 288
-0.99931, 273, 129, 288, 256
-0.999311, 445, 1, 460, 128
-0.999311, 445, 241, 460, 368
-0.999318, 333, 129, 348, 256
-0.999319, 299, 113, 314, 240
-0.999321, 383, 129, 398, 256
-0.999323, 113, 97, 128, 224
-0.999333, 477, 241, 492, 368
-0.999333, 469, 241, 484, 368
-0.999334, 391, 225, 406, 352
-0.999335, 211, 129, 226, 256
-0.999336, 53, 1, 84, 256
-0.999338, 339, 33, 354, 160
-0.999339, 257, 129, 272, 256
-0.99934, 355, 129, 370, 256
-0.999344, 415, 177, 430, 304
-0.999351, 435, 241, 450, 368
-0.999353, 361, 49, 376, 176
-0.999353, 211, 209, 226, 336
-0.999355, 459, 1, 474, 128
-0.999358, 453, 129, 484, 375
-0.999364, 197, 65, 212, 192
-0.999368, 105, 97, 120, 224
-0.99937, 363, 241, 378, 368
-0.999372, 475, 1, 490, 128
-0.999373, 383, 241, 398, 368
-0.999375, 251, 241, 266, 368
-0.999375, 119, 97, 134, 224
-0.999379, 331, 177, 346, 304
-0.999383, 19, 145, 34, 272
-0.999389, 93, 97, 108, 224
-0.999392, 319, 49, 334, 176
-0.999406, 339, 81, 354, 208
-0.999407, 41, 33, 72, 288
-0.999408, 465, 1, 496, 256
-0.999409, 451, 17, 466, 144
-0.999412, 25, 33, 56, 288
-0.999414, 99, 97, 114, 224
-0.999415, 485, 241, 500, 368
-0.999416, 87, 97, 102, 224
-0.999416, 211, 33, 226, 160
-0.999419, 347, 193, 362, 320
-0.999423, 287, 129, 302, 256
-0.999425, 27, 145, 42, 272
-0.999427, 425, 1, 440, 128
-0.99943, 375, 49, 390, 176
-0.999433, 333, 65, 348, 192
-0.999433, 401, 49, 416, 176
-0.999433, 413, 49, 428, 176
-0.999438, 257, 33, 272, 160
-0.999438, 265, 33, 280, 160
-0.999438, 251, 33, 266, 160
-0.99944, 287, 17, 302, 144
-0.999444, 325, 49, 340, 176
-0.999446, 125, 97, 140, 224
-0.999446, 251, 129, 266, 256
-0.999447, 191, 97, 206, 224
-0.999458, 481, 1, 496, 128
-0.999461, 267, 129, 282, 256
-0.999461, 139, 97, 154, 224
-0.999462, 391, 49, 406, 176
-0.999467, 293, 17, 308, 144
-0.99949, 453, 1, 484, 256
-0.999501, 81, 1, 112, 256
-0.999551, 311, 221, 326, 236
-0.999552, 405, 325, 420, 340
-0.999552, 251, 183, 266, 198
-0.999552, 195, 109, 210, 124
-0.999553, 413, 245, 428, 260
-0.999553, 417, 229, 432, 244
-0.999554, 191, 89, 206, 104
-0.999555, 315, 119, 330, 134
-0.999555, 353, 307, 368, 322
-0.999556, 247, 237, 262, 252
-0.999557, 315, 319, 330, 334
-0.999558, 385, 297, 400, 312
-0.999558, 431, 321, 446, 336
-0.999559, 319, 155, 334, 170
-0.999559, 231, 247, 246, 262
-0.999559, 299, 59, 314, 74
-0.99956, 231, 273, 246, 288
-0.99956, 251, 219, 266, 234
-0.999561, 379, 313, 394, 328
-0.999561, 393, 333, 408, 348
-0.999562, 409, 269, 424, 284
-0.999562, 363, 269, 378, 284
-0.999562, 453, 219, 468, 234
-0.999563, 343, 323, 358, 338
-0.999563, 221, 145, 236, 160
-0.999564, 343, 329, 358, 344
-0.999564, 321, 227, 336, 242
-0.999564, 303, 231, 318, 246
-0.999564, 237, 171, 252, 186
-0.999565, 241, 97, 256, 112
-0.999565, 185, 95, 200, 110
-0.999565, 225, 225, 240, 240
-0.999565, 387, 269, 402, 284
-0.999566, 317, 325, 332, 340
-0.999566, 201, 103, 216, 118
-0.999566, 399, 273, 414, 288
-0.999567, 255, 211, 270, 226
-0.999567, 389, 325, 404, 340
-0.999567, 373, 199, 388, 214
-0.999567, 387, 317, 402, 332
-0.999567, 331, 139, 346, 154
-0.999568, 407, 235, 422, 250
-0.999568, 217, 103, 232, 118
-0.999568, 433, 129, 464, 375
-0.999569, 307, 301, 322, 316
-0.999569, 337, 127, 352, 142
-0.999569, 355, 323, 370, 338
-0.999571, 315, 137, 330, 152
-0.999571, 237, 249, 252, 264
-0.999571, 317, 125, 332, 140
-0.999571, 411, 1, 426, 16
-0.999572, 337, 139, 352, 154
-0.999572, 407, 241, 422, 256
-0.999574, 13, 33, 44, 288
-0.999574, 233, 105, 248, 120
-0.999575, 375, 273, 390, 288
-0.999575, 303, 125, 318, 140
-0.999576, 265, 165, 280, 180
-0.999577, 225, 105, 240, 120
-0.999577, 245, 189, 260, 204
-0.999578, 349, 141, 364, 156
-0.999579, 239, 179, 254, 194
-0.999579, 371, 327, 386, 342
-0.99958, 409, 221, 424, 236
-0.999581, 365, 331, 380, 346
-0.999582, 271, 217, 286, 232
-0.999582, 309, 131, 324, 146
-0.999582, 329, 323, 344, 338
-0.999583, 249, 199, 264, 214
-0.999583, 403, 335, 418, 350
-0.999583, 237, 277, 252, 292
-0.999584, 191, 103, 206, 118
-0.999584, 315, 131, 330, 146
-0.999586, 297, 283, 312, 298
-0.999587, 357, 301, 372, 316
-0.999589, 357, 271, 372, 286
-0.99959, 451, 329, 466, 344
-0.99959, 225, 151, 240, 166
-0.99959, 307, 323, 322, 338
-0.999591, 279, 285, 294, 300
-0.999591, 263, 291, 278, 306
-0.999593, 237, 255, 252, 270
-0.999593, 253, 281, 268, 296
-0.999593, 251, 205, 266, 220
-0.999593, 359, 331, 374, 346
-0.999594, 235, 235, 250, 250
-0.999594, 261, 95, 276, 110
-0.999595, 319, 147, 334, 162
-0.999595, 265, 277, 280, 292
-0.999595, 297, 303, 312, 318
-0.999596, 231, 159, 246, 174
-0.999596, 377, 323, 392, 338
-0.999597, 237, 269, 252, 284
-0.999598, 325, 145, 340, 160
-0.999599, 233, 165, 248, 180
-0.9996, 323, 325, 338, 340
-0.999601, 305, 53, 320, 68
-0.999605, 293, 73, 308, 88
-0.999605, 317, 307, 332, 322
-0.999606, 329, 157, 344, 172
-0.999608, 381, 271, 396, 286
-0.999609, 299, 309, 314, 324
-0.99961, 299, 71, 314, 86
-0.99961, 349, 325, 364, 340
-0.999611, 393, 129, 424, 375
-0.999612, 303, 223, 318, 238
-0.999615, 277, 83, 292, 98
-0.999615, 315, 227, 330, 242
-0.999616, 349, 129, 364, 144
-0.999616, 303, 317, 318, 332
-0.999618, 261, 213, 276, 228
-0.999623, 283, 79, 298, 94
-0.999626, 271, 291, 286, 306
-0.999627, 313, 313, 328, 328
-0.999627, 293, 293, 308, 308
-0.999628, 241, 221, 256, 236
-0.999632, 303, 131, 318, 146
-0.999632, 241, 243, 256, 258
-0.999633, 309, 125, 324, 140
-0.999635, 191, 95, 206, 110
-0.999635, 347, 135, 362, 150
-0.999638, 303, 65, 318, 80
-0.99964, 93, 1, 124, 256
-0.999641, 327, 151, 342, 166
-0.999642, 231, 225, 246, 240
-0.999643, 231, 241, 246, 256
-0.999645, 267, 91, 282, 106
-0.999647, 197, 97, 212, 112
-0.999656, 309, 307, 324, 322
-0.999657, 469, 97, 500, 352
-0.999666, 305, 59, 320, 74
-0.999668, 259, 285, 274, 300
-0.999671, 69, 1, 100, 256
-0.999675, 287, 287, 302, 302
-0.999678, 269, 285, 284, 300
-0.999689, 339, 133, 354, 148
-0.999793, 165, 1, 196, 256
-0.999815, 1, 33, 32, 288
-0.999817, 153, 1, 184, 256
-0.999975, 33, 1, 288, 64
-1.00003, 129, 1, 384, 64
-1.00005, 417, 129, 448, 375
-1.00008, 1, 25, 256, 88
-1.00114, 153, 1, 216, 128
-1.00225, 129, 1, 192, 128
