1968
-0.374563, 1, 1, 500, 256
-0.38697, 1, 1, 500, 375
-0.446179, 1, 129, 500, 375
-0.615243, 1, 1, 256, 375
-0.652229, 225, 97, 480, 352
-0.654118, 65, 129, 320, 375
-0.663943, 257, 1, 500, 375
-0.699008, 129, 1, 384, 375
-0.765794, 1, 33, 256, 288
-0.864931, 193, 1, 448, 256
-0.882052, 241, 97, 368, 352
-0.884183, 369, 65, 496, 320
-0.884474, 161, 129, 288, 375
-0.884563, 97, 33, 352, 288
-0.886994, 1, 49, 500, 176
-0.891337, 305, 97, 432, 352
-0.892176, 49, 97, 176, 352
-0.892768, 241, 1, 368, 375
-0.893629, 1, 1, 128, 375
-0.895215, 97, 129, 224, 375
-0.895441, 353, 1, 480, 375
-0.895729, 193, 1, 320, 375
-0.899371, 1, 97, 500, 224
-0.909353, 49, 1, 176, 256
-0.909986, 49, 1, 176, 375
-0.913173, 1, 1, 128, 256
-0.913609, 241, 1, 368, 256
-0.916079, 1, 1, 500, 128
-0.91765, 305, 1, 432, 375
-0.918407, 97, 129, 352, 256
-0.919657, 193, 33, 320, 288
-0.924167, 113, 1, 240, 375
-0.925045, 225, 113, 480, 240
-0.926358, 1, 97, 128, 352
-0.927399, 1, 177, 500, 304
-0.929511, 97, 33, 224, 288
-0.931461, 145, 33, 272, 288
-0.931696, 1, 129, 256, 256
-0.938729, 177, 129, 304, 256
-0.942721, 97, 129, 224, 256
-0.944057, 121, 129, 184, 256
-0.94435, 1, 81, 256, 208
-0.944351, 321, 1, 448, 256
-0.945047, 1, 225, 500, 352
-0.94675, 257, 113, 320, 240
-0.949698, 241, 97, 368, 224
-0.949803, 321, 97, 448, 224
-0.951012, 225, 129, 288, 256
-0.951124, 369, 81, 496, 208
-0.951492, 369, 97, 432, 224
-0.953502, 49, 129, 176, 256
-0.95386, 305, 113, 368, 240
-0.954408, 153, 129, 216, 256
-0.954735, 185, 129, 248, 256
-0.954754, 225, 161, 480, 288
-0.954763, 1, 1, 256, 128
-0.955479, 49, 113, 112, 240
-0.956083, 409, 81, 472, 208
-0.957685, 345, 97, 408, 224
-0.95843, 97, 129, 160, 256
-0.959259, 265, 121, 328, 184
-0.960223, 281, 113, 344, 240
-0.960697, 265, 65, 328, 192
-0.960733, 97, 65, 352, 192
-0.96082, 113, 137, 176, 200
-0.961392, 1, 193, 256, 320
-0.96243, 265, 161, 328, 288
-0.962796, 257, 65, 500, 192
-0.963866, 305, 113, 368, 176
-0.963902, 73, 145, 136, 272
-0.96397, 433, 81, 496, 208
-0.96398, 345, 105, 408, 168
-0.964877, 49, 65, 176, 192
-0.964908, 225, 137, 288, 200
-0.965479, 409, 97, 472, 160
-0.966169, 241, 161, 368, 288
-0.966191, 1, 81, 128, 208
-0.966774, 97, 177, 352, 304
-0.969181, 145, 145, 208, 208
-0.970082, 81, 81, 144, 208
-0.970327, 369, 105, 432, 168
-0.970331, 161, 81, 288, 208
-0.970372, 257, 225, 500, 352
-0.970534, 65, 153, 128, 216
-0.971067, 353, 177, 480, 304
-0.971225, 49, 1, 176, 128
-0.971384, 177, 145, 240, 208
-0.971687, 241, 65, 304, 192
-0.971987, 201, 145, 264, 208
-0.972059, 265, 97, 328, 160
-0.972575, 57, 17, 120, 144
-0.972646, 241, 49, 368, 176
-0.973162, 97, 161, 160, 224
-0.973221, 289, 177, 352, 304
-0.973263, 97, 81, 224, 208
-0.97353, 257, 145, 320, 208
-0.97374, 433, 97, 496, 160
-0.974332, 125, 113, 156, 240
-0.974621, 193, 177, 320, 304
-0.974783, 1, 1, 128, 128
-0.974791, 329, 145, 392, 272
-0.975112, 289, 161, 416, 288
-0.975337, 125, 129, 156, 192
-0.975783, 177, 137, 304, 200
-0.975817, 241, 65, 304, 320
-0.975926, 145, 177, 272, 304
-0.975944, 81, 129, 144, 192
-0.975954, 321, 137, 384, 200
-0.976121, 41, 121, 104, 184
-0.976207, 97, 137, 224, 200
-0.976284, 241, 113, 304, 176
-0.976292, 257, 113, 384, 176
-0.976431, 257, 17, 320, 80
-0.976453, 305, 113, 432, 176
-0.976504, 241, 209, 304, 336
-0.976556, 345, 97, 408, 352
-0.976567, 265, 65, 328, 320
-0.976603, 425, 65, 488, 320
-0.976677, 269, 17, 300, 80
-0.976872, 377, 129, 440, 192
-0.977043, 353, 97, 480, 160
-0.977129, 321, 49, 448, 176
-0.977265, 265, 209, 328, 272
-0.977541, 269, 113, 300, 240
-0.977745, 257, 129, 288, 192
-0.977885, 385, 65, 448, 320
-0.977922, 209, 129, 272, 375
-0.977945, 281, 233, 344, 296
-0.978526, 17, 33, 80, 160
-0.978675, 377, 153, 440, 216
-0.978693, 289, 97, 352, 352
-0.978718, 241, 225, 304, 288
-0.97874, 257, 209, 384, 336
-0.979115, 105, 161, 136, 224
-0.979275, 353, 145, 416, 272
-0.979301, 241, 1, 304, 128
-0.979324, 357, 113, 388, 176
-0.979366, 469, 81, 500, 208
-0.979484, 1, 129, 128, 256
-0.979514, 153, 129, 184, 256
-0.979556, 177, 129, 208, 256
-0.979774, 217, 81, 280, 208
-0.979788, 121, 81, 184, 208
-0.979842, 265, 209, 328, 336
-0.979874, 57, 33, 120, 96
-0.979935, 257, 169, 320, 232
-0.979942, 49, 129, 176, 192
-0.980005, 57, 65, 120, 192
-0.980076, 185, 129, 248, 375
-0.98014, 313, 97, 376, 352
-0.98015, 153, 129, 216, 375
-0.980185, 25, 97, 88, 224
-0.98022, 281, 161, 344, 224
-0.980236, 433, 161, 496, 288
-0.980294, 209, 129, 240, 256
-0.980303, 65, 129, 128, 375
-0.980368, 81, 105, 144, 168
-0.980415, 437, 81, 468, 208
-0.980499, 269, 1, 300, 128
-0.980542, 241, 201, 304, 264
-0.980676, 197, 129, 228, 256
-0.980695, 273, 65, 304, 192
-0.980721, 121, 161, 184, 224
-0.980843, 409, 177, 472, 304
-0.981069, 333, 113, 364, 176
-0.981111, 321, 65, 384, 192
-0.98112, 425, 121, 488, 184
-0.981128, 97, 129, 160, 375
-0.981255, 345, 49, 408, 176
-0.981327, 57, 9, 120, 72
-0.981355, 169, 185, 232, 248
-0.981367, 57, 73, 120, 136
-0.981476, 345, 145, 408, 208
-0.981487, 1, 241, 256, 368
-0.981534, 409, 145, 472, 208
-0.981653, 105, 145, 136, 272
-0.981732, 413, 97, 444, 160
-0.981892, 277, 121, 308, 184
-0.981896, 257, 113, 288, 240
-0.981942, 241, 145, 272, 272
-0.981955, 161, 121, 224, 184
-0.981979, 49, 161, 112, 288
-0.982004, 365, 97, 396, 224
-0.982026, 165, 129, 196, 256
-0.982153, 181, 145, 212, 208
-0.982179, 369, 129, 496, 256
-0.982302, 285, 113, 316, 240
-0.982432, 121, 97, 184, 352
-0.982447, 313, 113, 344, 176
-0.982478, 141, 129, 172, 256
-0.982489, 161, 225, 416, 352
-0.982529, 377, 97, 408, 224
-0.982818, 145, 81, 208, 208
-0.982849, 377, 161, 440, 288
-0.982911, 465, 97, 496, 160
-0.98296, 337, 225, 464, 352
-0.983001, 425, 81, 456, 208
-0.983038, 257, 161, 288, 288
-0.983063, 457, 81, 488, 208
-0.983124, 89, 153, 120, 216
-0.983141, 389, 105, 420, 168
-0.983223, 209, 193, 272, 256
-0.983311, 193, 145, 224, 208
-0.983358, 289, 209, 352, 272
-0.983385, 217, 137, 248, 200
-0.983431, 221, 129, 252, 256
-0.983476, 329, 209, 392, 336
-0.983538, 289, 145, 416, 208
-0.983563, 397, 97, 428, 224
-0.983572, 149, 137, 180, 200
-0.983703, 161, 145, 192, 208
-0.983706, 301, 113, 332, 240
-0.983744, 453, 97, 484, 160
-0.983744, 345, 113, 376, 176
-0.983803, 113, 185, 240, 248
-0.983804, 373, 105, 404, 168
-0.983825, 237, 137, 268, 200
-0.983845, 337, 97, 368, 224
-0.983874, 353, 137, 480, 200
-0.984008, 377, 225, 440, 288
-0.984026, 25, 97, 88, 160
-0.984112, 297, 137, 360, 200
-0.984144, 353, 81, 384, 208
-0.984184, 1, 121, 128, 184
-0.984202, 121, 113, 184, 176
-0.984261, 25, 1, 88, 64
-0.984388, 297, 65, 360, 192
-0.984469, 225, 137, 352, 200
-0.984479, 49, 97, 176, 160
-0.984486, 277, 161, 308, 288
-0.984712, 241, 81, 304, 144
-0.984741, 81, 177, 208, 304
-0.984883, 25, 25, 88, 88
-0.984917, 81, 161, 208, 224
-0.984932, 73, 177, 136, 240
-0.984985, 69, 113, 100, 240
-0.98501, 433, 97, 464, 160
-0.985043, 233, 17, 296, 80
-0.985072, 321, 225, 384, 288
-0.985086, 385, 49, 448, 176
-0.985098, 401, 121, 464, 184
-0.985247, 313, 161, 376, 224
-0.985289, 177, 161, 304, 224
-0.985343, 41, 145, 104, 208
-0.98537, 369, 33, 496, 160
-0.985517, 57, 1, 120, 256
-0.985526, 281, 185, 344, 248
-0.985618, 101, 129, 132, 192
-0.985623, 249, 1, 312, 375
-0.985625, 325, 97, 356, 224
-0.985636, 277, 97, 308, 160
-0.985642, 285, 65, 316, 192
-0.985645, 145, 113, 272, 176
-0.985693, 33, 153, 160, 216
-0.985709, 217, 193, 280, 320
-0.985727, 205, 145, 236, 208
-0.985804, 169, 81, 232, 208
-0.985809, 413, 97, 444, 224
-0.985847, 265, 73, 328, 136
-0.985897, 25, 49, 88, 112
-0.985912, 265, 1, 328, 128
-0.985922, 425, 241, 488, 304
-0.985925, 105, 185, 168, 248
-0.985943, 145, 185, 208, 248
-0.986065, 113, 137, 144, 200
-0.986079, 49, 177, 112, 240
-0.986152, 201, 121, 264, 184
-0.986172, 401, 105, 432, 168
-0.986225, 241, 57, 304, 120
-0.986237, 345, 137, 376, 200
-0.986243, 49, 41, 176, 104
-0.986345, 293, 121, 324, 184
-0.986399, 49, 73, 176, 136
-0.986444, 433, 33, 496, 160
-0.986444, 233, 169, 296, 232
-0.98645, 433, 73, 496, 136
-0.986488, 41, 97, 104, 352
-0.986659, 313, 97, 344, 224
-0.986921, 277, 241, 308, 304
-0.987151, 65, 121, 96, 184
-0.987151, 93, 145, 124, 272
-0.987411, 321, 89, 384, 152
-0.987451, 17, 73, 80, 136
-0.987481, 241, 1, 368, 128
-0.987589, 49, 17, 176, 80
-0.987604, 137, 129, 168, 192
-0.987624, 169, 177, 232, 304
-0.987673, 225, 177, 352, 240
-0.987696, 433, 161, 496, 224
-0.987804, 161, 185, 288, 248
-0.987867, 89, 129, 120, 192
-0.987985, 369, 209, 432, 336
-0.988146, 113, 177, 176, 304
-0.988238, 1, 25, 128, 88
-0.98829, 353, 129, 384, 256
-0.988391, 265, 105, 296, 168
-0.988396, 265, 217, 296, 280
-0.988435, 345, 169, 408, 232
-0.98845, 1, 65, 128, 128
-0.988462, 1, 1, 128, 64
-0.988499, 433, 209, 496, 336
-0.988608, 145, 193, 208, 320
-0.988637, 81, 145, 112, 272
-0.988662, 57, 97, 88, 224
-0.988704, 193, 177, 224, 240
-0.98876, 17, 193, 80, 320
-0.988774, 257, 89, 384, 152
-0.98879, 1, 241, 128, 368
-0.988818, 1, 97, 128, 160
-0.988943, 369, 241, 496, 304
-0.989018, 273, 153, 304, 216
-0.989158, 293, 161, 324, 288
-0.989158, 81, 1, 144, 256
-0.989232, 305, 185, 368, 248
-0.989257, 377, 177, 440, 240
-0.989266, 409, 1, 472, 375
-0.989334, 401, 129, 464, 256
-0.989365, 441, 161, 472, 288
-0.989371, 361, 1, 424, 375
-0.98943, 121, 137, 184, 168
-0.989437, 249, 257, 312, 320
-0.989481, 265, 125, 328, 156
-0.989484, 265, 73, 296, 136
-0.98952, 401, 241, 464, 304
-0.9896, 193, 81, 256, 208
-0.989657, 209, 141, 272, 172
-0.989733, 401, 129, 432, 192
-0.989746, 57, 1, 120, 375
-0.989773, 273, 233, 400, 296
-0.989822, 421, 145, 452, 208
-0.989836, 33, 177, 160, 304
-0.989949, 369, 81, 432, 144
-0.990059, 117, 161, 148, 224
-0.990067, 433, 1, 496, 375
-0.990086, 337, 177, 464, 240
-0.99011, 329, 1, 392, 256
-0.990138, 401, 185, 464, 248
-0.990142, 249, 149, 312, 180
-0.9902, 201, 169, 264, 232
-0.990206, 241, 137, 304, 168
-0.990304, 297, 141, 360, 172
-0.990328, 225, 1, 288, 375
-0.990356, 33, 185, 160, 248
-0.990374, 353, 217, 416, 280
-0.990387, 193, 17, 320, 144
-0.99039, 425, 101, 488, 132
-0.990399, 101, 97, 132, 224
-0.990402, 345, 241, 408, 304
-0.990445, 81, 153, 144, 184
-0.990456, 249, 153, 280, 216
-0.990469, 289, 169, 416, 232
-0.990481, 329, 117, 392, 148
-0.990486, 257, 49, 288, 176
-0.990489, 353, 113, 416, 144
-0.990534, 185, 145, 248, 176
-0.990558, 97, 113, 224, 176
-0.990584, 225, 157, 288, 188
-0.990627, 81, 137, 144, 168
-0.99066, 25, 1, 88, 256
-0.99067, 9, 161, 72, 224
-0.990681, 297, 121, 360, 152
-0.99069, 289, 177, 320, 240
-0.990696, 193, 209, 320, 272
-0.990707, 385, 1, 448, 375
-0.990793, 293, 217, 324, 280
-0.990816, 193, 217, 256, 280
-0.990887, 161, 149, 224, 180
-0.99092, 393, 105, 456, 136
-0.990942, 401, 217, 464, 280
-0.990949, 9, 193, 72, 256
-0.990957, 209, 113, 336, 176
-0.990968, 281, 233, 344, 264
-0.990972, 105, 149, 168, 180
-0.990978, 357, 137, 388, 200
-0.990997, 9, 145, 72, 272
-0.991019, 201, 33, 264, 288
-0.991049, 257, 25, 320, 56
-0.991053, 337, 1, 400, 375
-0.991075, 269, 209, 300, 336
-0.991098, 89, 97, 120, 224
-0.991121, 321, 225, 448, 288
-0.991149, 217, 217, 280, 280
-0.991252, 97, 185, 128, 248
-0.99128, 97, 209, 224, 272
-0.991319, 409, 33, 472, 160
-0.991327, 57, 153, 120, 184
-0.991375, 281, 153, 344, 184
-0.991377, 353, 89, 384, 152
-0.991378, 57, 97, 120, 160
-0.991421, 385, 129, 448, 160
-0.991442, 257, 113, 500, 176
-0.991456, 77, 137, 108, 200
-0.991489, 417, 113, 480, 144
-0.991491, 329, 137, 392, 168
-0.991502, 265, 213, 328, 244
-0.99152, 353, 133, 416, 164
-0.991536, 265, 113, 328, 144
-0.991546, 81, 189, 144, 220
-0.991556, 265, 137, 328, 168
-0.991571, 353, 1, 416, 256
-0.991575, 105, 161, 168, 192
-0.991593, 453, 121, 484, 184
-0.99169, 41, 125, 104, 156
-0.991734, 169, 209, 232, 272
-0.991748, 353, 157, 416, 188
-0.99176, 461, 145, 492, 272
-0.99177, 57, 29, 120, 60
-0.991796, 393, 117, 456, 148
-0.991823, 409, 153, 472, 184
-0.991853, 41, 137, 104, 168
-0.991856, 437, 121, 468, 184
-0.99188, 177, 193, 240, 224
-0.99189, 289, 225, 352, 352
-0.991898, 373, 145, 404, 208
-0.991902, 333, 137, 364, 200
-0.991932, 233, 213, 296, 244
-0.991935, 265, 165, 328, 196
-0.991938, 313, 157, 376, 188
-0.991949, 305, 81, 432, 144
-0.991955, 57, 17, 120, 48
-0.991956, 129, 137, 384, 200
-0.991974, 417, 245, 480, 276
-0.991977, 1, 241, 64, 368
-0.991996, 241, 93, 304, 124
-0.992, 233, 233, 296, 264
-0.992004, 265, 89, 328, 120
-0.99202, 417, 125, 480, 156
-0.992023, 57, 41, 120, 72
-0.992033, 53, 97, 84, 160
-0.992038, 277, 201, 308, 264
-0.992047, 385, 241, 448, 272
-0.992075, 257, 13, 320, 44
-0.99208, 265, 49, 328, 112
-0.992083, 377, 165, 440, 196
-0.99209, 173, 177, 204, 240
-0.992098, 113, 173, 176, 204
-0.992125, 193, 205, 256, 236
-0.992125, 81, 125, 144, 156
-0.992138, 265, 41, 296, 104
-0.99214, 57, 185, 120, 216
-0.992155, 257, 225, 320, 256
-0.992158, 57, 57, 120, 88
-0.992169, 153, 185, 216, 216
-0.992186, 277, 73, 308, 136
-0.992198, 321, 233, 384, 264
-0.9922, 161, 121, 192, 184
-0.992203, 373, 161, 404, 288
-0.992239, 161, 137, 224, 168
-0.992239, 433, 145, 496, 176
-0.992261, 209, 225, 336, 352
-0.992262, 273, 245, 336, 276
-0.992266, 233, 25, 296, 56
-0.992277, 261, 177, 292, 240
-0.992278, 201, 177, 264, 208
-0.992296, 241, 169, 304, 200
-0.992301, 73, 173, 136, 204
-0.992312, 57, 89, 120, 120
-0.992323, 241, 81, 304, 112
-0.992325, 57, 1, 120, 32
-0.99233, 57, 69, 120, 100
-0.992358, 461, 145, 492, 208
-0.992358, 57, 101, 120, 132
-0.992368, 193, 217, 256, 248
-0.992371, 377, 149, 440, 180
-0.992374, 201, 157, 264, 188
-0.992375, 265, 101, 328, 132
-0.99239, 25, 113, 88, 144
-0.992392, 241, 37, 304, 68
-0.992406, 425, 165, 488, 196
-0.992408, 393, 225, 456, 352
-0.992411, 25, 85, 88, 116
-0.992418, 257, 1, 288, 128
-0.992432, 153, 33, 216, 288
-0.992433, 369, 101, 432, 132
-0.992453, 53, 49, 84, 176
-0.992464, 241, 121, 304, 152
-0.992471, 25, 37, 88, 68
-0.992473, 361, 237, 424, 268
-0.992478, 305, 153, 336, 216
-0.992485, 137, 149, 200, 180
-0.992503, 25, 9, 88, 40
-0.992503, 425, 217, 488, 280
-0.992513, 273, 1, 336, 375
-0.992535, 245, 141, 276, 172
-0.992547, 25, 61, 88, 92
-0.992547, 265, 77, 328, 108
-0.992547, 129, 161, 256, 224
-0.992555, 25, 73, 88, 104
-0.992563, 265, 17, 296, 48
-0.992569, 137, 209, 200, 272
-0.992571, 125, 133, 156, 164
-0.992588, 377, 177, 440, 208
-0.99259, 353, 145, 416, 176
-0.992592, 297, 221, 360, 252
-0.992624, 337, 169, 400, 200
-0.992626, 233, 141, 264, 172
-0.992626, 17, 101, 80, 132
-0.99263, 241, 245, 304, 276
-0.992632, 241, 109, 304, 140
-0.992638, 233, 201, 296, 232
-0.992642, 105, 193, 168, 224
-0.992645, 417, 177, 480, 208
-0.992663, 233, 13, 296, 44
-0.992666, 57, 201, 120, 232
-0.992667, 97, 209, 160, 240
-0.992669, 25, 49, 88, 80
-0.992684, 289, 165, 352, 196
-0.99269, 305, 181, 368, 212
-0.992694, 213, 145, 244, 176
-0.9927, 25, 25, 88, 56
-0.992702, 33, 137, 288, 200
-0.992704, 177, 173, 240, 204
-0.992709, 97, 153, 128, 184
-0.992715, 137, 173, 200, 204
-0.992719, 365, 49, 396, 176
-0.992729, 169, 205, 232, 236
-0.992736, 401, 165, 464, 196
-0.992757, 257, 133, 288, 164
-0.992785, 277, 85, 308, 116
-0.992785, 265, 81, 296, 112
-0.992795, 297, 1, 360, 375
-0.992821, 269, 133, 300, 164
-0.992825, 289, 153, 320, 184
-0.992827, 129, 161, 192, 192
-0.992833, 369, 73, 496, 136
-0.992838, 285, 125, 316, 156
-0.992842, 361, 225, 424, 256
-0.992848, 385, 229, 448, 260
-0.992857, 185, 133, 248, 164
-0.99286, 209, 81, 336, 144
-0.99286, 241, 209, 368, 272
-0.992873, 161, 217, 224, 248
-0.992875, 413, 121, 444, 184
-0.992879, 249, 157, 280, 188
-0.992897, 401, 141, 464, 172
-0.992905, 17, 217, 80, 280
-0.992907, 249, 265, 312, 296
-0.992915, 449, 101, 480, 132
-0.992934, 465, 97, 496, 128
-0.992936, 57, 113, 120, 144
-0.992939, 409, 105, 440, 136
-0.992945, 121, 205, 184, 236
-0.992948, 233, 157, 264, 188
-0.992953, 313, 121, 344, 152
-0.992957, 437, 101, 468, 132
-0.992962, 353, 113, 384, 144
-0.992964, 409, 233, 472, 264
-0.992975, 241, 57, 304, 88
-0.992977, 269, 153, 300, 184
-0.99298, 289, 237, 320, 268
-0.992982, 365, 113, 396, 144
-0.992985, 113, 149, 144, 180
-0.992986, 329, 117, 360, 148
-0.992993, 149, 141, 180, 172
-0.993002, 253, 217, 284, 280
-0.99301, 305, 145, 336, 176
-0.993012, 273, 201, 336, 232
-0.993024, 201, 189, 264, 220
-0.993028, 113, 125, 176, 156
-0.99303, 169, 161, 232, 192
-0.993037, 1, 129, 500, 192
-0.993039, 341, 121, 372, 152
-0.993048, 49, 201, 112, 264
-0.993049, 305, 161, 336, 288
-0.993051, 329, 101, 392, 132
-0.993053, 265, 93, 296, 124
-0.993057, 33, 185, 96, 216
-0.993058, 161, 145, 192, 176
-0.993059, 225, 181, 288, 212
-0.993059, 277, 113, 308, 144
-0.993066, 145, 217, 272, 280
-0.993066, 273, 249, 304, 280
-0.993076, 425, 105, 456, 136
-0.993078, 385, 109, 416, 140
-0.99308, 9, 177, 72, 208
-0.993088, 41, 173, 104, 204
-0.993088, 305, 105, 368, 136
-0.993094, 393, 93, 456, 124
-0.993104, 125, 145, 156, 176
-0.993114, 137, 137, 168, 168
-0.99312, 105, 193, 136, 224
-0.993125, 177, 33, 240, 288
-0.993125, 197, 149, 228, 180
-0.993127, 397, 109, 428, 140
-0.993132, 301, 121, 332, 152
-0.993146, 385, 133, 416, 164
-0.993158, 265, 69, 296, 100
-0.993168, 129, 1, 192, 256
-0.993177, 85, 137, 116, 168
-0.99318, 181, 149, 212, 180
-0.993182, 185, 193, 216, 224
-0.993183, 333, 233, 364, 264
-0.993185, 105, 165, 136, 196
-0.993188, 277, 213, 308, 244
-0.993197, 81, 1, 144, 375
-0.993199, 369, 217, 496, 280
-0.993207, 1, 297, 128, 360
-0.993207, 329, 141, 360, 172
-0.993211, 277, 73, 308, 104
-0.993218, 373, 133, 404, 164
-0.99322, 237, 213, 268, 244
-0.993221, 265, 233, 296, 264
-0.993226, 65, 125, 96, 156
-0.993231, 121, 161, 152, 192
-0.993231, 265, 117, 296, 148
-0.993243, 361, 137, 392, 168
-0.993249, 201, 185, 232, 216
-0.993249, 257, 145, 288, 176
-0.99325, 421, 125, 452, 156
-0.993254, 429, 153, 460, 184
-0.993269, 273, 261, 304, 292
-0.993272, 281, 225, 312, 256
-0.993283, 85, 153, 116, 184
-0.993286, 453, 121, 484, 152
-0.993287, 105, 137, 136, 168
-0.993287, 353, 33, 384, 160
-0.993291, 1, 257, 64, 320
-0.993298, 213, 213, 244, 244
-0.993306, 265, 37, 296, 68
-0.993308, 357, 237, 388, 268
-0.993309, 193, 193, 256, 320
-0.993315, 273, 169, 304, 200
-0.993329, 57, 113, 88, 144
-0.993332, 461, 253, 492, 284
-0.993334, 465, 125, 496, 156
-0.993335, 257, 209, 288, 336
-0.993336, 293, 141, 324, 172
-0.993336, 409, 245, 440, 276
-0.993338, 373, 157, 404, 188
-0.993346, 345, 141, 376, 172
-0.99335, 405, 49, 436, 176
-0.993356, 289, 89, 352, 152
-0.993361, 141, 81, 172, 208
-0.993365, 293, 165, 324, 196
-0.993366, 173, 181, 204, 212
-0.993369, 301, 229, 332, 260
-0.993373, 353, 157, 384, 188
-0.993383, 437, 245, 468, 276
-0.993384, 221, 157, 252, 188
-0.993387, 441, 149, 472, 180
-0.993391, 181, 209, 212, 240
-0.993399, 317, 141, 348, 172
-0.993404, 409, 129, 440, 160
-0.993405, 145, 1, 208, 375
-0.993411, 1, 257, 32, 320
-0.993412, 389, 241, 420, 272
-0.993412, 469, 113, 500, 144
-0.993416, 69, 137, 100, 168
-0.993417, 445, 133, 476, 164
-0.993417, 229, 225, 260, 256
-0.993419, 257, 221, 288, 252
-0.99342, 237, 169, 268, 200
-0.993424, 289, 213, 320, 244
-0.993425, 117, 189, 148, 220
-0.993427, 377, 121, 408, 152
-0.993428, 1, 257, 32, 288
-0.993429, 81, 189, 112, 220
-0.993434, 417, 153, 448, 184
-0.993434, 313, 221, 344, 252
-0.993436, 397, 125, 428, 156
-0.993436, 93, 193, 124, 224
-0.993441, 341, 157, 372, 188
-0.99345, 153, 205, 184, 236
-0.99345, 73, 149, 104, 180
-0.993453, 117, 173, 148, 204
-0.993453, 189, 137, 220, 168
-0.993453, 233, 129, 264, 160
-0.993455, 225, 209, 256, 240
-0.993457, 433, 121, 464, 152
-0.99346, 53, 101, 84, 132
-0.993461, 205, 201, 236, 232
-0.99347, 277, 101, 308, 132
-0.99348, 113, 209, 144, 240
-0.99348, 281, 137, 312, 168
-0.993484, 141, 125, 172, 156
-0.993489, 441, 161, 472, 192
-0.993492, 429, 141, 460, 172
-0.993494, 173, 137, 204, 168
-0.993494, 193, 173, 224, 204
-0.993497, 193, 217, 224, 248
-0.993497, 53, 77, 84, 108
-0.993502, 289, 197, 320, 228
-0.993506, 429, 165, 460, 196
-0.993508, 361, 101, 392, 132
-0.993513, 409, 117, 440, 148
-0.993513, 409, 233, 440, 264
-0.993513, 221, 133, 252, 164
-0.993516, 265, 105, 296, 136
-0.993533, 33, 113, 288, 176
-0.993567, 193, 17, 320, 80
-0.993576, 389, 129, 420, 192
-0.993591, 393, 73, 456, 136
-0.993612, 109, 185, 140, 248
-0.993623, 9, 137, 72, 200
-0.993624, 113, 1, 176, 375
-0.993638, 321, 145, 352, 208
-0.993664, 33, 1, 96, 375
-0.993767, 161, 113, 416, 176
-0.993779, 225, 233, 352, 296
-0.9938, 233, 97, 264, 224
-0.993823, 161, 177, 192, 240
-0.993843, 241, 25, 368, 88
-0.993862, 193, 1, 256, 375
-0.993885, 261, 153, 292, 216
-0.993894, 245, 97, 276, 224
-0.993943, 277, 49, 308, 112
-0.993988, 209, 169, 240, 232
-0.994012, 17, 289, 80, 352
-0.994071, 433, 145, 464, 208
-0.994128, 1, 81, 500, 144
-0.99416, 429, 161, 460, 288
-0.994173, 69, 65, 100, 192
-0.994198, 113, 97, 144, 224
-0.994213, 49, 209, 176, 272
-0.994242, 257, 137, 500, 200
-0.994296, 193, 141, 320, 172
-0.994327, 293, 209, 324, 336
-0.994348, 53, 1, 84, 128
-0.994363, 165, 81, 196, 208
-0.994395, 81, 141, 208, 172
-0.994403, 145, 145, 272, 176
-0.994411, 53, 25, 84, 88
-0.994423, 353, 177, 384, 304
-0.9945, 117, 161, 148, 288
-0.994533, 145, 169, 176, 232
-0.994565, 257, 121, 384, 152
-0.99457, 169, 1, 232, 375
-0.994588, 241, 201, 272, 264
-0.994626, 469, 225, 500, 352
-0.994649, 453, 33, 484, 160
-0.994674, 221, 185, 252, 248
-0.994705, 457, 193, 488, 320
-0.99472, 53, 1, 84, 64
-0.994733, 209, 81, 240, 208
-0.994743, 193, 49, 320, 112
-0.994765, 53, 57, 84, 120
-0.994816, 317, 161, 348, 288
-0.994841, 69, 17, 100, 144
-0.994921, 197, 121, 228, 184
-0.994933, 1, 73, 256, 136
-0.994938, 1, 49, 256, 112
-0.994945, 279, 105, 294, 168
-0.994946, 271, 129, 286, 192
-0.994959, 1, 209, 32, 336
-0.995048, 457, 233, 488, 296
-0.99506, 133, 169, 164, 232
-0.995069, 345, 81, 408, 144
-0.995098, 125, 129, 140, 192
-0.995109, 353, 105, 480, 136
-0.995146, 257, 1, 384, 64
-0.995157, 325, 217, 356, 280
-0.995167, 141, 105, 172, 168
-0.995179, 333, 49, 364, 176
-0.995186, 257, 17, 288, 80
-0.99519, 113, 161, 128, 224
-0.99521, 289, 201, 416, 264
-0.995213, 289, 145, 320, 208
-0.995234, 393, 225, 424, 288
-0.995235, 359, 113, 374, 176
-0.995259, 277, 177, 308, 240
-0.99526, 1, 33, 500, 96
-0.995278, 373, 209, 404, 336
-0.995283, 237, 113, 268, 176
-0.99529, 351, 113, 366, 176
-0.99529, 469, 73, 500, 136
-0.995308, 425, 185, 488, 248
-0.995311, 273, 257, 336, 320
-0.995324, 161, 137, 176, 200
-0.995361, 337, 209, 368, 336
-0.995363, 289, 1, 352, 256
-0.995372, 17, 313, 80, 375
-0.995404, 185, 81, 216, 208
-0.995412, 329, 201, 392, 264
-0.995433, 197, 209, 228, 272
-0.995478, 405, 153, 436, 216
-0.995497, 81, 201, 144, 264
-0.995513, 321, 117, 448, 148
-0.995519, 257, 233, 500, 296
-0.995538, 271, 9, 286, 72
-0.99554, 105, 153, 120, 216
-0.99555, 345, 1, 408, 64
-0.99555, 209, 265, 336, 328
-0.995573, 1, 1, 256, 64
-0.995573, 1, 25, 256, 88
-0.995589, 369, 249, 432, 312
-0.995595, 105, 1, 168, 256
-0.995599, 365, 105, 380, 168
-0.995611, 385, 49, 416, 176
-0.995613, 165, 177, 196, 304
-0.995618, 173, 145, 188, 208
-0.99563, 281, 209, 312, 336
-0.995642, 1, 9, 500, 72
-0.995643, 193, 177, 224, 304
-0.995657, 257, 145, 384, 176
-0.995668, 193, 161, 448, 224
-0.99567, 345, 113, 360, 176
-0.995683, 209, 129, 336, 160
-0.9957, 49, 129, 176, 160
-0.995706, 1, 105, 500, 168
-0.995713, 129, 65, 160, 192
-0.99572, 433, 33, 464, 160
-0.995735, 225, 137, 240, 200
-0.995765, 281, 9, 344, 72
-0.995767, 153, 81, 184, 208
-0.99581, 357, 225, 388, 352
-0.995825, 305, 209, 336, 272
-0.995837, 369, 217, 400, 280
-0.995847, 69, 73, 100, 136
-0.995868, 353, 161, 384, 224
-0.995874, 287, 121, 302, 184
-0.995877, 319, 113, 334, 176
-0.995882, 241, 49, 368, 112
-0.995882, 329, 161, 360, 288
-0.9959, 105, 105, 136, 168
-0.995915, 1, 185, 256, 248
-0.995927, 265, 129, 280, 192
-0.995991, 1, 273, 128, 336
-0.995996, 181, 177, 212, 304
-0.99602, 279, 81, 294, 144
-0.996025, 409, 105, 424, 168
-0.996029, 341, 89, 372, 152
-0.996031, 151, 129, 166, 192
-0.99606, 385, 161, 416, 288
-0.996077, 133, 121, 148, 184
-0.996084, 459, 97, 474, 160
-0.996085, 297, 65, 328, 192
-0.996103, 441, 169, 472, 232
-0.996103, 375, 105, 390, 168
-0.996125, 257, 129, 272, 192
-0.996132, 183, 145, 198, 208
-0.996145, 85, 105, 116, 168
-0.996149, 421, 97, 436, 160
-0.996153, 473, 97, 488, 160
-0.996169, 33, 145, 160, 176
-0.996189, 465, 121, 496, 184
-0.996189, 1, 249, 128, 312
-0.996189, 399, 105, 414, 168
-0.996193, 239, 137, 254, 200
-0.996194, 173, 121, 204, 184
-0.996195, 289, 89, 320, 152
-0.996197, 425, 121, 456, 184
-0.996199, 1, 233, 32, 296
-0.996203, 265, 1, 296, 256
-0.996208, 205, 145, 220, 208
-0.996225, 429, 233, 460, 296
-0.996226, 57, 313, 120, 375
-0.996233, 209, 157, 336, 188
-0.996235, 445, 209, 476, 336
-0.996237, 483, 97, 498, 160
-0.996252, 1, 209, 256, 272
-0.996261, 217, 137, 232, 200
-0.99629, 57, 241, 120, 368
-0.996296, 467, 97, 482, 160
-0.99631, 221, 81, 252, 208
-0.996315, 305, 137, 432, 168
-0.99632, 381, 105, 396, 168
-0.996342, 69, 33, 100, 96
-0.996371, 117, 129, 132, 192
-0.996411, 167, 145, 182, 208
-0.996423, 313, 113, 328, 176
-0.996431, 397, 81, 428, 144
-0.996433, 99, 153, 114, 216
-0.996439, 281, 145, 296, 208
-0.996445, 197, 145, 212, 208
-0.996453, 443, 97, 458, 160
-0.996462, 327, 113, 342, 176
-0.996474, 145, 177, 176, 304
-0.996484, 139, 129, 154, 192
-0.996492, 433, 265, 496, 328
-0.996503, 353, 129, 480, 160
-0.996505, 245, 137, 260, 200
-0.99651, 453, 73, 484, 136
-0.996519, 129, 209, 384, 272
-0.996537, 353, 193, 416, 256
-0.99656, 415, 105, 430, 168
-0.996563, 1, 125, 128, 156
-0.996564, 197, 81, 228, 208
-0.996577, 9, 129, 72, 375
-0.996579, 211, 145, 226, 208
-0.996599, 65, 161, 320, 224
-0.996606, 341, 145, 372, 272
-0.996612, 251, 137, 266, 200
-0.996618, 453, 97, 468, 160
-0.996623, 301, 121, 316, 184
-0.996646, 49, 225, 112, 288
-0.996655, 177, 241, 304, 304
-0.996659, 249, 105, 280, 168
-0.996666, 337, 113, 352, 176
-0.996673, 119, 169, 134, 232
-0.996679, 257, 17, 500, 144
-0.996697, 307, 121, 322, 184
-0.9967, 435, 97, 450, 160
-0.996715, 427, 97, 442, 160
-0.99672, 405, 241, 436, 304
-0.996724, 469, 33, 500, 160
-0.996733, 77, 121, 92, 184
-0.996748, 387, 105, 402, 168
-0.996755, 337, 153, 464, 184
-0.996765, 353, 145, 368, 208
-0.996773, 221, 161, 252, 224
-0.996779, 293, 121, 308, 184
-0.996782, 393, 105, 408, 168
-0.9968, 145, 129, 160, 192
-0.996805, 9, 1, 72, 375
-0.996839, 97, 185, 352, 248
-0.996844, 145, 201, 176, 264
-0.996844, 469, 257, 500, 320
-0.996846, 191, 145, 206, 208
-0.99685, 57, 289, 120, 352
-0.996852, 237, 161, 268, 224
-0.996861, 281, 233, 296, 296
-0.996871, 287, 241, 302, 304
-0.996881, 313, 185, 344, 248
-0.996905, 231, 137, 246, 200
-0.996921, 359, 137, 374, 200
-0.996945, 325, 89, 356, 152
-0.996985, 417, 249, 448, 312
-0.997017, 277, 81, 292, 112
-0.997021, 367, 81, 382, 144
-0.997029, 49, 109, 176, 140
-0.997031, 271, 105, 286, 168
-0.997032, 113, 129, 240, 160
-0.997033, 277, 9, 292, 72
-0.997035, 261, 153, 276, 216
-0.997043, 417, 33, 448, 160
-0.997043, 241, 129, 272, 375
-0.997053, 69, 9, 100, 72
-0.997057, 177, 205, 304, 236
-0.997058, 287, 89, 302, 152
-0.997062, 313, 233, 344, 296
-0.997082, 457, 65, 488, 320
-0.99711, 1, 57, 500, 120
-0.997114, 113, 209, 176, 272
-0.99712, 49, 73, 176, 104
-0.99714, 249, 177, 280, 240
-0.997146, 257, 97, 288, 352
-0.997154, 129, 105, 160, 168
-0.997158, 161, 157, 288, 188
-0.997164, 257, 157, 384, 188
-0.997167, 365, 1, 380, 64
-0.997177, 1, 169, 500, 232
-0.997184, 265, 17, 280, 80
-0.997195, 353, 97, 384, 352
-0.9972, 275, 33, 290, 96
-0.997218, 417, 145, 448, 272
-0.997223, 271, 177, 286, 240
-0.997228, 49, 49, 176, 80
-0.997244, 173, 201, 204, 264
-0.997244, 349, 233, 380, 296
-0.997245, 1, 33, 128, 64
-0.997261, 257, 89, 500, 152
-0.997261, 121, 97, 152, 352
-0.997261, 1, 265, 16, 328
-0.997263, 209, 217, 240, 280
-0.997266, 91, 153, 106, 216
-0.997286, 229, 177, 260, 304
-0.997303, 257, 257, 384, 320
-0.997306, 361, 81, 376, 144
-0.997311, 101, 129, 116, 192
-0.997314, 295, 217, 310, 280
-0.997326, 225, 113, 256, 176
-0.997339, 337, 229, 464, 260
-0.997356, 49, 37, 176, 68
-0.997364, 279, 57, 294, 120
-0.997376, 441, 65, 472, 320
-0.997381, 221, 209, 252, 272
-0.997381, 441, 225, 472, 288
-0.997393, 277, 97, 308, 352
-0.997397, 49, 61, 176, 92
-0.997405, 453, 121, 468, 184
-0.997405, 427, 145, 442, 208
-0.997408, 269, 49, 284, 112
-0.997418, 357, 1, 388, 64
-0.99742, 49, 97, 176, 128
-0.99742, 337, 169, 464, 200
-0.997426, 271, 209, 286, 272
-0.997426, 65, 205, 192, 236
-0.997432, 353, 241, 480, 272
-0.997434, 369, 97, 400, 352
-0.997439, 421, 153, 436, 216
-0.997445, 49, 85, 176, 116
-0.997445, 77, 161, 108, 224
-0.997445, 375, 145, 390, 208
-0.997453, 409, 65, 440, 320
-0.997458, 49, 13, 176, 44
-0.997459, 49, 313, 176, 375
-0.997468, 161, 233, 416, 296
-0.997471, 225, 213, 352, 244
-0.997477, 411, 129, 426, 192
-0.997482, 103, 185, 118, 248
-0.997483, 347, 137, 362, 200
-0.997503, 225, 169, 352, 200
-0.997511, 145, 217, 272, 248
-0.997511, 133, 129, 148, 160
-0.997516, 97, 189, 224, 220
-0.997517, 469, 65, 500, 320
-0.997518, 97, 153, 224, 184
-0.997533, 321, 97, 352, 352
-0.997534, 1, 21, 128, 52
-0.997537, 109, 185, 124, 248
-0.997543, 273, 221, 400, 252
-0.997546, 185, 129, 216, 375
-0.997548, 279, 117, 294, 148
-0.997551, 365, 169, 396, 232
-0.997555, 289, 97, 320, 352
-0.997557, 83, 145, 98, 208
-0.997558, 71, 121, 86, 184
-0.997566, 129, 205, 256, 236
-0.997566, 95, 129, 110, 192
-0.997572, 213, 129, 244, 375
-0.997585, 421, 65, 452, 320
-0.997596, 485, 137, 500, 200
-0.9976, 433, 145, 448, 208
-0.997607, 385, 97, 416, 352
-0.997616, 225, 209, 480, 272
-0.997623, 125, 153, 140, 216
-0.997624, 1, 53, 128, 84
-0.997629, 177, 181, 304, 212
-0.997635, 321, 249, 448, 312
-0.997639, 49, 1, 176, 32
-0.997642, 225, 185, 480, 248
-0.997643, 259, 137, 274, 168
-0.997644, 293, 169, 308, 232
-0.997662, 365, 137, 380, 200
-0.997666, 89, 193, 152, 320
-0.997675, 1, 1, 128, 32
-0.997675, 265, 177, 280, 240
-0.997679, 359, 1, 374, 64
-0.99768, 1, 113, 128, 144
-0.997689, 201, 129, 232, 375
-0.997696, 49, 25, 176, 56
-0.997697, 287, 145, 302, 208
-0.997704, 271, 153, 286, 216
-0.997717, 241, 233, 368, 264
-0.997722, 105, 129, 136, 375
-0.997732, 287, 129, 302, 160
-0.997733, 1, 217, 500, 280
-0.997736, 431, 121, 446, 184
-0.99774, 227, 141, 242, 172
-0.997742, 247, 141, 262, 172
-0.997747, 271, 133, 286, 164
-0.997754, 169, 177, 184, 240
-0.997757, 1, 85, 128, 116
-0.99776, 325, 145, 340, 208
-0.997762, 157, 129, 188, 375
-0.997765, 397, 65, 428, 320
-0.997767, 225, 129, 256, 375
-0.997782, 405, 129, 420, 192
-0.997785, 161, 193, 288, 224
-0.997785, 257, 133, 384, 164
-0.997785, 383, 145, 398, 208
-0.997789, 333, 129, 364, 375
-0.997793, 173, 129, 204, 375
-0.997816, 49, 161, 176, 192
-0.997825, 97, 89, 352, 152
-0.997828, 257, 201, 272, 264
-0.997846, 285, 249, 300, 280
-0.997858, 173, 121, 188, 184
-0.997861, 253, 161, 268, 224
-0.997872, 369, 253, 496, 284
-0.997878, 277, 69, 292, 100
-0.997878, 295, 153, 310, 184
-0.997879, 369, 117, 496, 148
-0.997881, 1, 65, 128, 96
-0.997888, 309, 97, 340, 352
-0.997894, 301, 161, 316, 224
-0.997902, 89, 121, 104, 184
-0.997907, 281, 17, 312, 144
-0.997908, 245, 193, 276, 320
-0.99791, 263, 157, 278, 188
-0.997915, 337, 181, 464, 212
-0.997918, 281, 169, 296, 232
-0.997934, 269, 21, 284, 52
-0.997948, 125, 137, 140, 168
-0.997949, 159, 177, 174, 240
-0.997953, 57, 145, 88, 272
-0.997969, 283, 209, 298, 272
-0.997973, 271, 153, 286, 184
-0.997975, 251, 113, 266, 176
-0.997989, 263, 209, 278, 272
-0.997989, 105, 153, 120, 184
-0.997991, 417, 129, 432, 192
-0.997992, 257, 157, 272, 188
-0.998, 237, 141, 252, 172
-0.998001, 175, 177, 190, 240
-0.998007, 133, 97, 164, 352
-0.998011, 215, 217, 230, 280
-0.998011, 277, 129, 292, 160
-0.998013, 473, 153, 488, 216
-0.998018, 283, 9, 298, 72
-0.998031, 369, 113, 384, 144
-0.998033, 307, 145, 322, 208
-0.998037, 359, 117, 374, 148
-0.998039, 253, 141, 268, 172
-0.998043, 213, 185, 228, 248
-0.998072, 1, 97, 128, 128
-0.998076, 477, 121, 492, 184
-0.99808, 333, 145, 348, 208
-0.998085, 467, 121, 482, 184
-0.998092, 167, 121, 182, 184
-0.998101, 415, 153, 430, 216
-0.998104, 143, 105, 158, 168
-0.998104, 161, 125, 288, 156
-0.998107, 441, 129, 456, 192
-0.998109, 215, 145, 230, 176
-0.998115, 93, 129, 124, 375
-0.998124, 265, 133, 280, 164
-0.998125, 279, 93, 294, 124
-0.998126, 145, 97, 176, 352
-0.998144, 115, 149, 130, 180
-0.998146, 305, 241, 432, 272
-0.998155, 277, 1, 308, 256
-0.998162, 165, 145, 180, 176
-0.998177, 321, 1, 384, 64
-0.998188, 115, 169, 130, 200
-0.998188, 275, 9, 290, 40
-0.998189, 439, 101, 454, 132
-0.998201, 97, 217, 224, 248
-0.99822, 249, 157, 264, 188
-0.998224, 423, 105, 438, 136
-0.998225, 289, 169, 416, 200
-0.998228, 237, 153, 252, 184
-0.99823, 369, 265, 496, 328
-0.998233, 177, 169, 304, 200
-0.998235, 309, 145, 324, 176
-0.998236, 205, 149, 220, 180
-0.99824, 335, 117, 350, 148
-0.998259, 311, 121, 326, 152
-0.998284, 445, 101, 460, 132
-0.99829, 285, 85, 300, 116
-0.99829, 293, 233, 308, 264
-0.998292, 159, 141, 174, 172
-0.998301, 333, 135, 364, 150
-0.998302, 433, 117, 464, 132
-0.998302, 169, 141, 200, 156
-0.998302, 153, 137, 168, 168
-0.998304, 213, 155, 244, 170
-0.998304, 265, 127, 296, 142
-0.998304, 441, 149, 472, 164
-0.998304, 1, 261, 32, 276
-0.998305, 65, 97, 96, 352
-0.998305, 221, 145, 236, 176
-0.998306, 117, 211, 148, 226
-0.998306, 57, 121, 88, 136
-0.998307, 49, 249, 112, 312
-0.998307, 277, 95, 308, 110
-0.998308, 345, 241, 376, 256
-0.998308, 237, 173, 268, 188
-0.998309, 385, 247, 416, 262
-0.99831, 269, 13, 300, 28
-0.99831, 189, 211, 220, 226
-0.99831, 265, 39, 296, 54
-0.99831, 105, 169, 136, 184
-0.99831, 125, 149, 156, 164
-0.998311, 285, 155, 316, 170
-0.998311, 243, 157, 258, 188
-0.998311, 85, 139, 116, 154
-0.998312, 173, 211, 204, 226
-0.998312, 441, 165, 472, 180
-0.998312, 461, 257, 492, 272
-0.998312, 273, 149, 304, 164
-0.998313, 345, 161, 376, 176
-0.998314, 125, 143, 156, 158
-0.998314, 461, 265, 492, 280
-0.998315, 277, 235, 308, 250
-0.998315, 445, 263, 476, 278
-0.998315, 265, 77, 296, 92
-0.998315, 109, 193, 124, 224
-0.998316, 249, 173, 280, 188
-0.998316, 469, 97, 484, 128
-0.998317, 261, 233, 292, 248
-0.998318, 269, 143, 300, 158
-0.998318, 373, 245, 404, 260
-0.998319, 93, 163, 124, 178
-0.998319, 205, 213, 236, 228
-0.99832, 353, 141, 480, 172
-0.998322, 429, 167, 460, 182
-0.998322, 289, 165, 320, 180
-0.998322, 421, 251, 452, 266
-0.998322, 193, 225, 320, 256
-0.998323, 277, 117, 308, 132
-0.998325, 1, 157, 128, 188
-0.998325, 121, 157, 152, 172
-0.998329, 165, 147, 196, 162
-0.998331, 273, 271, 304, 286
-0.998333, 269, 167, 300, 182
-0.998334, 313, 139, 344, 154
-0.998337, 363, 105, 378, 136
-0.998337, 117, 169, 148, 184
-0.998338, 177, 191, 208, 206
-0.998339, 353, 133, 384, 148
-0.998339, 115, 189, 130, 220
-0.998339, 389, 109, 404, 140
-0.99834, 205, 189, 236, 204
-0.998341, 325, 119, 356, 134
-0.998342, 65, 127, 96, 142
-0.998343, 257, 227, 288, 242
-0.998344, 277, 77, 308, 92
-0.998344, 245, 167, 276, 182
-0.998345, 285, 89, 316, 104
-0.998348, 453, 101, 468, 132
-0.998352, 161, 215, 192, 230
-0.998352, 153, 209, 184, 224
-0.998353, 89, 191, 120, 206
-0.998355, 289, 127, 320, 142
-0.998357, 277, 229, 308, 244
-0.998357, 411, 105, 426, 136
-0.998357, 113, 191, 144, 206
-0.998357, 393, 109, 424, 124
-0.998359, 445, 123, 476, 138
-0.998359, 313, 121, 344, 136
-0.998359, 277, 211, 308, 226
-0.99836, 153, 147, 184, 162
-0.998363, 225, 161, 256, 176
-0.998365, 305, 151, 336, 166
-0.998366, 189, 151, 220, 166
-0.998366, 33, 193, 160, 224
-0.998368, 85, 149, 116, 164
-0.998368, 273, 37, 288, 68
-0.998369, 225, 151, 256, 166
-0.99837, 245, 225, 276, 240
-0.998371, 429, 101, 444, 132
-0.998372, 193, 195, 224, 210
-0.998372, 433, 125, 464, 140
-0.998373, 277, 123, 308, 138
-0.998374, 99, 153, 114, 184
-0.998374, 433, 103, 464, 118
-0.998375, 101, 187, 132, 202
-0.998375, 177, 149, 208, 164
-0.998377, 105, 149, 136, 164
-0.998378, 185, 217, 216, 232
-0.99838, 381, 111, 412, 126
-0.998381, 349, 117, 380, 132
-0.998384, 125, 153, 140, 184
-0.998387, 301, 149, 316, 180
-0.998388, 249, 145, 280, 160
-0.998388, 233, 223, 264, 238
-0.998392, 281, 141, 296, 172
-0.998392, 253, 1, 284, 256
-0.998392, 237, 153, 268, 168
-0.998393, 337, 119, 368, 134
-0.998394, 217, 221, 248, 236
-0.998394, 405, 107, 436, 122
-0.998394, 265, 95, 296, 110
-0.998396, 293, 149, 324, 164
-0.998398, 241, 105, 368, 136
-0.998398, 265, 145, 280, 176
-0.998399, 457, 101, 488, 116
-0.998399, 469, 119, 500, 134
-0.9984, 205, 177, 236, 304
-0.998401, 469, 99, 500, 114
-0.998402, 173, 217, 204, 232
-0.998402, 257, 167, 288, 182
-0.998402, 421, 105, 452, 120
-0.998406, 241, 21, 368, 52
-0.998407, 421, 127, 452, 142
-0.998407, 193, 187, 224, 202
-0.998411, 253, 153, 284, 168
-0.998411, 365, 137, 380, 168
-0.998413, 301, 123, 332, 138
-0.998415, 361, 115, 392, 130
-0.998415, 393, 131, 424, 146
-0.998416, 293, 125, 308, 156
-0.998417, 417, 193, 448, 320
-0.998421, 273, 9, 400, 40
-0.998421, 201, 219, 232, 234
-0.998421, 121, 163, 152, 178
-0.998421, 329, 141, 360, 156
-0.998422, 445, 101, 476, 116
-0.998422, 269, 155, 300, 170
-0.998422, 269, 83, 300, 98
-0.998424, 65, 289, 192, 352
-0.998426, 49, 233, 176, 296
-0.998428, 381, 133, 412, 148
-0.99843, 269, 19, 300, 34
-0.998437, 279, 105, 294, 136
-0.998437, 105, 163, 136, 178
-0.998437, 241, 77, 368, 108
-0.998438, 113, 177, 240, 208
-0.998441, 205, 149, 236, 164
-0.998445, 405, 105, 420, 136
-0.998447, 183, 145, 198, 176
-0.998447, 395, 109, 410, 140
-0.998449, 199, 149, 214, 180
-0.99845, 341, 117, 356, 148
-0.99845, 93, 157, 124, 172
-0.998453, 141, 139, 172, 154
-0.998453, 265, 27, 296, 42
-0.998454, 409, 129, 440, 144
-0.998455, 317, 121, 332, 152
-0.998463, 217, 145, 248, 160
-0.998463, 353, 117, 368, 148
-0.998469, 139, 137, 154, 168
-0.99847, 365, 135, 396, 150
-0.998471, 345, 139, 376, 154
-0.998472, 329, 121, 344, 152
-0.998472, 289, 153, 304, 184
-0.998473, 457, 121, 488, 136
-0.998475, 277, 129, 308, 144
-0.998476, 233, 143, 264, 158
-0.998477, 105, 155, 136, 170
-0.998478, 309, 145, 340, 160
-0.998478, 279, 245, 294, 276
-0.998479, 249, 159, 280, 174
-0.998481, 237, 159, 268, 174
-0.998483, 191, 149, 206, 180
-0.998484, 193, 77, 320, 108
-0.998485, 303, 125, 318, 156
-0.998485, 273, 89, 304, 104
-0.998486, 125, 135, 156, 150
-0.998486, 225, 181, 352, 212
-0.998489, 173, 145, 188, 176
-0.998493, 289, 181, 416, 212
-0.998496, 261, 135, 292, 150
-0.9985, 217, 143, 280, 158
-0.998501, 417, 105, 432, 136
-0.998503, 201, 185, 216, 216
-0.998503, 305, 143, 368, 158
-0.998507, 283, 229, 298, 260
-0.998508, 245, 139, 276, 154
-0.998508, 341, 137, 356, 168
-0.998509, 121, 141, 184, 156
-0.99851, 271, 93, 286, 124
-0.998514, 485, 97, 500, 128
-0.998519, 475, 97, 490, 128
-0.99852, 461, 101, 476, 132
-0.998529, 271, 225, 286, 256
-0.998533, 399, 133, 414, 164
-0.998534, 265, 127, 328, 142
-0.998534, 375, 117, 390, 148
-0.998539, 201, 149, 264, 164
-0.998543, 329, 139, 392, 154
-0.998548, 1, 277, 16, 308
-0.99855, 305, 209, 336, 336
-0.99855, 225, 159, 288, 174
-0.99855, 287, 117, 302, 148
-0.998551, 283, 21, 298, 52
-0.998552, 105, 163, 168, 178
-0.998552, 283, 209, 298, 240
-0.998552, 301, 161, 316, 192
-0.998553, 81, 155, 144, 170
-0.998554, 79, 125, 94, 156
-0.998556, 265, 145, 328, 160
-0.998557, 265, 153, 328, 168
-0.998559, 369, 101, 384, 132
-0.998562, 365, 1, 380, 32
-0.998567, 265, 89, 328, 104
-0.998569, 425, 125, 440, 156
-0.998573, 369, 133, 432, 148
-0.998573, 121, 147, 184, 162
-0.998573, 193, 21, 320, 52
-0.998574, 89, 191, 152, 206
-0.998574, 241, 141, 304, 156
-0.998574, 401, 129, 464, 144
-0.998576, 323, 121, 338, 152
-0.998578, 401, 105, 464, 120
-0.99858, 257, 27, 320, 42
-0.99858, 305, 121, 368, 136
-0.998581, 433, 101, 496, 116
-0.998584, 337, 115, 400, 130
-0.998585, 81, 147, 144, 162
-0.998587, 361, 111, 424, 126
-0.998589, 225, 149, 288, 164
-0.998593, 121, 169, 184, 184
-0.998595, 383, 113, 398, 144
-0.998596, 425, 125, 488, 140
-0.998603, 217, 223, 280, 238
-0.998604, 353, 1, 384, 256
-0.998605, 169, 151, 232, 166
-0.998609, 345, 133, 408, 148
-0.99861, 241, 135, 304, 150
-0.998611, 147, 137, 162, 168
-0.998612, 145, 147, 208, 162
-0.998614, 81, 139, 144, 154
-0.998615, 347, 121, 362, 152
-0.998619, 265, 117, 328, 132
-0.99862, 225, 173, 288, 188
-0.998625, 105, 155, 168, 170
-0.998626, 177, 217, 240, 232
-0.998626, 289, 151, 352, 166
-0.998631, 265, 229, 328, 244
-0.998634, 185, 191, 248, 206
-0.998637, 441, 141, 456, 172
-0.998637, 433, 119, 496, 134
-0.998637, 249, 211, 312, 226
-0.998638, 41, 127, 104, 142
-0.99864, 1, 233, 256, 296
-0.998641, 463, 121, 478, 152
-0.998642, 257, 167, 320, 182
-0.998642, 277, 233, 292, 264
-0.998644, 257, 33, 320, 48
-0.998645, 313, 161, 376, 176
-0.998646, 153, 215, 216, 230
-0.998647, 241, 93, 304, 108
-0.998648, 121, 135, 184, 150
-0.998648, 431, 113, 446, 144
-0.998649, 193, 143, 256, 158
-0.998649, 377, 167, 440, 182
-0.998649, 129, 187, 192, 202
-0.99865, 241, 85, 304, 100
-0.998651, 49, 149, 112, 164
-0.998653, 97, 173, 160, 188
-0.998654, 265, 235, 328, 250
-0.998654, 77, 129, 108, 375
-0.998654, 81, 133, 144, 148
-0.998654, 249, 159, 312, 174
-0.998655, 57, 185, 120, 200
-0.998655, 193, 155, 256, 170
-0.998655, 225, 229, 288, 244
-0.998655, 89, 185, 152, 200
-0.998656, 329, 235, 392, 250
-0.998656, 57, 33, 120, 48
-0.998657, 57, 39, 120, 54
-0.998657, 433, 111, 496, 126
-0.998657, 377, 243, 440, 258
-0.998657, 309, 161, 324, 192
-0.998659, 319, 145, 334, 176
-0.998659, 289, 235, 352, 250
-0.998659, 161, 141, 224, 156
-0.998661, 273, 241, 336, 256
-0.998661, 401, 167, 464, 182
-0.998661, 257, 19, 320, 34
-0.998661, 225, 167, 288, 182
-0.998662, 201, 217, 264, 232
-0.998662, 49, 265, 176, 328
-0.998662, 57, 155, 120, 170
-0.998662, 65, 193, 128, 208
-0.998664, 393, 137, 408, 168
-0.998664, 433, 153, 448, 184
-0.998664, 433, 247, 496, 262
-0.998665, 393, 251, 456, 266
-0.998665, 113, 213, 176, 228
-0.998665, 193, 223, 256, 238
-0.998666, 345, 241, 408, 256
-0.998666, 57, 27, 120, 42
-0.998666, 81, 161, 144, 176
-0.998667, 57, 21, 120, 36
-0.998668, 409, 115, 472, 130
-0.998669, 257, 223, 320, 238
-0.998669, 169, 197, 232, 212
-0.998669, 41, 137, 104, 152
-0.99867, 161, 191, 224, 206
-0.998671, 169, 185, 232, 200
-0.998671, 161, 165, 224, 180
-0.998671, 273, 211, 336, 226
-0.998672, 241, 235, 304, 250
-0.998673, 57, 7, 120, 22
-0.998673, 57, 45, 120, 60
-0.998674, 265, 139, 328, 154
-0.998674, 207, 205, 222, 236
-0.998675, 57, 71, 120, 86
-0.998675, 425, 149, 488, 164
-0.998676, 265, 133, 328, 148
-0.998676, 373, 133, 388, 164
-0.998676, 289, 229, 352, 244
-0.998676, 425, 171, 488, 186
-0.998677, 57, 93, 120, 108
-0.998677, 353, 159, 416, 174
-0.998678, 231, 153, 246, 184
-0.998678, 57, 1, 120, 16
-0.998679, 433, 265, 496, 280
-0.998679, 281, 83, 344, 98
-0.99868, 241, 217, 304, 232
-0.99868, 57, 113, 120, 128
-0.99868, 137, 209, 200, 224
-0.99868, 25, 5, 88, 20
-0.99868, 353, 139, 416, 154
-0.998681, 393, 125, 408, 156
-0.998681, 329, 169, 392, 184
-0.998682, 25, 121, 88, 136
-0.998683, 129, 163, 192, 178
-0.998684, 57, 53, 120, 68
-0.998684, 25, 101, 88, 116
-0.998684, 57, 15, 120, 30
-0.998685, 57, 59, 120, 74
-0.998685, 209, 185, 272, 200
-0.998687, 425, 253, 488, 268
-0.998687, 161, 209, 224, 224
-0.998688, 241, 121, 304, 136
-0.998688, 25, 111, 88, 126
-0.998689, 261, 33, 276, 64
-0.998689, 411, 169, 426, 200
-0.998689, 57, 77, 120, 92
-0.998689, 145, 171, 208, 186
-0.998689, 201, 161, 264, 176
-0.998689, 185, 205, 248, 220
-0.99869, 241, 79, 304, 94
-0.99869, 25, 47, 88, 62
-0.99869, 57, 85, 120, 100
-0.998708, 225, 201, 352, 232
-0.998713, 1, 225, 128, 288
-0.998722, 469, 125, 484, 156
-0.998724, 121, 189, 136, 220
-0.998727, 283, 73, 298, 104
-0.998733, 321, 49, 352, 176
-0.998736, 365, 157, 380, 188
-0.998744, 1, 305, 128, 336
-0.998745, 305, 105, 432, 136
-0.998747, 469, 113, 484, 144
-0.998747, 57, 1, 88, 256
-0.998748, 359, 137, 374, 168
-0.998748, 95, 141, 110, 172
-0.998751, 231, 205, 246, 236
-0.998751, 17, 205, 144, 236
-0.998759, 101, 141, 116, 172
-0.998761, 231, 225, 246, 256
-0.998761, 1, 265, 16, 296
-0.998761, 441, 153, 456, 184
-0.998764, 291, 169, 306, 200
-0.998765, 201, 197, 216, 228
-0.998765, 279, 81, 294, 208
-0.998765, 93, 157, 108, 188
-0.998767, 121, 169, 136, 200
-0.998769, 89, 141, 104, 172
-0.998788, 101, 33, 132, 288
-0.998798, 1, 257, 256, 320
-0.998863, 193, 9, 320, 40
-0.998869, 193, 109, 320, 140
-0.998892, 1, 313, 256, 375
-0.998898, 325, 209, 356, 336
-0.998901, 1, 193, 500, 256
-0.998905, 241, 33, 368, 64
-0.998914, 125, 113, 140, 240
-0.998916, 257, 245, 384, 276
-0.998925, 61, 241, 92, 368
-0.998941, 369, 217, 496, 248
-0.998973, 285, 97, 300, 224
-0.99898, 17, 329, 144, 360
-0.998982, 1, 281, 256, 344
-0.998987, 165, 129, 180, 256
-0.998988, 365, 1, 396, 256
-0.998989, 171, 129, 186, 256
-0.998993, 193, 261, 320, 292
-0.998994, 193, 33, 320, 64
-0.998995, 303, 113, 318, 240
-0.999004, 131, 113, 146, 240
-0.999017, 363, 81, 378, 208
-0.999021, 157, 129, 172, 256
-0.99903, 271, 113, 286, 240
-0.999034, 151, 129, 166, 256
-0.999038, 485, 81, 500, 208
-0.99904, 89, 33, 120, 288
-0.999063, 369, 97, 384, 224
-0.99907, 33, 173, 160, 204
-0.999074, 217, 129, 232, 256
-0.999075, 369, 197, 496, 228
-0.999087, 265, 113, 280, 240
-0.999092, 439, 81, 454, 208
-0.999095, 253, 145, 268, 272
-0.999097, 207, 129, 222, 256
-0.999098, 109, 145, 124, 272
-0.999102, 265, 161, 280, 288
-0.999114, 185, 129, 200, 256
-0.999119, 201, 129, 216, 256
-0.99912, 143, 129, 158, 256
-0.999125, 479, 81, 494, 208
-0.999125, 271, 1, 286, 128
-0.999126, 245, 129, 260, 256
-0.999128, 69, 1, 100, 256
-0.99913, 391, 97, 406, 224
-0.999131, 137, 113, 152, 240
-0.999131, 297, 113, 312, 240
-0.999133, 1, 317, 128, 348
-0.999135, 381, 97, 396, 224
-0.999139, 277, 1, 292, 128
-0.999147, 195, 129, 210, 256
-0.999155, 259, 113, 274, 240
-0.999155, 193, 89, 320, 120
-0.999157, 341, 33, 372, 288
-0.99916, 289, 1, 320, 256
-0.999163, 473, 81, 488, 208
-0.999164, 113, 89, 240, 152
-0.999169, 277, 129, 292, 256
-0.999171, 239, 129, 254, 256
-0.999172, 353, 97, 368, 224
-0.999173, 421, 97, 436, 224
-0.999174, 97, 165, 224, 196
-0.999174, 233, 129, 248, 256
-0.999175, 179, 129, 194, 256
-0.999177, 65, 225, 192, 352
-0.999178, 257, 257, 500, 320
-0.999182, 227, 129, 242, 256
-0.999186, 397, 97, 412, 224
-0.999186, 409, 97, 424, 224
-0.999189, 161, 33, 192, 288
-0.999193, 315, 113, 330, 240
-0.999194, 427, 97, 442, 224
-0.999196, 233, 33, 264, 288
-0.99921, 321, 253, 448, 284
-0.999216, 291, 97, 306, 224
-0.999223, 445, 81, 460, 208
-0.999223, 433, 81, 448, 208
-0.999226, 115, 145, 130, 272
-0.999226, 321, 93, 448, 124
-0.999227, 403, 97, 418, 224
-0.999229, 129, 1, 160, 256
-0.999229, 325, 97, 340, 224
-0.999231, 375, 97, 390, 224
-0.999233, 451, 81, 466, 208
-0.999238, 241, 93, 368, 124
-0.999238, 101, 145, 116, 272
-0.999242, 295, 161, 310, 288
-0.999247, 145, 225, 272, 352
-0.999255, 287, 49, 302, 176
-0.999256, 269, 49, 284, 176
-0.999259, 415, 97, 430, 224
-0.999261, 79, 113, 94, 240
-0.999265, 331, 97, 346, 224
-0.999269, 1, 293, 128, 324
-0.999271, 309, 113, 324, 240
-0.999285, 347, 97, 362, 224
-0.999292, 95, 145, 110, 272
-0.999293, 457, 81, 472, 208
-0.999301, 17, 341, 144, 372
-0.999318, 271, 161, 286, 288
-0.999321, 177, 33, 208, 288
-0.999323, 273, 193, 400, 224
-0.999325, 209, 273, 336, 304
-0.999327, 359, 33, 374, 160
-0.999331, 193, 33, 224, 288
-0.999334, 467, 81, 482, 208
-0.999336, 193, 65, 320, 96
-0.999342, 339, 97, 354, 224
-0.999369, 283, 145, 298, 272
-0.999374, 221, 33, 252, 288
-0.999385, 241, 261, 368, 292
-0.999394, 377, 201, 440, 264
-0.999399, 309, 49, 340, 176
-0.9994, 87, 145, 102, 272
-0.999402, 321, 213, 448, 244
-0.999404, 405, 161, 436, 288
-0.999417, 259, 161, 274, 288
-0.999419, 113, 1, 144, 256
-0.999426, 385, 1, 416, 256
-0.999429, 71, 113, 86, 240
-0.999433, 359, 129, 374, 256
-0.999458, 241, 61, 368, 92
-0.999463, 205, 33, 236, 288
-0.99948, 369, 93, 496, 124
-0.999481, 371, 161, 386, 288
-0.999482, 289, 161, 304, 288
-0.999498, 367, 1, 382, 128
-0.999501, 271, 209, 286, 336
-0.999504, 369, 49, 384, 176
-0.999512, 121, 161, 136, 288
-0.999531, 449, 161, 464, 288
-0.999531, 369, 265, 496, 296
-0.999532, 115, 97, 130, 224
-0.999533, 147, 81, 162, 208
-0.999536, 293, 205, 308, 220
-0.999537, 423, 105, 438, 120
-0.999538, 109, 205, 124, 220
-0.999538, 89, 97, 104, 224
-0.999538, 341, 119, 356, 134
-0.999539, 229, 221, 244, 236
-0.999539, 115, 189, 130, 204
-0.99954, 453, 101, 468, 116
-0.999541, 251, 225, 266, 240
-0.999542, 325, 121, 340, 136
-0.999542, 267, 227, 282, 242
-0.999543, 397, 111, 412, 126
-0.999543, 403, 109, 418, 124
-0.999544, 305, 161, 320, 288
-0.999544, 241, 221, 256, 236
-0.999545, 409, 109, 424, 124
-0.999545, 227, 153, 242, 168
-0.999546, 433, 127, 448, 142
-0.999546, 235, 149, 250, 164
-0.999547, 191, 151, 206, 166
-0.999547, 179, 215, 194, 230
-0.999547, 405, 131, 420, 146
-0.999547, 353, 117, 368, 132
-0.999547, 271, 167, 286, 182
-0.999548, 381, 161, 396, 288
-0.999548, 429, 105, 444, 120
-0.999548, 455, 161, 470, 288
-0.999549, 249, 167, 264, 182
-0.99955, 121, 165, 136, 180
-0.99955, 283, 209, 298, 224
-0.99955, 197, 195, 212, 210
-0.999551, 313, 123, 328, 138
-0.999551, 461, 121, 476, 136
-0.999551, 479, 119, 494, 134
-0.999552, 347, 119, 362, 134
-0.999553, 125, 151, 140, 166
-0.999556, 101, 187, 116, 202
-0.999556, 353, 139, 368, 154
-0.999557, 411, 129, 426, 144
-0.999557, 399, 131, 414, 146
-0.999557, 167, 147, 182, 162
-0.999557, 163, 165, 178, 180
-0.999557, 233, 155, 248, 170
-0.999557, 279, 107, 294, 122
-0.999557, 323, 143, 338, 158
-0.999557, 267, 27, 282, 42
-0.999557, 483, 99, 498, 114
-0.999557, 319, 121, 334, 136
-0.999558, 333, 141, 348, 156
-0.999558, 289, 211, 304, 226
-0.999558, 477, 99, 492, 114
-0.999558, 311, 151, 326, 166
-0.999558, 427, 127, 442, 142
-0.999559, 115, 149, 130, 164
-0.999559, 391, 133, 406, 148
-0.999559, 185, 149, 200, 164
-0.999559, 381, 113, 396, 128
-0.99956, 199, 153, 214, 168
-0.999561, 341, 139, 356, 154
-0.999562, 385, 133, 400, 148
-0.999562, 93, 191, 108, 206
-0.999563, 115, 167, 130, 182
-0.999564, 109, 163, 124, 178
-0.999564, 305, 125, 320, 140
-0.999564, 467, 101, 482, 116
-0.999565, 447, 103, 462, 118
-0.999565, 485, 117, 500, 132
-0.999566, 417, 129, 432, 144
-0.999567, 271, 19, 286, 34
-0.999567, 363, 111, 378, 126
-0.999568, 387, 111, 402, 126
-0.999569, 271, 159, 286, 174
-0.999569, 279, 99, 294, 114
-0.999569, 163, 171, 178, 186
-0.99957, 283, 1, 298, 128
-0.99957, 215, 219, 230, 234
-0.999571, 155, 171, 170, 186
-0.999572, 305, 147, 320, 162
-0.999572, 241, 149, 256, 164
-0.999574, 441, 103, 456, 118
-0.999574, 469, 121, 484, 136
-0.999575, 279, 119, 294, 134
-0.999576, 189, 217, 204, 232
-0.999576, 201, 187, 216, 202
-0.999577, 279, 113, 294, 128
-0.999578, 359, 117, 374, 132
-0.999578, 297, 127, 312, 142
-0.999578, 459, 101, 474, 116
-0.999578, 239, 161, 254, 176
-0.999579, 155, 81, 170, 208
-0.999579, 103, 97, 118, 224
-0.99958, 455, 121, 470, 136
-0.999581, 457, 241, 488, 368
-0.999583, 417, 107, 432, 122
-0.999583, 269, 95, 284, 110
-0.999584, 203, 219, 218, 234
-0.999584, 375, 135, 390, 150
-0.999587, 265, 1, 280, 128
-0.999587, 277, 177, 292, 304
-0.999588, 283, 249, 298, 264
-0.999589, 369, 113, 384, 128
-0.999589, 247, 161, 262, 176
-0.999589, 255, 165, 270, 180
-0.99959, 265, 135, 280, 150
-0.999591, 33, 277, 160, 308
-0.999592, 95, 97, 110, 224
-0.999593, 161, 143, 176, 158
-0.999593, 277, 131, 292, 146
-0.999596, 347, 139, 362, 154
-0.999596, 121, 189, 136, 204
-0.999596, 371, 209, 386, 336
-0.999597, 261, 167, 276, 182
-0.999597, 443, 161, 458, 288
-0.999597, 151, 139, 166, 154
-0.999599, 365, 137, 380, 152
-0.9996, 115, 161, 130, 176
-0.9996, 359, 137, 374, 152
-0.999601, 253, 81, 268, 208
-0.999603, 287, 129, 302, 144
-0.999604, 419, 49, 434, 176
-0.999604, 377, 209, 392, 336
-0.999606, 161, 81, 176, 208
-0.999607, 483, 225, 498, 352
-0.999607, 209, 149, 224, 164
-0.999609, 275, 93, 290, 108
-0.999609, 9, 225, 24, 352
-0.99961, 269, 153, 284, 168
-0.999611, 125, 137, 140, 152
-0.999612, 235, 143, 250, 158
-0.999613, 365, 161, 380, 288
-0.999614, 317, 143, 332, 158
-0.999616, 219, 147, 234, 162
-0.999617, 33, 261, 160, 292
-0.999617, 271, 133, 286, 148
-0.999617, 287, 209, 302, 336
-0.999618, 73, 65, 88, 192
-0.999618, 175, 81, 190, 208
-0.999619, 243, 155, 258, 170
-0.99962, 277, 71, 292, 86
-0.999623, 287, 89, 302, 104
-0.999624, 251, 151, 266, 166
-0.999624, 65, 65, 80, 192
-0.999625, 427, 49, 442, 176
-0.999628, 263, 159, 278, 174
-0.999629, 483, 161, 498, 288
-0.99963, 311, 145, 326, 160
-0.999632, 293, 209, 308, 336
-0.999637, 485, 33, 500, 160
-0.999637, 1, 241, 16, 368
-0.999639, 463, 129, 478, 256
-0.999639, 405, 49, 420, 176
-0.999642, 321, 177, 336, 304
-0.999643, 475, 161, 490, 288
-0.999644, 241, 143, 256, 158
-0.999646, 115, 155, 130, 170
-0.999649, 275, 13, 290, 28
-0.999649, 225, 145, 240, 160
-0.99965, 279, 125, 294, 140
-0.99965, 313, 161, 328, 288
-0.999651, 217, 81, 232, 208
-0.999656, 257, 139, 272, 154
-0.999656, 141, 1, 172, 256
-0.999657, 255, 159, 270, 174
-0.99966, 247, 141, 262, 156
-0.99966, 393, 49, 408, 176
-0.99966, 169, 177, 184, 304
-0.999661, 433, 129, 448, 256
-0.999665, 349, 49, 364, 176
-0.999666, 185, 81, 200, 208
-0.999672, 329, 177, 344, 304
-0.999672, 279, 81, 294, 96
-0.999673, 211, 81, 226, 208
-0.999674, 193, 237, 320, 268
-0.999677, 109, 97, 124, 224
-0.999678, 169, 81, 184, 208
-0.999678, 375, 49, 390, 176
-0.999679, 391, 161, 406, 288
-0.999681, 33, 221, 160, 252
-0.999682, 311, 65, 326, 192
-0.999683, 229, 81, 244, 208
-0.999685, 129, 65, 144, 192
-0.999686, 313, 1, 344, 256
-0.999697, 241, 45, 368, 76
-0.999698, 105, 155, 120, 170
-0.9997, 53, 97, 84, 352
-0.999706, 133, 131, 148, 146
-0.999734, 277, 87, 292, 102
-0.999757, 133, 177, 164, 304
-0.999759, 193, 53, 320, 84
-0.99976, 145, 229, 272, 260
-0.999789, 61, 193, 92, 320
-0.999821, 429, 209, 460, 336
-0.999871, 25, 265, 88, 328
-0.99988, 97, 313, 224, 375
-0.999885, 273, 209, 400, 240
-0.99993, 329, 1, 360, 256
-0.999945, 33, 233, 160, 264
-0.999945, 33, 249, 160, 280
-0.999947, 49, 317, 176, 348
-0.999955, 257, 273, 384, 304
-0.999983, 65, 333, 192, 364
-0.999986, 301, 1, 332, 256
-0.999997, 113, 117, 240, 148
-0.999998, 161, 89, 288, 152
-1.00002, 337, 1, 464, 32
-1.00006, 321, 197, 448, 228
-1.00008, 257, 65, 500, 128
-1.00009, 369, 81, 496, 112
-1.00012, 1, 249, 500, 312
-1.00013, 177, 249, 304, 280
-1.00017, 129, 257, 384, 320
-1.00019, 49, 289, 176, 320
-1.00022, 65, 345, 192, 375
-1.00023, 41, 241, 72, 368
-1.00024, 97, 321, 224, 352
-1.00024, 1, 1, 64, 64
-1.00024, 49, 301, 176, 332
-1.00026, 1, 97, 32, 352
-1.00033, 385, 209, 416, 336
-1.00035, 45, 1, 76, 256
-1.00035, 161, 265, 288, 328
-1.00041, 97, 25, 224, 88
-1.00041, 401, 209, 432, 336
-1.00045, 1, 161, 32, 288
-1.00045, 113, 273, 240, 304
-1.00046, 177, 285, 304, 316
-1.00047, 97, 33, 224, 64
-1.00048, 113, 337, 240, 368
-1.0005, 145, 9, 272, 72
-1.00057, 97, 233, 224, 296
-1.00057, 41, 97, 72, 352
-1.00059, 225, 249, 288, 312
-1.00062, 321, 1, 448, 64
-1.00063, 1, 41, 64, 104
-1.00069, 13, 97, 44, 352
-1.0007, 17, 1, 48, 256
-1.00076, 37, 49, 68, 176
-1.00076, 41, 161, 72, 288
-1.00088, 217, 97, 280, 160
-1.00088, 25, 241, 88, 304
-1.00092, 145, 65, 272, 128
-1.00093, 369, 305, 496, 368
-1.00093, 5, 1, 36, 256
-1.00093, 145, 97, 208, 160
-1.00097, 97, 1, 224, 64
-1.001, 257, 281, 384, 344
-1.00101, 1, 97, 64, 224
-1.00106, 97, 281, 352, 344
-1.00106, 33, 1, 64, 256
-1.00109, 97, 257, 224, 320
-1.0011, 81, 41, 144, 104
-1.00123, 97, 305, 352, 368
-1.00124, 225, 281, 480, 344
-1.00129, 97, 17, 352, 80
-1.00129, 1, 273, 500, 336
-1.00131, 29, 97, 60, 352
-1.00142, 257, 305, 500, 368
-1.00143, 305, 57, 432, 120
-1.00145, 81, 33, 144, 160
-1.00147, 97, 49, 352, 112
-1.00152, 113, 289, 240, 352
-1.00152, 257, 9, 500, 72
-1.00153, 161, 305, 288, 368
-1.00154, 365, 1, 396, 128
-1.00154, 97, 49, 224, 112
-1.00159, 217, 177, 248, 304
-1.00161, 37, 1, 68, 128
-1.00167, 105, 193, 136, 320
-1.00174, 81, 9, 144, 72
-1.00182, 257, 33, 500, 96
-1.00185, 1, 97, 64, 160
-1.00186, 109, 49, 140, 176
-1.00186, 37, 97, 68, 224
-1.00188, 321, 313, 448, 375
-1.0019, 241, 313, 368, 375
-1.00192, 81, 49, 112, 176
-1.00198, 1, 33, 64, 288
-1.00199, 321, 289, 448, 352
-1.00213, 1, 313, 500, 375
-1.00225, 209, 289, 336, 352
-1.0023, 353, 25, 480, 88
-1.00231, 209, 9, 272, 72
-1.00246, 33, 241, 96, 368
-1.00249, 353, 49, 480, 112
-1.0026, 93, 193, 124, 320
-1.00269, 369, 1, 496, 64
-1.00291, 305, 33, 432, 96
-1.00309, 305, 249, 368, 312
-1.00309, 17, 241, 48, 368
-1.00312, 145, 41, 272, 104
-1.00331, 17, 145, 48, 272
-1.00334, 1, 113, 32, 240
-1.0035, 17, 193, 48, 320
-1.0036, 321, 17, 384, 144
-1.00363, 5, 65, 36, 192
-1.00381, 17, 65, 48, 192
-1.00382, 105, 305, 168, 368
-1.00385, 409, 265, 472, 328
-1.00405, 89, 225, 152, 288
-1.00406, 13, 17, 44, 144
-1.00421, 105, 73, 168, 136
-1.00421, 289, 17, 352, 144
-1.00429, 265, 281, 328, 344
-1.0044, 177, 97, 240, 160
-1.00633, 97, 17, 352, 144
-1.00662, 113, 1, 240, 128
-1.00798, 105, 241, 168, 368
-1.0082, 217, 33, 280, 160
-1.00855, 321, 1, 448, 128
-1.00877, 209, 241, 272, 368
-1.0089, 169, 225, 232, 352
-1.00918, 105, 1, 168, 128
-1.00961, 81, 241, 144, 368
-1.01013, 145, 241, 208, 368
-1.01071, 385, 1, 448, 128
-1.01227, 137, 33, 200, 160
-1.01357, 361, 1, 424, 128
-1.01406, 169, 1, 232, 128
-1.01478, 193, 1, 256, 128
