1964
-0.416024, 1, 1, 500, 375
-0.430363, 1, 1, 500, 256
-0.431671, 1, 97, 500, 352
-0.436174, 193, 1, 448, 375
-0.48435, 65, 1, 320, 375
-0.635191, 33, 1, 288, 256
-0.64957, 161, 1, 416, 256
-0.65263, 257, 97, 500, 352
-0.709796, 161, 129, 416, 375
-0.723247, 257, 1, 500, 256
-0.730438, 33, 97, 288, 352
-0.858, 225, 1, 352, 375
-0.860005, 273, 1, 400, 256
-0.863812, 177, 1, 304, 256
-0.867857, 177, 1, 304, 375
-0.872873, 353, 1, 480, 256
-0.874841, 113, 1, 240, 375
-0.876446, 209, 97, 336, 352
-0.876896, 289, 97, 416, 352
-0.877255, 289, 1, 416, 375
-0.880971, 225, 1, 352, 256
-0.882026, 49, 1, 176, 256
-0.885203, 369, 1, 496, 375
-0.887549, 17, 1, 144, 375
-0.888071, 65, 1, 192, 375
-0.892707, 1, 113, 500, 240
-0.893014, 129, 33, 256, 288
-0.898232, 17, 97, 144, 352
-0.898809, 1, 1, 500, 128
-0.898872, 353, 129, 480, 375
-0.901858, 1, 241, 500, 368
-0.910957, 1, 65, 500, 192
-0.912692, 1, 1, 128, 256
-0.912961, 225, 65, 480, 192
-0.917399, 113, 129, 240, 375
-0.923795, 161, 129, 288, 375
-0.925277, 65, 97, 192, 352
-0.929159, 1, 161, 500, 288
-0.931233, 129, 97, 384, 224
-0.932254, 257, 1, 500, 128
-0.93651, 33, 81, 288, 208
-0.939791, 321, 1, 448, 128
-0.940589, 225, 145, 480, 272
-0.941015, 129, 17, 384, 144
-0.943138, 233, 81, 296, 208
-0.943188, 1, 1, 256, 128
-0.943355, 177, 97, 304, 224
-0.945002, 129, 209, 384, 336
-0.946306, 257, 65, 384, 192
-0.946895, 369, 1, 496, 128
-0.947969, 1, 129, 256, 256
-0.948126, 177, 49, 304, 176
-0.949027, 353, 241, 480, 368
-0.949332, 377, 1, 440, 128
-0.949501, 305, 81, 432, 208
-0.949507, 289, 97, 352, 224
-0.949546, 257, 97, 320, 224
-0.949839, 33, 241, 288, 368
-0.950067, 329, 1, 392, 128
-0.95038, 129, 81, 256, 208
-0.950447, 193, 81, 256, 208
-0.951133, 49, 1, 176, 128
-0.951584, 145, 1, 272, 128
-0.951852, 257, 209, 500, 336
-0.952474, 273, 49, 336, 176
-0.953032, 353, 1, 416, 128
-0.953282, 305, 193, 432, 320
-0.953505, 401, 1, 464, 128
-0.953764, 433, 65, 496, 192
-0.953934, 273, 17, 400, 144
-0.95404, 1, 1, 128, 128
-0.954049, 417, 241, 480, 368
-0.954223, 225, 113, 352, 240
-0.954415, 377, 241, 440, 368
-0.954546, 289, 241, 416, 368
-0.955029, 225, 209, 352, 336
-0.955187, 313, 81, 376, 208
-0.955269, 297, 17, 360, 144
-0.95594, 49, 113, 176, 240
-0.956254, 1, 193, 128, 320
-0.956443, 273, 105, 336, 168
-0.957038, 113, 193, 240, 320
-0.957417, 129, 145, 384, 272
-0.958499, 353, 65, 480, 192
-0.95916, 1, 49, 128, 176
-0.959174, 17, 1, 80, 128
-0.959388, 97, 1, 224, 128
-0.959405, 49, 1, 112, 128
-0.959556, 409, 193, 472, 320
-0.95986, 193, 1, 320, 128
-0.959895, 193, 17, 256, 144
-0.960053, 161, 81, 224, 208
-0.960218, 113, 241, 240, 368
-0.960485, 233, 129, 296, 256
-0.960656, 233, 89, 296, 152
-0.960748, 433, 17, 496, 144
-0.961758, 233, 17, 296, 144
-0.961789, 161, 1, 224, 128
-0.962288, 257, 1, 320, 128
-0.96249, 353, 1, 416, 64
-0.962529, 1, 193, 256, 320
-0.96271, 289, 129, 416, 256
-0.962712, 433, 89, 496, 152
-0.963044, 185, 129, 248, 256
-0.963296, 401, 81, 464, 208
-0.963777, 49, 241, 176, 368
-0.964651, 185, 105, 248, 168
-0.964793, 1, 145, 128, 272
-0.965041, 137, 1, 200, 128
-0.965182, 369, 193, 496, 320
-0.965232, 265, 225, 328, 352
-0.965503, 17, 49, 80, 176
-0.965581, 177, 145, 304, 272
-0.965628, 433, 193, 496, 320
-0.965632, 273, 137, 336, 200
-0.965677, 353, 129, 480, 256
-0.966395, 177, 241, 304, 368
-0.966626, 265, 249, 328, 312
-0.966646, 353, 241, 416, 368
-0.96693, 25, 113, 88, 240
-0.966965, 49, 49, 176, 176
-0.966972, 65, 265, 128, 328
-0.967313, 361, 65, 424, 192
-0.967643, 401, 81, 464, 144
-0.967696, 209, 89, 272, 152
-0.967709, 33, 161, 96, 288
-0.967743, 433, 129, 496, 192
-0.96788, 49, 193, 176, 320
-0.968138, 177, 193, 304, 320
-0.968235, 385, 1, 448, 64
-0.968283, 313, 193, 376, 320
-0.968407, 105, 265, 168, 328
-0.968528, 433, 129, 496, 256
-0.968642, 129, 129, 256, 256
-0.968659, 81, 1, 144, 128
-0.969007, 201, 65, 264, 128
-0.969035, 297, 137, 360, 200
-0.969071, 401, 241, 464, 304
-0.96927, 249, 137, 312, 200
-0.969303, 249, 113, 312, 176
-0.969311, 225, 161, 352, 288
-0.969426, 97, 241, 160, 368
-0.969578, 273, 145, 336, 272
-0.969603, 289, 1, 352, 256
-0.96962, 337, 65, 400, 192
-0.970221, 265, 65, 328, 128
-0.970313, 217, 209, 280, 336
-0.970329, 289, 241, 352, 368
-0.970367, 361, 249, 424, 312
-0.970828, 1, 97, 128, 224
-0.97083, 49, 49, 112, 176
-0.971041, 361, 81, 424, 144
-0.971087, 369, 193, 432, 320
-0.971157, 297, 97, 360, 160
-0.971167, 225, 105, 352, 168
-0.971309, 113, 1, 176, 128
-0.971331, 217, 129, 280, 192
-0.971355, 1, 145, 64, 272
-0.971428, 209, 129, 272, 256
-0.971613, 433, 209, 496, 272
-0.971631, 129, 241, 192, 368
-0.971701, 153, 193, 216, 320
-0.971745, 329, 145, 392, 272
-0.971776, 313, 1, 376, 256
-0.971897, 65, 193, 128, 320
-0.972191, 225, 65, 288, 128
-0.972219, 177, 281, 240, 344
-0.972284, 369, 145, 432, 272
-0.972284, 401, 105, 464, 168
-0.972461, 313, 241, 376, 368
-0.97258, 41, 209, 104, 336
-0.972585, 65, 113, 128, 240
-0.972751, 329, 1, 392, 64
-0.972751, 369, 273, 432, 336
-0.972773, 433, 1, 496, 256
-0.972797, 401, 129, 464, 256
-0.972816, 25, 193, 88, 256
-0.972844, 17, 57, 80, 120
-0.972867, 193, 241, 256, 368
-0.972927, 345, 273, 408, 336
-0.973098, 17, 209, 80, 336
-0.973118, 177, 97, 304, 160
-0.973141, 401, 137, 464, 200
-0.973237, 433, 169, 496, 232
-0.973919, 409, 1, 472, 64
-0.974019, 241, 1, 304, 256
-0.97412, 89, 241, 152, 304
-0.974247, 217, 257, 280, 320
-0.974272, 305, 265, 368, 328
-0.974328, 265, 1, 328, 256
-0.974394, 209, 137, 336, 200
-0.974562, 73, 313, 136, 375
-0.974635, 297, 145, 360, 272
-0.975066, 433, 249, 496, 312
-0.97524, 185, 161, 248, 224
-0.975265, 337, 1, 464, 64
-0.975314, 353, 1, 416, 256
-0.975351, 17, 1, 80, 64
-0.975382, 329, 89, 392, 152
-0.975397, 297, 65, 360, 128
-0.97555, 273, 161, 336, 224
-0.975722, 409, 177, 472, 240
-0.975871, 233, 281, 296, 344
-0.975963, 409, 1, 472, 256
-0.975972, 161, 257, 224, 320
-0.97599, 25, 225, 88, 288
-0.975994, 305, 25, 368, 88
-0.976084, 185, 1, 248, 256
-0.976233, 397, 241, 428, 368
-0.976246, 293, 97, 324, 160
-0.976252, 277, 105, 308, 168
-0.976461, 17, 33, 80, 96
-0.976476, 41, 289, 104, 352
-0.976565, 161, 313, 224, 375
-0.976587, 309, 233, 340, 296
-0.976714, 401, 265, 464, 328
-0.976733, 153, 89, 216, 152
-0.976742, 237, 81, 268, 208
-0.976812, 41, 257, 104, 320
-0.97684, 105, 313, 168, 375
-0.976847, 161, 17, 224, 80
-0.97685, 265, 273, 328, 336
-0.976878, 193, 257, 256, 320
-0.977004, 401, 209, 464, 272
-0.977012, 17, 97, 80, 352
-0.977019, 177, 57, 240, 120
-0.977026, 401, 25, 464, 88
-0.977364, 269, 97, 300, 224
-0.9775, 265, 97, 296, 160
-0.977601, 129, 97, 256, 160
-0.977639, 433, 313, 496, 375
-0.977875, 65, 241, 128, 368
-0.977926, 241, 65, 368, 128
-0.977944, 113, 257, 240, 320
-0.977969, 185, 313, 248, 375
-0.977987, 433, 65, 496, 128
-0.977994, 193, 177, 256, 304
-0.978025, 337, 49, 400, 112
-0.978096, 129, 289, 192, 352
-0.978173, 1, 201, 64, 264
-0.978176, 257, 81, 288, 208
-0.978264, 273, 1, 336, 64
-0.978272, 433, 17, 496, 80
-0.978277, 329, 97, 392, 352
-0.978309, 1, 241, 128, 368
-0.978337, 305, 241, 368, 304
-0.978365, 105, 97, 168, 224
-0.978503, 305, 113, 336, 176
-0.978507, 305, 233, 432, 296
-0.978532, 73, 289, 136, 352
-0.978616, 217, 1, 280, 256
-0.978616, 265, 97, 328, 352
-0.978686, 49, 313, 112, 375
-0.978692, 73, 49, 136, 176
-0.978693, 185, 25, 248, 88
-0.978902, 297, 137, 328, 200
-0.978968, 77, 265, 108, 328
-0.979056, 89, 193, 152, 320
-0.979064, 17, 137, 80, 200
-0.979089, 49, 17, 112, 80
-0.979092, 161, 121, 288, 184
-0.979115, 273, 137, 304, 200
-0.979117, 153, 137, 216, 200
-0.979147, 433, 289, 496, 352
-0.979167, 329, 153, 392, 216
-0.979193, 433, 41, 496, 104
-0.979206, 193, 137, 256, 200
-0.97925, 321, 89, 448, 152
-0.979264, 25, 169, 88, 232
-0.979307, 361, 1, 392, 128
-0.979324, 257, 257, 384, 320
-0.979432, 89, 97, 152, 160
-0.979442, 177, 65, 304, 128
-0.979546, 129, 265, 192, 328
-0.979614, 361, 49, 424, 112
-0.979624, 113, 1, 176, 64
-0.979768, 401, 57, 464, 120
-0.979879, 137, 49, 200, 176
-0.979887, 305, 257, 432, 320
-0.979917, 225, 161, 288, 224
-0.980038, 217, 1, 280, 64
-0.98008, 145, 1, 208, 256
-0.980101, 273, 97, 400, 160
-0.980164, 177, 265, 304, 328
-0.980178, 197, 89, 228, 152
-0.980287, 201, 49, 232, 176
-0.980331, 361, 113, 424, 176
-0.980396, 409, 305, 472, 368
-0.980411, 309, 241, 340, 368
-0.980435, 389, 1, 420, 128
-0.980446, 265, 25, 328, 88
-0.980535, 337, 297, 400, 360
-0.980571, 289, 65, 320, 192
-0.980575, 345, 25, 408, 88
-0.980603, 225, 25, 288, 88
-0.980632, 369, 89, 496, 152
-0.980724, 97, 289, 160, 352
-0.980838, 49, 265, 176, 328
-0.980974, 137, 17, 200, 80
-0.980978, 185, 1, 248, 64
-0.981093, 401, 97, 464, 352
-0.981111, 289, 121, 416, 184
-0.981116, 129, 193, 192, 320
-0.981192, 1, 73, 128, 136
-0.981197, 389, 1, 420, 64
-0.981363, 153, 241, 216, 368
-0.981363, 317, 97, 348, 160
-0.981363, 189, 1, 220, 128
-0.981378, 289, 1, 416, 64
-0.981533, 345, 193, 408, 320
-0.981534, 329, 113, 392, 176
-0.981575, 409, 241, 440, 368
-0.981585, 217, 89, 248, 152
-0.981595, 325, 17, 356, 144
-0.9816, 1, 217, 128, 280
-0.981602, 65, 217, 128, 280
-0.981642, 369, 25, 432, 88
-0.981667, 329, 249, 392, 312
-0.981682, 177, 81, 240, 144
-0.981757, 225, 81, 256, 208
-0.981815, 457, 145, 488, 208
-0.981824, 97, 17, 224, 80
-0.981884, 57, 137, 120, 200
-0.981967, 57, 161, 120, 224
-0.98201, 153, 233, 216, 296
-0.982016, 17, 81, 80, 144
-0.982078, 209, 313, 272, 375
-0.982118, 213, 49, 244, 176
-0.982124, 153, 65, 216, 128
-0.982139, 1, 233, 64, 296
-0.982184, 241, 257, 304, 320
-0.982187, 89, 137, 152, 200
-0.982191, 457, 89, 488, 152
-0.982209, 305, 97, 336, 224
-0.982217, 433, 97, 496, 352
-0.982234, 361, 1, 392, 64
-0.982286, 297, 97, 360, 352
-0.982294, 257, 249, 288, 312
-0.982296, 225, 161, 352, 224
-0.982316, 57, 49, 120, 112
-0.982325, 201, 257, 232, 320
-0.982368, 393, 257, 424, 320
-0.982391, 113, 113, 176, 176
-0.982414, 209, 241, 336, 304
-0.98245, 353, 273, 480, 336
-0.982466, 57, 1, 120, 256
-0.982489, 129, 57, 256, 120
-0.982512, 321, 65, 448, 128
-0.98253, 309, 265, 340, 328
-0.982578, 17, 1, 80, 256
-0.982588, 33, 97, 160, 160
-0.982604, 369, 145, 496, 208
-0.98261, 89, 265, 120, 328
-0.982663, 189, 49, 220, 176
-0.982665, 401, 1, 432, 128
-0.982752, 201, 281, 264, 344
-0.982786, 369, 217, 496, 280
-0.982809, 105, 49, 168, 176
-0.983176, 413, 1, 444, 128
-0.983203, 65, 273, 96, 336
-0.983277, 105, 1, 168, 256
-0.98328, 229, 89, 260, 152
-0.983317, 369, 225, 432, 288
-0.983327, 57, 113, 120, 176
-0.98333, 285, 137, 316, 200
-0.983372, 241, 25, 368, 88
-0.983377, 89, 1, 152, 64
-0.983382, 373, 241, 404, 368
-0.983427, 113, 281, 240, 344
-0.983445, 457, 17, 488, 144
-0.983452, 145, 17, 272, 80
-0.983488, 193, 209, 256, 272
-0.983507, 317, 65, 348, 192
-0.983557, 469, 113, 500, 176
-0.98357, 241, 81, 272, 144
-0.983574, 317, 121, 348, 184
-0.983661, 113, 217, 240, 280
-0.983675, 305, 25, 432, 88
-0.983695, 137, 113, 200, 176
-0.983706, 245, 129, 276, 256
-0.983732, 445, 65, 476, 192
-0.983749, 97, 313, 224, 375
-0.983762, 369, 65, 496, 128
-0.983788, 385, 305, 448, 368
-0.983791, 305, 49, 336, 176
-0.983813, 201, 1, 264, 375
-0.983823, 373, 1, 404, 128
-0.983841, 33, 49, 160, 112
-0.983865, 369, 153, 432, 216
-0.983866, 445, 137, 476, 200
-0.983889, 137, 313, 200, 375
-0.983905, 369, 241, 496, 304
-0.983911, 65, 1, 96, 128
-0.983913, 385, 241, 416, 368
-0.98393, 17, 105, 80, 168
-0.983968, 49, 169, 176, 232
-0.98398, 217, 201, 280, 264
-0.984007, 125, 257, 156, 320
-0.984035, 225, 233, 288, 296
-0.984035, 209, 1, 336, 64
-0.984036, 469, 81, 500, 144
-0.984073, 361, 177, 424, 240
-0.984166, 81, 1, 112, 128
-0.984174, 1, 265, 128, 328
-0.984208, 225, 65, 256, 128
-0.98423, 305, 1, 368, 64
-0.9843, 425, 1, 456, 128
-0.984321, 469, 289, 500, 352
-0.984323, 33, 17, 160, 80
-0.984332, 353, 41, 480, 104
-0.984377, 161, 129, 224, 256
-0.984389, 193, 25, 320, 88
-0.984391, 17, 265, 80, 328
-0.984421, 269, 1, 300, 128
-0.984442, 289, 145, 416, 208
-0.984457, 393, 81, 424, 144
-0.984469, 257, 233, 384, 296
-0.984524, 137, 97, 200, 224
-0.984587, 33, 137, 160, 200
-0.984689, 169, 1, 200, 128
-0.984738, 461, 129, 492, 256
-0.984758, 225, 129, 256, 256
-0.984759, 241, 1, 272, 128
-0.984798, 353, 113, 480, 176
-0.984799, 369, 97, 432, 352
-0.984817, 37, 1, 68, 128
-0.984817, 189, 97, 220, 224
-0.984828, 349, 1, 380, 128
-0.984908, 161, 161, 288, 224
-0.984994, 205, 241, 236, 368
-0.985022, 177, 97, 240, 352
-0.985053, 469, 169, 500, 232
-0.98506, 461, 241, 492, 368
-0.985091, 377, 1, 408, 64
-0.985119, 445, 17, 476, 144
-0.985153, 325, 65, 356, 128
-0.985174, 201, 97, 264, 352
-0.985208, 269, 49, 300, 176
-0.985237, 305, 201, 432, 264
-0.985244, 261, 137, 292, 200
-0.98526, 49, 289, 176, 352
-0.985287, 81, 193, 208, 256
-0.985331, 49, 217, 176, 280
-0.985422, 177, 289, 304, 352
-0.985433, 185, 105, 216, 168
-0.98546, 257, 281, 384, 344
-0.985467, 253, 81, 284, 144
-0.985488, 77, 209, 108, 336
-0.985509, 205, 97, 236, 224
-0.985557, 257, 281, 288, 344
-0.985577, 113, 121, 240, 184
-0.985598, 369, 305, 496, 368
-0.985659, 405, 193, 436, 320
-0.985659, 321, 209, 352, 336
-0.985758, 305, 145, 336, 272
-0.98576, 225, 1, 288, 375
-0.985816, 401, 1, 464, 375
-0.985828, 305, 1, 368, 375
-0.985845, 201, 281, 232, 344
-0.98586, 393, 193, 424, 320
-0.985903, 245, 129, 276, 192
-0.985905, 321, 257, 352, 320
-0.985926, 289, 193, 352, 320
-0.985936, 401, 1, 432, 64
-0.985983, 301, 161, 332, 224
-0.985996, 461, 25, 492, 88
-0.985998, 201, 1, 232, 128
-0.986019, 369, 193, 496, 256
-0.986039, 149, 1, 180, 128
-0.98614, 53, 1, 84, 128
-0.986154, 141, 257, 172, 320
-0.986156, 429, 1, 460, 64
-0.986195, 1, 313, 128, 375
-0.986232, 241, 97, 304, 352
-0.986249, 57, 177, 88, 304
-0.986283, 113, 145, 176, 272
-0.986287, 253, 1, 284, 128
-0.986309, 197, 113, 228, 176
-0.986347, 81, 1, 144, 256
-0.986355, 469, 209, 500, 272
-0.986448, 37, 137, 68, 200
-0.986454, 309, 193, 340, 320
-0.986454, 225, 201, 352, 264
-0.986481, 393, 281, 424, 344
-0.986518, 457, 249, 488, 312
-0.986561, 369, 169, 496, 232
-0.986567, 1, 161, 128, 224
-0.986572, 329, 81, 360, 208
-0.986613, 69, 217, 100, 280
-0.986676, 65, 249, 96, 312
-0.986713, 97, 1, 128, 128
-0.986723, 85, 313, 116, 375
-0.986742, 413, 1, 444, 64
-0.986802, 381, 265, 412, 328
-0.986824, 37, 129, 68, 256
-0.986833, 17, 1, 80, 375
-0.986975, 309, 1, 340, 128
-0.987002, 153, 97, 216, 352
-0.987032, 469, 233, 500, 296
-0.987144, 177, 217, 304, 280
-0.987156, 445, 105, 476, 168
-0.987174, 25, 1, 56, 128
-0.98723, 257, 129, 288, 256
-0.987248, 161, 185, 288, 248
-0.987252, 97, 313, 128, 375
-0.987332, 305, 89, 336, 152
-0.987336, 321, 233, 352, 296
-0.987343, 337, 1, 368, 128
-0.987424, 317, 113, 348, 240
-0.987447, 437, 241, 468, 368
-0.987456, 297, 241, 328, 368
-0.987504, 193, 313, 224, 375
-0.987522, 305, 281, 432, 344
-0.987546, 5, 1, 36, 128
-0.987637, 193, 1, 224, 64
-0.987642, 465, 313, 496, 375
-0.987661, 1, 289, 128, 352
-0.987683, 225, 121, 256, 184
-0.987709, 1, 241, 128, 304
-0.987715, 345, 49, 376, 176
-0.987719, 177, 49, 208, 176
-0.987775, 113, 145, 240, 208
-0.987791, 353, 241, 384, 368
-0.987833, 57, 97, 120, 352
-0.987846, 377, 241, 408, 304
-0.987858, 161, 241, 288, 304
-0.987882, 177, 1, 240, 375
-0.987888, 81, 97, 208, 160
-0.987917, 377, 193, 408, 320
-0.987969, 189, 257, 220, 320
-0.987993, 161, 313, 288, 375
-0.988006, 449, 169, 480, 232
-0.988014, 457, 81, 488, 208
-0.988032, 249, 177, 312, 304
-0.988075, 337, 1, 400, 375
-0.988151, 213, 257, 244, 320
-0.988153, 277, 65, 308, 128
-0.988248, 193, 89, 448, 152
-0.988251, 397, 145, 428, 272
-0.988269, 57, 217, 88, 280
-0.98827, 281, 113, 312, 240
-0.988274, 405, 265, 436, 328
-0.988278, 269, 273, 300, 336
-0.988295, 213, 1, 244, 128
-0.9883, 313, 145, 344, 208
-0.988317, 297, 241, 328, 304
-0.988331, 213, 65, 244, 128
-0.988376, 257, 1, 320, 375
-0.988377, 257, 145, 320, 176
-0.988447, 457, 65, 488, 128
-0.988465, 189, 225, 220, 352
-0.988481, 81, 73, 208, 136
-0.988482, 281, 1, 344, 375
-0.988486, 1, 193, 128, 256
-0.98849, 65, 241, 192, 304
-0.988496, 385, 1, 448, 256
-0.988503, 125, 241, 156, 368
-0.988512, 305, 177, 432, 240
-0.988544, 397, 81, 428, 208
-0.98857, 361, 1, 424, 375
-0.988575, 193, 129, 256, 160
-0.988588, 49, 313, 176, 375
-0.988592, 1, 97, 64, 224
-0.988671, 241, 241, 304, 368
-0.98869, 21, 105, 52, 168
-0.98869, 365, 257, 396, 320
-0.988731, 469, 265, 500, 328
-0.988734, 469, 193, 500, 320
-0.988755, 225, 1, 256, 128
-0.988821, 193, 161, 224, 224
-0.988824, 181, 9, 212, 72
-0.988865, 197, 65, 228, 128
-0.988878, 457, 121, 488, 184
-0.988926, 297, 193, 328, 320
-0.988952, 285, 17, 316, 144
-0.988966, 425, 1, 488, 375
-0.98898, 61, 313, 92, 375
-0.989054, 273, 133, 336, 164
-0.989055, 201, 145, 264, 176
-0.98907, 121, 1, 184, 375
-0.989114, 233, 145, 296, 176
-0.989127, 233, 125, 296, 156
-0.989181, 273, 249, 304, 312
-0.989195, 193, 225, 224, 288
-0.989225, 449, 193, 480, 320
-0.98923, 145, 1, 208, 375
-0.989253, 249, 57, 280, 120
-0.989276, 349, 1, 380, 64
-0.989349, 113, 249, 144, 312
-0.989363, 101, 265, 132, 328
-0.98938, 225, 89, 288, 120
-0.989413, 441, 305, 472, 368
-0.98942, 445, 113, 476, 240
-0.989432, 25, 129, 56, 192
-0.989433, 61, 113, 92, 240
-0.989435, 137, 1, 168, 128
-0.989488, 273, 121, 336, 152
-0.989544, 469, 33, 500, 160
-0.989548, 137, 225, 168, 352
-0.989633, 45, 185, 76, 248
-0.989647, 413, 65, 444, 128
-0.989662, 37, 161, 68, 224
-0.989698, 289, 73, 320, 136
-0.98979, 201, 25, 232, 88
-0.989796, 313, 25, 344, 88
-0.989827, 313, 65, 344, 128
-0.989853, 345, 81, 376, 144
-0.989867, 25, 113, 56, 240
-0.989911, 273, 109, 336, 140
-0.98999, 1, 193, 32, 320
-0.990001, 5, 1, 36, 64
-0.990039, 129, 281, 160, 344
-0.990074, 85, 241, 116, 304
-0.990083, 345, 33, 376, 96
-0.99009, 265, 65, 296, 128
-0.990107, 245, 249, 276, 312
-0.990109, 445, 33, 476, 96
-0.990119, 53, 249, 84, 312
-0.990144, 193, 105, 256, 136
-0.990153, 373, 65, 404, 192
-0.990155, 45, 65, 76, 192
-0.990167, 249, 157, 312, 188
-0.99017, 305, 273, 368, 304
-0.990171, 97, 289, 128, 352
-0.990178, 289, 145, 352, 176
-0.990184, 449, 217, 480, 280
-0.990221, 225, 153, 256, 216
-0.990256, 81, 49, 112, 176
-0.990265, 137, 145, 200, 272
-0.990274, 177, 201, 208, 264
-0.990278, 273, 157, 336, 188
-0.990278, 193, 117, 256, 148
-0.99032, 433, 117, 496, 148
-0.990358, 37, 49, 68, 112
-0.990359, 173, 313, 204, 375
-0.990378, 393, 233, 424, 296
-0.990403, 113, 169, 240, 232
-0.990442, 433, 81, 496, 112
-0.990445, 177, 145, 240, 176
-0.990479, 273, 305, 400, 368
-0.990502, 433, 101, 496, 132
-0.990506, 289, 97, 352, 128
-0.990508, 97, 265, 160, 296
-0.990511, 381, 289, 412, 352
-0.990514, 297, 1, 328, 128
-0.990519, 249, 113, 312, 144
-0.99053, 33, 209, 96, 240
-0.990534, 65, 1, 128, 375
-0.990557, 81, 41, 208, 104
-0.990571, 129, 225, 160, 288
-0.99061, 469, 81, 500, 208
-0.990617, 177, 193, 208, 320
-0.990619, 325, 25, 356, 88
-0.990619, 405, 41, 436, 104
-0.990659, 265, 277, 328, 308
-0.990668, 73, 269, 136, 300
-0.990672, 401, 77, 464, 108
-0.990679, 85, 289, 116, 352
-0.990693, 445, 81, 476, 144
-0.990712, 297, 133, 360, 164
-0.990714, 33, 273, 96, 304
-0.990723, 217, 157, 280, 188
-0.990724, 33, 221, 96, 252
-0.990734, 469, 57, 500, 120
-0.990741, 453, 1, 484, 64
-0.990747, 45, 177, 76, 304
-0.990793, 17, 53, 80, 84
-0.990808, 177, 345, 240, 375
-0.99082, 17, 93, 80, 124
-0.990841, 17, 65, 80, 96
-0.990864, 433, 189, 496, 220
-0.99087, 433, 157, 496, 188
-0.990903, 17, 157, 80, 188
-0.990905, 17, 109, 80, 140
-0.990905, 357, 81, 388, 208
-0.990926, 313, 149, 376, 180
-0.990934, 349, 265, 380, 328
-0.990942, 73, 313, 104, 375
-0.990949, 453, 313, 484, 375
-0.990967, 113, 313, 144, 375
-0.990971, 433, 145, 496, 176
-0.99098, 33, 261, 96, 292
-0.990985, 249, 101, 312, 132
-0.990989, 141, 113, 172, 240
-0.990993, 321, 313, 448, 375
-0.990999, 17, 177, 80, 208
-0.991006, 401, 1, 464, 32
-0.991006, 209, 113, 240, 176
-0.991015, 185, 157, 248, 188
-0.991029, 121, 1, 152, 128
-0.991041, 361, 269, 424, 300
-0.991044, 113, 225, 144, 352
-0.991061, 17, 193, 80, 224
-0.99109, 65, 257, 128, 288
-0.991094, 153, 145, 216, 176
-0.99112, 361, 89, 424, 120
-0.991131, 185, 89, 248, 120
-0.991131, 17, 145, 80, 176
-0.991138, 345, 281, 408, 312
-0.991138, 329, 85, 392, 116
-0.991146, 401, 269, 464, 300
-0.991179, 297, 117, 360, 148
-0.991181, 17, 241, 80, 272
-0.991182, 225, 113, 288, 144
-0.991196, 249, 1, 312, 32
-0.991196, 117, 49, 148, 176
-0.991221, 17, 125, 80, 156
-0.991221, 97, 277, 160, 308
-0.991252, 409, 193, 472, 224
-0.991259, 221, 241, 252, 368
-0.991262, 401, 93, 464, 124
-0.99128, 369, 281, 432, 312
-0.991288, 417, 65, 448, 192
-0.991308, 17, 77, 80, 108
-0.991313, 1, 261, 64, 292
-0.991326, 169, 117, 232, 148
-0.991326, 105, 129, 168, 375
-0.991335, 417, 193, 448, 320
-0.991339, 169, 129, 232, 160
-0.991343, 33, 345, 96, 375
-0.991343, 73, 337, 136, 368
-0.991349, 377, 9, 440, 40
-0.99135, 5, 129, 36, 256
-0.991355, 57, 241, 88, 368
-0.991357, 265, 265, 328, 296
-0.991361, 401, 109, 464, 140
-0.991366, 89, 241, 120, 368
-0.991375, 193, 277, 256, 308
-0.991377, 433, 169, 496, 200
-0.991377, 257, 241, 288, 368
-0.991404, 33, 97, 288, 160
-0.991406, 25, 1, 88, 32
-0.991406, 297, 285, 360, 316
-0.991421, 401, 249, 464, 280
-0.99144, 17, 285, 80, 316
-0.991461, 225, 113, 480, 176
-0.991463, 401, 345, 464, 375
-0.991464, 193, 265, 256, 296
-0.991466, 433, 129, 496, 160
-0.991479, 433, 33, 496, 64
-0.991486, 377, 257, 440, 288
-0.991491, 49, 129, 80, 256
-0.991491, 121, 261, 184, 292
-0.991495, 109, 1, 140, 128
-0.991495, 1, 221, 64, 252
-0.991502, 313, 101, 376, 132
-0.991528, 73, 285, 136, 316
-0.991542, 97, 49, 128, 176
-0.991542, 433, 49, 464, 176
-0.991546, 105, 1, 168, 32
-0.991549, 401, 281, 464, 312
-0.991567, 401, 121, 464, 152
-0.99157, 345, 5, 408, 36
-0.991586, 97, 101, 160, 132
-0.991595, 361, 241, 424, 272
-0.991601, 401, 141, 464, 172
-0.991611, 217, 269, 280, 300
-0.991629, 433, 229, 496, 260
-0.99163, 97, 121, 352, 184
-0.991632, 97, 337, 160, 368
-0.991648, 297, 161, 360, 192
-0.991658, 281, 17, 344, 48
-0.991669, 17, 41, 80, 72
-0.991677, 409, 333, 472, 364
-0.991678, 297, 233, 360, 264
-0.991685, 121, 277, 184, 308
-0.991685, 21, 49, 52, 176
-0.991689, 433, 261, 496, 292
-0.991692, 161, 157, 224, 188
-0.991703, 169, 325, 232, 356
-0.99171, 49, 53, 112, 84
-0.991711, 1, 209, 64, 240
-0.991722, 337, 269, 400, 300
-0.991728, 153, 101, 216, 132
-0.991731, 153, 269, 216, 300
-0.991742, 385, 329, 448, 360
-0.99175, 305, 29, 368, 60
-0.991756, 433, 333, 496, 364
-0.991757, 409, 157, 472, 188
-0.991762, 145, 1, 208, 32
-0.991783, 265, 249, 328, 280
-0.991787, 433, 69, 496, 100
-0.991794, 141, 65, 172, 192
-0.991799, 409, 41, 472, 72
-0.991806, 145, 345, 208, 375
-0.991815, 1, 273, 64, 304
-0.99182, 425, 277, 488, 308
-0.991826, 89, 1, 152, 375
-0.991833, 41, 1, 104, 375
-0.991859, 401, 213, 464, 244
-0.991875, 113, 293, 176, 324
-0.991893, 225, 177, 256, 304
-0.991908, 41, 141, 104, 172
-0.991921, 177, 13, 240, 44
-0.991932, 337, 29, 400, 60
-0.991935, 341, 241, 372, 368
-0.991955, 425, 53, 488, 84
-0.991976, 177, 29, 240, 60
-0.992024, 265, 145, 296, 176
-0.992036, 349, 145, 380, 272
-0.992041, 161, 65, 416, 128
-0.992087, 337, 145, 368, 272
-0.992203, 281, 133, 312, 164
-0.992275, 101, 209, 132, 336
-0.99231, 277, 145, 308, 176
-0.992331, 129, 97, 192, 352
-0.992337, 149, 193, 180, 320
-0.99235, 305, 233, 336, 264
-0.992386, 205, 145, 236, 176
-0.992396, 205, 125, 236, 156
-0.992402, 297, 149, 328, 180
-0.992407, 249, 149, 280, 180
-0.992448, 125, 193, 156, 320
-0.992451, 301, 137, 332, 168
-0.992451, 233, 145, 264, 176
-0.992489, 269, 145, 300, 272
-0.992512, 293, 129, 324, 256
-0.992527, 201, 193, 232, 320
-0.992535, 269, 157, 300, 188
-0.992542, 221, 125, 252, 156
-0.992574, 349, 193, 380, 320
-0.992583, 201, 261, 232, 292
-0.992585, 309, 273, 340, 304
-0.992603, 249, 89, 280, 120
-0.992608, 261, 133, 292, 164
-0.992623, 233, 125, 264, 156
-0.992625, 81, 113, 112, 240
-0.99264, 197, 101, 228, 132
-0.992643, 409, 129, 440, 256
-0.992645, 157, 81, 188, 208
-0.992664, 281, 157, 312, 188
-0.992668, 277, 105, 308, 136
-0.992696, 217, 145, 248, 176
-0.992708, 197, 113, 228, 144
-0.992709, 21, 161, 52, 288
-0.992723, 65, 273, 96, 304
-0.992729, 221, 113, 252, 144
-0.992735, 33, 57, 288, 120
-0.992742, 249, 133, 280, 164
-0.992749, 365, 145, 396, 272
-0.992772, 189, 145, 220, 176
-0.992787, 233, 113, 264, 144
-0.992803, 57, 257, 88, 288
-0.992816, 1, 265, 500, 328
-0.992856, 305, 285, 336, 316
-0.992861, 317, 145, 348, 176
-0.992863, 297, 125, 328, 156
-0.992863, 189, 129, 220, 160
-0.992872, 457, 149, 488, 180
-0.992873, 197, 157, 228, 188
-0.992879, 289, 105, 320, 136
-0.99288, 85, 273, 116, 304
-0.992892, 385, 145, 416, 272
-0.992898, 305, 101, 336, 132
-0.992917, 301, 161, 332, 192
-0.992918, 409, 1, 440, 32
-0.992919, 193, 137, 448, 200
-0.992922, 309, 245, 340, 276
-0.992924, 269, 121, 300, 152
-0.992926, 133, 261, 164, 292
-0.992927, 181, 345, 212, 375
-0.992929, 49, 321, 80, 352
-0.99293, 313, 125, 344, 156
-0.992948, 401, 281, 432, 312
-0.992949, 217, 89, 248, 120
-0.99295, 373, 269, 404, 300
-0.992951, 261, 93, 292, 124
-0.992956, 189, 333, 220, 364
-0.992956, 33, 145, 64, 176
-0.992956, 45, 261, 76, 292
-0.992957, 185, 117, 216, 148
-0.992957, 113, 265, 144, 296
-0.992971, 237, 89, 268, 120
-0.992972, 57, 213, 88, 244
-0.992972, 321, 273, 352, 304
-0.992974, 249, 117, 280, 148
-0.992976, 209, 113, 240, 144
-0.992978, 281, 117, 312, 148
-0.992979, 469, 117, 500, 148
-0.992979, 449, 241, 480, 368
-0.992984, 1, 97, 500, 160
-0.992988, 129, 101, 160, 132
-0.992994, 89, 145, 152, 272
-0.992995, 29, 133, 60, 164
-0.992995, 45, 1, 76, 32
-0.992997, 101, 261, 132, 292
-0.992998, 53, 273, 84, 304
-0.993005, 449, 177, 480, 208
-0.993006, 305, 113, 336, 144
-0.99301, 69, 261, 100, 292
-0.993011, 25, 113, 56, 144
-0.993014, 405, 345, 436, 375
-0.993027, 261, 285, 292, 316
-0.993028, 97, 337, 128, 368
-0.993029, 361, 269, 392, 300
-0.993029, 37, 321, 68, 352
-0.993031, 445, 165, 476, 196
-0.993031, 201, 345, 232, 375
-0.993034, 305, 261, 336, 292
-0.993037, 317, 101, 348, 132
-0.993038, 393, 269, 424, 300
-0.993039, 457, 81, 488, 112
-0.99304, 317, 233, 348, 264
-0.993042, 201, 281, 232, 312
-0.993051, 373, 281, 404, 312
-0.993052, 177, 321, 208, 352
-0.993056, 129, 281, 160, 312
-0.993057, 317, 261, 348, 292
-0.993061, 449, 69, 480, 100
-0.993062, 177, 221, 208, 252
-0.993064, 325, 125, 356, 156
-0.993066, 209, 157, 240, 188
-0.993067, 385, 285, 416, 316
-0.993073, 461, 33, 492, 64
-0.993073, 101, 273, 132, 304
-0.993076, 461, 105, 492, 136
-0.993076, 465, 309, 496, 340
-0.993076, 117, 101, 148, 132
-0.993077, 393, 89, 424, 120
-0.99308, 281, 1, 312, 32
-0.993095, 469, 221, 500, 252
-0.993097, 185, 105, 216, 136
-0.993099, 141, 277, 172, 308
-0.9931, 249, 161, 280, 192
-0.993105, 89, 285, 120, 316
-0.993106, 21, 145, 52, 176
-0.993108, 37, 213, 68, 244
-0.993108, 213, 269, 244, 300
-0.993115, 349, 273, 380, 304
-0.993118, 421, 1, 452, 32
-0.993119, 69, 341, 100, 372
-0.993121, 469, 93, 500, 124
-0.993125, 33, 157, 64, 188
-0.993131, 393, 257, 424, 288
-0.993132, 25, 93, 56, 124
-0.993135, 469, 273, 500, 304
-0.993142, 69, 217, 100, 248
-0.993143, 37, 173, 68, 204
-0.993145, 57, 225, 88, 256
-0.993145, 317, 113, 348, 144
-0.993147, 113, 1, 144, 32
-0.993149, 61, 1, 92, 32
-0.993161, 85, 105, 116, 136
-0.993161, 461, 189, 492, 220
-0.993162, 265, 105, 296, 136
-0.993164, 25, 1, 56, 32
-0.99317, 1, 273, 32, 304
-0.993177, 449, 29, 480, 60
-0.993177, 37, 105, 68, 136
-0.993178, 465, 325, 496, 356
-0.99318, 25, 77, 56, 108
-0.993232, 257, 65, 500, 128
-0.993262, 193, 149, 320, 180
-0.99361, 209, 125, 336, 156
-0.99361, 225, 313, 352, 375
-0.993785, 225, 1, 480, 64
-0.993984, 257, 137, 384, 168
-0.994021, 81, 129, 144, 375
-0.994037, 279, 105, 294, 168
-0.994065, 129, 241, 384, 304
-0.994203, 285, 105, 300, 168
-0.994301, 257, 249, 500, 312
-0.994426, 293, 105, 308, 168
-0.994449, 1, 137, 256, 200
-0.994451, 177, 137, 304, 168
-0.994458, 1, 49, 500, 112
-0.994505, 1, 265, 256, 328
-0.994535, 97, 145, 352, 208
-0.994541, 303, 97, 318, 160
-0.99457, 311, 121, 326, 184
-0.994611, 207, 257, 222, 320
-0.994678, 161, 121, 288, 152
-0.994794, 257, 161, 500, 224
-0.994851, 193, 101, 320, 132
-0.994856, 257, 109, 384, 140
-0.994924, 177, 89, 304, 120
-0.994991, 209, 113, 336, 144
-0.994996, 1, 217, 256, 280
-0.995011, 321, 89, 448, 120
-0.995046, 319, 97, 334, 160
-0.995058, 289, 265, 416, 296
-0.995068, 225, 161, 352, 192
-0.995095, 161, 33, 416, 96
-0.995105, 309, 97, 324, 160
-0.995175, 479, 89, 494, 152
-0.995179, 225, 313, 480, 375
-0.995203, 201, 105, 216, 168
-0.995257, 97, 345, 224, 375
-0.995335, 129, 145, 256, 176
-0.995346, 271, 257, 286, 320
-0.995381, 1, 129, 500, 192
-0.995388, 241, 149, 368, 180
-0.995397, 299, 137, 314, 200
-0.995407, 33, 1, 288, 64
-0.995415, 177, 161, 304, 192
-0.995442, 33, 25, 288, 88
-0.995449, 49, 281, 176, 312
-0.995452, 289, 137, 304, 200
-0.995468, 17, 345, 144, 375
-0.995506, 1, 289, 500, 352
-0.995511, 257, 281, 384, 312
-0.995517, 225, 185, 480, 248
-0.995521, 79, 273, 94, 336
-0.995521, 369, 221, 496, 252
-0.995527, 1, 277, 128, 308
-0.995561, 479, 113, 494, 176
-0.995562, 93, 265, 108, 328
-0.995564, 279, 137, 294, 200
-0.995576, 1, 161, 256, 224
-0.99559, 193, 281, 448, 344
-0.995601, 323, 265, 338, 328
-0.995603, 137, 257, 152, 320
-0.995617, 369, 77, 496, 108
-0.995638, 257, 225, 500, 288
-0.995648, 485, 81, 500, 144
-0.995656, 305, 121, 320, 184
-0.995657, 321, 233, 336, 296
-0.995682, 229, 89, 244, 152
-0.995697, 129, 133, 256, 164
-0.995719, 215, 89, 230, 152
-0.995729, 237, 89, 252, 152
-0.995734, 353, 265, 480, 296
-0.995745, 319, 121, 334, 184
-0.995747, 129, 109, 256, 140
-0.995752, 313, 273, 328, 336
-0.99577, 243, 89, 258, 152
-0.995804, 225, 257, 352, 288
-0.995809, 221, 89, 236, 152
-0.995811, 269, 97, 284, 160
-0.995828, 207, 89, 222, 152
-0.995834, 17, 97, 144, 128
-0.995848, 407, 81, 422, 144
-0.995864, 273, 137, 288, 200
-0.995878, 65, 313, 320, 375
-0.995889, 145, 277, 272, 308
-0.995891, 17, 109, 144, 140
-0.9959, 81, 261, 208, 292
-0.99591, 1, 241, 500, 304
-0.995965, 397, 1, 412, 64
-0.995977, 305, 117, 432, 148
-0.995979, 289, 229, 416, 260
-0.996004, 257, 125, 384, 156
-0.996024, 1, 257, 16, 320
-0.996048, 353, 277, 480, 308
-0.996059, 129, 261, 256, 292
-0.996067, 65, 289, 320, 352
-0.996069, 313, 241, 328, 304
-0.996085, 1, 57, 128, 88
-0.996086, 485, 305, 500, 368
-0.996092, 209, 269, 336, 300
-0.996112, 87, 257, 102, 320
-0.996143, 403, 1, 418, 64
-0.996159, 371, 1, 386, 64
-0.996159, 365, 1, 380, 64
-0.99616, 273, 1, 400, 32
-0.996172, 479, 65, 494, 128
-0.996187, 393, 257, 408, 320
-0.996215, 305, 245, 432, 276
-0.996233, 225, 233, 352, 264
-0.996234, 473, 81, 488, 144
-0.996237, 263, 89, 278, 152
-0.996262, 401, 257, 416, 320
-0.996273, 369, 89, 496, 120
-0.996279, 321, 77, 448, 108
-0.996289, 257, 97, 384, 128
-0.996293, 189, 313, 204, 375
-0.996295, 237, 65, 252, 128
-0.996303, 129, 1, 384, 64
-0.996304, 33, 165, 160, 196
-0.996313, 305, 129, 432, 160
-0.996324, 271, 281, 286, 344
-0.996324, 1, 125, 128, 156
-0.996329, 253, 65, 268, 128
-0.996329, 1, 85, 128, 116
-0.996333, 113, 121, 240, 152
-0.996338, 145, 257, 160, 320
-0.996345, 369, 109, 496, 140
-0.996346, 305, 277, 432, 308
-0.996348, 337, 9, 464, 40
-0.996349, 1, 185, 256, 248
-0.996362, 69, 249, 84, 312
-0.996376, 81, 217, 96, 280
-0.996377, 257, 41, 500, 104
-0.996381, 225, 129, 240, 192
-0.996385, 261, 137, 276, 200
-0.996386, 481, 169, 496, 232
-0.996422, 409, 1, 424, 64
-0.996435, 359, 1, 374, 64
-0.996442, 269, 1, 300, 256
-0.996462, 17, 1, 144, 32
-0.996463, 195, 233, 210, 296
-0.996466, 97, 265, 352, 328
-0.996471, 129, 249, 256, 280
-0.996486, 393, 281, 408, 344
-0.996505, 415, 9, 430, 72
-0.996507, 33, 309, 160, 340
-0.996509, 85, 281, 100, 344
-0.996514, 469, 105, 484, 168
-0.996517, 479, 41, 494, 104
-0.996518, 453, 313, 468, 375
-0.996521, 383, 1, 398, 64
-0.996523, 269, 65, 284, 128
-0.996532, 99, 265, 114, 328
-0.996544, 193, 281, 320, 312
-0.996553, 199, 313, 214, 375
-0.996562, 221, 65, 236, 128
-0.996575, 39, 129, 54, 192
-0.996576, 201, 81, 216, 144
-0.996581, 479, 209, 494, 272
-0.996581, 105, 265, 120, 328
-0.996582, 319, 145, 334, 208
-0.996584, 387, 273, 402, 336
-0.996588, 313, 217, 328, 280
-0.9966, 243, 65, 258, 128
-0.996617, 89, 313, 104, 375
-0.996619, 201, 257, 216, 320
-0.99662, 49, 57, 176, 88
-0.996622, 445, 1, 476, 256
-0.996628, 293, 1, 324, 256
-0.996628, 213, 257, 228, 320
-0.996633, 409, 257, 424, 320
-0.996636, 391, 1, 406, 64
-0.996638, 1, 169, 500, 232
-0.996638, 317, 1, 348, 256
-0.996644, 337, 1, 368, 256
-0.996648, 33, 241, 288, 304
-0.996651, 1, 177, 128, 208
-0.996651, 369, 189, 496, 220
-0.996652, 97, 273, 224, 304
-0.996657, 261, 249, 276, 312
-0.996657, 377, 1, 392, 64
-0.996659, 353, 65, 480, 96
-0.996662, 281, 145, 296, 176
-0.996663, 461, 137, 476, 200
-0.996667, 447, 137, 462, 200
-0.996668, 423, 9, 438, 72
-0.996689, 17, 73, 144, 104
-0.996703, 17, 249, 144, 280
-0.996705, 369, 177, 496, 208
-0.996711, 17, 265, 144, 296
-0.996712, 289, 153, 416, 184
-0.996712, 113, 229, 240, 260
-0.996714, 21, 1, 36, 64
-0.996718, 257, 81, 384, 112
-0.996726, 229, 65, 244, 128
-0.996739, 161, 209, 416, 272
-0.996751, 479, 273, 494, 336
-0.996755, 53, 49, 68, 112
-0.996757, 353, 249, 480, 280
-0.996758, 429, 1, 444, 64
-0.996758, 471, 145, 486, 208
-0.996767, 129, 157, 256, 188
-0.99677, 131, 257, 146, 320
-0.996797, 203, 281, 218, 344
-0.996807, 261, 65, 276, 128
-0.996817, 313, 161, 328, 224
-0.996833, 177, 345, 304, 375
-0.996836, 353, 149, 480, 180
-0.996841, 233, 113, 248, 176
-0.996846, 193, 1, 320, 32
-0.996849, 113, 333, 240, 364
-0.99686, 455, 169, 470, 232
-0.996862, 369, 233, 496, 264
-0.99687, 197, 1, 212, 64
-0.996876, 59, 1, 74, 64
-0.996881, 479, 241, 494, 304
-0.996884, 1, 321, 128, 352
-0.996888, 1, 73, 500, 136
-0.996888, 27, 25, 42, 88
-0.99689, 17, 141, 144, 172
-0.996893, 17, 225, 144, 256
-0.996899, 129, 89, 256, 120
-0.996909, 67, 209, 82, 272
-0.996916, 447, 105, 462, 168
-0.996927, 1, 17, 500, 80
-0.996931, 327, 65, 342, 128
-0.996941, 267, 145, 282, 208
-0.996949, 1, 209, 128, 240
-0.996954, 417, 65, 432, 128
-0.996955, 455, 145, 470, 208
-0.99696, 369, 41, 496, 72
-0.996961, 471, 177, 486, 240
-0.996964, 463, 193, 478, 256
-0.996966, 49, 121, 176, 152
-0.996969, 279, 73, 294, 136
-0.996969, 453, 121, 468, 184
-0.996969, 405, 281, 420, 344
-0.996979, 17, 333, 144, 364
-0.996982, 119, 313, 134, 375
-0.996986, 1, 197, 128, 228
-0.996993, 377, 241, 392, 304
-0.996995, 417, 257, 432, 320
-0.996997, 97, 13, 224, 44
-0.996998, 337, 65, 352, 128
-0.996999, 461, 1, 492, 256
-0.996999, 211, 65, 226, 128
-0.997, 69, 289, 84, 352
-0.997001, 275, 145, 290, 176
-0.997002, 369, 29, 496, 60
-0.997002, 479, 305, 494, 368
-0.997005, 47, 137, 62, 200
-0.997007, 285, 133, 300, 164
-0.997008, 97, 217, 224, 248
-0.997009, 109, 313, 124, 375
-0.997009, 225, 17, 352, 48
-0.997016, 259, 145, 274, 176
-0.997018, 471, 217, 486, 280
-0.997026, 1, 233, 16, 296
-0.997028, 447, 33, 462, 96
-0.99704, 415, 185, 430, 248
-0.99704, 209, 281, 224, 344
-0.997047, 193, 221, 320, 252
-0.997049, 265, 273, 280, 336
-0.997057, 365, 1, 396, 256
-0.997057, 33, 297, 160, 328
-0.997102, 203, 145, 218, 176
-0.997108, 369, 341, 496, 372
-0.997124, 279, 133, 294, 164
-0.997128, 97, 321, 224, 352
-0.997141, 113, 289, 240, 320
-0.997152, 269, 145, 284, 176
-0.997152, 65, 1, 192, 32
-0.997169, 305, 101, 432, 132
-0.997171, 145, 5, 272, 36
-0.997183, 353, 121, 480, 152
-0.997189, 241, 69, 368, 100
-0.9972, 369, 165, 496, 196
-0.997215, 65, 105, 192, 136
-0.99722, 1, 237, 128, 268
-0.997222, 145, 25, 272, 56
-0.997224, 97, 169, 352, 232
-0.997225, 177, 257, 304, 288
-0.997243, 303, 145, 318, 176
-0.997254, 293, 145, 308, 176
-0.997289, 305, 57, 432, 88
-0.997289, 161, 193, 288, 224
-0.997307, 17, 45, 144, 76
-0.997312, 369, 209, 496, 240
-0.997323, 349, 1, 380, 256
-0.997332, 369, 313, 496, 344
-0.997339, 227, 129, 242, 160
-0.997346, 161, 181, 288, 212
-0.997354, 217, 1, 248, 256
-0.997369, 305, 29, 432, 60
-0.997376, 253, 145, 268, 176
-0.997387, 369, 329, 496, 360
-0.997397, 49, 153, 176, 184
-0.997399, 257, 1, 288, 256
-0.997403, 289, 165, 416, 196
-0.997411, 233, 113, 248, 144
-0.997412, 33, 13, 160, 44
-0.997415, 209, 145, 224, 176
-0.997418, 161, 333, 288, 364
-0.997419, 257, 245, 384, 276
-0.997423, 313, 277, 328, 308
-0.997424, 309, 141, 324, 172
-0.997428, 281, 1, 312, 256
-0.997428, 377, 1, 408, 256
-0.997437, 287, 157, 302, 188
-0.997449, 113, 201, 240, 232
-0.997454, 161, 1, 192, 256
-0.997456, 271, 133, 286, 164
-0.997461, 161, 205, 288, 236
-0.997462, 219, 125, 234, 156
-0.997465, 287, 145, 302, 176
-0.997469, 101, 1, 132, 256
-0.997474, 197, 1, 228, 256
-0.997476, 201, 129, 216, 160
-0.997478, 279, 157, 294, 188
-0.997487, 225, 185, 352, 216
-0.997491, 45, 1, 76, 256
-0.997497, 221, 145, 236, 176
-0.997498, 313, 229, 328, 260
-0.997498, 369, 301, 496, 332
-0.997514, 237, 125, 252, 156
-0.997518, 257, 29, 384, 60
-0.997521, 235, 145, 250, 176
-0.997527, 187, 345, 202, 375
-0.997527, 177, 49, 304, 80
-0.997531, 243, 145, 258, 176
-0.99754, 273, 17, 400, 48
-0.997563, 305, 177, 432, 208
-0.997578, 321, 265, 336, 296
-0.997578, 479, 117, 494, 148
-0.997579, 353, 289, 480, 320
-0.99758, 145, 217, 272, 248
-0.997582, 225, 113, 240, 144
-0.997589, 209, 245, 336, 276
-0.99759, 65, 333, 192, 364
-0.997591, 279, 105, 294, 136
-0.9976, 305, 217, 432, 248
-0.997624, 293, 133, 308, 164
-0.997628, 285, 105, 300, 136
-0.997634, 41, 97, 72, 352
-0.997637, 1, 153, 128, 184
-0.997644, 321, 233, 336, 264
-0.997654, 237, 1, 268, 256
-0.997656, 305, 97, 336, 352
-0.997669, 279, 121, 294, 152
-0.99767, 49, 177, 176, 208
-0.997691, 421, 1, 452, 256
-0.997693, 215, 141, 230, 172
-0.997698, 299, 157, 314, 188
-0.997708, 265, 133, 280, 164
-0.997726, 293, 157, 308, 188
-0.99773, 305, 1, 336, 256
-0.997748, 207, 125, 222, 156
-0.997748, 257, 133, 272, 164
-0.997758, 389, 273, 404, 304
-0.997762, 217, 265, 232, 296
-0.997775, 271, 157, 286, 188
-0.997778, 205, 261, 220, 292
-0.997793, 201, 101, 216, 132
-0.997809, 263, 157, 278, 188
-0.99782, 261, 89, 276, 120
-0.997824, 201, 117, 216, 148
-0.997824, 299, 125, 314, 156
-0.997854, 243, 121, 258, 152
-0.997878, 67, 273, 82, 304
-0.997881, 319, 129, 334, 160
-0.997882, 353, 97, 384, 352
-0.997888, 309, 153, 324, 184
-0.997889, 219, 113, 234, 144
-0.997891, 485, 313, 500, 344
-0.997897, 227, 145, 242, 176
-0.997905, 319, 281, 334, 312
-0.997909, 75, 269, 90, 300
-0.997912, 213, 121, 228, 152
-0.997916, 271, 281, 286, 312
-0.997935, 189, 321, 204, 352
-0.997936, 421, 1, 436, 32
-0.997942, 253, 157, 268, 188
-0.997946, 201, 157, 216, 188
-0.997951, 247, 89, 262, 120
-0.997956, 67, 253, 82, 284
-0.997956, 271, 101, 286, 132
-0.99796, 121, 101, 136, 132
-0.997965, 197, 145, 212, 176
-0.997976, 273, 97, 304, 352
-0.997987, 137, 261, 152, 292
-0.997995, 313, 125, 328, 156
-0.997999, 245, 133, 260, 164
-0.998001, 209, 157, 224, 188
-0.998007, 291, 105, 306, 136
-0.998013, 309, 113, 324, 144
-0.998018, 457, 97, 488, 352
-0.998036, 239, 93, 254, 124
-0.998044, 325, 97, 356, 352
-0.998045, 319, 101, 334, 132
-0.998047, 89, 277, 104, 308
-0.998064, 393, 285, 408, 316
-0.998089, 95, 265, 110, 296
-0.99809, 307, 233, 322, 264
-0.998091, 149, 1, 180, 256
-0.998096, 193, 97, 224, 352
-0.99811, 107, 261, 122, 292
-0.998112, 479, 93, 494, 124
-0.998116, 319, 149, 334, 180
-0.998123, 293, 1, 308, 32
-0.998123, 271, 265, 286, 296
-0.99813, 269, 121, 284, 152
-0.99813, 173, 1, 204, 256
-0.998131, 205, 97, 236, 352
-0.998144, 193, 117, 208, 148
-0.998154, 253, 113, 268, 144
-0.998161, 455, 185, 470, 216
-0.998162, 209, 281, 224, 312
-0.998162, 193, 333, 208, 364
-0.998165, 321, 245, 336, 276
-0.998168, 103, 285, 118, 316
-0.99817, 397, 129, 428, 375
-0.998171, 483, 261, 498, 292
-0.998182, 307, 129, 322, 160
-0.998183, 485, 105, 500, 136
-0.998189, 285, 97, 316, 352
-0.998196, 231, 89, 246, 120
-0.998196, 285, 121, 300, 152
-0.998196, 203, 281, 218, 312
-0.998199, 41, 213, 56, 244
-0.998204, 73, 257, 88, 288
-0.998208, 135, 285, 150, 316
-0.998209, 309, 101, 324, 132
-0.99821, 209, 105, 224, 136
-0.998212, 115, 97, 130, 128
-0.998216, 293, 121, 308, 152
-0.998216, 1, 129, 32, 375
-0.998221, 143, 273, 158, 304
-0.998221, 113, 1, 144, 256
-0.998227, 25, 1, 56, 256
-0.998228, 83, 265, 98, 296
-0.99823, 57, 1, 88, 256
-0.998231, 463, 177, 478, 208
-0.998234, 109, 273, 124, 304
-0.998248, 337, 97, 368, 352
-0.998249, 253, 89, 268, 120
-0.998251, 469, 109, 484, 140
-0.998251, 433, 1, 464, 256
-0.998254, 303, 105, 318, 136
-0.998254, 193, 345, 208, 375
-0.998258, 379, 261, 394, 292
-0.998258, 307, 277, 322, 308
-0.998264, 481, 277, 496, 308
-0.998268, 193, 129, 208, 160
-0.998269, 217, 277, 232, 308
-0.99827, 365, 97, 396, 352
-0.99827, 261, 117, 276, 148
-0.99827, 55, 1, 70, 32
-0.99828, 25, 145, 40, 176
-0.998288, 297, 105, 312, 136
-0.998288, 415, 193, 430, 224
-0.99829, 471, 189, 486, 220
-0.998291, 469, 81, 484, 112
-0.998291, 251, 133, 266, 164
-0.998298, 89, 265, 104, 296
-0.998304, 225, 97, 256, 352
-0.998338, 1, 313, 500, 375
-0.998363, 177, 97, 208, 352
-0.998388, 193, 283, 224, 298
-0.998388, 89, 109, 120, 124
-0.998389, 317, 149, 348, 164
-0.99839, 25, 185, 56, 200
-0.99839, 185, 121, 216, 136
-0.99839, 49, 211, 80, 226
-0.998391, 185, 107, 216, 122
-0.998391, 317, 231, 348, 246
-0.998391, 21, 173, 52, 188
-0.998392, 37, 179, 68, 194
-0.998393, 141, 115, 172, 130
-0.998393, 317, 267, 348, 282
-0.998393, 269, 281, 300, 296
-0.998394, 161, 355, 192, 370
-0.998394, 197, 343, 228, 358
-0.998395, 49, 139, 80, 154
-0.998395, 393, 277, 424, 292
-0.998396, 305, 121, 336, 136
-0.998396, 65, 1, 96, 16
-0.998396, 289, 115, 320, 130
-0.998397, 109, 107, 140, 122
-0.998398, 317, 131, 348, 146
-0.998398, 269, 109, 300, 124
-0.998398, 189, 157, 220, 172
-0.998399, 189, 351, 220, 366
-0.998399, 129, 109, 160, 124
-0.9984, 317, 279, 348, 294
-0.9984, 177, 325, 208, 340
-0.9984, 365, 265, 396, 280
-0.998401, 365, 273, 396, 288
-0.998402, 209, 113, 240, 128
-0.998403, 37, 323, 68, 338
-0.998404, 281, 1, 312, 16
-0.998404, 57, 257, 88, 272
-0.998407, 317, 155, 348, 170
-0.998407, 313, 143, 344, 158
-0.998408, 45, 275, 76, 290
-0.998408, 57, 225, 88, 240
-0.99841, 317, 245, 348, 260
-0.99841, 185, 113, 216, 128
-0.99841, 125, 265, 156, 280
-0.998411, 65, 279, 96, 294
-0.998412, 317, 287, 348, 302
-0.998413, 85, 285, 116, 300
-0.998413, 193, 129, 256, 144
-0.998415, 1, 209, 500, 272
-0.998416, 265, 137, 296, 152
-0.998416, 465, 311, 496, 326
-0.998417, 201, 353, 232, 368
-0.998417, 25, 97, 56, 352
-0.998418, 201, 271, 232, 286
-0.998418, 33, 215, 64, 230
-0.998421, 305, 231, 336, 246
-0.998422, 457, 153, 488, 168
-0.998425, 93, 273, 124, 288
-0.998427, 257, 99, 288, 114
-0.99843, 397, 283, 428, 298
-0.99843, 189, 329, 220, 344
-0.998433, 301, 159, 332, 174
-0.998434, 301, 151, 332, 166
-0.998434, 297, 109, 328, 124
-0.998436, 377, 285, 408, 300
-0.998437, 133, 1, 164, 256
-0.998437, 53, 217, 84, 232
-0.998437, 317, 273, 348, 288
-0.998438, 301, 127, 332, 142
-0.998438, 305, 277, 336, 292
-0.998438, 273, 143, 336, 158
-0.998439, 393, 89, 424, 104
-0.998439, 81, 277, 112, 292
-0.99844, 189, 137, 220, 152
-0.998443, 281, 109, 312, 124
-0.998443, 57, 97, 88, 352
-0.998443, 193, 143, 256, 158
-0.998443, 281, 133, 312, 148
-0.998443, 197, 113, 228, 128
-0.998444, 89, 1, 120, 256
-0.998445, 201, 359, 232, 374
-0.998445, 409, 1, 440, 16
-0.998447, 273, 137, 336, 152
-0.998449, 213, 157, 244, 172
-0.99845, 289, 153, 320, 168
-0.99845, 469, 97, 500, 352
-0.998452, 189, 147, 220, 162
-0.998453, 469, 117, 500, 132
-0.998456, 257, 157, 288, 172
-0.998456, 177, 353, 208, 368
-0.998456, 269, 153, 300, 168
-0.998457, 113, 267, 144, 282
-0.998459, 193, 137, 256, 152
-0.998459, 181, 359, 212, 374
-0.99846, 305, 103, 336, 118
-0.99846, 317, 125, 348, 140
-0.99846, 213, 135, 244, 150
-0.998462, 237, 125, 268, 140
-0.998463, 189, 131, 220, 146
-0.998463, 257, 283, 288, 298
-0.998463, 313, 137, 344, 152
-0.998465, 225, 157, 256, 172
-0.998467, 317, 237, 348, 252
-0.998472, 233, 151, 264, 166
-0.998473, 241, 139, 304, 154
-0.998475, 65, 217, 96, 232
-0.998476, 257, 149, 288, 164
-0.998478, 305, 243, 336, 258
-0.998478, 281, 125, 312, 140
-0.998481, 253, 139, 284, 154
-0.998481, 273, 149, 336, 164
-0.998481, 81, 271, 112, 286
-0.998483, 249, 131, 280, 146
-0.998483, 193, 123, 256, 138
-0.998483, 445, 97, 476, 352
-0.998484, 241, 141, 272, 156
-0.998485, 237, 157, 268, 172
-0.998486, 213, 129, 244, 144
-0.998487, 193, 157, 256, 172
-0.998488, 221, 151, 252, 166
-0.998488, 269, 159, 300, 174
-0.998489, 273, 109, 336, 124
-0.99849, 289, 139, 320, 154
-0.99849, 273, 155, 336, 170
-0.998492, 197, 105, 228, 120
-0.998492, 193, 151, 256, 166
-0.998493, 233, 125, 296, 140
-0.998494, 201, 265, 232, 280
-0.998497, 273, 131, 336, 146
-0.998498, 241, 131, 304, 146
-0.998498, 229, 141, 260, 156
-0.998499, 209, 123, 240, 138
-0.9985, 185, 361, 248, 375
-0.998502, 225, 123, 256, 138
-0.998502, 217, 131, 280, 146
-0.998502, 217, 139, 280, 154
-0.998505, 261, 97, 292, 352
-0.998505, 281, 145, 312, 160
-0.998508, 273, 123, 336, 138
-0.998509, 201, 149, 232, 164
-0.998511, 289, 159, 320, 174
-0.998511, 225, 97, 288, 112
-0.998513, 265, 283, 328, 298
-0.998513, 233, 131, 264, 146
-0.998514, 241, 151, 304, 166
-0.998514, 201, 143, 232, 158
-0.998515, 273, 115, 336, 130
-0.998515, 197, 123, 228, 138
-0.998518, 269, 131, 300, 146
-0.998519, 249, 125, 280, 140
-0.998521, 245, 151, 276, 166
-0.998522, 241, 157, 304, 172
-0.998524, 265, 143, 296, 158
-0.998525, 65, 273, 96, 288
-0.998525, 225, 91, 288, 106
-0.998526, 217, 157, 280, 172
-0.998527, 301, 143, 332, 158
-0.998529, 269, 125, 300, 140
-0.998531, 217, 149, 280, 164
-0.998532, 33, 217, 96, 232
-0.998537, 305, 281, 368, 296
-0.998538, 297, 133, 328, 148
-0.998539, 289, 103, 352, 118
-0.998539, 201, 157, 232, 172
-0.998539, 217, 141, 248, 156
-0.998542, 241, 145, 304, 160
-0.998544, 389, 1, 420, 256
-0.998546, 201, 129, 232, 144
-0.998546, 277, 139, 308, 154
-0.99855, 249, 91, 280, 106
-0.998553, 433, 121, 496, 136
-0.998553, 305, 283, 336, 298
-0.998554, 385, 1, 448, 16
-0.998554, 297, 139, 360, 154
-0.998556, 145, 361, 208, 375
-0.998559, 49, 273, 112, 288
-0.99856, 201, 137, 232, 152
-0.99856, 345, 283, 408, 298
-0.998563, 369, 283, 432, 298
-0.998567, 305, 237, 336, 252
-0.998569, 273, 161, 336, 176
-0.998569, 377, 129, 408, 375
-0.998569, 17, 191, 80, 206
-0.99857, 233, 119, 296, 134
-0.998572, 81, 267, 144, 282
-0.998574, 249, 107, 312, 122
-0.998574, 113, 265, 176, 280
-0.998575, 89, 273, 152, 288
-0.998578, 433, 115, 496, 130
-0.998578, 297, 145, 360, 160
-0.998578, 433, 107, 496, 122
-0.998579, 433, 85, 496, 100
-0.998579, 17, 201, 80, 216
-0.99858, 169, 137, 232, 152
-0.998581, 193, 105, 256, 120
-0.998582, 17, 209, 80, 224
-0.998582, 305, 287, 368, 302
-0.998585, 17, 229, 80, 244
-0.998585, 153, 113, 216, 128
-0.998586, 361, 273, 424, 288
-0.998586, 177, 353, 240, 368
-0.998589, 17, 77, 80, 92
-0.99859, 401, 91, 464, 106
-0.998591, 17, 55, 80, 70
-0.998592, 17, 63, 80, 78
-0.998592, 41, 227, 104, 242
-0.998593, 401, 279, 464, 294
-0.998594, 17, 271, 80, 286
-0.998595, 305, 153, 368, 168
-0.998597, 385, 11, 448, 26
-0.998598, 193, 267, 256, 282
-0.998598, 433, 131, 496, 146
-0.998598, 17, 241, 80, 256
-0.998599, 17, 69, 80, 84
-0.998599, 433, 153, 496, 168
-0.9986, 153, 355, 216, 370
-0.9986, 17, 129, 80, 144
-0.998601, 305, 127, 368, 142
-0.998602, 369, 247, 432, 262
-0.998603, 105, 113, 168, 128
-0.998604, 401, 251, 464, 266
-0.998604, 433, 139, 496, 154
-0.998604, 329, 87, 392, 102
-0.998605, 17, 173, 80, 188
-0.998606, 17, 251, 80, 266
-0.998606, 265, 277, 328, 292
-0.998606, 17, 185, 80, 200
-0.998607, 361, 267, 424, 282
-0.998607, 33, 139, 96, 154
-0.998608, 313, 107, 376, 122
-0.998609, 361, 11, 424, 26
-0.998609, 105, 107, 168, 122
-0.998609, 369, 89, 432, 104
-0.998612, 25, 113, 88, 128
-0.998612, 17, 223, 80, 238
-0.998613, 25, 279, 88, 294
-0.998615, 177, 327, 240, 342
-0.998615, 433, 247, 496, 262
-0.998616, 297, 133, 360, 148
-0.998616, 433, 161, 496, 176
-0.998616, 433, 177, 496, 192
-0.998616, 305, 275, 368, 290
-0.998617, 193, 283, 256, 298
-0.998617, 73, 343, 136, 358
-0.998619, 17, 95, 80, 110
-0.99862, 401, 273, 464, 288
-0.99862, 313, 115, 376, 130
-0.998621, 25, 167, 88, 182
-0.998621, 17, 179, 80, 194
-0.998621, 17, 47, 80, 62
-0.998622, 169, 149, 232, 164
-0.998622, 17, 87, 80, 102
-0.998622, 401, 257, 464, 272
-0.998623, 193, 115, 256, 130
-0.998623, 17, 1, 80, 16
-0.998623, 401, 245, 464, 260
-0.998623, 401, 85, 464, 100
-0.998623, 265, 101, 328, 116
-0.998623, 297, 161, 360, 176
-0.998624, 81, 349, 144, 364
-0.998624, 433, 91, 496, 106
-0.998625, 401, 97, 464, 112
-0.998625, 401, 131, 464, 146
-0.998627, 337, 273, 400, 288
-0.998627, 193, 277, 256, 292
-0.998627, 49, 57, 112, 72
-0.998627, 121, 287, 184, 302
-0.998627, 409, 341, 472, 356
-0.998628, 17, 157, 80, 172
-0.998628, 401, 125, 464, 140
-0.998628, 433, 215, 496, 230
-0.998629, 33, 263, 96, 278
-0.998629, 433, 267, 496, 282
-0.998667, 185, 1, 216, 256
-0.998714, 77, 1, 108, 256
-0.998839, 237, 81, 252, 208
-0.998843, 405, 241, 420, 368
-0.998855, 279, 97, 294, 224
-0.998887, 269, 81, 284, 208
-0.998889, 319, 209, 334, 336
-0.998895, 313, 225, 328, 352
-0.998898, 251, 81, 266, 208
-0.998926, 243, 81, 258, 208
-0.998946, 393, 241, 408, 368
-0.998951, 249, 97, 280, 352
-0.99896, 259, 81, 274, 208
-0.998968, 203, 49, 218, 176
-0.99898, 369, 1, 384, 128
-0.999024, 389, 1, 404, 128
-0.999024, 425, 97, 456, 352
-0.999028, 309, 81, 324, 208
-0.999043, 141, 97, 172, 352
-0.999051, 399, 241, 414, 368
-0.999051, 411, 241, 426, 368
-0.999056, 409, 33, 440, 288
-0.999061, 403, 1, 418, 128
-0.999068, 397, 1, 412, 128
-0.999074, 191, 1, 206, 128
-0.999077, 209, 81, 224, 208
-0.999077, 375, 1, 390, 128
-0.99908, 423, 1, 438, 128
-0.999103, 287, 97, 302, 224
-0.999121, 85, 1, 100, 128
-0.999121, 231, 49, 246, 176
-0.999123, 275, 49, 290, 176
-0.999129, 221, 81, 236, 208
-0.99913, 317, 97, 332, 224
-0.999132, 319, 49, 334, 176
-0.999133, 281, 49, 296, 176
-0.999134, 271, 129, 286, 256
-0.999137, 137, 241, 152, 368
-0.99914, 215, 81, 230, 208
-0.999141, 417, 241, 432, 368
-0.999145, 293, 65, 308, 192
-0.999147, 237, 97, 268, 352
-0.999148, 417, 193, 432, 320
-0.999161, 231, 97, 246, 224
-0.999161, 303, 65, 318, 192
-0.999163, 197, 1, 212, 128
-0.999164, 183, 1, 198, 128
-0.999175, 417, 1, 432, 128
-0.999177, 363, 1, 378, 128
-0.999179, 287, 49, 302, 176
-0.999183, 473, 97, 488, 224
-0.999185, 1, 209, 16, 336
-0.999188, 443, 1, 458, 128
-0.99919, 271, 1, 286, 128
-0.999195, 79, 1, 94, 128
-0.999195, 309, 145, 324, 272
-0.9992, 191, 49, 206, 176
-0.999207, 209, 33, 224, 160
-0.999208, 153, 97, 184, 352
-0.999209, 411, 1, 426, 128
-0.99921, 245, 1, 260, 128
-0.999219, 341, 1, 356, 128
-0.999219, 411, 193, 426, 320
-0.999224, 97, 1, 112, 128
-0.999227, 383, 17, 398, 144
-0.999229, 17, 1, 32, 128
-0.99923, 305, 241, 320, 368
-0.999232, 265, 1, 280, 128
-0.999234, 327, 1, 342, 128
-0.999236, 371, 241, 386, 368
-0.999247, 335, 17, 350, 144
-0.999251, 57, 1, 72, 128
-0.999253, 387, 225, 402, 352
-0.999258, 451, 65, 466, 192
-0.999262, 479, 49, 494, 176
-0.999262, 269, 241, 284, 368
-0.999264, 303, 17, 318, 144
-0.999269, 91, 1, 106, 128
-0.999273, 447, 241, 462, 368
-0.999274, 201, 97, 216, 224
-0.999277, 215, 1, 230, 128
-0.999279, 325, 225, 340, 352
-0.999289, 237, 129, 252, 256
-0.999296, 27, 1, 42, 128
-0.9993, 457, 17, 472, 144
-0.999301, 67, 209, 82, 336
-0.999302, 143, 241, 158, 368
-0.999303, 479, 97, 494, 224
-0.999303, 471, 145, 486, 272
-0.999312, 195, 209, 210, 336
-0.999316, 303, 129, 318, 256
-0.999318, 51, 1, 66, 128
-0.999319, 321, 1, 336, 128
-0.99932, 327, 49, 342, 176
-0.999323, 61, 161, 76, 288
-0.999325, 251, 1, 266, 128
-0.999328, 113, 33, 128, 160
-0.999329, 265, 129, 280, 256
-0.99933, 177, 1, 192, 128
-0.999331, 221, 1, 236, 128
-0.999334, 415, 145, 430, 272
-0.999335, 309, 17, 324, 144
-0.999339, 449, 1, 464, 128
-0.99934, 141, 1, 156, 128
-0.999344, 245, 129, 260, 256
-0.999346, 41, 113, 56, 240
-0.999359, 409, 129, 440, 375
-0.99936, 319, 161, 334, 288
-0.999363, 257, 1, 272, 128
-0.999363, 423, 241, 438, 368
-0.999363, 369, 65, 384, 192
-0.999364, 65, 1, 80, 128
-0.999364, 81, 193, 96, 320
-0.999369, 465, 129, 480, 256
-0.999374, 277, 1, 292, 128
-0.999375, 5, 33, 36, 288
-0.999376, 251, 129, 266, 256
-0.999379, 409, 81, 424, 208
-0.999379, 195, 97, 210, 224
-0.999383, 469, 17, 484, 144
-0.99939, 477, 241, 492, 368
-0.999391, 481, 161, 496, 288
-0.999395, 467, 241, 482, 368
-0.999396, 405, 193, 420, 320
-0.999396, 61, 113, 76, 240
-0.999398, 103, 1, 118, 128
-0.9994, 221, 241, 236, 368
-0.999402, 347, 1, 362, 128
-0.999403, 417, 97, 432, 224
-0.999403, 111, 81, 126, 208
-0.999404, 51, 129, 66, 256
-0.999404, 197, 49, 212, 176
-0.999406, 43, 1, 58, 128
-0.999406, 259, 129, 274, 256
-0.999407, 205, 225, 220, 352
-0.999408, 135, 1, 150, 128
-0.999408, 53, 49, 68, 176
-0.999409, 127, 209, 142, 336
-0.999409, 377, 241, 392, 368
-0.999412, 73, 193, 88, 320
-0.999459, 69, 97, 100, 352
-0.999502, 113, 97, 144, 352
-0.999528, 129, 97, 160, 352
-0.999605, 285, 109, 300, 124
-0.999606, 317, 127, 332, 142
-0.999606, 227, 359, 242, 374
-0.999606, 179, 361, 194, 375
-0.999606, 239, 99, 254, 114
-0.999608, 293, 125, 308, 140
-0.999608, 319, 283, 334, 298
-0.999608, 101, 103, 116, 118
-0.999609, 311, 127, 326, 142
-0.999609, 215, 149, 230, 164
-0.99961, 253, 141, 268, 156
-0.99961, 139, 355, 154, 370
-0.999611, 291, 109, 306, 124
-0.999612, 301, 109, 316, 124
-0.999612, 145, 115, 160, 130
-0.999613, 371, 263, 386, 278
-0.999613, 287, 153, 302, 168
-0.999613, 79, 217, 94, 232
-0.999614, 485, 313, 500, 328
-0.999615, 377, 263, 392, 278
-0.999615, 263, 137, 278, 152
-0.999616, 255, 157, 270, 172
-0.999616, 269, 135, 284, 150
-0.999617, 87, 271, 102, 286
-0.999617, 321, 263, 336, 278
-0.999618, 239, 141, 254, 156
-0.999618, 119, 107, 134, 122
-0.999618, 237, 131, 252, 146
-0.999621, 279, 109, 294, 124
-0.999623, 303, 125, 318, 140
-0.999623, 299, 133, 314, 148
-0.999624, 245, 131, 260, 146
-0.999624, 319, 143, 334, 158
-0.999626, 227, 143, 242, 158
-0.999626, 269, 257, 284, 272
-0.999627, 219, 129, 234, 144
-0.999628, 211, 157, 226, 172
-0.999628, 273, 121, 288, 136
-0.999629, 249, 157, 264, 172
-0.999629, 177, 355, 192, 370
-0.99963, 81, 227, 96, 242
-0.999631, 211, 129, 226, 144
-0.999631, 321, 241, 336, 256
-0.999631, 73, 217, 88, 232
-0.999631, 285, 131, 300, 146
-0.999631, 231, 157, 246, 172
-0.999631, 189, 325, 204, 340
-0.999631, 217, 267, 232, 282
-0.999632, 245, 141, 260, 156
-0.999633, 285, 137, 300, 152
-0.999634, 199, 357, 214, 372
-0.999634, 219, 155, 234, 170
-0.999634, 233, 119, 248, 134
-0.999636, 483, 281, 498, 296
-0.999636, 313, 239, 328, 254
-0.999636, 105, 109, 120, 124
-0.999637, 225, 129, 240, 144
-0.999637, 89, 277, 104, 292
-0.999638, 269, 149, 284, 164
-0.999639, 125, 103, 140, 118
-0.99964, 295, 157, 310, 172
-0.99964, 387, 283, 402, 298
-0.999641, 249, 151, 264, 166
-0.999641, 251, 131, 266, 146
-0.999643, 199, 105, 214, 120
-0.999643, 201, 123, 216, 138
-0.999643, 479, 117, 494, 132
-0.999644, 215, 137, 230, 152
-0.999644, 211, 123, 226, 138
-0.999644, 183, 355, 198, 370
-0.999645, 279, 153, 294, 168
-0.999647, 285, 125, 300, 140
-0.999647, 165, 353, 180, 368
-0.999648, 281, 147, 296, 162
-0.999649, 247, 125, 262, 140
-0.999649, 111, 105, 126, 120
-0.999649, 271, 157, 286, 172
-0.99965, 269, 97, 284, 112
-0.999651, 229, 151, 244, 166
-0.999651, 201, 143, 216, 158
-0.999652, 191, 353, 206, 368
-0.999653, 225, 157, 240, 172
-0.999654, 261, 157, 276, 172
-0.999654, 303, 155, 318, 170
-0.999654, 277, 159, 292, 174
-0.999654, 275, 131, 290, 146
-0.999656, 293, 149, 308, 164
-0.999657, 221, 147, 236, 162
-0.999659, 237, 125, 252, 140
-0.99966, 201, 149, 216, 164
-0.999662, 259, 91, 274, 106
-0.999662, 241, 151, 256, 166
-0.999663, 317, 137, 332, 152
-0.999664, 209, 149, 224, 164
-0.999664, 239, 157, 254, 172
-0.999666, 209, 137, 224, 152
-0.999666, 247, 91, 262, 106
-0.999667, 227, 137, 242, 152
-0.999668, 283, 159, 298, 174
-0.999668, 255, 125, 270, 140
-0.99967, 227, 123, 242, 138
-0.999672, 259, 151, 274, 166
-0.999673, 263, 125, 278, 140
-0.999675, 235, 151, 250, 166
-0.999676, 293, 137, 308, 152
-0.999676, 257, 131, 272, 146
-0.999678, 85, 97, 116, 352
-0.999678, 219, 123, 234, 138
-0.999679, 271, 141, 286, 156
-0.99968, 289, 159, 304, 174
-0.99968, 211, 143, 226, 158
-0.999682, 309, 141, 324, 156
-0.999682, 309, 157, 324, 172
-0.999684, 187, 361, 202, 375
-0.999684, 233, 141, 248, 156
-0.999685, 279, 125, 294, 140
-0.999685, 321, 235, 336, 250
-0.999688, 269, 127, 284, 142
-0.999688, 297, 143, 312, 158
-0.999689, 313, 283, 328, 298
-0.999693, 309, 133, 324, 148
-0.999695, 271, 281, 286, 296
-0.999701, 221, 141, 236, 156
-0.999704, 203, 157, 218, 172
-0.999706, 279, 139, 294, 154
-0.999711, 303, 143, 318, 158
-0.999711, 289, 143, 304, 158
-0.999717, 311, 233, 326, 248
-0.999728, 193, 361, 208, 375
-0.999738, 201, 137, 216, 152
-0.999751, 201, 129, 216, 144
-0.999792, 97, 97, 128, 352
-1.00006, 165, 97, 196, 352
-1.0002, 13, 129, 44, 375
