1952
-0.202805, 1, 1, 500, 375
-0.301855, 1, 33, 500, 288
-0.422083, 1, 129, 500, 375
-0.428693, 1, 1, 256, 375
-0.434356, 257, 1, 500, 375
-0.474561, 129, 1, 384, 375
-0.541964, 33, 1, 288, 256
-0.60608, 257, 1, 500, 256
-0.642093, 65, 97, 320, 352
-0.669668, 129, 1, 384, 256
-0.674631, 225, 129, 480, 375
-0.831535, 353, 1, 480, 375
-0.852551, 369, 1, 496, 256
-0.853366, 33, 1, 160, 375
-0.85447, 1, 49, 500, 176
-0.855135, 129, 1, 256, 256
-0.856332, 305, 1, 432, 375
-0.86432, 17, 1, 144, 256
-0.864865, 257, 1, 384, 375
-0.867097, 1, 1, 500, 128
-0.867445, 145, 1, 272, 375
-0.869242, 225, 65, 352, 320
-0.874897, 321, 1, 448, 256
-0.877692, 209, 1, 336, 375
-0.880098, 273, 1, 400, 256
-0.880293, 1, 97, 500, 224
-0.88042, 177, 1, 304, 256
-0.880791, 161, 97, 288, 352
-0.882249, 81, 1, 208, 375
-0.882873, 113, 97, 240, 352
-0.884148, 81, 1, 208, 256
-0.885983, 33, 129, 160, 375
-0.886395, 1, 145, 500, 272
-0.890257, 289, 97, 416, 352
-0.891501, 1, 193, 500, 320
-0.893649, 337, 97, 464, 352
-0.906688, 97, 1, 352, 128
-0.910874, 225, 65, 480, 192
-0.91473, 1, 225, 256, 352
-0.920682, 1, 241, 500, 368
-0.921755, 353, 1, 480, 128
-0.922551, 65, 81, 320, 208
-0.929458, 1, 33, 256, 160
-0.930038, 193, 193, 448, 320
-0.930236, 393, 1, 456, 128
-0.930608, 193, 1, 448, 128
-0.931082, 305, 65, 432, 192
-0.932583, 97, 81, 160, 208
-0.933017, 225, 129, 480, 256
-0.935007, 433, 17, 496, 144
-0.936441, 361, 49, 424, 176
-0.93692, 145, 1, 208, 128
-0.938991, 49, 209, 176, 336
-0.939118, 33, 177, 288, 304
-0.939324, 337, 1, 400, 128
-0.939926, 121, 49, 184, 176
-0.94053, 33, 17, 160, 144
-0.941736, 393, 97, 456, 224
-0.94224, 337, 49, 400, 176
-0.942449, 353, 81, 480, 208
-0.942491, 145, 17, 272, 144
-0.945093, 241, 1, 368, 128
-0.94678, 361, 1, 424, 128
-0.946794, 409, 49, 472, 176
-0.94704, 1, 81, 128, 208
-0.947084, 129, 81, 256, 208
-0.947258, 289, 17, 416, 144
-0.947701, 241, 81, 368, 208
-0.9481, 353, 129, 480, 256
-0.948673, 81, 81, 208, 208
-0.948982, 313, 1, 376, 128
-0.949492, 369, 89, 432, 152
-0.949584, 369, 113, 432, 240
-0.949875, 137, 25, 200, 88
-0.950029, 129, 241, 384, 368
-0.950068, 97, 129, 352, 256
-0.950892, 193, 33, 320, 160
-0.951398, 81, 17, 208, 144
-0.951599, 265, 1, 328, 128
-0.951674, 265, 81, 328, 208
-0.952088, 1, 225, 128, 352
-0.952439, 225, 1, 288, 128
-0.9532, 289, 1, 352, 128
-0.953363, 305, 49, 368, 176
-0.953394, 433, 33, 496, 96
-0.953509, 33, 161, 160, 288
-0.95386, 153, 1, 216, 64
-0.953888, 169, 17, 232, 144
-0.953911, 145, 49, 208, 176
-0.953981, 153, 97, 216, 224
-0.954343, 105, 73, 168, 136
-0.954429, 193, 193, 320, 320
-0.955202, 1, 129, 256, 256
-0.95544, 329, 57, 392, 120
-0.955576, 401, 17, 464, 80
-0.956144, 49, 193, 112, 320
-0.956193, 193, 97, 320, 224
-0.956193, 193, 145, 320, 272
-0.9562, 73, 145, 136, 272
-0.957129, 305, 113, 432, 240
-0.957323, 345, 1, 408, 64
-0.957524, 193, 97, 256, 224
-0.957542, 273, 161, 400, 288
-0.957581, 65, 17, 128, 144
-0.957942, 121, 49, 184, 112
-0.957979, 361, 57, 424, 120
-0.95805, 409, 65, 472, 128
-0.958691, 177, 1, 240, 64
-0.959018, 265, 9, 328, 72
-0.959362, 97, 225, 224, 352
-0.959948, 1, 81, 64, 208
-0.960401, 41, 49, 104, 176
-0.960671, 105, 177, 168, 304
-0.961094, 25, 225, 88, 352
-0.961467, 321, 97, 384, 224
-0.961506, 129, 129, 256, 256
-0.961541, 129, 97, 192, 224
-0.961964, 73, 209, 136, 336
-0.96205, 49, 241, 112, 368
-0.962111, 1, 33, 64, 160
-0.962541, 225, 241, 480, 368
-0.962663, 129, 177, 256, 304
-0.962682, 337, 161, 400, 288
-0.962759, 289, 209, 416, 336
-0.963261, 233, 49, 296, 176
-0.963642, 369, 1, 432, 64
-0.963674, 73, 97, 136, 224
-0.963846, 121, 1, 184, 128
-0.964033, 241, 209, 368, 336
-0.964419, 89, 97, 152, 160
-0.96453, 313, 33, 376, 96
-0.964565, 265, 81, 328, 144
-0.964842, 81, 161, 208, 288
-0.965314, 89, 33, 152, 160
-0.965378, 1, 265, 64, 328
-0.965395, 113, 81, 144, 144
-0.965637, 393, 97, 456, 160
-0.965794, 345, 81, 408, 144
-0.965811, 161, 25, 224, 88
-0.966054, 393, 1, 456, 256
-0.966328, 345, 97, 408, 224
-0.966521, 305, 97, 368, 160
-0.96666, 209, 209, 272, 336
-0.966697, 9, 97, 72, 160
-0.96673, 25, 177, 88, 304
-0.966793, 289, 73, 352, 136
-0.966826, 433, 1, 496, 256
-0.966874, 361, 161, 424, 288
-0.966965, 257, 209, 320, 336
-0.967042, 105, 225, 168, 288
-0.967205, 337, 1, 464, 64
-0.967268, 193, 17, 256, 144
-0.967301, 1, 241, 64, 368
-0.96731, 125, 49, 156, 112
-0.967397, 401, 145, 464, 272
-0.967444, 425, 9, 488, 72
-0.967577, 353, 33, 416, 288
-0.9677, 289, 97, 352, 224
-0.967799, 25, 249, 88, 312
-0.968008, 137, 25, 168, 88
-0.968016, 145, 241, 272, 368
-0.968125, 393, 121, 456, 184
-0.968457, 49, 233, 112, 296
-0.968584, 233, 145, 296, 272
-0.968624, 297, 193, 360, 320
-0.968649, 433, 65, 496, 192
-0.968691, 49, 145, 112, 272
-0.968787, 385, 49, 448, 176
-0.968869, 337, 193, 464, 320
-0.968913, 453, 25, 484, 88
-0.968958, 321, 89, 448, 152
-0.969237, 225, 97, 288, 224
-0.969252, 129, 89, 192, 152
-0.969375, 433, 57, 496, 120
-0.969443, 89, 193, 152, 256
-0.969459, 129, 145, 192, 272
-0.969839, 81, 17, 144, 80
-0.969921, 97, 49, 160, 112
-0.969994, 329, 1, 392, 256
-0.970047, 193, 145, 256, 272
-0.970268, 241, 1, 304, 64
-0.970536, 337, 33, 400, 96
-0.970556, 417, 97, 480, 160
-0.970672, 341, 49, 372, 112
-0.97075, 65, 185, 128, 248
-0.971046, 385, 65, 448, 128
-0.97115, 129, 1, 192, 256
-0.971192, 41, 201, 104, 264
-0.971208, 161, 225, 224, 352
-0.971218, 145, 33, 176, 160
-0.971412, 105, 65, 168, 320
-0.971418, 217, 1, 280, 64
-0.97161, 241, 57, 304, 120
-0.97162, 73, 225, 136, 288
-0.97165, 409, 41, 472, 104
-0.971752, 321, 9, 384, 72
-0.971752, 241, 33, 304, 96
-0.971752, 65, 161, 128, 224
-0.971787, 313, 145, 376, 272
-0.971865, 133, 33, 164, 160
-0.971944, 41, 169, 104, 232
-0.971953, 153, 1, 216, 256
-0.971985, 17, 105, 48, 168
-0.972084, 113, 113, 176, 176
-0.972086, 405, 113, 436, 240
-0.972096, 361, 57, 392, 120
-0.972139, 193, 241, 320, 368
-0.972293, 337, 57, 464, 120
-0.972425, 401, 65, 432, 192
-0.972462, 1, 97, 64, 352
-0.972579, 273, 1, 304, 64
-0.97266, 225, 1, 288, 256
-0.97273, 405, 89, 436, 152
-0.972745, 41, 129, 104, 192
-0.972837, 97, 225, 160, 352
-0.972902, 257, 129, 320, 256
-0.972921, 257, 1, 320, 256
-0.972957, 113, 17, 176, 80
-0.972972, 41, 97, 104, 224
-0.972981, 41, 1, 104, 256
-0.973063, 33, 81, 96, 144
-0.973076, 369, 25, 496, 88
-0.973165, 361, 129, 424, 192
-0.973179, 33, 193, 160, 256
-0.973213, 297, 1, 360, 256
-0.973252, 1, 49, 64, 112
-0.973555, 129, 225, 192, 352
-0.973581, 25, 1, 88, 128
-0.973673, 289, 65, 416, 128
-0.973696, 129, 1, 256, 64
-0.973709, 389, 65, 420, 192
-0.973732, 185, 1, 248, 256
-0.973784, 97, 129, 160, 256
-0.973795, 341, 1, 372, 128
-0.973839, 385, 65, 416, 128
-0.973925, 465, 1, 496, 128
-0.973931, 289, 1, 352, 64
-0.974041, 121, 49, 152, 176
-0.974226, 177, 105, 240, 168
-0.974327, 345, 49, 376, 176
-0.97439, 233, 193, 296, 320
-0.974455, 445, 17, 476, 144
-0.97452, 109, 81, 140, 208
-0.974551, 1, 137, 64, 200
-0.974584, 17, 201, 80, 264
-0.974671, 425, 1, 456, 128
-0.974732, 445, 49, 476, 112
-0.974738, 341, 25, 372, 88
-0.97474, 345, 209, 408, 336
-0.974836, 321, 209, 384, 336
-0.974847, 1, 193, 64, 320
-0.974852, 465, 33, 496, 96
-0.974884, 241, 97, 304, 160
-0.974893, 49, 225, 176, 288
-0.975109, 433, 17, 464, 80
-0.975122, 185, 25, 248, 88
-0.975139, 25, 81, 56, 208
-0.975205, 145, 49, 208, 112
-0.975268, 129, 153, 192, 216
-0.9753, 185, 241, 248, 368
-0.975343, 401, 161, 464, 224
-0.975369, 9, 169, 72, 232
-0.975444, 57, 41, 120, 104
-0.975495, 65, 9, 192, 72
-0.975512, 177, 1, 208, 64
-0.975592, 165, 1, 196, 64
-0.975727, 169, 145, 232, 272
-0.975869, 153, 1, 184, 64
-0.975962, 265, 57, 328, 120
-0.976072, 49, 33, 176, 96
-0.976099, 361, 33, 392, 160
-0.976133, 33, 25, 96, 88
-0.976135, 193, 1, 320, 64
-0.97614, 201, 161, 264, 224
-0.976257, 125, 73, 156, 136
-0.976289, 233, 241, 296, 368
-0.976346, 457, 1, 488, 64
-0.97638, 433, 129, 496, 256
-0.976461, 153, 113, 216, 176
-0.976597, 1, 145, 64, 272
-0.97661, 333, 49, 364, 176
-0.976668, 345, 73, 376, 136
-0.976705, 97, 169, 160, 232
-0.976842, 273, 121, 336, 184
-0.976904, 173, 1, 204, 128
-0.976987, 325, 25, 356, 88
-0.976989, 297, 129, 360, 375
-0.977128, 253, 1, 284, 128
-0.97717, 201, 97, 232, 224
-0.977221, 345, 105, 408, 168
-0.977265, 153, 153, 216, 216
-0.97737, 33, 57, 160, 120
-0.97754, 337, 169, 400, 232
-0.977616, 1, 73, 64, 136
-0.977656, 369, 33, 432, 96
-0.977707, 417, 129, 480, 192
-0.977735, 329, 129, 392, 375
-0.977736, 145, 97, 208, 352
-0.977738, 397, 121, 428, 184
-0.977748, 409, 1, 440, 128
-0.978223, 69, 193, 100, 320
-0.97827, 129, 25, 256, 88
-0.978289, 373, 1, 404, 128
-0.97829, 265, 33, 328, 96
-0.978332, 57, 1, 120, 64
-0.978417, 1, 97, 128, 160
-0.978449, 137, 57, 168, 120
-0.978569, 133, 97, 164, 224
-0.978688, 289, 1, 416, 64
-0.978689, 33, 1, 96, 64
-0.978718, 241, 9, 368, 72
-0.978767, 25, 49, 88, 112
-0.978769, 289, 145, 352, 272
-0.978792, 65, 105, 128, 168
-0.978814, 113, 81, 240, 144
-0.978963, 337, 121, 464, 184
-0.979008, 65, 129, 128, 375
-0.97909, 149, 33, 180, 96
-0.979189, 357, 9, 388, 72
-0.979202, 1, 249, 128, 312
-0.979216, 393, 1, 424, 128
-0.979239, 261, 1, 292, 64
-0.979374, 241, 97, 368, 160
-0.979382, 33, 81, 64, 144
-0.979403, 189, 1, 220, 64
-0.979466, 361, 129, 424, 375
-0.979468, 197, 17, 228, 144
-0.979503, 369, 145, 496, 208
-0.979574, 281, 233, 344, 296
-0.979589, 285, 1, 316, 64
-0.979648, 365, 81, 396, 208
-0.979653, 185, 193, 248, 320
-0.979654, 89, 145, 152, 208
-0.979657, 393, 89, 424, 152
-0.979693, 413, 1, 444, 64
-0.979714, 81, 105, 208, 168
-0.979738, 337, 209, 400, 272
-0.979839, 81, 313, 144, 375
-0.979931, 113, 49, 240, 112
-0.979942, 157, 17, 188, 144
-0.979979, 33, 105, 96, 168
-0.980031, 361, 97, 392, 160
-0.980076, 289, 49, 352, 112
-0.980192, 73, 25, 104, 88
-0.980247, 433, 1, 496, 375
-0.980248, 397, 65, 428, 128
-0.980259, 277, 49, 308, 176
-0.980347, 413, 65, 444, 192
-0.980369, 33, 169, 160, 232
-0.980427, 193, 73, 320, 136
-0.980443, 305, 1, 336, 128
-0.980526, 1, 65, 32, 192
-0.980594, 273, 33, 400, 96
-0.980619, 381, 89, 412, 152
-0.980629, 121, 185, 152, 248
-0.980635, 145, 217, 208, 280
-0.980679, 101, 89, 132, 152
-0.980688, 281, 193, 344, 256
-0.980696, 137, 313, 200, 375
-0.98071, 409, 65, 440, 128
-0.980764, 241, 73, 368, 136
-0.980806, 373, 65, 404, 128
-0.98082, 369, 153, 432, 216
-0.980832, 393, 113, 424, 240
-0.980845, 217, 225, 280, 288
-0.980905, 205, 1, 236, 64
-0.980911, 409, 121, 440, 184
-0.980918, 121, 177, 184, 240
-0.980947, 377, 49, 408, 176
-0.980965, 181, 97, 212, 224
-0.981005, 93, 1, 124, 128
-0.98101, 369, 1, 432, 375
-0.981154, 321, 25, 448, 88
-0.981315, 389, 1, 420, 64
-0.981351, 133, 145, 164, 272
-0.981444, 177, 97, 240, 352
-0.981541, 201, 81, 264, 144
-0.98159, 45, 65, 76, 192
-0.981642, 13, 97, 44, 224
-0.981645, 177, 145, 240, 208
-0.981673, 329, 129, 392, 192
-0.981723, 257, 209, 320, 272
-0.981764, 393, 1, 456, 375
-0.981832, 57, 49, 88, 112
-0.981849, 25, 97, 88, 352
-0.981881, 193, 105, 320, 168
-0.981919, 341, 1, 372, 64
-0.981928, 17, 33, 48, 160
-0.98193, 313, 185, 376, 248
-0.982002, 329, 1, 392, 375
-0.982024, 289, 81, 320, 208
-0.982035, 93, 1, 124, 64
-0.982104, 113, 153, 240, 216
-0.9822, 349, 97, 380, 160
-0.982229, 417, 97, 448, 160
-0.982308, 293, 73, 324, 136
-0.982315, 1, 121, 128, 184
-0.982341, 193, 185, 256, 248
-0.982368, 393, 97, 456, 352
-0.982391, 41, 169, 72, 232
-0.982413, 249, 97, 312, 352
-0.982428, 353, 33, 384, 96
-0.982455, 169, 297, 232, 360
-0.98253, 385, 137, 416, 200
-0.98253, 325, 1, 356, 128
-0.982562, 369, 1, 400, 64
-0.982607, 289, 201, 416, 264
-0.982641, 369, 97, 496, 160
-0.982659, 129, 105, 256, 168
-0.982714, 81, 73, 144, 136
-0.982733, 209, 97, 272, 352
-0.982745, 65, 33, 96, 160
-0.982748, 281, 241, 344, 368
-0.982755, 273, 129, 400, 192
-0.98277, 425, 73, 456, 136
-0.98283, 309, 97, 340, 160
-0.982847, 105, 193, 136, 256
-0.982873, 369, 193, 432, 256
-0.98288, 277, 73, 308, 136
-0.982912, 121, 161, 152, 288
-0.982929, 137, 1, 200, 375
-0.982987, 89, 129, 120, 256
-0.982991, 169, 49, 232, 112
-0.983016, 181, 49, 212, 176
-0.983037, 257, 249, 320, 312
-0.983038, 333, 73, 364, 136
-0.983077, 225, 153, 288, 216
-0.98308, 17, 9, 144, 72
-0.983095, 137, 81, 168, 144
-0.983115, 65, 81, 192, 144
-0.983132, 93, 193, 124, 256
-0.983236, 81, 1, 112, 128
-0.983249, 289, 97, 320, 160
-0.983262, 217, 113, 280, 176
-0.983273, 81, 177, 208, 240
-0.983277, 57, 65, 120, 128
-0.98329, 93, 225, 124, 352
-0.983406, 161, 25, 192, 88
-0.983418, 401, 1, 432, 64
-0.983418, 45, 73, 76, 136
-0.98345, 1, 33, 128, 96
-0.983614, 293, 1, 324, 128
-0.983667, 89, 121, 152, 184
-0.983678, 81, 209, 112, 336
-0.983698, 5, 113, 36, 176
-0.983719, 65, 241, 96, 304
-0.983729, 257, 25, 288, 88
-0.983813, 153, 97, 184, 224
-0.983835, 49, 241, 80, 304
-0.983847, 313, 217, 376, 280
-0.983905, 49, 225, 80, 352
-0.983982, 97, 313, 224, 375
-0.98401, 41, 313, 104, 375
-0.98401, 445, 1, 476, 64
-0.984043, 85, 233, 116, 296
-0.984054, 169, 185, 232, 248
-0.984169, 49, 1, 112, 375
-0.98418, 209, 209, 336, 272
-0.984192, 145, 297, 272, 360
-0.984274, 365, 33, 396, 96
-0.98428, 185, 241, 248, 304
-0.98428, 217, 281, 280, 344
-0.984301, 153, 89, 216, 152
-0.984327, 17, 1, 80, 256
-0.984336, 17, 1, 80, 375
-0.984351, 257, 289, 320, 352
-0.984394, 225, 257, 288, 320
-0.984428, 313, 9, 344, 72
-0.984434, 209, 33, 272, 96
-0.984446, 161, 233, 288, 296
-0.984499, 317, 81, 348, 208
-0.984511, 113, 57, 144, 120
-0.984532, 289, 177, 416, 240
-0.984548, 209, 249, 336, 312
-0.984569, 217, 1, 248, 64
-0.984612, 289, 1, 352, 375
-0.984612, 241, 1, 272, 128
-0.984711, 177, 1, 240, 375
-0.984744, 129, 113, 160, 176
-0.984768, 97, 81, 128, 208
-0.984788, 209, 153, 336, 216
-0.984849, 73, 1, 136, 256
-0.984961, 1, 273, 128, 336
-0.984968, 49, 129, 176, 192
-0.985085, 193, 49, 320, 112
-0.98523, 457, 49, 488, 176
-0.98536, 29, 241, 60, 368
-0.985365, 177, 81, 240, 144
-0.985395, 85, 113, 116, 176
-0.985413, 289, 25, 352, 88
-0.985464, 129, 209, 256, 272
-0.985483, 105, 1, 168, 375
-0.985489, 353, 201, 480, 264
-0.985503, 353, 97, 384, 224
-0.985522, 101, 113, 132, 176
-0.985553, 329, 97, 360, 160
-0.985614, 213, 97, 244, 224
-0.985632, 37, 249, 68, 312
-0.985644, 381, 113, 412, 240
-0.98568, 77, 145, 108, 272
-0.985691, 1, 113, 32, 240
-0.98572, 17, 81, 48, 144
-0.985723, 421, 113, 452, 240
-0.985729, 113, 201, 176, 264
-0.985762, 273, 25, 304, 88
-0.985792, 265, 1, 328, 375
-0.985828, 277, 97, 308, 160
-0.985845, 201, 177, 232, 240
-0.985849, 113, 105, 144, 168
-0.985857, 233, 1, 296, 375
-0.985923, 369, 169, 496, 232
-0.985937, 105, 305, 168, 368
-0.98594, 69, 169, 100, 232
-0.985943, 265, 17, 296, 144
-0.985945, 133, 225, 164, 288
-0.985948, 69, 201, 100, 264
-0.985967, 257, 241, 384, 304
-0.985968, 49, 161, 80, 288
-0.98598, 433, 161, 496, 224
-0.986013, 85, 161, 116, 224
-0.986039, 321, 249, 384, 312
-0.986266, 29, 105, 60, 168
-0.986318, 113, 225, 144, 288
-0.98636, 225, 97, 256, 224
-0.986392, 141, 161, 172, 224
-0.986402, 433, 41, 464, 104
-0.986419, 49, 281, 112, 344
-0.986492, 409, 193, 472, 320
-0.986535, 365, 145, 396, 272
-0.986542, 37, 113, 68, 240
-0.986593, 81, 209, 112, 272
-0.986637, 297, 121, 328, 184
-0.986673, 17, 313, 144, 375
-0.986736, 425, 97, 488, 352
-0.986747, 221, 145, 252, 272
-0.986769, 177, 273, 304, 336
-0.986796, 5, 73, 36, 136
-0.986812, 53, 201, 84, 264
-0.986819, 369, 209, 432, 336
-0.986835, 457, 57, 488, 120
-0.986857, 65, 145, 96, 272
-0.986862, 197, 153, 228, 216
-0.986879, 193, 281, 256, 344
-0.986955, 181, 105, 212, 168
-0.986994, 61, 241, 92, 368
-0.986997, 273, 97, 336, 352
-0.987025, 65, 129, 128, 192
-0.987039, 425, 65, 456, 192
-0.987093, 281, 273, 344, 336
-0.987107, 321, 153, 448, 216
-0.987144, 457, 129, 488, 192
-0.987162, 321, 57, 352, 120
-0.987163, 277, 1, 308, 128
-0.987171, 301, 1, 332, 64
-0.987228, 249, 97, 280, 224
-0.987229, 469, 9, 500, 72
-0.987242, 25, 257, 56, 320
-0.98727, 337, 129, 368, 256
-0.987307, 225, 129, 352, 192
-0.987337, 349, 161, 380, 288
-0.987393, 213, 169, 244, 232
-0.987401, 169, 49, 200, 176
-0.987423, 201, 137, 264, 200
-0.987453, 189, 25, 220, 88
-0.987575, 297, 121, 360, 184
-0.987633, 373, 121, 404, 184
-0.987654, 21, 129, 52, 192
-0.987698, 305, 81, 336, 208
-0.987748, 185, 1, 216, 128
-0.987759, 217, 193, 248, 320
-0.98782, 209, 1, 272, 375
-0.987888, 161, 145, 288, 208
-0.987903, 385, 161, 416, 224
-0.987906, 113, 257, 240, 320
-0.987917, 85, 81, 116, 208
-0.987976, 141, 225, 172, 352
-0.988003, 289, 193, 320, 320
-0.988037, 121, 1, 152, 128
-0.988148, 345, 49, 408, 80
-0.988204, 217, 17, 248, 144
-0.988208, 197, 145, 228, 272
-0.988258, 145, 145, 176, 272
-0.988277, 165, 97, 196, 224
-0.988296, 73, 121, 104, 184
-0.988302, 193, 97, 224, 160
-0.988369, 209, 177, 336, 240
-0.988371, 13, 265, 44, 328
-0.988413, 193, 297, 320, 360
-0.988448, 53, 1, 84, 128
-0.988475, 173, 25, 204, 88
-0.988536, 81, 201, 208, 264
-0.988545, 277, 49, 308, 112
-0.988547, 81, 1, 112, 64
-0.988626, 29, 169, 60, 232
-0.98865, 25, 49, 56, 112
-0.988662, 361, 193, 392, 320
-0.988692, 109, 161, 140, 288
-0.988694, 353, 61, 416, 92
-0.988702, 205, 225, 236, 352
-0.988712, 249, 1, 280, 64
-0.988748, 57, 9, 88, 72
-0.988753, 25, 129, 56, 256
-0.988757, 85, 25, 116, 88
-0.988774, 109, 1, 140, 128
-0.988834, 325, 1, 356, 64
-0.98886, 17, 201, 48, 264
-0.988861, 389, 41, 420, 104
-0.988914, 113, 209, 144, 336
-0.988914, 361, 9, 424, 40
-0.988929, 241, 145, 272, 272
-0.988934, 45, 49, 76, 112
-0.989003, 185, 161, 216, 224
-0.989029, 433, 145, 464, 272
-0.989048, 37, 17, 68, 144
-0.989067, 161, 225, 192, 352
-0.989071, 81, 1, 144, 375
-0.989091, 437, 65, 468, 192
-0.989108, 277, 193, 308, 320
-0.989141, 421, 49, 452, 112
-0.98916, 369, 241, 496, 368
-0.9892, 465, 97, 496, 224
-0.989226, 225, 89, 480, 152
-0.989313, 377, 41, 408, 104
-0.98932, 221, 145, 252, 208
-0.989348, 125, 25, 156, 88
-0.989349, 361, 89, 424, 120
-0.989362, 257, 273, 384, 336
-0.989373, 325, 129, 356, 256
-0.989375, 193, 225, 224, 352
-0.989385, 249, 1, 312, 32
-0.989448, 157, 217, 188, 280
-0.989465, 121, 161, 152, 224
-0.989561, 433, 29, 496, 60
-0.98958, 137, 17, 200, 48
-0.98958, 261, 81, 292, 208
-0.98958, 317, 177, 348, 304
-0.989615, 237, 97, 268, 224
-0.989639, 329, 69, 392, 100
-0.989662, 129, 209, 160, 336
-0.989665, 97, 1, 352, 64
-0.9897, 409, 17, 472, 48
-0.98971, 321, 53, 384, 84
-0.989716, 137, 29, 200, 60
-0.989723, 1, 117, 64, 148
-0.989756, 433, 49, 496, 80
-0.989788, 193, 25, 320, 88
-0.989868, 1, 217, 128, 280
-0.989881, 409, 1, 472, 32
-0.989885, 353, 73, 416, 104
-0.989889, 185, 1, 248, 32
-0.98989, 321, 233, 448, 296
-0.989905, 329, 81, 392, 112
-0.989911, 333, 177, 364, 304
-0.989935, 1, 145, 128, 208
-0.989957, 385, 125, 448, 156
-0.989968, 97, 97, 160, 128
-0.99001, 337, 5, 400, 36
-0.990012, 161, 1, 224, 32
-0.990013, 153, 157, 216, 188
-0.990086, 353, 129, 416, 160
-0.990108, 305, 177, 336, 304
-0.99011, 385, 17, 448, 48
-0.990121, 385, 5, 448, 36
-0.990138, 249, 209, 280, 336
-0.990139, 89, 189, 152, 220
-0.99014, 113, 57, 176, 88
-0.990148, 161, 17, 224, 48
-0.990149, 97, 109, 160, 140
-0.990157, 229, 209, 260, 336
-0.990166, 273, 97, 304, 224
-0.990209, 313, 1, 376, 32
-0.990216, 105, 77, 168, 108
-0.990217, 265, 13, 328, 44
-0.990222, 49, 197, 112, 228
-0.990223, 433, 177, 496, 304
-0.990259, 393, 57, 456, 88
-0.990281, 225, 1, 288, 32
-0.99029, 225, 1, 480, 64
-0.990305, 161, 29, 224, 60
-0.990322, 321, 17, 384, 48
-0.990328, 153, 41, 216, 72
-0.990347, 289, 81, 352, 112
-0.990362, 105, 229, 168, 260
-0.990402, 433, 13, 496, 44
-0.99042, 37, 177, 68, 304
-0.990446, 433, 61, 496, 92
-0.990484, 289, 25, 352, 56
-0.99049, 129, 177, 256, 240
-0.990493, 453, 129, 484, 256
-0.990526, 265, 89, 328, 120
-0.990579, 1, 209, 64, 240
-0.990583, 129, 165, 192, 196
-0.990589, 233, 49, 264, 176
-0.9906, 209, 145, 240, 272
-0.9906, 25, 205, 88, 236
-0.990604, 409, 41, 472, 72
-0.990636, 129, 41, 192, 72
-0.990681, 297, 41, 360, 72
-0.990709, 41, 245, 104, 276
-0.990731, 49, 249, 176, 312
-0.990752, 17, 53, 80, 84
-0.990753, 329, 37, 392, 68
-0.990758, 1, 193, 32, 320
-0.990772, 137, 53, 200, 84
-0.990785, 289, 13, 352, 44
-0.990792, 49, 341, 112, 372
-0.990808, 65, 117, 128, 148
-0.990809, 265, 161, 296, 288
-0.990838, 369, 45, 432, 76
-0.990853, 1, 77, 64, 108
-0.99088, 1, 129, 64, 160
-0.990887, 385, 113, 448, 144
-0.990914, 1, 97, 500, 160
-0.990927, 385, 93, 448, 124
-0.99095, 393, 69, 456, 100
-0.991028, 201, 181, 264, 212
-0.991081, 13, 193, 44, 320
-0.991101, 233, 33, 296, 64
-0.991102, 41, 133, 104, 164
-0.991113, 129, 69, 192, 100
-0.991115, 1, 105, 64, 136
-0.991135, 265, 101, 328, 132
-0.991141, 113, 185, 176, 216
-0.991145, 293, 129, 324, 256
-0.991164, 169, 169, 232, 200
-0.991166, 25, 93, 88, 124
-0.991168, 25, 257, 88, 288
-0.99119, 201, 161, 264, 192
-0.99119, 65, 237, 128, 268
-0.991207, 417, 105, 480, 136
-0.991208, 329, 97, 392, 128
-0.991209, 377, 161, 408, 288
-0.991226, 257, 37, 320, 68
-0.991245, 409, 29, 472, 60
-0.991288, 129, 97, 192, 128
-0.991296, 1, 273, 64, 304
-0.991317, 433, 1, 496, 32
-0.991325, 265, 25, 328, 56
-0.991344, 25, 117, 88, 148
-0.991346, 289, 101, 352, 132
-0.991352, 17, 241, 48, 368
-0.991366, 33, 33, 96, 64
-0.991369, 97, 233, 224, 296
-0.991381, 265, 61, 328, 92
-0.991411, 273, 1, 336, 32
-0.991423, 225, 65, 480, 128
-0.991427, 281, 137, 344, 168
-0.991429, 265, 77, 328, 108
-0.991445, 81, 281, 208, 344
-0.991458, 121, 113, 184, 144
-0.991458, 73, 337, 136, 368
-0.991464, 417, 117, 480, 148
-0.991487, 57, 9, 120, 40
-0.991493, 177, 241, 208, 368
-0.991506, 137, 1, 200, 32
-0.991519, 161, 113, 224, 144
-0.991548, 297, 61, 360, 92
-0.991552, 257, 49, 320, 80
-0.991553, 41, 69, 104, 100
-0.991554, 113, 29, 176, 60
-0.991557, 121, 97, 152, 224
-0.991576, 233, 105, 296, 136
-0.991576, 81, 25, 144, 56
-0.991593, 193, 33, 256, 64
-0.991604, 17, 65, 80, 96
-0.991604, 81, 129, 144, 160
-0.99163, 385, 137, 448, 168
-0.991632, 389, 161, 420, 288
-0.991633, 97, 33, 352, 96
-0.991639, 241, 89, 304, 120
-0.991641, 89, 177, 152, 208
-0.991643, 385, 81, 448, 112
-0.991651, 241, 61, 304, 92
-0.991659, 233, 45, 296, 76
-0.99167, 249, 49, 280, 176
-0.991684, 57, 49, 120, 80
-0.991722, 89, 13, 152, 44
-0.991727, 65, 185, 128, 216
-0.991737, 337, 181, 400, 212
-0.991759, 225, 13, 288, 44
-0.991766, 209, 109, 272, 140
-0.991776, 65, 37, 128, 68
-0.991796, 129, 81, 192, 112
-0.991811, 177, 153, 240, 184
-0.991811, 97, 177, 128, 304
-0.991814, 241, 77, 304, 108
-0.991832, 105, 45, 168, 76
-0.991845, 297, 125, 360, 156
-0.991849, 369, 205, 432, 236
-0.991852, 265, 241, 296, 368
-0.991854, 377, 157, 440, 188
-0.991854, 41, 229, 104, 260
-0.991863, 33, 233, 288, 296
-0.991867, 57, 173, 120, 204
-0.99188, 305, 277, 368, 308
-0.991884, 409, 129, 472, 160
-0.991919, 425, 165, 488, 196
-0.991958, 65, 105, 320, 168
-0.992016, 253, 145, 284, 272
-0.9921, 305, 257, 432, 320
-0.992151, 353, 49, 384, 80
-0.992171, 389, 73, 420, 104
-0.992172, 161, 1, 192, 32
-0.992211, 377, 57, 408, 88
-0.992213, 117, 81, 148, 112
-0.992214, 457, 33, 488, 64
-0.992226, 125, 61, 156, 92
-0.992246, 341, 57, 372, 88
-0.992257, 437, 21, 468, 52
-0.992304, 369, 1, 400, 32
-0.992305, 133, 45, 164, 76
-0.992308, 449, 53, 480, 84
-0.992335, 345, 69, 376, 100
-0.992336, 369, 69, 400, 100
-0.992349, 389, 1, 420, 32
-0.992351, 269, 1, 300, 32
-0.992359, 341, 45, 372, 76
-0.992374, 109, 97, 140, 128
-0.99239, 141, 29, 172, 60
-0.9924, 401, 1, 432, 32
-0.992402, 21, 109, 52, 140
-0.992404, 365, 53, 396, 84
-0.992419, 421, 17, 452, 48
-0.992431, 49, 113, 80, 240
-0.992439, 149, 17, 180, 48
-0.992474, 377, 81, 408, 112
-0.992478, 73, 97, 104, 224
-0.992481, 369, 225, 496, 288
-0.992494, 409, 121, 440, 152
-0.992512, 169, 17, 200, 48
-0.992512, 361, 81, 392, 112
-0.99253, 113, 185, 144, 216
-0.992555, 113, 109, 144, 140
-0.992556, 69, 45, 100, 76
-0.992563, 41, 201, 72, 232
-0.992582, 349, 1, 380, 32
-0.992585, 101, 109, 132, 140
-0.992598, 81, 29, 112, 60
-0.9926, 357, 69, 388, 100
-0.992603, 5, 209, 36, 240
-0.992611, 97, 65, 352, 128
-0.992615, 273, 153, 400, 216
-0.992633, 157, 157, 188, 188
-0.992639, 25, 205, 56, 236
-0.992641, 45, 77, 76, 108
-0.992644, 93, 189, 124, 220
-0.992644, 389, 61, 420, 92
-0.99265, 397, 129, 428, 160
-0.992651, 409, 13, 440, 44
-0.992657, 29, 97, 60, 128
-0.992666, 333, 25, 364, 56
-0.992668, 89, 17, 120, 48
-0.99267, 9, 113, 40, 144
-0.992676, 77, 193, 108, 224
-0.992682, 455, 25, 470, 88
-0.992685, 61, 197, 92, 228
-0.992685, 1, 193, 500, 256
-0.992688, 57, 61, 88, 92
-0.99271, 205, 177, 236, 208
-0.992713, 409, 97, 440, 128
-0.992733, 129, 73, 160, 104
-0.992734, 329, 13, 360, 44
-0.992737, 349, 17, 380, 48
-0.992742, 225, 161, 256, 192
-0.992743, 337, 9, 464, 40
-0.992746, 437, 45, 468, 76
-0.992748, 177, 1, 208, 32
-0.992751, 73, 345, 104, 375
-0.992754, 261, 13, 292, 44
-0.992756, 301, 13, 332, 44
-0.992766, 401, 77, 432, 108
-0.992769, 273, 13, 304, 44
-0.992775, 401, 61, 432, 92
-0.99278, 121, 93, 152, 124
-0.992781, 317, 25, 348, 56
-0.992804, 469, 41, 500, 72
-0.992805, 457, 21, 488, 52
-0.992808, 461, 53, 492, 84
-0.992814, 413, 1, 444, 32
-0.992823, 385, 157, 416, 188
-0.99283, 53, 49, 84, 80
-0.992831, 257, 1, 288, 32
-0.992839, 105, 121, 136, 152
-0.992839, 145, 41, 176, 72
-0.992844, 93, 121, 124, 152
-0.992844, 189, 1, 220, 32
-0.992844, 33, 81, 64, 112
-0.992846, 425, 105, 456, 136
-0.992858, 397, 93, 428, 124
-0.992861, 165, 37, 196, 68
-0.992871, 469, 29, 500, 60
-0.992873, 201, 189, 232, 220
-0.992873, 289, 5, 320, 36
-0.992873, 141, 165, 172, 196
-0.992878, 137, 57, 168, 88
-0.992878, 257, 297, 384, 360
-0.992889, 317, 85, 348, 116
-0.99289, 85, 329, 116, 360
-0.992893, 381, 125, 412, 156
-0.992895, 329, 49, 360, 80
-0.992896, 257, 37, 288, 68
-0.992898, 441, 33, 472, 64
-0.992902, 241, 1, 272, 32
-0.992905, 397, 13, 428, 44
-0.992911, 449, 9, 480, 40
-0.992915, 153, 29, 184, 60
-0.992922, 345, 81, 376, 112
-0.992927, 257, 25, 288, 56
-0.992947, 273, 89, 304, 120
-0.99295, 153, 53, 184, 84
-0.992954, 361, 13, 392, 44
-0.992956, 313, 13, 344, 44
-0.99296, 349, 97, 380, 128
-0.992961, 225, 1, 256, 32
-0.992966, 69, 33, 100, 64
-0.992967, 1, 65, 256, 128
-0.99297, 125, 181, 156, 212
-0.992972, 277, 57, 308, 88
-0.992977, 1, 25, 256, 88
-0.992978, 125, 113, 156, 144
-0.992982, 193, 209, 448, 272
-0.992988, 325, 37, 356, 68
-0.992991, 1, 73, 500, 136
-0.992994, 393, 141, 424, 172
-0.992994, 145, 73, 176, 104
-0.992998, 437, 61, 468, 92
-0.992998, 293, 77, 324, 108
-0.992998, 41, 257, 72, 288
-0.992999, 433, 5, 464, 36
-0.99301, 361, 97, 392, 128
-0.993025, 53, 249, 84, 280
-0.993027, 397, 45, 428, 76
-0.993032, 201, 165, 232, 196
-0.993036, 257, 49, 288, 80
-0.993038, 121, 229, 152, 260
-0.99305, 25, 125, 56, 156
-0.993052, 329, 97, 360, 128
-0.993054, 41, 133, 72, 164
-0.993056, 357, 37, 388, 68
-0.993058, 181, 13, 212, 44
-0.993058, 385, 45, 416, 76
-0.993062, 113, 69, 144, 100
-0.993065, 97, 129, 224, 192
-0.993068, 65, 245, 96, 276
-0.993075, 1, 25, 500, 88
-0.993119, 161, 1, 288, 32
-0.993227, 321, 97, 448, 128
-0.993248, 257, 25, 500, 88
-0.99334, 1, 257, 256, 320
-0.993387, 1, 1, 256, 64
-0.993438, 225, 129, 480, 192
-0.993537, 355, 57, 370, 120
-0.993585, 1, 1, 500, 64
-0.993588, 363, 57, 378, 120
-0.993623, 1, 49, 500, 112
-0.993637, 461, 25, 476, 88
-0.993717, 449, 17, 464, 80
-0.993733, 415, 89, 430, 152
-0.99381, 135, 49, 150, 112
-0.99384, 1, 233, 500, 296
-0.993887, 387, 65, 402, 128
-0.9939, 193, 233, 448, 296
-0.993935, 289, 81, 416, 112
-0.993958, 117, 89, 132, 152
-0.994025, 97, 209, 352, 272
-0.994071, 273, 53, 400, 84
-0.994072, 33, 185, 288, 248
-0.994096, 455, 49, 470, 112
-0.994133, 409, 89, 424, 152
-0.994154, 49, 233, 176, 264
-0.994169, 1, 129, 256, 192
-0.994169, 287, 1, 302, 64
-0.994253, 129, 65, 144, 128
-0.994274, 257, 1, 384, 32
-0.994274, 337, 61, 464, 92
-0.99434, 265, 1, 280, 64
-0.994357, 143, 33, 158, 96
-0.994382, 421, 97, 436, 160
-0.994394, 349, 57, 364, 120
-0.994407, 369, 49, 496, 80
-0.994427, 65, 29, 192, 60
-0.994432, 343, 57, 358, 120
-0.99446, 187, 1, 202, 64
-0.994513, 459, 1, 474, 64
-0.994547, 369, 21, 496, 52
-0.994568, 393, 57, 408, 120
-0.99457, 129, 145, 384, 208
-0.994664, 369, 57, 384, 120
-0.994678, 193, 1, 208, 64
-0.994689, 123, 73, 138, 136
-0.994718, 449, 41, 464, 104
-0.994736, 209, 1, 336, 32
-0.994768, 149, 17, 164, 80
-0.99479, 19, 105, 34, 168
-0.994822, 137, 81, 152, 144
-0.994828, 1, 109, 128, 140
-0.994831, 411, 121, 426, 184
-0.994834, 167, 1, 182, 64
-0.994836, 305, 133, 432, 164
-0.994859, 193, 185, 448, 248
-0.994872, 469, 25, 484, 88
-0.994942, 351, 33, 366, 96
-0.995005, 1, 305, 256, 368
-0.995033, 33, 65, 160, 96
-0.995056, 289, 69, 416, 100
-0.995076, 279, 1, 294, 64
-0.99508, 381, 81, 396, 144
-0.995087, 401, 65, 416, 128
-0.995089, 375, 57, 390, 120
-0.99509, 337, 37, 464, 68
-0.995114, 95, 1, 110, 64
-0.995124, 403, 129, 418, 192
-0.995127, 293, 1, 308, 64
-0.995138, 97, 113, 224, 144
-0.995174, 29, 97, 44, 160
-0.995179, 225, 153, 480, 216
-0.995215, 17, 93, 144, 124
-0.995277, 353, 85, 480, 116
-0.995282, 359, 33, 374, 96
-0.995298, 479, 1, 494, 64
-0.995319, 381, 33, 412, 288
-0.995338, 457, 1, 488, 256
-0.995346, 49, 53, 176, 84
-0.995371, 161, 105, 288, 136
-0.995373, 181, 1, 196, 64
-0.995379, 273, 93, 400, 124
-0.995386, 421, 73, 436, 136
-0.995398, 343, 25, 358, 88
-0.995405, 353, 73, 480, 104
-0.995415, 363, 1, 378, 64
-0.995417, 85, 17, 100, 80
-0.995421, 81, 89, 208, 120
-0.995429, 81, 1, 208, 32
-0.995448, 427, 9, 442, 72
-0.995453, 159, 9, 174, 72
-0.995457, 107, 97, 122, 160
-0.995459, 355, 81, 370, 144
-0.995461, 393, 145, 408, 208
-0.995467, 443, 25, 458, 88
-0.995477, 143, 73, 158, 136
-0.995486, 161, 273, 416, 336
-0.995488, 479, 33, 494, 96
-0.995493, 177, 13, 304, 44
-0.995523, 173, 9, 188, 72
-0.995527, 321, 49, 448, 80
-0.995528, 65, 41, 192, 72
-0.99553, 1, 169, 500, 232
-0.995533, 75, 33, 90, 96
-0.995556, 129, 33, 256, 64
-0.995559, 409, 1, 424, 64
-0.995564, 403, 89, 418, 152
-0.995572, 393, 1, 408, 64
-0.995605, 373, 1, 388, 64
-0.995611, 1, 137, 500, 200
-0.995614, 301, 97, 316, 160
-0.995616, 55, 169, 70, 232
-0.995629, 365, 97, 380, 160
-0.995637, 11, 113, 26, 176
-0.995655, 289, 13, 416, 44
-0.995657, 161, 161, 288, 192
-0.995671, 409, 57, 424, 120
-0.995672, 39, 81, 54, 144
-0.995675, 443, 57, 458, 120
-0.995684, 365, 33, 380, 96
-0.995696, 33, 153, 288, 216
-0.9957, 241, 33, 368, 64
-0.995716, 465, 1, 480, 64
-0.995717, 461, 49, 476, 112
-0.995725, 445, 1, 476, 256
-0.995725, 337, 121, 464, 152
-0.995727, 69, 41, 84, 104
-0.995744, 113, 169, 240, 200
-0.995745, 295, 73, 310, 136
-0.995751, 473, 1, 488, 64
-0.995757, 375, 89, 390, 152
-0.995782, 381, 49, 396, 112
-0.995785, 419, 1, 434, 64
-0.995805, 113, 73, 240, 104
-0.99581, 349, 97, 364, 160
-0.995824, 187, 33, 202, 96
-0.995851, 357, 1, 372, 64
-0.995859, 225, 13, 352, 44
-0.995863, 415, 65, 430, 128
-0.995866, 161, 33, 176, 96
-0.995868, 73, 241, 88, 304
-0.995873, 129, 97, 144, 160
-0.995874, 215, 1, 230, 64
-0.995881, 57, 249, 72, 312
-0.995883, 153, 49, 168, 112
-0.995899, 157, 1, 188, 256
-0.995903, 329, 25, 344, 88
-0.995906, 257, 141, 384, 172
-0.995906, 469, 1, 500, 256
-0.995917, 401, 1, 432, 256
-0.995918, 369, 161, 496, 192
-0.99592, 113, 157, 240, 188
-0.995922, 113, 101, 240, 132
-0.995929, 133, 185, 148, 248
-0.995945, 81, 17, 208, 48
-0.995949, 295, 97, 310, 160
-0.99595, 117, 65, 132, 128
-0.995955, 63, 49, 78, 112
-0.995977, 117, 185, 132, 248
-0.995978, 397, 89, 412, 152
-0.996015, 419, 121, 434, 184
-0.996019, 65, 161, 192, 192
-0.996041, 193, 89, 320, 120
-0.996043, 129, 41, 144, 104
-0.996044, 55, 49, 70, 112
-0.996044, 33, 125, 160, 156
-0.996047, 209, 1, 224, 64
-0.996083, 1, 205, 128, 236
-0.996094, 425, 1, 456, 256
-0.996104, 49, 73, 64, 136
-0.99612, 169, 1, 200, 256
-0.996121, 221, 1, 236, 64
-0.996222, 241, 65, 368, 96
-0.996229, 311, 97, 326, 160
-0.996238, 337, 9, 352, 72
-0.996259, 269, 25, 284, 88
-0.996274, 337, 33, 352, 96
-0.996277, 83, 201, 98, 264
-0.996279, 199, 1, 214, 64
-0.99628, 63, 209, 78, 272
-0.996299, 209, 153, 336, 184
-0.996299, 369, 273, 496, 336
-0.996307, 387, 41, 402, 104
-0.996313, 43, 257, 58, 320
-0.996313, 137, 25, 152, 88
-0.99632, 403, 1, 418, 64
-0.996321, 97, 193, 112, 256
-0.996326, 67, 241, 82, 304
-0.996336, 189, 1, 220, 256
-0.996345, 89, 233, 104, 296
-0.996345, 125, 185, 140, 248
-0.996364, 343, 89, 358, 152
-0.996366, 167, 25, 182, 88
-0.99637, 17, 129, 32, 192
-0.996376, 197, 25, 212, 88
-0.996382, 449, 65, 464, 128
-0.996402, 201, 153, 216, 216
-0.99641, 369, 97, 496, 128
-0.996417, 273, 1, 288, 64
-0.996423, 289, 185, 416, 216
-0.99643, 49, 77, 176, 108
-0.99643, 413, 1, 444, 256
-0.996438, 197, 81, 212, 144
-0.996438, 429, 89, 444, 152
-0.996439, 383, 1, 398, 64
-0.99646, 1, 257, 500, 320
-0.996466, 91, 161, 106, 224
-0.99647, 65, 345, 192, 375
-0.996476, 369, 137, 496, 168
-0.996482, 103, 1, 118, 64
-0.996492, 79, 241, 94, 304
-0.996492, 279, 57, 294, 120
-0.996493, 191, 73, 206, 136
-0.996498, 1, 313, 500, 375
-0.996512, 1, 45, 128, 76
-0.996519, 225, 105, 352, 136
-0.996528, 369, 149, 496, 180
-0.996537, 321, 109, 448, 140
-0.99657, 1, 273, 128, 304
-0.996588, 17, 25, 144, 56
-0.996626, 65, 281, 320, 344
-0.996634, 137, 1, 168, 256
-0.996651, 129, 61, 256, 92
-0.99668, 161, 149, 288, 180
-0.996691, 33, 173, 160, 204
-0.996694, 293, 1, 324, 256
-0.996698, 49, 105, 176, 136
-0.9967, 253, 1, 284, 256
-0.996709, 17, 245, 144, 276
-0.996719, 97, 305, 352, 368
-0.996767, 113, 49, 240, 80
-0.996777, 353, 197, 480, 228
-0.996796, 305, 201, 432, 232
-0.9968, 241, 77, 368, 108
-0.996815, 363, 57, 378, 88
-0.99684, 349, 45, 364, 76
-0.996868, 369, 185, 496, 216
-0.996903, 193, 73, 320, 104
-0.996917, 177, 1, 192, 32
-0.996951, 193, 57, 320, 88
-0.996959, 1, 261, 128, 292
-0.996959, 81, 125, 208, 156
-0.996976, 49, 221, 176, 252
-0.996984, 17, 345, 144, 375
-0.996995, 453, 45, 468, 76
-0.997, 265, 1, 296, 256
-0.997021, 369, 249, 496, 312
-0.997023, 369, 1, 400, 256
-0.997033, 403, 1, 418, 32
-0.997033, 357, 1, 388, 256
-0.997042, 81, 333, 208, 364
-0.997046, 225, 129, 352, 160
-0.997065, 129, 89, 256, 120
-0.997072, 355, 57, 370, 88
-0.997077, 399, 73, 414, 104
-0.997086, 257, 257, 500, 320
-0.997093, 275, 1, 290, 32
-0.997109, 61, 1, 92, 256
-0.997124, 305, 217, 432, 248
-0.997125, 461, 29, 476, 60
-0.997126, 381, 53, 396, 84
-0.997129, 25, 97, 56, 352
-0.99714, 97, 233, 224, 264
-0.997167, 1, 289, 500, 352
-0.997179, 201, 1, 232, 256
-0.99718, 393, 65, 408, 96
-0.997183, 1, 81, 128, 112
-0.997187, 45, 65, 76, 320
-0.997194, 241, 253, 368, 284
-0.997202, 451, 25, 466, 56
-0.997203, 177, 241, 304, 272
-0.997213, 161, 297, 288, 328
-0.997216, 369, 109, 496, 140
-0.997218, 1, 209, 256, 272
-0.997226, 185, 97, 216, 352
-0.997242, 73, 1, 104, 256
-0.997246, 31, 113, 46, 144
-0.997255, 329, 1, 360, 256
-0.997255, 381, 69, 396, 100
-0.997257, 385, 85, 400, 116
-0.997267, 375, 61, 390, 92
-0.997299, 33, 1, 160, 32
-0.997301, 457, 57, 472, 88
-0.997323, 387, 69, 402, 100
-0.997323, 237, 1, 268, 256
-0.99733, 401, 241, 464, 368
-0.997331, 89, 1, 120, 256
-0.997332, 289, 25, 416, 56
-0.997335, 15, 113, 30, 144
-0.997345, 17, 333, 144, 364
-0.997345, 369, 57, 384, 88
-0.997366, 171, 1, 186, 32
-0.997368, 373, 81, 388, 112
-0.997373, 393, 129, 424, 375
-0.997375, 327, 25, 342, 56
-0.997377, 193, 25, 320, 56
-0.99738, 129, 13, 256, 44
-0.997391, 225, 185, 352, 216
-0.997404, 129, 221, 256, 252
-0.997419, 359, 45, 374, 76
-0.997436, 117, 65, 148, 320
-0.997439, 393, 77, 408, 108
-0.997445, 193, 45, 320, 76
-0.997447, 359, 69, 374, 100
-0.997451, 225, 221, 352, 252
-0.997459, 375, 1, 390, 32
-0.997461, 459, 41, 474, 72
-0.997463, 367, 69, 382, 100
-0.997468, 273, 241, 400, 272
-0.99747, 341, 1, 372, 256
-0.997474, 305, 145, 432, 176
-0.997486, 37, 105, 52, 136
-0.997486, 209, 265, 336, 296
-0.997493, 49, 197, 176, 228
-0.997495, 177, 285, 304, 316
-0.997498, 413, 1, 428, 32
-0.997505, 101, 65, 132, 320
-0.997508, 389, 1, 404, 32
-0.997511, 25, 105, 40, 136
-0.997516, 335, 41, 350, 72
-0.997516, 451, 57, 466, 88
-0.997531, 129, 321, 256, 352
-0.997534, 35, 89, 50, 120
-0.997541, 467, 33, 482, 64
-0.997545, 339, 53, 354, 84
-0.997547, 145, 253, 272, 284
-0.997553, 173, 97, 204, 352
-0.997556, 407, 77, 422, 108
-0.997556, 435, 17, 450, 48
-0.997558, 1, 137, 128, 168
-0.997558, 17, 13, 144, 44
-0.997562, 73, 41, 88, 72
-0.997564, 387, 57, 402, 88
-0.997578, 183, 13, 198, 44
-0.997582, 325, 129, 356, 375
-0.997582, 25, 117, 40, 148
-0.997586, 269, 1, 284, 32
-0.997586, 79, 33, 94, 64
-0.997587, 77, 129, 108, 375
-0.997587, 305, 1, 336, 256
-0.997595, 381, 1, 396, 32
-0.997596, 361, 1, 376, 32
-0.997597, 257, 281, 500, 344
-0.997599, 281, 1, 312, 256
-0.9976, 265, 17, 280, 48
-0.997601, 85, 25, 100, 56
-0.997622, 41, 81, 56, 112
-0.997624, 63, 53, 78, 84
-0.997627, 107, 113, 122, 144
-0.997627, 81, 317, 208, 348
-0.997629, 257, 205, 384, 236
-0.99764, 165, 9, 180, 40
-0.997641, 419, 97, 434, 128
-0.997654, 395, 1, 410, 32
-0.997655, 29, 93, 44, 124
-0.997655, 129, 181, 256, 212
-0.997657, 441, 21, 456, 52
-0.99766, 51, 69, 66, 100
-0.997663, 341, 25, 356, 56
-0.997672, 91, 17, 106, 48
-0.997672, 353, 209, 480, 240
-0.997676, 253, 97, 284, 352
-0.997682, 1, 225, 128, 256
-0.997684, 399, 61, 414, 92
-0.997696, 273, 105, 400, 136
-0.997714, 343, 37, 358, 68
-0.997718, 391, 145, 406, 176
-0.997725, 465, 49, 480, 80
-0.997726, 43, 97, 58, 128
-0.997732, 33, 321, 160, 352
-0.997738, 451, 13, 466, 44
-0.997739, 423, 13, 438, 44
-0.997744, 209, 165, 336, 196
-0.997753, 353, 173, 480, 204
-0.997753, 57, 61, 72, 92
-0.997754, 275, 13, 290, 44
-0.997765, 177, 201, 304, 232
-0.997767, 445, 53, 460, 84
-0.997771, 349, 57, 364, 88
-0.997775, 165, 29, 180, 60
-0.997775, 369, 5, 384, 36
-0.997777, 101, 17, 116, 48
-0.997779, 93, 29, 108, 60
-0.997783, 225, 1, 256, 256
-0.997785, 45, 133, 60, 164
-0.997787, 463, 17, 478, 48
-0.997793, 25, 1, 56, 256
-0.997799, 53, 85, 68, 116
-0.997801, 203, 185, 218, 216
-0.997804, 65, 245, 192, 276
-0.997804, 133, 57, 148, 88
-0.997806, 419, 1, 434, 32
-0.997811, 149, 97, 180, 352
-0.997811, 193, 313, 448, 375
-0.997814, 133, 181, 148, 212
-0.99782, 321, 161, 448, 192
-0.997823, 135, 69, 150, 100
-0.997826, 365, 97, 396, 352
-0.99783, 87, 37, 102, 68
-0.997831, 401, 133, 416, 164
-0.997833, 289, 229, 416, 260
-0.997836, 95, 5, 110, 36
-0.997845, 375, 93, 390, 124
-0.997847, 69, 65, 84, 96
-0.997849, 47, 85, 62, 116
-0.997853, 457, 1, 472, 32
-0.997862, 367, 81, 382, 112
-0.997864, 191, 1, 206, 32
-0.997866, 413, 121, 428, 152
-0.997868, 125, 73, 140, 104
-0.997871, 241, 97, 272, 352
-0.997872, 321, 289, 448, 352
-0.997881, 209, 309, 336, 340
-0.997881, 157, 45, 172, 76
-0.997882, 161, 137, 288, 168
-0.997884, 429, 109, 444, 140
-0.997886, 63, 73, 78, 104
-0.997886, 13, 97, 44, 352
-0.997887, 273, 117, 400, 148
-0.997888, 429, 17, 444, 48
-0.997888, 17, 305, 144, 336
-0.997889, 349, 25, 364, 56
-0.997896, 75, 57, 90, 88
-0.997898, 55, 201, 70, 232
-0.9979, 177, 13, 192, 44
-0.997902, 305, 173, 432, 204
-0.997905, 281, 1, 296, 32
-0.99791, 457, 13, 472, 44
-0.997911, 293, 97, 324, 352
-0.997912, 393, 53, 408, 84
-0.997922, 159, 13, 174, 44
-0.997924, 423, 121, 438, 152
-0.997927, 229, 129, 260, 375
-0.997928, 155, 157, 170, 188
-0.997929, 73, 197, 88, 228
-0.997932, 81, 305, 208, 336
-0.997932, 225, 233, 352, 264
-0.997938, 89, 129, 120, 375
-0.997943, 141, 57, 156, 88
-0.997943, 475, 37, 490, 68
-0.997944, 409, 65, 424, 96
-0.997946, 387, 45, 402, 76
-0.997947, 353, 1, 368, 32
-0.997947, 81, 49, 96, 80
-0.997955, 139, 45, 154, 76
-0.997957, 33, 149, 160, 180
-0.997959, 299, 5, 314, 36
-0.997959, 399, 89, 414, 120
-0.997959, 417, 13, 432, 44
-0.997965, 185, 25, 200, 56
-0.997968, 171, 21, 186, 52
-0.997968, 113, 121, 128, 152
-0.997972, 91, 193, 106, 224
-0.997973, 407, 129, 422, 160
-0.997975, 117, 109, 132, 140
-0.997982, 157, 25, 172, 56
-0.997983, 57, 73, 72, 104
-0.997983, 109, 93, 124, 124
-0.997984, 37, 205, 52, 236
-0.997997, 309, 129, 340, 375
-0.998, 113, 145, 240, 176
-0.99801, 377, 129, 408, 375
-0.99803, 129, 309, 256, 340
-0.998032, 337, 129, 368, 375
-0.998041, 129, 129, 160, 375
-0.998043, 1, 129, 32, 375
-0.998072, 273, 285, 400, 316
-0.998097, 17, 185, 144, 216
-0.998099, 113, 345, 240, 375
-0.99813, 177, 341, 304, 372
-0.998134, 213, 1, 244, 256
-0.998212, 369, 313, 496, 375
-0.998215, 1, 33, 32, 288
-0.998288, 161, 97, 192, 352
-0.998359, 345, 57, 408, 72
-0.998361, 317, 1, 348, 256
-0.998401, 249, 7, 312, 22
-0.998407, 369, 95, 432, 110
-0.998414, 185, 1, 248, 16
-0.998424, 457, 97, 488, 352
-0.998426, 217, 5, 280, 20
-0.998428, 361, 11, 424, 26
-0.998437, 265, 13, 328, 28
-0.998447, 53, 69, 84, 84
-0.998448, 29, 101, 60, 116
-0.998448, 345, 25, 376, 40
-0.99845, 337, 37, 368, 52
-0.99845, 113, 119, 144, 134
-0.998451, 193, 111, 224, 126
-0.998452, 385, 59, 416, 74
-0.998453, 405, 73, 436, 88
-0.998453, 25, 95, 56, 110
-0.998454, 73, 43, 104, 58
-0.998455, 193, 169, 224, 184
-0.998455, 337, 61, 368, 76
-0.998455, 353, 67, 416, 82
-0.998456, 405, 97, 436, 112
-0.998457, 85, 25, 116, 40
-0.998457, 261, 17, 292, 32
-0.998457, 77, 37, 108, 52
-0.998457, 69, 49, 100, 64
-0.998457, 313, 143, 344, 158
-0.998458, 405, 65, 436, 80
-0.998458, 441, 49, 472, 64
-0.998459, 1, 211, 64, 226
-0.998459, 173, 23, 204, 38
-0.998461, 361, 101, 392, 116
-0.998461, 81, 31, 112, 46
-0.998462, 309, 11, 340, 26
-0.998463, 17, 207, 48, 222
-0.998463, 49, 75, 80, 90
-0.998464, 169, 29, 200, 44
-0.998465, 321, 33, 352, 48
-0.998466, 201, 191, 232, 206
-0.998467, 353, 3, 384, 18
-0.998468, 353, 19, 384, 34
-0.998469, 401, 7, 432, 22
-0.998469, 381, 83, 412, 98
-0.99847, 97, 189, 128, 204
-0.998474, 197, 1, 228, 16
-0.998474, 333, 29, 364, 44
-0.998474, 97, 233, 160, 248
-0.998474, 141, 37, 172, 52
-0.998477, 301, 19, 332, 34
-0.998477, 281, 5, 312, 20
-0.998477, 249, 15, 280, 30
-0.998478, 25, 205, 88, 220
-0.998478, 437, 65, 468, 80
-0.998479, 333, 51, 364, 66
-0.998479, 57, 53, 88, 68
-0.99848, 461, 31, 492, 46
-0.998482, 133, 49, 164, 64
-0.998482, 281, 19, 344, 34
-0.998482, 425, 105, 456, 120
-0.998483, 461, 55, 492, 70
-0.998483, 329, 139, 360, 154
-0.998484, 353, 131, 416, 146
-0.998484, 409, 25, 472, 40
-0.998485, 17, 105, 48, 120
-0.998486, 153, 17, 184, 32
-0.998487, 105, 125, 136, 140
-0.998488, 133, 55, 164, 70
-0.998489, 1, 121, 64, 136
-0.99849, 37, 79, 68, 94
-0.99849, 149, 23, 180, 38
-0.99849, 397, 125, 428, 140
-0.998491, 361, 75, 392, 90
-0.998491, 137, 29, 200, 44
-0.998491, 105, 119, 168, 134
-0.998493, 113, 101, 144, 116
-0.998493, 57, 199, 88, 214
-0.998494, 341, 67, 372, 82
-0.998494, 137, 43, 168, 58
-0.998494, 125, 119, 156, 134
-0.998495, 161, 1, 224, 16
-0.998496, 345, 51, 408, 66
-0.998496, 145, 15, 208, 30
-0.998496, 353, 129, 384, 375
-0.998498, 73, 125, 136, 140
-0.998499, 369, 3, 400, 18
-0.998499, 313, 65, 376, 80
-0.9985, 273, 97, 304, 352
-0.998501, 145, 31, 176, 46
-0.998501, 129, 75, 160, 90
-0.998502, 25, 115, 56, 130
-0.998503, 333, 43, 364, 58
-0.998506, 373, 55, 404, 70
-0.998506, 153, 35, 216, 50
-0.998507, 121, 83, 152, 98
-0.998507, 329, 23, 360, 38
-0.998507, 353, 73, 416, 88
-0.998508, 401, 131, 432, 146
-0.998509, 313, 29, 376, 44
-0.99851, 445, 31, 476, 46
-0.998511, 453, 43, 484, 58
-0.998511, 93, 125, 124, 140
-0.998511, 429, 21, 460, 36
-0.998512, 433, 57, 496, 72
-0.998512, 369, 67, 400, 82
-0.998513, 409, 97, 440, 352
-0.998513, 185, 11, 248, 26
-0.998514, 385, 129, 448, 144
-0.998515, 305, 15, 368, 30
-0.998516, 93, 195, 124, 210
-0.998516, 377, 5, 440, 20
-0.998518, 117, 93, 148, 108
-0.998518, 129, 65, 160, 80
-0.998518, 377, 123, 440, 138
-0.998518, 361, 51, 392, 66
-0.998519, 121, 187, 152, 202
-0.998519, 145, 165, 208, 180
-0.99852, 253, 1, 284, 16
-0.99852, 369, 89, 432, 104
-0.998521, 425, 31, 488, 46
-0.998521, 365, 81, 396, 96
-0.998521, 273, 17, 304, 32
-0.998522, 321, 45, 384, 60
-0.998523, 137, 23, 200, 38
-0.998523, 273, 7, 336, 22
-0.998523, 269, 5, 300, 20
-0.998523, 21, 121, 52, 136
-0.998523, 337, 7, 400, 22
-0.998524, 385, 19, 448, 34
-0.998524, 433, 49, 496, 64
-0.998524, 393, 71, 424, 86
-0.998527, 425, 37, 488, 52
-0.998527, 153, 41, 216, 56
-0.998528, 317, 27, 348, 42
-0.998529, 385, 77, 416, 92
-0.99853, 9, 115, 40, 130
-0.998531, 273, 101, 336, 116
-0.998532, 181, 1, 212, 16
-0.998532, 345, 55, 376, 70
-0.998536, 393, 63, 456, 78
-0.998536, 113, 113, 144, 128
-0.998537, 97, 113, 160, 128
-0.998538, 241, 1, 304, 16
-0.998538, 381, 3, 412, 18
-0.998538, 385, 13, 448, 28
-0.998539, 349, 61, 380, 76
-0.998542, 161, 29, 224, 44
-0.998542, 145, 7, 208, 22
-0.998543, 49, 205, 80, 220
-0.998543, 417, 17, 448, 32
-0.998543, 97, 93, 160, 108
-0.998543, 389, 11, 420, 26
-0.998543, 73, 197, 104, 212
-0.998544, 329, 79, 392, 94
-0.998546, 305, 141, 368, 156
-0.998546, 409, 125, 440, 140
-0.998547, 433, 63, 496, 78
-0.998547, 313, 19, 344, 34
-0.998548, 49, 199, 112, 214
-0.998548, 29, 207, 60, 222
-0.998549, 337, 85, 400, 100
-0.998549, 1, 115, 64, 130
-0.99855, 373, 61, 404, 76
-0.99855, 105, 75, 168, 90
-0.99855, 41, 135, 104, 150
-0.998551, 289, 135, 352, 150
-0.998551, 329, 135, 392, 150
-0.998551, 313, 23, 376, 38
-0.998551, 109, 189, 140, 204
-0.998552, 453, 49, 484, 64
-0.998552, 229, 3, 260, 18
-0.998553, 241, 13, 304, 28
-0.998554, 329, 71, 392, 86
-0.998554, 157, 159, 188, 174
-0.998554, 13, 213, 44, 228
-0.998555, 1, 213, 32, 228
-0.998555, 369, 79, 432, 94
-0.998556, 369, 47, 432, 62
-0.998556, 321, 59, 384, 74
-0.998556, 121, 57, 184, 72
-0.998557, 197, 97, 228, 352
-0.998557, 433, 15, 496, 30
-0.998557, 81, 131, 144, 146
-0.998557, 209, 97, 240, 352
-0.998557, 217, 109, 280, 124
-0.998559, 345, 73, 376, 88
-0.99856, 97, 191, 160, 206
-0.998562, 169, 113, 232, 128
-0.998563, 253, 7, 284, 22
-0.998564, 337, 39, 400, 54
-0.998564, 401, 57, 464, 72
-0.998565, 361, 57, 392, 72
-0.998566, 281, 87, 344, 102
-0.998566, 353, 17, 416, 32
-0.998566, 321, 51, 384, 66
-0.998566, 385, 127, 416, 142
-0.998568, 329, 93, 392, 108
-0.998569, 145, 159, 208, 174
-0.99857, 161, 9, 192, 24
-0.99857, 417, 9, 480, 24
-0.99857, 193, 111, 256, 126
-0.99857, 441, 25, 472, 40
-0.998571, 415, 65, 430, 192
-0.998571, 193, 189, 256, 204
-0.998571, 137, 117, 200, 132
-0.998571, 409, 51, 472, 66
-0.998572, 433, 69, 496, 84
-0.998572, 137, 51, 200, 66
-0.998573, 241, 5, 272, 20
-0.998573, 457, 37, 488, 52
-0.998573, 345, 45, 408, 60
-0.998574, 161, 23, 224, 38
-0.998575, 373, 73, 404, 88
-0.998576, 25, 125, 88, 140
-0.998576, 445, 59, 476, 74
-0.998577, 169, 173, 232, 188
-0.998577, 417, 43, 480, 58
-0.998577, 393, 69, 456, 84
-0.998577, 265, 81, 328, 96
-0.998577, 241, 105, 304, 120
-0.998579, 369, 61, 432, 76
-0.998579, 177, 35, 240, 50
-0.99858, 113, 69, 176, 84
-0.99858, 407, 81, 422, 208
-0.998581, 357, 67, 388, 82
-0.998582, 121, 43, 184, 58
-0.998582, 297, 13, 328, 28
-0.998584, 129, 37, 192, 52
-0.998585, 65, 343, 128, 358
-0.998585, 81, 119, 144, 134
-0.998585, 385, 103, 448, 118
-0.998586, 73, 193, 136, 208
-0.998589, 249, 19, 312, 34
-0.99859, 401, 13, 432, 28
-0.99859, 329, 101, 392, 116
-0.99859, 9, 123, 40, 138
-0.998592, 345, 1, 408, 16
-0.998593, 193, 169, 256, 184
-0.998593, 453, 1, 468, 128
-0.998594, 369, 53, 432, 68
-0.998594, 349, 49, 380, 64
-0.998595, 209, 13, 272, 28
-0.998595, 201, 161, 264, 176
-0.998596, 105, 87, 168, 102
-0.998596, 33, 49, 96, 64
-0.998596, 273, 61, 336, 76
-0.998597, 417, 1, 480, 16
-0.998598, 297, 9, 360, 24
-0.998598, 137, 65, 200, 80
-0.9986, 209, 1, 240, 16
-0.9986, 97, 103, 160, 118
-0.9986, 113, 63, 176, 78
-0.9986, 129, 171, 192, 186
-0.9986, 381, 89, 412, 104
-0.9986, 297, 99, 360, 114
-0.998601, 17, 71, 80, 86
-0.998601, 265, 95, 328, 110
-0.998601, 409, 119, 472, 134
-0.998602, 257, 55, 320, 70
-0.998602, 409, 17, 472, 32
-0.998603, 417, 107, 480, 122
-0.998603, 373, 9, 404, 24
-0.998604, 285, 11, 316, 26
-0.998605, 273, 149, 336, 164
-0.998605, 25, 211, 88, 226
-0.998606, 393, 135, 456, 150
-0.998607, 241, 157, 304, 172
-0.998608, 269, 11, 300, 26
-0.99861, 169, 1, 200, 16
-0.998621, 385, 65, 416, 80
-0.998657, 13, 1, 44, 256
-0.99867, 443, 1, 458, 128
-0.998682, 65, 129, 96, 375
-0.998694, 377, 1, 392, 128
-0.998724, 445, 97, 476, 352
-0.998728, 149, 33, 164, 160
-0.998752, 141, 17, 156, 144
-0.998777, 353, 1, 368, 128
-0.998781, 347, 49, 362, 176
-0.998791, 459, 33, 474, 160
-0.998799, 187, 1, 202, 128
-0.998803, 465, 1, 480, 128
-0.998811, 401, 65, 416, 192
-0.998818, 197, 17, 212, 144
-0.99882, 347, 1, 362, 128
-0.998822, 367, 33, 382, 160
-0.998866, 419, 113, 434, 240
-0.998875, 339, 1, 354, 128
-0.998886, 133, 33, 148, 160
-0.9989, 127, 49, 142, 176
-0.998904, 385, 49, 400, 176
-0.998908, 155, 33, 170, 160
-0.998909, 139, 81, 154, 208
-0.998912, 109, 81, 124, 208
-0.998917, 357, 49, 372, 176
-0.998919, 193, 81, 208, 208
-0.998935, 421, 65, 436, 192
-0.998937, 425, 97, 456, 352
-0.998937, 423, 1, 438, 128
-0.998942, 203, 97, 218, 224
-0.998946, 413, 113, 428, 240
-0.998951, 333, 17, 348, 144
-0.998957, 145, 81, 160, 208
-0.998972, 165, 17, 180, 144
-0.998975, 141, 145, 156, 272
-0.998979, 395, 81, 410, 208
-0.998986, 341, 49, 356, 176
-0.998993, 429, 1, 444, 128
-0.998994, 209, 97, 224, 224
-0.998994, 479, 17, 494, 144
-0.998996, 47, 65, 62, 192
-0.999, 39, 81, 54, 208
-0.999007, 469, 97, 500, 352
-0.999008, 117, 65, 132, 192
-0.999013, 365, 81, 380, 208
-0.999033, 409, 1, 424, 128
-0.999035, 269, 17, 284, 144
-0.999037, 177, 1, 192, 128
-0.999041, 85, 161, 100, 288
-0.999043, 253, 1, 268, 128
-0.999057, 377, 65, 392, 192
-0.999067, 417, 1, 432, 128
-0.999082, 103, 97, 118, 224
-0.999083, 313, 1, 328, 128
-0.999088, 95, 145, 110, 272
-0.999088, 79, 193, 94, 320
-0.999091, 33, 81, 48, 208
-0.999101, 215, 97, 230, 224
-0.99911, 135, 161, 150, 288
-0.999119, 93, 1, 108, 128
-0.999125, 295, 65, 310, 192
-0.999132, 451, 49, 466, 176
-0.999136, 87, 225, 102, 352
-0.99914, 437, 1, 452, 128
-0.999148, 371, 81, 386, 208
-0.999155, 129, 145, 144, 272
-0.999159, 319, 1, 334, 128
-0.999163, 69, 193, 84, 320
-0.999165, 473, 17, 488, 144
-0.999166, 403, 1, 418, 128
-0.999171, 19, 97, 34, 224
-0.999174, 407, 129, 422, 256
-0.99919, 97, 81, 112, 208
-0.99919, 401, 113, 416, 240
-0.999194, 151, 81, 166, 208
-0.999196, 81, 17, 96, 144
-0.999196, 203, 17, 218, 144
-0.9992, 393, 129, 408, 256
-0.999203, 69, 33, 84, 160
-0.999203, 187, 97, 202, 224
-0.999204, 385, 1, 400, 128
-0.999204, 243, 145, 258, 272
-0.999205, 95, 225, 110, 352
-0.999206, 391, 1, 406, 128
-0.99921, 301, 81, 316, 208
-0.999218, 59, 193, 74, 320
-0.999222, 231, 97, 246, 224
-0.999223, 17, 49, 32, 176
-0.999225, 327, 1, 342, 128
-0.999225, 9, 97, 24, 224
-0.999228, 147, 145, 162, 272
-0.999229, 359, 1, 374, 128
-0.999235, 485, 17, 500, 144
-0.99924, 275, 49, 290, 176
-0.999246, 57, 17, 72, 144
-0.999247, 425, 113, 440, 240
-0.999249, 357, 97, 372, 224
-0.999251, 381, 145, 396, 272
-0.999252, 289, 65, 304, 192
-0.999255, 293, 113, 308, 240
-0.999257, 223, 145, 238, 272
-0.999257, 485, 65, 500, 192
-0.999258, 341, 129, 356, 256
-0.999259, 1, 97, 16, 224
-0.999265, 159, 97, 174, 224
-0.999266, 251, 97, 266, 224
-0.999267, 307, 1, 322, 128
-0.999271, 85, 113, 100, 240
-0.999272, 221, 97, 236, 224
-0.999276, 429, 65, 444, 192
-0.999282, 363, 161, 378, 288
-0.999282, 333, 129, 348, 256
-0.999287, 79, 145, 94, 272
-0.999287, 213, 17, 228, 144
-0.999293, 133, 81, 148, 208
-0.999295, 185, 49, 200, 176
-0.999296, 171, 1, 186, 128
-0.999296, 307, 81, 322, 208
-0.999296, 9, 49, 24, 176
-0.999304, 465, 49, 480, 176
-0.999304, 105, 225, 120, 352
-0.999311, 31, 33, 46, 160
-0.999312, 39, 241, 54, 368
-0.999315, 53, 225, 68, 352
-0.999316, 369, 161, 384, 288
-0.999317, 203, 145, 218, 272
-0.999318, 327, 81, 342, 208
-0.999319, 455, 129, 470, 256
-0.99932, 25, 97, 40, 224
-0.999324, 301, 1, 316, 128
-0.999326, 279, 1, 294, 128
-0.999336, 301, 177, 316, 304
-0.999643, 407, 71, 422, 86
-0.999644, 187, 13, 202, 28
-0.999644, 465, 53, 480, 68
-0.999644, 23, 107, 38, 122
-0.999644, 99, 11, 114, 26
-0.999644, 343, 63, 358, 78
-0.999644, 421, 101, 436, 116
-0.999644, 97, 29, 112, 44
-0.999645, 343, 23, 358, 38
-0.999646, 299, 15, 314, 30
-0.999646, 459, 57, 474, 72
-0.999646, 259, 1, 274, 16
-0.999647, 177, 19, 192, 34
-0.999647, 421, 121, 436, 136
-0.999648, 73, 43, 88, 58
-0.999648, 129, 187, 144, 202
-0.999648, 83, 47, 98, 62
-0.999649, 89, 39, 104, 54
-0.999649, 429, 19, 444, 34
-0.999649, 387, 57, 402, 72
-0.99965, 67, 51, 82, 66
-0.999651, 405, 123, 420, 138
-0.999651, 457, 7, 472, 22
-0.999651, 3, 119, 18, 134
-0.999651, 13, 115, 28, 130
-0.999652, 179, 7, 194, 22
-0.999654, 363, 101, 378, 116
-0.999654, 329, 35, 344, 50
-0.999654, 211, 1, 226, 16
-0.999655, 65, 71, 80, 86
-0.999655, 79, 35, 94, 50
-0.999655, 121, 189, 136, 204
-0.999656, 355, 73, 370, 88
-0.999656, 337, 29, 352, 44
-0.999657, 77, 55, 92, 70
-0.999657, 73, 61, 88, 76
-0.999657, 363, 63, 378, 78
-0.999657, 263, 9, 278, 24
-0.999658, 339, 37, 354, 52
-0.999658, 83, 29, 98, 44
-0.999659, 39, 105, 54, 120
-0.999659, 59, 79, 74, 94
-0.99966, 87, 23, 102, 38
-0.999661, 51, 89, 66, 104
-0.999661, 353, 21, 368, 36
-0.999661, 369, 53, 384, 68
-0.999661, 103, 193, 118, 208
-0.999661, 239, 1, 254, 16
-0.999662, 401, 73, 416, 88
-0.999662, 41, 85, 56, 100
-0.999663, 403, 3, 418, 18
-0.999664, 383, 75, 398, 90
-0.999665, 113, 191, 128, 206
-0.999666, 169, 3, 184, 18
-0.999666, 355, 61, 370, 76
-0.999667, 77, 199, 92, 214
-0.99967, 187, 1, 202, 16
-0.999673, 399, 127, 414, 142
-0.999673, 69, 197, 84, 212
-0.999673, 47, 95, 62, 110
-0.999674, 95, 195, 110, 210
-0.999677, 87, 197, 102, 212
-0.999677, 435, 21, 450, 36
-0.999678, 423, 17, 438, 32
-0.999678, 311, 15, 326, 30
-0.999678, 389, 9, 404, 24
-0.999678, 453, 57, 468, 72
-0.999679, 293, 11, 308, 26
-0.99968, 107, 123, 122, 138
-0.999681, 355, 67, 370, 82
-0.999681, 61, 199, 76, 214
-0.999682, 417, 15, 432, 30
-0.999682, 257, 7, 272, 22
-0.999684, 29, 115, 44, 130
-0.999685, 33, 207, 48, 222
-0.999686, 399, 67, 414, 82
-0.999687, 21, 117, 36, 132
-0.999687, 43, 203, 58, 218
-0.999687, 25, 209, 40, 224
-0.999688, 9, 123, 24, 138
-0.999688, 51, 201, 66, 216
-0.99969, 457, 45, 472, 60
-0.99969, 229, 1, 244, 16
-0.999691, 395, 9, 410, 24
-0.999691, 443, 23, 458, 38
-0.999694, 285, 13, 300, 28
-0.999695, 377, 61, 392, 76
-0.999695, 447, 59, 462, 74
-0.999696, 7, 211, 22, 226
-0.999697, 1, 217, 16, 232
-0.999697, 345, 49, 360, 64
-0.999698, 17, 213, 32, 228
-0.9997, 361, 69, 376, 84
-0.9997, 349, 59, 364, 74
-0.999703, 305, 13, 320, 28
-0.999703, 21, 123, 36, 138
-0.999704, 409, 13, 424, 28
-0.999705, 401, 11, 416, 26
-0.999705, 181, 13, 196, 28
-0.999706, 355, 47, 370, 62
-0.999706, 377, 73, 392, 88
-0.999707, 361, 75, 376, 90
-0.999711, 463, 31, 478, 46
-0.999712, 383, 63, 398, 78
-0.999712, 385, 3, 400, 18
-0.999713, 371, 59, 386, 74
-0.999713, 415, 123, 430, 138
-0.999716, 217, 1, 232, 16
-0.999717, 367, 69, 382, 84
-0.999718, 387, 87, 402, 102
-0.999719, 369, 77, 384, 92
-0.99973, 325, 27, 340, 42
-0.999732, 317, 15, 332, 30
-0.999735, 265, 15, 280, 30
-0.999736, 381, 55, 396, 70
-0.999737, 443, 65, 458, 80
-0.999739, 181, 1, 196, 16
-0.999739, 363, 57, 378, 72
-0.99974, 275, 11, 290, 26
-0.999743, 175, 1, 190, 16
-0.999745, 321, 21, 336, 36
-0.999746, 15, 121, 30, 136
-0.999748, 375, 83, 390, 98
-0.999752, 391, 65, 406, 80
-0.999753, 223, 1, 238, 16
-0.999753, 203, 189, 218, 204
-0.99976, 409, 129, 424, 144
-0.999761, 375, 7, 390, 22
-0.99977, 453, 27, 468, 42
-0.999783, 453, 51, 468, 66
-1.00002, 305, 313, 432, 375
-1.00314, 433, 241, 496, 368
