1964
-0.22889, 1, 129, 375, 384
-0.294587, 1, 257, 375, 500
-0.303444, 1, 1, 375, 500
-0.36499, 1, 1, 375, 256
-0.47085, 1, 1, 256, 256
-0.493076, 97, 1, 352, 256
-0.498755, 33, 1, 288, 500
-0.501163, 129, 257, 375, 500
-0.516936, 65, 97, 320, 352
-0.541582, 129, 1, 375, 500
-0.555078, 33, 193, 288, 448
-0.804778, 1, 1, 128, 256
-0.822992, 241, 1, 368, 256
-0.827378, 1, 145, 375, 272
-0.82873, 81, 1, 208, 256
-0.83499, 129, 257, 256, 500
-0.839414, 145, 1, 272, 256
-0.840769, 241, 161, 368, 416
-0.844808, 241, 1, 368, 500
-0.850826, 241, 257, 368, 500
-0.852013, 1, 1, 128, 500
-0.852039, 193, 1, 320, 256
-0.852972, 1, 273, 375, 400
-0.853305, 33, 161, 160, 416
-0.856088, 161, 161, 288, 416
-0.8605, 81, 97, 208, 352
-0.860593, 1, 225, 375, 352
-0.865629, 49, 1, 176, 500
-0.868828, 161, 1, 288, 500
-0.873724, 193, 257, 320, 500
-0.874351, 1, 257, 128, 500
-0.877545, 1, 1, 375, 128
-0.884664, 81, 193, 208, 448
-0.888248, 1, 1, 256, 128
-0.892667, 33, 241, 288, 368
-0.89357, 113, 1, 240, 500
-0.897751, 129, 1, 375, 128
-0.901319, 1, 337, 375, 464
-0.904258, 33, 145, 288, 272
-0.912915, 129, 289, 375, 416
-0.913044, 33, 289, 288, 416
-0.913111, 1, 1, 128, 128
-0.914007, 129, 225, 375, 352
-0.914892, 129, 65, 375, 192
-0.91491, 1, 81, 375, 208
-0.915006, 241, 1, 368, 128
-0.918885, 1, 65, 256, 192
-0.920087, 145, 273, 272, 400
-0.920652, 145, 1, 272, 128
-0.920936, 97, 1, 224, 128
-0.922517, 33, 193, 288, 320
-0.923982, 113, 1, 176, 128
-0.923991, 169, 1, 232, 128
-0.925078, 265, 145, 328, 272
-0.925449, 217, 1, 280, 128
-0.927852, 137, 1, 200, 128
-0.927948, 1, 353, 256, 480
-0.9282, 9, 1, 72, 128
-0.928344, 241, 145, 368, 272
-0.929245, 193, 1, 256, 128
-0.931736, 241, 273, 368, 400
-0.932573, 185, 257, 248, 384
-0.932909, 193, 1, 320, 128
-0.933271, 129, 353, 375, 480
-0.933997, 129, 145, 375, 272
-0.93404, 1, 353, 128, 480
-0.934964, 305, 1, 368, 128
-0.935257, 113, 225, 240, 352
-0.937061, 161, 225, 288, 352
-0.937258, 153, 257, 216, 384
-0.937605, 241, 225, 368, 352
-0.93785, 257, 1, 320, 128
-0.938186, 57, 1, 120, 128
-0.93886, 33, 145, 160, 272
-0.93942, 209, 257, 272, 384
-0.939674, 89, 1, 152, 128
-0.939936, 233, 305, 296, 432
-0.940261, 33, 225, 160, 352
-0.940822, 9, 273, 72, 400
-0.940988, 49, 1, 176, 128
-0.941091, 193, 145, 320, 272
-0.941556, 1, 305, 128, 432
-0.942273, 193, 273, 320, 400
-0.943502, 169, 209, 232, 336
-0.943687, 49, 145, 112, 272
-0.944818, 9, 177, 72, 304
-0.944967, 121, 65, 184, 128
-0.945224, 177, 65, 240, 128
-0.946404, 241, 321, 368, 448
-0.946571, 97, 273, 224, 400
-0.9473, 265, 153, 328, 216
-0.947357, 209, 65, 272, 128
-0.947539, 81, 145, 208, 272
-0.948026, 9, 225, 72, 352
-0.948191, 265, 273, 328, 400
-0.948447, 185, 265, 248, 328
-0.948735, 209, 145, 272, 272
-0.948856, 153, 281, 216, 344
-0.948941, 177, 433, 240, 496
-0.949001, 225, 209, 288, 336
-0.949663, 145, 305, 208, 432
-0.949988, 1, 1, 64, 64
-0.950127, 305, 177, 368, 304
-0.950214, 241, 257, 304, 384
-0.950223, 97, 65, 160, 128
-0.950301, 49, 273, 176, 400
-0.950403, 313, 129, 375, 256
-0.950704, 145, 145, 272, 272
-0.950907, 153, 65, 216, 192
-0.950929, 97, 433, 160, 496
-0.951156, 153, 65, 216, 128
-0.951171, 1, 65, 128, 192
-0.951255, 185, 305, 248, 368
-0.951539, 97, 321, 224, 448
-0.951757, 137, 433, 200, 496
-0.951778, 241, 65, 368, 192
-0.95187, 241, 145, 304, 272
-0.952372, 161, 81, 288, 208
-0.953337, 281, 1, 344, 128
-0.95347, 81, 65, 208, 192
-0.954183, 153, 321, 216, 384
-0.954289, 185, 145, 248, 272
-0.954319, 185, 233, 248, 296
-0.954438, 177, 321, 304, 448
-0.955005, 193, 305, 256, 432
-0.955509, 313, 257, 375, 384
-0.955556, 9, 321, 72, 448
-0.955719, 233, 313, 296, 376
-0.955994, 305, 1, 368, 64
-0.956146, 241, 65, 304, 192
-0.956379, 217, 81, 280, 208
-0.956903, 57, 1, 120, 64
-0.95703, 201, 209, 264, 336
-0.957394, 97, 81, 160, 208
-0.957636, 9, 289, 72, 352
-0.957846, 9, 249, 72, 312
-0.957889, 49, 337, 176, 464
-0.957898, 121, 145, 184, 272
-0.95804, 121, 65, 184, 192
-0.95814, 1, 129, 64, 256
-0.958168, 121, 289, 184, 416
-0.958211, 9, 313, 72, 376
-0.958325, 273, 225, 336, 352
-0.958381, 89, 1, 152, 64
-0.958761, 81, 145, 144, 272
-0.959006, 145, 209, 208, 336
-0.95908, 49, 153, 112, 216
-0.959381, 105, 353, 168, 480
-0.959477, 185, 65, 248, 192
-0.959537, 9, 1, 72, 256
-0.959728, 121, 1, 184, 256
-0.95977, 121, 9, 184, 72
-0.959917, 9, 209, 72, 272
-0.960048, 73, 353, 136, 480
-0.960263, 169, 305, 232, 432
-0.960411, 217, 433, 280, 496
-0.960515, 233, 65, 296, 128
-0.96108, 305, 305, 368, 432
-0.961229, 169, 1, 232, 256
-0.961231, 49, 337, 112, 464
-0.961246, 241, 369, 368, 496
-0.961322, 305, 81, 368, 208
-0.961674, 89, 1, 152, 256
-0.961705, 225, 1, 288, 256
-0.96188, 9, 81, 72, 208
-0.96203, 177, 9, 240, 72
-0.962186, 225, 249, 288, 312
-0.96256, 305, 185, 368, 248
-0.962913, 137, 41, 200, 104
-0.962938, 209, 289, 272, 352
-0.96313, 265, 129, 328, 384
-0.963131, 189, 65, 220, 128
-0.963284, 9, 185, 72, 248
-0.963336, 193, 1, 256, 256
-0.963349, 161, 233, 224, 296
-0.963699, 65, 65, 128, 192
-0.963795, 145, 1, 208, 256
-0.963814, 41, 209, 104, 336
-0.964073, 313, 161, 375, 224
-0.964131, 265, 297, 328, 360
-0.964152, 305, 209, 368, 272
-0.964233, 121, 313, 184, 376
-0.964523, 145, 145, 208, 272
-0.964586, 25, 1, 88, 64
-0.964611, 161, 257, 224, 500
-0.96502, 97, 369, 224, 496
-0.965059, 249, 1, 312, 256
-0.965105, 229, 1, 260, 128
-0.965125, 33, 1, 96, 128
-0.965135, 165, 1, 196, 128
-0.965216, 193, 1, 224, 128
-0.965399, 65, 1, 128, 256
-0.965408, 241, 289, 304, 352
-0.96554, 9, 369, 72, 496
-0.96567, 1, 1, 128, 64
-0.965717, 305, 1, 368, 256
-0.966001, 161, 41, 224, 104
-0.966119, 233, 9, 296, 72
-0.966202, 209, 353, 272, 480
-0.966285, 217, 65, 248, 128
-0.966328, 49, 273, 112, 400
-0.966429, 313, 233, 375, 296
-0.966558, 237, 65, 268, 128
-0.966591, 113, 65, 240, 128
-0.966632, 193, 257, 256, 500
-0.96684, 9, 337, 72, 400
-0.966973, 141, 1, 172, 128
-0.96699, 245, 1, 276, 128
-0.966992, 181, 1, 212, 128
-0.967047, 117, 1, 148, 128
-0.967191, 209, 41, 272, 104
-0.967323, 205, 1, 236, 128
-0.967344, 113, 433, 144, 496
-0.967381, 241, 337, 304, 400
-0.96741, 145, 297, 272, 360
-0.967577, 129, 1, 160, 128
-0.96758, 145, 257, 208, 320
-0.967581, 205, 433, 236, 496
-0.967632, 313, 313, 375, 376
-0.967766, 193, 225, 224, 352
-0.967767, 313, 281, 375, 344
-0.967807, 49, 209, 112, 272
-0.967844, 217, 1, 248, 128
-0.96793, 265, 273, 328, 336
-0.967943, 273, 249, 336, 312
-0.968089, 313, 257, 375, 320
-0.968144, 1, 161, 64, 224
-0.968162, 305, 137, 368, 200
-0.968454, 185, 97, 248, 352
-0.968601, 97, 41, 160, 104
-0.968708, 153, 1, 184, 128
-0.968713, 217, 153, 280, 216
-0.968865, 161, 65, 288, 128
-0.96891, 161, 65, 192, 128
-0.96895, 73, 433, 136, 496
-0.969009, 185, 41, 248, 104
-0.969051, 113, 65, 144, 128
-0.969118, 1, 137, 64, 200
-0.969603, 273, 337, 336, 464
-0.970002, 13, 1, 44, 64
-0.970009, 333, 1, 364, 128
-0.970206, 129, 289, 192, 352
-0.970262, 217, 161, 280, 416
-0.97028, 189, 433, 220, 496
-0.97032, 241, 313, 368, 376
-0.970348, 97, 433, 224, 496
-0.970556, 1, 25, 64, 88
-0.970686, 249, 193, 312, 320
-0.970695, 97, 289, 160, 416
-0.970719, 273, 1, 336, 256
-0.970751, 241, 153, 304, 216
-0.97076, 193, 233, 224, 296
-0.970767, 149, 65, 180, 128
-0.970782, 265, 97, 328, 224
-0.970809, 49, 337, 112, 400
-0.970881, 161, 161, 224, 416
-0.970902, 265, 321, 328, 384
-0.970998, 65, 65, 128, 128
-0.971064, 177, 321, 304, 384
-0.971286, 49, 129, 112, 384
-0.971366, 241, 153, 368, 216
-0.971427, 133, 65, 164, 128
-0.971494, 105, 1, 136, 128
-0.971531, 13, 1, 44, 128
-0.971543, 9, 257, 72, 500
-0.971721, 129, 273, 256, 336
-0.971856, 201, 65, 232, 128
-0.971891, 201, 329, 264, 392
-0.972057, 121, 97, 184, 352
-0.972183, 97, 433, 128, 496
-0.972206, 185, 209, 248, 272
-0.972316, 333, 1, 364, 64
-0.972792, 113, 225, 176, 352
-0.972856, 305, 337, 368, 400
-0.972899, 33, 225, 160, 288
-0.973021, 177, 65, 208, 128
-0.973038, 241, 289, 368, 352
-0.973072, 41, 1, 104, 256
-0.973283, 209, 265, 336, 328
-0.973384, 81, 41, 208, 104
-0.973427, 209, 225, 272, 288
-0.973508, 145, 433, 272, 496
-0.973524, 193, 289, 224, 416
-0.97355, 273, 9, 336, 72
-0.973552, 1, 433, 128, 496
-0.973698, 101, 65, 132, 128
-0.973775, 261, 153, 292, 216
-0.973777, 41, 313, 104, 376
-0.973815, 97, 97, 160, 352
-0.973859, 1, 337, 128, 400
-0.973892, 241, 1, 368, 64
-0.973902, 241, 233, 368, 296
-0.973982, 313, 81, 375, 144
-0.97421, 257, 1, 288, 128
-0.974222, 161, 233, 288, 296
-0.974243, 1, 153, 128, 216
-0.97428, 177, 273, 208, 400
-0.97429, 1, 385, 64, 448
-0.974292, 257, 433, 320, 496
-0.974325, 313, 369, 375, 496
-0.974339, 165, 433, 196, 496
-0.974379, 217, 433, 248, 496
-0.974421, 97, 153, 160, 216
-0.974438, 293, 145, 324, 272
-0.974498, 113, 233, 240, 296
-0.974536, 293, 153, 324, 216
-0.974546, 221, 289, 252, 352
-0.974564, 249, 65, 280, 128
-0.974569, 153, 9, 216, 72
-0.97465, 129, 337, 192, 400
-0.974658, 273, 225, 336, 288
-0.974759, 157, 257, 188, 384
-0.974804, 273, 177, 336, 240
-0.974813, 65, 65, 192, 128
-0.974886, 161, 41, 288, 104
-0.975153, 41, 97, 104, 224
-0.975219, 241, 345, 368, 408
-0.97523, 241, 257, 304, 500
-0.975273, 1, 433, 64, 496
-0.975309, 9, 161, 72, 416
-0.9754, 53, 145, 84, 272
-0.975426, 253, 313, 284, 376
-0.975447, 241, 177, 368, 240
-0.975468, 1, 201, 128, 264
-0.975497, 81, 1, 112, 64
-0.975621, 153, 345, 216, 408
-0.975634, 49, 313, 176, 376
-0.975677, 269, 273, 300, 400
-0.975704, 169, 313, 200, 376
-0.975751, 141, 433, 172, 496
-0.97587, 253, 289, 284, 416
-0.976056, 225, 41, 256, 104
-0.976079, 113, 1, 144, 64
-0.976143, 305, 97, 368, 352
-0.976158, 1, 73, 64, 136
-0.976168, 189, 305, 220, 368
-0.97617, 89, 1, 120, 128
-0.976198, 1, 49, 128, 112
-0.976275, 313, 57, 375, 120
-0.976317, 201, 89, 264, 152
-0.976351, 97, 329, 224, 392
-0.976396, 173, 241, 204, 304
-0.976441, 185, 353, 248, 480
-0.976484, 261, 145, 292, 272
-0.976526, 313, 433, 375, 496
-0.976526, 233, 433, 264, 496
-0.976575, 41, 241, 104, 304
-0.976602, 177, 433, 208, 496
-0.976663, 241, 209, 368, 272
-0.976681, 125, 433, 156, 496
-0.976724, 273, 345, 336, 408
-0.976726, 205, 257, 236, 384
-0.976733, 1, 49, 64, 112
-0.976804, 41, 281, 104, 344
-0.976817, 177, 281, 208, 344
-0.976956, 1, 313, 128, 376
-0.977159, 201, 1, 264, 64
-0.977205, 153, 433, 184, 496
-0.977276, 237, 289, 268, 416
-0.977306, 305, 193, 368, 448
-0.977404, 241, 433, 368, 496
-0.977417, 241, 97, 304, 352
-0.977485, 89, 329, 152, 392
-0.977574, 313, 25, 375, 88
-0.977577, 49, 1, 80, 64
-0.977787, 73, 305, 136, 432
-0.977813, 73, 353, 136, 416
-0.977818, 221, 257, 252, 384
-0.977861, 241, 145, 272, 272
-0.977889, 313, 105, 375, 168
-0.97799, 241, 49, 368, 112
-0.978068, 1, 361, 64, 424
-0.978143, 41, 185, 104, 248
-0.978213, 297, 1, 328, 128
-0.978256, 217, 257, 280, 500
-0.978274, 73, 153, 136, 216
-0.978303, 1, 409, 64, 472
-0.978395, 101, 353, 132, 480
-0.978462, 25, 1, 56, 64
-0.978524, 129, 153, 192, 216
-0.978539, 281, 1, 312, 128
-0.978592, 89, 225, 152, 352
-0.978621, 281, 145, 312, 272
-0.97865, 81, 9, 208, 72
-0.978706, 169, 153, 232, 216
-0.978714, 233, 297, 264, 360
-0.978857, 217, 193, 280, 256
-0.978958, 317, 1, 348, 64
-0.97896, 313, 385, 375, 448
-0.978969, 173, 41, 204, 104
-0.978984, 33, 257, 160, 320
-0.979004, 49, 153, 176, 216
-0.979032, 257, 57, 320, 120
-0.979102, 141, 313, 172, 376
-0.979192, 161, 9, 288, 72
-0.979219, 1, 281, 128, 344
-0.979242, 49, 433, 176, 496
-0.97946, 97, 297, 224, 360
-0.979465, 269, 1, 300, 128
-0.979502, 249, 289, 280, 352
-0.979505, 245, 241, 276, 368
-0.979547, 213, 233, 244, 296
-0.979557, 221, 257, 252, 320
-0.979601, 265, 201, 328, 264
-0.979606, 81, 225, 144, 288
-0.979625, 145, 153, 272, 216
-0.97964, 161, 89, 224, 152
-0.979661, 113, 353, 144, 480
-0.979707, 209, 73, 336, 136
-0.979714, 265, 329, 296, 392
-0.979725, 213, 209, 244, 336
-0.979744, 145, 273, 176, 400
-0.979764, 53, 153, 84, 216
-0.979769, 181, 225, 212, 352
-0.979774, 161, 353, 224, 480
-0.979824, 121, 233, 184, 296
-0.979834, 137, 257, 200, 500
-0.979926, 197, 257, 228, 320
-0.980046, 313, 1, 344, 128
-0.980048, 1, 177, 128, 240
-0.98007, 1, 73, 128, 136
-0.980096, 169, 225, 200, 352
-0.980154, 181, 145, 212, 272
-0.980235, 1, 1, 64, 500
-0.980281, 209, 281, 240, 344
-0.980399, 237, 41, 268, 104
-0.980414, 9, 113, 72, 176
-0.980428, 261, 273, 292, 336
-0.980435, 241, 153, 272, 216
-0.980453, 265, 225, 328, 480
-0.980472, 73, 129, 136, 384
-0.980486, 153, 41, 184, 104
-0.980505, 213, 65, 244, 192
-0.980552, 257, 81, 320, 144
-0.980562, 161, 273, 192, 336
-0.98058, 97, 353, 160, 416
-0.980629, 177, 369, 304, 496
-0.980667, 245, 81, 276, 208
-0.980686, 69, 1, 100, 64
-0.980759, 313, 409, 375, 472
-0.980819, 49, 433, 112, 496
-0.980921, 209, 41, 240, 104
-0.980951, 113, 89, 176, 152
-0.980992, 105, 257, 168, 500
-0.981011, 97, 1, 128, 64
-0.981054, 241, 25, 368, 88
-0.981078, 249, 433, 280, 496
-0.981106, 53, 1, 84, 128
-0.981336, 265, 1, 328, 500
-0.981367, 157, 321, 188, 384
-0.981384, 77, 1, 108, 128
-0.981402, 313, 361, 375, 424
-0.981435, 145, 201, 208, 264
-0.981445, 161, 65, 192, 192
-0.981486, 221, 145, 252, 272
-0.981494, 281, 153, 312, 216
-0.981516, 133, 289, 164, 416
-0.981531, 261, 65, 292, 128
-0.981544, 217, 353, 280, 416
-0.981556, 241, 185, 304, 248
-0.981634, 189, 281, 220, 344
-0.98176, 233, 225, 296, 288
-0.981775, 65, 41, 128, 104
-0.981788, 121, 257, 184, 320
-0.981826, 193, 153, 320, 216
-0.981862, 305, 1, 368, 500
-0.982001, 93, 145, 124, 272
-0.982005, 1, 25, 128, 88
-0.982055, 81, 265, 208, 328
-0.982162, 193, 153, 256, 216
-0.9822, 37, 1, 68, 64
-0.982217, 57, 1, 120, 500
-0.982247, 233, 89, 296, 152
-0.982407, 125, 145, 156, 272
-0.982414, 101, 81, 132, 208
-0.98242, 33, 1, 64, 128
-0.982522, 153, 321, 184, 448
-0.982524, 177, 65, 208, 192
-0.982537, 113, 81, 144, 208
-0.982548, 233, 241, 264, 368
-0.982625, 233, 41, 296, 104
-0.982646, 161, 9, 192, 72
-0.982741, 53, 321, 84, 384
-0.982764, 49, 289, 176, 352
-0.982778, 133, 65, 164, 192
-0.982792, 85, 433, 116, 496
-0.982919, 177, 209, 304, 272
-0.982929, 1, 409, 128, 472
-0.982954, 201, 305, 232, 368
-0.983031, 53, 337, 84, 464
-0.983167, 201, 145, 232, 272
-0.983228, 165, 305, 196, 432
-0.983246, 237, 273, 268, 336
-0.983261, 193, 433, 320, 496
-0.983302, 113, 41, 144, 104
-0.983422, 81, 145, 112, 272
-0.983426, 1, 361, 128, 424
-0.983426, 77, 353, 108, 480
-0.98345, 145, 81, 176, 208
-0.983502, 245, 9, 276, 72
-0.983561, 205, 305, 236, 432
-0.983642, 89, 1, 152, 500
-0.983655, 105, 145, 136, 272
-0.983677, 249, 249, 312, 312
-0.983708, 197, 65, 228, 192
-0.983713, 149, 289, 180, 352
-0.983722, 277, 9, 308, 72
-0.983749, 113, 209, 240, 272
-0.983768, 193, 289, 320, 352
-0.983772, 1, 113, 128, 176
-0.983783, 273, 305, 304, 368
-0.983793, 49, 353, 176, 416
-0.983868, 141, 9, 172, 72
-0.984027, 225, 1, 288, 500
-0.98408, 65, 337, 96, 464
-0.984175, 257, 241, 288, 368
-0.984263, 225, 65, 256, 192
-0.984276, 81, 185, 144, 248
-0.984281, 281, 289, 312, 416
-0.984338, 225, 9, 256, 72
-0.984386, 157, 145, 188, 272
-0.984429, 65, 1, 96, 128
-0.984587, 225, 305, 256, 432
-0.984601, 241, 121, 368, 184
-0.984715, 65, 145, 96, 272
-0.984752, 97, 153, 224, 216
-0.984758, 185, 1, 248, 500
-0.98477, 265, 321, 296, 448
-0.984822, 97, 353, 224, 416
-0.984828, 181, 9, 212, 72
-0.984873, 277, 97, 308, 224
-0.984891, 257, 65, 288, 192
-0.984909, 89, 353, 120, 480
-0.984918, 49, 257, 112, 500
-0.98501, 253, 241, 284, 304
-0.985094, 129, 1, 192, 500
-0.985107, 241, 409, 368, 472
-0.985206, 209, 209, 240, 272
-0.985219, 185, 209, 216, 272
-0.985231, 241, 113, 304, 176
-0.98534, 193, 353, 256, 416
-0.985354, 209, 9, 240, 72
-0.98551, 9, 25, 40, 88
-0.98551, 337, 25, 368, 88
-0.985519, 177, 345, 304, 408
-0.985533, 101, 153, 132, 216
-0.985569, 305, 1, 336, 64
-0.985668, 101, 41, 132, 104
-0.985676, 49, 289, 80, 416
-0.985679, 249, 177, 280, 240
-0.985716, 229, 321, 260, 384
-0.985829, 289, 313, 352, 376
-0.985951, 81, 257, 144, 500
-0.986028, 293, 9, 324, 72
-0.986059, 49, 209, 80, 336
-0.986251, 89, 65, 120, 128
-0.9863, 137, 145, 168, 272
-0.986438, 229, 153, 260, 216
-0.986439, 129, 353, 192, 480
-0.986443, 197, 41, 228, 104
-0.986549, 49, 201, 176, 264
-0.986637, 253, 193, 284, 320
-0.986669, 177, 329, 240, 392
-0.986709, 337, 433, 368, 496
-0.98675, 129, 41, 160, 104
-0.986755, 201, 353, 232, 480
-0.986767, 9, 433, 40, 496
-0.98679, 257, 9, 288, 72
-0.986828, 89, 153, 120, 216
-0.986845, 33, 233, 288, 296
-0.986942, 297, 193, 328, 320
-0.986989, 1, 385, 128, 448
-0.987009, 113, 89, 240, 152
-0.987027, 169, 145, 200, 272
-0.987072, 261, 177, 292, 240
-0.987102, 185, 41, 216, 104
-0.987124, 113, 329, 144, 392
-0.987167, 245, 337, 276, 400
-0.987175, 133, 241, 164, 368
-0.987261, 161, 89, 288, 152
-0.987262, 133, 241, 164, 304
-0.987267, 153, 1, 216, 500
-0.987416, 113, 353, 144, 416
-0.987438, 177, 185, 304, 248
-0.987535, 125, 353, 156, 480
-0.987551, 337, 97, 368, 160
-0.987591, 269, 433, 300, 496
-0.987785, 97, 69, 160, 100
-0.987834, 145, 225, 176, 352
-0.987876, 145, 449, 208, 480
-0.9879, 89, 65, 120, 192
-0.987981, 109, 225, 140, 288
-0.988003, 157, 153, 188, 216
-0.988045, 121, 449, 184, 480
-0.988048, 293, 81, 324, 208
-0.988094, 73, 153, 104, 216
-0.988191, 117, 153, 148, 216
-0.988197, 65, 337, 96, 400
-0.988254, 77, 353, 108, 416
-0.988298, 121, 69, 184, 100
-0.988329, 337, 49, 368, 176
-0.988331, 1, 153, 375, 216
-0.988415, 129, 9, 160, 72
-0.988422, 249, 41, 280, 104
-0.988426, 33, 297, 288, 360
-0.988443, 49, 225, 80, 288
-0.98845, 97, 449, 160, 480
-0.988482, 293, 313, 324, 376
-0.988484, 265, 161, 328, 192
-0.988512, 121, 289, 152, 416
-0.988546, 169, 69, 232, 100
-0.988555, 169, 445, 232, 476
-0.988634, 297, 177, 328, 240
-0.988651, 125, 337, 156, 400
-0.988669, 193, 69, 256, 100
-0.988725, 277, 345, 308, 408
-0.988729, 241, 97, 368, 160
-0.98875, 137, 461, 200, 492
-0.98875, 273, 273, 304, 336
-0.988816, 1, 233, 375, 296
-0.988833, 305, 13, 368, 44
-0.98884, 133, 153, 164, 216
-0.98889, 189, 353, 220, 480
-0.988916, 49, 353, 80, 416
-0.988918, 225, 445, 288, 476
-0.988945, 9, 17, 72, 48
-0.988986, 337, 57, 368, 120
-0.988996, 33, 265, 288, 328
-0.989022, 145, 337, 176, 400
-0.989033, 289, 129, 352, 256
-0.989051, 97, 409, 224, 472
-0.989064, 337, 113, 368, 240
-0.989087, 185, 281, 248, 312
-0.989088, 217, 69, 280, 100
-0.989142, 193, 445, 256, 476
-0.989168, 1, 65, 256, 128
-0.989213, 201, 305, 264, 336
-0.989218, 145, 69, 208, 100
-0.989223, 233, 193, 264, 320
-0.989236, 113, 465, 176, 496
-0.989292, 185, 237, 248, 268
-0.989318, 101, 353, 132, 416
-0.989324, 49, 177, 176, 240
-0.989373, 233, 241, 264, 304
-0.989382, 145, 241, 176, 304
-0.989391, 297, 217, 328, 280
-0.989401, 9, 281, 72, 312
-0.989403, 121, 225, 152, 352
-0.989406, 9, 257, 72, 288
-0.989411, 9, 305, 72, 336
-0.989424, 9, 245, 72, 276
-0.989425, 153, 341, 216, 372
-0.989457, 241, 377, 368, 440
-0.989474, 9, 49, 40, 176
-0.989489, 9, 293, 72, 324
-0.989515, 9, 269, 72, 300
-0.989523, 293, 337, 324, 464
-0.989525, 121, 249, 152, 312
-0.989526, 249, 265, 280, 328
-0.989535, 193, 329, 224, 392
-0.989579, 145, 153, 176, 216
-0.989594, 129, 73, 375, 136
-0.989614, 185, 293, 248, 324
-0.98962, 153, 301, 216, 332
-0.989624, 9, 317, 72, 348
-0.989646, 177, 465, 240, 496
-0.989656, 9, 233, 72, 264
-0.989657, 293, 273, 324, 400
-0.989661, 185, 257, 248, 288
-0.989668, 233, 317, 296, 348
-0.98967, 141, 337, 172, 464
-0.989692, 9, 217, 72, 248
-0.989711, 89, 13, 152, 44
-0.98978, 121, 85, 184, 116
-0.989791, 1, 433, 256, 496
-0.989804, 57, 9, 120, 40
-0.989807, 89, 465, 152, 496
-0.98982, 201, 465, 264, 496
-0.989824, 49, 161, 112, 192
-0.989853, 121, 13, 184, 44
-0.989858, 185, 269, 248, 300
-0.989873, 305, 209, 368, 240
-0.989886, 305, 169, 368, 200
-0.989889, 161, 85, 224, 116
-0.989917, 269, 225, 300, 352
-0.989945, 129, 433, 375, 496
-0.989957, 9, 329, 72, 360
-0.989961, 65, 193, 128, 320
-0.989962, 305, 181, 368, 212
-0.989965, 53, 97, 84, 224
-0.989983, 305, 221, 368, 252
-0.989997, 129, 233, 375, 296
-0.990044, 109, 305, 140, 432
-0.990062, 273, 13, 336, 44
-0.990079, 305, 197, 368, 228
-0.99008, 201, 85, 264, 116
-0.990096, 109, 225, 140, 352
-0.990098, 33, 273, 64, 400
-0.990101, 49, 221, 112, 252
-0.990104, 9, 349, 72, 380
-0.990121, 233, 305, 296, 336
-0.990127, 249, 353, 312, 480
-0.990144, 9, 205, 72, 236
-0.99016, 33, 1, 96, 500
-0.990172, 177, 129, 304, 192
-0.990177, 65, 89, 192, 152
-0.990182, 9, 169, 72, 200
-0.990185, 153, 321, 216, 352
-0.990191, 233, 289, 296, 320
-0.990204, 1, 257, 375, 320
-0.990205, 145, 289, 208, 320
-0.990205, 313, 157, 375, 188
-0.990239, 225, 469, 288, 500
-0.990263, 9, 185, 72, 216
-0.990265, 233, 329, 296, 360
-0.990298, 281, 337, 312, 464
-0.990304, 33, 13, 96, 44
-0.990333, 313, 237, 375, 268
-0.99035, 9, 129, 40, 256
-0.99035, 9, 177, 40, 304
-0.99035, 9, 225, 40, 352
-0.99035, 9, 273, 40, 400
-0.99035, 9, 321, 40, 448
-0.990357, 273, 333, 336, 364
-0.990375, 233, 81, 296, 112
-0.990386, 241, 349, 304, 380
-0.990419, 1, 9, 256, 72
-0.990424, 313, 249, 375, 280
-0.990442, 177, 309, 240, 340
-0.990456, 313, 261, 375, 292
-0.990457, 241, 13, 304, 44
-0.990469, 153, 277, 216, 308
-0.990477, 265, 313, 328, 344
-0.990517, 33, 337, 288, 400
-0.990529, 313, 297, 375, 328
-0.990545, 9, 5, 72, 36
-0.990552, 313, 273, 375, 304
-0.990567, 209, 253, 272, 284
-0.990578, 313, 317, 375, 348
-0.990581, 313, 341, 375, 372
-0.990626, 33, 209, 288, 272
-0.990631, 1, 157, 64, 188
-0.990634, 217, 273, 280, 304
-0.990658, 121, 317, 184, 348
-0.990672, 313, 285, 375, 316
-0.990677, 33, 153, 288, 216
-0.990697, 233, 457, 296, 488
-0.9907, 201, 57, 264, 88
-0.99072, 41, 341, 104, 372
-0.990726, 313, 329, 375, 360
-0.990737, 337, 289, 368, 416
-0.990793, 177, 13, 240, 44
-0.990802, 89, 81, 152, 112
-0.990823, 129, 9, 375, 72
-0.990832, 273, 345, 336, 376
-0.990832, 201, 13, 264, 44
-0.990849, 1, 29, 64, 60
-0.990861, 161, 237, 224, 268
-0.99089, 65, 73, 128, 104
-0.99094, 41, 209, 104, 240
-0.990956, 213, 353, 244, 480
-0.990958, 273, 289, 336, 320
-0.991004, 177, 321, 208, 448
-0.991048, 161, 253, 224, 284
-0.991049, 265, 301, 328, 332
-0.991054, 9, 369, 40, 496
-0.991068, 305, 145, 336, 272
-0.991069, 153, 13, 216, 44
-0.991075, 1, 409, 64, 440
-0.991087, 337, 337, 368, 464
-0.991099, 81, 229, 144, 260
-0.991112, 225, 161, 288, 192
-0.991117, 273, 173, 336, 204
-0.991121, 305, 353, 368, 384
-0.991152, 337, 177, 368, 304
-0.991152, 153, 57, 216, 88
-0.991162, 313, 65, 375, 96
-0.991162, 129, 257, 375, 320
-0.991164, 249, 69, 312, 100
-0.991165, 273, 357, 336, 388
-0.991177, 193, 357, 256, 388
-0.9912, 129, 297, 375, 360
-0.991218, 9, 361, 72, 392
-0.991253, 249, 469, 312, 500
-0.991263, 337, 225, 368, 352
-0.991281, 49, 353, 112, 384
-0.991285, 81, 1, 144, 32
-0.991292, 265, 277, 328, 308
-0.991301, 1, 305, 375, 368
-0.991318, 177, 321, 240, 352
-0.991343, 113, 57, 176, 88
-0.991354, 273, 185, 336, 216
-0.991356, 65, 97, 96, 224
-0.991362, 9, 465, 72, 496
-0.991412, 89, 437, 152, 468
-0.991413, 1, 97, 64, 128
-0.991421, 33, 177, 64, 304
-0.991423, 121, 329, 184, 360
-0.991431, 209, 345, 272, 376
-0.991441, 97, 185, 224, 248
-0.991447, 249, 361, 312, 392
-0.991454, 113, 353, 176, 384
-0.991456, 265, 257, 328, 288
-0.991479, 313, 465, 375, 496
-0.991491, 1, 393, 64, 424
-0.991495, 273, 197, 336, 228
-0.991648, 273, 49, 336, 176
-0.991663, 233, 353, 264, 480
-0.991691, 81, 129, 208, 192
-0.991825, 201, 445, 232, 476
-0.991835, 1, 201, 375, 264
-0.991878, 157, 449, 188, 480
-0.991899, 245, 449, 276, 480
-0.991904, 185, 69, 216, 100
-0.991993, 157, 65, 188, 96
-0.992002, 181, 461, 212, 492
-0.992006, 101, 69, 132, 100
-0.992029, 133, 69, 164, 100
-0.992046, 233, 69, 264, 100
-0.992064, 145, 449, 176, 480
-0.992075, 249, 69, 280, 100
-0.992104, 177, 449, 208, 480
-0.992114, 213, 69, 244, 100
-0.992119, 97, 305, 128, 432
-0.992126, 221, 449, 252, 480
-0.992129, 129, 449, 160, 480
-0.992131, 1, 73, 375, 136
-0.992135, 225, 461, 256, 492
-0.992152, 129, 321, 375, 384
-0.99216, 245, 461, 276, 492
-0.99217, 145, 69, 176, 100
-0.992173, 201, 69, 232, 100
-0.992176, 201, 461, 232, 492
-0.992203, 189, 445, 220, 476
-0.992228, 149, 461, 180, 492
-0.992235, 137, 461, 168, 492
-0.992245, 161, 465, 192, 496
-0.992256, 333, 13, 364, 44
-0.992278, 233, 449, 264, 480
-0.992353, 113, 65, 144, 96
-0.992355, 157, 209, 188, 336
-0.992361, 173, 325, 204, 356
-0.992379, 113, 445, 144, 476
-0.99238, 13, 17, 44, 48
-0.992393, 293, 161, 324, 192
-0.992397, 173, 69, 204, 100
-0.992408, 213, 461, 244, 492
-0.992412, 189, 233, 220, 264
-0.992447, 245, 313, 276, 344
-0.992449, 125, 461, 156, 492
-0.992454, 189, 85, 220, 116
-0.992461, 129, 461, 256, 492
-0.992483, 161, 69, 288, 100
-0.992497, 189, 313, 220, 344
-0.992504, 317, 9, 348, 40
-0.992505, 225, 305, 256, 336
-0.992566, 81, 9, 112, 40
-0.992586, 165, 81, 196, 112
-0.992589, 217, 85, 248, 116
-0.992594, 253, 325, 284, 356
-0.992596, 305, 13, 336, 44
-0.992598, 217, 293, 248, 324
-0.992606, 97, 13, 128, 44
-0.992608, 81, 69, 208, 100
-0.992612, 257, 465, 288, 496
-0.992616, 261, 341, 292, 372
-0.992618, 97, 449, 128, 480
-0.992624, 261, 161, 292, 192
-0.992626, 257, 449, 288, 480
-0.992629, 117, 77, 148, 108
-0.992633, 155, 65, 170, 128
-0.992637, 1, 1, 32, 128
-0.992656, 53, 161, 84, 192
-0.992666, 197, 433, 212, 496
-0.992668, 153, 317, 184, 348
-0.992675, 37, 13, 68, 44
-0.992675, 69, 13, 100, 44
-0.992695, 97, 461, 128, 492
-0.992697, 161, 449, 288, 480
-0.992704, 293, 13, 324, 44
-0.992717, 277, 13, 308, 44
-0.992725, 53, 13, 84, 44
-0.992738, 241, 13, 272, 44
-0.992741, 33, 225, 64, 352
-0.992746, 113, 13, 144, 44
-0.992764, 201, 309, 232, 340
-0.992764, 149, 13, 180, 44
-0.992764, 177, 13, 208, 44
-0.992766, 25, 9, 56, 40
-0.992767, 213, 13, 244, 44
-0.99278, 261, 73, 292, 104
-0.992781, 273, 161, 304, 192
-0.992784, 13, 5, 44, 36
-0.992785, 113, 465, 144, 496
-0.99279, 161, 329, 192, 360
-0.99279, 197, 269, 228, 300
-0.992795, 153, 345, 184, 376
-0.992798, 221, 273, 252, 304
-0.992805, 129, 13, 160, 44
-0.992809, 173, 285, 204, 316
-0.99282, 261, 13, 292, 44
-0.992829, 245, 161, 276, 192
-0.992838, 145, 81, 176, 112
-0.99285, 85, 289, 116, 416
-0.992856, 193, 253, 224, 284
-0.99286, 237, 81, 268, 112
-0.99286, 165, 13, 196, 44
-0.992869, 217, 257, 248, 288
-0.992871, 241, 321, 368, 352
-0.992875, 205, 85, 236, 116
-0.992878, 85, 469, 116, 500
-0.992882, 97, 437, 128, 468
-0.992893, 53, 341, 84, 372
-0.992896, 261, 305, 292, 336
-0.992898, 133, 85, 164, 116
-0.992908, 177, 269, 208, 300
-0.992912, 225, 13, 256, 44
-0.992921, 221, 57, 252, 88
-0.992921, 213, 437, 244, 468
-0.992922, 177, 81, 208, 112
-0.992927, 147, 65, 162, 128
-0.992941, 211, 433, 226, 496
-0.992943, 121, 233, 152, 264
-0.992943, 141, 65, 156, 128
-0.992945, 173, 257, 204, 288
-0.992947, 253, 261, 284, 292
-0.992948, 337, 29, 368, 60
-0.992948, 237, 297, 268, 328
-0.992952, 173, 309, 204, 340
-0.992956, 193, 297, 224, 328
-0.992976, 213, 245, 244, 276
-0.992984, 105, 229, 136, 260
-0.992985, 213, 65, 228, 128
-0.992994, 219, 65, 234, 128
-0.992997, 133, 345, 164, 376
-0.993002, 233, 57, 264, 88
-0.993008, 249, 349, 280, 380
-0.993011, 193, 13, 224, 44
-0.993018, 117, 361, 148, 392
-0.993021, 89, 73, 120, 104
-0.993024, 9, 29, 40, 60
-0.993035, 209, 57, 240, 88
-0.993036, 269, 317, 300, 348
-0.993039, 97, 85, 128, 116
-0.993049, 145, 329, 176, 360
-0.993055, 53, 1, 84, 32
-0.993055, 273, 345, 304, 376
-0.993056, 253, 85, 284, 116
-0.993057, 337, 109, 368, 140
-0.99306, 149, 293, 180, 324
-0.993071, 1, 177, 375, 240
-0.993078, 213, 305, 244, 336
-0.993078, 13, 465, 44, 496
-0.993083, 269, 449, 300, 480
-0.993086, 337, 465, 368, 496
-0.993095, 269, 285, 300, 316
-0.993109, 49, 329, 80, 360
-0.993113, 333, 1, 364, 32
-0.993115, 161, 277, 192, 308
-0.993116, 269, 465, 300, 496
-0.993136, 259, 65, 274, 128
-0.993137, 15, 1, 30, 64
-0.993162, 129, 153, 375, 216
-0.993238, 281, 241, 312, 368
-0.993245, 113, 433, 128, 496
-0.993283, 145, 309, 272, 340
-0.993286, 1, 433, 375, 496
-0.993315, 129, 129, 256, 192
-0.993324, 1, 281, 375, 344
-0.993335, 187, 65, 202, 128
-0.993337, 129, 293, 256, 324
-0.993338, 129, 209, 375, 272
-0.99337, 205, 65, 220, 128
-0.993392, 129, 409, 375, 472
-0.993403, 81, 449, 208, 480
-0.993412, 161, 433, 176, 496
-0.993413, 107, 433, 122, 496
-0.993417, 219, 433, 234, 496
-0.993439, 1, 329, 375, 392
-0.993458, 205, 433, 220, 496
-0.993458, 241, 13, 368, 44
-0.993458, 1, 221, 128, 252
-0.993461, 133, 65, 148, 128
-0.993488, 1, 17, 128, 48
-0.993502, 347, 1, 362, 64
-0.993532, 105, 65, 120, 128
-0.993543, 245, 65, 260, 128
-0.993558, 345, 1, 375, 128
-0.993586, 33, 185, 288, 248
-0.993595, 119, 65, 134, 128
-0.993613, 241, 161, 368, 192
-0.993618, 199, 65, 214, 128
-0.993648, 171, 65, 186, 128
-0.993711, 49, 401, 176, 464
-0.993726, 1, 361, 256, 424
-0.993732, 193, 65, 208, 128
-0.993796, 129, 345, 375, 408
-0.993802, 161, 65, 176, 128
-0.993802, 99, 433, 114, 496
-0.993832, 33, 233, 160, 264
-0.993834, 161, 409, 288, 472
-0.993882, 225, 49, 240, 112
-0.993886, 161, 369, 288, 432
-0.993894, 81, 469, 208, 500
-0.993895, 119, 433, 134, 496
-0.9939, 129, 49, 375, 112
-0.993942, 177, 329, 304, 360
-0.99395, 177, 469, 304, 500
-0.993954, 181, 433, 196, 496
-0.993963, 233, 65, 248, 128
-0.994043, 137, 433, 152, 496
-0.994091, 219, 281, 234, 344
-0.994097, 229, 433, 244, 496
-0.994098, 171, 433, 186, 496
-0.994101, 161, 281, 288, 312
-0.994113, 261, 433, 276, 496
-0.994114, 251, 65, 266, 128
-0.994125, 209, 301, 336, 332
-0.994128, 241, 333, 368, 364
-0.994144, 307, 153, 322, 216
-0.994146, 191, 433, 206, 496
-0.994183, 161, 237, 288, 268
-0.994189, 143, 433, 158, 496
-0.994227, 127, 433, 142, 496
-0.994242, 1, 353, 128, 384
-0.994243, 177, 65, 192, 128
-0.994267, 1, 33, 256, 96
-0.99427, 111, 65, 126, 128
-0.994283, 1, 89, 256, 152
-0.994293, 241, 461, 368, 492
-0.994299, 247, 433, 262, 496
-0.994359, 235, 433, 250, 496
-0.994362, 151, 433, 166, 496
-0.994376, 95, 1, 110, 64
-0.994419, 241, 245, 368, 276
-0.994433, 1, 9, 375, 72
-0.994443, 1, 73, 128, 104
-0.994468, 1, 161, 128, 192
-0.994476, 177, 341, 304, 372
-0.994479, 119, 1, 134, 64
-0.994483, 271, 153, 286, 216
-0.994495, 241, 181, 368, 212
-0.994501, 63, 1, 78, 64
-0.994554, 113, 233, 240, 264
-0.994597, 241, 257, 368, 288
-0.994622, 333, 1, 348, 64
-0.994625, 129, 113, 375, 176
-0.994631, 241, 289, 368, 320
-0.994638, 241, 65, 368, 96
-0.99464, 101, 1, 116, 64
-0.994679, 241, 1, 272, 256
-0.99468, 1, 205, 128, 236
-0.994692, 27, 1, 42, 64
-0.994695, 33, 245, 160, 276
-0.994704, 113, 249, 240, 280
-0.994705, 157, 313, 172, 376
-0.994717, 81, 85, 208, 116
-0.994741, 241, 357, 368, 388
-0.994756, 269, 1, 300, 256
-0.994786, 125, 65, 140, 128
-0.994806, 241, 233, 368, 264
-0.994809, 259, 153, 274, 216
-0.994832, 129, 349, 256, 380
-0.994837, 195, 225, 210, 288
-0.994854, 153, 1, 184, 256
-0.994867, 165, 1, 196, 256
-0.994872, 221, 1, 252, 256
-0.994872, 271, 329, 286, 392
-0.994874, 209, 273, 336, 304
-0.994916, 177, 1, 208, 256
-0.994921, 177, 41, 192, 104
-0.99496, 1, 341, 128, 372
-0.994972, 83, 1, 98, 64
-0.994978, 1, 429, 128, 460
-0.995009, 145, 437, 272, 468
-0.99502, 133, 1, 164, 256
-0.995027, 165, 41, 180, 104
-0.995034, 1, 61, 128, 92
-0.995048, 241, 193, 368, 224
-0.995066, 111, 1, 126, 64
-0.995074, 33, 257, 160, 288
-0.995108, 49, 341, 176, 372
-0.995108, 189, 1, 220, 256
-0.995118, 241, 213, 368, 244
-0.995122, 191, 289, 206, 352
-0.995141, 47, 1, 62, 64
-0.99516, 117, 1, 148, 256
-0.995179, 265, 65, 280, 128
-0.995206, 257, 1, 288, 256
-0.99521, 105, 1, 136, 256
-0.995211, 129, 321, 256, 352
-0.995236, 129, 369, 375, 432
-0.995242, 125, 1, 140, 64
-0.995242, 209, 1, 240, 256
-0.995245, 257, 313, 272, 376
-0.995248, 81, 13, 208, 44
-0.995251, 35, 1, 50, 64
-0.995266, 1, 277, 128, 308
-0.995272, 1, 5, 128, 36
-0.995299, 161, 269, 288, 300
-0.995302, 233, 289, 248, 352
-0.995303, 241, 345, 368, 376
-0.99531, 55, 153, 70, 216
-0.995336, 89, 1, 104, 64
-0.995369, 265, 153, 280, 216
-0.995379, 187, 257, 202, 320
-0.995382, 319, 1, 334, 64
-0.995384, 1, 313, 128, 344
-0.995387, 1, 193, 128, 224
-0.995395, 1, 461, 128, 492
-0.9954, 69, 1, 84, 64
-0.9954, 197, 305, 212, 368
-0.995413, 1, 289, 128, 320
-0.995416, 267, 433, 282, 496
-0.995417, 237, 9, 252, 72
-0.995429, 193, 13, 320, 44
-0.995435, 193, 257, 320, 288
-0.995435, 1, 329, 128, 360
-0.99546, 213, 265, 228, 328
-0.995471, 225, 265, 240, 328
-0.995474, 93, 433, 108, 496
-0.995487, 227, 73, 242, 136
-0.995495, 1, 409, 256, 472
-0.995511, 171, 9, 186, 72
-0.995525, 113, 261, 240, 292
-0.995552, 241, 433, 256, 496
-0.995557, 85, 1, 116, 256
-0.995561, 129, 185, 375, 248
-0.995567, 193, 225, 224, 480
-0.995569, 1, 173, 128, 204
-0.99557, 41, 1, 56, 64
-0.995591, 99, 65, 114, 128
-0.995592, 253, 153, 268, 216
-0.99562, 185, 297, 200, 360
-0.995624, 263, 313, 278, 376
-0.995641, 255, 433, 270, 496
-0.995673, 1, 301, 128, 332
-0.99569, 241, 77, 368, 108
-0.995721, 193, 81, 320, 112
-0.995727, 57, 1, 72, 64
-0.995727, 21, 1, 36, 64
-0.99573, 49, 161, 176, 192
-0.995785, 129, 85, 256, 116
-0.99579, 161, 289, 176, 352
-0.995794, 243, 297, 258, 360
-0.995803, 193, 161, 320, 192
-0.99581, 183, 41, 198, 104
-0.995824, 55, 313, 70, 376
-0.99585, 241, 445, 368, 476
-0.995856, 243, 41, 258, 104
-0.995857, 277, 265, 292, 328
-0.995879, 185, 233, 200, 296
-0.995901, 247, 9, 262, 72
-0.995909, 281, 1, 312, 256
-0.99591, 257, 129, 288, 384
-0.995913, 327, 1, 342, 64
-0.995915, 281, 153, 296, 216
-0.995924, 299, 153, 314, 216
-0.995929, 203, 225, 218, 288
-0.995943, 169, 161, 200, 416
-0.995948, 97, 305, 224, 336
-0.995954, 1, 49, 128, 80
-0.995957, 293, 1, 324, 256
-0.995972, 177, 257, 208, 500
-0.995972, 155, 281, 170, 344
-0.995973, 213, 257, 244, 500
-0.995987, 293, 129, 324, 384
-0.995995, 113, 277, 240, 308
-0.996021, 269, 297, 284, 360
-0.996022, 249, 305, 264, 368
-0.996034, 13, 1, 44, 256
-0.996043, 129, 57, 256, 88
-0.996051, 69, 1, 100, 256
-0.996052, 341, 1, 356, 64
-0.996057, 1, 365, 128, 396
-0.996062, 145, 13, 272, 44
-0.996069, 81, 353, 208, 384
-0.996075, 227, 289, 242, 352
-0.99608, 49, 329, 176, 360
-0.996099, 109, 41, 124, 104
-0.996102, 177, 353, 304, 384
-0.996111, 165, 321, 180, 384
-0.996114, 253, 41, 268, 104
-0.996126, 161, 449, 176, 480
-0.996138, 219, 9, 234, 72
-0.99614, 103, 153, 118, 216
-0.996141, 77, 1, 92, 64
-0.996165, 129, 333, 256, 364
-0.996173, 171, 273, 186, 336
-0.996175, 193, 97, 224, 352
-0.996175, 81, 57, 208, 88
-0.996186, 239, 65, 254, 128
-0.9962, 1, 33, 128, 64
-0.996203, 231, 41, 246, 104
-0.996231, 181, 9, 196, 72
-0.996233, 1, 113, 256, 176
-0.99624, 1, 449, 128, 480
-0.996246, 237, 41, 252, 104
-0.996246, 205, 129, 236, 384
-0.996248, 283, 9, 298, 72
-0.996249, 247, 337, 262, 400
-0.996257, 97, 221, 224, 252
-0.996265, 187, 9, 202, 72
-0.99627, 273, 433, 288, 496
-0.996284, 309, 177, 324, 240
-0.996284, 211, 305, 226, 368
-0.996295, 151, 305, 166, 368
-0.996314, 161, 9, 176, 72
-0.996318, 221, 97, 252, 352
-0.99632, 247, 153, 262, 216
-0.996326, 159, 41, 174, 104
-0.996335, 171, 449, 186, 480
-0.996339, 203, 69, 218, 100
-0.996353, 135, 41, 150, 104
-0.996377, 333, 1, 364, 256
-0.996381, 189, 449, 204, 480
-0.996392, 233, 97, 264, 352
-0.996422, 199, 445, 214, 476
-0.996431, 103, 69, 118, 100
-0.996432, 241, 29, 368, 60
-0.996449, 49, 313, 176, 344
-0.996458, 1, 97, 128, 128
-0.99648, 53, 1, 84, 256
-0.996482, 145, 69, 160, 100
-0.996492, 145, 161, 272, 192
-0.996508, 253, 465, 268, 496
-0.99653, 237, 449, 252, 480
-0.996547, 143, 449, 158, 480
-0.996547, 1, 85, 128, 116
-0.996553, 97, 97, 128, 352
-0.996569, 261, 69, 276, 100
-0.996593, 193, 225, 320, 256
-0.996599, 213, 69, 228, 100
-0.996614, 127, 461, 142, 492
-0.99665, 97, 1, 224, 32
-0.99665, 97, 433, 224, 464
-0.996661, 1, 149, 128, 180
-0.996667, 1, 417, 128, 448
-0.99669, 1, 113, 128, 144
-0.996691, 241, 53, 368, 84
-0.996697, 269, 129, 300, 384
-0.996699, 117, 441, 132, 472
-0.9967, 171, 69, 186, 100
-0.996701, 163, 461, 178, 492
-0.996706, 49, 1, 176, 32
-0.996709, 181, 449, 196, 480
-0.996712, 261, 449, 276, 480
-0.996716, 241, 433, 368, 464
-0.996722, 181, 129, 212, 384
-0.996731, 81, 293, 208, 324
-0.996736, 53, 129, 84, 384
-0.996745, 241, 149, 368, 180
-0.996765, 135, 69, 150, 100
-0.996771, 209, 1, 336, 32
-0.996783, 181, 465, 196, 496
-0.996804, 243, 453, 258, 484
-0.996808, 149, 97, 180, 352
-0.99681, 135, 449, 150, 480
-0.99682, 229, 449, 244, 480
-0.996827, 253, 69, 268, 100
-0.99683, 197, 69, 212, 100
-0.996832, 159, 69, 174, 100
-0.996837, 219, 69, 234, 100
-0.996841, 229, 69, 244, 100
-0.996845, 245, 257, 276, 500
-0.996866, 189, 69, 204, 100
-0.996872, 1, 353, 375, 416
-0.996897, 193, 313, 320, 344
-0.996933, 261, 469, 276, 500
-0.996946, 239, 465, 254, 496
-0.996969, 247, 465, 262, 496
-0.996972, 109, 69, 124, 100
-0.99698, 239, 69, 254, 100
-0.996989, 151, 461, 166, 492
-0.997006, 221, 465, 236, 496
-0.997015, 129, 449, 144, 480
-0.99704, 203, 465, 218, 496
-0.997044, 151, 69, 166, 100
-0.997055, 97, 161, 224, 192
-0.997063, 33, 1, 64, 256
-0.997063, 145, 465, 160, 496
-0.997075, 119, 69, 134, 100
-0.997076, 49, 221, 176, 252
-0.997082, 211, 441, 226, 472
-0.997083, 153, 449, 168, 480
-0.997083, 121, 97, 152, 352
-0.997086, 197, 461, 212, 492
-0.997103, 1, 405, 128, 436
-0.997103, 161, 257, 192, 500
-0.99711, 1, 393, 128, 424
-0.997124, 177, 69, 192, 100
-0.997124, 139, 461, 154, 492
-0.997129, 129, 69, 144, 100
-0.997131, 281, 97, 312, 352
-0.997131, 269, 445, 284, 476
-0.997133, 219, 449, 234, 480
-0.997134, 309, 1, 340, 256
-0.997145, 165, 65, 180, 96
-0.997156, 145, 1, 272, 32
-0.997158, 245, 161, 276, 416
-0.997171, 15, 13, 30, 44
-0.997182, 231, 461, 246, 492
-0.997233, 133, 97, 164, 352
-0.997247, 265, 257, 296, 500
-0.997256, 189, 461, 204, 492
-0.99728, 111, 461, 126, 492
-0.997291, 241, 109, 368, 140
-0.997295, 255, 445, 270, 476
-0.99731, 307, 161, 322, 192
-0.997315, 247, 69, 262, 100
-0.997322, 175, 469, 190, 500
-0.997329, 1, 385, 256, 448
-0.997347, 177, 57, 304, 88
-0.997348, 347, 17, 362, 48
-0.997367, 273, 161, 288, 192
-0.997373, 117, 465, 132, 496
-0.997377, 249, 449, 264, 480
-0.997378, 227, 297, 242, 328
-0.997379, 267, 461, 282, 492
-0.997384, 1, 377, 128, 408
-0.99739, 49, 209, 176, 240
-0.997405, 129, 361, 256, 392
-0.997427, 233, 301, 248, 332
-0.997428, 241, 417, 368, 448
-0.997438, 125, 257, 156, 500
-0.997455, 117, 453, 132, 484
-0.997455, 241, 41, 368, 72
-0.997456, 229, 193, 260, 448
-0.997471, 209, 81, 224, 112
-0.997473, 111, 449, 126, 480
-0.997478, 73, 13, 88, 44
-0.997484, 215, 465, 230, 496
-0.997495, 205, 449, 220, 480
-0.997513, 161, 325, 176, 356
-0.997546, 319, 9, 334, 40
-0.997551, 109, 97, 140, 352
-0.997558, 103, 445, 118, 476
-0.99757, 49, 269, 176, 300
-0.997586, 149, 257, 180, 500
-0.997588, 65, 9, 80, 40
-0.997592, 157, 461, 172, 492
-0.997602, 123, 449, 138, 480
-0.997618, 49, 281, 176, 312
-0.997624, 313, 13, 328, 44
-0.997634, 333, 9, 348, 40
-0.997635, 65, 365, 192, 396
-0.997641, 133, 469, 148, 500
-0.997642, 169, 469, 184, 500
-0.997646, 121, 9, 136, 40
-0.997672, 103, 13, 118, 44
-0.997683, 189, 305, 204, 336
-0.997688, 183, 317, 198, 348
-0.997689, 111, 9, 126, 40
-0.997691, 161, 345, 176, 376
-0.997698, 177, 213, 304, 244
-0.997699, 49, 13, 64, 44
-0.997701, 95, 9, 110, 40
-0.997701, 57, 13, 72, 44
-0.997706, 183, 69, 198, 100
-0.997713, 179, 13, 194, 44
-0.997717, 221, 293, 236, 324
-0.997721, 55, 161, 70, 192
-0.997728, 295, 13, 310, 44
-0.99773, 241, 369, 368, 400
-0.997731, 239, 305, 254, 336
-0.997738, 325, 13, 340, 44
-0.997743, 287, 13, 302, 44
-0.997746, 169, 13, 184, 44
-0.997755, 81, 9, 96, 40
-0.997755, 247, 309, 262, 340
-0.99776, 111, 81, 126, 112
-0.997765, 81, 45, 208, 76
-0.997772, 209, 461, 224, 492
-0.99778, 35, 9, 50, 40
-0.99779, 227, 13, 242, 44
-0.997793, 259, 161, 274, 192
-0.997794, 29, 13, 44, 44
-0.997797, 281, 13, 296, 44
-0.997798, 129, 13, 144, 44
-0.997802, 43, 13, 58, 44
-0.997807, 237, 13, 252, 44
-0.997807, 245, 13, 260, 44
-0.997807, 307, 13, 322, 44
-0.997816, 95, 469, 110, 500
-0.99782, 87, 9, 102, 40
-0.997822, 241, 405, 368, 436
-0.997829, 169, 333, 184, 364
-0.997829, 341, 13, 356, 44
-0.997833, 301, 13, 316, 44
-0.997833, 177, 193, 304, 224
-0.997836, 219, 85, 234, 116
-0.997842, 161, 13, 176, 44
-0.99785, 273, 13, 288, 44
-0.997874, 23, 9, 38, 40
-0.997876, 165, 85, 180, 116
-0.997888, 101, 461, 116, 492
-0.997902, 229, 81, 244, 112
-0.997904, 135, 13, 150, 44
-0.997905, 195, 317, 210, 348
-0.997905, 241, 121, 368, 152
-0.997911, 267, 161, 282, 192
-0.997913, 195, 233, 210, 264
-0.997914, 241, 385, 368, 416
-0.997922, 179, 81, 194, 112
-0.997927, 177, 365, 304, 396
-0.997995, 1, 129, 128, 160
-0.998004, 85, 129, 116, 384
-0.998021, 109, 257, 140, 500
-0.998054, 137, 257, 168, 500
-0.998083, 177, 149, 304, 180
-0.998092, 241, 97, 368, 128
-0.998104, 161, 45, 288, 76
-0.998144, 53, 225, 84, 480
-0.998161, 73, 129, 104, 384
-0.998216, 49, 437, 176, 468
-0.998219, 81, 33, 208, 64
-0.998287, 41, 49, 104, 176
-0.99833, 225, 449, 288, 464
-0.998344, 219, 1, 234, 128
-0.998352, 183, 1, 198, 128
-0.998356, 153, 451, 216, 466
-0.998364, 137, 461, 200, 476
-0.998406, 105, 75, 168, 90
-0.998407, 191, 1, 206, 128
-0.998415, 129, 451, 192, 466
-0.998415, 157, 1, 172, 128
-0.99842, 193, 447, 256, 462
-0.998423, 97, 459, 160, 474
-0.998424, 105, 69, 168, 84
-0.998428, 49, 483, 80, 498
-0.998428, 61, 483, 92, 498
-0.998428, 185, 483, 216, 498
-0.998428, 289, 483, 320, 498
-0.998428, 301, 483, 332, 498
-0.998428, 197, 271, 228, 286
-0.998429, 177, 1, 192, 128
-0.998429, 249, 327, 280, 342
-0.998429, 209, 467, 272, 482
-0.99843, 257, 341, 288, 356
-0.99843, 29, 483, 60, 498
-0.99843, 73, 483, 104, 498
-0.99843, 97, 483, 128, 498
-0.99843, 273, 483, 304, 498
-0.998431, 25, 9, 56, 24
-0.998431, 197, 277, 228, 292
-0.998432, 137, 1, 152, 128
-0.998432, 205, 1, 220, 128
-0.998432, 293, 15, 324, 30
-0.998432, 9, 25, 40, 40
-0.998433, 229, 323, 260, 338
-0.998433, 293, 225, 324, 480
-0.998433, 117, 483, 148, 498
-0.998433, 173, 483, 204, 498
-0.998433, 197, 483, 228, 498
-0.998433, 313, 483, 344, 498
-0.998433, 261, 353, 292, 368
-0.998434, 137, 483, 168, 498
-0.998434, 153, 483, 184, 498
-0.998435, 305, 11, 336, 26
-0.998435, 201, 311, 264, 326
-0.998435, 97, 465, 160, 480
-0.998435, 221, 483, 252, 498
-0.998435, 325, 483, 356, 498
-0.998436, 233, 483, 264, 498
-0.998436, 107, 1, 122, 128
-0.998437, 61, 11, 92, 26
-0.998437, 257, 455, 288, 470
-0.998438, 209, 77, 272, 92
-0.998438, 253, 483, 284, 498
-0.998439, 149, 341, 180, 356
-0.998439, 181, 317, 212, 332
-0.99844, 213, 443, 244, 458
-0.99844, 255, 1, 270, 128
-0.998442, 193, 261, 224, 276
-0.998443, 121, 443, 152, 458
-0.998444, 177, 289, 208, 304
-0.998444, 221, 299, 252, 314
-0.998444, 337, 27, 368, 42
-0.998445, 185, 465, 248, 480
-0.998445, 173, 69, 204, 84
-0.998446, 13, 483, 44, 498
-0.998447, 173, 469, 204, 484
-0.998447, 133, 87, 164, 102
-0.998448, 213, 1, 228, 128
-0.998448, 189, 443, 220, 458
-0.99845, 189, 87, 220, 102
-0.99845, 169, 1, 184, 128
-0.998452, 221, 471, 252, 486
-0.998452, 13, 9, 44, 24
-0.998452, 337, 483, 368, 498
-0.998452, 53, 163, 84, 178
-0.998452, 151, 1, 166, 128
-0.998453, 157, 65, 188, 80
-0.998453, 225, 455, 288, 470
-0.998454, 209, 309, 240, 324
-0.998455, 317, 11, 348, 26
-0.998455, 261, 163, 292, 178
-0.998457, 145, 1, 160, 128
-0.998459, 261, 347, 292, 362
-0.998459, 249, 1, 264, 128
-0.998462, 153, 339, 216, 354
-0.998463, 161, 463, 224, 478
-0.998464, 89, 443, 152, 458
-0.998464, 113, 467, 144, 482
-0.998465, 241, 309, 272, 324
-0.998466, 197, 69, 228, 84
-0.998467, 101, 459, 132, 474
-0.998467, 209, 83, 240, 98
-0.998467, 97, 77, 128, 92
-0.998467, 9, 17, 72, 32
-0.998468, 265, 163, 328, 178
-0.998468, 165, 87, 196, 102
-0.998471, 185, 457, 248, 472
-0.998472, 9, 257, 72, 272
-0.998472, 9, 303, 72, 318
-0.998472, 9, 249, 72, 264
-0.998473, 9, 313, 72, 328
-0.998473, 9, 293, 72, 308
-0.998474, 97, 449, 160, 464
-0.998475, 9, 283, 72, 298
-0.998476, 9, 275, 72, 290
-0.998476, 321, 1, 352, 256
-0.998476, 253, 77, 284, 92
-0.998476, 333, 11, 364, 26
-0.998477, 9, 267, 72, 282
-0.998479, 81, 9, 112, 24
-0.998479, 197, 81, 228, 96
-0.99848, 9, 243, 72, 258
-0.998481, 153, 69, 216, 84
-0.998481, 229, 305, 260, 320
-0.998482, 229, 1, 244, 128
-0.998482, 217, 277, 248, 292
-0.998482, 9, 237, 72, 252
-0.998483, 9, 231, 72, 246
-0.998483, 225, 461, 288, 476
-0.998487, 137, 77, 200, 92
-0.998487, 113, 69, 144, 84
-0.998487, 9, 319, 72, 334
-0.998488, 193, 69, 256, 84
-0.998488, 185, 289, 248, 304
-0.998489, 225, 69, 288, 84
-0.99849, 305, 17, 368, 32
-0.998494, 233, 305, 296, 320
-0.998496, 177, 77, 208, 92
-0.998497, 233, 477, 264, 492
-0.998497, 173, 327, 204, 342
-0.998498, 89, 81, 152, 96
-0.998499, 177, 81, 240, 96
-0.998499, 9, 225, 72, 240
-0.998499, 257, 461, 288, 476
-0.998501, 9, 327, 72, 342
-0.998501, 49, 221, 112, 236
-0.998503, 197, 1, 212, 128
-0.998504, 305, 175, 368, 190
-0.998504, 185, 295, 248, 310
-0.998505, 189, 237, 220, 252
-0.998505, 305, 169, 368, 184
-0.998507, 9, 335, 72, 350
-0.998507, 225, 477, 288, 492
-0.998507, 305, 225, 368, 240
-0.998509, 245, 321, 276, 336
-0.99851, 169, 445, 232, 460
-0.99851, 305, 183, 368, 198
-0.998511, 257, 475, 288, 490
-0.998511, 185, 265, 248, 280
-0.998511, 233, 331, 296, 346
-0.998511, 305, 219, 368, 234
-0.998512, 305, 193, 368, 208
-0.998512, 153, 345, 216, 360
-0.998513, 185, 283, 248, 298
-0.998514, 241, 315, 272, 330
-0.998514, 9, 219, 72, 234
-0.998515, 113, 451, 144, 466
-0.998516, 141, 69, 172, 84
-0.998516, 305, 211, 368, 226
-0.998518, 313, 163, 375, 178
-0.998518, 121, 467, 184, 482
-0.998519, 305, 199, 368, 214
-0.998519, 305, 205, 368, 220
-0.99852, 229, 69, 260, 84
-0.99852, 161, 457, 224, 472
-0.998521, 185, 71, 216, 86
-0.998522, 185, 257, 248, 272
-0.998522, 163, 1, 178, 128
-0.998524, 129, 69, 192, 84
-0.998524, 153, 309, 216, 324
-0.998524, 9, 167, 72, 182
-0.998525, 273, 341, 336, 356
-0.998525, 9, 355, 72, 370
-0.998526, 233, 325, 296, 340
-0.998526, 293, 163, 324, 178
-0.998527, 57, 9, 120, 24
-0.998527, 233, 471, 264, 486
-0.998528, 9, 179, 72, 194
-0.998528, 9, 173, 72, 188
-0.998528, 81, 9, 144, 24
-0.998529, 9, 341, 72, 356
-0.99853, 9, 185, 72, 200
-0.998531, 161, 327, 224, 342
-0.998532, 313, 237, 375, 252
-0.998532, 313, 243, 375, 258
-0.998532, 153, 351, 216, 366
-0.998532, 169, 273, 232, 288
-0.998533, 313, 249, 375, 264
-0.998533, 169, 333, 200, 348
-0.998533, 9, 203, 72, 218
-0.998534, 153, 319, 216, 334
-0.998534, 333, 17, 364, 32
-0.998534, 9, 213, 72, 228
-0.998534, 9, 197, 72, 212
-0.998535, 193, 301, 256, 316
-0.998535, 265, 329, 328, 344
-0.998536, 9, 191, 72, 206
-0.998537, 305, 11, 368, 26
-0.998538, 313, 257, 375, 272
-0.998538, 185, 237, 248, 252
-0.998539, 305, 231, 368, 246
-0.99854, 49, 163, 112, 178
-0.99854, 273, 351, 336, 366
-0.998541, 313, 267, 375, 282
-0.998542, 233, 337, 296, 352
-0.998543, 249, 477, 312, 492
-0.998544, 9, 349, 72, 364
-0.998545, 233, 317, 296, 332
-0.998547, 113, 81, 176, 96
-0.998548, 209, 263, 272, 278
-0.998548, 153, 289, 216, 304
-0.998548, 249, 449, 312, 464
-0.998548, 209, 77, 240, 92
-0.99855, 265, 323, 328, 338
-0.998551, 313, 275, 375, 290
-0.998551, 273, 335, 336, 350
-0.998551, 113, 81, 144, 96
-0.998551, 241, 1, 256, 128
-0.998551, 313, 317, 375, 332
-0.998551, 145, 333, 208, 348
-0.998552, 131, 1, 146, 128
-0.998553, 193, 441, 256, 456
-0.998553, 161, 75, 224, 90
-0.998553, 97, 465, 128, 480
-0.998553, 217, 69, 248, 84
-0.998554, 313, 351, 375, 366
-0.998554, 165, 81, 196, 96
-0.998555, 141, 467, 172, 482
-0.998555, 313, 323, 375, 338
-0.998555, 1, 31, 64, 46
-0.998555, 181, 457, 212, 472
-0.998555, 313, 285, 375, 300
-0.998555, 313, 309, 375, 324
-0.998555, 9, 11, 72, 26
-0.998556, 313, 341, 375, 356
-0.998556, 313, 293, 375, 308
-0.998556, 241, 79, 272, 94
-0.998556, 1, 159, 64, 174
-0.998556, 277, 257, 308, 500
-0.998557, 313, 303, 375, 318
-0.998558, 125, 455, 156, 470
-0.998559, 313, 331, 375, 346
-0.99856, 9, 361, 72, 376
-0.99856, 313, 483, 375, 498
-0.998561, 101, 71, 132, 86
-0.998562, 249, 461, 312, 476
-0.998563, 49, 227, 112, 242
-0.998565, 229, 77, 260, 92
-0.998567, 129, 71, 160, 86
-0.998567, 13, 17, 44, 32
-0.998568, 205, 457, 236, 472
-0.998573, 173, 451, 204, 466
-0.998573, 129, 81, 160, 96
-0.998577, 113, 457, 144, 472
-0.998589, 1, 49, 375, 112
-0.998591, 169, 463, 200, 478
-0.998591, 241, 451, 272, 466
-0.998592, 141, 77, 172, 92
-0.998594, 161, 451, 192, 466
-0.998599, 235, 1, 250, 128
-0.9986, 121, 1, 136, 128
-0.9986, 189, 449, 220, 464
-0.998614, 193, 455, 224, 470
-0.998615, 161, 457, 192, 472
-0.998618, 233, 463, 264, 478
-0.998619, 157, 71, 188, 86
-0.998623, 245, 457, 276, 472
-0.998625, 109, 445, 140, 460
-0.998625, 221, 457, 252, 472
-0.998626, 113, 1, 128, 128
-0.998629, 221, 451, 252, 466
-0.998633, 201, 443, 232, 458
-0.998634, 125, 465, 156, 480
-0.998639, 245, 477, 276, 492
-0.998645, 245, 467, 276, 482
-0.998649, 201, 449, 232, 464
-0.998656, 15, 1, 30, 128
-0.998666, 145, 451, 176, 466
-0.998667, 157, 463, 188, 478
-0.998668, 233, 457, 264, 472
-0.99867, 307, 145, 322, 272
-0.998683, 129, 449, 160, 464
-0.998685, 207, 289, 222, 416
-0.99869, 217, 465, 248, 480
-0.998692, 269, 1, 284, 128
-0.998695, 97, 441, 128, 456
-0.998699, 249, 71, 280, 86
-0.998711, 181, 463, 212, 478
-0.998721, 145, 461, 176, 476
-0.998721, 261, 1, 276, 128
-0.998725, 201, 463, 232, 478
-0.998754, 347, 1, 362, 128
-0.998763, 253, 449, 284, 464
-0.998765, 245, 289, 260, 416
-0.99878, 9, 97, 40, 352
-0.99878, 9, 193, 40, 448
-0.998788, 159, 273, 174, 400
-0.998792, 89, 257, 120, 500
-0.998798, 213, 257, 228, 384
-0.998811, 267, 145, 282, 272
-0.998821, 99, 1, 114, 128
-0.998832, 199, 225, 214, 352
-0.998873, 193, 257, 208, 384
-0.998883, 55, 145, 70, 272
-0.998888, 169, 257, 184, 384
-0.998893, 103, 353, 118, 480
-0.998894, 297, 1, 312, 128
-0.998896, 185, 225, 200, 352
-0.998907, 337, 129, 368, 384
-0.998934, 273, 145, 288, 272
-0.998936, 251, 289, 266, 416
-0.998945, 37, 257, 68, 500
-0.998954, 123, 353, 138, 480
-0.998955, 257, 145, 272, 272
-0.99896, 219, 257, 234, 384
-0.998963, 273, 273, 288, 400
-0.998966, 113, 353, 128, 480
-0.998974, 219, 209, 234, 336
-0.998976, 281, 273, 296, 400
-0.998977, 325, 1, 340, 128
-0.998986, 205, 225, 220, 352
-0.998991, 337, 257, 368, 500
-0.998996, 313, 1, 328, 128
-0.998997, 307, 1, 322, 128
-0.999003, 319, 1, 334, 128
-0.999004, 93, 1, 108, 128
-0.999009, 153, 289, 168, 416
-0.999021, 187, 273, 202, 400
-0.999022, 259, 81, 274, 208
-0.999036, 193, 65, 208, 192
-0.999042, 73, 1, 88, 128
-0.999042, 267, 257, 282, 384
-0.999044, 65, 377, 192, 440
-0.999049, 209, 145, 224, 272
-0.99906, 215, 65, 230, 192
-0.99906, 161, 65, 176, 192
-0.999076, 239, 273, 254, 400
-0.999079, 249, 145, 264, 272
-0.99908, 91, 353, 106, 480
-0.999082, 47, 1, 62, 128
-0.999085, 337, 1, 352, 128
-0.999087, 299, 145, 314, 272
-0.999088, 59, 1, 74, 128
-0.99909, 257, 289, 272, 416
-0.999092, 191, 145, 206, 272
-0.999094, 331, 1, 346, 128
-0.999097, 249, 241, 264, 368
-0.999102, 199, 145, 214, 272
-0.999105, 199, 305, 214, 432
-0.999109, 283, 1, 298, 128
-0.99911, 259, 241, 274, 368
-0.999112, 229, 65, 244, 192
-0.999118, 281, 145, 296, 272
-0.99912, 151, 81, 166, 208
-0.99912, 99, 145, 114, 272
-0.999122, 175, 257, 190, 384
-0.999123, 167, 65, 182, 192
-0.999125, 105, 81, 120, 208
-0.999125, 147, 273, 162, 400
-0.999132, 231, 225, 246, 352
-0.999135, 241, 145, 256, 272
-0.999138, 209, 65, 224, 192
-0.999142, 129, 81, 144, 208
-0.999145, 213, 209, 228, 336
-0.999145, 79, 145, 94, 272
-0.999148, 111, 81, 126, 208
-0.999149, 247, 65, 262, 192
-0.999153, 209, 353, 224, 480
-0.999154, 111, 145, 126, 272
-0.999156, 289, 1, 304, 128
-0.999157, 187, 65, 202, 192
-0.999157, 117, 145, 132, 272
-0.999157, 235, 65, 250, 192
-0.999162, 227, 145, 242, 272
-0.999165, 185, 145, 200, 272
-0.999169, 135, 65, 150, 192
-0.999171, 263, 305, 278, 432
-0.999173, 105, 145, 120, 272
-0.999177, 253, 81, 268, 208
-0.999178, 125, 145, 140, 272
-0.999179, 173, 65, 188, 192
-0.99918, 1, 1, 32, 256
-0.99918, 93, 145, 108, 272
-0.999186, 293, 145, 308, 272
-0.99919, 25, 1, 40, 128
-0.999196, 55, 289, 70, 416
-0.999199, 305, 129, 336, 384
-0.999199, 87, 145, 102, 272
-0.9992, 225, 257, 240, 384
-0.999202, 181, 273, 196, 400
-0.999203, 199, 65, 214, 192
-0.999204, 73, 145, 88, 272
-0.999204, 161, 321, 176, 448
-0.999207, 141, 81, 156, 208
-0.999207, 179, 65, 194, 192
-0.999209, 121, 65, 136, 192
-0.999209, 273, 321, 288, 448
-0.999212, 97, 353, 112, 480
-0.999214, 87, 1, 102, 128
-0.999214, 281, 97, 296, 224
-0.999215, 39, 1, 54, 128
-0.999215, 81, 1, 96, 128
-0.999217, 193, 209, 208, 336
-0.999223, 169, 145, 184, 272
-0.999304, 345, 1, 375, 256
-0.999328, 77, 257, 108, 500
-0.999341, 65, 257, 96, 500
-0.999391, 33, 129, 64, 384
-0.999517, 1, 129, 375, 192
-0.99964, 255, 75, 270, 90
-0.99964, 245, 469, 260, 484
-0.99964, 183, 323, 198, 338
-0.999642, 171, 333, 186, 348
-0.999642, 83, 9, 98, 24
-0.999644, 259, 481, 274, 496
-0.999645, 211, 83, 226, 98
-0.999645, 117, 69, 132, 84
-0.999646, 257, 69, 272, 84
-0.999647, 219, 77, 234, 92
-0.999647, 103, 457, 118, 472
-0.999649, 209, 455, 224, 470
-0.99965, 107, 79, 122, 94
-0.999651, 187, 77, 202, 92
-0.999652, 103, 449, 118, 464
-0.999653, 237, 71, 252, 86
-0.999653, 195, 467, 210, 482
-0.999656, 1, 401, 375, 464
-0.999657, 209, 449, 224, 464
-0.999657, 153, 449, 168, 464
-0.999657, 273, 163, 288, 178
-0.999657, 253, 81, 268, 96
-0.999659, 97, 9, 112, 24
-0.999659, 195, 81, 210, 96
-0.99966, 175, 467, 190, 482
-0.99966, 133, 461, 148, 476
-0.999661, 111, 449, 126, 464
-0.999662, 233, 301, 248, 316
-0.999662, 119, 77, 134, 92
-0.999663, 169, 467, 184, 482
-0.999664, 189, 69, 204, 84
-0.999665, 167, 455, 182, 470
-0.999666, 111, 441, 126, 456
-0.999667, 145, 465, 160, 480
-0.999667, 347, 17, 362, 32
-0.999669, 155, 69, 170, 84
-0.999671, 179, 69, 194, 84
-0.999671, 161, 345, 176, 360
-0.999671, 163, 75, 178, 90
-0.999675, 111, 69, 126, 84
-0.999676, 169, 447, 184, 462
-0.999677, 197, 71, 212, 86
-0.99968, 227, 77, 242, 92
-0.999685, 243, 71, 258, 86
-0.999685, 137, 77, 152, 92
-0.999687, 99, 463, 114, 478
-0.999687, 225, 465, 240, 480
-0.999688, 117, 449, 132, 464
-0.999688, 201, 77, 216, 92
-0.999688, 171, 69, 186, 84
-0.999688, 129, 69, 144, 84
-0.999689, 269, 455, 284, 470
-0.99969, 307, 163, 322, 178
-0.99969, 261, 451, 276, 466
-0.999696, 135, 449, 150, 464
-0.999696, 219, 71, 234, 86
-0.999698, 249, 451, 264, 466
-0.999702, 15, 17, 30, 32
-0.999703, 177, 75, 192, 90
-0.999704, 145, 77, 160, 92
-0.999708, 213, 441, 228, 456
-0.999709, 163, 69, 178, 84
-0.999711, 127, 457, 142, 472
-0.999712, 189, 455, 204, 470
-0.999713, 177, 81, 192, 96
-0.999713, 219, 447, 234, 462
-0.999714, 241, 77, 256, 92
-0.999715, 155, 77, 170, 92
-0.999716, 229, 69, 244, 84
-0.999716, 225, 459, 240, 474
-0.999716, 247, 463, 262, 478
-0.999716, 237, 455, 252, 470
-0.999717, 253, 481, 268, 496
-0.999723, 147, 459, 162, 474
-0.999724, 259, 467, 274, 482
-0.999725, 247, 77, 262, 92
-0.999727, 139, 71, 154, 86
-0.999728, 233, 77, 248, 92
-0.999731, 251, 69, 266, 84
-0.999731, 243, 307, 258, 322
-0.999737, 207, 77, 222, 92
-0.999738, 203, 71, 218, 86
-0.999739, 209, 71, 224, 86
-0.999743, 233, 463, 248, 478
-0.999743, 247, 475, 262, 490
-0.999744, 149, 71, 164, 86
-0.999753, 139, 463, 154, 478
-0.999755, 195, 453, 210, 468
-0.999758, 261, 457, 276, 472
-0.999758, 111, 463, 126, 478
-0.99976, 211, 461, 226, 476
-0.999764, 173, 461, 188, 476
-0.999766, 179, 455, 194, 470
-0.999767, 263, 71, 278, 86
-0.999768, 213, 77, 228, 92
-0.999771, 147, 453, 162, 468
-0.999773, 201, 465, 216, 480
-0.999777, 125, 449, 140, 464
-0.99978, 101, 71, 116, 86
-0.99978, 219, 453, 234, 468
-0.99978, 227, 453, 242, 468
-0.999783, 119, 457, 134, 472
-0.999784, 239, 465, 254, 480
-0.999788, 171, 77, 186, 92
-0.999788, 101, 441, 116, 456
-0.999791, 153, 463, 168, 478
-0.999792, 173, 453, 188, 468
-0.999799, 189, 449, 204, 464
-0.999799, 233, 449, 248, 464
-0.999801, 219, 463, 234, 478
-0.999802, 161, 457, 176, 472
-0.999806, 207, 443, 222, 458
-0.99981, 117, 443, 132, 458
-0.99981, 127, 463, 142, 478
-0.999813, 197, 447, 212, 462
-0.999813, 141, 449, 156, 464
-0.999814, 259, 475, 274, 490
-0.999814, 181, 465, 196, 480
-0.999816, 163, 449, 178, 464
-0.999823, 247, 457, 262, 472
-0.999825, 201, 453, 216, 468
-0.999825, 253, 473, 268, 488
-0.999831, 313, 257, 344, 500
-0.999831, 153, 455, 168, 470
-0.999832, 187, 463, 202, 478
-0.999835, 243, 451, 258, 466
-0.999841, 267, 449, 282, 464
-0.999851, 133, 455, 148, 470
-0.999851, 255, 449, 270, 464
-0.999859, 197, 459, 212, 474
-0.999863, 253, 467, 268, 482
-0.999893, 163, 463, 178, 478
-1.00005, 317, 97, 348, 352
-1.0001, 1, 97, 375, 160
-1.00021, 113, 377, 240, 440
-1.00036, 1, 377, 375, 440
-1.00184, 325, 193, 356, 448
-1.00184, 21, 97, 52, 352
-1.00184, 21, 193, 52, 448
