1972
-0.524269, 1, 129, 500, 375
-0.567609, 1, 1, 500, 375
-0.611887, 257, 1, 500, 375
-0.619227, 1, 33, 500, 288
-0.653577, 161, 1, 416, 375
-0.773031, 225, 97, 480, 352
-0.78662, 65, 1, 320, 375
-0.878205, 97, 97, 352, 352
-0.883874, 257, 1, 500, 256
-0.891537, 273, 1, 400, 375
-0.895884, 1, 129, 256, 375
-0.903898, 353, 1, 480, 375
-0.90634, 257, 33, 384, 288
-0.907958, 161, 1, 416, 256
-0.916843, 305, 65, 432, 320
-0.922926, 257, 129, 384, 375
-0.92527, 1, 193, 500, 320
-0.9253, 225, 1, 352, 375
-0.931987, 1, 145, 500, 272
-0.935347, 65, 129, 192, 375
-0.936027, 353, 33, 480, 288
-0.938457, 209, 65, 336, 320
-0.940672, 1, 129, 128, 375
-0.944554, 369, 129, 496, 375
-0.944839, 177, 1, 304, 375
-0.947873, 97, 1, 224, 375
-0.948268, 17, 1, 144, 375
-0.950654, 257, 193, 500, 320
-0.951133, 1, 65, 500, 192
-0.953354, 225, 145, 480, 272
-0.953948, 257, 49, 384, 176
-0.958545, 1, 241, 500, 368
-0.961567, 321, 49, 384, 176
-0.962039, 129, 129, 256, 375
-0.962879, 1, 17, 500, 144
-0.96297, 353, 193, 480, 320
-0.963521, 273, 129, 400, 256
-0.963881, 225, 65, 480, 192
-0.967254, 329, 145, 392, 272
-0.967331, 433, 209, 496, 336
-0.968607, 1, 33, 128, 288
-0.968724, 409, 193, 472, 320
-0.96913, 161, 193, 416, 320
-0.971875, 281, 65, 344, 192
-0.972204, 1, 241, 256, 368
-0.972245, 305, 65, 432, 192
-0.973844, 281, 145, 344, 272
-0.973864, 1, 193, 128, 320
-0.974113, 385, 193, 448, 320
-0.97413, 81, 1, 208, 256
-0.974234, 305, 129, 368, 256
-0.974643, 409, 209, 472, 272
-0.975064, 129, 113, 384, 240
-0.975527, 225, 129, 352, 256
-0.975537, 161, 33, 288, 288
-0.975707, 305, 193, 432, 320
-0.977037, 1, 193, 256, 320
-0.977892, 321, 65, 384, 128
-0.978383, 65, 1, 320, 256
-0.978679, 225, 193, 352, 320
-0.979081, 337, 129, 464, 256
-0.979093, 89, 145, 152, 272
-0.979195, 65, 145, 192, 272
-0.979284, 361, 193, 424, 320
-0.979768, 17, 129, 144, 256
-0.979925, 257, 1, 384, 128
-0.980578, 257, 65, 384, 128
-0.980591, 73, 193, 136, 320
-0.980915, 1, 241, 128, 368
-0.98092, 337, 17, 464, 144
-0.980953, 321, 121, 384, 184
-0.981316, 97, 65, 352, 192
-0.981447, 33, 145, 288, 272
-0.981584, 281, 57, 344, 120
-0.98173, 89, 145, 152, 208
-0.981899, 321, 33, 384, 288
-0.982073, 385, 209, 448, 272
-0.982373, 73, 193, 136, 256
-0.982719, 385, 281, 448, 344
-0.982742, 257, 113, 384, 176
-0.982774, 257, 17, 500, 144
-0.982785, 65, 193, 192, 320
-0.982991, 433, 201, 496, 264
-0.983061, 329, 97, 392, 224
-0.983098, 369, 209, 496, 272
-0.983224, 257, 145, 320, 272
-0.983626, 161, 17, 416, 144
-0.983637, 329, 89, 392, 152
-0.984153, 353, 113, 416, 240
-0.984324, 369, 241, 496, 368
-0.984474, 209, 65, 336, 192
-0.984584, 65, 241, 192, 368
-0.984617, 241, 193, 304, 320
-0.984684, 97, 241, 352, 368
-0.984862, 289, 33, 352, 288
-0.984938, 437, 209, 468, 272
-0.98511, 469, 233, 500, 296
-0.985207, 281, 17, 344, 144
-0.985247, 353, 49, 384, 176
-0.985682, 329, 129, 392, 375
-0.985739, 433, 145, 496, 272
-0.985943, 281, 97, 344, 160
-0.986018, 433, 225, 496, 288
-0.986035, 329, 193, 392, 320
-0.986147, 281, 121, 344, 184
-0.986178, 345, 209, 408, 272
-0.986236, 289, 193, 352, 320
-0.986493, 73, 217, 136, 280
-0.986522, 257, 89, 384, 152
-0.986653, 441, 193, 472, 320
-0.986838, 177, 209, 304, 336
-0.987252, 353, 145, 384, 272
-0.98731, 321, 209, 384, 272
-0.987337, 429, 193, 460, 320
-0.987815, 361, 65, 424, 192
-0.987857, 337, 145, 368, 272
-0.98788, 65, 145, 128, 272
-0.988006, 321, 1, 384, 128
-0.988087, 469, 209, 500, 336
-0.988328, 389, 209, 420, 272
-0.988364, 273, 137, 400, 200
-0.988432, 409, 297, 472, 360
-0.988523, 329, 1, 392, 375
-0.988534, 361, 17, 424, 144
-0.988637, 325, 145, 356, 272
-0.988677, 289, 65, 320, 192
-0.988751, 329, 65, 360, 192
-0.988795, 409, 145, 472, 272
-0.98881, 241, 209, 304, 272
-0.988985, 73, 169, 136, 232
-0.98903, 265, 193, 328, 320
-0.989046, 461, 209, 492, 272
-0.989093, 369, 305, 496, 368
-0.989202, 429, 289, 460, 352
-0.989252, 1, 217, 128, 280
-0.98955, 353, 65, 416, 320
-0.989588, 329, 153, 392, 216
-0.989771, 289, 145, 320, 272
-0.989842, 89, 241, 152, 304
-0.98986, 433, 265, 496, 328
-0.9899, 1, 249, 128, 312
-0.989915, 193, 241, 448, 368
-0.989961, 305, 209, 432, 272
-0.990018, 293, 57, 324, 120
-0.990218, 81, 129, 144, 375
-0.990241, 289, 209, 352, 272
-0.990323, 49, 193, 112, 320
-0.990463, 393, 193, 424, 320
-0.990469, 313, 113, 344, 240
-0.99048, 405, 193, 436, 320
-0.990663, 289, 1, 352, 375
-0.990724, 273, 161, 400, 224
-0.990814, 353, 65, 384, 128
-0.990883, 393, 241, 456, 368
-0.99089, 453, 209, 484, 336
-0.990944, 425, 129, 488, 375
-0.99107, 225, 209, 352, 272
-0.991106, 425, 209, 456, 272
-0.991165, 385, 293, 448, 324
-0.991185, 97, 145, 128, 208
-0.991197, 17, 145, 144, 208
-0.991229, 409, 213, 472, 244
-0.991246, 297, 129, 360, 375
-0.991267, 353, 65, 480, 192
-0.991312, 369, 209, 400, 272
-0.991314, 321, 241, 448, 368
-0.991421, 373, 193, 404, 320
-0.991436, 97, 129, 128, 256
-0.991479, 321, 65, 384, 96
-0.991613, 385, 305, 448, 368
-0.991648, 265, 209, 328, 272
-0.991726, 305, 65, 432, 128
-0.991776, 1, 193, 128, 256
-0.991778, 301, 145, 332, 272
-0.991802, 297, 145, 360, 208
-0.99182, 81, 177, 112, 304
-0.991827, 361, 129, 424, 192
-0.991916, 65, 153, 192, 216
-0.991998, 89, 149, 152, 180
-0.992006, 313, 65, 344, 192
-0.992037, 449, 217, 480, 280
-0.992043, 337, 121, 464, 184
-0.992086, 281, 65, 344, 96
-0.992089, 417, 193, 448, 320
-0.992103, 97, 209, 160, 336
-0.992148, 329, 113, 392, 144
-0.992177, 385, 213, 448, 244
-0.992272, 265, 97, 328, 352
-0.992313, 113, 161, 240, 288
-0.992344, 361, 1, 424, 375
-0.992344, 329, 341, 392, 372
-0.992375, 305, 89, 432, 152
-0.992393, 321, 125, 384, 156
-0.992462, 65, 17, 320, 144
-0.992504, 1, 289, 128, 352
-0.99251, 281, 109, 344, 140
-0.992518, 425, 225, 488, 256
-0.992621, 405, 209, 436, 272
-0.99263, 361, 73, 424, 136
-0.992637, 461, 229, 492, 260
-0.992638, 73, 233, 136, 264
-0.992648, 281, 97, 344, 128
-0.992648, 329, 145, 392, 176
-0.992649, 409, 293, 472, 324
-0.992653, 65, 257, 192, 320
-0.992653, 329, 101, 392, 132
-0.992661, 329, 89, 392, 120
-0.992737, 349, 121, 380, 184
-0.992755, 73, 193, 136, 224
-0.992756, 121, 241, 184, 368
-0.992777, 345, 217, 408, 248
-0.992781, 281, 121, 344, 152
-0.992786, 73, 205, 136, 236
-0.992817, 257, 41, 384, 104
-0.992826, 89, 245, 152, 276
-0.992849, 281, 149, 344, 180
-0.992859, 433, 213, 496, 244
-0.992876, 393, 345, 456, 375
-0.992883, 329, 161, 392, 192
-0.992901, 281, 81, 344, 112
-0.992911, 329, 77, 392, 108
-0.992937, 369, 233, 496, 296
-0.992954, 433, 289, 496, 320
-0.992955, 113, 233, 176, 296
-0.992966, 257, 337, 320, 368
-0.992997, 73, 221, 136, 252
-0.993006, 349, 97, 380, 224
-0.993012, 429, 213, 460, 244
-0.993012, 321, 213, 384, 244
-0.993016, 321, 41, 384, 104
-0.993018, 469, 241, 500, 272
-0.993019, 17, 169, 144, 232
-0.99305, 433, 237, 496, 268
-0.99306, 89, 161, 152, 192
-0.99307, 241, 217, 304, 248
-0.993077, 369, 345, 400, 375
-0.993086, 441, 217, 472, 248
-0.993099, 369, 281, 496, 344
-0.993112, 361, 297, 424, 360
-0.993122, 353, 345, 416, 375
-0.993137, 429, 293, 460, 324
-0.993148, 385, 145, 448, 272
-0.993162, 361, 293, 424, 324
-0.993162, 401, 305, 464, 336
-0.993163, 353, 65, 384, 96
-0.993169, 281, 337, 344, 368
-0.993187, 273, 145, 336, 208
-0.993207, 309, 89, 340, 152
-0.993208, 361, 149, 424, 180
-0.993218, 389, 345, 420, 375
-0.993219, 113, 241, 240, 368
-0.993227, 361, 205, 424, 236
-0.993234, 209, 65, 336, 128
-0.993248, 217, 193, 280, 320
-0.993258, 49, 161, 112, 224
-0.993274, 281, 217, 344, 248
-0.993274, 145, 241, 208, 368
-0.993277, 281, 165, 344, 196
-0.993296, 309, 113, 340, 144
-0.993298, 357, 341, 388, 372
-0.993305, 385, 185, 448, 248
-0.993307, 457, 217, 488, 248
-0.993313, 393, 293, 424, 324
-0.993326, 289, 65, 320, 96
-0.993334, 89, 177, 152, 208
-0.993334, 17, 193, 80, 320
-0.993336, 329, 109, 360, 140
-0.993342, 373, 217, 404, 248
-0.993356, 417, 293, 448, 324
-0.993366, 441, 229, 472, 260
-0.993369, 305, 337, 368, 368
-0.993373, 385, 281, 448, 312
-0.993374, 305, 113, 368, 144
-0.993375, 433, 301, 496, 332
-0.993377, 281, 133, 344, 164
-0.993397, 405, 293, 436, 324
-0.993401, 113, 245, 176, 276
-0.993411, 361, 89, 424, 120
-0.993411, 369, 333, 432, 364
-0.993418, 305, 149, 368, 180
-0.993419, 361, 69, 424, 100
-0.993432, 409, 213, 440, 244
-0.993432, 385, 217, 416, 248
-0.993434, 361, 105, 424, 136
-0.993438, 305, 165, 368, 196
-0.993445, 89, 257, 152, 288
-0.993451, 289, 101, 320, 132
-0.993453, 321, 53, 384, 84
-0.993456, 105, 145, 136, 176
-0.993457, 49, 217, 176, 280
-0.993461, 353, 117, 384, 148
-0.993461, 457, 161, 488, 288
-0.993476, 289, 89, 320, 120
-0.993481, 361, 137, 424, 168
-0.993488, 313, 101, 344, 132
-0.99349, 377, 305, 440, 336
-0.993493, 289, 77, 320, 108
-0.993495, 349, 149, 380, 180
-0.993496, 329, 65, 360, 96
-0.993506, 289, 117, 320, 148
-0.993508, 49, 225, 112, 288
-0.99352, 361, 117, 424, 148
-0.993522, 289, 149, 320, 180
-0.993528, 361, 213, 392, 244
-0.993534, 341, 65, 372, 96
-0.993535, 329, 121, 360, 152
-0.993548, 409, 185, 472, 248
-0.993549, 353, 137, 384, 168
-0.993549, 441, 301, 472, 332
-0.993556, 353, 105, 384, 136
-0.993559, 321, 57, 352, 120
-0.99356, 109, 233, 140, 264
-0.993566, 177, 17, 304, 144
-0.993571, 373, 333, 404, 364
-0.993585, 309, 65, 340, 96
-0.99359, 249, 217, 280, 248
-0.993596, 457, 241, 488, 272
-0.993599, 301, 101, 332, 132
-0.993601, 385, 201, 448, 232
-0.993601, 297, 53, 360, 84
-0.993602, 321, 281, 448, 344
-0.993611, 397, 213, 428, 244
-0.993613, 433, 277, 496, 308
-0.993614, 361, 57, 424, 88
-0.993615, 353, 161, 384, 192
-0.993617, 49, 233, 112, 264
-0.993619, 117, 245, 148, 276
-0.99363, 441, 241, 472, 272
-0.993633, 65, 245, 128, 276
-0.993635, 441, 205, 472, 236
-0.993638, 429, 305, 460, 336
-0.993639, 409, 201, 472, 232
-0.99364, 97, 177, 128, 208
-0.993641, 101, 245, 132, 276
-0.993643, 289, 129, 320, 160
-0.993648, 449, 289, 480, 320
-0.993648, 301, 85, 332, 116
-0.993651, 353, 89, 384, 120
-0.993653, 273, 313, 400, 375
-0.993659, 269, 337, 300, 368
-0.993668, 341, 337, 372, 368
-0.993668, 345, 213, 376, 244
-0.993669, 209, 97, 336, 160
-0.993678, 289, 217, 320, 248
-0.993678, 381, 293, 412, 324
-0.993684, 369, 149, 400, 180
-0.993685, 393, 333, 424, 364
-0.993688, 365, 145, 396, 272
-0.99369, 325, 213, 356, 244
-0.993691, 77, 209, 108, 240
-0.993693, 289, 165, 320, 196
-0.993694, 305, 93, 368, 124
-0.993695, 353, 77, 384, 108
-0.993698, 93, 145, 124, 176
-0.993699, 385, 205, 416, 236
-0.993701, 421, 201, 452, 232
-0.993702, 309, 125, 340, 156
-0.993703, 417, 281, 448, 344
-0.993703, 293, 337, 324, 368
-0.993706, 257, 149, 320, 180
-0.993707, 313, 337, 344, 368
-0.993718, 65, 173, 128, 204
-0.993721, 233, 345, 296, 375
-0.993725, 277, 217, 308, 248
-0.993725, 313, 85, 344, 116
-0.993727, 337, 157, 368, 188
-0.993729, 89, 237, 120, 268
-0.993732, 93, 189, 124, 220
-0.993734, 145, 301, 208, 332
-0.993739, 301, 217, 332, 248
-0.993739, 129, 245, 160, 276
-0.99374, 321, 165, 352, 196
-0.993746, 313, 217, 344, 248
-0.993751, 105, 221, 136, 252
-0.993752, 301, 165, 332, 196
-0.993758, 353, 161, 416, 192
-0.993759, 393, 281, 424, 312
-0.993759, 433, 345, 496, 375
-0.993759, 81, 225, 112, 256
-0.99376, 457, 345, 488, 375
-0.993762, 317, 149, 348, 180
-0.993764, 425, 345, 456, 375
-0.993765, 17, 345, 80, 375
-0.993767, 373, 205, 404, 236
-0.993768, 301, 149, 332, 180
-0.993773, 9, 237, 72, 268
-0.993775, 9, 253, 72, 284
-0.993777, 429, 281, 460, 312
-0.993779, 65, 177, 192, 240
-0.993779, 89, 253, 120, 284
-0.993783, 261, 213, 292, 244
-0.993786, 257, 65, 320, 96
-0.993787, 325, 89, 356, 120
-0.99379, 329, 341, 360, 372
-0.99379, 369, 125, 400, 156
-0.993796, 409, 305, 440, 336
-0.993796, 373, 81, 404, 112
-0.993797, 369, 137, 400, 168
-0.9938, 349, 53, 380, 84
-0.993803, 469, 217, 500, 248
-0.993806, 337, 53, 368, 84
-0.993811, 97, 233, 160, 264
-0.993812, 373, 105, 404, 136
-0.993814, 281, 337, 312, 368
-0.993818, 373, 93, 404, 124
-0.993821, 369, 69, 400, 100
-0.993823, 97, 157, 128, 188
-0.993823, 341, 121, 372, 152
-0.993824, 357, 201, 388, 232
-0.993827, 405, 201, 436, 232
-0.99383, 277, 149, 308, 180
-0.99383, 49, 221, 112, 252
-0.993832, 117, 185, 148, 216
-0.993833, 277, 69, 308, 100
-0.993835, 393, 305, 424, 336
-0.993836, 77, 169, 108, 200
-0.993838, 293, 53, 324, 84
-0.993841, 49, 161, 112, 192
-0.993844, 257, 81, 320, 112
-0.993845, 93, 225, 124, 256
-0.993846, 357, 329, 388, 360
-0.993848, 409, 281, 472, 312
-0.993849, 417, 281, 448, 312
-0.99385, 461, 205, 492, 236
-0.993851, 277, 81, 308, 112
-0.993859, 9, 297, 72, 328
-0.99386, 273, 205, 336, 236
-0.99386, 445, 345, 476, 375
-0.993861, 325, 53, 356, 84
-0.993863, 313, 53, 344, 84
-0.993864, 17, 265, 80, 296
-0.993864, 365, 161, 396, 192
-0.993866, 393, 257, 456, 320
-0.993867, 113, 161, 144, 192
-0.993871, 117, 149, 148, 180
-0.993875, 257, 161, 320, 192
-0.993878, 329, 77, 360, 108
-0.99388, 337, 185, 464, 248
-0.993881, 257, 337, 288, 368
-0.993881, 89, 273, 120, 304
-0.993881, 165, 301, 196, 332
-0.993888, 329, 329, 392, 360
-0.993891, 425, 249, 488, 280
-0.993898, 9, 225, 72, 256
-0.993921, 9, 309, 72, 340
-0.993933, 433, 201, 496, 232
-0.993935, 81, 285, 144, 316
-0.99394, 121, 293, 184, 324
-0.99394, 273, 325, 336, 356
-0.993943, 105, 305, 168, 336
-0.993948, 17, 285, 80, 316
-0.993958, 257, 101, 320, 132
-0.99396, 337, 201, 400, 232
-0.993966, 121, 261, 184, 292
-0.993974, 49, 257, 112, 288
-0.993976, 9, 213, 72, 244
-0.993987, 121, 157, 184, 188
-0.99399, 297, 325, 360, 356
-0.993999, 209, 341, 272, 372
-0.994, 409, 237, 472, 268
-0.994007, 153, 277, 216, 308
-0.994015, 305, 81, 368, 112
-0.994018, 41, 209, 104, 240
-0.994023, 249, 205, 312, 236
-0.994026, 41, 245, 104, 276
-0.994039, 121, 141, 184, 172
-0.994051, 393, 333, 456, 364
-0.994052, 257, 129, 320, 160
-0.99406, 217, 217, 280, 248
-0.994062, 9, 321, 72, 352
-0.994066, 145, 313, 208, 344
-0.99407, 353, 305, 416, 336
-0.994072, 345, 281, 408, 312
-0.994078, 9, 201, 72, 232
-0.994078, 297, 205, 360, 236
-0.994081, 105, 189, 168, 220
-0.994085, 9, 333, 72, 364
-0.994093, 41, 181, 104, 212
-0.9941, 105, 217, 168, 248
-0.9941, 305, 137, 368, 168
-0.994101, 49, 137, 112, 168
-0.994104, 241, 117, 304, 148
-0.994119, 353, 97, 384, 160
-0.994122, 385, 97, 448, 352
-0.994134, 341, 49, 372, 176
-0.994137, 81, 137, 144, 168
-0.994148, 193, 137, 320, 200
-0.994185, 321, 145, 448, 208
-0.994268, 317, 121, 348, 184
-0.994274, 113, 161, 176, 288
-0.994321, 425, 1, 488, 375
-0.994323, 325, 193, 356, 320
-0.99433, 337, 257, 464, 320
-0.994366, 341, 57, 372, 120
-0.994405, 361, 97, 424, 160
-0.994426, 289, 121, 320, 184
-0.994435, 265, 1, 328, 375
-0.994442, 289, 89, 320, 152
-0.994443, 321, 305, 448, 368
-0.994455, 1, 313, 128, 375
-0.994587, 289, 169, 352, 232
-0.994611, 361, 193, 392, 320
-0.994613, 277, 145, 308, 272
-0.994834, 353, 209, 384, 272
-0.99492, 301, 65, 332, 192
-0.994965, 257, 65, 320, 128
-0.99499, 225, 161, 352, 224
-0.995042, 353, 97, 480, 160
-0.995079, 305, 89, 368, 152
-0.995082, 337, 41, 464, 104
-0.995083, 257, 209, 500, 272
-0.995095, 329, 89, 360, 152
-0.995097, 289, 33, 352, 96
-0.995219, 257, 65, 320, 192
-0.995255, 97, 97, 224, 224
-0.995265, 345, 185, 408, 248
-0.995282, 109, 145, 140, 208
-0.995305, 177, 313, 304, 375
-0.995351, 361, 49, 424, 112
-0.995373, 77, 193, 108, 256
-0.995383, 309, 57, 340, 120
-0.995416, 441, 289, 472, 352
-0.995422, 137, 257, 200, 320
-0.995457, 341, 193, 372, 320
-0.995483, 253, 209, 284, 272
-0.995488, 257, 65, 384, 96
-0.995518, 145, 225, 272, 288
-0.995521, 249, 129, 312, 192
-0.995555, 433, 297, 496, 360
-0.995579, 233, 313, 296, 375
-0.995648, 297, 193, 328, 320
-0.995651, 97, 209, 160, 272
-0.995676, 265, 313, 328, 375
-0.995697, 401, 1, 464, 375
-0.995712, 245, 193, 276, 320
-0.995721, 329, 121, 360, 184
-0.995777, 73, 241, 136, 368
-0.995801, 177, 113, 304, 240
-0.995839, 337, 209, 368, 272
-0.995941, 453, 209, 468, 272
-0.995945, 401, 281, 432, 344
-0.995975, 17, 249, 80, 312
-0.995996, 389, 305, 420, 368
-0.995998, 277, 193, 308, 320
-0.996011, 241, 1, 304, 375
-0.996026, 325, 209, 356, 272
-0.996033, 353, 213, 480, 244
-0.996035, 289, 185, 416, 248
-0.996035, 129, 265, 256, 328
-0.996036, 89, 233, 120, 296
-0.99604, 309, 209, 340, 272
-0.996129, 209, 233, 336, 296
-0.996136, 17, 193, 80, 256
-0.996139, 193, 65, 448, 128
-0.996139, 313, 193, 344, 320
-0.996161, 49, 201, 112, 264
-0.996166, 225, 185, 352, 248
-0.996195, 1, 209, 500, 272
-0.996204, 81, 1, 144, 375
-0.99623, 353, 73, 480, 136
-0.996234, 241, 17, 304, 144
-0.996322, 297, 17, 328, 144
-0.996338, 301, 121, 332, 184
-0.996351, 257, 125, 384, 156
-0.996365, 329, 17, 360, 144
-0.996371, 479, 225, 494, 288
-0.99639, 9, 281, 72, 344
-0.996405, 49, 281, 176, 344
-0.996486, 113, 153, 176, 216
-0.996551, 341, 1, 372, 128
-0.996556, 33, 145, 96, 272
-0.996577, 129, 289, 256, 352
-0.996586, 97, 129, 224, 192
-0.996591, 353, 161, 384, 224
-0.9966, 97, 201, 224, 264
-0.996647, 17, 241, 80, 368
-0.99665, 217, 209, 280, 272
-0.996653, 105, 225, 136, 288
-0.996718, 145, 297, 208, 360
-0.996726, 257, 113, 384, 144
-0.996761, 257, 85, 384, 116
-0.996806, 441, 289, 456, 352
-0.996811, 97, 233, 224, 296
-0.996812, 289, 341, 416, 372
-0.99682, 441, 145, 472, 272
-0.996831, 161, 129, 416, 192
-0.996863, 273, 145, 400, 176
-0.996878, 289, 313, 352, 375
-0.996883, 161, 161, 288, 288
-0.996883, 443, 209, 458, 272
-0.996884, 369, 65, 400, 192
-0.996889, 257, 193, 288, 320
-0.996892, 113, 161, 240, 224
-0.996922, 313, 313, 376, 375
-0.996925, 49, 249, 112, 312
-0.996944, 313, 17, 344, 144
-0.996945, 429, 265, 460, 328
-0.997055, 257, 281, 500, 344
-0.997084, 365, 65, 380, 128
-0.997113, 93, 209, 124, 336
-0.997129, 9, 225, 72, 288
-0.997129, 193, 97, 448, 160
-0.997146, 273, 265, 400, 328
-0.997167, 297, 209, 328, 272
-0.997209, 449, 265, 480, 328
-0.997266, 391, 209, 406, 272
-0.99729, 453, 241, 484, 304
-0.99729, 369, 293, 496, 324
-0.997345, 383, 209, 398, 272
-0.997346, 353, 1, 384, 128
-0.997359, 257, 101, 384, 132
-0.997369, 369, 233, 496, 264
-0.99739, 105, 1, 168, 375
-0.997405, 257, 129, 500, 192
-0.997415, 193, 153, 448, 216
-0.997434, 177, 257, 304, 320
-0.997444, 277, 65, 308, 192
-0.997453, 89, 265, 152, 328
-0.997455, 273, 17, 400, 80
-0.997505, 337, 145, 368, 208
-0.997522, 289, 145, 320, 208
-0.997537, 479, 229, 494, 260
-0.997541, 273, 209, 304, 272
-0.997555, 437, 209, 452, 272
-0.997565, 1, 121, 128, 184
-0.997567, 49, 305, 176, 368
-0.997576, 433, 177, 496, 240
-0.997579, 369, 121, 400, 184
-0.997609, 485, 225, 500, 288
-0.997612, 293, 57, 308, 120
-0.997615, 321, 17, 448, 80
-0.997621, 349, 33, 380, 288
-0.997652, 337, 345, 464, 375
-0.997667, 377, 209, 392, 272
-0.997671, 1, 81, 128, 208
-0.997671, 105, 193, 136, 320
-0.997685, 473, 225, 488, 288
-0.99769, 429, 241, 460, 368
-0.997696, 257, 185, 500, 248
-0.997721, 225, 313, 352, 375
-0.997737, 421, 209, 436, 272
-0.997745, 257, 305, 500, 368
-0.997757, 313, 185, 376, 248
-0.997769, 459, 209, 474, 272
-0.997773, 453, 217, 468, 248
-0.997779, 435, 281, 450, 344
-0.997788, 257, 241, 384, 368
-0.997792, 431, 209, 446, 272
-0.997793, 1, 249, 256, 312
-0.997802, 117, 233, 148, 296
-0.997807, 161, 209, 416, 272
-0.997819, 177, 41, 304, 104
-0.997819, 427, 281, 442, 344
-0.997829, 129, 313, 256, 375
-0.997834, 241, 337, 368, 368
-0.997847, 391, 345, 406, 375
-0.997862, 389, 281, 420, 344
-0.997865, 469, 145, 500, 272
-0.997865, 99, 145, 114, 208
-0.997874, 345, 265, 408, 328
-0.997895, 121, 145, 136, 208
-0.997898, 447, 289, 462, 352
-0.997926, 1, 213, 128, 244
-0.997926, 411, 209, 426, 272
-0.997949, 303, 57, 318, 120
-0.99795, 463, 241, 478, 304
-0.997952, 325, 121, 340, 184
-0.997956, 1, 273, 256, 336
-0.997964, 161, 273, 224, 336
-0.997964, 145, 193, 272, 256
-0.997974, 41, 1, 104, 375
-0.997974, 405, 209, 420, 272
-0.997983, 335, 57, 350, 120
-0.998016, 315, 57, 330, 120
-0.99802, 381, 313, 396, 375
-0.99804, 325, 57, 340, 120
-0.998063, 281, 57, 312, 120
-0.998067, 441, 265, 456, 328
-0.998071, 209, 313, 272, 375
-0.998071, 1, 297, 256, 360
-0.998078, 397, 209, 412, 272
-0.99808, 325, 81, 340, 144
-0.998109, 365, 121, 380, 184
-0.998112, 305, 217, 432, 248
-0.998117, 479, 201, 494, 264
-0.99812, 93, 169, 124, 232
-0.998126, 353, 57, 368, 120
-0.998131, 293, 33, 324, 288
-0.998133, 485, 201, 500, 264
-0.998143, 113, 145, 144, 272
-0.998159, 83, 201, 98, 264
-0.998183, 1, 245, 128, 276
-0.998187, 1, 273, 128, 304
-0.998192, 241, 97, 304, 352
-0.998192, 113, 257, 176, 320
-0.998194, 225, 217, 352, 248
-0.998201, 273, 161, 400, 192
-0.998209, 97, 179, 128, 194
-0.99821, 321, 293, 448, 324
-0.99821, 469, 223, 500, 238
-0.99821, 229, 361, 260, 375
-0.998211, 469, 309, 500, 324
-0.998211, 421, 281, 436, 344
-0.998211, 437, 361, 468, 375
-0.998211, 301, 87, 332, 102
-0.998211, 369, 165, 400, 180
-0.998212, 113, 251, 144, 266
-0.998212, 369, 151, 400, 166
-0.998212, 313, 105, 344, 120
-0.998213, 281, 339, 312, 354
-0.998213, 353, 73, 384, 88
-0.998214, 353, 81, 384, 96
-0.998215, 421, 287, 452, 302
-0.998215, 313, 163, 344, 178
-0.998216, 421, 305, 452, 320
-0.998216, 97, 229, 128, 244
-0.998216, 113, 243, 144, 258
-0.998217, 33, 149, 160, 180
-0.998217, 365, 211, 396, 226
-0.998218, 325, 161, 356, 176
-0.998219, 405, 211, 436, 226
-0.998221, 353, 107, 384, 122
-0.998222, 329, 341, 360, 356
-0.998222, 281, 219, 312, 234
-0.998223, 97, 185, 128, 200
-0.998225, 297, 219, 328, 234
-0.998226, 317, 93, 348, 108
-0.998226, 301, 111, 332, 126
-0.998227, 301, 167, 332, 182
-0.998228, 405, 295, 436, 310
-0.998228, 349, 121, 364, 184
-0.998228, 445, 249, 476, 264
-0.998228, 393, 289, 424, 304
-0.998228, 353, 87, 384, 102
-0.998228, 441, 211, 472, 226
-0.99823, 337, 163, 368, 178
-0.998231, 289, 141, 320, 156
-0.998232, 389, 357, 420, 372
-0.998232, 93, 193, 124, 208
-0.998232, 315, 89, 330, 152
-0.998232, 353, 99, 384, 114
-0.998233, 365, 339, 396, 354
-0.998233, 289, 151, 320, 166
-0.998234, 417, 295, 448, 310
-0.998235, 385, 211, 416, 226
-0.998235, 309, 219, 340, 234
-0.998235, 269, 217, 300, 232
-0.998236, 353, 155, 384, 170
-0.998238, 337, 33, 368, 288
-0.998238, 289, 167, 320, 182
-0.998238, 449, 305, 480, 320
-0.998238, 293, 101, 324, 116
-0.998239, 289, 135, 320, 150
-0.998239, 313, 169, 344, 184
-0.99824, 441, 237, 472, 252
-0.998242, 373, 17, 404, 144
-0.998242, 329, 169, 360, 184
-0.998243, 353, 131, 384, 146
-0.998243, 369, 159, 400, 174
-0.998243, 353, 143, 384, 158
-0.998243, 449, 293, 480, 308
-0.998245, 433, 307, 464, 322
-0.998245, 253, 217, 284, 232
-0.998245, 293, 339, 324, 354
-0.998247, 289, 73, 320, 88
-0.998247, 441, 231, 472, 246
-0.998247, 301, 93, 332, 108
-0.998248, 353, 93, 384, 108
-0.998249, 317, 65, 348, 80
-0.998249, 309, 57, 324, 120
-0.99825, 365, 361, 396, 375
-0.99825, 341, 169, 372, 184
-0.998252, 457, 245, 488, 260
-0.998253, 353, 217, 384, 232
-0.998254, 313, 99, 344, 114
-0.998255, 269, 337, 300, 352
-0.998256, 353, 149, 384, 164
-0.998257, 289, 127, 320, 142
-0.998257, 329, 125, 360, 140
-0.998261, 353, 137, 384, 152
-0.998262, 309, 123, 340, 138
-0.998262, 449, 217, 480, 232
-0.998263, 313, 339, 344, 354
-0.998263, 353, 113, 384, 128
-0.998264, 341, 217, 372, 232
-0.998265, 441, 299, 472, 314
-0.998266, 119, 225, 134, 288
-0.998266, 321, 33, 352, 288
-0.998269, 301, 65, 332, 80
-0.998269, 353, 125, 384, 140
-0.99827, 105, 235, 136, 250
-0.998271, 353, 167, 384, 182
-0.998271, 289, 109, 320, 124
-0.998273, 441, 293, 456, 324
-0.998274, 325, 217, 356, 232
-0.998275, 293, 161, 324, 176
-0.998275, 329, 65, 360, 80
-0.998277, 441, 243, 472, 258
-0.998277, 347, 57, 362, 120
-0.998278, 341, 67, 372, 82
-0.998282, 289, 79, 320, 94
-0.998285, 289, 121, 320, 136
-0.998285, 289, 87, 320, 102
-0.998286, 329, 113, 360, 128
-0.998287, 349, 161, 380, 176
-0.998287, 289, 95, 320, 110
-0.998288, 353, 119, 384, 134
-0.998289, 393, 345, 424, 360
-0.998293, 377, 343, 408, 358
-0.998294, 101, 147, 132, 162
-0.998295, 397, 217, 428, 232
-0.998295, 345, 341, 376, 356
-0.998295, 393, 295, 424, 310
-0.9983, 441, 225, 472, 240
-0.998306, 321, 233, 448, 296
-0.998307, 97, 153, 352, 216
-0.998307, 329, 119, 360, 134
-0.99831, 465, 209, 480, 272
-0.99831, 389, 351, 420, 366
-0.998311, 469, 247, 500, 262
-0.998312, 365, 355, 396, 370
-0.998316, 377, 217, 408, 232
-0.998317, 313, 111, 344, 126
-0.998318, 305, 69, 432, 100
-0.99832, 365, 217, 396, 232
-0.998324, 457, 223, 488, 238
-0.998329, 289, 115, 320, 130
-0.998333, 369, 209, 384, 272
-0.998336, 457, 233, 488, 248
-0.998336, 337, 209, 352, 272
-0.998337, 353, 67, 384, 82
-0.998342, 377, 355, 408, 370
-0.998345, 409, 217, 440, 232
-0.998345, 361, 65, 392, 320
-0.998346, 289, 65, 320, 80
-0.998351, 355, 209, 370, 272
-0.998353, 113, 177, 176, 240
-0.998365, 437, 217, 468, 232
-0.998367, 365, 345, 396, 360
-0.99837, 377, 361, 408, 375
-0.998371, 185, 209, 248, 336
-0.998372, 393, 305, 408, 368
-0.998374, 429, 297, 460, 312
-0.998378, 309, 117, 340, 132
-0.998379, 457, 239, 488, 254
-0.99838, 369, 333, 496, 364
-0.998386, 469, 229, 500, 244
-0.998396, 9, 305, 72, 368
-0.998397, 403, 281, 418, 344
-0.998402, 429, 185, 460, 248
-0.998403, 485, 225, 500, 256
-0.998404, 381, 345, 396, 375
-0.998407, 293, 121, 308, 184
-0.998408, 101, 233, 116, 296
-0.998419, 425, 215, 456, 230
-0.99842, 341, 57, 356, 120
-0.998421, 377, 349, 408, 364
-0.998423, 435, 305, 450, 368
-0.99843, 469, 235, 500, 250
-0.998432, 1, 257, 128, 288
-0.998432, 365, 65, 380, 96
-0.998451, 257, 209, 272, 272
-0.998463, 469, 241, 500, 256
-0.998467, 49, 129, 112, 192
-0.998479, 17, 193, 144, 224
-0.998487, 371, 341, 386, 372
-0.998488, 305, 205, 432, 236
-0.998491, 349, 209, 364, 272
-0.998493, 337, 149, 464, 180
-0.998494, 437, 213, 452, 244
-0.998495, 17, 165, 144, 196
-0.998502, 375, 121, 390, 184
-0.998503, 325, 209, 340, 272
-0.998508, 365, 161, 380, 224
-0.99852, 463, 229, 478, 260
-0.998522, 381, 217, 396, 248
-0.998525, 443, 217, 458, 248
-0.998526, 57, 129, 120, 375
-0.998527, 1, 225, 128, 256
-0.998533, 447, 185, 462, 248
-0.998536, 415, 281, 430, 344
-0.998556, 305, 113, 432, 144
-0.998568, 413, 305, 444, 368
-0.998569, 359, 57, 374, 120
-0.998579, 161, 313, 416, 375
-0.99858, 65, 169, 192, 200
-0.998584, 409, 217, 472, 232
-0.998586, 369, 305, 496, 336
-0.998593, 483, 241, 498, 272
-0.998594, 397, 281, 412, 344
-0.998609, 385, 295, 448, 310
-0.998617, 321, 67, 384, 82
-0.998618, 409, 281, 424, 344
-0.998619, 393, 293, 408, 324
-0.99863, 363, 209, 378, 272
-0.998634, 113, 145, 128, 208
-0.998639, 257, 241, 384, 304
-0.998639, 367, 89, 382, 152
-0.998645, 17, 177, 144, 208
-0.998645, 89, 185, 104, 248
-0.998648, 281, 65, 344, 80
-0.998649, 329, 117, 392, 132
-0.998656, 331, 121, 346, 184
-0.998659, 433, 223, 496, 238
-0.998659, 435, 293, 450, 324
-0.998661, 1, 285, 128, 316
-0.998662, 281, 117, 344, 132
-0.998663, 385, 215, 448, 230
-0.998666, 427, 305, 442, 368
-0.998676, 317, 161, 348, 224
-0.998681, 329, 123, 392, 138
-0.998681, 329, 343, 392, 358
-0.998682, 315, 101, 330, 132
-0.998684, 329, 93, 392, 108
-0.998686, 1, 301, 128, 332
-0.998688, 321, 217, 384, 232
-0.998689, 265, 339, 328, 354
-0.99869, 69, 193, 100, 320
-0.998691, 81, 149, 144, 164
-0.998691, 321, 161, 384, 176
-0.998693, 409, 233, 472, 296
-0.998695, 89, 155, 152, 170
-0.998695, 329, 111, 392, 126
-0.998698, 425, 229, 488, 244
-0.998699, 473, 229, 488, 260
-0.998699, 375, 213, 390, 244
-0.9987, 329, 87, 392, 102
-0.998702, 353, 219, 416, 234
-0.998703, 81, 149, 208, 180
-0.998704, 309, 209, 324, 272
-0.998704, 249, 217, 312, 232
-0.998705, 409, 223, 472, 238
-0.998705, 329, 141, 392, 156
-0.998706, 329, 167, 392, 182
-0.99871, 433, 299, 496, 314
-0.998711, 329, 105, 392, 120
-0.998712, 453, 185, 468, 248
-0.998712, 281, 159, 344, 174
-0.998712, 329, 129, 392, 144
-0.998712, 329, 135, 392, 150
-0.998713, 319, 121, 334, 184
-0.998713, 409, 297, 472, 312
-0.998714, 73, 229, 136, 244
-0.998715, 305, 341, 368, 356
-0.998716, 281, 89, 344, 104
-0.998716, 281, 97, 344, 112
-0.998718, 345, 25, 408, 88
-0.998718, 353, 201, 480, 232
-0.998719, 73, 211, 136, 226
-0.99872, 281, 125, 344, 140
-0.998721, 89, 167, 152, 182
-0.998721, 433, 235, 496, 250
-0.998722, 329, 79, 392, 94
-0.998723, 349, 129, 380, 375
-0.998723, 369, 351, 432, 366
-0.998726, 433, 241, 496, 256
-0.998727, 329, 149, 392, 164
-0.998729, 343, 121, 358, 184
-0.998729, 73, 203, 136, 218
-0.998731, 433, 217, 496, 232
-0.998732, 305, 169, 368, 184
-0.998733, 281, 167, 344, 182
-0.998733, 409, 211, 472, 226
-0.998733, 81, 239, 144, 254
-0.998733, 305, 121, 368, 136
-0.998734, 305, 115, 368, 130
-0.998735, 329, 73, 392, 88
-0.998735, 361, 159, 424, 174
-0.998735, 281, 111, 344, 126
-0.998735, 353, 345, 416, 360
-0.998736, 89, 247, 152, 262
-0.998736, 245, 217, 260, 280
-0.998737, 369, 359, 432, 374
-0.998739, 413, 293, 428, 324
-0.998739, 393, 349, 456, 364
-0.998741, 177, 289, 304, 352
-0.998742, 385, 289, 448, 304
-0.998742, 451, 265, 466, 328
-0.998742, 281, 71, 344, 86
-0.998743, 345, 361, 408, 375
-0.998743, 281, 77, 344, 92
-0.998743, 281, 135, 344, 150
-0.998743, 343, 145, 358, 208
-0.998743, 281, 103, 344, 118
-0.998743, 281, 83, 344, 98
-0.998743, 281, 147, 344, 162
-0.998744, 305, 95, 368, 110
-0.998744, 329, 99, 392, 114
-0.998744, 89, 161, 152, 176
-0.998744, 73, 223, 136, 238
-0.998744, 65, 253, 192, 284
-0.998745, 333, 89, 348, 152
-0.998746, 241, 89, 304, 152
-0.998746, 361, 213, 424, 228
-0.998747, 89, 173, 152, 188
-0.998747, 329, 155, 392, 170
-0.998747, 433, 291, 496, 306
-0.998748, 73, 197, 136, 212
-0.998749, 361, 71, 424, 86
-0.998749, 401, 303, 464, 318
-0.998749, 433, 305, 496, 320
-0.99875, 433, 361, 496, 375
-0.998751, 297, 217, 360, 232
-0.998754, 73, 217, 136, 232
-0.998756, 81, 259, 144, 274
-0.998757, 361, 119, 424, 134
-0.998757, 361, 137, 424, 152
-0.998758, 241, 339, 304, 354
-0.998758, 17, 129, 80, 375
-0.998759, 361, 151, 424, 166
-0.998759, 305, 61, 368, 76
-0.998759, 361, 65, 424, 80
-0.99876, 433, 211, 496, 226
-0.99876, 281, 153, 344, 168
-0.998761, 361, 165, 424, 180
-0.998762, 257, 163, 320, 178
-0.998762, 345, 351, 408, 366
-0.998762, 361, 295, 424, 310
-0.998762, 361, 103, 424, 118
-0.998763, 337, 137, 464, 168
-0.998764, 273, 213, 336, 228
-0.998764, 361, 109, 424, 124
-0.998764, 393, 361, 456, 375
-0.998764, 361, 89, 424, 104
-0.998764, 361, 77, 424, 92
-0.998765, 361, 145, 424, 160
-0.998767, 361, 95, 424, 110
-0.998767, 281, 141, 344, 156
-0.998767, 81, 191, 144, 206
-0.998767, 73, 253, 136, 268
-0.998767, 361, 131, 424, 146
-0.998768, 447, 205, 462, 236
-0.998768, 361, 83, 424, 98
-0.998768, 273, 219, 336, 234
-0.998768, 419, 293, 434, 324
-0.998769, 377, 303, 440, 318
-0.99877, 361, 125, 424, 140
-0.99877, 125, 233, 140, 296
-0.998771, 297, 335, 360, 350
-0.998772, 89, 179, 152, 194
-0.998772, 433, 355, 496, 370
-0.998773, 89, 185, 152, 200
-0.998774, 9, 361, 72, 375
-0.998775, 257, 109, 320, 124
-0.998775, 257, 65, 320, 80
-0.998775, 257, 97, 320, 112
-0.998776, 113, 251, 176, 266
-0.998777, 409, 309, 472, 324
-0.998778, 425, 247, 488, 262
-0.998778, 453, 229, 468, 260
-0.998779, 193, 361, 256, 375
-0.998779, 225, 217, 288, 232
-0.998779, 233, 357, 296, 372
-0.998779, 353, 301, 416, 316
-0.99878, 369, 339, 432, 354
-0.998781, 305, 127, 368, 142
-0.998782, 257, 115, 320, 130
-0.998783, 201, 1, 264, 375
-0.998784, 321, 211, 384, 226
-0.998784, 305, 33, 336, 288
-0.998784, 113, 261, 176, 276
-0.998785, 9, 261, 72, 276
-0.998786, 337, 137, 352, 200
-0.998786, 331, 209, 346, 272
-0.998787, 65, 129, 320, 192
-0.998789, 283, 209, 298, 272
-0.998795, 305, 81, 432, 112
-0.998802, 153, 241, 184, 368
-0.998805, 97, 185, 352, 248
-0.998826, 381, 333, 396, 364
-0.998827, 337, 125, 464, 156
-0.99883, 333, 129, 364, 375
-0.99883, 375, 97, 390, 160
-0.998833, 359, 161, 374, 224
-0.998834, 303, 209, 318, 272
-0.998838, 335, 65, 350, 96
-0.998839, 349, 161, 364, 224
-0.998842, 375, 73, 390, 136
-0.998842, 441, 185, 456, 248
-0.998843, 429, 293, 444, 324
-0.998846, 319, 209, 334, 272
-0.998847, 343, 209, 358, 272
-0.998847, 65, 197, 192, 228
-0.998847, 347, 65, 362, 96
-0.998851, 91, 233, 106, 296
-0.998853, 209, 113, 336, 144
-0.998858, 457, 233, 472, 296
-0.99886, 249, 185, 312, 248
-0.998861, 447, 301, 462, 332
-0.998862, 407, 293, 422, 324
-0.99887, 323, 313, 338, 375
-0.99887, 225, 17, 352, 80
-0.998871, 289, 329, 416, 360
-0.998874, 391, 217, 406, 248
-0.998875, 209, 77, 336, 108
-0.998878, 399, 293, 414, 324
-0.998882, 225, 157, 352, 188
-0.998884, 337, 161, 352, 224
-0.998885, 301, 145, 316, 208
-0.998887, 419, 213, 434, 244
-0.998895, 371, 145, 386, 208
-0.998895, 425, 213, 440, 244
-0.998898, 127, 153, 142, 216
-0.998906, 421, 305, 436, 368
-0.998906, 289, 129, 320, 375
-0.99891, 1, 225, 256, 288
-0.998911, 431, 209, 446, 240
-0.998919, 311, 129, 326, 192
-0.998931, 291, 209, 306, 272
-0.998936, 79, 209, 94, 240
-0.998939, 295, 61, 310, 92
-0.998941, 433, 33, 496, 288
-0.998945, 331, 161, 346, 224
-0.998946, 113, 225, 128, 288
-0.998946, 387, 185, 402, 248
-0.998947, 359, 137, 374, 200
-0.998951, 177, 329, 304, 360
-0.998954, 323, 109, 338, 140
-0.998962, 263, 209, 278, 272
-0.998969, 301, 121, 316, 184
-0.998971, 251, 209, 266, 272
-0.998972, 1, 341, 128, 372
-0.998976, 337, 101, 464, 132
-0.998978, 193, 249, 256, 312
-0.998978, 311, 89, 326, 120
-0.998979, 365, 149, 380, 180
-0.998979, 459, 217, 474, 248
-0.99898, 75, 209, 90, 272
-0.998983, 347, 33, 362, 96
-0.998988, 369, 281, 496, 312
-0.998988, 97, 149, 112, 180
-0.998989, 209, 97, 336, 128
-0.998991, 485, 273, 500, 336
-0.998992, 463, 249, 478, 280
-0.998993, 323, 125, 338, 156
-0.998994, 293, 161, 308, 224
-0.998995, 353, 65, 368, 96
-0.999007, 333, 109, 348, 140
-0.99901, 413, 213, 428, 244
-0.99901, 317, 129, 348, 375
-0.999011, 393, 145, 424, 272
-0.999011, 1, 185, 500, 248
-0.999012, 359, 65, 374, 96
-0.999018, 65, 209, 192, 240
-0.999022, 341, 65, 356, 96
-0.99903, 1, 313, 128, 344
-0.999034, 435, 185, 450, 248
-0.999035, 65, 181, 192, 212
-0.999037, 453, 205, 468, 236
-0.999046, 169, 297, 232, 360
-0.99905, 49, 225, 176, 256
-0.999056, 257, 25, 500, 88
-0.999061, 257, 53, 384, 84
-0.999066, 209, 125, 336, 156
-0.999069, 125, 153, 140, 184
-0.999074, 127, 241, 142, 272
-0.999075, 485, 213, 500, 244
-0.999077, 407, 217, 422, 248
-0.999084, 337, 57, 464, 88
-0.999086, 365, 165, 380, 196
-0.999088, 97, 241, 352, 304
-0.99909, 395, 333, 410, 364
-0.999091, 415, 305, 430, 368
-0.999094, 473, 201, 488, 264
-0.999098, 105, 129, 168, 375
-0.9991, 317, 161, 332, 224
-0.999101, 297, 209, 312, 272
-0.999106, 293, 81, 308, 144
-0.999107, 293, 145, 308, 176
-0.999107, 281, 33, 312, 288
-0.99911, 119, 233, 134, 264
-0.99911, 103, 257, 118, 320
-0.999111, 315, 113, 330, 144
-0.999111, 441, 305, 456, 336
-0.999112, 451, 289, 466, 320
-0.999113, 85, 129, 116, 256
-0.999114, 193, 145, 320, 176
-0.999114, 277, 209, 292, 272
-0.999116, 107, 137, 122, 200
-0.999116, 257, 257, 500, 320
-0.999117, 399, 217, 414, 248
-0.999117, 321, 161, 448, 192
-0.999119, 1, 329, 128, 360
-0.999119, 309, 81, 324, 144
-0.999123, 193, 345, 320, 375
-0.999128, 89, 161, 104, 224
-0.999131, 95, 265, 110, 328
-0.999132, 319, 89, 334, 120
-0.999132, 429, 185, 444, 248
-0.99914, 295, 33, 310, 96
-0.999142, 253, 217, 268, 248
-0.999145, 309, 117, 324, 148
-0.999146, 359, 25, 374, 88
-0.999151, 483, 249, 498, 312
-0.999152, 429, 145, 460, 272
-0.999153, 457, 97, 488, 352
-0.999155, 353, 25, 368, 88
-0.999156, 301, 61, 316, 92
-0.999158, 327, 65, 342, 96
-0.999161, 285, 209, 316, 272
-0.999162, 1, 233, 500, 296
-0.999166, 385, 205, 400, 236
-0.99917, 365, 41, 380, 104
-0.999173, 343, 169, 358, 232
-0.999175, 269, 209, 284, 272
-0.999177, 321, 65, 336, 96
-0.999178, 323, 337, 338, 368
-0.999179, 225, 265, 352, 328
-0.999183, 333, 121, 348, 152
-0.999183, 325, 89, 340, 120
-0.999184, 469, 241, 484, 272
-0.999185, 375, 149, 390, 180
-0.99919, 367, 109, 382, 140
-0.9992, 417, 241, 448, 368
-0.9992, 311, 61, 326, 92
-0.999202, 367, 137, 382, 168
-0.999207, 367, 81, 382, 112
-0.999211, 461, 205, 476, 236
-0.999212, 375, 93, 390, 124
-0.999213, 345, 117, 360, 148
-0.999214, 357, 213, 372, 244
-0.999216, 117, 145, 132, 176
-0.999219, 301, 217, 316, 248
-0.99922, 367, 121, 382, 152
-0.999223, 365, 49, 380, 176
-0.999223, 397, 345, 412, 375
-0.999226, 357, 341, 372, 372
-0.999229, 307, 101, 322, 132
-0.999229, 365, 341, 380, 372
-0.999236, 341, 157, 356, 188
-0.999238, 367, 97, 382, 128
-0.999239, 109, 245, 124, 276
-0.99924, 209, 65, 336, 96
-0.999241, 321, 217, 336, 248
-0.999243, 293, 85, 308, 116
-0.999245, 97, 129, 128, 375
-0.999246, 365, 213, 380, 244
-0.999247, 375, 133, 390, 164
-0.999248, 291, 165, 306, 196
-0.99925, 453, 209, 468, 336
-0.999251, 349, 213, 364, 244
-0.999252, 375, 105, 390, 136
-0.999252, 477, 241, 492, 272
-0.999257, 89, 193, 104, 224
-0.999258, 339, 213, 354, 244
-0.999258, 435, 305, 450, 336
-0.999263, 305, 89, 320, 120
-0.999263, 349, 165, 364, 196
-0.999263, 305, 337, 320, 368
-0.999263, 121, 249, 136, 280
-0.999264, 389, 241, 420, 368
-0.999267, 375, 121, 390, 152
-0.999267, 325, 165, 340, 196
-0.99927, 441, 201, 456, 232
-0.999273, 365, 145, 380, 272
-0.999273, 333, 165, 348, 196
-0.999275, 103, 145, 118, 176
-0.999276, 245, 229, 260, 260
-0.999276, 93, 269, 108, 300
-0.999276, 351, 337, 366, 368
-0.999279, 81, 265, 208, 296
-0.99928, 311, 217, 326, 248
-0.999281, 313, 157, 328, 188
-0.999283, 307, 157, 322, 188
-0.999284, 375, 81, 390, 112
-0.999289, 299, 157, 314, 188
-0.999292, 305, 129, 336, 375
-0.999293, 455, 241, 470, 272
-0.999295, 359, 165, 374, 196
-0.999297, 289, 65, 304, 96
-0.999303, 319, 165, 334, 196
-0.999303, 121, 185, 136, 216
-0.999304, 331, 213, 346, 244
-0.999307, 291, 129, 306, 160
-0.999313, 1, 121, 500, 184
-0.999313, 277, 333, 292, 364
-0.999318, 281, 217, 296, 248
-0.999322, 91, 253, 106, 284
-0.999324, 375, 69, 390, 100
-0.999325, 373, 65, 404, 320
-0.99933, 115, 245, 130, 276
-0.999333, 353, 73, 480, 104
-0.999333, 49, 241, 176, 272
-0.99934, 443, 193, 458, 320
-0.999344, 417, 145, 448, 272
-0.999345, 365, 145, 396, 208
-0.999347, 347, 145, 362, 272
-0.999354, 1, 153, 256, 216
-0.999365, 145, 1, 208, 375
-0.999369, 257, 205, 384, 236
-0.999371, 353, 113, 480, 144
-0.999372, 305, 161, 336, 224
-0.999374, 477, 209, 492, 336
-0.999376, 359, 145, 374, 272
-0.999376, 405, 145, 436, 272
-0.99938, 437, 129, 468, 375
-0.999381, 129, 249, 256, 280
-0.999381, 321, 305, 448, 336
-0.999395, 291, 145, 306, 272
-0.999397, 341, 145, 356, 272
-0.999398, 331, 145, 346, 272
-0.999416, 353, 85, 480, 116
-0.999424, 353, 65, 368, 192
-0.999429, 1, 137, 128, 168
-0.999433, 391, 193, 406, 320
-0.999438, 417, 185, 448, 248
-0.99944, 343, 65, 358, 192
-0.999441, 353, 145, 368, 272
-0.999442, 177, 1, 240, 375
-0.999445, 451, 293, 466, 308
-0.999445, 317, 145, 332, 272
-0.999446, 375, 117, 390, 132
-0.999446, 329, 341, 344, 356
-0.999446, 367, 141, 382, 156
-0.999446, 299, 167, 314, 182
-0.999447, 333, 119, 348, 134
-0.999447, 247, 233, 262, 248
-0.999447, 367, 87, 382, 102
-0.999447, 367, 149, 382, 164
-0.999448, 479, 247, 494, 262
-0.999448, 367, 109, 382, 124
-0.999448, 291, 167, 306, 182
-0.999448, 375, 97, 390, 112
-0.999448, 357, 163, 372, 178
-0.999448, 367, 115, 382, 130
-0.999449, 347, 341, 362, 356
-0.999449, 373, 211, 388, 226
-0.999449, 313, 167, 328, 182
-0.999449, 453, 239, 468, 254
-0.99945, 319, 169, 334, 184
-0.999451, 449, 361, 464, 375
-0.999451, 103, 147, 118, 162
-0.999451, 449, 307, 464, 322
-0.999451, 343, 217, 358, 232
-0.999451, 321, 129, 336, 144
-0.999452, 435, 297, 450, 312
-0.999453, 341, 115, 356, 130
-0.999453, 309, 95, 324, 110
-0.999454, 367, 93, 382, 108
-0.999454, 371, 361, 386, 375
-0.999454, 383, 243, 398, 258
-0.999454, 367, 99, 382, 114
-0.999454, 367, 121, 382, 136
-0.999455, 325, 91, 340, 106
-0.999456, 307, 163, 322, 178
-0.999456, 453, 231, 468, 246
-0.999456, 361, 217, 376, 232
-0.999457, 375, 159, 390, 174
-0.999457, 327, 169, 342, 184
-0.999457, 437, 193, 452, 320
-0.999458, 119, 149, 134, 164
-0.999458, 359, 343, 374, 358
-0.99946, 333, 169, 348, 184
-0.99946, 327, 217, 342, 232
-0.99946, 343, 163, 358, 178
-0.99946, 385, 213, 400, 228
-0.99946, 349, 217, 364, 232
-0.99946, 339, 169, 354, 184
-0.999461, 365, 345, 380, 360
-0.999461, 485, 221, 500, 236
-0.999462, 395, 355, 410, 370
-0.999462, 351, 119, 366, 134
-0.999462, 455, 245, 470, 260
-0.999462, 293, 159, 308, 174
-0.999462, 347, 169, 362, 184
-0.999463, 315, 111, 330, 126
-0.999463, 337, 217, 352, 232
-0.999463, 413, 97, 444, 352
-0.999463, 341, 65, 356, 80
-0.999464, 353, 169, 368, 184
-0.999465, 367, 217, 382, 232
-0.999465, 325, 123, 340, 138
-0.999466, 331, 125, 346, 140
-0.999466, 471, 233, 486, 248
-0.999467, 397, 349, 412, 364
-0.999468, 451, 301, 466, 316
-0.999468, 461, 249, 476, 264
-0.999469, 325, 111, 340, 126
-0.999469, 447, 223, 462, 238
-0.99947, 447, 211, 462, 226
-0.99947, 335, 65, 350, 80
-0.999471, 315, 65, 330, 80
-0.999471, 359, 169, 374, 184
-0.999472, 325, 65, 340, 80
-0.999473, 299, 145, 314, 272
-0.999473, 305, 339, 320, 354
-0.999473, 359, 67, 374, 82
-0.999474, 347, 67, 362, 82
-0.999474, 301, 65, 316, 80
-0.999474, 401, 217, 416, 232
-0.999477, 443, 309, 458, 324
-0.999477, 309, 65, 324, 80
-0.999477, 355, 217, 370, 232
-0.999477, 325, 145, 340, 272
-0.999478, 315, 101, 330, 116
-0.999478, 353, 67, 368, 82
-0.999479, 79, 211, 94, 226
-0.999479, 483, 209, 498, 336
-0.99948, 209, 233, 336, 264
-0.999481, 307, 119, 322, 134
-0.999481, 427, 193, 442, 320
-0.999482, 353, 341, 368, 356
-0.999483, 365, 169, 380, 184
-0.999483, 463, 229, 478, 244
-0.999483, 1, 201, 256, 264
-0.999484, 475, 239, 490, 254
-0.999486, 443, 303, 458, 318
-0.999488, 413, 193, 428, 320
-0.999488, 395, 217, 410, 232
-0.999489, 315, 95, 330, 110
-0.999489, 323, 339, 338, 354
-0.999489, 463, 235, 478, 250
-0.999492, 365, 161, 380, 176
-0.999492, 323, 117, 338, 132
-0.999492, 413, 217, 428, 232
-0.999493, 459, 193, 474, 320
-0.999494, 401, 305, 432, 368
-0.999495, 373, 217, 388, 232
-0.999496, 315, 117, 330, 132
-0.999497, 291, 49, 306, 176
-0.999498, 315, 65, 330, 192
-0.999498, 379, 347, 394, 362
-0.9995, 407, 217, 422, 232
-0.999502, 295, 65, 310, 80
-0.999502, 459, 217, 474, 232
-0.999504, 453, 213, 468, 228
-0.999504, 391, 343, 406, 358
-0.999507, 421, 217, 436, 232
-0.999507, 405, 193, 420, 320
-0.999511, 463, 241, 478, 256
-0.999511, 389, 361, 404, 375
-0.999512, 393, 295, 408, 310
-0.999514, 485, 247, 500, 262
-0.999514, 421, 193, 436, 320
-0.999515, 117, 169, 148, 232
-0.999516, 387, 219, 402, 234
-0.999518, 383, 193, 398, 320
-0.999518, 307, 145, 322, 272
-0.999519, 425, 97, 456, 352
-0.999527, 429, 215, 444, 230
-0.999528, 49, 305, 176, 336
-0.999528, 129, 273, 384, 336
-0.999531, 479, 225, 494, 240
-0.999532, 469, 129, 500, 375
-0.999533, 437, 215, 452, 230
-0.99954, 333, 49, 348, 176
-0.999541, 365, 67, 380, 82
-0.999545, 381, 359, 396, 374
-0.999546, 241, 217, 272, 280
-0.999547, 371, 129, 386, 256
-0.999548, 379, 215, 394, 230
-0.999549, 381, 341, 396, 356
-0.99955, 129, 305, 256, 336
-0.99955, 377, 193, 392, 320
-0.999558, 371, 345, 386, 360
-0.999559, 399, 193, 414, 320
-0.999561, 485, 227, 500, 242
-0.999563, 441, 297, 456, 312
-0.999563, 469, 209, 484, 336
-0.999571, 389, 355, 404, 370
-0.999585, 321, 245, 448, 276
-0.999587, 443, 217, 458, 232
-0.999593, 353, 17, 368, 144
-0.999596, 485, 233, 500, 248
-0.999601, 273, 285, 400, 316
-0.999601, 85, 177, 100, 304
-0.999604, 343, 17, 358, 144
-0.999607, 381, 353, 396, 368
-0.999612, 385, 347, 400, 362
-0.999614, 453, 225, 468, 240
-0.99962, 369, 193, 384, 320
-0.99962, 323, 65, 338, 192
-0.999625, 99, 129, 114, 256
-0.999627, 481, 241, 496, 256
-0.999628, 453, 145, 468, 272
-0.999631, 301, 65, 316, 192
-0.999634, 111, 129, 126, 256
-0.999635, 121, 129, 136, 256
-0.999635, 113, 173, 240, 204
-0.999636, 1, 177, 256, 240
-0.999637, 97, 105, 352, 168
-0.999639, 89, 121, 152, 184
-0.999639, 341, 33, 372, 96
-0.999644, 113, 237, 240, 268
-0.999646, 453, 219, 468, 234
-0.999646, 359, 49, 374, 176
-0.999649, 463, 145, 478, 272
-0.999649, 129, 345, 256, 375
-0.999652, 391, 349, 406, 364
-0.999652, 325, 193, 340, 320
-0.999662, 355, 193, 370, 320
-0.999666, 385, 185, 416, 248
-0.999669, 309, 193, 324, 320
-0.999671, 1, 65, 500, 128
-0.999672, 283, 193, 298, 320
-0.999677, 309, 97, 324, 224
-0.999677, 479, 231, 494, 246
-0.99968, 73, 241, 104, 368
-0.999682, 375, 65, 390, 192
-0.999686, 447, 145, 462, 272
-0.999686, 91, 177, 106, 304
-0.999687, 337, 193, 352, 320
-0.999693, 97, 293, 224, 324
-0.999695, 285, 129, 300, 256
-0.999695, 319, 193, 334, 320
-0.999696, 209, 205, 336, 236
-0.999697, 349, 193, 364, 320
-0.999698, 359, 1, 374, 128
-0.999699, 97, 137, 224, 168
-0.9997, 257, 193, 272, 320
-0.999706, 49, 289, 176, 320
-0.999706, 161, 41, 416, 104
-0.999708, 301, 193, 316, 320
-0.999708, 323, 17, 338, 144
-0.999714, 309, 305, 340, 368
-0.999716, 309, 49, 324, 176
-0.999717, 375, 17, 390, 144
-0.999717, 363, 193, 378, 320
-0.999718, 485, 161, 500, 288
-0.999721, 329, 97, 344, 224
-0.999727, 397, 97, 428, 352
-0.999731, 113, 161, 240, 192
-0.999731, 249, 193, 264, 320
-0.999734, 369, 245, 496, 276
-0.999734, 333, 1, 348, 128
-0.999735, 265, 193, 280, 320
-0.999736, 441, 241, 456, 368
-0.999737, 365, 1, 380, 128
-0.999747, 1, 97, 500, 160
-0.999747, 277, 193, 292, 320
-0.999748, 295, 193, 310, 320
-0.999748, 85, 129, 116, 375
-0.999751, 343, 193, 358, 320
-0.999753, 177, 317, 304, 348
-0.999755, 289, 193, 304, 320
-0.999759, 331, 193, 346, 320
-0.999759, 315, 17, 330, 144
-0.99976, 161, 261, 288, 292
-0.999765, 277, 129, 308, 375
-0.999765, 473, 161, 488, 288
-0.999767, 365, 97, 380, 224
-0.99977, 99, 209, 114, 336
-0.999775, 419, 241, 434, 368
-0.999776, 353, 265, 480, 296
-0.999776, 209, 245, 336, 276
-0.999778, 119, 209, 134, 336
-0.999779, 301, 17, 316, 144
-0.999781, 105, 129, 120, 256
-0.999784, 359, 97, 374, 224
-0.999786, 337, 97, 352, 224
-0.999788, 441, 145, 456, 272
-0.999791, 295, 97, 310, 224
-0.999796, 271, 193, 286, 320
-0.999799, 433, 145, 448, 272
-0.999801, 479, 161, 494, 288
-0.999805, 395, 145, 410, 272
-0.999806, 241, 41, 304, 104
-0.999808, 387, 145, 402, 272
-0.999808, 381, 145, 396, 272
-0.999811, 289, 233, 416, 264
-0.999815, 77, 209, 92, 336
-0.999823, 97, 221, 224, 252
-0.999824, 113, 177, 128, 304
-0.999824, 93, 129, 108, 256
-0.999826, 277, 129, 308, 192
-0.999827, 241, 325, 368, 356
-0.999828, 289, 317, 416, 348
-0.999829, 81, 277, 208, 308
-0.999833, 159, 241, 174, 368
-0.999833, 393, 241, 408, 368
-0.999834, 243, 193, 258, 320
-0.999835, 295, 1, 310, 128
-0.999838, 107, 177, 122, 304
-0.999843, 209, 273, 336, 304
-0.999844, 369, 313, 400, 375
-0.999845, 435, 241, 450, 368
-0.999848, 423, 145, 438, 272
-0.999848, 409, 145, 424, 272
-0.99985, 425, 241, 440, 368
-0.999854, 1, 257, 500, 320
-0.999855, 141, 225, 156, 352
-0.999855, 401, 145, 416, 272
-0.999859, 165, 241, 180, 368
-0.999862, 193, 53, 320, 84
-0.999863, 285, 65, 300, 192
-0.999867, 289, 273, 416, 304
-0.999874, 101, 257, 132, 320
-0.999876, 463, 241, 478, 368
-0.999876, 129, 241, 144, 368
-0.999877, 233, 233, 296, 296
-0.999878, 149, 241, 164, 368
-0.999879, 417, 145, 432, 272
-0.999885, 85, 241, 100, 368
-0.999887, 309, 1, 324, 128
-0.999891, 49, 317, 176, 348
-0.999893, 135, 225, 150, 352
-0.999895, 127, 145, 142, 272
-0.999898, 107, 225, 122, 352
-0.999903, 149, 257, 180, 320
-0.999904, 401, 241, 416, 368
-0.999905, 21, 193, 36, 320
-0.999911, 273, 145, 288, 272
-0.999911, 1, 153, 500, 216
-0.999923, 247, 145, 262, 272
-0.999925, 413, 241, 428, 368
-0.999925, 129, 273, 256, 304
-0.999928, 289, 1, 304, 128
-0.999931, 93, 225, 108, 352
-0.999932, 177, 297, 304, 328
-0.999938, 115, 81, 130, 208
-0.999939, 97, 317, 224, 348
-0.999943, 1, 305, 500, 368
-0.999946, 257, 145, 272, 272
-0.999948, 283, 17, 298, 144
-0.99995, 407, 241, 422, 368
-0.999965, 269, 33, 300, 288
-0.99999, 385, 97, 416, 352
-0.999991, 97, 65, 352, 128
-0.999992, 177, 217, 304, 248
-0.999995, 65, 281, 128, 344
-1, 333, 169, 364, 232
-1.00002, 105, 305, 168, 368
-1.00002, 97, 333, 224, 364
-1.00002, 337, 321, 464, 352
-1.00004, 329, 33, 360, 96
-1.00006, 161, 229, 288, 260
-1.00008, 161, 205, 288, 236
-1.00008, 177, 285, 304, 316
-1.00009, 113, 185, 240, 216
-1.0001, 193, 233, 448, 296
-1.0001, 209, 261, 336, 292
-1.00011, 289, 29, 416, 60
-1.00012, 373, 89, 404, 152
-1.00012, 109, 129, 140, 375
-1.00015, 317, 33, 348, 96
-1.00015, 81, 345, 208, 375
-1.00016, 241, 289, 368, 352
-1.00016, 225, 169, 352, 200
-1.00017, 337, 25, 464, 56
-1.00017, 369, 1, 496, 64
-1.00017, 381, 145, 412, 272
-1.00019, 9, 1, 72, 375
-1.00019, 233, 193, 264, 320
-1.00019, 49, 329, 176, 360
-1.0002, 401, 185, 432, 248
-1.00021, 177, 157, 304, 188
-1.00021, 273, 245, 400, 276
-1.00026, 113, 201, 240, 232
-1.00026, 225, 309, 352, 340
-1.00026, 257, 17, 384, 48
-1.00027, 305, 257, 432, 288
-1.00027, 161, 169, 288, 232
-1.00029, 273, 297, 400, 328
-1.00031, 257, 261, 384, 292
-1.00031, 353, 153, 416, 216
-1.00033, 1, 97, 256, 224
-1.00033, 137, 225, 168, 352
-1.00033, 373, 241, 404, 368
-1.00034, 337, 13, 464, 44
-1.00035, 125, 225, 156, 352
-1.00035, 405, 241, 436, 368
-1.00035, 65, 41, 320, 104
-1.00036, 449, 193, 480, 256
-1.00036, 289, 313, 320, 375
-1.00037, 225, 293, 352, 324
-1.00038, 369, 185, 400, 248
-1.00039, 121, 129, 152, 375
-1.00046, 469, 33, 500, 288
-1.00046, 441, 241, 472, 304
-1.00047, 273, 313, 304, 375
-1.00048, 113, 113, 176, 240
-1.00049, 305, 193, 432, 224
-1.00049, 305, 45, 432, 76
-1.00049, 21, 129, 52, 375
-1.00049, 97, 33, 128, 288
-1.0005, 249, 129, 280, 375
-1.0005, 353, 41, 384, 104
-1.00052, 357, 313, 388, 375
-1.00052, 1, 1, 128, 64
-1.00052, 241, 193, 368, 224
-1.00052, 1, 281, 500, 344
-1.00052, 77, 225, 108, 288
-1.00053, 257, 1, 320, 256
-1.00054, 209, 21, 336, 52
-1.00056, 161, 17, 416, 80
-1.00056, 437, 33, 468, 288
-1.00058, 105, 201, 136, 264
-1.00059, 273, 173, 400, 204
-1.0006, 17, 125, 144, 156
-1.0006, 361, 241, 424, 368
-1.00062, 121, 281, 184, 344
-1.00062, 293, 169, 324, 232
-1.00063, 221, 129, 252, 375
-1.00063, 73, 129, 104, 375
-1.00063, 73, 97, 136, 224
-1.00065, 437, 313, 468, 375
-1.00068, 65, 209, 96, 272
-1.00069, 133, 129, 164, 375
-1.00069, 301, 33, 332, 96
-1.00071, 357, 185, 388, 248
-1.00072, 77, 1, 108, 256
-1.00075, 33, 129, 64, 375
-1.00077, 233, 129, 264, 375
-1.00077, 165, 129, 196, 375
-1.00081, 289, 33, 320, 96
-1.00081, 117, 33, 148, 288
-1.00082, 261, 129, 292, 375
-1.00082, 193, 201, 256, 264
-1.00082, 321, 265, 384, 328
-1.00084, 461, 185, 492, 248
-1.00085, 145, 129, 176, 375
-1.00086, 269, 17, 300, 144
-1.00087, 197, 129, 228, 375
-1.00089, 249, 153, 312, 216
-1.00091, 185, 129, 216, 375
-1.00092, 245, 33, 276, 288
-1.00098, 61, 97, 92, 352
-1.001, 385, 1, 416, 256
-1.00102, 209, 129, 240, 375
-1.00102, 405, 1, 436, 256
-1.00103, 65, 1, 96, 256
-1.00103, 77, 249, 108, 312
-1.00103, 321, 313, 352, 375
-1.00103, 193, 161, 256, 288
-1.00104, 257, 1, 500, 64
-1.00104, 425, 313, 456, 375
-1.00104, 425, 1, 456, 256
-1.00105, 1, 129, 32, 375
-1.00107, 193, 225, 256, 288
-1.00109, 257, 33, 288, 288
-1.0011, 329, 241, 392, 368
-1.00112, 265, 25, 328, 88
-1.00112, 165, 265, 196, 328
-1.00113, 313, 17, 376, 80
-1.00113, 233, 145, 296, 272
-1.00115, 49, 129, 80, 375
-1.00115, 233, 33, 264, 288
-1.00118, 1, 105, 256, 168
-1.00118, 365, 65, 396, 128
-1.00123, 121, 129, 184, 192
-1.00123, 137, 233, 200, 296
-1.00125, 77, 153, 108, 216
-1.00126, 65, 25, 192, 88
-1.00129, 409, 33, 472, 288
-1.00131, 13, 33, 44, 288
-1.00132, 49, 1, 176, 64
-1.00133, 209, 1, 240, 256
-1.00135, 1, 33, 32, 288
-1.00136, 33, 33, 64, 288
-1.00136, 221, 33, 252, 288
-1.00138, 1, 73, 256, 136
-1.00139, 129, 33, 160, 288
-1.0014, 449, 1, 480, 256
-1.00141, 189, 1, 220, 256
-1.00142, 241, 241, 272, 304
-1.00142, 177, 17, 304, 80
-1.00142, 177, 1, 208, 256
-1.00143, 149, 1, 180, 256
-1.00146, 33, 1, 288, 64
-1.00146, 45, 33, 76, 288
-1.00146, 185, 273, 216, 336
-1.00148, 137, 249, 168, 312
-1.00149, 161, 1, 192, 256
-1.00151, 261, 145, 292, 272
-1.00153, 17, 177, 48, 304
-1.00156, 113, 17, 240, 80
-1.00157, 97, 105, 224, 168
-1.00158, 41, 97, 104, 224
-1.00158, 81, 305, 144, 368
-1.00159, 193, 129, 256, 375
-1.0016, 49, 121, 176, 184
-1.00161, 1, 41, 500, 104
-1.00163, 229, 209, 260, 272
-1.00163, 277, 89, 308, 152
-1.00169, 393, 257, 424, 320
-1.00171, 469, 281, 500, 344
-1.00176, 361, 241, 424, 304
-1.00177, 145, 137, 272, 200
-1.00177, 321, 185, 352, 248
-1.00178, 9, 145, 72, 272
-1.00178, 337, 313, 400, 375
-1.00179, 165, 297, 196, 360
-1.00179, 193, 289, 256, 352
-1.00182, 177, 241, 208, 368
-1.00185, 1, 17, 500, 80
-1.00188, 121, 145, 152, 208
-1.00188, 373, 233, 404, 296
-1.0019, 345, 185, 376, 248
-1.00193, 285, 17, 316, 144
-1.00195, 93, 193, 124, 256
-1.00196, 17, 97, 144, 160
-1.00199, 161, 241, 224, 304
-1.00202, 165, 241, 196, 368
-1.00206, 233, 289, 296, 352
-1.00207, 161, 113, 288, 176
-1.00208, 101, 81, 132, 208
-1.0021, 409, 257, 440, 320
-1.00213, 305, 185, 336, 248
-1.00214, 41, 241, 104, 368
-1.00215, 17, 25, 144, 88
-1.00217, 273, 241, 336, 368
-1.00219, 369, 145, 496, 208
-1.00223, 225, 185, 288, 248
-1.00228, 221, 177, 252, 304
-1.00233, 341, 313, 372, 375
-1.00234, 313, 233, 376, 296
-1.00234, 385, 233, 416, 296
-1.00236, 249, 145, 280, 272
-1.00236, 245, 313, 276, 375
-1.00236, 17, 65, 144, 128
-1.00253, 125, 145, 156, 272
-1.00254, 89, 257, 120, 320
-1.00256, 97, 121, 128, 184
-1.00256, 65, 81, 192, 144
-1.00268, 13, 313, 44, 375
-1.0027, 281, 185, 312, 248
-1.00271, 469, 305, 500, 368
-1.00271, 269, 65, 300, 128
-1.00273, 453, 289, 484, 352
-1.00274, 65, 57, 192, 120
-1.00275, 113, 241, 144, 368
-1.00276, 365, 25, 396, 88
-1.00278, 269, 185, 300, 248
-1.00279, 73, 33, 136, 288
-1.00279, 73, 129, 104, 256
-1.00281, 161, 193, 224, 320
-1.00282, 161, 81, 288, 144
-1.00283, 161, 129, 224, 375
-1.00284, 153, 297, 184, 360
-1.00285, 57, 313, 120, 375
-1.00288, 113, 65, 240, 128
-1.00288, 1, 209, 32, 336
-1.0029, 233, 257, 296, 320
-1.0029, 129, 225, 160, 288
-1.00291, 129, 41, 256, 104
-1.00291, 13, 241, 44, 368
-1.00292, 9, 169, 72, 232
-1.00293, 277, 153, 308, 216
-1.00293, 41, 33, 104, 288
-1.00297, 377, 1, 440, 256
-1.00298, 5, 265, 36, 328
-1.00301, 109, 121, 140, 184
-1.00304, 257, 305, 288, 368
-1.00307, 117, 201, 148, 264
-1.00309, 233, 145, 264, 272
-1.0031, 17, 281, 48, 344
-1.0031, 17, 201, 48, 264
-1.00319, 121, 209, 184, 272
-1.00327, 29, 145, 60, 272
-1.00329, 265, 233, 328, 296
-1.00337, 257, 289, 320, 352
-1.00339, 233, 1, 296, 256
-1.00353, 441, 241, 472, 368
-1.00358, 197, 225, 228, 352
-1.00361, 281, 265, 344, 328
-1.00363, 113, 97, 144, 224
-1.00363, 209, 209, 240, 336
-1.00374, 149, 193, 180, 320
-1.00384, 57, 177, 88, 304
-1.00388, 357, 241, 388, 368
-1.00395, 33, 313, 96, 375
-1.00406, 217, 97, 280, 352
-1.00413, 137, 129, 200, 375
-1.00416, 137, 177, 168, 304
-1.00422, 173, 193, 204, 320
-1.00425, 77, 81, 108, 208
-1.00432, 201, 177, 264, 240
-1.00433, 41, 289, 104, 352
-1.00434, 209, 241, 272, 368
-1.00439, 257, 265, 320, 328
-1.0045, 297, 289, 360, 352
-1.0046, 433, 33, 496, 96
-1.00464, 385, 233, 448, 296
-1.00467, 241, 17, 304, 80
-1.00477, 333, 241, 364, 368
-1.00479, 197, 177, 228, 304
-1.00484, 97, 33, 160, 288
-1.00485, 65, 105, 128, 168
-1.00486, 17, 1, 144, 128
-1.0049, 305, 241, 336, 368
-1.00495, 289, 233, 352, 296
-1.00502, 65, 33, 192, 160
-1.00503, 369, 25, 432, 88
-1.0051, 29, 193, 60, 320
-1.00511, 9, 145, 72, 208
-1.00519, 345, 241, 376, 368
-1.0052, 161, 217, 224, 280
-1.00523, 161, 193, 192, 320
-1.00523, 409, 25, 472, 88
-1.00523, 65, 1, 96, 128
-1.00525, 25, 241, 56, 368
-1.00529, 113, 105, 176, 168
-1.00529, 337, 241, 400, 304
-1.00532, 433, 1, 496, 64
-1.00541, 221, 225, 252, 352
-1.00545, 433, 33, 496, 160
-1.00549, 277, 241, 308, 368
-1.00551, 125, 81, 156, 208
-1.0056, 433, 57, 496, 120
-1.00562, 185, 193, 216, 320
-1.00562, 41, 1, 104, 64
-1.00565, 17, 129, 48, 256
-1.00574, 345, 1, 408, 64
-1.00576, 433, 145, 496, 208
-1.00578, 113, 1, 240, 128
-1.00581, 137, 193, 200, 320
-1.00581, 321, 241, 352, 368
-1.00583, 169, 193, 232, 256
-1.00588, 185, 17, 248, 80
-1.0059, 421, 17, 452, 144
-1.00595, 385, 17, 416, 144
-1.00596, 1, 145, 32, 272
-1.00611, 293, 241, 324, 368
-1.00613, 61, 129, 92, 256
-1.00617, 469, 33, 500, 160
-1.00623, 453, 113, 484, 240
-1.00641, 121, 33, 184, 288
-1.00642, 209, 161, 240, 288
-1.00648, 265, 65, 296, 192
-1.00655, 433, 17, 464, 144
-1.00658, 257, 241, 288, 368
-1.00658, 397, 17, 428, 144
-1.00658, 409, 17, 440, 144
-1.00664, 221, 129, 252, 256
-1.00671, 61, 241, 92, 368
-1.00676, 249, 1, 280, 128
-1.00684, 237, 241, 268, 368
-1.0069, 237, 1, 268, 128
-1.00691, 89, 65, 120, 192
-1.00698, 445, 1, 476, 128
-1.00698, 77, 1, 108, 128
-1.00703, 233, 241, 296, 368
-1.00714, 205, 1, 236, 128
-1.00715, 41, 177, 72, 304
-1.00723, 17, 33, 80, 288
-1.00723, 29, 97, 60, 224
-1.00723, 457, 33, 488, 160
-1.00731, 49, 113, 80, 240
-1.00736, 177, 1, 240, 256
-1.00744, 385, 17, 448, 144
-1.00744, 209, 1, 272, 256
-1.00769, 409, 17, 472, 144
-1.00785, 97, 65, 160, 192
-1.00793, 49, 81, 176, 208
-1.00808, 161, 65, 288, 192
-1.00811, 153, 1, 216, 256
-1.00841, 57, 1, 120, 128
-1.00842, 305, 241, 368, 368
-1.00873, 233, 65, 296, 192
-1.0089, 433, 97, 496, 224
-1.00934, 209, 113, 272, 240
-1.00939, 33, 1, 96, 128
-1.01013, 209, 1, 272, 128
-1.01055, 153, 1, 216, 128
-1.01055, 177, 1, 240, 128
-1.01058, 1, 97, 64, 224
-1.01076, 113, 49, 240, 176
-1.0109, 145, 145, 208, 272
-1.01094, 409, 65, 472, 192
-1.01126, 121, 65, 184, 192
-1.01127, 81, 17, 144, 144
-1.01175, 169, 145, 232, 272
-1.01176, 113, 1, 176, 128
-1.01256, 57, 49, 120, 176
-1.01315, 1, 1, 64, 128
-1.01341, 1, 49, 64, 176
-1.01348, 385, 65, 448, 192
-1.0137, 145, 97, 208, 224
-1.01419, 169, 81, 232, 208
-1.01438, 25, 49, 88, 176
-1.01471, 193, 49, 256, 176
-1.015, 145, 49, 208, 176
