1951
-0.105239, 1, 1, 500, 376
-0.223019, 257, 1, 500, 376
-0.250446, 161, 1, 416, 376
-0.276964, 65, 1, 320, 376
-0.311726, 1, 65, 500, 320
-0.421274, 161, 65, 416, 320
-0.496727, 33, 97, 288, 352
-0.506191, 257, 65, 500, 320
-0.507712, 65, 1, 320, 256
-0.804834, 161, 1, 288, 376
-0.806442, 241, 1, 368, 376
-0.819057, 241, 65, 368, 320
-0.823865, 193, 65, 320, 320
-0.828871, 113, 1, 240, 376
-0.835118, 129, 65, 256, 320
-0.83773, 289, 1, 416, 376
-0.844664, 81, 65, 208, 320
-0.848854, 289, 97, 416, 352
-0.85161, 353, 1, 480, 376
-0.859084, 353, 65, 480, 320
-0.864602, 1, 97, 500, 224
-0.874324, 1, 193, 500, 320
-0.883026, 49, 1, 176, 376
-0.885021, 33, 97, 160, 352
-0.885208, 161, 193, 416, 320
-0.885775, 289, 1, 416, 256
-0.891236, 97, 129, 352, 256
-0.891835, 1, 145, 500, 272
-0.893389, 1, 33, 500, 160
-0.896768, 65, 209, 320, 336
-0.901677, 161, 81, 416, 208
-0.902719, 257, 225, 500, 352
-0.904077, 257, 145, 500, 272
-0.904233, 257, 81, 500, 208
-0.907693, 1, 129, 256, 256
-0.91095, 257, 81, 384, 208
-0.91103, 1, 1, 128, 376
-0.911845, 1, 241, 500, 368
-0.912192, 65, 65, 320, 192
-0.913761, 257, 1, 500, 128
-0.915715, 321, 177, 384, 304
-0.917061, 297, 225, 360, 352
-0.917366, 193, 193, 320, 320
-0.917831, 193, 193, 256, 320
-0.917908, 161, 241, 416, 368
-0.91817, 273, 225, 400, 352
-0.918398, 161, 33, 416, 160
-0.921708, 297, 177, 360, 304
-0.921884, 273, 177, 400, 304
-0.923184, 273, 225, 336, 352
-0.924563, 145, 65, 272, 192
-0.925177, 265, 177, 328, 304
-0.927767, 65, 257, 320, 376
-0.928003, 33, 1, 160, 256
-0.928703, 225, 129, 352, 256
-0.930366, 177, 129, 304, 256
-0.931211, 233, 225, 296, 352
-0.932163, 129, 209, 256, 336
-0.932982, 153, 177, 216, 304
-0.934288, 321, 225, 384, 352
-0.935109, 241, 177, 304, 304
-0.935912, 161, 65, 224, 192
-0.936007, 345, 193, 408, 320
-0.936137, 193, 33, 320, 160
-0.937505, 305, 81, 368, 208
-0.938189, 185, 201, 248, 264
-0.93835, 273, 257, 336, 320
-0.938923, 345, 145, 408, 272
-0.939063, 289, 1, 352, 128
-0.939967, 225, 241, 352, 368
-0.940115, 321, 129, 384, 256
-0.940146, 97, 161, 224, 288
-0.940664, 273, 81, 336, 208
-0.940943, 337, 1, 464, 128
-0.941596, 297, 233, 360, 296
-0.941631, 65, 17, 320, 144
-0.941652, 353, 209, 480, 336
-0.942212, 81, 113, 208, 240
-0.942409, 289, 1, 416, 128
-0.943753, 265, 217, 328, 280
-0.944124, 353, 145, 480, 272
-0.94457, 273, 129, 400, 256
-0.944757, 161, 225, 224, 352
-0.945105, 321, 1, 384, 128
-0.945114, 129, 97, 192, 224
-0.945665, 265, 129, 328, 256
-0.947328, 209, 81, 336, 208
-0.947333, 81, 17, 208, 144
-0.947446, 233, 265, 296, 328
-0.948576, 233, 129, 296, 256
-0.949003, 217, 177, 280, 304
-0.949355, 97, 65, 224, 192
-0.949358, 433, 81, 496, 208
-0.950036, 129, 17, 192, 144
-0.950359, 81, 225, 208, 352
-0.950521, 281, 81, 344, 144
-0.950538, 345, 241, 408, 368
-0.951058, 241, 33, 368, 160
-0.951249, 345, 161, 408, 224
-0.951541, 129, 257, 256, 376
-0.951553, 321, 225, 384, 288
-0.951721, 225, 233, 288, 296
-0.951788, 185, 257, 248, 376
-0.951943, 305, 185, 368, 248
-0.95263, 177, 241, 304, 368
-0.952817, 169, 129, 232, 256
-0.953158, 433, 257, 496, 376
-0.953291, 193, 145, 256, 272
-0.954263, 209, 241, 272, 368
-0.954323, 305, 81, 432, 208
-0.954372, 321, 89, 384, 152
-0.954955, 329, 185, 392, 248
-0.955508, 129, 113, 256, 240
-0.955965, 17, 209, 144, 336
-0.956401, 225, 193, 288, 256
-0.956461, 233, 33, 296, 160
-0.957379, 321, 265, 384, 328
-0.95755, 297, 257, 360, 320
-0.957745, 185, 177, 248, 240
-0.957891, 33, 97, 160, 224
-0.957963, 105, 113, 168, 240
-0.957978, 369, 257, 496, 376
-0.958012, 321, 145, 384, 208
-0.958068, 345, 1, 408, 128
-0.958168, 345, 209, 408, 272
-0.958281, 305, 65, 368, 320
-0.958411, 257, 193, 320, 256
-0.95842, 265, 33, 328, 160
-0.958567, 321, 121, 384, 184
-0.958639, 73, 97, 136, 224
-0.958696, 145, 177, 208, 240
-0.959699, 329, 81, 392, 208
-0.959869, 353, 97, 480, 224
-0.960008, 281, 185, 344, 248
-0.960186, 193, 225, 256, 288
-0.960228, 297, 129, 360, 256
-0.960231, 185, 49, 248, 176
-0.960263, 145, 209, 208, 272
-0.960329, 353, 49, 480, 176
-0.960445, 265, 129, 328, 376
-0.960492, 129, 145, 192, 272
-0.961157, 273, 153, 336, 216
-0.961924, 137, 225, 200, 352
-0.96198, 433, 17, 496, 144
-0.962233, 153, 81, 216, 144
-0.962269, 321, 257, 448, 376
-0.962462, 193, 265, 256, 328
-0.962784, 265, 121, 328, 184
-0.963164, 201, 193, 232, 320
-0.963168, 161, 17, 224, 144
-0.963367, 161, 65, 224, 320
-0.963426, 345, 241, 408, 304
-0.963656, 337, 129, 400, 376
-0.964023, 153, 233, 216, 296
-0.964202, 225, 153, 288, 216
-0.964265, 281, 281, 344, 344
-0.964714, 257, 281, 320, 344
-0.964775, 425, 209, 488, 336
-0.965051, 321, 225, 352, 352
-0.965158, 129, 113, 192, 176
-0.965292, 337, 177, 368, 304
-0.965393, 297, 209, 360, 272
-0.965498, 249, 81, 312, 208
-0.965529, 241, 121, 304, 184
-0.965635, 81, 97, 144, 160
-0.965647, 297, 177, 328, 304
-0.965781, 249, 241, 312, 304
-0.965782, 193, 193, 224, 256
-0.96598, 1, 257, 64, 320
-0.966051, 105, 193, 168, 320
-0.966098, 293, 225, 324, 352
-0.966124, 257, 81, 384, 144
-0.966177, 221, 193, 252, 320
-0.966324, 353, 97, 416, 224
-0.966424, 313, 177, 344, 304
-0.966572, 281, 33, 344, 288
-0.966646, 425, 1, 488, 64
-0.966705, 309, 225, 340, 352
-0.966753, 217, 185, 248, 248
-0.966784, 17, 161, 144, 288
-0.966846, 369, 161, 432, 288
-0.966908, 129, 89, 192, 152
-0.967075, 185, 65, 248, 320
-0.967423, 337, 185, 368, 248
-0.967577, 209, 217, 336, 280
-0.967606, 313, 257, 344, 320
-0.967683, 277, 81, 308, 208
-0.967947, 277, 81, 308, 144
-0.967992, 209, 33, 272, 160
-0.968002, 301, 241, 332, 304
-0.968024, 205, 201, 236, 264
-0.968102, 345, 81, 376, 208
-0.968142, 433, 201, 496, 264
-0.968198, 273, 185, 400, 248
-0.968358, 113, 241, 176, 368
-0.968435, 325, 177, 356, 304
-0.968441, 273, 241, 400, 304
-0.968514, 225, 265, 352, 328
-0.96856, 177, 193, 304, 256
-0.968579, 129, 17, 256, 144
-0.968655, 277, 193, 308, 320
-0.968672, 349, 177, 380, 304
-0.968739, 233, 193, 264, 320
-0.968839, 233, 201, 264, 264
-0.96888, 425, 161, 488, 288
-0.969007, 169, 49, 232, 112
-0.969064, 281, 257, 312, 320
-0.969098, 265, 225, 296, 352
-0.969263, 105, 1, 168, 128
-0.969284, 353, 49, 416, 176
-0.969512, 9, 257, 72, 376
-0.969603, 345, 89, 376, 152
-0.969604, 241, 129, 304, 376
-0.969657, 317, 81, 348, 144
-0.969663, 129, 241, 192, 304
-0.969713, 301, 217, 332, 280
-0.969789, 105, 121, 168, 184
-0.96979, 325, 81, 356, 208
-0.969933, 297, 81, 328, 144
-0.969991, 393, 1, 456, 128
-0.970025, 357, 129, 388, 256
-0.970066, 269, 257, 300, 320
-0.970072, 169, 153, 232, 216
-0.970427, 273, 265, 400, 328
-0.970773, 321, 225, 352, 288
-0.97086, 129, 97, 256, 160
-0.970919, 281, 217, 312, 280
-0.971211, 173, 33, 204, 160
-0.971282, 333, 225, 364, 352
-0.971418, 353, 137, 416, 200
-0.971461, 317, 1, 348, 128
-0.971471, 129, 137, 192, 200
-0.971639, 433, 1, 496, 256
-0.971663, 353, 265, 416, 328
-0.971802, 17, 257, 144, 376
-0.971983, 293, 265, 324, 328
-0.971999, 233, 33, 296, 288
-0.972188, 337, 129, 368, 256
-0.972256, 433, 313, 496, 376
-0.972258, 289, 193, 320, 256
-0.972258, 369, 209, 432, 336
-0.972264, 357, 161, 388, 224
-0.972281, 433, 73, 496, 136
-0.972329, 49, 105, 176, 168
-0.972366, 225, 113, 352, 176
-0.972384, 305, 81, 336, 208
-0.972397, 345, 241, 376, 304
-0.972401, 245, 209, 276, 336
-0.972412, 233, 289, 296, 352
-0.972415, 177, 145, 304, 208
-0.972426, 249, 97, 312, 160
-0.972614, 329, 273, 360, 336
-0.972665, 225, 193, 352, 256
-0.972673, 305, 1, 368, 64
-0.972912, 337, 1, 368, 128
-0.972931, 265, 217, 296, 280
-0.972972, 357, 225, 388, 352
-0.973029, 237, 233, 268, 296
-0.973086, 329, 81, 360, 144
-0.973184, 169, 105, 232, 168
-0.973248, 105, 217, 168, 280
-0.973391, 201, 129, 264, 192
-0.973436, 161, 97, 192, 224
-0.973461, 185, 193, 216, 320
-0.973511, 145, 233, 272, 296
-0.973516, 273, 193, 304, 256
-0.973551, 329, 33, 392, 288
-0.973595, 49, 97, 112, 224
-0.973645, 305, 129, 336, 256
-0.973802, 433, 289, 496, 352
-0.973827, 289, 57, 352, 120
-0.973847, 161, 73, 192, 136
-0.973892, 257, 145, 384, 208
-0.973915, 317, 185, 348, 248
-0.973977, 301, 185, 332, 248
-0.97406, 281, 153, 312, 216
-0.974113, 353, 185, 416, 248
-0.974117, 9, 209, 72, 336
-0.974201, 417, 241, 480, 304
-0.974253, 201, 1, 264, 376
-0.974268, 161, 57, 288, 120
-0.974285, 281, 257, 312, 376
-0.974352, 297, 161, 360, 224
-0.974421, 221, 209, 252, 272
-0.97451, 297, 33, 328, 160
-0.974518, 209, 65, 272, 320
-0.974691, 145, 241, 176, 304
-0.974713, 353, 113, 416, 176
-0.974819, 289, 81, 320, 208
-0.974934, 353, 33, 416, 288
-0.975031, 161, 97, 192, 160
-0.975041, 145, 121, 272, 184
-0.975075, 325, 129, 356, 256
-0.975132, 161, 17, 192, 144
-0.97519, 285, 145, 316, 272
-0.97523, 185, 1, 248, 128
-0.975329, 241, 1, 304, 376
-0.975366, 209, 169, 336, 232
-0.975369, 433, 265, 496, 328
-0.975403, 137, 97, 200, 352
-0.975465, 365, 201, 396, 264
-0.975497, 129, 201, 256, 264
-0.975617, 169, 1, 232, 376
-0.975661, 305, 153, 336, 216
-0.975689, 189, 241, 220, 368
-0.975745, 121, 1, 184, 256
-0.975765, 433, 177, 496, 240
-0.975781, 97, 241, 224, 304
-0.975783, 225, 241, 352, 304
-0.97582, 249, 169, 312, 232
-0.975913, 221, 265, 252, 328
-0.975915, 369, 153, 400, 216
-0.97599, 317, 153, 348, 216
-0.97601, 201, 233, 232, 296
-0.976124, 369, 161, 400, 288
-0.976144, 345, 265, 376, 328
-0.976174, 305, 153, 432, 216
-0.976272, 145, 33, 208, 96
-0.976287, 345, 241, 376, 368
-0.976329, 369, 1, 432, 128
-0.976336, 169, 193, 200, 320
-0.976355, 281, 1, 344, 376
-0.976374, 265, 161, 296, 288
-0.976389, 333, 241, 364, 304
-0.976407, 1, 257, 32, 320
-0.976519, 465, 241, 496, 368
-0.976522, 433, 49, 496, 112
-0.976653, 329, 289, 392, 352
-0.976706, 209, 89, 336, 152
-0.976761, 257, 1, 320, 64
-0.976771, 345, 121, 376, 184
-0.976801, 145, 273, 272, 336
-0.976812, 181, 201, 212, 264
-0.976823, 149, 81, 180, 208
-0.976893, 153, 129, 216, 192
-0.976922, 329, 1, 392, 64
-0.976948, 217, 241, 248, 304
-0.976982, 305, 1, 368, 376
-0.977041, 357, 241, 388, 304
-0.977134, 73, 257, 136, 376
-0.977137, 97, 169, 224, 232
-0.977297, 153, 121, 184, 184
-0.977314, 321, 273, 448, 336
-0.977425, 105, 241, 168, 304
-0.977515, 257, 265, 288, 328
-0.977682, 205, 177, 236, 240
-0.977753, 81, 73, 208, 136
-0.977815, 345, 209, 376, 272
-0.977816, 325, 121, 356, 184
-0.977879, 229, 145, 260, 272
-0.977937, 233, 241, 264, 368
-0.977944, 257, 217, 384, 280
-0.977957, 281, 1, 344, 64
-0.97804, 425, 105, 488, 168
-0.978068, 189, 233, 220, 296
-0.978127, 249, 225, 280, 288
-0.978137, 281, 33, 312, 160
-0.978141, 97, 121, 224, 184
-0.978186, 173, 73, 204, 136
-0.978266, 17, 257, 48, 320
-0.978298, 273, 113, 304, 176
-0.978338, 453, 1, 484, 64
-0.978345, 305, 97, 432, 160
-0.978432, 329, 1, 392, 376
-0.978581, 353, 233, 480, 296
-0.978665, 121, 161, 184, 224
-0.978729, 169, 265, 232, 328
-0.978757, 33, 225, 96, 352
-0.978771, 193, 49, 256, 112
-0.978771, 297, 121, 328, 184
-0.978791, 245, 201, 276, 264
-0.978835, 369, 273, 496, 336
-0.978881, 225, 81, 288, 208
-0.978936, 253, 145, 284, 272
-0.978971, 149, 97, 180, 160
-0.979021, 433, 25, 496, 88
-0.979021, 353, 145, 480, 208
-0.979024, 349, 1, 380, 128
-0.979125, 321, 65, 384, 128
-0.979146, 257, 33, 320, 288
-0.97916, 297, 25, 360, 88
-0.979182, 425, 153, 488, 216
-0.9792, 345, 89, 408, 152
-0.979296, 169, 177, 200, 240
-0.979608, 369, 209, 400, 336
-0.979621, 273, 25, 336, 88
-0.979648, 213, 145, 244, 272
-0.979663, 173, 81, 204, 208
-0.979704, 105, 65, 168, 192
-0.979747, 273, 121, 400, 184
-0.979754, 469, 113, 500, 240
-0.979762, 277, 281, 308, 344
-0.97984, 145, 1, 208, 376
-0.97987, 469, 137, 500, 200
-0.979933, 349, 185, 380, 248
-0.979949, 469, 257, 500, 320
-0.980047, 1, 257, 128, 320
-0.980053, 337, 145, 368, 208
-0.980066, 305, 209, 432, 272
-0.980277, 201, 241, 232, 368
-0.980282, 321, 33, 384, 96
-0.980294, 149, 225, 180, 352
-0.980315, 225, 97, 288, 160
-0.980409, 1, 233, 128, 296
-0.980428, 181, 177, 212, 240
-0.980466, 49, 217, 176, 280
-0.98047, 241, 273, 272, 336
-0.980541, 453, 177, 484, 304
-0.98058, 113, 97, 144, 224
-0.980677, 49, 241, 176, 304
-0.980729, 309, 281, 340, 344
-0.980761, 105, 97, 168, 160
-0.9808, 377, 129, 440, 376
-0.980838, 225, 1, 288, 64
-0.980848, 57, 97, 120, 160
-0.980863, 169, 201, 200, 264
-0.980908, 209, 289, 336, 352
-0.98099, 401, 145, 464, 272
-0.981012, 209, 289, 272, 352
-0.981024, 9, 233, 72, 296
-0.981029, 73, 49, 136, 176
-0.981037, 401, 41, 464, 104
-0.981039, 265, 49, 328, 112
-0.981086, 353, 1, 480, 64
-0.981089, 145, 265, 208, 328
-0.981099, 185, 49, 216, 176
-0.981225, 369, 257, 432, 376
-0.981296, 433, 129, 496, 376
-0.98143, 357, 129, 388, 192
-0.981565, 129, 113, 160, 240
-0.981592, 285, 113, 316, 176
-0.981603, 81, 145, 208, 208
-0.981649, 401, 1, 464, 64
-0.981684, 377, 33, 440, 288
-0.981688, 289, 113, 352, 176
-0.981748, 25, 265, 88, 328
-0.981749, 337, 73, 464, 136
-0.981769, 353, 201, 480, 264
-0.981843, 353, 177, 480, 240
-0.98186, 469, 289, 500, 352
-0.98187, 165, 145, 196, 272
-0.982039, 253, 33, 284, 160
-0.982068, 161, 169, 288, 232
-0.982113, 233, 57, 296, 120
-0.982177, 377, 193, 440, 256
-0.982182, 149, 17, 180, 144
-0.982209, 97, 265, 160, 328
-0.982212, 297, 305, 360, 368
-0.98234, 353, 97, 480, 160
-0.982344, 377, 145, 440, 208
-0.982347, 269, 33, 300, 160
-0.982379, 337, 121, 464, 184
-0.982388, 273, 289, 400, 352
-0.98244, 201, 145, 232, 272
-0.982442, 141, 121, 172, 184
-0.982531, 273, 1, 400, 64
-0.982535, 177, 25, 240, 88
-0.982536, 253, 129, 284, 192
-0.982562, 261, 193, 292, 256
-0.98258, 241, 145, 272, 272
-0.98258, 273, 305, 336, 368
-0.982669, 113, 1, 176, 64
-0.982693, 221, 129, 252, 192
-0.982754, 213, 257, 244, 376
-0.982893, 193, 97, 256, 224
-0.982934, 121, 313, 184, 376
-0.982935, 201, 49, 232, 176
-0.982941, 1, 281, 64, 344
-0.982941, 97, 81, 128, 208
-0.982944, 33, 241, 96, 304
-0.982994, 113, 97, 176, 352
-0.983056, 149, 161, 180, 288
-0.983192, 409, 257, 472, 376
-0.983301, 185, 145, 216, 272
-0.983306, 401, 97, 464, 224
-0.983345, 105, 193, 168, 256
-0.983361, 433, 1, 464, 64
-0.983415, 353, 25, 480, 88
-0.983432, 409, 33, 472, 288
-0.983454, 161, 1, 288, 64
-0.983498, 465, 193, 496, 320
-0.983586, 453, 201, 484, 264
-0.983614, 249, 145, 312, 208
-0.983615, 81, 265, 208, 328
-0.98366, 333, 217, 364, 280
-0.983682, 129, 65, 192, 128
-0.983725, 357, 81, 388, 208
-0.983761, 361, 1, 392, 128
-0.983791, 201, 1, 264, 64
-0.983793, 81, 209, 144, 336
-0.983839, 109, 97, 140, 160
-0.983866, 153, 145, 184, 208
-0.983878, 33, 49, 160, 176
-0.983951, 65, 65, 128, 320
-0.984084, 369, 241, 432, 304
-0.984098, 465, 313, 496, 376
-0.984101, 345, 25, 408, 88
-0.98412, 113, 25, 240, 88
-0.984126, 209, 41, 336, 104
-0.984166, 13, 257, 44, 376
-0.984217, 177, 81, 240, 144
-0.984229, 93, 97, 124, 160
-0.984259, 201, 265, 232, 328
-0.984301, 269, 153, 300, 216
-0.984325, 265, 113, 296, 240
-0.98435, 353, 1, 416, 376
-0.984397, 177, 305, 240, 368
-0.984401, 209, 1, 336, 64
-0.98453, 353, 1, 416, 64
-0.984573, 129, 289, 192, 352
-0.984637, 289, 57, 320, 120
-0.984658, 257, 25, 384, 88
-0.984751, 453, 241, 484, 368
-0.984768, 137, 241, 168, 368
-0.984798, 377, 169, 440, 232
-0.984836, 469, 113, 500, 176
-0.98485, 293, 153, 324, 216
-0.984917, 129, 121, 160, 184
-0.984924, 177, 225, 208, 288
-0.984928, 309, 121, 340, 184
-0.984941, 433, 129, 496, 192
-0.985044, 193, 169, 224, 232
-0.985101, 309, 57, 340, 120
-0.985108, 153, 297, 216, 360
-0.985168, 429, 1, 460, 128
-0.985168, 253, 257, 284, 376
-0.985227, 449, 33, 480, 96
-0.985269, 469, 161, 500, 224
-0.985269, 201, 25, 264, 88
-0.985306, 181, 49, 212, 112
-0.985324, 177, 129, 240, 192
-0.985367, 257, 73, 320, 136
-0.985445, 453, 177, 484, 240
-0.985488, 369, 217, 432, 280
-0.985538, 1, 241, 32, 368
-0.985573, 385, 49, 448, 176
-0.985708, 409, 289, 472, 352
-0.985747, 121, 1, 184, 376
-0.985758, 273, 57, 400, 120
-0.985764, 305, 1, 336, 64
-0.985845, 377, 193, 408, 256
-0.985857, 33, 177, 160, 240
-0.985882, 33, 129, 160, 192
-0.985927, 161, 33, 288, 96
-0.98601, 329, 57, 360, 120
-0.986096, 365, 265, 396, 328
-0.986124, 377, 1, 440, 376
-0.986157, 213, 49, 244, 176
-0.986206, 97, 1, 160, 256
-0.986232, 81, 193, 208, 256
-0.98627, 1, 281, 32, 344
-0.986307, 377, 217, 408, 280
-0.986355, 465, 201, 496, 264
-0.986431, 133, 241, 164, 304
-0.986469, 157, 241, 188, 304
-0.986472, 261, 105, 292, 168
-0.986541, 373, 241, 404, 304
-0.986636, 17, 153, 144, 216
-0.98669, 165, 153, 196, 216
-0.986785, 305, 25, 432, 88
-0.986886, 49, 121, 112, 184
-0.986912, 9, 161, 72, 288
-0.986916, 465, 1, 496, 64
-0.986936, 121, 25, 184, 88
-0.98695, 417, 1, 480, 376
-0.986986, 161, 305, 288, 368
-0.986989, 129, 1, 160, 128
-0.98707, 357, 97, 388, 160
-0.987149, 441, 209, 472, 272
-0.987242, 289, 289, 320, 352
-0.987315, 161, 241, 192, 368
-0.987375, 229, 33, 260, 160
-0.987386, 345, 49, 408, 112
-0.987393, 241, 145, 272, 208
-0.987411, 249, 25, 312, 88
-0.987466, 193, 185, 448, 248
-0.987507, 185, 273, 216, 336
-0.987546, 281, 269, 344, 300
-0.987548, 437, 25, 468, 88
-0.987552, 81, 305, 208, 368
-0.987711, 409, 129, 472, 376
-0.987769, 465, 233, 496, 296
-0.987796, 369, 297, 496, 360
-0.987833, 337, 49, 464, 112
-0.987872, 149, 265, 180, 328
-0.987888, 381, 177, 412, 304
-0.987954, 193, 197, 256, 228
-0.987956, 169, 33, 200, 96
-0.98796, 289, 1, 320, 64
-0.987965, 153, 25, 184, 88
-0.98797, 165, 129, 196, 192
-0.987992, 345, 1, 376, 64
-0.988043, 297, 233, 360, 264
-0.988076, 149, 73, 180, 136
-0.988158, 393, 193, 456, 320
-0.988162, 257, 225, 320, 256
-0.988183, 297, 249, 360, 280
-0.988247, 193, 49, 224, 112
-0.988344, 193, 97, 448, 160
-0.98838, 229, 177, 260, 240
-0.988381, 265, 289, 296, 352
-0.988499, 337, 265, 400, 296
-0.988501, 241, 269, 304, 300
-0.988545, 265, 81, 296, 144
-0.988572, 281, 281, 344, 312
-0.988573, 281, 85, 344, 116
-0.988578, 333, 1, 364, 64
-0.988608, 193, 121, 448, 184
-0.988621, 177, 241, 208, 368
-0.988637, 97, 129, 352, 192
-0.988673, 217, 209, 280, 240
-0.988696, 97, 81, 352, 144
-0.98871, 253, 97, 284, 224
-0.988735, 385, 1, 416, 128
-0.988742, 185, 221, 248, 252
-0.988783, 449, 241, 480, 304
-0.988818, 65, 1, 192, 64
-0.988843, 273, 181, 336, 212
-0.988845, 441, 209, 472, 336
-0.988885, 185, 209, 248, 240
-0.988937, 185, 1, 216, 128
-0.989028, 377, 113, 440, 240
-0.989032, 321, 85, 384, 116
-0.989093, 129, 125, 192, 156
-0.989098, 321, 97, 384, 128
-0.989104, 381, 225, 412, 352
-0.98912, 209, 65, 336, 128
-0.989138, 241, 281, 304, 312
-0.989142, 1, 193, 256, 256
-0.989164, 345, 165, 408, 196
-0.989167, 273, 257, 336, 288
-0.98917, 217, 225, 280, 256
-0.989187, 313, 265, 376, 296
-0.98922, 129, 145, 256, 208
-0.989313, 65, 1, 128, 376
-0.98933, 273, 237, 336, 268
-0.98933, 193, 225, 448, 288
-0.989382, 429, 81, 460, 208
-0.989383, 321, 149, 384, 180
-0.98947, 321, 313, 448, 376
-0.9895, 345, 217, 408, 248
-0.989509, 1, 281, 128, 344
-0.989544, 265, 13, 328, 44
-0.989552, 321, 225, 384, 256
-0.989568, 241, 33, 272, 160
-0.989583, 257, 213, 320, 244
-0.989587, 369, 257, 400, 376
-0.989612, 241, 13, 304, 44
-0.989627, 313, 173, 376, 204
-0.989628, 313, 185, 376, 216
-0.989719, 201, 273, 264, 304
-0.98973, 281, 97, 344, 128
-0.989737, 257, 153, 500, 216
-0.989745, 97, 153, 352, 216
-0.98977, 81, 49, 208, 112
-0.989776, 321, 281, 384, 312
-0.989783, 289, 221, 352, 252
-0.989803, 321, 109, 384, 140
-0.989839, 117, 1, 148, 128
-0.989847, 153, 81, 216, 112
-0.989877, 289, 13, 352, 44
-0.989882, 97, 201, 352, 264
-0.989882, 1, 201, 128, 264
-0.989895, 305, 1, 368, 32
-0.989901, 281, 293, 344, 324
-0.989915, 321, 121, 384, 152
-0.989951, 281, 1, 344, 32
-0.990004, 265, 157, 328, 188
-0.990074, 321, 249, 384, 280
-0.990104, 465, 65, 496, 192
-0.990105, 9, 129, 72, 376
-0.990107, 201, 237, 264, 268
-0.990119, 345, 1, 408, 32
-0.990123, 161, 209, 224, 240
-0.990127, 273, 33, 336, 64
-0.990128, 257, 265, 500, 328
-0.990129, 453, 129, 484, 256
-0.990165, 265, 137, 328, 168
-0.990168, 169, 193, 232, 224
-0.990174, 345, 205, 408, 236
-0.990183, 321, 137, 384, 168
-0.990207, 129, 113, 192, 144
-0.990216, 145, 185, 208, 216
-0.990256, 469, 1, 500, 128
-0.990283, 353, 249, 416, 280
-0.990285, 313, 13, 376, 44
-0.990344, 1, 169, 256, 232
-0.990369, 305, 25, 368, 56
-0.990384, 369, 1, 432, 32
-0.990392, 353, 153, 416, 184
-0.990395, 449, 1, 480, 128
-0.990395, 105, 129, 168, 160
-0.99041, 201, 261, 264, 292
-0.990428, 193, 185, 256, 216
-0.990442, 337, 185, 400, 216
-0.990449, 233, 293, 296, 324
-0.990458, 161, 221, 224, 252
-0.990478, 441, 49, 472, 176
-0.990485, 281, 117, 344, 148
-0.990499, 153, 237, 216, 268
-0.99051, 433, 1, 496, 32
-0.990515, 97, 105, 352, 168
-0.99052, 265, 169, 328, 200
-0.990525, 417, 33, 448, 160
-0.990525, 241, 141, 304, 172
-0.990555, 345, 229, 408, 260
-0.9906, 73, 101, 136, 132
-0.990618, 313, 161, 376, 192
-0.990635, 249, 237, 312, 268
-0.990639, 17, 81, 144, 144
-0.990643, 373, 1, 404, 128
-0.990653, 113, 1, 240, 64
-0.990664, 441, 161, 472, 288
-0.990664, 169, 21, 232, 52
-0.990673, 313, 213, 376, 244
-0.990697, 381, 129, 412, 256
-0.990708, 241, 193, 304, 224
-0.990722, 129, 173, 192, 204
-0.990737, 233, 181, 296, 212
-0.990737, 257, 293, 320, 324
-0.99074, 177, 273, 240, 304
-0.99075, 361, 269, 424, 300
-0.990774, 193, 13, 256, 44
-0.990779, 1, 105, 500, 168
-0.990784, 129, 137, 192, 168
-0.990797, 321, 237, 384, 268
-0.990797, 217, 13, 280, 44
-0.990805, 233, 153, 296, 184
-0.990827, 345, 137, 408, 168
-0.990836, 137, 1, 200, 32
-0.99084, 249, 33, 312, 64
-0.990872, 177, 233, 240, 264
-0.990883, 433, 209, 496, 240
-0.990919, 217, 197, 280, 228
-0.990926, 257, 1, 320, 32
-0.990934, 129, 77, 192, 108
-0.990936, 369, 113, 400, 240
-0.99099, 249, 97, 312, 128
-0.990996, 89, 117, 152, 148
-0.991002, 97, 177, 352, 240
-0.991012, 241, 125, 304, 156
-0.991026, 433, 285, 496, 316
-0.991027, 49, 49, 112, 176
-0.991062, 1, 257, 64, 288
-0.99112, 1, 281, 64, 312
-0.991133, 433, 297, 496, 328
-0.99115, 225, 237, 288, 268
-0.991164, 249, 85, 312, 116
-0.991164, 85, 81, 116, 208
-0.991165, 393, 1, 456, 32
-0.991187, 169, 181, 232, 212
-0.991188, 249, 257, 312, 288
-0.991194, 337, 13, 400, 44
-0.991226, 25, 257, 56, 376
-0.99124, 249, 109, 312, 140
-0.991265, 105, 229, 168, 260
-0.991273, 129, 245, 192, 276
-0.991278, 105, 249, 168, 280
-0.991294, 169, 117, 232, 148
-0.991294, 409, 41, 472, 72
-0.991316, 1, 113, 256, 176
-0.991324, 97, 273, 352, 336
-0.99133, 417, 245, 480, 276
-0.991341, 145, 13, 208, 44
-0.991365, 257, 33, 500, 96
-0.991387, 329, 25, 392, 56
-0.99142, 353, 125, 416, 156
-0.991421, 345, 89, 408, 120
-0.991431, 289, 193, 352, 224
-0.991433, 65, 241, 320, 304
-0.991448, 129, 193, 160, 320
-0.991452, 161, 161, 224, 192
-0.99146, 433, 57, 496, 88
-0.991466, 129, 161, 192, 192
-0.991468, 433, 77, 496, 108
-0.991488, 233, 1, 296, 32
-0.991491, 121, 101, 184, 132
-0.991506, 145, 197, 208, 228
-0.991516, 241, 313, 368, 376
-0.991521, 113, 1, 176, 32
-0.991528, 425, 97, 488, 128
-0.991538, 161, 257, 224, 288
-0.991556, 361, 21, 424, 52
-0.991592, 1, 129, 500, 192
-0.991604, 89, 97, 152, 352
-0.99165, 397, 1, 428, 128
-0.991702, 105, 257, 136, 376
-0.991807, 137, 65, 168, 192
-0.991871, 197, 1, 228, 128
-0.99188, 257, 1, 500, 64
-0.991884, 37, 225, 68, 352
-0.992005, 317, 269, 348, 300
-0.992007, 193, 289, 448, 352
-0.992041, 281, 269, 312, 300
-0.992058, 329, 269, 360, 300
-0.992081, 345, 265, 376, 296
-0.992082, 301, 233, 332, 264
-0.992087, 161, 77, 192, 108
-0.992091, 297, 221, 328, 252
-0.992091, 221, 197, 252, 228
-0.99211, 205, 197, 236, 228
-0.992115, 161, 1, 416, 64
-0.992128, 337, 97, 368, 128
-0.992147, 161, 49, 416, 112
-0.992147, 125, 65, 156, 192
-0.992148, 301, 269, 332, 300
-0.992168, 257, 85, 384, 116
-0.992173, 317, 85, 348, 116
-0.992174, 297, 177, 328, 208
-0.992186, 69, 81, 100, 208
-0.992203, 317, 97, 348, 128
-0.992207, 1, 217, 256, 280
-0.992209, 293, 281, 324, 312
-0.992209, 337, 85, 368, 116
-0.992213, 301, 253, 332, 284
-0.992216, 277, 225, 308, 256
-0.992216, 1, 137, 256, 200
-0.992221, 277, 85, 308, 116
-0.992227, 365, 217, 396, 248
-0.992253, 281, 97, 312, 128
-0.992276, 189, 209, 220, 240
-0.992292, 241, 205, 272, 236
-0.992313, 321, 225, 352, 256
-0.992313, 197, 221, 228, 252
-0.992344, 289, 81, 320, 112
-0.99238, 365, 165, 396, 196
-0.992382, 265, 221, 296, 252
-0.992392, 301, 97, 332, 128
-0.992412, 349, 89, 380, 120
-0.992415, 345, 229, 376, 260
-0.992417, 193, 197, 224, 228
-0.992427, 325, 281, 356, 312
-0.992445, 277, 13, 308, 44
-0.992445, 357, 145, 388, 176
-0.992449, 325, 109, 356, 140
-0.992464, 173, 81, 204, 112
-0.992475, 213, 185, 244, 216
-0.992475, 201, 233, 232, 264
-0.992478, 277, 181, 308, 212
-0.992482, 313, 281, 344, 312
-0.992484, 301, 13, 332, 44
-0.992486, 317, 125, 348, 156
-0.992486, 211, 193, 226, 256
-0.992489, 301, 85, 332, 116
-0.992496, 337, 109, 368, 140
-0.992497, 217, 221, 248, 252
-0.992512, 273, 125, 304, 156
-0.992513, 249, 217, 280, 248
-0.992516, 353, 249, 384, 280
-0.992516, 317, 137, 348, 168
-0.992524, 161, 89, 192, 120
-0.99253, 309, 181, 340, 212
-0.992534, 1, 193, 500, 256
-0.992535, 225, 209, 256, 240
-0.992543, 289, 137, 320, 168
-0.992553, 305, 145, 336, 176
-0.99256, 141, 129, 172, 160
-0.992561, 289, 125, 320, 156
-0.992567, 65, 25, 192, 88
-0.992574, 313, 257, 344, 288
-0.992576, 305, 125, 336, 156
-0.992579, 153, 133, 184, 164
-0.992585, 293, 33, 324, 64
-0.992601, 265, 13, 296, 44
-0.992601, 289, 13, 320, 44
-0.992601, 293, 1, 324, 32
-0.992602, 145, 249, 176, 280
-0.992603, 257, 73, 500, 136
-0.992607, 365, 269, 396, 300
-0.992611, 469, 293, 500, 324
-0.992612, 309, 109, 340, 140
-0.992616, 205, 209, 236, 240
-0.992621, 257, 97, 384, 128
-0.992623, 121, 125, 152, 156
-0.992623, 337, 137, 368, 168
-0.992625, 337, 125, 368, 156
-0.992632, 277, 281, 308, 312
-0.99264, 289, 109, 320, 140
-0.99264, 357, 237, 388, 268
-0.99264, 313, 13, 344, 44
-0.992642, 153, 121, 184, 152
-0.992643, 273, 137, 304, 168
-0.992643, 345, 157, 376, 188
-0.992649, 309, 25, 340, 56
-0.992652, 285, 213, 316, 244
-0.992655, 237, 221, 268, 252
-0.992655, 309, 1, 340, 32
-0.992657, 353, 177, 384, 208
-0.992661, 273, 113, 304, 144
-0.992662, 309, 221, 340, 252
-0.992672, 229, 273, 260, 304
-0.992675, 341, 213, 372, 244
-0.992675, 337, 185, 368, 216
-0.992678, 349, 101, 380, 132
-0.992681, 177, 185, 208, 216
-0.992689, 281, 33, 312, 64
-0.99269, 369, 1, 400, 32
-0.992691, 317, 169, 348, 200
-0.992691, 285, 257, 300, 320
-0.992708, 253, 13, 284, 44
-0.99271, 273, 265, 400, 296
-0.992715, 337, 253, 368, 284
-0.992729, 321, 1, 352, 32
-0.99273, 249, 229, 280, 260
-0.992739, 353, 1, 384, 32
-0.99274, 357, 205, 388, 236
-0.992742, 277, 165, 308, 196
-0.992743, 313, 293, 344, 324
-0.992747, 297, 165, 328, 196
-0.992762, 265, 209, 296, 240
-0.992763, 373, 249, 404, 280
-0.992765, 321, 237, 352, 268
-0.992766, 41, 97, 104, 352
-0.99277, 161, 105, 192, 136
-0.992771, 333, 1, 364, 32
-0.992771, 257, 269, 288, 300
-0.992781, 217, 237, 248, 268
-0.992787, 1, 285, 32, 316
-0.992789, 325, 13, 356, 44
-0.99279, 381, 1, 412, 32
-0.992798, 125, 257, 156, 376
-0.992805, 325, 149, 356, 180
-0.99281, 273, 1, 304, 32
-0.992812, 13, 257, 44, 288
-0.992837, 201, 257, 232, 288
-0.992846, 373, 201, 404, 232
-0.992852, 289, 233, 320, 264
-0.992856, 217, 13, 248, 44
-0.992857, 229, 13, 260, 44
-0.992866, 269, 97, 300, 128
-0.992869, 185, 221, 216, 252
-0.992869, 453, 185, 484, 216
-0.99287, 285, 293, 316, 324
-0.992872, 469, 145, 500, 176
-0.992874, 201, 269, 232, 300
-0.992874, 269, 33, 300, 64
-0.992875, 469, 113, 500, 144
-0.992876, 321, 25, 352, 56
-0.992877, 233, 193, 248, 256
-0.9929, 185, 97, 216, 224
-0.992924, 393, 145, 424, 272
-0.992947, 209, 225, 336, 256
-0.992978, 161, 249, 416, 312
-0.993012, 13, 209, 44, 336
-0.993018, 201, 201, 216, 264
-0.993073, 49, 145, 112, 272
-0.993268, 369, 65, 400, 192
-0.993329, 1, 217, 500, 280
-0.993353, 279, 81, 294, 144
-0.993355, 57, 209, 120, 336
-0.99336, 327, 257, 342, 320
-0.993372, 1, 89, 256, 152
-0.993393, 93, 241, 124, 368
-0.993415, 239, 193, 254, 256
-0.993415, 97, 1, 160, 376
-0.993457, 361, 97, 376, 160
-0.993466, 331, 81, 346, 144
-0.993493, 195, 193, 210, 256
-0.993497, 295, 217, 310, 280
-0.993512, 229, 81, 260, 208
-0.993518, 311, 81, 326, 144
-0.993527, 293, 81, 308, 144
-0.993527, 1, 169, 500, 232
-0.993529, 165, 73, 180, 136
-0.993588, 313, 241, 328, 304
-0.993605, 161, 205, 288, 236
-0.993617, 113, 209, 144, 336
-0.993625, 209, 185, 336, 216
-0.993625, 209, 1, 240, 128
-0.993661, 73, 145, 136, 272
-0.993664, 165, 97, 180, 160
-0.993671, 257, 153, 384, 184
-0.993687, 225, 285, 352, 316
-0.993692, 273, 277, 400, 308
-0.993705, 303, 81, 318, 144
-0.993705, 225, 201, 240, 264
-0.99373, 307, 225, 322, 288
-0.993772, 351, 81, 366, 144
-0.993796, 257, 173, 384, 204
-0.993804, 201, 97, 232, 224
-0.993859, 361, 225, 376, 288
-0.993866, 303, 193, 318, 256
-0.993867, 323, 225, 338, 288
-0.993899, 337, 65, 368, 320
-0.993917, 273, 225, 400, 256
-0.993921, 11, 257, 26, 320
-0.993944, 33, 313, 160, 376
-0.993945, 1, 289, 500, 352
-0.993968, 225, 269, 352, 300
-0.993975, 341, 81, 356, 144
-0.994027, 321, 81, 336, 144
-0.994047, 113, 145, 144, 272
-0.994051, 1, 1, 500, 64
-0.994071, 287, 193, 302, 256
-0.994088, 285, 81, 300, 144
-0.994101, 197, 233, 212, 296
-0.99413, 297, 257, 312, 320
-0.994146, 273, 249, 288, 312
-0.994162, 289, 1, 416, 32
-0.994177, 257, 109, 384, 140
-0.994197, 161, 25, 416, 88
-0.994204, 1, 105, 128, 168
-0.99421, 129, 125, 256, 156
-0.994221, 343, 185, 358, 248
-0.994248, 217, 193, 232, 256
-0.994279, 225, 137, 352, 168
-0.994279, 273, 189, 400, 220
-0.994305, 53, 225, 84, 352
-0.994312, 273, 217, 288, 280
-0.994314, 277, 65, 308, 320
-0.994341, 223, 177, 238, 240
-0.994357, 325, 185, 340, 248
-0.994364, 161, 121, 176, 184
-0.994368, 237, 233, 252, 296
-0.994369, 361, 153, 376, 216
-0.994384, 355, 241, 370, 304
-0.994419, 225, 9, 352, 40
-0.994423, 9, 1, 72, 376
-0.994427, 279, 217, 294, 280
-0.994428, 333, 185, 348, 248
-0.994428, 353, 185, 368, 248
-0.994434, 189, 185, 204, 248
-0.994439, 279, 177, 294, 240
-0.994448, 1, 81, 500, 144
-0.994461, 317, 65, 348, 320
-0.994466, 193, 237, 320, 268
-0.99447, 145, 273, 272, 304
-0.994498, 161, 137, 288, 168
-0.994501, 441, 257, 472, 376
-0.994508, 347, 241, 362, 304
-0.994512, 293, 177, 308, 240
-0.994517, 241, 125, 368, 156
-0.994535, 161, 153, 288, 184
-0.994557, 97, 189, 224, 220
-0.994568, 321, 257, 336, 320
-0.994576, 313, 217, 328, 280
-0.994589, 1, 25, 500, 88
-0.994609, 361, 121, 376, 184
-0.994644, 289, 225, 304, 288
-0.994647, 277, 113, 292, 176
-0.994652, 305, 21, 432, 52
-0.994673, 49, 101, 176, 132
-0.994686, 289, 65, 320, 320
-0.994689, 369, 1, 496, 32
-0.994689, 353, 261, 480, 292
-0.99469, 53, 129, 84, 256
-0.994693, 49, 117, 176, 148
-0.994697, 409, 49, 472, 176
-0.994722, 149, 241, 164, 304
-0.994731, 171, 89, 186, 152
-0.994732, 347, 265, 362, 328
-0.994733, 237, 265, 252, 328
-0.99474, 321, 273, 448, 304
-0.994749, 307, 273, 322, 336
-0.994759, 209, 213, 336, 244
-0.994768, 113, 109, 240, 140
-0.994773, 217, 233, 232, 296
-0.994774, 273, 249, 400, 280
-0.994777, 321, 153, 336, 216
-0.994781, 339, 241, 354, 304
-0.994803, 161, 29, 288, 60
-0.994843, 145, 13, 272, 44
-0.994852, 161, 81, 288, 112
-0.994859, 161, 225, 288, 256
-0.994871, 157, 241, 172, 304
-0.99488, 301, 65, 332, 320
-0.994882, 207, 217, 222, 280
-0.99493, 273, 237, 400, 268
-0.994937, 175, 169, 190, 232
-0.994944, 33, 17, 288, 80
-0.994957, 65, 57, 320, 120
-0.994974, 1, 265, 256, 328
-0.994986, 97, 245, 224, 276
-0.995007, 313, 193, 328, 256
-0.995019, 245, 201, 260, 264
-0.995044, 257, 217, 272, 280
-0.995069, 273, 273, 288, 336
-0.99508, 113, 1, 240, 32
-0.995089, 273, 193, 288, 256
-0.995096, 335, 217, 350, 280
-0.995105, 257, 25, 384, 56
-0.995107, 243, 233, 258, 296
-0.995111, 303, 153, 318, 216
-0.995121, 165, 145, 180, 208
-0.995127, 379, 153, 394, 216
-0.995139, 177, 173, 304, 204
-0.995155, 189, 65, 220, 320
-0.995169, 339, 161, 354, 224
-0.99519, 279, 257, 294, 320
-0.995195, 369, 153, 496, 184
-0.995197, 283, 153, 298, 216
-0.995202, 161, 93, 288, 124
-0.995208, 305, 145, 432, 176
-0.99521, 263, 209, 278, 272
-0.995212, 331, 281, 346, 344
-0.995221, 275, 137, 290, 200
-0.995238, 97, 97, 224, 128
-0.995243, 373, 209, 388, 272
-0.995271, 365, 249, 380, 312
-0.995273, 305, 89, 432, 120
-0.995278, 359, 177, 374, 240
-0.995282, 337, 273, 352, 336
-0.995288, 231, 233, 246, 296
-0.995311, 81, 133, 208, 164
-0.995344, 355, 217, 370, 280
-0.995364, 171, 65, 186, 128
-0.995382, 209, 97, 336, 128
-0.995391, 97, 297, 352, 360
-0.995399, 349, 97, 380, 352
-0.995408, 305, 177, 432, 208
-0.995416, 5, 257, 20, 320
-0.99544, 301, 9, 316, 72
-0.99545, 315, 265, 330, 328
-0.995463, 369, 197, 496, 228
-0.995476, 225, 257, 352, 288
-0.995479, 161, 105, 288, 136
-0.995487, 315, 153, 330, 216
-0.995494, 481, 289, 496, 352
-0.995497, 319, 177, 334, 240
-0.995516, 183, 177, 198, 240
-0.99554, 159, 97, 174, 160
-0.995555, 301, 233, 316, 296
-0.995562, 223, 233, 238, 296
-0.995572, 189, 209, 204, 272
-0.995579, 113, 257, 240, 288
-0.995582, 447, 1, 462, 64
-0.995592, 329, 217, 344, 280
-0.995592, 467, 1, 482, 64
-0.995598, 367, 161, 382, 224
-0.995602, 353, 21, 480, 52
-0.995609, 457, 1, 472, 64
-0.99561, 209, 33, 336, 64
-0.995613, 203, 241, 218, 304
-0.995613, 21, 257, 36, 320
-0.995625, 97, 201, 224, 232
-0.995628, 469, 129, 500, 376
-0.995628, 249, 233, 264, 296
-0.995644, 327, 153, 342, 216
-0.995646, 193, 125, 320, 156
-0.995652, 267, 273, 282, 336
-0.995659, 305, 133, 432, 164
-0.99567, 453, 25, 468, 88
-0.995679, 65, 261, 192, 292
-0.995689, 267, 233, 282, 296
-0.99569, 367, 129, 382, 192
-0.995696, 369, 185, 384, 248
-0.995697, 357, 73, 372, 136
-0.995697, 367, 217, 382, 280
-0.995699, 213, 97, 244, 224
-0.99571, 273, 289, 400, 320
-0.995729, 209, 21, 336, 52
-0.99574, 325, 281, 340, 344
-0.995747, 97, 221, 224, 252
-0.995761, 353, 213, 480, 244
-0.995765, 289, 213, 416, 244
-0.995772, 167, 121, 182, 184
-0.995776, 151, 121, 166, 184
-0.995777, 209, 153, 336, 184
-0.995793, 9, 113, 72, 240
-0.9958, 161, 189, 288, 220
-0.995803, 485, 113, 500, 176
-0.995808, 305, 101, 432, 132
-0.995811, 81, 85, 208, 116
-0.995819, 177, 65, 208, 320
-0.995821, 387, 225, 402, 288
-0.995836, 49, 241, 176, 272
-0.995848, 309, 1, 324, 64
-0.995855, 97, 177, 224, 208
-0.995875, 283, 57, 298, 120
-0.995883, 249, 137, 264, 200
-0.995884, 183, 201, 198, 264
-0.99589, 289, 281, 304, 344
-0.995891, 251, 201, 266, 264
-0.995908, 115, 97, 130, 160
-0.995925, 171, 145, 186, 208
-0.995928, 217, 169, 232, 232
-0.995937, 201, 177, 216, 240
-0.995941, 201, 65, 232, 320
-0.995947, 373, 153, 388, 216
-0.995949, 381, 185, 396, 248
-0.995964, 217, 65, 248, 320
-0.995973, 209, 85, 336, 116
-0.995991, 1, 49, 500, 112
-0.995991, 81, 241, 112, 368
-0.996016, 1, 277, 128, 308
-0.996021, 421, 129, 452, 256
-0.996022, 453, 1, 484, 256
-0.996027, 161, 65, 192, 320
-0.996052, 81, 145, 208, 176
-0.996064, 209, 113, 336, 144
-0.996066, 305, 161, 432, 192
-0.996068, 429, 241, 460, 368
-0.996085, 33, 1, 160, 128
-0.996092, 353, 105, 480, 136
-0.996117, 1, 249, 128, 280
-0.996142, 49, 229, 176, 260
-0.996206, 305, 121, 432, 152
-0.996248, 1, 265, 500, 328
-0.996258, 261, 65, 292, 320
-0.996262, 81, 157, 208, 188
-0.996271, 177, 261, 304, 292
-0.996275, 149, 65, 180, 320
-0.996284, 321, 285, 448, 316
-0.996309, 145, 237, 272, 268
-0.996316, 353, 141, 480, 172
-0.996386, 369, 281, 496, 312
-0.996386, 225, 297, 352, 328
-0.996428, 465, 1, 496, 256
-0.996434, 225, 197, 352, 228
-0.99644, 257, 37, 384, 68
-0.996442, 81, 73, 208, 104
-0.996454, 353, 229, 480, 260
-0.99646, 369, 185, 496, 216
-0.996474, 353, 41, 480, 72
-0.996478, 1, 289, 256, 352
-0.996528, 165, 77, 180, 108
-0.996552, 369, 293, 496, 324
-0.996592, 1, 241, 500, 304
-0.996619, 361, 97, 392, 352
-0.996627, 229, 129, 260, 376
-0.99663, 369, 165, 496, 196
-0.996659, 81, 21, 208, 52
-0.996693, 33, 133, 160, 164
-0.996737, 97, 233, 224, 264
-0.996742, 273, 301, 400, 332
-0.996747, 353, 89, 480, 120
-0.996801, 267, 217, 282, 248
-0.996805, 353, 249, 480, 280
-0.996817, 279, 89, 294, 120
-0.996827, 207, 197, 222, 228
-0.996836, 329, 269, 344, 300
-0.996836, 353, 125, 480, 156
-0.996845, 171, 77, 186, 108
-0.996846, 33, 189, 160, 220
-0.996849, 33, 205, 160, 236
-0.996862, 369, 309, 496, 340
-0.996875, 361, 89, 376, 120
-0.996876, 225, 189, 240, 220
-0.99688, 313, 177, 328, 208
-0.996895, 273, 201, 400, 232
-0.996903, 307, 233, 322, 264
-0.996909, 177, 1, 304, 32
-0.996922, 233, 197, 248, 228
-0.996922, 321, 189, 448, 220
-0.996927, 1, 261, 128, 292
-0.99693, 161, 69, 288, 100
-0.996948, 165, 97, 180, 128
-0.996948, 165, 113, 180, 144
-0.996963, 337, 77, 464, 108
-0.99698, 285, 269, 300, 300
-0.996991, 257, 313, 500, 376
-0.997008, 297, 265, 312, 296
-0.997018, 33, 177, 160, 208
-0.997034, 17, 217, 144, 248
-0.997081, 321, 85, 336, 116
-0.997104, 341, 85, 356, 116
-0.997129, 361, 105, 376, 136
-0.997147, 305, 37, 432, 68
-0.997162, 33, 145, 160, 176
-0.997171, 177, 285, 304, 316
-0.997176, 315, 269, 330, 300
-0.997211, 245, 65, 276, 320
-0.997225, 305, 221, 320, 252
-0.997228, 285, 85, 300, 116
-0.997236, 297, 217, 312, 248
-0.997242, 261, 217, 276, 248
-0.997245, 33, 161, 160, 192
-0.997251, 361, 245, 376, 276
-0.997269, 277, 177, 292, 208
-0.997275, 359, 145, 374, 176
-0.997279, 331, 85, 346, 116
-0.997283, 177, 305, 304, 336
-0.997294, 287, 225, 302, 256
-0.997297, 353, 81, 368, 112
-0.997302, 347, 269, 362, 300
-0.997308, 359, 165, 374, 196
-0.997312, 161, 53, 288, 84
-0.997322, 273, 221, 288, 252
-0.997322, 289, 13, 304, 44
-0.997333, 361, 125, 376, 156
-0.997333, 321, 269, 336, 300
-0.997339, 193, 205, 208, 236
-0.997356, 305, 269, 320, 300
-0.997359, 351, 93, 366, 124
-0.99736, 199, 205, 214, 236
-0.997365, 273, 277, 288, 308
-0.997382, 303, 85, 318, 116
-0.997388, 331, 97, 346, 128
-0.997395, 217, 201, 232, 232
-0.997406, 315, 225, 330, 256
-0.997407, 247, 141, 262, 172
-0.997411, 227, 225, 242, 256
-0.997422, 333, 221, 348, 252
-0.997427, 313, 249, 328, 280
-0.99743, 1, 313, 500, 376
-0.997431, 305, 13, 320, 44
-0.997431, 301, 173, 316, 204
-0.997442, 355, 253, 370, 284
-0.997449, 333, 281, 348, 312
-0.997452, 363, 205, 378, 236
-0.997454, 313, 237, 328, 268
-0.997458, 313, 13, 328, 44
-0.997459, 279, 225, 294, 256
-0.99746, 257, 73, 384, 104
-0.99746, 1, 233, 128, 264
-0.99746, 307, 181, 322, 212
-0.997474, 221, 217, 236, 248
-0.997476, 171, 89, 186, 120
-0.99748, 239, 197, 254, 228
-0.99748, 339, 269, 354, 300
-0.997482, 357, 1, 388, 256
-0.997493, 293, 85, 308, 116
-0.997495, 307, 33, 322, 64
-0.997496, 297, 237, 312, 268
-0.997499, 281, 13, 296, 44
-0.9975, 347, 81, 362, 112
-0.997518, 299, 33, 314, 64
-0.997524, 277, 101, 292, 132
-0.997526, 219, 185, 234, 216
-0.997526, 159, 121, 174, 152
-0.997527, 293, 97, 308, 128
-0.99753, 437, 33, 468, 288
-0.997532, 229, 33, 260, 288
-0.997546, 283, 213, 298, 244
-0.997548, 163, 133, 178, 164
-0.997552, 177, 77, 192, 108
-0.997567, 291, 185, 306, 216
-0.997568, 365, 265, 380, 296
-0.997569, 201, 221, 216, 252
-0.997572, 41, 1, 104, 376
-0.997573, 211, 217, 226, 248
-0.997575, 377, 157, 392, 188
-0.997579, 255, 221, 270, 252
-0.99758, 81, 33, 208, 64
-0.997581, 311, 85, 326, 116
-0.997584, 321, 233, 336, 264
-0.997585, 273, 13, 288, 44
-0.997585, 293, 33, 308, 64
-0.99759, 305, 1, 320, 32
-0.997595, 233, 265, 248, 296
-0.997598, 267, 229, 282, 260
-0.997602, 311, 97, 326, 128
-0.997604, 161, 41, 288, 72
-0.997606, 233, 221, 248, 252
-0.997609, 321, 145, 336, 176
-0.997612, 1, 289, 128, 320
-0.997612, 235, 209, 250, 240
-0.997617, 365, 153, 380, 184
-0.997621, 65, 1, 192, 32
-0.997621, 313, 33, 328, 64
-0.997622, 319, 13, 334, 44
-0.99763, 367, 165, 382, 196
-0.997637, 313, 1, 328, 32
-0.997644, 321, 257, 336, 288
-0.997646, 297, 277, 312, 308
-0.997647, 267, 13, 282, 44
-0.997648, 223, 201, 238, 232
-0.997649, 81, 325, 208, 356
-0.997658, 449, 129, 480, 376
-0.997666, 195, 189, 210, 220
-0.997668, 361, 233, 376, 264
-0.99767, 177, 249, 304, 280
-0.997671, 221, 229, 236, 260
-0.997677, 295, 13, 310, 44
-0.997678, 339, 185, 354, 216
-0.997679, 135, 125, 150, 156
-0.997683, 369, 53, 496, 84
-0.997685, 357, 185, 372, 216
-0.99769, 365, 217, 380, 248
-0.997693, 297, 185, 312, 216
-0.997693, 305, 281, 320, 312
-0.9977, 167, 173, 182, 204
-0.997701, 223, 269, 238, 300
-0.997702, 11, 281, 26, 312
-0.997708, 327, 1, 342, 32
-0.997711, 375, 1, 390, 32
-0.997717, 333, 1, 348, 32
-0.99772, 327, 13, 342, 44
-0.99772, 383, 1, 398, 32
-0.997722, 129, 125, 144, 156
-0.997735, 321, 125, 336, 156
-0.997737, 245, 201, 260, 232
-0.997746, 277, 113, 292, 144
-0.997746, 129, 293, 256, 324
-0.997748, 319, 1, 334, 32
-0.997751, 211, 229, 226, 260
-0.997754, 209, 45, 336, 76
-0.997766, 257, 205, 272, 236
-0.997774, 319, 33, 334, 64
-0.997778, 325, 289, 340, 320
-0.997778, 373, 129, 404, 376
-0.997779, 285, 33, 300, 64
-0.99778, 387, 225, 402, 256
-0.997784, 261, 13, 276, 44
-0.997788, 373, 33, 404, 288
-0.997873, 33, 57, 160, 120
-0.998033, 121, 1, 152, 256
-0.998167, 389, 33, 420, 288
-0.9983, 89, 65, 120, 320
-0.998327, 325, 177, 340, 304
-0.99834, 241, 277, 304, 292
-0.998346, 281, 281, 344, 296
-0.998354, 281, 267, 344, 282
-0.998362, 351, 177, 366, 304
-0.998377, 113, 97, 144, 352
-0.998378, 273, 273, 336, 288
-0.998393, 425, 65, 456, 320
-0.998393, 273, 227, 336, 242
-0.998401, 17, 65, 80, 192
-0.998402, 257, 285, 320, 300
-0.998403, 297, 233, 360, 248
-0.998404, 297, 273, 360, 288
-0.998407, 337, 269, 400, 284
-0.998408, 185, 205, 248, 220
-0.998408, 273, 243, 336, 258
-0.99841, 233, 233, 296, 248
-0.998415, 221, 177, 236, 304
-0.998415, 273, 233, 336, 248
-0.998421, 273, 261, 336, 276
-0.998424, 193, 199, 256, 214
-0.998431, 273, 85, 336, 100
-0.998433, 313, 227, 376, 242
-0.998434, 313, 85, 376, 100
-0.998435, 297, 239, 360, 254
-0.998435, 209, 205, 272, 220
-0.998436, 265, 221, 328, 236
-0.998438, 217, 275, 280, 290
-0.998439, 241, 271, 304, 286
-0.99844, 297, 261, 360, 276
-0.998446, 297, 247, 360, 262
-0.998446, 281, 287, 344, 302
-0.998447, 281, 91, 344, 106
-0.99845, 321, 91, 384, 106
-0.998453, 185, 217, 248, 232
-0.998456, 313, 177, 328, 304
-0.998457, 129, 129, 192, 144
-0.998462, 273, 183, 336, 198
-0.998462, 321, 275, 384, 290
-0.998464, 331, 177, 346, 304
-0.998466, 129, 135, 192, 150
-0.998466, 289, 23, 352, 38
-0.998467, 321, 97, 384, 112
-0.998469, 273, 255, 336, 270
-0.998469, 249, 25, 312, 40
-0.998469, 313, 175, 376, 190
-0.99847, 313, 267, 376, 282
-0.99847, 313, 189, 376, 204
-0.998473, 321, 113, 384, 128
-0.998477, 137, 1, 168, 256
-0.998478, 185, 227, 248, 242
-0.998479, 325, 225, 340, 352
-0.998481, 321, 151, 384, 166
-0.998481, 345, 177, 360, 304
-0.998484, 209, 211, 272, 226
-0.998485, 315, 225, 330, 352
-0.998486, 321, 137, 384, 152
-0.998489, 165, 81, 180, 208
-0.998489, 217, 227, 280, 242
-0.998491, 177, 211, 240, 226
-0.998491, 345, 207, 408, 222
-0.998493, 345, 221, 408, 236
-0.998494, 273, 249, 336, 264
-0.998496, 297, 253, 360, 268
-0.998496, 321, 157, 384, 172
-0.998497, 241, 291, 304, 306
-0.998497, 273, 293, 336, 308
-0.998498, 233, 283, 296, 298
-0.998498, 357, 249, 388, 264
-0.998499, 201, 269, 264, 284
-0.998499, 225, 27, 288, 42
-0.998501, 345, 167, 408, 182
-0.998501, 201, 271, 232, 286
-0.998502, 301, 91, 332, 106
-0.998503, 349, 267, 380, 282
-0.998503, 265, 7, 328, 22
-0.998504, 357, 243, 388, 258
-0.998506, 321, 105, 384, 120
-0.998506, 305, 155, 336, 170
-0.998506, 321, 281, 384, 296
-0.998507, 317, 145, 348, 160
-0.998507, 321, 119, 384, 134
-0.998507, 225, 221, 288, 236
-0.998508, 273, 267, 304, 282
-0.998508, 209, 233, 272, 248
-0.998509, 317, 191, 348, 206
-0.998509, 241, 227, 304, 242
-0.998509, 233, 9, 296, 24
-0.99851, 245, 27, 276, 42
-0.998511, 277, 215, 308, 230
-0.998511, 261, 235, 292, 250
-0.998512, 201, 235, 232, 250
-0.998512, 321, 221, 384, 236
-0.998512, 293, 7, 324, 22
-0.998513, 365, 269, 396, 284
-0.998513, 289, 105, 320, 120
-0.998513, 233, 233, 264, 248
-0.998514, 105, 129, 168, 144
-0.998514, 325, 265, 356, 280
-0.998514, 241, 149, 304, 164
-0.998514, 281, 113, 344, 128
-0.998514, 345, 227, 376, 242
-0.998514, 301, 113, 332, 128
-0.998516, 349, 99, 380, 114
-0.998517, 273, 191, 336, 206
-0.998518, 345, 275, 376, 290
-0.998518, 277, 81, 292, 208
-0.99852, 321, 131, 384, 146
-0.998521, 297, 97, 328, 112
-0.998521, 469, 293, 500, 308
-0.998522, 281, 97, 344, 112
-0.998522, 249, 239, 312, 254
-0.998523, 153, 85, 216, 100
-0.998523, 305, 131, 336, 146
-0.998524, 273, 127, 304, 142
-0.998524, 293, 21, 324, 36
-0.998525, 281, 131, 344, 146
-0.998526, 201, 27, 264, 42
-0.998526, 153, 211, 216, 226
-0.998526, 321, 233, 384, 248
-0.998527, 193, 275, 256, 290
-0.998527, 197, 227, 228, 242
-0.998527, 337, 151, 368, 166
-0.998527, 161, 95, 192, 110
-0.998527, 153, 139, 184, 154
-0.998528, 337, 137, 368, 152
-0.998528, 281, 117, 312, 132
-0.998528, 265, 155, 328, 170
-0.998528, 321, 163, 384, 178
-0.998529, 321, 23, 384, 38
-0.99853, 321, 143, 384, 158
-0.99853, 345, 119, 376, 134
-0.99853, 357, 209, 388, 224
-0.99853, 261, 25, 292, 40
-0.99853, 289, 131, 320, 146
-0.99853, 233, 209, 296, 224
-0.998532, 293, 233, 324, 248
-0.998532, 337, 225, 352, 352
-0.998533, 409, 33, 440, 288
-0.998533, 325, 137, 356, 152
-0.998534, 345, 239, 376, 254
-0.998534, 189, 213, 220, 228
-0.998535, 209, 221, 240, 236
-0.998538, 129, 121, 192, 136
-0.998538, 169, 27, 232, 42
-0.998539, 289, 7, 352, 22
-0.998539, 185, 235, 248, 250
-0.998539, 265, 149, 328, 164
-0.998541, 345, 213, 408, 228
-0.998541, 153, 133, 184, 148
-0.998542, 305, 273, 336, 288
-0.998542, 197, 177, 212, 304
-0.998542, 353, 155, 416, 170
-0.998542, 297, 221, 328, 236
-0.998542, 273, 109, 304, 124
-0.998542, 357, 161, 388, 176
-0.998542, 257, 283, 288, 298
-0.998544, 153, 189, 216, 204
-0.998544, 193, 193, 256, 208
-0.998545, 105, 137, 168, 152
-0.998545, 349, 91, 380, 106
-0.998547, 265, 169, 328, 184
-0.998547, 333, 191, 364, 206
-0.998548, 41, 1, 104, 256
-0.998549, 265, 217, 296, 232
-0.998549, 329, 85, 360, 100
-0.998549, 161, 219, 224, 234
-0.998549, 297, 149, 328, 164
-0.998549, 9, 261, 72, 276
-0.998549, 345, 147, 408, 162
-0.99855, 301, 177, 316, 304
-0.99855, 281, 25, 312, 40
-0.99855, 289, 85, 320, 100
-0.99855, 321, 125, 384, 140
-0.99855, 301, 239, 332, 254
-0.998551, 305, 287, 368, 302
-0.998551, 209, 281, 272, 296
-0.998551, 121, 129, 152, 144
-0.998551, 373, 249, 404, 264
-0.998551, 205, 193, 220, 320
-0.998552, 153, 243, 216, 258
-0.998552, 309, 85, 340, 100
-0.998552, 337, 227, 400, 242
-0.998552, 329, 5, 392, 20
-0.998552, 337, 263, 400, 278
-0.998553, 265, 31, 328, 46
-0.998554, 345, 233, 376, 248
-0.998555, 325, 151, 356, 166
-0.998555, 289, 111, 320, 126
-0.998555, 433, 1, 496, 16
-0.998556, 221, 227, 252, 242
-0.998557, 173, 83, 204, 98
-0.998557, 325, 117, 356, 132
-0.998557, 209, 9, 272, 24
-0.998558, 313, 183, 376, 198
-0.998561, 337, 131, 368, 146
-0.998561, 353, 161, 416, 176
-0.998561, 329, 243, 392, 258
-0.998562, 401, 35, 464, 50
-0.998563, 281, 107, 344, 122
-0.998563, 277, 183, 308, 198
-0.998565, 285, 209, 300, 336
-0.998565, 161, 227, 224, 242
-0.998565, 221, 271, 252, 286
-0.998566, 249, 111, 312, 126
-0.998566, 361, 129, 376, 256
-0.998566, 309, 105, 340, 120
-0.998566, 365, 219, 396, 234
-0.998567, 257, 275, 288, 290
-0.998567, 361, 167, 392, 182
-0.998567, 265, 163, 328, 178
-0.998568, 325, 103, 356, 118
-0.998568, 153, 127, 184, 142
-0.998568, 281, 119, 344, 134
-0.998568, 241, 143, 304, 158
-0.998568, 265, 215, 328, 230
-0.99857, 317, 131, 348, 146
-0.99857, 273, 175, 336, 190
-0.99857, 213, 205, 244, 220
-0.99857, 289, 187, 320, 202
-0.99857, 169, 33, 232, 48
-0.998571, 129, 81, 192, 96
-0.998572, 153, 79, 216, 94
-0.998572, 169, 271, 232, 286
-0.998572, 265, 137, 328, 152
-0.998573, 241, 215, 304, 230
-0.998573, 337, 107, 368, 122
-0.998574, 309, 281, 340, 296
-0.998574, 129, 145, 192, 160
-0.998576, 345, 21, 408, 36
-0.998576, 337, 187, 400, 202
-0.998577, 301, 265, 332, 280
-0.998577, 301, 253, 332, 268
-0.998578, 301, 245, 332, 260
-0.998578, 1, 287, 32, 302
-0.998578, 321, 225, 352, 240
-0.998583, 309, 99, 340, 114
-0.998586, 277, 287, 308, 302
-0.998586, 309, 227, 340, 242
-0.998586, 385, 129, 416, 376
-0.998587, 289, 91, 320, 106
-0.998589, 277, 279, 308, 294
-0.998591, 259, 225, 274, 352
-0.998591, 257, 229, 288, 244
-0.998591, 197, 205, 228, 220
-0.998592, 293, 289, 324, 304
-0.998593, 317, 91, 348, 106
-0.998595, 161, 87, 192, 102
-0.998596, 337, 97, 368, 112
-0.998597, 293, 227, 324, 242
-0.998598, 189, 219, 220, 234
-0.998599, 325, 97, 356, 112
-0.998599, 141, 131, 172, 146
-0.9986, 237, 275, 268, 290
-0.998602, 233, 205, 264, 220
-0.998604, 337, 269, 368, 284
-0.998605, 281, 97, 312, 112
-0.998605, 285, 267, 316, 282
-0.998606, 273, 225, 304, 240
-0.998608, 213, 193, 244, 208
-0.998609, 313, 287, 344, 302
-0.99861, 211, 193, 226, 320
-0.998611, 257, 223, 288, 238
-0.998611, 301, 187, 332, 202
-0.998611, 245, 231, 276, 246
-0.998612, 345, 85, 376, 100
-0.998613, 285, 221, 316, 236
-0.998613, 317, 111, 348, 126
-0.998613, 185, 207, 216, 222
-0.998615, 249, 193, 264, 320
-0.998615, 313, 265, 344, 280
-0.998616, 337, 113, 368, 128
-0.998616, 277, 87, 308, 102
-0.998618, 321, 1, 336, 128
-0.998621, 319, 161, 334, 288
-0.998623, 337, 91, 368, 106
-0.998623, 339, 177, 354, 304
-0.998624, 357, 177, 372, 304
-0.998625, 279, 225, 294, 352
-0.998626, 331, 225, 346, 352
-0.998626, 339, 1, 354, 128
-0.998632, 325, 285, 356, 300
-0.998645, 295, 209, 310, 336
-0.998646, 297, 181, 328, 196
-0.99865, 301, 259, 332, 274
-0.998651, 333, 1, 348, 128
-0.998655, 161, 79, 192, 94
-0.998655, 273, 231, 304, 246
-0.998658, 221, 199, 252, 214
-0.998658, 307, 177, 322, 304
-0.998662, 235, 193, 250, 320
-0.998662, 167, 17, 182, 144
-0.998666, 57, 97, 88, 352
-0.998667, 197, 199, 228, 214
-0.99867, 345, 241, 360, 368
-0.998676, 293, 281, 324, 296
-0.99868, 269, 209, 284, 336
-0.998682, 327, 1, 342, 128
-0.998687, 305, 225, 320, 352
-0.998689, 277, 273, 308, 288
-0.998689, 293, 273, 324, 288
-0.998695, 339, 129, 354, 256
-0.998695, 311, 81, 326, 208
-0.998696, 317, 271, 348, 286
-0.998699, 313, 1, 328, 128
-0.998699, 109, 1, 140, 256
-0.998702, 321, 277, 352, 292
-0.998702, 159, 81, 174, 208
-0.998714, 363, 209, 378, 336
-0.998718, 1, 313, 256, 376
-0.99872, 283, 33, 298, 160
-0.998721, 227, 177, 242, 304
-0.998724, 291, 81, 306, 208
-0.998726, 307, 1, 322, 128
-0.998728, 331, 81, 346, 208
-0.998731, 351, 241, 366, 368
-0.998743, 277, 177, 292, 304
-0.998754, 229, 225, 244, 352
-0.998769, 359, 81, 374, 208
-0.998778, 347, 1, 362, 128
-0.99878, 223, 225, 238, 352
-0.998786, 357, 225, 372, 352
-0.998786, 285, 257, 300, 376
-0.998802, 243, 193, 258, 320
-0.998803, 349, 81, 364, 208
-0.998812, 173, 33, 188, 160
-0.998813, 191, 225, 206, 352
-0.998821, 201, 241, 216, 368
-0.998823, 217, 225, 232, 352
-0.998831, 171, 97, 186, 224
-0.998839, 437, 129, 468, 376
-0.998858, 321, 97, 336, 224
-0.998859, 303, 129, 318, 256
-0.998862, 295, 257, 310, 376
-0.998862, 353, 1, 368, 128
-0.99887, 299, 33, 314, 160
-0.998879, 369, 209, 384, 336
-0.998886, 173, 161, 188, 288
-0.998897, 275, 129, 290, 256
-0.998908, 293, 33, 308, 160
-0.998922, 283, 145, 298, 272
-0.998923, 183, 33, 198, 160
-0.998937, 319, 49, 334, 176
-0.998939, 397, 129, 428, 376
-0.99894, 191, 177, 206, 304
-0.998949, 207, 241, 222, 368
-0.998951, 163, 129, 178, 256
-0.998952, 285, 97, 300, 224
-0.998953, 375, 193, 390, 320
-0.998959, 327, 129, 342, 256
-0.998966, 17, 1, 144, 64
-0.998974, 345, 129, 360, 256
-0.998975, 337, 81, 352, 208
-0.998983, 359, 1, 374, 128
-0.998984, 355, 129, 370, 256
-0.998991, 369, 145, 384, 272
-0.999001, 297, 81, 312, 208
-0.999002, 161, 225, 176, 352
-0.999006, 189, 33, 204, 160
-0.999007, 149, 225, 164, 352
-0.99901, 243, 145, 258, 272
-0.999014, 479, 1, 494, 128
-0.999026, 477, 97, 492, 224
-0.999026, 367, 97, 382, 224
-0.999033, 379, 145, 394, 272
-0.999046, 309, 129, 324, 256
-0.999047, 251, 145, 266, 272
-0.99905, 185, 225, 200, 352
-0.999052, 241, 241, 256, 368
-0.99906, 129, 129, 160, 376
-0.999065, 343, 81, 358, 208
-0.999073, 471, 193, 486, 320
-0.999082, 235, 241, 250, 368
-0.999087, 183, 177, 198, 304
-0.999089, 123, 97, 138, 224
-0.999091, 221, 129, 236, 256
-0.999097, 303, 81, 318, 208
-0.999106, 269, 257, 284, 376
-0.99911, 485, 97, 500, 224
-0.999113, 161, 17, 176, 144
-0.99912, 269, 33, 284, 160
-0.999127, 1, 129, 32, 376
-0.999132, 479, 257, 494, 376
-0.999144, 247, 241, 262, 368
-0.999146, 201, 49, 216, 176
-0.999149, 155, 241, 170, 368
-0.999156, 277, 33, 292, 160
-0.999157, 469, 241, 484, 368
-0.999163, 167, 177, 182, 304
-0.999163, 367, 1, 382, 128
-0.999163, 269, 161, 284, 288
-0.999173, 293, 161, 308, 288
-0.999173, 463, 161, 478, 288
-0.999186, 233, 145, 248, 272
-0.999189, 117, 97, 132, 224
-0.999195, 253, 241, 268, 368
-0.999203, 155, 17, 170, 144
-0.999217, 381, 193, 396, 320
-0.999224, 333, 129, 348, 256
-0.999226, 257, 177, 272, 304
-0.999228, 207, 49, 222, 176
-0.999229, 215, 145, 230, 272
-0.999231, 195, 49, 210, 176
-0.999234, 461, 209, 476, 336
-0.999238, 387, 209, 402, 336
-0.999274, 413, 129, 444, 376
-0.999325, 13, 129, 44, 376
-0.999366, 33, 97, 64, 352
-0.99941, 101, 97, 132, 352
-0.999573, 73, 65, 104, 320
-0.999635, 9, 33, 72, 288
-0.999676, 321, 149, 336, 164
-0.999676, 225, 189, 240, 204
-0.999676, 211, 235, 226, 250
-0.999677, 307, 223, 322, 238
-0.999678, 219, 205, 234, 220
-0.999679, 363, 207, 378, 222
-0.999679, 167, 175, 182, 190
-0.99968, 339, 269, 354, 284
-0.99968, 323, 263, 338, 278
-0.99968, 305, 7, 320, 22
-0.99968, 347, 91, 362, 106
-0.999681, 261, 219, 276, 234
-0.999681, 271, 237, 286, 252
-0.999682, 371, 217, 386, 232
-0.999682, 281, 221, 296, 236
-0.999682, 249, 231, 264, 246
-0.999684, 323, 85, 338, 100
-0.999684, 359, 145, 374, 160
-0.999684, 279, 99, 294, 114
-0.999685, 295, 87, 310, 102
-0.999686, 273, 217, 288, 232
-0.999686, 267, 25, 282, 40
-0.999687, 341, 131, 356, 146
-0.999687, 175, 179, 190, 194
-0.999688, 309, 85, 324, 100
-0.99969, 131, 127, 146, 142
-0.99969, 257, 277, 272, 292
-0.999691, 277, 25, 292, 40
-0.999691, 315, 85, 330, 100
-0.999691, 267, 275, 282, 290
-0.999692, 315, 271, 330, 286
-0.999692, 267, 285, 282, 300
-0.999692, 311, 97, 326, 112
-0.999692, 361, 115, 376, 130
-0.999693, 265, 231, 280, 246
-0.999694, 303, 111, 318, 126
-0.999694, 193, 215, 208, 230
-0.999694, 297, 239, 312, 254
-0.999694, 333, 91, 348, 106
-0.999695, 361, 245, 376, 260
-0.999696, 313, 187, 328, 202
-0.999696, 237, 275, 252, 290
-0.999697, 365, 167, 380, 182
-0.999697, 289, 25, 304, 40
-0.999697, 283, 25, 298, 40
-0.999697, 329, 85, 344, 100
-0.999697, 143, 129, 158, 144
-0.999697, 223, 229, 238, 244
-0.999699, 301, 179, 316, 194
-0.999699, 181, 83, 196, 98
-0.999699, 293, 97, 308, 112
-0.9997, 245, 205, 260, 220
-0.9997, 341, 85, 356, 100
-0.9997, 295, 25, 310, 40
-0.999701, 329, 275, 344, 290
-0.999701, 273, 223, 288, 238
-0.999702, 225, 201, 240, 216
-0.999702, 3, 287, 18, 302
-0.999703, 297, 273, 312, 288
-0.999703, 171, 87, 186, 102
-0.999704, 347, 85, 362, 100
-0.999704, 315, 277, 330, 292
-0.999705, 341, 109, 356, 124
-0.999705, 321, 109, 336, 124
-0.999706, 361, 121, 376, 136
-0.999706, 331, 97, 346, 112
-0.999707, 319, 237, 334, 252
-0.999708, 289, 85, 304, 100
-0.999709, 259, 283, 274, 298
-0.999709, 335, 85, 350, 100
-0.99971, 293, 217, 308, 232
-0.999711, 359, 151, 374, 166
-0.999712, 277, 183, 292, 198
-0.999712, 353, 91, 368, 106
-0.999712, 303, 91, 318, 106
-0.999712, 361, 127, 376, 142
-0.999713, 217, 195, 232, 210
-0.999714, 275, 175, 290, 190
-0.999714, 351, 97, 366, 112
-0.999715, 315, 227, 330, 242
-0.999717, 273, 269, 288, 284
-0.999718, 339, 281, 354, 296
-0.999718, 323, 279, 338, 294
-0.99972, 307, 231, 322, 246
-0.999721, 321, 91, 336, 106
-0.999721, 335, 225, 350, 240
-0.999721, 297, 267, 312, 282
-0.999722, 201, 213, 216, 228
-0.999723, 197, 207, 212, 222
-0.999723, 333, 283, 348, 298
-0.999725, 279, 93, 294, 108
-0.999729, 161, 133, 176, 148
-0.999729, 165, 121, 180, 136
-0.999731, 271, 231, 286, 246
-0.999733, 277, 231, 292, 246
-0.999734, 361, 103, 376, 118
-0.999736, 207, 199, 222, 214
-0.999739, 273, 283, 288, 298
-0.99974, 165, 101, 180, 116
-0.99974, 243, 233, 258, 248
-0.999741, 303, 21, 318, 36
-0.999742, 175, 81, 190, 96
-0.999744, 297, 225, 312, 240
-0.999744, 359, 91, 374, 106
-0.999746, 339, 275, 354, 290
-0.999747, 279, 87, 294, 102
-0.999751, 267, 221, 282, 236
-0.999751, 361, 109, 376, 124
-0.999752, 165, 109, 180, 124
-0.999752, 161, 127, 176, 142
-0.999757, 285, 91, 300, 106
-0.999757, 341, 91, 356, 106
-0.999758, 287, 269, 302, 284
-0.999758, 233, 269, 248, 284
-0.999759, 225, 271, 240, 286
-0.999759, 283, 227, 298, 242
-0.99976, 357, 85, 372, 100
-0.999763, 307, 237, 322, 252
-0.999771, 225, 195, 240, 210
-0.999771, 259, 225, 274, 240
-0.999774, 321, 273, 336, 288
-0.999776, 165, 115, 180, 130
-0.999777, 287, 221, 302, 236
-0.999783, 191, 209, 206, 224
-0.999784, 165, 95, 180, 110
-0.999789, 165, 87, 180, 102
-0.999792, 235, 199, 250, 214
-0.999796, 165, 77, 180, 92
-0.999835, 329, 269, 344, 284
-0.999853, 313, 181, 328, 196
-0.999859, 45, 97, 76, 352
-0.999933, 17, 33, 144, 96
-1.00009, 57, 1, 88, 256
-1.00051, 45, 1, 76, 256
-1.00105, 33, 1, 64, 256
-1.00137, 1, 1, 32, 256
-1.00151, 21, 33, 52, 288
-1.00226, 81, 1, 144, 128
-1.00602, 57, 1, 120, 128
-1.0072, 33, 1, 96, 128
-1.00825, 9, 1, 72, 128
