1974
-0.467041, 1, 129, 500, 375
-0.63489, 1, 1, 500, 375
-0.677258, 1, 129, 256, 375
-0.687742, 1, 33, 500, 288
-0.715497, 225, 129, 480, 375
-0.72474, 65, 1, 320, 375
-0.752456, 129, 129, 384, 375
-0.759701, 225, 1, 480, 375
-0.898148, 49, 129, 176, 375
-0.898435, 97, 129, 224, 375
-0.899194, 1, 129, 128, 375
-0.901686, 145, 129, 272, 375
-0.901695, 321, 129, 448, 375
-0.905043, 193, 129, 320, 375
-0.906031, 369, 129, 496, 375
-0.909785, 241, 129, 368, 375
-0.909948, 1, 145, 500, 272
-0.911829, 1, 225, 500, 352
-0.930105, 1, 241, 256, 368
-0.931457, 97, 1, 224, 375
-0.932581, 1, 1, 128, 375
-0.934206, 1, 145, 256, 272
-0.934227, 49, 1, 176, 375
-0.93483, 321, 1, 448, 375
-0.935589, 193, 1, 320, 375
-0.938968, 225, 241, 480, 368
-0.939403, 65, 193, 320, 320
-0.939808, 65, 33, 320, 288
-0.940228, 129, 145, 384, 272
-0.941004, 273, 1, 400, 375
-0.941148, 369, 1, 496, 375
-0.942853, 17, 241, 144, 368
-0.94514, 225, 145, 480, 272
-0.946117, 161, 33, 416, 288
-0.946925, 65, 225, 128, 352
-0.947466, 145, 1, 272, 375
-0.948821, 129, 241, 384, 368
-0.950577, 257, 129, 384, 256
-0.951404, 369, 33, 496, 288
-0.953395, 193, 241, 320, 368
-0.953535, 49, 33, 176, 288
-0.953941, 49, 177, 176, 304
-0.955108, 273, 225, 336, 352
-0.956707, 161, 193, 416, 320
-0.957012, 65, 241, 192, 368
-0.957164, 257, 225, 384, 352
-0.957366, 225, 241, 288, 368
-0.957476, 41, 145, 104, 272
-0.958482, 305, 225, 432, 352
-0.958898, 113, 193, 240, 320
-0.959034, 353, 225, 480, 352
-0.959052, 41, 241, 104, 368
-0.959713, 417, 241, 480, 368
-0.959869, 369, 129, 496, 256
-0.959892, 153, 145, 216, 272
-0.960136, 113, 241, 240, 368
-0.960378, 257, 193, 500, 320
-0.960535, 97, 145, 224, 272
-0.960559, 361, 145, 424, 272
-0.960726, 1, 97, 500, 224
-0.961334, 57, 265, 120, 328
-0.96187, 161, 161, 288, 288
-0.962447, 193, 145, 256, 272
-0.963355, 305, 145, 432, 272
-0.963573, 17, 225, 80, 352
-0.963918, 1, 161, 128, 288
-0.964026, 273, 281, 336, 344
-0.964285, 193, 33, 320, 288
-0.964565, 273, 305, 336, 368
-0.964596, 209, 177, 336, 304
-0.964598, 57, 217, 120, 280
-0.964972, 425, 289, 488, 352
-0.96501, 249, 145, 312, 272
-0.965698, 329, 145, 392, 272
-0.965908, 321, 33, 448, 288
-0.966291, 305, 145, 368, 272
-0.966497, 369, 289, 432, 352
-0.966508, 97, 209, 160, 336
-0.966889, 49, 145, 112, 208
-0.96713, 313, 281, 376, 344
-0.967139, 33, 297, 96, 360
-0.967177, 377, 193, 440, 320
-0.967182, 201, 241, 264, 368
-0.968163, 137, 281, 200, 344
-0.968188, 17, 161, 80, 288
-0.968418, 65, 145, 128, 272
-0.968568, 217, 249, 280, 312
-0.968578, 321, 145, 384, 208
-0.968696, 393, 241, 456, 368
-0.968766, 241, 281, 304, 344
-0.968942, 105, 281, 168, 344
-0.969006, 345, 225, 408, 352
-0.969007, 193, 185, 256, 248
-0.969093, 313, 241, 376, 368
-0.969257, 49, 129, 176, 256
-0.969363, 169, 209, 232, 336
-0.969368, 401, 129, 464, 256
-0.96941, 41, 193, 104, 320
-0.969512, 273, 33, 400, 288
-0.96963, 209, 129, 336, 256
-0.969756, 433, 145, 496, 208
-0.970228, 337, 281, 400, 344
-0.970264, 433, 129, 496, 256
-0.970504, 129, 161, 192, 288
-0.97092, 113, 177, 176, 240
-0.971181, 409, 137, 472, 200
-0.971205, 193, 281, 256, 344
-0.971252, 153, 209, 216, 272
-0.971288, 153, 161, 216, 224
-0.971384, 257, 153, 320, 216
-0.971465, 105, 161, 168, 288
-0.971524, 177, 249, 240, 312
-0.971542, 1, 153, 64, 216
-0.971858, 129, 33, 256, 288
-0.972045, 33, 97, 288, 224
-0.972087, 161, 281, 224, 344
-0.97243, 297, 313, 360, 375
-0.972519, 361, 153, 424, 216
-0.972819, 281, 161, 344, 224
-0.97318, 369, 241, 432, 368
-0.973203, 129, 225, 192, 352
-0.973215, 401, 297, 464, 360
-0.973427, 185, 161, 248, 224
-0.973429, 1, 33, 128, 288
-0.97354, 1, 305, 64, 368
-0.973891, 41, 169, 104, 232
-0.974009, 225, 161, 288, 224
-0.974259, 305, 289, 432, 352
-0.974451, 193, 193, 256, 320
-0.974451, 249, 241, 312, 368
-0.974534, 65, 289, 128, 352
-0.975131, 57, 241, 120, 304
-0.975329, 225, 305, 352, 368
-0.975715, 97, 249, 160, 312
-0.975722, 33, 265, 160, 328
-0.975879, 17, 177, 80, 240
-0.975936, 81, 153, 144, 216
-0.976034, 257, 177, 384, 304
-0.976378, 177, 281, 304, 344
-0.976383, 201, 209, 264, 272
-0.976415, 81, 209, 144, 272
-0.976504, 233, 185, 296, 248
-0.976711, 217, 281, 280, 344
-0.976718, 105, 305, 168, 368
-0.976804, 249, 313, 312, 375
-0.977144, 73, 177, 136, 240
-0.977155, 273, 145, 336, 272
-0.977236, 49, 129, 112, 375
-0.977246, 225, 193, 288, 320
-0.97749, 265, 249, 328, 312
-0.977656, 353, 297, 480, 360
-0.977732, 81, 281, 208, 344
-0.977895, 129, 97, 384, 224
-0.977935, 257, 97, 500, 224
-0.978013, 25, 265, 88, 328
-0.978022, 329, 313, 392, 375
-0.978072, 369, 177, 496, 304
-0.978118, 49, 225, 80, 352
-0.978158, 33, 201, 96, 264
-0.978325, 401, 265, 464, 328
-0.978346, 121, 153, 184, 216
-0.978616, 33, 289, 160, 352
-0.978764, 409, 217, 472, 280
-0.978807, 257, 145, 384, 208
-0.978855, 401, 193, 464, 320
-0.978875, 177, 217, 240, 280
-0.978999, 113, 201, 176, 264
-0.97929, 33, 185, 160, 248
-0.979299, 33, 153, 160, 216
-0.979321, 369, 145, 496, 208
-0.97933, 61, 129, 92, 256
-0.979336, 153, 185, 216, 248
-0.979379, 137, 241, 200, 304
-0.979385, 353, 313, 416, 375
-0.979389, 201, 305, 264, 368
-0.97942, 369, 265, 432, 328
-0.979506, 329, 169, 392, 232
-0.979528, 1, 265, 64, 328
-0.979653, 217, 145, 280, 272
-0.979716, 129, 281, 256, 344
-0.979765, 425, 193, 488, 320
-0.98011, 129, 249, 256, 312
-0.980178, 177, 193, 304, 256
-0.980196, 185, 129, 248, 375
-0.980262, 321, 193, 384, 320
-0.980414, 145, 129, 208, 375
-0.98047, 321, 289, 352, 352
-0.980519, 113, 129, 176, 375
-0.980528, 45, 289, 76, 352
-0.980588, 69, 209, 100, 336
-0.980648, 65, 217, 96, 280
-0.980731, 361, 201, 424, 264
-0.980837, 53, 265, 84, 328
-0.980842, 177, 305, 240, 368
-0.980847, 113, 161, 240, 224
-0.980918, 469, 289, 500, 352
-0.980935, 385, 209, 448, 272
-0.980949, 241, 257, 304, 320
-0.981052, 25, 233, 88, 296
-0.981114, 445, 289, 476, 352
-0.981159, 145, 113, 272, 240
-0.981467, 81, 193, 208, 256
-0.981483, 1, 113, 128, 240
-0.981553, 289, 129, 352, 192
-0.981589, 209, 257, 336, 320
-0.981649, 137, 313, 200, 375
-0.981673, 385, 145, 448, 208
-0.981887, 377, 313, 440, 375
-0.981989, 301, 281, 332, 344
-0.981994, 249, 129, 312, 375
-0.982059, 377, 289, 408, 352
-0.98208, 209, 129, 272, 375
-0.982127, 297, 257, 360, 320
-0.98226, 49, 217, 176, 280
-0.98227, 249, 225, 312, 288
-0.982302, 49, 241, 176, 304
-0.9824, 305, 129, 368, 375
-0.98246, 257, 281, 384, 344
-0.982631, 137, 281, 168, 344
-0.982859, 77, 169, 108, 232
-0.982863, 269, 281, 300, 344
-0.982916, 273, 193, 336, 256
-0.982953, 329, 249, 392, 312
-0.983154, 329, 129, 392, 375
-0.983289, 233, 241, 264, 368
-0.983327, 457, 289, 488, 352
-0.983331, 361, 129, 424, 375
-0.983362, 305, 97, 432, 224
-0.983402, 233, 249, 264, 312
-0.98345, 81, 193, 112, 256
-0.983468, 61, 145, 92, 208
-0.983528, 25, 137, 88, 200
-0.983574, 377, 145, 408, 272
-0.983577, 433, 257, 496, 320
-0.983636, 389, 289, 420, 352
-0.983713, 177, 281, 208, 344
-0.983779, 189, 281, 220, 344
-0.983842, 289, 281, 320, 344
-0.983854, 365, 145, 396, 272
-0.983896, 97, 217, 224, 280
-0.983962, 121, 281, 152, 344
-0.983986, 105, 225, 136, 352
-0.984082, 177, 169, 304, 232
-0.984095, 469, 225, 500, 352
-0.984116, 421, 225, 452, 352
-0.984143, 305, 153, 432, 216
-0.984159, 337, 201, 400, 264
-0.984208, 357, 289, 388, 352
-0.984208, 273, 225, 336, 288
-0.984208, 73, 313, 136, 375
-0.98421, 73, 273, 104, 336
-0.984232, 81, 97, 144, 224
-0.984283, 261, 241, 292, 368
-0.984285, 101, 257, 132, 320
-0.984306, 333, 145, 364, 208
-0.984318, 417, 129, 480, 375
-0.984321, 165, 145, 196, 272
-0.98435, 145, 305, 272, 368
-0.984368, 385, 129, 448, 375
-0.984418, 369, 265, 496, 328
-0.984422, 129, 185, 256, 248
-0.984473, 205, 281, 236, 344
-0.984598, 297, 201, 360, 264
-0.98461, 81, 241, 112, 368
-0.984619, 1, 217, 128, 280
-0.984635, 409, 289, 440, 352
-0.984689, 277, 137, 308, 200
-0.984695, 225, 177, 352, 240
-0.984724, 225, 217, 288, 280
-0.984731, 57, 177, 88, 304
-0.984763, 57, 289, 88, 352
-0.984957, 81, 305, 208, 368
-0.984975, 145, 217, 272, 280
-0.985001, 45, 177, 76, 304
-0.985016, 437, 137, 468, 200
-0.985037, 297, 193, 360, 320
-0.985135, 337, 209, 464, 272
-0.985156, 289, 97, 352, 224
-0.985213, 217, 281, 248, 344
-0.985223, 73, 145, 104, 272
-0.985366, 373, 193, 404, 320
-0.985431, 113, 305, 144, 368
-0.985476, 1, 241, 128, 304
-0.985486, 93, 209, 124, 336
-0.985567, 389, 145, 420, 272
-0.985614, 189, 145, 220, 272
-0.985646, 277, 129, 308, 256
-0.985661, 409, 225, 440, 352
-0.985672, 369, 81, 496, 208
-0.985675, 157, 281, 188, 344
-0.985736, 281, 129, 344, 375
-0.985783, 45, 201, 76, 264
-0.985826, 353, 129, 416, 192
-0.985826, 433, 201, 496, 264
-0.985827, 209, 217, 336, 280
-0.985888, 161, 201, 192, 264
-0.985918, 1, 209, 64, 272
-0.985947, 257, 249, 384, 312
-0.985977, 65, 193, 96, 256
-0.986027, 349, 129, 380, 256
-0.986053, 409, 137, 440, 200
-0.98607, 289, 201, 416, 264
-0.986134, 105, 225, 168, 288
-0.986168, 249, 193, 312, 320
-0.98617, 465, 129, 496, 256
-0.986177, 453, 145, 484, 208
-0.986211, 305, 265, 432, 328
-0.986217, 457, 225, 488, 352
-0.986249, 469, 145, 500, 208
-0.986328, 313, 313, 344, 375
-0.98637, 213, 241, 244, 368
-0.98639, 433, 241, 464, 368
-0.986453, 433, 81, 496, 208
-0.986493, 385, 225, 416, 352
-0.98659, 81, 193, 112, 320
-0.986594, 225, 305, 288, 368
-0.986647, 1, 129, 64, 375
-0.986761, 1, 113, 64, 240
-0.986761, 121, 113, 184, 240
-0.986789, 277, 225, 308, 352
-0.9868, 149, 161, 180, 224
-0.986883, 297, 161, 328, 224
-0.986892, 33, 313, 160, 375
-0.986914, 9, 153, 40, 216
-0.986924, 89, 249, 120, 312
-0.986958, 73, 129, 136, 375
-0.987001, 353, 97, 416, 224
-0.987026, 353, 153, 384, 216
-0.987036, 293, 145, 324, 272
-0.987109, 257, 281, 288, 344
-0.987161, 309, 161, 340, 224
-0.987164, 337, 129, 368, 256
-0.987192, 213, 201, 244, 264
-0.987251, 185, 193, 216, 320
-0.987271, 245, 257, 276, 320
-0.98731, 109, 281, 140, 344
-0.987321, 249, 241, 280, 368
-0.987343, 93, 193, 124, 256
-0.987403, 93, 153, 124, 216
-0.987424, 217, 145, 248, 272
-0.987436, 133, 305, 164, 368
-0.987465, 49, 177, 80, 240
-0.987473, 49, 129, 80, 256
-0.987537, 433, 129, 464, 256
-0.987589, 453, 129, 484, 256
-0.987642, 185, 209, 216, 272
-0.987654, 269, 313, 300, 375
-0.987683, 341, 313, 372, 375
-0.987809, 389, 257, 420, 320
-0.987824, 161, 161, 192, 224
-0.98784, 297, 305, 328, 368
-0.987845, 281, 305, 312, 368
-0.987877, 405, 129, 436, 256
-0.987879, 345, 281, 376, 344
-0.987964, 93, 145, 124, 272
-0.987966, 193, 145, 320, 208
-0.98808, 333, 281, 364, 344
-0.98809, 445, 241, 476, 368
-0.988128, 77, 233, 108, 296
-0.988136, 273, 313, 400, 375
-0.988143, 313, 265, 344, 328
-0.988193, 225, 193, 256, 320
-0.988195, 225, 193, 256, 256
-0.988255, 137, 185, 168, 248
-0.988272, 113, 145, 144, 272
-0.988302, 229, 281, 260, 344
-0.988316, 369, 241, 432, 304
-0.988428, 433, 313, 496, 375
-0.988522, 189, 249, 220, 312
-0.98857, 421, 297, 452, 360
-0.988576, 433, 121, 496, 184
-0.98862, 329, 97, 392, 224
-0.988673, 181, 153, 212, 216
-0.988811, 321, 225, 352, 352
-0.988821, 409, 161, 472, 224
-0.988835, 213, 257, 244, 320
-0.988837, 201, 145, 232, 272
-0.988843, 433, 225, 496, 288
-0.988931, 29, 225, 60, 352
-0.988965, 305, 241, 432, 304
-0.98897, 369, 313, 400, 375
-0.989011, 265, 257, 296, 320
-0.989094, 141, 225, 172, 352
-0.989099, 133, 177, 164, 304
-0.989138, 37, 177, 68, 240
-0.989144, 397, 193, 428, 320
-0.989148, 433, 289, 464, 352
-0.989176, 305, 121, 432, 184
-0.989185, 153, 225, 184, 352
-0.989195, 233, 161, 264, 224
-0.989245, 205, 169, 236, 232
-0.989255, 73, 145, 104, 208
-0.989325, 49, 293, 112, 324
-0.989326, 49, 225, 80, 288
-0.989356, 173, 209, 204, 336
-0.989389, 209, 137, 272, 200
-0.989391, 229, 313, 260, 375
-0.989434, 157, 249, 188, 312
-0.989442, 197, 225, 228, 352
-0.989452, 177, 145, 208, 272
-0.989566, 101, 225, 132, 288
-0.98957, 309, 145, 340, 272
-0.989578, 181, 185, 212, 248
-0.98958, 33, 177, 64, 304
-0.989606, 113, 153, 144, 216
-0.989635, 217, 97, 280, 224
-0.989649, 369, 265, 400, 328
-0.989729, 401, 145, 464, 176
-0.98973, 81, 137, 208, 200
-0.989823, 289, 177, 416, 240
-0.989882, 257, 161, 288, 224
-0.989887, 245, 281, 276, 344
-0.989951, 273, 309, 336, 340
-0.990004, 25, 297, 56, 360
-0.990055, 217, 161, 248, 224
-0.990079, 153, 137, 216, 200
-0.990101, 421, 273, 452, 336
-0.990102, 57, 225, 120, 256
-0.990114, 25, 129, 88, 375
-0.990225, 49, 153, 112, 184
-0.990237, 1, 285, 64, 316
-0.990246, 337, 177, 464, 240
-0.990249, 393, 185, 456, 248
-0.990267, 241, 305, 272, 368
-0.990279, 301, 225, 332, 352
-0.990284, 173, 209, 204, 272
-0.990302, 25, 293, 88, 324
-0.990316, 421, 129, 452, 256
-0.990396, 173, 257, 204, 320
-0.990414, 257, 157, 320, 188
-0.990427, 353, 177, 384, 240
-0.990437, 373, 201, 404, 264
-0.990438, 97, 281, 352, 344
-0.990443, 233, 269, 296, 300
-0.990446, 33, 209, 96, 240
-0.99045, 9, 157, 72, 188
-0.990466, 193, 177, 224, 240
-0.990543, 397, 241, 428, 368
-0.990553, 241, 161, 272, 288
-0.990556, 65, 213, 128, 244
-0.99057, 97, 97, 224, 224
-0.990584, 337, 289, 400, 320
-0.990641, 401, 281, 464, 312
-0.990664, 89, 217, 120, 280
-0.990729, 297, 289, 360, 320
-0.990738, 469, 313, 500, 375
-0.990741, 97, 289, 160, 320
-0.990748, 117, 241, 148, 368
-0.990751, 361, 289, 424, 320
-0.990767, 141, 209, 172, 272
-0.990821, 305, 169, 368, 232
-0.990835, 257, 289, 320, 320
-0.990839, 29, 201, 60, 264
-0.990858, 353, 209, 384, 272
-0.990872, 421, 137, 452, 200
-0.990903, 365, 153, 396, 216
-0.990953, 73, 289, 136, 320
-0.990965, 357, 193, 388, 320
-0.990971, 161, 221, 224, 252
-0.991008, 65, 257, 128, 288
-0.991009, 177, 237, 240, 268
-0.991024, 49, 281, 112, 312
-0.991031, 321, 225, 384, 288
-0.991039, 361, 157, 424, 188
-0.991044, 193, 285, 256, 316
-0.991061, 89, 273, 152, 304
-0.991066, 225, 329, 288, 360
-0.991072, 185, 205, 248, 236
-0.991116, 225, 217, 256, 280
-0.991118, 57, 241, 120, 272
-0.991138, 153, 177, 184, 304
-0.991139, 321, 329, 384, 360
-0.991146, 321, 149, 384, 180
-0.991164, 321, 145, 352, 208
-0.991217, 329, 313, 360, 375
-0.991232, 33, 305, 96, 336
-0.991245, 433, 265, 464, 328
-0.991251, 113, 257, 144, 320
-0.991264, 225, 281, 288, 312
-0.991273, 81, 157, 144, 188
-0.991291, 289, 145, 352, 176
-0.991294, 281, 257, 312, 320
-0.991303, 145, 129, 176, 256
-0.991318, 425, 277, 488, 308
-0.991349, 285, 161, 316, 224
-0.991355, 397, 145, 428, 208
-0.991366, 433, 297, 496, 328
-0.991379, 217, 161, 280, 192
-0.991382, 169, 161, 232, 192
-0.991383, 257, 269, 320, 300
-0.991384, 145, 193, 208, 224
-0.991391, 289, 161, 352, 192
-0.9914, 137, 161, 200, 192
-0.991402, 185, 189, 248, 220
-0.991408, 49, 153, 80, 216
-0.991409, 385, 293, 448, 324
-0.991416, 17, 233, 80, 264
-0.991425, 81, 329, 144, 360
-0.991437, 49, 173, 112, 204
-0.991464, 161, 289, 224, 320
-0.991465, 81, 225, 144, 256
-0.991469, 201, 325, 264, 356
-0.991481, 161, 205, 224, 236
-0.991485, 169, 97, 232, 224
-0.991494, 129, 321, 192, 352
-0.991495, 433, 157, 496, 188
-0.991561, 57, 201, 120, 232
-0.991562, 225, 189, 288, 220
-0.991566, 105, 317, 168, 348
-0.991576, 469, 265, 500, 328
-0.991578, 49, 333, 112, 364
-0.991578, 377, 277, 440, 308
-0.991583, 97, 281, 128, 344
-0.991594, 225, 257, 288, 288
-0.991612, 137, 289, 200, 320
-0.991612, 57, 321, 120, 352
-0.991615, 281, 277, 344, 308
-0.991619, 409, 157, 472, 188
-0.991641, 345, 225, 408, 288
-0.991729, 137, 209, 200, 240
-0.991748, 125, 185, 156, 248
-0.99175, 25, 249, 88, 280
-0.991753, 169, 313, 200, 375
-0.991759, 97, 305, 160, 336
-0.991766, 209, 341, 272, 372
-0.991771, 193, 269, 256, 300
-0.991774, 257, 225, 384, 288
-0.991775, 153, 181, 216, 212
-0.991776, 249, 325, 312, 356
-0.991782, 237, 185, 268, 248
-0.991782, 313, 301, 376, 332
-0.991809, 313, 313, 376, 344
-0.991821, 57, 141, 120, 172
-0.991827, 425, 145, 488, 176
-0.991834, 57, 269, 120, 300
-0.991851, 201, 217, 264, 248
-0.991856, 121, 273, 184, 304
-0.991861, 225, 229, 288, 260
-0.991874, 73, 301, 136, 332
-0.991876, 249, 145, 312, 176
-0.991877, 5, 297, 36, 360
-0.99188, 105, 333, 168, 364
-0.991889, 121, 177, 184, 208
-0.991891, 25, 281, 88, 312
-0.991894, 257, 289, 500, 352
-0.991901, 201, 245, 264, 276
-0.991908, 241, 241, 304, 272
-0.991919, 321, 277, 384, 308
-0.991925, 33, 197, 96, 228
-0.991934, 17, 333, 80, 364
-0.991978, 9, 213, 72, 244
-0.991982, 213, 193, 244, 320
-0.991983, 153, 277, 216, 308
-0.991985, 137, 225, 200, 256
-0.991998, 265, 97, 328, 224
-0.992001, 341, 225, 372, 352
-0.992002, 153, 237, 216, 268
-0.992005, 433, 133, 496, 164
-0.992009, 437, 193, 468, 320
-0.99203, 177, 317, 240, 348
-0.992039, 273, 233, 336, 264
-0.992043, 389, 313, 420, 375
-0.992049, 385, 157, 448, 188
-0.992051, 377, 145, 440, 176
-0.992057, 321, 145, 352, 272
-0.992063, 33, 221, 96, 252
-0.992074, 1, 169, 64, 200
-0.992079, 97, 185, 160, 216
-0.992083, 105, 233, 168, 264
-0.992091, 9, 193, 72, 224
-0.992108, 201, 233, 264, 264
-0.99211, 409, 297, 472, 328
-0.992114, 297, 201, 360, 232
-0.992132, 241, 173, 304, 204
-0.99214, 297, 325, 360, 356
-0.992142, 113, 209, 176, 240
-0.992159, 253, 193, 284, 320
-0.992173, 25, 169, 88, 200
-0.992183, 81, 317, 144, 348
-0.992186, 121, 189, 184, 220
-0.992186, 273, 257, 336, 288
-0.992193, 185, 337, 248, 368
-0.992198, 201, 249, 232, 312
-0.992202, 409, 225, 472, 256
-0.992206, 369, 177, 432, 240
-0.992214, 353, 241, 480, 304
-0.992215, 189, 305, 220, 368
-0.992218, 273, 185, 336, 216
-0.992218, 249, 193, 312, 224
-0.992228, 97, 253, 160, 284
-0.992233, 17, 145, 80, 176
-0.992241, 105, 153, 168, 184
-0.992241, 1, 177, 32, 240
-0.992246, 65, 161, 320, 224
-0.992255, 193, 165, 256, 196
-0.992258, 65, 249, 96, 312
-0.992259, 393, 81, 456, 208
-0.992267, 217, 313, 280, 344
-0.992271, 89, 209, 152, 240
-0.992275, 273, 221, 336, 252
-0.992291, 353, 277, 416, 308
-0.992315, 353, 241, 384, 368
-0.992319, 353, 313, 416, 344
-0.992325, 33, 265, 96, 296
-0.99233, 185, 257, 248, 288
-0.992337, 229, 145, 260, 272
-0.992343, 33, 321, 96, 352
-0.992351, 1, 297, 64, 328
-0.992352, 81, 129, 144, 192
-0.992353, 405, 265, 436, 328
-0.99237, 297, 225, 360, 288
-0.99238, 157, 305, 188, 368
-0.992383, 65, 225, 96, 256
-0.99242, 289, 201, 320, 264
-0.99244, 301, 257, 332, 320
-0.992486, 177, 121, 304, 184
-0.992502, 145, 241, 176, 304
-0.992521, 193, 153, 224, 216
-0.992543, 401, 241, 464, 304
-0.99255, 145, 305, 176, 368
-0.992568, 9, 225, 40, 352
-0.992603, 49, 289, 80, 320
-0.99262, 105, 129, 168, 192
-0.992628, 257, 269, 288, 300
-0.992637, 225, 313, 480, 375
-0.992646, 373, 241, 404, 368
-0.99267, 321, 121, 384, 184
-0.992705, 77, 209, 108, 240
-0.99279, 281, 145, 312, 176
-0.992793, 469, 297, 500, 328
-0.99281, 105, 269, 136, 300
-0.99281, 369, 289, 400, 320
-0.992836, 425, 297, 456, 328
-0.99284, 1, 129, 128, 192
-0.992841, 301, 289, 332, 320
-0.992855, 421, 145, 452, 176
-0.992871, 105, 289, 136, 320
-0.99288, 9, 157, 40, 188
-0.992883, 389, 293, 420, 324
-0.992886, 437, 145, 468, 176
-0.992896, 405, 293, 436, 324
-0.992896, 281, 289, 312, 320
-0.992904, 33, 185, 288, 248
-0.992907, 53, 209, 84, 240
-0.992911, 217, 285, 248, 316
-0.992914, 269, 269, 300, 300
-0.992921, 97, 257, 128, 288
-0.992947, 61, 145, 92, 176
-0.99295, 313, 289, 344, 320
-0.992957, 65, 213, 96, 244
-0.992961, 129, 225, 160, 352
-0.992961, 77, 289, 108, 320
-0.992964, 165, 225, 196, 256
-0.992968, 229, 325, 260, 356
-0.992968, 453, 297, 484, 328
-0.99297, 297, 305, 328, 336
-0.993003, 265, 157, 296, 188
-0.993005, 237, 281, 268, 312
-0.993021, 97, 301, 128, 332
-0.993024, 337, 145, 368, 176
-0.993029, 425, 281, 456, 312
-0.993029, 401, 153, 432, 184
-0.993031, 393, 113, 456, 176
-0.993036, 257, 285, 288, 316
-0.993037, 205, 285, 236, 316
-0.993043, 237, 265, 268, 296
-0.993045, 357, 289, 388, 320
-0.993049, 61, 293, 92, 324
-0.993057, 37, 297, 68, 328
-0.993066, 329, 329, 360, 360
-0.993067, 453, 149, 484, 180
-0.99307, 349, 149, 380, 180
-0.99307, 221, 201, 252, 232
-0.993072, 289, 225, 320, 352
-0.993074, 185, 221, 216, 252
-0.993074, 313, 317, 344, 348
-0.993081, 469, 313, 500, 344
-0.993082, 181, 205, 212, 236
-0.993086, 389, 157, 420, 188
-0.993086, 85, 221, 116, 252
-0.993087, 169, 289, 200, 320
-0.99309, 269, 289, 300, 320
-0.993101, 225, 245, 256, 276
-0.993102, 73, 277, 104, 308
-0.993112, 185, 161, 216, 192
-0.993114, 185, 289, 216, 320
-0.993115, 233, 341, 264, 372
-0.993116, 169, 205, 200, 236
-0.993118, 257, 329, 288, 360
-0.993123, 33, 165, 64, 196
-0.99313, 45, 173, 76, 204
-0.993133, 437, 297, 468, 328
-0.993133, 145, 169, 176, 200
-0.99314, 141, 181, 172, 212
-0.993141, 73, 197, 104, 228
-0.993143, 193, 201, 224, 232
-0.993143, 25, 293, 56, 324
-0.993147, 465, 153, 496, 184
-0.993151, 237, 185, 268, 216
-0.993154, 85, 257, 116, 288
-0.993157, 173, 161, 204, 192
-0.993161, 345, 289, 376, 320
-0.993162, 369, 157, 400, 188
-0.993167, 329, 313, 360, 344
-0.993168, 89, 289, 120, 320
-0.993171, 161, 193, 192, 224
-0.993172, 93, 157, 124, 188
-0.993173, 245, 161, 276, 192
-0.993177, 149, 193, 180, 224
-0.993178, 45, 229, 76, 260
-0.993182, 145, 157, 176, 188
-0.993182, 97, 321, 128, 352
-0.993184, 81, 241, 112, 272
-0.993185, 225, 273, 256, 304
-0.993187, 217, 165, 248, 196
-0.993187, 93, 277, 124, 308
-0.993189, 277, 161, 308, 192
-0.993189, 257, 257, 288, 288
-0.993195, 401, 281, 432, 312
-0.993198, 137, 321, 168, 352
-0.993199, 57, 273, 88, 304
-0.993202, 109, 329, 140, 360
-0.993206, 121, 277, 152, 308
-0.993212, 153, 289, 184, 320
-0.993216, 329, 285, 360, 316
-0.993217, 9, 169, 40, 200
-0.993223, 381, 281, 412, 312
-0.993227, 197, 237, 228, 268
-0.993227, 285, 309, 316, 340
-0.993228, 297, 149, 328, 180
-0.993228, 137, 285, 168, 316
-0.99323, 41, 329, 72, 360
-0.99323, 281, 193, 312, 224
-0.993231, 57, 173, 88, 204
-0.993232, 213, 189, 244, 220
-0.993232, 57, 157, 88, 188
-0.993233, 77, 173, 108, 204
-0.993234, 349, 209, 380, 240
-0.993234, 237, 253, 268, 284
-0.993236, 405, 141, 436, 172
-0.993238, 73, 321, 104, 352
-0.99324, 121, 329, 152, 360
-0.993241, 413, 281, 444, 312
-0.993241, 101, 241, 132, 272
-0.993245, 293, 161, 324, 192
-0.993246, 97, 201, 128, 232
-0.993247, 157, 161, 188, 192
-0.993247, 41, 209, 72, 240
-0.993248, 217, 337, 248, 368
-0.993249, 209, 233, 240, 264
-0.99325, 201, 161, 232, 192
-0.99325, 9, 281, 40, 312
-0.993255, 73, 157, 104, 188
-0.993255, 149, 277, 180, 308
-0.993257, 149, 209, 180, 240
-0.993262, 213, 213, 244, 244
-0.993264, 349, 329, 380, 360
-0.993264, 197, 225, 228, 256
-0.993272, 77, 185, 108, 216
-0.993307, 1, 209, 256, 272
-0.993341, 185, 241, 216, 368
-0.993343, 65, 249, 320, 312
-0.99339, 1, 281, 256, 344
-0.993402, 249, 129, 312, 192
-0.993419, 1, 281, 500, 344
-0.993628, 33, 305, 288, 368
-0.993688, 257, 121, 384, 184
-0.993768, 277, 177, 308, 304
-0.993813, 177, 137, 240, 200
-0.993929, 353, 121, 480, 184
-0.993936, 265, 145, 296, 272
-0.994006, 57, 1, 120, 375
-0.994018, 89, 1, 152, 375
-0.994027, 433, 169, 496, 232
-0.994159, 241, 81, 368, 208
-0.994173, 125, 129, 156, 256
-0.994175, 13, 145, 44, 272
-0.994224, 225, 145, 480, 208
-0.994279, 57, 97, 120, 224
-0.994301, 161, 201, 416, 264
-0.994416, 129, 313, 384, 375
-0.994497, 225, 257, 480, 320
-0.994642, 17, 1, 80, 375
-0.994757, 33, 97, 96, 224
-0.994793, 193, 285, 320, 316
-0.994793, 477, 289, 492, 352
-0.994833, 1, 289, 128, 320
-0.994858, 193, 97, 256, 224
-0.99488, 67, 265, 82, 328
-0.994909, 413, 177, 444, 304
-0.994933, 253, 145, 284, 272
-0.994959, 81, 289, 208, 320
-0.995071, 305, 289, 432, 320
-0.995108, 1, 145, 32, 272
-0.995114, 145, 97, 208, 224
-0.995158, 209, 269, 336, 300
-0.995166, 117, 193, 148, 320
-0.995176, 317, 281, 332, 344
-0.995252, 385, 1, 448, 375
-0.995333, 277, 281, 292, 344
-0.995362, 305, 153, 432, 184
-0.995365, 17, 301, 144, 332
-0.995433, 297, 97, 328, 224
-0.995454, 225, 317, 352, 348
-0.995522, 307, 281, 322, 344
-0.995537, 369, 297, 496, 328
-0.995555, 465, 81, 496, 208
-0.995673, 1, 201, 500, 264
-0.995683, 257, 269, 384, 300
-0.995751, 61, 257, 76, 320
-0.995768, 257, 1, 320, 375
-0.995779, 1, 145, 500, 208
-0.995785, 327, 289, 342, 352
-0.995844, 417, 1, 480, 375
-0.995846, 413, 289, 428, 352
-0.995846, 463, 289, 478, 352
-0.995848, 381, 281, 396, 344
-0.995849, 483, 289, 498, 352
-0.995868, 65, 157, 192, 188
-0.99587, 69, 289, 84, 352
-0.995881, 91, 209, 106, 272
-0.995883, 49, 81, 176, 208
-0.995904, 391, 289, 406, 352
-0.99591, 181, 281, 196, 344
-0.99591, 205, 281, 220, 344
-0.995919, 57, 121, 120, 184
-0.995924, 241, 97, 304, 224
-0.995927, 95, 241, 110, 304
-0.995946, 161, 177, 416, 240
-0.99595, 135, 281, 150, 344
-0.995957, 129, 269, 256, 300
-0.995964, 471, 289, 486, 352
-0.995968, 283, 281, 298, 344
-0.995986, 257, 149, 384, 180
-0.995994, 211, 281, 226, 344
-0.996013, 57, 201, 72, 264
-0.996015, 177, 217, 304, 248
-0.996022, 47, 289, 62, 352
-0.996025, 1, 313, 500, 375
-0.996032, 177, 257, 304, 288
-0.99605, 33, 277, 160, 308
-0.996051, 265, 193, 296, 320
-0.996057, 369, 145, 496, 176
-0.99606, 317, 313, 332, 375
-0.996073, 297, 281, 312, 344
-0.996108, 361, 145, 376, 208
-0.99612, 175, 281, 190, 344
-0.996138, 371, 289, 386, 352
-0.996145, 129, 225, 384, 288
-0.996148, 1, 321, 128, 352
-0.996152, 67, 201, 82, 264
-0.996167, 85, 201, 100, 264
-0.996168, 97, 217, 224, 248
-0.99618, 1, 169, 128, 200
-0.996197, 1, 137, 256, 200
-0.99621, 353, 285, 480, 316
-0.99621, 129, 137, 256, 200
-0.996215, 289, 281, 304, 344
-0.996222, 97, 205, 224, 236
-0.996233, 145, 325, 272, 356
-0.996236, 129, 137, 384, 200
-0.996238, 401, 289, 416, 352
-0.996241, 61, 281, 76, 344
-0.996261, 193, 81, 320, 208
-0.996265, 241, 289, 368, 320
-0.996266, 1, 153, 128, 184
-0.996284, 145, 1, 208, 375
-0.996294, 1, 257, 500, 320
-0.996295, 485, 137, 500, 200
-0.996299, 85, 233, 100, 296
-0.9963, 289, 1, 352, 375
-0.996302, 49, 317, 176, 348
-0.996306, 1, 177, 500, 240
-0.996307, 145, 273, 160, 336
-0.996308, 79, 193, 94, 256
-0.996349, 257, 201, 500, 264
-0.996363, 145, 285, 272, 316
-0.996365, 161, 161, 288, 192
-0.996365, 257, 265, 272, 328
-0.996404, 125, 281, 140, 344
-0.99642, 241, 161, 368, 192
-0.996428, 209, 1, 272, 375
-0.99644, 189, 281, 204, 344
-0.996445, 233, 281, 248, 344
-0.996445, 199, 281, 214, 344
-0.996453, 447, 289, 462, 352
-0.996458, 219, 281, 234, 344
-0.99646, 101, 257, 116, 320
-0.996471, 33, 229, 160, 260
-0.996474, 1, 225, 500, 288
-0.996478, 311, 305, 326, 368
-0.996479, 251, 257, 266, 320
-0.996481, 115, 265, 130, 328
-0.996486, 89, 169, 104, 232
-0.996506, 81, 277, 208, 308
-0.996511, 265, 265, 280, 328
-0.996511, 169, 281, 184, 344
-0.996513, 271, 281, 286, 344
-0.996513, 237, 161, 252, 224
-0.996515, 433, 297, 448, 360
-0.99652, 335, 289, 350, 352
-0.99652, 455, 289, 470, 352
-0.99653, 45, 185, 60, 248
-0.996551, 73, 185, 88, 248
-0.996555, 461, 177, 492, 304
-0.996557, 419, 297, 434, 360
-0.99656, 17, 185, 144, 216
-0.996563, 227, 265, 242, 328
-0.99657, 447, 137, 462, 200
-0.996573, 1, 241, 128, 272
-0.996578, 363, 289, 378, 352
-0.996595, 161, 161, 176, 224
-0.996599, 433, 33, 496, 288
-0.9966, 97, 317, 224, 348
-0.99662, 107, 249, 122, 312
-0.996622, 221, 161, 236, 224
-0.996638, 55, 281, 70, 344
-0.996639, 97, 209, 112, 272
-0.996647, 329, 1, 392, 375
-0.99665, 57, 177, 72, 240
-0.996651, 407, 289, 422, 352
-0.996651, 427, 297, 442, 360
-0.996656, 49, 213, 176, 244
-0.996672, 229, 169, 244, 232
-0.996678, 33, 333, 160, 364
-0.996702, 347, 281, 362, 344
-0.996721, 51, 177, 66, 240
-0.996727, 439, 137, 454, 200
-0.996729, 353, 321, 480, 352
-0.996733, 117, 153, 132, 216
-0.996734, 73, 97, 104, 224
-0.996736, 113, 161, 240, 192
-0.996742, 75, 273, 90, 336
-0.996743, 121, 1, 184, 375
-0.996749, 423, 137, 438, 200
-0.996751, 11, 153, 26, 216
-0.996751, 67, 225, 82, 288
-0.996754, 209, 329, 336, 360
-0.996765, 323, 265, 338, 328
-0.996786, 469, 145, 484, 208
-0.996805, 65, 173, 192, 204
-0.996814, 369, 157, 496, 188
-0.996824, 193, 153, 208, 216
-0.996839, 145, 197, 272, 228
-0.996845, 125, 153, 140, 216
-0.996855, 161, 337, 288, 368
-0.996857, 361, 1, 424, 375
-0.996862, 245, 257, 260, 320
-0.996863, 235, 241, 250, 304
-0.996874, 1, 129, 64, 192
-0.996874, 187, 209, 202, 272
-0.996874, 1, 213, 128, 244
-0.996879, 159, 281, 174, 344
-0.996883, 159, 209, 174, 272
-0.996892, 151, 281, 166, 344
-0.996894, 79, 145, 94, 208
-0.996895, 273, 153, 288, 216
-0.996908, 1, 253, 128, 284
-0.996911, 51, 209, 66, 272
-0.99692, 479, 161, 494, 224
-0.996927, 177, 229, 304, 260
-0.996928, 63, 177, 78, 240
-0.996929, 341, 281, 356, 344
-0.996936, 225, 233, 480, 296
-0.996945, 77, 217, 92, 280
-0.996946, 337, 137, 352, 200
-0.996956, 287, 305, 302, 368
-0.996969, 65, 301, 192, 332
-0.996983, 273, 313, 400, 344
-0.996984, 169, 1, 232, 375
-0.996984, 103, 217, 118, 280
-0.996985, 231, 201, 246, 264
-0.996986, 267, 153, 282, 216
-0.996993, 135, 313, 150, 375
-0.996993, 225, 305, 352, 336
-0.996998, 181, 305, 196, 368
-0.997012, 119, 297, 134, 360
-0.997018, 33, 265, 160, 296
-0.997021, 81, 245, 208, 276
-0.997022, 415, 137, 430, 200
-0.997071, 3, 185, 18, 248
-0.997074, 137, 177, 152, 240
-0.997085, 161, 181, 288, 212
-0.997088, 129, 237, 256, 268
-0.997088, 205, 161, 220, 224
-0.997089, 381, 97, 412, 224
-0.997095, 423, 265, 438, 328
-0.997095, 293, 137, 308, 200
-0.997099, 453, 145, 468, 208
-0.997116, 301, 161, 316, 224
-0.997119, 129, 305, 144, 368
-0.997125, 199, 201, 214, 264
-0.997142, 357, 281, 372, 344
-0.997144, 233, 1, 296, 375
-0.997146, 153, 153, 168, 216
-0.997146, 237, 185, 252, 248
-0.997148, 441, 289, 456, 352
-0.997152, 369, 153, 384, 216
-0.997155, 433, 137, 448, 200
-0.997158, 257, 169, 500, 232
-0.997159, 283, 145, 298, 208
-0.997162, 63, 305, 78, 368
-0.997162, 323, 313, 338, 375
-0.997177, 245, 305, 260, 368
-0.997182, 71, 137, 86, 200
-0.997194, 337, 313, 352, 375
-0.997201, 243, 177, 258, 240
-0.997205, 387, 265, 402, 328
-0.997208, 295, 201, 310, 264
-0.997211, 355, 145, 370, 208
-0.997235, 305, 325, 432, 356
-0.997236, 81, 333, 208, 364
-0.997321, 241, 241, 368, 272
-0.997327, 193, 193, 320, 224
-0.997356, 257, 121, 500, 184
-0.997397, 305, 301, 432, 332
-0.997415, 161, 313, 288, 344
-0.997428, 257, 253, 384, 284
-0.997433, 305, 221, 432, 252
-0.997471, 225, 209, 352, 240
-0.997486, 353, 217, 480, 248
-0.997491, 201, 97, 232, 224
-0.997506, 337, 205, 464, 236
-0.997538, 337, 265, 464, 296
-0.997552, 65, 193, 192, 224
-0.997576, 81, 265, 208, 296
-0.997578, 1, 141, 128, 172
-0.997591, 209, 149, 336, 180
-0.997631, 81, 233, 208, 264
-0.997636, 273, 209, 400, 240
-0.997642, 57, 129, 88, 375
-0.997643, 107, 257, 122, 288
-0.997646, 353, 237, 480, 268
-0.997651, 305, 277, 432, 308
-0.997685, 273, 345, 400, 375
-0.997695, 321, 141, 448, 172
-0.997721, 293, 129, 324, 375
-0.997727, 477, 297, 492, 328
-0.997733, 17, 197, 144, 228
-0.99774, 257, 329, 384, 360
-0.997754, 65, 113, 192, 176
-0.997757, 209, 341, 336, 372
-0.997759, 129, 253, 256, 284
-0.997766, 65, 289, 80, 320
-0.997829, 381, 289, 396, 320
-0.997832, 113, 173, 240, 204
-0.997836, 177, 241, 304, 272
-0.997842, 433, 297, 448, 328
-0.997848, 103, 245, 118, 276
-0.997859, 273, 269, 288, 300
-0.997866, 353, 309, 480, 340
-0.997872, 353, 337, 480, 368
-0.997875, 75, 217, 90, 248
-0.997878, 307, 289, 322, 320
-0.997887, 113, 185, 240, 216
-0.997901, 93, 97, 124, 224
-0.997905, 93, 245, 108, 276
-0.997936, 87, 225, 102, 256
-0.997939, 225, 229, 352, 260
-0.997943, 425, 297, 440, 328
-0.997948, 319, 289, 334, 320
-0.997967, 361, 149, 376, 180
-0.997968, 465, 297, 480, 328
-0.997972, 129, 129, 192, 192
-0.997972, 373, 289, 388, 320
-0.997974, 99, 289, 114, 320
-0.997979, 49, 293, 64, 324
-0.997979, 197, 129, 228, 375
-0.997983, 293, 289, 308, 320
-0.997988, 67, 221, 82, 252
-0.99799, 377, 129, 408, 375
-0.997993, 225, 181, 352, 212
-0.998006, 161, 129, 192, 375
-0.998008, 387, 289, 402, 320
-0.998013, 443, 141, 458, 172
-0.998017, 435, 285, 450, 316
-0.998023, 117, 269, 132, 300
-0.998024, 285, 145, 300, 176
-0.998033, 425, 177, 456, 304
-0.998049, 313, 97, 344, 224
-0.998066, 283, 289, 298, 320
-0.998068, 85, 213, 100, 244
-0.998083, 301, 289, 316, 320
-0.998105, 71, 293, 86, 324
-0.998116, 105, 289, 120, 320
-0.998147, 177, 301, 304, 332
-0.998149, 291, 141, 306, 172
-0.99815, 483, 297, 498, 328
-0.998151, 267, 273, 282, 304
-0.998155, 57, 293, 72, 324
-0.99816, 265, 129, 296, 375
-0.998161, 53, 173, 68, 204
-0.998163, 181, 129, 212, 375
-0.998164, 113, 129, 144, 375
-0.998167, 213, 129, 244, 375
-0.998171, 367, 289, 382, 320
-0.998171, 13, 153, 28, 184
-0.998183, 449, 145, 464, 176
-0.99819, 81, 129, 112, 375
-0.998193, 409, 129, 440, 375
-0.998195, 341, 129, 372, 375
-0.998198, 257, 197, 384, 228
-0.9982, 229, 285, 244, 316
-0.998203, 181, 97, 212, 224
-0.998203, 313, 289, 328, 320
-0.998212, 219, 161, 234, 192
-0.998212, 259, 269, 274, 300
-0.998231, 321, 129, 352, 375
-0.998234, 3, 161, 18, 192
-0.998248, 85, 153, 100, 184
-0.998248, 91, 213, 106, 244
-0.998252, 361, 97, 392, 224
-0.998253, 427, 285, 442, 316
-0.998253, 251, 281, 266, 312
-0.998256, 101, 129, 132, 375
-0.998257, 223, 285, 238, 316
-0.99826, 71, 273, 86, 304
-0.998263, 99, 277, 114, 308
-0.998267, 409, 149, 424, 180
-0.998274, 95, 225, 110, 256
-0.998277, 47, 173, 62, 204
-0.99828, 149, 129, 180, 375
-0.998283, 25, 157, 40, 188
-0.998283, 321, 317, 336, 348
-0.998285, 269, 157, 284, 188
-0.998287, 231, 201, 246, 232
-0.998297, 181, 289, 196, 320
-0.998297, 195, 289, 210, 320
-0.998299, 201, 289, 216, 320
-0.998304, 81, 229, 96, 260
-0.998307, 161, 149, 288, 180
-0.998312, 281, 129, 312, 375
-0.998317, 339, 145, 354, 176
-0.998321, 345, 289, 360, 320
-0.998322, 441, 277, 456, 308
-0.998335, 175, 289, 190, 320
-0.998335, 79, 205, 94, 236
-0.998338, 25, 163, 56, 178
-0.998339, 77, 239, 108, 254
-0.998339, 273, 281, 304, 296
-0.99834, 225, 251, 256, 266
-0.99834, 33, 231, 64, 246
-0.998341, 65, 219, 96, 234
-0.998341, 249, 165, 280, 180
-0.998341, 97, 155, 128, 170
-0.998341, 361, 289, 376, 320
-0.998343, 349, 155, 380, 170
-0.998343, 193, 213, 224, 228
-0.998343, 469, 299, 500, 314
-0.998343, 125, 183, 156, 198
-0.998343, 89, 229, 120, 244
-0.998344, 45, 311, 76, 326
-0.998344, 293, 197, 324, 212
-0.998345, 457, 153, 488, 168
-0.998346, 57, 167, 88, 182
-0.998346, 317, 213, 348, 228
-0.998346, 93, 289, 108, 320
-0.998346, 469, 309, 500, 324
-0.998348, 261, 193, 292, 208
-0.998348, 181, 163, 212, 178
-0.998348, 125, 177, 156, 192
-0.998348, 13, 173, 44, 188
-0.998349, 221, 245, 252, 260
-0.998349, 5, 293, 36, 308
-0.998349, 233, 329, 264, 344
-0.99835, 93, 213, 124, 228
-0.99835, 401, 297, 432, 312
-0.99835, 97, 203, 128, 218
-0.99835, 19, 153, 34, 184
-0.998352, 437, 155, 468, 170
-0.998352, 237, 265, 268, 280
-0.998352, 97, 161, 128, 176
-0.998353, 149, 193, 180, 208
-0.998353, 153, 289, 184, 304
-0.998353, 225, 281, 256, 296
-0.998353, 67, 141, 82, 172
-0.998353, 237, 273, 252, 304
-0.998354, 89, 235, 120, 250
-0.998354, 121, 155, 152, 170
-0.998354, 97, 253, 128, 268
-0.998355, 169, 213, 200, 228
-0.998355, 469, 149, 500, 164
-0.998355, 21, 179, 52, 194
-0.998356, 309, 163, 340, 178
-0.998356, 305, 129, 336, 375
-0.998359, 185, 241, 216, 256
-0.99836, 61, 341, 92, 356
-0.998361, 77, 227, 108, 242
-0.998361, 205, 165, 236, 180
-0.998361, 89, 301, 120, 316
-0.998361, 57, 173, 88, 188
-0.998361, 45, 181, 76, 196
-0.998361, 373, 159, 404, 174
-0.998362, 257, 273, 288, 288
-0.998363, 1, 335, 32, 350
-0.998364, 137, 203, 168, 218
-0.998364, 25, 293, 56, 308
-0.998364, 125, 231, 156, 246
-0.998364, 33, 185, 64, 200
-0.998365, 61, 143, 92, 158
-0.998365, 381, 287, 412, 302
-0.998366, 189, 289, 204, 320
-0.998366, 393, 129, 424, 375
-0.998366, 157, 289, 172, 320
-0.998366, 245, 291, 276, 306
-0.998367, 185, 291, 216, 306
-0.998368, 257, 329, 288, 344
-0.998369, 167, 289, 182, 320
-0.99837, 193, 201, 224, 216
-0.99837, 77, 173, 108, 188
-0.99837, 141, 289, 172, 304
-0.998371, 237, 161, 268, 176
-0.998371, 53, 215, 84, 230
-0.998372, 33, 169, 64, 184
-0.998373, 413, 299, 444, 314
-0.998373, 415, 297, 430, 328
-0.998373, 229, 185, 244, 216
-0.998374, 261, 161, 292, 176
-0.998374, 469, 315, 500, 330
-0.998375, 353, 213, 384, 228
-0.998376, 471, 297, 486, 328
-0.998377, 177, 203, 208, 218
-0.998377, 93, 219, 124, 234
-0.998377, 273, 185, 400, 216
-0.998378, 77, 159, 108, 174
-0.998378, 217, 165, 248, 180
-0.998378, 157, 199, 188, 214
-0.99838, 261, 281, 292, 296
-0.99838, 21, 341, 52, 356
-0.998381, 409, 163, 440, 178
-0.998381, 289, 165, 416, 196
-0.998381, 45, 229, 76, 244
-0.998382, 37, 305, 68, 320
-0.998382, 65, 145, 192, 176
-0.998383, 341, 213, 372, 228
-0.998384, 305, 249, 432, 280
-0.998385, 109, 155, 140, 170
-0.998385, 425, 299, 456, 314
-0.998387, 145, 181, 176, 196
-0.998389, 217, 285, 232, 316
-0.998389, 317, 305, 348, 320
-0.99839, 9, 165, 40, 180
-0.998392, 217, 287, 248, 302
-0.998392, 41, 295, 72, 310
-0.998392, 47, 229, 62, 260
-0.998394, 73, 299, 104, 314
-0.998396, 205, 289, 236, 304
-0.998396, 41, 175, 72, 190
-0.998397, 133, 329, 148, 360
-0.998398, 53, 209, 84, 224
-0.998398, 455, 297, 470, 328
-0.998398, 207, 285, 222, 316
-0.998399, 251, 261, 266, 292
-0.998399, 233, 325, 248, 356
-0.998399, 81, 337, 112, 352
-0.9984, 329, 211, 360, 226
-0.998402, 369, 291, 400, 306
-0.998402, 433, 217, 448, 248
-0.998404, 389, 293, 420, 308
-0.998404, 441, 153, 456, 184
-0.998406, 77, 211, 108, 226
-0.998409, 173, 209, 188, 240
-0.998409, 97, 261, 128, 276
-0.99841, 25, 301, 56, 316
-0.99841, 285, 309, 300, 340
-0.998411, 97, 291, 128, 306
-0.998411, 281, 147, 312, 162
-0.998412, 241, 285, 256, 316
-0.998412, 449, 129, 480, 375
-0.998413, 253, 129, 284, 375
-0.998413, 145, 159, 176, 174
-0.998414, 65, 291, 96, 306
-0.998415, 87, 237, 102, 268
-0.998415, 77, 219, 108, 234
-0.998415, 277, 153, 308, 168
-0.998416, 449, 297, 464, 328
-0.998417, 271, 285, 286, 316
-0.998418, 195, 161, 210, 192
-0.998418, 255, 333, 270, 364
-0.998419, 77, 197, 108, 212
-0.998419, 65, 231, 96, 246
-0.99842, 101, 267, 132, 282
-0.998421, 397, 293, 412, 324
-0.998421, 401, 157, 432, 172
-0.998422, 439, 297, 454, 328
-0.998423, 249, 283, 280, 298
-0.998423, 101, 301, 116, 332
-0.998426, 469, 129, 500, 375
-0.998429, 349, 149, 380, 164
-0.998431, 99, 257, 114, 288
-0.998431, 161, 189, 176, 220
-0.998432, 57, 161, 72, 192
-0.998433, 435, 145, 450, 176
-0.998434, 289, 233, 416, 264
-0.998437, 405, 293, 420, 324
-0.998437, 421, 155, 452, 170
-0.998441, 189, 205, 204, 236
-0.998443, 69, 129, 100, 375
-0.998443, 41, 301, 56, 332
-0.998444, 405, 151, 436, 166
-0.998444, 337, 285, 352, 316
-0.998446, 61, 335, 92, 350
-0.998448, 111, 289, 126, 320
-0.998451, 233, 129, 264, 375
-0.998451, 61, 149, 92, 164
-0.998451, 41, 333, 72, 348
-0.998452, 381, 157, 396, 188
-0.998452, 69, 205, 84, 236
-0.998458, 333, 149, 364, 164
-0.998462, 127, 329, 142, 360
-0.998466, 187, 161, 202, 192
-0.998468, 315, 309, 330, 340
-0.998469, 123, 277, 138, 308
-0.998469, 421, 147, 452, 162
-0.99847, 297, 309, 328, 324
-0.998472, 57, 209, 72, 240
-0.998474, 3, 181, 18, 212
-0.998474, 169, 97, 200, 224
-0.998477, 51, 161, 66, 192
-0.998478, 257, 267, 288, 282
-0.998478, 41, 295, 104, 310
-0.998479, 237, 283, 268, 298
-0.99848, 149, 157, 164, 188
-0.99848, 65, 299, 128, 314
-0.998482, 69, 205, 100, 220
-0.998484, 9, 157, 40, 172
-0.998484, 139, 333, 154, 364
-0.998484, 21, 335, 52, 350
-0.998485, 145, 177, 160, 208
-0.998485, 241, 189, 256, 220
-0.998486, 433, 145, 464, 160
-0.998487, 395, 157, 410, 188
-0.998488, 377, 201, 392, 232
-0.998488, 79, 325, 94, 356
-0.998489, 329, 289, 344, 320
-0.99849, 275, 153, 290, 184
-0.998492, 231, 273, 246, 304
-0.998493, 39, 181, 54, 212
-0.998495, 153, 189, 168, 220
-0.998497, 401, 157, 416, 188
-0.998498, 77, 281, 92, 312
-0.998499, 33, 333, 96, 348
-0.998502, 257, 281, 272, 312
-0.998511, 65, 225, 96, 240
-0.998512, 409, 145, 440, 160
-0.998523, 409, 147, 472, 162
-0.998531, 37, 129, 68, 375
-0.998532, 1, 291, 64, 306
-0.998533, 65, 293, 128, 308
-0.998536, 41, 229, 104, 244
-0.998536, 77, 293, 108, 308
-0.998538, 53, 293, 84, 308
-0.998545, 89, 291, 152, 306
-0.998545, 273, 311, 336, 326
-0.99855, 225, 267, 288, 282
-0.998555, 57, 337, 120, 352
-0.998557, 257, 159, 320, 174
-0.998557, 81, 345, 208, 375
-0.998561, 17, 297, 80, 312
-0.998567, 273, 317, 336, 332
-0.99857, 361, 291, 424, 306
-0.998572, 365, 129, 396, 375
-0.998574, 49, 215, 112, 230
-0.998574, 17, 341, 80, 356
-0.998575, 25, 209, 88, 224
-0.998575, 1, 169, 64, 184
-0.99858, 193, 287, 256, 302
-0.998581, 369, 249, 496, 280
-0.998582, 385, 151, 448, 166
-0.998582, 49, 155, 112, 170
-0.998586, 321, 213, 384, 228
-0.998586, 289, 151, 352, 166
-0.998592, 17, 231, 80, 246
-0.998593, 225, 281, 288, 296
-0.998596, 49, 171, 112, 186
-0.998596, 321, 153, 384, 168
-0.998598, 137, 199, 200, 214
-0.998598, 73, 227, 136, 242
-0.9986, 25, 175, 88, 190
-0.9986, 57, 245, 120, 260
-0.9986, 81, 233, 144, 248
-0.998601, 409, 155, 472, 170
-0.998602, 361, 159, 424, 174
-0.998604, 401, 289, 464, 304
-0.998604, 41, 239, 104, 254
-0.998605, 49, 209, 112, 224
-0.998605, 9, 335, 72, 350
-0.998606, 25, 305, 88, 320
-0.998606, 65, 221, 128, 236
-0.998609, 65, 255, 128, 270
-0.99861, 313, 329, 376, 344
-0.99861, 161, 223, 224, 238
-0.998611, 385, 295, 448, 310
-0.998611, 81, 335, 144, 350
-0.998614, 113, 183, 176, 198
-0.998614, 17, 163, 80, 178
-0.998614, 177, 241, 240, 256
-0.998616, 305, 303, 368, 318
-0.998617, 433, 299, 496, 314
-0.998617, 17, 239, 80, 254
-0.998619, 153, 289, 216, 304
-0.998619, 185, 203, 248, 218
-0.998621, 281, 163, 344, 178
-0.998621, 401, 165, 464, 180
-0.998622, 337, 291, 400, 306
-0.998622, 57, 305, 120, 320
-0.998622, 145, 165, 208, 180
-0.998623, 33, 181, 96, 196
-0.998624, 73, 177, 136, 192
-0.998626, 201, 281, 264, 296
-0.998628, 225, 329, 288, 344
-0.998628, 249, 153, 312, 168
-0.998628, 297, 197, 360, 212
-0.998629, 41, 289, 104, 304
-0.998629, 41, 223, 104, 238
-0.998629, 217, 171, 280, 186
-0.99863, 97, 155, 160, 170
-0.99863, 217, 165, 280, 180
-0.998632, 57, 149, 120, 164
-0.998633, 145, 211, 208, 226
-0.998634, 225, 261, 288, 276
-0.998635, 321, 147, 384, 162
-0.998635, 433, 147, 496, 162
-0.998635, 409, 299, 472, 314
-0.998635, 105, 177, 168, 192
-0.998637, 113, 161, 176, 176
-0.998638, 185, 217, 248, 232
-0.998638, 17, 155, 80, 170
-0.998638, 65, 265, 128, 280
-0.998639, 209, 189, 272, 204
-0.998639, 337, 81, 368, 208
-0.998639, 289, 145, 352, 160
-0.998639, 337, 207, 400, 222
-0.998642, 185, 211, 248, 226
-0.998643, 233, 193, 296, 208
-0.998643, 177, 197, 240, 212
-0.998643, 265, 235, 328, 250
-0.998643, 25, 169, 88, 184
-0.998644, 385, 159, 448, 174
-0.998644, 33, 187, 96, 202
-0.998645, 385, 283, 448, 298
-0.998645, 25, 215, 88, 230
-0.998646, 1, 183, 64, 198
-0.998646, 433, 165, 496, 180
-0.998646, 153, 241, 216, 256
-0.998647, 177, 167, 240, 182
-0.998648, 201, 245, 264, 260
-0.998649, 425, 227, 488, 242
-0.998649, 105, 233, 168, 248
-0.99865, 73, 213, 136, 228
-0.998651, 233, 239, 296, 254
-0.998651, 1, 305, 64, 320
-0.998651, 225, 273, 288, 288
-0.998652, 345, 285, 408, 300
-0.998652, 161, 205, 224, 220
-0.998653, 249, 285, 312, 300
-0.998653, 129, 283, 192, 298
-0.998654, 313, 323, 376, 338
-0.998654, 73, 171, 136, 186
-0.998655, 433, 155, 496, 170
-0.998655, 257, 291, 320, 306
-0.998655, 289, 215, 352, 230
-0.998655, 129, 291, 192, 306
-0.998656, 201, 329, 264, 344
-0.998656, 73, 157, 136, 172
-0.998656, 89, 185, 152, 200
-0.998656, 25, 251, 88, 266
-0.998657, 257, 165, 320, 180
-0.998658, 49, 165, 112, 180
-0.998658, 137, 129, 168, 375
-0.998658, 217, 291, 280, 306
-0.998658, 225, 335, 288, 350
-0.998659, 137, 173, 200, 188
-0.998659, 257, 269, 320, 284
-0.998659, 281, 283, 344, 298
-0.998659, 249, 333, 312, 348
-0.998659, 137, 205, 200, 220
-0.99866, 1, 189, 64, 204
-0.998661, 193, 233, 256, 248
-0.998661, 337, 301, 400, 316
-0.998664, 113, 149, 240, 180
-0.998666, 421, 129, 452, 375
-0.998671, 445, 81, 476, 208
-0.998696, 61, 81, 92, 208
-0.998707, 29, 129, 60, 256
-0.998708, 353, 129, 384, 375
-0.998721, 321, 181, 448, 212
-0.998743, 65, 113, 320, 176
-0.998768, 437, 129, 468, 375
-0.998778, 257, 137, 384, 168
-0.998839, 129, 297, 256, 328
-0.998899, 125, 129, 156, 375
-0.998946, 5, 129, 36, 375
-0.998999, 33, 345, 160, 375
-0.999032, 369, 193, 496, 224
-0.999038, 337, 169, 464, 200
-0.999042, 321, 193, 448, 224
-0.999068, 65, 241, 80, 368
-0.999106, 377, 145, 392, 272
-0.999132, 475, 225, 490, 352
-0.999137, 75, 177, 90, 304
-0.999151, 435, 241, 450, 368
-0.999158, 63, 129, 78, 256
-0.999162, 463, 225, 478, 352
-0.999163, 97, 209, 112, 336
-0.999165, 387, 145, 402, 272
-0.999176, 73, 129, 88, 256
-0.99918, 61, 177, 76, 304
-0.999191, 55, 193, 70, 320
-0.999192, 67, 177, 82, 304
-0.999199, 193, 145, 208, 272
-0.999207, 87, 177, 102, 304
-0.999209, 81, 209, 96, 336
-0.999211, 79, 129, 94, 256
-0.999218, 71, 225, 86, 352
-0.999219, 271, 241, 286, 368
-0.999223, 107, 209, 122, 336
-0.999235, 429, 241, 444, 368
-0.999237, 393, 145, 408, 272
-0.999256, 237, 241, 252, 368
-0.99927, 205, 145, 220, 272
-0.999272, 369, 145, 384, 272
-0.999279, 481, 225, 496, 352
-0.999281, 341, 177, 372, 304
-0.999284, 469, 129, 484, 256
-0.999286, 423, 225, 438, 352
-0.999289, 113, 225, 128, 352
-0.999301, 369, 133, 496, 164
-0.999305, 47, 177, 62, 304
-0.999306, 235, 193, 250, 320
-0.999308, 153, 225, 168, 352
-0.999311, 361, 129, 376, 256
-0.999311, 223, 241, 238, 368
-0.999316, 469, 225, 484, 352
-0.999316, 91, 225, 106, 352
-0.999316, 399, 145, 414, 272
-0.999319, 483, 145, 498, 272
-0.99932, 41, 225, 56, 352
-0.999324, 247, 241, 262, 368
-0.999324, 145, 145, 160, 272
-0.999325, 179, 225, 194, 352
-0.999325, 439, 129, 454, 256
-0.999326, 213, 241, 228, 368
-0.999327, 241, 145, 256, 272
-0.999335, 413, 225, 428, 352
-0.999339, 265, 225, 280, 352
-0.999341, 85, 129, 100, 256
-0.999341, 1, 241, 64, 304
-0.999343, 297, 145, 312, 272
-0.999344, 259, 241, 274, 368
-0.999345, 431, 145, 446, 272
-0.999349, 55, 145, 70, 272
-0.999349, 59, 241, 74, 368
-0.99935, 351, 145, 366, 272
-0.999358, 233, 145, 248, 272
-0.999361, 287, 225, 302, 352
-0.999361, 135, 177, 150, 304
-0.999362, 175, 145, 190, 272
-0.999362, 231, 241, 246, 368
-0.999363, 455, 241, 470, 368
-0.999364, 163, 145, 178, 272
-0.99937, 387, 193, 402, 320
-0.999373, 199, 145, 214, 272
-0.999375, 49, 225, 64, 352
-0.999376, 187, 209, 202, 336
-0.999376, 315, 241, 330, 368
-0.999378, 325, 241, 340, 368
-0.999379, 401, 225, 416, 352
-0.999379, 423, 129, 438, 256
-0.999379, 447, 241, 462, 368
-0.999384, 207, 225, 222, 352
-0.999385, 409, 129, 424, 256
-0.999388, 169, 145, 184, 272
-0.999389, 429, 193, 444, 320
-0.999396, 25, 129, 56, 375
-0.999399, 37, 161, 52, 288
-0.999401, 377, 193, 392, 320
-0.999402, 393, 225, 408, 352
-0.999403, 303, 145, 318, 272
-0.999403, 93, 161, 108, 288
-0.999405, 291, 129, 306, 256
-0.999415, 155, 145, 170, 272
-0.999417, 441, 225, 456, 352
-0.999418, 345, 129, 360, 256
-0.99942, 147, 225, 162, 352
-0.999422, 195, 193, 210, 320
-0.999427, 281, 225, 296, 352
-0.999431, 315, 145, 330, 272
-0.999431, 283, 129, 298, 256
-0.999442, 211, 145, 226, 272
-0.999445, 371, 193, 386, 320
-0.999447, 477, 145, 492, 272
-0.999452, 337, 129, 352, 256
-0.999454, 333, 241, 348, 368
-0.999454, 31, 193, 46, 320
-0.999454, 407, 225, 422, 352
-0.999456, 181, 145, 196, 272
-0.999457, 131, 241, 146, 368
-0.999459, 119, 225, 134, 352
-0.999463, 187, 145, 202, 272
-0.999465, 341, 225, 356, 352
-0.999469, 219, 145, 234, 272
-0.99947, 415, 129, 430, 256
-0.999471, 253, 241, 268, 368
-0.999475, 225, 145, 240, 272
-0.999476, 129, 177, 144, 304
-0.999477, 201, 193, 216, 320
-0.999481, 169, 209, 184, 336
-0.999488, 245, 193, 260, 320
-0.999494, 215, 193, 230, 320
-0.999495, 117, 145, 132, 272
-0.999497, 321, 145, 336, 272
-0.999502, 451, 129, 466, 256
-0.999502, 459, 145, 474, 272
-0.999506, 377, 241, 392, 368
-0.999515, 201, 241, 216, 368
-0.999517, 295, 225, 310, 352
-0.999517, 365, 225, 380, 352
-0.99952, 307, 225, 322, 352
-0.99952, 435, 193, 450, 320
-0.999521, 141, 225, 156, 352
-0.999525, 481, 97, 496, 224
-0.999527, 103, 145, 118, 272
-0.999531, 123, 177, 138, 304
-0.999532, 109, 161, 124, 288
-0.999534, 159, 193, 174, 320
-0.999535, 25, 225, 40, 352
-0.999536, 309, 145, 324, 272
-0.999547, 257, 97, 288, 224
-0.999553, 183, 195, 198, 210
-0.999553, 377, 291, 392, 306
-0.999553, 3, 145, 18, 272
-0.999553, 445, 155, 460, 170
-0.999554, 37, 179, 52, 194
-0.999554, 213, 167, 228, 182
-0.999554, 445, 129, 460, 256
-0.999555, 343, 211, 358, 226
-0.999555, 419, 159, 434, 174
-0.999556, 245, 161, 260, 176
-0.999556, 437, 155, 452, 170
-0.999557, 67, 331, 82, 346
-0.999557, 123, 129, 138, 256
-0.999559, 3, 187, 18, 202
-0.999559, 61, 289, 76, 304
-0.999559, 47, 229, 62, 244
-0.999559, 33, 205, 48, 220
-0.999559, 73, 203, 88, 218
-0.99956, 35, 335, 50, 350
-0.99956, 35, 301, 50, 316
-0.999561, 397, 293, 412, 308
-0.999561, 57, 209, 72, 224
-0.999561, 415, 149, 430, 164
-0.999561, 409, 145, 424, 160
-0.999562, 475, 299, 490, 314
-0.999562, 149, 203, 164, 218
-0.999562, 271, 285, 286, 300
-0.999562, 55, 295, 70, 310
-0.999563, 257, 335, 272, 350
-0.999563, 9, 291, 24, 306
-0.999563, 265, 329, 280, 344
-0.999563, 89, 205, 104, 220
-0.999564, 259, 267, 274, 282
-0.999564, 231, 289, 246, 304
-0.999564, 75, 299, 90, 314
-0.999566, 341, 301, 356, 316
-0.999566, 37, 293, 52, 308
-0.999566, 477, 309, 492, 324
-0.999566, 69, 211, 84, 226
-0.999567, 437, 281, 452, 296
-0.999568, 151, 289, 166, 304
-0.999568, 465, 297, 480, 312
-0.999568, 235, 283, 250, 298
-0.999568, 47, 171, 62, 186
-0.999568, 119, 273, 134, 288
-0.999569, 345, 149, 360, 164
-0.999569, 117, 159, 132, 174
-0.99957, 285, 147, 300, 162
-0.99957, 3, 193, 18, 208
-0.99957, 193, 199, 208, 214
-0.999571, 353, 213, 368, 228
-0.999571, 57, 175, 72, 190
-0.999571, 125, 231, 140, 246
-0.999571, 287, 313, 302, 328
-0.999571, 99, 301, 114, 316
-0.999572, 305, 303, 320, 318
-0.999572, 39, 185, 54, 200
-0.999572, 273, 273, 288, 288
-0.999572, 91, 213, 106, 228
-0.999572, 69, 141, 84, 156
-0.999572, 7, 175, 22, 190
-0.999572, 99, 161, 114, 176
-0.999573, 19, 155, 34, 170
-0.999574, 77, 209, 92, 224
-0.999574, 329, 213, 344, 228
-0.999574, 311, 309, 326, 324
-0.999575, 73, 291, 88, 306
-0.999575, 23, 335, 38, 350
-0.999575, 211, 289, 226, 304
-0.999576, 93, 237, 108, 252
-0.999576, 447, 145, 462, 160
-0.999577, 77, 335, 92, 350
-0.999578, 291, 143, 306, 158
-0.999579, 337, 147, 352, 162
-0.999579, 171, 223, 186, 238
-0.999581, 37, 173, 52, 188
-0.999581, 433, 299, 448, 314
-0.999581, 65, 231, 80, 246
-0.999581, 199, 205, 214, 220
-0.999583, 85, 219, 100, 234
-0.999583, 265, 281, 280, 296
-0.999584, 47, 185, 62, 200
-0.999585, 83, 337, 98, 352
-0.999585, 89, 157, 104, 172
-0.999585, 97, 243, 112, 258
-0.999586, 441, 145, 456, 160
-0.999586, 185, 205, 200, 220
-0.999587, 11, 157, 26, 172
-0.999588, 205, 287, 220, 302
-0.999589, 427, 153, 442, 168
-0.999592, 47, 179, 62, 194
-0.999592, 111, 155, 126, 170
-0.999593, 241, 285, 256, 300
-0.999594, 157, 289, 172, 304
-0.999595, 255, 285, 270, 300
-0.999596, 85, 237, 100, 252
-0.999598, 427, 147, 442, 162
-0.999598, 77, 231, 92, 246
-0.999598, 113, 267, 128, 282
-0.9996, 67, 337, 82, 352
-0.9996, 101, 293, 116, 308
-0.999605, 145, 181, 160, 196
-0.999606, 383, 291, 398, 306
-0.999607, 273, 157, 288, 172
-0.999607, 319, 303, 334, 318
-0.999609, 425, 307, 440, 322
-0.999609, 41, 303, 56, 318
-0.999611, 269, 267, 284, 282
-0.999612, 435, 149, 450, 164
-0.999612, 91, 243, 106, 258
-0.999614, 425, 299, 440, 314
-0.999615, 63, 209, 78, 224
-0.999616, 249, 283, 264, 298
-0.999616, 67, 225, 82, 240
-0.999619, 95, 293, 110, 308
-0.999619, 421, 153, 436, 168
-0.999624, 75, 219, 90, 234
-0.999625, 409, 151, 424, 166
-0.999626, 385, 33, 448, 288
-0.999628, 391, 293, 406, 308
-0.999633, 47, 297, 62, 312
-0.999635, 79, 293, 94, 308
-0.999637, 219, 165, 234, 180
-0.999645, 73, 225, 88, 240
-0.999645, 421, 145, 436, 160
-0.999646, 361, 149, 376, 164
-0.999651, 415, 143, 430, 158
-0.999652, 99, 249, 114, 264
-0.999653, 89, 293, 104, 308
-0.999658, 67, 293, 82, 308
-0.999662, 79, 225, 94, 240
-0.999668, 87, 229, 102, 244
-0.99969, 107, 261, 122, 276
-0.999728, 103, 255, 118, 270
-0.99975, 41, 81, 72, 208
-0.999769, 237, 97, 268, 224
-0.999825, 369, 181, 496, 212
-0.999865, 417, 81, 448, 208
-0.999936, 321, 129, 448, 160
-0.99996, 49, 133, 176, 164
-0.999968, 461, 33, 492, 288
-0.999993, 177, 137, 304, 168
-1.00007, 25, 33, 88, 288
-1.00007, 69, 33, 100, 288
-1.00008, 1, 1, 500, 128
-1.00009, 429, 81, 460, 208
-1.0001, 145, 33, 208, 288
-1.00011, 57, 33, 88, 288
-1.00012, 65, 33, 128, 288
-1.00016, 25, 113, 88, 176
-1.0002, 345, 33, 408, 288
-1.00022, 369, 121, 496, 152
-1.00024, 425, 33, 456, 288
-1.00024, 113, 97, 144, 224
-1.00024, 449, 33, 480, 288
-1.00026, 397, 33, 428, 288
-1.00031, 325, 97, 356, 224
-1.00033, 373, 33, 404, 288
-1.00033, 1, 121, 500, 184
-1.00035, 437, 33, 468, 288
-1.00036, 357, 33, 388, 288
-1.00041, 385, 33, 416, 288
-1.00043, 97, 33, 128, 288
-1.00044, 449, 177, 480, 304
-1.00044, 41, 33, 72, 288
-1.00048, 317, 33, 348, 288
-1.00049, 289, 33, 320, 288
-1.00054, 333, 33, 364, 288
-1.00055, 113, 137, 240, 168
-1.00055, 193, 33, 224, 288
-1.0006, 213, 33, 244, 288
-1.00061, 81, 33, 112, 288
-1.00061, 5, 33, 36, 288
-1.00061, 413, 33, 444, 288
-1.00063, 149, 33, 180, 288
-1.00063, 237, 33, 268, 288
-1.00066, 33, 121, 160, 152
-1.00066, 177, 125, 304, 156
-1.00068, 393, 97, 424, 224
-1.00068, 345, 33, 376, 288
-1.00071, 257, 33, 500, 288
-1.00073, 273, 33, 304, 288
-1.00073, 257, 125, 384, 156
-1.00074, 281, 105, 344, 168
-1.00075, 305, 33, 336, 288
-1.00076, 177, 33, 208, 288
-1.00078, 25, 33, 56, 288
-1.00079, 261, 33, 292, 288
-1.00082, 305, 33, 368, 288
-1.00082, 133, 33, 164, 288
-1.00085, 121, 33, 152, 288
-1.00088, 249, 33, 280, 288
-1.0009, 161, 33, 192, 288
-1.00091, 221, 97, 252, 224
-1.00092, 105, 33, 168, 288
-1.00097, 321, 49, 448, 176
-1.00098, 157, 97, 188, 224
-1.00098, 217, 33, 280, 288
-1.00103, 225, 113, 352, 144
-1.00103, 273, 113, 400, 144
-1.00103, 97, 125, 224, 156
-1.00104, 161, 113, 416, 176
-1.00104, 225, 1, 256, 256
-1.00104, 1, 109, 128, 140
-1.00104, 49, 109, 176, 140
-1.00107, 1, 97, 128, 128
-1.00107, 49, 97, 176, 128
-1.00107, 369, 97, 496, 128
-1.00107, 97, 101, 224, 132
-1.00107, 145, 101, 272, 132
-1.00107, 193, 101, 320, 132
-1.00107, 241, 101, 368, 132
-1.00107, 289, 101, 416, 132
-1.00107, 337, 109, 464, 140
-1.00107, 113, 113, 240, 144
-1.00107, 161, 113, 288, 144
-1.00108, 273, 33, 336, 288
-1.00113, 129, 113, 256, 176
-1.00118, 405, 81, 436, 208
-1.00122, 409, 33, 472, 288
-1.00125, 109, 33, 140, 288
-1.00138, 349, 81, 380, 208
-1.00158, 257, 97, 500, 160
-1.00178, 281, 81, 312, 208
-1.00196, 129, 89, 384, 152
-1.00199, 177, 33, 240, 288
-1.002, 1, 89, 256, 152
-1.00206, 1, 1, 256, 64
-1.00212, 257, 1, 500, 64
-1.00212, 161, 17, 416, 80
-1.00212, 257, 25, 500, 88
-1.00212, 65, 41, 320, 104
-1.00212, 161, 41, 416, 104
-1.00212, 257, 49, 500, 112
-1.00212, 65, 65, 320, 128
-1.00212, 161, 65, 416, 128
-1.00212, 257, 73, 500, 136
-1.00243, 337, 97, 464, 160
-1.00249, 5, 97, 36, 224
-1.00253, 33, 89, 160, 152
-1.00253, 209, 89, 336, 152
-1.00259, 257, 89, 384, 152
-1.00283, 97, 89, 224, 152
-1.00283, 145, 89, 272, 152
-1.00284, 241, 33, 304, 288
-1.00291, 321, 1, 448, 64
-1.00291, 369, 1, 496, 64
-1.00291, 33, 17, 160, 80
-1.00291, 81, 17, 208, 80
-1.00291, 129, 17, 256, 80
-1.00291, 177, 17, 304, 80
-1.00291, 225, 17, 352, 80
-1.00291, 273, 17, 400, 80
-1.00291, 321, 25, 448, 88
-1.00291, 369, 25, 496, 88
-1.00291, 33, 41, 160, 104
-1.00291, 81, 41, 208, 104
-1.00291, 129, 41, 256, 104
-1.00291, 177, 41, 304, 104
-1.00291, 225, 41, 352, 104
-1.00291, 273, 41, 400, 104
-1.00291, 321, 49, 448, 112
-1.00291, 369, 49, 496, 112
-1.00291, 17, 65, 144, 128
-1.00291, 65, 65, 192, 128
-1.00291, 113, 65, 240, 128
-1.00291, 161, 65, 288, 128
-1.00291, 209, 65, 336, 128
-1.00291, 257, 65, 384, 128
-1.00291, 305, 73, 432, 136
-1.00291, 353, 73, 480, 136
-1.00329, 129, 81, 160, 208
-1.00369, 269, 81, 300, 208
-1.0038, 1, 41, 500, 104
-1.00385, 1, 17, 500, 80
-1.00386, 1, 73, 500, 136
-1.00398, 225, 49, 480, 176
-1.00412, 1, 33, 64, 288
-1.00412, 369, 105, 432, 168
-1.00422, 225, 113, 288, 176
-1.00439, 145, 81, 176, 208
-1.00476, 1, 65, 128, 192
-1.0048, 1, 97, 500, 160
-1.005, 21, 81, 52, 208
-1.00537, 81, 105, 144, 168
-1.00562, 145, 65, 272, 192
-1.00611, 65, 49, 320, 176
-1.00615, 321, 97, 384, 160
-1.00654, 433, 97, 496, 160
-1.00663, 345, 105, 408, 168
-1.00685, 289, 49, 352, 176
-1.00692, 121, 65, 184, 192
-1.00709, 77, 49, 108, 176
-1.00715, 185, 113, 248, 176
-1.00725, 365, 49, 396, 176
-1.00728, 249, 97, 312, 160
-1.00746, 293, 49, 324, 176
-1.00775, 393, 49, 424, 176
-1.00777, 317, 49, 348, 176
-1.00791, 113, 49, 144, 176
-1.00809, 57, 97, 120, 160
-1.00815, 1, 49, 500, 176
-1.00827, 33, 89, 96, 152
-1.00888, 257, 49, 288, 176
-1.00892, 105, 89, 168, 152
-1.00894, 289, 81, 352, 144
-1.00896, 377, 81, 440, 144
-1.00896, 401, 81, 464, 144
-1.00898, 93, 49, 124, 176
-1.00908, 281, 17, 312, 144
-1.00915, 61, 17, 92, 144
-1.00918, 329, 17, 360, 144
-1.0092, 185, 89, 248, 152
-1.0092, 209, 89, 272, 152
-1.00965, 233, 49, 296, 176
-1.00967, 65, 49, 128, 176
-1.00973, 273, 17, 400, 144
-1.00979, 1, 17, 128, 144
-1.00992, 49, 17, 176, 144
-1.01022, 193, 17, 320, 144
-1.01032, 97, 17, 224, 144
-1.01032, 145, 17, 272, 144
-1.01038, 353, 1, 480, 128
-1.0104, 361, 49, 424, 176
-1.01047, 33, 1, 288, 128
-1.01047, 129, 1, 384, 128
-1.01047, 225, 1, 480, 128
-1.01047, 17, 49, 80, 176
-1.01123, 329, 49, 392, 176
-1.0138, 257, 17, 320, 144
-1.01399, 401, 17, 464, 144
-1.01425, 41, 17, 104, 144
-1.01442, 329, 1, 392, 128
-1.01442, 353, 1, 416, 128
-1.01452, 105, 17, 168, 144
-1.01465, 185, 17, 248, 144
-1.01465, 209, 17, 272, 144
-1.01478, 17, 1, 80, 128
-1.01478, 81, 1, 144, 128
-1.01478, 233, 1, 296, 128
-1.01478, 297, 1, 360, 128
-1.01478, 377, 1, 440, 128
-1.01478, 137, 17, 200, 144
-1.01478, 161, 17, 224, 144
-1.01513, 425, 1, 488, 128
