2028
-0.566314, 1, 129, 406, 384
-0.61115, 1, 225, 406, 480
-0.613846, 1, 33, 406, 288
-0.640795, 1, 1, 406, 500
-0.765609, 129, 1, 384, 500
-0.803617, 161, 257, 406, 500
-0.822402, 33, 1, 288, 500
-0.822479, 97, 33, 352, 288
-0.849638, 161, 161, 406, 416
-0.901088, 33, 129, 288, 384
-0.904884, 161, 1, 288, 256
-0.914884, 209, 33, 336, 288
-0.918095, 161, 1, 288, 500
-0.91941, 113, 1, 240, 500
-0.92132, 257, 257, 384, 500
-0.927621, 33, 225, 288, 480
-0.928773, 1, 113, 406, 240
-0.930271, 1, 161, 406, 288
-0.930795, 81, 97, 208, 352
-0.931823, 113, 1, 240, 256
-0.934827, 145, 97, 272, 352
-0.938334, 225, 129, 352, 384
-0.940651, 225, 1, 352, 500
-0.946851, 1, 273, 406, 400
-0.948102, 1, 1, 128, 500
-0.948952, 1, 65, 406, 192
-0.948978, 161, 193, 288, 448
-0.94949, 1, 225, 406, 352
-0.95005, 65, 1, 192, 500
-0.952096, 65, 1, 192, 256
-0.953274, 1, 353, 406, 480
-0.95358, 161, 289, 406, 416
-0.953865, 209, 257, 336, 500
-0.955476, 337, 353, 400, 480
-0.957677, 273, 161, 400, 416
-0.959851, 161, 369, 406, 496
-0.961861, 97, 49, 352, 176
-0.961941, 161, 177, 406, 304
-0.962039, 113, 225, 240, 480
-0.962657, 33, 97, 160, 352
-0.962977, 97, 97, 352, 224
-0.963711, 345, 433, 406, 496
-0.965508, 177, 65, 304, 192
-0.965915, 273, 1, 400, 500
-0.966391, 161, 241, 406, 368
-0.966716, 161, 17, 288, 144
-0.967385, 129, 129, 192, 192
-0.96822, 129, 113, 192, 240
-0.968426, 17, 1, 144, 256
-0.969139, 257, 369, 384, 496
-0.969622, 113, 97, 240, 224
-0.971046, 65, 209, 320, 336
-0.971432, 1, 17, 406, 144
-0.972249, 321, 425, 384, 488
-0.973873, 257, 241, 384, 368
-0.973903, 341, 425, 372, 488
-0.974581, 177, 161, 304, 288
-0.974635, 105, 113, 168, 240
-0.974733, 129, 105, 192, 168
-0.974831, 17, 193, 144, 448
-0.97537, 289, 161, 352, 288
-0.975431, 65, 273, 320, 400
-0.976031, 209, 273, 336, 400
-0.976096, 337, 369, 400, 432
-0.976179, 225, 145, 352, 272
-0.976275, 217, 33, 280, 96
-0.976487, 313, 369, 376, 496
-0.976772, 337, 393, 400, 456
-0.976953, 273, 1, 400, 256
-0.978007, 349, 369, 380, 496
-0.978016, 65, 225, 192, 480
-0.97806, 361, 433, 392, 496
-0.978471, 153, 105, 216, 168
-0.978496, 329, 289, 392, 416
-0.97865, 105, 121, 168, 184
-0.978722, 153, 97, 216, 224
-0.979119, 217, 1, 280, 128
-0.9792, 105, 65, 168, 192
-0.97921, 129, 65, 192, 192
-0.979256, 241, 177, 304, 240
-0.979263, 281, 249, 344, 312
-0.979434, 65, 145, 320, 272
-0.979489, 81, 145, 208, 272
-0.979707, 225, 193, 352, 320
-0.979828, 305, 209, 368, 336
-0.979954, 249, 177, 312, 304
-0.979998, 217, 273, 280, 400
-0.980159, 105, 145, 168, 208
-0.980164, 257, 257, 320, 384
-0.980499, 233, 65, 296, 128
-0.98052, 305, 225, 368, 288
-0.980565, 273, 289, 400, 416
-0.980934, 233, 49, 296, 176
-0.981021, 129, 145, 256, 272
-0.981344, 65, 97, 192, 224
-0.981701, 97, 137, 224, 200
-0.981778, 33, 1, 288, 128
-0.982487, 281, 113, 344, 240
-0.982622, 345, 393, 376, 456
-0.982691, 289, 193, 352, 256
-0.982992, 361, 353, 392, 480
-0.982999, 313, 401, 376, 464
-0.983136, 257, 273, 320, 336
-0.983365, 217, 289, 280, 352
-0.983451, 305, 257, 368, 320
-0.983559, 161, 225, 288, 352
-0.983615, 113, 49, 240, 176
-0.98367, 257, 409, 384, 472
-0.983766, 177, 73, 304, 136
-0.983943, 225, 97, 352, 224
-0.98399, 217, 185, 280, 248
-0.984211, 193, 17, 256, 144
-0.984227, 1, 97, 256, 224
-0.9844, 333, 401, 364, 464
-0.984574, 177, 113, 304, 240
-0.984685, 201, 1, 264, 256
-0.984859, 129, 113, 256, 176
-0.985133, 281, 169, 344, 232
-0.985192, 1, 49, 256, 176
-0.985323, 65, 49, 192, 176
-0.985524, 209, 17, 336, 144
-0.985668, 193, 73, 256, 136
-0.985758, 141, 113, 172, 176
-0.985839, 201, 177, 264, 304
-0.98589, 257, 249, 320, 312
-0.986268, 193, 169, 256, 232
-0.986287, 153, 49, 216, 176
-0.986469, 153, 105, 184, 168
-0.986739, 273, 433, 400, 496
-0.98677, 201, 65, 264, 192
-0.986779, 329, 433, 360, 496
-0.986828, 177, 177, 304, 240
-0.986865, 241, 257, 368, 320
-0.987047, 241, 57, 272, 120
-0.987127, 161, 33, 288, 96
-0.987197, 177, 113, 240, 240
-0.9872, 193, 289, 320, 352
-0.987254, 337, 369, 368, 496
-0.987493, 273, 209, 336, 336
-0.987522, 145, 81, 208, 144
-0.987557, 305, 361, 368, 424
-0.987814, 161, 273, 288, 400
-0.98783, 1, 33, 256, 288
-0.987867, 225, 177, 352, 240
-0.988144, 1, 321, 256, 448
-0.988216, 73, 145, 136, 272
-0.988335, 273, 193, 400, 320
-0.988404, 329, 329, 392, 392
-0.988415, 305, 321, 368, 448
-0.988429, 1, 369, 256, 496
-0.98844, 105, 97, 168, 160
-0.988501, 225, 33, 288, 288
-0.988514, 129, 57, 256, 120
-0.988885, 373, 433, 404, 496
-0.988982, 217, 161, 280, 224
-0.989026, 153, 145, 216, 272
-0.989124, 281, 145, 344, 208
-0.989141, 49, 145, 176, 208
-0.98916, 225, 153, 352, 216
-0.989219, 113, 241, 240, 368
-0.989527, 353, 369, 384, 432
-0.989564, 321, 257, 384, 500
-0.98967, 73, 97, 136, 224
-0.989714, 81, 113, 208, 176
-0.989766, 257, 385, 384, 448
-0.989775, 229, 1, 260, 128
-0.989791, 249, 97, 312, 224
-0.989826, 185, 289, 248, 416
-0.98985, 345, 437, 406, 468
-0.990037, 117, 137, 148, 200
-0.990051, 313, 469, 376, 500
-0.990068, 129, 121, 160, 184
-0.990072, 129, 1, 192, 256
-0.990169, 129, 89, 256, 152
-0.990248, 273, 329, 400, 392
-0.990248, 289, 433, 352, 496
-0.99027, 289, 129, 352, 384
-0.990296, 17, 81, 144, 208
-0.990299, 193, 281, 256, 344
-0.9904, 193, 33, 256, 96
-0.990405, 257, 281, 384, 344
-0.990444, 145, 153, 272, 216
-0.990503, 129, 133, 192, 164
-0.990557, 153, 97, 216, 352
-0.990643, 289, 369, 352, 496
-0.990658, 137, 113, 168, 240
-0.990766, 321, 457, 384, 488
-0.990781, 281, 225, 344, 288
-0.990826, 353, 305, 384, 432
-0.990905, 65, 73, 192, 136
-0.990945, 373, 353, 404, 480
-0.990985, 257, 277, 320, 308
-0.990993, 249, 185, 312, 216
-0.991034, 281, 257, 344, 288
-0.991053, 145, 281, 272, 344
-0.991084, 153, 129, 216, 192
-0.991114, 321, 437, 384, 468
-0.991123, 253, 57, 284, 120
-0.99118, 81, 153, 144, 216
-0.991196, 249, 65, 312, 320
-0.991199, 241, 217, 368, 280
-0.9912, 293, 249, 324, 312
-0.991226, 121, 97, 152, 224
-0.991248, 241, 41, 304, 104
-0.991266, 337, 469, 400, 500
-0.991306, 225, 65, 288, 96
-0.991323, 281, 273, 344, 336
-0.991359, 209, 129, 272, 256
-0.991384, 329, 297, 392, 360
-0.991406, 33, 105, 160, 168
-0.991416, 241, 1, 272, 128
-0.991452, 177, 113, 240, 176
-0.991514, 201, 9, 264, 72
-0.991576, 225, 177, 288, 304
-0.991576, 113, 145, 176, 176
-0.991586, 329, 425, 392, 456
-0.991678, 233, 265, 296, 328
-0.9917, 201, 161, 264, 416
-0.991739, 153, 81, 184, 208
-0.991785, 281, 257, 344, 384
-0.991828, 177, 65, 240, 192
-0.991843, 297, 241, 360, 272
-0.991846, 177, 161, 240, 288
-0.991868, 225, 77, 288, 108
-0.991887, 129, 121, 192, 152
-0.991928, 305, 425, 368, 456
-0.991946, 185, 225, 248, 352
-0.992024, 113, 289, 240, 416
-0.992027, 225, 57, 352, 120
-0.992028, 281, 469, 344, 500
-0.992059, 153, 109, 216, 140
-0.992059, 357, 409, 388, 472
-0.992065, 305, 257, 368, 288
-0.992073, 337, 385, 400, 416
-0.992108, 105, 133, 168, 164
-0.992156, 337, 397, 400, 428
-0.9922, 225, 185, 288, 216
-0.992244, 249, 265, 312, 296
-0.992249, 337, 409, 400, 440
-0.992252, 177, 225, 304, 288
-0.992261, 341, 469, 372, 500
-0.992292, 341, 453, 372, 484
-0.992299, 225, 321, 352, 448
-0.992304, 281, 269, 344, 300
-0.992308, 353, 437, 384, 468
-0.992321, 201, 69, 264, 100
-0.992321, 233, 285, 296, 316
-0.992348, 129, 257, 256, 320
-0.992359, 193, 185, 256, 216
-0.992369, 281, 185, 344, 216
-0.992371, 209, 33, 336, 96
-0.992411, 345, 457, 406, 488
-0.992416, 281, 169, 344, 200
-0.992445, 313, 169, 376, 232
-0.992466, 81, 113, 144, 176
-0.992477, 257, 353, 384, 416
-0.992516, 153, 153, 216, 216
-0.992521, 289, 201, 352, 232
-0.992527, 305, 413, 368, 444
-0.992531, 305, 397, 368, 428
-0.992532, 341, 429, 372, 460
-0.992543, 209, 129, 336, 192
-0.992578, 209, 289, 272, 320
-0.992581, 217, 225, 280, 352
-0.992586, 137, 145, 200, 176
-0.992593, 217, 173, 280, 204
-0.992602, 169, 81, 232, 144
-0.992606, 169, 1, 232, 256
-0.992611, 293, 177, 324, 304
-0.992644, 333, 441, 364, 472
-0.992667, 241, 281, 272, 344
-0.992679, 313, 369, 376, 400
-0.992688, 297, 457, 360, 488
-0.992691, 217, 53, 280, 84
-0.992696, 89, 153, 152, 184
-0.992702, 65, 1, 192, 128
-0.992721, 257, 253, 320, 284
-0.992729, 201, 197, 264, 228
-0.992737, 149, 81, 180, 144
-0.992738, 201, 305, 264, 336
-0.992747, 129, 93, 192, 124
-0.99279, 133, 65, 164, 192
-0.992813, 265, 201, 328, 264
-0.992831, 193, 81, 256, 112
-0.992835, 345, 373, 406, 404
-0.992846, 153, 133, 216, 164
-0.992847, 241, 1, 304, 128
-0.992868, 105, 145, 136, 208
-0.992876, 273, 305, 400, 368
-0.992907, 297, 437, 360, 468
-0.992908, 257, 69, 320, 100
-0.992913, 177, 97, 304, 160
-0.992918, 153, 129, 184, 192
-0.992924, 121, 73, 184, 136
-0.992929, 129, 97, 192, 352
-0.992943, 305, 257, 368, 384
-0.992949, 265, 241, 328, 272
-0.992953, 329, 353, 392, 384
-0.992971, 169, 121, 232, 152
-0.992994, 305, 269, 368, 300
-0.992996, 241, 65, 272, 96
-0.993007, 89, 165, 152, 196
-0.993023, 305, 381, 368, 412
-0.993041, 297, 229, 360, 260
-0.993046, 241, 197, 304, 228
-0.993048, 193, 193, 256, 256
-0.993048, 353, 461, 384, 492
-0.993056, 161, 97, 224, 128
-0.99306, 293, 257, 324, 288
-0.993061, 329, 465, 360, 496
-0.993071, 249, 469, 312, 500
-0.993072, 225, 1, 288, 500
-0.993082, 345, 389, 376, 420
-0.993083, 169, 1, 232, 500
-0.993088, 277, 273, 308, 304
-0.993114, 185, 293, 248, 324
-0.993125, 241, 285, 272, 316
-0.993125, 201, 29, 264, 60
-0.993132, 105, 121, 168, 152
-0.993133, 261, 277, 292, 308
-0.99315, 125, 133, 156, 164
-0.993161, 329, 429, 360, 460
-0.993167, 137, 129, 168, 160
-0.993169, 329, 453, 360, 484
-0.99317, 365, 441, 396, 472
-0.993175, 293, 225, 324, 352
-0.993186, 333, 417, 364, 448
-0.99319, 357, 377, 388, 408
-0.99322, 377, 441, 406, 472
-0.993221, 129, 105, 192, 136
-0.993224, 305, 257, 336, 288
-0.993227, 233, 297, 296, 328
-0.993229, 153, 113, 184, 144
-0.99325, 293, 245, 324, 276
-0.99325, 253, 185, 284, 216
-0.993256, 249, 173, 312, 204
-0.993257, 293, 269, 324, 300
-0.993262, 345, 401, 376, 432
-0.993288, 253, 69, 284, 100
-0.993289, 225, 29, 288, 60
-0.993295, 277, 261, 308, 292
-0.993305, 113, 153, 144, 184
-0.993316, 353, 421, 384, 452
-0.993325, 313, 293, 376, 324
-0.993326, 153, 133, 184, 164
-0.993327, 353, 449, 384, 480
-0.993345, 81, 141, 144, 172
-0.993354, 193, 57, 256, 88
-0.993359, 141, 117, 172, 148
-0.993363, 365, 353, 396, 416
-0.99337, 113, 141, 144, 172
-0.993373, 229, 49, 260, 112
-0.993378, 241, 17, 304, 80
-0.99338, 229, 81, 260, 112
-0.993382, 241, 189, 272, 220
-0.993382, 169, 145, 232, 176
-0.993385, 137, 89, 168, 152
-0.993401, 365, 365, 396, 396
-0.993403, 81, 125, 144, 156
-0.993404, 265, 177, 296, 208
-0.993409, 261, 265, 292, 296
-0.99341, 225, 273, 288, 304
-0.99341, 309, 469, 340, 500
-0.993421, 321, 217, 352, 280
-0.993423, 193, 173, 256, 204
-0.993427, 281, 149, 344, 180
-0.993428, 245, 33, 276, 96
-0.993455, 177, 145, 240, 208
-0.993462, 105, 105, 168, 136
-0.993471, 129, 177, 256, 240
-0.993472, 229, 69, 260, 100
-0.993472, 201, 41, 264, 72
-0.993473, 257, 57, 320, 88
-0.993475, 305, 245, 336, 276
-0.993475, 241, 77, 272, 108
-0.993481, 241, 41, 304, 72
-0.993482, 233, 89, 296, 120
-0.993497, 57, 169, 120, 200
-0.9935, 325, 389, 356, 420
-0.993502, 277, 181, 308, 212
-0.993504, 1, 361, 64, 392
-0.993509, 253, 289, 284, 320
-0.993511, 365, 425, 396, 456
-0.993512, 225, 289, 256, 320
-0.993521, 377, 429, 406, 460
-0.993523, 321, 241, 352, 272
-0.993523, 313, 177, 376, 208
-0.993523, 161, 309, 224, 340
-0.993525, 309, 181, 340, 212
-0.993533, 305, 149, 336, 180
-0.993534, 329, 313, 392, 344
-0.993536, 217, 69, 248, 100
-0.993539, 97, 81, 160, 112
-0.993543, 249, 273, 280, 304
-0.99355, 321, 441, 352, 472
-0.993553, 249, 49, 280, 176
-0.993554, 281, 469, 312, 500
-0.993556, 253, 81, 284, 112
-0.993559, 309, 193, 340, 224
-0.993565, 341, 369, 372, 400
-0.993567, 169, 101, 200, 132
-0.993572, 101, 157, 132, 188
-0.993577, 377, 353, 406, 384
-0.993578, 313, 281, 376, 312
-0.99358, 313, 165, 376, 196
-0.993589, 225, 261, 288, 292
-0.993593, 325, 405, 356, 436
-0.993593, 297, 193, 328, 224
-0.993596, 321, 225, 352, 256
-0.993596, 177, 321, 240, 352
-0.9936, 289, 181, 320, 212
-0.993611, 241, 21, 272, 52
-0.993611, 301, 233, 332, 264
-0.993615, 1, 469, 64, 500
-0.993617, 265, 129, 328, 160
-0.993617, 253, 57, 284, 88
-0.993621, 229, 33, 260, 64
-0.993629, 205, 181, 236, 212
-0.99363, 213, 293, 244, 324
-0.993635, 141, 141, 172, 172
-0.99364, 157, 101, 188, 132
-0.993641, 229, 181, 260, 212
-0.993653, 281, 281, 344, 312
-0.993654, 353, 357, 384, 388
-0.993658, 229, 57, 260, 88
-0.993662, 249, 37, 280, 68
-0.993663, 321, 417, 352, 448
-0.993663, 229, 197, 260, 228
-0.993668, 281, 249, 312, 280
-0.993668, 165, 133, 196, 164
-0.993672, 305, 241, 336, 304
-0.993672, 141, 93, 172, 124
-0.993675, 241, 297, 272, 328
-0.993675, 325, 165, 356, 196
-0.993676, 177, 133, 240, 164
-0.993679, 177, 69, 240, 100
-0.993681, 325, 253, 356, 284
-0.993687, 293, 465, 324, 496
-0.99369, 257, 289, 320, 320
-0.993692, 137, 157, 200, 188
-0.993693, 237, 273, 268, 304
-0.993696, 213, 305, 244, 336
-0.993697, 265, 65, 296, 96
-0.993698, 337, 329, 400, 360
-0.993698, 125, 145, 156, 176
-0.993701, 313, 209, 344, 240
-0.993701, 309, 169, 340, 200
-0.993705, 153, 181, 216, 212
-0.993708, 233, 45, 264, 76
-0.993709, 337, 285, 368, 316
-0.993713, 153, 89, 184, 120
-0.993716, 101, 169, 132, 200
-0.993719, 1, 469, 32, 500
-0.993721, 169, 157, 232, 188
-0.993722, 357, 345, 388, 376
-0.993729, 241, 89, 272, 120
-0.993734, 305, 273, 336, 304
-0.993736, 265, 217, 328, 248
-0.993738, 333, 265, 364, 296
-0.99374, 337, 341, 400, 372
-0.99374, 201, 321, 232, 352
-0.99374, 369, 377, 400, 408
-0.993743, 89, 165, 120, 196
-0.993743, 317, 457, 348, 488
-0.993751, 293, 133, 324, 164
-0.993752, 257, 153, 320, 216
-0.993752, 217, 193, 248, 224
-0.993755, 229, 301, 260, 332
-0.993757, 93, 141, 124, 172
-0.993758, 345, 297, 376, 328
-0.99376, 377, 365, 406, 396
-0.993771, 201, 301, 232, 332
-0.993775, 309, 137, 340, 168
-0.993776, 217, 81, 248, 112
-0.993779, 305, 189, 368, 220
-0.993779, 205, 65, 236, 96
-0.99378, 365, 469, 396, 500
-0.993785, 129, 109, 160, 140
-0.993789, 229, 21, 260, 52
-0.993794, 193, 157, 256, 188
-0.993794, 1, 373, 32, 404
-0.993795, 201, 469, 264, 500
-0.993796, 289, 213, 352, 244
-0.993796, 225, 469, 288, 500
-0.993802, 77, 173, 108, 204
-0.993804, 329, 377, 360, 408
-0.993804, 325, 153, 356, 184
-0.993807, 357, 389, 388, 420
-0.993808, 293, 281, 324, 312
-0.993811, 361, 333, 392, 364
-0.993817, 209, 17, 272, 48
-0.993819, 241, 201, 272, 232
-0.99382, 269, 469, 300, 500
-0.993822, 357, 321, 388, 352
-0.993829, 121, 81, 184, 112
-0.993833, 177, 305, 240, 368
-0.993835, 113, 157, 176, 188
-0.993836, 89, 177, 152, 208
-0.99384, 57, 149, 120, 180
-0.993865, 277, 161, 308, 288
-0.993867, 177, 281, 240, 312
-0.993885, 161, 49, 224, 80
-0.993887, 165, 105, 196, 168
-0.993887, 105, 69, 168, 100
-0.993887, 113, 169, 176, 200
-0.993888, 265, 197, 328, 228
-0.993893, 345, 281, 406, 312
-0.993894, 209, 257, 272, 320
-0.993896, 329, 225, 392, 256
-0.993906, 217, 321, 280, 352
-0.993908, 321, 153, 384, 184
-0.993921, 277, 209, 308, 336
-0.993927, 177, 333, 240, 364
-0.993929, 193, 145, 256, 176
-0.993931, 217, 161, 280, 192
-0.993932, 161, 169, 224, 200
-0.993956, 169, 469, 232, 500
-0.993964, 253, 177, 284, 240
-0.993968, 25, 469, 88, 500
-0.993975, 201, 277, 264, 308
-0.993985, 113, 185, 176, 216
-0.993986, 161, 321, 288, 448
-0.994, 177, 81, 208, 208
-0.99403, 225, 73, 256, 136
-0.994041, 273, 193, 400, 256
-0.994058, 347, 425, 362, 488
-0.994074, 261, 273, 292, 336
-0.994096, 309, 145, 340, 272
-0.994099, 177, 249, 304, 312
-0.994157, 33, 161, 160, 288
-0.994186, 113, 313, 240, 376
-0.994188, 257, 225, 320, 288
-0.994304, 177, 161, 240, 416
-0.994308, 297, 225, 360, 480
-0.994309, 145, 49, 208, 112
-0.994406, 177, 201, 304, 264
-0.994417, 161, 1, 406, 128
-0.994434, 245, 273, 276, 400
-0.994524, 339, 401, 354, 464
-0.994571, 353, 425, 368, 488
-0.99458, 97, 161, 160, 288
-0.994584, 113, 1, 240, 128
-0.9946, 241, 185, 272, 248
-0.994639, 289, 113, 320, 240
-0.994651, 193, 313, 320, 376
-0.994689, 347, 385, 362, 448
-0.994698, 237, 81, 268, 144
-0.99472, 357, 321, 388, 384
-0.994735, 317, 193, 348, 320
-0.994871, 313, 185, 344, 248
-0.994927, 49, 169, 176, 232
-0.99493, 289, 385, 352, 448
-0.994939, 161, 409, 406, 472
-0.994955, 145, 1, 208, 500
-0.995038, 265, 257, 296, 384
-0.995165, 361, 433, 376, 496
-0.995167, 329, 209, 360, 336
-0.995169, 153, 177, 216, 240
-0.995184, 105, 145, 136, 272
-0.995187, 161, 281, 406, 344
-0.995347, 169, 41, 232, 104
-0.995426, 97, 201, 224, 264
-0.995576, 161, 273, 224, 400
-0.995586, 241, 89, 304, 152
-0.995624, 273, 161, 400, 224
-0.995631, 145, 9, 272, 72
-0.995654, 305, 281, 368, 344
-0.995656, 305, 145, 336, 208
-0.995657, 233, 161, 296, 416
-0.995684, 113, 33, 240, 96
-0.995709, 201, 1, 264, 500
-0.995775, 273, 145, 400, 272
-0.995786, 341, 369, 372, 432
-0.995802, 225, 289, 256, 352
-0.995811, 153, 33, 184, 160
-0.99585, 273, 97, 304, 224
-0.995861, 57, 137, 120, 200
-0.995959, 233, 177, 264, 304
-0.995975, 321, 145, 384, 208
-0.996036, 333, 249, 364, 312
-0.996077, 217, 137, 280, 200
-0.996093, 209, 425, 336, 488
-0.996107, 105, 33, 168, 288
-0.996113, 225, 9, 352, 72
-0.996134, 97, 193, 224, 320
-0.996141, 281, 241, 312, 304
-0.996162, 165, 129, 196, 192
-0.99619, 321, 145, 384, 272
-0.996194, 161, 225, 224, 352
-0.996201, 325, 369, 356, 432
-0.996206, 273, 265, 304, 328
-0.996209, 229, 25, 260, 88
-0.996213, 245, 177, 276, 304
-0.996259, 113, 113, 144, 176
-0.996265, 145, 433, 272, 496
-0.99628, 165, 97, 196, 224
-0.996284, 277, 257, 308, 384
-0.996301, 373, 409, 404, 472
-0.996302, 341, 425, 356, 488
-0.996349, 121, 1, 184, 500
-0.996357, 97, 113, 352, 176
-0.996362, 185, 257, 248, 320
-0.996477, 281, 1, 344, 500
-0.996525, 177, 97, 208, 160
-0.996529, 257, 65, 320, 128
-0.996559, 161, 185, 406, 248
-0.996572, 1, 129, 128, 192
-0.996572, 1, 345, 64, 408
-0.996579, 133, 145, 164, 208
-0.996583, 265, 145, 296, 272
-0.996584, 65, 49, 192, 112
-0.99661, 229, 161, 260, 224
-0.996643, 209, 185, 336, 216
-0.99665, 345, 257, 406, 500
-0.996652, 233, 257, 264, 384
-0.996666, 97, 289, 224, 352
-0.996672, 213, 297, 244, 360
-0.996693, 153, 289, 216, 352
-0.996722, 145, 337, 272, 400
-0.996743, 257, 225, 320, 480
-0.996744, 113, 129, 240, 160
-0.996751, 73, 1, 136, 500
-0.996778, 205, 169, 236, 232
-0.99679, 225, 81, 352, 144
-0.996793, 251, 57, 266, 120
-0.996806, 97, 145, 224, 176
-0.996814, 243, 57, 258, 120
-0.996817, 125, 97, 156, 160
-0.996825, 249, 1, 312, 500
-0.996827, 333, 433, 348, 496
-0.996838, 325, 161, 356, 224
-0.996846, 143, 121, 158, 184
-0.996879, 257, 461, 384, 492
-0.996882, 161, 433, 406, 496
-0.996886, 129, 241, 384, 304
-0.996924, 65, 145, 320, 208
-0.996928, 241, 297, 304, 360
-0.996928, 1, 185, 406, 248
-0.996942, 209, 401, 336, 464
-0.997004, 329, 321, 360, 448
-0.997017, 161, 385, 406, 448
-0.99702, 65, 265, 320, 328
-0.997022, 153, 113, 168, 176
-0.997029, 97, 73, 160, 136
-0.997055, 353, 461, 368, 492
-0.997072, 367, 433, 382, 496
-0.997074, 273, 177, 304, 240
-0.997075, 161, 345, 406, 408
-0.997077, 97, 65, 352, 128
-0.997079, 237, 65, 268, 192
-0.997084, 217, 41, 248, 104
-0.9971, 281, 121, 344, 184
-0.997126, 245, 225, 276, 352
-0.997131, 1, 129, 406, 192
-0.99714, 225, 281, 352, 312
-0.997146, 161, 65, 288, 96
-0.997177, 129, 17, 192, 144
-0.997183, 161, 393, 288, 456
-0.997184, 389, 433, 404, 496
-0.997188, 257, 429, 384, 460
-0.997211, 257, 33, 384, 160
-0.997222, 345, 429, 360, 460
-0.997234, 375, 433, 390, 496
-0.997234, 345, 441, 360, 472
-0.997249, 369, 361, 384, 424
-0.997282, 359, 409, 374, 472
-0.997286, 129, 217, 384, 280
-0.997289, 81, 233, 208, 296
-0.997336, 57, 169, 120, 232
-0.997342, 209, 73, 336, 104
-0.997347, 293, 225, 324, 288
-0.99735, 65, 33, 320, 96
-0.997361, 169, 33, 200, 160
-0.997369, 49, 25, 176, 88
-0.997406, 165, 105, 180, 168
-0.997407, 349, 345, 380, 408
-0.997417, 241, 413, 368, 444
-0.997419, 355, 437, 370, 468
-0.997422, 65, 265, 192, 328
-0.997457, 137, 121, 152, 184
-0.997478, 117, 145, 132, 208
-0.99748, 381, 433, 396, 496
-0.997487, 113, 393, 240, 456
-0.997509, 221, 273, 252, 400
-0.997514, 49, 209, 176, 336
-0.997521, 97, 89, 352, 152
-0.997535, 257, 265, 384, 296
-0.997545, 201, 305, 232, 432
-0.997557, 351, 449, 366, 480
-0.997563, 353, 385, 368, 448
-0.997576, 273, 441, 400, 472
-0.997584, 129, 117, 256, 148
-0.997592, 1, 153, 128, 216
-0.997594, 315, 233, 330, 296
-0.997605, 181, 145, 212, 272
-0.997631, 257, 57, 272, 120
-0.997667, 229, 1, 260, 256
-0.997675, 105, 129, 168, 384
-0.997687, 237, 257, 268, 320
-0.997699, 249, 17, 264, 80
-0.997716, 241, 397, 368, 428
-0.997728, 253, 273, 268, 336
-0.997755, 171, 105, 186, 168
-0.997772, 359, 377, 374, 440
-0.997778, 145, 89, 160, 152
-0.997782, 309, 241, 324, 304
-0.997797, 209, 173, 336, 204
-0.997807, 293, 193, 324, 256
-0.997808, 339, 425, 354, 456
-0.997814, 65, 289, 320, 352
-0.997827, 145, 285, 272, 316
-0.997829, 209, 369, 336, 432
-0.997832, 237, 57, 252, 120
-0.997849, 363, 345, 378, 408
-0.997858, 1, 337, 128, 400
-0.997872, 155, 89, 170, 152
-0.997874, 253, 1, 284, 128
-0.997891, 257, 253, 384, 284
-0.997893, 161, 77, 288, 108
-0.997901, 65, 93, 192, 124
-0.997948, 369, 321, 384, 384
-0.997954, 361, 437, 376, 468
-0.99796, 65, 193, 320, 256
-0.99797, 113, 105, 240, 136
-0.997978, 65, 169, 320, 232
-0.997979, 345, 265, 406, 328
-0.997983, 341, 289, 372, 416
-0.997989, 259, 177, 274, 240
-0.998002, 365, 305, 396, 432
-0.998005, 169, 129, 184, 192
-0.998015, 97, 121, 128, 184
-0.998015, 193, 293, 320, 324
-0.998017, 17, 225, 144, 288
-0.998018, 161, 185, 288, 216
-0.998026, 129, 233, 256, 296
-0.998026, 109, 153, 124, 216
-0.998031, 125, 137, 140, 200
-0.998039, 161, 53, 288, 84
-0.998041, 225, 257, 288, 500
-0.998057, 239, 81, 254, 144
-0.998062, 337, 437, 352, 468
-0.998066, 49, 129, 176, 160
-0.998067, 145, 93, 272, 124
-0.998071, 1, 281, 406, 344
-0.998085, 243, 17, 258, 80
-0.998094, 345, 457, 360, 488
-0.998097, 97, 1, 160, 500
-0.998102, 349, 393, 364, 424
-0.998103, 213, 17, 244, 144
-0.998104, 263, 57, 278, 120
-0.998121, 341, 469, 356, 500
-0.998135, 321, 241, 352, 304
-0.998141, 377, 337, 406, 400
-0.99815, 131, 137, 146, 200
-0.998152, 241, 293, 368, 324
-0.998156, 357, 353, 372, 416
-0.998166, 375, 345, 390, 408
-0.998171, 321, 185, 336, 248
-0.998173, 161, 305, 406, 368
-0.998174, 129, 185, 192, 248
-0.998176, 337, 449, 352, 480
-0.998177, 243, 281, 258, 344
-0.998186, 319, 161, 334, 224
-0.998189, 309, 265, 340, 328
-0.998192, 201, 145, 232, 272
-0.998211, 313, 201, 376, 264
-0.998214, 105, 169, 168, 232
-0.998231, 351, 353, 366, 416
-0.998232, 225, 197, 352, 228
-0.998235, 257, 385, 384, 416
-0.998237, 161, 145, 192, 160
-0.998237, 257, 271, 288, 286
-0.998237, 101, 151, 132, 166
-0.998238, 229, 189, 260, 204
-0.998238, 377, 361, 406, 376
-0.998238, 257, 289, 288, 304
-0.998239, 329, 265, 360, 280
-0.998239, 297, 199, 328, 214
-0.998239, 133, 139, 164, 154
-0.998241, 321, 237, 352, 252
-0.998241, 141, 145, 172, 160
-0.998242, 221, 75, 252, 90
-0.998243, 253, 81, 284, 96
-0.998243, 277, 183, 308, 198
-0.998244, 269, 479, 300, 494
-0.998244, 325, 411, 356, 426
-0.998244, 249, 63, 280, 78
-0.998244, 305, 179, 336, 194
-0.998244, 345, 385, 376, 400
-0.998245, 349, 371, 380, 386
-0.998246, 351, 425, 366, 456
-0.998246, 353, 427, 384, 442
-0.998247, 233, 241, 296, 304
-0.998248, 321, 231, 352, 246
-0.99825, 169, 485, 200, 500
-0.99825, 309, 187, 340, 202
-0.998254, 97, 369, 224, 432
-0.998256, 165, 109, 196, 124
-0.998256, 241, 485, 272, 500
-0.998258, 289, 479, 320, 494
-0.998258, 345, 411, 376, 426
-0.99826, 273, 263, 304, 278
-0.99826, 341, 379, 372, 394
-0.99826, 337, 391, 368, 406
-0.998261, 237, 87, 268, 102
-0.998262, 233, 195, 264, 210
-0.998262, 373, 367, 404, 382
-0.998262, 325, 405, 356, 420
-0.998263, 289, 187, 320, 202
-0.998263, 233, 71, 264, 86
-0.998264, 153, 139, 184, 154
-0.998265, 321, 437, 352, 452
-0.998267, 1, 41, 128, 104
-0.998267, 353, 447, 384, 462
-0.998267, 161, 81, 176, 144
-0.998268, 357, 433, 388, 448
-0.99827, 281, 257, 312, 272
-0.99827, 245, 193, 276, 208
-0.998271, 113, 485, 144, 500
-0.998272, 325, 417, 356, 432
-0.998273, 269, 269, 300, 284
-0.998275, 145, 485, 176, 500
-0.998275, 153, 113, 184, 128
-0.998275, 345, 405, 376, 420
-0.998276, 305, 247, 336, 262
-0.998278, 225, 295, 256, 310
-0.998278, 209, 485, 240, 500
-0.99828, 129, 485, 160, 500
-0.998282, 93, 485, 124, 500
-0.998282, 149, 125, 180, 140
-0.998284, 305, 263, 336, 278
-0.998284, 253, 185, 268, 248
-0.998284, 241, 1, 272, 256
-0.998285, 49, 485, 80, 500
-0.998285, 345, 413, 360, 444
-0.998286, 221, 485, 252, 500
-0.998287, 257, 485, 288, 500
-0.998287, 253, 75, 284, 90
-0.998287, 309, 193, 340, 208
-0.998288, 113, 157, 144, 172
-0.998289, 329, 399, 360, 414
-0.998291, 77, 485, 108, 500
-0.998292, 369, 373, 400, 388
-0.998292, 341, 417, 372, 432
-0.998293, 1, 177, 128, 240
-0.998295, 257, 369, 384, 400
-0.998295, 317, 137, 332, 200
-0.998296, 281, 281, 312, 296
-0.998298, 249, 281, 280, 296
-0.998299, 153, 133, 184, 148
-0.998299, 205, 321, 236, 384
-0.9983, 329, 423, 360, 438
-0.9983, 329, 457, 360, 472
-0.998302, 373, 437, 404, 452
-0.998305, 61, 485, 92, 500
-0.998306, 161, 369, 288, 432
-0.998307, 117, 151, 148, 166
-0.998307, 321, 445, 352, 460
-0.998307, 153, 119, 184, 134
-0.998308, 259, 281, 274, 344
-0.998309, 121, 143, 152, 158
-0.998309, 33, 485, 64, 500
-0.998309, 265, 183, 296, 198
-0.99831, 293, 255, 324, 270
-0.99831, 13, 485, 44, 500
-0.99831, 357, 453, 388, 468
-0.998311, 363, 377, 378, 408
-0.998314, 321, 465, 352, 480
-0.998315, 241, 79, 272, 94
-0.998315, 361, 379, 392, 394
-0.998315, 295, 265, 310, 296
-0.998316, 293, 261, 324, 276
-0.998317, 361, 465, 392, 480
-0.99832, 293, 273, 324, 288
-0.99832, 113, 61, 240, 92
-0.99832, 253, 187, 284, 202
-0.998322, 261, 283, 292, 298
-0.998324, 345, 399, 376, 414
-0.998325, 281, 269, 312, 284
-0.998326, 221, 81, 252, 96
-0.998327, 241, 287, 272, 302
-0.998328, 17, 321, 144, 448
-0.998328, 193, 469, 320, 500
-0.998329, 361, 483, 392, 498
-0.998332, 137, 127, 168, 142
-0.998332, 273, 105, 400, 168
-0.998333, 357, 385, 388, 400
-0.998335, 293, 249, 324, 264
-0.998336, 287, 269, 302, 300
-0.998336, 309, 479, 340, 494
-0.998338, 293, 485, 324, 500
-0.998341, 1, 483, 32, 498
-0.998341, 353, 459, 384, 474
-0.998343, 177, 197, 304, 228
-0.998345, 349, 393, 380, 408
-0.998346, 209, 345, 336, 408
-0.998348, 1, 121, 256, 184
-0.998348, 353, 473, 384, 488
-0.99835, 329, 475, 360, 490
-0.99835, 147, 121, 162, 152
-0.998351, 269, 485, 300, 500
-0.998359, 249, 69, 280, 84
-0.998363, 231, 73, 246, 136
-0.998364, 309, 257, 340, 272
-0.998368, 133, 133, 164, 148
-0.998371, 261, 277, 292, 292
-0.998376, 249, 81, 280, 144
-0.99838, 325, 451, 356, 466
-0.99838, 303, 241, 318, 304
-0.99838, 309, 485, 340, 500
-0.998382, 369, 409, 384, 472
-0.998383, 293, 267, 324, 282
-0.998383, 273, 137, 400, 200
-0.998391, 355, 385, 370, 416
-0.998396, 97, 425, 224, 488
-0.998397, 161, 1, 224, 128
-0.9984, 369, 443, 400, 458
-0.9984, 325, 483, 356, 498
-0.998404, 257, 177, 384, 208
-0.998405, 333, 469, 364, 484
-0.998411, 225, 281, 240, 344
-0.998412, 349, 485, 380, 500
-0.998417, 369, 369, 384, 400
-0.998419, 333, 429, 364, 444
-0.998424, 337, 377, 352, 440
-0.998428, 49, 297, 176, 360
-0.998444, 377, 441, 392, 472
-0.998444, 277, 275, 308, 290
-0.998449, 343, 361, 358, 424
-0.998451, 1, 153, 406, 216
-0.998451, 231, 281, 246, 344
-0.998454, 327, 433, 342, 496
-0.998458, 257, 249, 288, 312
-0.998461, 345, 441, 406, 456
-0.998462, 159, 113, 174, 176
-0.998463, 333, 435, 364, 450
-0.998467, 209, 253, 336, 284
-0.99847, 347, 469, 362, 500
-0.998471, 177, 97, 192, 160
-0.998476, 253, 65, 268, 96
-0.99848, 145, 173, 272, 204
-0.998483, 337, 449, 368, 464
-0.998483, 341, 257, 372, 500
-0.998486, 331, 445, 346, 476
-0.998486, 303, 245, 318, 276
-0.998488, 141, 129, 156, 160
-0.998493, 341, 241, 356, 304
-0.998493, 333, 443, 364, 458
-0.998497, 317, 433, 348, 496
-0.998498, 245, 81, 260, 144
-0.998498, 345, 433, 376, 448
-0.998499, 281, 485, 312, 500
-0.998502, 253, 285, 268, 316
-0.998503, 337, 485, 368, 500
-0.998508, 215, 297, 230, 360
-0.998511, 371, 441, 386, 472
-0.998515, 341, 455, 372, 470
-0.998515, 321, 473, 384, 488
-0.998518, 311, 253, 326, 284
-0.99852, 49, 201, 176, 264
-0.99852, 49, 337, 176, 400
-0.99853, 289, 241, 304, 304
-0.99853, 115, 149, 130, 180
-0.998532, 383, 441, 398, 472
-0.998536, 209, 161, 336, 192
-0.998538, 345, 467, 376, 482
-0.998539, 311, 265, 326, 328
-0.99854, 33, 433, 288, 496
-0.998542, 1, 361, 16, 424
-0.998549, 341, 461, 372, 476
-0.99855, 241, 61, 368, 92
-0.998555, 321, 483, 384, 498
-0.998556, 329, 435, 392, 450
-0.998557, 1, 73, 128, 136
-0.998559, 341, 475, 372, 490
-0.99856, 97, 97, 128, 224
-0.998568, 321, 461, 384, 476
-0.998571, 281, 265, 296, 296
-0.998572, 49, 145, 176, 176
-0.998577, 129, 133, 192, 148
-0.998577, 353, 439, 384, 454
-0.998579, 65, 105, 192, 136
-0.998579, 129, 157, 256, 188
-0.998582, 287, 257, 302, 288
-0.998587, 225, 69, 288, 84
-0.998592, 273, 485, 336, 500
-0.998594, 175, 129, 190, 192
-0.998594, 193, 125, 320, 156
-0.998596, 139, 97, 154, 160
-0.998596, 247, 185, 262, 248
-0.998603, 321, 467, 384, 482
-0.998604, 241, 237, 368, 268
-0.998606, 257, 279, 320, 294
-0.998607, 265, 41, 328, 104
-0.998608, 391, 445, 406, 476
-0.998609, 347, 265, 362, 328
-0.99861, 375, 409, 390, 472
-0.99861, 337, 413, 352, 444
-0.998613, 313, 451, 376, 466
-0.998614, 225, 75, 288, 90
-0.998618, 305, 257, 320, 288
-0.998619, 259, 33, 274, 96
-0.998621, 249, 187, 312, 202
-0.998622, 341, 241, 372, 368
-0.998624, 81, 157, 208, 188
-0.998624, 237, 281, 252, 344
-0.998628, 321, 469, 336, 500
-0.998629, 265, 177, 280, 240
-0.998634, 297, 485, 360, 500
-0.998637, 345, 467, 406, 482
-0.998638, 259, 277, 274, 308
-0.99864, 281, 271, 344, 286
-0.998641, 281, 261, 344, 276
-0.998642, 113, 143, 176, 158
-0.998643, 297, 479, 360, 494
-0.998646, 1, 485, 64, 500
-0.998646, 333, 465, 348, 496
-0.998647, 333, 409, 348, 472
-0.99865, 217, 187, 280, 202
-0.998653, 113, 149, 176, 164
-0.998653, 241, 485, 304, 500
-0.998654, 305, 427, 368, 442
-0.998654, 265, 273, 280, 336
-0.998654, 313, 445, 376, 460
-0.998657, 255, 185, 270, 216
-0.998657, 1, 393, 406, 456
-0.998658, 161, 37, 288, 68
-0.998659, 241, 69, 256, 100
-0.998665, 305, 259, 368, 274
-0.998665, 225, 81, 288, 96
-0.998666, 343, 401, 358, 432
-0.998667, 257, 273, 320, 288
-0.998668, 297, 465, 360, 480
-0.998669, 337, 455, 400, 470
-0.998671, 297, 247, 360, 262
-0.998672, 345, 391, 406, 406
-0.998673, 161, 161, 406, 224
-0.998675, 305, 433, 368, 448
-0.998675, 337, 397, 400, 412
-0.998676, 281, 187, 344, 202
-0.998677, 131, 133, 146, 164
-0.998678, 217, 313, 280, 376
-0.998678, 153, 113, 168, 144
-0.99868, 209, 145, 336, 176
-0.99868, 359, 469, 374, 500
-0.998681, 137, 145, 200, 160
-0.998682, 161, 109, 224, 124
-0.998682, 383, 409, 398, 472
-0.998683, 345, 473, 406, 488
-0.998684, 297, 421, 360, 436
-0.998686, 145, 139, 208, 154
-0.998688, 137, 145, 152, 208
-0.998688, 345, 481, 406, 496
-0.998688, 193, 77, 256, 92
-0.998689, 337, 417, 400, 432
-0.99869, 153, 129, 184, 256
-0.998692, 345, 447, 406, 462
-0.998692, 305, 397, 368, 412
-0.998694, 249, 285, 312, 300
-0.998694, 345, 461, 406, 476
-0.998695, 225, 193, 288, 208
-0.998695, 33, 485, 96, 500
-0.998696, 281, 277, 344, 292
-0.998696, 129, 297, 256, 328
-0.998699, 337, 403, 400, 418
-0.9987, 297, 253, 360, 268
-0.998701, 193, 191, 256, 206
-0.998702, 337, 345, 368, 408
-0.998702, 249, 193, 312, 208
-0.998703, 289, 203, 352, 218
-0.998703, 105, 135, 168, 150
-0.998703, 297, 241, 360, 256
-0.998703, 297, 411, 360, 426
-0.998703, 281, 179, 344, 194
-0.998704, 217, 181, 280, 196
-0.998704, 345, 385, 406, 400
-0.998704, 185, 485, 248, 500
-0.998704, 217, 293, 280, 308
-0.998705, 329, 429, 392, 444
-0.998705, 129, 127, 192, 142
-0.998706, 153, 115, 216, 130
-0.998709, 121, 49, 152, 176
-0.99871, 273, 255, 336, 270
-0.99871, 209, 485, 272, 500
-0.998711, 305, 439, 368, 454
-0.998712, 145, 121, 208, 136
-0.998712, 257, 181, 320, 196
-0.998712, 121, 141, 136, 172
-0.998713, 65, 485, 128, 500
-0.998713, 297, 471, 360, 486
-0.998714, 305, 403, 368, 418
-0.998714, 201, 197, 264, 212
-0.998714, 201, 71, 264, 86
-0.998715, 289, 195, 352, 210
-0.998716, 233, 275, 296, 290
-0.998718, 217, 63, 280, 78
-0.998718, 261, 69, 276, 100
-0.998719, 105, 155, 168, 170
-0.99872, 153, 133, 216, 148
-0.99872, 217, 35, 280, 50
-0.998721, 337, 411, 400, 426
-0.998721, 295, 241, 310, 304
-0.998722, 257, 71, 320, 86
-0.998723, 169, 141, 232, 156
-0.998724, 233, 87, 296, 102
-0.998725, 201, 83, 264, 98
-0.998725, 265, 57, 296, 120
-0.998726, 193, 203, 256, 218
-0.998727, 193, 105, 320, 136
-0.998728, 249, 267, 312, 282
-0.998728, 251, 81, 266, 144
-0.998729, 321, 375, 384, 390
-0.998729, 161, 103, 224, 118
-0.998729, 161, 485, 224, 500
-0.99873, 305, 265, 368, 280
-0.998731, 337, 423, 400, 438
-0.998731, 97, 485, 160, 500
-0.998732, 273, 479, 336, 494
-0.998733, 225, 287, 288, 302
-0.998733, 313, 391, 376, 406
-0.998734, 129, 99, 192, 114
-0.998735, 321, 383, 384, 398
-0.998736, 89, 171, 152, 186
-0.998738, 73, 151, 136, 166
-0.998738, 235, 81, 250, 112
-0.998739, 233, 299, 296, 314
-0.998739, 169, 17, 232, 80
-0.99874, 225, 281, 288, 296
-0.99874, 329, 363, 392, 378
-0.998741, 89, 143, 152, 158
-0.998741, 297, 235, 360, 250
-0.998743, 201, 305, 264, 320
-0.998744, 169, 147, 232, 162
-0.998744, 129, 93, 192, 108
-0.998744, 297, 459, 360, 474
-0.998745, 327, 469, 342, 500
-0.998745, 257, 77, 320, 92
-0.998745, 329, 369, 392, 384
-0.998746, 155, 129, 170, 160
-0.998746, 193, 185, 256, 200
-0.998746, 281, 173, 344, 188
-0.998747, 161, 127, 224, 142
-0.998747, 237, 17, 252, 80
-0.998748, 289, 209, 352, 224
-0.998748, 121, 105, 184, 120
-0.998748, 305, 273, 368, 288
-0.998749, 249, 259, 312, 274
-0.998749, 345, 379, 406, 394
-0.998749, 73, 165, 136, 180
-0.998749, 129, 485, 192, 500
-0.998752, 257, 291, 320, 306
-0.998752, 357, 297, 388, 360
-0.998753, 313, 295, 376, 310
-0.998753, 273, 341, 400, 372
-0.998754, 217, 29, 280, 44
-0.998754, 121, 113, 184, 128
-0.998754, 193, 299, 256, 314
-0.998755, 97, 165, 160, 180
-0.998755, 89, 127, 152, 142
-0.998763, 241, 217, 368, 248
-0.998764, 241, 201, 304, 264
-0.998764, 113, 369, 240, 496
-0.998768, 1, 201, 128, 264
-0.998769, 245, 285, 260, 316
-0.998771, 177, 329, 240, 392
-0.998774, 247, 65, 262, 96
-0.998789, 367, 429, 382, 460
-0.998792, 229, 193, 260, 256
-0.998806, 319, 257, 334, 320
-0.998807, 225, 105, 352, 168
-0.998814, 65, 117, 192, 148
-0.998814, 297, 253, 312, 284
-0.998815, 313, 201, 328, 264
-0.998815, 143, 145, 158, 208
-0.998819, 357, 425, 372, 456
-0.998822, 249, 189, 264, 220
-0.998826, 375, 361, 390, 392
-0.998827, 271, 277, 286, 308
-0.998833, 327, 145, 342, 208
-0.998844, 177, 305, 304, 336
-0.998846, 261, 181, 276, 212
-0.998846, 335, 225, 350, 288
-0.998848, 265, 273, 280, 304
-0.998854, 257, 49, 320, 176
-0.998855, 283, 257, 298, 320
-0.998857, 201, 113, 264, 176
-0.998863, 161, 141, 288, 172
-0.998868, 251, 77, 266, 108
-0.998869, 353, 369, 368, 496
-0.99887, 389, 409, 404, 472
-0.998872, 235, 69, 250, 100
-0.998879, 253, 153, 268, 216
-0.99888, 309, 237, 324, 268
-0.998888, 149, 137, 164, 200
-0.998889, 285, 177, 300, 240
-0.998892, 109, 157, 124, 188
-0.998894, 327, 201, 342, 264
-0.998899, 357, 257, 388, 500
-0.998901, 313, 469, 328, 500
-0.998915, 375, 429, 390, 460
-0.998919, 293, 277, 308, 308
-0.998919, 359, 457, 374, 488
-0.998924, 315, 237, 330, 268
-0.998924, 305, 121, 336, 184
-0.998926, 289, 469, 304, 500
-0.998929, 389, 433, 404, 464
-0.998932, 185, 257, 248, 500
-0.998935, 163, 133, 178, 164
-0.99894, 353, 373, 368, 404
-0.99894, 177, 269, 304, 300
-0.998941, 1, 297, 128, 360
-0.998943, 159, 113, 174, 144
-0.998947, 145, 25, 272, 56
-0.998948, 65, 81, 192, 112
-0.998954, 1, 369, 16, 400
-0.998961, 323, 457, 338, 488
-0.998971, 65, 169, 192, 200
-0.998972, 1, 469, 16, 500
-0.998975, 279, 177, 294, 208
-0.998978, 267, 181, 282, 212
-0.998978, 113, 121, 128, 184
-0.998979, 273, 265, 288, 296
-0.998979, 119, 113, 134, 176
-0.99898, 177, 209, 304, 240
-0.998985, 273, 169, 288, 232
-0.998989, 225, 449, 352, 480
-0.998994, 117, 145, 148, 272
-0.998994, 361, 365, 376, 396
-0.998996, 337, 393, 352, 424
-0.998997, 247, 257, 262, 320
-0.999003, 341, 273, 372, 336
-0.999013, 169, 133, 184, 164
-0.999014, 229, 169, 244, 232
-0.999018, 231, 41, 246, 104
-0.999018, 133, 97, 148, 160
-0.999029, 263, 57, 278, 88
-0.999031, 301, 269, 316, 300
-0.999033, 331, 433, 346, 464
-0.999036, 305, 241, 336, 368
-0.999036, 193, 305, 224, 368
-0.99904, 279, 169, 294, 232
-0.999042, 147, 65, 162, 128
-0.999044, 241, 81, 256, 112
-0.999044, 209, 313, 224, 376
-0.99905, 241, 193, 256, 256
-0.999059, 273, 277, 400, 308
-0.99906, 223, 293, 238, 324
-0.99906, 125, 113, 140, 176
-0.999061, 105, 17, 168, 144
-0.999065, 381, 429, 396, 460
-0.999075, 259, 81, 274, 144
-0.999075, 233, 289, 248, 320
-0.999077, 301, 469, 316, 500
-0.99908, 225, 73, 240, 136
-0.999083, 353, 281, 368, 344
-0.999086, 161, 137, 176, 200
-0.999087, 203, 313, 218, 376
-0.999089, 321, 369, 352, 496
-0.999092, 345, 369, 360, 496
-0.999094, 319, 189, 334, 220
-0.999097, 307, 193, 322, 256
-0.999099, 281, 469, 296, 500
-0.999099, 251, 273, 266, 304
-0.999101, 105, 129, 120, 192
-0.999104, 277, 257, 292, 320
-0.999113, 229, 77, 244, 108
-0.999118, 209, 257, 240, 384
-0.999118, 253, 249, 268, 312
-0.99912, 305, 1, 368, 500
-0.999121, 363, 369, 378, 496
-0.999124, 247, 25, 262, 56
-0.999125, 209, 289, 224, 352
-0.999125, 239, 285, 254, 316
-0.999129, 1, 57, 256, 120
-0.99913, 261, 81, 276, 112
-0.999135, 161, 81, 192, 144
-0.999138, 221, 185, 236, 248
-0.999139, 303, 217, 318, 280
-0.999141, 165, 109, 180, 140
-0.999142, 303, 233, 318, 264
-0.999143, 379, 321, 394, 384
-0.999144, 277, 277, 292, 308
-0.999146, 259, 257, 274, 320
-0.999149, 329, 257, 360, 500
-0.99915, 361, 305, 376, 368
-0.99915, 259, 289, 274, 320
-0.999152, 149, 57, 180, 120
-0.999152, 245, 45, 260, 76
-0.999154, 1, 105, 406, 168
-0.999155, 273, 305, 400, 336
-0.999156, 289, 265, 304, 328
-0.999156, 113, 73, 240, 104
-0.999157, 317, 173, 332, 204
-0.999157, 287, 181, 302, 212
-0.999157, 193, 237, 320, 268
-0.999161, 217, 185, 248, 248
-0.999166, 319, 145, 334, 176
-0.999167, 237, 257, 252, 320
-0.999171, 103, 153, 118, 216
-0.999171, 263, 153, 278, 216
-0.999173, 297, 237, 312, 268
-0.999173, 1, 233, 406, 296
-0.999177, 209, 161, 224, 224
-0.999179, 325, 165, 340, 196
-0.999179, 233, 161, 264, 416
-0.999181, 273, 181, 288, 212
-0.999184, 171, 101, 186, 132
-0.999185, 341, 381, 356, 412
-0.999187, 215, 321, 230, 384
-0.999189, 273, 329, 400, 360
-0.99919, 185, 337, 248, 464
-0.99919, 209, 65, 240, 128
-0.999193, 347, 377, 362, 408
-0.999194, 153, 57, 168, 120
-0.999199, 165, 121, 180, 152
-0.9992, 243, 197, 258, 228
-0.9992, 1, 89, 256, 152
-0.999205, 145, 141, 160, 172
-0.999206, 81, 49, 144, 176
-0.999209, 209, 33, 336, 64
-0.99921, 379, 349, 394, 380
-0.99921, 217, 89, 280, 152
-0.999213, 271, 265, 286, 328
-0.999219, 371, 333, 386, 364
-0.99922, 235, 169, 250, 232
-0.999227, 323, 201, 338, 232
-0.999243, 283, 233, 298, 296
-0.999244, 261, 49, 292, 176
-0.999244, 291, 245, 306, 276
-0.999254, 265, 285, 280, 316
-0.999256, 369, 353, 384, 480
-0.99927, 129, 321, 256, 352
-0.999278, 193, 97, 224, 224
-0.999281, 319, 257, 334, 288
-0.999282, 241, 25, 256, 56
-0.999286, 273, 197, 400, 228
-0.999288, 267, 73, 282, 104
-0.999288, 311, 265, 326, 296
-0.999289, 229, 65, 244, 96
-0.99929, 315, 225, 330, 256
-0.99929, 113, 469, 240, 500
-0.999291, 251, 45, 266, 76
-0.999291, 139, 113, 154, 144
-0.999292, 97, 193, 224, 224
-0.999292, 367, 353, 382, 384
-0.999293, 301, 189, 316, 220
-0.999299, 97, 265, 160, 328
-0.999308, 65, 257, 192, 384
-0.999331, 253, 33, 284, 288
-0.999333, 1, 241, 256, 304
-0.999333, 273, 357, 400, 388
-0.999337, 193, 333, 320, 364
-0.999338, 217, 1, 248, 256
-0.999344, 1, 209, 406, 272
-0.999345, 169, 201, 232, 264
-0.999345, 65, 281, 128, 344
-0.999346, 193, 89, 320, 120
-0.999351, 305, 217, 336, 280
-0.999361, 33, 409, 288, 472
-0.999362, 317, 161, 348, 416
-0.999368, 129, 309, 256, 340
-0.999368, 273, 317, 400, 348
-0.999386, 181, 33, 212, 288
-0.999389, 145, 265, 208, 328
-0.999391, 225, 129, 256, 256
-0.999396, 241, 1, 256, 128
-0.999401, 33, 157, 160, 188
-0.999403, 1, 313, 256, 376
-0.999406, 1, 401, 128, 464
-0.999407, 193, 321, 320, 352
-0.999415, 129, 273, 256, 304
-0.999417, 1, 469, 128, 500
-0.99944, 257, 165, 384, 196
-0.999445, 81, 301, 208, 332
-0.999454, 97, 181, 224, 212
-0.999455, 145, 65, 160, 192
-0.999456, 273, 97, 400, 224
-0.999461, 367, 305, 382, 432
-0.999463, 145, 385, 208, 448
-0.999466, 329, 1, 392, 500
-0.999471, 301, 129, 332, 384
-0.999473, 315, 477, 330, 492
-0.999474, 125, 485, 140, 500
-0.999474, 93, 485, 108, 500
-0.999474, 287, 479, 302, 494
-0.999475, 167, 485, 182, 500
-0.999475, 217, 485, 232, 500
-0.999475, 361, 453, 376, 468
-0.999477, 301, 253, 316, 268
-0.999477, 317, 485, 332, 500
-0.999477, 155, 115, 170, 130
-0.999477, 263, 77, 278, 92
-0.999478, 329, 225, 392, 288
-0.999479, 239, 83, 254, 98
-0.99948, 101, 485, 116, 500
-0.99948, 147, 129, 162, 144
-0.99948, 255, 69, 270, 84
-0.999482, 17, 483, 32, 498
-0.999482, 267, 183, 282, 198
-0.999483, 315, 249, 330, 264
-0.999484, 151, 485, 166, 500
-0.999484, 131, 135, 146, 150
-0.999485, 331, 437, 346, 452
-0.999485, 247, 485, 262, 500
-0.999486, 63, 485, 78, 500
-0.999487, 1, 417, 406, 480
-0.999487, 157, 131, 172, 146
-0.999487, 341, 399, 356, 414
-0.999487, 353, 443, 368, 458
-0.999488, 117, 485, 132, 500
-0.999488, 383, 439, 398, 454
-0.999489, 149, 1, 180, 256
-0.999489, 261, 71, 276, 86
-0.999489, 1, 81, 406, 144
-0.999489, 329, 453, 344, 468
-0.999489, 331, 459, 346, 474
-0.99949, 223, 485, 238, 500
-0.999491, 345, 411, 360, 426
-0.999491, 121, 145, 136, 160
-0.999491, 251, 279, 266, 294
-0.999491, 375, 353, 390, 480
-0.999491, 389, 439, 404, 454
-0.999491, 161, 257, 288, 288
-0.999492, 293, 277, 308, 292
-0.999492, 293, 265, 308, 280
-0.999493, 29, 485, 44, 500
-0.999493, 135, 485, 150, 500
-0.999493, 335, 421, 350, 436
-0.999494, 37, 485, 52, 500
-0.999494, 71, 485, 86, 500
-0.999494, 113, 157, 128, 172
-0.999494, 363, 473, 378, 488
-0.999494, 133, 33, 164, 288
-0.999495, 333, 469, 348, 484
-0.999495, 225, 21, 352, 52
-0.999496, 273, 277, 288, 292
-0.999497, 371, 435, 386, 450
-0.999499, 53, 485, 68, 500
-0.999499, 247, 1, 262, 128
-0.999502, 23, 485, 38, 500
-0.999502, 377, 437, 392, 452
-0.999503, 153, 121, 168, 136
-0.999503, 363, 433, 378, 448
-0.999503, 233, 81, 248, 96
-0.999503, 271, 485, 286, 500
-0.999504, 329, 477, 344, 492
-0.999504, 77, 485, 92, 500
-0.999506, 257, 283, 272, 298
-0.999508, 5, 485, 20, 500
-0.999508, 375, 367, 390, 382
-0.999509, 347, 401, 362, 416
-0.999509, 139, 65, 154, 192
-0.99951, 359, 461, 374, 476
-0.99951, 47, 485, 62, 500
-0.999512, 249, 193, 264, 208
-0.999512, 83, 485, 98, 500
-0.999513, 261, 185, 276, 200
-0.999513, 343, 453, 358, 468
-0.999515, 177, 221, 304, 252
-0.999516, 363, 467, 378, 482
-0.999517, 233, 485, 248, 500
-0.999517, 345, 417, 360, 432
-0.999519, 137, 131, 152, 146
-0.999519, 263, 279, 278, 294
-0.999522, 147, 123, 162, 138
-0.999523, 11, 485, 26, 500
-0.999523, 357, 289, 372, 416
-0.999524, 331, 447, 346, 462
-0.999525, 279, 273, 294, 288
-0.999525, 321, 477, 336, 492
-0.999525, 133, 65, 164, 128
-0.999526, 347, 465, 362, 480
-0.999526, 299, 267, 314, 282
-0.999527, 357, 431, 372, 446
-0.999528, 341, 465, 356, 480
-0.999528, 1, 217, 256, 280
-0.999529, 311, 485, 326, 500
-0.999529, 93, 153, 124, 216
-0.999533, 255, 189, 270, 204
-0.999534, 97, 221, 224, 252
-0.999534, 279, 485, 294, 500
-0.999534, 305, 485, 320, 500
-0.999536, 337, 477, 352, 492
-0.999537, 369, 373, 384, 388
-0.999538, 287, 277, 302, 292
-0.999541, 117, 151, 132, 166
-0.999542, 337, 455, 352, 470
-0.999543, 337, 427, 352, 442
-0.999543, 359, 483, 374, 498
-0.999547, 147, 113, 162, 240
-0.999549, 17, 361, 144, 424
-0.999552, 193, 241, 224, 368
-0.999553, 387, 445, 402, 460
-0.999556, 355, 455, 370, 470
-0.999556, 129, 245, 256, 276
-0.999557, 235, 1, 250, 128
-0.999557, 377, 443, 392, 458
-0.999558, 305, 247, 320, 262
-0.999558, 339, 369, 354, 496
-0.999564, 365, 379, 380, 394
-0.999564, 297, 485, 312, 500
-0.999564, 323, 483, 338, 498
-0.999564, 303, 261, 318, 276
-0.999565, 351, 431, 366, 446
-0.999565, 293, 271, 308, 286
-0.999566, 313, 255, 328, 270
-0.999568, 357, 473, 372, 488
-0.999569, 339, 485, 354, 500
-0.999571, 363, 439, 378, 454
-0.999572, 369, 441, 384, 456
-0.999572, 169, 1, 200, 256
-0.999573, 49, 185, 176, 216
-0.999574, 173, 81, 188, 208
-0.999578, 343, 477, 358, 492
-0.999578, 349, 395, 364, 410
-0.99958, 285, 271, 300, 286
-0.999581, 345, 459, 360, 474
-0.999583, 173, 129, 204, 384
-0.999586, 291, 485, 306, 500
-0.999587, 343, 425, 358, 440
-0.999592, 289, 129, 320, 192
-0.999596, 359, 383, 374, 398
-0.999596, 209, 49, 336, 80
-0.999596, 333, 483, 348, 498
-0.999598, 205, 161, 236, 416
-0.999599, 337, 433, 352, 448
-0.9996, 337, 449, 352, 464
-0.999603, 287, 161, 302, 288
-0.999604, 17, 273, 144, 336
-0.999605, 139, 113, 154, 240
-0.999605, 255, 1, 270, 128
-0.999607, 155, 65, 170, 192
-0.999607, 353, 389, 368, 404
-0.999611, 257, 33, 384, 96
-0.999611, 121, 129, 136, 256
-0.999613, 81, 233, 208, 264
-0.999613, 179, 81, 194, 208
-0.999617, 161, 405, 288, 436
-0.999617, 129, 153, 192, 216
-0.99962, 285, 485, 300, 500
-0.999622, 343, 471, 358, 486
-0.999624, 161, 33, 406, 96
-0.999628, 1, 385, 256, 448
-0.999629, 337, 439, 352, 454
-0.999631, 245, 161, 276, 416
-0.999635, 277, 201, 308, 264
-0.999636, 97, 49, 160, 112
-0.999638, 293, 177, 308, 304
-0.999641, 247, 177, 262, 304
-0.999645, 295, 225, 310, 352
-0.999646, 49, 1, 112, 500
-0.999652, 165, 81, 180, 208
-0.999654, 153, 113, 168, 240
-0.99966, 133, 97, 148, 224
-0.999662, 115, 129, 130, 256
-0.999664, 349, 483, 364, 498
-0.999664, 261, 33, 276, 160
-0.999664, 241, 177, 256, 304
-0.999665, 245, 65, 260, 192
-0.999665, 173, 129, 188, 256
-0.999668, 319, 145, 334, 272
-0.999674, 285, 97, 300, 224
-0.999676, 349, 453, 364, 468
-0.999677, 65, 273, 192, 304
-0.999678, 349, 321, 364, 448
-0.999679, 353, 467, 368, 482
-0.999681, 273, 117, 400, 148
-0.999681, 1, 1, 256, 64
-0.999684, 351, 477, 366, 492
-0.999685, 251, 49, 266, 176
-0.999685, 343, 441, 358, 456
-0.999685, 327, 193, 342, 320
-0.99969, 353, 461, 368, 476
-0.999692, 81, 177, 144, 240
-0.999697, 267, 241, 282, 368
-0.999698, 247, 257, 262, 384
-0.999699, 97, 205, 224, 236
-0.999703, 1, 337, 128, 368
-0.999705, 275, 161, 290, 288
-0.999711, 347, 447, 362, 462
-0.999711, 345, 431, 360, 446
-0.999712, 281, 161, 296, 288
-0.999716, 81, 257, 208, 288
-0.999716, 65, 469, 192, 500
-0.999717, 353, 437, 368, 452
-0.999719, 113, 413, 240, 444
-0.999722, 81, 245, 208, 276
-0.999722, 265, 209, 296, 336
-0.999727, 1, 137, 128, 168
-0.999727, 1, 433, 128, 496
-0.999731, 109, 129, 124, 256
-0.999736, 171, 33, 186, 160
-0.999738, 337, 225, 352, 352
-0.999739, 313, 129, 328, 256
-0.999741, 349, 273, 364, 400
-0.999742, 287, 257, 302, 384
-0.999743, 229, 17, 244, 144
-0.999743, 65, 69, 192, 100
-0.999747, 295, 113, 310, 240
-0.999747, 81, 1, 208, 64
-0.999749, 185, 81, 200, 208
-0.99975, 241, 257, 256, 384
-0.999752, 259, 273, 274, 400
-0.999753, 303, 177, 318, 304
-0.999757, 17, 169, 144, 200
-0.999759, 125, 81, 140, 208
-0.999761, 161, 33, 176, 160
-0.999762, 167, 129, 182, 256
-0.999763, 381, 369, 396, 496
-0.999766, 113, 37, 240, 68
-0.999766, 129, 333, 256, 364
-0.999767, 225, 273, 240, 400
-0.999771, 17, 117, 144, 148
-0.999773, 283, 209, 298, 336
-0.999775, 305, 225, 320, 352
-0.999775, 161, 137, 406, 200
-0.999784, 343, 321, 358, 448
-0.999786, 161, 417, 288, 448
-0.999786, 269, 241, 300, 304
-0.999789, 279, 97, 294, 224
-0.999789, 223, 17, 238, 144
-0.99979, 391, 369, 406, 496
-0.999792, 161, 389, 288, 420
-0.999794, 253, 257, 268, 384
-0.999796, 181, 33, 196, 160
-0.999799, 217, 289, 232, 416
-0.999805, 311, 225, 326, 352
-0.999806, 211, 305, 226, 432
-0.999808, 205, 305, 220, 432
-0.999813, 127, 129, 142, 256
-0.999814, 115, 81, 130, 208
-0.999815, 231, 257, 246, 384
-0.999815, 241, 9, 272, 72
-0.999818, 343, 241, 358, 368
-0.999823, 239, 49, 254, 176
-0.999824, 145, 25, 208, 88
-0.999826, 321, 193, 336, 320
-0.999827, 49, 49, 176, 80
-0.999828, 373, 305, 388, 432
-0.99983, 97, 385, 224, 416
-0.999831, 191, 81, 206, 208
-0.999833, 273, 257, 288, 384
-0.999833, 129, 437, 256, 468
-0.999836, 1, 257, 406, 320
-0.999836, 129, 233, 256, 264
-0.999839, 195, 225, 210, 352
-0.999839, 193, 433, 320, 464
-0.99984, 253, 177, 268, 304
-0.999842, 143, 17, 158, 144
-0.999843, 241, 133, 368, 164
-0.999844, 179, 129, 194, 256
-0.999848, 133, 49, 148, 176
-0.999851, 217, 65, 248, 192
-0.999851, 331, 369, 346, 496
-0.999851, 267, 33, 282, 160
-0.999852, 97, 345, 224, 408
-0.999853, 65, 285, 192, 316
-0.999854, 273, 97, 288, 224
-0.999856, 129, 449, 256, 480
-0.999858, 235, 177, 250, 304
-0.99986, 337, 321, 352, 448
-0.999861, 197, 97, 212, 224
-0.999861, 257, 73, 384, 104
-0.999864, 161, 13, 288, 44
-0.999867, 325, 145, 340, 272
-0.999871, 113, 401, 240, 432
-0.999873, 153, 17, 168, 144
-0.999874, 221, 177, 236, 304
-0.999874, 17, 1, 80, 500
-0.999874, 1, 321, 128, 352
-0.999876, 301, 129, 316, 256
-0.99988, 251, 129, 266, 256
-0.999882, 187, 145, 202, 272
-0.999883, 101, 97, 116, 224
-0.999885, 313, 273, 328, 400
-0.999886, 193, 145, 208, 272
-0.999886, 259, 225, 274, 352
-0.999887, 193, 33, 224, 288
-0.999887, 1, 361, 128, 392
-0.999888, 17, 225, 144, 256
-0.999888, 103, 161, 118, 288
-0.999891, 229, 193, 244, 320
-0.999893, 265, 289, 280, 416
-0.999895, 203, 65, 218, 192
-0.999899, 257, 81, 272, 208
-0.999899, 17, 77, 144, 108
-0.999901, 273, 209, 288, 336
-0.999906, 191, 289, 206, 416
-0.999906, 1, 361, 256, 424
-0.999908, 213, 145, 228, 272
-0.999911, 199, 17, 214, 144
-0.999911, 211, 17, 226, 144
-0.999913, 129, 345, 256, 376
-0.999913, 159, 113, 174, 240
-0.999917, 241, 129, 256, 256
-0.999918, 309, 177, 324, 304
-0.99992, 133, 145, 148, 272
-0.99992, 379, 289, 394, 416
-0.999921, 217, 17, 232, 144
-0.999921, 215, 241, 230, 368
-0.999922, 269, 161, 284, 288
-0.999924, 109, 65, 124, 192
-0.999925, 177, 453, 304, 484
-0.999927, 205, 161, 220, 288
-0.999927, 307, 129, 322, 256
-0.999928, 97, 161, 112, 288
-0.999932, 297, 273, 312, 400
-0.999932, 251, 305, 266, 432
-0.999937, 223, 321, 238, 448
-0.999941, 267, 81, 282, 208
-0.999941, 229, 65, 244, 192
-0.999944, 111, 177, 126, 304
-0.999945, 117, 177, 132, 304
-0.999947, 261, 161, 276, 288
-0.99997, 193, 217, 256, 280
-0.999977, 241, 153, 272, 216
-0.999979, 201, 17, 232, 144
-0.999983, 97, 425, 224, 456
-0.999984, 157, 97, 188, 352
-0.999984, 373, 257, 404, 500
-0.999989, 49, 337, 176, 368
-0.999989, 289, 97, 320, 352
-0.99999, 329, 241, 392, 368
-0.999994, 113, 49, 240, 80
-1, 177, 121, 208, 184
-1.00003, 217, 161, 248, 416
-1.00004, 33, 241, 160, 272
-1.00004, 49, 313, 176, 344
-1.00005, 81, 369, 208, 400
-1.00005, 1, 65, 128, 96
-1.00005, 273, 105, 400, 136
-1.00005, 193, 129, 224, 384
-1.00006, 209, 381, 336, 412
-1.00006, 265, 65, 296, 320
-1.00007, 1, 57, 406, 120
-1.00008, 301, 169, 332, 232
-1.0001, 121, 1, 152, 256
-1.0001, 305, 193, 336, 320
-1.00012, 305, 97, 336, 224
-1.00012, 1, 353, 406, 416
-1.00013, 133, 161, 164, 416
-1.00014, 1, 337, 256, 400
-1.00015, 253, 129, 284, 256
-1.00017, 205, 65, 236, 192
-1.00017, 121, 25, 184, 88
-1.00018, 277, 97, 308, 352
-1.0002, 261, 161, 292, 416
-1.00021, 321, 401, 352, 464
-1.00021, 1, 249, 128, 312
-1.00022, 109, 81, 140, 208
-1.00025, 229, 257, 260, 500
-1.00025, 121, 97, 152, 352
-1.00025, 93, 161, 124, 288
-1.00028, 249, 257, 280, 500
-1.00028, 205, 1, 236, 256
-1.00029, 49, 393, 176, 456
-1.00031, 257, 113, 320, 176
-1.00031, 33, 161, 96, 224
-1.00032, 193, 369, 320, 496
-1.00034, 285, 225, 316, 480
-1.00035, 213, 177, 244, 304
-1.00035, 285, 273, 316, 336
-1.00035, 49, 433, 176, 496
-1.00036, 145, 129, 176, 384
-1.00036, 109, 33, 140, 288
-1.00038, 17, 33, 144, 160
-1.00039, 193, 225, 224, 480
-1.00039, 189, 49, 220, 176
-1.00041, 277, 153, 308, 216
-1.00042, 281, 409, 344, 472
-1.00043, 57, 81, 120, 144
-1.00045, 329, 97, 360, 352
-1.00046, 309, 257, 340, 500
-1.00046, 181, 225, 212, 480
-1.00049, 97, 1, 352, 64
-1.00049, 297, 225, 328, 480
-1.0005, 273, 193, 304, 448
-1.00055, 301, 33, 332, 288
-1.00055, 77, 169, 108, 232
-1.00055, 273, 81, 400, 144
-1.00058, 185, 153, 216, 216
-1.00058, 217, 161, 248, 224
-1.00061, 1, 273, 128, 400
-1.00062, 101, 161, 132, 416
-1.00063, 213, 257, 244, 500
-1.00065, 205, 145, 236, 208
-1.00067, 345, 161, 376, 416
-1.00073, 153, 233, 216, 296
-1.00073, 97, 65, 128, 320
-1.00074, 77, 65, 108, 320
-1.00075, 1, 337, 32, 400
-1.00076, 201, 337, 264, 400
-1.00076, 317, 65, 348, 320
-1.00077, 161, 257, 224, 500
-1.00077, 261, 257, 292, 500
-1.00078, 377, 289, 406, 416
-1.00078, 181, 289, 212, 416
-1.00079, 89, 161, 120, 416
-1.0008, 261, 81, 292, 144
-1.00084, 1, 321, 64, 448
-1.00085, 213, 273, 244, 336
-1.00085, 49, 65, 80, 320
-1.00086, 189, 1, 220, 128
-1.00086, 65, 193, 96, 448
-1.00086, 277, 1, 308, 256
-1.00087, 169, 225, 200, 480
-1.00088, 161, 153, 192, 216
-1.00092, 1, 305, 406, 368
-1.00093, 257, 33, 288, 96
-1.00097, 113, 193, 144, 448
-1.00097, 65, 337, 192, 464
-1.00097, 1, 329, 406, 392
-1.00098, 141, 257, 172, 500
-1.001, 213, 321, 244, 448
-1.00101, 1, 241, 64, 304
-1.00101, 89, 241, 152, 304
-1.00101, 289, 153, 320, 216
-1.00103, 61, 65, 92, 320
-1.00103, 277, 105, 308, 168
-1.00104, 77, 161, 108, 416
-1.00107, 357, 257, 388, 384
-1.00109, 85, 257, 116, 500
-1.0011, 357, 161, 388, 416
-1.0011, 113, 289, 176, 352
-1.0011, 41, 161, 72, 416
-1.0011, 37, 65, 68, 320
-1.00111, 157, 193, 188, 448
-1.00112, 225, 265, 256, 328
-1.00112, 273, 33, 336, 288
-1.00114, 273, 321, 336, 448
-1.00114, 185, 393, 248, 456
-1.00115, 33, 1, 160, 64
-1.00118, 289, 1, 320, 256
-1.00121, 25, 65, 56, 320
-1.00123, 97, 257, 128, 500
-1.00123, 53, 193, 84, 448
-1.00123, 297, 273, 328, 336
-1.00124, 9, 193, 40, 448
-1.00125, 313, 129, 376, 384
-1.00128, 73, 305, 136, 368
-1.00129, 29, 193, 60, 448
-1.0013, 221, 225, 252, 352
-1.00133, 217, 337, 280, 464
-1.00133, 125, 257, 156, 500
-1.00135, 229, 1, 260, 64
-1.00136, 41, 257, 72, 500
-1.00136, 81, 33, 144, 288
-1.00139, 173, 73, 204, 136
-1.0014, 1, 33, 32, 288
-1.00141, 309, 369, 340, 496
-1.00143, 305, 337, 368, 400
-1.00143, 197, 57, 228, 120
-1.00143, 321, 265, 352, 328
-1.00147, 13, 65, 44, 320
-1.00148, 341, 65, 372, 320
-1.0015, 1, 33, 406, 96
-1.0015, 49, 113, 112, 240
-1.00151, 329, 1, 360, 256
-1.00151, 129, 361, 192, 424
-1.00151, 313, 97, 376, 224
-1.00152, 373, 161, 404, 416
-1.00154, 253, 153, 284, 216
-1.00155, 333, 225, 364, 288
-1.00156, 289, 273, 320, 400
-1.00157, 101, 177, 132, 240
-1.00158, 273, 297, 336, 360
-1.00161, 73, 57, 136, 120
-1.00161, 57, 193, 120, 256
-1.00165, 321, 145, 352, 272
-1.00165, 345, 297, 376, 360
-1.00166, 369, 1, 400, 256
-1.00169, 241, 305, 304, 432
-1.00169, 193, 273, 224, 336
-1.00178, 353, 1, 384, 256
-1.00181, 65, 161, 128, 416
-1.00181, 201, 25, 232, 88
-1.00183, 161, 409, 224, 472
-1.00186, 225, 401, 288, 464
-1.00188, 257, 401, 320, 464
-1.00191, 273, 57, 400, 120
-1.00194, 117, 161, 148, 224
-1.00196, 169, 145, 200, 272
-1.00198, 265, 153, 296, 216
-1.002, 281, 321, 344, 384
-1.002, 105, 337, 168, 400
-1.002, 185, 433, 248, 496
-1.00202, 325, 137, 356, 200
-1.00203, 329, 257, 360, 384
-1.00205, 73, 361, 136, 424
-1.00205, 81, 145, 112, 272
-1.00207, 93, 225, 124, 288
-1.00208, 121, 49, 184, 112
-1.0021, 201, 201, 232, 264
-1.00212, 301, 289, 332, 416
-1.00212, 141, 17, 172, 144
-1.00213, 81, 201, 144, 264
-1.00215, 89, 209, 120, 336
-1.00216, 105, 201, 168, 264
-1.00221, 33, 321, 96, 384
-1.00222, 289, 105, 320, 168
-1.00222, 57, 113, 120, 176
-1.00227, 265, 1, 328, 128
-1.00227, 181, 225, 212, 352
-1.00228, 137, 305, 200, 432
-1.00233, 137, 209, 200, 336
-1.00236, 1, 321, 32, 448
-1.00237, 213, 113, 244, 240
-1.0024, 201, 193, 232, 320
-1.00241, 161, 49, 192, 112
-1.00242, 217, 137, 248, 200
-1.00244, 145, 153, 176, 216
-1.00244, 265, 377, 328, 440
-1.00247, 89, 177, 120, 240
-1.00247, 145, 177, 176, 240
-1.00247, 325, 193, 356, 256
-1.00248, 337, 201, 400, 264
-1.0025, 121, 57, 152, 120
-1.00257, 17, 297, 80, 360
-1.00257, 177, 369, 240, 432
-1.0026, 113, 241, 176, 304
-1.00261, 233, 305, 264, 432
-1.00262, 189, 129, 220, 192
-1.00263, 237, 129, 268, 256
-1.00264, 181, 289, 212, 352
-1.00267, 9, 385, 72, 448
-1.00268, 321, 33, 384, 288
-1.00274, 281, 433, 312, 496
-1.00275, 189, 25, 220, 88
-1.00277, 1, 209, 128, 336
-1.00277, 353, 249, 384, 312
-1.00281, 317, 289, 348, 416
-1.00283, 1, 1, 406, 64
-1.00289, 273, 1, 400, 64
-1.00315, 57, 17, 88, 144
-1.0032, 265, 1, 296, 128
-1.00329, 325, 97, 356, 224
-1.00336, 57, 65, 120, 320
-1.00339, 337, 161, 400, 416
-1.00353, 85, 97, 116, 224
-1.00354, 293, 337, 324, 464
-1.0036, 49, 65, 112, 192
-1.00362, 337, 193, 400, 320
-1.00368, 169, 209, 200, 336
-1.00377, 345, 177, 376, 304
-1.0038, 161, 369, 224, 496
-1.00389, 129, 257, 192, 384
-1.0039, 69, 145, 100, 272
-1.00395, 141, 353, 172, 480
-1.00398, 137, 193, 168, 320
-1.00399, 317, 241, 348, 368
-1.00404, 73, 65, 104, 192
-1.00405, 281, 337, 312, 464
-1.00415, 93, 49, 124, 176
-1.00417, 33, 65, 96, 320
-1.00425, 105, 33, 136, 160
-1.00431, 33, 193, 96, 448
-1.00432, 105, 257, 168, 500
-1.00433, 57, 81, 88, 208
-1.00433, 241, 353, 272, 480
-1.00435, 17, 177, 80, 304
-1.00445, 49, 177, 112, 304
-1.00445, 137, 193, 200, 448
-1.00446, 261, 337, 292, 464
-1.00448, 93, 257, 124, 384
-1.00457, 165, 305, 196, 432
-1.00457, 69, 193, 100, 320
-1.00458, 285, 65, 316, 192
-1.00469, 297, 33, 360, 288
-1.0047, 57, 1, 120, 128
-1.00474, 73, 209, 136, 336
-1.00481, 145, 289, 176, 416
-1.00483, 121, 1, 152, 128
-1.00484, 109, 193, 140, 320
-1.00484, 37, 1, 68, 128
-1.00489, 161, 369, 192, 496
-1.00494, 49, 273, 112, 400
-1.00494, 73, 337, 104, 464
-1.00499, 97, 305, 128, 432
-1.00506, 121, 161, 184, 288
-1.00507, 57, 129, 88, 256
-1.00507, 109, 337, 140, 464
-1.00516, 273, 49, 304, 176
-1.00516, 17, 1, 80, 128
-1.00519, 333, 161, 364, 288
-1.00519, 1, 257, 32, 384
-1.00521, 357, 209, 388, 336
-1.00523, 37, 81, 68, 208
-1.00523, 125, 225, 156, 352
-1.00524, 153, 177, 184, 304
-1.00534, 89, 1, 120, 128
-1.00534, 185, 337, 216, 464
-1.00534, 49, 177, 80, 304
-1.00539, 25, 305, 88, 432
-1.00545, 25, 65, 88, 192
-1.00549, 97, 225, 160, 352
-1.00552, 25, 113, 88, 240
-1.00573, 289, 65, 352, 192
-1.00577, 249, 353, 312, 480
-1.00578, 97, 337, 160, 464
-1.00579, 9, 65, 72, 320
-1.00582, 9, 161, 72, 416
-1.00604, 97, 289, 160, 416
-1.00614, 25, 257, 88, 384
-1.00639, 57, 257, 120, 500
-1.00645, 161, 321, 224, 448
-1.00673, 81, 257, 144, 500
-1.00679, 49, 337, 112, 464
-1.00685, 137, 353, 200, 480
-1.00721, 49, 225, 112, 352
-1.00762, 17, 369, 144, 496
-1.00762, 81, 1, 144, 128
-1.00769, 1, 225, 64, 352
-1.00789, 73, 289, 136, 416
-1.00799, 1, 257, 64, 500
-1.00836, 25, 369, 88, 496
-1.00899, 73, 337, 136, 464
-1.00937, 345, 65, 406, 320
-1.00941, 1, 129, 64, 256
-1.00964, 1, 49, 64, 176
-1.00989, 1, 273, 64, 400
-1.01175, 289, 17, 352, 144
-1.01224, 313, 49, 376, 176
-1.01362, 1, 369, 64, 496
-1.014, 337, 1, 400, 128
-1.01445, 337, 49, 400, 176
-1.0147, 345, 145, 406, 272
-1.01471, 345, 97, 406, 224
-1.01562, 313, 1, 376, 128
