1961
-0.188636, 1, 1, 500, 375
-0.27109, 225, 1, 480, 375
-0.289274, 1, 65, 500, 320
-0.290738, 129, 1, 384, 375
-0.335907, 33, 1, 288, 375
-0.449601, 225, 129, 480, 375
-0.533829, 1, 129, 256, 375
-0.544462, 129, 129, 384, 375
-0.562622, 225, 1, 480, 256
-0.583518, 129, 1, 384, 256
-0.601758, 1, 33, 256, 288
-0.821127, 369, 1, 496, 375
-0.82952, 321, 1, 448, 375
-0.83304, 321, 129, 448, 375
-0.844676, 129, 1, 256, 375
-0.845237, 241, 1, 368, 375
-0.846852, 257, 1, 384, 256
-0.847191, 1, 161, 500, 288
-0.84877, 321, 33, 448, 288
-0.84959, 193, 1, 320, 375
-0.853989, 65, 33, 192, 288
-0.85521, 1, 113, 500, 240
-0.855539, 81, 1, 208, 375
-0.858506, 193, 129, 320, 375
-0.85899, 1, 1, 500, 128
-0.859251, 129, 129, 256, 375
-0.861333, 1, 65, 128, 320
-0.868219, 369, 65, 496, 320
-0.871051, 193, 33, 320, 288
-0.872575, 1, 1, 128, 375
-0.872789, 113, 1, 240, 256
-0.874143, 1, 65, 500, 192
-0.875782, 1, 225, 500, 352
-0.876869, 241, 129, 368, 375
-0.887416, 81, 129, 208, 375
-0.889903, 97, 145, 352, 272
-0.891031, 193, 193, 448, 320
-0.892036, 1, 145, 256, 272
-0.903369, 257, 145, 500, 272
-0.908947, 1, 193, 256, 320
-0.910222, 225, 1, 480, 128
-0.914715, 225, 241, 480, 368
-0.915594, 1, 97, 256, 224
-0.916533, 321, 177, 448, 304
-0.91754, 257, 49, 500, 176
-0.920387, 193, 97, 448, 224
-0.921288, 33, 17, 288, 144
-0.925401, 97, 97, 352, 224
-0.925986, 129, 241, 384, 368
-0.92604, 321, 1, 448, 128
-0.926777, 129, 1, 384, 128
-0.928239, 353, 1, 416, 128
-0.928651, 113, 129, 240, 256
-0.928726, 17, 97, 144, 224
-0.93057, 89, 129, 152, 256
-0.932894, 129, 49, 384, 176
-0.933005, 377, 1, 440, 128
-0.933617, 49, 161, 176, 288
-0.934166, 209, 177, 336, 304
-0.935327, 321, 49, 448, 176
-0.935674, 97, 193, 352, 320
-0.935834, 97, 65, 224, 192
-0.93642, 201, 145, 264, 272
-0.937157, 65, 1, 192, 128
-0.937354, 177, 1, 304, 128
-0.938394, 257, 241, 384, 368
-0.939175, 369, 1, 496, 128
-0.939376, 177, 113, 304, 240
-0.939379, 337, 241, 464, 368
-0.939726, 385, 177, 448, 304
-0.939955, 81, 185, 144, 248
-0.940008, 321, 145, 384, 272
-0.940317, 129, 1, 256, 128
-0.940992, 377, 49, 440, 176
-0.940992, 81, 177, 144, 304
-0.941999, 113, 193, 240, 320
-0.94239, 17, 49, 80, 176
-0.943446, 233, 97, 296, 224
-0.943682, 337, 49, 400, 176
-0.943857, 321, 1, 384, 128
-0.944426, 121, 145, 184, 272
-0.944718, 425, 209, 488, 336
-0.945035, 385, 241, 448, 368
-0.94514, 65, 49, 128, 176
-0.945366, 337, 97, 400, 224
-0.945785, 1, 145, 128, 272
-0.945822, 273, 113, 400, 240
-0.945898, 137, 1, 200, 128
-0.946038, 49, 49, 176, 176
-0.946775, 177, 145, 240, 272
-0.947544, 273, 1, 400, 128
-0.947898, 161, 161, 288, 288
-0.949206, 425, 225, 488, 288
-0.949235, 97, 161, 160, 224
-0.949461, 321, 97, 448, 224
-0.949639, 1, 17, 128, 144
-0.949684, 225, 177, 288, 304
-0.950181, 289, 193, 352, 320
-0.950235, 369, 49, 496, 176
-0.950523, 369, 113, 496, 240
-0.951269, 1, 209, 128, 336
-0.951338, 17, 89, 80, 152
-0.951619, 145, 49, 272, 176
-0.951676, 57, 97, 120, 224
-0.95173, 17, 97, 80, 224
-0.951998, 153, 129, 216, 256
-0.952297, 25, 145, 88, 272
-0.952439, 377, 97, 440, 224
-0.952649, 57, 177, 120, 304
-0.952861, 113, 49, 176, 176
-0.952914, 257, 49, 384, 176
-0.953027, 161, 1, 224, 128
-0.953288, 361, 177, 424, 304
-0.953445, 41, 49, 104, 176
-0.953462, 89, 89, 152, 152
-0.953712, 225, 297, 288, 360
-0.954114, 89, 81, 152, 208
-0.954889, 417, 145, 480, 272
-0.955019, 313, 241, 376, 368
-0.955542, 41, 1, 104, 128
-0.95567, 297, 1, 360, 128
-0.955693, 161, 241, 288, 368
-0.955797, 321, 305, 384, 368
-0.955997, 185, 241, 248, 368
-0.956064, 369, 161, 496, 288
-0.956295, 137, 81, 200, 208
-0.956944, 65, 113, 192, 240
-0.957133, 273, 145, 336, 272
-0.957467, 169, 1, 232, 64
-0.95754, 105, 185, 168, 248
-0.957674, 361, 241, 424, 368
-0.957939, 49, 97, 112, 160
-0.958215, 233, 1, 296, 128
-0.958218, 209, 241, 336, 368
-0.958441, 65, 1, 128, 128
-0.958665, 225, 129, 352, 256
-0.959414, 337, 161, 400, 224
-0.959559, 337, 65, 400, 128
-0.959579, 89, 137, 152, 200
-0.959794, 233, 241, 296, 368
-0.959896, 321, 185, 384, 248
-0.960149, 121, 65, 184, 128
-0.960244, 185, 1, 248, 128
-0.960266, 169, 193, 232, 320
-0.960737, 385, 257, 448, 320
-0.961019, 89, 17, 152, 144
-0.961059, 137, 89, 200, 152
-0.961191, 201, 161, 264, 224
-0.961201, 417, 1, 480, 128
-0.961541, 137, 17, 200, 80
-0.961574, 353, 281, 416, 344
-0.961587, 65, 57, 128, 120
-0.961693, 209, 241, 272, 368
-0.961884, 9, 1, 72, 128
-0.961902, 49, 193, 112, 256
-0.962361, 377, 65, 440, 128
-0.962447, 249, 177, 312, 304
-0.962654, 417, 97, 480, 224
-0.962801, 273, 161, 400, 288
-0.96282, 329, 193, 392, 320
-0.962976, 73, 209, 136, 272
-0.963075, 97, 209, 160, 272
-0.963102, 161, 209, 224, 272
-0.963388, 265, 313, 328, 375
-0.963597, 33, 209, 96, 336
-0.96397, 113, 89, 176, 152
-0.964081, 121, 177, 152, 240
-0.964208, 401, 225, 464, 288
-0.964287, 177, 81, 240, 208
-0.964619, 177, 161, 240, 224
-0.964651, 137, 177, 200, 240
-0.964744, 313, 81, 376, 208
-0.965254, 313, 1, 376, 64
-0.965272, 113, 193, 176, 320
-0.96533, 113, 129, 176, 192
-0.965436, 85, 185, 116, 248
-0.9656, 33, 241, 288, 368
-0.965872, 353, 41, 416, 104
-0.965958, 49, 209, 176, 336
-0.966137, 113, 97, 176, 224
-0.966162, 25, 193, 88, 256
-0.966314, 385, 185, 448, 248
-0.966379, 17, 113, 80, 176
-0.966412, 41, 73, 104, 136
-0.966437, 145, 153, 208, 216
-0.96675, 73, 113, 136, 176
-0.966901, 233, 153, 296, 216
-0.966972, 73, 161, 136, 224
-0.967002, 193, 65, 320, 192
-0.967025, 377, 41, 440, 104
-0.967056, 297, 145, 360, 272
-0.967094, 201, 97, 264, 224
-0.967196, 361, 161, 424, 224
-0.967403, 101, 129, 132, 256
-0.967644, 25, 97, 56, 160
-0.967807, 89, 65, 152, 128
-0.967807, 49, 121, 112, 184
-0.967869, 413, 177, 444, 304
-0.967943, 17, 57, 80, 120
-0.968104, 329, 257, 392, 320
-0.968116, 129, 153, 256, 216
-0.968124, 65, 73, 192, 136
-0.968279, 417, 49, 480, 176
-0.968293, 389, 1, 420, 128
-0.968356, 225, 1, 352, 128
-0.968404, 193, 289, 256, 352
-0.968471, 329, 129, 392, 375
-0.968629, 81, 97, 144, 352
-0.968633, 409, 233, 440, 296
-0.968725, 297, 169, 360, 232
-0.968913, 81, 185, 208, 248
-0.969082, 17, 81, 144, 144
-0.969305, 257, 241, 320, 368
-0.969494, 201, 129, 264, 375
-0.969656, 337, 17, 400, 80
-0.969816, 1, 225, 64, 352
-0.969906, 201, 185, 264, 248
-0.969939, 377, 65, 440, 320
-0.969958, 233, 193, 296, 256
-0.970042, 305, 281, 368, 344
-0.970145, 177, 129, 240, 375
-0.970188, 49, 17, 112, 80
-0.970268, 145, 193, 208, 320
-0.970336, 353, 1, 416, 256
-0.970338, 321, 65, 448, 128
-0.970469, 233, 49, 296, 176
-0.970528, 377, 17, 440, 80
-0.97059, 265, 1, 328, 128
-0.970816, 105, 153, 136, 216
-0.970978, 217, 265, 280, 328
-0.971041, 233, 41, 296, 104
-0.971509, 257, 305, 384, 368
-0.971549, 321, 241, 448, 304
-0.97161, 169, 185, 232, 248
-0.971731, 257, 49, 320, 176
-0.97187, 397, 177, 428, 304
-0.971913, 161, 129, 224, 192
-0.972027, 49, 217, 112, 280
-0.972032, 1, 145, 64, 272
-0.972049, 193, 265, 256, 328
-0.972138, 417, 153, 480, 216
-0.972185, 329, 281, 392, 344
-0.972198, 281, 209, 344, 272
-0.97243, 25, 137, 88, 200
-0.972535, 329, 1, 392, 256
-0.97263, 257, 265, 384, 328
-0.972785, 1, 121, 128, 184
-0.972803, 385, 153, 448, 216
-0.972834, 373, 1, 404, 128
-0.972911, 401, 1, 432, 128
-0.972945, 9, 33, 72, 96
-0.972991, 193, 185, 320, 248
-0.973063, 129, 201, 192, 264
-0.973073, 377, 89, 440, 152
-0.973205, 433, 225, 464, 288
-0.973219, 209, 1, 272, 128
-0.973379, 113, 217, 240, 280
-0.973542, 337, 129, 400, 192
-0.973586, 1, 193, 128, 256
-0.973663, 241, 65, 304, 128
-0.973742, 233, 129, 296, 375
-0.973752, 89, 33, 152, 96
-0.973761, 353, 129, 416, 375
-0.973805, 193, 1, 256, 64
-0.974179, 409, 249, 472, 312
-0.974194, 273, 161, 336, 224
-0.974198, 337, 97, 400, 160
-0.974234, 417, 105, 480, 168
-0.974242, 117, 161, 148, 288
-0.974345, 121, 153, 184, 216
-0.974372, 97, 129, 224, 192
-0.974372, 1, 145, 128, 208
-0.974426, 233, 105, 296, 168
-0.974486, 297, 73, 360, 136
-0.974524, 137, 129, 200, 192
-0.974533, 289, 81, 352, 208
-0.974575, 289, 1, 352, 256
-0.974655, 353, 185, 416, 248
-0.974658, 273, 169, 400, 232
-0.974734, 305, 193, 432, 256
-0.974763, 289, 241, 352, 304
-0.974786, 25, 225, 88, 288
-0.974793, 77, 49, 108, 176
-0.974971, 361, 1, 392, 128
-0.974976, 65, 49, 192, 112
-0.974981, 257, 1, 288, 128
-0.97506, 145, 65, 176, 128
-0.975085, 137, 65, 200, 320
-0.975162, 361, 257, 424, 320
-0.975212, 65, 9, 192, 72
-0.975258, 273, 65, 336, 128
-0.975263, 221, 161, 252, 288
-0.975269, 113, 89, 144, 152
-0.975372, 413, 225, 444, 352
-0.975372, 385, 129, 448, 192
-0.975378, 129, 177, 256, 240
-0.975396, 321, 17, 448, 80
-0.975422, 101, 97, 132, 160
-0.975427, 137, 41, 200, 104
-0.975458, 85, 145, 116, 272
-0.975529, 321, 153, 448, 216
-0.975665, 57, 1, 120, 256
-0.975719, 9, 1, 72, 64
-0.97578, 417, 1, 480, 64
-0.975791, 97, 73, 128, 136
-0.975795, 249, 1, 312, 256
-0.975828, 377, 1, 440, 375
-0.975846, 289, 241, 352, 368
-0.975924, 429, 209, 460, 336
-0.975929, 161, 81, 224, 144
-0.975977, 145, 1, 272, 64
-0.975987, 417, 41, 480, 104
-0.976015, 265, 17, 328, 80
-0.976108, 313, 33, 376, 96
-0.976122, 209, 145, 240, 272
-0.976135, 257, 97, 320, 224
-0.976218, 109, 185, 140, 248
-0.976305, 297, 313, 360, 375
-0.976337, 257, 185, 320, 248
-0.976385, 37, 81, 68, 144
-0.976387, 81, 161, 208, 224
-0.976497, 185, 137, 248, 200
-0.976541, 93, 49, 124, 176
-0.976568, 113, 89, 240, 152
-0.97665, 417, 129, 480, 375
-0.976748, 417, 129, 480, 192
-0.976758, 321, 265, 448, 328
-0.976802, 45, 49, 76, 176
-0.976836, 65, 209, 192, 272
-0.976932, 113, 241, 240, 368
-0.97699, 177, 241, 240, 304
-0.977204, 305, 313, 432, 375
-0.977236, 217, 129, 280, 192
-0.977262, 421, 225, 452, 288
-0.977392, 181, 145, 212, 272
-0.977394, 257, 273, 320, 336
-0.977396, 129, 161, 160, 288
-0.977436, 213, 153, 244, 216
-0.977444, 353, 305, 416, 368
-0.977486, 105, 177, 136, 304
-0.977498, 77, 73, 108, 136
-0.977582, 405, 49, 436, 176
-0.977583, 169, 57, 232, 120
-0.977589, 321, 41, 448, 104
-0.977589, 65, 97, 192, 160
-0.977636, 193, 313, 256, 375
-0.977669, 329, 145, 360, 272
-0.977691, 177, 297, 304, 360
-0.977812, 81, 97, 112, 160
-0.977851, 321, 225, 352, 352
-0.977861, 145, 65, 272, 128
-0.978045, 401, 241, 432, 368
-0.978058, 241, 201, 368, 264
-0.978111, 225, 153, 352, 216
-0.97813, 345, 1, 376, 64
-0.978194, 177, 161, 304, 224
-0.978218, 337, 241, 400, 368
-0.978222, 377, 233, 440, 296
-0.978242, 369, 17, 496, 80
-0.978295, 245, 177, 276, 304
-0.978313, 265, 177, 296, 304
-0.978337, 193, 193, 256, 320
-0.978364, 213, 241, 244, 368
-0.978374, 185, 1, 248, 256
-0.97838, 97, 129, 128, 192
-0.978485, 345, 97, 376, 224
-0.9785, 57, 225, 120, 352
-0.978505, 273, 25, 400, 88
-0.97852, 57, 73, 88, 136
-0.978529, 257, 41, 320, 104
-0.978536, 257, 121, 384, 184
-0.978589, 165, 89, 196, 152
-0.978622, 209, 225, 272, 288
-0.978631, 161, 1, 192, 128
-0.978662, 1, 217, 128, 280
-0.978669, 241, 73, 368, 136
-0.978685, 321, 89, 448, 152
-0.97872, 121, 153, 152, 216
-0.978744, 185, 113, 248, 176
-0.978762, 237, 297, 268, 360
-0.978766, 425, 201, 488, 264
-0.978808, 1, 169, 128, 232
-0.978862, 33, 65, 96, 320
-0.978877, 265, 129, 296, 256
-0.978883, 313, 145, 376, 208
-0.97891, 49, 97, 80, 160
-0.978973, 345, 153, 376, 216
-0.978994, 345, 49, 376, 112
-0.979026, 237, 225, 268, 352
-0.979052, 389, 49, 420, 176
-0.979076, 417, 81, 480, 144
-0.97908, 29, 97, 60, 224
-0.979092, 1, 209, 64, 272
-0.979104, 329, 193, 360, 256
-0.979107, 289, 1, 352, 64
-0.97915, 393, 257, 424, 320
-0.979172, 225, 17, 288, 80
-0.979237, 177, 137, 304, 200
-0.979361, 1, 41, 128, 104
-0.979361, 249, 305, 280, 368
-0.979443, 113, 1, 176, 128
-0.979467, 257, 97, 320, 352
-0.979471, 241, 1, 368, 64
-0.979485, 353, 1, 416, 375
-0.979501, 113, 33, 176, 288
-0.979562, 121, 113, 152, 240
-0.97959, 321, 217, 448, 280
-0.979606, 177, 113, 304, 176
-0.979667, 21, 73, 52, 136
-0.979719, 361, 281, 392, 344
-0.979837, 93, 49, 124, 112
-0.979867, 193, 161, 224, 288
-0.979884, 369, 49, 496, 112
-0.97991, 157, 9, 188, 72
-0.980012, 329, 305, 360, 368
-0.980041, 345, 1, 376, 128
-0.980041, 385, 177, 416, 304
-0.980106, 233, 129, 264, 256
-0.980133, 89, 9, 152, 72
-0.980181, 321, 129, 448, 192
-0.980191, 209, 33, 272, 288
-0.980208, 417, 1, 480, 256
-0.980293, 305, 289, 432, 352
-0.980376, 73, 1, 104, 128
-0.980399, 49, 121, 176, 184
-0.980511, 313, 313, 344, 375
-0.980516, 65, 49, 96, 176
-0.980542, 413, 185, 444, 248
-0.980669, 465, 225, 496, 352
-0.980698, 393, 65, 424, 128
-0.980737, 1, 1, 128, 64
-0.980762, 365, 65, 396, 128
-0.980763, 85, 193, 116, 320
-0.980767, 137, 193, 168, 256
-0.980776, 417, 177, 480, 240
-0.980795, 1, 305, 64, 368
-0.98088, 57, 129, 120, 375
-0.980888, 209, 265, 336, 328
-0.980985, 405, 257, 436, 320
-0.981005, 365, 49, 396, 176
-0.981021, 361, 17, 392, 80
-0.981027, 117, 129, 148, 192
-0.981051, 273, 49, 400, 112
-0.981062, 85, 1, 116, 128
-0.98107, 329, 209, 392, 272
-0.981127, 137, 1, 200, 375
-0.981197, 273, 145, 400, 208
-0.981251, 405, 25, 436, 88
-0.981264, 181, 1, 212, 128
-0.981292, 97, 177, 128, 240
-0.981299, 41, 57, 72, 120
-0.981299, 217, 81, 280, 144
-0.981344, 189, 169, 220, 232
-0.981398, 105, 209, 136, 272
-0.981444, 369, 241, 496, 304
-0.981456, 1, 185, 64, 248
-0.981467, 257, 1, 320, 375
-0.981502, 29, 121, 60, 184
-0.981535, 133, 65, 164, 128
-0.98158, 73, 177, 104, 304
-0.981597, 329, 161, 360, 224
-0.981616, 189, 209, 220, 272
-0.981702, 257, 97, 384, 160
-0.981748, 89, 313, 152, 375
-0.981794, 377, 313, 440, 375
-0.981803, 113, 129, 176, 375
-0.981854, 389, 41, 420, 104
-0.981892, 169, 1, 232, 375
-0.981913, 221, 97, 252, 224
-0.981913, 297, 97, 360, 352
-0.981918, 169, 145, 200, 208
-0.981927, 353, 185, 480, 248
-0.98198, 213, 257, 244, 320
-0.981995, 217, 289, 248, 352
-0.982011, 89, 1, 152, 256
-0.982012, 281, 289, 344, 352
-0.982018, 141, 161, 172, 288
-0.982065, 241, 241, 368, 304
-0.982142, 209, 49, 272, 176
-0.982152, 25, 49, 56, 176
-0.982162, 217, 1, 280, 375
-0.982174, 201, 25, 264, 88
-0.982269, 69, 201, 100, 264
-0.982278, 165, 81, 196, 208
-0.982281, 141, 49, 172, 176
-0.982393, 389, 241, 420, 368
-0.982401, 129, 305, 256, 368
-0.982449, 169, 129, 200, 256
-0.982495, 361, 113, 424, 176
-0.982501, 141, 1, 172, 128
-0.982625, 25, 169, 88, 232
-0.982634, 353, 305, 480, 368
-0.982636, 457, 225, 488, 288
-0.982637, 133, 169, 164, 232
-0.98268, 201, 209, 232, 336
-0.982698, 369, 73, 496, 136
-0.982717, 329, 233, 392, 296
-0.982728, 193, 41, 320, 104
-0.982759, 161, 89, 288, 152
-0.982803, 381, 273, 412, 336
-0.982899, 225, 169, 256, 232
-0.982956, 369, 161, 496, 224
-0.983165, 81, 97, 112, 224
-0.98318, 129, 305, 192, 368
-0.983255, 413, 1, 444, 128
-0.98336, 233, 273, 264, 336
-0.983395, 313, 97, 376, 160
-0.983395, 201, 153, 232, 216
-0.983396, 33, 145, 64, 272
-0.983424, 161, 1, 224, 256
-0.983491, 225, 145, 256, 208
-0.983493, 193, 9, 320, 72
-0.983527, 61, 209, 92, 336
-0.983581, 421, 249, 452, 312
-0.983654, 265, 153, 296, 216
-0.983726, 245, 193, 276, 256
-0.983758, 341, 281, 372, 344
-0.983762, 369, 113, 496, 176
-0.983808, 405, 65, 436, 128
-0.983837, 377, 41, 408, 104
-0.983844, 377, 65, 408, 128
-0.983853, 129, 249, 256, 312
-0.98386, 1, 129, 64, 375
-0.983865, 369, 265, 496, 328
-0.983954, 469, 241, 500, 304
-0.983955, 261, 41, 292, 104
-0.983962, 145, 89, 176, 152
-0.983966, 253, 113, 284, 240
-0.98399, 113, 25, 240, 88
-0.98402, 309, 209, 340, 336
-0.984025, 41, 1, 104, 375
-0.984028, 133, 89, 164, 152
-0.984089, 297, 1, 360, 375
-0.984187, 85, 161, 116, 224
-0.984194, 73, 9, 104, 72
-0.984241, 377, 241, 408, 368
-0.984268, 161, 65, 192, 128
-0.984283, 345, 49, 376, 176
-0.984292, 277, 145, 308, 272
-0.98435, 329, 1, 392, 375
-0.984426, 269, 73, 300, 136
-0.98446, 221, 121, 252, 184
-0.984469, 185, 137, 216, 200
-0.984484, 213, 1, 244, 128
-0.984518, 329, 1, 360, 128
-0.984586, 425, 161, 456, 288
-0.9846, 61, 97, 92, 160
-0.984612, 317, 225, 348, 288
-0.98474, 373, 177, 404, 304
-0.984807, 149, 153, 180, 216
-0.984809, 345, 73, 376, 136
-0.984942, 445, 225, 476, 288
-0.984986, 233, 177, 264, 304
-0.985009, 113, 65, 144, 192
-0.98503, 77, 49, 108, 112
-0.985095, 333, 241, 364, 368
-0.985188, 269, 81, 300, 208
-0.985202, 377, 49, 408, 176
-0.985419, 257, 241, 288, 368
-0.98542, 65, 1, 128, 375
-0.985437, 417, 1, 480, 375
-0.985442, 265, 193, 296, 256
-0.985443, 361, 41, 392, 104
-0.985457, 161, 273, 288, 336
-0.98548, 177, 169, 208, 232
-0.985516, 369, 193, 400, 256
-0.985522, 145, 113, 176, 240
-0.985557, 197, 1, 228, 64
-0.985603, 317, 145, 348, 272
-0.985608, 193, 241, 320, 304
-0.985787, 169, 209, 200, 272
-0.985788, 349, 25, 380, 88
-0.985794, 305, 209, 336, 272
-0.985847, 349, 177, 380, 240
-0.985878, 5, 81, 36, 144
-0.986063, 153, 209, 184, 336
-0.986065, 177, 1, 208, 64
-0.986091, 397, 129, 428, 256
-0.986091, 345, 105, 376, 168
-0.986118, 257, 9, 288, 72
-0.986127, 385, 185, 416, 248
-0.986205, 265, 313, 296, 375
-0.986281, 49, 209, 80, 336
-0.986288, 457, 161, 488, 288
-0.986315, 345, 129, 376, 192
-0.986321, 257, 73, 288, 136
-0.98633, 173, 193, 204, 320
-0.986335, 469, 177, 500, 304
-0.986343, 369, 217, 496, 280
-0.986375, 113, 65, 144, 128
-0.98639, 1, 313, 128, 375
-0.986417, 277, 49, 308, 112
-0.986439, 341, 257, 372, 320
-0.986465, 85, 25, 116, 88
-0.986469, 201, 233, 232, 296
-0.986508, 141, 17, 172, 80
-0.986579, 89, 1, 152, 375
-0.986584, 349, 145, 380, 272
-0.986599, 89, 1, 120, 64
-0.986668, 225, 313, 256, 375
-0.986673, 405, 1, 436, 64
-0.986704, 53, 1, 84, 128
-0.986732, 285, 169, 316, 232
-0.986807, 121, 209, 152, 272
-0.986888, 33, 209, 64, 336
-0.986905, 1, 289, 128, 352
-0.98692, 61, 145, 92, 272
-0.986923, 69, 225, 100, 288
-0.986944, 121, 209, 152, 336
-0.986955, 85, 217, 116, 280
-0.986978, 281, 313, 312, 375
-0.986995, 13, 105, 44, 168
-0.987102, 257, 281, 288, 344
-0.987102, 197, 1, 228, 128
-0.987213, 53, 225, 84, 288
-0.987225, 81, 313, 208, 375
-0.987229, 157, 129, 188, 256
-0.98723, 369, 169, 400, 232
-0.987252, 1, 201, 256, 264
-0.987306, 369, 97, 400, 224
-0.987362, 129, 49, 160, 176
-0.987364, 273, 33, 304, 160
-0.987399, 385, 113, 416, 240
-0.987422, 265, 113, 296, 176
-0.987431, 1, 17, 32, 144
-0.987453, 397, 169, 428, 232
-0.987503, 349, 305, 380, 368
-0.987596, 45, 97, 76, 224
-0.987603, 157, 217, 188, 280
-0.987685, 5, 57, 36, 120
-0.987745, 453, 209, 484, 336
-0.987762, 193, 97, 224, 224
-0.987791, 81, 121, 112, 184
-0.987801, 313, 169, 344, 232
-0.987947, 417, 229, 480, 260
-0.987981, 37, 209, 68, 272
-0.987996, 65, 169, 320, 232
-0.988009, 133, 113, 164, 240
-0.988047, 97, 177, 160, 208
-0.988054, 329, 281, 360, 344
-0.988082, 9, 33, 72, 288
-0.988157, 317, 193, 348, 256
-0.988189, 193, 217, 320, 280
-0.988322, 49, 145, 80, 272
-0.988326, 13, 145, 44, 272
-0.988373, 13, 97, 44, 224
-0.988407, 225, 225, 256, 352
-0.988407, 81, 189, 144, 220
-0.988445, 333, 81, 364, 208
-0.988464, 153, 241, 216, 368
-0.988492, 69, 97, 100, 224
-0.988511, 369, 137, 496, 200
-0.988608, 257, 341, 320, 372
-0.988629, 193, 65, 320, 128
-0.988648, 337, 193, 368, 320
-0.988764, 361, 177, 392, 304
-0.988781, 73, 209, 136, 240
-0.988837, 225, 297, 288, 328
-0.988866, 233, 325, 296, 356
-0.988941, 113, 89, 176, 120
-0.989029, 233, 313, 296, 344
-0.989072, 57, 97, 88, 224
-0.989084, 233, 17, 264, 144
-0.989086, 65, 81, 128, 112
-0.989183, 13, 49, 44, 176
-0.989226, 17, 85, 80, 116
-0.989276, 1, 89, 256, 152
-0.989279, 337, 69, 400, 100
-0.989287, 185, 169, 248, 200
-0.989334, 409, 129, 440, 256
-0.989388, 193, 1, 256, 375
-0.989392, 41, 81, 104, 112
-0.989402, 385, 269, 448, 300
-0.98943, 321, 329, 384, 360
-0.989446, 89, 93, 152, 124
-0.989484, 113, 1, 176, 375
-0.989504, 97, 209, 160, 240
-0.989508, 129, 193, 384, 256
-0.989516, 297, 193, 328, 320
-0.989523, 225, 285, 288, 316
-0.989566, 297, 341, 360, 372
-0.989623, 401, 253, 464, 284
-0.989628, 193, 241, 448, 304
-0.989654, 89, 105, 152, 136
-0.989661, 377, 65, 440, 96
-0.989699, 49, 97, 112, 128
-0.989709, 97, 165, 160, 196
-0.989761, 17, 97, 80, 128
-0.989771, 193, 289, 448, 352
-0.989771, 321, 181, 384, 212
-0.989774, 1, 129, 256, 192
-0.989789, 241, 81, 272, 208
-0.989842, 137, 157, 200, 188
-0.989843, 89, 77, 152, 108
-0.989851, 365, 241, 396, 368
-0.989888, 189, 209, 220, 336
-0.989944, 177, 157, 240, 188
-0.989976, 225, 337, 288, 368
-0.989984, 321, 169, 384, 200
-0.989991, 353, 21, 416, 52
-0.989999, 169, 5, 232, 36
-0.990002, 309, 1, 340, 128
-0.990027, 33, 213, 96, 244
-0.990046, 1, 1, 64, 375
-0.990049, 49, 125, 112, 156
-0.990093, 113, 197, 176, 228
-0.990093, 329, 273, 392, 304
-0.990093, 437, 161, 468, 288
-0.990097, 345, 241, 376, 368
-0.990137, 377, 85, 440, 116
-0.990145, 313, 5, 376, 36
-0.990164, 265, 61, 328, 92
-0.990174, 289, 73, 352, 104
-0.990182, 265, 329, 328, 360
-0.990192, 321, 317, 384, 348
-0.9902, 137, 89, 200, 120
-0.990205, 89, 149, 152, 180
-0.990213, 97, 1, 128, 128
-0.990238, 225, 153, 480, 216
-0.990251, 257, 185, 500, 248
-0.990287, 17, 129, 80, 160
-0.9903, 377, 53, 440, 84
-0.990317, 401, 241, 464, 272
-0.990327, 161, 213, 224, 244
-0.99033, 137, 21, 200, 52
-0.990344, 377, 109, 440, 140
-0.990363, 129, 73, 192, 104
-0.990365, 1, 65, 256, 128
-0.990368, 353, 57, 416, 88
-0.990368, 193, 217, 448, 280
-0.990383, 209, 81, 240, 208
-0.990401, 305, 197, 368, 228
-0.990402, 1, 161, 500, 224
-0.990403, 33, 201, 96, 232
-0.990436, 353, 177, 416, 208
-0.99044, 73, 121, 136, 152
-0.99044, 73, 221, 136, 252
-0.990459, 1, 65, 500, 128
-0.990479, 89, 225, 152, 352
-0.990491, 441, 209, 472, 336
-0.990507, 97, 221, 160, 252
-0.990529, 313, 61, 376, 92
-0.990532, 337, 193, 400, 224
-0.990533, 377, 249, 440, 280
-0.990535, 337, 5, 400, 36
-0.990547, 121, 181, 184, 212
-0.990552, 377, 189, 440, 220
-0.990604, 241, 65, 304, 96
-0.990624, 329, 289, 392, 320
-0.990632, 137, 201, 200, 232
-0.990644, 201, 301, 264, 332
-0.990694, 433, 241, 496, 272
-0.990717, 161, 169, 224, 200
-0.990734, 181, 81, 212, 208
-0.990747, 201, 181, 264, 212
-0.990749, 377, 177, 440, 208
-0.990753, 225, 65, 480, 128
-0.99076, 193, 325, 256, 356
-0.990764, 1, 305, 500, 368
-0.990767, 161, 145, 224, 176
-0.990791, 321, 305, 384, 336
-0.990799, 377, 121, 440, 152
-0.990799, 113, 129, 176, 160
-0.990826, 353, 157, 416, 188
-0.990854, 17, 65, 80, 96
-0.990864, 81, 289, 208, 352
-0.990865, 121, 169, 184, 200
-0.990888, 337, 261, 400, 292
-0.990904, 73, 133, 136, 164
-0.990934, 97, 89, 352, 152
-0.990943, 417, 117, 480, 148
-0.990954, 113, 153, 176, 184
-0.990955, 249, 297, 312, 328
-0.99096, 225, 273, 288, 304
-0.990972, 193, 289, 256, 320
-0.990972, 377, 17, 440, 48
-0.990974, 305, 285, 368, 316
-0.990993, 201, 157, 264, 188
-0.990994, 289, 61, 352, 92
-0.991002, 361, 273, 424, 304
-0.991015, 281, 241, 312, 368
-0.991016, 233, 161, 296, 192
-0.991038, 321, 157, 384, 188
-0.991042, 377, 97, 440, 128
-0.99105, 225, 313, 480, 375
-0.991067, 377, 157, 440, 188
-0.991074, 265, 77, 328, 108
-0.991084, 417, 169, 480, 200
-0.991086, 225, 1, 480, 64
-0.99109, 1, 185, 500, 248
-0.991098, 469, 65, 500, 192
-0.991125, 285, 81, 316, 208
-0.991126, 353, 117, 416, 148
-0.991127, 57, 197, 120, 228
-0.991132, 337, 97, 400, 128
-0.991139, 65, 65, 128, 96
-0.99114, 257, 49, 288, 176
-0.991144, 217, 261, 280, 292
-0.991151, 241, 173, 304, 204
-0.991154, 249, 197, 312, 228
-0.991164, 313, 73, 376, 104
-0.991167, 73, 169, 136, 200
-0.991174, 49, 29, 112, 60
-0.991179, 353, 85, 416, 116
-0.991187, 209, 313, 272, 344
-0.991196, 345, 309, 408, 340
-0.991201, 273, 181, 336, 212
-0.991209, 49, 229, 112, 260
-0.991226, 185, 277, 248, 308
-0.991232, 73, 325, 136, 356
-0.991242, 137, 101, 200, 132
-0.991245, 377, 37, 440, 68
-0.991247, 113, 117, 176, 148
-0.991255, 121, 217, 184, 248
-0.991256, 417, 129, 480, 160
-0.991264, 49, 329, 112, 360
-0.991271, 1, 233, 500, 296
-0.991286, 161, 265, 416, 328
-0.991288, 353, 289, 416, 320
-0.991291, 89, 37, 152, 68
-0.9913, 417, 157, 480, 188
-0.991301, 265, 29, 328, 60
-0.991309, 353, 145, 416, 176
-0.99134, 161, 17, 224, 48
-0.991352, 249, 285, 312, 316
-0.991523, 129, 145, 384, 208
-0.991665, 1, 137, 500, 200
-0.991669, 129, 1, 384, 64
-0.991705, 137, 209, 168, 336
-0.991748, 269, 241, 300, 368
-0.991751, 33, 17, 288, 80
-0.991785, 33, 225, 288, 288
-0.991816, 1, 65, 32, 192
-0.99186, 129, 65, 384, 128
-0.991869, 413, 245, 444, 276
-0.991875, 129, 1, 160, 128
-0.991898, 41, 1, 72, 128
-0.991963, 257, 121, 500, 184
-0.991974, 309, 337, 340, 368
-0.992052, 121, 181, 152, 212
-0.992082, 257, 265, 500, 328
-0.992105, 33, 41, 288, 104
-0.9922, 117, 169, 148, 200
-0.992265, 113, 93, 144, 124
-0.992282, 33, 85, 64, 116
-0.992364, 105, 181, 136, 212
-0.992372, 49, 85, 80, 116
-0.992377, 1, 17, 500, 80
-0.992385, 101, 153, 132, 184
-0.992385, 425, 229, 456, 260
-0.9924, 161, 85, 192, 116
-0.992403, 77, 93, 108, 124
-0.992412, 85, 193, 116, 224
-0.992413, 237, 313, 268, 344
-0.992415, 209, 161, 240, 192
-0.992427, 425, 233, 440, 296
-0.992438, 97, 305, 352, 368
-0.992448, 105, 169, 136, 200
-0.992457, 17, 97, 144, 128
-0.992499, 169, 157, 200, 188
-0.992502, 21, 85, 52, 116
-0.992519, 145, 77, 176, 108
-0.992521, 69, 81, 100, 112
-0.992531, 265, 337, 296, 368
-0.992536, 249, 321, 280, 352
-0.99255, 345, 5, 376, 36
-0.992552, 85, 205, 116, 236
-0.992554, 133, 165, 164, 196
-0.992567, 101, 93, 132, 124
-0.992578, 181, 169, 212, 200
-0.992579, 405, 257, 436, 288
-0.992596, 97, 105, 128, 136
-0.992597, 405, 65, 436, 96
-0.992597, 25, 97, 56, 128
-0.992597, 93, 77, 124, 108
-0.992619, 105, 213, 136, 244
-0.992619, 389, 273, 420, 304
-0.992621, 121, 193, 152, 224
-0.992639, 141, 89, 172, 120
-0.992665, 253, 301, 284, 332
-0.992672, 269, 149, 300, 180
-0.992676, 81, 81, 112, 112
-0.992694, 237, 289, 268, 320
-0.992729, 389, 69, 420, 100
-0.992733, 1, 209, 500, 272
-0.992733, 129, 89, 160, 120
-0.992735, 193, 169, 224, 200
-0.992741, 457, 233, 488, 264
-0.992745, 225, 325, 256, 356
-0.992748, 281, 333, 312, 364
-0.992748, 369, 285, 400, 316
-0.992753, 277, 65, 308, 96
-0.992759, 117, 157, 148, 188
-0.99276, 165, 97, 196, 128
-0.992769, 437, 229, 468, 260
-0.992772, 241, 301, 272, 332
-0.992774, 133, 77, 164, 108
-0.99278, 221, 145, 252, 176
-0.992783, 361, 21, 392, 52
-0.992787, 157, 21, 188, 52
-0.992791, 393, 261, 424, 292
-0.992791, 97, 117, 128, 148
-0.992806, 185, 213, 216, 244
-0.992809, 433, 253, 464, 284
-0.992811, 257, 285, 288, 316
-0.992817, 189, 149, 220, 180
-0.992823, 341, 61, 372, 92
-0.992827, 1, 281, 500, 344
-0.992828, 129, 169, 256, 200
-0.992839, 405, 189, 436, 220
-0.992846, 277, 345, 308, 375
-0.992846, 113, 81, 144, 112
-0.992848, 225, 89, 480, 152
-0.992849, 69, 221, 100, 252
-0.992855, 433, 241, 464, 272
-0.992856, 365, 69, 396, 100
-0.992857, 349, 185, 380, 216
-0.992859, 89, 93, 120, 124
-0.992862, 1, 113, 500, 176
-0.992864, 105, 193, 136, 224
-0.99287, 265, 325, 296, 356
-0.992871, 221, 301, 252, 332
-0.992875, 221, 173, 252, 204
-0.992881, 149, 157, 180, 188
-0.992883, 85, 165, 116, 196
-0.992884, 261, 41, 292, 72
-0.992889, 237, 325, 268, 356
-0.99289, 325, 317, 356, 348
-0.992893, 385, 57, 416, 88
-0.992894, 37, 97, 68, 128
-0.992897, 101, 141, 132, 172
-0.992903, 329, 169, 360, 200
-0.992904, 121, 205, 152, 236
-0.992906, 313, 325, 344, 356
-0.992906, 81, 125, 112, 156
-0.992909, 85, 217, 116, 248
-0.992909, 405, 109, 436, 140
-0.99291, 25, 129, 56, 160
-0.992915, 133, 177, 164, 208
-0.992916, 413, 233, 444, 264
-0.99292, 345, 17, 376, 48
-0.992923, 321, 73, 352, 104
-0.992929, 377, 193, 408, 224
-0.992929, 377, 69, 408, 100
-0.992933, 157, 73, 188, 104
-0.992933, 265, 65, 296, 96
-0.992944, 169, 145, 200, 176
-0.992946, 113, 105, 144, 136
-0.992946, 237, 277, 268, 308
-0.992949, 409, 49, 440, 80
-0.992949, 317, 61, 348, 92
-0.992952, 93, 61, 124, 92
-0.99296, 413, 269, 444, 300
-0.992968, 345, 157, 376, 188
-0.99297, 293, 329, 324, 360
-0.992973, 329, 189, 360, 220
-0.992977, 113, 241, 176, 368
-0.992981, 73, 29, 104, 60
-0.992988, 317, 201, 348, 232
-0.992995, 261, 313, 292, 344
-0.992996, 85, 41, 116, 72
-0.992997, 361, 5, 392, 36
-0.992997, 133, 189, 164, 220
-0.993005, 137, 201, 168, 232
-0.993006, 177, 5, 208, 36
-0.993007, 225, 253, 256, 284
-0.993007, 297, 345, 328, 375
-0.993008, 373, 57, 404, 88
-0.993008, 353, 57, 384, 88
-0.993009, 229, 157, 260, 188
-0.99301, 341, 73, 372, 104
-0.993011, 321, 69, 448, 100
-0.993015, 341, 289, 372, 320
-0.993018, 401, 273, 432, 304
-0.99302, 285, 189, 316, 220
-0.993024, 401, 37, 432, 68
-0.993026, 289, 61, 320, 92
-0.993031, 469, 245, 500, 276
-0.993033, 121, 221, 152, 252
-0.993035, 405, 77, 436, 108
-0.993061, 161, 121, 416, 184
-0.993089, 65, 77, 192, 108
-0.99314, 225, 25, 480, 88
-0.993162, 321, 257, 448, 288
-0.99321, 97, 89, 224, 120
-0.9935, 65, 201, 192, 232
-0.993594, 129, 33, 384, 96
-0.993666, 81, 161, 208, 192
-0.993683, 435, 225, 450, 288
-0.993703, 273, 333, 400, 364
-0.993709, 257, 321, 384, 352
-0.993748, 1, 41, 500, 104
-0.993772, 27, 81, 42, 144
-0.993835, 225, 177, 352, 208
-0.993909, 113, 213, 240, 244
-0.993935, 65, 21, 192, 52
-0.993935, 35, 81, 50, 144
-0.993936, 1, 257, 500, 320
-0.993954, 321, 245, 448, 276
-0.993965, 41, 81, 56, 144
-0.99399, 123, 185, 138, 248
-0.994012, 1, 201, 128, 232
-0.99403, 321, 21, 448, 52
-0.994115, 1, 173, 128, 204
-0.994116, 417, 241, 432, 304
-0.99414, 113, 201, 240, 232
-0.994144, 121, 153, 136, 216
-0.994159, 47, 81, 62, 144
-0.994167, 99, 185, 114, 248
-0.994177, 135, 177, 150, 240
-0.99423, 241, 345, 368, 375
-0.994261, 81, 189, 208, 220
-0.994265, 321, 109, 448, 140
-0.994268, 1, 213, 128, 244
-0.994275, 65, 9, 192, 40
-0.994329, 53, 73, 68, 136
-0.994331, 17, 81, 144, 112
-0.994334, 193, 193, 320, 224
-0.994381, 235, 145, 250, 208
-0.994387, 257, 289, 384, 320
-0.994411, 49, 233, 176, 296
-0.994447, 321, 41, 448, 72
-0.994467, 273, 73, 400, 104
-0.994479, 335, 161, 350, 224
-0.994486, 81, 177, 208, 208
-0.994515, 1, 161, 128, 192
-0.994516, 17, 109, 144, 140
-0.99452, 1, 89, 500, 152
-0.994537, 153, 65, 168, 128
-0.994542, 65, 217, 192, 248
-0.994569, 115, 89, 130, 152
-0.994587, 321, 173, 448, 204
-0.994601, 257, 309, 384, 340
-0.994633, 65, 33, 192, 64
-0.994658, 89, 73, 104, 136
-0.994661, 129, 157, 256, 188
-0.994663, 145, 9, 272, 40
-0.994711, 65, 265, 320, 328
-0.994716, 177, 173, 304, 204
-0.994731, 97, 101, 224, 132
-0.994741, 129, 181, 256, 212
-0.994765, 53, 97, 68, 160
-0.994768, 321, 233, 448, 264
-0.994776, 409, 249, 424, 312
-0.994792, 147, 65, 162, 128
-0.9948, 229, 273, 244, 336
-0.994851, 273, 185, 400, 216
-0.99486, 145, 169, 160, 232
-0.994863, 337, 129, 464, 160
-0.994906, 289, 197, 416, 228
-0.99493, 321, 269, 448, 300
-0.99494, 273, 61, 400, 92
-0.994941, 129, 169, 144, 232
-0.99496, 225, 333, 352, 364
-0.994979, 235, 289, 250, 352
-0.994981, 89, 185, 104, 248
-0.994985, 257, 277, 384, 308
-0.994988, 273, 9, 400, 40
-0.995004, 81, 149, 208, 180
-0.995016, 177, 157, 304, 188
-0.995034, 395, 49, 410, 112
-0.995038, 321, 57, 448, 88
-0.995039, 145, 21, 272, 52
-0.995054, 189, 161, 204, 224
-0.995076, 65, 65, 192, 96
-0.995087, 271, 313, 286, 375
-0.995095, 17, 125, 144, 156
-0.99512, 369, 17, 496, 48
-0.995138, 333, 241, 348, 304
-0.995177, 59, 73, 74, 136
-0.995183, 65, 45, 192, 76
-0.995209, 369, 233, 496, 264
-0.995214, 361, 1, 376, 64
-0.995219, 97, 153, 112, 216
-0.995229, 353, 85, 480, 116
-0.995263, 401, 265, 416, 328
-0.995271, 209, 285, 336, 316
-0.995272, 1, 149, 128, 180
-0.9953, 389, 65, 404, 128
-0.995306, 1, 137, 128, 168
-0.995315, 341, 169, 356, 232
-0.995317, 369, 49, 496, 80
-0.995318, 29, 105, 44, 168
-0.995341, 209, 321, 336, 352
-0.995355, 321, 161, 448, 192
-0.995364, 59, 97, 74, 160
-0.995366, 321, 1, 448, 32
-0.995368, 257, 149, 384, 180
-0.99537, 275, 57, 290, 120
-0.995374, 369, 65, 496, 96
-0.995391, 143, 193, 158, 256
-0.995399, 259, 289, 274, 352
-0.995399, 273, 49, 400, 80
-0.9954, 215, 153, 230, 216
-0.995403, 367, 65, 382, 128
-0.995414, 1, 189, 128, 220
-0.995444, 333, 297, 348, 360
-0.99545, 323, 313, 338, 375
-0.995516, 209, 301, 336, 332
-0.995523, 237, 313, 252, 375
-0.995539, 93, 97, 108, 160
-0.99554, 43, 57, 58, 120
-0.995545, 209, 273, 336, 304
-0.995568, 81, 113, 208, 144
-0.995584, 275, 81, 290, 144
-0.995585, 337, 149, 464, 180
-0.995609, 225, 165, 352, 196
-0.995619, 111, 177, 126, 240
-0.995626, 49, 321, 176, 352
-0.995629, 17, 225, 144, 256
-0.99563, 321, 329, 448, 360
-0.995636, 229, 137, 244, 200
-0.995654, 409, 129, 440, 375
-0.995658, 321, 97, 448, 128
-0.995659, 369, 269, 496, 300
-0.99568, 273, 161, 400, 192
-0.995686, 391, 273, 406, 336
-0.9957, 257, 137, 384, 168
-0.995703, 289, 345, 416, 375
-0.995727, 369, 185, 496, 216
-0.995731, 273, 173, 400, 204
-0.995732, 257, 125, 384, 156
-0.995734, 369, 113, 496, 144
-0.995741, 123, 89, 138, 152
-0.995748, 325, 201, 340, 264
-0.99576, 195, 169, 210, 232
-0.995766, 145, 89, 272, 120
-0.995772, 1, 325, 128, 356
-0.995772, 159, 65, 174, 128
-0.995779, 69, 73, 84, 136
-0.99578, 185, 137, 200, 200
-0.995795, 221, 257, 236, 320
-0.995806, 285, 65, 300, 128
-0.995808, 241, 261, 368, 292
-0.995825, 321, 285, 448, 316
-0.995828, 19, 81, 34, 144
-0.99583, 81, 201, 96, 264
-0.995837, 129, 309, 256, 340
-0.995851, 209, 153, 224, 216
-0.995852, 1, 289, 16, 352
-0.995853, 1, 61, 128, 92
-0.995859, 369, 37, 496, 68
-0.995862, 145, 69, 272, 100
-0.995901, 109, 145, 124, 208
-0.995917, 81, 133, 208, 164
-0.99594, 141, 81, 156, 144
-0.995953, 345, 1, 376, 256
-0.995955, 241, 249, 368, 280
-0.995962, 383, 65, 398, 128
-0.995972, 119, 129, 134, 192
-0.995973, 365, 289, 380, 352
-0.995986, 273, 29, 400, 60
-0.995991, 417, 25, 432, 88
-0.995991, 135, 81, 150, 144
-0.995994, 1, 13, 128, 44
-0.995997, 193, 25, 320, 56
-0.995999, 389, 129, 420, 375
-0.996006, 389, 41, 404, 104
-0.996025, 209, 129, 240, 375
-0.996026, 321, 221, 448, 252
-0.996059, 265, 1, 296, 256
-0.996062, 221, 153, 236, 216
-0.996065, 1, 313, 256, 375
-0.996067, 221, 129, 252, 375
-0.996092, 343, 73, 358, 136
-0.996106, 421, 185, 436, 248
-0.99611, 241, 93, 368, 124
-0.996117, 385, 273, 400, 336
-0.996119, 1, 49, 128, 80
-0.996125, 103, 73, 118, 136
-0.996125, 267, 193, 282, 256
-0.99613, 139, 153, 154, 216
-0.99613, 69, 97, 84, 160
-0.996144, 47, 105, 62, 168
-0.996146, 167, 81, 182, 144
-0.996156, 1, 33, 128, 64
-0.996168, 427, 257, 442, 320
-0.996175, 177, 137, 304, 168
-0.996179, 1, 1, 128, 32
-0.996181, 305, 305, 432, 336
-0.996192, 207, 1, 222, 64
-0.996196, 79, 73, 94, 136
-0.996203, 177, 113, 304, 144
-0.996205, 289, 169, 304, 232
-0.996213, 269, 73, 284, 136
-0.996213, 177, 333, 304, 364
-0.996221, 257, 113, 384, 144
-0.996224, 243, 185, 258, 248
-0.996226, 113, 225, 240, 256
-0.996228, 209, 205, 336, 236
-0.99623, 415, 265, 430, 328
-0.996232, 89, 49, 104, 112
-0.996235, 203, 169, 218, 232
-0.996238, 183, 177, 198, 240
-0.99624, 347, 161, 362, 224
-0.996244, 417, 65, 432, 128
-0.996249, 189, 129, 220, 375
-0.99625, 331, 185, 346, 248
-0.996255, 461, 225, 476, 288
-0.99626, 369, 5, 496, 36
-0.996265, 87, 1, 102, 64
-0.996272, 193, 1, 320, 32
-0.996283, 315, 313, 330, 375
-0.996297, 257, 193, 272, 256
-0.9963, 97, 97, 128, 352
-0.996303, 369, 245, 496, 276
-0.996307, 75, 97, 90, 160
-0.996308, 129, 89, 144, 152
-0.99631, 357, 49, 372, 112
-0.996318, 363, 25, 378, 88
-0.996326, 237, 129, 268, 375
-0.996338, 241, 229, 368, 260
-0.996344, 373, 281, 388, 344
-0.996351, 319, 201, 334, 264
-0.996352, 117, 193, 132, 256
-0.996369, 427, 185, 442, 248
-0.996372, 159, 89, 174, 152
-0.996374, 193, 345, 320, 375
-0.996379, 369, 193, 384, 256
-0.99638, 273, 193, 288, 256
-0.996383, 279, 193, 294, 256
-0.996387, 345, 49, 360, 112
-0.99639, 271, 337, 286, 368
-0.996391, 401, 25, 416, 88
-0.996392, 441, 225, 456, 288
-0.996395, 113, 237, 240, 268
-0.996399, 279, 153, 294, 216
-0.996402, 365, 1, 396, 256
-0.996403, 421, 265, 436, 328
-0.996408, 173, 73, 188, 136
-0.996409, 189, 201, 204, 264
-0.996415, 467, 225, 482, 288
-0.996416, 407, 25, 422, 88
-0.996417, 227, 169, 242, 232
-0.996419, 379, 193, 394, 256
-0.996426, 95, 73, 110, 136
-0.996429, 209, 61, 336, 92
-0.996431, 151, 153, 166, 216
-0.996433, 401, 65, 416, 128
-0.996455, 225, 13, 352, 44
-0.996473, 107, 105, 122, 168
-0.996478, 427, 209, 442, 272
-0.996487, 235, 169, 250, 232
-0.99649, 41, 105, 56, 168
-0.996494, 399, 185, 414, 248
-0.996496, 131, 173, 146, 204
-0.996497, 241, 217, 368, 248
-0.996505, 379, 281, 394, 344
-0.996516, 377, 1, 408, 256
-0.996521, 321, 185, 448, 216
-0.996553, 225, 73, 352, 104
-0.996554, 145, 33, 272, 64
-0.996582, 193, 41, 320, 72
-0.996596, 129, 269, 256, 300
-0.99663, 193, 249, 320, 280
-0.996637, 329, 1, 360, 256
-0.99665, 161, 213, 288, 244
-0.996651, 85, 1, 116, 256
-0.996656, 265, 129, 296, 375
-0.996666, 145, 321, 272, 352
-0.99672, 369, 101, 496, 132
-0.996766, 277, 1, 308, 256
-0.996801, 377, 129, 408, 375
-0.996823, 85, 129, 116, 375
-0.996895, 141, 65, 172, 320
-0.996928, 177, 129, 208, 375
-0.996956, 317, 337, 332, 368
-0.996966, 389, 1, 420, 256
-0.996984, 121, 165, 136, 196
-0.996989, 237, 325, 252, 356
-0.997028, 1, 265, 128, 328
-0.997056, 109, 129, 140, 375
-0.997056, 121, 97, 152, 352
-0.99708, 45, 85, 60, 116
-0.997099, 427, 233, 442, 264
-0.99712, 361, 129, 392, 375
-0.997126, 35, 85, 50, 116
-0.997175, 323, 337, 338, 368
-0.997208, 169, 33, 200, 288
-0.997226, 333, 129, 364, 375
-0.997257, 173, 85, 188, 116
-0.997269, 59, 85, 74, 116
-0.99728, 115, 93, 130, 124
-0.997304, 139, 189, 154, 220
-0.997321, 425, 245, 440, 276
-0.997379, 53, 85, 68, 116
-0.997394, 407, 253, 422, 284
-0.997403, 91, 93, 106, 124
-0.997409, 65, 85, 80, 116
-0.99741, 151, 77, 166, 108
-0.997416, 433, 229, 448, 260
-0.997421, 73, 33, 104, 288
-0.997425, 215, 153, 230, 184
-0.997435, 249, 129, 280, 375
-0.997458, 27, 101, 42, 132
-0.99746, 193, 169, 208, 200
-0.997466, 143, 169, 158, 200
-0.997467, 71, 81, 86, 112
-0.997469, 13, 65, 44, 320
-0.997489, 121, 177, 136, 208
-0.997489, 87, 81, 102, 112
-0.997494, 405, 1, 436, 256
-0.997526, 97, 1, 128, 256
-0.997528, 259, 293, 274, 324
-0.997542, 345, 97, 376, 352
-0.997545, 277, 337, 292, 368
-0.997551, 123, 193, 138, 224
-0.997555, 145, 77, 160, 108
-0.997564, 193, 33, 224, 288
-0.997568, 419, 241, 434, 272
-0.997584, 27, 85, 42, 116
-0.997597, 213, 33, 244, 288
-0.997631, 203, 169, 218, 200
-0.997633, 269, 145, 284, 176
-0.997642, 421, 97, 452, 352
-0.997643, 97, 169, 112, 200
-0.997645, 99, 185, 114, 216
-0.997675, 311, 337, 326, 368
-0.997688, 183, 165, 198, 196
-0.997694, 157, 77, 172, 108
-0.997709, 417, 65, 432, 96
-0.997709, 33, 65, 64, 320
-0.997712, 277, 97, 308, 352
-0.997714, 165, 89, 180, 120
-0.997755, 323, 325, 338, 356
-0.997762, 453, 65, 484, 320
-0.997773, 401, 261, 416, 292
-0.99778, 399, 69, 414, 100
-0.997781, 203, 1, 218, 32
-0.997783, 395, 273, 410, 304
-0.997819, 77, 81, 92, 112
-0.99782, 469, 129, 500, 375
-0.997831, 283, 65, 298, 96
-0.997832, 155, 89, 170, 120
-0.997837, 335, 169, 350, 200
-0.99784, 365, 69, 380, 100
-0.997855, 393, 69, 408, 100
-0.997858, 259, 281, 274, 312
-0.997859, 257, 305, 272, 336
-0.997859, 285, 77, 300, 108
-0.997861, 443, 229, 458, 260
-0.997865, 243, 333, 258, 364
-0.997884, 321, 97, 352, 352
-0.997885, 253, 1, 284, 256
-0.997885, 361, 5, 376, 36
-0.997888, 93, 81, 108, 112
-0.997888, 235, 169, 250, 200
-0.997891, 241, 33, 272, 288
-0.997895, 135, 89, 150, 120
-0.997912, 275, 325, 290, 356
-0.997914, 123, 93, 138, 124
-0.997917, 143, 201, 158, 232
-0.997927, 393, 57, 408, 88
-0.997936, 261, 345, 276, 375
-0.997946, 421, 173, 436, 204
-0.997961, 413, 245, 428, 276
-0.997965, 409, 65, 424, 96
-0.997967, 289, 65, 304, 96
-0.997968, 227, 273, 242, 304
-0.997969, 79, 209, 94, 240
-0.997975, 87, 217, 102, 248
-0.997979, 89, 193, 104, 224
-0.997981, 289, 33, 320, 288
-0.997986, 345, 73, 360, 104
-0.997993, 375, 285, 390, 316
-0.998002, 137, 177, 152, 208
-0.998006, 363, 57, 378, 88
-0.99801, 231, 325, 246, 356
-0.998013, 315, 325, 330, 356
-0.99802, 231, 153, 246, 184
-0.998022, 141, 89, 156, 120
-0.998025, 97, 157, 112, 188
-0.99803, 49, 97, 64, 128
-0.998032, 181, 153, 196, 184
-0.998034, 133, 189, 148, 220
-0.99804, 21, 85, 36, 116
-0.99804, 153, 129, 184, 375
-0.998047, 237, 313, 252, 344
-0.998047, 139, 77, 154, 108
-0.998048, 273, 45, 288, 76
-0.998062, 243, 317, 258, 348
-0.998064, 317, 1, 348, 256
-0.998066, 277, 65, 292, 96
-0.998066, 423, 185, 438, 216
-0.998068, 81, 221, 96, 252
-0.998075, 115, 81, 130, 112
-0.998076, 421, 49, 436, 80
-0.99808, 29, 129, 44, 160
-0.998083, 41, 97, 56, 128
-0.998085, 341, 181, 356, 212
-0.998089, 275, 89, 290, 120
-0.99809, 249, 321, 264, 352
-0.998094, 129, 93, 144, 124
-0.998095, 165, 77, 180, 108
-0.998096, 317, 61, 332, 92
-0.9981, 137, 161, 152, 192
-0.998102, 229, 33, 260, 288
-0.998103, 403, 57, 418, 88
-0.998125, 323, 225, 338, 256
-0.998126, 413, 189, 428, 220
-0.998129, 227, 169, 242, 200
-0.998131, 329, 337, 344, 368
-0.998135, 385, 281, 400, 312
-0.998137, 145, 189, 160, 220
-0.998138, 333, 245, 348, 276
-0.998139, 279, 77, 294, 108
-0.998148, 189, 157, 204, 188
-0.99815, 237, 157, 252, 188
-0.998152, 171, 13, 186, 44
-0.998152, 85, 93, 100, 124
-0.998154, 221, 161, 236, 192
-0.998158, 363, 21, 378, 52
-0.998165, 221, 261, 236, 292
-0.998165, 427, 265, 442, 296
-0.99817, 449, 229, 464, 260
-0.99818, 149, 89, 164, 120
-0.998184, 305, 345, 320, 375
-0.998185, 319, 1, 334, 32
-0.998187, 347, 181, 362, 212
-0.998188, 229, 285, 244, 316
-0.998189, 269, 325, 284, 356
-0.998233, 165, 129, 196, 375
-0.998277, 81, 257, 208, 320
-0.998279, 1, 1, 32, 256
-0.998354, 45, 65, 76, 320
-0.998381, 421, 177, 436, 304
-0.998391, 225, 301, 288, 316
-0.998394, 73, 129, 104, 375
-0.998398, 257, 341, 320, 356
-0.998405, 417, 233, 480, 248
-0.998407, 165, 219, 196, 234
-0.998408, 121, 205, 152, 220
-0.998409, 53, 97, 84, 112
-0.998409, 405, 19, 436, 34
-0.998409, 365, 287, 396, 302
-0.998411, 405, 67, 436, 82
-0.998411, 253, 311, 284, 326
-0.998412, 221, 303, 252, 318
-0.998412, 257, 45, 288, 60
-0.998412, 105, 213, 136, 228
-0.998413, 85, 167, 116, 182
-0.998414, 45, 129, 76, 144
-0.998415, 393, 269, 424, 284
-0.998415, 33, 87, 64, 102
-0.998416, 329, 193, 360, 208
-0.998416, 417, 267, 448, 282
-0.998417, 361, 71, 392, 86
-0.998417, 309, 333, 340, 348
-0.998418, 265, 159, 296, 174
-0.99842, 53, 85, 84, 100
-0.99842, 109, 191, 140, 206
-0.998421, 177, 1, 208, 16
-0.998421, 341, 311, 372, 326
-0.998422, 221, 151, 252, 166
-0.998422, 97, 183, 160, 198
-0.998423, 169, 167, 200, 182
-0.998423, 433, 243, 464, 258
-0.998424, 73, 127, 104, 142
-0.998425, 137, 23, 168, 38
-0.998426, 73, 215, 136, 230
-0.998427, 329, 319, 360, 334
-0.998427, 93, 75, 124, 90
-0.998428, 249, 331, 280, 346
-0.998428, 297, 75, 328, 90
-0.998428, 349, 191, 380, 206
-0.998428, 157, 25, 188, 40
-0.998429, 25, 131, 56, 146
-0.99843, 97, 189, 160, 204
-0.99843, 225, 295, 288, 310
-0.99843, 413, 253, 444, 268
-0.998431, 129, 89, 192, 104
-0.998432, 245, 337, 276, 352
-0.998432, 101, 95, 132, 110
-0.998434, 141, 181, 172, 196
-0.998436, 149, 89, 180, 104
-0.998437, 265, 317, 296, 332
-0.998438, 361, 23, 392, 38
-0.998438, 101, 145, 132, 160
-0.99844, 189, 159, 220, 174
-0.99844, 169, 149, 200, 164
-0.99844, 257, 291, 288, 306
-0.99844, 61, 129, 92, 144
-0.998441, 121, 163, 152, 178
-0.998441, 233, 281, 264, 296
-0.998441, 113, 107, 144, 122
-0.998442, 97, 151, 128, 166
-0.998443, 453, 233, 484, 248
-0.998443, 85, 193, 116, 208
-0.998444, 145, 163, 176, 178
-0.998445, 129, 173, 160, 188
-0.998446, 433, 255, 464, 270
-0.998447, 309, 349, 340, 364
-0.998447, 81, 195, 144, 210
-0.998449, 441, 229, 472, 244
-0.99845, 405, 83, 436, 98
-0.99845, 225, 159, 256, 174
-0.998452, 81, 229, 112, 244
-0.998453, 97, 177, 160, 192
-0.998453, 105, 197, 136, 212
-0.998454, 177, 169, 240, 184
-0.998454, 309, 75, 340, 90
-0.998455, 265, 353, 296, 368
-0.998456, 121, 195, 152, 210
-0.998457, 209, 169, 240, 184
-0.998457, 233, 335, 264, 350
-0.998458, 97, 191, 128, 206
-0.998461, 189, 165, 220, 180
-0.998461, 169, 155, 200, 170
-0.998461, 73, 209, 136, 224
-0.998461, 221, 329, 252, 344
-0.998463, 157, 17, 188, 32
-0.998463, 181, 171, 212, 186
-0.998464, 101, 159, 132, 174
-0.998465, 345, 7, 376, 22
-0.998465, 265, 347, 328, 362
-0.998465, 385, 275, 448, 290
-0.998469, 85, 215, 116, 230
-0.99847, 405, 39, 436, 54
-0.998471, 185, 215, 216, 230
-0.998472, 225, 289, 288, 304
-0.998473, 225, 165, 256, 180
-0.998475, 261, 347, 292, 362
-0.998476, 197, 1, 228, 16
-0.998477, 429, 231, 460, 246
-0.998477, 401, 249, 464, 264
-0.998477, 109, 33, 140, 288
-0.998479, 165, 99, 196, 114
-0.998479, 289, 75, 352, 90
-0.998479, 73, 203, 136, 218
-0.99848, 277, 335, 308, 350
-0.998482, 193, 171, 224, 186
-0.998483, 241, 315, 272, 330
-0.998483, 405, 117, 436, 132
-0.998484, 345, 1, 376, 16
-0.998485, 85, 199, 116, 214
-0.998487, 89, 95, 120, 110
-0.998487, 233, 329, 296, 344
-0.998488, 81, 221, 144, 236
-0.998488, 177, 159, 240, 174
-0.99849, 321, 191, 384, 206
-0.998491, 253, 305, 284, 320
-0.998492, 49, 97, 112, 112
-0.998492, 89, 107, 152, 122
-0.998493, 105, 173, 136, 188
-0.998493, 285, 77, 316, 92
-0.998495, 253, 319, 284, 334
-0.998495, 281, 341, 344, 356
-0.998495, 345, 17, 376, 32
-0.998495, 393, 269, 456, 284
-0.998497, 341, 71, 372, 86
-0.998498, 213, 157, 244, 172
-0.998498, 321, 333, 384, 348
-0.998498, 105, 93, 168, 108
-0.998499, 17, 101, 80, 116
-0.9985, 113, 93, 144, 108
-0.998501, 85, 205, 116, 220
-0.998502, 169, 161, 200, 176
-0.998502, 193, 305, 256, 320
-0.998502, 161, 217, 224, 232
-0.998503, 237, 289, 268, 304
-0.998505, 97, 107, 128, 122
-0.998506, 425, 237, 456, 252
-0.998506, 237, 301, 268, 316
-0.998507, 253, 297, 284, 312
-0.998507, 257, 353, 320, 368
-0.998507, 305, 341, 368, 356
-0.998509, 393, 255, 456, 270
-0.998509, 233, 329, 264, 344
-0.998512, 329, 73, 392, 88
-0.998512, 297, 349, 360, 364
-0.998513, 33, 221, 96, 236
-0.998514, 225, 307, 288, 322
-0.998515, 377, 115, 440, 130
-0.998515, 1, 289, 256, 352
-0.998515, 105, 219, 136, 234
-0.998515, 97, 211, 160, 226
-0.998516, 405, 267, 436, 282
-0.998518, 137, 19, 200, 34
-0.998519, 265, 335, 328, 350
-0.99852, 193, 327, 256, 342
-0.99852, 321, 181, 384, 196
-0.998521, 233, 345, 296, 360
-0.998523, 377, 69, 440, 84
-0.998524, 337, 197, 400, 212
-0.998524, 313, 1, 376, 16
-0.998524, 73, 127, 136, 142
-0.998524, 369, 21, 432, 36
-0.998525, 25, 101, 56, 116
-0.998525, 321, 171, 384, 186
-0.998525, 77, 97, 108, 112
-0.998526, 33, 213, 96, 228
-0.998526, 393, 275, 424, 290
-0.998527, 377, 87, 440, 102
-0.99853, 233, 323, 296, 338
-0.998531, 417, 239, 480, 254
-0.998532, 321, 75, 352, 90
-0.998532, 105, 179, 136, 194
-0.998532, 233, 335, 296, 350
-0.998532, 117, 169, 148, 184
-0.998534, 25, 129, 88, 144
-0.998534, 169, 1, 232, 16
-0.998535, 297, 203, 360, 218
-0.998537, 97, 101, 128, 116
-0.998538, 385, 261, 448, 276
-0.998538, 17, 79, 80, 94
-0.998538, 85, 221, 116, 236
-0.998538, 121, 187, 184, 202
-0.998538, 225, 283, 288, 298
-0.998538, 433, 245, 496, 260
-0.998539, 129, 179, 160, 194
-0.99854, 377, 121, 440, 136
-0.99854, 201, 189, 264, 204
-0.998541, 1, 241, 128, 304
-0.998542, 145, 159, 208, 174
-0.998543, 329, 281, 392, 296
-0.998544, 97, 205, 160, 220
-0.998546, 73, 227, 136, 242
-0.998546, 237, 295, 268, 310
-0.998546, 113, 167, 176, 182
-0.998547, 89, 169, 152, 184
-0.998547, 89, 157, 152, 172
-0.998549, 169, 7, 232, 22
-0.998549, 265, 151, 296, 166
-0.99855, 105, 217, 168, 232
-0.998552, 313, 7, 376, 22
-0.998552, 73, 189, 136, 204
-0.998552, 241, 321, 272, 336
-0.998553, 233, 317, 296, 332
-0.998554, 353, 175, 416, 190
-0.998554, 49, 129, 112, 144
-0.998556, 73, 137, 136, 152
-0.998557, 313, 19, 376, 34
-0.998557, 145, 167, 208, 182
-0.998558, 353, 163, 416, 178
-0.998559, 217, 269, 280, 284
-0.998559, 377, 193, 440, 208
-0.99856, 33, 205, 96, 220
-0.99856, 61, 65, 92, 320
-0.998561, 337, 275, 400, 290
-0.998562, 113, 197, 176, 212
-0.998562, 161, 151, 224, 166
-0.998563, 377, 179, 440, 194
-0.998564, 361, 185, 424, 200
-0.998564, 161, 89, 192, 104
-0.998564, 217, 261, 280, 276
-0.998565, 209, 163, 240, 178
-0.998565, 137, 27, 200, 42
-0.998565, 49, 83, 112, 98
-0.998566, 313, 325, 376, 340
-0.998567, 233, 185, 296, 200
-0.998567, 257, 359, 320, 374
-0.998568, 329, 311, 392, 326
-0.998568, 265, 77, 328, 92
-0.998569, 249, 201, 312, 216
-0.99857, 353, 157, 416, 172
-0.998571, 321, 165, 384, 180
-0.998573, 337, 19, 400, 34
-0.998574, 105, 223, 168, 238
-0.998574, 129, 213, 192, 228
-0.998575, 329, 289, 392, 304
-0.998575, 345, 191, 408, 206
-0.998575, 353, 69, 416, 84
-0.998575, 273, 7, 336, 22
-0.998575, 89, 101, 152, 116
-0.998577, 129, 219, 192, 234
-0.998577, 49, 135, 112, 150
-0.998578, 97, 165, 128, 180
-0.998578, 417, 175, 480, 190
-0.998578, 377, 165, 440, 180
-0.998578, 89, 163, 152, 178
-0.998578, 377, 245, 440, 260
-0.998578, 417, 127, 480, 142
-0.998579, 225, 277, 288, 292
-0.998579, 249, 295, 312, 310
-0.99858, 201, 181, 264, 196
-0.998581, 415, 177, 430, 304
-0.998582, 201, 165, 264, 180
-0.998582, 121, 181, 184, 196
-0.998582, 353, 169, 416, 184
-0.998582, 377, 109, 440, 124
-0.998583, 233, 73, 296, 88
-0.998585, 281, 195, 344, 210
-0.998587, 257, 151, 320, 166
-0.998588, 377, 155, 440, 170
-0.998588, 241, 159, 304, 174
-0.998603, 397, 1, 412, 128
-0.998608, 105, 185, 136, 200
-0.99861, 389, 1, 404, 128
-0.998619, 125, 189, 156, 204
-0.998623, 265, 341, 296, 356
-0.998625, 131, 161, 146, 288
-0.998636, 117, 175, 148, 190
-0.998652, 117, 181, 148, 196
-0.998653, 409, 177, 424, 304
-0.998659, 427, 177, 442, 304
-0.998668, 413, 247, 444, 262
-0.99867, 415, 1, 430, 128
-0.998712, 313, 339, 344, 354
-0.998717, 189, 145, 204, 272
-0.998722, 403, 1, 418, 128
-0.998736, 309, 97, 340, 352
-0.998745, 235, 129, 250, 256
-0.998752, 423, 225, 438, 352
-0.998754, 97, 129, 112, 256
-0.998772, 409, 1, 424, 128
-0.998781, 181, 33, 212, 288
-0.998792, 383, 1, 398, 128
-0.998799, 125, 161, 140, 288
-0.998805, 365, 1, 380, 128
-0.998815, 89, 177, 104, 304
-0.998819, 111, 129, 126, 256
-0.998821, 271, 1, 286, 128
-0.998823, 339, 145, 354, 272
-0.998827, 333, 225, 348, 352
-0.998839, 399, 177, 414, 304
-0.998855, 279, 113, 294, 240
-0.99886, 417, 225, 432, 352
-0.998862, 433, 129, 464, 375
-0.998868, 89, 17, 104, 144
-0.998869, 49, 49, 64, 176
-0.998872, 209, 145, 224, 272
-0.998873, 395, 49, 410, 176
-0.998881, 333, 145, 348, 272
-0.998895, 215, 145, 230, 272
-0.998895, 469, 33, 500, 288
-0.998898, 143, 129, 158, 256
-0.9989, 137, 161, 152, 288
-0.998909, 433, 209, 448, 336
-0.998919, 105, 49, 120, 176
-0.99892, 393, 177, 408, 304
-0.998924, 253, 177, 268, 304
-0.998924, 407, 241, 422, 368
-0.998952, 181, 129, 196, 256
-0.998962, 129, 1, 160, 256
-0.998966, 57, 49, 72, 176
-0.998989, 269, 129, 284, 256
-0.998992, 371, 1, 386, 128
-0.998996, 345, 97, 360, 224
-0.999, 153, 33, 184, 288
-0.999001, 119, 161, 134, 288
-0.999006, 99, 177, 114, 304
-0.99901, 221, 145, 236, 272
-0.999017, 147, 1, 162, 128
-0.999019, 33, 97, 48, 224
-0.99902, 259, 177, 274, 304
-0.999024, 247, 177, 262, 304
-0.999025, 231, 81, 246, 208
-0.999033, 421, 1, 436, 128
-0.999033, 195, 161, 210, 288
-0.999038, 367, 49, 382, 176
-0.999049, 121, 113, 136, 240
-0.999058, 83, 177, 98, 304
-0.999061, 67, 49, 82, 176
-0.999067, 325, 177, 340, 304
-0.999073, 485, 241, 500, 368
-0.999076, 227, 161, 242, 288
-0.999078, 43, 49, 58, 176
-0.999084, 377, 1, 392, 128
-0.999084, 389, 49, 404, 176
-0.999086, 267, 177, 282, 304
-0.99909, 173, 1, 188, 128
-0.999099, 479, 225, 494, 352
-0.999101, 277, 33, 292, 160
-0.999103, 401, 241, 416, 368
-0.999104, 407, 49, 422, 176
-0.999114, 417, 49, 432, 176
-0.999114, 275, 177, 290, 304
-0.999118, 71, 209, 86, 336
-0.999119, 261, 113, 276, 240
-0.999123, 227, 241, 242, 368
-0.999129, 385, 177, 400, 304
-0.999133, 339, 97, 354, 224
-0.999136, 257, 1, 272, 128
-0.999138, 425, 1, 456, 256
-0.99914, 281, 177, 296, 304
-0.999145, 387, 241, 402, 368
-0.999147, 11, 1, 26, 128
-0.999148, 99, 1, 114, 128
-0.999152, 203, 161, 218, 288
-0.999154, 357, 17, 372, 144
-0.999155, 135, 113, 150, 240
-0.999157, 341, 1, 356, 128
-0.999159, 171, 161, 186, 288
-0.999159, 143, 177, 158, 304
-0.999159, 73, 49, 88, 176
-0.999162, 83, 49, 98, 176
-0.999166, 211, 225, 226, 352
-0.999168, 17, 65, 32, 192
-0.999173, 91, 65, 106, 192
-0.999173, 37, 49, 52, 176
-0.999176, 287, 161, 302, 288
-0.999181, 395, 113, 410, 240
-0.999185, 471, 225, 486, 352
-0.999186, 401, 49, 416, 176
-0.999192, 241, 177, 256, 304
-0.999195, 117, 65, 132, 192
-0.999198, 219, 241, 234, 368
-0.999206, 257, 241, 272, 368
-0.999209, 65, 209, 80, 336
-0.999211, 227, 1, 242, 128
-0.999216, 393, 241, 408, 368
-0.999217, 153, 49, 168, 176
-0.999218, 383, 49, 398, 176
-0.999219, 143, 49, 158, 176
-0.99922, 247, 241, 262, 368
-0.999225, 225, 97, 240, 224
-0.999227, 191, 1, 206, 128
-0.999227, 235, 241, 250, 368
-0.999228, 389, 113, 404, 240
-0.999229, 27, 49, 42, 176
-0.999231, 25, 129, 40, 256
-0.999231, 103, 129, 118, 256
-0.999238, 359, 97, 374, 224
-0.999239, 49, 97, 64, 224
-0.999239, 469, 161, 484, 288
-0.99924, 167, 209, 182, 336
-0.999241, 327, 225, 342, 352
-0.999241, 269, 65, 284, 192
-0.999244, 83, 1, 98, 128
-0.999246, 263, 1, 278, 128
-0.999247, 201, 1, 216, 128
-0.999248, 49, 1, 64, 128
-0.999253, 207, 1, 222, 128
-0.999257, 421, 129, 436, 256
-0.99926, 59, 97, 74, 224
-0.999263, 379, 177, 394, 304
-0.999264, 43, 97, 58, 224
-0.999304, 305, 1, 336, 256
-0.999468, 289, 129, 320, 375
-0.999582, 361, 169, 376, 184
-0.999583, 319, 7, 334, 22
-0.999583, 411, 115, 426, 130
-0.999583, 421, 191, 436, 206
-0.999584, 343, 199, 358, 214
-0.999585, 249, 333, 264, 348
-0.999585, 395, 85, 410, 100
-0.999585, 145, 203, 160, 218
-0.999585, 361, 3, 376, 18
-0.999586, 193, 1, 208, 16
-0.999586, 65, 97, 80, 112
-0.999586, 263, 351, 278, 366
-0.999587, 461, 233, 476, 248
-0.999587, 397, 117, 412, 132
-0.999587, 275, 85, 290, 100
-0.999587, 281, 349, 296, 364
-0.999588, 227, 173, 242, 188
-0.999588, 283, 343, 298, 358
-0.999588, 413, 269, 428, 284
-0.999588, 173, 219, 188, 234
-0.999588, 259, 285, 274, 300
-0.999589, 289, 173, 304, 188
-0.999589, 181, 149, 196, 164
-0.999589, 267, 319, 282, 334
-0.99959, 79, 213, 94, 228
-0.99959, 419, 239, 434, 254
-0.99959, 381, 285, 396, 300
-0.99959, 61, 129, 76, 144
-0.99959, 45, 87, 60, 102
-0.99959, 67, 129, 82, 144
-0.999592, 237, 337, 252, 352
-0.999592, 355, 67, 370, 82
-0.999593, 345, 177, 360, 192
-0.999593, 201, 1, 216, 16
-0.999593, 313, 215, 328, 230
-0.999596, 417, 67, 432, 82
-0.999596, 335, 169, 350, 184
-0.999596, 259, 199, 274, 214
-0.999597, 279, 79, 294, 94
-0.999597, 55, 81, 70, 96
-0.999598, 311, 341, 326, 356
-0.999598, 245, 193, 260, 208
-0.999599, 275, 333, 290, 348
-0.999599, 127, 167, 142, 182
-0.999599, 33, 101, 48, 116
-0.9996, 279, 153, 294, 168
-0.9996, 205, 171, 220, 186
-0.9996, 289, 197, 304, 212
-0.999601, 301, 77, 316, 92
-0.999601, 319, 223, 334, 238
-0.999601, 347, 191, 362, 206
-0.999602, 197, 171, 212, 186
-0.999603, 307, 211, 322, 226
-0.999604, 365, 73, 380, 88
-0.999605, 227, 157, 242, 172
-0.999606, 419, 115, 434, 130
-0.999607, 29, 131, 44, 146
-0.999607, 439, 229, 454, 244
-0.999607, 165, 89, 180, 104
-0.999607, 257, 313, 272, 328
-0.999607, 419, 267, 434, 282
-0.999607, 191, 207, 206, 222
-0.999608, 295, 77, 310, 92
-0.999608, 231, 165, 246, 180
-0.999608, 307, 75, 322, 90
-0.999608, 319, 1, 334, 16
-0.999609, 51, 99, 66, 114
-0.99961, 187, 161, 202, 176
-0.999611, 211, 1, 226, 16
-0.999611, 323, 75, 338, 90
-0.999612, 329, 73, 344, 88
-0.999613, 321, 331, 336, 346
-0.999614, 467, 235, 482, 250
-0.999615, 337, 191, 352, 206
-0.999616, 419, 83, 434, 98
-0.999616, 181, 161, 196, 176
-0.999617, 235, 145, 250, 160
-0.999618, 387, 281, 402, 296
-0.999619, 269, 351, 284, 366
-0.999624, 399, 269, 414, 284
-0.999624, 281, 337, 296, 352
-0.999626, 87, 223, 102, 238
-0.999626, 309, 349, 324, 364
-0.999627, 275, 353, 290, 368
-0.999627, 143, 173, 158, 188
-0.999628, 237, 171, 252, 186
-0.999632, 425, 265, 440, 280
-0.999632, 335, 75, 350, 90
-0.999634, 317, 75, 332, 90
-0.999634, 99, 165, 114, 180
-0.999635, 185, 169, 200, 184
-0.999637, 275, 347, 290, 362
-0.999641, 259, 319, 274, 334
-0.999641, 243, 335, 258, 350
-0.999644, 169, 17, 184, 32
-0.999645, 137, 167, 152, 182
-0.999646, 131, 189, 146, 204
-0.999647, 405, 267, 420, 282
-0.999652, 115, 95, 130, 110
-0.999652, 397, 275, 412, 290
-0.999652, 259, 297, 274, 312
-0.999655, 235, 323, 250, 338
-0.999655, 343, 75, 358, 90
-0.99966, 269, 357, 284, 372
-0.999662, 27, 101, 42, 116
-0.999663, 99, 189, 114, 204
-0.999667, 433, 231, 448, 246
-0.999668, 91, 97, 106, 112
-0.999669, 147, 163, 162, 178
-0.99967, 191, 169, 206, 184
-0.999673, 419, 245, 434, 260
-0.999675, 121, 179, 136, 194
-0.999675, 123, 193, 138, 208
-0.999676, 285, 79, 300, 94
-0.999677, 139, 193, 154, 208
-0.99968, 141, 185, 156, 200
-0.999684, 173, 89, 188, 104
-0.999685, 121, 169, 136, 184
-0.999685, 259, 291, 274, 306
-0.999687, 425, 237, 440, 252
-0.999689, 427, 247, 442, 262
-0.999691, 317, 339, 332, 354
-0.999692, 325, 339, 340, 354
-0.999719, 133, 183, 148, 198
-0.999749, 121, 185, 136, 200
-0.999754, 215, 159, 230, 174
-0.999767, 269, 151, 284, 166
-0.999768, 271, 339, 286, 354
-0.999777, 237, 329, 252, 344
-0.999831, 131, 177, 146, 192
-0.999964, 1, 97, 32, 352
-1.0002, 441, 33, 472, 288
