1883
-0.53333, 1, 1, 500, 256
-0.583921, 1, 1, 500, 333
-0.63926, 193, 1, 448, 333
-0.651392, 97, 1, 352, 333
-0.685636, 1, 1, 256, 333
-0.711509, 1, 1, 256, 256
-0.716409, 161, 33, 416, 288
-0.873241, 257, 1, 500, 256
-0.887336, 49, 1, 176, 333
-0.89113, 241, 1, 368, 256
-0.897138, 321, 1, 448, 333
-0.899845, 257, 1, 384, 333
-0.906177, 65, 1, 192, 256
-0.907917, 161, 97, 416, 224
-0.909282, 161, 1, 288, 333
-0.91315, 1, 1, 128, 256
-0.914112, 321, 1, 448, 256
-0.917565, 1, 1, 500, 128
-0.919075, 97, 1, 224, 333
-0.920208, 161, 33, 288, 288
-0.920249, 1, 113, 500, 240
-0.920341, 113, 1, 240, 256
-0.925656, 209, 1, 336, 333
-0.927182, 161, 49, 416, 176
-0.927355, 1, 65, 500, 192
-0.929305, 153, 129, 216, 256
-0.929357, 1, 1, 256, 128
-0.930137, 1, 1, 128, 333
-0.931129, 257, 1, 500, 128
-0.932837, 177, 113, 240, 240
-0.932909, 193, 145, 448, 272
-0.936398, 1, 193, 500, 320
-0.936472, 369, 1, 496, 333
-0.936746, 369, 1, 496, 256
-0.936796, 145, 129, 272, 256
-0.94255, 193, 49, 320, 176
-0.943101, 257, 17, 384, 144
-0.94358, 33, 129, 288, 256
-0.94423, 97, 1, 352, 128
-0.946607, 337, 81, 400, 208
-0.94715, 321, 81, 448, 208
-0.947799, 313, 81, 376, 208
-0.947999, 257, 113, 384, 240
-0.94821, 1, 1, 128, 128
-0.948296, 369, 129, 432, 256
-0.948766, 1, 65, 256, 192
-0.951537, 145, 177, 272, 304
-0.951663, 129, 1, 256, 128
-0.951709, 201, 129, 264, 256
-0.952135, 257, 65, 384, 192
-0.952166, 217, 177, 280, 240
-0.95294, 185, 185, 248, 248
-0.953573, 193, 193, 320, 320
-0.954186, 97, 1, 160, 128
-0.954496, 305, 81, 368, 144
-0.954574, 321, 129, 448, 256
-0.955057, 129, 193, 384, 320
-0.955321, 17, 1, 80, 64
-0.955733, 153, 81, 216, 208
-0.956164, 153, 169, 216, 232
-0.956384, 225, 161, 288, 288
-0.957038, 193, 129, 320, 256
-0.957147, 345, 145, 408, 272
-0.95742, 377, 145, 440, 208
-0.9585, 177, 161, 240, 288
-0.958776, 65, 1, 192, 128
-0.959213, 49, 1, 112, 64
-0.959759, 361, 81, 424, 208
-0.959827, 201, 177, 264, 304
-0.960071, 97, 81, 224, 208
-0.960234, 241, 185, 304, 248
-0.960277, 145, 49, 272, 176
-0.960626, 345, 145, 408, 208
-0.960702, 57, 1, 120, 128
-0.961045, 281, 1, 344, 128
-0.961398, 145, 105, 208, 168
-0.961478, 329, 65, 392, 128
-0.961672, 1, 1, 64, 128
-0.96247, 321, 1, 448, 128
-0.962903, 177, 137, 240, 200
-0.963, 97, 129, 224, 256
-0.963069, 313, 17, 376, 144
-0.963403, 257, 49, 500, 176
-0.96364, 217, 201, 280, 264
-0.963697, 257, 97, 500, 224
-0.963995, 169, 105, 232, 168
-0.96435, 33, 177, 288, 304
-0.964651, 281, 73, 344, 136
-0.966525, 73, 1, 136, 64
-0.966839, 241, 33, 304, 160
-0.966981, 185, 161, 248, 224
-0.967222, 401, 65, 464, 192
-0.967275, 145, 129, 208, 192
-0.967749, 289, 65, 352, 192
-0.968175, 97, 1, 160, 64
-0.968555, 273, 161, 400, 288
-0.968568, 425, 41, 488, 104
-0.968785, 105, 81, 168, 144
-0.96895, 153, 177, 216, 304
-0.969083, 269, 177, 300, 240
-0.969448, 153, 97, 184, 160
-0.96959, 217, 153, 280, 216
-0.969697, 185, 49, 248, 176
-0.969936, 357, 97, 388, 224
-0.969951, 185, 209, 248, 272
-0.970056, 305, 105, 368, 168
-0.970278, 25, 1, 88, 128
-0.970399, 129, 81, 192, 208
-0.970427, 153, 193, 216, 256
-0.970683, 249, 193, 312, 320
-0.970862, 189, 129, 220, 256
-0.97091, 433, 33, 496, 160
-0.970978, 253, 193, 284, 256
-0.971096, 129, 129, 192, 256
-0.971152, 289, 9, 352, 72
-0.971432, 233, 177, 264, 240
-0.971628, 297, 33, 360, 96
-0.971731, 113, 57, 176, 120
-0.972097, 209, 1, 336, 128
-0.972139, 205, 129, 236, 256
-0.972158, 137, 1, 200, 128
-0.972202, 265, 49, 328, 176
-0.97235, 241, 209, 304, 272
-0.972354, 377, 169, 440, 232
-0.972438, 169, 161, 200, 224
-0.972692, 257, 57, 320, 120
-0.972745, 337, 97, 400, 160
-0.972937, 217, 49, 280, 176
-0.97313, 345, 81, 376, 208
-0.973595, 169, 1, 232, 128
-0.973641, 193, 113, 256, 176
-0.97388, 221, 177, 252, 240
-0.974423, 321, 145, 384, 272
-0.974429, 129, 177, 256, 240
-0.97458, 241, 33, 304, 96
-0.974693, 49, 1, 80, 64
-0.974744, 333, 81, 364, 208
-0.974789, 17, 25, 80, 88
-0.974839, 241, 161, 304, 224
-0.9749, 201, 185, 232, 248
-0.974923, 177, 185, 304, 248
-0.975011, 121, 105, 184, 168
-0.975073, 321, 137, 384, 200
-0.97522, 353, 145, 384, 208
-0.975347, 165, 129, 196, 192
-0.975401, 417, 65, 480, 128
-0.975581, 345, 169, 408, 232
-0.975628, 49, 49, 176, 176
-0.975678, 321, 145, 448, 208
-0.975775, 281, 97, 344, 160
-0.975807, 17, 1, 144, 64
-0.976257, 177, 129, 208, 256
-0.976316, 217, 129, 248, 256
-0.97635, 369, 1, 432, 128
-0.976369, 129, 105, 256, 168
-0.976388, 393, 145, 424, 208
-0.976428, 157, 113, 188, 240
-0.976555, 345, 121, 408, 184
-0.976581, 393, 129, 456, 256
-0.976601, 273, 73, 400, 136
-0.97668, 65, 1, 192, 64
-0.976761, 369, 81, 496, 208
-0.97696, 405, 145, 436, 208
-0.977241, 305, 57, 368, 120
-0.977323, 157, 169, 188, 232
-0.977369, 253, 169, 284, 232
-0.977385, 137, 1, 200, 64
-0.977401, 341, 73, 372, 136
-0.977517, 221, 201, 252, 264
-0.977604, 205, 105, 236, 168
-0.977666, 189, 177, 220, 240
-0.977766, 325, 81, 356, 144
-0.97806, 369, 1, 496, 128
-0.978069, 337, 1, 400, 128
-0.9782, 105, 49, 168, 176
-0.97826, 257, 81, 320, 144
-0.978774, 129, 169, 192, 232
-0.978774, 377, 137, 408, 200
-0.978864, 365, 145, 396, 208
-0.978958, 21, 1, 52, 64
-0.979066, 145, 81, 208, 144
-0.9792, 121, 129, 184, 192
-0.979343, 365, 145, 396, 272
-0.97949, 377, 129, 408, 256
-0.979491, 393, 65, 456, 128
-0.979493, 257, 1, 320, 64
-0.979541, 265, 185, 328, 248
-0.979597, 209, 81, 336, 144
-0.979746, 173, 97, 204, 160
-0.979997, 393, 145, 424, 272
-0.980059, 177, 209, 240, 333
-0.980088, 153, 129, 184, 192
-0.980133, 145, 129, 272, 192
-0.980184, 173, 81, 204, 208
-0.980208, 1, 25, 128, 88
-0.980272, 205, 177, 236, 304
-0.980483, 189, 81, 220, 208
-0.980613, 369, 81, 400, 208
-0.980656, 225, 113, 288, 240
-0.980666, 369, 145, 496, 272
-0.980735, 309, 81, 340, 144
-0.980823, 265, 25, 328, 88
-0.980832, 217, 177, 248, 304
-0.980902, 209, 57, 336, 120
-0.981121, 237, 201, 268, 264
-0.981215, 369, 121, 432, 184
-0.981274, 65, 1, 96, 64
-0.981281, 293, 81, 324, 144
-0.981355, 145, 153, 272, 216
-0.981393, 321, 169, 384, 232
-0.981445, 193, 209, 320, 272
-0.981541, 97, 177, 224, 304
-0.98194, 41, 25, 104, 88
-0.98202, 73, 65, 136, 128
-0.982095, 77, 1, 108, 64
-0.982171, 33, 1, 64, 64
-0.982292, 201, 81, 232, 208
-0.982293, 321, 169, 448, 232
-0.982299, 337, 57, 464, 120
-0.982346, 265, 1, 328, 256
-0.982403, 205, 209, 236, 272
-0.982499, 425, 65, 456, 128
-0.982586, 105, 1, 168, 256
-0.982591, 409, 129, 440, 256
-0.982661, 293, 1, 324, 128
-0.982722, 265, 201, 296, 264
-0.982799, 193, 97, 224, 160
-0.982824, 193, 177, 224, 304
-0.982923, 277, 41, 308, 104
-0.982976, 169, 1, 232, 64
-0.982983, 81, 73, 208, 136
-0.983004, 105, 1, 136, 64
-0.983015, 401, 153, 464, 216
-0.983224, 297, 1, 360, 256
-0.983249, 293, 25, 324, 88
-0.983259, 353, 65, 384, 128
-0.983293, 233, 153, 264, 216
-0.983301, 281, 129, 344, 256
-0.983322, 101, 1, 132, 128
-0.983473, 225, 33, 288, 288
-0.983488, 105, 33, 168, 96
-0.983514, 217, 113, 248, 176
-0.983615, 273, 49, 400, 112
-0.983644, 153, 33, 216, 288
-0.983688, 273, 25, 400, 88
-0.983756, 145, 209, 272, 272
-0.983759, 209, 25, 336, 88
-0.98382, 277, 193, 308, 320
-0.983938, 177, 185, 208, 248
-0.983988, 381, 161, 412, 224
-0.984001, 209, 65, 272, 128
-0.984036, 193, 1, 256, 128
-0.984037, 345, 129, 376, 256
-0.984063, 325, 57, 356, 120
-0.984084, 321, 121, 448, 184
-0.984119, 329, 9, 392, 72
-0.984245, 129, 1, 160, 128
-0.984315, 273, 169, 400, 232
-0.984648, 277, 201, 308, 264
-0.984662, 89, 1, 120, 128
-0.984673, 289, 97, 416, 160
-0.984702, 233, 129, 264, 256
-0.984716, 181, 153, 212, 216
-0.984817, 265, 177, 296, 304
-0.984833, 65, 25, 128, 88
-0.984844, 129, 1, 256, 64
-0.984862, 229, 49, 260, 176
-0.984926, 469, 17, 500, 144
-0.985001, 221, 137, 252, 200
-0.985117, 357, 49, 388, 176
-0.985219, 385, 41, 448, 104
-0.98523, 129, 57, 256, 120
-0.985247, 49, 1, 80, 128
-0.985267, 193, 161, 320, 224
-0.985404, 177, 1, 240, 256
-0.985478, 133, 81, 164, 144
-0.985575, 185, 121, 216, 184
-0.985579, 289, 57, 320, 120
-0.985581, 157, 65, 188, 192
-0.985693, 81, 105, 208, 168
-0.98576, 269, 33, 300, 160
-0.985764, 265, 209, 328, 272
-0.985951, 413, 169, 444, 232
-0.985955, 9, 1, 40, 64
-0.986038, 249, 17, 280, 144
-0.986048, 401, 129, 464, 192
-0.986103, 117, 65, 148, 128
-0.986103, 393, 97, 424, 224
-0.986121, 177, 105, 304, 168
-0.986157, 229, 177, 260, 304
-0.986181, 397, 169, 428, 232
-0.986285, 337, 33, 400, 288
-0.986291, 365, 169, 396, 232
-0.986297, 257, 1, 384, 64
-0.986378, 229, 49, 260, 112
-0.986428, 81, 169, 208, 232
-0.986432, 341, 1, 372, 128
-0.986457, 341, 145, 372, 208
-0.986473, 129, 81, 256, 144
-0.986486, 193, 209, 224, 272
-0.986566, 137, 57, 200, 120
-0.986641, 329, 41, 392, 104
-0.986691, 225, 185, 352, 248
-0.986725, 193, 1, 256, 64
-0.98674, 217, 89, 280, 152
-0.986749, 273, 193, 336, 320
-0.986769, 49, 25, 176, 88
-0.98688, 425, 81, 488, 208
-0.986935, 313, 17, 344, 144
-0.986974, 157, 161, 188, 288
-0.987, 369, 153, 496, 216
-0.987001, 113, 1, 144, 128
-0.987023, 61, 1, 92, 128
-0.987043, 217, 121, 280, 184
-0.987123, 205, 129, 236, 192
-0.987228, 293, 49, 324, 176
-0.987229, 233, 57, 296, 120
-0.987301, 349, 169, 380, 232
-0.987318, 337, 81, 464, 144
-0.987356, 253, 161, 284, 288
-0.987396, 145, 81, 176, 208
-0.987403, 141, 57, 172, 120
-0.987418, 17, 1, 48, 128
-0.987418, 325, 33, 356, 160
-0.987581, 77, 1, 108, 128
-0.987657, 97, 129, 224, 192
-0.987813, 353, 121, 384, 184
-0.988084, 169, 81, 232, 144
-0.988087, 437, 65, 468, 128
-0.988099, 213, 81, 244, 208
-0.988119, 337, 1, 464, 64
-0.988157, 437, 41, 468, 104
-0.988157, 321, 1, 384, 333
-0.988161, 417, 65, 448, 192
-0.988168, 105, 65, 136, 128
-0.988178, 469, 49, 500, 112
-0.988179, 161, 1, 192, 128
-0.98818, 125, 17, 156, 80
-0.988195, 185, 185, 248, 216
-0.988196, 17, 1, 80, 256
-0.988219, 249, 113, 312, 240
-0.988361, 217, 25, 280, 88
-0.988386, 1, 25, 32, 88
-0.988514, 225, 209, 288, 240
-0.988518, 381, 81, 412, 208
-0.988534, 201, 33, 264, 288
-0.988633, 397, 121, 428, 184
-0.988639, 129, 33, 192, 96
-0.988679, 201, 161, 232, 224
-0.988707, 137, 105, 168, 168
-0.988732, 141, 1, 172, 128
-0.988773, 313, 9, 344, 72
-0.988787, 281, 1, 312, 64
-0.988809, 81, 65, 144, 192
-0.988818, 153, 73, 184, 136
-0.98886, 41, 5, 104, 36
-0.988862, 93, 1, 124, 64
-0.988868, 309, 57, 340, 120
-0.988872, 297, 73, 360, 104
-0.988874, 49, 81, 112, 144
-0.988955, 417, 145, 448, 208
-0.989021, 257, 145, 384, 208
-0.989073, 361, 97, 392, 160
-0.98908, 161, 121, 224, 152
-0.9891, 217, 197, 280, 228
-0.989145, 329, 73, 392, 104
-0.989156, 369, 129, 496, 192
-0.989169, 321, 25, 448, 88
-0.989181, 281, 1, 312, 128
-0.989194, 105, 1, 168, 333
-0.989246, 241, 189, 304, 220
-0.989303, 129, 57, 160, 120
-0.989343, 265, 33, 296, 96
-0.989344, 145, 173, 208, 204
-0.989369, 145, 109, 208, 140
-0.989414, 129, 1, 192, 256
-0.989444, 169, 157, 232, 188
-0.989447, 225, 173, 288, 204
-0.989461, 129, 33, 256, 96
-0.989475, 73, 1, 136, 32
-0.989505, 189, 1, 220, 64
-0.989519, 209, 185, 272, 216
-0.989596, 153, 133, 216, 164
-0.989603, 17, 13, 80, 44
-0.989604, 241, 41, 304, 72
-0.989609, 393, 1, 456, 128
-0.989706, 353, 1, 416, 64
-0.989709, 181, 177, 212, 304
-0.989758, 37, 1, 68, 128
-0.989763, 193, 197, 256, 228
-0.989765, 345, 97, 376, 160
-0.989812, 201, 1, 232, 64
-0.989843, 361, 97, 424, 160
-0.989858, 305, 89, 368, 120
-0.989929, 245, 49, 276, 112
-0.989938, 177, 109, 240, 140
-0.989948, 297, 61, 360, 92
-0.989964, 209, 1, 336, 64
-0.989987, 137, 33, 168, 96
-0.989987, 81, 89, 144, 152
-0.990001, 137, 1, 168, 64
-0.990013, 49, 25, 80, 88
-0.990036, 185, 125, 248, 156
-0.990043, 41, 17, 104, 48
-0.990082, 57, 1, 120, 256
-0.990097, 345, 125, 408, 156
-0.990098, 281, 49, 312, 176
-0.990103, 297, 101, 360, 132
-0.990132, 353, 65, 416, 128
-0.990148, 377, 145, 440, 176
-0.990189, 297, 1, 360, 333
-0.990192, 145, 129, 176, 256
-0.990215, 369, 1, 432, 256
-0.990255, 353, 153, 416, 184
-0.990263, 17, 25, 80, 56
-0.990264, 273, 193, 400, 256
-0.990279, 185, 213, 248, 244
-0.990289, 257, 193, 500, 320
-0.990295, 65, 13, 128, 44
-0.990365, 377, 161, 440, 192
-0.990374, 17, 1, 80, 32
-0.990375, 257, 121, 384, 184
-0.990418, 129, 177, 192, 304
-0.990444, 257, 69, 320, 100
-0.990445, 249, 205, 312, 236
-0.990481, 201, 149, 264, 180
-0.990509, 325, 25, 356, 88
-0.990511, 329, 105, 360, 168
-0.990547, 89, 77, 152, 108
-0.990558, 185, 1, 248, 333
-0.990633, 169, 201, 232, 232
-0.990641, 233, 129, 264, 192
-0.99068, 353, 141, 416, 172
-0.990692, 329, 145, 392, 176
-0.990694, 193, 89, 256, 152
-0.990695, 265, 89, 328, 120
-0.990721, 353, 1, 384, 128
-0.990736, 321, 105, 384, 136
-0.990739, 257, 57, 320, 88
-0.99074, 105, 89, 168, 120
-0.990744, 129, 125, 192, 156
-0.99081, 281, 81, 312, 144
-0.990855, 241, 29, 304, 60
-0.990881, 169, 169, 232, 200
-0.990905, 417, 89, 480, 152
-0.990928, 161, 185, 224, 216
-0.990929, 109, 89, 140, 152
-0.990937, 265, 29, 328, 60
-0.990964, 329, 85, 392, 116
-0.990974, 297, 13, 360, 44
-0.990988, 185, 137, 248, 168
-0.99099, 225, 73, 256, 136
-0.991008, 369, 129, 432, 160
-0.991056, 97, 5, 160, 36
-0.99106, 385, 1, 448, 64
-0.991116, 413, 49, 444, 112
-0.991118, 329, 61, 392, 92
-0.991131, 329, 169, 392, 200
-0.991153, 121, 109, 184, 140
-0.991158, 201, 109, 264, 140
-0.991168, 345, 109, 408, 140
-0.991177, 137, 1, 200, 32
-0.991197, 33, 81, 160, 144
-0.991207, 433, 49, 496, 80
-0.991235, 145, 157, 208, 188
-0.991236, 145, 145, 208, 176
-0.99124, 161, 97, 224, 128
-0.991247, 165, 193, 196, 256
-0.991248, 405, 1, 436, 128
-0.99128, 113, 77, 176, 108
-0.991288, 249, 217, 312, 248
-0.991304, 225, 57, 288, 88
-0.991315, 305, 117, 368, 148
-0.991333, 49, 97, 176, 224
-0.991344, 393, 1, 456, 256
-0.991354, 313, 65, 344, 192
-0.991355, 65, 81, 128, 112
-0.991363, 177, 1, 240, 32
-0.991395, 249, 177, 312, 208
-0.991451, 433, 65, 496, 96
-0.991456, 369, 1, 432, 32
-0.991505, 97, 201, 224, 264
-0.991539, 289, 193, 320, 256
-0.991545, 217, 1, 280, 333
-0.991559, 265, 129, 296, 256
-0.991607, 145, 201, 208, 232
-0.99163, 217, 45, 280, 76
-0.991631, 105, 65, 168, 96
-0.991659, 1, 49, 64, 176
-0.991666, 289, 25, 352, 56
-0.991673, 265, 45, 328, 76
-0.991674, 289, 37, 352, 68
-0.991692, 217, 1, 280, 128
-0.991727, 273, 109, 336, 140
-0.991745, 265, 189, 328, 220
-0.991746, 129, 89, 192, 120
-0.99175, 105, 113, 168, 240
-0.991757, 273, 205, 336, 236
-0.991777, 201, 173, 264, 204
-0.991781, 249, 145, 280, 208
-0.991805, 281, 1, 344, 32
-0.991847, 345, 97, 408, 128
-0.991863, 145, 177, 176, 240
-0.991873, 433, 77, 496, 108
-0.991874, 225, 157, 288, 188
-0.991897, 225, 209, 288, 333
-0.991905, 89, 17, 152, 48
-0.99191, 265, 17, 328, 48
-0.991958, 137, 189, 200, 220
-0.991961, 353, 169, 416, 200
-0.991977, 377, 173, 440, 204
-0.992004, 465, 73, 496, 136
-0.992005, 321, 157, 384, 188
-0.992053, 409, 65, 472, 96
-0.992068, 217, 33, 280, 64
-0.992111, 209, 137, 272, 168
-0.992145, 193, 193, 320, 224
-0.992154, 401, 165, 464, 196
-0.992156, 321, 133, 384, 164
-0.992176, 417, 1, 480, 256
-0.992184, 249, 197, 280, 228
-0.992185, 41, 301, 104, 332
-0.992215, 393, 1, 456, 32
-0.992251, 185, 97, 248, 128
-0.992253, 409, 85, 472, 116
-0.992258, 9, 297, 72, 328
-0.992259, 41, 29, 104, 60
-0.992261, 365, 121, 396, 184
-0.992262, 5, 1, 36, 128
-0.992305, 209, 125, 272, 156
-0.992315, 417, 153, 480, 184
-0.992334, 273, 185, 304, 216
-0.992335, 217, 185, 248, 216
-0.992339, 265, 197, 296, 228
-0.992341, 233, 197, 264, 228
-0.992371, 429, 65, 460, 192
-0.99238, 225, 73, 288, 104
-0.99239, 253, 209, 284, 240
-0.99239, 25, 97, 88, 160
-0.9924, 49, 1, 80, 32
-0.992417, 65, 25, 128, 56
-0.992443, 241, 1, 304, 333
-0.992445, 189, 185, 220, 216
-0.992454, 153, 105, 184, 136
-0.992455, 121, 13, 184, 44
-0.992457, 9, 105, 72, 136
-0.992466, 77, 1, 108, 32
-0.992468, 153, 1, 216, 333
-0.992472, 137, 77, 200, 108
-0.99248, 325, 69, 356, 100
-0.992484, 217, 197, 248, 228
-0.992485, 129, 61, 192, 92
-0.992492, 41, 93, 104, 124
-0.99251, 329, 13, 392, 44
-0.992517, 161, 81, 416, 144
-0.992521, 25, 9, 56, 40
-0.992535, 1, 1, 256, 64
-0.992536, 205, 201, 236, 232
-0.992537, 313, 25, 376, 56
-0.992539, 73, 301, 136, 332
-0.99254, 209, 221, 272, 252
-0.992554, 241, 25, 272, 88
-0.992562, 385, 69, 448, 100
-0.992564, 161, 213, 224, 244
-0.992565, 201, 117, 232, 148
-0.992567, 353, 1, 416, 333
-0.992567, 177, 117, 208, 148
-0.992568, 33, 1, 96, 333
-0.992572, 229, 209, 260, 240
-0.992574, 157, 117, 188, 148
-0.992581, 169, 101, 200, 132
-0.992583, 241, 85, 304, 116
-0.992591, 353, 125, 384, 156
-0.992592, 129, 49, 384, 112
-0.992593, 361, 85, 424, 116
-0.992596, 297, 89, 328, 120
-0.992606, 225, 169, 480, 232
-0.992607, 325, 89, 356, 120
-0.992608, 353, 145, 384, 176
-0.992611, 193, 1, 224, 128
-0.992611, 161, 133, 192, 164
-0.992611, 305, 105, 336, 168
-0.99262, 1, 37, 64, 68
-0.992626, 189, 117, 220, 148
-0.992632, 257, 173, 288, 204
-0.992647, 277, 41, 308, 72
-0.992647, 217, 213, 248, 244
-0.992658, 165, 73, 196, 136
-0.992659, 305, 101, 336, 132
-0.992664, 169, 161, 200, 192
-0.992664, 81, 1, 144, 256
-0.992669, 105, 301, 168, 332
-0.99267, 205, 129, 236, 160
-0.992672, 153, 49, 184, 112
-0.992678, 277, 205, 308, 236
-0.992678, 153, 165, 184, 196
-0.992692, 257, 41, 288, 72
-0.992697, 245, 161, 276, 192
-0.992702, 121, 161, 184, 192
-0.992707, 301, 73, 332, 104
-0.992707, 377, 13, 440, 44
-0.992708, 65, 5, 96, 36
-0.992714, 233, 181, 264, 212
-0.992715, 393, 133, 456, 164
-0.992722, 341, 121, 372, 184
-0.992723, 201, 105, 232, 136
-0.992724, 321, 49, 384, 80
-0.99273, 425, 73, 456, 104
-0.992736, 49, 13, 80, 44
-0.992743, 433, 37, 496, 68
-0.992758, 325, 1, 356, 64
-0.992759, 65, 69, 128, 100
-0.992764, 397, 1, 428, 32
-0.992769, 209, 1, 240, 128
-0.99277, 333, 117, 364, 148
-0.992771, 69, 17, 100, 48
-0.992775, 193, 37, 256, 68
-0.992779, 265, 209, 296, 240
-0.992782, 377, 141, 408, 172
-0.992784, 213, 109, 244, 140
-0.992785, 185, 153, 216, 184
-0.992786, 393, 125, 424, 156
-0.992789, 405, 149, 436, 180
-0.992794, 261, 185, 292, 216
-0.992802, 181, 105, 212, 136
-0.992802, 93, 5, 124, 36
-0.992804, 345, 109, 376, 140
-0.99281, 241, 209, 272, 240
-0.992814, 205, 189, 236, 220
-0.992823, 281, 57, 312, 88
-0.992825, 385, 161, 416, 192
-0.992832, 245, 45, 276, 76
-0.99284, 337, 73, 368, 104
-0.99285, 37, 1, 68, 32
-0.992854, 393, 145, 424, 176
-0.992858, 313, 69, 344, 100
-0.992858, 353, 77, 384, 108
-0.992859, 341, 17, 372, 80
-0.992867, 113, 73, 144, 104
-0.992868, 201, 213, 232, 244
-0.992871, 329, 101, 360, 132
-0.992875, 365, 149, 396, 180
-0.992888, 301, 1, 332, 64
-0.992888, 217, 133, 248, 164
-0.992899, 185, 49, 248, 112
-0.9929, 157, 177, 188, 208
-0.992907, 169, 181, 200, 212
-0.992923, 181, 201, 212, 232
-0.992927, 173, 133, 204, 164
-0.992929, 413, 169, 444, 200
-0.99293, 313, 89, 344, 120
-0.99293, 317, 105, 348, 136
-0.992936, 125, 77, 156, 108
-0.992939, 193, 201, 224, 232
-0.992946, 65, 49, 192, 112
-0.992955, 105, 1, 136, 32
-0.992958, 197, 149, 228, 180
-0.992965, 217, 121, 248, 152
-0.992967, 269, 53, 300, 84
-0.992971, 133, 89, 164, 120
-0.992973, 353, 97, 384, 128
-0.992973, 373, 129, 404, 160
-0.992978, 185, 137, 216, 168
-0.992978, 341, 89, 372, 120
-0.992982, 233, 153, 264, 184
-0.992986, 345, 57, 376, 88
-0.992996, 433, 61, 464, 92
-0.993001, 401, 161, 432, 192
-0.993015, 145, 81, 176, 112
-0.993017, 281, 69, 312, 100
-0.993018, 233, 45, 264, 76
-0.99302, 49, 25, 80, 56
-0.993021, 149, 129, 180, 160
-0.993026, 253, 29, 284, 60
-0.99303, 469, 37, 500, 68
-0.993036, 317, 5, 348, 36
-0.993039, 169, 149, 200, 180
-0.993042, 269, 169, 300, 200
-0.993047, 321, 17, 352, 48
-0.993049, 349, 169, 380, 200
-0.993051, 265, 29, 296, 60
-0.993054, 177, 1, 208, 64
-0.993064, 409, 1, 440, 32
-0.993069, 113, 85, 144, 116
-0.993071, 261, 57, 292, 120
-0.993079, 229, 57, 260, 88
-0.993081, 333, 57, 364, 88
-0.993086, 217, 145, 248, 176
-0.993089, 101, 77, 132, 108
-0.993089, 221, 173, 252, 204
-0.993099, 373, 161, 404, 192
-0.993103, 181, 1, 212, 32
-0.993114, 405, 137, 436, 168
-0.993116, 305, 13, 336, 44
-0.993125, 293, 101, 324, 132
-0.993129, 205, 177, 236, 208
-0.993135, 37, 17, 68, 48
-0.993143, 233, 169, 264, 200
-0.993145, 245, 177, 276, 208
-0.993147, 317, 57, 348, 88
-0.993149, 289, 33, 320, 64
-0.993153, 229, 141, 260, 172
-0.993155, 285, 89, 316, 120
-0.993164, 169, 193, 200, 224
-0.993164, 277, 29, 308, 60
-0.993169, 165, 89, 196, 120
-0.993174, 161, 145, 416, 208
-0.993184, 5, 1, 36, 32
-0.993189, 257, 57, 288, 88
-0.993196, 365, 89, 396, 120
-0.99327, 289, 177, 352, 240
-0.993306, 457, 33, 488, 160
-0.993373, 425, 41, 456, 104
-0.993427, 429, 17, 460, 144
-0.993473, 181, 209, 212, 272
-0.993502, 13, 25, 44, 88
-0.99351, 1, 49, 128, 112
-0.993514, 145, 153, 176, 216
-0.993553, 169, 177, 200, 304
-0.993553, 273, 81, 400, 112
-0.993581, 269, 193, 284, 256
-0.99359, 369, 33, 496, 96
-0.99362, 257, 9, 500, 72
-0.993704, 9, 1, 72, 333
-0.993706, 393, 105, 456, 168
-0.993725, 145, 185, 272, 216
-0.993742, 161, 105, 416, 168
-0.993747, 33, 273, 160, 333
-0.993753, 33, 25, 64, 88
-0.993754, 469, 25, 500, 88
-0.993765, 129, 193, 192, 256
-0.993777, 53, 1, 68, 64
-0.993812, 209, 81, 240, 144
-0.993815, 405, 81, 436, 208
-0.99385, 241, 209, 368, 333
-0.993866, 365, 65, 396, 128
-0.993898, 129, 193, 384, 256
-0.993907, 117, 41, 148, 104
-0.99391, 409, 121, 440, 184
-0.993929, 321, 177, 448, 304
-0.993957, 313, 33, 344, 96
-0.994033, 253, 217, 284, 280
-0.994041, 321, 145, 448, 176
-0.994082, 225, 193, 240, 256
-0.994095, 337, 169, 368, 232
-0.994116, 185, 161, 200, 224
-0.994116, 385, 113, 416, 176
-0.994117, 1, 97, 256, 160
-0.994127, 457, 33, 488, 96
-0.994136, 453, 73, 484, 136
-0.994172, 65, 73, 320, 136
-0.994175, 433, 17, 496, 80
-0.994262, 317, 105, 348, 168
-0.994272, 257, 105, 320, 168
-0.994281, 293, 105, 324, 168
-0.994285, 405, 145, 420, 208
-0.994286, 167, 97, 182, 160
-0.994291, 167, 129, 182, 192
-0.994313, 329, 81, 344, 144
-0.994314, 265, 1, 328, 333
-0.994341, 97, 89, 128, 152
-0.994379, 285, 185, 300, 248
-0.994379, 241, 69, 368, 100
-0.994385, 193, 209, 320, 240
-0.994388, 339, 81, 354, 144
-0.994407, 233, 177, 248, 240
-0.994426, 297, 129, 360, 192
-0.99444, 277, 177, 292, 240
-0.994486, 179, 153, 194, 216
-0.994505, 241, 217, 368, 280
-0.994506, 97, 1, 352, 64
-0.99458, 217, 97, 232, 160
-0.99459, 129, 109, 256, 140
-0.994601, 157, 97, 172, 160
-0.994629, 165, 1, 196, 64
-0.994632, 241, 137, 304, 200
-0.994637, 243, 177, 258, 240
-0.994666, 133, 65, 164, 192
-0.994686, 219, 177, 234, 240
-0.994705, 89, 25, 120, 88
-0.994723, 199, 185, 214, 248
-0.994759, 265, 161, 328, 224
-0.994779, 1, 97, 64, 160
-0.994813, 169, 169, 184, 232
-0.99482, 309, 81, 324, 144
-0.994868, 399, 145, 414, 208
-0.994869, 173, 1, 204, 128
-0.994926, 257, 73, 500, 136
-0.994933, 193, 129, 320, 192
-0.994941, 411, 145, 426, 208
-0.994961, 61, 1, 76, 64
-0.994983, 263, 193, 278, 256
-0.994992, 145, 133, 272, 164
-0.994996, 33, 1, 160, 32
-0.995004, 177, 129, 192, 192
-0.995026, 353, 41, 416, 104
-0.99506, 347, 73, 362, 136
-0.995079, 321, 81, 336, 144
-0.995079, 161, 217, 224, 280
-0.995083, 291, 49, 306, 112
-0.995085, 57, 1, 120, 333
-0.995133, 1, 81, 128, 208
-0.995155, 383, 137, 398, 200
-0.995158, 363, 145, 378, 208
-0.995179, 145, 153, 272, 184
-0.995193, 369, 177, 496, 240
-0.995196, 129, 169, 384, 232
-0.995197, 145, 205, 272, 236
-0.995198, 357, 145, 372, 208
-0.995204, 223, 113, 238, 176
-0.995209, 129, 121, 256, 152
-0.99522, 33, 185, 288, 248
-0.995233, 33, 21, 160, 52
-0.995236, 369, 145, 384, 208
-0.99525, 429, 49, 444, 112
-0.995255, 193, 177, 208, 240
-0.995275, 297, 81, 312, 144
-0.995276, 185, 25, 248, 88
-0.995285, 303, 81, 318, 144
-0.995311, 269, 169, 284, 232
-0.995332, 205, 185, 220, 248
-0.995347, 391, 145, 406, 208
-0.995362, 211, 105, 226, 168
-0.995373, 1, 65, 500, 128
-0.995389, 321, 129, 448, 160
-0.995394, 161, 173, 288, 204
-0.995402, 435, 57, 450, 120
-0.995421, 233, 201, 248, 264
-0.995431, 321, 157, 448, 188
-0.995438, 105, 49, 136, 176
-0.995451, 65, 121, 320, 184
-0.995465, 273, 93, 400, 124
-0.995486, 129, 1, 192, 333
-0.995499, 321, 169, 448, 200
-0.995512, 329, 57, 344, 120
-0.995515, 209, 57, 336, 88
-0.995539, 129, 97, 256, 128
-0.99554, 259, 169, 274, 232
-0.995584, 213, 185, 228, 248
-0.995601, 375, 153, 390, 216
-0.995641, 49, 85, 176, 116
-0.995646, 49, 65, 112, 192
-0.995665, 257, 37, 384, 68
-0.995668, 357, 105, 372, 168
-0.995679, 219, 209, 234, 272
-0.995683, 1, 1, 500, 64
-0.995691, 21, 1, 36, 64
-0.995691, 249, 177, 264, 240
-0.995698, 115, 1, 130, 64
-0.995702, 257, 145, 500, 208
-0.995712, 179, 177, 194, 240
-0.995724, 321, 81, 448, 112
-0.995731, 277, 209, 292, 272
-0.995748, 417, 137, 432, 200
-0.99576, 245, 113, 276, 240
-0.995799, 315, 81, 330, 144
-0.995803, 47, 1, 62, 64
-0.995808, 145, 193, 176, 320
-0.995817, 257, 41, 500, 104
-0.995822, 257, 57, 384, 88
-0.995854, 205, 97, 220, 160
-0.99586, 157, 153, 172, 216
-0.995893, 339, 57, 354, 120
-0.995901, 409, 9, 472, 72
-0.995916, 209, 97, 336, 128
-0.995932, 67, 1, 82, 64
-0.995935, 97, 25, 352, 88
-0.995939, 401, 177, 464, 240
-0.995967, 257, 117, 384, 148
-0.995975, 235, 49, 250, 112
-0.99599, 241, 189, 368, 220
-0.996, 173, 97, 188, 160
-0.996015, 187, 185, 202, 248
-0.996048, 353, 73, 368, 136
-0.996054, 257, 25, 384, 56
-0.996065, 119, 65, 134, 128
-0.996076, 227, 169, 242, 232
-0.996088, 1, 25, 256, 88
-0.996094, 445, 33, 476, 160
-0.996102, 277, 129, 308, 256
-0.996117, 305, 105, 432, 136
-0.99613, 369, 105, 496, 168
-0.996143, 217, 121, 232, 184
-0.996146, 349, 129, 364, 192
-0.996159, 163, 161, 178, 224
-0.996165, 193, 113, 320, 144
-0.996167, 255, 193, 270, 256
-0.996188, 209, 37, 336, 68
-0.996198, 143, 1, 158, 64
-0.996207, 237, 1, 268, 128
-0.996207, 97, 77, 224, 108
-0.996216, 401, 1, 464, 333
-0.996235, 289, 69, 416, 100
-0.996249, 409, 169, 424, 232
-0.99628, 161, 121, 176, 184
-0.996309, 125, 73, 140, 136
-0.996349, 347, 105, 362, 168
-0.996356, 1, 145, 500, 208
-0.996361, 421, 145, 452, 272
-0.996361, 97, 5, 224, 36
-0.996375, 249, 153, 264, 216
-0.996392, 229, 113, 244, 176
-0.996398, 385, 161, 400, 224
-0.9964, 101, 1, 116, 64
-0.996419, 401, 169, 416, 232
-0.996429, 211, 209, 226, 272
-0.996436, 293, 97, 324, 224
-0.996437, 395, 169, 410, 232
-0.996444, 205, 121, 220, 184
-0.996474, 97, 181, 224, 212
-0.996476, 365, 65, 380, 128
-0.996516, 181, 97, 196, 160
-0.996517, 365, 169, 380, 232
-0.996517, 125, 17, 140, 80
-0.996518, 193, 81, 320, 112
-0.996538, 423, 137, 438, 200
-0.996547, 271, 217, 286, 280
-0.996548, 203, 209, 218, 272
-0.996564, 95, 1, 110, 64
-0.996578, 247, 201, 262, 264
-0.996583, 359, 73, 374, 136
-0.996601, 109, 1, 124, 64
-0.996603, 117, 49, 148, 176
-0.996605, 239, 201, 254, 264
-0.996606, 81, 97, 208, 128
-0.99661, 285, 209, 300, 272
-0.996615, 89, 1, 104, 64
-0.996617, 377, 1, 440, 333
-0.996618, 1, 301, 128, 332
-0.996618, 1, 25, 16, 88
-0.996625, 41, 1, 56, 64
-0.996627, 305, 117, 432, 148
-0.996628, 151, 57, 166, 120
-0.996631, 301, 25, 316, 88
-0.996633, 321, 1, 448, 32
-0.996648, 139, 49, 154, 112
-0.996659, 313, 9, 328, 72
-0.996665, 17, 65, 80, 128
-0.996677, 429, 73, 444, 136
-0.996679, 151, 105, 166, 168
-0.996682, 1, 105, 128, 168
-0.996694, 249, 65, 280, 192
-0.996695, 241, 205, 368, 236
-0.996697, 485, 57, 500, 120
-0.996699, 225, 193, 480, 256
-0.996705, 225, 137, 240, 200
-0.996706, 145, 77, 272, 108
-0.996725, 79, 1, 94, 64
-0.996728, 297, 49, 312, 112
-0.996752, 145, 81, 160, 144
-0.996762, 323, 57, 338, 120
-0.996767, 291, 193, 306, 256
-0.996781, 195, 97, 210, 160
-0.996784, 337, 61, 464, 92
-0.996785, 187, 137, 202, 200
-0.996794, 157, 177, 172, 240
-0.996804, 479, 57, 494, 120
-0.996812, 93, 65, 124, 192
-0.996813, 113, 65, 128, 128
-0.996815, 241, 13, 368, 44
-0.99682, 15, 1, 30, 64
-0.996825, 153, 25, 216, 88
-0.99684, 283, 25, 298, 88
-0.996844, 193, 201, 208, 264
-0.996852, 81, 109, 208, 140
-0.996856, 159, 65, 174, 128
-0.996862, 363, 105, 378, 168
-0.996862, 241, 137, 256, 200
-0.996876, 321, 113, 352, 240
-0.996885, 303, 105, 318, 168
-0.996892, 375, 129, 390, 192
-0.996905, 415, 169, 430, 232
-0.996906, 73, 1, 88, 64
-0.996916, 335, 9, 350, 72
-0.996918, 425, 169, 440, 232
-0.996975, 1, 33, 128, 64
-0.997053, 193, 221, 320, 252
-0.997055, 267, 193, 282, 224
-0.997057, 97, 137, 224, 168
-0.997078, 369, 73, 496, 104
-0.997081, 333, 145, 364, 272
-0.997091, 209, 177, 336, 208
-0.997101, 33, 161, 288, 224
-0.997126, 133, 113, 164, 240
-0.997129, 145, 65, 272, 96
-0.997167, 193, 69, 320, 100
-0.997168, 1, 89, 500, 152
-0.997197, 369, 161, 496, 192
-0.9972, 41, 273, 104, 333
-0.997225, 209, 225, 272, 288
-0.997229, 321, 13, 448, 44
-0.997234, 233, 193, 248, 224
-0.997238, 241, 201, 256, 232
-0.997255, 97, 273, 224, 333
-0.997286, 339, 69, 354, 100
-0.997303, 257, 97, 500, 160
-0.997316, 277, 205, 292, 236
-0.997331, 273, 153, 400, 184
-0.997332, 261, 197, 276, 228
-0.997351, 247, 197, 262, 228
-0.997362, 273, 1, 400, 32
-0.997372, 269, 209, 284, 240
-0.997375, 231, 213, 246, 244
-0.997382, 179, 161, 194, 192
-0.997395, 167, 165, 182, 196
-0.997419, 257, 105, 384, 136
-0.997439, 269, 177, 284, 208
-0.99744, 49, 73, 176, 104
-0.997441, 1, 25, 500, 88
-0.997447, 41, 57, 104, 120
-0.997454, 303, 73, 318, 104
-0.997476, 195, 185, 210, 216
-0.997482, 223, 185, 238, 216
-0.997489, 327, 89, 342, 120
-0.997501, 327, 101, 342, 132
-0.997512, 255, 197, 270, 228
-0.997522, 321, 93, 448, 124
-0.997528, 285, 185, 300, 216
-0.99753, 321, 101, 336, 132
-0.997531, 81, 121, 208, 152
-0.997551, 311, 89, 326, 120
-0.997557, 97, 193, 224, 224
-0.997557, 219, 105, 234, 136
-0.99756, 297, 89, 312, 120
-0.997567, 355, 125, 370, 156
-0.997599, 335, 101, 350, 132
-0.997601, 79, 1, 94, 32
-0.997602, 221, 125, 236, 156
-0.997614, 145, 37, 272, 68
-0.997619, 161, 57, 224, 120
-0.997624, 191, 117, 206, 148
-0.99763, 171, 117, 186, 148
-0.99764, 241, 177, 256, 208
-0.997647, 221, 201, 236, 232
-0.997654, 105, 169, 168, 232
-0.997655, 97, 65, 224, 96
-0.99767, 145, 53, 272, 84
-0.997677, 171, 101, 186, 132
-0.997678, 215, 185, 230, 216
-0.99768, 257, 177, 384, 208
-0.99769, 415, 1, 430, 32
-0.997705, 51, 1, 66, 32
-0.997708, 81, 1, 144, 333
-0.99771, 145, 1, 272, 32
-0.997712, 329, 69, 344, 100
-0.997722, 275, 185, 290, 216
-0.997726, 161, 101, 176, 132
-0.997728, 197, 113, 212, 144
-0.997733, 29, 1, 44, 32
-0.997733, 315, 101, 330, 132
-0.997736, 213, 201, 228, 232
-0.997743, 335, 89, 350, 120
-0.997751, 343, 81, 358, 112
-0.997752, 163, 121, 178, 152
-0.997754, 271, 37, 286, 68
-0.997754, 169, 129, 184, 160
-0.997772, 1, 49, 32, 176
-0.997778, 155, 105, 170, 136
-0.997779, 201, 101, 216, 132
-0.997782, 185, 161, 200, 192
-0.997782, 321, 89, 336, 120
-0.997784, 189, 149, 204, 180
-0.997786, 193, 1, 320, 32
-0.997786, 263, 209, 278, 240
-0.997788, 209, 25, 336, 56
-0.99779, 225, 113, 240, 144
-0.99779, 203, 125, 218, 156
-0.997791, 365, 145, 380, 176
-0.997791, 231, 181, 246, 212
-0.997798, 177, 117, 192, 148
-0.997806, 345, 101, 360, 132
-0.997807, 305, 89, 320, 120
-0.997808, 33, 49, 288, 112
-0.997826, 49, 61, 176, 92
-0.997837, 189, 181, 204, 212
-0.997838, 275, 173, 290, 204
-0.997839, 425, 137, 488, 200
-0.99784, 245, 153, 260, 184
-0.997843, 401, 1, 416, 32
-0.99785, 49, 301, 176, 332
-0.997863, 429, 69, 444, 100
-0.997863, 209, 185, 224, 216
-0.997874, 157, 133, 172, 164
-0.997878, 353, 109, 368, 140
-0.997878, 407, 1, 422, 32
-0.997885, 423, 153, 438, 184
-0.997888, 203, 205, 218, 236
-0.997889, 211, 213, 226, 244
-0.997892, 17, 97, 144, 128
-0.997894, 209, 117, 224, 148
-0.997904, 179, 173, 194, 204
-0.997906, 281, 37, 296, 68
-0.997908, 157, 177, 172, 208
-0.99792, 273, 129, 400, 160
-0.997925, 435, 69, 450, 100
-0.997927, 297, 1, 328, 256
-0.997931, 85, 1, 100, 32
-0.997943, 401, 149, 416, 180
-0.997946, 229, 33, 260, 288
-0.997947, 23, 13, 38, 44
-0.997948, 225, 213, 240, 244
-0.997951, 69, 1, 84, 32
-0.997958, 215, 129, 230, 160
-0.99796, 369, 129, 496, 160
-0.997965, 203, 113, 218, 144
-0.997971, 115, 1, 130, 32
-0.997973, 369, 89, 496, 120
-0.997978, 173, 157, 188, 188
-0.997981, 335, 17, 350, 48
-0.997982, 295, 57, 310, 88
-0.997985, 179, 149, 194, 180
-0.997985, 187, 197, 202, 228
-0.997987, 271, 57, 286, 88
-0.997994, 337, 49, 464, 80
-0.997995, 1, 209, 500, 272
-0.997997, 247, 45, 262, 76
-0.998001, 297, 77, 312, 108
-0.998008, 181, 101, 196, 132
-0.998011, 363, 101, 378, 132
-0.998014, 369, 141, 496, 172
-0.998015, 393, 141, 408, 172
-0.998016, 363, 129, 378, 160
-0.99802, 373, 89, 388, 120
-0.998021, 347, 137, 362, 168
-0.998022, 291, 41, 306, 72
-0.998024, 97, 217, 352, 280
-0.99803, 153, 1, 184, 256
-0.998033, 403, 125, 418, 156
-0.998035, 227, 201, 242, 232
-0.998035, 395, 129, 410, 160
-0.998037, 197, 149, 212, 180
-0.998042, 369, 125, 384, 156
-0.998046, 129, 233, 256, 296
-0.998046, 247, 185, 262, 216
-0.998049, 355, 149, 370, 180
-0.998051, 189, 105, 204, 136
-0.998053, 51, 13, 66, 44
-0.998054, 1, 121, 500, 184
-0.998058, 379, 141, 394, 172
-0.998062, 283, 201, 298, 232
-0.998067, 145, 217, 272, 248
-0.998075, 1, 273, 64, 333
-0.998075, 255, 209, 270, 240
-0.998078, 331, 57, 346, 88
-0.998081, 349, 73, 364, 104
-0.998085, 119, 81, 134, 112
-0.998086, 265, 37, 280, 68
-0.998089, 215, 117, 230, 148
-0.998096, 163, 133, 178, 164
-0.998097, 347, 113, 362, 144
-0.998098, 205, 65, 236, 320
-0.9981, 129, 77, 144, 108
-0.998104, 299, 101, 314, 132
-0.998104, 389, 157, 404, 188
-0.998106, 63, 9, 78, 40
-0.998107, 171, 177, 186, 208
-0.99811, 227, 125, 242, 156
-0.998118, 367, 85, 382, 116
-0.99812, 289, 201, 304, 232
-0.998122, 161, 161, 176, 192
-0.998124, 371, 149, 386, 180
-0.998125, 409, 149, 424, 180
-0.998198, 1, 185, 500, 248
-0.998202, 81, 165, 208, 196
-0.998207, 225, 1, 288, 64
-0.998231, 305, 25, 432, 56
-0.99824, 225, 145, 352, 176
-0.998252, 273, 165, 400, 196
-0.998257, 97, 301, 224, 332
-0.998288, 81, 17, 208, 48
-0.99829, 353, 105, 480, 136
-0.998294, 433, 1, 496, 333
-0.998298, 49, 37, 176, 68
-0.998301, 289, 161, 320, 288
-0.99832, 193, 125, 320, 156
-0.998332, 281, 1, 312, 256
-0.998368, 225, 211, 288, 226
-0.998377, 193, 233, 320, 296
-0.998381, 129, 1, 160, 256
-0.998381, 49, 145, 176, 208
-0.998399, 193, 13, 320, 44
-0.998408, 421, 69, 452, 84
-0.998408, 429, 61, 460, 76
-0.998408, 249, 1, 280, 256
-0.998408, 181, 115, 212, 130
-0.998408, 329, 65, 360, 80
-0.998411, 101, 77, 132, 92
-0.998412, 277, 195, 308, 210
-0.998412, 169, 175, 200, 190
-0.998412, 89, 85, 120, 100
-0.998413, 349, 101, 380, 116
-0.998413, 293, 117, 324, 132
-0.998414, 13, 23, 44, 38
-0.998415, 89, 13, 120, 28
-0.998415, 257, 49, 288, 64
-0.998418, 361, 103, 392, 118
-0.998419, 401, 1, 432, 16
-0.998421, 245, 49, 276, 64
-0.998421, 393, 125, 424, 140
-0.998422, 273, 57, 304, 72
-0.998423, 25, 15, 56, 30
-0.998423, 49, 17, 80, 32
-0.998424, 365, 151, 396, 166
-0.998424, 209, 115, 240, 130
-0.998426, 145, 87, 176, 102
-0.998426, 21, 1, 52, 16
-0.998426, 161, 123, 224, 138
-0.998428, 353, 125, 384, 140
-0.998428, 165, 113, 196, 128
-0.998428, 89, 1, 120, 16
-0.998428, 173, 197, 204, 212
-0.998428, 45, 31, 76, 46
-0.998429, 221, 177, 252, 192
-0.998431, 185, 159, 216, 174
-0.998432, 205, 5, 236, 20
-0.998432, 425, 75, 456, 90
-0.998432, 301, 71, 332, 86
-0.998433, 353, 161, 384, 176
-0.998436, 97, 209, 224, 240
-0.998436, 177, 129, 240, 144
-0.998437, 253, 171, 284, 186
-0.998438, 125, 85, 156, 100
-0.998438, 49, 5, 112, 20
-0.998438, 241, 213, 272, 228
-0.99844, 205, 217, 236, 232
-0.99844, 49, 11, 80, 26
-0.998441, 233, 51, 264, 66
-0.998441, 241, 57, 272, 72
-0.998441, 153, 117, 184, 132
-0.998442, 153, 179, 184, 194
-0.998444, 153, 133, 184, 148
-0.998444, 341, 109, 372, 124
-0.998445, 217, 65, 248, 320
-0.998445, 225, 149, 256, 164
-0.998445, 169, 181, 200, 196
-0.998446, 321, 117, 352, 132
-0.998446, 317, 71, 348, 86
-0.998447, 389, 163, 420, 178
-0.998447, 293, 91, 324, 106
-0.998449, 173, 1, 204, 16
-0.99845, 185, 203, 248, 218
-0.998451, 349, 77, 380, 92
-0.998452, 313, 111, 344, 126
-0.998452, 193, 123, 224, 138
-0.998452, 125, 79, 156, 94
-0.998453, 373, 161, 404, 176
-0.998453, 261, 57, 292, 72
-0.998454, 29, 25, 60, 40
-0.998455, 305, 101, 336, 116
-0.998457, 277, 43, 308, 58
-0.998458, 297, 71, 360, 86
-0.998459, 113, 89, 144, 104
-0.99846, 237, 193, 268, 208
-0.99846, 193, 113, 224, 128
-0.998461, 41, 11, 104, 26
-0.998461, 229, 219, 260, 234
-0.998462, 345, 1, 376, 256
-0.998462, 177, 189, 240, 204
-0.998463, 73, 5, 136, 20
-0.998463, 213, 135, 244, 150
-0.998464, 209, 203, 240, 218
-0.998464, 173, 161, 204, 176
-0.998465, 257, 177, 288, 192
-0.998465, 113, 79, 144, 94
-0.998466, 209, 195, 272, 210
-0.998467, 213, 149, 244, 164
-0.998469, 301, 77, 332, 92
-0.998469, 69, 13, 100, 28
-0.99847, 337, 119, 368, 134
-0.998472, 45, 23, 76, 38
-0.998473, 205, 183, 236, 198
-0.998473, 97, 149, 224, 180
-0.998474, 181, 107, 212, 122
-0.998474, 193, 105, 224, 120
-0.998477, 165, 167, 196, 182
-0.998478, 189, 129, 220, 144
-0.99848, 337, 103, 368, 118
-0.99848, 297, 77, 360, 92
-0.998482, 169, 155, 200, 170
-0.998483, 257, 201, 288, 216
-0.998483, 301, 111, 332, 126
-0.998485, 241, 203, 304, 218
-0.998486, 277, 51, 308, 66
-0.998487, 377, 147, 440, 162
-0.998487, 217, 185, 280, 200
-0.998487, 165, 105, 196, 120
-0.998488, 249, 197, 312, 212
-0.998488, 205, 109, 236, 124
-0.998488, 221, 201, 252, 216
-0.998488, 185, 153, 248, 168
-0.998488, 329, 79, 360, 94
-0.998489, 9, 23, 72, 38
-0.998491, 313, 13, 344, 28
-0.998494, 329, 111, 360, 126
-0.998496, 105, 3, 136, 18
-0.998497, 377, 151, 408, 166
-0.998498, 253, 217, 284, 232
-0.998501, 201, 153, 232, 168
-0.998501, 145, 181, 208, 196
-0.998502, 321, 101, 352, 116
-0.998502, 185, 215, 248, 230
-0.998504, 17, 31, 80, 46
-0.998505, 369, 1, 496, 32
-0.998506, 97, 79, 160, 94
-0.998507, 185, 113, 248, 128
-0.998509, 305, 103, 368, 118
-0.998509, 65, 3, 96, 18
-0.998509, 165, 133, 196, 148
-0.998511, 329, 71, 360, 86
-0.998511, 225, 217, 288, 232
-0.998512, 205, 189, 236, 204
-0.998512, 37, 5, 68, 20
-0.998512, 209, 201, 272, 216
-0.998515, 385, 145, 416, 160
-0.998515, 369, 177, 432, 304
-0.998518, 257, 121, 500, 184
-0.998519, 65, 11, 128, 26
-0.99852, 177, 131, 208, 146
-0.998522, 233, 155, 264, 170
-0.998522, 359, 97, 374, 224
-0.998523, 213, 127, 244, 142
-0.998523, 157, 173, 188, 188
-0.998525, 293, 101, 324, 116
-0.998526, 353, 145, 384, 160
-0.998526, 17, 5, 80, 20
-0.998526, 153, 105, 216, 120
-0.998529, 329, 85, 392, 100
-0.99853, 137, 133, 200, 148
-0.998532, 225, 179, 288, 194
-0.998534, 25, 17, 88, 32
-0.998536, 345, 159, 408, 174
-0.998536, 153, 105, 184, 120
-0.998537, 217, 215, 248, 230
-0.998538, 345, 145, 408, 160
-0.99854, 49, 5, 80, 20
-0.99854, 253, 211, 284, 226
-0.998541, 241, 49, 304, 64
-0.998541, 157, 123, 188, 138
-0.998541, 401, 147, 432, 162
-0.998544, 229, 213, 260, 228
-0.998545, 41, 25, 104, 40
-0.998545, 345, 119, 408, 134
-0.998547, 337, 153, 400, 168
-0.998547, 225, 171, 288, 186
-0.998548, 249, 189, 312, 204
-0.998548, 297, 91, 360, 106
-0.998548, 161, 157, 224, 172
-0.998549, 329, 77, 392, 92
-0.998549, 377, 157, 440, 172
-0.99855, 321, 193, 448, 256
-0.998551, 89, 11, 152, 26
-0.998553, 185, 195, 248, 210
-0.998559, 189, 153, 220, 168
-0.99856, 97, 5, 160, 20
-0.99856, 97, 53, 224, 84
-0.998561, 49, 1, 80, 256
-0.998561, 177, 135, 240, 150
-0.998562, 281, 85, 344, 100
-0.998563, 137, 111, 200, 126
-0.998564, 281, 101, 344, 116
-0.998565, 257, 217, 320, 232
-0.998565, 269, 201, 300, 216
-0.998565, 257, 193, 288, 208
-0.998566, 185, 209, 248, 224
-0.998566, 93, 7, 124, 22
-0.998567, 221, 183, 252, 198
-0.998567, 265, 215, 296, 230
-0.998569, 233, 39, 296, 54
-0.998569, 145, 175, 208, 190
-0.998569, 289, 15, 352, 30
-0.998569, 369, 129, 432, 144
-0.998569, 249, 211, 312, 226
-0.99857, 177, 121, 208, 136
-0.99857, 161, 115, 224, 130
-0.998572, 121, 81, 184, 96
-0.998572, 353, 165, 416, 180
-0.998574, 273, 141, 400, 172
-0.998574, 305, 113, 368, 128
-0.998575, 377, 163, 440, 178
-0.998576, 89, 85, 152, 100
-0.998577, 161, 1, 224, 16
-0.998578, 257, 75, 320, 90
-0.998579, 321, 61, 384, 76
-0.998579, 65, 17, 128, 32
-0.998581, 321, 91, 384, 106
-0.998582, 137, 5, 200, 20
-0.998584, 257, 81, 320, 96
-0.998584, 273, 187, 304, 202
-0.998587, 305, 119, 368, 134
-0.998587, 245, 201, 276, 216
-0.998588, 281, 109, 344, 124
-0.998589, 201, 129, 216, 256
-0.998589, 425, 63, 488, 78
-0.99859, 209, 155, 272, 170
-0.99859, 373, 145, 404, 160
-0.99859, 169, 179, 232, 194
-0.998591, 185, 123, 248, 138
-0.998591, 201, 129, 232, 144
-0.998592, 273, 119, 336, 134
-0.998592, 321, 71, 384, 86
-0.998594, 113, 311, 176, 326
-0.998594, 241, 57, 304, 72
-0.998598, 297, 21, 360, 36
-0.998598, 73, 307, 136, 322
-0.998598, 433, 83, 496, 98
-0.998599, 297, 65, 360, 80
-0.9986, 169, 7, 232, 22
-0.9986, 17, 11, 80, 26
-0.9986, 153, 205, 216, 220
-0.998602, 185, 159, 248, 174
-0.998602, 153, 151, 216, 166
-0.998605, 433, 47, 496, 62
-0.998608, 193, 221, 256, 236
-0.998608, 129, 127, 192, 142
-0.998609, 153, 199, 216, 214
-0.998609, 49, 305, 112, 320
-0.998609, 25, 9, 56, 24
-0.99861, 345, 125, 408, 140
-0.998611, 177, 105, 240, 120
-0.998611, 329, 105, 392, 120
-0.998611, 9, 97, 72, 224
-0.998611, 145, 167, 208, 182
-0.998611, 329, 99, 392, 114
-0.998614, 65, 89, 128, 104
-0.998615, 97, 91, 160, 106
-0.998615, 145, 315, 208, 330
-0.998617, 137, 117, 200, 132
-0.998618, 265, 45, 328, 60
-0.998619, 265, 37, 328, 52
-0.99862, 265, 55, 328, 70
-0.998621, 305, 83, 368, 98
-0.998623, 377, 1, 440, 16
-0.998623, 1, 17, 64, 32
-0.998623, 321, 147, 384, 162
-0.998624, 201, 147, 264, 162
-0.998626, 209, 121, 272, 136
-0.998628, 41, 31, 104, 46
-0.99863, 221, 195, 252, 210
-0.99863, 161, 211, 224, 226
-0.998632, 265, 69, 328, 84
-0.998633, 153, 187, 216, 202
-0.998636, 121, 11, 184, 26
-0.998637, 209, 127, 272, 142
-0.998637, 329, 169, 392, 184
-0.998637, 113, 71, 176, 86
-0.998637, 273, 91, 336, 106
-0.998637, 265, 29, 328, 44
-0.998639, 185, 173, 248, 188
-0.998639, 89, 17, 152, 32
-0.99864, 217, 51, 280, 66
-0.99864, 169, 165, 232, 180
-0.99864, 177, 317, 240, 332
-0.99864, 409, 75, 472, 90
-0.998641, 329, 111, 392, 126
-0.998643, 367, 97, 382, 224
-0.998661, 207, 129, 222, 256
-0.998664, 77, 5, 108, 20
-0.998677, 165, 1, 196, 256
-0.998711, 373, 97, 388, 224
-0.998714, 217, 129, 232, 256
-0.998717, 333, 1, 364, 256
-0.998721, 181, 1, 212, 256
-0.998742, 225, 161, 352, 192
-0.998774, 93, 1, 124, 256
-0.998776, 167, 113, 182, 240
-0.998792, 1, 85, 128, 116
-0.998814, 109, 1, 140, 256
-0.998815, 225, 129, 240, 256
-0.998816, 269, 1, 300, 256
-0.998821, 347, 81, 362, 208
-0.998828, 187, 129, 202, 256
-0.998835, 177, 113, 192, 240
-0.99884, 195, 129, 210, 256
-0.998841, 409, 1, 440, 256
-0.998853, 89, 273, 152, 333
-0.998855, 61, 1, 92, 256
-0.998863, 417, 129, 480, 256
-0.998873, 17, 1, 48, 256
-0.998904, 411, 113, 426, 240
-0.998928, 161, 81, 176, 208
-0.998929, 81, 225, 208, 288
-0.998933, 241, 177, 272, 304
-0.998939, 379, 97, 394, 224
-0.998947, 207, 177, 222, 304
-0.998961, 221, 177, 236, 304
-0.998964, 353, 65, 368, 192
-0.998972, 157, 129, 172, 256
-0.998982, 193, 65, 224, 320
-0.998983, 197, 81, 212, 208
-0.998991, 485, 17, 500, 144
-0.998993, 105, 1, 120, 128
-0.999004, 289, 189, 416, 220
-0.99901, 213, 177, 228, 304
-0.999012, 389, 113, 404, 240
-0.999021, 187, 81, 202, 208
-0.999023, 207, 81, 222, 208
-0.999025, 1, 73, 128, 104
-0.999034, 309, 1, 340, 256
-0.999037, 229, 177, 244, 304
-0.999039, 371, 145, 386, 272
-0.999057, 401, 129, 416, 256
-0.999065, 231, 129, 246, 256
-0.999081, 1, 273, 256, 333
-0.999081, 281, 177, 296, 304
-0.999092, 161, 25, 288, 56
-0.999092, 365, 49, 380, 176
-0.999092, 201, 177, 216, 304
-0.999093, 381, 145, 396, 272
-0.999097, 365, 145, 380, 272
-0.99911, 141, 1, 156, 128
-0.99912, 369, 173, 496, 204
-0.999122, 353, 117, 480, 148
-0.999126, 81, 1, 112, 256
-0.999127, 417, 129, 432, 256
-0.99913, 369, 37, 496, 68
-0.999136, 395, 129, 410, 256
-0.999144, 353, 113, 368, 240
-0.999149, 1, 109, 128, 140
-0.999151, 1, 45, 128, 76
-0.999152, 225, 257, 352, 320
-0.99917, 175, 161, 190, 288
-0.999185, 479, 17, 494, 144
-0.99921, 1, 289, 128, 320
-0.99921, 49, 289, 176, 320
-0.999218, 359, 145, 374, 272
-0.99922, 193, 217, 448, 280
-0.999221, 1, 57, 128, 88
-0.999223, 359, 49, 374, 176
-0.999235, 241, 217, 368, 248
-0.999236, 341, 81, 356, 208
-0.999239, 373, 1, 404, 128
-0.999258, 217, 81, 232, 208
-0.99926, 389, 1, 420, 256
-0.999262, 141, 1, 172, 256
-0.999265, 123, 1, 138, 128
-0.99927, 287, 177, 302, 304
-0.999272, 275, 161, 290, 288
-0.999273, 231, 49, 246, 176
-0.99928, 239, 129, 254, 256
-0.999281, 169, 161, 184, 288
-0.99929, 245, 17, 260, 144
-0.999297, 369, 13, 496, 44
-0.999299, 161, 301, 288, 332
-0.999299, 195, 177, 210, 304
-0.999301, 77, 1, 92, 128
-0.999309, 273, 17, 288, 144
-0.99931, 269, 161, 284, 288
-0.99932, 301, 1, 316, 128
-0.999321, 361, 33, 392, 288
-0.999325, 129, 1, 144, 128
-0.999326, 427, 65, 442, 192
-0.999332, 83, 1, 98, 128
-0.999332, 89, 1, 104, 128
-0.999337, 265, 17, 280, 144
-0.999338, 251, 17, 266, 144
-0.999341, 371, 49, 386, 176
-0.999347, 181, 161, 196, 288
-0.999349, 353, 17, 368, 144
-0.99935, 71, 1, 86, 128
-0.999355, 23, 1, 38, 128
-0.999359, 115, 1, 130, 128
-0.99936, 225, 81, 240, 208
-0.999363, 295, 1, 310, 128
-0.999364, 423, 129, 438, 256
-0.999365, 275, 209, 290, 333
-0.999368, 135, 1, 150, 128
-0.99937, 61, 1, 76, 128
-0.999375, 155, 81, 170, 208
-0.999378, 37, 1, 68, 256
-0.99938, 235, 177, 250, 304
-0.999381, 341, 17, 356, 144
-0.999393, 161, 33, 176, 160
-0.999395, 255, 145, 270, 272
-0.9994, 177, 65, 192, 192
-0.9994, 17, 1, 32, 128
-0.999401, 327, 33, 342, 160
-0.999401, 239, 49, 254, 176
-0.999403, 421, 33, 452, 288
-0.999409, 259, 17, 274, 144
-0.999411, 163, 161, 178, 288
-0.999413, 319, 17, 334, 144
-0.999415, 401, 81, 416, 208
-0.999416, 51, 1, 66, 128
-0.999418, 45, 1, 60, 128
-0.999431, 335, 17, 350, 144
-0.99944, 283, 17, 298, 144
-0.999441, 99, 1, 114, 128
-0.999442, 173, 1, 188, 128
-0.999448, 419, 81, 434, 208
-0.99945, 167, 65, 182, 192
-0.999451, 335, 65, 350, 192
-0.999454, 473, 1, 488, 128
-0.999479, 309, 17, 324, 144
-0.99948, 289, 49, 304, 176
-0.999483, 299, 49, 314, 176
-0.999483, 347, 17, 362, 144
-0.999491, 321, 81, 336, 208
-0.999499, 245, 129, 260, 256
-0.999501, 151, 33, 166, 160
-0.999502, 395, 81, 410, 208
-0.999507, 151, 129, 166, 256
-0.999507, 167, 1, 182, 128
-0.999514, 49, 181, 176, 212
-0.999514, 327, 81, 342, 208
-0.999515, 409, 161, 424, 288
-0.999519, 1, 209, 256, 272
-0.999523, 281, 129, 296, 256
-0.999524, 247, 177, 262, 304
-0.999526, 387, 161, 402, 288
-0.999526, 347, 129, 362, 256
-0.999527, 359, 1, 374, 128
-0.999527, 315, 81, 330, 208
-0.999535, 377, 49, 392, 176
-0.999538, 245, 65, 260, 192
-0.999539, 153, 177, 168, 304
-0.999542, 187, 177, 202, 304
-0.999554, 37, 1, 52, 128
-0.999559, 321, 1, 352, 256
-0.999564, 433, 17, 448, 144
-0.999573, 409, 1, 424, 128
-0.999577, 207, 1, 222, 128
-0.999577, 129, 217, 192, 280
-0.999578, 365, 1, 380, 128
-0.999581, 97, 37, 224, 68
-0.999594, 263, 161, 278, 288
-0.999603, 11, 1, 26, 128
-0.999605, 353, 161, 368, 288
-0.999609, 117, 49, 132, 176
-0.999614, 321, 37, 448, 68
-0.999615, 49, 49, 176, 80
-0.999616, 453, 1, 484, 256
-0.999618, 279, 197, 294, 212
-0.999618, 111, 83, 126, 98
-0.999618, 179, 155, 194, 170
-0.99962, 343, 111, 358, 126
-0.999621, 217, 153, 232, 168
-0.999622, 23, 17, 38, 32
-0.999622, 331, 107, 346, 122
-0.999623, 315, 111, 330, 126
-0.999623, 273, 49, 288, 64
-0.999623, 75, 13, 90, 28
-0.999623, 117, 91, 132, 106
-0.999624, 211, 153, 226, 168
-0.999624, 189, 105, 204, 120
-0.999625, 29, 1, 44, 128
-0.999625, 53, 5, 68, 20
-0.999626, 89, 13, 104, 28
-0.999626, 369, 89, 384, 104
-0.999626, 259, 169, 274, 184
-0.999627, 313, 13, 328, 28
-0.999628, 199, 105, 214, 120
-0.999628, 287, 193, 302, 208
-0.999629, 179, 175, 194, 190
-0.99963, 21, 23, 36, 38
-0.999631, 147, 81, 162, 96
-0.999631, 335, 101, 350, 116
-0.999632, 341, 79, 356, 94
-0.999632, 399, 153, 414, 168
-0.999632, 331, 71, 346, 86
-0.999633, 185, 197, 200, 212
-0.999633, 323, 101, 338, 116
-0.999633, 321, 111, 336, 126
-0.999634, 281, 213, 296, 228
-0.999634, 259, 209, 274, 224
-0.999635, 159, 177, 174, 192
-0.999635, 449, 81, 480, 208
-0.999636, 247, 49, 262, 64
-0.999638, 233, 183, 248, 198
-0.999638, 41, 5, 56, 20
-0.999638, 155, 107, 170, 122
-0.999639, 295, 101, 310, 116
-0.999639, 291, 53, 306, 68
-0.99964, 337, 111, 352, 126
-0.99964, 257, 193, 272, 208
-0.99964, 433, 63, 448, 78
-0.99964, 69, 7, 84, 22
-0.999642, 169, 115, 184, 130
-0.999644, 27, 7, 42, 22
-0.999644, 269, 177, 284, 192
-0.999644, 241, 57, 256, 72
-0.999644, 191, 131, 206, 146
-0.999645, 251, 195, 266, 210
-0.999645, 405, 147, 420, 162
-0.999645, 191, 153, 206, 168
-0.999645, 227, 135, 242, 150
-0.999646, 297, 109, 312, 124
-0.999646, 273, 57, 288, 72
-0.999648, 205, 105, 220, 120
-0.999648, 185, 161, 200, 176
-0.999649, 81, 9, 96, 24
-0.99965, 353, 101, 368, 116
-0.999651, 177, 121, 192, 136
-0.999651, 199, 127, 214, 142
-0.999651, 193, 121, 208, 136
-0.999651, 427, 71, 442, 86
-0.999652, 183, 105, 198, 120
-0.999652, 199, 153, 214, 168
-0.999652, 357, 125, 372, 140
-0.999652, 339, 71, 354, 86
-0.999653, 27, 1, 42, 16
-0.999653, 235, 173, 250, 188
-0.999654, 235, 153, 250, 168
-0.999654, 161, 123, 176, 138
-0.999654, 179, 169, 194, 184
-0.999655, 331, 113, 346, 128
-0.999659, 303, 103, 318, 118
-0.999659, 165, 105, 180, 120
-0.99966, 121, 79, 136, 94
-0.999661, 349, 117, 364, 132
-0.999663, 171, 105, 186, 120
-0.999663, 383, 145, 398, 160
-0.999663, 185, 155, 200, 170
-0.999664, 433, 75, 448, 90
-0.999665, 263, 219, 278, 234
-0.999665, 1, 1, 32, 256
-0.999665, 243, 153, 258, 168
-0.999667, 219, 199, 234, 214
-0.999667, 205, 153, 220, 168
-0.999667, 107, 5, 122, 20
-0.99967, 127, 79, 142, 94
-0.999671, 329, 101, 344, 116
-0.999673, 223, 129, 238, 144
-0.999673, 275, 213, 290, 228
-0.999674, 179, 133, 194, 148
-0.999675, 237, 213, 252, 228
-0.999676, 379, 151, 394, 166
-0.999677, 91, 5, 106, 20
-0.999678, 389, 145, 404, 160
-0.999679, 167, 125, 182, 140
-0.999679, 219, 191, 234, 206
-0.999679, 243, 193, 258, 208
-0.99968, 211, 127, 226, 142
-0.99968, 221, 109, 236, 124
-0.999681, 379, 159, 394, 174
-0.999682, 225, 213, 240, 228
-0.999684, 375, 145, 390, 160
-0.999687, 273, 187, 288, 202
-0.999687, 225, 195, 240, 210
-0.999687, 397, 145, 412, 160
-0.999688, 169, 131, 184, 146
-0.999689, 177, 161, 192, 176
-0.999689, 309, 101, 324, 116
-0.999695, 79, 3, 94, 18
-0.999695, 317, 101, 332, 116
-0.999696, 113, 1, 128, 16
-0.999699, 101, 5, 116, 20
-0.999703, 389, 151, 404, 166
-0.999707, 231, 219, 246, 234
-0.999707, 267, 171, 282, 186
-0.999708, 167, 165, 182, 180
-0.999714, 243, 203, 258, 218
-0.999714, 267, 211, 282, 226
-0.999717, 259, 201, 274, 216
-0.999719, 219, 185, 234, 200
-0.999726, 249, 201, 264, 216
-0.999727, 85, 3, 100, 18
-0.999732, 97, 113, 160, 176
-0.999736, 205, 127, 220, 142
-0.99974, 217, 129, 232, 144
-0.999742, 231, 195, 246, 210
-0.999744, 227, 185, 242, 200
-0.999749, 169, 171, 184, 186
-0.999778, 231, 213, 246, 228
-0.999778, 269, 217, 284, 232
-0.999778, 267, 193, 282, 208
-0.999811, 373, 1, 404, 256
-0.999818, 337, 193, 464, 224
-0.999825, 65, 249, 192, 312
-0.999896, 289, 201, 416, 232
-0.999907, 273, 257, 400, 320
-0.999922, 369, 25, 496, 56
-0.999927, 249, 233, 312, 296
-0.999931, 465, 1, 496, 256
-0.999936, 145, 233, 272, 264
-0.999967, 193, 233, 320, 264
-0.999999, 177, 257, 304, 320
-1.00008, 433, 1, 464, 256
-1.00008, 221, 1, 252, 128
-1.00009, 33, 257, 160, 288
-1.00009, 145, 13, 272, 44
-1.0001, 113, 289, 240, 320
-1.00013, 81, 221, 208, 252
-1.00017, 49, 141, 176, 172
-1.00017, 417, 1, 448, 128
-1.0002, 289, 201, 352, 264
-1.00021, 209, 301, 336, 332
-1.00021, 309, 113, 340, 240
-1.00022, 49, 153, 176, 184
-1.00029, 129, 273, 384, 333
-1.00031, 161, 289, 288, 320
-1.00031, 49, 209, 176, 240
-1.00033, 49, 193, 176, 256
-1.00036, 257, 229, 384, 260
-1.00042, 289, 289, 416, 320
-1.00042, 353, 273, 480, 304
-1.00043, 97, 257, 224, 288
-1.00044, 289, 153, 352, 216
-1.00044, 13, 49, 44, 176
-1.00049, 393, 1, 424, 128
-1.00049, 65, 273, 128, 333
-1.00067, 129, 241, 384, 304
-1.00073, 253, 209, 284, 333
-1.00075, 17, 241, 144, 304
-1.0008, 81, 65, 112, 192
-1.00083, 41, 81, 72, 208
-1.00088, 337, 265, 464, 328
-1.0009, 1, 233, 256, 296
-1.00097, 33, 169, 160, 232
-1.00106, 157, 209, 188, 333
-1.00113, 225, 273, 480, 333
-1.00115, 185, 233, 248, 296
-1.00118, 461, 81, 492, 208
-1.00122, 133, 177, 164, 304
-1.00129, 377, 177, 408, 304
-1.00142, 409, 177, 440, 304
-1.00146, 49, 145, 176, 272
-1.0015, 225, 241, 480, 304
-1.0015, 289, 225, 416, 288
-1.00158, 1, 97, 32, 224
-1.00161, 353, 177, 384, 304
-1.00163, 265, 137, 328, 200
-1.00169, 369, 201, 496, 264
-1.00172, 1, 233, 500, 296
-1.00176, 1, 265, 500, 328
-1.00178, 337, 241, 464, 304
-1.00179, 17, 217, 144, 280
-1.00212, 361, 193, 424, 256
-1.00214, 113, 273, 176, 333
-1.00232, 53, 65, 84, 192
-1.00239, 433, 113, 464, 240
-1.0025, 29, 49, 60, 176
-1.00258, 1, 137, 128, 200
-1.00262, 105, 177, 168, 304
-1.00267, 401, 177, 464, 304
-1.00267, 289, 209, 320, 333
-1.00272, 153, 273, 216, 333
-1.00273, 281, 257, 344, 320
-1.00291, 1, 193, 128, 256
-1.00301, 13, 97, 44, 224
-1.00307, 337, 193, 400, 256
-1.00318, 305, 273, 368, 333
-1.00322, 69, 65, 100, 192
-1.00334, 273, 233, 336, 296
-1.00342, 425, 161, 488, 224
-1.00357, 105, 193, 168, 256
-1.00367, 29, 97, 60, 224
-1.00402, 261, 81, 292, 208
-1.00405, 209, 257, 272, 320
-1.00419, 329, 265, 392, 328
-1.00421, 233, 257, 296, 320
-1.00433, 257, 257, 320, 320
-1.00437, 393, 49, 424, 176
-1.00477, 17, 209, 144, 333
-1.0048, 105, 97, 136, 224
-1.00529, 117, 97, 148, 224
-1.00608, 57, 209, 120, 333
-1.00636, 321, 177, 352, 304
-1.00664, 433, 161, 464, 288
-1.00675, 25, 49, 88, 176
-1.00715, 309, 209, 340, 333
-1.00721, 117, 209, 148, 333
-1.0073, 341, 193, 372, 320
-1.00733, 297, 177, 360, 304
-1.00738, 369, 193, 496, 320
-1.00743, 365, 193, 396, 320
-1.00756, 89, 193, 120, 320
-1.00757, 65, 209, 96, 333
-1.00765, 93, 113, 124, 240
-1.00792, 421, 193, 452, 320
-1.00793, 121, 161, 152, 288
-1.00794, 105, 209, 136, 333
-1.00797, 397, 193, 428, 320
-1.008, 441, 209, 472, 333
-1.00916, 337, 193, 400, 320
-1.00945, 81, 113, 144, 240
-1.00953, 1, 129, 128, 256
-1.01087, 81, 193, 144, 320
-1.01155, 25, 193, 88, 320
-1.01186, 33, 113, 96, 240
-1.0121, 1, 209, 64, 333
-1.01218, 433, 209, 496, 333
-1.01387, 57, 129, 120, 256
-1.01458, 1, 145, 64, 272
