1962
-0.636702, 1, 1, 500, 256
-0.651913, 1, 1, 500, 375
-0.762405, 1, 129, 500, 375
-0.778054, 161, 1, 416, 375
-0.799153, 65, 1, 320, 375
-0.853919, 257, 1, 500, 375
-0.901487, 193, 1, 448, 256
-0.911015, 1, 1, 256, 256
-0.918157, 97, 1, 352, 256
-0.942056, 65, 1, 192, 375
-0.944147, 81, 1, 208, 256
-0.944558, 321, 1, 448, 256
-0.94587, 161, 1, 288, 375
-0.945998, 273, 1, 400, 375
-0.948666, 1, 1, 128, 375
-0.949252, 321, 1, 448, 375
-0.951571, 193, 1, 320, 256
-0.95158, 145, 1, 272, 256
-0.952553, 113, 1, 240, 375
-0.953702, 241, 1, 368, 256
-0.95526, 209, 1, 336, 375
-0.957473, 33, 1, 160, 256
-0.959842, 257, 129, 384, 375
-0.965007, 369, 1, 496, 375
-0.965736, 337, 97, 464, 352
-0.968367, 1, 17, 500, 144
-0.969851, 369, 1, 496, 256
-0.973179, 1, 225, 500, 352
-0.978121, 313, 169, 376, 232
-0.980739, 129, 145, 384, 272
-0.981236, 1, 1, 256, 128
-0.98146, 97, 17, 352, 144
-0.981555, 273, 209, 400, 336
-0.982692, 145, 97, 272, 352
-0.982928, 329, 145, 392, 272
-0.983773, 337, 161, 400, 224
-0.984651, 209, 97, 336, 352
-0.984854, 341, 161, 372, 224
-0.985211, 97, 97, 224, 352
-0.986048, 349, 145, 380, 272
-0.986336, 329, 209, 392, 272
-0.986525, 225, 1, 480, 128
-0.98668, 353, 161, 384, 224
-0.987474, 33, 129, 160, 375
-0.987975, 1, 145, 500, 272
-0.988457, 257, 145, 384, 272
-0.988665, 193, 97, 448, 224
-0.9891, 313, 209, 376, 336
-0.989123, 273, 1, 400, 128
-0.989271, 337, 161, 368, 288
-0.989272, 1, 97, 500, 224
-0.989679, 33, 1, 160, 128
-0.989935, 313, 145, 376, 208
-0.990001, 337, 209, 368, 272
-0.990057, 305, 145, 368, 272
-0.990101, 433, 1, 496, 128
-0.990433, 321, 165, 384, 196
-0.990493, 129, 17, 256, 144
-0.990604, 273, 169, 400, 232
-0.99069, 337, 1, 464, 128
-0.99104, 333, 185, 364, 248
-0.991176, 329, 161, 360, 224
-0.991489, 121, 1, 184, 128
-0.991508, 81, 17, 208, 144
-0.99161, 305, 209, 368, 272
-0.991659, 217, 313, 280, 375
-0.99169, 329, 1, 392, 128
-0.991729, 345, 209, 408, 336
-0.991779, 313, 177, 376, 208
-0.991788, 321, 177, 448, 304
-0.991959, 193, 1, 320, 128
-0.99197, 201, 341, 264, 372
-0.991992, 345, 161, 408, 192
-0.992244, 49, 1, 112, 64
-0.992328, 177, 337, 240, 368
-0.992408, 225, 1, 288, 64
-0.992508, 113, 305, 240, 368
-0.992548, 345, 137, 376, 200
-0.992562, 9, 1, 72, 64
-0.992636, 345, 177, 408, 208
-0.99264, 321, 153, 448, 216
-0.99264, 341, 165, 372, 196
-0.992641, 337, 129, 464, 256
-0.992679, 1, 81, 256, 208
-0.992685, 345, 185, 376, 248
-0.992703, 313, 205, 376, 236
-0.992746, 213, 333, 244, 364
-0.99286, 305, 217, 368, 248
-0.992884, 209, 329, 272, 360
-0.992904, 289, 173, 352, 204
-0.992955, 353, 161, 384, 192
-0.992977, 337, 209, 400, 240
-0.992987, 393, 273, 456, 304
-0.992998, 329, 169, 360, 200
-0.993038, 345, 137, 408, 200
-0.993052, 369, 285, 432, 316
-0.99306, 353, 173, 384, 204
-0.993173, 321, 153, 384, 184
-0.993194, 225, 209, 480, 336
-0.993229, 337, 181, 368, 212
-0.993248, 353, 1, 416, 128
-0.993282, 345, 221, 408, 252
-0.993286, 225, 341, 288, 372
-0.993309, 257, 201, 384, 264
-0.993329, 341, 153, 372, 184
-0.993349, 33, 1, 96, 32
-0.993391, 329, 1, 392, 32
-0.993394, 225, 341, 256, 372
-0.993395, 353, 149, 416, 180
-0.993413, 185, 325, 248, 356
-0.993425, 353, 221, 384, 252
-0.993462, 241, 1, 368, 64
-0.993464, 353, 273, 416, 304
-0.993479, 49, 1, 112, 128
-0.99349, 353, 217, 384, 280
-0.993505, 89, 1, 152, 128
-0.993508, 317, 173, 348, 204
-0.993518, 57, 1, 120, 32
-0.99352, 201, 337, 232, 368
-0.993528, 341, 201, 372, 232
-0.993536, 241, 293, 272, 324
-0.993553, 365, 165, 396, 196
-0.993567, 61, 1, 92, 32
-0.993598, 281, 161, 344, 192
-0.993606, 353, 209, 384, 240
-0.99362, 429, 277, 460, 308
-0.993625, 357, 149, 388, 180
-0.993649, 225, 329, 256, 360
-0.99365, 385, 261, 448, 292
-0.993661, 213, 345, 244, 375
-0.993663, 213, 321, 244, 352
-0.993663, 333, 221, 364, 252
-0.993664, 281, 209, 344, 240
-0.993668, 317, 161, 348, 192
-0.993674, 45, 1, 76, 32
-0.993678, 389, 281, 420, 312
-0.993682, 369, 301, 400, 332
-0.993686, 5, 5, 36, 36
-0.993686, 445, 269, 476, 300
-0.993687, 281, 13, 344, 44
-0.993691, 337, 197, 400, 228
-0.993697, 377, 1, 440, 64
-0.993699, 253, 305, 284, 336
-0.993719, 177, 1, 240, 32
-0.993722, 241, 305, 272, 336
-0.993729, 241, 13, 304, 44
-0.993729, 433, 129, 496, 160
-0.993731, 241, 1, 304, 128
-0.993731, 333, 1, 364, 32
-0.993736, 425, 265, 456, 296
-0.99374, 325, 257, 356, 288
-0.993742, 73, 1, 104, 32
-0.993744, 377, 281, 408, 312
-0.993749, 45, 321, 76, 352
-0.993753, 361, 301, 424, 332
-0.993756, 353, 1, 384, 32
-0.993767, 9, 1, 72, 32
-0.993773, 325, 205, 356, 236
-0.99378, 369, 217, 400, 248
-0.993786, 245, 13, 276, 44
-0.993786, 325, 185, 356, 216
-0.993788, 253, 293, 284, 324
-0.993793, 61, 13, 92, 44
-0.993794, 41, 17, 72, 48
-0.993795, 313, 201, 344, 232
-0.993803, 309, 281, 340, 312
-0.993803, 441, 117, 472, 148
-0.993803, 237, 329, 268, 360
-0.993809, 245, 269, 276, 300
-0.993809, 349, 185, 380, 216
-0.993817, 433, 117, 496, 148
-0.99382, 9, 13, 72, 44
-0.99382, 65, 13, 128, 44
-0.993829, 337, 245, 368, 276
-0.993831, 117, 1, 148, 32
-0.993833, 277, 17, 308, 48
-0.993833, 373, 269, 404, 300
-0.993842, 437, 257, 468, 288
-0.993842, 457, 277, 488, 308
-0.993843, 265, 17, 296, 48
-0.993846, 445, 281, 476, 312
-0.993849, 233, 273, 264, 304
-0.99385, 213, 1, 244, 32
-0.99385, 245, 157, 276, 188
-0.993853, 397, 265, 428, 296
-0.993853, 105, 21, 136, 52
-0.993858, 301, 209, 332, 240
-0.993864, 357, 233, 388, 264
-0.993864, 201, 1, 264, 32
-0.993866, 21, 1, 52, 32
-0.993869, 89, 37, 120, 68
-0.99387, 441, 129, 472, 160
-0.993871, 217, 317, 280, 348
-0.993873, 193, 321, 224, 352
-0.993873, 105, 5, 136, 36
-0.993874, 197, 1, 228, 32
-0.993874, 469, 189, 500, 220
-0.993876, 413, 273, 444, 304
-0.993882, 369, 205, 400, 236
-0.993882, 89, 9, 120, 40
-0.993883, 89, 37, 152, 68
-0.993883, 289, 9, 320, 40
-0.993883, 337, 13, 368, 44
-0.993884, 305, 165, 336, 196
-0.993885, 321, 217, 352, 248
-0.993885, 25, 25, 88, 56
-0.993885, 201, 13, 232, 44
-0.993886, 249, 1, 280, 32
-0.993891, 257, 297, 320, 328
-0.993891, 309, 13, 340, 44
-0.993895, 129, 1, 160, 32
-0.993896, 341, 93, 372, 124
-0.993896, 369, 153, 400, 184
-0.993898, 185, 21, 216, 52
-0.9939, 321, 9, 352, 40
-0.993901, 265, 121, 328, 152
-0.993903, 133, 25, 164, 56
-0.993904, 53, 25, 84, 56
-0.993904, 469, 317, 500, 348
-0.993906, 25, 321, 88, 352
-0.993907, 305, 193, 368, 224
-0.993908, 97, 1, 224, 64
-0.993909, 429, 117, 460, 148
-0.993914, 145, 1, 176, 32
-0.993915, 1, 25, 32, 56
-0.993917, 313, 241, 344, 272
-0.993918, 225, 253, 256, 284
-0.993919, 417, 1, 448, 32
-0.993921, 429, 137, 460, 168
-0.993923, 261, 145, 292, 176
-0.993924, 161, 1, 192, 32
-0.993924, 341, 141, 372, 172
-0.993924, 289, 109, 352, 140
-0.993924, 261, 1, 292, 32
-0.993926, 297, 285, 328, 316
-0.993931, 237, 341, 268, 372
-0.993933, 233, 317, 264, 348
-0.993934, 21, 21, 52, 52
-0.993935, 61, 317, 92, 348
-0.993935, 329, 153, 360, 184
-0.993935, 417, 273, 480, 304
-0.993942, 1, 25, 64, 56
-0.993942, 33, 5, 64, 36
-0.993943, 29, 33, 60, 64
-0.993945, 297, 105, 328, 136
-0.993945, 189, 337, 220, 368
-0.993946, 265, 297, 296, 328
-0.993947, 273, 29, 304, 60
-0.993947, 469, 277, 500, 308
-0.993948, 61, 121, 92, 152
-0.993949, 113, 33, 144, 64
-0.993949, 457, 117, 488, 148
-0.993951, 257, 157, 288, 188
-0.993951, 333, 233, 364, 264
-0.993952, 233, 329, 296, 360
-0.993952, 233, 13, 264, 44
-0.993953, 121, 21, 152, 52
-0.993956, 313, 13, 376, 44
-0.993956, 417, 261, 480, 292
-0.993956, 325, 269, 356, 300
-0.993958, 453, 97, 484, 128
-0.993958, 357, 13, 388, 44
-0.993959, 261, 193, 292, 224
-0.993959, 73, 25, 104, 56
-0.993959, 37, 309, 68, 340
-0.993961, 337, 301, 400, 332
-0.993961, 401, 1, 432, 32
-0.993961, 433, 105, 464, 136
-0.993965, 137, 189, 168, 220
-0.993966, 353, 1, 416, 32
-0.993966, 49, 25, 112, 56
-0.993968, 313, 97, 376, 128
-0.993977, 97, 1, 160, 32
-0.993981, 113, 33, 176, 64
-0.993984, 393, 117, 456, 148
-0.993992, 401, 1, 464, 128
-0.993994, 289, 177, 352, 240
-0.993994, 241, 1, 304, 32
-0.994, 241, 261, 304, 292
-0.994, 225, 293, 288, 324
-0.99401, 433, 97, 496, 128
-0.994018, 369, 217, 432, 248
-0.994041, 193, 13, 256, 44
-0.994044, 225, 305, 288, 336
-0.994046, 337, 285, 400, 316
-0.994052, 297, 257, 360, 288
-0.994052, 433, 317, 496, 348
-0.994057, 217, 17, 280, 48
-0.994057, 161, 21, 224, 52
-0.994065, 185, 117, 248, 148
-0.99407, 257, 109, 320, 140
-0.994072, 257, 285, 320, 316
-0.994081, 393, 285, 456, 316
-0.994086, 409, 137, 472, 168
-0.9941, 297, 149, 360, 180
-0.994101, 41, 121, 104, 152
-0.994104, 89, 21, 152, 52
-0.994114, 369, 97, 432, 128
-0.994117, 233, 109, 296, 140
-0.99412, 417, 1, 480, 32
-0.994122, 241, 25, 304, 56
-0.994127, 1, 37, 64, 68
-0.99413, 217, 269, 280, 300
-0.994132, 305, 1, 368, 32
-0.994143, 249, 273, 312, 304
-0.994151, 25, 37, 88, 68
-0.994155, 161, 325, 224, 356
-0.994158, 361, 281, 424, 344
-0.994161, 33, 13, 96, 44
-0.994169, 1, 309, 64, 340
-0.994188, 281, 285, 344, 316
-0.9942, 281, 25, 344, 56
-0.9942, 401, 105, 464, 136
-0.994203, 329, 237, 392, 268
-0.994205, 433, 305, 496, 336
-0.994207, 273, 197, 336, 228
-0.994208, 73, 121, 136, 152
-0.994211, 201, 105, 264, 136
-0.994224, 121, 1, 184, 32
-0.994224, 65, 37, 128, 68
-0.994237, 169, 73, 232, 104
-0.994239, 113, 17, 176, 48
-0.994239, 137, 21, 200, 52
-0.994245, 185, 29, 248, 60
-0.994252, 337, 101, 400, 132
-0.994252, 57, 317, 120, 348
-0.994258, 305, 273, 368, 304
-0.994263, 217, 29, 280, 60
-0.994263, 153, 37, 216, 68
-0.994268, 329, 265, 392, 296
-0.994271, 321, 253, 384, 284
-0.994276, 401, 17, 464, 48
-0.994279, 145, 1, 208, 128
-0.994284, 17, 129, 80, 160
-0.994294, 393, 1, 456, 32
-0.994302, 313, 25, 376, 56
-0.994305, 321, 141, 384, 172
-0.994308, 361, 261, 424, 292
-0.994309, 193, 273, 320, 336
-0.994319, 281, 1, 344, 32
-0.99432, 209, 257, 272, 288
-0.994333, 393, 93, 456, 124
-0.994333, 169, 105, 232, 136
-0.994338, 129, 113, 192, 144
-0.994341, 49, 133, 112, 164
-0.994343, 353, 1, 416, 64
-0.994344, 337, 25, 400, 56
-0.994357, 201, 297, 264, 328
-0.994361, 145, 1, 208, 32
-0.994366, 1, 297, 64, 328
-0.994375, 113, 201, 176, 232
-0.994378, 97, 113, 160, 144
-0.994378, 161, 125, 224, 156
-0.994385, 81, 333, 144, 364
-0.994391, 329, 117, 392, 148
-0.994435, 353, 129, 416, 256
-0.994514, 209, 313, 336, 375
-0.994528, 17, 1, 144, 64
-0.994594, 349, 193, 380, 320
-0.994597, 273, 1, 336, 64
-0.994677, 177, 313, 240, 375
-0.994708, 177, 145, 304, 272
-0.994716, 213, 313, 244, 375
-0.99498, 321, 209, 448, 272
-0.995095, 49, 1, 112, 375
-0.995128, 193, 241, 320, 368
-0.995157, 177, 1, 240, 375
-0.995198, 369, 225, 496, 352
-0.99536, 321, 177, 448, 240
-0.995387, 161, 1, 288, 64
-0.995412, 241, 137, 368, 200
-0.995444, 225, 249, 352, 312
-0.99559, 265, 17, 328, 144
-0.995626, 273, 225, 400, 288
-0.995652, 193, 49, 448, 176
-0.995704, 249, 1, 312, 64
-0.995732, 337, 1, 400, 256
-0.99577, 17, 1, 80, 375
-0.995841, 129, 25, 256, 88
-0.995877, 9, 1, 72, 128
-0.995903, 289, 1, 352, 128
-0.995906, 1, 33, 128, 96
-0.995922, 225, 145, 480, 272
-0.995933, 241, 1, 272, 64
-0.995943, 321, 17, 448, 80
-0.995945, 49, 281, 176, 344
-0.995961, 329, 233, 392, 296
-0.995998, 81, 25, 208, 88
-0.996057, 241, 1, 304, 256
-0.996087, 33, 129, 288, 256
-0.996153, 113, 1, 176, 375
-0.996189, 357, 153, 372, 216
-0.996207, 345, 185, 408, 248
-0.996211, 329, 1, 392, 64
-0.996285, 305, 1, 368, 375
-0.996289, 385, 1, 448, 256
-0.996303, 337, 1, 400, 375
-0.996465, 209, 17, 272, 144
-0.99648, 305, 1, 368, 256
-0.996484, 347, 161, 362, 224
-0.996573, 73, 1, 136, 375
-0.996584, 209, 1, 272, 375
-0.996588, 249, 1, 312, 375
-0.996603, 145, 1, 208, 64
-0.996718, 185, 25, 248, 88
-0.996734, 361, 1, 424, 256
-0.99677, 1, 49, 128, 176
-0.996892, 209, 81, 336, 208
-0.996947, 369, 9, 496, 72
-0.996988, 225, 25, 352, 88
-0.997034, 1, 1, 32, 128
-0.99706, 361, 145, 392, 272
-0.997106, 281, 1, 344, 375
-0.997129, 433, 289, 496, 352
-0.997152, 341, 161, 356, 224
-0.997225, 73, 1, 136, 64
-0.997271, 201, 1, 264, 64
-0.997306, 357, 1, 388, 128
-0.997317, 305, 1, 368, 64
-0.997335, 369, 1, 432, 375
-0.997362, 129, 209, 384, 336
-0.99741, 177, 1, 240, 64
-0.99741, 161, 25, 224, 88
-0.997419, 353, 177, 368, 240
-0.997435, 185, 17, 248, 144
-0.997497, 363, 153, 378, 216
-0.99752, 97, 1, 160, 256
-0.997544, 357, 137, 388, 200
-0.997561, 357, 193, 388, 256
-0.997581, 359, 177, 374, 240
-0.99759, 129, 1, 192, 256
-0.997608, 177, 25, 304, 88
-0.997623, 137, 1, 200, 375
-0.997625, 177, 1, 240, 256
-0.997658, 347, 185, 362, 248
-0.99768, 9, 1, 72, 256
-0.997694, 321, 129, 448, 192
-0.997701, 361, 161, 376, 192
-0.997707, 129, 25, 192, 88
-0.997725, 289, 145, 352, 208
-0.997767, 359, 217, 374, 280
-0.997767, 273, 25, 400, 88
-0.997803, 353, 305, 416, 368
-0.997804, 369, 89, 496, 152
-0.997822, 257, 177, 384, 208
-0.997824, 33, 25, 96, 88
-0.997835, 353, 281, 480, 344
-0.997862, 341, 185, 356, 248
-0.99787, 257, 113, 384, 176
-0.997883, 221, 313, 236, 375
-0.997937, 305, 173, 432, 204
-0.997939, 351, 137, 366, 200
-0.997964, 265, 25, 328, 88
-0.997975, 461, 1, 492, 128
-0.997982, 409, 1, 472, 64
-0.998003, 145, 265, 272, 328
-0.998006, 333, 137, 364, 200
-0.998007, 121, 1, 184, 64
-0.998053, 401, 281, 464, 344
-0.99807, 129, 97, 256, 224
-0.998089, 217, 1, 280, 256
-0.998097, 215, 313, 230, 375
-0.998121, 353, 209, 416, 272
-0.998148, 217, 333, 232, 364
-0.998148, 273, 249, 400, 312
-0.998149, 337, 209, 352, 272
-0.99815, 193, 113, 320, 176
-0.998162, 321, 97, 448, 160
-0.998165, 157, 1, 188, 128
-0.998178, 233, 3, 264, 18
-0.998179, 325, 275, 356, 290
-0.998179, 105, 7, 136, 22
-0.99818, 369, 299, 400, 314
-0.99818, 389, 301, 420, 316
-0.998181, 289, 299, 320, 314
-0.998181, 377, 277, 408, 292
-0.998181, 237, 297, 268, 312
-0.998182, 277, 1, 308, 16
-0.998182, 33, 19, 64, 34
-0.998182, 189, 341, 220, 356
-0.998182, 141, 1, 172, 16
-0.998183, 349, 309, 380, 324
-0.998184, 469, 311, 500, 326
-0.998184, 121, 7, 152, 22
-0.998185, 229, 273, 260, 288
-0.998185, 153, 1, 184, 16
-0.998186, 329, 1, 360, 16
-0.998186, 457, 279, 488, 294
-0.998186, 13, 7, 44, 22
-0.998186, 329, 223, 360, 238
-0.998187, 353, 315, 384, 330
-0.998187, 349, 197, 380, 212
-0.998188, 1, 27, 32, 42
-0.998188, 117, 19, 148, 34
-0.998188, 117, 1, 148, 16
-0.998188, 457, 313, 488, 328
-0.998189, 1, 15, 32, 30
-0.998189, 49, 329, 80, 344
-0.99819, 281, 17, 312, 32
-0.99819, 341, 7, 372, 22
-0.99819, 465, 321, 496, 336
-0.99819, 13, 1, 44, 16
-0.99819, 81, 11, 112, 26
-0.998191, 201, 329, 232, 344
-0.998191, 377, 283, 408, 298
-0.998191, 57, 315, 88, 330
-0.998193, 281, 151, 312, 166
-0.998193, 81, 195, 112, 210
-0.998193, 355, 161, 370, 192
-0.998193, 341, 233, 372, 248
-0.998193, 249, 267, 280, 282
-0.998193, 329, 259, 360, 274
-0.998194, 237, 11, 268, 26
-0.998194, 289, 207, 320, 222
-0.998195, 33, 319, 64, 334
-0.998197, 25, 13, 56, 28
-0.998197, 93, 7, 124, 22
-0.998197, 321, 163, 352, 178
-0.998198, 325, 209, 356, 224
-0.998199, 237, 309, 268, 324
-0.998199, 313, 215, 344, 230
-0.9982, 313, 209, 344, 224
-0.998203, 1, 9, 32, 24
-0.998203, 13, 19, 44, 34
-0.998204, 345, 165, 360, 196
-0.998204, 61, 1, 92, 16
-0.998205, 357, 235, 388, 250
-0.998205, 273, 143, 304, 158
-0.998206, 69, 15, 100, 30
-0.998207, 361, 151, 392, 166
-0.998207, 17, 355, 48, 370
-0.998209, 41, 7, 72, 22
-0.998209, 81, 1, 112, 16
-0.998209, 409, 277, 440, 292
-0.998209, 257, 309, 288, 324
-0.998209, 237, 339, 268, 354
-0.998213, 361, 1, 392, 16
-0.998213, 257, 303, 288, 318
-0.998214, 369, 305, 496, 368
-0.998214, 225, 329, 256, 344
-0.998214, 249, 11, 280, 26
-0.998215, 369, 169, 400, 184
-0.998217, 49, 1, 80, 16
-0.998218, 1, 315, 32, 330
-0.998218, 241, 273, 272, 288
-0.998221, 373, 307, 404, 322
-0.998226, 353, 201, 368, 264
-0.998227, 197, 349, 228, 364
-0.998229, 129, 1, 160, 16
-0.998231, 357, 203, 388, 218
-0.998231, 433, 281, 464, 296
-0.998231, 341, 223, 372, 238
-0.998231, 349, 209, 380, 224
-0.998232, 37, 1, 68, 16
-0.998233, 445, 281, 476, 296
-0.998235, 305, 173, 336, 188
-0.998236, 69, 7, 100, 22
-0.998237, 353, 229, 384, 244
-0.998241, 57, 17, 88, 32
-0.998243, 337, 157, 368, 172
-0.998245, 337, 205, 368, 220
-0.998246, 349, 1, 380, 16
-0.998246, 341, 185, 372, 200
-0.998247, 329, 169, 360, 184
-0.998248, 53, 11, 84, 26
-0.998249, 201, 343, 232, 358
-0.998249, 233, 345, 264, 360
-0.99825, 61, 321, 92, 336
-0.998252, 445, 275, 476, 290
-0.998252, 361, 213, 392, 228
-0.998252, 325, 217, 356, 232
-0.998256, 193, 153, 320, 216
-0.998258, 365, 219, 396, 234
-0.998259, 305, 181, 336, 196
-0.998261, 209, 353, 240, 368
-0.998265, 201, 335, 232, 350
-0.998266, 313, 279, 344, 294
-0.998267, 241, 303, 272, 318
-0.998267, 389, 283, 420, 298
-0.998268, 335, 161, 350, 224
-0.998269, 337, 163, 368, 178
-0.998273, 301, 213, 332, 228
-0.998276, 369, 175, 400, 190
-0.998279, 361, 157, 392, 172
-0.99828, 193, 333, 320, 364
-0.998283, 341, 151, 372, 166
-0.998284, 225, 339, 256, 354
-0.998285, 345, 137, 360, 200
-0.998286, 221, 349, 252, 364
-0.998294, 213, 331, 244, 346
-0.998294, 329, 183, 360, 198
-0.998297, 353, 221, 384, 236
-0.998299, 425, 275, 456, 290
-0.998305, 45, 323, 76, 338
-0.998313, 201, 169, 264, 232
-0.998326, 345, 215, 376, 230
-0.998332, 357, 179, 388, 194
-0.99835, 337, 169, 352, 200
-0.998359, 361, 177, 376, 208
-0.99836, 251, 1, 266, 64
-0.998365, 361, 163, 392, 178
-0.998365, 345, 97, 376, 224
-0.998374, 321, 175, 352, 190
-0.998375, 213, 343, 244, 358
-0.998375, 377, 1, 440, 128
-0.998387, 345, 179, 376, 194
-0.998388, 305, 1, 336, 64
-0.998393, 357, 129, 372, 192
-0.998394, 317, 181, 348, 196
-0.998395, 333, 175, 364, 190
-0.998413, 225, 337, 240, 368
-0.998423, 357, 173, 388, 188
-0.998425, 349, 157, 380, 172
-0.998428, 305, 273, 432, 336
-0.998436, 121, 1, 152, 64
-0.998442, 129, 341, 256, 372
-0.998448, 213, 337, 244, 352
-0.998467, 321, 161, 448, 192
-0.998467, 129, 105, 256, 168
-0.998471, 341, 169, 372, 184
-0.998486, 241, 165, 368, 196
-0.998492, 349, 163, 380, 178
-0.998502, 351, 181, 366, 212
-0.998505, 367, 217, 382, 280
-0.998517, 17, 313, 80, 375
-0.998542, 105, 33, 168, 96
-0.998544, 229, 313, 244, 375
-0.998548, 335, 185, 350, 248
-0.998551, 33, 241, 288, 368
-0.998554, 367, 161, 382, 192
-0.998555, 313, 171, 376, 186
-0.998561, 273, 217, 400, 248
-0.998587, 313, 177, 376, 192
-0.998589, 153, 1, 216, 256
-0.998594, 361, 193, 392, 320
-0.998621, 201, 339, 264, 354
-0.998628, 231, 337, 246, 368
-0.998629, 13, 1, 44, 128
-0.998633, 345, 177, 408, 192
-0.998651, 337, 169, 400, 184
-0.998665, 201, 345, 264, 360
-0.998667, 393, 277, 456, 292
-0.998671, 369, 273, 496, 304
-0.998675, 361, 149, 376, 180
-0.998678, 1, 33, 64, 96
-0.998681, 331, 173, 346, 204
-0.998688, 313, 183, 376, 198
-0.998689, 129, 1, 384, 64
-0.998692, 329, 215, 392, 230
-0.998693, 361, 285, 424, 300
-0.998693, 313, 165, 376, 180
-0.998694, 345, 161, 408, 176
-0.998697, 385, 1, 416, 64
-0.9987, 177, 225, 304, 288
-0.998704, 273, 89, 400, 152
-0.998705, 193, 161, 448, 224
-0.998705, 289, 181, 352, 196
-0.998706, 177, 345, 240, 360
-0.998708, 313, 209, 376, 224
-0.99871, 211, 337, 226, 368
-0.998711, 185, 333, 248, 348
-0.998712, 329, 161, 344, 224
-0.998712, 313, 153, 376, 168
-0.998713, 185, 351, 248, 366
-0.998714, 225, 343, 288, 358
-0.998716, 313, 221, 376, 236
-0.998721, 81, 281, 144, 344
-0.998723, 317, 177, 348, 240
-0.998725, 329, 233, 344, 296
-0.99873, 385, 283, 448, 298
-0.998732, 305, 215, 368, 230
-0.99874, 273, 173, 336, 188
-0.998741, 321, 159, 384, 174
-0.998745, 353, 217, 416, 232
-0.998745, 209, 333, 272, 348
-0.998746, 329, 307, 392, 322
-0.998747, 345, 275, 408, 290
-0.998747, 177, 339, 240, 354
-0.998749, 225, 349, 288, 364
-0.998751, 17, 9, 80, 24
-0.998757, 33, 305, 160, 368
-0.998758, 281, 211, 344, 226
-0.99876, 249, 301, 312, 316
-0.998762, 361, 305, 424, 320
-0.998763, 49, 5, 112, 20
-0.998764, 345, 1, 408, 16
-0.998765, 433, 311, 496, 326
-0.998766, 289, 145, 352, 160
-0.998768, 289, 163, 352, 178
-0.998769, 25, 323, 88, 338
-0.99877, 337, 183, 400, 198
-0.99877, 305, 279, 368, 294
-0.99877, 1, 89, 128, 152
-0.99877, 353, 211, 416, 226
-0.99877, 9, 1, 72, 16
-0.99877, 309, 1, 324, 64
-0.998771, 249, 1, 312, 16
-0.998773, 425, 275, 488, 290
-0.998774, 129, 1, 192, 16
-0.998774, 209, 1, 272, 16
-0.998776, 345, 223, 408, 238
-0.998776, 241, 145, 304, 160
-0.998777, 49, 321, 112, 336
-0.998777, 353, 155, 416, 170
-0.998779, 393, 137, 456, 152
-0.998779, 65, 13, 128, 28
-0.99878, 377, 267, 440, 282
-0.998781, 321, 1, 384, 16
-0.998782, 313, 203, 376, 218
-0.998784, 409, 1, 472, 16
-0.998784, 337, 233, 464, 296
-0.998784, 105, 333, 168, 348
-0.998785, 289, 11, 352, 26
-0.998786, 105, 1, 168, 16
-0.998789, 233, 273, 296, 288
-0.998789, 185, 1, 248, 16
-0.998789, 185, 357, 248, 372
-0.99879, 273, 17, 336, 32
-0.99879, 281, 285, 344, 300
-0.99879, 225, 305, 288, 320
-0.998791, 289, 307, 352, 322
-0.998791, 385, 303, 448, 318
-0.998791, 313, 313, 376, 328
-0.998792, 217, 327, 280, 342
-0.998793, 265, 141, 328, 156
-0.998794, 161, 351, 224, 366
-0.998794, 433, 137, 496, 152
-0.998794, 377, 295, 440, 310
-0.998794, 297, 259, 360, 274
-0.998794, 281, 217, 344, 232
-0.998795, 201, 267, 264, 282
-0.998795, 361, 171, 424, 186
-0.998796, 249, 309, 312, 324
-0.998796, 281, 113, 344, 128
-0.998797, 33, 15, 96, 30
-0.998798, 25, 263, 88, 278
-0.998798, 313, 189, 376, 204
-0.998798, 353, 109, 416, 124
-0.998798, 73, 1, 136, 16
-0.998799, 313, 15, 376, 30
-0.9988, 257, 7, 320, 22
-0.9988, 265, 279, 328, 294
-0.9988, 153, 1, 216, 16
-0.9988, 233, 337, 296, 352
-0.9988, 385, 1, 448, 16
-0.9988, 353, 7, 416, 22
-0.998801, 433, 319, 496, 334
-0.998801, 329, 301, 392, 316
-0.998801, 433, 1, 496, 16
-0.998801, 321, 227, 384, 242
-0.998801, 121, 31, 184, 46
-0.998802, 169, 33, 232, 48
-0.998802, 145, 7, 208, 22
-0.998802, 289, 301, 352, 316
-0.998802, 433, 359, 496, 374
-0.998802, 161, 333, 224, 348
-0.998803, 1, 267, 64, 282
-0.998803, 321, 257, 384, 272
-0.998803, 289, 119, 352, 134
-0.998804, 241, 17, 304, 32
-0.998804, 201, 115, 264, 130
-0.998804, 89, 35, 152, 50
-0.998804, 33, 21, 96, 36
-0.998804, 321, 109, 384, 124
-0.998805, 105, 7, 168, 22
-0.998805, 345, 149, 408, 164
-0.998806, 217, 31, 280, 46
-0.998806, 337, 197, 400, 212
-0.998806, 89, 21, 152, 36
-0.998806, 209, 9, 272, 24
-0.998806, 257, 117, 320, 132
-0.998806, 1, 315, 64, 330
-0.998807, 73, 7, 136, 22
-0.998807, 201, 273, 264, 288
-0.998807, 353, 13, 416, 28
-0.998808, 377, 111, 440, 126
-0.998808, 145, 33, 208, 48
-0.998808, 393, 7, 456, 22
-0.998808, 1, 25, 64, 40
-0.998808, 193, 35, 256, 50
-0.998809, 177, 7, 240, 22
-0.998809, 57, 129, 120, 144
-0.998809, 193, 27, 256, 42
-0.998825, 403, 273, 418, 336
-0.998848, 177, 193, 304, 320
-0.998851, 347, 209, 362, 272
-0.998852, 185, 1, 216, 64
-0.998859, 355, 149, 370, 180
-0.998863, 313, 25, 376, 88
-0.998865, 329, 185, 344, 248
-0.998867, 55, 313, 70, 375
-0.998872, 257, 305, 272, 336
-0.998878, 337, 181, 352, 212
-0.998907, 177, 345, 304, 375
-0.998914, 1, 193, 128, 320
-0.998918, 363, 221, 378, 252
-0.998929, 257, 1, 384, 32
-0.998932, 343, 185, 358, 216
-0.998933, 305, 265, 432, 296
-0.998959, 425, 1, 488, 256
-0.99896, 133, 1, 164, 128
-0.998961, 401, 1, 416, 64
-0.998963, 363, 129, 378, 192
-0.99897, 441, 277, 456, 308
-0.998974, 161, 153, 288, 184
-0.998983, 325, 173, 340, 204
-0.998994, 373, 301, 388, 332
-0.998995, 335, 257, 350, 288
-0.998997, 485, 309, 500, 340
-0.998998, 281, 1, 344, 256
-0.999, 367, 173, 382, 204
-0.999003, 97, 9, 160, 72
-0.999008, 257, 153, 384, 184
-0.999009, 365, 193, 380, 256
-0.999016, 369, 137, 384, 200
-0.999022, 49, 1, 64, 64
-0.999034, 163, 1, 178, 64
-0.99904, 217, 345, 232, 375
-0.999049, 135, 1, 150, 64
-0.999056, 55, 1, 70, 64
-0.999059, 241, 197, 368, 228
-0.999067, 251, 257, 266, 320
-0.99907, 305, 205, 432, 236
-0.999071, 231, 325, 246, 356
-0.999077, 63, 289, 78, 352
-0.999079, 33, 1, 160, 32
-0.999089, 369, 305, 384, 368
-0.999091, 193, 1, 320, 32
-0.999095, 291, 289, 306, 352
-0.999096, 357, 209, 372, 240
-0.999097, 225, 325, 240, 356
-0.999098, 81, 1, 96, 64
-0.999105, 51, 317, 66, 348
-0.999106, 369, 161, 384, 224
-0.999111, 257, 13, 384, 44
-0.999114, 97, 273, 112, 336
-0.999114, 1, 1, 256, 64
-0.999116, 11, 1, 26, 32
-0.99912, 57, 33, 120, 96
-0.999122, 75, 1, 90, 32
-0.999127, 339, 137, 354, 200
-0.99914, 251, 293, 266, 324
-0.999142, 81, 33, 144, 96
-0.999143, 113, 1, 240, 32
-0.999144, 245, 1, 260, 64
-0.999154, 129, 129, 256, 192
-0.999158, 439, 261, 454, 292
-0.999159, 17, 1, 32, 64
-0.999171, 389, 285, 404, 316
-0.999172, 397, 277, 412, 308
-0.999174, 61, 1, 76, 32
-0.999177, 225, 177, 352, 240
-0.999185, 433, 97, 496, 160
-0.999189, 63, 1, 78, 64
-0.99919, 261, 1, 276, 64
-0.999205, 199, 1, 214, 64
-0.999214, 357, 221, 372, 252
-0.999214, 331, 161, 346, 192
-0.99922, 373, 153, 388, 184
-0.999224, 359, 1, 374, 32
-0.999227, 449, 269, 464, 300
-0.999229, 427, 1, 442, 64
-0.999233, 205, 341, 220, 372
-0.999242, 17, 5, 32, 36
-0.999244, 25, 1, 40, 64
-0.999247, 351, 221, 366, 252
-0.999253, 311, 209, 326, 240
-0.999253, 141, 1, 156, 64
-0.999256, 307, 285, 322, 316
-0.999265, 219, 321, 234, 352
-0.999265, 283, 1, 298, 64
-0.999268, 313, 113, 376, 176
-0.999271, 97, 265, 224, 328
-0.999271, 69, 1, 84, 64
-0.999272, 349, 153, 364, 184
-0.999272, 225, 1, 480, 64
-0.999273, 1, 281, 128, 344
-0.999277, 237, 341, 252, 372
-0.999278, 209, 25, 272, 88
-0.999278, 97, 25, 352, 88
-0.999279, 379, 289, 394, 320
-0.99928, 189, 1, 204, 64
-0.999282, 257, 293, 272, 324
-0.999284, 319, 173, 334, 204
-0.999295, 373, 217, 388, 280
-0.999297, 177, 89, 304, 152
-0.999298, 225, 257, 352, 288
-0.9993, 335, 257, 350, 320
-0.999301, 333, 209, 348, 240
-0.999302, 433, 281, 464, 344
-0.999305, 327, 209, 342, 240
-0.999305, 179, 9, 194, 72
-0.999305, 303, 1, 318, 64
-0.999307, 129, 329, 256, 360
-0.999307, 331, 209, 346, 272
-0.999308, 111, 17, 126, 80
-0.999311, 177, 13, 304, 44
-0.999311, 353, 225, 368, 288
-0.999312, 257, 157, 272, 188
-0.999314, 395, 1, 410, 64
-0.999316, 283, 181, 298, 212
-0.999317, 271, 209, 286, 272
-0.99932, 383, 305, 398, 336
-0.999321, 81, 1, 96, 32
-0.999323, 471, 169, 486, 232
-0.999324, 397, 281, 412, 344
-0.999329, 369, 217, 384, 248
-0.999329, 451, 117, 466, 148
-0.999331, 65, 13, 80, 44
-0.999335, 323, 161, 338, 224
-0.999336, 1, 25, 256, 88
-0.999337, 57, 321, 72, 352
-0.999338, 349, 201, 364, 232
-0.999338, 471, 277, 486, 308
-0.999339, 49, 273, 112, 336
-0.99934, 145, 153, 272, 216
-0.99934, 225, 209, 352, 240
-0.999341, 435, 273, 450, 304
-0.999342, 337, 245, 352, 276
-0.999342, 157, 9, 172, 72
-0.999344, 343, 201, 358, 232
-0.999346, 337, 1, 352, 32
-0.999347, 121, 313, 136, 375
-0.999351, 369, 129, 496, 192
-0.999351, 343, 1, 358, 64
-0.999354, 449, 281, 464, 344
-0.999359, 177, 113, 304, 144
-0.999361, 329, 265, 344, 296
-0.999363, 437, 137, 452, 168
-0.999364, 257, 97, 384, 224
-0.999365, 239, 329, 254, 360
-0.999368, 339, 217, 354, 248
-0.999368, 289, 277, 416, 308
-0.999374, 317, 209, 348, 336
-0.999374, 53, 13, 68, 44
-0.999377, 351, 145, 366, 272
-0.999378, 345, 217, 360, 248
-0.999378, 241, 113, 368, 144
-0.999378, 477, 317, 492, 348
-0.999381, 365, 1, 380, 64
-0.999382, 369, 229, 384, 260
-0.999383, 429, 269, 444, 300
-0.999385, 161, 305, 288, 336
-0.999393, 337, 233, 368, 296
-0.999393, 211, 325, 226, 356
-0.999393, 81, 105, 208, 168
-0.999394, 361, 145, 376, 272
-0.999395, 241, 265, 304, 328
-0.999396, 269, 1, 284, 64
-0.999396, 371, 1, 386, 64
-0.999396, 117, 9, 132, 72
-0.999397, 367, 149, 382, 180
-0.999402, 91, 273, 106, 336
-0.999402, 425, 289, 440, 352
-0.999406, 353, 109, 480, 140
-0.999411, 377, 269, 392, 300
-0.999411, 127, 1, 142, 64
-0.999414, 209, 201, 336, 264
-0.999414, 363, 209, 378, 240
-0.999415, 97, 273, 352, 336
-0.999415, 69, 1, 84, 32
-0.999416, 263, 301, 278, 332
-0.999419, 193, 297, 448, 360
-0.999419, 321, 97, 448, 128
-0.99942, 411, 9, 426, 72
-0.999424, 63, 325, 78, 356
-0.999427, 443, 137, 458, 168
-0.999428, 131, 1, 146, 32
-0.999428, 141, 1, 156, 16
-0.999428, 317, 209, 332, 224
-0.999428, 293, 125, 308, 140
-0.999429, 35, 1, 50, 64
-0.999429, 301, 209, 316, 224
-0.99943, 321, 215, 336, 230
-0.99943, 343, 173, 358, 188
-0.99943, 413, 285, 428, 300
-0.99943, 53, 1, 68, 32
-0.99943, 95, 1, 110, 16
-0.999431, 361, 229, 376, 244
-0.999431, 351, 205, 366, 220
-0.999431, 333, 129, 364, 375
-0.999431, 383, 279, 398, 294
-0.999432, 1, 121, 128, 184
-0.999432, 67, 19, 82, 34
-0.999432, 257, 265, 272, 328
-0.999433, 15, 1, 30, 16
-0.999433, 469, 279, 484, 294
-0.999433, 19, 347, 34, 362
-0.999433, 211, 353, 226, 368
-0.999433, 209, 333, 224, 348
-0.999433, 323, 161, 338, 192
-0.999433, 205, 329, 220, 360
-0.999434, 345, 145, 360, 272
-0.999434, 291, 299, 306, 314
-0.999435, 445, 117, 460, 148
-0.999435, 387, 285, 402, 300
-0.999436, 293, 1, 308, 64
-0.999436, 67, 7, 82, 22
-0.999436, 373, 305, 388, 320
-0.999436, 207, 341, 222, 356
-0.999437, 227, 153, 242, 168
-0.999437, 305, 295, 320, 310
-0.999437, 393, 1, 456, 375
-0.999438, 363, 7, 378, 22
-0.999438, 315, 281, 330, 312
-0.999438, 329, 215, 344, 230
-0.999438, 389, 305, 404, 320
-0.999438, 251, 267, 266, 282
-0.999439, 263, 309, 278, 324
-0.999439, 295, 293, 310, 308
-0.99944, 297, 125, 312, 156
-0.99944, 437, 141, 452, 156
-0.99944, 59, 7, 74, 22
-0.99944, 355, 217, 370, 232
-0.99944, 311, 285, 326, 300
-0.99944, 313, 175, 328, 190
-0.999441, 361, 223, 376, 238
-0.999441, 335, 217, 350, 232
-0.999441, 63, 325, 78, 340
-0.999442, 323, 279, 338, 294
-0.999443, 111, 337, 126, 352
-0.999444, 441, 273, 456, 288
-0.999445, 237, 347, 252, 362
-0.999446, 429, 273, 444, 288
-0.999446, 373, 275, 388, 290
-0.999446, 217, 353, 232, 368
-0.999447, 241, 341, 256, 356
-0.999447, 51, 1, 66, 16
-0.999447, 367, 227, 382, 242
-0.999447, 405, 279, 420, 294
-0.999447, 59, 25, 74, 56
-0.999448, 129, 1, 144, 16
-0.999448, 253, 303, 268, 318
-0.99945, 367, 213, 382, 228
-0.99945, 361, 181, 376, 196
-0.99945, 279, 251, 294, 266
-0.999451, 41, 1, 56, 64
-0.999451, 73, 7, 88, 22
-0.999452, 341, 217, 356, 232
-0.999452, 341, 153, 356, 184
-0.999452, 281, 17, 296, 48
-0.999452, 45, 321, 60, 336
-0.999453, 395, 277, 410, 292
-0.999454, 367, 1, 382, 16
-0.999454, 21, 353, 36, 368
-0.999456, 321, 209, 336, 240
-0.999456, 481, 321, 496, 336
-0.999456, 287, 21, 302, 52
-0.999456, 65, 13, 80, 28
-0.999457, 235, 313, 250, 375
-0.999457, 73, 17, 88, 32
-0.999457, 355, 183, 370, 198
-0.999457, 331, 1, 346, 32
-0.999458, 405, 287, 420, 302
-0.999458, 451, 281, 466, 296
-0.999458, 371, 289, 386, 320
-0.999459, 345, 261, 360, 292
-0.999459, 359, 211, 374, 226
-0.99946, 9, 1, 24, 64
-0.99946, 347, 217, 362, 232
-0.99946, 367, 153, 382, 168
-0.99946, 225, 351, 240, 366
-0.999461, 321, 1, 448, 32
-0.999461, 29, 353, 44, 368
-0.999462, 421, 1, 436, 64
-0.999463, 247, 273, 262, 288
-0.999464, 289, 1, 304, 32
-0.999464, 383, 305, 398, 320
-0.999464, 113, 21, 240, 52
-0.999465, 311, 211, 326, 226
-0.999465, 215, 347, 230, 362
-0.999465, 227, 331, 242, 346
-0.999466, 361, 1, 376, 16
-0.999466, 393, 285, 408, 300
-0.999468, 341, 1, 372, 256
-0.999468, 343, 179, 358, 194
-0.999469, 373, 169, 388, 184
-0.999469, 367, 219, 382, 234
-0.999469, 357, 151, 372, 166
-0.999469, 351, 197, 366, 212
-0.999469, 285, 289, 300, 352
-0.999469, 347, 151, 362, 166
-0.999469, 103, 321, 118, 352
-0.999471, 355, 193, 370, 224
-0.999471, 173, 17, 188, 80
-0.999472, 205, 1, 220, 64
-0.999473, 449, 275, 464, 290
-0.999474, 341, 185, 356, 200
-0.999474, 325, 173, 340, 188
-0.999475, 257, 309, 272, 324
-0.999476, 293, 151, 308, 166
-0.999477, 367, 167, 382, 182
-0.999478, 259, 303, 274, 318
-0.999478, 3, 301, 18, 332
-0.999479, 43, 311, 58, 326
-0.999479, 317, 279, 332, 294
-0.999479, 235, 341, 250, 356
-0.99948, 75, 253, 90, 284
-0.99948, 209, 347, 224, 362
-0.999481, 407, 265, 422, 296
-0.999482, 435, 275, 450, 290
-0.999483, 451, 281, 466, 312
-0.999483, 215, 329, 230, 344
-0.999485, 373, 281, 388, 344
-0.999485, 103, 21, 118, 52
-0.999485, 319, 173, 334, 188
-0.999485, 121, 1, 152, 128
-0.999487, 323, 1, 338, 64
-0.999487, 141, 25, 156, 88
-0.999488, 351, 171, 366, 186
-0.999489, 333, 137, 348, 200
-0.99949, 377, 9, 392, 72
-0.999491, 383, 269, 398, 300
-0.999491, 193, 321, 320, 352
-0.999492, 305, 205, 320, 236
-0.999492, 33, 17, 160, 48
-0.999493, 337, 171, 352, 186
-0.999493, 231, 349, 246, 364
-0.999494, 57, 323, 72, 338
-0.999495, 443, 281, 458, 296
-0.999496, 33, 33, 160, 64
-0.999496, 485, 313, 500, 328
-0.999496, 269, 21, 284, 52
-0.9995, 335, 181, 350, 196
-0.9995, 361, 217, 376, 232
-0.9995, 265, 145, 280, 176
-0.999501, 329, 221, 344, 252
-0.999501, 293, 1, 324, 64
-0.999503, 109, 21, 124, 52
-0.999503, 217, 81, 232, 112
-0.999503, 465, 277, 480, 308
-0.999503, 351, 157, 366, 172
-0.999505, 369, 1, 400, 128
-0.999505, 71, 13, 86, 44
-0.999506, 3, 29, 18, 60
-0.999506, 221, 331, 236, 346
-0.999506, 53, 305, 68, 336
-0.999507, 343, 167, 358, 182
-0.999507, 99, 37, 114, 68
-0.999508, 219, 1, 234, 32
-0.999508, 351, 97, 366, 128
-0.999508, 403, 285, 418, 316
-0.999512, 353, 285, 480, 316
-0.999513, 47, 1, 62, 32
-0.999513, 251, 309, 266, 340
-0.999514, 349, 181, 364, 196
-0.999514, 297, 1, 312, 32
-0.999515, 213, 341, 228, 356
-0.999518, 383, 1, 398, 64
-0.999518, 233, 9, 248, 72
-0.999518, 121, 33, 136, 96
-0.999518, 209, 1, 224, 32
-0.999518, 335, 259, 350, 274
-0.999521, 293, 13, 308, 44
-0.999522, 221, 345, 236, 360
-0.999523, 371, 185, 386, 248
-0.999523, 321, 281, 336, 312
-0.999524, 369, 97, 496, 128
-0.999525, 81, 37, 208, 68
-0.999526, 485, 189, 500, 220
-0.99953, 399, 283, 414, 298
-0.999531, 355, 163, 370, 178
-0.999531, 65, 117, 192, 148
-0.999532, 51, 321, 66, 336
-0.999539, 51, 25, 66, 88
-0.99954, 223, 337, 238, 352
-0.999549, 349, 163, 364, 178
-0.999553, 209, 269, 336, 300
-0.999559, 367, 173, 382, 188
-0.99956, 295, 265, 310, 328
-0.99956, 357, 1, 372, 64
-0.999563, 229, 339, 244, 354
-0.999567, 367, 159, 382, 174
-0.999567, 357, 169, 372, 184
-0.999567, 355, 177, 370, 192
-0.999569, 319, 179, 334, 194
-0.999573, 203, 25, 218, 88
-0.999574, 215, 335, 230, 350
-0.999575, 75, 1, 90, 64
-0.999575, 455, 305, 470, 368
-0.999576, 209, 313, 224, 375
-0.999578, 89, 25, 104, 88
-0.999579, 193, 197, 320, 228
-0.999581, 91, 1, 106, 64
-0.999585, 359, 241, 374, 304
-0.999586, 345, 129, 376, 375
-0.999586, 325, 179, 340, 194
-0.999589, 305, 301, 432, 332
-0.99959, 329, 1, 344, 64
-0.99959, 27, 257, 42, 320
-0.999594, 361, 175, 376, 190
-0.999594, 243, 265, 258, 328
-0.999597, 153, 33, 168, 96
-0.999603, 337, 1, 352, 64
-0.999604, 331, 175, 346, 190
-0.999605, 437, 273, 452, 336
-0.999609, 193, 185, 448, 248
-0.999609, 351, 1, 366, 64
-0.99961, 305, 185, 432, 216
-0.999611, 225, 301, 352, 332
-0.999614, 367, 249, 382, 312
-0.999617, 325, 209, 340, 272
-0.999618, 147, 297, 162, 360
-0.999623, 129, 113, 256, 144
-0.999627, 217, 169, 232, 232
-0.999631, 369, 1, 400, 256
-0.999633, 363, 305, 378, 368
-0.999636, 289, 233, 416, 264
-0.999638, 31, 313, 46, 375
-0.999639, 321, 217, 448, 248
-0.999643, 213, 289, 228, 352
-0.999645, 241, 141, 368, 172
-0.999645, 277, 17, 292, 80
-0.999649, 257, 249, 500, 312
-0.99965, 361, 163, 376, 178
-0.999652, 201, 1, 232, 256
-0.999654, 359, 157, 374, 172
-0.999654, 485, 297, 500, 360
-0.999655, 337, 229, 464, 260
-0.999657, 335, 233, 350, 296
-0.999657, 317, 9, 332, 72
-0.999657, 39, 25, 54, 88
-0.999661, 225, 113, 480, 176
-0.999662, 213, 1, 244, 256
-0.999663, 89, 1, 120, 128
-0.999664, 213, 25, 228, 88
-0.999671, 305, 13, 432, 44
-0.999672, 433, 9, 448, 72
-0.999673, 33, 193, 288, 320
-0.999676, 341, 241, 356, 304
-0.999676, 15, 1, 30, 128
-0.999676, 337, 149, 464, 180
-0.999684, 177, 177, 304, 240
-0.999692, 369, 161, 496, 192
-0.999694, 367, 145, 382, 272
-0.999695, 429, 1, 460, 128
-0.999706, 49, 257, 176, 320
-0.999715, 353, 1, 384, 256
-0.999717, 365, 1, 380, 128
-0.999719, 193, 125, 320, 156
-0.999719, 161, 253, 288, 284
-0.999721, 185, 1, 216, 256
-0.999725, 339, 161, 354, 288
-0.999728, 225, 313, 256, 375
-0.999733, 433, 1, 496, 375
-0.999734, 369, 13, 496, 44
-0.999735, 225, 81, 352, 144
-0.999738, 357, 97, 372, 224
-0.999744, 1, 1, 32, 256
-0.999744, 289, 109, 416, 140
-0.999744, 257, 273, 500, 336
-0.999745, 17, 129, 144, 160
-0.999749, 193, 137, 448, 200
-0.999751, 145, 33, 272, 64
-0.999753, 81, 165, 208, 196
-0.999758, 437, 1, 452, 128
-0.99976, 351, 193, 366, 320
-0.999765, 367, 193, 382, 320
-0.999767, 473, 1, 488, 128
-0.999769, 351, 97, 366, 224
-0.999778, 61, 297, 92, 360
-0.999784, 49, 1, 64, 128
-0.999786, 371, 1, 386, 128
-0.999786, 369, 65, 496, 128
-0.999801, 279, 225, 294, 352
-0.999802, 467, 1, 482, 128
-0.999804, 75, 1, 90, 128
-0.999808, 1, 117, 128, 148
-0.999808, 345, 193, 360, 320
-0.999811, 337, 137, 464, 168
-0.999811, 281, 1, 296, 128
-0.999814, 369, 1, 496, 32
-0.999814, 93, 1, 108, 128
-0.999816, 361, 193, 376, 320
-0.999816, 109, 1, 124, 128
-0.999818, 147, 1, 162, 128
-0.999825, 141, 17, 156, 144
-0.999827, 369, 41, 496, 104
-0.999834, 97, 153, 352, 216
-0.999834, 173, 1, 188, 128
-0.999834, 177, 169, 240, 232
-0.999835, 275, 1, 290, 128
-0.999836, 167, 1, 182, 128
-0.999839, 129, 241, 256, 304
-0.99984, 97, 193, 352, 256
-0.99984, 443, 1, 458, 128
-0.999842, 287, 1, 302, 128
-0.999842, 257, 289, 384, 320
-0.999843, 125, 1, 156, 256
-0.999843, 321, 1, 336, 128
-0.999843, 293, 17, 308, 144
-0.999847, 461, 1, 476, 128
-0.999853, 21, 1, 36, 128
-0.999853, 403, 1, 418, 128
-0.999856, 209, 29, 336, 60
-0.999859, 381, 1, 396, 128
-0.99986, 345, 97, 360, 224
-0.999861, 9, 1, 24, 128
-0.999862, 155, 1, 170, 128
-0.999864, 479, 1, 494, 128
-0.999866, 221, 1, 236, 128
-0.999868, 355, 1, 370, 128
-0.999869, 335, 209, 350, 336
-0.999872, 65, 1, 96, 128
-0.99988, 251, 17, 266, 144
-0.99988, 397, 241, 412, 368
-0.999881, 321, 121, 448, 152
-0.999882, 225, 25, 480, 88
-0.999883, 227, 129, 242, 256
-0.999883, 225, 101, 352, 132
-0.999883, 125, 1, 140, 128
-0.999884, 115, 17, 130, 144
-0.999888, 353, 301, 480, 332
-0.999889, 69, 1, 84, 128
-0.999891, 179, 17, 194, 144
-0.999895, 245, 1, 260, 128
-0.999896, 131, 1, 146, 128
-0.999896, 189, 17, 204, 144
-0.999897, 289, 25, 416, 56
-0.999898, 239, 1, 254, 128
-0.9999, 161, 1, 176, 128
-0.9999, 273, 1, 304, 128
-0.999901, 317, 225, 332, 352
-0.999902, 321, 1, 352, 128
-0.999902, 303, 17, 318, 144
-0.999906, 161, 165, 288, 196
-0.999909, 327, 1, 342, 128
-0.999909, 259, 17, 274, 144
-0.99991, 409, 1, 424, 128
-0.999912, 353, 173, 480, 204
-0.999912, 195, 17, 210, 144
-0.999912, 87, 1, 102, 128
-0.999913, 213, 1, 228, 128
-0.999913, 55, 1, 70, 128
-0.999914, 335, 1, 350, 128
-0.999915, 145, 1, 176, 128
-0.999917, 273, 225, 288, 352
-0.99992, 233, 1, 248, 128
-0.99992, 431, 1, 446, 128
-0.999921, 305, 225, 320, 352
-0.999924, 1, 225, 16, 352
-0.999924, 345, 1, 360, 128
-0.999926, 313, 17, 328, 144
-0.999928, 227, 1, 242, 128
-0.999928, 451, 1, 466, 128
-0.999929, 3, 17, 18, 144
-0.99993, 387, 1, 402, 128
-0.999935, 17, 269, 144, 300
-0.999936, 29, 1, 44, 128
-0.999936, 267, 1, 282, 128
-0.999939, 99, 1, 114, 128
-0.999939, 221, 241, 236, 368
-0.999942, 387, 241, 402, 368
-0.999945, 421, 1, 436, 128
-0.999947, 207, 17, 222, 144
-0.999948, 369, 197, 496, 228
-0.999948, 61, 17, 76, 144
-0.999949, 35, 1, 50, 128
-0.999954, 81, 105, 208, 136
-0.999956, 373, 161, 388, 288
-0.999959, 77, 225, 92, 352
-0.999962, 253, 1, 284, 256
-0.999963, 371, 97, 386, 224
-0.999964, 373, 209, 388, 336
-0.999964, 395, 1, 410, 128
-0.999967, 415, 1, 430, 128
-0.999967, 145, 125, 272, 156
-0.999971, 485, 1, 500, 128
-0.999972, 353, 261, 480, 292
-0.999973, 201, 33, 216, 160
-0.999973, 145, 289, 272, 320
-0.999975, 333, 145, 348, 272
-0.999978, 281, 1, 312, 256
-0.99998, 157, 1, 188, 256
-0.999981, 389, 281, 420, 344
-0.99999, 81, 33, 96, 160
-0.999991, 43, 1, 58, 128
-0.999992, 177, 81, 240, 144
-0.999993, 221, 81, 236, 208
-0.999995, 209, 245, 336, 276
-1, 363, 97, 378, 224
-1, 215, 241, 230, 368
-1, 273, 97, 400, 128
-1.00001, 339, 113, 354, 240
-1.00001, 273, 177, 288, 304
-1.00001, 89, 1, 120, 256
-1.00001, 89, 97, 104, 224
-1.00001, 101, 1, 132, 128
-1.00001, 325, 1, 356, 256
-1.00001, 397, 193, 412, 320
-1.00002, 233, 113, 248, 240
-1.00002, 33, 241, 160, 368
-1.00002, 279, 177, 294, 304
-1.00002, 209, 241, 224, 368
-1.00003, 329, 209, 344, 336
-1.00003, 381, 209, 396, 336
-1.00003, 311, 241, 326, 368
-1.00003, 337, 29, 464, 60
-1.00004, 93, 49, 108, 176
-1.00004, 7, 225, 22, 352
-1.00004, 65, 185, 192, 216
-1.00004, 221, 129, 236, 256
-1.00004, 85, 241, 100, 368
-1.00004, 231, 241, 246, 368
-1.00004, 295, 241, 310, 368
-1.00004, 23, 49, 38, 176
-1.00004, 179, 241, 194, 368
-1.00004, 127, 49, 142, 176
-1.00005, 1, 105, 128, 136
-1.00005, 93, 145, 108, 272
-1.00005, 41, 1, 72, 256
-1.00005, 101, 113, 116, 240
-1.00005, 145, 189, 272, 220
-1.00005, 369, 201, 496, 264
-1.00005, 267, 193, 282, 320
-1.00005, 109, 49, 124, 176
-1.00006, 33, 105, 288, 168
-1.00006, 469, 1, 500, 256
-1.00006, 101, 1, 132, 256
-1.00006, 79, 177, 94, 304
-1.00007, 369, 217, 496, 248
-1.00007, 257, 273, 384, 336
-1.00007, 431, 65, 446, 192
-1.00007, 33, 285, 160, 316
-1.00007, 39, 49, 54, 176
-1.00007, 369, 121, 496, 152
-1.00007, 431, 225, 446, 352
-1.00008, 233, 65, 248, 192
-1.00008, 301, 1, 332, 256
-1.00008, 467, 241, 482, 368
-1.00008, 325, 161, 340, 288
-1.00008, 173, 241, 188, 368
-1.00008, 29, 1, 60, 256
-1.00008, 65, 265, 192, 296
-1.00009, 425, 1, 456, 256
-1.00009, 357, 129, 388, 375
-1.0001, 241, 1, 272, 256
-1.0001, 353, 105, 416, 168
-1.00012, 177, 101, 304, 132
-1.00012, 129, 101, 256, 132
-1.00013, 397, 1, 428, 64
-1.00014, 393, 1, 424, 256
-1.00014, 257, 125, 384, 156
-1.00014, 113, 1, 144, 256
-1.00014, 225, 1, 256, 256
-1.00016, 173, 1, 204, 256
-1.00017, 33, 45, 160, 76
-1.00017, 161, 269, 288, 300
-1.00019, 321, 65, 448, 192
-1.0002, 405, 1, 436, 256
-1.0002, 241, 25, 304, 88
-1.0002, 33, 169, 160, 200
-1.00021, 253, 1, 284, 64
-1.00021, 97, 49, 224, 112
-1.00022, 145, 1, 176, 256
-1.00022, 41, 313, 104, 375
-1.00023, 97, 65, 352, 192
-1.00024, 441, 1, 472, 256
-1.00025, 289, 25, 352, 88
-1.00025, 113, 153, 240, 184
-1.00025, 449, 1, 480, 128
-1.00025, 33, 305, 288, 368
-1.00026, 41, 1, 72, 64
-1.00026, 193, 209, 448, 272
-1.00027, 121, 305, 184, 368
-1.00027, 329, 209, 360, 336
-1.00027, 17, 1, 48, 256
-1.00028, 257, 297, 384, 360
-1.00028, 209, 153, 336, 184
-1.00028, 41, 1, 104, 256
-1.00028, 257, 245, 384, 276
-1.00029, 353, 233, 416, 296
-1.00029, 1, 257, 128, 320
-1.00029, 269, 1, 300, 256
-1.0003, 193, 89, 448, 152
-1.0003, 81, 49, 208, 80
-1.0003, 337, 129, 400, 375
-1.0003, 321, 41, 448, 104
-1.0003, 17, 65, 144, 128
-1.00031, 249, 241, 312, 304
-1.00031, 241, 233, 368, 264
-1.00031, 145, 141, 272, 172
-1.00033, 17, 345, 144, 375
-1.00033, 369, 53, 496, 84
-1.00033, 457, 1, 488, 256
-1.00034, 193, 289, 320, 320
-1.00034, 369, 85, 496, 116
-1.00035, 177, 177, 304, 208
-1.00035, 33, 205, 160, 236
-1.00035, 285, 17, 316, 144
-1.00035, 353, 185, 480, 216
-1.00036, 81, 333, 208, 364
-1.00036, 385, 225, 448, 352
-1.00036, 65, 253, 192, 284
-1.00036, 81, 129, 208, 160
-1.00036, 385, 97, 448, 160
-1.00037, 257, 45, 384, 76
-1.00037, 369, 313, 496, 344
-1.00037, 1, 129, 256, 192
-1.00038, 145, 317, 272, 348
-1.00038, 321, 73, 448, 136
-1.00038, 73, 1, 104, 256
-1.0004, 1, 297, 128, 328
-1.00041, 1, 241, 128, 272
-1.00041, 209, 89, 336, 120
-1.00041, 289, 345, 416, 375
-1.00041, 369, 41, 496, 72
-1.00042, 17, 93, 144, 124
-1.00042, 305, 85, 432, 116
-1.00043, 193, 137, 320, 168
-1.00043, 433, 17, 496, 80
-1.00043, 161, 49, 288, 80
-1.00043, 1, 57, 128, 88
-1.00044, 305, 289, 432, 320
-1.00044, 17, 317, 144, 348
-1.00044, 369, 177, 496, 304
-1.00044, 145, 205, 272, 236
-1.00044, 129, 177, 256, 208
-1.00045, 33, 217, 288, 280
-1.00045, 393, 257, 456, 320
-1.00045, 201, 313, 232, 375
-1.00045, 225, 345, 352, 375
-1.00045, 225, 221, 352, 252
-1.00045, 305, 45, 432, 76
-1.00046, 65, 153, 192, 184
-1.00046, 53, 1, 84, 64
-1.00046, 381, 1, 412, 256
-1.00046, 241, 333, 368, 364
-1.00047, 313, 1, 344, 256
-1.00048, 113, 81, 240, 144
-1.00048, 241, 313, 368, 344
-1.00054, 209, 241, 272, 368
-1.00055, 233, 1, 264, 128
-1.0006, 1, 249, 500, 312
-1.00062, 369, 257, 496, 320
-1.00062, 221, 1, 252, 128
-1.00063, 101, 9, 132, 72
-1.00063, 129, 113, 384, 176
-1.00064, 73, 1, 136, 256
-1.00064, 169, 9, 200, 72
-1.00065, 161, 49, 288, 112
-1.00067, 65, 81, 192, 144
-1.00067, 81, 129, 208, 192
-1.0007, 185, 1, 216, 128
-1.0007, 321, 313, 448, 375
-1.00072, 413, 289, 444, 352
-1.00074, 133, 1, 164, 64
-1.00075, 309, 1, 340, 128
-1.00075, 413, 1, 444, 64
-1.00075, 369, 97, 400, 352
-1.00077, 365, 217, 396, 280
-1.00078, 469, 97, 500, 352
-1.00079, 53, 1, 84, 256
-1.00081, 353, 257, 416, 320
-1.00081, 233, 129, 264, 375
-1.00083, 1, 281, 256, 344
-1.00085, 321, 97, 352, 352
-1.00086, 1, 25, 500, 88
-1.00086, 69, 1, 100, 64
-1.00091, 161, 297, 288, 360
-1.00091, 37, 1, 68, 128
-1.00091, 229, 1, 260, 64
-1.00091, 257, 65, 500, 128
-1.00091, 145, 201, 272, 264
-1.00092, 325, 145, 356, 272
-1.00095, 169, 1, 200, 128
-1.00096, 249, 297, 312, 360
-1.00097, 1, 81, 256, 144
-1.00097, 261, 1, 292, 128
-1.00098, 97, 169, 224, 232
-1.00098, 1, 1, 500, 64
-1.00098, 65, 241, 320, 304
-1.00101, 273, 65, 400, 128
-1.00102, 209, 17, 240, 144
-1.00103, 309, 97, 340, 352
-1.00103, 305, 249, 368, 312
-1.00103, 341, 1, 372, 128
-1.00105, 321, 217, 352, 280
-1.00105, 1, 153, 256, 216
-1.00107, 321, 225, 448, 352
-1.00109, 457, 97, 488, 352
-1.0011, 437, 97, 468, 352
-1.00111, 397, 1, 428, 128
-1.00112, 365, 1, 396, 64
-1.00112, 49, 201, 176, 264
-1.00113, 53, 1, 84, 128
-1.00114, 241, 265, 272, 328
-1.00116, 369, 153, 496, 216
-1.00117, 33, 49, 288, 112
-1.00119, 221, 97, 252, 352
-1.00119, 129, 241, 256, 368
-1.0012, 161, 249, 416, 312
-1.00121, 257, 129, 288, 375
-1.00122, 57, 25, 88, 88
-1.00122, 1, 193, 256, 256
-1.00123, 157, 1, 188, 64
-1.00124, 417, 97, 448, 352
-1.00125, 133, 297, 164, 360
-1.00125, 81, 233, 208, 296
-1.00126, 9, 1, 40, 64
-1.00126, 277, 1, 308, 64
-1.00126, 369, 25, 432, 88
-1.00127, 245, 1, 276, 128
-1.00128, 25, 1, 56, 64
-1.00128, 97, 81, 352, 144
-1.00129, 281, 273, 344, 336
-1.00129, 321, 137, 352, 200
-1.0013, 209, 129, 240, 375
-1.00131, 417, 73, 480, 136
-1.00132, 1, 177, 500, 240
-1.00134, 197, 129, 228, 375
-1.00134, 1, 313, 500, 375
-1.00135, 177, 97, 208, 352
-1.00135, 49, 121, 112, 184
-1.00137, 213, 241, 244, 368
-1.00138, 45, 313, 76, 375
-1.0014, 1, 233, 128, 296
-1.00141, 33, 129, 64, 375
-1.00142, 265, 225, 296, 352
-1.00144, 209, 49, 336, 112
-1.00144, 393, 305, 456, 368
-1.00145, 81, 129, 112, 375
-1.00146, 285, 97, 316, 352
-1.00148, 165, 97, 196, 352
-1.00149, 1, 145, 128, 208
-1.0015, 389, 97, 420, 352
-1.0015, 225, 225, 352, 288
-1.00151, 89, 1, 120, 64
-1.00151, 217, 145, 280, 208
-1.00153, 201, 1, 232, 64
-1.00153, 53, 129, 84, 375
-1.00153, 129, 49, 384, 112
-1.00153, 93, 129, 124, 375
-1.00156, 129, 25, 160, 88
-1.00156, 1, 177, 128, 240
-1.00156, 273, 97, 304, 352
-1.00156, 297, 129, 328, 375
-1.00157, 217, 153, 248, 216
-1.00158, 1, 97, 32, 352
-1.00159, 1, 209, 500, 272
-1.00159, 245, 97, 276, 352
-1.0016, 1, 209, 128, 272
-1.00161, 149, 129, 180, 375
-1.00164, 197, 1, 228, 128
-1.00165, 105, 129, 136, 375
-1.00165, 117, 129, 148, 375
-1.00167, 21, 97, 52, 352
-1.00167, 405, 97, 436, 352
-1.00167, 1, 273, 500, 336
-1.00168, 129, 129, 160, 375
-1.0017, 345, 25, 408, 88
-1.0017, 257, 113, 320, 176
-1.00171, 69, 97, 100, 352
-1.00172, 297, 97, 360, 224
-1.00172, 265, 225, 328, 352
-1.00173, 353, 1, 384, 64
-1.00173, 149, 25, 180, 88
-1.00176, 341, 1, 372, 64
-1.00177, 217, 265, 280, 328
-1.00177, 445, 9, 476, 72
-1.00185, 433, 313, 496, 375
-1.00188, 169, 129, 232, 192
-1.0019, 177, 241, 240, 368
-1.00191, 29, 33, 60, 96
-1.00192, 425, 265, 488, 328
-1.00192, 401, 273, 432, 336
-1.00193, 17, 257, 80, 320
-1.00196, 329, 305, 392, 368
-1.00196, 77, 25, 108, 88
-1.00196, 289, 273, 320, 336
-1.00201, 85, 281, 116, 344
-1.00203, 1, 97, 500, 160
-1.00204, 189, 25, 220, 88
-1.00204, 297, 17, 328, 144
-1.00204, 401, 25, 464, 88
-1.00208, 217, 1, 248, 64
-1.00216, 237, 313, 268, 375
-1.00219, 97, 209, 160, 272
-1.0022, 445, 305, 476, 368
-1.00224, 313, 129, 376, 375
-1.00224, 409, 1, 440, 128
-1.00225, 289, 73, 352, 136
-1.00228, 77, 1, 108, 128
-1.00229, 97, 193, 224, 256
-1.00232, 33, 49, 96, 112
-1.00233, 25, 33, 56, 160
-1.00233, 361, 97, 392, 224
-1.00235, 373, 297, 404, 360
-1.00236, 457, 169, 488, 232
-1.00239, 317, 9, 348, 72
-1.0024, 49, 177, 176, 240
-1.00244, 201, 25, 232, 88
-1.00246, 9, 57, 72, 120
-1.0025, 373, 193, 404, 320
-1.00251, 289, 97, 352, 160
-1.00253, 329, 281, 392, 344
-1.00253, 465, 97, 496, 160
-1.00253, 89, 33, 120, 96
-1.00254, 425, 1, 456, 64
-1.00255, 1, 137, 500, 200
-1.00255, 409, 97, 472, 160
-1.00258, 41, 33, 72, 96
-1.00262, 65, 313, 128, 375
-1.00262, 89, 257, 152, 320
-1.00264, 273, 49, 400, 176
-1.00268, 393, 225, 424, 352
-1.0027, 169, 33, 200, 96
-1.00273, 393, 233, 456, 296
-1.00273, 145, 49, 208, 176
-1.00274, 233, 113, 296, 176
-1.00275, 49, 153, 176, 216
-1.00276, 409, 97, 472, 352
-1.00276, 117, 33, 148, 96
-1.00278, 1, 65, 500, 128
-1.00279, 369, 129, 400, 192
-1.0028, 205, 169, 236, 232
-1.0028, 329, 257, 360, 320
-1.00282, 385, 97, 416, 160
-1.00286, 317, 241, 348, 304
-1.00287, 65, 193, 192, 320
-1.0029, 329, 81, 392, 144
-1.0029, 265, 1, 296, 64
-1.00292, 265, 161, 328, 224
-1.00292, 1, 289, 64, 352
-1.00294, 293, 241, 324, 368
-1.00295, 17, 25, 48, 88
-1.00295, 281, 297, 312, 360
-1.00296, 9, 313, 40, 375
-1.003, 169, 289, 232, 352
-1.00302, 145, 105, 208, 168
-1.00304, 209, 105, 272, 168
-1.00304, 329, 1, 360, 64
-1.00304, 217, 129, 248, 256
-1.00305, 325, 97, 356, 224
-1.00306, 385, 1, 416, 128
-1.00306, 257, 241, 288, 304
-1.00306, 273, 297, 336, 360
-1.00307, 369, 177, 496, 240
-1.00309, 213, 25, 244, 88
-1.00311, 433, 201, 496, 264
-1.00311, 209, 289, 272, 352
-1.00315, 101, 33, 132, 96
-1.00315, 277, 225, 308, 352
-1.00318, 1, 105, 64, 168
-1.00318, 89, 105, 152, 168
-1.00319, 145, 1, 176, 64
-1.00319, 369, 193, 400, 256
-1.00322, 281, 217, 344, 280
-1.00324, 241, 25, 272, 88
-1.00325, 153, 153, 216, 216
-1.00325, 1, 49, 64, 176
-1.00329, 461, 9, 492, 72
-1.00329, 453, 97, 484, 160
-1.00329, 405, 25, 436, 88
-1.0034, 229, 25, 260, 88
-1.0034, 17, 257, 48, 320
-1.0034, 177, 105, 240, 168
-1.00343, 145, 57, 208, 120
-1.00345, 329, 257, 392, 320
-1.00346, 305, 25, 336, 88
-1.00352, 25, 121, 88, 184
-1.00352, 81, 97, 208, 224
-1.00356, 353, 81, 416, 208
-1.00361, 257, 89, 320, 152
-1.00363, 289, 25, 320, 88
-1.00363, 201, 129, 264, 375
-1.00364, 469, 137, 500, 200
-1.00366, 5, 25, 36, 88
-1.00366, 41, 249, 104, 312
-1.00366, 129, 193, 192, 256
-1.00367, 469, 289, 500, 352
-1.00367, 109, 297, 140, 360
-1.0037, 233, 193, 296, 256
-1.0037, 269, 25, 300, 88
-1.00372, 329, 25, 360, 88
-1.00373, 369, 105, 400, 168
-1.00373, 405, 249, 436, 312
-1.00373, 425, 305, 456, 368
-1.00376, 201, 289, 232, 352
-1.00378, 373, 273, 404, 336
-1.00381, 465, 201, 496, 264
-1.00382, 25, 97, 88, 160
-1.00384, 393, 73, 456, 136
-1.00389, 193, 49, 256, 112
-1.00395, 377, 249, 408, 312
-1.00395, 369, 185, 432, 248
-1.00398, 281, 49, 344, 112
-1.00398, 369, 129, 432, 192
-1.00399, 385, 177, 448, 304
-1.004, 373, 241, 404, 368
-1.004, 109, 49, 140, 176
-1.004, 121, 281, 184, 344
-1.004, 265, 193, 328, 256
-1.00402, 229, 97, 260, 224
-1.00403, 465, 73, 496, 136
-1.00403, 353, 241, 384, 304
-1.00407, 57, 97, 120, 160
-1.0041, 369, 161, 400, 224
-1.0041, 425, 249, 456, 312
-1.00411, 281, 177, 312, 304
-1.00412, 89, 233, 152, 296
-1.00413, 177, 97, 240, 224
-1.00413, 29, 313, 60, 375
-1.00414, 225, 225, 256, 288
-1.00416, 373, 129, 404, 256
-1.00417, 457, 305, 488, 368
-1.00418, 205, 81, 236, 208
-1.00423, 397, 97, 428, 160
-1.00423, 89, 177, 152, 240
-1.00425, 129, 145, 256, 272
-1.00425, 401, 297, 432, 360
-1.00425, 341, 105, 372, 168
-1.00426, 89, 113, 152, 240
-1.00428, 233, 89, 296, 152
-1.00429, 73, 49, 104, 176
-1.00434, 453, 73, 484, 136
-1.00435, 121, 49, 152, 176
-1.00435, 257, 25, 288, 88
-1.00435, 29, 257, 60, 320
-1.00436, 221, 289, 252, 352
-1.00436, 433, 97, 496, 352
-1.00437, 269, 249, 300, 312
-1.00437, 13, 49, 44, 176
-1.00438, 1, 225, 32, 352
-1.0044, 153, 81, 216, 144
-1.00442, 281, 249, 344, 312
-1.00443, 225, 193, 352, 320
-1.00443, 149, 281, 180, 344
-1.00445, 361, 25, 392, 88
-1.00448, 189, 305, 220, 368
-1.00448, 193, 153, 224, 216
-1.00453, 257, 177, 288, 304
-1.00458, 25, 217, 88, 280
-1.0046, 265, 137, 328, 200
-1.0046, 33, 113, 160, 240
-1.00463, 289, 97, 352, 352
-1.00467, 189, 49, 220, 176
-1.00467, 129, 81, 192, 144
-1.00483, 41, 49, 72, 176
-1.00492, 329, 97, 392, 224
-1.00494, 1, 49, 32, 176
-1.00499, 177, 49, 208, 176
-1.00502, 201, 241, 232, 368
-1.00502, 369, 65, 496, 192
-1.00504, 121, 49, 184, 176
-1.00509, 229, 241, 260, 368
-1.00515, 61, 49, 92, 176
-1.00516, 97, 65, 128, 192
-1.00532, 97, 113, 128, 240
-1.00543, 445, 209, 476, 336
-1.00544, 313, 145, 344, 272
-1.0055, 137, 49, 168, 176
-1.00553, 85, 49, 116, 176
-1.00555, 41, 49, 104, 176
-1.00556, 465, 209, 496, 336
-1.00575, 165, 49, 196, 176
-1.00579, 249, 129, 312, 375
-1.00586, 85, 161, 116, 288
-1.00588, 81, 49, 144, 176
-1.00589, 229, 49, 260, 176
-1.0059, 425, 209, 456, 336
-1.00591, 25, 209, 88, 336
-1.00595, 149, 49, 180, 176
-1.00596, 273, 49, 304, 176
-1.00596, 281, 177, 344, 304
-1.00601, 345, 241, 376, 368
-1.00604, 417, 241, 480, 368
-1.00605, 305, 193, 336, 320
-1.00605, 205, 129, 236, 256
-1.00616, 177, 129, 240, 375
-1.00617, 73, 241, 104, 368
-1.0062, 313, 49, 376, 176
-1.00625, 265, 113, 296, 240
-1.00629, 361, 97, 424, 352
-1.00631, 77, 113, 108, 240
-1.00636, 253, 225, 284, 352
-1.00636, 425, 129, 456, 256
-1.00639, 441, 65, 472, 192
-1.00639, 193, 97, 224, 224
-1.0064, 217, 81, 280, 208
-1.00645, 361, 49, 392, 176
-1.00646, 81, 241, 208, 368
-1.00649, 253, 49, 284, 176
-1.00649, 453, 129, 484, 256
-1.0065, 241, 241, 272, 368
-1.00651, 389, 177, 420, 304
-1.00658, 329, 49, 360, 176
-1.00659, 393, 129, 456, 256
-1.00661, 469, 129, 500, 256
-1.00661, 109, 113, 140, 240
-1.00663, 217, 193, 248, 320
-1.00666, 453, 65, 484, 192
-1.00666, 177, 97, 208, 224
-1.00676, 229, 145, 260, 272
-1.00677, 285, 65, 316, 192
-1.00679, 437, 129, 468, 256
-1.00684, 425, 65, 456, 192
-1.00685, 217, 65, 248, 192
-1.0069, 413, 209, 444, 336
-1.00697, 293, 177, 324, 304
-1.00698, 241, 225, 304, 352
-1.00701, 465, 65, 496, 192
-1.00701, 157, 129, 188, 256
-1.00708, 241, 65, 272, 192
-1.00708, 349, 49, 380, 176
-1.00711, 277, 113, 308, 240
-1.00714, 37, 97, 68, 224
-1.00718, 129, 193, 256, 320
-1.0072, 85, 209, 116, 336
-1.00722, 9, 177, 40, 304
-1.00725, 137, 129, 168, 256
-1.00727, 417, 193, 480, 320
-1.00728, 393, 81, 456, 208
-1.00728, 297, 97, 328, 224
-1.00731, 249, 65, 312, 192
-1.00733, 125, 97, 156, 224
-1.00736, 61, 193, 92, 320
-1.00741, 269, 161, 300, 288
-1.00741, 13, 225, 44, 352
-1.00743, 249, 113, 280, 240
-1.00744, 49, 113, 80, 240
-1.0075, 81, 145, 208, 272
-1.0075, 173, 241, 204, 368
-1.00752, 145, 97, 208, 352
-1.00752, 121, 209, 152, 336
-1.00757, 249, 113, 312, 240
-1.00759, 89, 97, 152, 352
-1.00763, 129, 161, 192, 288
-1.00773, 193, 145, 256, 272
-1.00786, 433, 65, 496, 192
-1.00792, 1, 241, 64, 368
-1.00807, 385, 97, 448, 352
-1.00809, 49, 113, 112, 240
-1.00834, 65, 129, 128, 375
-1.00841, 417, 129, 480, 256
-1.00852, 25, 97, 88, 352
-1.00874, 153, 113, 216, 240
-1.00877, 121, 129, 184, 375
-1.00877, 1, 97, 64, 352
-1.00887, 225, 177, 288, 304
-1.00896, 225, 97, 288, 352
-1.00897, 273, 65, 336, 192
-1.00916, 113, 97, 176, 224
-1.00919, 129, 241, 192, 368
-1.00919, 289, 241, 352, 368
-1.00945, 57, 161, 120, 288
-1.00948, 89, 177, 152, 304
-1.00951, 25, 161, 88, 288
-1.00971, 25, 113, 88, 240
-1.00981, 273, 113, 336, 240
-1.01019, 225, 129, 288, 256
-1.01075, 185, 193, 248, 320
-1.01114, 1, 97, 64, 224
-1.01114, 97, 225, 160, 352
-1.01116, 257, 161, 320, 288
-1.01133, 161, 177, 224, 304
-1.01146, 65, 225, 128, 352
-1.01181, 1, 161, 64, 288
-1.01197, 153, 241, 216, 368
-1.02243, 161, 129, 416, 375
-1.03672, 33, 129, 288, 375
-1.04072, 257, 97, 500, 352
