1966
-0.147619, 1, 1, 500, 375
-0.24737, 97, 1, 352, 375
-0.276046, 1, 97, 500, 352
-0.310162, 1, 1, 500, 256
-0.334369, 1, 1, 256, 375
-0.386811, 257, 1, 500, 375
-0.527856, 193, 65, 448, 320
-0.528594, 33, 1, 288, 256
-0.528689, 1, 129, 256, 375
-0.662895, 97, 97, 352, 352
-0.815102, 1, 1, 128, 375
-0.818848, 49, 1, 176, 375
-0.827831, 1, 97, 128, 352
-0.832401, 113, 1, 240, 375
-0.837196, 225, 1, 352, 375
-0.838514, 209, 65, 336, 320
-0.83947, 161, 1, 288, 375
-0.840302, 1, 241, 500, 368
-0.840654, 145, 129, 272, 375
-0.844271, 353, 1, 480, 256
-0.846225, 353, 1, 480, 375
-0.846669, 1, 65, 500, 192
-0.847354, 17, 1, 144, 256
-0.850626, 1, 113, 500, 240
-0.857009, 1, 17, 500, 144
-0.857966, 305, 1, 432, 375
-0.860283, 49, 97, 176, 352
-0.861338, 305, 65, 432, 320
-0.866049, 97, 1, 224, 256
-0.86956, 97, 129, 224, 375
-0.870336, 257, 97, 384, 352
-0.871293, 369, 97, 496, 352
-0.874954, 1, 193, 500, 320
-0.88093, 97, 241, 352, 368
-0.882665, 161, 33, 288, 288
-0.88785, 225, 33, 480, 160
-0.892201, 65, 1, 320, 128
-0.897703, 225, 241, 480, 368
-0.899149, 97, 193, 352, 320
-0.901717, 257, 1, 384, 256
-0.90389, 1, 193, 256, 320
-0.905441, 225, 81, 480, 208
-0.908145, 353, 17, 480, 144
-0.908699, 1, 97, 256, 224
-0.911757, 1, 241, 256, 368
-0.913594, 17, 113, 144, 240
-0.915876, 161, 209, 224, 336
-0.916383, 129, 225, 256, 352
-0.916458, 193, 193, 448, 320
-0.917999, 1, 97, 64, 224
-0.919275, 417, 1, 480, 128
-0.920301, 1, 145, 256, 272
-0.920556, 193, 241, 320, 368
-0.92164, 337, 65, 464, 192
-0.921778, 393, 17, 456, 144
-0.921929, 185, 193, 248, 320
-0.922368, 1, 145, 64, 272
-0.922848, 137, 209, 200, 336
-0.923029, 97, 113, 352, 240
-0.923289, 225, 129, 480, 256
-0.923998, 25, 113, 88, 240
-0.924361, 209, 177, 336, 304
-0.925025, 33, 65, 96, 192
-0.925412, 273, 241, 400, 368
-0.925937, 177, 113, 304, 240
-0.926382, 97, 49, 352, 176
-0.926749, 1, 1, 64, 128
-0.927127, 193, 129, 256, 256
-0.927803, 409, 65, 472, 192
-0.928703, 49, 113, 112, 240
-0.928778, 209, 193, 272, 320
-0.928975, 49, 177, 176, 304
-0.929322, 193, 65, 320, 192
-0.930523, 289, 241, 352, 368
-0.930655, 161, 161, 288, 288
-0.931567, 1, 1, 128, 128
-0.931781, 1, 177, 128, 304
-0.931921, 129, 113, 256, 240
-0.932308, 385, 65, 448, 192
-0.932408, 25, 1, 88, 128
-0.932552, 217, 17, 280, 144
-0.932711, 369, 1, 432, 128
-0.932918, 97, 161, 224, 288
-0.933548, 177, 249, 240, 312
-0.934284, 1, 65, 128, 192
-0.934535, 241, 177, 304, 304
-0.934892, 73, 113, 136, 240
-0.935994, 193, 1, 320, 128
-0.936308, 1, 193, 64, 320
-0.936324, 241, 81, 368, 208
-0.936525, 57, 177, 120, 304
-0.937092, 217, 65, 280, 192
-0.93715, 161, 161, 224, 288
-0.937605, 353, 65, 416, 192
-0.938084, 17, 225, 144, 352
-0.938212, 105, 193, 168, 320
-0.938558, 81, 225, 208, 352
-0.938575, 329, 81, 392, 144
-0.939075, 9, 49, 72, 176
-0.939233, 329, 65, 392, 192
-0.939245, 313, 241, 376, 368
-0.939982, 209, 249, 272, 312
-0.94008, 33, 161, 96, 288
-0.940724, 305, 81, 368, 144
-0.940933, 17, 137, 80, 200
-0.94095, 321, 225, 448, 352
-0.940974, 281, 193, 344, 320
-0.941079, 249, 65, 312, 192
-0.941212, 41, 241, 104, 368
-0.941214, 249, 113, 312, 240
-0.941248, 241, 17, 368, 144
-0.941466, 177, 137, 240, 200
-0.94151, 249, 1, 312, 128
-0.941569, 185, 241, 248, 368
-0.942066, 209, 241, 272, 368
-0.942234, 257, 81, 320, 144
-0.942832, 161, 225, 224, 288
-0.942849, 57, 65, 120, 192
-0.94317, 281, 81, 344, 144
-0.943244, 289, 65, 416, 192
-0.943528, 65, 113, 192, 240
-0.943554, 217, 145, 280, 272
-0.943769, 145, 249, 208, 312
-0.944063, 273, 193, 400, 320
-0.944088, 233, 241, 296, 368
-0.944146, 1, 113, 64, 176
-0.944309, 305, 113, 432, 240
-0.944627, 433, 49, 496, 176
-0.945112, 41, 81, 104, 144
-0.945266, 409, 81, 472, 144
-0.945395, 201, 225, 264, 288
-0.945461, 105, 281, 168, 344
-0.945483, 49, 1, 112, 128
-0.945756, 161, 113, 224, 240
-0.945897, 361, 81, 424, 144
-0.946084, 409, 9, 472, 72
-0.946101, 113, 241, 176, 368
-0.947494, 297, 97, 360, 224
-0.947599, 81, 177, 144, 304
-0.947774, 241, 177, 304, 240
-0.947862, 385, 73, 448, 136
-0.948256, 273, 113, 336, 240
-0.948349, 121, 161, 184, 224
-0.948358, 241, 129, 368, 256
-0.948429, 113, 249, 176, 312
-0.948639, 9, 249, 72, 312
-0.948685, 145, 145, 208, 208
-0.94876, 121, 145, 184, 272
-0.948774, 273, 65, 336, 192
-0.94881, 145, 177, 208, 240
-0.948912, 81, 241, 144, 368
-0.948982, 49, 1, 176, 128
-0.949057, 145, 1, 272, 128
-0.949363, 145, 273, 208, 336
-0.949544, 25, 105, 88, 168
-0.9496, 417, 49, 480, 112
-0.949842, 25, 161, 88, 224
-0.950071, 353, 241, 416, 368
-0.950153, 1, 169, 64, 232
-0.950354, 97, 129, 160, 256
-0.950581, 233, 265, 296, 328
-0.950621, 57, 161, 120, 224
-0.950664, 25, 1, 88, 64
-0.950718, 281, 265, 344, 328
-0.950748, 353, 113, 480, 240
-0.951171, 97, 161, 160, 224
-0.951215, 217, 65, 280, 128
-0.951364, 177, 1, 240, 128
-0.951727, 49, 113, 112, 176
-0.951938, 185, 81, 248, 208
-0.952124, 265, 241, 328, 368
-0.952359, 329, 273, 392, 336
-0.952646, 369, 225, 496, 352
-0.952794, 129, 1, 192, 64
-0.952813, 49, 241, 112, 304
-0.952837, 233, 209, 296, 272
-0.952894, 17, 241, 80, 368
-0.95305, 417, 113, 480, 240
-0.953223, 305, 17, 432, 144
-0.953257, 201, 169, 264, 232
-0.953282, 81, 273, 144, 336
-0.953473, 1, 49, 256, 176
-0.953629, 217, 17, 280, 80
-0.953727, 73, 137, 136, 200
-0.95378, 257, 249, 320, 312
-0.953873, 105, 185, 168, 248
-0.954821, 49, 65, 176, 192
-0.954985, 65, 1, 128, 64
-0.955237, 57, 265, 120, 328
-0.955256, 153, 9, 216, 72
-0.955384, 393, 41, 456, 104
-0.955439, 321, 105, 384, 168
-0.95582, 137, 225, 200, 288
-0.955843, 217, 41, 280, 104
-0.956053, 9, 49, 72, 112
-0.956095, 73, 1, 136, 128
-0.956279, 1, 193, 64, 256
-0.956592, 217, 89, 280, 152
-0.956779, 1, 17, 64, 80
-0.956841, 41, 137, 104, 200
-0.957014, 433, 89, 496, 152
-0.957023, 321, 113, 384, 240
-0.957321, 249, 1, 312, 64
-0.957386, 177, 17, 240, 80
-0.957629, 305, 289, 368, 352
-0.957765, 361, 1, 424, 64
-0.957856, 401, 105, 464, 168
-0.958103, 393, 113, 456, 240
-0.95829, 17, 33, 80, 288
-0.95905, 329, 193, 392, 320
-0.959105, 185, 201, 248, 264
-0.959248, 81, 305, 144, 368
-0.959293, 1, 225, 64, 288
-0.959308, 201, 145, 264, 208
-0.959395, 257, 273, 320, 336
-0.959427, 297, 105, 360, 168
-0.959612, 345, 105, 408, 168
-0.95977, 437, 49, 468, 176
-0.959838, 337, 297, 400, 360
-0.959841, 201, 273, 264, 336
-0.959949, 193, 97, 256, 352
-0.960012, 233, 241, 296, 304
-0.960075, 305, 257, 368, 320
-0.960225, 429, 81, 460, 144
-0.960263, 249, 41, 312, 104
-0.960484, 105, 1, 168, 64
-0.960694, 169, 273, 232, 336
-0.961236, 361, 41, 424, 104
-0.961263, 265, 305, 328, 368
-0.961414, 169, 209, 200, 336
-0.961437, 385, 241, 448, 368
-0.961591, 265, 105, 328, 168
-0.961605, 393, 1, 456, 256
-0.96167, 157, 209, 188, 336
-0.961672, 353, 113, 416, 240
-0.961755, 97, 1, 224, 128
-0.962346, 209, 201, 272, 264
-0.962404, 305, 81, 432, 144
-0.962556, 429, 1, 460, 128
-0.962684, 89, 249, 152, 312
-0.96274, 81, 193, 144, 256
-0.962749, 17, 73, 80, 136
-0.962935, 33, 97, 64, 224
-0.962941, 217, 121, 280, 184
-0.96319, 161, 201, 224, 264
-0.9632, 105, 225, 168, 288
-0.963328, 445, 1, 476, 128
-0.96333, 369, 289, 432, 352
-0.963426, 193, 249, 224, 312
-0.963562, 177, 161, 240, 224
-0.963585, 221, 233, 252, 296
-0.963654, 241, 257, 368, 320
-0.963705, 265, 177, 328, 240
-0.963727, 41, 1, 104, 256
-0.963807, 157, 233, 188, 296
-0.963865, 65, 65, 96, 192
-0.963936, 353, 81, 480, 144
-0.963948, 193, 113, 256, 176
-0.964014, 181, 241, 212, 304
-0.96404, 129, 257, 256, 320
-0.964061, 417, 241, 480, 368
-0.964106, 329, 81, 360, 144
-0.964166, 357, 81, 388, 144
-0.964196, 25, 1, 56, 128
-0.964245, 129, 201, 192, 264
-0.964358, 377, 105, 440, 168
-0.964649, 329, 249, 392, 312
-0.964744, 329, 17, 392, 144
-0.96477, 33, 129, 96, 375
-0.964786, 317, 81, 348, 144
-0.964841, 49, 113, 80, 240
-0.964915, 241, 81, 368, 144
-0.964931, 177, 177, 304, 240
-0.964932, 53, 137, 84, 200
-0.96503, 81, 217, 144, 280
-0.965118, 209, 257, 240, 320
-0.965156, 193, 1, 320, 64
-0.965216, 21, 145, 52, 208
-0.965223, 185, 193, 216, 320
-0.965347, 417, 289, 480, 352
-0.965566, 57, 97, 120, 352
-0.965635, 417, 1, 448, 128
-0.96573, 353, 57, 480, 120
-0.965829, 57, 313, 120, 375
-0.965918, 45, 1, 76, 128
-0.965926, 161, 233, 288, 296
-0.965969, 425, 49, 456, 176
-0.966052, 345, 81, 376, 144
-0.966176, 1, 185, 128, 248
-0.966249, 353, 17, 480, 80
-0.966249, 369, 177, 496, 304
-0.966284, 281, 17, 344, 144
-0.966359, 305, 49, 368, 176
-0.966426, 33, 161, 160, 224
-0.966649, 165, 257, 196, 320
-0.966775, 273, 65, 336, 320
-0.966791, 241, 249, 272, 312
-0.96686, 121, 137, 184, 200
-0.967012, 305, 233, 368, 296
-0.96706, 217, 33, 280, 288
-0.967063, 405, 17, 436, 144
-0.967066, 425, 1, 488, 256
-0.967071, 45, 49, 76, 176
-0.967164, 1, 1, 32, 128
-0.967177, 17, 97, 48, 224
-0.967268, 61, 129, 92, 256
-0.967357, 229, 257, 260, 320
-0.967408, 129, 1, 192, 128
-0.967543, 1, 1, 128, 64
-0.967549, 321, 177, 448, 304
-0.967615, 257, 201, 320, 264
-0.967779, 185, 137, 216, 200
-0.967848, 289, 289, 416, 352
-0.968129, 161, 209, 288, 272
-0.968144, 281, 201, 344, 264
-0.968175, 33, 185, 96, 248
-0.968208, 197, 209, 228, 336
-0.968362, 233, 153, 296, 216
-0.968374, 169, 225, 200, 288
-0.968433, 73, 1, 136, 256
-0.968449, 241, 65, 304, 320
-0.968467, 1, 97, 32, 224
-0.968495, 369, 81, 400, 144
-0.968511, 433, 1, 496, 64
-0.96854, 193, 217, 224, 280
-0.968573, 329, 57, 392, 120
-0.968868, 329, 65, 392, 320
-0.968873, 13, 49, 44, 176
-0.96898, 145, 169, 176, 232
-0.969073, 97, 273, 128, 336
-0.969088, 13, 169, 44, 232
-0.969123, 221, 209, 252, 336
-0.969134, 5, 113, 36, 176
-0.969165, 97, 153, 224, 216
-0.96917, 97, 65, 224, 192
-0.969174, 209, 233, 336, 296
-0.969201, 385, 9, 448, 72
-0.969213, 245, 177, 276, 304
-0.969282, 353, 265, 416, 328
-0.969384, 193, 41, 256, 104
-0.969385, 445, 17, 476, 80
-0.969413, 49, 225, 176, 288
-0.969477, 33, 137, 160, 200
-0.969478, 409, 1, 440, 64
-0.969625, 289, 313, 352, 375
-0.969692, 153, 129, 216, 375
-0.96994, 41, 177, 72, 304
-0.969942, 97, 1, 224, 64
-0.969954, 65, 289, 192, 352
-0.969964, 153, 257, 184, 320
-0.969988, 305, 81, 336, 144
-0.969995, 425, 17, 456, 80
-0.970032, 281, 57, 344, 120
-0.970064, 433, 25, 496, 88
-0.970065, 17, 265, 144, 328
-0.970135, 9, 137, 40, 200
-0.970174, 1, 113, 128, 176
-0.970207, 145, 49, 272, 176
-0.970229, 145, 65, 208, 192
-0.970243, 57, 185, 120, 248
-0.970259, 193, 273, 320, 336
-0.970295, 73, 1, 104, 64
-0.970339, 445, 57, 476, 120
-0.970372, 165, 145, 196, 208
-0.970388, 209, 233, 240, 296
-0.970389, 77, 113, 108, 240
-0.97049, 289, 81, 320, 144
-0.970611, 65, 313, 192, 375
-0.970663, 33, 129, 64, 192
-0.970664, 241, 297, 304, 360
-0.970686, 253, 249, 284, 312
-0.970737, 1, 129, 64, 375
-0.970759, 181, 217, 212, 280
-0.970782, 317, 241, 348, 368
-0.970961, 297, 145, 360, 272
-0.970978, 261, 81, 292, 144
-0.970989, 409, 65, 440, 192
-0.970995, 197, 129, 228, 192
-0.971023, 145, 209, 176, 336
-0.971078, 5, 161, 36, 288
-0.971085, 13, 1, 44, 128
-0.971119, 225, 201, 352, 264
-0.971157, 209, 241, 240, 368
-0.971189, 181, 129, 212, 256
-0.97121, 125, 185, 156, 248
-0.971311, 137, 249, 168, 312
-0.971313, 313, 313, 376, 375
-0.971366, 253, 177, 284, 240
-0.971411, 29, 49, 60, 112
-0.971507, 385, 81, 416, 144
-0.971598, 9, 9, 40, 72
-0.971612, 129, 1, 160, 64
-0.971617, 305, 193, 368, 320
-0.971644, 17, 273, 80, 336
-0.971646, 113, 161, 144, 224
-0.971648, 49, 113, 80, 176
-0.971692, 241, 209, 272, 272
-0.971703, 37, 249, 68, 312
-0.971829, 17, 41, 48, 104
-0.971897, 445, 81, 476, 144
-0.972085, 33, 105, 64, 168
-0.972133, 449, 49, 480, 176
-0.972209, 97, 1, 160, 128
-0.972235, 289, 273, 320, 336
-0.972239, 97, 177, 224, 240
-0.972239, 65, 249, 192, 312
-0.97227, 177, 25, 304, 88
-0.972393, 369, 1, 432, 256
-0.972395, 113, 201, 240, 264
-0.972522, 229, 145, 260, 272
-0.972529, 429, 41, 460, 104
-0.972697, 353, 193, 416, 320
-0.972732, 177, 121, 304, 184
-0.972793, 189, 17, 220, 80
-0.972819, 21, 105, 52, 168
-0.972918, 225, 177, 352, 240
-0.972923, 385, 193, 448, 320
-0.972942, 5, 225, 36, 288
-0.97295, 273, 81, 304, 144
-0.973031, 297, 97, 360, 352
-0.973033, 293, 241, 324, 368
-0.973086, 137, 209, 168, 272
-0.973105, 121, 97, 184, 224
-0.973121, 145, 145, 176, 272
-0.973123, 289, 265, 416, 328
-0.973148, 61, 1, 92, 64
-0.973151, 41, 57, 72, 120
-0.97318, 25, 249, 56, 312
-0.973233, 425, 113, 488, 176
-0.973258, 193, 65, 256, 128
-0.973282, 25, 225, 88, 288
-0.973331, 1, 233, 128, 296
-0.973354, 97, 185, 128, 248
-0.973403, 181, 241, 212, 368
-0.973406, 241, 121, 304, 184
-0.973493, 409, 89, 440, 152
-0.973571, 173, 9, 204, 72
-0.973571, 113, 233, 240, 296
-0.973578, 117, 1, 148, 64
-0.973625, 73, 105, 136, 168
-0.973807, 201, 113, 232, 240
-0.973961, 129, 281, 256, 344
-0.974017, 257, 113, 288, 240
-0.974067, 233, 241, 264, 368
-0.974069, 281, 249, 312, 312
-0.974148, 321, 105, 448, 168
-0.974151, 257, 161, 288, 288
-0.974191, 1, 161, 32, 224
-0.974197, 5, 209, 36, 336
-0.974249, 129, 281, 160, 344
-0.974254, 125, 241, 156, 368
-0.974255, 409, 57, 440, 120
-0.974284, 353, 289, 480, 352
-0.974325, 445, 97, 476, 224
-0.974337, 81, 65, 144, 192
-0.974342, 257, 153, 320, 216
-0.97437, 29, 177, 60, 304
-0.974414, 357, 65, 388, 192
-0.974476, 5, 33, 36, 96
-0.974492, 261, 273, 292, 336
-0.974526, 281, 241, 344, 304
-0.974531, 217, 17, 248, 80
-0.974535, 353, 97, 416, 352
-0.974549, 69, 137, 100, 200
-0.974604, 329, 1, 392, 64
-0.974617, 233, 193, 264, 320
-0.974642, 425, 193, 488, 320
-0.974646, 269, 177, 300, 240
-0.974647, 97, 137, 160, 200
-0.974686, 393, 49, 424, 176
-0.974725, 257, 105, 384, 168
-0.974767, 65, 73, 96, 136
-0.974826, 37, 153, 68, 216
-0.974826, 393, 289, 456, 352
-0.97491, 153, 33, 216, 96
-0.974911, 349, 105, 380, 168
-0.975031, 217, 129, 280, 375
-0.975085, 141, 9, 172, 72
-0.975087, 33, 49, 64, 176
-0.975104, 85, 1, 116, 64
-0.975156, 21, 17, 52, 80
-0.975156, 125, 249, 156, 312
-0.975161, 53, 65, 84, 128
-0.975161, 217, 121, 248, 184
-0.975163, 185, 1, 248, 256
-0.97518, 33, 49, 96, 112
-0.975249, 361, 105, 392, 168
-0.97539, 113, 129, 176, 375
-0.975412, 57, 209, 120, 272
-0.975412, 49, 1, 176, 64
-0.975417, 125, 153, 156, 216
-0.975436, 109, 185, 140, 248
-0.975446, 305, 241, 336, 368
-0.975455, 49, 241, 80, 304
-0.975462, 61, 169, 92, 232
-0.975575, 333, 273, 364, 336
-0.975606, 153, 1, 216, 128
-0.97563, 261, 65, 292, 192
-0.975746, 273, 1, 400, 64
-0.975756, 177, 265, 208, 328
-0.975774, 49, 185, 176, 248
-0.97583, 13, 257, 44, 320
-0.97587, 121, 1, 184, 375
-0.975873, 17, 161, 48, 288
-0.975874, 5, 193, 36, 256
-0.975896, 409, 25, 440, 88
-0.975904, 273, 65, 304, 192
-0.975919, 185, 169, 216, 232
-0.975927, 177, 153, 304, 216
-0.976059, 409, 97, 472, 352
-0.976078, 425, 313, 488, 375
-0.976101, 297, 305, 328, 368
-0.976156, 113, 289, 144, 352
-0.976174, 113, 129, 240, 192
-0.976193, 333, 81, 364, 208
-0.976239, 209, 57, 336, 120
-0.976279, 309, 113, 340, 240
-0.976386, 49, 1, 80, 64
-0.97639, 197, 161, 228, 288
-0.976459, 153, 209, 184, 272
-0.976522, 153, 1, 184, 64
-0.976558, 1, 1, 64, 375
-0.976618, 1, 89, 128, 152
-0.976659, 97, 249, 128, 312
-0.97668, 141, 273, 172, 336
-0.976684, 217, 17, 248, 144
-0.976709, 93, 241, 124, 368
-0.976716, 373, 65, 404, 192
-0.976717, 153, 1, 216, 256
-0.97674, 81, 129, 144, 375
-0.976764, 157, 161, 188, 288
-0.976808, 433, 97, 464, 224
-0.976835, 89, 177, 120, 304
-0.976871, 281, 305, 312, 368
-0.977049, 353, 273, 384, 336
-0.97712, 441, 105, 472, 168
-0.977134, 377, 97, 440, 352
-0.977161, 273, 41, 400, 104
-0.977203, 345, 65, 376, 192
-0.977206, 169, 129, 200, 256
-0.977245, 257, 313, 384, 375
-0.977287, 145, 1, 272, 64
-0.977417, 21, 225, 52, 288
-0.977447, 421, 97, 452, 224
-0.977466, 109, 209, 140, 336
-0.977484, 269, 249, 300, 312
-0.977519, 273, 177, 304, 304
-0.977524, 201, 17, 232, 80
-0.977551, 337, 105, 368, 168
-0.977569, 465, 297, 496, 360
-0.97768, 209, 209, 240, 272
-0.977706, 229, 209, 260, 272
-0.977712, 25, 169, 56, 232
-0.977792, 337, 265, 464, 328
-0.977801, 209, 193, 240, 320
-0.977813, 317, 249, 348, 312
-0.977815, 101, 161, 132, 224
-0.977829, 209, 297, 336, 360
-0.977844, 369, 105, 496, 168
-0.977848, 25, 241, 56, 368
-0.977863, 33, 17, 64, 80
-0.977893, 373, 241, 404, 368
-0.9779, 61, 177, 92, 304
-0.978038, 269, 241, 300, 368
-0.978303, 337, 225, 368, 352
-0.978383, 261, 105, 292, 168
-0.978389, 17, 289, 144, 352
-0.978398, 89, 305, 120, 368
-0.978428, 185, 193, 216, 256
-0.978446, 241, 273, 272, 336
-0.978447, 57, 1, 88, 128
-0.978462, 73, 161, 104, 288
-0.978502, 281, 241, 312, 368
-0.978596, 1, 209, 128, 272
-0.978597, 49, 161, 80, 224
-0.978612, 137, 145, 168, 208
-0.978641, 49, 1, 112, 375
-0.978709, 217, 1, 280, 375
-0.978754, 41, 241, 72, 368
-0.978787, 281, 113, 312, 240
-0.978911, 397, 81, 428, 144
-0.978941, 305, 241, 432, 304
-0.978947, 229, 153, 260, 216
-0.979023, 365, 289, 396, 352
-0.979086, 193, 81, 320, 144
-0.979116, 49, 113, 176, 176
-0.979161, 105, 1, 136, 64
-0.979316, 25, 1, 88, 375
-0.97938, 1, 49, 32, 176
-0.979453, 321, 105, 352, 168
-0.979458, 217, 81, 248, 208
-0.979504, 37, 81, 68, 144
-0.979531, 253, 209, 284, 272
-0.979673, 229, 97, 260, 224
-0.979724, 73, 1, 136, 375
-0.979901, 153, 1, 216, 375
-0.980048, 273, 193, 400, 256
-0.980114, 33, 25, 160, 88
-0.980144, 269, 113, 300, 240
-0.980209, 1, 65, 128, 128
-0.980395, 245, 241, 276, 368
-0.980421, 249, 1, 312, 375
-0.980425, 293, 81, 324, 208
-0.980475, 93, 129, 124, 256
-0.980653, 193, 1, 256, 375
-0.980686, 77, 65, 108, 192
-0.980686, 121, 193, 152, 320
-0.980763, 457, 1, 488, 128
-0.980784, 53, 241, 84, 368
-0.98086, 321, 81, 352, 208
-0.98102, 97, 1, 160, 375
-0.981041, 217, 145, 248, 272
-0.981209, 257, 233, 384, 296
-0.981361, 77, 1, 108, 128
-0.981637, 129, 33, 256, 96
-0.981763, 105, 129, 136, 256
-0.98177, 357, 113, 388, 240
-0.981862, 393, 1, 456, 375
-0.981874, 349, 225, 380, 352
-0.981918, 305, 313, 432, 375
-0.981965, 273, 1, 336, 375
-0.981978, 133, 193, 164, 320
-0.982049, 393, 1, 424, 128
-0.982154, 225, 25, 352, 88
-0.982178, 81, 241, 112, 368
-0.982264, 113, 1, 176, 256
-0.982387, 237, 17, 268, 144
-0.98258, 121, 145, 152, 272
-0.982814, 289, 193, 320, 320
-0.982882, 257, 241, 288, 368
-0.982901, 273, 169, 400, 232
-0.98331, 361, 241, 392, 368
-0.983317, 373, 113, 404, 240
-0.983368, 369, 313, 496, 375
-0.983426, 369, 193, 496, 256
-0.983437, 225, 153, 352, 216
-0.983616, 393, 97, 424, 224
-0.983652, 433, 97, 496, 352
-0.98371, 113, 305, 240, 368
-0.983744, 345, 113, 376, 240
-0.983787, 133, 113, 164, 240
-0.983883, 285, 33, 316, 160
-0.98423, 417, 1, 480, 375
-0.984282, 329, 1, 392, 375
-0.984306, 89, 1, 120, 128
-0.984506, 17, 313, 144, 375
-0.984522, 249, 65, 280, 192
-0.984663, 65, 89, 192, 152
-0.984792, 305, 1, 368, 375
-0.984855, 449, 241, 480, 368
-0.984892, 257, 1, 288, 128
-0.984895, 309, 177, 340, 304
-0.984982, 321, 217, 448, 280
-0.984998, 361, 193, 392, 320
-0.985208, 393, 241, 424, 368
-0.985299, 241, 129, 368, 192
-0.985604, 161, 57, 288, 120
-0.985649, 293, 129, 324, 256
-0.985917, 321, 193, 448, 256
-0.98596, 405, 113, 436, 240
-0.98606, 189, 81, 220, 208
-0.986116, 257, 81, 500, 144
-0.986212, 425, 241, 456, 368
-0.98624, 305, 65, 336, 192
-0.986246, 245, 129, 276, 256
-0.986287, 353, 1, 416, 375
-0.986368, 373, 1, 404, 128
-0.986421, 113, 105, 240, 168
-0.986449, 437, 241, 468, 368
-0.986509, 89, 81, 120, 208
-0.986599, 273, 1, 304, 128
-0.98691, 1, 169, 64, 200
-0.986975, 205, 1, 236, 128
-0.987106, 461, 49, 492, 176
-0.987192, 409, 109, 472, 140
-0.987225, 169, 245, 232, 276
-0.987247, 161, 249, 416, 312
-0.987268, 161, 1, 192, 128
-0.987291, 357, 17, 388, 144
-0.987311, 405, 241, 436, 368
-0.987354, 225, 41, 480, 104
-0.987399, 89, 273, 152, 304
-0.987409, 97, 1, 352, 64
-0.987477, 337, 161, 464, 224
-0.987487, 33, 145, 288, 208
-0.987506, 177, 133, 240, 164
-0.987579, 185, 281, 248, 312
-0.987612, 417, 37, 480, 68
-0.987683, 209, 261, 272, 292
-0.987804, 305, 105, 368, 136
-0.98784, 417, 89, 480, 120
-0.987901, 17, 113, 80, 144
-0.987911, 153, 281, 216, 312
-0.987922, 185, 269, 248, 300
-0.987954, 113, 285, 176, 316
-0.987956, 1, 241, 256, 304
-0.988004, 393, 77, 456, 108
-0.988058, 145, 241, 208, 272
-0.988101, 417, 21, 480, 52
-0.988137, 41, 173, 104, 204
-0.988147, 233, 193, 296, 224
-0.988155, 105, 185, 168, 216
-0.988192, 329, 105, 392, 136
-0.988204, 201, 233, 264, 264
-0.988232, 201, 249, 264, 280
-0.988236, 161, 225, 224, 256
-0.988255, 1, 237, 64, 268
-0.988257, 65, 289, 320, 352
-0.988275, 113, 273, 176, 304
-0.988307, 81, 181, 144, 212
-0.988319, 417, 53, 480, 84
-0.988329, 225, 273, 288, 304
-0.988356, 193, 1, 448, 64
-0.988362, 153, 257, 216, 288
-0.98844, 361, 113, 424, 144
-0.988465, 281, 89, 344, 120
-0.988481, 209, 285, 272, 316
-0.988531, 137, 269, 200, 300
-0.988563, 193, 17, 256, 48
-0.988564, 217, 73, 280, 104
-0.988585, 17, 65, 80, 96
-0.988623, 41, 5, 104, 36
-0.988645, 17, 1, 80, 32
-0.988647, 1, 9, 256, 72
-0.988664, 145, 21, 208, 52
-0.988683, 145, 177, 208, 208
-0.988683, 321, 89, 384, 120
-0.988696, 337, 301, 400, 332
-0.988704, 25, 137, 88, 168
-0.988747, 369, 217, 496, 280
-0.988753, 377, 93, 440, 124
-0.988755, 1, 81, 500, 144
-0.988799, 113, 249, 176, 280
-0.988806, 313, 309, 376, 340
-0.98881, 385, 105, 448, 136
-0.988813, 241, 177, 304, 208
-0.988814, 329, 277, 392, 308
-0.988856, 393, 21, 456, 52
-0.988865, 225, 105, 480, 168
-0.988869, 1, 217, 256, 280
-0.988871, 1, 181, 64, 212
-0.988873, 81, 25, 208, 88
-0.988875, 249, 257, 312, 288
-0.988916, 249, 85, 312, 116
-0.988919, 297, 261, 360, 292
-0.988919, 113, 17, 176, 48
-0.98892, 57, 269, 120, 300
-0.988921, 273, 273, 336, 304
-0.988927, 25, 125, 88, 156
-0.98895, 105, 161, 168, 192
-0.988957, 161, 269, 224, 300
-0.988957, 329, 117, 392, 148
-0.988973, 41, 153, 104, 184
-0.988975, 393, 33, 456, 64
-0.989012, 369, 81, 432, 112
-0.989013, 225, 245, 288, 276
-0.989013, 81, 13, 144, 44
-0.989025, 145, 157, 208, 188
-0.989032, 65, 165, 128, 196
-0.989039, 201, 209, 264, 240
-0.989043, 393, 9, 456, 40
-0.989071, 233, 289, 296, 320
-0.989086, 81, 309, 144, 340
-0.989145, 105, 197, 168, 228
-0.989146, 249, 277, 312, 308
-0.989168, 353, 129, 480, 192
-0.98917, 217, 85, 280, 116
-0.989178, 257, 265, 500, 328
-0.989183, 17, 149, 80, 180
-0.989208, 49, 253, 112, 284
-0.989242, 1, 53, 64, 84
-0.989245, 1, 273, 500, 336
-0.989253, 249, 1, 312, 32
-0.989273, 201, 165, 264, 196
-0.989278, 417, 1, 480, 32
-0.989284, 1, 193, 64, 224
-0.98929, 161, 281, 416, 344
-0.989323, 169, 25, 232, 56
-0.989357, 185, 221, 248, 252
-0.98937, 41, 81, 104, 112
-0.989381, 281, 109, 344, 140
-0.989391, 217, 41, 280, 72
-0.989403, 353, 97, 416, 128
-0.989414, 25, 185, 88, 216
-0.989418, 385, 117, 448, 148
-0.989427, 217, 61, 280, 92
-0.989432, 49, 241, 112, 272
-0.989441, 161, 293, 224, 324
-0.989488, 369, 17, 432, 48
-0.989492, 1, 129, 64, 160
-0.989531, 393, 45, 456, 76
-0.989531, 249, 17, 312, 48
-0.989541, 193, 145, 256, 176
-0.989544, 129, 225, 384, 288
-0.989548, 161, 197, 224, 228
-0.989572, 129, 213, 192, 244
-0.989581, 9, 17, 72, 48
-0.989602, 217, 17, 280, 48
-0.989604, 249, 29, 312, 60
-0.989614, 305, 129, 432, 192
-0.989625, 201, 193, 264, 224
-0.989631, 81, 285, 144, 316
-0.98964, 105, 149, 168, 180
-0.989666, 177, 173, 240, 204
-0.989675, 297, 281, 360, 312
-0.989681, 305, 1, 368, 256
-0.989699, 233, 209, 296, 240
-0.989715, 369, 69, 432, 100
-0.989721, 273, 197, 336, 228
-0.989729, 9, 261, 72, 292
-0.989735, 1, 241, 500, 304
-0.989748, 1, 297, 500, 360
-0.98975, 73, 145, 136, 176
-0.989754, 313, 297, 376, 328
-0.989758, 169, 13, 232, 44
-0.989779, 417, 77, 480, 108
-0.989798, 33, 313, 288, 375
-0.989799, 217, 105, 280, 136
-0.989808, 105, 209, 168, 240
-0.989811, 361, 297, 424, 328
-0.989826, 257, 97, 320, 128
-0.989847, 249, 45, 312, 76
-0.989869, 337, 289, 400, 320
-0.989882, 89, 253, 152, 284
-0.989884, 121, 173, 184, 204
-0.989891, 65, 193, 128, 224
-0.989897, 209, 29, 272, 60
-0.989898, 249, 57, 312, 88
-0.989902, 305, 117, 368, 148
-0.989902, 177, 257, 240, 288
-0.989932, 1, 265, 256, 328
-0.989945, 257, 289, 500, 352
-0.989981, 129, 177, 384, 240
-0.989986, 65, 121, 320, 184
-0.990222, 65, 65, 192, 128
-0.990443, 33, 33, 288, 96
-0.990468, 33, 185, 288, 248
-0.990521, 353, 241, 480, 304
-0.990886, 257, 313, 500, 375
-0.990895, 161, 81, 416, 144
-0.991334, 1, 97, 256, 160
-0.991536, 1, 169, 128, 200
-0.991538, 321, 89, 448, 120
-0.991599, 1, 181, 128, 212
-0.991696, 9, 177, 40, 208
-0.991735, 237, 269, 268, 300
-0.991779, 193, 21, 320, 52
-0.991802, 1, 177, 500, 240
-0.991813, 145, 249, 272, 280
-0.991837, 65, 73, 320, 136
-0.991895, 205, 249, 236, 280
-0.99192, 29, 169, 60, 200
-0.991921, 225, 253, 256, 284
-0.991925, 149, 245, 180, 276
-0.991955, 373, 113, 404, 144
-0.991961, 9, 113, 40, 144
-0.991964, 249, 197, 280, 228
-0.991967, 193, 237, 224, 268
-0.991979, 197, 273, 228, 304
-0.991981, 357, 105, 388, 136
-0.991993, 213, 265, 244, 296
-0.992004, 97, 273, 128, 304
-0.992015, 429, 89, 460, 120
-0.992021, 173, 277, 204, 308
-0.992033, 25, 181, 56, 212
-0.99204, 121, 273, 152, 304
-0.992044, 445, 29, 476, 60
-0.992047, 49, 169, 80, 200
-0.992053, 405, 37, 436, 68
-0.99206, 197, 25, 228, 56
-0.992061, 1, 57, 500, 120
-0.992071, 253, 177, 284, 208
-0.99208, 429, 45, 460, 76
-0.992088, 445, 89, 476, 120
-0.992097, 21, 113, 52, 144
-0.9921, 45, 113, 76, 144
-0.992106, 257, 277, 288, 308
-0.992107, 429, 105, 460, 136
-0.99211, 445, 17, 476, 48
-0.992114, 1, 105, 500, 168
-0.992116, 185, 173, 216, 204
-0.992122, 1, 1, 500, 64
-0.992131, 313, 97, 344, 128
-0.992132, 113, 237, 240, 268
-0.992133, 161, 241, 192, 272
-0.992133, 353, 109, 480, 140
-0.992138, 221, 285, 252, 316
-0.992145, 77, 169, 108, 200
-0.99215, 193, 133, 224, 164
-0.992155, 177, 249, 192, 312
-0.992156, 101, 181, 132, 212
-0.99216, 141, 273, 172, 304
-0.992163, 185, 273, 216, 304
-0.992166, 425, 33, 456, 64
-0.992167, 161, 257, 192, 288
-0.992167, 313, 109, 344, 140
-0.992174, 171, 233, 186, 296
-0.992174, 169, 21, 200, 52
-0.992174, 445, 41, 476, 72
-0.992194, 237, 253, 268, 284
-0.9922, 53, 5, 84, 36
-0.992203, 181, 137, 212, 168
-0.992208, 161, 269, 192, 300
-0.992208, 109, 13, 140, 44
-0.992209, 49, 65, 80, 96
-0.992214, 389, 105, 420, 136
-0.992214, 233, 281, 264, 312
-0.992214, 53, 145, 84, 176
-0.992215, 345, 105, 376, 136
-0.992216, 9, 193, 40, 224
-0.992218, 145, 81, 272, 144
-0.992219, 37, 57, 68, 88
-0.99222, 25, 49, 56, 80
-0.992221, 33, 1, 64, 32
-0.992237, 117, 185, 148, 216
-0.992237, 137, 17, 168, 48
-0.992241, 297, 89, 328, 120
-0.992241, 133, 189, 164, 220
-0.992248, 373, 97, 404, 128
-0.992254, 81, 9, 112, 40
-0.992256, 269, 193, 300, 224
-0.992281, 277, 277, 308, 308
-0.992284, 161, 129, 416, 192
-0.992289, 161, 269, 288, 300
-0.992291, 409, 113, 440, 144
-0.992294, 145, 177, 176, 208
-0.992299, 65, 169, 96, 200
-0.992303, 177, 225, 208, 256
-0.992305, 209, 29, 240, 60
-0.992307, 433, 21, 464, 52
-0.992307, 33, 113, 64, 144
-0.992307, 121, 13, 152, 44
-0.992313, 409, 57, 440, 88
-0.992316, 359, 81, 374, 144
-0.992317, 209, 17, 240, 48
-0.992317, 181, 21, 212, 52
-0.992318, 393, 117, 424, 148
-0.992319, 225, 233, 256, 264
-0.99232, 209, 281, 240, 312
-0.99232, 337, 117, 368, 148
-0.992321, 65, 5, 96, 36
-0.992323, 329, 105, 360, 136
-0.99233, 225, 265, 256, 296
-0.992335, 441, 113, 472, 144
-0.992338, 149, 17, 180, 48
-0.99234, 61, 73, 92, 104
-0.992341, 21, 1, 52, 32
-0.992344, 213, 249, 228, 312
-0.992347, 109, 277, 140, 308
-0.992349, 141, 257, 172, 288
-0.992351, 173, 241, 204, 272
-0.992353, 113, 149, 144, 180
-0.99236, 373, 85, 404, 116
-0.992367, 191, 129, 206, 192
-0.992368, 9, 37, 40, 68
-0.992374, 353, 117, 384, 148
-0.992378, 17, 145, 144, 176
-0.992379, 97, 13, 128, 44
-0.99238, 161, 201, 416, 264
-0.992381, 209, 237, 240, 268
-0.992382, 53, 125, 84, 156
-0.992399, 45, 249, 76, 280
-0.9924, 65, 137, 96, 168
-0.992401, 185, 253, 216, 284
-0.992406, 405, 25, 436, 56
-0.992407, 369, 33, 496, 64
-0.992407, 161, 281, 192, 312
-0.992408, 417, 17, 448, 48
-0.99241, 37, 185, 68, 216
-0.992411, 173, 257, 204, 288
-0.992413, 337, 297, 368, 328
-0.992415, 261, 85, 292, 116
-0.992415, 65, 157, 96, 188
-0.992417, 285, 89, 316, 120
-0.992421, 137, 285, 168, 316
-0.992433, 9, 57, 40, 88
-0.992452, 249, 213, 280, 244
-0.992454, 145, 189, 176, 220
-0.992458, 201, 261, 232, 292
-0.99246, 309, 265, 340, 296
-0.992461, 189, 221, 220, 252
-0.992463, 13, 13, 44, 44
-0.99247, 157, 229, 188, 260
-0.992476, 273, 81, 304, 112
-0.992479, 217, 41, 248, 72
-0.99248, 33, 241, 64, 272
-0.992482, 181, 149, 212, 180
-0.992484, 117, 197, 148, 228
-0.992484, 409, 1, 440, 32
-0.992488, 289, 105, 416, 136
-0.992492, 257, 257, 288, 288
-0.992493, 9, 165, 40, 196
-0.992494, 257, 277, 384, 308
-0.992497, 153, 157, 184, 188
-0.992499, 217, 125, 248, 156
-0.992502, 401, 73, 432, 104
-0.992511, 349, 81, 364, 144
-0.992554, 353, 49, 480, 80
-0.992566, 1, 217, 500, 280
-0.992594, 379, 89, 394, 152
-0.9926, 257, 241, 500, 304
-0.992667, 183, 249, 198, 312
-0.99267, 81, 277, 208, 308
-0.992684, 343, 81, 358, 144
-0.99269, 333, 81, 348, 144
-0.99269, 177, 193, 304, 224
-0.992697, 223, 249, 238, 312
-0.992706, 453, 81, 468, 144
-0.992721, 367, 89, 382, 152
-0.992726, 353, 17, 480, 48
-0.992762, 177, 281, 304, 312
-0.992766, 159, 153, 174, 216
-0.992769, 225, 197, 352, 228
-0.992776, 353, 77, 480, 108
-0.992838, 325, 81, 340, 144
-0.992858, 445, 81, 460, 144
-0.99287, 71, 145, 86, 208
-0.992902, 183, 217, 198, 280
-0.992902, 191, 249, 206, 312
-0.992915, 65, 289, 192, 320
-0.992947, 319, 81, 334, 144
-0.992956, 385, 89, 400, 152
-0.992969, 193, 257, 320, 288
-0.99297, 369, 89, 496, 120
-0.992972, 1, 129, 500, 192
-0.992991, 1, 25, 500, 88
-0.993003, 129, 281, 256, 312
-0.993007, 177, 177, 304, 208
-0.993024, 321, 297, 448, 328
-0.993039, 1, 237, 128, 268
-0.993045, 241, 93, 368, 124
-0.993064, 245, 257, 260, 320
-0.993073, 161, 233, 176, 296
-0.993076, 193, 9, 320, 40
-0.993082, 185, 129, 200, 192
-0.993099, 203, 249, 218, 312
-0.993118, 161, 313, 288, 375
-0.993118, 197, 129, 212, 192
-0.993136, 225, 161, 480, 224
-0.993142, 81, 261, 208, 292
-0.993148, 257, 193, 500, 256
-0.993175, 49, 169, 176, 200
-0.99318, 155, 249, 170, 312
-0.99319, 273, 289, 400, 320
-0.993223, 49, 181, 176, 212
-0.993235, 201, 17, 216, 80
-0.99326, 33, 9, 160, 40
-0.993261, 81, 249, 208, 280
-0.993265, 249, 185, 264, 248
-0.993266, 127, 161, 142, 224
-0.993283, 97, 13, 224, 44
-0.993289, 13, 169, 28, 232
-0.993292, 19, 145, 34, 208
-0.993297, 241, 257, 368, 288
-0.993305, 5, 9, 20, 72
-0.993308, 33, 249, 160, 280
-0.993309, 439, 41, 454, 104
-0.99332, 191, 217, 206, 280
-0.993323, 373, 81, 388, 144
-0.993325, 231, 225, 246, 288
-0.993356, 65, 145, 80, 208
-0.993357, 129, 293, 256, 324
-0.993359, 451, 57, 466, 120
-0.993382, 131, 1, 146, 64
-0.9934, 231, 257, 246, 320
-0.993401, 19, 9, 34, 72
-0.993414, 27, 145, 42, 208
-0.993417, 197, 241, 212, 304
-0.993429, 409, 1, 424, 64
-0.993429, 83, 1, 98, 64
-0.993458, 65, 305, 192, 336
-0.993468, 145, 25, 272, 56
-0.993479, 245, 209, 260, 272
-0.993498, 193, 33, 320, 64
-0.993503, 353, 1, 480, 32
-0.993511, 313, 89, 328, 152
-0.993556, 11, 145, 26, 208
-0.993559, 75, 1, 90, 64
-0.993561, 445, 41, 460, 104
-0.993561, 1, 113, 128, 144
-0.993566, 167, 257, 182, 320
-0.993567, 139, 1, 154, 64
-0.993571, 237, 233, 252, 296
-0.993572, 303, 81, 318, 144
-0.993575, 43, 249, 58, 312
-0.99358, 279, 177, 294, 240
-0.993582, 433, 81, 448, 144
-0.993582, 31, 41, 46, 104
-0.993613, 209, 269, 336, 300
-0.993625, 129, 41, 384, 104
-0.993628, 25, 9, 40, 72
-0.993635, 137, 249, 152, 312
-0.993639, 311, 305, 326, 368
-0.993659, 1, 225, 16, 288
-0.99366, 433, 57, 448, 120
-0.993671, 53, 105, 68, 168
-0.993681, 97, 189, 224, 220
-0.993683, 5, 153, 20, 216
-0.993686, 65, 1, 80, 64
-0.993705, 189, 169, 204, 232
-0.993716, 193, 9, 208, 72
-0.993728, 439, 81, 454, 144
-0.993731, 297, 81, 312, 144
-0.993734, 305, 309, 432, 340
-0.993744, 145, 13, 272, 44
-0.993746, 215, 273, 230, 336
-0.993778, 13, 9, 28, 72
-0.993798, 133, 161, 148, 224
-0.993819, 89, 1, 104, 64
-0.993822, 225, 17, 240, 80
-0.993826, 125, 1, 140, 64
-0.993827, 459, 9, 474, 72
-0.99384, 1, 193, 128, 224
-0.993845, 33, 273, 160, 304
-0.993847, 33, 105, 48, 168
-0.993847, 121, 161, 136, 224
-0.993851, 287, 81, 302, 144
-0.993856, 261, 81, 276, 144
-0.993861, 177, 205, 304, 236
-0.993864, 65, 225, 192, 256
-0.993869, 305, 117, 432, 148
-0.993873, 17, 225, 32, 288
-0.993884, 339, 257, 354, 320
-0.993884, 241, 113, 368, 144
-0.993904, 11, 113, 26, 176
-0.993911, 225, 225, 240, 288
-0.993927, 195, 153, 210, 216
-0.993928, 49, 157, 176, 188
-0.99393, 37, 249, 52, 312
-0.99393, 145, 9, 160, 72
-0.993936, 155, 273, 170, 336
-0.993956, 289, 261, 416, 292
-0.993959, 177, 217, 192, 280
-0.99397, 273, 81, 288, 144
-0.993973, 197, 217, 212, 280
-0.993974, 19, 105, 34, 168
-0.993979, 161, 237, 288, 268
-0.99398, 41, 49, 56, 112
-0.993985, 97, 153, 224, 184
-0.993998, 161, 305, 416, 368
-0.994, 253, 249, 268, 312
-0.994002, 205, 217, 220, 280
-0.994011, 59, 113, 74, 176
-0.994024, 53, 65, 68, 128
-0.994024, 31, 249, 46, 312
-0.994026, 449, 9, 464, 72
-0.994027, 255, 169, 270, 232
-0.994032, 391, 81, 406, 144
-0.994055, 129, 153, 384, 216
-0.994071, 267, 81, 282, 144
-0.994072, 225, 129, 240, 192
-0.994076, 47, 113, 62, 176
-0.994077, 205, 129, 220, 192
-0.994078, 19, 33, 34, 96
-0.994086, 1, 113, 16, 176
-0.994087, 263, 249, 278, 312
-0.994093, 25, 105, 40, 168
-0.994098, 147, 249, 162, 312
-0.994122, 423, 1, 438, 64
-0.994122, 187, 9, 202, 72
-0.994139, 113, 205, 240, 236
-0.994144, 209, 81, 336, 112
-0.99416, 51, 249, 66, 312
-0.994167, 25, 249, 40, 312
-0.994182, 105, 185, 120, 248
-0.994197, 127, 185, 142, 248
-0.994217, 211, 225, 226, 288
-0.994221, 441, 17, 456, 80
-0.994225, 459, 81, 474, 144
-0.994236, 271, 177, 286, 240
-0.994238, 129, 177, 256, 208
-0.994249, 9, 249, 24, 312
-0.994256, 1, 21, 128, 52
-0.994276, 369, 297, 496, 328
-0.994276, 77, 129, 92, 192
-0.994279, 101, 265, 116, 328
-0.994281, 273, 197, 400, 228
-0.994287, 135, 185, 150, 248
-0.994301, 41, 105, 56, 168
-0.99431, 103, 161, 118, 224
-0.99433, 59, 1, 74, 64
-0.994334, 51, 145, 66, 208
-0.994352, 193, 49, 320, 80
-0.994381, 113, 225, 240, 256
-0.994435, 257, 217, 500, 280
-0.994444, 225, 185, 352, 216
-0.994454, 177, 293, 304, 324
-0.994466, 161, 221, 288, 252
-0.994569, 65, 321, 192, 352
-0.994596, 305, 77, 432, 108
-0.99464, 17, 289, 144, 320
-0.994671, 1, 209, 128, 240
-0.994729, 241, 209, 368, 240
-0.994731, 177, 165, 304, 196
-0.994777, 1, 157, 128, 188
-0.994795, 13, 97, 44, 352
-0.994804, 273, 13, 400, 44
-0.994834, 353, 61, 480, 92
-0.99484, 37, 33, 68, 288
-0.994841, 193, 125, 320, 156
-0.994844, 429, 1, 460, 256
-0.994865, 25, 33, 56, 288
-0.994925, 193, 61, 320, 92
-0.994929, 273, 1, 400, 32
-0.994933, 321, 285, 448, 316
-0.994948, 49, 237, 176, 268
-0.994951, 97, 137, 224, 168
-0.99497, 273, 37, 400, 68
-0.99498, 1, 153, 500, 216
-0.995007, 209, 333, 336, 364
-0.995045, 225, 245, 352, 276
-0.995067, 257, 81, 384, 112
-0.99507, 1, 261, 128, 292
-0.995071, 17, 133, 144, 164
-0.995079, 69, 1, 100, 256
-0.995085, 369, 121, 496, 152
-0.99514, 241, 69, 368, 100
-0.995152, 1, 101, 128, 132
-0.995192, 161, 137, 288, 168
-0.995212, 257, 129, 500, 192
-0.995264, 161, 345, 288, 375
-0.995339, 273, 25, 400, 56
-0.995358, 97, 165, 224, 196
-0.995359, 305, 249, 432, 280
-0.99541, 257, 301, 384, 332
-0.995412, 409, 1, 440, 256
-0.995422, 257, 65, 288, 320
-0.995445, 445, 1, 476, 256
-0.995446, 321, 37, 448, 68
-0.995454, 13, 1, 44, 256
-0.995461, 81, 1, 208, 32
-0.995476, 289, 321, 416, 352
-0.995489, 161, 77, 288, 108
-0.995521, 65, 129, 96, 375
-0.995556, 321, 273, 448, 304
-0.995606, 209, 97, 240, 352
-0.995611, 225, 289, 352, 320
-0.995644, 305, 209, 432, 240
-0.995656, 1, 225, 128, 256
-0.995666, 57, 33, 88, 288
-0.995675, 49, 193, 176, 224
-0.99572, 257, 169, 384, 200
-0.995756, 145, 37, 272, 68
-0.995771, 273, 185, 400, 216
-0.995782, 17, 305, 144, 336
-0.995838, 225, 97, 256, 352
-0.995842, 337, 261, 464, 292
-0.995863, 65, 109, 192, 140
-0.995868, 1, 65, 32, 320
-0.995911, 273, 57, 400, 88
-0.995932, 141, 129, 172, 375
-0.995973, 289, 65, 320, 320
-0.996029, 209, 233, 336, 264
-0.99605, 309, 97, 340, 352
-0.996102, 1, 77, 128, 108
-0.996126, 145, 1, 272, 32
-0.996141, 1, 89, 128, 120
-0.996146, 145, 149, 272, 180
-0.996148, 49, 341, 176, 372
-0.996178, 49, 21, 176, 52
-0.996201, 353, 197, 480, 228
-0.996211, 197, 97, 228, 352
-0.996222, 269, 65, 300, 320
-0.996276, 31, 181, 46, 212
-0.996338, 97, 29, 224, 60
-0.996341, 89, 1, 120, 256
-0.996424, 17, 317, 144, 348
-0.99646, 219, 249, 234, 280
-0.996488, 183, 277, 198, 308
-0.996489, 213, 1, 244, 256
-0.996494, 65, 213, 192, 244
-0.996515, 185, 97, 216, 352
-0.996537, 209, 305, 336, 336
-0.996543, 15, 113, 30, 144
-0.996545, 157, 245, 172, 276
-0.996549, 53, 129, 84, 375
-0.996551, 353, 309, 480, 340
-0.996585, 369, 65, 400, 320
-0.99659, 65, 93, 192, 124
-0.996624, 397, 1, 428, 256
-0.996628, 153, 129, 184, 375
-0.996635, 37, 129, 68, 375
-0.996635, 187, 137, 202, 168
-0.99664, 43, 173, 58, 204
-0.996665, 345, 65, 376, 320
-0.996665, 241, 321, 368, 352
-0.996669, 193, 109, 320, 140
-0.99668, 157, 153, 172, 184
-0.996685, 321, 97, 352, 352
-0.996698, 209, 241, 224, 272
-0.9967, 21, 113, 36, 144
-0.996702, 333, 65, 364, 320
-0.99671, 367, 105, 382, 136
-0.996737, 373, 105, 388, 136
-0.996752, 123, 181, 138, 212
-0.996752, 249, 261, 264, 292
-0.99676, 47, 61, 62, 92
-0.996774, 163, 245, 178, 276
-0.996777, 37, 53, 52, 84
-0.996793, 59, 69, 74, 100
-0.996803, 459, 17, 474, 48
-0.996819, 49, 169, 64, 200
-0.996821, 209, 25, 224, 56
-0.996831, 359, 105, 374, 136
-0.996834, 385, 65, 416, 320
-0.99684, 353, 105, 368, 136
-0.996841, 9, 113, 24, 144
-0.996845, 37, 177, 52, 208
-0.996846, 15, 177, 30, 208
-0.996862, 53, 65, 68, 96
-0.996877, 251, 189, 266, 220
-0.996878, 451, 113, 466, 144
-0.996881, 229, 257, 244, 288
-0.996887, 25, 45, 40, 76
-0.996887, 31, 49, 46, 80
-0.996888, 245, 129, 276, 375
-0.996892, 429, 41, 444, 72
-0.996894, 227, 21, 242, 52
-0.996899, 433, 89, 448, 120
-0.996901, 189, 173, 204, 204
-0.996916, 229, 285, 244, 316
-0.996918, 265, 197, 280, 228
-0.996918, 33, 113, 48, 144
-0.996928, 97, 269, 112, 300
-0.996931, 65, 169, 80, 200
-0.996932, 189, 277, 204, 308
-0.996936, 119, 13, 134, 44
-0.996941, 65, 73, 80, 104
-0.996941, 381, 113, 396, 144
-0.996943, 25, 129, 56, 375
-0.996954, 45, 1, 60, 32
-0.996965, 387, 113, 402, 144
-0.996966, 319, 97, 334, 128
-0.996968, 249, 273, 264, 304
-0.996969, 177, 21, 192, 52
-0.996972, 285, 89, 300, 120
-0.996973, 27, 113, 42, 144
-0.996974, 157, 257, 172, 288
-0.996983, 151, 249, 166, 280
-0.996988, 405, 113, 420, 144
-0.996993, 451, 17, 466, 48
-0.996995, 299, 89, 314, 120
-0.996998, 201, 25, 216, 56
-0.997004, 445, 97, 476, 352
-0.997008, 81, 169, 96, 200
-0.997009, 357, 33, 388, 288
-0.997013, 271, 193, 286, 224
-0.997014, 217, 285, 232, 316
-0.997018, 87, 9, 102, 40
-0.99702, 125, 13, 140, 44
-0.997023, 197, 281, 212, 312
-0.997023, 169, 21, 184, 52
-0.997025, 133, 185, 148, 216
-0.997027, 63, 5, 78, 36
-0.997029, 221, 265, 236, 296
-0.997029, 3, 113, 18, 144
-0.99703, 113, 13, 128, 44
-0.997036, 147, 17, 162, 48
-0.997044, 249, 249, 264, 280
-0.997044, 255, 273, 270, 304
-0.997047, 123, 277, 138, 308
-0.99705, 159, 169, 174, 200
-0.99705, 179, 261, 194, 292
-0.997055, 153, 17, 168, 48
-0.997056, 347, 105, 362, 136
-0.997056, 93, 9, 108, 40
-0.997058, 27, 169, 42, 200
-0.997067, 55, 5, 70, 36
-0.997074, 187, 21, 202, 52
-0.997076, 197, 237, 212, 268
-0.997076, 199, 133, 214, 164
-0.997082, 171, 245, 186, 276
-0.997083, 141, 17, 156, 48
-0.997088, 355, 117, 370, 148
-0.99709, 237, 269, 252, 300
-0.99709, 115, 273, 130, 304
-0.997096, 55, 169, 70, 200
-0.997097, 417, 117, 432, 148
-0.997099, 419, 37, 434, 68
-0.997101, 215, 25, 230, 56
-0.997103, 81, 9, 96, 40
-0.997106, 39, 1, 54, 32
-0.99711, 19, 41, 34, 72
-0.997121, 195, 25, 210, 56
-0.997121, 271, 89, 286, 120
-0.997124, 443, 17, 458, 48
-0.997125, 361, 117, 376, 148
-0.997125, 441, 89, 456, 120
-0.997132, 69, 5, 84, 36
-0.997138, 397, 117, 412, 148
-0.997141, 25, 181, 40, 212
-0.997143, 173, 257, 188, 288
-0.997144, 181, 241, 196, 272
-0.997145, 131, 13, 146, 44
-0.997148, 453, 89, 468, 120
-0.997148, 21, 169, 36, 200
-0.997152, 17, 53, 32, 84
-0.997153, 39, 113, 54, 144
-0.997155, 171, 229, 186, 260
-0.997164, 37, 165, 52, 196
-0.997166, 89, 97, 120, 352
-0.997167, 101, 181, 116, 212
-0.997172, 159, 17, 174, 48
-0.997182, 443, 49, 458, 80
-0.997182, 99, 9, 114, 40
-0.997183, 223, 33, 238, 64
-0.997183, 285, 197, 300, 228
-0.997184, 331, 105, 346, 136
-0.997191, 411, 117, 426, 148
-0.997191, 33, 1, 48, 32
-0.997192, 107, 13, 122, 44
-0.997195, 163, 225, 178, 256
-0.997195, 41, 69, 56, 100
-0.9972, 429, 17, 444, 48
-0.997201, 203, 269, 218, 300
-0.997202, 343, 117, 358, 148
-0.997208, 69, 137, 84, 168
-0.997208, 349, 297, 364, 328
-0.997215, 113, 129, 144, 375
-0.997275, 169, 129, 200, 375
-0.997324, 305, 1, 368, 128
-0.99733, 185, 1, 216, 256
-0.997514, 397, 97, 428, 352
-0.997608, 101, 1, 132, 256
-0.997616, 425, 97, 456, 352
-0.997654, 229, 1, 260, 256
-0.997692, 77, 129, 108, 375
-0.997714, 101, 129, 132, 375
-0.997721, 165, 1, 196, 256
-0.997757, 241, 1, 272, 256
-0.997857, 457, 1, 488, 256
-0.998014, 409, 97, 440, 352
-0.998068, 129, 129, 160, 375
-0.998095, 445, 49, 460, 176
-0.998153, 183, 209, 198, 336
-0.998168, 189, 209, 204, 336
-0.998184, 201, 1, 232, 256
-0.998208, 439, 49, 454, 176
-0.998225, 433, 49, 448, 176
-0.998251, 451, 49, 466, 176
-0.998275, 433, 1, 448, 128
-0.998282, 409, 1, 424, 128
-0.998297, 457, 1, 472, 128
-0.9983, 3, 97, 18, 224
-0.998321, 185, 253, 248, 268
-0.998321, 427, 1, 442, 128
-0.998326, 417, 91, 480, 106
-0.998332, 61, 97, 76, 224
-0.998332, 153, 245, 216, 260
-0.998334, 171, 209, 186, 336
-0.998339, 89, 281, 152, 296
-0.998347, 423, 49, 438, 176
-0.99835, 41, 97, 56, 224
-0.998351, 417, 97, 480, 112
-0.998356, 177, 281, 240, 296
-0.998359, 241, 201, 304, 216
-0.99836, 137, 283, 200, 298
-0.99836, 89, 275, 152, 290
-0.99836, 393, 83, 456, 98
-0.99836, 1, 179, 64, 194
-0.998362, 177, 137, 240, 152
-0.998363, 177, 209, 192, 336
-0.998368, 105, 193, 168, 208
-0.998374, 129, 277, 192, 292
-0.998374, 201, 271, 264, 286
-0.998381, 441, 1, 456, 128
-0.998383, 89, 185, 152, 200
-0.998388, 33, 185, 96, 200
-0.998394, 417, 51, 480, 66
-0.998396, 145, 257, 208, 272
-0.998396, 33, 143, 96, 158
-0.998396, 113, 285, 176, 300
-0.998397, 217, 81, 280, 96
-0.998397, 451, 1, 466, 128
-0.998398, 33, 133, 96, 148
-0.998398, 1, 185, 64, 200
-0.998398, 161, 275, 224, 290
-0.998401, 417, 105, 480, 120
-0.998402, 17, 123, 80, 138
-0.998402, 409, 117, 472, 132
-0.998402, 417, 49, 432, 176
-0.998403, 249, 177, 264, 304
-0.998404, 121, 161, 184, 176
-0.998405, 281, 205, 344, 220
-0.998405, 17, 115, 80, 130
-0.998406, 35, 97, 50, 224
-0.998406, 377, 89, 440, 104
-0.998407, 281, 121, 344, 136
-0.998407, 417, 39, 480, 54
-0.998408, 217, 257, 280, 272
-0.998411, 297, 309, 360, 324
-0.998411, 153, 295, 216, 310
-0.998412, 257, 121, 320, 136
-0.998414, 249, 85, 312, 100
-0.998414, 153, 227, 216, 242
-0.998415, 121, 255, 184, 270
-0.998416, 281, 103, 344, 118
-0.998417, 159, 145, 174, 272
-0.998417, 89, 287, 152, 302
-0.998417, 393, 105, 456, 120
-0.998417, 409, 13, 472, 28
-0.998418, 217, 87, 280, 102
-0.99842, 185, 291, 248, 306
-0.998422, 321, 105, 384, 120
-0.998422, 49, 267, 112, 282
-0.998423, 217, 277, 280, 292
-0.998423, 289, 115, 352, 130
-0.998424, 121, 291, 184, 306
-0.998425, 241, 177, 304, 192
-0.998425, 57, 179, 120, 194
-0.998425, 209, 285, 272, 300
-0.998429, 185, 247, 248, 262
-0.99843, 177, 259, 240, 274
-0.998431, 121, 271, 184, 286
-0.998432, 11, 113, 26, 240
-0.998433, 409, 45, 472, 60
-0.998434, 25, 177, 88, 192
-0.998434, 177, 143, 240, 158
-0.998436, 393, 33, 456, 48
-0.998436, 217, 121, 280, 136
-0.998437, 233, 249, 296, 264
-0.998437, 161, 179, 224, 194
-0.998437, 153, 237, 216, 252
-0.998438, 57, 173, 120, 188
-0.998439, 193, 265, 256, 280
-0.998439, 153, 289, 216, 304
-0.99844, 1, 193, 64, 208
-0.99844, 17, 65, 80, 80
-0.998441, 417, 111, 480, 126
-0.998443, 121, 155, 184, 170
-0.998444, 121, 203, 184, 218
-0.998445, 217, 291, 280, 306
-0.998447, 417, 7, 480, 22
-0.998447, 49, 255, 112, 270
-0.998451, 217, 75, 280, 90
-0.998451, 409, 19, 472, 34
-0.998452, 217, 59, 280, 74
-0.998452, 417, 1, 432, 128
-0.998453, 241, 187, 304, 202
-0.998453, 41, 119, 104, 134
-0.998454, 17, 149, 80, 164
-0.998455, 337, 303, 400, 318
-0.998456, 137, 1, 168, 256
-0.998457, 249, 277, 312, 292
-0.998458, 209, 249, 272, 264
-0.998459, 137, 185, 200, 200
-0.998459, 329, 279, 392, 294
-0.99846, 153, 221, 216, 236
-0.99846, 417, 57, 480, 72
-0.998461, 209, 31, 272, 46
-0.998463, 289, 273, 352, 288
-0.998464, 25, 73, 88, 88
-0.998464, 47, 1, 62, 128
-0.998464, 1, 53, 64, 68
-0.998464, 305, 121, 368, 136
-0.998464, 217, 265, 280, 280
-0.998464, 9, 135, 72, 150
-0.998466, 249, 3, 312, 18
-0.998467, 217, 69, 280, 84
-0.998468, 17, 261, 80, 276
-0.998468, 9, 59, 72, 74
-0.998468, 113, 249, 176, 264
-0.998469, 1, 141, 64, 156
-0.998469, 353, 85, 416, 100
-0.99847, 89, 263, 152, 278
-0.99847, 393, 27, 456, 42
-0.998471, 345, 119, 408, 134
-0.998471, 33, 79, 96, 94
-0.998471, 217, 115, 280, 130
-0.998471, 393, 61, 456, 76
-0.998472, 81, 247, 144, 262
-0.998473, 273, 303, 336, 318
-0.998473, 177, 227, 240, 242
-0.998474, 41, 127, 104, 142
-0.998475, 321, 111, 384, 126
-0.998475, 165, 209, 180, 336
-0.998477, 377, 111, 440, 126
-0.998478, 145, 173, 208, 188
-0.998478, 1, 245, 64, 260
-0.998479, 25, 167, 88, 182
-0.998479, 417, 33, 480, 48
-0.99848, 241, 213, 304, 228
-0.99848, 249, 9, 312, 24
-0.99848, 393, 55, 456, 70
-0.998481, 201, 211, 264, 226
-0.998482, 73, 147, 136, 162
-0.998483, 193, 19, 256, 34
-0.998484, 177, 27, 240, 42
-0.998484, 385, 95, 448, 110
-0.998485, 161, 189, 224, 204
-0.998485, 49, 91, 112, 106
-0.998486, 53, 145, 68, 272
-0.998487, 37, 1, 52, 128
-0.998489, 29, 97, 44, 224
-0.998492, 25, 1, 40, 128
-0.998493, 1, 145, 16, 272
-0.998504, 47, 97, 62, 224
-0.998504, 69, 65, 84, 192
-0.998505, 85, 81, 100, 208
-0.998519, 15, 1, 30, 128
-0.99852, 357, 129, 388, 375
-0.998522, 113, 1, 144, 256
-0.998525, 159, 209, 174, 336
-0.998532, 71, 129, 86, 256
-0.998544, 41, 63, 72, 78
-0.998545, 185, 181, 216, 196
-0.998545, 369, 83, 400, 98
-0.998548, 417, 51, 448, 66
-0.998548, 49, 75, 80, 90
-0.998549, 49, 69, 80, 84
-0.998551, 345, 119, 376, 134
-0.998553, 13, 123, 44, 138
-0.998554, 79, 113, 94, 240
-0.998555, 449, 39, 480, 54
-0.998557, 261, 91, 292, 106
-0.998557, 57, 129, 88, 144
-0.998557, 109, 283, 140, 298
-0.998558, 33, 177, 64, 192
-0.998558, 145, 157, 176, 172
-0.998558, 441, 119, 472, 134
-0.998559, 429, 83, 460, 98
-0.998559, 405, 33, 436, 48
-0.99856, 185, 221, 216, 236
-0.998561, 213, 285, 244, 300
-0.998562, 429, 99, 460, 114
-0.998562, 209, 259, 240, 274
-0.998562, 405, 55, 436, 70
-0.998563, 369, 115, 400, 130
-0.998564, 245, 253, 276, 268
-0.998564, 377, 91, 408, 106
-0.998565, 79, 65, 94, 192
-0.998565, 49, 257, 80, 272
-0.998566, 429, 11, 460, 26
-0.998567, 109, 149, 140, 164
-0.998567, 97, 195, 128, 210
-0.998568, 45, 119, 76, 134
-0.998569, 197, 295, 228, 310
-0.998569, 21, 115, 52, 130
-0.99857, 217, 41, 248, 56
-0.99857, 233, 169, 264, 184
-0.998572, 285, 121, 316, 136
-0.998572, 429, 45, 460, 60
-0.998572, 229, 251, 260, 266
-0.998572, 293, 89, 324, 104
-0.998573, 229, 289, 260, 304
-0.998575, 117, 157, 148, 172
-0.998575, 225, 269, 256, 284
-0.998576, 181, 281, 212, 296
-0.998577, 37, 113, 68, 128
-0.998579, 61, 185, 92, 200
-0.998579, 45, 175, 76, 190
-0.99858, 393, 85, 424, 100
-0.99858, 217, 35, 248, 50
-0.998582, 405, 41, 436, 56
-0.998582, 245, 203, 276, 218
-0.998582, 9, 197, 40, 212
-0.998583, 117, 275, 148, 290
-0.998583, 165, 259, 196, 274
-0.998583, 409, 15, 440, 30
-0.998584, 329, 121, 360, 136
-0.998585, 245, 197, 276, 212
-0.998585, 109, 245, 140, 260
-0.998586, 297, 121, 328, 136
-0.998588, 197, 135, 228, 150
-0.998588, 125, 251, 156, 266
-0.998589, 185, 237, 216, 252
-0.998591, 445, 91, 476, 106
-0.998591, 269, 193, 300, 208
-0.998592, 169, 277, 200, 292
-0.998592, 89, 273, 120, 288
-0.998593, 97, 283, 128, 298
-0.998593, 405, 47, 436, 62
-0.998594, 1, 1, 16, 128
-0.998595, 445, 97, 476, 112
-0.998596, 253, 279, 284, 294
-0.998597, 445, 51, 476, 66
-0.998597, 209, 247, 240, 262
-0.998598, 445, 45, 476, 60
-0.998598, 55, 97, 70, 224
-0.998598, 407, 81, 422, 208
-0.9986, 149, 1, 180, 256
-0.998601, 93, 249, 124, 264
-0.998601, 97, 185, 128, 200
-0.998602, 221, 279, 252, 294
-0.998605, 209, 269, 240, 284
-0.998606, 141, 271, 172, 286
-0.998608, 177, 289, 208, 304
-0.99861, 21, 187, 52, 202
-0.998611, 217, 133, 248, 148
-0.998613, 117, 187, 148, 202
-0.998613, 53, 1, 68, 128
-0.998615, 253, 175, 284, 190
-0.998616, 45, 181, 76, 196
-0.998616, 31, 1, 46, 128
-0.998618, 153, 255, 184, 270
-0.998619, 261, 121, 292, 136
-0.998619, 57, 173, 88, 188
-0.99862, 209, 293, 240, 308
-0.998622, 429, 105, 460, 120
-0.998623, 45, 141, 76, 156
-0.998623, 209, 29, 240, 44
-0.998624, 381, 85, 412, 100
-0.998626, 193, 253, 224, 268
-0.998627, 317, 117, 348, 132
-0.99863, 45, 131, 76, 146
-0.99863, 181, 275, 212, 290
-0.998631, 57, 179, 88, 194
-0.998632, 445, 33, 476, 48
-0.998632, 429, 53, 460, 68
-0.998632, 157, 277, 188, 292
-0.998633, 69, 171, 100, 186
-0.998633, 149, 189, 180, 204
-0.998636, 57, 139, 88, 154
-0.998637, 9, 191, 40, 206
-0.998638, 241, 279, 272, 294
-0.99864, 157, 241, 188, 256
-0.998641, 193, 279, 224, 294
-0.998643, 273, 85, 304, 100
-0.998645, 77, 179, 108, 194
-0.998647, 101, 275, 132, 290
-0.998648, 429, 37, 460, 52
-0.998649, 133, 191, 164, 206
-0.998649, 141, 283, 172, 298
-0.99865, 113, 193, 144, 208
-0.998651, 53, 147, 84, 162
-0.998651, 193, 273, 224, 288
-0.998651, 59, 1, 74, 128
-0.998654, 63, 145, 78, 272
-0.998655, 301, 1, 332, 256
-0.998656, 223, 241, 238, 368
-0.998656, 11, 161, 26, 288
-0.998657, 225, 263, 256, 278
-0.998668, 243, 193, 258, 320
-0.998668, 233, 209, 248, 336
-0.998668, 217, 253, 248, 268
-0.998668, 261, 85, 292, 100
-0.998668, 185, 175, 216, 190
-0.998668, 43, 49, 58, 176
-0.998668, 9, 181, 40, 196
-0.998669, 181, 243, 212, 258
-0.998671, 459, 49, 474, 176
-0.998671, 197, 245, 228, 260
-0.998674, 313, 101, 344, 116
-0.998677, 195, 209, 210, 336
-0.99868, 237, 265, 268, 280
-0.998682, 217, 241, 232, 368
-0.998683, 257, 161, 272, 288
-0.998687, 47, 145, 62, 272
-0.998688, 51, 49, 66, 176
-0.99869, 201, 193, 216, 320
-0.998691, 237, 273, 268, 288
-0.998698, 137, 225, 152, 352
-0.998698, 57, 49, 72, 176
-0.998702, 429, 91, 460, 106
-0.99871, 291, 241, 306, 368
-0.998712, 165, 283, 196, 298
-0.998714, 229, 257, 260, 272
-0.998719, 319, 241, 334, 368
-0.998731, 209, 209, 224, 336
-0.998733, 7, 1, 22, 128
-0.998735, 249, 191, 280, 206
-0.998736, 129, 277, 160, 292
-0.998747, 121, 285, 152, 300
-0.998758, 55, 193, 70, 320
-0.998758, 207, 113, 222, 240
-0.998759, 199, 145, 214, 272
-0.998762, 401, 65, 416, 192
-0.998767, 31, 49, 46, 176
-0.998775, 443, 97, 458, 224
-0.998779, 7, 49, 22, 176
-0.99878, 5, 193, 20, 320
-0.998783, 17, 81, 32, 208
-0.998784, 457, 97, 472, 224
-0.998784, 367, 81, 382, 208
-0.998785, 153, 241, 168, 368
-0.99879, 39, 177, 54, 304
-0.99879, 261, 113, 276, 240
-0.998794, 281, 241, 296, 368
-0.998796, 299, 241, 314, 368
-0.998798, 243, 241, 258, 368
-0.998799, 191, 145, 206, 272
-0.998806, 263, 65, 278, 192
-0.998812, 97, 177, 112, 304
-0.998817, 353, 65, 368, 192
-0.99882, 23, 49, 38, 176
-0.998824, 95, 241, 110, 368
-0.998826, 45, 193, 60, 320
-0.998827, 225, 1, 240, 128
-0.998829, 373, 49, 388, 176
-0.99883, 143, 225, 158, 352
-0.998832, 463, 1, 478, 128
-0.998834, 217, 193, 232, 320
-0.998834, 433, 97, 448, 224
-0.998842, 185, 129, 200, 256
-0.998842, 317, 113, 332, 240
-0.998846, 449, 97, 464, 224
-0.99885, 33, 145, 48, 272
-0.99885, 359, 81, 374, 208
-0.99885, 87, 161, 102, 288
-0.998851, 37, 49, 52, 176
-0.998857, 335, 81, 350, 208
-0.99886, 457, 97, 488, 352
-0.99887, 21, 161, 36, 288
-0.998871, 235, 145, 250, 272
-0.998873, 19, 209, 34, 336
-0.998876, 229, 65, 244, 192
-0.998885, 323, 113, 338, 240
-0.998887, 27, 161, 42, 288
-0.998888, 333, 241, 348, 368
-0.998894, 313, 241, 328, 368
-0.998904, 57, 241, 72, 368
-0.998905, 343, 65, 358, 192
-0.998906, 305, 241, 320, 368
-0.99892, 23, 97, 38, 224
-0.998923, 267, 113, 282, 240
-0.998924, 311, 113, 326, 240
-0.998924, 265, 193, 280, 320
-0.998924, 195, 97, 210, 224
-0.99893, 271, 193, 286, 320
-0.99893, 321, 1, 352, 256
-0.998938, 275, 65, 290, 192
-0.998939, 273, 113, 288, 240
-0.998939, 131, 225, 146, 352
-0.998945, 269, 65, 284, 192
-0.998948, 9, 241, 24, 368
-0.998948, 339, 225, 354, 352
-0.998951, 395, 65, 410, 192
-0.998952, 225, 193, 240, 320
-0.998955, 283, 113, 298, 240
-0.998957, 27, 241, 42, 368
-0.998967, 329, 81, 344, 208
-0.999068, 469, 129, 500, 375
-0.999122, 113, 57, 240, 120
-0.99946, 125, 1, 156, 256
-0.999717, 163, 229, 178, 244
-0.999717, 187, 281, 202, 296
-0.999717, 205, 271, 220, 286
-0.999718, 105, 197, 120, 212
-0.999718, 329, 115, 344, 130
-0.999719, 257, 175, 272, 190
-0.999719, 373, 115, 388, 130
-0.999719, 441, 91, 456, 106
-0.99972, 197, 237, 212, 252
-0.99972, 149, 191, 164, 206
-0.99972, 279, 85, 294, 100
-0.99972, 291, 121, 306, 136
-0.999721, 233, 277, 248, 292
-0.999721, 69, 139, 84, 154
-0.999721, 127, 193, 142, 208
-0.999722, 65, 183, 80, 198
-0.999722, 377, 85, 392, 100
-0.999723, 437, 31, 452, 46
-0.999723, 23, 191, 38, 206
-0.999724, 23, 115, 38, 130
-0.999724, 459, 15, 474, 30
-0.999725, 175, 283, 190, 298
-0.999726, 161, 257, 176, 272
-0.999726, 269, 91, 284, 106
-0.999727, 419, 47, 434, 62
-0.999728, 339, 121, 354, 136
-0.999728, 217, 259, 232, 274
-0.99973, 239, 271, 254, 286
-0.99973, 361, 119, 376, 134
-0.99973, 125, 187, 140, 202
-0.999731, 431, 91, 446, 106
-0.999732, 309, 269, 324, 284
-0.999732, 159, 177, 174, 192
-0.999732, 113, 275, 128, 290
-0.999732, 135, 249, 150, 264
-0.999733, 303, 121, 318, 136
-0.999733, 3, 43, 18, 58
-0.999734, 253, 263, 268, 278
-0.999735, 215, 285, 230, 300
-0.999735, 233, 251, 248, 266
-0.999736, 317, 99, 332, 114
-0.999736, 387, 119, 402, 134
-0.999736, 315, 121, 330, 136
-0.999736, 427, 39, 442, 54
-0.999737, 279, 175, 294, 190
-0.999738, 317, 115, 332, 130
-0.999738, 139, 277, 154, 292
-0.999739, 59, 173, 74, 188
-0.999739, 413, 13, 428, 28
-0.999739, 159, 183, 174, 198
-0.999739, 75, 179, 90, 194
-0.99974, 157, 167, 172, 182
-0.999741, 187, 243, 202, 258
-0.999742, 197, 295, 212, 310
-0.999742, 167, 259, 182, 274
-0.999743, 169, 283, 184, 298
-0.999744, 61, 141, 76, 156
-0.999744, 367, 119, 382, 134
-0.999745, 249, 253, 264, 268
-0.999745, 431, 101, 446, 116
-0.999745, 229, 257, 244, 272
-0.999745, 111, 199, 126, 214
-0.999746, 29, 189, 44, 204
-0.999747, 381, 119, 396, 134
-0.999747, 13, 179, 28, 194
-0.999747, 423, 17, 438, 32
-0.999747, 297, 121, 312, 136
-0.999747, 53, 113, 68, 128
-0.999748, 285, 121, 300, 136
-0.999749, 309, 121, 324, 136
-0.999749, 241, 279, 256, 294
-0.99975, 107, 275, 122, 290
-0.99975, 263, 121, 278, 136
-0.999751, 227, 29, 242, 44
-0.999751, 157, 247, 172, 262
-0.999752, 127, 275, 142, 290
-0.999753, 205, 295, 220, 310
-0.999753, 169, 239, 184, 254
-0.999755, 399, 87, 414, 102
-0.999756, 333, 121, 348, 136
-0.999757, 101, 273, 116, 288
-0.999758, 47, 183, 62, 198
-0.999759, 227, 285, 242, 300
-0.999759, 59, 181, 74, 196
-0.999759, 197, 245, 212, 260
-0.999763, 273, 85, 288, 100
-0.999764, 159, 275, 174, 290
-0.999764, 59, 129, 74, 144
-0.999764, 121, 275, 136, 290
-0.999765, 227, 251, 242, 266
-0.999765, 181, 283, 196, 298
-0.999765, 147, 253, 162, 268
-0.999766, 105, 49, 168, 176
-0.999767, 441, 53, 456, 68
-0.999768, 215, 29, 230, 44
-0.999768, 137, 285, 152, 300
-0.99977, 251, 193, 266, 208
-0.999771, 241, 285, 256, 300
-0.999771, 129, 155, 144, 170
-0.999772, 197, 273, 212, 288
-0.999772, 235, 257, 250, 272
-0.999772, 95, 271, 110, 286
-0.999776, 247, 277, 262, 292
-0.999779, 121, 193, 136, 208
-0.99978, 65, 177, 80, 192
-0.99978, 263, 85, 278, 100
-0.99978, 215, 247, 230, 262
-0.999781, 387, 87, 402, 102
-0.999783, 155, 255, 170, 270
-0.999784, 285, 87, 300, 102
-0.999785, 131, 281, 146, 296
-0.999789, 53, 181, 68, 196
-0.999791, 187, 275, 202, 290
-0.999793, 235, 283, 250, 298
-0.999793, 245, 265, 260, 280
-0.999793, 189, 175, 204, 190
-0.999794, 261, 191, 276, 206
-0.999795, 133, 275, 148, 290
-0.999797, 323, 119, 338, 134
-0.9998, 161, 239, 176, 254
-0.999806, 179, 277, 194, 292
-0.999808, 271, 193, 286, 208
-0.999812, 223, 35, 238, 50
-0.999815, 143, 191, 158, 206
-0.999818, 187, 289, 202, 304
-0.999822, 205, 243, 220, 258
-0.999824, 157, 155, 172, 170
-0.99983, 125, 283, 140, 298
-0.999834, 135, 189, 150, 204
-0.999843, 221, 253, 236, 268
-0.999849, 249, 271, 264, 286
-0.999876, 469, 1, 500, 256
