1953
-0.317092, 1, 1, 500, 256
-0.411179, 1, 1, 500, 375
-0.417714, 1, 97, 500, 352
-0.510641, 1, 1, 256, 375
-0.53354, 97, 1, 352, 375
-0.539833, 193, 1, 448, 375
-0.589682, 65, 1, 320, 256
-0.637945, 161, 1, 416, 256
-0.694599, 257, 1, 500, 256
-0.697162, 33, 97, 288, 352
-0.776314, 193, 97, 448, 352
-0.855466, 17, 65, 144, 320
-0.858874, 33, 1, 160, 375
-0.867209, 81, 1, 208, 256
-0.867672, 193, 1, 320, 256
-0.868777, 81, 1, 208, 375
-0.877822, 145, 1, 272, 256
-0.879476, 321, 1, 448, 256
-0.881196, 257, 1, 384, 256
-0.887167, 193, 1, 320, 375
-0.88825, 369, 1, 496, 256
-0.889866, 1, 17, 500, 144
-0.890645, 97, 97, 224, 352
-0.896943, 305, 1, 432, 375
-0.90313, 129, 1, 256, 375
-0.904505, 257, 1, 384, 375
-0.908076, 1, 97, 500, 224
-0.915369, 369, 97, 496, 352
-0.917565, 1, 81, 256, 208
-0.920901, 193, 97, 320, 352
-0.921501, 305, 97, 432, 352
-0.923174, 369, 1, 496, 375
-0.923428, 145, 97, 272, 352
-0.924129, 1, 17, 256, 144
-0.935281, 97, 81, 352, 208
-0.937136, 1, 81, 128, 208
-0.938276, 257, 97, 384, 352
-0.938688, 1, 129, 64, 256
-0.938986, 225, 33, 480, 160
-0.939022, 1, 145, 128, 272
-0.941214, 1, 193, 500, 320
-0.944226, 49, 145, 112, 272
-0.944877, 97, 33, 352, 160
-0.944918, 49, 81, 112, 208
-0.945431, 33, 17, 160, 144
-0.945758, 1, 241, 500, 368
-0.947356, 25, 17, 88, 144
-0.947498, 25, 65, 88, 192
-0.94814, 25, 161, 88, 288
-0.948366, 57, 17, 120, 144
-0.949425, 257, 113, 500, 240
-0.949991, 49, 145, 176, 272
-0.950044, 1, 145, 500, 272
-0.950414, 1, 65, 64, 192
-0.951168, 129, 17, 256, 144
-0.951429, 65, 65, 192, 192
-0.951734, 81, 17, 208, 144
-0.952074, 89, 145, 152, 208
-0.952841, 9, 169, 72, 232
-0.953594, 89, 129, 152, 256
-0.954011, 145, 17, 208, 144
-0.954175, 1, 161, 256, 288
-0.95428, 1, 17, 64, 144
-0.9547, 81, 17, 144, 144
-0.954812, 81, 81, 144, 208
-0.954822, 57, 161, 120, 224
-0.955996, 177, 65, 304, 192
-0.956304, 121, 81, 184, 208
-0.956324, 257, 33, 384, 160
-0.957299, 153, 105, 216, 168
-0.957612, 337, 49, 464, 176
-0.957636, 33, 169, 96, 232
-0.957933, 153, 65, 216, 192
-0.958053, 337, 1, 464, 128
-0.958782, 233, 17, 296, 144
-0.959064, 113, 81, 240, 208
-0.959164, 193, 17, 256, 144
-0.959165, 177, 17, 304, 144
-0.959853, 121, 17, 184, 144
-0.959934, 289, 241, 352, 368
-0.960483, 33, 193, 160, 320
-0.960732, 369, 97, 496, 224
-0.96134, 97, 129, 224, 256
-0.961993, 97, 129, 352, 256
-0.962083, 321, 241, 448, 368
-0.962155, 1, 177, 64, 304
-0.963151, 193, 89, 256, 152
-0.963205, 169, 17, 232, 144
-0.963261, 217, 65, 280, 192
-0.963667, 17, 145, 80, 208
-0.964623, 241, 305, 304, 368
-0.965136, 25, 113, 88, 240
-0.965307, 185, 81, 248, 208
-0.965315, 1, 209, 256, 336
-0.96564, 57, 185, 120, 248
-0.965686, 289, 313, 352, 375
-0.965929, 345, 1, 408, 128
-0.965968, 81, 209, 208, 336
-0.966569, 73, 177, 136, 304
-0.966755, 313, 33, 376, 160
-0.966891, 273, 17, 336, 144
-0.966988, 257, 241, 500, 368
-0.967103, 25, 65, 88, 320
-0.967131, 97, 177, 160, 304
-0.967225, 305, 113, 432, 240
-0.967327, 113, 129, 176, 256
-0.96765, 41, 233, 104, 296
-0.967678, 313, 313, 376, 375
-0.968089, 17, 57, 80, 120
-0.968257, 241, 65, 304, 192
-0.96851, 417, 105, 480, 168
-0.968543, 81, 65, 144, 320
-0.968745, 33, 81, 96, 144
-0.968815, 385, 1, 448, 128
-0.968871, 129, 137, 192, 200
-0.96895, 353, 49, 416, 176
-0.969008, 161, 241, 416, 368
-0.969011, 25, 209, 88, 336
-0.969085, 393, 105, 456, 168
-0.969286, 377, 49, 440, 176
-0.969564, 369, 241, 496, 368
-0.970178, 9, 33, 72, 96
-0.970357, 241, 241, 368, 368
-0.970402, 233, 89, 296, 152
-0.970513, 417, 97, 480, 224
-0.971149, 265, 313, 328, 375
-0.971248, 113, 169, 176, 232
-0.971335, 81, 193, 144, 256
-0.971746, 361, 313, 424, 375
-0.97185, 17, 161, 144, 224
-0.971872, 225, 81, 352, 208
-0.9719, 25, 193, 88, 256
-0.972251, 321, 113, 384, 240
-0.97236, 41, 137, 104, 200
-0.972536, 161, 81, 224, 144
-0.972692, 89, 169, 152, 232
-0.972713, 265, 241, 328, 368
-0.972902, 361, 97, 424, 224
-0.972922, 193, 89, 320, 152
-0.972964, 49, 65, 112, 320
-0.973175, 65, 65, 128, 128
-0.973374, 281, 289, 344, 352
-0.97356, 425, 1, 488, 128
-0.97356, 137, 145, 200, 272
-0.97359, 321, 105, 384, 168
-0.973897, 281, 1, 344, 256
-0.974016, 1, 129, 64, 375
-0.974101, 145, 1, 208, 256
-0.974486, 113, 169, 144, 232
-0.974511, 121, 1, 184, 256
-0.97465, 345, 105, 408, 168
-0.974662, 377, 273, 440, 336
-0.97467, 281, 65, 344, 192
-0.9747, 241, 1, 304, 256
-0.974786, 45, 17, 76, 144
-0.974805, 193, 1, 256, 256
-0.974812, 97, 193, 352, 320
-0.974837, 1, 201, 64, 264
-0.974863, 417, 1, 480, 256
-0.974964, 29, 145, 60, 272
-0.975015, 129, 65, 192, 128
-0.975421, 169, 1, 232, 256
-0.975631, 49, 193, 112, 320
-0.975776, 401, 49, 464, 176
-0.975836, 185, 65, 248, 128
-0.975935, 241, 241, 304, 368
-0.976193, 113, 145, 144, 208
-0.976269, 49, 209, 112, 272
-0.976314, 37, 97, 68, 224
-0.976347, 369, 105, 496, 168
-0.976439, 177, 113, 240, 176
-0.976657, 1, 33, 128, 96
-0.976667, 13, 153, 44, 216
-0.97673, 217, 1, 280, 256
-0.976769, 33, 25, 96, 88
-0.976862, 321, 1, 384, 256
-0.976897, 217, 297, 280, 360
-0.977089, 393, 97, 456, 224
-0.977234, 177, 129, 240, 256
-0.977235, 353, 1, 416, 256
-0.977319, 189, 97, 220, 160
-0.977361, 289, 97, 352, 160
-0.977365, 33, 153, 64, 216
-0.977366, 145, 129, 272, 256
-0.977404, 17, 241, 80, 304
-0.977434, 65, 145, 192, 208
-0.977467, 361, 241, 424, 368
-0.977467, 49, 65, 80, 192
-0.977492, 21, 41, 52, 104
-0.97751, 97, 65, 160, 128
-0.977599, 113, 89, 176, 152
-0.977668, 433, 97, 464, 160
-0.977771, 225, 297, 352, 360
-0.978147, 1, 1, 64, 256
-0.978168, 257, 193, 500, 320
-0.978287, 161, 57, 224, 120
-0.978346, 205, 89, 236, 152
-0.978399, 81, 217, 144, 280
-0.978411, 377, 1, 440, 256
-0.978544, 409, 313, 472, 375
-0.978708, 193, 225, 320, 352
-0.978711, 385, 313, 448, 375
-0.978722, 1, 225, 64, 352
-0.978769, 1, 121, 64, 184
-0.978796, 113, 129, 144, 256
-0.978839, 369, 193, 496, 320
-0.979003, 197, 121, 228, 184
-0.97909, 1, 241, 128, 368
-0.979264, 337, 305, 400, 368
-0.979265, 29, 17, 60, 144
-0.979304, 65, 17, 96, 144
-0.979379, 41, 161, 72, 288
-0.979413, 321, 241, 384, 368
-0.979485, 369, 105, 432, 168
-0.979685, 217, 57, 280, 120
-0.979737, 425, 49, 488, 176
-0.979771, 313, 281, 376, 344
-0.979909, 85, 17, 116, 144
-0.980319, 157, 17, 188, 144
-0.980409, 89, 89, 152, 152
-0.980452, 209, 17, 272, 80
-0.980512, 65, 137, 128, 200
-0.980543, 17, 81, 48, 208
-0.980548, 305, 305, 432, 368
-0.980656, 145, 89, 272, 152
-0.980691, 273, 297, 304, 360
-0.980743, 45, 177, 76, 240
-0.98081, 9, 81, 72, 144
-0.980906, 9, 129, 40, 256
-0.980945, 17, 185, 144, 248
-0.981, 101, 145, 132, 208
-0.981084, 97, 81, 128, 208
-0.981147, 41, 57, 104, 120
-0.981169, 9, 1, 72, 375
-0.981203, 45, 145, 76, 208
-0.98121, 65, 145, 96, 272
-0.981267, 1, 25, 32, 88
-0.981377, 105, 193, 168, 256
-0.981382, 17, 89, 144, 152
-0.98139, 217, 17, 248, 144
-0.981405, 85, 81, 116, 208
-0.981423, 65, 65, 192, 128
-0.981431, 1, 137, 128, 200
-0.981466, 425, 9, 488, 72
-0.981484, 113, 81, 144, 208
-0.98151, 89, 177, 120, 240
-0.98154, 65, 1, 128, 375
-0.981612, 109, 17, 140, 144
-0.98167, 137, 161, 200, 224
-0.981725, 457, 97, 488, 160
-0.981763, 29, 65, 60, 128
-0.981777, 25, 177, 56, 240
-0.981789, 41, 65, 72, 128
-0.981915, 61, 81, 92, 208
-0.981935, 113, 113, 240, 176
-0.981967, 73, 81, 104, 208
-0.981975, 169, 17, 200, 144
-0.981986, 153, 97, 216, 352
-0.982045, 177, 137, 240, 200
-0.98206, 153, 25, 216, 88
-0.982103, 445, 105, 476, 168
-0.982121, 289, 105, 416, 168
-0.982166, 257, 97, 320, 160
-0.982278, 65, 89, 192, 152
-0.982328, 113, 25, 176, 88
-0.982372, 9, 49, 40, 112
-0.982447, 421, 97, 452, 160
-0.982463, 229, 17, 260, 144
-0.982469, 129, 137, 160, 200
-0.982492, 249, 281, 312, 344
-0.982505, 57, 89, 120, 152
-0.982548, 129, 241, 256, 368
-0.982548, 33, 1, 96, 375
-0.982565, 185, 65, 216, 192
-0.982598, 65, 33, 128, 96
-0.982599, 165, 81, 196, 208
-0.982601, 97, 17, 128, 144
-0.982621, 85, 161, 116, 288
-0.982755, 321, 17, 384, 80
-0.982789, 141, 17, 172, 144
-0.982857, 1, 65, 128, 128
-0.98287, 401, 273, 464, 336
-0.98288, 253, 305, 284, 368
-0.982883, 13, 17, 44, 144
-0.982948, 65, 169, 96, 232
-0.983057, 65, 177, 192, 240
-0.983087, 281, 121, 344, 184
-0.983127, 121, 17, 152, 144
-0.983184, 97, 129, 128, 256
-0.983219, 393, 17, 456, 80
-0.983337, 353, 305, 384, 368
-0.983409, 113, 57, 240, 120
-0.983431, 317, 313, 348, 375
-0.983462, 77, 193, 108, 256
-0.983509, 241, 57, 304, 120
-0.983531, 77, 241, 108, 304
-0.983537, 281, 17, 344, 80
-0.983537, 25, 265, 88, 328
-0.983541, 377, 249, 440, 312
-0.983687, 353, 33, 416, 96
-0.983687, 141, 81, 172, 208
-0.98371, 385, 241, 448, 368
-0.983758, 57, 257, 120, 320
-0.983791, 241, 17, 304, 80
-0.983806, 1, 129, 32, 192
-0.983819, 89, 33, 152, 96
-0.98391, 385, 81, 448, 144
-0.984281, 425, 81, 488, 144
-0.984325, 281, 113, 344, 240
-0.984332, 193, 17, 224, 144
-0.984359, 49, 113, 80, 240
-0.984374, 365, 305, 396, 368
-0.984387, 185, 17, 248, 80
-0.9844, 77, 217, 108, 280
-0.984415, 265, 17, 296, 144
-0.984452, 17, 73, 48, 136
-0.98446, 1, 49, 32, 176
-0.984561, 113, 145, 240, 208
-0.984603, 241, 273, 368, 336
-0.984656, 65, 225, 96, 288
-0.98467, 337, 81, 464, 144
-0.984702, 161, 57, 288, 120
-0.984716, 89, 201, 120, 264
-0.984753, 249, 17, 280, 144
-0.984793, 129, 97, 192, 352
-0.98482, 129, 81, 160, 208
-0.98482, 289, 265, 352, 328
-0.984845, 205, 17, 236, 144
-0.984972, 1, 273, 64, 336
-0.985025, 145, 193, 208, 320
-0.985073, 353, 265, 416, 328
-0.985085, 353, 105, 384, 168
-0.985249, 89, 1, 152, 375
-0.985261, 241, 297, 272, 360
-0.985281, 285, 313, 316, 375
-0.985282, 33, 209, 160, 272
-0.98536, 321, 193, 448, 320
-0.985472, 381, 313, 412, 375
-0.985508, 57, 241, 120, 368
-0.98553, 337, 305, 368, 368
-0.985538, 265, 89, 296, 152
-0.985563, 53, 177, 84, 304
-0.985572, 433, 129, 496, 192
-0.985587, 265, 57, 328, 120
-0.985638, 69, 65, 100, 128
-0.985638, 209, 81, 240, 208
-0.985644, 173, 89, 204, 152
-0.98569, 137, 185, 200, 248
-0.985712, 161, 305, 288, 368
-0.985735, 101, 193, 132, 256
-0.985816, 433, 257, 496, 320
-0.985819, 25, 193, 56, 320
-0.985847, 97, 209, 224, 272
-0.985876, 13, 193, 44, 256
-0.986021, 193, 1, 256, 375
-0.986057, 181, 17, 212, 144
-0.986087, 37, 33, 68, 96
-0.986094, 161, 97, 192, 160
-0.986152, 273, 81, 400, 144
-0.986187, 161, 17, 288, 80
-0.986249, 409, 1, 440, 128
-0.98627, 401, 241, 432, 368
-0.986286, 469, 113, 500, 176
-0.986319, 257, 17, 384, 80
-0.986322, 405, 49, 436, 176
-0.986328, 197, 65, 228, 192
-0.986377, 281, 17, 312, 144
-0.986397, 105, 129, 168, 375
-0.98645, 193, 113, 320, 176
-0.986458, 381, 1, 412, 128
-0.986476, 365, 1, 396, 128
-0.986487, 69, 145, 100, 208
-0.986499, 317, 17, 348, 144
-0.986567, 345, 1, 376, 128
-0.986622, 305, 281, 432, 344
-0.986645, 353, 313, 480, 375
-0.986649, 469, 257, 500, 320
-0.986708, 153, 65, 184, 192
-0.986742, 217, 89, 248, 152
-0.986785, 81, 33, 208, 96
-0.98684, 113, 185, 240, 248
-0.986883, 89, 241, 152, 304
-0.986908, 301, 305, 332, 368
-0.986944, 429, 81, 460, 208
-0.986993, 309, 97, 340, 160
-0.987, 365, 105, 396, 168
-0.987006, 353, 49, 384, 176
-0.987052, 89, 153, 120, 216
-0.987062, 369, 17, 496, 80
-0.987067, 129, 281, 256, 344
-0.987072, 409, 273, 440, 336
-0.987176, 237, 65, 268, 192
-0.987219, 361, 81, 424, 144
-0.987224, 153, 1, 216, 375
-0.987297, 409, 249, 472, 312
-0.987409, 469, 225, 500, 352
-0.987411, 153, 137, 216, 200
-0.98742, 165, 145, 196, 272
-0.987441, 1, 161, 32, 224
-0.98749, 437, 1, 468, 128
-0.987513, 133, 161, 164, 224
-0.987524, 185, 241, 248, 368
-0.987527, 409, 105, 440, 168
-0.987534, 221, 81, 252, 208
-0.987585, 321, 257, 448, 320
-0.987647, 417, 97, 480, 352
-0.987734, 461, 97, 492, 224
-0.987739, 65, 121, 192, 184
-0.987754, 385, 49, 416, 176
-0.987867, 445, 313, 476, 375
-0.987876, 153, 65, 184, 128
-0.987882, 173, 65, 204, 128
-0.987905, 101, 177, 132, 304
-0.987919, 69, 265, 100, 328
-0.987922, 273, 193, 400, 320
-0.987976, 105, 65, 136, 128
-0.987986, 341, 105, 372, 168
-0.987987, 65, 201, 96, 264
-0.988013, 313, 97, 376, 352
-0.98804, 441, 81, 472, 208
-0.98808, 293, 89, 324, 152
-0.988126, 369, 241, 496, 304
-0.98814, 241, 57, 368, 120
-0.988158, 265, 81, 296, 208
-0.988168, 341, 49, 372, 176
-0.988188, 305, 25, 432, 88
-0.988213, 393, 1, 424, 128
-0.988269, 369, 265, 496, 328
-0.988284, 121, 1, 184, 375
-0.98829, 13, 193, 44, 320
-0.98829, 141, 89, 172, 152
-0.988322, 121, 113, 184, 176
-0.988336, 369, 9, 432, 72
-0.988336, 313, 257, 376, 320
-0.988352, 1, 193, 32, 256
-0.98837, 29, 129, 60, 192
-0.988398, 457, 121, 488, 184
-0.988419, 57, 65, 88, 128
-0.988419, 277, 97, 308, 160
-0.988468, 369, 129, 496, 192
-0.988473, 209, 17, 336, 80
-0.988501, 241, 105, 368, 168
-0.988509, 33, 173, 96, 204
-0.988555, 417, 209, 480, 336
-0.988566, 365, 49, 396, 176
-0.988614, 185, 281, 248, 344
-0.988645, 81, 209, 112, 336
-0.988657, 21, 233, 52, 296
-0.988666, 81, 65, 112, 128
-0.988702, 293, 17, 324, 144
-0.988713, 65, 281, 128, 344
-0.988748, 393, 313, 424, 375
-0.988767, 273, 241, 304, 368
-0.988812, 141, 137, 172, 200
-0.98884, 377, 97, 440, 352
-0.988877, 1, 113, 128, 176
-0.988879, 237, 57, 268, 120
-0.988889, 345, 9, 408, 72
-0.988918, 69, 209, 100, 336
-0.988937, 193, 65, 224, 128
-0.988955, 337, 129, 400, 192
-0.988968, 321, 265, 352, 328
-0.988983, 13, 129, 44, 192
-0.988989, 141, 65, 172, 128
-0.988991, 121, 193, 184, 320
-0.98901, 129, 65, 160, 128
-0.989021, 353, 113, 384, 240
-0.989049, 129, 185, 160, 248
-0.989101, 185, 41, 248, 104
-0.989112, 301, 241, 332, 368
-0.989136, 457, 1, 488, 128
-0.989139, 201, 113, 264, 176
-0.989148, 89, 121, 152, 184
-0.989183, 25, 201, 56, 264
-0.989186, 281, 97, 344, 352
-0.989262, 225, 57, 256, 120
-0.989283, 393, 105, 424, 168
-0.989285, 381, 105, 412, 168
-0.989293, 49, 89, 80, 152
-0.989301, 193, 177, 320, 304
-0.989304, 57, 173, 120, 204
-0.989336, 145, 193, 272, 320
-0.989378, 145, 209, 208, 272
-0.989386, 329, 105, 360, 168
-0.989471, 185, 129, 216, 256
-0.989499, 257, 121, 320, 184
-0.989513, 229, 297, 260, 360
-0.989534, 445, 129, 476, 192
-0.989548, 417, 1, 480, 375
-0.989548, 93, 65, 124, 128
-0.989552, 1, 161, 64, 192
-0.989565, 253, 89, 284, 152
-0.989615, 313, 81, 376, 144
-0.989631, 281, 1, 344, 375
-0.989667, 153, 109, 216, 140
-0.989716, 217, 225, 280, 352
-0.989754, 185, 97, 248, 352
-0.989768, 417, 113, 480, 144
-0.989779, 337, 81, 400, 144
-0.989788, 57, 265, 88, 328
-0.989797, 117, 65, 148, 128
-0.989811, 289, 289, 320, 352
-0.98985, 225, 273, 288, 336
-0.98986, 33, 85, 96, 116
-0.989898, 77, 89, 108, 152
-0.989906, 37, 225, 68, 288
-0.989915, 1, 233, 128, 296
-0.989925, 9, 173, 72, 204
-0.989929, 33, 157, 96, 188
-0.989998, 425, 121, 456, 184
-0.990006, 165, 161, 196, 224
-0.990023, 1, 249, 32, 312
-0.990025, 17, 289, 144, 352
-0.990063, 33, 185, 96, 216
-0.99007, 377, 113, 408, 240
-0.990074, 101, 169, 132, 232
-0.9901, 9, 53, 72, 84
-0.990102, 409, 113, 440, 240
-0.990109, 305, 233, 432, 296
-0.99011, 225, 1, 288, 375
-0.990111, 1, 1, 32, 128
-0.990152, 361, 129, 424, 192
-0.990209, 225, 305, 288, 336
-0.990239, 333, 97, 364, 224
-0.990242, 393, 109, 456, 140
-0.990249, 321, 241, 352, 368
-0.990266, 305, 33, 336, 160
-0.990277, 57, 33, 88, 96
-0.990282, 233, 93, 296, 124
-0.990313, 329, 113, 392, 144
-0.990344, 73, 157, 136, 188
-0.99036, 53, 233, 84, 296
-0.990378, 1, 125, 64, 156
-0.990388, 329, 17, 360, 144
-0.990398, 185, 93, 248, 124
-0.990404, 9, 69, 72, 100
-0.990416, 117, 177, 148, 304
-0.990437, 249, 1, 312, 375
-0.990444, 457, 49, 488, 176
-0.99046, 329, 313, 392, 344
-0.990468, 25, 97, 56, 160
-0.990516, 289, 325, 352, 356
-0.990534, 161, 161, 224, 224
-0.990534, 217, 305, 248, 368
-0.990542, 317, 289, 348, 352
-0.990542, 41, 209, 72, 336
-0.990545, 1, 145, 64, 176
-0.990551, 361, 109, 424, 140
-0.990558, 281, 117, 344, 148
-0.990583, 369, 317, 432, 348
-0.990594, 89, 169, 152, 200
-0.990596, 269, 273, 300, 336
-0.990649, 253, 65, 284, 192
-0.990649, 1, 257, 128, 320
-0.990664, 433, 133, 496, 164
-0.990678, 193, 265, 320, 328
-0.990692, 313, 325, 376, 356
-0.990708, 65, 213, 128, 244
-0.990713, 425, 345, 488, 375
-0.990713, 389, 97, 420, 224
-0.990723, 289, 309, 352, 340
-0.990757, 97, 185, 160, 216
-0.990765, 57, 201, 120, 232
-0.990779, 1, 193, 64, 224
-0.990792, 249, 313, 312, 344
-0.990798, 345, 281, 376, 344
-0.990809, 193, 305, 448, 368
-0.990822, 397, 241, 428, 304
-0.99083, 33, 221, 96, 252
-0.99083, 49, 241, 112, 272
-0.990834, 337, 241, 400, 304
-0.990834, 1, 73, 32, 136
-0.990837, 257, 97, 320, 352
-0.990857, 433, 313, 496, 375
-0.990887, 253, 57, 284, 120
-0.990899, 237, 17, 268, 80
-0.99092, 81, 281, 112, 344
-0.990935, 57, 93, 120, 124
-0.99094, 385, 121, 448, 152
-0.990948, 265, 325, 328, 356
-0.99095, 1, 105, 32, 168
-0.990965, 113, 201, 144, 264
-0.990971, 121, 93, 184, 124
-0.990995, 305, 117, 368, 148
-0.990995, 193, 313, 256, 375
-0.991, 53, 201, 84, 264
-0.991023, 205, 65, 236, 128
-0.991026, 17, 261, 80, 292
-0.991031, 417, 101, 480, 132
-0.991042, 209, 121, 240, 184
-0.991124, 161, 97, 224, 128
-0.99114, 73, 189, 136, 220
-0.991153, 369, 333, 432, 364
-0.991193, 389, 241, 420, 368
-0.991193, 177, 113, 208, 176
-0.99123, 313, 129, 376, 192
-0.991247, 33, 277, 96, 308
-0.991253, 157, 25, 188, 88
-0.991264, 321, 1, 384, 375
-0.991282, 417, 313, 448, 375
-0.991291, 345, 329, 408, 360
-0.991295, 177, 201, 240, 264
-0.991309, 1, 273, 64, 304
-0.991323, 97, 201, 160, 232
-0.991335, 33, 65, 96, 96
-0.991354, 409, 125, 472, 156
-0.991354, 385, 305, 448, 336
-0.991356, 293, 65, 324, 192
-0.991388, 81, 93, 144, 124
-0.991402, 33, 209, 96, 240
-0.991414, 281, 341, 344, 372
-0.991423, 385, 273, 448, 304
-0.991425, 345, 97, 408, 352
-0.99143, 1, 41, 64, 72
-0.991431, 25, 289, 88, 352
-0.991447, 385, 345, 448, 375
-0.991462, 1, 9, 128, 72
-0.991498, 41, 253, 104, 284
-0.991535, 113, 149, 176, 180
-0.991543, 129, 25, 160, 88
-0.991564, 61, 89, 92, 152
-0.991564, 9, 81, 72, 112
-0.991567, 1, 89, 256, 152
-0.991593, 469, 137, 500, 200
-0.991595, 161, 273, 224, 336
-0.991596, 197, 113, 228, 240
-0.991615, 17, 249, 80, 280
-0.991636, 57, 145, 88, 208
-0.991658, 1, 9, 64, 72
-0.991679, 289, 105, 352, 136
-0.991681, 229, 89, 260, 152
-0.991686, 13, 257, 44, 320
-0.991687, 41, 121, 72, 184
-0.991692, 361, 125, 424, 156
-0.991713, 9, 285, 72, 316
-0.991715, 409, 305, 472, 336
-0.991762, 73, 81, 136, 112
-0.991766, 409, 325, 472, 356
-0.991767, 273, 93, 336, 124
-0.991772, 33, 101, 96, 132
-0.991774, 161, 241, 224, 304
-0.991775, 241, 329, 304, 360
-0.991779, 329, 125, 392, 156
-0.991788, 273, 293, 336, 324
-0.991811, 1, 237, 64, 268
-0.991845, 33, 45, 96, 76
-0.991865, 273, 129, 336, 160
-0.991875, 289, 129, 416, 192
-0.99189, 421, 1, 452, 128
-0.991891, 25, 197, 88, 228
-0.991892, 89, 213, 152, 244
-0.9919, 9, 209, 72, 240
-0.991909, 25, 145, 88, 176
-0.991932, 225, 317, 288, 348
-0.991935, 249, 297, 312, 328
-0.991939, 57, 225, 120, 256
-0.991952, 129, 181, 192, 212
-0.991955, 353, 345, 416, 375
-0.99196, 305, 337, 368, 368
-0.991976, 81, 229, 144, 260
-0.991977, 369, 289, 496, 352
-0.991991, 417, 49, 448, 176
-0.991999, 361, 273, 424, 304
-0.992021, 153, 137, 216, 168
-0.992028, 257, 341, 320, 372
-0.99204, 393, 97, 456, 128
-0.992054, 129, 165, 192, 196
-0.992062, 365, 113, 396, 240
-0.992065, 313, 269, 376, 300
-0.992107, 57, 69, 120, 100
-0.992129, 193, 105, 256, 136
-0.992133, 385, 285, 448, 316
-0.992134, 305, 129, 368, 160
-0.992152, 225, 293, 288, 324
-0.992163, 313, 297, 376, 328
-0.992171, 353, 305, 416, 336
-0.992179, 153, 121, 216, 152
-0.992187, 1, 113, 64, 144
-0.992191, 121, 193, 184, 224
-0.992194, 121, 257, 184, 320
-0.992198, 129, 89, 384, 152
-0.992222, 89, 145, 152, 176
-0.992222, 281, 97, 312, 224
-0.992223, 409, 277, 472, 308
-0.992226, 217, 81, 280, 112
-0.992243, 329, 345, 392, 375
-0.992251, 1, 97, 64, 128
-0.992251, 41, 265, 104, 296
-0.992255, 257, 113, 320, 144
-0.99226, 73, 241, 136, 272
-0.992276, 9, 153, 40, 184
-0.992281, 281, 261, 344, 292
-0.992285, 13, 53, 44, 84
-0.992286, 201, 301, 264, 332
-0.992292, 177, 117, 240, 148
-0.992344, 97, 81, 160, 112
-0.992378, 1, 153, 256, 216
-0.992406, 9, 297, 72, 328
-0.992409, 33, 289, 96, 320
-0.99241, 225, 233, 352, 296
-0.992416, 65, 261, 128, 292
-0.992418, 57, 277, 120, 308
-0.992448, 1, 177, 32, 304
-0.992454, 1, 225, 64, 256
-0.992467, 353, 41, 480, 104
-0.992476, 417, 265, 480, 296
-0.992487, 393, 1, 456, 375
-0.992491, 161, 137, 288, 200
-0.992491, 49, 249, 176, 312
-0.992492, 153, 85, 216, 116
-0.992494, 329, 41, 392, 104
-0.992498, 433, 333, 496, 364
-0.992501, 1, 65, 256, 128
-0.992502, 129, 81, 192, 112
-0.992505, 337, 241, 368, 368
-0.992505, 425, 109, 456, 140
-0.99252, 209, 333, 272, 364
-0.992534, 257, 113, 320, 240
-0.992538, 49, 257, 80, 288
-0.992547, 377, 261, 440, 292
-0.992554, 401, 265, 432, 296
-0.992558, 25, 33, 88, 64
-0.992576, 257, 129, 384, 256
-0.992577, 265, 81, 328, 112
-0.992578, 369, 33, 432, 64
-0.992596, 461, 129, 492, 160
-0.992601, 17, 165, 48, 196
-0.992604, 113, 149, 144, 180
-0.992613, 189, 113, 220, 144
-0.992619, 369, 241, 400, 368
-0.99262, 317, 113, 348, 240
-0.992642, 29, 181, 60, 212
-0.992656, 5, 189, 36, 220
-0.992661, 33, 81, 64, 112
-0.992688, 1, 49, 32, 80
-0.992711, 81, 173, 112, 204
-0.992714, 273, 313, 304, 344
-0.992726, 17, 65, 48, 96
-0.99274, 49, 177, 80, 208
-0.99274, 365, 313, 396, 344
-0.992741, 345, 113, 376, 144
-0.992743, 173, 97, 204, 128
-0.992772, 229, 301, 260, 332
-0.992775, 321, 325, 352, 356
-0.992784, 65, 305, 192, 368
-0.992788, 469, 1, 500, 128
-0.992791, 409, 113, 440, 144
-0.992803, 29, 69, 60, 100
-0.992808, 1, 121, 32, 152
-0.992822, 17, 193, 48, 224
-0.992824, 29, 157, 60, 188
-0.992827, 17, 141, 48, 172
-0.99283, 65, 153, 96, 184
-0.992837, 125, 129, 156, 256
-0.99284, 125, 185, 156, 216
-0.992841, 441, 117, 472, 148
-0.992841, 249, 309, 280, 340
-0.992843, 469, 141, 500, 172
-0.992858, 49, 89, 80, 120
-0.992862, 65, 165, 96, 196
-0.992867, 365, 329, 396, 360
-0.99287, 357, 113, 388, 144
-0.992877, 333, 117, 364, 148
-0.992877, 469, 253, 500, 284
-0.99288, 305, 57, 368, 120
-0.992881, 377, 325, 408, 356
-0.992884, 265, 97, 296, 128
-0.992891, 69, 185, 100, 216
-0.992894, 353, 309, 384, 340
-0.992894, 101, 193, 132, 224
-0.992899, 393, 113, 424, 144
-0.992902, 117, 173, 148, 204
-0.992904, 29, 49, 60, 80
-0.992904, 85, 189, 116, 220
-0.992906, 273, 301, 304, 332
-0.992907, 17, 177, 48, 208
-0.992908, 169, 193, 232, 320
-0.992908, 445, 129, 476, 160
-0.992909, 49, 305, 112, 368
-0.99291, 285, 321, 316, 352
-0.99291, 29, 193, 60, 224
-0.992911, 197, 125, 228, 156
-0.992916, 49, 161, 80, 192
-0.992922, 369, 113, 400, 144
-0.992923, 1, 137, 32, 168
-0.992924, 317, 309, 348, 340
-0.992926, 1, 61, 32, 92
-0.992927, 281, 233, 344, 296
-0.992933, 81, 205, 112, 236
-0.992942, 137, 177, 168, 208
-0.992952, 341, 317, 372, 348
-0.992959, 353, 321, 384, 352
-0.992972, 197, 93, 228, 124
-0.992973, 101, 205, 132, 236
-0.992974, 85, 217, 116, 248
-0.992979, 289, 113, 320, 144
-0.992991, 13, 41, 44, 72
-0.992993, 37, 245, 68, 276
-0.993002, 97, 113, 352, 176
-0.993006, 73, 97, 104, 128
-0.99301, 37, 169, 68, 200
-0.993013, 453, 337, 484, 368
-0.993015, 77, 153, 108, 184
-0.993021, 401, 321, 432, 352
-0.993029, 153, 93, 184, 124
-0.993032, 209, 89, 240, 120
-0.99304, 93, 153, 124, 184
-0.993043, 41, 101, 72, 132
-0.993044, 185, 101, 216, 132
-0.99305, 393, 333, 424, 364
-0.993052, 253, 321, 284, 352
-0.993056, 29, 117, 60, 148
-0.99306, 381, 113, 412, 144
-0.993062, 253, 89, 284, 120
-0.993063, 37, 273, 68, 304
-0.993066, 413, 269, 444, 300
-0.993067, 313, 117, 344, 148
-0.993072, 105, 181, 136, 212
-0.993073, 269, 325, 300, 356
-0.993076, 65, 85, 96, 116
-0.993077, 177, 193, 208, 320
-0.993078, 49, 65, 80, 96
-0.99308, 329, 309, 360, 340
-0.993082, 25, 273, 56, 304
-0.993085, 285, 333, 316, 364
-0.993087, 65, 217, 96, 248
-0.993089, 117, 201, 148, 232
-0.993115, 25, 101, 56, 132
-0.993118, 1, 33, 256, 96
-0.99312, 217, 309, 248, 340
-0.99312, 17, 261, 48, 292
-0.993125, 301, 337, 332, 368
-0.99313, 161, 109, 192, 140
-0.993132, 397, 277, 428, 308
-0.993136, 377, 313, 408, 344
-0.993138, 453, 141, 484, 172
-0.993139, 57, 189, 88, 220
-0.99314, 453, 105, 484, 136
-0.993142, 413, 341, 444, 372
-0.993155, 273, 337, 304, 368
-0.993155, 101, 165, 132, 196
-0.993158, 321, 297, 352, 328
-0.99316, 5, 165, 36, 196
-0.993165, 5, 177, 36, 208
-0.993172, 285, 345, 316, 375
-0.993172, 437, 105, 468, 136
-0.993173, 41, 209, 72, 240
-0.993175, 301, 117, 332, 148
-0.993176, 421, 241, 452, 368
-0.993178, 289, 125, 320, 156
-0.993183, 441, 341, 472, 372
-0.993184, 85, 93, 116, 124
-0.993186, 413, 281, 444, 312
-0.993186, 225, 105, 480, 168
-0.993191, 421, 121, 452, 152
-0.9932, 317, 345, 348, 375
-0.993201, 141, 141, 172, 172
-0.993204, 289, 97, 320, 128
-0.993205, 469, 273, 500, 304
-0.993208, 53, 201, 84, 232
-0.993209, 69, 205, 100, 236
-0.993211, 301, 317, 332, 348
-0.993214, 1, 37, 32, 68
-0.993216, 41, 49, 72, 80
-0.993237, 409, 129, 472, 192
-0.993279, 321, 1, 448, 64
-0.993319, 357, 241, 388, 368
-0.993332, 113, 9, 240, 72
-0.993671, 249, 257, 312, 320
-0.993694, 17, 313, 144, 375
-0.993778, 305, 81, 336, 208
-0.993822, 361, 1, 424, 375
-0.993828, 33, 113, 96, 176
-0.993905, 177, 217, 304, 280
-0.993987, 33, 177, 160, 208
-0.994052, 65, 273, 192, 336
-0.994052, 33, 1, 96, 64
-0.99408, 105, 217, 168, 280
-0.994086, 225, 281, 480, 344
-0.994125, 1, 113, 256, 176
-0.994146, 113, 233, 240, 296
-0.994202, 39, 161, 54, 224
-0.994302, 49, 169, 64, 232
-0.994339, 35, 65, 50, 128
-0.994345, 23, 49, 38, 112
-0.99439, 289, 113, 416, 144
-0.994408, 123, 145, 138, 208
-0.99441, 97, 305, 352, 368
-0.994438, 377, 225, 440, 288
-0.994454, 1, 153, 128, 184
-0.994463, 317, 65, 348, 192
-0.994481, 177, 93, 304, 124
-0.994565, 161, 241, 288, 304
-0.994569, 445, 129, 476, 256
-0.994598, 1, 201, 256, 264
-0.994659, 197, 89, 212, 152
-0.994683, 1, 189, 128, 220
-0.994696, 305, 49, 432, 112
-0.994711, 13, 137, 28, 200
-0.994713, 233, 241, 264, 368
-0.994733, 209, 89, 224, 152
-0.994759, 353, 117, 480, 148
-0.994788, 1, 97, 500, 160
-0.994792, 65, 1, 192, 64
-0.994797, 117, 145, 132, 208
-0.994823, 97, 137, 352, 200
-0.994863, 241, 129, 368, 192
-0.994915, 57, 145, 72, 208
-0.994941, 33, 213, 160, 244
-0.994967, 33, 281, 288, 344
-0.995003, 17, 49, 32, 112
-0.995023, 161, 241, 224, 368
-0.995065, 29, 41, 44, 104
-0.995072, 161, 25, 416, 88
-0.99508, 49, 165, 176, 196
-0.99513, 49, 153, 176, 184
-0.995151, 253, 241, 284, 368
-0.995153, 33, 177, 48, 240
-0.995157, 207, 113, 222, 176
-0.995182, 29, 241, 60, 368
-0.995193, 451, 105, 466, 168
-0.995194, 129, 177, 160, 304
-0.995238, 113, 185, 128, 248
-0.995265, 59, 177, 74, 240
-0.995295, 1, 225, 256, 288
-0.995296, 485, 233, 500, 296
-0.995303, 137, 129, 168, 256
-0.995307, 161, 193, 288, 256
-0.995334, 367, 305, 382, 368
-0.995352, 201, 113, 216, 176
-0.995359, 33, 201, 160, 232
-0.995367, 21, 25, 36, 88
-0.995384, 57, 225, 88, 352
-0.9954, 15, 169, 30, 232
-0.995414, 5, 129, 20, 192
-0.99542, 285, 241, 316, 368
-0.995426, 305, 333, 432, 364
-0.995429, 107, 153, 122, 216
-0.995448, 7, 25, 22, 88
-0.99545, 209, 305, 336, 336
-0.995468, 79, 153, 94, 216
-0.99549, 33, 177, 288, 240
-0.995492, 27, 153, 42, 216
-0.995493, 97, 57, 352, 120
-0.995506, 435, 97, 450, 160
-0.995529, 105, 185, 120, 248
-0.995541, 113, 257, 240, 320
-0.995576, 457, 113, 472, 176
-0.995598, 19, 137, 34, 200
-0.995599, 65, 93, 192, 124
-0.995603, 1, 165, 128, 196
-0.995629, 15, 25, 30, 88
-0.995629, 419, 265, 434, 328
-0.995634, 357, 305, 372, 368
-0.995638, 89, 153, 104, 216
-0.995668, 45, 65, 60, 128
-0.995673, 67, 153, 82, 216
-0.995674, 1, 129, 500, 192
-0.995744, 289, 193, 352, 320
-0.995754, 193, 193, 256, 320
-0.995756, 99, 145, 114, 208
-0.995761, 353, 345, 480, 375
-0.995761, 89, 177, 104, 240
-0.995769, 353, 105, 480, 136
-0.995769, 99, 185, 114, 248
-0.995802, 33, 153, 48, 216
-0.995803, 193, 113, 320, 144
-0.995807, 73, 201, 88, 264
-0.995821, 321, 305, 336, 368
-0.995822, 97, 157, 224, 188
-0.995825, 429, 97, 444, 160
-0.995827, 305, 313, 432, 344
-0.995837, 89, 225, 152, 352
-0.995841, 281, 97, 296, 160
-0.995844, 113, 305, 240, 368
-0.995857, 81, 193, 96, 256
-0.995871, 75, 233, 90, 296
-0.995889, 257, 17, 500, 80
-0.995893, 129, 153, 144, 216
-0.995898, 1, 61, 128, 92
-0.995909, 369, 265, 496, 296
-0.99592, 91, 201, 106, 264
-0.995923, 469, 49, 500, 176
-0.995938, 1, 25, 16, 88
-0.995944, 9, 241, 40, 368
-0.995955, 457, 225, 488, 352
-0.995989, 273, 125, 400, 156
-0.996009, 1, 25, 500, 88
-0.99601, 203, 89, 218, 152
-0.996011, 21, 161, 36, 224
-0.996018, 257, 129, 500, 192
-0.996032, 369, 129, 496, 160
-0.996047, 173, 1, 204, 256
-0.996053, 413, 257, 428, 320
-0.996054, 291, 305, 306, 368
-0.996094, 65, 189, 192, 220
-0.996095, 331, 313, 346, 375
-0.996114, 49, 145, 64, 208
-0.996119, 129, 109, 256, 140
-0.996122, 341, 305, 356, 368
-0.996134, 123, 169, 138, 232
-0.996138, 27, 193, 42, 256
-0.996151, 81, 201, 208, 232
-0.996152, 153, 129, 184, 256
-0.996173, 375, 305, 390, 368
-0.996174, 225, 325, 352, 356
-0.996175, 1, 257, 256, 320
-0.996189, 65, 177, 80, 240
-0.996197, 1, 105, 16, 168
-0.996215, 137, 241, 200, 368
-0.996217, 3, 193, 18, 256
-0.996221, 485, 121, 500, 184
-0.996229, 261, 297, 276, 360
-0.996243, 39, 185, 54, 248
-0.996246, 17, 93, 144, 124
-0.996265, 11, 49, 26, 112
-0.996274, 7, 161, 22, 224
-0.996276, 305, 265, 432, 296
-0.996284, 225, 81, 480, 144
-0.996286, 39, 33, 54, 96
-0.996288, 479, 249, 494, 312
-0.996289, 1, 49, 128, 80
-0.996297, 69, 65, 84, 128
-0.996304, 73, 65, 104, 320
-0.996305, 441, 105, 456, 168
-0.996309, 47, 121, 62, 184
-0.996334, 355, 105, 370, 168
-0.996334, 225, 209, 352, 272
-0.996336, 109, 1, 140, 256
-0.996345, 253, 297, 268, 360
-0.996347, 137, 145, 152, 208
-0.99638, 29, 65, 44, 128
-0.996385, 191, 89, 206, 152
-0.996401, 73, 145, 88, 208
-0.996429, 365, 105, 380, 168
-0.996456, 89, 233, 104, 296
-0.996459, 385, 305, 400, 368
-0.996476, 45, 1, 76, 256
-0.996477, 267, 305, 282, 368
-0.996491, 461, 89, 476, 152
-0.996503, 113, 93, 240, 124
-0.996512, 155, 89, 170, 152
-0.996513, 475, 113, 490, 176
-0.996514, 33, 77, 160, 108
-0.996528, 323, 273, 338, 336
-0.996531, 71, 177, 86, 240
-0.996538, 351, 305, 366, 368
-0.996543, 83, 65, 98, 128
-0.996548, 217, 89, 232, 152
-0.996552, 483, 273, 498, 336
-0.996556, 85, 65, 116, 320
-0.996557, 305, 209, 432, 272
-0.996601, 21, 73, 36, 136
-0.996603, 311, 97, 326, 160
-0.996606, 445, 1, 476, 256
-0.996606, 241, 297, 256, 360
-0.996607, 29, 65, 60, 320
-0.996614, 353, 329, 480, 360
-0.996626, 81, 141, 208, 172
-0.996646, 145, 313, 272, 344
-0.996652, 131, 177, 146, 240
-0.996661, 75, 65, 90, 128
-0.996664, 269, 1, 300, 256
-0.996666, 397, 313, 412, 375
-0.996675, 305, 345, 432, 375
-0.996678, 9, 185, 24, 248
-0.996682, 5, 1, 36, 256
-0.996682, 337, 277, 464, 308
-0.996695, 53, 73, 68, 136
-0.996699, 153, 1, 184, 256
-0.996715, 59, 65, 74, 128
-0.996725, 97, 65, 128, 320
-0.996728, 81, 217, 96, 280
-0.996744, 257, 313, 384, 344
-0.996762, 197, 1, 228, 256
-0.996764, 11, 113, 26, 176
-0.996773, 273, 301, 400, 332
-0.996782, 161, 169, 288, 232
-0.996795, 457, 313, 472, 375
-0.9968, 167, 89, 182, 152
-0.996813, 167, 65, 182, 128
-0.996824, 249, 193, 312, 320
-0.996825, 81, 213, 208, 244
-0.996831, 185, 81, 200, 144
-0.996834, 129, 161, 384, 224
-0.996835, 405, 313, 420, 375
-0.996839, 411, 313, 426, 375
-0.996841, 117, 65, 132, 128
-0.996848, 1, 141, 128, 172
-0.996852, 209, 1, 240, 256
-0.996862, 465, 121, 480, 184
-0.996872, 197, 65, 212, 128
-0.996875, 289, 1, 320, 256
-0.996891, 291, 97, 306, 160
-0.996904, 157, 65, 172, 128
-0.996921, 129, 1, 160, 256
-0.996927, 105, 209, 120, 272
-0.99693, 131, 65, 146, 128
-0.996931, 341, 1, 372, 256
-0.996945, 41, 217, 56, 280
-0.996946, 85, 257, 100, 320
-0.996946, 317, 1, 348, 256
-0.996946, 149, 57, 164, 120
-0.996949, 225, 125, 352, 156
-0.996954, 357, 281, 372, 344
-0.99696, 49, 33, 64, 96
-0.996961, 1, 273, 128, 304
-0.996961, 137, 177, 152, 240
-0.996962, 7, 233, 22, 296
-0.996963, 349, 105, 364, 168
-0.996983, 413, 281, 428, 344
-0.996984, 381, 105, 396, 168
-0.99699, 103, 65, 118, 128
-0.996994, 225, 1, 256, 256
-0.997, 21, 185, 36, 248
-0.997007, 237, 57, 252, 120
-0.997008, 473, 249, 488, 312
-0.997015, 225, 257, 480, 320
-0.997043, 61, 1, 92, 256
-0.997065, 253, 1, 284, 256
-0.997071, 1, 49, 500, 112
-0.997084, 17, 225, 144, 256
-0.997092, 101, 225, 132, 352
-0.997094, 369, 217, 496, 280
-0.997108, 17, 1, 48, 256
-0.997111, 301, 1, 332, 256
-0.997114, 241, 337, 368, 368
-0.997133, 1, 313, 500, 375
-0.997136, 241, 1, 272, 256
-0.997145, 409, 1, 440, 256
-0.997159, 47, 173, 62, 204
-0.997167, 353, 317, 480, 348
-0.997175, 357, 1, 388, 256
-0.997181, 257, 101, 384, 132
-0.997184, 97, 177, 224, 208
-0.997185, 397, 1, 428, 256
-0.997195, 185, 1, 216, 256
-0.997195, 425, 129, 456, 256
-0.997198, 385, 1, 416, 256
-0.997206, 129, 145, 256, 176
-0.997208, 433, 1, 464, 256
-0.997223, 145, 129, 272, 160
-0.997284, 329, 1, 360, 256
-0.997298, 21, 57, 36, 88
-0.997299, 461, 1, 492, 256
-0.997322, 421, 1, 452, 256
-0.997328, 373, 1, 404, 256
-0.997356, 113, 189, 240, 220
-0.997374, 1, 169, 500, 232
-0.997377, 241, 289, 368, 320
-0.997383, 203, 113, 218, 144
-0.997394, 27, 57, 42, 88
-0.997395, 225, 49, 480, 112
-0.99741, 1, 301, 128, 332
-0.997422, 459, 125, 474, 156
-0.997428, 305, 289, 432, 320
-0.997439, 161, 325, 288, 356
-0.997449, 21, 145, 36, 176
-0.997468, 97, 173, 112, 204
-0.997481, 15, 153, 30, 184
-0.997506, 5, 133, 20, 164
-0.997509, 141, 1, 172, 256
-0.997513, 289, 313, 304, 344
-0.997515, 1, 129, 128, 160
-0.997522, 161, 341, 288, 372
-0.997526, 3, 117, 18, 148
-0.997527, 209, 97, 272, 352
-0.997534, 405, 193, 436, 320
-0.997546, 197, 109, 212, 140
-0.997547, 421, 273, 436, 304
-0.99755, 21, 157, 36, 188
-0.997569, 431, 109, 446, 140
-0.99758, 33, 177, 48, 208
-0.997602, 29, 69, 44, 100
-0.997607, 199, 97, 214, 128
-0.997612, 321, 309, 336, 340
-0.997614, 57, 173, 72, 204
-0.997615, 451, 117, 466, 148
-0.997617, 65, 225, 192, 256
-0.997617, 29, 145, 44, 176
-0.997626, 109, 129, 140, 375
-0.997631, 27, 45, 42, 76
-0.997631, 17, 129, 48, 375
-0.997654, 327, 309, 342, 340
-0.997684, 405, 265, 420, 296
-0.997685, 467, 125, 482, 156
-0.997695, 129, 249, 384, 312
-0.997698, 321, 301, 448, 332
-0.997699, 329, 193, 392, 320
-0.997704, 361, 193, 424, 320
-0.997706, 97, 197, 112, 228
-0.997716, 241, 113, 368, 144
-0.997723, 29, 157, 44, 188
-0.997725, 81, 29, 208, 60
-0.997749, 415, 273, 430, 304
-0.99775, 305, 101, 432, 132
-0.997759, 39, 181, 54, 212
-0.997765, 293, 325, 308, 356
-0.997768, 377, 325, 392, 356
-0.997772, 9, 121, 24, 152
-0.997774, 361, 113, 376, 144
-0.997775, 81, 169, 96, 200
-0.997777, 5, 193, 20, 224
-0.99779, 355, 109, 370, 140
-0.997795, 17, 37, 144, 68
-0.997798, 81, 153, 96, 184
-0.997804, 81, 81, 208, 112
-0.997805, 13, 137, 28, 168
-0.997806, 39, 165, 54, 196
-0.997808, 57, 97, 88, 352
-0.997813, 45, 97, 76, 352
-0.997816, 321, 321, 336, 352
-0.997819, 261, 305, 276, 336
-0.99782, 65, 9, 320, 72
-0.997825, 371, 329, 386, 360
-0.997837, 273, 21, 400, 52
-0.99784, 161, 25, 288, 56
-0.997842, 59, 85, 74, 116
-0.997845, 1, 253, 128, 284
-0.997847, 33, 189, 48, 220
-0.997848, 283, 105, 298, 136
-0.997856, 437, 109, 452, 140
-0.99787, 103, 185, 118, 216
-0.997873, 353, 33, 480, 64
-0.997875, 369, 253, 496, 284
-0.997876, 291, 113, 306, 144
-0.997879, 353, 17, 480, 48
-0.997882, 323, 297, 338, 328
-0.997883, 341, 313, 356, 344
-0.997885, 15, 53, 30, 84
-0.997889, 473, 129, 488, 160
-0.997892, 35, 69, 50, 100
-0.997894, 129, 81, 256, 112
-0.997898, 145, 301, 272, 332
-0.997901, 485, 137, 500, 168
-0.997901, 161, 97, 192, 352
-0.997904, 41, 273, 56, 304
-0.997908, 481, 245, 496, 276
-0.997912, 19, 189, 34, 220
-0.997912, 39, 193, 54, 224
-0.997913, 39, 153, 54, 184
-0.997913, 411, 261, 426, 292
-0.997925, 125, 149, 140, 180
-0.997925, 355, 313, 370, 344
-0.997931, 333, 325, 348, 356
-0.997931, 425, 109, 440, 140
-0.997939, 463, 337, 478, 368
-0.997955, 53, 161, 68, 192
-0.997956, 49, 65, 176, 96
-0.997961, 257, 37, 384, 68
-0.997974, 367, 117, 382, 148
-0.997978, 185, 97, 216, 352
-0.997979, 97, 201, 352, 264
-0.997979, 97, 185, 112, 216
-0.99798, 177, 93, 192, 124
-0.997981, 377, 313, 392, 344
-0.997983, 209, 225, 240, 352
-0.997994, 23, 81, 38, 112
-0.998, 33, 49, 48, 80
-0.998009, 19, 133, 34, 164
-0.998009, 87, 169, 102, 200
-0.99801, 347, 117, 362, 148
-0.998015, 59, 257, 74, 288
-0.998016, 33, 237, 160, 268
-0.998019, 55, 65, 70, 96
-0.99802, 461, 97, 492, 352
-0.99803, 479, 137, 494, 168
-0.998032, 103, 153, 118, 184
-0.998035, 209, 129, 224, 160
-0.998043, 65, 89, 80, 120
-0.998043, 461, 137, 476, 168
-0.998046, 233, 301, 248, 332
-0.998048, 371, 313, 386, 344
-0.998049, 305, 253, 432, 284
-0.99805, 129, 281, 384, 344
-0.998059, 485, 265, 500, 296
-0.998061, 453, 129, 468, 160
-0.998063, 353, 289, 480, 320
-0.99807, 273, 153, 400, 216
-0.998072, 381, 113, 396, 144
-0.998074, 7, 57, 22, 88
-0.998087, 33, 97, 48, 128
-0.99809, 161, 289, 288, 320
-0.998095, 169, 93, 184, 124
-0.998096, 479, 257, 494, 288
-0.998104, 21, 69, 36, 100
-0.998106, 43, 61, 58, 92
-0.998109, 383, 321, 398, 352
-0.998111, 305, 37, 432, 68
-0.998119, 9, 149, 24, 180
-0.998119, 91, 157, 106, 188
-0.99812, 63, 169, 78, 200
-0.998125, 25, 173, 40, 204
-0.99814, 129, 177, 144, 208
-0.998141, 11, 173, 26, 204
-0.998142, 41, 101, 56, 132
-0.998144, 113, 201, 128, 232
-0.998146, 113, 225, 240, 256
-0.998149, 27, 197, 42, 228
-0.99815, 49, 257, 64, 288
-0.998152, 123, 205, 138, 236
-0.998152, 193, 89, 208, 120
-0.998153, 445, 117, 460, 148
-0.998154, 71, 265, 86, 296
-0.998156, 135, 185, 150, 216
-0.998156, 207, 93, 222, 124
-0.998156, 91, 185, 106, 216
-0.998168, 225, 21, 352, 52
-0.99817, 35, 273, 50, 304
-0.998172, 289, 277, 416, 308
-0.998174, 65, 301, 192, 332
-0.998175, 209, 153, 336, 216
-0.998175, 369, 185, 496, 248
-0.998177, 255, 305, 270, 336
-0.998181, 21, 45, 36, 76
-0.998183, 1, 105, 16, 136
-0.998183, 417, 109, 432, 140
-0.998184, 89, 205, 104, 236
-0.998188, 65, 157, 80, 188
-0.998189, 363, 325, 378, 356
-0.99819, 321, 345, 336, 375
-0.998193, 333, 309, 348, 340
-0.998195, 1, 53, 16, 84
-0.998195, 395, 113, 410, 144
-0.998196, 65, 285, 192, 316
-0.998199, 421, 121, 436, 152
-0.998206, 103, 197, 118, 228
-0.998207, 193, 193, 224, 320
-0.998208, 81, 97, 96, 128
-0.998211, 115, 149, 130, 180
-0.998214, 225, 233, 480, 296
-0.99822, 229, 313, 244, 344
-0.99822, 51, 101, 66, 132
-0.998229, 17, 285, 144, 316
-0.998233, 97, 129, 224, 160
-0.998247, 353, 93, 480, 124
-0.998274, 129, 97, 160, 352
-0.998275, 241, 277, 368, 308
-0.998289, 129, 41, 256, 72
-0.998296, 177, 149, 304, 180
-0.998296, 225, 257, 352, 288
-0.998302, 193, 41, 320, 72
-0.998302, 49, 313, 176, 344
-0.998306, 1, 73, 500, 136
-0.998307, 177, 81, 304, 112
-0.998308, 293, 113, 324, 240
-0.998392, 161, 1, 416, 64
-0.998394, 57, 103, 88, 118
-0.998394, 65, 161, 96, 176
-0.998394, 401, 327, 432, 342
-0.998395, 301, 329, 332, 344
-0.998396, 133, 143, 164, 158
-0.998396, 21, 45, 52, 60
-0.998396, 253, 315, 284, 330
-0.998397, 413, 309, 444, 324
-0.998397, 101, 179, 132, 194
-0.998398, 449, 347, 480, 362
-0.998399, 13, 201, 44, 216
-0.998399, 197, 115, 228, 130
-0.9984, 49, 91, 80, 106
-0.9984, 29, 53, 60, 68
-0.998401, 445, 333, 476, 348
-0.998402, 33, 183, 64, 198
-0.998403, 77, 173, 108, 188
-0.998404, 45, 189, 76, 204
-0.998404, 317, 321, 348, 336
-0.998407, 89, 201, 120, 216
-0.998407, 1, 149, 32, 164
-0.998407, 113, 171, 144, 186
-0.998408, 453, 141, 484, 156
-0.998408, 89, 163, 120, 178
-0.998409, 25, 101, 56, 116
-0.998409, 53, 175, 84, 190
-0.998409, 333, 325, 364, 340
-0.99841, 301, 125, 332, 140
-0.998411, 93, 173, 124, 188
-0.998414, 361, 329, 392, 344
-0.998414, 101, 217, 132, 232
-0.998414, 369, 305, 496, 336
-0.998415, 165, 109, 196, 124
-0.998415, 25, 197, 56, 212
-0.998418, 353, 49, 480, 80
-0.998419, 77, 191, 108, 206
-0.998419, 93, 187, 124, 202
-0.99842, 265, 99, 296, 114
-0.99842, 381, 325, 412, 340
-0.99842, 449, 341, 480, 356
-0.99842, 249, 307, 280, 322
-0.998421, 125, 149, 156, 164
-0.998422, 397, 321, 428, 336
-0.998422, 157, 97, 188, 112
-0.998423, 349, 319, 380, 334
-0.998424, 81, 207, 112, 222
-0.998425, 97, 153, 128, 168
-0.998427, 369, 117, 400, 132
-0.998428, 65, 255, 96, 270
-0.99843, 57, 183, 88, 198
-0.99843, 397, 279, 428, 294
-0.998432, 285, 331, 316, 346
-0.998432, 5, 47, 36, 62
-0.998434, 25, 73, 56, 88
-0.998434, 189, 107, 220, 122
-0.998434, 161, 111, 224, 126
-0.998435, 101, 203, 132, 218
-0.998437, 197, 95, 228, 110
-0.998438, 449, 129, 480, 144
-0.998438, 61, 225, 92, 240
-0.99844, 17, 267, 48, 282
-0.99844, 437, 117, 468, 132
-0.99844, 385, 117, 416, 132
-0.99844, 45, 271, 76, 286
-0.998441, 17, 25, 144, 56
-0.998441, 37, 95, 68, 110
-0.998442, 277, 325, 308, 340
-0.998442, 85, 95, 116, 110
-0.998442, 25, 59, 56, 74
-0.998444, 333, 121, 364, 136
-0.998444, 65, 93, 96, 108
-0.998445, 77, 167, 108, 182
-0.998446, 401, 117, 432, 132
-0.998446, 65, 173, 96, 188
-0.998447, 89, 179, 120, 194
-0.998447, 9, 171, 40, 186
-0.998447, 29, 81, 60, 96
-0.998448, 401, 267, 432, 282
-0.998449, 189, 101, 220, 116
-0.998449, 313, 123, 344, 138
-0.99845, 349, 327, 380, 342
-0.99845, 5, 127, 36, 142
-0.998451, 321, 311, 352, 326
-0.998451, 5, 137, 36, 152
-0.998452, 101, 223, 132, 238
-0.998453, 33, 177, 96, 192
-0.998455, 273, 313, 304, 328
-0.998455, 1, 203, 32, 218
-0.998456, 209, 93, 240, 108
-0.998458, 49, 325, 176, 356
-0.998458, 365, 323, 396, 338
-0.998458, 117, 179, 148, 194
-0.99846, 81, 215, 112, 230
-0.998465, 61, 217, 92, 232
-0.998465, 85, 223, 116, 238
-0.998467, 425, 113, 456, 128
-0.998468, 321, 129, 448, 160
-0.998468, 17, 191, 48, 206
-0.99847, 33, 165, 96, 180
-0.998471, 357, 119, 388, 134
-0.998472, 317, 327, 348, 342
-0.998474, 73, 171, 136, 186
-0.998475, 401, 333, 432, 348
-0.998481, 445, 123, 476, 138
-0.998481, 273, 319, 304, 334
-0.998482, 41, 171, 104, 186
-0.998484, 113, 153, 144, 168
-0.998485, 1, 193, 64, 208
-0.998486, 1, 161, 64, 176
-0.998486, 185, 95, 248, 110
-0.998487, 193, 123, 224, 138
-0.998488, 5, 97, 36, 352
-0.998489, 289, 125, 320, 140
-0.99849, 69, 99, 100, 114
-0.99849, 281, 123, 344, 138
-0.998491, 17, 51, 48, 66
-0.998492, 33, 183, 96, 198
-0.998492, 77, 185, 108, 200
-0.998493, 469, 147, 500, 162
-0.998494, 401, 115, 464, 130
-0.998495, 329, 119, 392, 134
-0.998495, 225, 89, 352, 120
-0.998495, 41, 177, 72, 192
-0.998496, 33, 189, 64, 204
-0.998498, 57, 99, 120, 114
-0.9985, 185, 113, 216, 128
-0.998503, 465, 139, 496, 154
-0.998504, 65, 167, 96, 182
-0.998505, 9, 143, 40, 158
-0.998505, 9, 175, 72, 190
-0.998506, 249, 93, 280, 108
-0.998508, 177, 97, 208, 112
-0.99851, 73, 179, 104, 194
-0.998511, 41, 101, 72, 116
-0.998512, 113, 147, 144, 162
-0.998513, 89, 155, 152, 170
-0.998514, 57, 177, 120, 192
-0.998515, 165, 193, 196, 320
-0.998516, 161, 105, 224, 120
-0.998517, 1, 169, 64, 184
-0.99852, 29, 169, 60, 184
-0.99852, 17, 65, 48, 80
-0.99852, 13, 59, 44, 74
-0.998521, 49, 167, 80, 182
-0.998523, 177, 107, 208, 122
-0.998523, 25, 273, 88, 288
-0.998523, 401, 273, 432, 288
-0.998525, 345, 119, 376, 134
-0.998526, 29, 161, 60, 176
-0.998526, 233, 95, 296, 110
-0.998526, 337, 319, 368, 334
-0.998526, 9, 165, 40, 180
-0.998528, 17, 83, 80, 98
-0.998529, 305, 123, 368, 138
-0.998529, 161, 97, 224, 112
-0.99853, 9, 59, 72, 74
-0.99853, 9, 71, 72, 86
-0.998535, 5, 195, 36, 210
-0.998537, 17, 151, 48, 166
-0.998537, 33, 93, 96, 108
-0.99854, 17, 263, 80, 278
-0.99854, 361, 117, 424, 132
-0.998541, 97, 237, 224, 268
-0.998542, 97, 187, 160, 202
-0.998543, 1, 155, 64, 170
-0.998543, 33, 103, 96, 118
-0.998545, 369, 153, 496, 216
-0.998545, 369, 325, 432, 340
-0.998545, 89, 165, 152, 180
-0.998547, 461, 133, 492, 148
-0.998549, 265, 341, 328, 356
-0.99855, 89, 177, 152, 192
-0.998551, 265, 325, 328, 340
-0.998551, 25, 193, 88, 208
-0.998556, 9, 65, 72, 80
-0.998556, 65, 217, 128, 232
-0.998556, 145, 173, 272, 204
-0.998556, 53, 97, 84, 112
-0.998557, 9, 157, 40, 172
-0.998557, 201, 129, 264, 256
-0.998559, 249, 319, 312, 334
-0.998562, 57, 185, 120, 200
-0.998562, 289, 325, 352, 340
-0.998563, 385, 271, 448, 286
-0.998564, 329, 125, 392, 140
-0.998564, 425, 351, 488, 366
-0.998567, 289, 319, 352, 334
-0.998568, 57, 93, 120, 108
-0.998568, 225, 311, 288, 326
-0.998569, 321, 323, 384, 338
-0.998569, 361, 277, 424, 292
-0.998569, 5, 53, 36, 68
-0.99857, 273, 89, 400, 120
-0.998573, 81, 97, 144, 112
-0.998573, 121, 97, 184, 112
-0.998574, 65, 225, 128, 240
-0.998575, 281, 335, 344, 350
-0.998578, 25, 157, 88, 172
-0.998579, 401, 345, 464, 360
-0.99858, 289, 311, 352, 326
-0.998583, 1, 305, 256, 368
-0.998583, 401, 355, 464, 370
-0.998585, 65, 191, 128, 206
-0.998586, 257, 313, 320, 328
-0.998586, 153, 117, 216, 132
-0.998586, 425, 121, 488, 136
-0.998588, 209, 93, 272, 108
-0.998588, 385, 125, 448, 140
-0.99859, 41, 267, 104, 282
-0.99859, 249, 333, 312, 348
-0.99859, 329, 329, 392, 344
-0.99859, 1, 53, 64, 68
-0.998593, 57, 161, 120, 176
-0.998595, 337, 315, 400, 330
-0.998597, 1, 145, 64, 160
-0.998597, 297, 117, 360, 132
-0.998597, 73, 207, 136, 222
-0.998597, 329, 349, 392, 364
-0.998598, 9, 77, 72, 92
-0.998598, 425, 129, 488, 144
-0.998599, 57, 261, 120, 276
-0.998599, 353, 125, 416, 140
-0.998599, 369, 319, 432, 334
-0.9986, 1, 199, 64, 214
-0.9986, 385, 283, 448, 298
-0.9986, 417, 105, 480, 120
-0.9986, 369, 331, 432, 346
-0.998603, 249, 307, 312, 322
-0.998604, 89, 193, 152, 208
-0.998604, 97, 199, 160, 214
-0.998606, 65, 155, 128, 170
-0.998606, 185, 101, 248, 116
-0.998608, 281, 349, 344, 364
-0.998609, 9, 183, 72, 198
-0.99861, 289, 359, 352, 374
-0.998612, 297, 129, 360, 144
-0.998612, 113, 175, 176, 190
-0.998612, 41, 227, 104, 242
-0.998612, 217, 305, 280, 320
-0.998612, 425, 345, 488, 360
-0.998613, 1, 127, 64, 142
-0.998614, 41, 237, 104, 252
-0.998616, 49, 207, 112, 222
-0.998616, 1, 273, 64, 288
-0.998617, 185, 109, 248, 124
-0.998617, 345, 323, 408, 338
-0.998618, 49, 197, 112, 212
-0.998618, 89, 149, 152, 164
-0.998618, 353, 111, 416, 126
-0.998619, 225, 317, 288, 332
-0.998619, 393, 329, 456, 344
-0.998621, 273, 129, 336, 144
-0.998621, 425, 357, 488, 372
-0.998622, 273, 305, 336, 320
-0.998622, 17, 137, 80, 152
-0.998624, 33, 255, 96, 270
-0.998625, 369, 347, 432, 362
-0.998625, 273, 107, 336, 122
-0.998625, 129, 157, 192, 172
-0.998625, 449, 97, 480, 352
-0.998626, 113, 147, 176, 162
-0.998626, 137, 179, 200, 194
-0.998627, 393, 277, 456, 292
-0.998629, 385, 109, 448, 124
-0.99863, 313, 313, 376, 328
-0.998631, 225, 325, 288, 340
-0.998632, 25, 49, 88, 64
-0.998633, 289, 341, 352, 356
-0.998634, 313, 111, 376, 126
-0.998634, 33, 71, 96, 86
-0.998634, 305, 333, 368, 348
-0.998635, 49, 243, 112, 258
-0.998636, 73, 231, 136, 246
-0.998636, 313, 343, 376, 358
-0.998638, 25, 279, 88, 294
-0.998648, 49, 49, 176, 80
-0.998648, 49, 249, 176, 280
-0.998664, 469, 145, 500, 272
-0.998683, 425, 161, 488, 288
-0.998684, 1, 105, 128, 136
-0.998687, 161, 221, 288, 252
-0.998724, 417, 97, 448, 352
-0.998731, 173, 97, 204, 352
-0.998732, 1, 249, 500, 312
-0.998741, 129, 61, 256, 92
-0.998754, 177, 53, 304, 84
-0.998756, 397, 97, 428, 352
-0.99876, 421, 193, 452, 320
-0.998771, 7, 113, 22, 240
-0.998782, 53, 17, 68, 144
-0.998782, 145, 161, 272, 192
-0.998792, 369, 141, 496, 172
-0.998797, 317, 97, 348, 352
-0.998818, 113, 333, 240, 364
-0.998823, 43, 17, 58, 144
-0.998829, 1, 209, 500, 272
-0.998848, 39, 145, 54, 272
-0.998854, 43, 65, 58, 192
-0.998868, 33, 65, 48, 192
-0.998878, 49, 113, 64, 240
-0.998881, 49, 265, 176, 296
-0.99889, 1, 313, 128, 344
-0.998905, 37, 17, 52, 144
-0.99891, 1, 333, 128, 364
-0.998922, 49, 161, 64, 288
-0.998926, 5, 49, 20, 176
-0.998934, 129, 225, 384, 288
-0.998936, 15, 49, 30, 176
-0.99894, 59, 17, 74, 144
-0.998943, 15, 129, 30, 256
-0.998948, 61, 161, 76, 288
-0.998951, 161, 233, 288, 264
-0.998954, 321, 177, 448, 240
-0.998954, 81, 109, 208, 140
-0.998957, 67, 17, 82, 144
-0.998964, 77, 81, 92, 208
-0.998974, 73, 145, 88, 272
-0.998977, 177, 245, 304, 276
-0.998979, 89, 81, 104, 208
-0.99898, 55, 161, 70, 288
-0.998985, 225, 245, 352, 276
-0.998993, 273, 177, 400, 240
-0.998996, 193, 269, 320, 300
-0.998999, 75, 17, 90, 144
-0.999002, 97, 269, 224, 300
-0.99901, 103, 17, 118, 144
-0.999012, 329, 97, 360, 352
-0.999016, 149, 17, 164, 144
-0.999021, 85, 17, 100, 144
-0.999023, 159, 17, 174, 144
-0.999025, 369, 241, 496, 272
-0.999029, 121, 81, 136, 208
-0.99903, 93, 17, 108, 144
-0.999032, 57, 65, 72, 192
-0.999036, 99, 81, 114, 208
-0.999038, 87, 145, 102, 272
-0.999042, 109, 81, 124, 208
-0.99905, 231, 17, 246, 144
-0.999057, 169, 17, 184, 144
-0.99906, 125, 145, 140, 272
-0.999066, 133, 81, 148, 208
-0.999067, 93, 129, 108, 256
-0.999071, 111, 161, 126, 288
-0.999075, 79, 129, 94, 256
-0.999077, 63, 81, 78, 208
-0.999079, 141, 17, 156, 144
-0.999079, 273, 57, 400, 88
-0.999081, 71, 81, 86, 208
-0.999082, 115, 17, 130, 144
-0.99909, 175, 17, 190, 144
-0.999093, 105, 161, 120, 288
-0.999097, 281, 97, 312, 352
-0.9991, 31, 145, 46, 272
-0.9991, 25, 17, 40, 144
-0.999102, 99, 129, 114, 256
-0.999103, 457, 177, 488, 304
-0.999104, 115, 81, 130, 208
-0.999111, 31, 17, 46, 144
-0.999115, 127, 17, 142, 144
-0.999116, 239, 17, 254, 144
-0.999126, 109, 17, 124, 144
-0.999133, 185, 17, 200, 144
-0.999136, 69, 209, 84, 336
-0.999145, 225, 17, 240, 144
-0.999146, 55, 113, 70, 240
-0.999148, 135, 17, 150, 144
-0.999148, 127, 81, 142, 208
-0.999154, 51, 65, 66, 192
-0.999157, 117, 129, 132, 256
-0.999162, 277, 17, 292, 144
-0.999167, 193, 137, 320, 168
-0.999167, 177, 257, 304, 288
-0.99917, 219, 17, 234, 144
-0.999176, 83, 81, 98, 208
-0.99918, 245, 17, 260, 144
-0.999181, 457, 81, 472, 208
-0.999181, 121, 17, 136, 144
-0.999181, 25, 129, 40, 256
-0.999186, 195, 65, 210, 192
-0.999194, 1, 97, 16, 224
-0.999195, 257, 17, 272, 144
-0.9992, 197, 97, 228, 352
-0.9992, 179, 81, 194, 208
-0.999205, 67, 145, 82, 272
-0.999209, 485, 225, 500, 352
-0.999209, 201, 65, 216, 192
-0.999213, 413, 241, 428, 368
-0.999225, 157, 65, 172, 192
-0.999226, 241, 77, 368, 108
-0.999227, 145, 81, 160, 208
-0.999231, 97, 257, 224, 288
-0.999238, 173, 81, 188, 208
-0.999239, 265, 17, 280, 144
-0.999246, 189, 241, 220, 368
-0.999247, 211, 81, 226, 208
-0.999252, 149, 97, 180, 352
-0.999255, 205, 17, 220, 144
-0.999262, 21, 65, 36, 192
-0.999262, 167, 65, 182, 192
-0.999263, 251, 17, 266, 144
-0.999263, 19, 193, 34, 320
-0.999271, 9, 161, 24, 288
-0.999272, 357, 49, 372, 176
-0.999273, 271, 17, 286, 144
-0.999275, 1, 345, 128, 375
-0.999275, 305, 237, 432, 268
-0.999278, 43, 193, 58, 320
-0.999279, 289, 17, 304, 144
-0.99928, 409, 1, 424, 128
-0.999281, 227, 81, 242, 208
-0.999282, 225, 57, 352, 88
-0.999283, 395, 1, 410, 128
-0.999286, 193, 17, 208, 144
-0.999289, 363, 1, 378, 128
-0.999302, 13, 1, 28, 128
-0.999305, 283, 17, 298, 144
-0.999307, 345, 97, 376, 352
-0.999309, 27, 65, 42, 192
-0.99931, 369, 1, 384, 128
-0.999311, 93, 193, 108, 320
-0.999311, 465, 97, 480, 224
-0.999316, 449, 113, 464, 240
-0.999316, 211, 17, 226, 144
-0.999317, 363, 49, 378, 176
-0.999319, 381, 1, 396, 128
-0.99932, 361, 97, 392, 352
-0.999321, 401, 49, 416, 176
-0.999325, 83, 209, 98, 336
-0.999325, 221, 65, 236, 192
-0.999326, 185, 65, 200, 192
-0.999326, 25, 193, 40, 320
-0.999327, 301, 97, 332, 352
-0.999334, 377, 97, 408, 352
-0.999337, 429, 97, 460, 352
-0.999338, 337, 241, 352, 368
-0.999338, 445, 1, 460, 128
-0.999339, 179, 145, 194, 272
-0.99934, 353, 1, 368, 128
-0.999341, 343, 17, 358, 144
-0.999344, 479, 225, 494, 352
-0.999345, 1, 177, 16, 304
-0.999347, 233, 65, 248, 192
-0.999358, 369, 49, 384, 176
-0.999362, 393, 49, 408, 176
-0.999366, 225, 201, 480, 264
-0.999366, 385, 49, 400, 176
-0.99937, 5, 1, 20, 128
-0.999373, 305, 17, 320, 144
-0.999373, 485, 97, 500, 224
-0.999374, 133, 161, 148, 288
-0.999375, 389, 1, 404, 128
-0.999378, 439, 1, 454, 128
-0.999378, 415, 49, 430, 176
-0.999383, 203, 113, 218, 240
-0.999383, 151, 65, 166, 192
-0.999384, 247, 65, 262, 192
-0.999527, 213, 97, 244, 352
-0.999574, 225, 185, 352, 248
-0.999578, 1, 1, 500, 64
-0.999611, 41, 97, 56, 112
-0.999611, 347, 317, 362, 332
-0.999611, 405, 269, 420, 284
-0.999611, 339, 123, 354, 138
-0.999612, 385, 325, 400, 340
-0.999612, 173, 103, 188, 118
-0.999612, 109, 217, 124, 232
-0.999613, 381, 119, 396, 134
-0.999613, 29, 149, 44, 164
-0.999613, 331, 311, 346, 326
-0.999614, 189, 103, 204, 118
-0.999614, 129, 195, 144, 210
-0.999614, 133, 189, 148, 204
-0.999614, 201, 99, 216, 114
-0.999615, 397, 117, 412, 132
-0.999615, 11, 201, 26, 216
-0.999615, 455, 133, 470, 148
-0.999615, 29, 161, 44, 176
-0.999615, 41, 171, 56, 186
-0.999615, 325, 313, 340, 328
-0.999616, 125, 175, 140, 190
-0.999617, 351, 325, 366, 340
-0.999617, 171, 97, 186, 112
-0.999617, 15, 135, 30, 150
-0.999617, 7, 145, 22, 160
-0.999617, 33, 51, 48, 66
-0.999617, 261, 307, 276, 322
-0.999619, 203, 117, 218, 132
-0.999619, 75, 171, 90, 186
-0.999619, 11, 129, 26, 144
-0.999619, 43, 185, 58, 200
-0.99962, 413, 335, 428, 350
-0.999621, 479, 251, 494, 266
-0.999621, 365, 119, 380, 134
-0.999621, 87, 163, 102, 178
-0.999623, 177, 97, 192, 112
-0.999624, 457, 121, 472, 136
-0.999624, 91, 179, 106, 194
-0.999624, 281, 103, 296, 118
-0.999625, 423, 283, 438, 298
-0.999625, 115, 153, 130, 168
-0.999626, 21, 139, 36, 154
-0.999627, 461, 141, 476, 156
-0.999627, 71, 181, 86, 196
-0.999627, 467, 129, 482, 144
-0.999627, 69, 167, 84, 182
-0.999628, 85, 179, 100, 194
-0.999628, 11, 55, 26, 70
-0.999628, 61, 175, 76, 190
-0.999629, 347, 121, 362, 136
-0.999629, 23, 159, 38, 174
-0.999629, 23, 151, 38, 166
-0.99963, 45, 163, 60, 178
-0.99963, 55, 175, 70, 190
-0.99963, 17, 199, 32, 214
-0.99963, 31, 71, 46, 86
-0.999631, 57, 81, 72, 96
-0.999632, 353, 319, 368, 334
-0.999632, 31, 269, 46, 284
-0.999633, 367, 329, 382, 344
-0.999634, 461, 135, 476, 150
-0.999634, 99, 221, 114, 236
-0.999634, 449, 123, 464, 138
-0.999636, 291, 325, 306, 340
-0.999636, 3, 205, 18, 220
-0.999637, 417, 271, 432, 286
-0.999639, 107, 155, 122, 170
-0.999639, 441, 115, 456, 130
-0.999642, 13, 147, 28, 162
-0.999643, 213, 127, 228, 142
-0.999644, 97, 185, 112, 200
-0.999644, 289, 311, 304, 326
-0.999646, 25, 171, 40, 186
-0.999648, 23, 79, 38, 94
-0.999648, 97, 197, 112, 212
-0.999649, 27, 63, 42, 78
-0.999649, 27, 189, 42, 204
-0.999649, 79, 177, 94, 192
-0.999651, 359, 119, 374, 134
-0.999651, 397, 271, 412, 286
-0.999651, 79, 163, 94, 178
-0.999652, 485, 141, 500, 156
-0.999653, 475, 143, 490, 158
-0.999656, 455, 127, 470, 142
-0.999657, 13, 161, 28, 176
-0.999657, 89, 171, 104, 186
-0.999657, 341, 321, 356, 336
-0.999657, 43, 103, 58, 118
-0.999658, 5, 195, 20, 210
-0.999659, 35, 63, 50, 78
-0.999659, 47, 173, 62, 188
-0.999659, 71, 95, 86, 110
-0.99966, 17, 49, 32, 64
-0.99966, 33, 193, 48, 208
-0.99966, 195, 97, 210, 112
-0.999662, 59, 99, 74, 114
-0.999662, 403, 277, 418, 292
-0.999662, 9, 137, 24, 152
-0.999665, 185, 97, 200, 112
-0.999665, 35, 167, 50, 182
-0.999665, 21, 165, 36, 180
-0.999665, 91, 185, 106, 200
-0.999666, 289, 317, 304, 332
-0.99967, 291, 125, 306, 140
-0.999671, 11, 193, 26, 208
-0.999674, 13, 155, 28, 170
-0.999675, 105, 225, 120, 240
-0.999675, 67, 219, 82, 234
-0.999675, 49, 101, 64, 116
-0.999679, 269, 97, 300, 352
-0.999681, 207, 123, 222, 138
-0.999682, 201, 111, 216, 126
-0.999685, 21, 145, 36, 160
-0.999685, 353, 121, 368, 136
-0.999688, 57, 169, 72, 184
-0.99969, 1, 131, 16, 146
-0.999691, 451, 117, 466, 132
-0.999692, 195, 107, 210, 122
-0.999692, 415, 281, 430, 296
-0.999701, 19, 63, 34, 78
-0.999703, 65, 97, 80, 112
-0.999705, 471, 135, 486, 150
-0.999714, 81, 169, 96, 184
-0.999718, 461, 127, 476, 142
-0.999719, 409, 275, 424, 290
-0.999731, 21, 193, 36, 208
-0.999732, 17, 55, 32, 70
-0.999732, 421, 277, 436, 292
-0.999733, 257, 153, 500, 216
-0.99975, 23, 47, 38, 62
-0.999754, 385, 177, 448, 304
-0.999756, 25, 57, 40, 72
-0.999782, 15, 141, 30, 156
-0.999808, 233, 97, 296, 352
-0.999927, 221, 241, 252, 368
-0.999979, 1, 289, 500, 352
-0.999987, 225, 97, 256, 352
-1.00002, 257, 177, 500, 240
-1.00017, 257, 97, 288, 352
-1.00027, 241, 97, 272, 352
-1.0005, 321, 153, 448, 216
-1.00063, 209, 129, 336, 256
-1.00067, 113, 241, 176, 368
-1.00098, 369, 145, 496, 272
-1.00112, 217, 177, 280, 304
-1.00379, 225, 113, 288, 240
-1.00996, 361, 145, 424, 272
