1895
-0.559773, 1, 65, 500, 320
-0.606938, 1, 1, 500, 333
-0.673119, 193, 1, 448, 333
-0.70815, 97, 1, 352, 333
-0.717869, 1, 1, 256, 333
-0.84256, 193, 33, 448, 288
-0.855226, 33, 33, 288, 288
-0.89536, 353, 65, 480, 320
-0.910069, 1, 129, 500, 256
-0.91333, 145, 1, 272, 333
-0.915736, 337, 1, 464, 333
-0.916703, 289, 1, 416, 333
-0.918286, 225, 1, 352, 333
-0.91941, 49, 1, 176, 333
-0.921421, 97, 1, 224, 333
-0.926993, 145, 33, 272, 288
-0.927526, 305, 1, 432, 256
-0.929746, 193, 145, 448, 272
-0.930244, 209, 33, 336, 288
-0.933331, 257, 33, 384, 288
-0.933733, 97, 33, 224, 288
-0.93446, 33, 161, 288, 288
-0.93848, 353, 113, 480, 240
-0.93903, 1, 1, 128, 333
-0.940376, 49, 33, 176, 288
-0.941367, 1, 177, 500, 304
-0.941832, 393, 97, 456, 224
-0.945224, 1, 33, 128, 288
-0.950784, 145, 161, 272, 288
-0.951537, 225, 161, 352, 288
-0.952276, 361, 129, 424, 256
-0.953962, 49, 161, 176, 288
-0.954347, 169, 161, 232, 288
-0.955853, 289, 145, 416, 272
-0.958365, 97, 161, 224, 288
-0.961133, 209, 161, 272, 288
-0.96132, 417, 97, 480, 224
-0.961762, 1, 161, 128, 288
-0.962171, 161, 193, 416, 320
-0.96237, 337, 145, 400, 272
-0.962626, 129, 161, 192, 288
-0.962857, 233, 161, 296, 288
-0.963048, 313, 161, 376, 288
-0.963362, 401, 105, 464, 168
-0.963467, 257, 97, 500, 224
-0.963702, 49, 161, 112, 288
-0.963776, 385, 137, 448, 200
-0.963858, 281, 161, 344, 288
-0.96427, 1, 81, 500, 208
-0.965269, 17, 161, 80, 288
-0.965686, 177, 169, 240, 232
-0.965972, 337, 161, 464, 288
-0.966431, 73, 161, 136, 288
-0.96724, 97, 161, 160, 288
-0.967362, 257, 161, 320, 288
-0.967568, 65, 113, 320, 240
-0.96846, 217, 169, 280, 232
-0.968663, 409, 145, 472, 272
-0.96867, 337, 161, 400, 224
-0.971316, 137, 169, 200, 232
-0.971459, 417, 169, 480, 232
-0.972741, 361, 145, 424, 208
-0.972915, 241, 169, 304, 232
-0.973373, 73, 169, 136, 232
-0.973419, 113, 169, 176, 232
-0.973487, 393, 161, 456, 224
-0.973515, 273, 169, 336, 232
-0.973979, 313, 169, 376, 232
-0.974105, 337, 153, 464, 216
-0.974562, 425, 137, 488, 200
-0.97549, 257, 193, 500, 320
-0.975824, 161, 97, 416, 224
-0.975886, 225, 113, 352, 240
-0.975976, 425, 89, 456, 152
-0.976073, 129, 113, 256, 240
-0.976832, 33, 177, 96, 240
-0.976883, 417, 97, 448, 224
-0.977514, 393, 65, 456, 320
-0.977561, 1, 169, 64, 232
-0.97764, 113, 169, 240, 232
-0.978394, 193, 169, 320, 232
-0.978535, 169, 193, 232, 256
-0.978705, 193, 209, 320, 333
-0.978727, 313, 113, 376, 240
-0.979225, 209, 193, 272, 256
-0.97923, 337, 129, 464, 192
-0.979278, 177, 113, 304, 240
-0.979593, 1, 169, 128, 232
-0.979787, 273, 169, 400, 232
-0.97997, 49, 113, 176, 240
-0.980096, 49, 169, 176, 232
-0.980752, 433, 161, 496, 288
-0.980902, 429, 81, 460, 208
-0.981059, 225, 161, 256, 288
-0.981416, 369, 145, 400, 272
-0.981941, 417, 153, 448, 216
-0.98196, 377, 113, 440, 176
-0.98213, 385, 145, 448, 272
-0.982138, 233, 169, 264, 232
-0.982172, 273, 193, 400, 320
-0.982179, 181, 169, 212, 232
-0.982252, 177, 193, 304, 256
-0.982271, 273, 97, 400, 224
-0.982277, 393, 129, 424, 256
-0.982418, 213, 169, 244, 232
-0.982437, 145, 193, 208, 256
-0.982496, 281, 113, 344, 240
-0.982798, 177, 161, 208, 288
-0.982941, 193, 161, 224, 288
-0.983105, 233, 113, 296, 240
-0.983118, 65, 209, 320, 333
-0.983134, 1, 113, 128, 240
-0.983155, 241, 193, 304, 256
-0.983166, 57, 161, 88, 288
-0.983172, 193, 169, 224, 232
-0.983356, 205, 161, 236, 288
-0.983437, 393, 129, 424, 192
-0.983497, 257, 113, 320, 240
-0.983503, 433, 137, 464, 200
-0.983531, 345, 161, 376, 288
-0.983588, 169, 169, 200, 232
-0.983608, 441, 97, 472, 224
-0.98366, 245, 161, 276, 288
-0.98367, 405, 97, 436, 224
-0.983827, 357, 161, 388, 224
-0.983957, 393, 49, 456, 176
-0.983957, 145, 209, 272, 333
-0.984104, 333, 161, 364, 288
-0.984215, 357, 145, 388, 272
-0.984361, 157, 169, 188, 232
-0.984419, 433, 113, 496, 176
-0.984422, 157, 161, 188, 288
-0.984463, 209, 113, 272, 240
-0.984473, 253, 169, 284, 232
-0.984712, 425, 89, 488, 152
-0.984738, 113, 193, 240, 256
-0.984799, 405, 113, 436, 176
-0.985046, 169, 113, 232, 240
-0.985247, 41, 153, 104, 216
-0.985367, 37, 161, 68, 288
-0.985395, 321, 161, 352, 288
-0.985397, 269, 161, 300, 288
-0.985444, 381, 129, 412, 256
-0.985461, 77, 161, 108, 288
-0.985526, 265, 169, 296, 232
-0.985548, 81, 113, 144, 240
-0.985553, 337, 65, 464, 192
-0.985646, 417, 65, 480, 320
-0.985935, 57, 113, 120, 240
-0.985957, 429, 129, 460, 256
-0.986081, 305, 161, 336, 288
-0.986098, 337, 169, 368, 232
-0.986113, 141, 169, 172, 232
-0.986127, 89, 169, 120, 232
-0.986154, 61, 169, 92, 232
-0.986209, 257, 161, 288, 288
-0.986389, 25, 161, 56, 288
-0.986409, 281, 169, 312, 232
-0.986412, 417, 113, 448, 176
-0.986421, 377, 145, 408, 208
-0.986423, 321, 169, 352, 232
-0.986436, 117, 169, 148, 232
-0.986453, 121, 113, 184, 240
-0.986455, 401, 81, 464, 144
-0.986463, 337, 105, 464, 168
-0.986465, 89, 161, 120, 288
-0.986577, 301, 169, 332, 232
-0.986665, 65, 193, 192, 256
-0.98667, 101, 169, 132, 232
-0.986684, 145, 113, 208, 240
-0.986749, 293, 161, 324, 288
-0.986896, 337, 97, 400, 224
-0.986912, 105, 161, 136, 288
-0.987131, 369, 177, 496, 240
-0.987162, 281, 145, 312, 272
-0.987232, 17, 113, 80, 240
-0.987406, 145, 161, 176, 288
-0.987408, 369, 65, 432, 320
-0.987526, 225, 193, 352, 256
-0.987538, 1, 193, 128, 256
-0.987613, 125, 161, 156, 288
-0.987764, 385, 185, 448, 248
-0.987832, 305, 145, 368, 208
-0.98795, 361, 177, 424, 240
-0.988225, 1, 193, 64, 256
-0.988276, 129, 169, 160, 232
-0.988373, 201, 209, 264, 333
-0.988546, 145, 217, 272, 280
-0.988905, 49, 169, 80, 232
-0.988955, 77, 177, 108, 240
-0.988958, 449, 169, 480, 232
-0.989106, 153, 217, 216, 280
-0.989194, 13, 161, 44, 288
-0.989245, 177, 217, 240, 280
-0.989324, 197, 193, 228, 256
-0.989508, 433, 169, 464, 232
-0.989555, 433, 49, 496, 176
-0.989572, 385, 137, 448, 168
-0.989757, 177, 193, 208, 256
-0.989917, 393, 1, 456, 333
-0.990033, 321, 177, 448, 240
-0.990041, 337, 33, 400, 288
-0.990054, 405, 153, 436, 216
-0.990169, 401, 109, 464, 140
-0.990188, 265, 193, 328, 256
-0.990189, 393, 125, 456, 156
-0.99034, 169, 33, 232, 288
-0.990504, 377, 153, 440, 184
-0.990516, 345, 201, 408, 264
-0.990573, 37, 169, 68, 232
-0.990574, 73, 145, 136, 208
-0.990592, 169, 145, 232, 208
-0.99062, 257, 33, 500, 160
-0.990624, 97, 193, 160, 256
-0.990647, 417, 97, 480, 128
-0.990659, 321, 201, 448, 264
-0.990659, 421, 177, 452, 240
-0.99071, 121, 145, 184, 208
-0.990715, 353, 193, 416, 320
-0.990858, 461, 169, 492, 232
-0.990912, 1, 161, 32, 288
-0.990974, 425, 173, 488, 204
-0.990992, 33, 201, 96, 264
-0.991041, 73, 193, 136, 256
-0.991069, 221, 193, 252, 256
-0.991114, 81, 209, 208, 333
-0.991233, 169, 201, 232, 232
-0.991273, 49, 145, 176, 208
-0.991286, 177, 189, 240, 220
-0.991322, 169, 173, 232, 204
-0.991358, 209, 33, 272, 288
-0.991378, 33, 177, 96, 208
-0.991399, 337, 161, 400, 192
-0.991413, 425, 157, 488, 188
-0.991433, 297, 33, 360, 288
-0.991434, 81, 173, 144, 204
-0.991453, 217, 201, 280, 232
-0.991458, 313, 169, 376, 200
-0.99148, 401, 161, 464, 192
-0.99151, 145, 173, 208, 204
-0.99152, 217, 173, 280, 204
-0.991543, 273, 173, 336, 204
-0.991553, 241, 145, 368, 208
-0.991576, 289, 145, 416, 208
-0.991578, 401, 173, 464, 204
-0.991597, 105, 169, 168, 200
-0.991611, 257, 161, 500, 224
-0.991626, 21, 169, 52, 232
-0.991666, 425, 1, 488, 333
-0.991679, 241, 33, 304, 288
-0.991685, 377, 193, 440, 320
-0.991765, 169, 1, 232, 333
-0.991795, 97, 145, 160, 208
-0.991808, 1, 217, 64, 280
-0.991825, 201, 189, 264, 220
-0.991842, 145, 145, 208, 208
-0.991847, 241, 173, 304, 204
-0.991853, 193, 173, 256, 204
-0.991893, 57, 177, 120, 208
-0.99194, 249, 193, 312, 224
-0.991941, 97, 217, 224, 280
-0.991966, 233, 193, 264, 256
-0.991987, 5, 169, 36, 232
-0.991993, 345, 113, 376, 240
-0.992003, 345, 1, 408, 333
-0.992007, 177, 209, 240, 333
-0.992046, 425, 137, 488, 168
-0.992052, 1, 169, 64, 200
-0.992062, 145, 193, 208, 224
-0.992086, 369, 1, 432, 333
-0.99209, 129, 33, 192, 288
-0.992144, 393, 93, 456, 124
-0.992148, 377, 73, 440, 136
-0.992193, 353, 149, 416, 180
-0.992221, 41, 165, 104, 196
-0.992252, 433, 125, 496, 156
-0.992267, 445, 105, 476, 168
-0.992287, 1, 193, 64, 224
-0.992308, 165, 193, 196, 256
-0.992314, 429, 93, 460, 124
-0.992327, 273, 145, 336, 208
-0.992354, 145, 205, 208, 236
-0.992408, 97, 145, 224, 208
-0.992432, 193, 201, 256, 232
-0.992494, 321, 201, 384, 264
-0.992566, 129, 217, 192, 280
-0.992568, 281, 193, 344, 224
-0.992568, 193, 1, 256, 333
-0.992592, 1, 145, 128, 208
-0.992604, 169, 213, 232, 244
-0.992619, 377, 181, 440, 212
-0.992645, 217, 145, 280, 208
-0.992645, 241, 145, 304, 208
-0.992653, 369, 285, 432, 316
-0.992679, 369, 201, 496, 264
-0.992698, 253, 193, 284, 256
-0.992699, 433, 113, 496, 144
-0.992716, 329, 137, 392, 200
-0.992772, 121, 189, 184, 220
-0.992775, 393, 137, 424, 168
-0.992777, 401, 149, 464, 180
-0.992779, 129, 1, 192, 333
-0.992826, 225, 189, 288, 220
-0.992859, 121, 193, 184, 256
-0.99292, 241, 1, 304, 333
-0.992924, 369, 297, 432, 328
-0.992929, 417, 153, 448, 184
-0.992945, 1, 145, 64, 208
-0.992955, 361, 137, 424, 168
-0.992985, 289, 161, 352, 192
-0.992988, 121, 201, 184, 232
-0.992997, 73, 189, 136, 220
-0.993007, 97, 189, 160, 220
-0.993028, 9, 181, 72, 212
-0.99303, 193, 145, 320, 208
-0.99304, 177, 205, 208, 236
-0.993055, 145, 221, 208, 252
-0.993062, 401, 185, 464, 216
-0.993068, 185, 173, 216, 204
-0.99308, 201, 173, 232, 204
-0.993085, 433, 157, 464, 188
-0.993085, 81, 177, 112, 208
-0.993089, 265, 33, 328, 288
-0.993097, 321, 209, 448, 333
-0.993098, 313, 189, 376, 220
-0.993103, 65, 161, 128, 192
-0.993112, 309, 173, 340, 204
-0.993112, 161, 169, 416, 232
-0.993113, 361, 161, 392, 192
-0.993114, 177, 161, 240, 192
-0.993122, 165, 173, 196, 204
-0.993125, 337, 169, 368, 200
-0.993127, 425, 173, 456, 204
-0.993129, 61, 173, 92, 204
-0.99313, 417, 141, 448, 172
-0.993131, 449, 173, 480, 204
-0.993131, 197, 189, 228, 220
-0.993136, 105, 169, 136, 200
-0.993156, 297, 173, 328, 204
-0.99316, 425, 105, 456, 136
-0.993167, 369, 81, 432, 208
-0.993169, 217, 1, 280, 333
-0.993169, 325, 173, 356, 204
-0.993176, 281, 173, 312, 204
-0.993177, 401, 121, 432, 152
-0.993177, 217, 201, 248, 232
-0.993186, 433, 85, 496, 116
-0.993187, 349, 165, 380, 196
-0.993193, 377, 197, 440, 228
-0.993194, 209, 217, 272, 248
-0.993195, 149, 173, 180, 204
-0.993198, 89, 201, 152, 232
-0.993199, 213, 173, 244, 204
-0.993203, 401, 289, 464, 320
-0.993209, 441, 161, 472, 288
-0.99321, 137, 173, 168, 204
-0.993216, 229, 173, 260, 204
-0.993235, 193, 217, 320, 280
-0.993236, 117, 169, 148, 200
-0.993242, 373, 153, 404, 184
-0.993244, 145, 161, 208, 192
-0.993249, 249, 173, 280, 204
-0.99325, 261, 173, 292, 204
-0.993252, 429, 141, 460, 172
-0.993255, 173, 193, 204, 224
-0.993255, 345, 289, 408, 320
-0.993256, 185, 189, 216, 220
-0.993256, 273, 193, 400, 256
-0.99326, 93, 173, 124, 204
-0.993269, 105, 33, 168, 288
-0.993278, 249, 197, 280, 228
-0.993278, 413, 105, 444, 136
-0.993288, 157, 193, 188, 224
-0.993299, 49, 173, 80, 204
-0.993304, 369, 121, 432, 152
-0.993305, 209, 217, 272, 280
-0.993318, 209, 189, 240, 220
-0.993321, 437, 177, 468, 208
-0.993324, 313, 1, 376, 333
-0.993325, 37, 177, 68, 208
-0.993329, 313, 153, 376, 184
-0.993335, 461, 173, 492, 204
-0.993336, 257, 161, 320, 192
-0.993338, 197, 201, 228, 232
-0.993343, 121, 213, 184, 244
-0.993344, 381, 141, 412, 172
-0.993354, 353, 193, 416, 224
-0.993357, 413, 117, 444, 148
-0.99337, 413, 173, 444, 204
-0.993374, 21, 169, 52, 200
-0.993379, 229, 201, 260, 232
-0.993379, 9, 197, 40, 228
-0.99338, 233, 161, 296, 192
-0.993381, 33, 169, 288, 232
-0.993382, 441, 121, 472, 152
-0.993409, 145, 209, 208, 333
-0.993417, 9, 169, 40, 200
-0.993422, 81, 165, 112, 196
-0.993434, 361, 105, 424, 136
-0.993434, 113, 157, 176, 188
-0.993441, 237, 189, 268, 220
-0.993441, 221, 189, 252, 220
-0.993444, 445, 109, 476, 140
-0.993448, 249, 217, 312, 248
-0.993448, 353, 205, 416, 236
-0.99345, 157, 205, 188, 236
-0.99345, 201, 161, 264, 192
-0.993451, 277, 193, 308, 224
-0.993453, 37, 165, 68, 196
-0.993472, 177, 225, 240, 256
-0.993472, 245, 113, 276, 240
-0.993475, 421, 129, 452, 160
-0.993475, 89, 189, 120, 220
-0.993481, 261, 193, 292, 224
-0.993487, 1, 217, 128, 280
-0.993491, 409, 301, 472, 332
-0.993492, 441, 133, 472, 164
-0.993493, 381, 289, 412, 320
-0.993504, 101, 189, 132, 220
-0.993514, 409, 177, 440, 240
-0.99352, 337, 133, 400, 164
-0.99352, 121, 189, 152, 220
-0.993525, 137, 189, 168, 220
-0.993526, 405, 161, 436, 192
-0.993529, 273, 205, 336, 236
-0.99353, 289, 193, 352, 256
-0.993538, 289, 189, 320, 220
-0.993538, 49, 189, 112, 220
-0.993541, 445, 97, 476, 128
-0.993543, 393, 293, 424, 324
-0.993543, 345, 181, 408, 212
-0.99356, 301, 189, 332, 220
-0.993564, 69, 185, 100, 216
-0.993568, 21, 185, 52, 216
-0.993569, 405, 141, 436, 172
-0.993569, 401, 181, 432, 212
-0.993572, 1, 205, 64, 236
-0.993582, 409, 289, 440, 320
-0.993588, 393, 281, 424, 312
-0.993593, 389, 185, 420, 216
-0.993607, 321, 161, 352, 192
-0.993607, 377, 169, 440, 200
-0.993608, 241, 217, 304, 280
-0.993611, 249, 185, 280, 216
-0.993625, 185, 161, 216, 192
-0.993639, 165, 161, 196, 192
-0.99364, 121, 201, 152, 232
-0.993641, 357, 149, 388, 180
-0.993646, 69, 161, 100, 192
-0.993651, 57, 65, 120, 320
-0.993652, 329, 113, 360, 240
-0.993653, 169, 221, 200, 252
-0.993655, 201, 221, 232, 252
-0.993657, 49, 161, 80, 192
-0.993661, 345, 301, 408, 332
-0.993663, 369, 93, 432, 124
-0.993663, 157, 217, 188, 248
-0.99367, 317, 189, 348, 220
-0.993678, 345, 153, 376, 184
-0.993681, 149, 161, 180, 192
-0.993682, 369, 289, 400, 320
-0.993683, 381, 301, 412, 332
-0.993685, 109, 201, 140, 232
-0.993685, 1, 157, 64, 188
-0.993687, 65, 201, 128, 232
-0.993689, 377, 125, 408, 156
-0.99369, 449, 85, 480, 116
-0.993694, 369, 189, 400, 220
-0.993695, 129, 161, 160, 192
-0.993696, 397, 101, 428, 132
-0.9937, 393, 149, 424, 180
-0.993702, 201, 161, 232, 192
-0.993708, 425, 185, 488, 216
-0.993711, 217, 229, 280, 260
-0.993713, 249, 161, 280, 192
-0.993715, 429, 117, 460, 148
-0.993717, 301, 161, 332, 192
-0.993718, 93, 161, 124, 192
-0.993719, 413, 193, 444, 224
-0.993719, 261, 161, 292, 192
-0.99372, 77, 197, 108, 228
-0.99372, 333, 157, 364, 188
-0.99372, 221, 161, 252, 192
-0.993723, 237, 161, 268, 192
-0.993723, 273, 161, 304, 192
-0.993723, 285, 161, 316, 192
-0.993731, 225, 221, 256, 252
-0.993738, 89, 157, 152, 188
-0.993739, 233, 113, 264, 240
-0.993739, 137, 205, 168, 236
-0.993743, 433, 81, 464, 112
-0.993744, 425, 185, 456, 216
-0.99375, 393, 197, 424, 228
-0.993751, 329, 189, 360, 220
-0.993752, 105, 1, 168, 333
-0.993752, 289, 1, 352, 333
-0.993755, 89, 201, 120, 232
-0.993758, 289, 201, 320, 232
-0.993762, 117, 157, 148, 188
-0.993763, 369, 301, 400, 332
-0.993765, 5, 209, 36, 240
-0.993767, 461, 161, 492, 192
-0.993768, 253, 217, 284, 248
-0.993771, 217, 113, 248, 240
-0.993778, 329, 201, 392, 232
-0.99378, 433, 297, 496, 328
-0.993789, 265, 1, 328, 333
-0.993794, 241, 229, 304, 260
-0.993802, 345, 113, 408, 176
-0.993803, 345, 121, 408, 152
-0.993809, 25, 205, 88, 236
-0.993832, 25, 193, 88, 224
-0.993836, 97, 213, 160, 244
-0.993842, 9, 301, 72, 332
-0.993843, 249, 205, 312, 236
-0.993852, 337, 157, 464, 188
-0.993853, 209, 301, 272, 332
-0.993864, 401, 197, 464, 228
-0.993869, 369, 273, 432, 304
-0.993875, 65, 1, 128, 333
-0.993879, 401, 81, 464, 112
-0.993888, 145, 145, 272, 208
-0.993893, 25, 221, 88, 252
-0.993911, 121, 225, 184, 256
-0.993915, 241, 301, 304, 332
-0.993923, 309, 113, 340, 240
-0.993949, 401, 277, 464, 308
-0.993958, 1, 217, 64, 248
-0.993966, 73, 213, 136, 244
-0.993968, 265, 113, 296, 240
-0.993976, 49, 217, 112, 248
-0.993989, 457, 161, 488, 288
-0.99401, 297, 205, 360, 236
-0.99402, 321, 213, 384, 244
-0.99402, 305, 293, 368, 324
-0.994023, 185, 301, 248, 332
-0.994054, 273, 221, 336, 252
-0.994069, 377, 81, 440, 112
-0.994074, 345, 277, 408, 308
-0.994093, 265, 297, 328, 328
-0.994118, 25, 153, 88, 184
-0.994136, 161, 237, 224, 268
-0.994145, 1, 17, 500, 144
-0.994152, 209, 201, 240, 264
-0.994153, 265, 233, 328, 264
-0.994164, 297, 217, 360, 248
-0.994174, 1, 233, 64, 264
-0.994177, 185, 237, 248, 268
-0.994179, 425, 277, 488, 308
-0.99418, 97, 229, 160, 260
-0.994185, 73, 225, 136, 256
-0.994187, 361, 225, 424, 256
-0.994237, 73, 153, 104, 216
-0.994239, 161, 301, 224, 332
-0.994239, 401, 225, 464, 256
-0.994255, 33, 233, 96, 264
-0.994435, 337, 81, 464, 144
-0.994449, 225, 209, 288, 333
-0.994575, 293, 113, 324, 240
-0.994605, 81, 33, 144, 288
-0.994634, 425, 33, 456, 160
-0.994766, 1, 169, 500, 232
-0.994796, 257, 217, 384, 280
-0.994801, 425, 201, 488, 264
-0.994835, 49, 217, 176, 280
-0.99486, 41, 1, 104, 333
-0.99491, 417, 161, 448, 288
-0.994993, 57, 217, 120, 280
-0.995032, 205, 113, 236, 240
-0.995053, 77, 113, 108, 240
-0.995105, 469, 161, 500, 288
-0.995157, 1, 1, 64, 333
-0.995162, 177, 113, 208, 240
-0.995175, 369, 97, 400, 224
-0.995208, 289, 113, 416, 176
-0.995208, 385, 273, 448, 333
-0.995232, 333, 145, 364, 208
-0.995263, 89, 113, 120, 240
-0.995308, 149, 113, 180, 240
-0.995317, 187, 169, 202, 232
-0.995362, 129, 201, 384, 264
-0.995394, 433, 65, 496, 128
-0.995394, 193, 145, 256, 208
-0.995413, 369, 141, 496, 172
-0.995437, 439, 89, 454, 152
-0.995447, 25, 225, 88, 288
-0.995564, 101, 113, 132, 240
-0.995576, 329, 209, 392, 333
-0.995581, 121, 113, 152, 240
-0.995599, 179, 169, 194, 232
-0.995615, 49, 173, 176, 204
-0.995652, 369, 129, 496, 160
-0.995655, 251, 169, 266, 232
-0.99567, 219, 169, 234, 232
-0.995679, 429, 65, 460, 128
-0.995688, 57, 113, 88, 240
-0.99569, 437, 137, 452, 200
-0.9957, 241, 169, 256, 232
-0.995701, 229, 169, 244, 232
-0.995727, 197, 169, 212, 232
-0.995733, 97, 173, 224, 204
-0.995804, 207, 169, 222, 232
-0.99588, 431, 153, 446, 216
-0.995943, 153, 193, 184, 256
-0.996028, 171, 169, 186, 232
-0.99605, 393, 177, 424, 240
-0.996051, 235, 169, 250, 232
-0.996065, 123, 169, 138, 232
-0.996067, 5, 201, 36, 264
-0.996084, 225, 193, 480, 256
-0.996095, 153, 169, 168, 232
-0.996098, 143, 169, 158, 232
-0.996117, 193, 113, 224, 240
-0.996139, 137, 113, 168, 240
-0.996168, 413, 113, 428, 176
-0.996178, 261, 169, 276, 232
-0.996179, 257, 137, 500, 200
-0.99618, 133, 169, 148, 232
-0.996199, 165, 169, 180, 232
-0.996199, 213, 169, 228, 232
-0.996202, 105, 169, 120, 232
-0.996233, 161, 201, 288, 232
-0.996238, 401, 129, 416, 192
-0.99628, 161, 113, 192, 240
-0.996308, 113, 169, 128, 232
-0.996357, 381, 153, 396, 216
-0.996371, 105, 217, 168, 280
-0.996375, 353, 273, 480, 333
-0.996382, 113, 193, 240, 224
-0.99639, 359, 161, 374, 224
-0.996417, 1, 65, 64, 320
-0.996442, 267, 169, 282, 232
-0.996449, 373, 161, 388, 224
-0.996461, 33, 33, 96, 288
-0.996473, 295, 169, 310, 232
-0.996476, 1, 177, 128, 208
-0.996525, 153, 145, 184, 208
-0.996542, 159, 169, 174, 232
-0.996561, 275, 169, 290, 232
-0.996567, 301, 169, 316, 232
-0.996582, 241, 173, 368, 204
-0.996583, 281, 169, 296, 232
-0.996585, 343, 169, 358, 232
-0.99659, 193, 173, 320, 204
-0.996591, 353, 113, 480, 144
-0.996591, 351, 169, 366, 232
-0.996597, 313, 169, 328, 232
-0.9966, 33, 209, 288, 272
-0.996601, 287, 169, 302, 232
-0.996606, 323, 169, 338, 232
-0.996612, 407, 121, 422, 184
-0.996616, 307, 169, 322, 232
-0.996616, 353, 225, 480, 288
-0.996625, 333, 169, 348, 232
-0.996679, 113, 205, 240, 236
-0.996682, 433, 113, 464, 176
-0.9967, 67, 169, 82, 232
-0.996704, 369, 173, 496, 204
-0.996734, 367, 161, 382, 224
-0.996767, 447, 97, 462, 160
-0.996781, 99, 169, 114, 232
-0.996835, 265, 217, 328, 280
-0.996845, 425, 145, 440, 208
-0.996855, 177, 189, 304, 220
-0.996869, 369, 185, 400, 248
-0.996877, 321, 169, 448, 200
-0.996896, 65, 185, 192, 216
-0.996902, 173, 217, 204, 280
-0.996913, 181, 193, 196, 256
-0.996917, 395, 137, 410, 200
-0.996943, 45, 145, 76, 208
-0.996943, 141, 145, 172, 208
-0.99695, 269, 193, 300, 256
-0.996951, 405, 177, 436, 304
-0.996962, 357, 137, 388, 200
-0.996982, 91, 169, 106, 232
-0.996989, 389, 145, 404, 208
-0.996997, 209, 201, 336, 232
-0.997018, 73, 169, 88, 232
-0.997021, 385, 217, 448, 280
-0.997028, 193, 193, 208, 256
-0.997034, 121, 145, 152, 208
-0.997044, 321, 141, 448, 172
-0.997064, 81, 217, 144, 280
-0.997088, 145, 173, 272, 204
-0.997099, 449, 81, 480, 144
-0.997101, 187, 193, 202, 256
-0.997103, 45, 169, 60, 232
-0.997112, 51, 169, 66, 232
-0.997141, 57, 177, 72, 240
-0.997149, 101, 193, 132, 256
-0.997159, 109, 145, 140, 208
-0.997167, 433, 89, 448, 152
-0.997173, 437, 161, 452, 224
-0.997183, 423, 105, 438, 168
-0.997207, 209, 209, 240, 333
-0.997209, 29, 193, 60, 256
-0.997225, 321, 145, 352, 208
-0.997229, 1, 189, 128, 220
-0.99725, 81, 177, 96, 240
-0.997262, 1, 165, 128, 196
-0.997267, 37, 113, 68, 240
-0.997284, 393, 65, 424, 192
-0.997285, 301, 145, 332, 208
-0.997297, 185, 145, 216, 208
-0.997312, 129, 145, 384, 208
-0.99733, 229, 201, 244, 264
-0.997374, 441, 113, 456, 176
-0.997392, 257, 113, 500, 176
-0.997424, 431, 177, 446, 240
-0.997454, 465, 169, 480, 232
-0.997456, 39, 169, 54, 232
-0.997459, 305, 273, 432, 333
-0.99748, 65, 201, 192, 232
-0.997486, 285, 145, 316, 208
-0.997503, 455, 169, 470, 232
-0.997509, 257, 193, 384, 224
-0.997544, 169, 145, 200, 208
-0.997545, 9, 169, 24, 232
-0.99756, 413, 145, 428, 208
-0.997613, 417, 65, 448, 320
-0.99763, 15, 169, 30, 232
-0.997633, 145, 217, 272, 248
-0.997638, 241, 193, 256, 256
-0.997651, 17, 241, 144, 304
-0.997657, 199, 193, 214, 256
-0.997673, 61, 193, 92, 256
-0.997673, 235, 201, 250, 264
-0.997686, 443, 137, 458, 200
-0.9977, 305, 185, 432, 216
-0.997722, 361, 273, 424, 333
-0.997728, 223, 201, 238, 264
-0.997756, 399, 133, 414, 164
-0.99776, 419, 153, 434, 216
-0.997761, 483, 177, 498, 240
-0.997768, 161, 217, 192, 280
-0.997778, 441, 93, 456, 124
-0.997778, 49, 161, 176, 192
-0.997795, 257, 89, 500, 152
-0.997803, 357, 97, 388, 224
-0.997809, 175, 193, 190, 256
-0.997836, 471, 169, 486, 232
-0.997859, 405, 49, 436, 176
-0.997871, 289, 217, 352, 280
-0.997876, 129, 193, 160, 256
-0.997879, 27, 169, 42, 232
-0.997888, 211, 193, 226, 256
-0.997889, 3, 169, 18, 232
-0.997896, 427, 149, 442, 180
-0.997902, 353, 97, 480, 128
-0.997908, 429, 65, 460, 320
-0.997916, 257, 193, 272, 256
-0.997923, 353, 289, 480, 320
-0.997944, 447, 177, 462, 240
-0.997949, 205, 193, 220, 256
-0.997952, 247, 201, 262, 264
-0.99798, 405, 125, 420, 156
-0.997981, 405, 65, 436, 320
-0.997982, 407, 145, 422, 208
-0.998015, 33, 169, 48, 232
-0.998022, 193, 213, 320, 244
-0.998038, 477, 177, 492, 240
-0.998048, 385, 201, 416, 264
-0.998051, 89, 145, 120, 208
-0.998061, 425, 169, 440, 232
-0.998062, 21, 169, 36, 232
-0.998071, 281, 193, 312, 320
-0.9981, 425, 225, 488, 288
-0.998101, 261, 145, 292, 208
-0.998131, 217, 193, 232, 256
-0.998131, 169, 193, 184, 256
-0.998137, 431, 129, 446, 192
-0.998139, 65, 241, 192, 304
-0.998147, 33, 145, 288, 208
-0.998147, 435, 137, 450, 168
-0.998148, 305, 225, 432, 288
-0.998172, 211, 173, 226, 204
-0.998195, 57, 145, 88, 208
-0.998199, 1, 193, 500, 256
-0.998201, 9, 201, 24, 264
-0.998202, 225, 217, 480, 280
-0.998203, 1, 201, 128, 232
-0.998207, 57, 153, 72, 216
-0.998222, 241, 157, 368, 188
-0.998225, 411, 121, 426, 152
-0.998225, 321, 129, 448, 160
-0.998225, 79, 153, 94, 216
-0.998225, 441, 65, 456, 128
-0.998227, 205, 173, 220, 204
-0.998234, 197, 173, 212, 204
-0.99824, 217, 215, 248, 230
-0.99824, 5, 203, 36, 218
-0.99824, 429, 115, 460, 130
-0.99824, 93, 179, 124, 194
-0.99824, 37, 223, 68, 238
-0.998241, 449, 93, 480, 108
-0.998241, 121, 193, 152, 208
-0.998242, 221, 223, 252, 238
-0.998242, 381, 139, 412, 154
-0.998243, 389, 311, 420, 326
-0.998244, 61, 187, 92, 202
-0.998244, 89, 169, 120, 184
-0.998244, 9, 317, 40, 332
-0.998244, 445, 169, 476, 184
-0.998245, 81, 197, 112, 212
-0.998245, 441, 141, 472, 156
-0.998246, 17, 195, 48, 210
-0.998246, 49, 229, 80, 244
-0.998247, 431, 173, 446, 204
-0.998247, 109, 193, 140, 208
-0.998247, 377, 295, 408, 310
-0.998247, 407, 177, 422, 240
-0.998248, 393, 287, 424, 302
-0.998248, 373, 315, 404, 330
-0.998249, 405, 199, 436, 214
-0.998253, 219, 173, 234, 204
-0.998255, 381, 303, 412, 318
-0.998256, 41, 175, 72, 190
-0.998258, 77, 191, 108, 206
-0.998259, 405, 287, 436, 302
-0.998259, 389, 293, 420, 308
-0.99826, 425, 123, 456, 138
-0.998262, 217, 191, 248, 206
-0.998264, 221, 175, 252, 190
-0.998264, 257, 199, 288, 214
-0.998264, 69, 181, 100, 196
-0.998266, 193, 197, 224, 212
-0.998266, 405, 183, 436, 198
-0.998266, 57, 173, 88, 188
-0.998267, 405, 147, 436, 162
-0.998268, 433, 91, 464, 106
-0.998269, 185, 191, 216, 206
-0.998269, 277, 191, 308, 206
-0.998269, 405, 141, 436, 156
-0.99827, 313, 175, 344, 190
-0.998271, 317, 191, 348, 206
-0.998271, 177, 199, 208, 214
-0.998271, 417, 195, 448, 210
-0.998272, 89, 191, 120, 206
-0.998272, 145, 167, 176, 182
-0.998273, 393, 131, 424, 146
-0.998274, 437, 161, 452, 192
-0.998274, 209, 175, 240, 190
-0.998274, 173, 193, 204, 208
-0.998276, 425, 129, 456, 144
-0.998277, 413, 113, 444, 128
-0.998278, 281, 193, 312, 256
-0.998279, 157, 207, 188, 222
-0.99828, 9, 173, 40, 188
-0.998281, 301, 175, 332, 190
-0.998281, 233, 175, 264, 190
-0.998281, 261, 175, 292, 190
-0.998281, 289, 175, 320, 190
-0.998281, 157, 193, 188, 208
-0.998284, 197, 191, 228, 206
-0.998285, 449, 99, 480, 114
-0.998285, 205, 205, 236, 220
-0.998288, 245, 193, 276, 208
-0.998288, 213, 145, 244, 208
-0.99829, 21, 187, 52, 202
-0.998291, 273, 175, 304, 190
-0.998291, 389, 145, 404, 176
-0.998292, 469, 175, 500, 190
-0.998293, 433, 165, 464, 180
-0.998293, 245, 175, 276, 190
-0.998294, 417, 143, 448, 158
-0.998294, 433, 157, 464, 172
-0.998295, 445, 115, 476, 130
-0.998295, 5, 197, 36, 212
-0.998296, 429, 145, 460, 160
-0.998296, 377, 153, 408, 168
-0.998297, 425, 101, 440, 132
-0.998298, 441, 127, 472, 142
-0.998299, 197, 173, 228, 188
-0.9983, 441, 135, 472, 150
-0.9983, 177, 173, 208, 188
-0.998301, 165, 199, 196, 214
-0.998301, 229, 173, 244, 204
-0.998301, 91, 173, 106, 204
-0.998301, 189, 203, 220, 218
-0.998303, 257, 193, 288, 208
-0.998303, 385, 193, 416, 320
-0.998303, 305, 193, 336, 208
-0.998305, 445, 121, 476, 136
-0.998307, 29, 175, 60, 190
-0.998307, 245, 201, 276, 216
-0.998307, 449, 105, 480, 120
-0.998307, 105, 173, 120, 204
-0.998308, 413, 119, 444, 134
-0.998308, 153, 173, 184, 188
-0.99831, 205, 197, 236, 212
-0.998311, 81, 185, 112, 200
-0.998312, 421, 135, 452, 150
-0.998312, 101, 173, 132, 188
-0.998313, 325, 173, 356, 188
-0.998315, 405, 155, 436, 170
-0.998315, 289, 195, 320, 210
-0.998317, 221, 197, 252, 212
-0.998317, 229, 203, 260, 218
-0.998318, 425, 109, 456, 124
-0.998319, 321, 173, 336, 204
-0.998321, 269, 197, 300, 212
-0.998324, 431, 93, 446, 124
-0.998324, 137, 173, 168, 188
-0.998325, 373, 159, 404, 174
-0.998327, 417, 173, 448, 188
-0.998328, 69, 175, 100, 190
-0.998328, 233, 197, 264, 212
-0.998332, 347, 145, 362, 208
-0.998334, 129, 161, 256, 192
-0.998337, 185, 173, 200, 204
-0.998337, 217, 203, 248, 218
-0.998342, 405, 129, 436, 144
-0.998342, 401, 201, 432, 264
-0.998345, 429, 151, 460, 166
-0.99835, 81, 177, 112, 192
-0.998352, 417, 179, 448, 194
-0.998353, 417, 177, 432, 240
-0.998354, 81, 177, 96, 208
-0.998356, 343, 169, 358, 200
-0.998356, 113, 193, 128, 256
-0.998357, 161, 173, 176, 204
-0.998357, 41, 181, 72, 196
-0.998366, 113, 173, 144, 188
-0.998368, 187, 189, 202, 220
-0.998368, 53, 179, 84, 194
-0.998368, 361, 163, 392, 178
-0.998371, 419, 109, 434, 140
-0.998376, 315, 173, 330, 204
-0.998376, 209, 189, 224, 220
-0.998377, 291, 173, 306, 204
-0.998379, 177, 207, 208, 222
-0.998382, 97, 221, 224, 252
-0.998383, 107, 193, 122, 256
-0.998386, 77, 201, 108, 264
-0.998387, 165, 171, 196, 186
-0.998387, 125, 171, 156, 186
-0.998389, 413, 161, 444, 176
-0.99839, 417, 149, 448, 164
-0.998392, 301, 173, 316, 204
-0.998392, 389, 149, 420, 164
-0.998396, 149, 173, 164, 204
-0.998396, 433, 171, 464, 186
-0.998397, 309, 173, 324, 204
-0.998398, 17, 193, 48, 256
-0.9984, 445, 177, 476, 192
-0.998402, 393, 137, 424, 152
-0.998406, 97, 173, 112, 204
-0.998412, 457, 175, 488, 190
-0.998413, 383, 153, 398, 184
-0.998413, 337, 171, 368, 186
-0.998423, 429, 103, 460, 118
-0.998425, 329, 173, 344, 204
-0.998426, 1, 145, 500, 208
-0.998426, 179, 205, 194, 236
-0.998429, 349, 167, 380, 182
-0.99843, 357, 165, 372, 196
-0.998434, 361, 193, 392, 320
-0.998435, 429, 177, 460, 192
-0.998436, 149, 193, 164, 256
-0.998439, 337, 173, 352, 204
-0.998439, 371, 161, 386, 192
-0.998439, 283, 173, 298, 204
-0.998448, 177, 173, 192, 204
-0.998451, 181, 193, 196, 224
-0.998453, 399, 105, 414, 168
-0.998456, 259, 173, 274, 204
-0.998458, 393, 143, 424, 158
-0.998458, 169, 193, 184, 224
-0.99846, 191, 173, 206, 204
-0.998467, 305, 117, 432, 148
-0.998475, 159, 193, 174, 256
-0.998476, 269, 173, 284, 204
-0.998478, 127, 193, 142, 256
-0.998485, 191, 201, 206, 232
-0.998486, 149, 145, 164, 208
-0.998489, 235, 173, 250, 204
-0.998492, 141, 169, 156, 200
-0.998494, 393, 135, 456, 150
-0.998496, 141, 193, 156, 256
-0.998497, 221, 189, 236, 220
-0.998497, 385, 143, 448, 158
-0.998498, 197, 189, 212, 220
-0.998499, 67, 173, 82, 204
-0.998502, 417, 155, 448, 170
-0.998504, 277, 173, 292, 204
-0.998507, 429, 161, 444, 192
-0.998508, 349, 185, 380, 248
-0.998508, 49, 201, 80, 264
-0.998508, 389, 273, 420, 333
-0.998509, 155, 173, 170, 204
-0.998511, 21, 113, 52, 240
-0.998513, 101, 185, 116, 216
-0.998515, 233, 209, 264, 333
-0.99852, 405, 97, 420, 160
-0.998526, 393, 127, 456, 142
-0.998527, 401, 121, 464, 136
-0.998532, 393, 65, 424, 320
-0.998532, 251, 173, 266, 204
-0.998535, 201, 145, 232, 208
-0.998535, 17, 201, 32, 264
-0.998536, 401, 115, 464, 130
-0.998537, 433, 149, 448, 180
-0.998539, 203, 189, 218, 220
-0.998541, 85, 153, 100, 216
-0.998544, 111, 173, 126, 204
-0.99855, 119, 169, 134, 200
-0.998551, 429, 97, 460, 112
-0.998553, 243, 173, 258, 204
-0.998557, 425, 175, 488, 190
-0.998557, 369, 137, 384, 200
-0.998558, 349, 169, 364, 200
-0.998561, 131, 145, 146, 208
-0.998563, 377, 153, 440, 168
-0.998563, 133, 193, 148, 256
-0.998565, 289, 145, 304, 208
-0.998565, 441, 133, 456, 164
-0.998568, 33, 179, 96, 194
-0.998571, 401, 109, 464, 124
-0.998572, 417, 97, 480, 112
-0.998579, 377, 157, 392, 188
-0.99858, 169, 173, 184, 204
-0.99858, 345, 145, 376, 208
-0.998584, 417, 103, 480, 118
-0.998584, 39, 193, 54, 256
-0.998593, 375, 185, 390, 248
-0.998599, 309, 145, 324, 208
-0.998601, 105, 171, 168, 186
-0.998602, 445, 49, 476, 176
-0.998604, 207, 145, 222, 208
-0.998607, 365, 161, 380, 192
-0.998609, 57, 177, 120, 192
-0.998609, 401, 177, 464, 192
-0.998609, 437, 173, 452, 204
-0.998611, 163, 145, 178, 208
-0.998611, 1, 209, 128, 333
-0.998613, 1, 173, 64, 188
-0.998613, 105, 145, 120, 208
-0.998616, 137, 173, 200, 188
-0.998619, 227, 189, 242, 220
-0.99862, 317, 145, 332, 208
-0.998624, 209, 203, 272, 218
-0.998625, 453, 173, 468, 204
-0.998627, 75, 193, 90, 256
-0.998629, 45, 145, 60, 208
-0.998629, 353, 145, 368, 208
-0.99863, 263, 193, 278, 256
-0.998633, 411, 89, 426, 152
-0.998634, 249, 197, 312, 212
-0.998636, 75, 173, 90, 204
-0.998637, 381, 81, 412, 208
-0.998637, 417, 169, 480, 184
-0.998639, 303, 145, 318, 208
-0.99864, 337, 167, 400, 182
-0.998641, 385, 159, 448, 174
-0.998643, 305, 171, 368, 186
-0.998644, 67, 145, 82, 208
-0.998647, 185, 197, 248, 212
-0.998647, 33, 185, 96, 200
-0.99865, 141, 145, 156, 208
-0.998652, 169, 207, 232, 222
-0.998655, 409, 151, 472, 166
-0.998656, 281, 195, 344, 210
-0.998659, 59, 177, 74, 208
-0.998661, 305, 285, 432, 316
-0.998668, 81, 173, 144, 188
-0.998668, 465, 173, 480, 204
-0.998668, 233, 201, 248, 232
-0.99867, 209, 195, 272, 210
-0.99867, 215, 193, 230, 224
-0.998671, 193, 161, 320, 192
-0.998672, 425, 137, 488, 152
-0.998672, 385, 171, 448, 186
-0.998673, 125, 169, 140, 200
-0.998674, 361, 159, 424, 174
-0.998674, 393, 97, 456, 112
-0.998675, 447, 117, 462, 148
-0.998676, 161, 173, 224, 188
-0.998676, 425, 131, 488, 146
-0.99868, 425, 143, 488, 158
-0.998681, 393, 103, 456, 118
-0.998681, 251, 193, 266, 224
-0.998682, 41, 177, 56, 208
-0.998685, 131, 169, 146, 200
-0.99869, 273, 145, 304, 208
-0.99869, 369, 185, 496, 216
-0.998691, 169, 213, 232, 228
-0.998692, 377, 183, 440, 198
-0.998692, 425, 163, 488, 178
-0.998694, 329, 173, 392, 188
-0.998696, 249, 175, 312, 190
-0.998697, 9, 317, 72, 332
-0.998699, 123, 189, 138, 220
-0.9987, 433, 125, 496, 140
-0.998701, 409, 157, 472, 172
-0.998702, 145, 199, 208, 214
-0.998703, 257, 191, 320, 206
-0.998703, 273, 175, 336, 190
-0.998705, 73, 185, 136, 200
-0.998708, 353, 137, 416, 152
-0.998709, 145, 193, 208, 208
-0.998709, 131, 193, 146, 224
-0.998709, 57, 171, 120, 186
-0.99871, 225, 175, 288, 190
-0.99871, 433, 109, 496, 124
-0.998712, 145, 207, 208, 222
-0.998712, 209, 223, 272, 238
-0.998712, 1, 201, 64, 216
-0.998712, 369, 293, 432, 308
-0.998713, 369, 287, 432, 302
-0.998713, 433, 119, 496, 134
-0.998713, 201, 175, 264, 190
-0.998714, 33, 169, 96, 184
-0.998714, 401, 183, 464, 198
-0.998715, 305, 297, 432, 328
-0.998717, 185, 191, 248, 206
-0.998721, 121, 197, 184, 212
-0.998724, 423, 161, 438, 192
-0.998724, 129, 167, 192, 182
-0.998725, 217, 213, 280, 228
-0.998725, 105, 191, 168, 206
-0.998726, 81, 179, 144, 194
-0.998728, 9, 195, 72, 210
-0.998729, 353, 145, 416, 160
-0.99873, 409, 299, 472, 314
-0.998731, 289, 157, 416, 188
-0.998733, 243, 193, 258, 224
-0.998733, 409, 149, 424, 180
-0.998735, 169, 219, 232, 234
-0.998735, 241, 219, 304, 234
-0.998735, 233, 191, 296, 206
-0.998735, 175, 193, 190, 224
-0.998736, 305, 195, 368, 210
-0.998737, 369, 117, 432, 132
-0.998738, 233, 203, 296, 218
-0.998738, 353, 151, 416, 166
-0.998739, 143, 189, 158, 220
-0.99874, 369, 317, 432, 332
-0.998741, 281, 189, 344, 204
-0.998743, 409, 195, 472, 210
-0.998743, 401, 91, 464, 106
-0.998743, 361, 127, 424, 142
-0.998743, 385, 307, 448, 322
-0.998743, 121, 203, 184, 218
-0.998744, 297, 177, 360, 192
-0.998745, 345, 309, 408, 324
-0.998745, 369, 109, 432, 124
-0.998746, 169, 225, 232, 240
-0.998746, 369, 189, 432, 204
-0.998747, 385, 299, 448, 314
-0.998747, 97, 197, 160, 212
-0.998747, 9, 183, 72, 198
-0.998748, 113, 177, 176, 192
-0.99875, 451, 101, 466, 132
-0.998752, 129, 219, 192, 234
-0.998752, 385, 199, 448, 214
-0.998752, 345, 315, 408, 330
-0.998752, 297, 165, 360, 180
-0.998752, 361, 195, 424, 210
-0.998754, 169, 167, 232, 182
-0.998754, 409, 313, 472, 328
-0.998754, 73, 199, 136, 214
-0.998755, 385, 165, 448, 180
-0.998756, 185, 315, 248, 330
-0.998756, 17, 223, 80, 238
-0.998757, 337, 161, 400, 176
-0.998757, 209, 189, 272, 204
-0.998757, 393, 287, 456, 302
-0.998757, 409, 307, 472, 322
-0.998758, 81, 167, 144, 182
-0.998758, 73, 191, 136, 206
-0.998759, 185, 205, 200, 236
-0.99876, 329, 155, 392, 170
-0.99876, 257, 213, 320, 228
-0.99876, 361, 177, 424, 192
-0.998761, 129, 213, 192, 228
-0.998762, 13, 197, 28, 228
-0.998762, 129, 225, 192, 240
-0.998763, 241, 311, 304, 326
-0.998765, 1, 211, 64, 226
-0.998766, 393, 293, 456, 308
-0.998767, 257, 169, 320, 184
-0.998767, 313, 315, 376, 330
-0.998767, 353, 197, 480, 228
-0.998767, 369, 121, 400, 184
-0.998767, 313, 189, 376, 204
-0.998767, 97, 203, 160, 218
-0.998767, 209, 169, 272, 184
-0.998767, 353, 183, 416, 198
-0.998767, 9, 189, 72, 204
-0.998769, 209, 313, 272, 328
-0.998769, 193, 211, 256, 226
-0.998771, 433, 149, 496, 164
-0.998772, 33, 173, 48, 204
-0.998773, 199, 201, 214, 232
-0.998774, 233, 189, 248, 220
-0.998785, 225, 201, 240, 232
-0.998788, 459, 173, 474, 204
-0.998798, 437, 81, 452, 208
-0.998799, 193, 225, 320, 256
-0.9988, 129, 225, 384, 288
-0.998809, 417, 141, 432, 172
-0.998817, 425, 177, 440, 208
-0.99883, 47, 177, 62, 208
-0.998831, 229, 145, 260, 208
-0.998831, 443, 97, 458, 224
-0.998837, 241, 241, 368, 304
-0.998843, 447, 173, 462, 204
-0.998844, 151, 193, 166, 224
-0.998844, 91, 185, 106, 216
-0.99885, 53, 173, 68, 204
-0.998851, 169, 209, 200, 333
-0.998854, 381, 65, 412, 320
-0.998859, 163, 189, 178, 220
-0.99886, 441, 121, 456, 152
-0.998861, 471, 173, 486, 204
-0.998871, 111, 193, 126, 224
-0.998881, 407, 137, 422, 168
-0.998891, 381, 177, 412, 240
-0.998892, 293, 193, 308, 224
-0.998895, 185, 217, 216, 280
-0.998907, 85, 165, 100, 196
-0.998911, 417, 161, 432, 192
-0.998912, 429, 137, 444, 168
-0.998925, 39, 165, 54, 196
-0.998929, 433, 125, 448, 156
-0.998943, 129, 241, 256, 304
-0.998944, 269, 193, 284, 224
-0.998945, 197, 209, 228, 333
-0.998953, 221, 33, 252, 288
-0.998956, 337, 17, 464, 144
-0.998959, 259, 193, 274, 224
-0.998962, 441, 145, 456, 176
-0.998962, 431, 81, 446, 208
-0.998963, 409, 181, 424, 212
-0.998966, 205, 201, 220, 232
-0.998967, 137, 193, 152, 224
-0.998967, 173, 205, 188, 236
-0.99897, 33, 145, 64, 208
-0.998976, 17, 217, 48, 280
-0.998978, 337, 249, 464, 312
-0.998983, 483, 177, 498, 208
-0.998993, 385, 281, 400, 312
-0.998999, 369, 33, 400, 288
-0.999007, 117, 189, 132, 220
-0.999014, 131, 181, 146, 212
-0.999019, 47, 165, 62, 196
-0.999019, 287, 189, 302, 220
-0.999021, 125, 201, 140, 232
-0.999022, 27, 169, 42, 200
-0.999027, 145, 201, 160, 232
-0.999036, 415, 285, 430, 316
-0.99904, 61, 165, 76, 196
-0.999041, 241, 161, 256, 288
-0.999062, 257, 205, 384, 236
-0.999075, 215, 161, 230, 288
-0.999082, 33, 221, 160, 252
-0.999084, 305, 197, 432, 228
-0.999086, 371, 145, 386, 272
-0.999087, 153, 33, 184, 288
-0.999089, 233, 161, 248, 288
-0.999091, 405, 113, 420, 240
-0.999093, 177, 65, 208, 320
-0.9991, 1, 113, 32, 240
-0.999102, 181, 161, 196, 288
-0.999102, 197, 33, 228, 288
-0.999109, 227, 161, 242, 288
-0.999125, 237, 33, 268, 288
-0.999129, 361, 161, 376, 288
-0.999133, 193, 161, 208, 288
-0.999138, 393, 129, 408, 256
-0.99914, 205, 161, 220, 288
-0.99914, 247, 161, 262, 288
-0.999142, 177, 241, 304, 304
-0.999142, 355, 161, 370, 288
-0.999146, 221, 161, 236, 288
-0.999152, 21, 145, 52, 208
-0.999155, 225, 273, 480, 333
-0.999156, 325, 193, 356, 256
-0.999159, 437, 129, 452, 256
-0.999159, 347, 161, 362, 288
-0.99916, 57, 161, 72, 288
-0.999168, 241, 217, 368, 248
-0.99917, 273, 141, 400, 172
-0.999172, 199, 161, 214, 288
-0.999174, 169, 161, 184, 288
-0.999179, 339, 161, 354, 288
-0.999181, 281, 161, 296, 288
-0.999196, 353, 301, 480, 332
-0.999202, 253, 161, 268, 288
-0.999203, 417, 97, 432, 224
-0.999203, 187, 145, 202, 272
-0.999204, 89, 193, 120, 256
-0.999205, 333, 161, 348, 288
-0.999213, 63, 161, 78, 288
-0.999214, 329, 33, 360, 288
-0.999215, 399, 129, 414, 256
-0.999216, 175, 161, 190, 288
-0.99922, 83, 161, 98, 288
-0.999225, 163, 161, 178, 288
-0.999227, 383, 145, 398, 272
-0.99923, 411, 113, 426, 240
-0.999233, 43, 161, 58, 288
-0.999238, 377, 145, 392, 272
-0.999241, 325, 161, 340, 288
-0.999242, 441, 33, 472, 288
-0.999244, 259, 161, 274, 288
-0.999247, 349, 33, 380, 288
-0.999248, 49, 161, 64, 288
-0.999248, 73, 161, 88, 288
-0.999253, 317, 33, 348, 288
-0.999254, 155, 161, 170, 288
-0.999257, 93, 161, 108, 288
-0.999257, 253, 33, 284, 288
-0.999258, 275, 161, 290, 288
-0.999258, 425, 97, 440, 224
-0.99926, 119, 161, 134, 288
-0.999261, 265, 161, 280, 288
-0.999262, 317, 161, 332, 288
-0.999265, 111, 161, 126, 288
-0.99927, 101, 161, 116, 288
-0.999272, 139, 161, 154, 288
-0.999274, 129, 161, 144, 288
-0.999274, 307, 161, 322, 288
-0.99928, 209, 33, 240, 288
-0.999286, 305, 33, 336, 288
-0.999287, 145, 161, 160, 288
-0.999287, 287, 161, 302, 288
-0.999289, 145, 229, 272, 260
-0.999293, 1, 233, 256, 296
-0.999323, 165, 33, 196, 288
-0.999329, 23, 161, 38, 288
-0.999331, 113, 33, 144, 288
-0.999332, 301, 161, 316, 288
-0.999336, 293, 145, 308, 272
-0.999339, 249, 145, 280, 208
-0.999349, 305, 209, 432, 240
-0.999357, 33, 161, 48, 288
-0.999364, 417, 273, 480, 333
-0.999367, 289, 33, 320, 288
-0.999369, 97, 33, 128, 288
-0.999375, 141, 33, 172, 288
-0.999376, 457, 113, 488, 240
-0.999378, 449, 81, 464, 208
-0.999387, 81, 33, 112, 288
-0.99939, 277, 33, 308, 288
-0.999397, 129, 33, 160, 288
-0.999431, 17, 161, 32, 288
-0.999441, 431, 129, 446, 256
-0.999459, 57, 65, 88, 320
-0.999461, 389, 153, 420, 216
-0.999473, 11, 161, 26, 288
-0.999478, 265, 33, 296, 288
-0.999487, 149, 191, 164, 206
-0.999488, 119, 197, 134, 212
-0.999488, 233, 175, 248, 190
-0.999488, 307, 175, 322, 190
-0.999489, 203, 175, 218, 190
-0.999489, 293, 175, 308, 190
-0.999489, 125, 191, 140, 206
-0.99949, 263, 175, 278, 190
-0.99949, 443, 141, 458, 156
-0.999491, 9, 173, 24, 188
-0.999491, 185, 191, 200, 206
-0.999492, 407, 151, 422, 166
-0.999493, 239, 175, 254, 190
-0.999493, 279, 197, 294, 212
-0.999494, 407, 145, 422, 160
-0.999494, 219, 205, 234, 220
-0.999494, 247, 175, 262, 190
-0.999494, 301, 175, 316, 190
-0.999495, 439, 125, 454, 140
-0.999495, 269, 193, 284, 208
-0.999495, 269, 175, 284, 190
-0.999495, 279, 175, 294, 190
-0.999495, 287, 175, 302, 190
-0.999496, 333, 173, 348, 188
-0.999496, 453, 99, 468, 114
-0.999497, 319, 191, 334, 206
-0.999497, 303, 195, 318, 210
-0.999498, 159, 199, 174, 214
-0.999498, 169, 193, 184, 208
-0.999498, 313, 175, 328, 190
-0.999498, 361, 113, 376, 240
-0.999499, 255, 175, 270, 190
-0.999499, 51, 177, 66, 192
-0.999499, 37, 175, 52, 190
-0.999499, 185, 203, 200, 218
-0.9995, 61, 177, 76, 192
-0.9995, 237, 201, 252, 216
-0.9995, 203, 191, 218, 206
-0.9995, 187, 175, 202, 190
-0.999501, 147, 173, 162, 188
-0.999501, 439, 157, 454, 172
-0.999501, 43, 175, 58, 190
-0.999502, 97, 185, 112, 200
-0.999502, 71, 173, 86, 188
-0.999502, 169, 199, 184, 214
-0.999502, 211, 199, 226, 214
-0.999503, 323, 175, 338, 190
-0.999503, 111, 197, 126, 212
-0.999503, 61, 217, 92, 280
-0.999503, 15, 197, 30, 212
-0.999503, 211, 193, 226, 208
-0.999504, 437, 145, 452, 160
-0.999504, 199, 199, 214, 214
-0.999505, 413, 153, 428, 168
-0.999505, 213, 173, 228, 188
-0.999507, 229, 203, 244, 218
-0.999507, 205, 199, 220, 214
-0.999507, 437, 163, 452, 178
-0.999507, 5, 161, 20, 288
-0.999509, 297, 197, 312, 212
-0.99951, 475, 173, 490, 188
-0.999511, 175, 199, 190, 214
-0.999511, 433, 157, 448, 172
-0.999512, 451, 105, 466, 120
-0.999512, 445, 127, 460, 142
-0.999513, 447, 121, 462, 136
-0.999514, 255, 193, 270, 208
-0.999516, 91, 189, 106, 204
-0.999516, 125, 197, 140, 212
-0.999516, 449, 115, 464, 130
-0.999518, 105, 177, 120, 192
-0.999518, 447, 161, 462, 288
-0.999519, 81, 183, 96, 198
-0.99952, 407, 139, 422, 154
-0.99952, 429, 171, 444, 186
-0.999521, 191, 203, 206, 218
-0.999522, 443, 135, 458, 150
-0.999522, 247, 113, 262, 240
-0.999523, 179, 171, 194, 186
-0.999525, 437, 151, 452, 166
-0.999525, 9, 201, 24, 216
-0.999526, 45, 181, 60, 196
-0.999526, 85, 177, 100, 192
-0.999527, 249, 197, 264, 212
-0.999528, 229, 197, 244, 212
-0.999528, 241, 229, 368, 260
-0.999528, 191, 197, 206, 212
-0.999528, 389, 151, 404, 166
-0.999529, 167, 173, 182, 188
-0.99953, 399, 133, 414, 148
-0.99953, 457, 175, 472, 190
-0.99953, 219, 197, 234, 212
-0.999532, 179, 207, 194, 222
-0.999534, 205, 225, 236, 288
-0.999535, 237, 195, 252, 210
-0.999537, 67, 179, 82, 194
-0.999537, 239, 113, 254, 240
-0.999538, 243, 197, 258, 212
-0.99954, 115, 171, 130, 186
-0.99954, 77, 175, 92, 190
-0.999542, 451, 177, 466, 192
-0.999544, 35, 185, 50, 200
-0.999545, 185, 197, 200, 212
-0.999546, 463, 175, 478, 190
-0.999547, 415, 117, 430, 132
-0.999547, 433, 137, 448, 152
-0.999549, 339, 173, 354, 188
-0.999549, 95, 177, 110, 192
-0.999549, 439, 177, 454, 192
-0.99955, 135, 171, 150, 186
-0.99955, 425, 105, 440, 120
-0.999551, 437, 131, 452, 146
-0.999552, 173, 171, 188, 186
-0.999552, 355, 113, 370, 240
-0.999554, 305, 105, 432, 136
-0.999554, 435, 171, 450, 186
-0.999557, 469, 175, 484, 190
-0.999557, 429, 99, 444, 114
-0.999557, 127, 171, 142, 186
-0.999558, 383, 155, 398, 170
-0.999558, 367, 165, 382, 180
-0.999559, 419, 111, 434, 126
-0.999559, 1, 233, 128, 264
-0.999562, 141, 171, 156, 186
-0.999563, 361, 167, 376, 182
-0.999564, 409, 123, 424, 138
-0.999566, 223, 113, 238, 240
-0.999566, 391, 145, 406, 160
-0.999568, 437, 33, 452, 160
-0.99957, 69, 33, 100, 288
-0.999573, 121, 171, 136, 186
-0.999574, 353, 277, 480, 308
-0.999576, 419, 155, 434, 170
-0.999576, 431, 145, 446, 160
-0.999576, 231, 113, 246, 240
-0.999579, 433, 177, 448, 192
-0.99958, 345, 113, 360, 240
-0.999581, 427, 157, 442, 172
-0.999582, 377, 159, 392, 174
-0.999583, 445, 177, 460, 192
-0.999587, 345, 171, 360, 186
-0.999587, 257, 113, 272, 240
-0.999587, 453, 161, 468, 288
-0.999588, 351, 169, 366, 184
-0.999591, 281, 113, 296, 240
-0.999591, 335, 113, 350, 240
-0.999592, 485, 161, 500, 288
-0.999593, 405, 133, 420, 148
-0.999595, 323, 113, 338, 240
-0.999597, 271, 113, 286, 240
-0.9996, 1, 217, 500, 280
-0.999604, 211, 113, 226, 240
-0.999604, 241, 289, 368, 320
-0.999609, 477, 161, 492, 288
-0.999609, 329, 113, 344, 240
-0.99961, 135, 113, 150, 240
-0.999613, 311, 113, 326, 240
-0.999613, 287, 113, 302, 240
-0.999615, 461, 161, 476, 288
-0.999615, 471, 161, 486, 288
-0.999617, 317, 113, 332, 240
-0.999621, 399, 139, 414, 154
-0.999623, 155, 113, 170, 240
-0.999623, 435, 95, 450, 110
-0.999624, 91, 113, 106, 240
-0.999625, 129, 113, 144, 240
-0.999626, 353, 85, 480, 116
-0.999627, 1, 241, 64, 304
-0.999628, 119, 113, 134, 240
-0.999628, 9, 209, 72, 333
-0.999628, 303, 113, 318, 240
-0.99963, 83, 113, 98, 240
-0.999632, 383, 97, 398, 224
-0.999632, 101, 113, 116, 240
-0.999633, 429, 151, 444, 166
-0.999633, 141, 113, 156, 240
-0.999635, 117, 193, 148, 256
-0.999637, 141, 193, 172, 256
-0.99964, 265, 113, 280, 240
-0.99964, 107, 113, 122, 240
-0.999643, 149, 113, 164, 240
-0.999646, 443, 49, 458, 176
-0.999647, 163, 113, 178, 240
-0.999651, 443, 95, 458, 110
-0.999652, 297, 193, 328, 256
-0.999652, 199, 113, 214, 240
-0.999657, 175, 113, 190, 240
-0.999657, 73, 113, 88, 240
-0.999659, 205, 113, 220, 240
-0.999662, 193, 113, 208, 240
-0.999665, 169, 113, 184, 240
-0.99967, 305, 273, 432, 304
-0.99967, 217, 113, 232, 240
-0.999674, 181, 113, 196, 240
-0.999681, 113, 113, 128, 240
-0.999681, 67, 113, 82, 240
-0.999689, 257, 301, 384, 332
-0.999696, 377, 97, 392, 224
-0.999709, 59, 113, 74, 240
-0.999712, 409, 65, 424, 192
-0.999712, 421, 49, 436, 176
-0.99972, 371, 97, 386, 224
-0.999724, 51, 113, 66, 240
-0.999725, 193, 237, 320, 268
-0.999727, 393, 105, 424, 168
-0.999731, 395, 81, 410, 208
-0.999733, 417, 177, 432, 304
-0.999747, 29, 217, 60, 280
-0.999747, 145, 217, 176, 280
-0.999748, 45, 33, 76, 288
-0.999756, 411, 177, 426, 304
-0.999768, 401, 177, 416, 304
-0.999776, 49, 233, 176, 264
-0.999785, 33, 301, 160, 332
-0.999794, 221, 209, 236, 333
-0.999796, 17, 113, 32, 240
-0.999801, 295, 193, 310, 320
-0.999803, 249, 209, 312, 333
-0.999805, 387, 193, 402, 320
-0.999805, 177, 209, 192, 333
-0.999809, 25, 113, 40, 240
-0.999809, 187, 193, 202, 320
-0.999824, 329, 273, 392, 333
-0.999828, 401, 241, 464, 304
-0.999838, 337, 201, 368, 264
-0.99984, 413, 201, 444, 264
-0.999853, 157, 209, 188, 333
-0.999864, 33, 65, 64, 320
-0.999878, 97, 233, 224, 264
-0.999878, 453, 65, 484, 320
-0.999881, 305, 225, 432, 256
-0.999885, 353, 225, 480, 256
-0.999886, 281, 97, 312, 224
-0.999889, 257, 65, 500, 128
-0.999929, 401, 273, 432, 333
-0.999946, 469, 201, 500, 264
-0.999966, 193, 293, 320, 324
-0.999997, 469, 33, 500, 288
-1.00001, 1, 153, 128, 184
-1.00002, 129, 297, 256, 328
-1.00002, 425, 201, 456, 264
-1.00004, 457, 201, 488, 264
-1.00004, 21, 65, 52, 320
-1.00005, 337, 57, 464, 120
-1.00009, 289, 249, 416, 312
-1.00009, 225, 241, 480, 304
-1.00009, 145, 241, 272, 272
-1.0001, 321, 237, 448, 268
-1.00011, 469, 113, 500, 240
-1.00017, 305, 93, 432, 124
-1.00018, 41, 225, 72, 288
-1.00018, 413, 89, 444, 152
-1.00018, 353, 209, 480, 240
-1.00019, 81, 301, 208, 332
-1.00025, 257, 241, 384, 272
-1.0003, 221, 209, 252, 333
-1.0003, 5, 65, 36, 320
-1.0003, 437, 201, 468, 264
-1.00033, 369, 237, 496, 268
-1.00035, 469, 145, 500, 208
-1.00035, 257, 277, 384, 308
-1.00035, 369, 265, 496, 296
-1.00035, 257, 273, 384, 333
-1.00041, 33, 253, 160, 284
-1.00043, 353, 233, 416, 296
-1.00043, 73, 241, 136, 304
-1.00044, 373, 193, 404, 320
-1.00047, 313, 193, 344, 256
-1.00047, 273, 129, 400, 160
-1.00048, 209, 277, 336, 308
-1.00049, 161, 281, 288, 312
-1.00049, 113, 285, 240, 316
-1.00056, 289, 261, 416, 292
-1.00063, 381, 121, 412, 184
-1.00064, 1, 289, 128, 320
-1.00066, 289, 89, 416, 152
-1.00068, 81, 245, 208, 276
-1.00069, 177, 265, 304, 328
-1.0007, 49, 149, 176, 180
-1.0007, 33, 209, 96, 333
-1.0007, 449, 145, 480, 208
-1.00071, 353, 253, 480, 284
-1.00071, 209, 249, 336, 280
-1.00074, 89, 217, 120, 280
-1.00074, 237, 217, 268, 280
-1.00076, 353, 73, 480, 104
-1.00077, 97, 273, 352, 333
-1.00077, 65, 289, 192, 320
-1.00078, 369, 1, 496, 32
-1.00079, 113, 149, 240, 180
-1.0008, 97, 273, 224, 304
-1.0008, 133, 217, 164, 280
-1.00081, 181, 209, 212, 333
-1.00082, 225, 265, 352, 296
-1.00082, 329, 225, 392, 288
-1.00083, 161, 269, 288, 300
-1.00089, 105, 241, 168, 304
-1.0009, 81, 261, 208, 292
-1.0009, 17, 269, 144, 300
-1.00091, 321, 1, 448, 32
-1.00091, 97, 249, 352, 312
-1.00093, 161, 253, 288, 284
-1.00093, 305, 249, 432, 280
-1.00098, 161, 121, 416, 184
-1.00098, 5, 145, 36, 208
-1.001, 369, 13, 496, 44
-1.001, 17, 273, 144, 333
-1.00103, 145, 1, 272, 32
-1.00103, 193, 1, 320, 32
-1.00105, 193, 141, 320, 172
-1.00106, 97, 265, 224, 328
-1.00107, 17, 85, 144, 116
-1.00107, 65, 85, 192, 116
-1.00107, 113, 85, 240, 116
-1.00107, 161, 89, 288, 120
-1.00107, 209, 89, 336, 120
-1.00107, 257, 93, 384, 124
-1.00107, 17, 97, 144, 128
-1.00107, 65, 97, 192, 128
-1.00107, 113, 97, 240, 128
-1.00107, 161, 101, 288, 132
-1.00107, 209, 101, 336, 132
-1.00107, 257, 105, 384, 136
-1.00107, 17, 109, 144, 140
-1.00107, 65, 109, 192, 140
-1.00107, 113, 109, 240, 140
-1.00107, 161, 113, 288, 144
-1.00107, 209, 113, 336, 144
-1.00107, 257, 117, 384, 148
-1.00107, 33, 121, 160, 152
-1.00107, 81, 121, 208, 152
-1.00107, 129, 125, 256, 156
-1.00107, 177, 125, 304, 156
-1.00107, 225, 129, 352, 160
-1.00107, 1, 133, 128, 164
-1.00107, 49, 133, 176, 164
-1.00107, 97, 137, 224, 168
-1.00107, 145, 137, 272, 168
-1.00108, 305, 217, 336, 280
-1.00109, 397, 81, 428, 144
-1.00109, 377, 241, 440, 304
-1.00111, 1, 273, 256, 333
-1.00112, 145, 241, 208, 304
-1.00115, 469, 225, 500, 288
-1.00115, 285, 217, 316, 280
-1.00125, 325, 217, 356, 280
-1.00126, 113, 217, 144, 280
-1.00134, 365, 209, 396, 272
-1.00136, 105, 209, 168, 333
-1.0015, 429, 177, 460, 304
-1.0015, 401, 57, 464, 120
-1.00152, 41, 209, 72, 333
-1.00154, 249, 209, 280, 333
-1.00167, 353, 1, 480, 64
-1.00168, 289, 241, 352, 304
-1.00176, 1, 241, 500, 304
-1.00179, 9, 209, 40, 333
-1.00184, 257, 33, 500, 96
-1.00188, 161, 9, 416, 72
-1.00198, 257, 1, 500, 64
-1.002, 65, 33, 320, 96
-1.00203, 337, 33, 464, 96
-1.00204, 33, 1, 288, 64
-1.00205, 209, 241, 272, 304
-1.00209, 161, 97, 416, 160
-1.00211, 161, 33, 416, 96
-1.00211, 409, 193, 472, 320
-1.00212, 33, 73, 288, 136
-1.00212, 129, 73, 384, 136
-1.00212, 65, 97, 320, 160
-1.00218, 425, 249, 488, 312
-1.00224, 369, 209, 496, 333
-1.00227, 1, 121, 256, 184
-1.00228, 185, 241, 248, 304
-1.0023, 289, 33, 416, 96
-1.0023, 1, 121, 500, 184
-1.00231, 341, 209, 372, 333
-1.00239, 437, 1, 468, 128
-1.00241, 1, 273, 500, 333
-1.00244, 265, 241, 328, 304
-1.0025, 257, 9, 384, 72
-1.00259, 305, 1, 432, 64
-1.00259, 261, 209, 292, 333
-1.0026, 369, 33, 432, 160
-1.00267, 241, 241, 304, 304
-1.00271, 25, 129, 88, 192
-1.00273, 241, 121, 368, 184
-1.00275, 1, 97, 500, 160
-1.00275, 53, 209, 84, 333
-1.00276, 161, 1, 288, 64
-1.00276, 209, 1, 336, 64
-1.00278, 281, 209, 344, 333
-1.00288, 241, 33, 368, 96
-1.00291, 17, 1, 144, 64
-1.00291, 65, 1, 192, 64
-1.00291, 113, 9, 240, 72
-1.00291, 1, 25, 128, 88
-1.00291, 49, 25, 176, 88
-1.00291, 97, 33, 224, 96
-1.00291, 145, 33, 272, 96
-1.00291, 193, 33, 320, 96
-1.00291, 1, 49, 128, 112
-1.00291, 49, 49, 176, 112
-1.00291, 97, 57, 224, 120
-1.00291, 145, 57, 272, 120
-1.00291, 193, 57, 320, 120
-1.00291, 1, 73, 128, 136
-1.00291, 49, 73, 176, 136
-1.00291, 241, 73, 368, 136
-1.00291, 97, 81, 224, 144
-1.00291, 145, 81, 272, 144
-1.00291, 193, 81, 320, 144
-1.00291, 1, 97, 128, 160
-1.00291, 49, 97, 176, 160
-1.00291, 241, 97, 368, 160
-1.00291, 97, 105, 224, 168
-1.00291, 145, 105, 272, 168
-1.00291, 193, 105, 320, 168
-1.00297, 49, 241, 112, 304
-1.00306, 325, 209, 356, 333
-1.00309, 89, 209, 120, 333
-1.00315, 313, 209, 344, 333
-1.00321, 305, 209, 368, 333
-1.00348, 1, 73, 500, 136
-1.00356, 33, 121, 160, 184
-1.00358, 353, 89, 416, 152
-1.00363, 1, 1, 500, 64
-1.00366, 1, 33, 500, 96
-1.00374, 109, 209, 140, 333
-1.00387, 73, 209, 104, 333
-1.00396, 25, 209, 56, 333
-1.00404, 329, 249, 392, 312
-1.00409, 145, 209, 176, 333
-1.00418, 81, 209, 144, 333
-1.00421, 305, 273, 368, 333
-1.00431, 293, 209, 324, 333
-1.00436, 289, 57, 416, 120
-1.00451, 137, 265, 200, 328
-1.00457, 289, 49, 416, 176
-1.00474, 129, 209, 160, 333
-1.00501, 401, 1, 464, 128
-1.00504, 265, 265, 328, 328
-1.00508, 417, 209, 448, 333
-1.00513, 49, 265, 112, 328
-1.0052, 105, 265, 168, 328
-1.00548, 161, 265, 224, 328
-1.00562, 225, 265, 288, 328
-1.00568, 1, 273, 64, 333
-1.00621, 201, 273, 264, 333
-1.00631, 49, 129, 112, 192
-1.00635, 449, 1, 480, 128
-1.00644, 425, 1, 488, 128
-1.0065, 81, 265, 144, 328
-1.00662, 465, 209, 496, 333
-1.00675, 25, 249, 88, 312
-1.00687, 417, 1, 480, 64
-1.00688, 57, 209, 120, 333
-1.007, 393, 17, 424, 144
-1.00717, 393, 1, 456, 64
-1.00731, 441, 209, 472, 333
-1.00748, 413, 1, 444, 128
-1.00757, 129, 33, 384, 160
-1.00802, 321, 33, 384, 96
-1.00823, 453, 209, 484, 333
-1.00833, 377, 49, 440, 112
-1.00843, 305, 121, 368, 184
-1.00844, 345, 33, 408, 96
-1.00853, 297, 17, 360, 80
-1.00856, 461, 1, 492, 128
-1.00859, 353, 17, 384, 144
-1.00859, 365, 17, 396, 144
-1.00859, 33, 33, 288, 160
-1.00864, 369, 1, 432, 64
-1.00869, 409, 33, 472, 96
-1.00869, 337, 1, 400, 64
-1.0088, 341, 17, 372, 144
-1.00881, 377, 1, 408, 128
-1.00895, 177, 1, 304, 128
-1.00903, 249, 17, 312, 80
-1.00903, 257, 41, 320, 104
-1.00903, 281, 41, 344, 104
-1.00918, 329, 17, 360, 144
-1.00919, 245, 65, 276, 192
-1.0092, 369, 25, 432, 88
-1.00929, 289, 81, 352, 144
-1.00929, 17, 97, 80, 160
-1.00929, 41, 97, 104, 160
-1.00929, 65, 97, 128, 160
-1.00929, 89, 97, 152, 160
-1.00929, 313, 97, 376, 160
-1.00929, 113, 105, 176, 168
-1.00929, 137, 105, 200, 168
-1.00929, 161, 105, 224, 168
-1.00929, 185, 105, 248, 168
-1.00929, 209, 105, 272, 168
-1.00929, 233, 105, 296, 168
-1.00929, 257, 105, 320, 168
-1.00929, 281, 105, 344, 168
-1.00931, 97, 33, 224, 160
-1.00935, 269, 65, 300, 192
-1.00939, 185, 33, 216, 160
-1.00939, 197, 33, 228, 160
-1.0094, 457, 49, 488, 176
-1.0094, 273, 1, 400, 128
-1.00943, 225, 65, 256, 192
-1.00953, 173, 17, 204, 144
-1.00953, 17, 33, 48, 160
-1.00953, 29, 33, 60, 160
-1.00956, 125, 33, 156, 160
-1.00956, 137, 33, 168, 160
-1.00956, 149, 33, 180, 160
-1.00956, 161, 33, 192, 160
-1.00956, 213, 33, 244, 160
-1.00956, 257, 33, 288, 160
-1.00956, 281, 33, 312, 160
-1.00956, 293, 33, 324, 160
-1.00956, 305, 33, 336, 160
-1.00956, 317, 33, 348, 160
-1.01002, 433, 209, 496, 333
-1.01002, 49, 33, 176, 160
-1.01002, 225, 33, 352, 160
-1.01015, 177, 65, 304, 192
-1.01032, 1, 17, 128, 144
-1.01085, 345, 49, 408, 176
-1.01162, 1, 65, 128, 192
-1.01322, 321, 17, 384, 144
-1.01361, 345, 1, 408, 128
-1.01371, 281, 33, 344, 160
-1.01406, 145, 33, 208, 160
-1.01406, 169, 33, 232, 160
-1.01418, 313, 65, 376, 192
-1.01435, 257, 33, 320, 160
-1.01442, 233, 1, 296, 128
-1.01471, 121, 17, 184, 144
-1.01471, 193, 17, 256, 144
-1.01471, 17, 33, 80, 160
-1.01478, 49, 33, 112, 160
-1.01478, 73, 33, 136, 160
-1.01478, 97, 33, 160, 160
-1.01487, 233, 65, 296, 192
-1.01491, 193, 65, 256, 192
-1.01636, 121, 65, 184, 192
