1955
-0.388658, 1, 1, 500, 375
-0.428852, 1, 97, 500, 352
-0.440396, 1, 1, 500, 256
-0.49802, 1, 1, 256, 375
-0.523853, 33, 129, 288, 375
-0.565791, 193, 1, 448, 375
-0.652069, 193, 97, 448, 352
-0.6734, 97, 1, 352, 375
-0.684688, 33, 33, 288, 288
-0.714184, 161, 1, 416, 256
-0.806067, 257, 1, 500, 256
-0.852533, 129, 129, 256, 375
-0.871413, 113, 33, 240, 288
-0.871902, 321, 1, 448, 256
-0.873596, 49, 129, 176, 375
-0.874697, 97, 1, 224, 375
-0.87581, 161, 33, 288, 288
-0.87591, 305, 1, 432, 375
-0.883811, 145, 1, 272, 375
-0.886161, 369, 1, 496, 375
-0.887112, 1, 1, 128, 256
-0.890058, 369, 1, 496, 256
-0.894024, 33, 1, 160, 375
-0.894187, 65, 33, 192, 288
-0.900592, 1, 129, 128, 375
-0.901276, 209, 65, 336, 320
-0.901484, 1, 209, 500, 336
-0.901649, 1, 145, 500, 272
-0.903509, 1, 1, 500, 128
-0.905077, 209, 1, 336, 375
-0.907491, 321, 97, 448, 352
-0.908585, 369, 97, 496, 352
-0.908669, 273, 1, 400, 256
-0.908896, 1, 49, 500, 176
-0.910798, 33, 129, 288, 256
-0.911285, 257, 1, 384, 375
-0.917111, 1, 65, 256, 192
-0.918098, 33, 193, 288, 320
-0.919526, 1, 97, 500, 224
-0.927101, 57, 161, 120, 288
-0.928723, 129, 81, 384, 208
-0.930271, 129, 129, 384, 256
-0.930456, 257, 129, 384, 375
-0.932771, 97, 129, 224, 256
-0.935903, 129, 177, 384, 304
-0.936241, 225, 145, 480, 272
-0.937153, 185, 145, 248, 272
-0.937705, 193, 241, 448, 368
-0.940523, 145, 129, 272, 256
-0.940685, 49, 177, 176, 304
-0.941884, 353, 17, 480, 144
-0.942693, 145, 33, 272, 160
-0.943411, 145, 81, 272, 208
-0.94404, 129, 33, 384, 160
-0.944508, 161, 97, 224, 224
-0.944853, 41, 225, 104, 352
-0.945103, 49, 217, 112, 280
-0.946409, 33, 1, 288, 128
-0.946533, 305, 1, 432, 128
-0.946573, 65, 185, 128, 248
-0.947129, 225, 81, 480, 208
-0.947141, 129, 193, 256, 320
-0.947608, 65, 209, 128, 336
-0.948489, 49, 225, 176, 352
-0.948791, 33, 145, 96, 272
-0.949299, 1, 177, 128, 304
-0.950018, 49, 161, 112, 224
-0.950607, 73, 209, 136, 272
-0.950697, 1, 241, 256, 368
-0.950917, 97, 81, 224, 208
-0.951072, 257, 1, 384, 128
-0.95112, 225, 193, 480, 320
-0.951194, 1, 17, 128, 144
-0.951585, 81, 161, 144, 288
-0.952152, 145, 17, 208, 144
-0.952963, 193, 129, 320, 256
-0.953181, 81, 1, 208, 128
-0.95337, 185, 81, 248, 208
-0.953615, 161, 145, 224, 272
-0.954137, 337, 17, 400, 144
-0.95438, 257, 1, 500, 128
-0.955073, 209, 129, 272, 256
-0.955155, 185, 161, 248, 224
-0.956052, 1, 225, 128, 352
-0.956219, 369, 113, 496, 240
-0.956304, 169, 193, 232, 320
-0.956349, 17, 193, 80, 320
-0.956477, 49, 65, 176, 192
-0.956636, 273, 1, 336, 128
-0.956792, 137, 129, 200, 256
-0.957018, 185, 193, 248, 256
-0.957144, 9, 113, 72, 240
-0.957214, 105, 209, 168, 336
-0.957225, 177, 105, 240, 168
-0.958046, 97, 241, 352, 368
-0.958371, 1, 49, 64, 176
-0.958581, 377, 97, 440, 224
-0.958738, 129, 65, 192, 192
-0.958915, 97, 209, 160, 272
-0.959332, 369, 225, 496, 352
-0.959463, 33, 97, 96, 224
-0.959655, 193, 177, 320, 304
-0.959822, 305, 1, 368, 128
-0.959883, 385, 33, 448, 160
-0.960285, 41, 185, 104, 248
-0.960978, 65, 241, 128, 304
-0.961546, 337, 65, 464, 192
-0.961606, 25, 217, 88, 280
-0.961723, 209, 169, 272, 232
-0.961927, 137, 121, 200, 184
-0.962514, 65, 113, 128, 240
-0.962536, 273, 161, 400, 288
-0.962612, 425, 113, 488, 240
-0.96303, 177, 129, 240, 192
-0.963181, 361, 1, 424, 128
-0.963291, 193, 81, 320, 208
-0.963513, 321, 145, 384, 272
-0.963599, 33, 49, 96, 176
-0.964054, 273, 49, 400, 176
-0.96424, 369, 17, 432, 80
-0.964391, 353, 177, 480, 304
-0.964666, 321, 225, 448, 352
-0.964701, 1, 129, 128, 256
-0.964831, 169, 1, 232, 128
-0.964854, 345, 209, 408, 336
-0.964891, 89, 185, 152, 248
-0.96491, 305, 65, 368, 192
-0.965183, 65, 185, 96, 248
-0.965246, 361, 49, 424, 176
-0.965388, 321, 113, 448, 240
-0.965519, 393, 1, 456, 64
-0.965684, 233, 1, 296, 128
-0.965693, 33, 257, 96, 320
-0.965804, 297, 25, 360, 88
-0.965832, 209, 1, 336, 128
-0.965871, 113, 129, 176, 256
-0.966041, 193, 1, 256, 128
-0.966067, 433, 33, 496, 160
-0.966242, 385, 145, 448, 272
-0.966479, 97, 241, 224, 368
-0.966503, 105, 233, 168, 296
-0.966644, 49, 129, 176, 256
-0.966719, 201, 137, 264, 200
-0.966825, 217, 81, 280, 208
-0.966939, 193, 225, 320, 352
-0.967108, 153, 129, 216, 375
-0.967266, 281, 49, 344, 176
-0.967523, 73, 209, 104, 272
-0.967614, 337, 97, 400, 224
-0.967705, 217, 209, 280, 336
-0.967786, 49, 281, 112, 344
-0.96785, 289, 1, 352, 64
-0.968236, 73, 161, 136, 224
-0.968304, 145, 241, 272, 368
-0.96834, 49, 129, 112, 375
-0.9685, 153, 97, 216, 160
-0.969333, 385, 225, 448, 352
-0.969342, 77, 185, 108, 248
-0.969427, 181, 97, 212, 224
-0.969483, 61, 177, 92, 304
-0.969621, 425, 97, 488, 160
-0.969628, 169, 225, 232, 288
-0.969629, 49, 209, 176, 272
-0.969678, 209, 201, 272, 264
-0.969844, 177, 65, 240, 320
-0.969927, 273, 225, 400, 352
-0.969978, 329, 1, 392, 64
-0.970079, 25, 121, 88, 184
-0.970278, 369, 41, 432, 104
-0.970342, 9, 193, 72, 256
-0.970392, 313, 209, 376, 272
-0.970555, 361, 145, 424, 272
-0.970662, 61, 153, 92, 216
-0.970715, 25, 161, 88, 224
-0.970781, 433, 161, 496, 224
-0.971031, 177, 49, 240, 112
-0.971124, 233, 169, 296, 232
-0.971128, 137, 25, 200, 88
-0.971138, 409, 33, 472, 160
-0.971177, 9, 241, 72, 304
-0.971181, 345, 25, 408, 88
-0.971187, 241, 81, 304, 208
-0.971225, 89, 185, 120, 248
-0.971452, 265, 17, 328, 80
-0.971631, 401, 25, 464, 88
-0.97164, 321, 193, 384, 320
-0.971745, 401, 97, 464, 224
-0.971983, 197, 145, 228, 272
-0.97216, 417, 121, 480, 184
-0.972223, 185, 241, 248, 368
-0.972309, 321, 33, 384, 96
-0.972361, 181, 105, 212, 168
-0.972513, 89, 289, 152, 352
-0.972655, 33, 41, 96, 104
-0.972662, 17, 241, 80, 368
-0.97268, 129, 313, 192, 375
-0.972692, 369, 281, 432, 344
-0.972713, 153, 145, 216, 208
-0.972738, 385, 97, 448, 160
-0.972977, 137, 1, 200, 64
-0.973033, 61, 129, 92, 256
-0.973033, 49, 1, 112, 256
-0.973076, 109, 201, 140, 264
-0.973144, 73, 153, 104, 216
-0.973206, 53, 177, 84, 240
-0.973259, 17, 1, 80, 128
-0.973295, 41, 89, 104, 152
-0.973298, 409, 161, 472, 288
-0.97332, 185, 297, 248, 360
-0.973402, 145, 113, 272, 176
-0.973417, 65, 137, 128, 200
-0.973505, 201, 97, 264, 160
-0.97362, 281, 161, 344, 288
-0.973641, 369, 313, 432, 375
-0.973655, 193, 193, 256, 320
-0.973827, 393, 137, 456, 200
-0.973916, 193, 73, 256, 136
-0.973981, 1, 33, 64, 96
-0.973987, 409, 73, 472, 136
-0.974034, 53, 217, 84, 280
-0.974126, 121, 209, 184, 272
-0.97413, 73, 161, 104, 288
-0.974244, 273, 49, 336, 112
-0.974312, 9, 65, 72, 128
-0.974355, 313, 153, 376, 216
-0.974365, 93, 209, 124, 272
-0.974426, 129, 233, 192, 296
-0.974448, 297, 241, 360, 304
-0.974513, 401, 273, 464, 336
-0.97458, 433, 1, 496, 64
-0.974605, 145, 65, 208, 128
-0.974647, 257, 113, 384, 240
-0.974661, 113, 1, 176, 128
-0.97468, 213, 193, 244, 256
-0.974794, 361, 129, 424, 192
-0.974809, 169, 121, 200, 184
-0.974809, 225, 137, 288, 200
-0.974841, 385, 65, 448, 128
-0.974933, 209, 305, 272, 368
-0.975144, 345, 225, 408, 288
-0.97519, 297, 49, 360, 112
-0.975212, 217, 241, 280, 304
-0.975235, 433, 209, 496, 336
-0.975323, 409, 249, 472, 312
-0.975431, 297, 113, 360, 240
-0.975473, 1, 65, 128, 192
-0.975522, 153, 33, 216, 288
-0.975536, 49, 233, 176, 296
-0.975541, 169, 265, 232, 328
-0.975618, 325, 1, 356, 128
-0.975652, 129, 209, 192, 336
-0.975672, 353, 193, 416, 256
-0.975742, 49, 161, 80, 288
-0.975748, 17, 177, 144, 240
-0.975872, 377, 17, 408, 80
-0.975904, 425, 41, 488, 104
-0.975954, 337, 145, 400, 208
-0.975994, 345, 273, 408, 336
-0.976083, 177, 137, 304, 200
-0.976087, 361, 89, 424, 152
-0.97609, 161, 193, 224, 256
-0.976148, 433, 209, 496, 272
-0.976247, 65, 305, 128, 368
-0.976352, 1, 89, 64, 152
-0.976446, 113, 193, 240, 256
-0.976483, 401, 169, 464, 232
-0.976529, 361, 33, 424, 288
-0.97653, 197, 161, 228, 224
-0.976598, 201, 65, 264, 320
-0.97668, 349, 1, 380, 128
-0.976693, 409, 241, 472, 368
-0.976708, 321, 105, 384, 168
-0.976819, 69, 233, 100, 296
-0.976833, 193, 81, 224, 208
-0.976844, 281, 209, 344, 272
-0.976868, 213, 153, 244, 216
-0.976893, 321, 281, 384, 344
-0.977029, 169, 1, 232, 64
-0.977081, 385, 1, 448, 256
-0.977162, 1, 113, 64, 176
-0.97724, 161, 169, 224, 232
-0.977268, 305, 17, 432, 80
-0.977279, 397, 17, 428, 80
-0.977286, 289, 161, 352, 224
-0.977512, 65, 177, 192, 240
-0.977564, 89, 257, 152, 320
-0.977636, 153, 313, 216, 375
-0.977703, 53, 225, 84, 352
-0.977894, 233, 129, 296, 256
-0.977896, 233, 169, 264, 232
-0.977968, 209, 129, 240, 256
-0.977985, 161, 241, 224, 368
-0.978024, 161, 81, 192, 208
-0.97805, 193, 1, 256, 64
-0.978096, 113, 169, 240, 232
-0.978098, 433, 73, 496, 136
-0.978125, 161, 217, 288, 280
-0.978139, 385, 249, 448, 312
-0.978202, 89, 97, 152, 224
-0.978221, 93, 177, 124, 304
-0.978272, 393, 297, 456, 360
-0.978323, 205, 193, 236, 320
-0.978358, 177, 25, 240, 88
-0.978368, 209, 273, 272, 336
-0.978399, 81, 129, 208, 192
-0.978461, 321, 233, 384, 296
-0.978486, 425, 185, 488, 248
-0.978512, 313, 241, 376, 368
-0.978539, 25, 97, 88, 352
-0.978575, 113, 225, 240, 288
-0.978612, 1, 201, 128, 264
-0.978686, 321, 257, 384, 320
-0.978786, 241, 81, 304, 144
-0.978795, 185, 145, 216, 272
-0.978808, 273, 97, 336, 224
-0.978849, 193, 97, 224, 160
-0.978872, 361, 169, 424, 232
-0.978925, 273, 185, 336, 248
-0.978995, 161, 41, 288, 104
-0.979008, 321, 185, 384, 248
-0.979153, 385, 201, 448, 264
-0.979153, 273, 249, 336, 312
-0.97919, 129, 97, 192, 160
-0.979196, 353, 249, 416, 312
-0.979283, 377, 1, 408, 128
-0.979299, 297, 129, 360, 192
-0.979299, 193, 249, 256, 312
-0.979375, 281, 209, 344, 336
-0.979381, 65, 25, 192, 88
-0.979398, 325, 17, 356, 80
-0.9794, 233, 193, 296, 256
-0.979411, 1, 153, 128, 216
-0.979466, 305, 41, 432, 104
-0.979549, 321, 65, 384, 128
-0.979609, 117, 225, 148, 288
-0.979747, 113, 185, 176, 248
-0.979761, 97, 65, 224, 128
-0.97979, 433, 1, 496, 256
-0.979792, 49, 153, 80, 216
-0.979808, 185, 137, 216, 200
-0.979832, 177, 177, 304, 240
-0.979865, 57, 65, 120, 192
-0.979935, 113, 273, 176, 336
-0.979943, 205, 129, 236, 192
-0.979992, 193, 225, 256, 288
-0.980016, 305, 1, 336, 128
-0.98019, 17, 265, 144, 328
-0.980244, 97, 161, 160, 224
-0.980306, 1, 33, 32, 96
-0.980313, 9, 297, 72, 360
-0.980314, 433, 97, 496, 352
-0.98035, 345, 57, 408, 120
-0.980439, 161, 289, 224, 352
-0.980532, 129, 249, 256, 312
-0.980576, 345, 49, 376, 176
-0.980603, 225, 41, 288, 104
-0.980606, 273, 273, 336, 336
-0.980613, 353, 25, 480, 88
-0.980627, 129, 129, 192, 375
-0.980646, 401, 225, 464, 288
-0.980686, 313, 17, 344, 80
-0.980696, 25, 1, 88, 256
-0.980699, 137, 257, 200, 320
-0.980783, 317, 49, 348, 176
-0.980795, 33, 65, 96, 128
-0.980833, 49, 153, 176, 216
-0.980888, 1, 225, 128, 288
-0.981071, 337, 1, 400, 256
-0.981086, 33, 305, 160, 368
-0.981121, 9, 33, 40, 160
-0.981168, 149, 65, 180, 192
-0.981187, 265, 1, 328, 256
-0.981244, 369, 89, 496, 152
-0.981244, 81, 281, 208, 344
-0.98138, 93, 297, 124, 360
-0.981424, 337, 1, 368, 128
-0.981499, 337, 129, 400, 375
-0.981516, 17, 81, 48, 208
-0.981533, 5, 57, 36, 120
-0.981536, 113, 33, 240, 96
-0.981562, 357, 33, 388, 96
-0.981589, 129, 137, 256, 200
-0.98159, 145, 89, 272, 152
-0.981598, 305, 33, 368, 288
-0.981627, 73, 209, 104, 336
-0.981656, 225, 1, 352, 64
-0.981684, 169, 129, 200, 256
-0.981694, 193, 185, 224, 248
-0.981715, 105, 225, 136, 288
-0.981736, 109, 193, 140, 320
-0.981773, 305, 145, 432, 208
-0.981779, 413, 25, 444, 88
-0.981823, 209, 217, 240, 280
-0.981889, 49, 257, 80, 320
-0.981904, 81, 113, 112, 240
-0.982041, 233, 97, 264, 224
-0.982045, 213, 265, 244, 328
-0.982071, 133, 233, 164, 296
-0.982191, 433, 161, 496, 288
-0.982267, 97, 89, 224, 152
-0.982278, 361, 1, 392, 128
-0.982535, 129, 1, 192, 256
-0.98256, 193, 33, 224, 160
-0.982568, 377, 129, 440, 375
-0.982684, 233, 137, 264, 200
-0.98269, 89, 129, 152, 375
-0.982699, 357, 145, 388, 208
-0.982735, 37, 97, 68, 224
-0.982751, 353, 185, 480, 248
-0.982811, 409, 281, 440, 344
-0.982884, 145, 1, 272, 64
-0.982938, 57, 81, 88, 208
-0.982983, 465, 25, 496, 88
-0.983, 173, 153, 204, 216
-0.983002, 353, 49, 480, 112
-0.983029, 305, 41, 336, 104
-0.983034, 105, 177, 136, 240
-0.983048, 145, 65, 272, 128
-0.983066, 157, 121, 188, 184
-0.983069, 21, 17, 52, 144
-0.98311, 209, 233, 336, 296
-0.983163, 121, 201, 152, 264
-0.983203, 321, 297, 448, 360
-0.983227, 321, 265, 448, 328
-0.983251, 129, 209, 160, 336
-0.983263, 249, 65, 280, 192
-0.983348, 257, 161, 384, 224
-0.983383, 41, 1, 104, 128
-0.983409, 365, 161, 396, 288
-0.983443, 233, 1, 264, 128
-0.983491, 17, 9, 144, 72
-0.983492, 389, 1, 420, 128
-0.983514, 397, 41, 428, 104
-0.983516, 209, 201, 336, 264
-0.98352, 85, 273, 116, 336
-0.983567, 201, 73, 232, 136
-0.983615, 137, 1, 200, 375
-0.983633, 65, 257, 192, 320
-0.983646, 345, 161, 376, 288
-0.983689, 225, 137, 352, 200
-0.983711, 385, 289, 416, 352
-0.983723, 229, 193, 260, 256
-0.983744, 145, 121, 176, 184
-0.983763, 193, 113, 320, 176
-0.983826, 225, 97, 288, 352
-0.98387, 225, 145, 256, 272
-0.983887, 361, 65, 392, 192
-0.98389, 225, 217, 256, 280
-0.983931, 105, 49, 168, 176
-0.983945, 193, 41, 224, 104
-0.983993, 181, 201, 212, 264
-0.984035, 193, 73, 320, 136
-0.984045, 129, 313, 256, 375
-0.98405, 41, 209, 72, 336
-0.98407, 409, 1, 472, 256
-0.984139, 177, 313, 304, 375
-0.984172, 173, 33, 204, 160
-0.984211, 65, 1, 192, 64
-0.984222, 205, 297, 236, 360
-0.984297, 93, 233, 124, 296
-0.98431, 57, 1, 120, 375
-0.984334, 369, 265, 496, 328
-0.984375, 257, 41, 384, 104
-0.984465, 45, 1, 76, 128
-0.984612, 193, 225, 224, 352
-0.984668, 5, 81, 36, 144
-0.984679, 369, 113, 496, 176
-0.984699, 241, 1, 304, 256
-0.984761, 41, 193, 72, 256
-0.984764, 365, 113, 396, 240
-0.98478, 345, 49, 376, 112
-0.984802, 229, 193, 260, 320
-0.984812, 273, 305, 400, 368
-0.984823, 29, 97, 60, 160
-0.984862, 217, 225, 248, 352
-0.984863, 81, 313, 208, 375
-0.985076, 369, 297, 496, 360
-0.985086, 257, 145, 320, 272
-0.985086, 165, 305, 196, 368
-0.985149, 361, 185, 392, 248
-0.98519, 169, 1, 232, 375
-0.985198, 413, 17, 444, 144
-0.9852, 409, 241, 440, 368
-0.985242, 365, 273, 396, 336
-0.985271, 249, 97, 280, 160
-0.985297, 289, 113, 416, 176
-0.985351, 141, 17, 172, 144
-0.985368, 85, 225, 116, 352
-0.9854, 41, 233, 72, 296
-0.98541, 465, 113, 496, 176
-0.98542, 177, 73, 208, 136
-0.985454, 369, 1, 432, 375
-0.985484, 109, 249, 140, 312
-0.985484, 365, 249, 396, 312
-0.985515, 425, 73, 456, 136
-0.985517, 209, 81, 240, 208
-0.985532, 229, 113, 260, 176
-0.985564, 257, 241, 320, 368
-0.985598, 417, 1, 448, 64
-0.985627, 141, 265, 172, 328
-0.985628, 201, 1, 264, 375
-0.985642, 377, 265, 408, 328
-0.985649, 369, 1, 496, 64
-0.985696, 401, 129, 464, 375
-0.985721, 369, 145, 496, 208
-0.985735, 233, 49, 264, 112
-0.985735, 389, 265, 420, 328
-0.985766, 81, 233, 112, 296
-0.985781, 465, 97, 496, 224
-0.985806, 305, 185, 432, 248
-0.985814, 397, 289, 428, 352
-0.985828, 253, 73, 284, 136
-0.985882, 273, 273, 400, 336
-0.985936, 421, 121, 452, 184
-0.98594, 313, 153, 344, 216
-0.985963, 365, 225, 396, 352
-0.98598, 305, 49, 336, 176
-0.986, 413, 89, 444, 152
-0.986014, 285, 17, 316, 144
-0.98606, 105, 289, 136, 352
-0.986125, 337, 17, 368, 80
-0.986144, 1, 41, 128, 104
-0.986156, 197, 217, 228, 280
-0.986165, 49, 105, 176, 168
-0.986177, 85, 65, 116, 128
-0.986185, 209, 25, 336, 88
-0.9862, 165, 97, 196, 160
-0.986271, 133, 25, 164, 88
-0.986287, 241, 193, 304, 320
-0.986304, 37, 161, 68, 288
-0.986381, 293, 25, 324, 88
-0.986422, 409, 249, 440, 312
-0.98645, 145, 1, 176, 64
-0.986451, 61, 129, 92, 192
-0.986469, 5, 81, 36, 208
-0.986502, 337, 241, 464, 304
-0.986512, 333, 41, 364, 104
-0.986527, 137, 57, 168, 120
-0.986551, 429, 241, 460, 304
-0.986616, 73, 289, 104, 352
-0.98663, 381, 169, 412, 232
-0.986645, 225, 257, 256, 320
-0.986649, 349, 201, 380, 264
-0.986661, 353, 113, 384, 240
-0.986696, 401, 1, 432, 128
-0.986721, 429, 81, 460, 208
-0.986796, 185, 161, 216, 224
-0.9868, 273, 129, 336, 375
-0.986831, 337, 209, 464, 272
-0.986905, 409, 145, 440, 208
-0.98691, 185, 225, 216, 288
-0.986918, 149, 241, 180, 368
-0.986941, 345, 257, 376, 320
-0.98697, 461, 1, 492, 64
-0.986973, 161, 33, 192, 160
-0.987046, 1, 33, 64, 288
-0.987053, 9, 105, 40, 168
-0.987061, 365, 121, 396, 184
-0.987061, 65, 257, 96, 320
-0.987106, 425, 33, 456, 160
-0.987143, 241, 73, 368, 136
-0.98715, 37, 153, 68, 216
-0.987157, 389, 241, 420, 368
-0.987176, 137, 65, 168, 192
-0.987185, 65, 217, 128, 248
-0.987192, 73, 1, 136, 128
-0.987194, 237, 145, 268, 272
-0.987245, 253, 161, 284, 224
-0.987252, 149, 41, 180, 104
-0.987262, 21, 49, 52, 112
-0.987311, 97, 225, 128, 352
-0.987322, 109, 241, 140, 368
-0.987331, 217, 297, 248, 360
-0.987349, 441, 97, 472, 224
-0.987372, 361, 1, 392, 64
-0.987386, 17, 1, 48, 64
-0.987419, 225, 49, 256, 176
-0.987432, 85, 153, 116, 216
-0.987435, 345, 209, 376, 336
-0.987451, 241, 193, 272, 256
-0.987453, 289, 89, 416, 152
-0.987465, 445, 49, 476, 112
-0.98751, 193, 257, 320, 320
-0.987512, 157, 145, 188, 272
-0.987535, 137, 113, 168, 240
-0.987554, 65, 17, 96, 144
-0.987575, 129, 281, 256, 344
-0.987604, 369, 161, 400, 224
-0.987612, 209, 289, 336, 352
-0.987621, 293, 65, 324, 192
-0.987637, 409, 49, 440, 112
-0.987666, 409, 113, 440, 240
-0.987671, 409, 169, 440, 232
-0.987702, 17, 1, 80, 375
-0.987706, 113, 1, 176, 375
-0.98774, 257, 1, 288, 128
-0.987759, 361, 57, 392, 120
-0.98777, 289, 225, 416, 288
-0.987784, 45, 129, 76, 192
-0.987788, 433, 105, 464, 168
-0.9878, 257, 185, 384, 248
-0.987812, 1, 89, 128, 152
-0.987819, 389, 193, 420, 320
-0.987824, 385, 81, 416, 208
-0.987853, 137, 89, 168, 152
-0.987913, 33, 129, 64, 192
-0.987966, 273, 249, 400, 312
-0.987975, 153, 305, 184, 368
-0.98799, 109, 145, 140, 272
-0.987994, 213, 241, 244, 304
-0.988004, 245, 121, 276, 184
-0.98802, 121, 177, 152, 240
-0.988033, 213, 17, 244, 144
-0.988046, 33, 49, 64, 176
-0.98805, 205, 241, 236, 368
-0.988191, 441, 49, 472, 176
-0.988243, 377, 241, 408, 368
-0.98827, 449, 1, 480, 128
-0.988284, 49, 173, 112, 204
-0.98838, 193, 165, 256, 196
-0.988398, 329, 49, 360, 176
-0.988423, 65, 193, 128, 224
-0.98843, 241, 105, 368, 168
-0.988544, 421, 161, 452, 288
-0.988563, 373, 49, 404, 176
-0.988566, 461, 225, 492, 352
-0.988567, 305, 65, 432, 128
-0.988571, 65, 245, 128, 276
-0.988615, 73, 33, 136, 288
-0.988618, 81, 229, 144, 260
-0.9887, 161, 225, 192, 352
-0.988732, 181, 225, 212, 352
-0.988758, 49, 233, 112, 264
-0.988883, 297, 129, 360, 375
-0.988892, 13, 241, 44, 368
-0.988933, 345, 1, 408, 375
-0.988946, 177, 141, 240, 172
-0.988993, 409, 177, 440, 304
-0.989014, 145, 125, 208, 156
-0.989062, 57, 161, 120, 192
-0.989068, 33, 65, 160, 128
-0.989104, 89, 209, 152, 240
-0.989111, 209, 49, 336, 112
-0.989249, 305, 161, 336, 288
-0.98927, 93, 129, 124, 256
-0.989272, 41, 221, 104, 252
-0.989405, 305, 113, 336, 240
-0.989415, 177, 121, 240, 152
-0.989473, 33, 201, 288, 264
-0.989479, 41, 209, 104, 240
-0.98961, 265, 65, 296, 192
-0.989632, 25, 177, 88, 208
-0.989634, 105, 33, 168, 288
-0.989661, 73, 301, 136, 332
-0.989674, 421, 225, 452, 352
-0.989694, 469, 1, 500, 128
-0.989726, 441, 225, 472, 352
-0.98979, 325, 225, 356, 352
-0.98981, 65, 205, 128, 236
-0.989877, 33, 189, 96, 220
-0.989881, 201, 153, 264, 184
-0.989901, 177, 197, 240, 228
-0.989943, 381, 129, 412, 256
-0.989969, 25, 233, 88, 264
-0.989993, 329, 129, 360, 256
-0.989995, 269, 1, 300, 128
-0.990042, 417, 1, 480, 375
-0.990078, 81, 1, 112, 128
-0.990091, 21, 129, 52, 256
-0.9901, 393, 29, 456, 60
-0.990138, 453, 113, 484, 240
-0.990147, 305, 1, 368, 375
-0.990151, 129, 141, 192, 172
-0.990164, 177, 225, 240, 256
-0.990176, 201, 213, 264, 244
-0.990208, 369, 13, 432, 44
-0.990228, 49, 305, 112, 336
-0.990275, 1, 113, 128, 176
-0.990298, 333, 177, 364, 304
-0.990299, 193, 177, 256, 208
-0.990363, 225, 153, 288, 184
-0.990371, 125, 161, 156, 288
-0.990377, 433, 145, 464, 272
-0.990394, 169, 109, 232, 140
-0.990434, 105, 237, 168, 268
-0.990444, 465, 145, 496, 272
-0.990448, 49, 293, 112, 324
-0.990456, 25, 165, 88, 196
-0.990468, 105, 221, 168, 252
-0.990484, 77, 49, 108, 176
-0.990509, 73, 181, 136, 212
-0.990533, 401, 289, 464, 320
-0.990534, 313, 153, 376, 184
-0.990575, 433, 25, 496, 56
-0.990579, 145, 113, 208, 144
-0.990621, 433, 113, 496, 144
-0.990654, 137, 13, 200, 44
-0.990657, 393, 1, 456, 375
-0.990659, 177, 153, 240, 184
-0.990668, 369, 25, 432, 56
-0.990689, 137, 1, 200, 32
-0.99069, 41, 249, 104, 280
-0.990693, 129, 273, 192, 304
-0.990723, 469, 49, 500, 176
-0.990729, 393, 9, 456, 40
-0.990742, 169, 25, 232, 56
-0.990745, 193, 305, 256, 336
-0.990758, 401, 277, 464, 308
-0.99076, 249, 113, 280, 240
-0.990793, 209, 189, 272, 220
-0.990798, 433, 37, 496, 68
-0.990819, 1, 153, 256, 216
-0.990834, 177, 209, 240, 240
-0.990867, 385, 41, 448, 72
-0.990879, 209, 201, 272, 232
-0.990927, 217, 141, 280, 172
-0.990952, 145, 57, 208, 88
-0.990955, 297, 45, 360, 76
-0.990969, 129, 221, 192, 252
-0.990982, 225, 1, 288, 375
-0.990986, 425, 125, 488, 156
-0.990989, 145, 157, 208, 188
-0.991015, 257, 1, 320, 375
-0.991021, 345, 157, 408, 188
-0.991029, 397, 97, 428, 224
-0.991044, 137, 261, 200, 292
-0.991053, 97, 289, 160, 320
-0.99106, 25, 261, 88, 292
-0.991063, 377, 177, 408, 304
-0.991082, 33, 177, 288, 240
-0.991088, 433, 177, 496, 208
-0.991102, 153, 225, 216, 256
-0.991105, 433, 97, 496, 128
-0.991135, 81, 49, 144, 176
-0.991145, 273, 21, 336, 52
-0.991152, 129, 233, 192, 264
-0.991155, 29, 209, 60, 336
-0.991156, 361, 297, 424, 328
-0.991158, 97, 257, 160, 288
-0.991163, 313, 165, 376, 196
-0.991173, 9, 249, 72, 280
-0.991179, 177, 69, 240, 100
-0.991185, 297, 57, 360, 88
-0.991191, 153, 137, 216, 168
-0.991204, 233, 185, 296, 216
-0.991211, 169, 269, 232, 300
-0.991219, 169, 297, 232, 328
-0.991231, 385, 173, 448, 204
-0.991236, 433, 293, 496, 324
-0.991242, 385, 309, 448, 340
-0.991244, 417, 49, 480, 80
-0.991244, 393, 233, 456, 264
-0.991261, 289, 33, 352, 64
-0.99128, 201, 225, 264, 256
-0.991282, 345, 29, 408, 60
-0.991292, 17, 53, 80, 84
-0.991296, 233, 173, 296, 204
-0.9913, 49, 321, 112, 352
-0.991311, 433, 165, 496, 196
-0.991323, 393, 117, 456, 148
-0.991326, 201, 121, 264, 152
-0.991335, 121, 65, 152, 192
-0.99136, 193, 109, 256, 140
-0.991369, 145, 41, 208, 72
-0.991374, 169, 165, 232, 196
-0.991379, 129, 309, 192, 340
-0.991384, 57, 261, 120, 292
-0.991397, 169, 1, 232, 32
-0.991397, 1, 109, 64, 140
-0.991399, 345, 17, 408, 48
-0.991403, 161, 177, 224, 208
-0.99141, 345, 173, 408, 204
-0.991421, 73, 321, 136, 352
-0.991429, 353, 229, 416, 260
-0.99143, 17, 213, 80, 244
-0.991434, 33, 1, 64, 128
-0.991437, 97, 173, 160, 204
-0.99144, 329, 5, 392, 36
-0.99144, 209, 261, 272, 292
-0.991443, 321, 61, 384, 92
-0.991447, 249, 37, 312, 68
-0.991451, 81, 161, 144, 192
-0.991453, 353, 97, 416, 128
-0.991466, 353, 193, 416, 224
-0.991474, 385, 53, 448, 84
-0.991499, 377, 105, 440, 136
-0.991524, 369, 285, 432, 316
-0.991528, 233, 21, 296, 52
-0.99154, 417, 145, 480, 176
-0.991543, 177, 53, 240, 84
-0.991549, 137, 29, 200, 60
-0.991554, 17, 41, 80, 72
-0.991559, 313, 225, 344, 352
-0.991561, 153, 313, 216, 344
-0.991561, 329, 221, 392, 252
-0.991562, 145, 77, 208, 108
-0.991562, 385, 185, 448, 216
-0.991565, 17, 201, 80, 232
-0.991583, 145, 101, 208, 132
-0.991604, 453, 65, 484, 192
-0.991608, 285, 225, 316, 352
-0.991616, 345, 145, 408, 176
-0.991653, 225, 313, 352, 375
-0.99171, 221, 97, 252, 224
-0.991826, 1, 177, 32, 304
-0.991868, 281, 1, 344, 375
-0.991897, 129, 1, 160, 128
-0.991907, 277, 65, 308, 192
-0.991936, 65, 213, 96, 244
-0.99197, 33, 233, 288, 296
-0.991991, 81, 1, 144, 375
-0.992034, 61, 189, 92, 220
-0.992048, 317, 97, 348, 224
-0.992086, 57, 177, 88, 208
-0.99217, 53, 233, 84, 264
-0.992205, 81, 213, 112, 244
-0.992266, 69, 177, 100, 208
-0.992288, 57, 201, 88, 232
-0.992321, 73, 193, 104, 224
-0.992372, 185, 125, 216, 156
-0.9924, 165, 125, 196, 156
-0.992406, 73, 225, 104, 256
-0.992407, 101, 229, 132, 260
-0.992408, 93, 217, 124, 248
-0.992414, 45, 173, 76, 204
-0.99243, 189, 109, 220, 140
-0.992435, 141, 133, 172, 164
-0.992435, 65, 157, 96, 188
-0.992441, 73, 241, 104, 272
-0.992452, 81, 181, 112, 212
-0.992458, 249, 97, 312, 352
-0.992465, 229, 157, 260, 188
-0.992483, 233, 173, 264, 204
-0.992501, 189, 173, 220, 204
-0.992514, 1, 129, 256, 192
-0.992525, 401, 25, 432, 56
-0.992529, 79, 185, 94, 248
-0.992538, 201, 161, 232, 192
-0.992542, 209, 213, 240, 244
-0.992548, 45, 197, 76, 228
-0.992565, 113, 221, 144, 252
-0.992583, 221, 197, 252, 228
-0.992599, 181, 137, 212, 168
-0.992623, 89, 297, 120, 328
-0.992631, 205, 225, 236, 256
-0.992635, 117, 209, 148, 240
-0.992636, 197, 193, 228, 224
-0.992657, 397, 45, 428, 76
-0.99267, 1, 217, 500, 280
-0.992671, 177, 113, 208, 144
-0.992683, 381, 29, 412, 60
-0.992685, 213, 145, 244, 176
-0.992724, 417, 33, 448, 64
-0.992724, 53, 213, 84, 244
-0.992734, 377, 9, 408, 40
-0.992752, 221, 169, 252, 200
-0.992754, 73, 293, 104, 324
-0.992757, 237, 185, 268, 216
-0.992758, 221, 265, 252, 296
-0.992773, 153, 257, 184, 288
-0.992775, 357, 45, 388, 76
-0.992779, 105, 205, 136, 236
-0.99278, 389, 13, 420, 44
-0.992782, 81, 169, 112, 200
-0.992786, 213, 157, 244, 188
-0.992789, 189, 217, 220, 248
-0.992815, 93, 185, 124, 216
-0.992818, 457, 121, 488, 152
-0.99282, 133, 265, 164, 296
-0.992822, 345, 53, 376, 84
-0.992841, 89, 241, 120, 272
-0.992842, 209, 201, 240, 232
-0.992844, 173, 157, 204, 188
-0.992852, 309, 157, 340, 188
-0.992863, 353, 161, 384, 192
-0.992864, 333, 37, 364, 68
-0.992864, 53, 161, 84, 192
-0.992867, 69, 309, 100, 340
-0.992872, 221, 185, 252, 216
-0.992873, 161, 309, 192, 340
-0.992874, 205, 313, 236, 344
-0.992878, 389, 297, 420, 328
-0.992881, 233, 145, 264, 176
-0.992888, 421, 129, 452, 160
-0.992895, 121, 233, 152, 264
-0.992896, 185, 97, 216, 128
-0.992901, 313, 49, 344, 80
-0.992903, 185, 149, 216, 180
-0.992905, 81, 309, 112, 340
-0.992908, 89, 229, 120, 260
-0.992909, 153, 125, 184, 156
-0.992914, 229, 253, 260, 284
-0.992917, 469, 117, 500, 148
-0.992917, 5, 81, 36, 112
-0.992926, 65, 253, 96, 284
-0.99293, 209, 181, 240, 212
-0.992931, 145, 273, 176, 304
-0.992934, 1, 49, 32, 80
-0.992938, 193, 53, 224, 84
-0.992938, 125, 221, 156, 252
-0.992939, 161, 145, 192, 176
-0.992939, 29, 101, 60, 132
-0.992941, 49, 257, 80, 288
-0.992943, 81, 281, 112, 312
-0.99295, 221, 209, 252, 240
-0.99295, 201, 133, 232, 164
-0.992951, 101, 289, 132, 320
-0.992952, 345, 41, 376, 72
-0.992952, 321, 157, 352, 188
-0.992954, 69, 177, 84, 240
-0.992956, 441, 117, 472, 148
-0.992956, 433, 49, 464, 80
-0.992963, 225, 305, 256, 336
-0.992964, 1, 1, 500, 64
-0.99297, 469, 177, 500, 208
-0.992979, 185, 197, 216, 228
-0.992982, 129, 209, 384, 272
-0.992984, 45, 185, 76, 216
-0.992984, 193, 169, 448, 232
-0.992985, 213, 301, 244, 332
-0.992991, 93, 253, 124, 284
-0.992996, 349, 149, 380, 180
-0.992999, 101, 173, 132, 204
-0.992999, 181, 229, 212, 260
-0.993001, 333, 49, 364, 80
-0.993001, 73, 321, 104, 352
-0.993002, 253, 77, 284, 108
-0.993003, 17, 93, 48, 124
-0.993004, 433, 37, 464, 68
-0.993005, 409, 177, 440, 208
-0.99301, 377, 301, 408, 332
-0.993013, 193, 233, 224, 264
-0.993016, 313, 29, 344, 60
-0.993025, 449, 97, 480, 128
-0.993026, 325, 61, 356, 92
-0.993028, 137, 69, 168, 100
-0.993028, 417, 249, 448, 280
-0.993029, 145, 21, 176, 52
-0.993029, 453, 109, 484, 140
-0.99303, 245, 153, 276, 184
-0.993033, 5, 69, 36, 100
-0.993038, 33, 245, 64, 276
-0.993045, 349, 201, 380, 232
-0.993048, 141, 121, 172, 152
-0.99305, 181, 317, 212, 348
-0.993052, 209, 269, 240, 300
-0.993055, 9, 113, 40, 144
-0.993056, 369, 93, 400, 124
-0.993056, 245, 173, 276, 204
-0.993109, 1, 305, 256, 368
-0.99323, 87, 185, 102, 248
-0.993272, 193, 145, 448, 208
-0.99333, 1, 193, 500, 256
-0.993361, 63, 153, 78, 216
-0.993452, 97, 129, 352, 192
-0.993463, 75, 209, 90, 272
-0.993589, 49, 221, 176, 252
-0.993621, 1, 97, 256, 160
-0.993643, 1, 153, 500, 216
-0.993658, 93, 185, 108, 248
-0.993806, 193, 97, 208, 160
-0.993852, 1, 73, 256, 136
-0.993887, 233, 193, 248, 256
-0.993935, 87, 209, 102, 272
-0.993957, 65, 273, 320, 336
-0.993966, 299, 25, 314, 88
-0.993975, 69, 153, 84, 216
-0.994014, 257, 25, 500, 88
-0.994059, 81, 217, 96, 280
-0.994102, 33, 189, 160, 220
-0.994126, 103, 209, 118, 272
-0.99414, 225, 193, 480, 256
-0.994191, 161, 1, 416, 64
-0.994209, 129, 105, 384, 168
-0.994233, 175, 121, 190, 184
-0.994295, 369, 25, 384, 88
-0.994305, 59, 193, 74, 256
-0.994313, 225, 281, 480, 344
-0.99434, 185, 105, 200, 168
-0.994399, 57, 169, 72, 232
-0.994431, 1, 169, 128, 200
-0.994439, 401, 9, 416, 72
-0.994463, 145, 137, 272, 168
-0.994475, 109, 209, 124, 272
-0.994512, 99, 185, 114, 248
-0.994531, 59, 225, 74, 288
-0.994539, 97, 313, 352, 375
-0.994542, 81, 209, 208, 240
-0.99456, 1, 257, 500, 320
-0.994566, 33, 205, 160, 236
-0.99458, 363, 25, 378, 88
-0.994607, 75, 153, 90, 216
-0.99462, 199, 105, 214, 168
-0.994633, 145, 125, 272, 156
-0.994676, 199, 153, 214, 216
-0.99472, 337, 25, 464, 56
-0.994746, 411, 25, 426, 88
-0.994764, 97, 153, 352, 216
-0.994768, 65, 245, 192, 276
-0.9948, 69, 217, 84, 280
-0.994841, 161, 201, 288, 232
-0.994855, 205, 113, 220, 176
-0.99486, 87, 153, 102, 216
-0.994895, 1, 281, 500, 344
-0.994907, 81, 153, 96, 216
-0.994918, 357, 25, 372, 88
-0.994924, 33, 233, 160, 264
-0.994969, 3, 33, 18, 96
-0.994979, 1, 33, 256, 96
-0.994994, 327, 9, 342, 72
-0.995005, 129, 229, 256, 260
-0.995015, 1, 129, 64, 375
-0.995019, 119, 217, 134, 280
-0.995095, 381, 1, 396, 64
-0.995116, 193, 233, 448, 296
-0.995126, 363, 1, 378, 64
-0.99514, 49, 161, 176, 192
-0.995146, 129, 257, 256, 288
-0.995167, 113, 197, 240, 228
-0.995171, 305, 41, 320, 104
-0.99518, 215, 193, 230, 256
-0.995183, 95, 217, 110, 280
-0.995224, 129, 73, 384, 136
-0.995225, 189, 129, 204, 192
-0.995234, 351, 33, 366, 96
-0.995252, 225, 165, 352, 196
-0.995261, 129, 233, 144, 296
-0.995282, 211, 153, 226, 216
-0.995284, 1, 33, 500, 96
-0.995292, 81, 181, 208, 212
-0.995292, 131, 209, 146, 272
-0.995308, 1, 217, 128, 248
-0.995363, 129, 157, 256, 188
-0.995396, 305, 1, 320, 64
-0.995411, 299, 49, 314, 112
-0.995417, 181, 129, 212, 375
-0.99543, 257, 1, 500, 64
-0.995432, 73, 241, 88, 304
-0.995437, 205, 193, 220, 256
-0.995446, 373, 1, 388, 64
-0.995451, 199, 129, 214, 192
-0.995468, 257, 105, 500, 168
-0.995468, 293, 41, 308, 104
-0.995488, 115, 193, 130, 256
-0.995512, 167, 121, 182, 184
-0.995519, 237, 169, 252, 232
-0.99552, 317, 1, 332, 64
-0.995542, 305, 13, 432, 44
-0.995567, 321, 37, 448, 68
-0.995585, 145, 169, 272, 200
-0.995591, 67, 249, 82, 312
-0.995626, 209, 217, 224, 280
-0.995657, 221, 137, 236, 200
-0.995659, 221, 161, 236, 224
-0.995662, 65, 301, 192, 332
-0.995663, 145, 33, 272, 64
-0.995665, 7, 65, 22, 128
-0.995665, 243, 161, 258, 224
-0.995683, 33, 257, 160, 288
-0.995683, 313, 25, 328, 88
-0.995687, 1, 309, 128, 340
-0.995708, 141, 241, 156, 304
-0.995724, 227, 201, 242, 264
-0.995725, 161, 57, 288, 88
-0.995727, 53, 193, 68, 256
-0.995729, 221, 201, 236, 264
-0.995745, 223, 265, 238, 328
-0.995746, 467, 25, 482, 88
-0.995749, 247, 137, 262, 200
-0.995756, 227, 161, 242, 224
-0.99576, 219, 305, 234, 368
-0.995763, 1, 129, 500, 192
-0.995766, 365, 49, 380, 112
-0.995772, 407, 1, 422, 64
-0.995788, 193, 257, 448, 320
-0.995788, 193, 169, 208, 232
-0.995805, 193, 185, 320, 216
-0.995806, 339, 17, 354, 80
-0.995822, 169, 305, 184, 368
-0.995832, 13, 25, 28, 88
-0.995836, 161, 113, 288, 144
-0.995844, 121, 193, 136, 256
-0.995846, 65, 29, 192, 60
-0.995849, 65, 289, 192, 320
-0.995856, 193, 33, 224, 288
-0.995862, 1, 297, 128, 328
-0.995872, 369, 101, 496, 132
-0.995873, 481, 25, 496, 88
-0.995878, 401, 281, 416, 344
-0.995888, 183, 129, 198, 192
-0.995891, 475, 113, 490, 176
-0.995897, 19, 57, 34, 120
-0.995898, 193, 305, 448, 368
-0.9959, 481, 113, 496, 176
-0.995902, 205, 73, 220, 136
-0.995934, 257, 81, 500, 144
-0.995936, 97, 69, 224, 100
-0.995938, 369, 89, 496, 120
-0.995949, 129, 49, 384, 112
-0.99595, 1, 9, 256, 72
-0.995987, 205, 169, 220, 232
-0.995989, 363, 161, 378, 224
-0.995996, 209, 249, 336, 280
-0.996006, 161, 69, 288, 100
-0.996023, 129, 241, 256, 272
-0.996034, 81, 41, 208, 72
-0.996035, 305, 157, 432, 188
-0.996056, 177, 213, 304, 244
-0.996077, 129, 213, 256, 244
-0.996086, 93, 161, 108, 224
-0.996088, 353, 49, 480, 80
-0.996092, 325, 33, 340, 96
-0.996094, 421, 25, 436, 88
-0.996107, 51, 169, 66, 232
-0.996132, 59, 257, 74, 320
-0.996133, 129, 317, 256, 348
-0.996133, 1, 57, 500, 120
-0.996134, 113, 233, 128, 296
-0.996139, 149, 265, 164, 328
-0.996151, 389, 1, 420, 256
-0.996157, 337, 133, 464, 164
-0.996164, 199, 177, 214, 240
-0.996167, 473, 17, 488, 80
-0.996171, 161, 45, 288, 76
-0.996174, 229, 57, 244, 120
-0.996178, 369, 117, 496, 148
-0.99618, 205, 41, 220, 104
-0.996194, 81, 125, 208, 156
-0.996195, 421, 57, 436, 120
-0.996197, 205, 97, 236, 352
-0.996202, 43, 89, 58, 152
-0.996206, 177, 149, 304, 180
-0.99621, 65, 273, 192, 304
-0.996218, 1, 157, 128, 188
-0.996243, 93, 33, 108, 96
-0.996246, 105, 273, 120, 336
-0.996249, 465, 1, 480, 64
-0.996253, 73, 129, 104, 375
-0.996262, 177, 101, 304, 132
-0.996263, 135, 233, 150, 296
-0.996269, 211, 129, 226, 192
-0.996284, 75, 213, 90, 244
-0.996289, 419, 1, 434, 64
-0.996294, 217, 265, 232, 328
-0.996299, 399, 33, 414, 96
-0.996301, 17, 277, 144, 308
-0.996305, 291, 17, 306, 80
-0.996307, 367, 129, 382, 192
-0.996308, 371, 49, 386, 112
-0.99633, 97, 101, 224, 132
-0.996332, 245, 113, 260, 176
-0.996335, 413, 289, 428, 352
-0.996337, 233, 217, 248, 280
-0.996343, 357, 145, 372, 208
-0.996345, 77, 25, 92, 88
-0.996351, 161, 121, 176, 184
-0.996362, 161, 25, 416, 88
-0.99637, 105, 185, 120, 248
-0.996384, 145, 305, 272, 336
-0.996398, 145, 21, 272, 52
-0.996399, 289, 1, 416, 32
-0.996409, 177, 153, 192, 216
-0.996409, 143, 49, 158, 112
-0.996412, 81, 233, 208, 264
-0.996422, 357, 193, 372, 256
-0.996424, 85, 281, 100, 344
-0.996426, 361, 1, 392, 256
-0.996431, 227, 225, 242, 288
-0.996432, 55, 1, 70, 64
-0.996432, 105, 233, 120, 296
-0.996434, 203, 233, 218, 296
-0.996438, 65, 17, 192, 48
-0.996446, 329, 217, 344, 280
-0.996448, 391, 289, 406, 352
-0.99645, 243, 185, 258, 248
-0.996451, 81, 261, 208, 292
-0.996453, 97, 137, 224, 168
-0.996454, 337, 65, 464, 96
-0.996464, 65, 193, 80, 224
-0.99648, 113, 273, 240, 304
-0.996499, 193, 309, 320, 340
-0.996515, 369, 213, 496, 244
-0.996524, 321, 229, 448, 260
-0.996525, 1, 313, 500, 375
-0.996535, 161, 81, 288, 112
-0.996535, 97, 89, 224, 120
-0.996536, 225, 153, 352, 184
-0.996538, 69, 209, 84, 240
-0.996541, 353, 241, 480, 272
-0.996547, 321, 101, 448, 132
-0.996563, 209, 117, 336, 148
-0.99658, 65, 149, 192, 180
-0.996582, 321, 177, 448, 208
-0.996591, 369, 149, 496, 180
-0.996599, 273, 169, 400, 200
-0.996633, 369, 1, 496, 32
-0.996662, 209, 321, 336, 352
-0.996674, 1, 97, 500, 160
-0.996675, 129, 329, 256, 360
-0.9967, 145, 185, 272, 216
-0.996706, 369, 177, 496, 208
-0.996707, 61, 129, 92, 375
-0.996709, 321, 197, 448, 228
-0.996712, 81, 57, 208, 88
-0.996712, 209, 233, 336, 264
-0.996727, 373, 1, 404, 256
-0.996747, 193, 133, 320, 164
-0.996747, 209, 201, 336, 232
-0.996771, 273, 53, 400, 84
-0.996777, 369, 37, 496, 68
-0.996785, 81, 113, 208, 144
-0.996793, 353, 333, 480, 364
-0.996795, 273, 41, 400, 72
-0.996817, 33, 337, 160, 368
-0.996842, 369, 281, 496, 312
-0.996843, 17, 33, 144, 64
-0.996846, 369, 313, 496, 344
-0.996879, 353, 297, 480, 328
-0.996881, 1, 245, 128, 276
-0.996888, 65, 313, 192, 344
-0.996908, 97, 169, 224, 200
-0.996914, 65, 177, 80, 208
-0.996926, 85, 97, 116, 352
-0.996934, 145, 9, 272, 40
-0.99694, 289, 25, 416, 56
-0.996966, 345, 1, 376, 256
-0.996967, 305, 241, 432, 272
-0.996976, 195, 101, 210, 132
-0.996983, 289, 313, 416, 344
-0.99699, 257, 205, 384, 236
-0.996993, 181, 33, 212, 288
-0.996995, 33, 5, 160, 36
-0.997006, 321, 285, 448, 316
-0.997011, 189, 125, 204, 156
-0.997023, 59, 193, 74, 224
-0.99704, 77, 189, 92, 220
-0.997041, 197, 113, 212, 144
-0.997079, 289, 325, 416, 356
-0.997092, 59, 173, 74, 204
-0.997094, 71, 197, 86, 228
-0.997115, 305, 145, 432, 176
-0.99712, 153, 129, 184, 375
-0.99712, 353, 253, 480, 284
-0.997126, 225, 217, 352, 248
-0.997132, 229, 65, 260, 320
-0.997135, 79, 225, 94, 256
-0.997137, 63, 213, 78, 244
-0.997141, 1, 49, 128, 80
-0.997157, 209, 33, 336, 64
-0.997177, 71, 181, 86, 212
-0.997184, 1, 97, 128, 128
-0.997185, 185, 113, 200, 144
-0.997186, 91, 181, 106, 212
-0.997209, 81, 1, 208, 32
-0.997211, 1, 321, 128, 352
-0.997212, 177, 261, 304, 292
-0.997223, 105, 213, 120, 244
-0.997226, 381, 5, 396, 36
-0.997228, 257, 137, 384, 168
-0.997237, 69, 225, 84, 256
-0.99725, 369, 197, 496, 228
-0.997255, 365, 129, 396, 375
-0.997267, 297, 1, 328, 256
-0.997274, 369, 77, 496, 108
-0.997282, 233, 197, 248, 228
-0.997294, 81, 345, 208, 375
-0.997302, 289, 261, 416, 292
-0.997308, 353, 161, 480, 192
-0.997333, 257, 193, 384, 224
-0.997343, 81, 325, 208, 356
-0.997354, 45, 129, 76, 375
-0.99736, 99, 225, 114, 256
-0.997372, 321, 273, 448, 304
-0.997385, 225, 13, 352, 44
-0.997385, 353, 345, 480, 375
-0.997387, 81, 169, 96, 200
-0.997393, 205, 105, 220, 136
-0.997393, 321, 213, 448, 244
-0.99741, 273, 285, 400, 316
-0.997415, 235, 165, 250, 196
-0.997423, 289, 345, 416, 375
-0.99743, 149, 265, 164, 296
-0.997445, 369, 41, 384, 72
-0.997455, 161, 33, 192, 288
-0.997456, 257, 49, 500, 112
-0.997457, 113, 221, 128, 252
-0.997478, 209, 225, 224, 256
-0.997482, 371, 29, 386, 60
-0.997485, 85, 221, 100, 252
-0.997485, 299, 33, 314, 64
-0.997506, 131, 233, 146, 264
-0.997514, 89, 241, 104, 272
-0.997522, 247, 165, 262, 196
-0.997541, 97, 213, 112, 244
-0.997544, 297, 45, 312, 76
-0.997549, 203, 217, 218, 248
-0.997554, 203, 117, 218, 148
-0.997569, 73, 33, 104, 288
-0.99757, 241, 177, 256, 208
-0.997572, 91, 297, 106, 328
-0.997576, 197, 169, 212, 200
-0.997612, 81, 209, 96, 240
-0.997614, 83, 301, 98, 332
-0.997617, 193, 129, 224, 375
-0.997632, 221, 201, 236, 232
-0.997632, 217, 65, 248, 320
-0.997633, 57, 33, 88, 288
-0.997634, 169, 129, 200, 375
-0.997637, 71, 157, 86, 188
-0.997647, 191, 113, 206, 144
-0.997653, 433, 65, 464, 320
-0.997658, 205, 133, 220, 164
-0.997672, 65, 161, 80, 192
-0.997677, 91, 213, 106, 244
-0.997682, 453, 1, 484, 256
-0.997685, 477, 113, 492, 144
-0.997691, 53, 173, 68, 204
-0.997694, 99, 293, 114, 324
-0.997701, 119, 225, 134, 256
-0.997716, 223, 269, 238, 300
-0.997725, 141, 1, 172, 256
-0.997735, 195, 129, 210, 160
-0.997736, 105, 225, 120, 256
-0.997741, 409, 25, 424, 56
-0.997757, 315, 153, 330, 184
-0.997763, 77, 157, 92, 188
-0.997767, 363, 37, 378, 68
-0.997772, 105, 297, 120, 328
-0.997774, 225, 145, 240, 176
-0.997777, 381, 97, 412, 352
-0.997777, 73, 237, 88, 268
-0.997782, 203, 173, 218, 204
-0.997786, 111, 205, 126, 236
-0.99781, 369, 53, 384, 84
-0.997813, 421, 1, 452, 256
-0.997818, 85, 181, 100, 212
-0.997818, 213, 213, 228, 244
-0.997826, 241, 157, 256, 188
-0.99783, 183, 137, 198, 168
-0.997831, 325, 1, 356, 256
-0.997833, 303, 45, 318, 76
-0.997835, 175, 261, 190, 292
-0.997843, 125, 225, 140, 256
-0.997843, 205, 157, 220, 188
-0.997845, 155, 265, 170, 296
-0.997845, 215, 201, 230, 232
-0.997847, 313, 1, 344, 256
-0.997847, 189, 101, 204, 132
-0.99786, 351, 53, 366, 84
-0.99786, 161, 125, 176, 156
-0.997872, 177, 153, 192, 184
-0.997873, 185, 305, 200, 336
-0.997874, 97, 181, 112, 212
-0.997875, 21, 1, 52, 256
-0.997885, 223, 165, 238, 196
-0.997887, 179, 117, 194, 148
-0.997887, 205, 237, 220, 268
-0.997889, 113, 233, 128, 264
-0.997895, 221, 301, 236, 332
-0.997899, 417, 29, 432, 60
-0.997902, 233, 249, 248, 280
-0.997908, 401, 1, 432, 256
-0.997911, 177, 129, 192, 160
-0.997912, 63, 225, 78, 256
-0.997912, 61, 261, 76, 292
-0.997917, 229, 157, 244, 188
-0.997934, 139, 237, 154, 268
-0.997936, 349, 37, 364, 68
-0.997941, 355, 41, 370, 72
-0.997944, 231, 29, 246, 60
-0.997948, 87, 161, 102, 192
-0.997966, 401, 41, 416, 72
-0.997968, 403, 297, 418, 328
-0.99797, 375, 9, 390, 40
-0.997973, 411, 49, 426, 80
-0.99798, 455, 277, 470, 308
-0.997983, 387, 9, 402, 40
-0.997994, 145, 133, 160, 164
-0.997996, 55, 9, 70, 40
-0.998002, 59, 161, 74, 192
-0.998002, 83, 193, 98, 224
-0.998003, 169, 305, 184, 336
-0.998003, 305, 29, 320, 60
-0.998003, 83, 321, 98, 352
-0.998014, 33, 33, 64, 288
-0.998014, 277, 113, 292, 144
-0.998023, 75, 169, 90, 200
-0.998029, 473, 177, 488, 208
-0.998032, 375, 41, 390, 72
-0.998032, 217, 165, 232, 196
-0.998033, 247, 149, 262, 180
-0.998035, 135, 217, 150, 248
-0.998038, 361, 25, 376, 56
-0.998039, 183, 229, 198, 260
-0.99804, 53, 257, 68, 288
-0.998044, 325, 37, 340, 68
-0.998045, 125, 205, 140, 236
-0.998045, 445, 293, 460, 324
-0.998046, 97, 129, 128, 375
-0.998046, 399, 21, 414, 52
-0.998047, 395, 9, 410, 40
-0.99805, 209, 193, 224, 224
-0.998062, 315, 29, 330, 60
-0.998062, 229, 261, 244, 292
-0.998068, 99, 249, 114, 280
-0.998093, 1, 1, 32, 256
-0.998108, 245, 1, 276, 256
-0.998182, 253, 97, 284, 352
-0.998201, 85, 1, 116, 256
-0.998258, 285, 1, 316, 256
-0.998321, 465, 97, 496, 352
-0.998326, 421, 97, 452, 352
-0.998342, 469, 1, 500, 256
-0.99836, 57, 217, 120, 232
-0.998365, 65, 223, 128, 238
-0.99839, 349, 97, 380, 352
-0.99842, 329, 47, 360, 62
-0.99842, 63, 177, 78, 304
-0.998421, 53, 217, 84, 232
-0.998421, 229, 141, 260, 156
-0.998421, 313, 43, 344, 58
-0.998421, 21, 57, 52, 72
-0.998422, 461, 147, 492, 162
-0.998423, 77, 171, 108, 186
-0.998423, 413, 41, 444, 56
-0.998423, 53, 249, 84, 264
-0.998424, 33, 121, 64, 136
-0.998424, 225, 305, 256, 320
-0.998426, 221, 269, 252, 284
-0.998426, 65, 249, 128, 264
-0.998427, 365, 169, 396, 184
-0.998428, 49, 185, 80, 200
-0.998428, 353, 201, 384, 216
-0.998428, 141, 263, 172, 278
-0.998428, 229, 151, 260, 166
-0.998429, 345, 47, 376, 62
-0.99843, 53, 227, 84, 242
-0.99843, 361, 163, 392, 178
-0.99843, 181, 149, 212, 164
-0.998431, 193, 65, 224, 80
-0.998433, 65, 181, 128, 196
-0.998433, 109, 231, 140, 246
-0.998435, 393, 97, 424, 352
-0.998436, 229, 257, 260, 272
-0.998436, 209, 223, 240, 238
-0.998436, 421, 123, 452, 138
-0.998437, 233, 191, 264, 206
-0.998438, 209, 263, 240, 278
-0.998439, 193, 167, 256, 182
-0.998439, 149, 279, 180, 294
-0.998439, 53, 239, 84, 254
-0.99844, 81, 301, 112, 316
-0.998441, 185, 197, 248, 212
-0.998442, 437, 119, 468, 134
-0.998442, 53, 259, 84, 274
-0.998442, 209, 235, 240, 250
-0.998442, 413, 31, 444, 46
-0.998442, 349, 165, 380, 180
-0.998443, 81, 217, 144, 232
-0.998444, 313, 49, 344, 64
-0.998444, 433, 43, 464, 58
-0.998444, 105, 219, 136, 234
-0.998445, 325, 67, 356, 82
-0.998445, 153, 263, 184, 278
-0.998446, 389, 13, 420, 28
-0.998446, 129, 281, 160, 296
-0.998446, 5, 85, 36, 100
-0.998448, 145, 129, 176, 144
-0.998448, 45, 193, 76, 208
-0.998448, 177, 115, 208, 130
-0.998448, 229, 157, 260, 172
-0.998449, 77, 233, 108, 248
-0.99845, 429, 55, 460, 70
-0.998452, 465, 109, 496, 124
-0.998453, 357, 45, 388, 60
-0.998453, 73, 295, 104, 310
-0.998453, 93, 247, 124, 262
-0.998453, 121, 233, 152, 248
-0.998454, 225, 263, 256, 278
-0.998455, 173, 143, 204, 158
-0.998457, 349, 159, 380, 174
-0.998457, 205, 303, 236, 318
-0.998457, 201, 111, 232, 126
-0.998458, 57, 187, 120, 202
-0.998459, 81, 249, 112, 264
-0.998459, 233, 199, 264, 214
-0.99846, 373, 301, 404, 316
-0.99846, 17, 89, 48, 104
-0.998461, 237, 185, 268, 200
-0.998461, 237, 175, 268, 190
-0.998462, 229, 207, 260, 222
-0.998462, 389, 297, 420, 312
-0.998462, 469, 127, 500, 142
-0.998463, 433, 61, 464, 76
-0.998465, 217, 193, 248, 208
-0.998467, 193, 173, 224, 188
-0.998469, 65, 229, 128, 244
-0.998472, 109, 225, 140, 240
-0.998474, 465, 29, 496, 44
-0.998476, 81, 227, 112, 242
-0.998476, 193, 121, 224, 136
-0.998476, 209, 167, 240, 182
-0.998476, 85, 191, 116, 206
-0.998478, 357, 51, 388, 66
-0.99848, 61, 167, 92, 182
-0.998484, 137, 137, 200, 152
-0.998484, 109, 237, 140, 252
-0.998486, 41, 241, 104, 256
-0.998489, 61, 185, 92, 200
-0.998492, 209, 229, 240, 244
-0.998492, 121, 239, 152, 254
-0.998492, 137, 131, 200, 146
-0.998493, 401, 27, 432, 42
-0.998493, 177, 135, 240, 150
-0.998495, 77, 243, 108, 258
-0.998497, 33, 189, 96, 204
-0.998498, 161, 121, 224, 136
-0.998498, 185, 109, 216, 124
-0.998498, 209, 215, 240, 230
-0.998499, 41, 177, 104, 192
-0.9985, 113, 209, 144, 224
-0.9985, 401, 37, 432, 52
-0.9985, 57, 193, 120, 208
-0.9985, 209, 161, 272, 176
-0.998503, 189, 135, 220, 150
-0.998504, 377, 15, 408, 30
-0.998505, 461, 121, 492, 136
-0.998505, 189, 223, 220, 238
-0.998505, 93, 299, 124, 314
-0.998506, 65, 237, 128, 252
-0.998507, 213, 145, 244, 160
-0.998507, 65, 255, 128, 270
-0.998508, 33, 215, 96, 230
-0.99851, 169, 127, 232, 142
-0.998512, 185, 153, 248, 168
-0.998513, 193, 195, 224, 210
-0.998513, 213, 207, 244, 222
-0.998514, 229, 163, 260, 178
-0.998515, 161, 111, 224, 126
-0.998515, 65, 197, 96, 212
-0.998517, 49, 175, 80, 190
-0.998519, 165, 135, 196, 150
-0.998519, 199, 97, 214, 224
-0.99852, 81, 211, 144, 226
-0.998521, 93, 227, 124, 242
-0.998522, 385, 23, 448, 38
-0.998523, 41, 249, 104, 264
-0.998523, 177, 225, 240, 240
-0.998524, 377, 25, 408, 40
-0.998526, 369, 29, 432, 44
-0.998526, 177, 143, 240, 158
-0.998527, 393, 37, 456, 52
-0.998528, 57, 167, 120, 182
-0.998528, 65, 161, 96, 176
-0.998528, 169, 231, 232, 246
-0.99853, 89, 225, 152, 240
-0.998534, 193, 215, 256, 230
-0.998534, 425, 121, 488, 136
-0.998535, 33, 183, 96, 198
-0.998536, 145, 135, 176, 150
-0.998536, 393, 21, 424, 36
-0.998536, 25, 233, 88, 248
-0.998536, 181, 229, 212, 244
-0.998538, 33, 225, 96, 240
-0.998538, 157, 129, 188, 144
-0.998539, 105, 219, 168, 234
-0.998541, 213, 161, 244, 176
-0.998542, 221, 201, 252, 216
-0.998542, 97, 241, 160, 256
-0.998543, 33, 207, 96, 222
-0.998547, 137, 63, 200, 78
-0.998549, 209, 203, 272, 218
-0.998549, 185, 129, 216, 144
-0.998549, 173, 121, 204, 136
-0.998549, 141, 129, 172, 375
-0.998549, 73, 177, 104, 192
-0.99855, 49, 313, 112, 328
-0.998551, 137, 125, 200, 140
-0.998552, 385, 13, 448, 28
-0.998552, 217, 151, 280, 166
-0.998553, 433, 43, 496, 58
-0.998553, 177, 203, 240, 218
-0.998553, 189, 103, 220, 118
-0.998553, 69, 211, 100, 226
-0.998554, 17, 177, 80, 192
-0.998554, 153, 143, 216, 158
-0.998556, 169, 161, 232, 176
-0.998558, 69, 251, 100, 266
-0.99856, 209, 307, 272, 322
-0.998561, 81, 215, 112, 230
-0.998561, 433, 29, 496, 44
-0.998562, 393, 31, 456, 46
-0.998562, 33, 197, 96, 212
-0.998562, 337, 171, 400, 186
-0.998566, 81, 185, 112, 200
-0.998567, 1, 57, 64, 72
-0.998568, 185, 121, 248, 136
-0.998568, 89, 179, 152, 194
-0.998568, 17, 257, 80, 272
-0.998569, 433, 37, 496, 52
-0.99857, 361, 299, 424, 314
-0.99857, 49, 261, 112, 276
-0.99857, 177, 105, 240, 120
-0.998571, 65, 305, 128, 320
-0.998572, 57, 211, 120, 226
-0.998573, 57, 233, 88, 248
-0.998573, 73, 299, 136, 314
-0.998574, 65, 175, 128, 190
-0.998574, 177, 303, 240, 318
-0.998574, 97, 231, 160, 246
-0.998574, 137, 21, 200, 36
-0.998575, 197, 167, 228, 182
-0.998576, 313, 163, 376, 178
-0.998576, 361, 305, 424, 320
-0.998577, 193, 191, 256, 206
-0.998578, 89, 187, 152, 202
-0.998578, 305, 169, 368, 184
-0.998579, 401, 291, 464, 306
-0.998579, 137, 273, 200, 288
-0.99858, 201, 145, 264, 160
-0.99858, 57, 161, 120, 176
-0.99858, 49, 323, 112, 338
-0.998581, 201, 173, 264, 188
-0.998581, 57, 191, 88, 206
-0.998582, 401, 305, 464, 320
-0.998582, 209, 197, 272, 212
-0.998583, 65, 205, 128, 220
-0.998585, 185, 113, 248, 128
-0.998586, 25, 171, 88, 186
-0.998586, 321, 69, 384, 84
-0.998587, 193, 31, 256, 46
-0.998587, 65, 227, 96, 242
-0.998587, 401, 45, 464, 60
-0.998587, 177, 69, 240, 84
-0.998588, 321, 157, 384, 172
-0.998588, 105, 209, 168, 224
-0.998588, 169, 277, 232, 292
-0.998588, 57, 207, 88, 222
-0.998589, 65, 243, 128, 258
-0.99859, 361, 13, 424, 28
-0.99859, 377, 43, 440, 58
-0.99859, 201, 223, 264, 238
-0.998592, 337, 37, 400, 52
-0.998593, 401, 99, 464, 114
-0.998593, 53, 199, 84, 214
-0.998594, 129, 151, 192, 166
-0.998595, 89, 247, 152, 262
-0.998595, 121, 235, 184, 250
-0.998596, 205, 1, 236, 256
-0.998596, 69, 191, 100, 206
-0.998597, 297, 53, 360, 68
-0.998597, 169, 271, 232, 286
-0.998597, 289, 45, 352, 60
-0.998597, 129, 129, 160, 375
-0.998598, 137, 1, 200, 16
-0.998598, 41, 255, 104, 270
-0.998598, 57, 199, 120, 214
-0.998599, 233, 31, 296, 46
-0.998599, 169, 31, 232, 46
-0.998599, 145, 57, 208, 72
-0.9986, 161, 149, 224, 164
-0.9986, 233, 197, 296, 212
-0.998602, 409, 127, 472, 142
-0.998602, 121, 241, 184, 256
-0.998602, 425, 115, 488, 130
-0.998602, 137, 15, 200, 30
-0.998603, 361, 21, 424, 36
-0.998604, 233, 213, 296, 228
-0.998604, 17, 47, 80, 62
-0.998605, 273, 25, 336, 40
-0.998606, 65, 293, 128, 308
-0.998606, 209, 127, 272, 142
-0.998608, 145, 229, 208, 244
-0.998608, 169, 23, 232, 38
-0.998609, 393, 121, 456, 136
-0.998609, 129, 281, 192, 296
-0.998609, 93, 217, 124, 232
-0.998614, 189, 115, 220, 130
-0.99863, 203, 145, 218, 272
-0.998632, 65, 217, 96, 232
-0.998679, 65, 129, 80, 256
-0.998685, 405, 97, 436, 352
-0.998689, 81, 221, 112, 236
-0.99869, 77, 145, 92, 272
-0.998699, 185, 97, 200, 224
-0.99871, 337, 97, 368, 352
-0.998711, 55, 161, 70, 288
-0.998733, 13, 129, 44, 375
-0.998751, 445, 129, 476, 375
-0.998772, 193, 97, 208, 224
-0.998806, 117, 129, 148, 375
-0.998821, 73, 193, 88, 320
-0.998863, 381, 1, 396, 128
-0.998907, 207, 49, 222, 176
-0.998914, 305, 97, 336, 352
-0.998921, 57, 209, 72, 336
-0.99893, 179, 129, 194, 256
-0.99893, 209, 129, 224, 256
-0.998931, 369, 1, 384, 128
-0.998945, 359, 1, 374, 128
-0.998946, 311, 1, 326, 128
-0.998953, 83, 161, 98, 288
-0.998955, 31, 17, 46, 144
-0.998961, 351, 1, 366, 128
-0.998961, 273, 65, 304, 320
-0.998966, 231, 145, 246, 272
-0.99897, 327, 1, 342, 128
-0.998977, 177, 81, 192, 208
-0.998978, 97, 33, 128, 288
-0.99898, 97, 177, 112, 304
-0.998982, 71, 129, 86, 256
-0.998993, 23, 65, 38, 192
-0.998995, 337, 1, 352, 128
-0.998998, 171, 65, 186, 192
-0.999008, 197, 161, 212, 288
-0.999014, 241, 129, 272, 375
-0.999023, 221, 225, 236, 352
-0.999029, 67, 225, 82, 352
-0.999031, 103, 177, 118, 304
-0.999035, 299, 1, 314, 128
-0.999049, 1, 1, 16, 128
-0.99905, 321, 33, 336, 160
-0.999061, 231, 193, 246, 320
-0.999064, 143, 1, 158, 128
-0.999075, 93, 225, 108, 352
-0.999076, 153, 241, 168, 368
-0.999082, 189, 49, 204, 176
-0.999083, 203, 1, 218, 128
-0.999086, 209, 193, 224, 320
-0.999089, 225, 129, 240, 256
-0.999093, 91, 161, 106, 288
-0.999103, 221, 177, 236, 304
-0.999107, 63, 81, 78, 208
-0.999109, 165, 81, 180, 208
-0.999112, 191, 161, 206, 288
-0.999128, 215, 177, 230, 304
-0.999135, 375, 49, 390, 176
-0.999144, 321, 97, 352, 352
-0.999158, 241, 97, 256, 224
-0.99916, 53, 113, 68, 240
-0.999163, 183, 49, 198, 176
-0.999167, 275, 1, 290, 128
-0.999167, 293, 33, 308, 160
-0.99917, 353, 49, 368, 176
-0.999173, 89, 97, 104, 224
-0.999173, 113, 241, 128, 368
-0.999176, 305, 1, 320, 128
-0.999178, 25, 1, 40, 128
-0.999178, 465, 1, 480, 128
-0.999181, 109, 177, 124, 304
-0.999183, 399, 1, 414, 128
-0.999187, 413, 1, 428, 128
-0.999188, 159, 241, 174, 368
-0.999191, 423, 1, 438, 128
-0.999193, 391, 1, 406, 128
-0.999196, 215, 129, 230, 256
-0.999201, 357, 161, 372, 288
-0.999206, 345, 1, 360, 128
-0.999207, 101, 225, 116, 352
-0.99921, 195, 49, 210, 176
-0.999214, 53, 1, 68, 128
-0.999214, 237, 177, 252, 304
-0.999215, 77, 1, 92, 128
-0.99923, 245, 145, 260, 272
-0.999231, 171, 113, 186, 240
-0.999233, 7, 17, 22, 144
-0.999239, 369, 49, 384, 176
-0.999239, 315, 97, 330, 224
-0.999243, 83, 97, 98, 224
-0.999247, 133, 209, 148, 336
-0.999249, 361, 49, 376, 176
-0.999251, 231, 49, 246, 176
-0.999252, 247, 97, 262, 224
-0.999253, 51, 209, 66, 336
-0.999255, 17, 33, 32, 160
-0.999258, 201, 49, 216, 176
-0.999261, 97, 129, 112, 256
-0.999265, 375, 1, 390, 128
-0.999268, 49, 161, 64, 288
-0.999269, 381, 225, 396, 352
-0.999269, 227, 241, 242, 368
-0.999271, 33, 81, 48, 208
-0.999272, 159, 65, 174, 192
-0.999273, 201, 225, 216, 352
-0.999275, 41, 49, 56, 176
-0.999276, 237, 1, 252, 128
-0.999278, 435, 113, 450, 240
-0.999281, 231, 1, 246, 128
-0.999281, 1, 129, 32, 375
-0.999285, 115, 161, 130, 288
-0.999288, 363, 97, 378, 224
-0.999288, 415, 241, 430, 368
-0.999289, 69, 1, 84, 128
-0.999293, 349, 177, 364, 304
-0.999294, 309, 49, 324, 176
-0.999296, 149, 65, 164, 192
-0.999297, 383, 97, 398, 224
-0.999298, 143, 241, 158, 368
-0.9993, 457, 209, 472, 336
-0.999301, 235, 97, 250, 224
-0.999303, 137, 65, 152, 192
-0.999304, 483, 97, 498, 224
-0.999308, 419, 97, 434, 224
-0.999311, 153, 1, 168, 128
-0.999312, 473, 1, 488, 128
-0.999313, 79, 225, 94, 352
-0.999313, 427, 49, 442, 176
-0.999314, 287, 81, 302, 208
-0.999316, 253, 81, 268, 208
-0.999317, 87, 225, 102, 352
-0.999318, 459, 1, 474, 128
-0.999318, 3, 97, 18, 224
-0.999318, 279, 49, 294, 176
-0.999322, 375, 129, 390, 256
-0.999325, 469, 97, 484, 224
-0.999326, 277, 225, 292, 352
-0.999328, 13, 81, 28, 208
-0.999329, 347, 49, 362, 176
-0.999329, 365, 161, 380, 288
-0.999365, 45, 33, 76, 288
-0.999423, 33, 129, 64, 375
-0.999523, 293, 97, 324, 352
-0.999553, 129, 33, 160, 288
-0.999599, 261, 1, 292, 256
-0.999625, 297, 41, 312, 56
-0.999625, 357, 31, 372, 46
-0.999625, 401, 33, 416, 48
-0.999626, 61, 261, 76, 276
-0.999626, 397, 11, 412, 26
-0.999627, 157, 265, 172, 280
-0.999627, 239, 37, 254, 52
-0.999628, 23, 57, 38, 72
-0.999628, 305, 27, 320, 42
-0.999628, 365, 39, 380, 54
-0.999629, 481, 117, 496, 132
-0.99963, 463, 23, 478, 38
-0.999631, 243, 181, 258, 196
-0.999631, 67, 221, 82, 236
-0.999631, 391, 27, 406, 42
-0.999632, 77, 241, 92, 256
-0.999632, 227, 197, 242, 212
-0.999632, 201, 123, 216, 138
-0.999632, 211, 223, 226, 238
-0.999633, 101, 189, 116, 204
-0.999633, 177, 155, 192, 170
-0.999633, 69, 235, 84, 250
-0.999633, 223, 303, 238, 318
-0.999633, 55, 261, 70, 276
-0.999633, 209, 239, 224, 254
-0.999634, 105, 299, 120, 314
-0.999635, 83, 249, 98, 264
-0.999636, 373, 163, 388, 178
-0.999636, 135, 233, 150, 248
-0.999637, 201, 163, 216, 178
-0.999638, 315, 157, 330, 172
-0.999638, 463, 121, 478, 136
-0.999638, 235, 169, 250, 184
-0.999639, 375, 9, 390, 24
-0.999639, 143, 279, 158, 294
-0.999639, 123, 237, 138, 252
-0.99964, 237, 29, 252, 44
-0.999641, 149, 265, 164, 280
-0.999641, 401, 23, 416, 38
-0.999642, 371, 45, 386, 60
-0.999643, 359, 165, 374, 180
-0.999644, 245, 33, 260, 48
-0.999644, 127, 209, 142, 224
-0.999645, 195, 133, 210, 148
-0.999645, 417, 31, 432, 46
-0.999645, 203, 131, 218, 146
-0.999645, 199, 111, 214, 126
-0.999645, 93, 303, 108, 318
-0.999645, 393, 17, 408, 32
-0.999645, 473, 117, 488, 132
-0.999647, 75, 331, 90, 346
-0.999647, 185, 123, 200, 138
-0.999648, 371, 33, 386, 48
-0.999648, 237, 195, 252, 210
-0.999649, 241, 165, 256, 180
-0.999649, 205, 139, 220, 154
-0.99965, 187, 107, 202, 122
-0.999651, 169, 309, 184, 324
-0.999651, 85, 189, 100, 204
-0.999653, 425, 61, 440, 76
-0.999653, 149, 131, 164, 146
-0.999653, 303, 41, 318, 56
-0.999655, 75, 247, 90, 262
-0.999657, 229, 163, 244, 178
-0.999657, 181, 231, 196, 246
-0.999658, 57, 169, 72, 184
-0.999659, 91, 243, 106, 258
-0.99966, 247, 171, 262, 186
-0.999661, 159, 127, 174, 142
-0.999662, 73, 179, 88, 194
-0.999664, 365, 165, 380, 180
-0.999665, 199, 117, 214, 132
-0.999665, 223, 309, 238, 324
-0.999669, 215, 213, 230, 228
-0.999673, 233, 201, 248, 216
-0.999674, 99, 297, 114, 312
-0.999675, 61, 231, 76, 246
-0.999675, 105, 227, 120, 242
-0.999675, 67, 215, 82, 230
-0.999676, 297, 47, 312, 62
-0.999676, 303, 47, 318, 62
-0.999677, 225, 267, 240, 282
-0.999678, 189, 135, 204, 150
-0.999678, 369, 55, 384, 70
-0.999678, 479, 123, 494, 138
-0.999683, 65, 181, 80, 196
-0.999684, 215, 161, 230, 176
-0.999685, 209, 167, 224, 182
-0.999685, 185, 129, 200, 144
-0.999685, 117, 33, 148, 288
-0.999686, 81, 221, 96, 236
-0.999688, 93, 249, 108, 264
-0.999689, 115, 225, 130, 240
-0.99969, 103, 217, 118, 232
-0.99969, 93, 223, 108, 238
-0.999691, 217, 301, 232, 316
-0.999691, 75, 191, 90, 206
-0.999691, 67, 227, 82, 242
-0.999692, 99, 225, 114, 240
-0.9997, 61, 203, 76, 218
-0.999704, 87, 215, 102, 230
-0.999706, 193, 119, 208, 134
-0.999707, 203, 223, 218, 238
-0.999708, 69, 187, 84, 202
-0.999709, 93, 185, 108, 200
-0.999711, 197, 105, 212, 120
-0.999712, 371, 39, 386, 54
-0.999714, 135, 239, 150, 254
-0.999715, 381, 7, 396, 22
-0.999715, 207, 217, 222, 232
-0.999716, 239, 175, 254, 190
-0.999716, 205, 113, 220, 128
-0.999717, 109, 219, 124, 234
-0.999717, 129, 239, 144, 254
-0.999717, 75, 213, 90, 228
-0.999719, 59, 197, 74, 212
-0.999722, 189, 113, 204, 128
-0.999723, 191, 127, 206, 142
-0.999723, 221, 207, 236, 222
-0.999725, 199, 169, 214, 184
-0.999726, 95, 217, 110, 232
-0.999733, 75, 229, 90, 244
-0.99974, 183, 117, 198, 132
-0.999742, 385, 13, 400, 28
-0.999753, 69, 207, 84, 222
-0.999773, 81, 215, 96, 230
-0.999779, 59, 191, 74, 206
-0.99978, 87, 221, 102, 236
-0.999783, 61, 175, 76, 190
-0.999813, 75, 219, 90, 234
-0.999834, 67, 197, 82, 212
