1958
-0.379053, 1, 1, 375, 500
-0.484665, 1, 97, 375, 352
-0.516812, 1, 1, 375, 256
-0.529528, 1, 225, 375, 480
-0.60937, 97, 1, 352, 500
-0.659696, 1, 1, 256, 500
-0.682158, 1, 225, 256, 480
-0.692262, 129, 225, 375, 480
-0.749621, 129, 65, 375, 320
-0.75593, 33, 97, 288, 352
-0.774665, 33, 1, 288, 256
-0.878498, 225, 1, 352, 500
-0.887818, 241, 65, 368, 320
-0.890914, 113, 225, 240, 480
-0.894189, 129, 1, 256, 500
-0.895391, 65, 97, 192, 352
-0.895515, 33, 193, 160, 448
-0.896922, 49, 1, 176, 500
-0.901456, 1, 225, 375, 352
-0.901916, 177, 1, 304, 500
-0.903991, 1, 321, 375, 448
-0.90757, 1, 97, 375, 224
-0.9142, 193, 1, 320, 256
-0.914258, 129, 1, 256, 256
-0.917857, 1, 1, 128, 500
-0.919992, 241, 161, 368, 416
-0.920561, 161, 225, 288, 480
-0.921329, 1, 369, 375, 496
-0.922282, 113, 129, 240, 384
-0.922683, 1, 17, 375, 144
-0.922842, 17, 65, 144, 320
-0.925427, 65, 1, 192, 256
-0.928711, 97, 49, 352, 176
-0.929002, 1, 145, 375, 272
-0.929904, 161, 97, 288, 352
-0.930352, 1, 273, 375, 400
-0.930608, 1, 241, 256, 368
-0.933486, 241, 257, 368, 500
-0.934978, 97, 305, 352, 432
-0.944978, 1, 289, 256, 416
-0.946026, 33, 1, 288, 128
-0.946501, 1, 97, 256, 224
-0.946746, 33, 193, 288, 320
-0.947286, 185, 305, 248, 432
-0.948291, 33, 353, 288, 480
-0.949965, 129, 321, 256, 448
-0.950258, 153, 289, 216, 416
-0.951093, 177, 305, 304, 432
-0.952665, 185, 305, 248, 368
-0.95286, 97, 97, 352, 224
-0.953041, 129, 225, 375, 352
-0.955646, 161, 49, 288, 176
-0.956434, 1, 49, 256, 176
-0.956482, 209, 17, 336, 144
-0.956552, 97, 273, 224, 400
-0.957919, 145, 225, 208, 352
-0.958189, 185, 257, 248, 384
-0.958245, 129, 289, 192, 416
-0.958761, 297, 49, 360, 176
-0.959397, 209, 65, 336, 192
-0.959927, 1, 145, 256, 272
-0.960109, 209, 289, 272, 416
-0.96091, 241, 113, 368, 240
-0.961677, 129, 353, 375, 480
-0.961989, 81, 97, 208, 224
-0.962152, 137, 313, 200, 376
-0.962609, 129, 177, 375, 304
-0.963538, 33, 97, 160, 224
-0.964058, 177, 257, 304, 384
-0.964723, 129, 97, 192, 224
-0.964728, 225, 33, 288, 160
-0.964789, 113, 225, 176, 352
-0.965581, 129, 225, 256, 352
-0.965627, 161, 305, 224, 368
-0.965954, 65, 321, 192, 448
-0.96605, 65, 369, 192, 496
-0.966085, 129, 1, 256, 128
-0.966226, 281, 97, 344, 224
-0.96676, 313, 145, 375, 272
-0.967075, 145, 369, 272, 496
-0.967261, 57, 225, 120, 352
-0.967389, 65, 225, 192, 352
-0.967572, 241, 225, 368, 352
-0.968112, 81, 49, 208, 176
-0.968288, 129, 1, 375, 128
-0.968304, 225, 305, 352, 432
-0.968684, 161, 353, 224, 480
-0.968753, 153, 337, 216, 400
-0.968845, 273, 49, 336, 176
-0.969057, 33, 145, 160, 272
-0.969443, 209, 297, 272, 360
-0.969599, 97, 81, 160, 208
-0.969624, 81, 241, 144, 368
-0.96972, 313, 97, 375, 224
-0.970185, 153, 281, 216, 344
-0.970187, 17, 193, 80, 320
-0.970332, 313, 65, 375, 128
-0.970399, 97, 353, 160, 480
-0.970581, 121, 105, 184, 168
-0.970791, 105, 289, 168, 416
-0.970861, 129, 49, 192, 176
-0.970998, 193, 329, 256, 392
-0.971079, 17, 241, 144, 368
-0.97114, 33, 49, 160, 176
-0.9716, 249, 49, 312, 176
-0.971705, 121, 369, 184, 496
-0.971992, 313, 209, 375, 336
-0.972585, 193, 33, 256, 160
-0.972591, 281, 105, 344, 168
-0.97265, 65, 65, 128, 192
-0.973091, 225, 41, 288, 104
-0.973112, 129, 337, 192, 400
-0.973158, 241, 161, 368, 288
-0.973381, 313, 89, 375, 152
-0.973566, 113, 305, 176, 368
-0.973636, 113, 161, 240, 288
-0.97369, 41, 273, 104, 400
-0.973821, 209, 337, 272, 464
-0.973882, 161, 177, 224, 304
-0.973942, 257, 1, 320, 128
-0.974204, 233, 289, 296, 416
-0.974274, 217, 81, 280, 208
-0.974766, 241, 369, 304, 496
-0.97485, 81, 97, 144, 160
-0.974896, 33, 65, 96, 192
-0.974905, 145, 97, 272, 224
-0.97498, 65, 241, 128, 304
-0.975013, 137, 161, 200, 288
-0.975013, 129, 225, 192, 480
-0.975085, 313, 33, 375, 288
-0.975189, 17, 321, 144, 448
-0.975304, 105, 241, 168, 304
-0.975447, 217, 65, 280, 128
-0.975461, 105, 33, 168, 160
-0.975558, 153, 89, 216, 152
-0.975662, 177, 281, 240, 344
-0.975789, 193, 369, 320, 496
-0.975951, 289, 81, 352, 144
-0.976002, 241, 65, 368, 128
-0.976158, 17, 257, 80, 384
-0.976581, 161, 97, 224, 224
-0.976594, 313, 153, 375, 216
-0.976622, 217, 321, 280, 384
-0.976726, 17, 193, 144, 320
-0.976761, 241, 305, 304, 368
-0.976925, 41, 81, 104, 144
-0.976971, 257, 401, 320, 464
-0.977076, 257, 73, 320, 136
-0.977076, 233, 393, 296, 456
-0.97723, 241, 369, 368, 496
-0.97742, 9, 97, 72, 224
-0.977486, 97, 129, 160, 256
-0.97749, 121, 73, 184, 136
-0.977641, 181, 257, 212, 384
-0.977868, 281, 1, 344, 128
-0.977873, 145, 297, 272, 360
-0.977934, 273, 289, 336, 416
-0.978034, 81, 1, 208, 128
-0.978056, 137, 129, 200, 192
-0.978067, 153, 257, 216, 500
-0.978069, 105, 177, 168, 304
-0.97816, 65, 353, 128, 480
-0.978356, 233, 417, 296, 480
-0.978396, 193, 57, 256, 120
-0.97859, 141, 305, 172, 368
-0.97871, 177, 305, 208, 432
-0.978724, 105, 345, 168, 408
-0.978789, 209, 41, 336, 104
-0.978792, 217, 89, 280, 152
-0.978872, 325, 57, 356, 120
-0.97895, 257, 49, 320, 112
-0.979121, 313, 129, 375, 384
-0.979122, 189, 305, 220, 432
-0.979161, 129, 1, 192, 128
-0.979163, 305, 129, 368, 192
-0.979164, 105, 97, 168, 352
-0.979218, 129, 281, 192, 344
-0.979231, 137, 217, 200, 280
-0.979339, 313, 177, 375, 240
-0.979357, 297, 41, 360, 104
-0.979367, 137, 241, 200, 304
-0.979462, 57, 113, 120, 240
-0.97966, 145, 393, 208, 456
-0.979759, 325, 49, 356, 176
-0.979834, 161, 161, 288, 288
-0.979892, 161, 121, 224, 184
-0.979896, 185, 209, 248, 336
-0.980233, 281, 97, 344, 352
-0.980279, 193, 209, 320, 336
-0.980318, 201, 273, 264, 336
-0.980381, 257, 97, 320, 224
-0.980437, 225, 241, 288, 368
-0.980442, 209, 393, 272, 456
-0.980677, 97, 305, 224, 368
-0.980746, 81, 73, 144, 136
-0.980779, 1, 369, 128, 496
-0.980873, 65, 425, 128, 488
-0.98092, 41, 273, 104, 336
-0.980945, 65, 17, 128, 144
-0.98122, 273, 337, 336, 464
-0.981234, 105, 417, 168, 480
-0.981251, 25, 369, 88, 496
-0.981338, 165, 289, 196, 416
-0.981398, 81, 281, 144, 344
-0.9814, 305, 65, 336, 128
-0.981491, 313, 337, 375, 464
-0.981649, 309, 65, 340, 192
-0.98167, 105, 281, 168, 344
-0.981696, 129, 297, 160, 360
-0.98172, 105, 225, 168, 480
-0.98175, 1, 1, 128, 128
-0.981751, 193, 433, 256, 496
-0.981789, 97, 337, 224, 400
-0.981809, 129, 369, 192, 432
-0.981837, 41, 241, 104, 304
-0.981856, 89, 321, 152, 384
-0.98189, 41, 17, 104, 144
-0.981895, 9, 305, 72, 432
-0.981905, 17, 81, 80, 144
-0.981963, 137, 129, 200, 384
-0.982109, 257, 25, 320, 88
-0.982121, 173, 305, 204, 368
-0.982177, 161, 217, 224, 280
-0.982182, 241, 89, 368, 152
-0.982225, 209, 305, 336, 368
-0.98223, 17, 161, 80, 224
-0.982232, 313, 1, 375, 500
-0.982236, 205, 321, 236, 448
-0.982252, 153, 49, 216, 176
-0.982353, 313, 249, 375, 312
-0.982534, 41, 177, 104, 304
-0.982618, 241, 145, 304, 272
-0.982669, 169, 409, 232, 472
-0.982808, 161, 321, 288, 384
-0.982831, 33, 241, 160, 304
-0.982833, 113, 217, 176, 280
-0.983008, 153, 297, 184, 360
-0.983155, 97, 129, 160, 192
-0.983166, 289, 145, 352, 272
-0.983194, 17, 241, 80, 304
-0.983206, 137, 193, 200, 256
-0.983216, 9, 361, 72, 424
-0.983231, 185, 145, 248, 272
-0.983287, 81, 193, 144, 320
-0.983355, 257, 97, 320, 160
-0.983373, 273, 377, 336, 440
-0.983427, 81, 241, 208, 304
-0.983431, 145, 65, 208, 128
-0.983463, 241, 369, 304, 432
-0.983466, 165, 329, 196, 392
-0.983505, 157, 225, 188, 352
-0.98352, 129, 81, 256, 144
-0.983599, 65, 105, 192, 168
-0.983603, 153, 329, 184, 392
-0.983651, 129, 401, 256, 464
-0.983744, 201, 273, 232, 400
-0.983809, 169, 361, 232, 424
-0.983845, 241, 145, 368, 208
-0.983851, 161, 49, 288, 112
-0.983887, 137, 425, 200, 488
-0.983964, 169, 225, 200, 352
-0.984008, 137, 153, 200, 216
-0.98401, 217, 17, 280, 80
-0.984076, 185, 353, 248, 480
-0.984149, 169, 257, 232, 320
-0.984204, 193, 289, 224, 352
-0.984351, 213, 305, 244, 368
-0.984365, 121, 1, 184, 256
-0.984391, 281, 337, 344, 400
-0.984412, 121, 49, 184, 112
-0.984718, 65, 129, 128, 384
-0.984769, 209, 393, 336, 456
-0.984777, 233, 281, 296, 344
-0.984873, 201, 353, 264, 416
-0.984965, 233, 33, 264, 160
-0.984972, 169, 169, 232, 232
-0.984983, 193, 225, 256, 480
-0.984984, 57, 57, 120, 120
-0.984986, 217, 145, 280, 272
-0.985095, 169, 41, 232, 104
-0.985142, 169, 1, 232, 128
-0.985148, 169, 145, 232, 208
-0.985246, 309, 113, 340, 176
-0.985331, 145, 105, 272, 168
-0.985342, 313, 257, 375, 384
-0.985457, 265, 385, 296, 448
-0.985484, 141, 225, 172, 352
-0.985501, 185, 225, 248, 288
-0.985579, 49, 289, 176, 352
-0.985604, 193, 73, 320, 136
-0.985604, 81, 289, 144, 416
-0.985632, 73, 225, 104, 352
-0.98569, 281, 401, 344, 464
-0.985694, 129, 273, 256, 336
-0.985733, 17, 105, 80, 168
-0.985734, 1, 49, 64, 176
-0.985779, 209, 329, 336, 392
-0.985818, 181, 329, 212, 392
-0.985853, 141, 329, 172, 392
-0.985886, 193, 265, 224, 328
-0.985923, 313, 225, 375, 288
-0.985935, 33, 337, 160, 400
-0.98594, 9, 321, 72, 384
-0.985959, 141, 105, 172, 168
-0.985991, 257, 209, 320, 336
-0.985998, 97, 49, 160, 112
-0.986004, 89, 217, 152, 280
-0.986005, 141, 241, 172, 304
-0.986015, 65, 433, 192, 496
-0.986033, 281, 129, 344, 192
-0.986048, 313, 201, 375, 264
-0.986169, 185, 121, 248, 184
-0.986174, 81, 257, 144, 500
-0.98619, 305, 17, 336, 144
-0.986224, 241, 121, 368, 184
-0.986247, 217, 305, 248, 432
-0.986258, 177, 97, 240, 160
-0.986293, 305, 361, 368, 424
-0.986318, 65, 81, 192, 144
-0.986322, 33, 113, 96, 240
-0.986333, 17, 385, 80, 448
-0.986354, 257, 281, 320, 344
-0.986355, 113, 49, 240, 112
-0.986465, 233, 297, 264, 360
-0.986473, 141, 81, 172, 208
-0.986491, 325, 81, 356, 144
-0.986496, 309, 89, 340, 152
-0.986551, 161, 193, 224, 256
-0.986604, 193, 25, 256, 88
-0.986604, 17, 57, 80, 120
-0.986621, 93, 65, 124, 192
-0.986624, 1, 281, 128, 344
-0.986666, 109, 97, 140, 160
-0.98668, 225, 57, 256, 120
-0.986732, 113, 217, 240, 280
-0.986745, 33, 217, 160, 280
-0.986755, 49, 313, 176, 376
-0.986817, 177, 353, 208, 416
-0.986829, 117, 297, 148, 360
-0.986878, 121, 81, 152, 208
-0.986893, 241, 177, 368, 240
-0.986927, 1, 89, 128, 152
-0.986929, 249, 401, 280, 464
-0.986935, 161, 369, 288, 432
-0.986939, 145, 289, 176, 416
-0.986971, 17, 1, 80, 128
-0.986979, 41, 113, 104, 176
-0.987058, 93, 273, 124, 336
-0.98707, 193, 321, 224, 384
-0.987205, 193, 97, 320, 160
-0.987232, 233, 169, 296, 232
-0.987269, 33, 33, 96, 288
-0.987273, 237, 289, 268, 416
-0.987279, 289, 305, 352, 368
-0.987374, 105, 273, 136, 336
-0.987396, 225, 65, 288, 320
-0.9874, 225, 113, 288, 176
-0.987429, 185, 385, 248, 448
-0.987433, 49, 1, 112, 500
-0.987441, 341, 153, 372, 216
-0.987446, 185, 353, 216, 480
-0.98746, 241, 1, 304, 500
-0.987524, 113, 129, 240, 192
-0.987623, 329, 113, 360, 176
-0.987662, 41, 193, 104, 448
-0.98767, 133, 289, 164, 416
-0.987681, 33, 137, 160, 200
-0.987689, 245, 305, 276, 368
-0.987711, 185, 201, 248, 264
-0.987731, 17, 257, 80, 500
-0.987752, 113, 185, 240, 248
-0.987779, 49, 401, 112, 464
-0.987786, 305, 41, 336, 104
-0.987805, 241, 201, 368, 264
-0.987828, 129, 321, 160, 384
-0.987829, 49, 321, 112, 384
-0.987841, 257, 1, 320, 256
-0.987849, 129, 345, 160, 408
-0.987858, 49, 209, 80, 336
-0.987869, 113, 241, 144, 304
-0.987893, 241, 329, 304, 392
-0.987909, 61, 209, 92, 336
-0.987921, 193, 161, 256, 224
-0.987927, 57, 33, 120, 288
-0.987971, 81, 345, 144, 408
-0.988007, 145, 345, 272, 408
-0.988037, 185, 81, 248, 208
-0.988047, 149, 273, 180, 336
-0.98805, 209, 281, 336, 344
-0.98805, 209, 1, 240, 128
-0.988116, 89, 241, 120, 304
-0.988136, 325, 97, 356, 224
-0.988157, 65, 121, 128, 184
-0.988172, 113, 161, 240, 224
-0.988182, 153, 105, 184, 168
-0.988209, 289, 1, 352, 256
-0.988268, 17, 137, 80, 200
-0.988303, 97, 361, 224, 424
-0.988307, 229, 321, 260, 384
-0.988319, 121, 225, 152, 352
-0.988324, 133, 369, 164, 496
-0.988331, 61, 241, 92, 304
-0.988382, 193, 113, 320, 240
-0.988393, 129, 233, 160, 296
-0.988437, 245, 337, 276, 464
-0.988443, 81, 265, 208, 328
-0.98848, 305, 1, 368, 128
-0.9885, 9, 289, 72, 352
-0.9885, 265, 305, 328, 368
-0.988503, 169, 393, 200, 456
-0.98851, 161, 97, 224, 352
-0.988519, 309, 113, 340, 240
-0.988525, 17, 265, 80, 328
-0.988531, 341, 161, 372, 288
-0.988545, 33, 321, 96, 448
-0.988558, 121, 105, 152, 168
-0.988568, 233, 89, 264, 152
-0.988569, 289, 1, 352, 500
-0.988598, 249, 49, 280, 176
-0.988609, 241, 41, 272, 104
-0.988616, 241, 361, 368, 424
-0.988654, 33, 353, 96, 416
-0.98866, 281, 265, 344, 328
-0.988674, 57, 81, 88, 208
-0.988679, 121, 17, 184, 80
-0.988798, 345, 65, 375, 128
-0.988845, 101, 225, 132, 352
-0.988845, 77, 425, 108, 488
-0.988866, 161, 25, 288, 88
-0.988874, 161, 1, 224, 256
-0.988884, 161, 161, 288, 224
-0.988932, 33, 217, 96, 280
-0.989032, 117, 321, 148, 384
-0.989057, 221, 49, 252, 176
-0.989071, 165, 353, 196, 416
-0.989091, 73, 65, 104, 192
-0.989099, 173, 369, 204, 496
-0.9891, 225, 145, 288, 208
-0.989106, 137, 425, 168, 488
-0.989224, 65, 57, 192, 120
-0.989274, 213, 57, 244, 120
-0.989334, 129, 425, 256, 488
-0.989342, 97, 1, 160, 500
-0.989401, 221, 81, 252, 144
-0.989407, 97, 1, 160, 256
-0.989407, 57, 89, 88, 152
-0.989411, 97, 393, 160, 456
-0.989424, 161, 217, 288, 280
-0.989442, 341, 97, 372, 224
-0.989462, 225, 225, 288, 480
-0.989464, 153, 1, 216, 500
-0.989467, 177, 417, 304, 480
-0.98948, 169, 177, 200, 304
-0.989484, 241, 257, 368, 320
-0.989492, 197, 393, 228, 456
-0.989494, 157, 241, 188, 304
-0.989498, 313, 225, 375, 480
-0.989512, 213, 257, 244, 384
-0.989535, 145, 25, 208, 88
-0.989557, 193, 1, 256, 64
-0.989606, 65, 217, 128, 280
-0.989647, 81, 89, 112, 152
-0.989677, 33, 161, 160, 224
-0.989678, 57, 401, 88, 464
-0.989679, 157, 337, 188, 464
-0.989718, 313, 273, 375, 336
-0.989721, 281, 209, 344, 336
-0.989737, 185, 309, 248, 340
-0.989755, 177, 249, 208, 312
-0.989787, 129, 249, 256, 312
-0.989851, 9, 97, 72, 352
-0.989867, 109, 33, 140, 160
-0.989879, 41, 249, 72, 312
-0.989944, 161, 337, 224, 368
-0.98995, 81, 401, 208, 464
-0.989956, 305, 393, 368, 456
-0.98996, 241, 225, 368, 288
-0.989982, 145, 369, 176, 496
-0.990017, 341, 209, 372, 336
-0.990029, 53, 257, 84, 384
-0.99003, 185, 385, 216, 448
-0.990142, 97, 153, 160, 216
-0.990152, 49, 361, 176, 424
-0.990195, 213, 425, 244, 488
-0.990196, 233, 257, 296, 320
-0.990231, 257, 169, 320, 232
-0.990241, 161, 97, 192, 224
-0.990242, 129, 341, 192, 372
-0.990267, 129, 81, 160, 144
-0.990269, 81, 273, 112, 336
-0.99027, 129, 313, 192, 344
-0.990295, 113, 1, 240, 64
-0.990335, 85, 225, 116, 352
-0.990354, 173, 273, 204, 336
-0.990356, 313, 65, 375, 96
-0.990364, 193, 225, 224, 352
-0.990365, 329, 145, 360, 272
-0.990424, 157, 161, 188, 288
-0.990424, 37, 177, 68, 304
-0.990448, 193, 333, 256, 364
-0.990452, 137, 33, 168, 160
-0.990456, 209, 1, 272, 500
-0.990474, 261, 1, 292, 128
-0.990485, 161, 217, 192, 280
-0.990498, 93, 273, 124, 400
-0.990501, 149, 369, 180, 432
-0.990503, 121, 369, 152, 496
-0.990509, 121, 1, 184, 500
-0.990515, 209, 305, 272, 336
-0.990537, 329, 153, 360, 216
-0.990544, 297, 105, 328, 168
-0.990561, 49, 273, 80, 336
-0.990589, 1, 417, 128, 480
-0.990591, 153, 313, 216, 344
-0.990669, 201, 65, 264, 320
-0.990681, 229, 33, 260, 96
-0.990741, 245, 377, 276, 440
-0.990774, 101, 241, 132, 304
-0.990779, 41, 65, 72, 192
-0.990791, 69, 273, 100, 336
-0.990798, 161, 1, 288, 64
-0.990806, 141, 81, 172, 144
-0.990839, 261, 49, 292, 112
-0.990839, 97, 425, 128, 488
-0.990851, 73, 241, 104, 304
-0.990858, 257, 337, 288, 464
-0.990861, 293, 97, 324, 224
-0.99093, 161, 81, 192, 144
-0.990947, 257, 81, 320, 112
-0.990949, 25, 1, 88, 500
-0.99095, 225, 17, 352, 80
-0.990957, 213, 281, 244, 344
-0.990968, 153, 297, 216, 328
-0.990979, 105, 337, 168, 368
-0.991023, 129, 329, 192, 360
-0.991028, 117, 417, 148, 480
-0.991044, 193, 257, 320, 320
-0.991047, 169, 325, 232, 356
-0.991048, 29, 241, 60, 368
-0.991081, 153, 349, 216, 380
-0.991152, 245, 97, 276, 160
-0.991173, 225, 73, 288, 104
-0.991195, 129, 353, 192, 384
-0.991223, 217, 57, 280, 88
-0.991232, 105, 317, 168, 348
-0.991267, 173, 177, 204, 240
-0.991307, 313, 321, 344, 448
-0.991328, 121, 109, 184, 140
-0.991336, 41, 369, 72, 432
-0.991342, 177, 293, 240, 324
-0.991353, 161, 129, 192, 192
-0.991364, 209, 417, 272, 448
-0.991369, 97, 321, 352, 384
-0.99137, 313, 109, 375, 140
-0.991382, 81, 433, 144, 464
-0.991382, 341, 257, 372, 320
-0.991392, 149, 417, 180, 480
-0.9914, 125, 273, 156, 336
-0.991414, 225, 257, 256, 384
-0.991415, 105, 313, 136, 376
-0.99142, 49, 93, 112, 124
-0.991432, 57, 429, 120, 460
-0.991439, 257, 93, 320, 124
-0.99145, 265, 161, 328, 288
-0.991471, 245, 73, 276, 136
-0.991473, 193, 321, 256, 352
-0.991514, 225, 417, 352, 480
-0.99152, 217, 337, 280, 368
-0.991547, 233, 417, 296, 448
-0.991549, 97, 25, 224, 88
-0.991549, 9, 1, 72, 256
-0.991554, 65, 417, 128, 448
-0.991567, 169, 373, 232, 404
-0.991582, 153, 253, 216, 284
-0.99159, 137, 241, 200, 272
-0.991591, 217, 37, 280, 68
-0.991594, 137, 125, 200, 156
-0.991608, 289, 61, 352, 92
-0.991608, 297, 97, 360, 128
-0.991614, 17, 113, 144, 176
-0.991629, 129, 301, 192, 332
-0.991647, 297, 77, 360, 108
-0.991653, 161, 121, 224, 152
-0.991658, 105, 301, 168, 332
-0.991676, 185, 345, 248, 376
-0.991678, 161, 109, 224, 140
-0.99168, 225, 85, 288, 116
-0.991703, 89, 101, 152, 132
-0.991717, 45, 321, 76, 448
-0.991728, 313, 157, 375, 188
-0.991736, 289, 113, 352, 144
-0.991737, 105, 353, 168, 384
-0.991738, 113, 241, 176, 272
-0.991755, 225, 389, 288, 420
-0.991764, 257, 61, 320, 92
-0.991767, 177, 1, 240, 500
-0.99177, 1, 65, 128, 128
-0.991779, 293, 65, 324, 128
-0.991782, 313, 377, 344, 440
-0.991812, 257, 405, 320, 436
-0.991827, 261, 305, 292, 368
-0.991839, 161, 193, 288, 256
-0.991841, 153, 265, 216, 296
-0.991841, 25, 405, 88, 436
-0.991856, 169, 361, 232, 392
-0.99188, 321, 1, 352, 128
-0.991884, 105, 81, 136, 208
-0.991895, 117, 321, 148, 448
-0.991903, 65, 273, 128, 304
-0.991919, 233, 401, 296, 432
-0.991924, 97, 297, 352, 360
-0.991925, 225, 97, 288, 128
-0.991925, 289, 329, 320, 392
-0.99193, 341, 121, 372, 184
-0.991944, 281, 225, 344, 480
-0.991947, 17, 385, 80, 416
-0.991955, 137, 165, 200, 196
-0.991955, 233, 429, 296, 460
-0.991964, 137, 381, 200, 412
-0.991973, 273, 313, 304, 376
-0.991978, 141, 393, 172, 456
-0.991984, 65, 353, 96, 480
-0.991992, 217, 325, 280, 356
-0.991999, 105, 433, 168, 464
-0.992005, 257, 105, 320, 136
-0.992026, 89, 449, 152, 480
-0.992027, 265, 1, 328, 500
-0.992047, 73, 1, 136, 500
-0.992051, 49, 245, 112, 276
-0.992058, 209, 401, 272, 432
-0.992071, 209, 33, 240, 96
-0.992071, 221, 401, 252, 464
-0.992072, 153, 49, 184, 176
-0.992083, 265, 289, 296, 416
-0.992106, 113, 121, 176, 152
-0.992106, 65, 445, 128, 476
-0.992121, 153, 49, 184, 112
-0.992124, 81, 273, 112, 400
-0.992126, 257, 393, 320, 424
-0.992128, 1, 369, 64, 496
-0.992136, 313, 205, 375, 236
-0.992144, 161, 137, 288, 200
-0.99216, 1, 369, 64, 400
-0.992166, 145, 93, 208, 124
-0.992177, 113, 445, 176, 476
-0.992184, 33, 417, 96, 448
-0.992206, 137, 181, 200, 212
-0.992208, 1, 305, 128, 368
-0.99221, 193, 277, 256, 308
-0.992215, 233, 401, 264, 464
-0.992235, 137, 225, 200, 256
-0.992245, 137, 205, 200, 236
-0.992248, 97, 421, 160, 452
-0.992249, 73, 245, 136, 276
-0.992251, 17, 253, 80, 284
-0.992252, 17, 265, 80, 296
-0.992255, 57, 261, 120, 292
-0.992265, 289, 369, 320, 496
-0.992272, 161, 273, 192, 336
-0.992275, 81, 345, 144, 376
-0.992308, 313, 129, 375, 160
-0.992309, 105, 277, 168, 308
-0.992316, 169, 177, 232, 208
-0.992317, 273, 381, 336, 412
-0.992319, 81, 405, 144, 436
-0.992322, 185, 245, 248, 276
-0.992322, 157, 153, 188, 216
-0.992327, 313, 185, 375, 216
-0.992328, 137, 137, 200, 168
-0.992328, 33, 393, 160, 456
-0.992331, 161, 189, 224, 220
-0.992348, 201, 93, 264, 124
-0.992349, 253, 289, 284, 416
-0.99235, 313, 53, 375, 84
-0.992351, 257, 417, 320, 448
-0.992371, 257, 49, 320, 80
-0.992373, 217, 293, 280, 324
-0.99238, 129, 81, 192, 112
-0.992382, 57, 229, 120, 260
-0.992385, 169, 141, 232, 172
-0.992385, 289, 145, 352, 176
-0.992392, 209, 437, 272, 468
-0.992398, 113, 93, 176, 124
-0.992398, 81, 285, 144, 316
-0.992401, 137, 149, 200, 180
-0.992403, 261, 417, 292, 480
-0.992406, 233, 113, 296, 144
-0.992408, 129, 421, 192, 452
-0.992411, 137, 193, 200, 224
-0.992426, 129, 69, 192, 100
-0.992429, 241, 333, 304, 364
-0.992434, 201, 81, 264, 112
-0.992445, 141, 217, 172, 280
-0.992446, 85, 17, 116, 144
-0.992446, 9, 101, 72, 132
-0.992453, 209, 49, 240, 176
-0.992454, 193, 57, 256, 88
-0.992455, 121, 365, 184, 396
-0.992457, 305, 369, 336, 496
-0.992478, 89, 85, 152, 116
-0.992482, 285, 49, 316, 176
-0.992487, 113, 229, 176, 260
-0.992488, 281, 49, 344, 80
-0.992495, 93, 97, 124, 160
-0.992502, 233, 337, 264, 464
-0.992502, 313, 261, 375, 292
-0.992506, 41, 285, 104, 316
-0.992507, 185, 425, 248, 456
-0.992507, 125, 209, 156, 272
-0.99251, 289, 133, 352, 164
-0.992514, 57, 33, 88, 160
-0.99252, 217, 193, 280, 320
-0.992521, 173, 137, 204, 200
-0.992533, 129, 281, 192, 312
-0.992539, 65, 185, 192, 248
-0.992543, 193, 373, 256, 404
-0.992549, 209, 109, 272, 140
-0.992557, 297, 393, 360, 424
-0.992559, 121, 33, 152, 160
-0.992559, 185, 265, 248, 296
-0.992567, 153, 277, 216, 308
-0.992573, 341, 185, 372, 248
-0.992596, 105, 273, 136, 400
-0.992608, 121, 273, 152, 400
-0.992631, 293, 385, 324, 448
-0.992655, 289, 321, 320, 448
-0.992664, 285, 89, 316, 152
-0.992672, 9, 145, 72, 272
-0.992692, 169, 49, 200, 176
-0.99271, 317, 137, 348, 200
-0.992722, 177, 97, 208, 160
-0.992749, 325, 61, 356, 92
-0.992763, 145, 337, 176, 368
-0.992768, 125, 309, 156, 340
-0.992784, 161, 417, 192, 480
-0.992789, 33, 161, 64, 224
-0.992797, 177, 337, 208, 368
-0.992803, 213, 329, 244, 392
-0.992815, 345, 89, 375, 152
-0.992818, 277, 401, 308, 464
-0.992853, 17, 369, 48, 432
-0.992858, 73, 417, 104, 448
-0.992887, 165, 349, 196, 380
-0.992888, 49, 33, 176, 96
-0.992892, 105, 73, 136, 136
-0.992915, 305, 69, 336, 100
-0.992916, 189, 337, 220, 368
-0.992934, 137, 317, 168, 348
-0.99294, 77, 401, 108, 464
-0.992959, 69, 89, 100, 152
-0.99296, 213, 309, 244, 340
-0.992961, 205, 329, 236, 360
-0.992965, 137, 353, 168, 384
-0.992969, 309, 109, 340, 140
-0.992969, 165, 333, 196, 364
-0.992976, 153, 349, 184, 380
-0.992978, 121, 129, 152, 256
-0.992982, 193, 309, 224, 340
-0.992983, 305, 81, 336, 112
-0.99299, 137, 369, 168, 432
-0.99299, 173, 425, 204, 488
-0.992993, 81, 433, 112, 464
-0.992993, 305, 93, 336, 124
-0.993003, 125, 345, 156, 376
-0.993011, 265, 397, 296, 428
-0.993013, 177, 309, 208, 340
-0.993021, 77, 113, 108, 176
-0.993034, 325, 85, 356, 116
-0.993062, 221, 113, 252, 176
-0.993065, 53, 369, 84, 496
-0.993072, 189, 349, 220, 380
-0.993073, 181, 325, 212, 356
-0.993076, 169, 381, 200, 412
-0.99308, 165, 241, 196, 272
-0.993083, 61, 409, 92, 440
-0.993091, 133, 441, 164, 472
-0.993092, 185, 241, 216, 272
-0.993093, 145, 301, 176, 332
-0.993099, 229, 53, 260, 84
-0.993114, 309, 121, 340, 152
-0.993125, 253, 417, 284, 448
-0.993134, 229, 93, 260, 124
-0.993138, 181, 253, 212, 284
-0.993139, 173, 217, 204, 280
-0.99314, 201, 341, 232, 372
-0.993149, 229, 301, 260, 332
-0.993155, 237, 417, 268, 448
-0.993168, 185, 393, 216, 424
-0.99317, 193, 345, 224, 408
-0.993173, 325, 117, 356, 148
-0.993176, 169, 401, 200, 432
-0.993177, 113, 105, 144, 136
-0.993178, 217, 325, 248, 356
-0.99318, 285, 389, 316, 420
-0.993186, 325, 73, 356, 104
-0.993189, 257, 225, 320, 480
-0.9932, 69, 273, 100, 400
-0.993205, 229, 37, 260, 68
-0.993209, 73, 285, 104, 316
-0.993211, 161, 113, 192, 144
-0.993219, 153, 401, 184, 432
-0.993225, 161, 297, 192, 328
-0.993226, 181, 377, 212, 408
-0.993227, 157, 385, 188, 416
-0.993237, 153, 245, 184, 276
-0.993239, 289, 401, 320, 432
-0.993241, 325, 97, 356, 128
-0.993243, 165, 309, 196, 340
-0.993246, 301, 389, 332, 420
-0.993246, 293, 113, 324, 144
-0.993249, 153, 313, 184, 344
-0.99325, 193, 293, 224, 324
-0.993252, 57, 89, 88, 120
-0.993252, 181, 265, 212, 296
-0.993253, 285, 101, 316, 132
-0.993253, 29, 249, 60, 312
-0.993254, 309, 57, 340, 88
-0.993255, 229, 325, 260, 356
-0.993257, 85, 413, 116, 444
-0.993261, 137, 245, 168, 276
-0.993262, 241, 41, 272, 72
-0.993272, 121, 445, 152, 476
-0.993278, 61, 273, 92, 304
-0.993281, 93, 281, 124, 312
-0.993282, 305, 257, 336, 384
-0.993282, 177, 349, 208, 380
-0.993282, 109, 217, 140, 280
-0.993283, 229, 65, 260, 96
-0.993286, 89, 445, 120, 476
-0.993287, 309, 133, 340, 164
-0.993289, 209, 53, 240, 84
-0.993289, 225, 81, 256, 112
-0.993294, 245, 81, 276, 112
-0.993298, 345, 73, 375, 104
-0.993302, 157, 229, 188, 260
-0.993302, 169, 177, 200, 208
-0.993303, 185, 361, 216, 392
-0.993308, 149, 113, 180, 144
-0.993308, 241, 97, 272, 128
-0.993308, 229, 337, 260, 368
-0.993312, 53, 245, 84, 276
-0.993315, 169, 157, 200, 188
-0.993317, 169, 253, 200, 284
-0.993319, 109, 433, 140, 464
-0.993319, 45, 389, 76, 420
-0.993322, 69, 445, 100, 476
-0.993322, 141, 381, 172, 412
-0.993324, 37, 253, 68, 284
-0.993325, 241, 337, 272, 368
-0.993328, 61, 285, 92, 316
-0.993329, 169, 225, 200, 256
-0.99333, 221, 401, 252, 432
-0.993331, 273, 385, 304, 416
-0.993332, 113, 269, 144, 300
-0.993334, 241, 53, 272, 84
-0.993335, 61, 425, 92, 456
-0.993336, 301, 413, 332, 444
-0.993336, 185, 405, 216, 436
-0.993337, 97, 101, 128, 132
-0.993338, 169, 189, 200, 220
-0.993339, 73, 245, 104, 276
-0.99334, 341, 185, 372, 216
-0.993341, 173, 361, 204, 392
-0.993343, 181, 297, 212, 328
-0.993343, 29, 369, 60, 400
-0.993346, 337, 157, 368, 188
-0.993346, 193, 273, 224, 304
-0.993347, 157, 413, 188, 444
-0.993349, 217, 337, 248, 368
-0.99335, 17, 365, 48, 396
-0.99335, 293, 61, 324, 92
-0.993351, 161, 125, 192, 156
-0.993356, 1, 297, 375, 360
-0.993358, 57, 257, 88, 288
-0.993359, 133, 329, 164, 360
-0.993359, 253, 385, 284, 416
-0.99336, 193, 373, 224, 404
-0.993361, 1, 361, 128, 424
-0.993365, 209, 65, 240, 96
-0.993374, 237, 437, 268, 468
-0.993375, 121, 297, 152, 328
-0.993378, 261, 49, 292, 80
-0.993379, 153, 453, 184, 484
-0.99338, 157, 185, 188, 216
-0.993381, 133, 297, 164, 328
-0.993383, 133, 109, 164, 140
-0.993408, 117, 345, 148, 408
-0.993412, 261, 49, 292, 176
-0.993436, 181, 209, 212, 336
-0.993437, 161, 1, 192, 128
-0.993449, 1, 313, 256, 376
-0.993474, 273, 369, 304, 496
-0.993581, 105, 369, 136, 496
-0.993687, 341, 49, 372, 176
-0.993759, 1, 25, 128, 88
-0.99376, 29, 1, 60, 128
-0.993864, 1, 289, 256, 352
-0.993892, 129, 65, 375, 128
-0.994057, 253, 241, 284, 368
-0.994074, 321, 225, 352, 352
-0.994087, 249, 1, 280, 128
-0.994104, 221, 1, 252, 128
-0.994193, 129, 41, 375, 104
-0.994277, 145, 145, 176, 272
-0.994296, 1, 193, 128, 256
-0.994335, 325, 337, 356, 464
-0.99435, 345, 257, 375, 384
-0.994392, 49, 9, 176, 72
-0.994404, 1, 241, 256, 304
-0.994417, 237, 81, 268, 208
-0.994442, 237, 241, 268, 368
-0.994508, 193, 1, 224, 128
-0.994536, 173, 1, 204, 128
-0.994581, 145, 345, 272, 376
-0.9946, 301, 305, 332, 432
-0.994604, 1, 1, 128, 64
-0.994615, 1, 1, 64, 500
-0.99464, 97, 345, 352, 408
-0.994659, 185, 297, 200, 360
-0.99478, 129, 89, 375, 152
-0.994792, 57, 129, 88, 256
-0.994841, 277, 1, 308, 128
-0.994876, 197, 369, 228, 496
-0.994876, 1, 337, 256, 400
-0.994938, 77, 113, 108, 240
-0.994985, 177, 97, 208, 224
-0.994991, 33, 25, 288, 88
-0.995017, 1, 145, 256, 208
-0.995075, 1, 121, 256, 184
-0.99509, 181, 329, 196, 392
-0.995098, 29, 113, 60, 240
-0.995116, 97, 345, 224, 376
-0.995176, 33, 65, 288, 128
-0.995219, 181, 161, 212, 288
-0.995278, 1, 97, 375, 160
-0.995283, 73, 17, 104, 144
-0.995335, 227, 305, 242, 368
-0.995342, 171, 329, 186, 392
-0.995352, 41, 257, 72, 384
-0.995354, 221, 97, 252, 224
-0.995383, 129, 309, 256, 340
-0.995401, 257, 97, 320, 352
-0.995447, 129, 121, 375, 184
-0.995491, 45, 17, 76, 144
-0.995533, 85, 369, 116, 496
-0.995573, 33, 265, 288, 328
-0.995584, 141, 297, 156, 360
-0.995592, 129, 177, 160, 304
-0.995611, 9, 65, 40, 192
-0.995689, 129, 225, 375, 288
-0.995728, 1, 185, 256, 248
-0.99575, 281, 241, 312, 368
-0.995755, 241, 65, 368, 96
-0.99578, 241, 81, 368, 112
-0.995782, 97, 333, 224, 364
-0.995786, 341, 1, 372, 128
-0.995794, 101, 177, 132, 304
-0.995838, 1, 249, 375, 312
-0.995854, 193, 321, 208, 384
-0.995866, 195, 289, 210, 352
-0.995878, 105, 321, 136, 448
-0.995935, 177, 333, 304, 364
-0.995944, 33, 305, 64, 432
-0.995955, 205, 193, 236, 320
-0.995957, 265, 241, 296, 368
-0.995986, 1, 321, 375, 384
-0.996003, 173, 305, 188, 368
-0.996036, 1, 361, 256, 424
-0.996047, 33, 97, 288, 160
-0.996053, 233, 321, 248, 384
-0.996065, 361, 153, 375, 216
-0.996068, 241, 93, 368, 124
-0.996076, 49, 345, 176, 376
-0.996105, 329, 57, 344, 120
-0.996122, 233, 297, 248, 360
-0.996198, 13, 241, 44, 368
-0.996203, 157, 297, 172, 360
-0.996213, 89, 113, 120, 240
-0.996233, 209, 145, 240, 272
-0.996244, 151, 305, 166, 368
-0.99625, 237, 57, 252, 120
-0.996259, 129, 273, 375, 336
-0.996265, 209, 369, 240, 496
-0.996272, 185, 353, 200, 416
-0.996277, 163, 329, 178, 392
-0.996284, 129, 377, 375, 440
-0.996295, 303, 57, 318, 120
-0.996305, 65, 433, 320, 496
-0.996332, 103, 241, 118, 304
-0.996337, 219, 289, 234, 352
-0.996341, 127, 297, 142, 360
-0.996344, 129, 177, 375, 240
-0.99635, 133, 321, 148, 384
-0.996353, 193, 53, 320, 84
-0.996363, 143, 241, 158, 304
-0.996368, 97, 357, 224, 388
-0.996415, 227, 73, 242, 136
-0.996421, 321, 113, 336, 176
-0.996427, 121, 97, 136, 160
-0.996429, 319, 73, 334, 136
-0.996442, 153, 241, 168, 304
-0.99647, 179, 305, 194, 368
-0.996472, 33, 393, 288, 456
-0.996499, 241, 153, 368, 184
-0.996513, 33, 245, 160, 276
-0.996566, 1, 129, 375, 192
-0.996567, 81, 121, 208, 152
-0.9966, 267, 385, 282, 448
-0.996625, 129, 293, 256, 324
-0.996646, 145, 117, 272, 148
-0.996648, 205, 297, 220, 360
-0.996649, 133, 297, 148, 360
-0.996669, 193, 73, 320, 104
-0.996679, 153, 105, 168, 168
-0.996681, 145, 401, 272, 432
-0.996698, 1, 73, 375, 136
-0.996698, 163, 289, 178, 352
-0.996703, 81, 241, 208, 272
-0.996712, 243, 297, 258, 360
-0.996722, 129, 201, 375, 264
-0.996728, 241, 321, 256, 384
-0.996729, 129, 65, 256, 96
-0.99674, 141, 225, 172, 480
-0.996757, 65, 105, 192, 136
-0.996758, 59, 81, 74, 144
-0.99676, 187, 329, 202, 392
-0.99676, 261, 401, 276, 464
-0.996764, 251, 305, 266, 368
-0.996776, 143, 321, 158, 384
-0.996777, 145, 373, 272, 404
-0.996801, 139, 345, 154, 408
-0.996812, 209, 401, 336, 432
-0.996838, 1, 393, 375, 456
-0.996857, 231, 25, 246, 88
-0.99687, 241, 53, 368, 84
-0.996872, 89, 417, 104, 480
-0.996875, 195, 265, 210, 328
-0.996876, 145, 97, 272, 128
-0.996879, 117, 73, 132, 136
-0.996879, 77, 409, 92, 472
-0.996886, 213, 305, 228, 368
-0.996897, 273, 385, 288, 448
-0.996911, 149, 281, 164, 344
-0.996925, 97, 153, 352, 216
-0.996925, 241, 109, 368, 140
-0.996927, 49, 333, 176, 364
-0.99699, 81, 81, 208, 112
-0.996991, 157, 273, 172, 336
-0.997007, 33, 217, 288, 280
-0.997007, 57, 249, 72, 312
-0.997012, 149, 329, 164, 392
-0.997013, 303, 81, 318, 144
-0.997024, 177, 305, 304, 336
-0.997025, 153, 369, 168, 432
-0.997028, 107, 273, 122, 336
-0.997031, 121, 305, 136, 368
-0.997032, 129, 1, 375, 64
-0.997035, 161, 241, 176, 304
-0.997041, 129, 401, 375, 464
-0.997042, 329, 33, 360, 288
-0.997058, 241, 169, 368, 200
-0.99706, 33, 93, 160, 124
-0.997065, 339, 57, 354, 120
-0.997068, 145, 49, 272, 80
-0.997086, 349, 65, 364, 128
-0.99709, 241, 121, 368, 152
-0.997107, 193, 85, 320, 116
-0.997134, 109, 241, 124, 304
-0.997137, 95, 241, 110, 304
-0.99715, 167, 241, 182, 304
-0.997153, 123, 241, 138, 304
-0.997161, 81, 317, 208, 348
-0.997163, 241, 193, 368, 224
-0.997166, 99, 273, 114, 336
-0.997167, 231, 49, 246, 112
-0.997174, 353, 153, 368, 216
-0.997182, 241, 217, 368, 248
-0.997194, 237, 33, 252, 96
-0.997196, 87, 89, 102, 152
-0.997197, 157, 329, 172, 392
-0.997198, 311, 65, 326, 128
-0.997198, 253, 385, 268, 448
-0.9972, 175, 353, 190, 416
-0.997204, 165, 105, 180, 168
-0.997219, 33, 233, 160, 264
-0.997229, 209, 389, 336, 420
-0.997231, 69, 401, 84, 464
-0.997231, 193, 345, 320, 376
-0.997237, 113, 97, 128, 160
-0.997246, 129, 249, 375, 312
-0.99725, 145, 77, 272, 108
-0.99725, 117, 241, 132, 304
-0.997257, 33, 269, 160, 300
-0.997265, 69, 241, 84, 304
-0.997265, 133, 241, 148, 304
-0.997273, 65, 405, 192, 436
-0.997285, 181, 273, 196, 336
-0.997298, 79, 113, 94, 176
-0.997304, 89, 241, 104, 304
-0.997314, 237, 89, 252, 152
-0.997317, 163, 353, 178, 416
-0.997326, 231, 425, 246, 488
-0.997329, 145, 385, 272, 416
-0.997332, 171, 137, 186, 200
-0.997332, 307, 105, 322, 168
-0.997333, 227, 329, 242, 392
-0.997333, 129, 237, 256, 268
-0.99734, 143, 401, 158, 464
-0.997341, 113, 165, 240, 196
-0.997343, 187, 257, 202, 320
-0.997353, 177, 217, 192, 280
-0.997357, 209, 41, 336, 72
-0.997369, 81, 445, 208, 476
-0.997369, 355, 65, 370, 128
-0.997374, 63, 241, 78, 304
-0.997387, 267, 417, 282, 480
-0.997389, 245, 57, 260, 120
-0.99739, 147, 217, 162, 280
-0.997394, 113, 273, 240, 304
-0.997399, 309, 41, 324, 104
-0.997401, 1, 41, 375, 104
-0.997407, 139, 425, 154, 488
-0.997409, 247, 97, 262, 160
-0.997426, 239, 409, 254, 472
-0.997429, 207, 273, 222, 336
-0.997436, 159, 105, 174, 168
-0.997447, 83, 241, 98, 304
-0.997465, 117, 273, 132, 336
-0.997468, 83, 417, 98, 480
-0.997469, 61, 401, 76, 464
-0.997472, 241, 233, 368, 264
-0.997472, 81, 293, 208, 324
-0.997474, 81, 417, 208, 448
-0.997474, 241, 205, 368, 236
-0.997478, 249, 33, 264, 96
-0.997484, 221, 313, 236, 376
-0.99749, 201, 265, 216, 328
-0.997496, 75, 89, 90, 152
-0.997502, 133, 345, 148, 408
-0.997508, 127, 321, 142, 384
-0.997511, 153, 225, 184, 480
-0.997512, 1, 353, 375, 416
-0.997514, 191, 353, 206, 416
-0.997515, 225, 409, 240, 472
-0.997524, 225, 333, 352, 364
-0.997529, 315, 41, 330, 104
-0.997539, 91, 273, 106, 336
-0.99754, 177, 289, 304, 320
-0.997544, 309, 65, 340, 320
-0.997548, 33, 433, 160, 464
-0.99755, 113, 221, 240, 252
-0.99755, 147, 369, 162, 432
-0.99756, 51, 241, 66, 304
-0.997563, 283, 393, 298, 456
-0.997564, 177, 321, 304, 352
-0.997569, 27, 153, 42, 216
-0.997572, 247, 393, 262, 456
-0.997576, 209, 417, 336, 448
-0.997578, 81, 89, 96, 152
-0.997578, 193, 97, 320, 128
-0.997581, 323, 49, 338, 112
-0.997585, 285, 313, 300, 376
-0.997591, 225, 133, 352, 164
-0.997604, 1, 273, 375, 336
-0.997605, 185, 393, 200, 456
-0.997613, 331, 105, 346, 168
-0.997613, 139, 273, 154, 336
-0.997623, 329, 81, 344, 144
-0.997633, 83, 393, 98, 456
-0.997635, 259, 33, 274, 96
-0.997637, 113, 181, 240, 212
-0.997646, 193, 357, 320, 388
-0.997647, 145, 37, 272, 68
-0.997663, 1, 1, 256, 64
-0.997668, 113, 433, 240, 464
-0.997669, 1, 225, 375, 288
-0.997683, 49, 257, 176, 288
-0.997693, 177, 277, 304, 308
-0.997713, 177, 249, 304, 280
-0.997737, 97, 369, 224, 400
-0.997738, 161, 413, 288, 444
-0.99775, 49, 361, 176, 392
-0.997752, 129, 321, 256, 352
-0.997756, 181, 341, 196, 372
-0.997786, 225, 293, 352, 324
-0.997789, 97, 257, 224, 288
-0.997797, 225, 321, 352, 352
-0.997808, 145, 129, 272, 160
-0.997812, 33, 449, 160, 480
-0.997835, 1, 357, 128, 388
-0.99784, 183, 309, 198, 340
-0.997843, 65, 385, 192, 416
-0.997846, 33, 161, 160, 192
-0.99785, 81, 133, 208, 164
-0.997856, 33, 177, 160, 208
-0.997856, 113, 209, 240, 240
-0.997858, 241, 377, 368, 408
-0.99786, 129, 225, 160, 480
-0.997876, 169, 341, 184, 372
-0.997887, 97, 93, 224, 124
-0.997894, 1, 281, 128, 312
-0.997903, 85, 421, 100, 452
-0.997905, 147, 317, 162, 348
-0.997918, 81, 305, 208, 336
-0.99792, 33, 469, 160, 500
-0.997923, 33, 149, 160, 180
-0.997932, 241, 181, 368, 212
-0.997935, 145, 261, 272, 292
-0.997939, 113, 197, 240, 228
-0.997945, 189, 329, 204, 360
-0.997961, 177, 233, 304, 264
-0.997979, 151, 337, 166, 368
-0.997987, 341, 33, 372, 288
-0.997993, 241, 245, 368, 276
-0.997998, 173, 257, 204, 500
-0.998004, 1, 185, 375, 248
-0.998004, 81, 129, 112, 384
-0.998021, 17, 373, 144, 404
-0.998021, 153, 97, 184, 352
-0.99803, 161, 141, 288, 172
-0.998033, 141, 349, 156, 380
-0.998039, 173, 97, 204, 352
-0.998044, 207, 329, 222, 360
-0.998047, 191, 341, 206, 372
-0.998054, 241, 261, 368, 292
-0.998056, 141, 317, 156, 348
-0.998067, 193, 193, 224, 448
-0.998069, 113, 149, 240, 180
-0.998076, 1, 413, 128, 444
-0.99808, 241, 281, 368, 312
-0.998082, 159, 345, 174, 376
-0.998088, 175, 333, 190, 364
-0.9981, 61, 129, 92, 384
-0.998105, 201, 337, 216, 368
-0.998116, 161, 185, 288, 216
-0.99812, 65, 217, 192, 248
-0.998123, 1, 417, 375, 480
-0.998127, 17, 305, 144, 336
-0.998132, 33, 317, 160, 348
-0.998142, 33, 189, 160, 220
-0.99815, 361, 161, 375, 192
-0.99816, 229, 69, 244, 100
-0.998164, 1, 345, 128, 376
-0.998171, 143, 305, 158, 336
-0.998175, 133, 349, 148, 380
-0.99818, 171, 353, 186, 384
-0.998183, 193, 369, 320, 400
-0.998183, 241, 309, 368, 340
-0.998192, 225, 309, 240, 340
-0.998196, 1, 81, 128, 112
-0.998218, 293, 65, 324, 320
-0.998233, 69, 33, 100, 288
-0.998234, 195, 329, 210, 360
-0.998235, 321, 121, 336, 152
-0.998236, 101, 129, 132, 384
-0.998237, 17, 105, 144, 136
-0.998238, 161, 437, 288, 468
-0.998241, 17, 293, 144, 324
-0.998242, 329, 61, 344, 92
-0.998246, 137, 305, 152, 336
-0.998249, 193, 113, 320, 144
-0.99825, 143, 337, 158, 368
-0.998251, 85, 409, 100, 440
-0.998253, 1, 385, 128, 416
-0.998254, 229, 49, 244, 80
-0.998259, 181, 329, 196, 360
-0.998267, 235, 61, 250, 92
-0.998271, 97, 225, 128, 480
-0.998275, 117, 225, 148, 480
-0.998282, 79, 417, 94, 448
-0.998282, 161, 157, 288, 188
-0.998291, 185, 257, 200, 288
-0.998291, 243, 97, 258, 128
-0.998291, 165, 377, 180, 408
-0.998298, 161, 221, 288, 252
-0.9983, 171, 385, 186, 416
-0.998301, 121, 65, 152, 320
-0.998305, 215, 337, 230, 368
-0.998306, 131, 317, 146, 348
-0.998314, 1, 117, 128, 148
-0.998314, 225, 333, 240, 364
-0.998317, 1, 17, 375, 80
-0.998324, 81, 457, 208, 488
-0.998328, 213, 323, 244, 338
-0.998328, 153, 391, 184, 406
-0.998329, 273, 387, 304, 402
-0.998329, 93, 287, 124, 302
-0.998329, 41, 383, 72, 398
-0.99833, 231, 333, 246, 364
-0.99833, 285, 109, 316, 124
-0.99833, 173, 255, 204, 270
-0.99833, 293, 65, 324, 80
-0.99833, 169, 183, 200, 198
-0.99833, 173, 121, 204, 136
-0.99833, 141, 243, 172, 258
-0.998331, 169, 177, 200, 192
-0.998331, 303, 65, 318, 96
-0.998332, 301, 393, 332, 408
-0.998333, 241, 57, 272, 72
-0.998333, 325, 113, 356, 128
-0.998334, 181, 327, 212, 342
-0.998335, 341, 129, 372, 384
-0.998335, 209, 65, 240, 80
-0.998335, 165, 407, 196, 422
-0.998336, 229, 109, 260, 124
-0.998336, 105, 455, 136, 470
-0.998336, 165, 239, 196, 254
-0.998338, 29, 383, 60, 398
-0.998338, 185, 249, 216, 264
-0.998338, 325, 81, 356, 96
-0.998338, 73, 451, 104, 466
-0.998339, 137, 321, 168, 336
-0.998339, 193, 261, 224, 276
-0.998339, 253, 391, 284, 406
-0.998339, 325, 101, 356, 116
-0.99834, 265, 405, 296, 420
-0.99834, 1, 373, 32, 388
-0.998341, 289, 403, 320, 418
-0.998341, 113, 107, 144, 122
-0.998342, 181, 275, 212, 290
-0.998343, 89, 453, 120, 468
-0.998344, 213, 305, 244, 320
-0.998345, 161, 125, 192, 140
-0.998346, 309, 127, 340, 142
-0.998346, 181, 237, 212, 252
-0.998346, 141, 65, 172, 320
-0.998346, 225, 71, 256, 86
-0.998347, 161, 399, 192, 414
-0.998347, 225, 59, 256, 74
-0.998348, 125, 109, 156, 124
-0.998348, 193, 119, 224, 134
-0.998348, 137, 309, 168, 324
-0.998349, 233, 421, 264, 436
-0.99835, 113, 1, 240, 32
-0.998352, 121, 79, 152, 94
-0.998352, 169, 307, 200, 322
-0.998352, 149, 115, 180, 130
-0.998353, 193, 303, 224, 318
-0.998353, 325, 107, 356, 122
-0.998353, 177, 339, 208, 354
-0.998354, 181, 405, 212, 420
-0.998356, 209, 429, 336, 460
-0.998357, 277, 395, 308, 410
-0.998358, 169, 189, 200, 204
-0.998358, 305, 61, 336, 76
-0.998359, 17, 381, 48, 396
-0.998361, 141, 451, 172, 466
-0.998361, 65, 421, 96, 436
-0.998363, 329, 125, 360, 140
-0.998363, 157, 341, 188, 356
-0.998364, 165, 247, 196, 262
-0.998365, 197, 267, 228, 282
-0.998368, 141, 343, 172, 358
-0.998369, 205, 335, 236, 350
-0.998369, 133, 359, 164, 374
-0.998369, 229, 53, 260, 68
-0.99837, 225, 33, 256, 48
-0.99837, 197, 277, 228, 292
-0.998371, 77, 433, 108, 448
-0.998371, 117, 449, 148, 464
-0.998372, 173, 385, 204, 400
-0.998372, 245, 419, 276, 434
-0.998372, 225, 331, 256, 346
-0.998372, 325, 95, 356, 110
-0.998373, 265, 399, 296, 414
-0.998373, 37, 389, 68, 404
-0.998373, 205, 347, 236, 362
-0.998376, 217, 345, 248, 360
-0.998377, 161, 173, 288, 204
-0.998377, 183, 297, 198, 328
-0.998378, 121, 351, 152, 366
-0.998378, 305, 89, 336, 104
-0.998379, 177, 265, 208, 280
-0.99838, 233, 101, 264, 116
-0.998381, 53, 93, 84, 108
-0.998381, 305, 67, 336, 82
-0.998382, 305, 103, 336, 118
-0.998383, 237, 85, 252, 116
-0.998383, 309, 115, 340, 130
-0.998384, 137, 439, 168, 454
-0.998385, 161, 117, 192, 132
-0.998386, 325, 119, 356, 134
-0.998387, 331, 113, 346, 144
-0.998389, 49, 407, 80, 422
-0.99839, 133, 445, 164, 460
-0.99839, 305, 95, 336, 110
-0.998391, 305, 73, 336, 88
-0.998392, 325, 87, 356, 102
-0.998392, 303, 77, 318, 108
-0.998393, 177, 243, 208, 258
-0.998394, 85, 439, 116, 454
-0.998394, 157, 355, 188, 370
-0.998395, 241, 339, 272, 354
-0.998395, 309, 109, 340, 124
-0.998399, 213, 311, 244, 326
-0.998399, 305, 81, 336, 96
-0.998399, 69, 411, 100, 426
-0.998401, 49, 193, 80, 448
-0.998401, 151, 245, 166, 276
-0.998402, 165, 113, 180, 144
-0.998402, 65, 281, 192, 312
-0.998402, 161, 385, 192, 400
-0.998404, 181, 377, 212, 392
-0.998406, 169, 379, 200, 394
-0.998409, 157, 313, 188, 328
-0.998409, 215, 309, 230, 340
-0.99841, 137, 315, 168, 330
-0.998412, 233, 305, 264, 320
-0.998414, 181, 333, 212, 348
-0.998419, 33, 137, 160, 168
-0.99842, 133, 351, 164, 366
-0.998421, 193, 269, 208, 300
-0.998421, 325, 65, 356, 80
-0.998426, 129, 305, 144, 336
-0.998426, 229, 341, 260, 356
-0.998426, 169, 313, 200, 328
-0.998426, 185, 351, 216, 366
-0.998427, 259, 417, 274, 448
-0.99843, 309, 121, 340, 136
-0.99843, 189, 313, 204, 344
-0.998431, 61, 257, 92, 500
-0.998432, 125, 313, 156, 328
-0.998433, 81, 49, 208, 80
-0.998439, 125, 319, 156, 334
-0.998439, 177, 233, 192, 264
-0.998442, 321, 109, 336, 140
-0.998443, 57, 413, 88, 428
-0.998446, 217, 339, 248, 354
-0.998447, 145, 357, 272, 388
-0.998447, 1, 257, 128, 288
-0.998447, 145, 355, 176, 370
-0.998448, 217, 325, 232, 356
-0.998451, 193, 309, 224, 324
-0.998457, 237, 333, 252, 364
-0.998458, 169, 353, 200, 368
-0.998464, 149, 357, 164, 388
-0.998464, 121, 313, 136, 344
-0.998474, 181, 309, 212, 324
-0.998476, 201, 341, 232, 356
-0.998478, 193, 345, 256, 360
-0.998481, 153, 347, 216, 362
-0.998481, 77, 419, 108, 434
-0.998487, 169, 345, 200, 360
-0.998489, 349, 69, 364, 100
-0.99849, 69, 413, 84, 444
-0.998491, 145, 313, 208, 328
-0.998494, 73, 257, 104, 500
-0.998501, 245, 333, 260, 364
-0.998502, 319, 69, 334, 100
-0.998503, 235, 73, 250, 104
-0.998503, 79, 429, 94, 460
-0.998503, 185, 311, 248, 326
-0.998505, 189, 343, 220, 358
-0.998511, 161, 197, 288, 228
-0.998514, 269, 397, 284, 428
-0.998517, 93, 429, 108, 460
-0.998518, 33, 205, 160, 236
-0.998518, 145, 349, 176, 364
-0.998525, 189, 245, 204, 276
-0.998526, 97, 33, 128, 288
-0.998527, 161, 209, 288, 240
-0.998527, 165, 357, 180, 388
-0.998528, 157, 347, 188, 362
-0.99853, 129, 343, 192, 358
-0.998532, 207, 309, 222, 340
-0.998532, 53, 373, 68, 404
-0.998532, 131, 337, 146, 368
-0.998533, 143, 245, 158, 276
-0.998534, 87, 433, 102, 464
-0.998534, 99, 437, 114, 468
-0.998538, 121, 349, 184, 364
-0.998538, 313, 69, 375, 84
-0.99854, 163, 333, 178, 364
-0.99854, 241, 349, 368, 380
-0.99854, 145, 353, 208, 368
-0.998541, 217, 297, 232, 328
-0.998546, 217, 341, 280, 356
-0.998548, 193, 301, 208, 332
-0.998548, 151, 301, 166, 332
-0.998552, 209, 305, 272, 320
-0.998553, 159, 357, 174, 388
-0.998562, 63, 405, 78, 436
-0.998564, 91, 417, 106, 448
-0.998565, 199, 349, 214, 380
-0.998566, 177, 313, 192, 344
-0.998567, 265, 413, 280, 444
-0.998568, 233, 305, 248, 336
-0.998577, 325, 129, 356, 384
-0.998578, 185, 337, 248, 352
-0.998583, 249, 417, 264, 448
-0.998586, 113, 319, 176, 334
-0.998586, 161, 389, 176, 420
-0.998588, 97, 351, 160, 366
-0.998593, 145, 307, 208, 322
-0.998595, 313, 75, 375, 90
-0.998598, 129, 337, 192, 352
-0.998599, 217, 53, 280, 68
-0.998602, 153, 339, 216, 354
-0.998604, 193, 331, 256, 346
-0.998604, 257, 83, 320, 98
-0.998605, 145, 265, 208, 280
-0.998606, 121, 357, 184, 372
-0.998606, 129, 115, 192, 130
-0.998608, 157, 313, 172, 344
-0.998609, 171, 237, 186, 268
-0.998609, 243, 413, 258, 444
-0.998609, 297, 63, 360, 78
-0.998609, 147, 421, 162, 452
-0.99861, 297, 111, 360, 126
-0.998612, 177, 121, 192, 152
-0.998613, 225, 77, 288, 92
-0.998613, 147, 441, 162, 472
-0.998614, 233, 419, 296, 434
-0.998614, 303, 97, 318, 128
-0.998616, 225, 99, 288, 114
-0.998616, 317, 249, 332, 280
-0.998616, 153, 327, 216, 342
-0.998617, 159, 281, 174, 312
-0.998618, 193, 289, 208, 320
-0.998621, 257, 97, 272, 128
-0.998621, 223, 57, 238, 88
-0.998622, 29, 225, 60, 480
-0.998623, 361, 189, 375, 220
-0.998623, 97, 433, 160, 448
-0.998623, 257, 109, 320, 124
-0.998623, 169, 305, 232, 320
-0.998624, 129, 329, 192, 344
-0.998625, 257, 95, 320, 110
-0.998626, 289, 81, 352, 96
-0.998626, 73, 417, 136, 432
-0.998627, 279, 393, 294, 424
-0.998628, 173, 301, 188, 332
-0.998628, 121, 313, 184, 328
-0.998628, 137, 249, 200, 264
-0.998628, 185, 319, 248, 334
-0.998629, 137, 319, 200, 334
-0.998629, 41, 95, 104, 110
-0.99863, 193, 271, 256, 286
-0.99863, 105, 109, 168, 124
-0.99863, 137, 125, 200, 140
-0.99863, 257, 405, 320, 420
-0.998631, 9, 385, 72, 400
-0.998632, 257, 73, 320, 88
-0.998632, 225, 85, 288, 100
-0.998633, 161, 117, 224, 132
-0.998635, 257, 89, 320, 104
-0.998635, 217, 69, 280, 84
-0.998636, 329, 101, 344, 132
-0.998636, 49, 421, 112, 436
-0.998637, 209, 311, 272, 326
-0.998637, 161, 125, 224, 140
-0.998637, 281, 101, 344, 116
-0.998637, 205, 349, 220, 380
-0.998639, 305, 113, 320, 144
-0.99864, 57, 429, 120, 444
-0.998641, 25, 407, 88, 422
-0.998641, 177, 351, 240, 366
-0.998642, 81, 99, 144, 114
-0.998642, 233, 393, 296, 408
-0.998642, 157, 245, 172, 276
-0.998642, 153, 255, 216, 270
-0.998643, 113, 283, 176, 298
-0.998643, 289, 121, 352, 136
-0.998644, 137, 243, 200, 258
-0.998644, 217, 327, 280, 342
-0.998644, 169, 273, 232, 288
-0.998645, 161, 383, 224, 398
-0.998645, 97, 439, 160, 454
-0.998645, 103, 245, 118, 276
-0.998645, 217, 59, 280, 74
-0.998645, 185, 325, 248, 340
-0.998646, 249, 103, 312, 118
-0.998646, 137, 133, 200, 148
-0.998648, 217, 45, 280, 60
-0.998648, 229, 321, 244, 352
-0.998649, 281, 75, 344, 90
-0.998649, 295, 81, 310, 112
-0.998649, 179, 253, 194, 284
-0.998649, 121, 81, 184, 96
-0.99865, 161, 131, 224, 146
-0.99865, 121, 449, 184, 464
-0.99865, 281, 95, 344, 110
-0.99865, 1, 103, 64, 118
-0.99865, 167, 397, 182, 428
-0.99865, 209, 423, 272, 438
-0.99865, 65, 453, 128, 468
-0.99865, 257, 419, 320, 434
-0.998651, 257, 63, 320, 78
-0.998652, 225, 91, 288, 106
-0.998652, 81, 447, 144, 462
-0.998652, 257, 413, 320, 428
-0.998653, 97, 79, 160, 94
-0.998653, 281, 87, 344, 102
-0.998653, 233, 401, 296, 416
-0.998653, 209, 441, 272, 456
-0.998654, 57, 443, 120, 458
-0.998654, 169, 267, 232, 282
-0.998655, 153, 333, 216, 348
-0.998656, 281, 69, 344, 84
-0.998656, 143, 361, 158, 392
-0.998657, 89, 453, 152, 468
-0.998657, 229, 401, 244, 432
-0.998657, 193, 277, 256, 292
-0.998657, 233, 429, 296, 444
-0.998657, 157, 301, 172, 332
-0.998658, 127, 349, 142, 380
-0.998658, 129, 383, 192, 398
-0.998658, 233, 441, 296, 456
-0.998659, 117, 277, 132, 308
-0.99866, 313, 65, 328, 96
-0.99866, 9, 379, 72, 394
-0.99866, 241, 335, 304, 350
-0.998661, 313, 161, 375, 176
-0.998661, 137, 185, 200, 200
-0.998661, 105, 341, 168, 356
-0.998661, 89, 335, 152, 350
-0.998661, 161, 377, 224, 392
-0.998663, 25, 281, 88, 296
-0.998664, 281, 147, 344, 162
-0.998665, 17, 275, 80, 290
-0.998666, 317, 397, 332, 428
-0.998666, 41, 413, 104, 428
-0.998667, 169, 159, 232, 174
-0.998667, 1, 161, 375, 224
-0.998667, 313, 97, 375, 112
-0.998667, 177, 403, 240, 418
-0.998667, 9, 373, 72, 388
-0.998668, 249, 435, 312, 450
-0.998668, 137, 179, 200, 194
-0.998669, 73, 423, 136, 438
-0.998669, 313, 85, 375, 100
-0.998669, 313, 211, 375, 226
-0.99867, 209, 417, 272, 432
-0.99867, 137, 219, 200, 234
-0.998671, 185, 377, 248, 392
-0.998671, 137, 167, 200, 182
-0.998671, 113, 247, 176, 262
-0.998671, 153, 389, 216, 404
-0.998673, 153, 237, 216, 252
-0.998673, 209, 113, 272, 128
-0.998673, 313, 127, 375, 142
-0.998674, 57, 437, 120, 452
-0.998674, 177, 247, 240, 262
-0.998674, 109, 277, 124, 308
-0.998675, 229, 81, 244, 112
-0.998676, 187, 233, 202, 264
-0.998678, 327, 237, 342, 268
-0.998681, 253, 309, 268, 340
-0.998682, 249, 101, 264, 132
-0.998683, 141, 437, 156, 468
-0.998684, 59, 89, 74, 120
-0.998685, 137, 333, 152, 364
-0.998685, 253, 225, 284, 480
-0.998688, 67, 273, 82, 304
-0.99869, 137, 361, 152, 392
-0.998692, 151, 377, 166, 408
-0.998694, 181, 353, 196, 384
-0.998699, 129, 105, 144, 136
-0.998731, 57, 33, 88, 288
-0.998756, 245, 65, 276, 320
-0.998761, 81, 33, 112, 288
-0.998782, 161, 1, 192, 256
-0.998818, 197, 1, 228, 256
-0.998848, 109, 33, 140, 288
-0.998861, 345, 257, 375, 500
-0.998886, 241, 257, 272, 500
-0.998973, 185, 1, 216, 256
-0.998993, 229, 1, 260, 256
-0.998999, 211, 305, 226, 432
-0.999007, 205, 305, 220, 432
-0.99901, 281, 1, 312, 256
-0.999023, 269, 1, 300, 256
-0.999062, 205, 257, 236, 500
-0.999072, 329, 49, 344, 176
-0.999074, 199, 305, 214, 432
-0.999087, 209, 1, 240, 256
-0.9991, 189, 273, 204, 400
-0.999103, 309, 193, 340, 448
-0.999134, 147, 225, 162, 352
-0.999135, 321, 225, 352, 480
-0.999143, 229, 97, 260, 352
-0.999143, 265, 257, 296, 500
-0.999152, 229, 225, 260, 480
-0.999152, 361, 145, 375, 272
-0.999172, 229, 49, 244, 176
-0.999208, 235, 33, 250, 160
-0.999208, 179, 289, 194, 416
-0.999213, 41, 97, 72, 352
-0.999224, 135, 81, 150, 208
-0.999228, 173, 1, 204, 256
-0.999231, 147, 289, 162, 416
-0.999231, 319, 65, 334, 192
-0.999237, 285, 257, 316, 500
-0.99924, 153, 225, 168, 352
-0.999252, 183, 241, 198, 368
-0.999256, 85, 257, 116, 500
-0.999257, 247, 33, 262, 160
-0.999258, 189, 97, 220, 352
-0.999264, 129, 49, 144, 176
-0.999265, 13, 225, 44, 480
-0.999265, 141, 273, 156, 400
-0.999265, 205, 257, 220, 384
-0.999267, 195, 241, 210, 368
-0.999273, 255, 33, 270, 160
-0.999277, 351, 113, 366, 240
-0.999277, 217, 257, 248, 500
-0.999283, 257, 1, 288, 256
-0.999287, 303, 65, 318, 192
-0.999292, 257, 337, 272, 464
-0.999293, 193, 321, 208, 448
-0.999306, 215, 257, 230, 384
-0.999311, 217, 321, 232, 448
-0.999314, 163, 225, 178, 352
-0.999319, 147, 369, 162, 496
-0.999323, 141, 225, 156, 352
-0.999331, 135, 225, 150, 352
-0.999338, 103, 225, 118, 352
-0.99934, 313, 49, 328, 176
-0.999348, 173, 289, 188, 416
-0.99935, 101, 65, 116, 192
-0.999352, 141, 369, 156, 496
-0.999358, 225, 289, 240, 416
-0.999358, 223, 1, 238, 128
-0.999362, 137, 321, 152, 448
-0.999363, 155, 273, 170, 400
-0.999366, 63, 209, 78, 336
-0.999367, 107, 81, 122, 208
-0.999374, 171, 225, 186, 352
-0.999376, 251, 81, 266, 208
-0.999381, 189, 225, 204, 352
-0.999382, 77, 81, 92, 208
-0.999384, 141, 81, 156, 208
-0.999386, 91, 225, 106, 352
-0.999386, 97, 225, 112, 352
-0.999395, 69, 65, 84, 192
-0.9994, 49, 33, 64, 160
-0.999401, 51, 177, 66, 304
-0.999405, 95, 65, 110, 192
-0.999408, 241, 33, 256, 160
-0.999413, 329, 1, 344, 128
-0.999414, 165, 97, 180, 224
-0.999415, 121, 81, 136, 208
-0.99942, 75, 225, 90, 352
-0.999425, 69, 225, 84, 352
-0.999426, 251, 337, 266, 464
-0.999426, 353, 161, 368, 288
-0.999428, 361, 97, 375, 224
-0.999428, 157, 369, 172, 496
-0.999428, 129, 225, 144, 352
-0.999429, 85, 225, 100, 352
-0.999434, 177, 241, 192, 368
-0.999445, 163, 321, 178, 448
-0.999445, 261, 65, 276, 192
-0.999446, 341, 49, 356, 176
-0.999453, 131, 273, 146, 400
-0.999454, 321, 113, 336, 240
-0.999455, 329, 145, 344, 272
-0.999456, 241, 81, 256, 208
-0.999457, 319, 17, 334, 144
-0.999457, 131, 353, 146, 480
-0.999459, 53, 241, 68, 368
-0.999461, 143, 17, 158, 144
-0.999461, 63, 369, 78, 496
-0.999465, 353, 209, 368, 336
-0.999465, 239, 289, 254, 416
-0.999467, 137, 1, 152, 128
-0.999468, 155, 49, 170, 176
-0.999471, 119, 273, 134, 400
-0.999476, 59, 81, 74, 208
-0.999476, 269, 1, 284, 128
-0.999477, 277, 161, 308, 416
-0.999479, 321, 241, 336, 368
-0.999481, 119, 225, 134, 352
-0.999488, 165, 33, 180, 160
-0.999489, 245, 289, 260, 416
-0.999489, 231, 305, 246, 432
-0.99949, 125, 1, 140, 128
-0.999497, 145, 177, 160, 304
-0.999497, 147, 97, 162, 224
-0.999502, 329, 97, 344, 224
-0.999504, 125, 273, 140, 400
-0.999505, 305, 17, 320, 144
-0.99951, 113, 273, 128, 400
-0.99951, 185, 321, 200, 448
-0.999512, 243, 337, 258, 464
-0.999513, 279, 1, 294, 128
-0.999517, 153, 321, 168, 448
-0.999518, 171, 113, 186, 240
-0.999519, 91, 273, 106, 400
-0.999521, 67, 273, 82, 400
-0.999524, 41, 241, 56, 368
-0.999525, 113, 225, 128, 352
-0.999525, 169, 337, 184, 464
-0.999528, 37, 1, 68, 256
-0.999528, 167, 177, 182, 304
-0.999528, 283, 353, 298, 480
-0.999529, 113, 81, 128, 208
-0.999532, 61, 321, 76, 448
-0.999532, 67, 403, 82, 418
-0.999532, 243, 421, 258, 436
-0.999533, 251, 289, 266, 416
-0.999533, 133, 109, 148, 124
-0.999534, 167, 123, 182, 138
-0.999534, 129, 485, 144, 500
-0.999534, 301, 89, 316, 104
-0.999534, 145, 281, 160, 296
-0.999534, 147, 241, 162, 256
-0.999535, 191, 281, 206, 296
-0.999535, 151, 357, 166, 372
-0.999535, 265, 405, 280, 420
-0.999536, 205, 129, 236, 384
-0.999536, 85, 65, 100, 192
-0.999536, 173, 397, 188, 412
-0.999537, 247, 111, 262, 126
-0.999538, 137, 445, 152, 460
-0.999538, 241, 99, 256, 114
-0.999538, 223, 49, 238, 176
-0.999538, 235, 241, 250, 368
-0.999539, 91, 433, 106, 448
-0.999539, 251, 337, 266, 352
-0.99954, 195, 241, 210, 256
-0.99954, 173, 389, 188, 404
-0.999541, 195, 289, 210, 304
-0.999541, 99, 437, 114, 452
-0.999541, 241, 241, 256, 368
-0.999541, 271, 397, 286, 412
-0.999541, 129, 97, 144, 224
-0.999541, 75, 33, 90, 160
-0.999542, 343, 145, 358, 272
-0.999542, 217, 333, 232, 348
-0.999542, 319, 65, 334, 80
-0.999542, 187, 339, 202, 354
-0.999543, 171, 239, 186, 254
-0.999543, 149, 331, 164, 346
-0.999543, 81, 413, 96, 428
-0.999543, 331, 121, 346, 136
-0.999544, 139, 333, 154, 348
-0.999544, 155, 279, 170, 294
-0.999544, 221, 345, 236, 360
-0.999545, 177, 407, 192, 422
-0.999546, 61, 411, 76, 426
-0.999547, 77, 429, 92, 444
-0.999547, 161, 273, 176, 400
-0.999548, 255, 417, 270, 432
-0.999548, 77, 273, 92, 400
-0.999549, 353, 65, 368, 192
-0.999549, 137, 311, 152, 326
-0.99955, 239, 55, 254, 70
-0.99955, 225, 67, 240, 82
-0.99955, 173, 377, 188, 392
-0.99955, 101, 17, 116, 144
-0.99955, 177, 177, 192, 304
-0.99955, 177, 121, 192, 136
-0.99955, 217, 311, 232, 326
-0.999551, 269, 389, 284, 404
-0.999551, 183, 329, 198, 344
-0.999551, 257, 45, 272, 60
-0.999551, 179, 237, 194, 252
-0.999552, 85, 273, 100, 400
-0.999552, 199, 275, 214, 290
-0.999552, 303, 77, 318, 92
-0.999552, 165, 379, 180, 394
-0.999554, 149, 247, 164, 262
-0.999554, 97, 273, 112, 400
-0.999554, 69, 113, 84, 240
-0.999554, 255, 113, 270, 128
-0.999554, 191, 235, 206, 250
-0.999555, 205, 349, 220, 364
-0.999555, 235, 65, 250, 80
-0.999555, 121, 317, 136, 332
-0.999555, 331, 115, 346, 130
-0.999556, 341, 1, 356, 128
-0.999556, 227, 325, 242, 340
-0.999557, 217, 305, 232, 320
-0.999557, 319, 289, 334, 416
-0.999557, 321, 117, 336, 132
-0.999558, 319, 71, 334, 86
-0.999558, 185, 351, 200, 366
-0.999558, 59, 257, 74, 384
-0.999559, 67, 415, 82, 430
-0.99956, 189, 333, 204, 348
-0.99956, 233, 305, 248, 320
-0.99956, 147, 439, 162, 454
-0.99956, 131, 343, 146, 358
-0.999561, 141, 357, 156, 372
-0.999561, 163, 355, 178, 370
-0.999562, 247, 101, 262, 116
-0.999563, 199, 349, 214, 364
-0.999563, 141, 345, 156, 360
-0.999563, 329, 61, 344, 76
-0.999567, 303, 65, 318, 80
-0.999569, 223, 311, 238, 326
-0.99957, 185, 243, 200, 258
-0.99957, 73, 411, 88, 426
-0.999571, 191, 309, 206, 324
-0.999572, 361, 163, 375, 178
-0.999573, 179, 337, 194, 352
-0.999575, 317, 253, 332, 268
-0.999575, 225, 333, 240, 348
-0.999575, 231, 335, 246, 350
-0.999576, 179, 353, 194, 368
-0.999576, 199, 267, 214, 282
-0.999577, 173, 353, 188, 368
-0.999577, 175, 311, 190, 326
-0.999579, 179, 381, 194, 396
-0.999579, 189, 271, 204, 286
-0.999579, 129, 313, 144, 328
-0.999581, 155, 313, 170, 328
-0.999583, 231, 53, 246, 68
-0.999584, 75, 423, 90, 438
-0.999585, 229, 341, 244, 356
-0.999586, 165, 385, 180, 400
-0.999586, 165, 117, 180, 132
-0.999586, 237, 337, 252, 352
-0.999588, 235, 79, 250, 94
-0.99959, 303, 83, 318, 98
-0.99959, 127, 319, 142, 334
-0.999597, 173, 347, 188, 362
-0.999597, 191, 351, 206, 366
-0.999598, 215, 347, 230, 362
-0.9996, 153, 351, 168, 366
-0.999601, 215, 341, 230, 356
-0.999603, 67, 409, 82, 424
-0.999603, 321, 125, 336, 140
-0.999606, 145, 311, 160, 326
-0.999608, 235, 71, 250, 86
-0.999609, 245, 337, 260, 352
-0.999612, 133, 351, 148, 366
-0.999612, 159, 349, 174, 364
-0.999615, 147, 317, 162, 332
-0.999616, 137, 317, 152, 332
-0.999616, 209, 343, 224, 358
-0.999617, 189, 265, 204, 280
-0.99962, 61, 405, 76, 420
-0.99962, 173, 383, 188, 398
-0.999626, 183, 309, 198, 324
-0.999626, 201, 343, 216, 358
-0.999629, 195, 343, 210, 358
-0.999631, 139, 351, 154, 366
-0.999633, 229, 73, 244, 88
-0.999634, 223, 339, 238, 354
-0.999635, 183, 315, 198, 330
-0.999639, 179, 347, 194, 362
-0.999644, 165, 349, 180, 364
-0.999645, 217, 97, 248, 352
-0.999651, 147, 351, 162, 366
-0.999651, 81, 419, 96, 434
-0.999653, 185, 345, 200, 360
-0.999669, 87, 417, 102, 432
-0.999741, 265, 161, 296, 416
-0.999775, 17, 65, 48, 320
-0.999782, 29, 129, 60, 384
-0.999857, 333, 257, 364, 500
-0.999885, 1, 225, 32, 480
-0.999905, 1, 1, 32, 256
-0.999952, 297, 193, 328, 448
-1.00014, 241, 161, 272, 416
-1.00019, 1, 129, 32, 384
