1872
-0.464506, 1, 65, 500, 320
-0.594976, 1, 1, 500, 333
-0.635502, 97, 1, 352, 333
-0.646393, 225, 1, 480, 333
-0.651095, 1, 1, 256, 333
-0.732535, 129, 65, 384, 320
-0.768981, 1, 65, 256, 320
-0.784433, 225, 65, 480, 320
-0.877826, 177, 65, 304, 320
-0.893014, 33, 65, 160, 320
-0.902767, 225, 65, 352, 320
-0.904118, 1, 1, 128, 333
-0.912044, 49, 1, 176, 333
-0.915014, 369, 1, 496, 333
-0.91581, 1, 145, 500, 272
-0.916691, 225, 1, 352, 333
-0.920327, 113, 1, 240, 333
-0.921444, 321, 65, 448, 320
-0.921699, 369, 65, 496, 320
-0.921918, 161, 1, 288, 333
-0.922293, 1, 193, 500, 320
-0.922385, 273, 1, 400, 333
-0.924306, 81, 33, 208, 288
-0.925604, 129, 65, 256, 320
-0.930778, 1, 97, 500, 224
-0.931742, 193, 113, 448, 240
-0.933599, 1, 177, 256, 304
-0.935295, 273, 65, 400, 320
-0.9359, 225, 193, 480, 320
-0.936731, 321, 1, 448, 333
-0.936939, 97, 97, 352, 224
-0.939747, 1, 81, 256, 208
-0.942348, 97, 145, 352, 272
-0.945487, 193, 113, 320, 240
-0.948853, 241, 177, 368, 304
-0.951182, 233, 97, 296, 224
-0.952934, 129, 193, 384, 320
-0.953104, 113, 177, 240, 304
-0.953335, 1, 49, 500, 176
-0.954255, 321, 193, 448, 320
-0.954849, 33, 81, 160, 208
-0.956027, 249, 177, 312, 304
-0.956765, 1, 209, 128, 333
-0.956822, 209, 209, 272, 333
-0.957878, 209, 241, 272, 304
-0.957966, 1, 161, 128, 288
-0.958315, 153, 177, 216, 304
-0.958811, 193, 193, 320, 320
-0.960205, 73, 65, 136, 192
-0.962141, 257, 249, 320, 312
-0.962311, 89, 209, 152, 333
-0.963683, 209, 97, 272, 224
-0.963971, 273, 129, 400, 256
-0.963975, 185, 177, 248, 304
-0.964157, 425, 113, 488, 240
-0.964422, 49, 161, 176, 288
-0.965288, 65, 209, 192, 333
-0.965337, 257, 113, 320, 240
-0.965574, 369, 129, 496, 256
-0.96599, 9, 161, 72, 288
-0.96606, 121, 177, 184, 304
-0.966154, 185, 265, 248, 328
-0.96616, 81, 113, 208, 240
-0.966191, 289, 177, 352, 304
-0.966869, 33, 209, 96, 333
-0.966918, 313, 193, 376, 320
-0.967212, 97, 81, 160, 208
-0.967222, 89, 161, 152, 288
-0.967441, 321, 113, 448, 240
-0.968036, 41, 81, 104, 208
-0.968658, 145, 113, 272, 240
-0.969382, 337, 193, 400, 320
-0.969454, 113, 129, 176, 256
-0.969457, 209, 161, 272, 288
-0.970539, 401, 161, 464, 288
-0.970902, 281, 249, 344, 312
-0.971849, 1, 129, 256, 256
-0.971957, 361, 113, 424, 240
-0.971976, 281, 129, 344, 256
-0.972098, 233, 105, 296, 168
-0.972462, 97, 49, 352, 176
-0.972488, 185, 241, 248, 304
-0.972524, 377, 193, 440, 320
-0.97261, 329, 113, 392, 240
-0.972822, 73, 81, 136, 144
-0.972862, 385, 113, 448, 240
-0.973492, 249, 225, 312, 288
-0.973863, 57, 177, 120, 304
-0.974038, 9, 81, 72, 208
-0.974097, 113, 153, 176, 216
-0.974123, 233, 257, 296, 320
-0.974297, 353, 201, 416, 264
-0.974535, 65, 113, 128, 240
-0.975173, 369, 193, 496, 320
-0.975941, 225, 65, 288, 320
-0.975989, 137, 153, 200, 216
-0.976179, 9, 209, 72, 333
-0.976267, 193, 249, 320, 312
-0.976386, 285, 249, 316, 312
-0.976761, 209, 265, 272, 328
-0.976943, 353, 169, 416, 232
-0.977077, 25, 273, 88, 333
-0.977107, 161, 257, 224, 320
-0.977146, 33, 81, 160, 144
-0.977163, 225, 65, 480, 192
-0.977482, 81, 273, 144, 333
-0.977642, 257, 121, 320, 184
-0.977664, 121, 273, 184, 333
-0.977682, 161, 113, 224, 240
-0.977724, 305, 113, 368, 240
-0.977789, 193, 113, 320, 176
-0.978391, 137, 129, 200, 256
-0.978499, 313, 193, 376, 256
-0.978853, 33, 161, 96, 288
-0.978853, 289, 225, 352, 288
-0.979625, 145, 241, 272, 304
-0.979717, 73, 169, 136, 232
-0.979721, 33, 273, 160, 333
-0.979821, 241, 177, 272, 304
-0.979834, 33, 89, 96, 152
-0.979955, 65, 33, 128, 288
-0.980106, 169, 177, 232, 240
-0.980178, 205, 241, 236, 304
-0.980196, 185, 129, 248, 256
-0.980284, 113, 65, 240, 192
-0.980304, 257, 97, 288, 224
-0.980398, 393, 209, 456, 272
-0.980449, 257, 153, 320, 216
-0.98045, 249, 65, 312, 320
-0.98052, 209, 105, 272, 168
-0.980668, 433, 193, 496, 320
-0.980678, 49, 257, 112, 320
-0.980719, 261, 177, 292, 304
-0.980792, 65, 233, 128, 296
-0.981052, 105, 177, 168, 240
-0.981074, 201, 145, 264, 208
-0.981074, 153, 225, 216, 288
-0.981195, 425, 129, 488, 192
-0.981253, 145, 273, 272, 333
-0.981277, 129, 177, 192, 240
-0.98134, 97, 89, 160, 152
-0.981342, 273, 81, 400, 208
-0.981352, 305, 257, 368, 320
-0.981612, 281, 129, 344, 192
-0.981973, 385, 185, 448, 248
-0.981975, 209, 217, 272, 280
-0.982154, 225, 65, 352, 192
-0.982291, 17, 129, 80, 192
-0.982411, 337, 201, 464, 264
-0.982495, 193, 225, 320, 288
-0.982587, 409, 209, 472, 333
-0.982755, 321, 161, 384, 224
-0.982824, 41, 33, 104, 288
-0.982871, 241, 257, 368, 320
-0.98303, 241, 177, 304, 240
-0.98322, 225, 241, 256, 304
-0.983319, 277, 113, 308, 240
-0.983427, 241, 249, 272, 312
-0.983526, 425, 201, 488, 264
-0.983539, 241, 97, 272, 224
-0.983801, 57, 209, 120, 272
-0.983831, 1, 225, 64, 288
-0.984005, 225, 153, 288, 216
-0.984046, 205, 177, 236, 304
-0.984191, 257, 153, 384, 216
-0.984194, 193, 153, 320, 216
-0.984196, 145, 161, 272, 224
-0.984198, 81, 153, 208, 216
-0.984225, 273, 241, 304, 304
-0.98426, 317, 177, 348, 304
-0.984268, 297, 249, 328, 312
-0.984289, 189, 177, 220, 304
-0.984301, 273, 193, 400, 256
-0.984391, 321, 233, 384, 296
-0.984419, 33, 161, 96, 224
-0.984485, 97, 273, 224, 333
-0.984604, 265, 193, 328, 256
-0.984619, 89, 145, 152, 208
-0.984767, 17, 33, 144, 160
-0.984876, 209, 177, 272, 240
-0.984885, 201, 65, 264, 320
-0.985, 41, 273, 72, 333
-0.985015, 369, 81, 496, 208
-0.985033, 229, 193, 260, 320
-0.985084, 453, 113, 484, 240
-0.98518, 261, 241, 292, 304
-0.985184, 197, 265, 228, 328
-0.98525, 241, 225, 368, 288
-0.985315, 57, 137, 120, 200
-0.98534, 89, 225, 152, 288
-0.985343, 401, 129, 464, 192
-0.985413, 193, 273, 320, 333
-0.98545, 229, 97, 260, 224
-0.985511, 169, 177, 200, 304
-0.985514, 53, 209, 84, 333
-0.985603, 297, 169, 360, 232
-0.985606, 121, 81, 184, 208
-0.985795, 1, 137, 128, 200
-0.985797, 341, 193, 372, 320
-0.985817, 101, 65, 132, 192
-0.985893, 177, 145, 240, 208
-0.985933, 121, 161, 152, 288
-0.985946, 89, 201, 152, 264
-0.986004, 193, 185, 320, 248
-0.986029, 9, 153, 72, 216
-0.986069, 117, 81, 148, 208
-0.986098, 241, 121, 368, 184
-0.986271, 385, 105, 448, 168
-0.986353, 97, 241, 224, 304
-0.986374, 329, 193, 360, 320
-0.986426, 101, 161, 132, 288
-0.986562, 97, 177, 224, 240
-0.986597, 305, 169, 432, 232
-0.986616, 69, 209, 100, 333
-0.986757, 421, 113, 452, 240
-0.986811, 13, 161, 44, 288
-0.986818, 321, 121, 384, 184
-0.98685, 1, 1, 500, 128
-0.986861, 129, 225, 192, 288
-0.986933, 101, 209, 132, 333
-0.987012, 117, 153, 148, 216
-0.987121, 129, 137, 256, 200
-0.987125, 289, 177, 320, 304
-0.987139, 289, 249, 416, 312
-0.987191, 73, 65, 104, 192
-0.98734, 369, 273, 432, 333
-0.987389, 65, 33, 192, 160
-0.987395, 245, 273, 276, 333
-0.987397, 77, 73, 108, 136
-0.987473, 33, 169, 160, 232
-0.987573, 285, 225, 316, 288
-0.987582, 105, 81, 136, 144
-0.987595, 401, 65, 464, 320
-0.987617, 273, 121, 304, 184
-0.987646, 409, 177, 472, 240
-0.987714, 1, 249, 64, 312
-0.987725, 161, 65, 288, 192
-0.987749, 41, 81, 72, 208
-0.98775, 17, 33, 80, 288
-0.987768, 369, 177, 496, 240
-0.987806, 41, 161, 72, 288
-0.987807, 369, 241, 432, 304
-0.987873, 349, 113, 380, 240
-0.987907, 261, 113, 292, 176
-0.987919, 213, 265, 244, 328
-0.987929, 173, 265, 204, 328
-0.987943, 121, 113, 184, 176
-0.987943, 97, 65, 160, 320
-0.987998, 189, 241, 220, 304
-0.988016, 217, 177, 248, 304
-0.988025, 225, 265, 256, 328
-0.988048, 165, 153, 196, 216
-0.988082, 25, 225, 88, 288
-0.988138, 205, 217, 236, 280
-0.988162, 337, 129, 464, 192
-0.988164, 81, 209, 112, 333
-0.988196, 61, 81, 92, 208
-0.98823, 245, 105, 276, 168
-0.988257, 153, 273, 184, 333
-0.988258, 133, 161, 164, 288
-0.988426, 157, 161, 188, 288
-0.988475, 1, 145, 32, 272
-0.988482, 361, 65, 424, 320
-0.988508, 385, 161, 448, 224
-0.988516, 53, 265, 84, 328
-0.988533, 249, 245, 312, 276
-0.988593, 257, 273, 320, 333
-0.988638, 437, 129, 468, 256
-0.988648, 113, 97, 240, 160
-0.988705, 33, 233, 160, 296
-0.98879, 185, 209, 248, 272
-0.988801, 201, 249, 264, 280
-0.988803, 289, 129, 320, 256
-0.988871, 281, 273, 344, 333
-0.988874, 173, 177, 204, 240
-0.988881, 145, 153, 176, 216
-0.988975, 113, 249, 176, 312
-0.988993, 1, 209, 32, 333
-0.989104, 85, 65, 116, 192
-0.989113, 381, 201, 412, 264
-0.989123, 401, 193, 432, 320
-0.989125, 337, 65, 400, 320
-0.989181, 69, 161, 100, 288
-0.989214, 329, 257, 392, 320
-0.989225, 145, 145, 176, 272
-0.989293, 289, 201, 352, 264
-0.989355, 225, 249, 288, 280
-0.989371, 41, 209, 72, 333
-0.989396, 345, 121, 408, 184
-0.989578, 17, 209, 48, 333
-0.989662, 29, 81, 60, 208
-0.989743, 49, 277, 112, 308
-0.989792, 377, 129, 440, 192
-0.989823, 289, 217, 416, 280
-0.989975, 401, 185, 432, 248
-0.990106, 337, 113, 368, 240
-0.990138, 73, 57, 136, 120
-0.990153, 9, 97, 72, 160
-0.990189, 49, 129, 176, 192
-0.990216, 273, 249, 336, 280
-0.990231, 49, 1, 112, 333
-0.990241, 273, 177, 304, 304
-0.990263, 137, 277, 200, 308
-0.990275, 193, 237, 256, 268
-0.990295, 353, 225, 480, 288
-0.9903, 217, 237, 280, 268
-0.990302, 93, 273, 124, 333
-0.990321, 193, 261, 256, 292
-0.990336, 233, 109, 296, 140
-0.990368, 225, 261, 288, 292
-0.990402, 49, 265, 112, 296
-0.990423, 137, 201, 200, 264
-0.990432, 229, 145, 260, 272
-0.99045, 345, 145, 408, 208
-0.990458, 337, 105, 464, 168
-0.990478, 73, 81, 136, 112
-0.990535, 249, 49, 312, 176
-0.990547, 105, 273, 136, 333
-0.990551, 461, 129, 492, 192
-0.990607, 33, 225, 64, 288
-0.990609, 309, 257, 340, 320
-0.990617, 241, 225, 272, 288
-0.990625, 289, 121, 416, 184
-0.990626, 97, 169, 128, 232
-0.990653, 145, 185, 272, 248
-0.990663, 305, 273, 432, 333
-0.990681, 45, 225, 76, 288
-0.99072, 381, 193, 412, 320
-0.990722, 249, 261, 312, 292
-0.990755, 113, 209, 240, 272
-0.990766, 121, 33, 184, 160
-0.990779, 457, 201, 488, 264
-0.990781, 65, 81, 96, 144
-0.990797, 89, 1, 152, 333
-0.990831, 117, 89, 148, 152
-0.990843, 233, 105, 264, 168
-0.990843, 353, 193, 384, 320
-0.990857, 17, 209, 144, 272
-0.990861, 105, 113, 136, 240
-0.990887, 129, 65, 192, 320
-0.99089, 25, 277, 88, 308
-0.990937, 133, 153, 164, 216
-0.990987, 153, 65, 216, 320
-0.991014, 169, 113, 200, 240
-0.991028, 281, 65, 344, 320
-0.991076, 217, 97, 248, 224
-0.991104, 1, 225, 32, 288
-0.991119, 73, 273, 136, 304
-0.991127, 25, 1, 88, 333
-0.991138, 105, 281, 168, 312
-0.991147, 1, 113, 128, 176
-0.991149, 225, 49, 288, 176
-0.991219, 25, 33, 88, 160
-0.991225, 169, 269, 232, 300
-0.991226, 305, 225, 336, 288
-0.991234, 141, 273, 172, 333
-0.991239, 117, 273, 148, 333
-0.99124, 153, 293, 216, 324
-0.991258, 365, 193, 396, 320
-0.99126, 161, 201, 224, 264
-0.99126, 369, 273, 496, 333
-0.991269, 89, 229, 152, 260
-0.991272, 1, 225, 64, 256
-0.991277, 169, 245, 232, 276
-0.991301, 185, 161, 216, 224
-0.991319, 417, 65, 480, 192
-0.991353, 129, 177, 160, 240
-0.991364, 297, 253, 360, 284
-0.991384, 321, 193, 352, 256
-0.991396, 313, 193, 376, 224
-0.991399, 393, 129, 424, 256
-0.991401, 305, 177, 336, 304
-0.991402, 113, 73, 240, 136
-0.991415, 25, 265, 88, 296
-0.991427, 409, 265, 472, 328
-0.991442, 161, 229, 224, 260
-0.991459, 1, 273, 64, 333
-0.991464, 137, 249, 200, 312
-0.991478, 249, 1, 312, 333
-0.991496, 89, 81, 120, 144
-0.991502, 177, 225, 208, 288
-0.991506, 433, 201, 464, 264
-0.991506, 161, 257, 224, 288
-0.991512, 361, 129, 392, 256
-0.991513, 89, 161, 152, 192
-0.991525, 425, 129, 456, 192
-0.991547, 421, 161, 452, 288
-0.991552, 425, 129, 488, 160
-0.99156, 185, 121, 248, 184
-0.991573, 249, 233, 312, 264
-0.991588, 49, 65, 112, 128
-0.991593, 273, 261, 336, 292
-0.991606, 397, 209, 428, 272
-0.991615, 97, 177, 160, 208
-0.991626, 469, 129, 500, 256
-0.991642, 105, 269, 168, 300
-0.991707, 69, 265, 100, 328
-0.991719, 157, 177, 188, 240
-0.991722, 233, 173, 296, 204
-0.991743, 73, 173, 136, 204
-0.991744, 49, 221, 112, 252
-0.991747, 321, 253, 384, 284
-0.991748, 185, 265, 216, 328
-0.99175, 425, 65, 488, 320
-0.99176, 377, 113, 408, 240
-0.991763, 409, 209, 472, 240
-0.991767, 25, 161, 56, 288
-0.991784, 49, 169, 112, 200
-0.991794, 121, 209, 152, 333
-0.991803, 25, 289, 88, 320
-0.99181, 249, 121, 312, 152
-0.991839, 409, 113, 440, 240
-0.991871, 297, 241, 360, 272
-0.991881, 49, 289, 112, 320
-0.991881, 9, 213, 72, 244
-0.991883, 33, 89, 96, 120
-0.991909, 209, 169, 272, 200
-0.991918, 257, 177, 288, 240
-0.99192, 141, 97, 172, 224
-0.991929, 209, 225, 272, 256
-0.991956, 29, 265, 60, 328
-0.991959, 289, 193, 352, 224
-0.991962, 329, 153, 360, 216
-0.991962, 129, 181, 192, 212
-0.991963, 129, 289, 192, 320
-0.991975, 121, 225, 184, 256
-0.991987, 285, 129, 316, 192
-0.991996, 153, 181, 216, 212
-0.991998, 185, 169, 248, 200
-0.992023, 57, 157, 120, 188
-0.992026, 425, 1, 488, 333
-0.992038, 137, 161, 200, 192
-0.99208, 353, 189, 416, 220
-0.992095, 425, 105, 488, 168
-0.992104, 25, 165, 88, 196
-0.992115, 89, 161, 120, 288
-0.992123, 113, 165, 176, 196
-0.992159, 401, 133, 464, 164
-0.99216, 121, 73, 184, 136
-0.992165, 193, 181, 256, 212
-0.992166, 1, 285, 64, 316
-0.992181, 177, 293, 240, 324
-0.992203, 385, 197, 448, 228
-0.992232, 137, 265, 200, 296
-0.992232, 73, 285, 136, 316
-0.992244, 257, 265, 288, 328
-0.99225, 93, 113, 124, 240
-0.992253, 273, 237, 336, 268
-0.992253, 257, 177, 320, 208
-0.992257, 25, 225, 88, 256
-0.992262, 169, 281, 232, 312
-0.992277, 361, 201, 392, 264
-0.992279, 353, 205, 416, 236
-0.992285, 73, 17, 136, 144
-0.992306, 261, 153, 292, 216
-0.992336, 233, 301, 296, 332
-0.992359, 201, 113, 264, 144
-0.992374, 193, 273, 256, 304
-0.992377, 413, 209, 444, 272
-0.99238, 141, 177, 172, 240
-0.992391, 233, 185, 296, 216
-0.992401, 385, 281, 448, 312
-0.992434, 281, 245, 312, 276
-0.992435, 361, 277, 424, 308
-0.992451, 53, 277, 84, 308
-0.992451, 161, 169, 224, 200
-0.992451, 185, 225, 248, 256
-0.992453, 221, 253, 252, 284
-0.992456, 201, 245, 232, 276
-0.992478, 261, 249, 292, 280
-0.992495, 265, 193, 328, 224
-0.992498, 377, 209, 440, 240
-0.9925, 53, 265, 84, 296
-0.992513, 433, 209, 496, 240
-0.992516, 65, 233, 128, 264
-0.992517, 153, 217, 216, 248
-0.992529, 269, 217, 300, 280
-0.992531, 369, 293, 432, 324
-0.992557, 273, 97, 400, 160
-0.992559, 157, 209, 188, 333
-0.992561, 237, 249, 268, 280
-0.992569, 49, 105, 176, 168
-0.992574, 329, 181, 392, 212
-0.992578, 1, 269, 64, 300
-0.992584, 121, 301, 184, 332
-0.992614, 341, 193, 372, 256
-0.992616, 289, 137, 352, 168
-0.99262, 217, 157, 280, 188
-0.992638, 257, 133, 320, 164
-0.992647, 329, 149, 392, 180
-0.99265, 249, 241, 280, 272
-0.992652, 25, 149, 88, 180
-0.992654, 97, 85, 160, 116
-0.992655, 129, 97, 160, 224
-0.992665, 249, 253, 280, 284
-0.992669, 349, 241, 380, 304
-0.992674, 425, 197, 488, 228
-0.992674, 281, 153, 312, 216
-0.992678, 385, 185, 448, 216
-0.992685, 49, 77, 112, 108
-0.99271, 401, 1, 464, 333
-0.992727, 73, 261, 136, 292
-0.992736, 81, 213, 144, 244
-0.992737, 201, 169, 232, 232
-0.992742, 1, 153, 64, 184
-0.992754, 345, 293, 408, 324
-0.992755, 17, 145, 48, 208
-0.992758, 461, 193, 492, 320
-0.992763, 213, 265, 244, 296
-0.992776, 197, 265, 228, 296
-0.992784, 97, 293, 160, 324
-0.992788, 1, 237, 64, 268
-0.992791, 433, 177, 496, 240
-0.992795, 297, 125, 360, 156
-0.992797, 1, 225, 32, 256
-0.992799, 337, 273, 400, 304
-0.992801, 41, 273, 72, 304
-0.992802, 1, 33, 256, 160
-0.992818, 321, 249, 352, 312
-0.992822, 361, 169, 424, 200
-0.992828, 69, 269, 100, 300
-0.992831, 409, 221, 472, 252
-0.992834, 1, 193, 64, 256
-0.992834, 245, 153, 276, 216
-0.992844, 113, 153, 176, 184
-0.992845, 273, 257, 304, 288
-0.992852, 81, 121, 144, 184
-0.992853, 273, 1, 336, 333
-0.992853, 265, 157, 328, 188
-0.992856, 89, 249, 152, 312
-0.992865, 1, 165, 64, 196
-0.992872, 153, 277, 184, 308
-0.992875, 233, 237, 264, 268
-0.992877, 53, 161, 84, 288
-0.992885, 105, 213, 168, 244
-0.992888, 293, 253, 324, 284
-0.99289, 201, 125, 264, 156
-0.992895, 213, 241, 244, 272
-0.992899, 41, 225, 72, 256
-0.992909, 25, 105, 88, 136
-0.992935, 201, 233, 232, 264
-0.992939, 29, 209, 60, 333
-0.992949, 77, 77, 108, 108
-0.992962, 321, 241, 384, 272
-0.992964, 137, 281, 168, 312
-0.992978, 353, 249, 480, 312
-0.992983, 161, 257, 416, 320
-0.992987, 337, 125, 400, 156
-0.992988, 81, 273, 112, 304
-0.992989, 297, 265, 360, 296
-0.992994, 21, 221, 52, 252
-0.993001, 325, 113, 356, 240
-0.993005, 289, 157, 352, 188
-0.99301, 113, 117, 176, 148
-0.993015, 41, 285, 72, 316
-0.993018, 281, 209, 344, 240
-0.993023, 297, 229, 360, 260
-0.993029, 305, 301, 368, 332
-0.993032, 245, 109, 276, 140
-0.993038, 69, 229, 100, 260
-0.993038, 73, 69, 136, 100
-0.993042, 233, 261, 264, 292
-0.993073, 181, 265, 212, 296
-0.993074, 65, 281, 96, 312
-0.99308, 241, 161, 304, 192
-0.99308, 273, 121, 304, 152
-0.993087, 261, 173, 292, 204
-0.993088, 217, 273, 280, 304
-0.993089, 169, 293, 200, 324
-0.993091, 145, 245, 208, 276
-0.993094, 457, 129, 488, 160
-0.993095, 201, 169, 232, 200
-0.993096, 201, 297, 264, 328
-0.993099, 153, 289, 184, 320
-0.993099, 417, 233, 480, 264
-0.993102, 57, 209, 120, 240
-0.993106, 281, 181, 344, 212
-0.993108, 289, 113, 352, 144
-0.993111, 185, 213, 248, 244
-0.99312, 29, 269, 60, 300
-0.993125, 261, 113, 292, 144
-0.993139, 377, 169, 408, 232
-0.993141, 325, 193, 356, 224
-0.993146, 117, 277, 148, 308
-0.993147, 165, 281, 196, 312
-0.993148, 305, 253, 336, 284
-0.993149, 101, 81, 132, 112
-0.993158, 117, 161, 148, 192
-0.993164, 1, 213, 32, 244
-0.993164, 49, 33, 112, 160
-0.993167, 133, 269, 164, 300
-0.993175, 53, 225, 84, 256
-0.993179, 97, 165, 128, 196
-0.993183, 189, 229, 220, 260
-0.993185, 93, 273, 124, 304
-0.993188, 165, 225, 196, 256
-0.993191, 261, 237, 292, 268
-0.993196, 185, 169, 216, 200
-0.993199, 177, 277, 208, 308
-0.9932, 29, 281, 60, 312
-0.993205, 189, 249, 220, 280
-0.993205, 245, 265, 276, 296
-0.993212, 329, 249, 360, 280
-0.993215, 165, 269, 196, 300
-0.993217, 345, 161, 376, 224
-0.993236, 397, 277, 428, 308
-0.993242, 105, 277, 136, 308
-0.993248, 41, 261, 72, 292
-0.993251, 61, 241, 92, 272
-0.993253, 425, 133, 456, 164
-0.993256, 165, 181, 196, 212
-0.993263, 261, 261, 292, 292
-0.993265, 293, 241, 324, 272
-0.993265, 317, 253, 348, 284
-0.993268, 73, 169, 104, 200
-0.993269, 221, 229, 252, 260
-0.993274, 309, 193, 340, 224
-0.99328, 221, 173, 252, 204
-0.993283, 85, 173, 116, 204
-0.993286, 181, 289, 212, 320
-0.993288, 445, 233, 476, 264
-0.993294, 141, 293, 172, 324
-0.993298, 81, 285, 112, 316
-0.993299, 129, 177, 160, 208
-0.993304, 281, 233, 312, 264
-0.993308, 17, 285, 48, 316
-0.99331, 153, 181, 184, 212
-0.993311, 241, 169, 272, 200
-0.993314, 141, 181, 172, 212
-0.99332, 117, 89, 148, 120
-0.993328, 305, 241, 336, 272
-0.99333, 349, 121, 380, 184
-0.99333, 81, 169, 112, 232
-0.993344, 433, 209, 464, 240
-0.993363, 125, 229, 156, 260
-0.993363, 33, 213, 64, 244
-0.993364, 65, 81, 96, 112
-0.993367, 245, 229, 276, 260
-0.993368, 57, 169, 88, 200
-0.993373, 65, 157, 96, 188
-0.993377, 469, 133, 500, 164
-0.99338, 113, 177, 144, 208
-0.99338, 233, 109, 264, 140
-0.993384, 345, 233, 408, 296
-0.993385, 173, 213, 204, 244
-0.993386, 397, 189, 428, 220
-0.99339, 41, 165, 72, 196
-0.993393, 185, 181, 216, 212
-0.993394, 41, 93, 72, 124
-0.993396, 141, 161, 172, 192
-0.993398, 53, 209, 84, 240
-0.9934, 69, 161, 100, 224
-0.9934, 385, 201, 416, 232
-0.9934, 285, 125, 316, 156
-0.993405, 305, 113, 336, 240
-0.993407, 89, 81, 120, 112
-0.993407, 193, 277, 224, 308
-0.99341, 97, 229, 128, 260
-0.993412, 17, 149, 48, 180
-0.993413, 93, 289, 124, 320
-0.993416, 237, 181, 268, 212
-0.993417, 69, 217, 100, 248
-0.993419, 281, 97, 344, 160
-0.993421, 113, 229, 144, 260
-0.993423, 445, 129, 476, 160
-0.993427, 377, 285, 408, 316
-0.993429, 197, 181, 228, 212
-0.993429, 361, 1, 424, 333
-0.993429, 1, 237, 32, 268
-0.993434, 85, 161, 116, 192
-0.993435, 413, 201, 444, 232
-0.993436, 393, 289, 424, 320
-0.993446, 53, 89, 84, 120
-0.99345, 385, 189, 416, 220
-0.993451, 413, 129, 444, 160
-0.993452, 329, 153, 360, 184
-0.993458, 345, 253, 376, 284
-0.993462, 349, 197, 380, 228
-0.993463, 221, 117, 252, 148
-0.993465, 157, 301, 188, 332
-0.993469, 257, 189, 288, 220
-0.99347, 153, 265, 184, 296
-0.993512, 165, 225, 196, 288
-0.993514, 41, 89, 72, 152
-0.993521, 469, 49, 500, 176
-0.993531, 157, 113, 188, 240
-0.993566, 189, 129, 220, 256
-0.993581, 97, 153, 352, 216
-0.993592, 121, 1, 184, 333
-0.993593, 221, 113, 252, 176
-0.993595, 25, 249, 88, 312
-0.993607, 389, 177, 420, 240
-0.993624, 361, 169, 392, 232
-0.993641, 297, 1, 360, 333
-0.993678, 65, 201, 192, 264
-0.993698, 193, 245, 320, 276
-0.993713, 17, 113, 48, 240
-0.993717, 225, 89, 352, 152
-0.993745, 153, 129, 216, 192
-0.993757, 65, 57, 192, 120
-0.993775, 449, 121, 480, 184
-0.993775, 49, 201, 80, 264
-0.993777, 365, 249, 396, 312
-0.993782, 113, 177, 144, 240
-0.993807, 441, 193, 472, 320
-0.993897, 245, 177, 276, 240
-0.993909, 129, 273, 160, 333
-0.993922, 217, 1, 280, 333
-0.993991, 145, 193, 176, 320
-0.993995, 53, 169, 84, 232
-0.994, 193, 217, 224, 280
-0.994006, 401, 233, 464, 296
-0.994024, 405, 97, 436, 160
-0.994026, 305, 33, 368, 288
-0.994122, 193, 113, 448, 176
-0.994165, 205, 145, 236, 208
-0.994183, 97, 113, 352, 176
-0.99419, 1, 89, 256, 152
-0.994249, 193, 257, 320, 288
-0.994268, 229, 145, 260, 208
-0.9943, 1, 177, 500, 240
-0.994317, 1, 1, 64, 333
-0.994368, 33, 233, 288, 296
-0.994407, 293, 185, 324, 248
-0.994411, 81, 273, 112, 333
-0.994413, 53, 137, 84, 200
-0.994418, 33, 277, 160, 308
-0.99446, 1, 265, 256, 328
-0.994463, 33, 177, 288, 240
-0.994486, 13, 257, 44, 320
-0.994538, 337, 241, 368, 304
-0.994566, 97, 33, 160, 160
-0.994583, 241, 245, 368, 276
-0.994605, 257, 97, 320, 160
-0.994625, 145, 1, 208, 333
-0.99463, 233, 129, 296, 192
-0.994657, 289, 65, 352, 192
-0.99466, 73, 209, 104, 272
-0.994688, 77, 113, 108, 240
-0.99472, 17, 209, 48, 272
-0.994734, 33, 129, 64, 192
-0.994772, 257, 201, 500, 264
-0.99478, 97, 137, 128, 200
-0.994792, 309, 185, 340, 248
-0.994801, 437, 129, 468, 192
-0.994807, 57, 241, 88, 304
-0.994906, 281, 193, 312, 256
-0.99493, 369, 153, 496, 216
-0.994938, 193, 145, 448, 208
-0.994942, 445, 209, 476, 272
-0.99495, 33, 201, 64, 264
-0.99495, 201, 113, 232, 240
-0.995045, 321, 1, 384, 333
-0.995081, 161, 89, 288, 152
-0.995096, 1, 97, 32, 224
-0.995122, 41, 161, 72, 224
-0.995219, 217, 217, 248, 280
-0.99523, 413, 185, 444, 248
-0.995235, 299, 241, 314, 304
-0.995264, 289, 241, 304, 304
-0.995298, 133, 209, 164, 333
-0.995322, 193, 113, 320, 144
-0.995329, 161, 185, 416, 248
-0.995331, 1, 221, 128, 252
-0.995341, 81, 273, 208, 304
-0.995397, 397, 273, 428, 333
-0.99545, 33, 89, 160, 120
-0.995465, 33, 193, 96, 256
-0.995474, 241, 201, 304, 264
-0.995522, 217, 241, 232, 304
-0.995544, 241, 257, 368, 288
-0.995555, 269, 193, 300, 256
-0.99557, 49, 113, 112, 176
-0.995572, 305, 129, 336, 192
-0.995586, 153, 201, 184, 264
-0.995601, 97, 65, 160, 128
-0.995629, 309, 161, 340, 224
-0.995638, 433, 81, 464, 208
-0.995643, 145, 261, 272, 292
-0.995673, 421, 209, 452, 333
-0.9957, 469, 209, 500, 272
-0.995715, 469, 41, 500, 104
-0.995735, 207, 233, 222, 296
-0.995787, 361, 97, 424, 160
-0.995804, 177, 233, 304, 264
-0.995812, 263, 241, 278, 304
-0.995819, 177, 1, 240, 333
-0.995824, 177, 33, 240, 288
-0.995845, 5, 145, 36, 208
-0.995879, 193, 233, 448, 296
-0.99588, 249, 49, 280, 176
-0.995917, 185, 137, 216, 200
-0.995929, 253, 249, 268, 312
-0.995932, 401, 161, 432, 224
-0.995958, 113, 17, 240, 144
-0.995972, 273, 265, 304, 328
-0.995972, 433, 273, 496, 333
-0.996019, 229, 177, 260, 240
-0.996034, 53, 89, 84, 152
-0.99605, 217, 145, 248, 208
-0.996056, 1, 137, 256, 200
-0.996059, 289, 197, 416, 228
-0.996071, 51, 265, 66, 328
-0.996089, 213, 169, 244, 232
-0.996093, 145, 249, 272, 280
-0.996094, 201, 257, 216, 320
-0.996108, 223, 241, 238, 304
-0.996139, 225, 81, 288, 144
-0.996156, 145, 273, 272, 304
-0.996172, 229, 241, 244, 304
-0.996179, 25, 57, 88, 120
-0.996189, 1, 129, 500, 192
-0.996206, 413, 129, 444, 192
-0.996241, 305, 249, 320, 312
-0.99628, 337, 121, 368, 184
-0.996286, 245, 249, 260, 312
-0.996319, 49, 173, 176, 204
-0.996325, 235, 241, 250, 304
-0.996343, 97, 161, 224, 192
-0.996355, 377, 65, 440, 192
-0.996393, 1, 265, 500, 328
-0.996426, 45, 265, 60, 328
-0.996431, 161, 181, 288, 212
-0.99644, 353, 209, 480, 240
-0.996449, 257, 169, 500, 232
-0.996498, 97, 89, 352, 152
-0.996534, 257, 233, 384, 264
-0.996572, 33, 265, 160, 296
-0.996577, 145, 169, 272, 200
-0.996592, 97, 209, 352, 272
-0.996601, 283, 241, 298, 304
-0.996608, 159, 273, 174, 333
-0.996628, 257, 65, 288, 320
-0.99669, 433, 33, 496, 96
-0.996694, 369, 25, 496, 88
-0.996711, 121, 153, 136, 216
-0.996737, 273, 65, 304, 192
-0.996743, 353, 65, 416, 192
-0.996753, 1, 289, 128, 320
-0.996755, 165, 273, 180, 333
-0.996766, 3, 217, 18, 280
-0.996794, 241, 193, 368, 224
-0.996797, 239, 273, 254, 333
-0.996798, 271, 113, 286, 176
-0.996798, 369, 33, 496, 160
-0.996799, 193, 125, 320, 156
-0.996801, 457, 49, 488, 176
-0.996813, 249, 273, 264, 333
-0.996821, 81, 285, 208, 316
-0.996876, 289, 249, 416, 280
-0.99689, 1, 153, 500, 216
-0.996958, 195, 257, 210, 320
-0.996968, 289, 121, 304, 184
-0.996983, 61, 273, 76, 333
-0.996989, 177, 153, 192, 216
-0.99699, 185, 65, 248, 192
-0.997007, 129, 297, 256, 328
-0.997014, 425, 241, 488, 304
-0.997015, 49, 225, 176, 256
-0.997035, 273, 125, 400, 156
-0.997035, 81, 73, 96, 136
-0.997041, 263, 105, 278, 168
-0.997061, 171, 177, 186, 240
-0.997072, 129, 237, 256, 268
-0.997073, 233, 265, 248, 328
-0.997075, 245, 65, 276, 320
-0.997083, 1, 165, 128, 196
-0.99709, 117, 81, 132, 144
-0.997118, 81, 33, 112, 288
-0.997126, 97, 181, 224, 212
-0.997131, 227, 253, 242, 284
-0.997151, 33, 77, 160, 108
-0.997154, 299, 265, 314, 328
-0.997165, 395, 201, 410, 264
-0.99717, 443, 209, 458, 272
-0.997183, 181, 177, 196, 240
-0.997187, 457, 209, 472, 272
-0.997199, 153, 153, 168, 216
-0.997212, 193, 225, 208, 288
-0.997216, 369, 129, 496, 160
-0.997219, 241, 177, 368, 208
-0.997221, 255, 225, 270, 288
-0.997226, 259, 265, 274, 328
-0.997248, 471, 129, 486, 192
-0.997249, 269, 249, 284, 312
-0.997256, 125, 273, 140, 333
-0.997256, 337, 193, 464, 224
-0.997259, 193, 269, 320, 300
-0.997285, 55, 273, 70, 304
-0.997286, 401, 201, 416, 264
-0.997287, 189, 273, 204, 333
-0.997289, 211, 257, 226, 320
-0.99729, 81, 261, 208, 292
-0.997317, 245, 105, 260, 168
-0.997345, 171, 153, 186, 216
-0.997354, 227, 265, 242, 328
-0.99736, 159, 153, 174, 216
-0.997375, 401, 177, 416, 240
-0.997379, 107, 273, 122, 333
-0.997379, 233, 65, 264, 320
-0.997387, 115, 153, 130, 216
-0.997391, 127, 153, 142, 216
-0.997394, 147, 153, 162, 216
-0.9974, 113, 225, 240, 256
-0.997412, 265, 249, 280, 280
-0.997413, 277, 113, 292, 176
-0.997425, 409, 65, 440, 192
-0.997433, 87, 73, 102, 136
-0.997435, 251, 249, 266, 280
-0.997435, 47, 273, 62, 304
-0.997463, 217, 265, 232, 328
-0.997465, 67, 265, 82, 328
-0.997468, 21, 145, 36, 208
-0.997469, 159, 177, 174, 240
-0.997478, 277, 225, 292, 288
-0.997478, 329, 193, 344, 256
-0.997483, 209, 161, 336, 192
-0.997486, 411, 209, 426, 272
-0.997487, 369, 233, 496, 264
-0.997495, 123, 89, 138, 152
-0.997497, 255, 105, 270, 168
-0.997499, 311, 249, 326, 312
-0.997499, 137, 177, 152, 240
-0.997507, 201, 169, 216, 232
-0.997508, 237, 253, 252, 284
-0.997512, 225, 141, 352, 172
-0.997518, 183, 153, 198, 216
-0.99752, 265, 153, 280, 216
-0.997524, 321, 181, 448, 212
-0.99754, 299, 217, 314, 280
-0.997545, 259, 241, 274, 272
-0.997548, 181, 265, 196, 328
-0.997553, 49, 161, 176, 192
-0.997561, 293, 265, 308, 328
-0.997563, 165, 153, 180, 216
-0.997564, 1, 201, 500, 264
-0.997564, 201, 233, 216, 296
-0.997572, 131, 273, 146, 333
-0.997576, 49, 209, 176, 240
-0.997579, 273, 149, 400, 180
-0.99758, 53, 241, 68, 304
-0.997585, 141, 153, 156, 216
-0.997585, 395, 177, 410, 240
-0.997589, 263, 177, 278, 240
-0.997598, 99, 161, 114, 224
-0.997599, 81, 265, 96, 328
-0.997612, 271, 185, 286, 248
-0.997626, 245, 249, 260, 280
-0.997627, 299, 129, 314, 192
-0.997637, 287, 217, 302, 280
-0.997637, 439, 129, 454, 192
-0.997639, 115, 273, 130, 333
-0.997642, 305, 273, 432, 304
-0.997651, 223, 217, 238, 280
-0.997651, 239, 105, 254, 168
-0.997654, 465, 121, 480, 184
-0.997661, 95, 273, 110, 333
-0.997664, 217, 253, 232, 284
-0.997669, 1, 233, 128, 264
-0.997669, 37, 217, 52, 280
-0.997675, 273, 161, 288, 224
-0.997682, 253, 153, 268, 216
-0.997688, 203, 253, 218, 284
-0.997691, 111, 81, 126, 144
-0.997697, 465, 201, 480, 264
-0.997703, 147, 177, 162, 240
-0.997706, 365, 201, 380, 264
-0.997706, 171, 273, 186, 333
-0.997707, 217, 265, 232, 296
-0.997714, 165, 177, 180, 240
-0.997718, 107, 169, 122, 232
-0.997721, 359, 241, 374, 304
-0.997738, 1, 113, 256, 176
-0.997741, 257, 177, 272, 240
-0.997747, 449, 209, 464, 272
-0.997751, 1, 57, 128, 120
-0.997752, 91, 169, 106, 232
-0.997752, 283, 121, 298, 184
-0.997755, 257, 17, 500, 144
-0.997755, 389, 201, 404, 264
-0.99776, 417, 193, 432, 256
-0.997761, 237, 49, 268, 176
-0.997764, 39, 273, 54, 333
-0.997766, 151, 273, 166, 333
-0.997768, 231, 241, 246, 272
-0.997773, 209, 177, 224, 240
-0.997779, 299, 245, 314, 276
-0.997792, 389, 177, 404, 240
-0.997793, 343, 153, 358, 216
-0.997794, 135, 153, 150, 216
-0.997796, 283, 153, 298, 216
-0.997798, 1, 153, 128, 184
-0.997798, 259, 253, 274, 284
-0.997798, 433, 129, 448, 192
-0.9978, 1, 241, 16, 304
-0.9978, 43, 241, 58, 304
-0.997801, 209, 209, 224, 272
-0.997803, 73, 241, 88, 304
-0.997807, 321, 193, 336, 256
-0.997811, 257, 89, 500, 152
-0.997811, 177, 145, 304, 176
-0.997819, 177, 301, 304, 332
-0.99782, 357, 185, 372, 248
-0.99783, 153, 177, 168, 240
-0.997837, 337, 193, 352, 256
-0.997837, 287, 265, 302, 328
-0.997847, 145, 121, 272, 152
-0.997851, 175, 225, 190, 288
-0.997854, 263, 217, 278, 280
-0.997863, 83, 269, 98, 300
-0.997873, 205, 237, 220, 268
-0.997878, 1, 209, 256, 272
-0.997892, 309, 273, 324, 333
-0.997894, 337, 221, 464, 252
-0.997899, 145, 285, 272, 316
-0.9979, 189, 177, 204, 240
-0.997903, 275, 249, 290, 280
-0.99792, 289, 245, 304, 276
-0.997921, 217, 241, 232, 272
-0.997926, 129, 101, 256, 132
-0.997927, 257, 257, 500, 320
-0.99794, 211, 265, 226, 296
-0.997955, 321, 125, 448, 156
-0.997961, 17, 105, 144, 136
-0.997971, 269, 65, 300, 320
-0.997975, 203, 265, 218, 296
-0.997975, 69, 269, 84, 300
-0.997976, 305, 261, 432, 292
-0.997982, 169, 97, 232, 160
-0.997984, 211, 237, 226, 268
-0.998031, 49, 285, 64, 316
-0.998032, 11, 221, 26, 252
-0.998032, 69, 33, 100, 288
-0.998041, 53, 261, 68, 292
-0.998041, 41, 277, 56, 308
-0.998058, 209, 221, 336, 252
-0.99806, 369, 277, 496, 308
-0.998066, 273, 137, 400, 168
-0.998074, 5, 229, 20, 260
-0.998077, 75, 273, 90, 304
-0.998087, 211, 253, 226, 284
-0.998112, 253, 237, 268, 268
-0.998131, 239, 237, 254, 268
-0.998141, 225, 241, 240, 272
-0.998143, 113, 201, 176, 264
-0.998145, 61, 273, 76, 304
-0.998159, 253, 261, 268, 292
-0.998165, 81, 297, 208, 328
-0.998168, 181, 293, 196, 324
-0.998169, 157, 277, 172, 308
-0.998171, 65, 225, 80, 256
-0.99818, 283, 257, 298, 288
-0.998185, 321, 297, 448, 328
-0.998187, 321, 285, 448, 316
-0.998208, 455, 229, 470, 260
-0.998209, 273, 209, 400, 240
-0.998212, 61, 261, 76, 292
-0.998224, 291, 257, 306, 288
-0.99825, 19, 225, 34, 256
-0.998255, 1, 209, 128, 240
-0.998258, 145, 157, 272, 188
-0.998262, 97, 65, 352, 128
-0.998273, 283, 241, 298, 272
-0.998276, 267, 261, 282, 292
-0.998279, 401, 65, 432, 320
-0.998283, 197, 265, 212, 296
-0.998285, 177, 269, 192, 300
-0.998286, 93, 17, 124, 144
-0.998292, 93, 273, 108, 304
-0.998294, 227, 265, 242, 296
-0.998297, 187, 289, 202, 320
-0.998298, 245, 237, 260, 268
-0.998314, 175, 281, 190, 312
-0.998314, 61, 33, 92, 160
-0.998323, 305, 253, 320, 284
-0.998325, 401, 281, 432, 296
-0.998326, 1, 241, 32, 256
-0.998327, 165, 293, 180, 324
-0.998327, 437, 209, 468, 224
-0.998327, 1, 219, 32, 234
-0.998328, 13, 215, 44, 230
-0.998328, 233, 305, 264, 320
-0.998331, 201, 225, 216, 256
-0.998331, 69, 165, 100, 180
-0.998332, 149, 289, 180, 304
-0.998332, 133, 291, 164, 306
-0.998332, 257, 309, 288, 324
-0.998333, 81, 279, 112, 294
-0.998335, 61, 171, 92, 186
-0.998335, 157, 183, 188, 198
-0.998335, 173, 299, 204, 314
-0.998335, 49, 243, 80, 258
-0.998336, 317, 195, 348, 210
-0.998337, 257, 297, 384, 328
-0.998339, 141, 183, 172, 198
-0.99834, 233, 113, 264, 128
-0.998341, 197, 233, 228, 248
-0.998341, 413, 211, 444, 226
-0.998341, 97, 169, 128, 184
-0.998341, 329, 253, 360, 268
-0.998341, 125, 179, 156, 194
-0.998342, 97, 285, 128, 300
-0.998343, 141, 279, 172, 294
-0.998344, 453, 231, 484, 246
-0.998344, 81, 241, 112, 256
-0.998345, 49, 221, 64, 252
-0.998346, 277, 123, 308, 138
-0.998347, 237, 227, 268, 242
-0.998347, 173, 225, 188, 256
-0.998347, 57, 291, 88, 306
-0.998347, 297, 251, 328, 266
-0.998348, 317, 255, 348, 270
-0.998348, 25, 295, 56, 310
-0.998349, 137, 297, 168, 312
-0.998349, 37, 295, 68, 310
-0.998351, 5, 213, 20, 244
-0.998351, 89, 273, 120, 288
-0.998352, 197, 263, 228, 278
-0.998352, 333, 311, 364, 326
-0.998354, 163, 277, 178, 308
-0.998356, 47, 261, 62, 292
-0.998356, 241, 233, 272, 248
-0.998359, 245, 271, 276, 286
-0.998359, 11, 233, 26, 264
-0.99836, 289, 121, 304, 152
-0.998362, 29, 243, 60, 258
-0.998364, 235, 265, 250, 296
-0.998364, 149, 281, 164, 312
-0.998366, 269, 309, 300, 324
-0.998367, 213, 255, 244, 270
-0.998367, 393, 289, 424, 304
-0.998369, 265, 239, 296, 254
-0.998369, 45, 223, 76, 238
-0.99837, 329, 195, 360, 210
-0.998371, 177, 293, 208, 308
-0.998372, 169, 183, 200, 198
-0.998372, 125, 275, 156, 290
-0.998372, 105, 177, 136, 192
-0.998372, 113, 77, 240, 108
-0.998372, 129, 283, 160, 298
-0.998374, 69, 235, 100, 250
-0.998375, 245, 305, 276, 320
-0.998375, 85, 175, 116, 190
-0.998375, 185, 287, 216, 302
-0.998376, 229, 255, 260, 270
-0.998376, 49, 149, 176, 180
-0.998377, 153, 281, 184, 296
-0.998378, 1, 235, 32, 250
-0.99838, 21, 233, 52, 248
-0.99838, 41, 237, 72, 252
-0.99838, 169, 275, 200, 290
-0.998381, 175, 297, 190, 328
-0.998382, 101, 83, 132, 98
-0.998382, 229, 237, 260, 252
-0.998383, 425, 135, 456, 150
-0.998383, 109, 285, 140, 300
-0.998387, 57, 285, 72, 316
-0.998387, 241, 185, 272, 200
-0.998387, 285, 263, 316, 278
-0.998388, 93, 33, 124, 288
-0.998389, 257, 113, 288, 128
-0.998389, 189, 275, 220, 290
-0.998389, 153, 297, 184, 312
-0.998393, 237, 249, 268, 264
-0.998393, 225, 271, 256, 286
-0.998394, 247, 261, 262, 292
-0.998396, 157, 225, 188, 240
-0.998397, 217, 229, 248, 244
-0.9984, 99, 229, 114, 260
-0.998404, 69, 285, 100, 300
-0.998404, 185, 263, 216, 278
-0.998405, 183, 269, 198, 300
-0.99841, 33, 287, 64, 302
-0.99841, 213, 271, 244, 286
-0.99841, 13, 291, 44, 306
-0.99841, 249, 249, 312, 264
-0.998414, 189, 247, 220, 262
-0.998415, 173, 281, 204, 296
-0.998417, 241, 241, 272, 256
-0.998418, 81, 287, 112, 302
-0.998419, 209, 263, 240, 278
-0.998422, 195, 249, 210, 280
-0.998424, 285, 245, 316, 260
-0.998426, 21, 227, 52, 242
-0.998427, 181, 281, 196, 312
-0.998428, 189, 227, 220, 242
-0.998428, 69, 241, 100, 256
-0.998429, 245, 109, 276, 124
-0.998429, 199, 169, 214, 200
-0.998429, 153, 275, 184, 290
-0.998431, 69, 281, 84, 312
-0.998433, 85, 281, 100, 312
-0.998434, 271, 113, 286, 144
-0.998434, 453, 131, 484, 146
-0.998435, 265, 237, 280, 268
-0.998435, 321, 145, 448, 176
-0.998437, 241, 255, 272, 270
-0.998437, 1, 225, 32, 240
-0.998437, 169, 225, 200, 240
-0.998438, 273, 109, 400, 140
-0.998439, 37, 277, 68, 292
-0.998439, 21, 221, 52, 236
-0.99844, 225, 249, 256, 264
-0.998441, 305, 257, 336, 272
-0.998442, 77, 273, 108, 288
-0.998443, 231, 229, 246, 260
-0.998445, 161, 181, 176, 212
-0.998446, 273, 247, 304, 262
-0.998448, 281, 255, 344, 270
-0.998448, 173, 287, 204, 302
-0.998449, 209, 265, 272, 280
-0.998449, 189, 269, 220, 284
-0.99845, 289, 221, 416, 252
-0.998451, 241, 269, 368, 300
-0.998452, 99, 173, 114, 204
-0.998452, 253, 265, 284, 280
-0.998453, 113, 277, 144, 292
-0.998454, 161, 291, 192, 306
-0.998458, 65, 267, 96, 282
-0.998459, 191, 273, 206, 304
-0.99846, 87, 77, 102, 108
-0.998463, 49, 283, 80, 298
-0.998464, 253, 105, 268, 136
-0.998466, 249, 255, 312, 270
-0.998467, 41, 271, 72, 286
-0.998469, 249, 261, 312, 276
-0.99847, 93, 279, 124, 294
-0.998472, 261, 247, 292, 262
-0.998474, 201, 249, 232, 264
-0.998475, 77, 81, 108, 96
-0.998477, 229, 243, 260, 258
-0.998479, 33, 223, 64, 238
-0.99848, 273, 263, 304, 278
-0.998481, 201, 243, 264, 258
-0.998481, 225, 245, 288, 260
-0.998483, 473, 133, 488, 164
-0.998484, 111, 165, 126, 196
-0.998484, 1, 141, 128, 172
-0.998486, 465, 129, 480, 160
-0.998489, 139, 281, 154, 312
-0.998492, 57, 275, 120, 290
-0.998497, 285, 257, 316, 272
-0.998499, 133, 277, 148, 308
-0.998503, 225, 113, 288, 128
-0.998504, 249, 247, 280, 262
-0.998505, 233, 267, 296, 282
-0.998507, 257, 161, 384, 192
-0.998509, 65, 275, 96, 290
-0.998515, 145, 213, 272, 244
-0.998517, 209, 243, 240, 258
-0.998518, 41, 269, 104, 284
-0.998518, 201, 257, 232, 272
-0.998523, 193, 257, 256, 272
-0.998524, 213, 249, 244, 264
-0.998524, 85, 225, 100, 256
-0.998526, 185, 269, 248, 284
-0.998529, 49, 277, 80, 292
-0.998529, 265, 173, 280, 204
-0.998531, 193, 249, 256, 264
-0.998531, 33, 285, 96, 300
-0.998532, 157, 293, 172, 324
-0.998537, 225, 255, 288, 270
-0.998537, 241, 265, 272, 280
-0.998541, 273, 253, 304, 268
-0.998541, 169, 273, 184, 304
-0.998542, 299, 133, 314, 164
-0.998549, 205, 169, 220, 200
-0.99855, 73, 81, 136, 96
-0.998551, 333, 193, 348, 224
-0.998552, 201, 269, 232, 284
-0.998552, 107, 277, 122, 308
-0.998555, 53, 269, 84, 284
-0.998555, 113, 33, 144, 160
-0.998558, 81, 17, 112, 144
-0.998558, 79, 169, 94, 200
-0.998559, 55, 221, 70, 252
-0.99856, 129, 283, 192, 298
-0.998562, 81, 77, 96, 108
-0.998563, 21, 145, 36, 176
-0.998565, 73, 283, 136, 298
-0.998567, 153, 275, 216, 290
-0.998567, 5, 65, 36, 320
-0.998568, 211, 225, 226, 256
-0.998568, 153, 293, 216, 308
-0.998569, 369, 49, 496, 112
-0.99857, 217, 229, 232, 260
-0.99857, 219, 169, 234, 200
-0.998571, 75, 261, 90, 292
-0.998572, 261, 109, 276, 140
-0.998573, 273, 249, 336, 264
-0.998573, 89, 277, 152, 292
-0.998574, 181, 181, 196, 212
-0.998574, 261, 257, 292, 272
-0.998575, 221, 65, 252, 320
-0.998584, 153, 227, 216, 242
-0.998585, 9, 289, 72, 304
-0.998585, 243, 109, 258, 140
-0.99859, 345, 65, 376, 320
-0.998591, 129, 277, 192, 292
-0.998592, 129, 223, 192, 238
-0.998592, 425, 133, 488, 148
-0.998594, 105, 283, 168, 298
-0.998594, 221, 265, 252, 280
-0.998597, 33, 225, 48, 256
-0.998597, 105, 229, 168, 244
-0.998597, 201, 237, 264, 252
-0.998597, 33, 279, 96, 294
-0.998598, 57, 33, 88, 288
-0.998599, 89, 177, 152, 192
-0.9986, 169, 247, 232, 262
-0.998601, 319, 193, 334, 224
-0.998601, 391, 285, 406, 316
-0.998602, 117, 161, 132, 192
-0.998602, 149, 269, 164, 300
-0.998602, 209, 273, 272, 288
-0.998603, 185, 263, 248, 278
-0.998603, 129, 299, 192, 314
-0.998604, 1, 243, 64, 258
-0.998605, 193, 229, 208, 260
-0.998605, 305, 253, 368, 268
-0.998606, 49, 171, 112, 186
-0.998608, 273, 173, 288, 204
-0.998609, 49, 225, 112, 240
-0.998613, 65, 289, 128, 304
-0.998616, 259, 229, 274, 260
-0.998616, 273, 261, 336, 276
-0.998618, 249, 243, 312, 258
-0.998618, 177, 275, 240, 290
-0.998619, 225, 229, 288, 244
-0.998619, 273, 261, 288, 292
-0.99862, 161, 269, 224, 284
-0.99862, 1, 227, 64, 242
-0.99862, 225, 229, 240, 260
-0.99862, 7, 277, 22, 308
-0.99862, 225, 239, 288, 254
-0.998625, 337, 249, 352, 280
-0.998625, 137, 183, 200, 198
-0.998626, 105, 165, 120, 196
-0.998627, 135, 177, 150, 208
-0.99863, 297, 195, 360, 210
-0.99863, 209, 185, 272, 200
-0.998631, 57, 241, 120, 256
-0.998632, 397, 277, 412, 308
-0.998632, 167, 181, 182, 212
-0.998632, 161, 287, 224, 302
-0.998633, 201, 227, 264, 242
-0.998633, 155, 181, 170, 212
-0.998634, 429, 129, 444, 160
-0.998636, 129, 291, 192, 306
-0.998637, 285, 251, 316, 266
-0.998638, 123, 225, 138, 256
-0.998638, 41, 291, 104, 306
-0.998638, 105, 271, 168, 286
-0.998639, 233, 311, 296, 326
-0.998639, 281, 65, 312, 320
-0.998639, 265, 267, 328, 282
-0.99864, 73, 87, 136, 102
-0.998642, 17, 295, 80, 310
-0.998642, 97, 113, 224, 144
-0.998644, 213, 169, 228, 200
-0.998644, 113, 179, 176, 194
-0.998644, 29, 33, 60, 288
-0.998646, 161, 263, 224, 278
-0.998646, 105, 65, 136, 320
-0.998648, 337, 245, 464, 276
-0.998649, 117, 229, 132, 260
-0.998649, 455, 213, 470, 244
-0.998651, 249, 125, 312, 140
-0.998651, 25, 167, 88, 182
-0.998654, 377, 209, 440, 224
-0.998655, 97, 249, 224, 280
-0.998656, 25, 241, 88, 256
-0.998657, 241, 177, 304, 192
-0.998657, 393, 283, 456, 298
-0.998657, 73, 225, 88, 256
-0.998658, 321, 259, 384, 274
-0.998658, 153, 307, 216, 322
-0.998658, 123, 157, 138, 188
-0.998659, 17, 269, 80, 284
-0.99866, 1, 221, 64, 236
-0.99866, 33, 235, 96, 250
-0.998661, 153, 281, 216, 296
-0.998661, 225, 305, 288, 320
-0.998661, 401, 135, 464, 150
-0.998661, 9, 279, 72, 294
-0.998662, 297, 245, 360, 260
-0.998663, 9, 215, 72, 230
-0.998666, 321, 197, 384, 212
-0.998667, 73, 269, 136, 284
-0.998667, 257, 311, 320, 326
-0.998668, 369, 287, 432, 302
-0.998668, 73, 233, 136, 248
-0.998669, 89, 289, 152, 304
-0.99867, 393, 203, 456, 218
-0.99867, 33, 93, 96, 108
-0.998671, 193, 81, 256, 144
-0.998671, 137, 175, 200, 190
-0.998672, 89, 223, 152, 238
-0.998672, 161, 239, 224, 254
-0.998673, 129, 269, 192, 284
-0.998673, 257, 237, 320, 252
-0.998675, 25, 225, 88, 240
-0.998677, 57, 161, 120, 176
-0.998679, 329, 253, 392, 268
-0.998679, 233, 119, 296, 134
-0.998679, 169, 257, 232, 272
-0.99868, 297, 263, 360, 278
-0.998683, 129, 229, 192, 244
-0.998684, 273, 195, 336, 210
-0.998686, 89, 167, 152, 182
-0.998686, 177, 227, 240, 242
-0.998688, 49, 81, 112, 96
-0.998688, 49, 219, 112, 234
-0.998689, 161, 183, 224, 198
-0.998689, 105, 297, 168, 312
-0.998691, 161, 221, 224, 236
-0.998691, 177, 233, 240, 248
-0.998691, 369, 201, 432, 216
-0.998692, 177, 175, 240, 190
-0.998693, 185, 221, 248, 236
-0.998694, 177, 293, 240, 308
-0.998696, 281, 311, 344, 326
-0.998696, 201, 177, 264, 192
-0.998697, 409, 209, 472, 224
-0.998699, 137, 159, 200, 174
-0.998701, 1, 161, 64, 176
-0.998702, 185, 283, 248, 298
-0.998702, 129, 307, 192, 322
-0.998702, 345, 199, 408, 214
-0.998703, 413, 65, 444, 320
-0.998704, 409, 231, 472, 246
-0.998704, 345, 193, 408, 208
-0.998705, 249, 193, 312, 208
-0.998705, 401, 313, 464, 328
-0.998706, 233, 187, 296, 202
-0.998706, 289, 129, 352, 144
-0.998708, 89, 93, 152, 108
-0.99871, 321, 203, 384, 218
-0.998718, 49, 241, 176, 272
-0.998743, 465, 1, 496, 256
-0.998765, 445, 65, 476, 192
-0.998769, 17, 129, 144, 160
-0.998785, 129, 133, 256, 164
-0.998802, 369, 65, 400, 320
-0.998803, 209, 209, 336, 240
-0.998804, 369, 181, 496, 212
-0.99881, 305, 169, 432, 200
-0.998827, 1, 241, 500, 304
-0.998874, 353, 165, 480, 196
-0.998881, 45, 33, 76, 288
-0.998888, 81, 125, 208, 156
-0.9989, 369, 293, 496, 324
-0.998904, 389, 65, 420, 320
-0.998924, 81, 65, 208, 96
-0.998942, 445, 65, 476, 320
-0.998943, 425, 153, 488, 216
-0.998952, 369, 117, 496, 148
-0.998966, 129, 65, 160, 320
-0.998976, 1, 117, 128, 148
-0.998977, 113, 49, 240, 112
-0.999007, 271, 97, 286, 224
-0.999011, 251, 209, 266, 333
-0.99902, 145, 33, 176, 288
-0.999049, 129, 145, 256, 176
-0.999059, 1, 245, 128, 276
-0.999084, 425, 1, 456, 256
-0.999092, 257, 177, 272, 304
-0.999096, 17, 65, 48, 320
-0.999102, 245, 177, 260, 304
-0.999113, 97, 209, 224, 240
-0.999113, 257, 285, 384, 316
-0.99912, 265, 97, 280, 224
-0.99912, 33, 301, 160, 332
-0.999124, 341, 193, 356, 320
-0.999125, 225, 101, 352, 132
-0.999126, 193, 193, 208, 320
-0.999136, 165, 65, 196, 320
-0.99915, 305, 233, 432, 264
-0.999156, 239, 177, 254, 304
-0.999159, 205, 177, 220, 304
-0.99917, 251, 97, 266, 224
-0.999179, 289, 113, 304, 240
-0.99918, 117, 65, 148, 320
-0.99919, 193, 193, 320, 224
-0.99919, 263, 177, 278, 304
-0.999191, 245, 97, 260, 224
-0.999196, 259, 97, 274, 224
-0.999208, 205, 65, 236, 320
-0.999216, 113, 161, 128, 288
-0.999218, 163, 177, 178, 304
-0.999218, 357, 65, 388, 320
-0.999221, 277, 113, 292, 240
-0.999234, 233, 177, 248, 304
-0.999242, 185, 65, 216, 320
-0.999246, 209, 289, 336, 320
-0.999248, 333, 177, 348, 304
-0.999252, 81, 89, 208, 120
-0.999255, 237, 97, 252, 224
-0.999267, 199, 177, 214, 304
-0.999268, 95, 209, 110, 333
-0.999269, 49, 189, 176, 220
-0.999272, 283, 113, 298, 240
-0.999274, 113, 65, 128, 192
-0.999277, 119, 81, 134, 208
-0.999281, 349, 193, 364, 320
-0.999282, 121, 161, 136, 288
-0.999293, 295, 113, 310, 240
-0.999297, 23, 161, 38, 288
-0.999299, 431, 113, 446, 240
-0.999324, 213, 177, 228, 304
-0.99933, 103, 209, 118, 333
-0.999331, 175, 177, 190, 304
-0.999335, 277, 177, 292, 304
-0.999336, 13, 161, 28, 288
-0.999337, 87, 209, 102, 333
-0.999338, 103, 161, 118, 288
-0.999338, 223, 177, 238, 304
-0.999341, 251, 145, 266, 272
-0.999342, 465, 113, 480, 240
-0.999345, 69, 209, 84, 333
-0.999347, 181, 177, 196, 304
-0.99935, 287, 177, 302, 304
-0.999351, 7, 161, 22, 288
-0.999356, 187, 161, 202, 288
-0.99936, 369, 265, 496, 296
-0.99937, 121, 209, 136, 333
-0.999371, 437, 129, 452, 256
-0.999372, 15, 209, 30, 333
-0.999373, 107, 65, 122, 192
-0.999383, 87, 65, 102, 192
-0.999386, 361, 113, 376, 240
-0.999388, 43, 81, 58, 208
-0.999388, 405, 193, 420, 320
-0.99939, 321, 65, 448, 192
-0.99939, 137, 161, 152, 288
-0.999394, 169, 177, 184, 304
-0.999395, 151, 145, 166, 272
-0.999398, 1, 193, 128, 224
-0.999399, 269, 177, 284, 304
-0.999399, 325, 177, 340, 304
-0.9994, 355, 193, 370, 320
-0.999403, 143, 145, 158, 272
-0.999404, 63, 209, 78, 333
-0.999405, 355, 113, 370, 240
-0.999409, 63, 81, 78, 208
-0.999412, 303, 177, 318, 304
-0.999413, 3, 209, 18, 333
-0.999415, 81, 137, 208, 168
-0.999416, 55, 81, 70, 208
-0.999418, 79, 65, 94, 192
-0.999419, 319, 177, 334, 304
-0.999421, 333, 65, 364, 320
-0.999421, 261, 49, 292, 176
-0.999421, 457, 113, 472, 240
-0.999422, 113, 113, 128, 240
-0.999423, 41, 161, 56, 288
-0.999425, 361, 193, 376, 320
-0.999427, 69, 81, 84, 208
-0.99943, 127, 161, 142, 288
-0.999433, 1, 161, 16, 288
-0.999434, 293, 177, 308, 304
-0.999434, 145, 201, 272, 232
-0.999435, 101, 65, 116, 192
-0.999439, 393, 193, 408, 320
-0.99944, 349, 113, 364, 240
-0.99944, 79, 209, 94, 333
-0.99944, 371, 193, 386, 320
-0.999443, 41, 209, 56, 333
-0.999445, 125, 81, 140, 208
-0.999445, 447, 129, 462, 256
-0.999448, 369, 129, 384, 256
-0.999454, 59, 161, 74, 288
-0.999459, 31, 161, 46, 288
-0.999465, 95, 161, 110, 288
-0.999466, 231, 97, 246, 224
-0.999466, 163, 129, 178, 256
-0.99947, 405, 129, 420, 256
-0.999472, 69, 161, 84, 288
-0.999472, 33, 209, 48, 333
-0.999474, 49, 81, 64, 208
-0.999474, 173, 113, 188, 240
-0.999476, 313, 177, 328, 304
-0.999477, 93, 81, 108, 208
-0.99948, 139, 97, 154, 224
-0.999484, 55, 209, 70, 333
-0.999485, 415, 193, 430, 320
-0.999486, 369, 41, 496, 72
-0.999488, 343, 113, 358, 240
-0.999488, 157, 177, 172, 304
-0.999494, 37, 81, 52, 208
-0.999495, 65, 101, 192, 132
-0.999502, 131, 81, 146, 208
-0.999503, 471, 113, 486, 240
-0.999504, 127, 209, 142, 333
-0.999505, 105, 113, 120, 240
-0.999514, 51, 161, 66, 288
-0.999515, 293, 65, 324, 320
-0.999516, 425, 113, 440, 240
-0.999516, 381, 193, 396, 320
-0.999516, 375, 113, 390, 240
-0.999522, 399, 193, 414, 320
-0.999524, 23, 97, 38, 224
-0.999533, 411, 145, 426, 272
-0.999537, 399, 129, 414, 256
-0.999537, 445, 193, 460, 320
-0.999537, 421, 193, 436, 320
-0.999544, 187, 209, 202, 333
-0.999548, 301, 129, 316, 256
-0.999551, 339, 251, 354, 266
-0.999552, 115, 279, 130, 294
-0.999552, 265, 113, 280, 128
-0.999552, 115, 285, 130, 300
-0.999553, 15, 219, 30, 234
-0.999553, 181, 113, 196, 240
-0.999553, 45, 295, 60, 310
-0.999554, 251, 233, 266, 248
-0.999555, 19, 231, 34, 246
-0.999555, 7, 215, 22, 230
-0.999556, 465, 193, 480, 320
-0.999556, 209, 233, 224, 248
-0.999556, 169, 281, 184, 296
-0.999556, 49, 223, 64, 238
-0.999557, 277, 267, 292, 282
-0.999558, 93, 175, 108, 190
-0.999558, 165, 289, 180, 304
-0.999558, 249, 305, 264, 320
-0.999559, 77, 289, 92, 304
-0.999559, 387, 193, 402, 320
-0.99956, 169, 275, 184, 290
-0.99956, 201, 225, 216, 240
-0.99956, 157, 129, 172, 256
-0.999561, 237, 237, 252, 252
-0.999561, 253, 185, 268, 200
-0.999562, 269, 247, 284, 262
-0.999562, 145, 295, 160, 310
-0.999563, 173, 225, 188, 240
-0.999563, 105, 277, 120, 292
-0.999563, 227, 257, 242, 272
-0.999564, 193, 145, 208, 272
-0.999564, 289, 125, 304, 140
-0.999564, 193, 275, 208, 290
-0.999564, 285, 265, 300, 280
-0.999564, 183, 275, 198, 290
-0.999565, 65, 265, 80, 280
-0.999565, 7, 221, 22, 236
-0.999566, 267, 307, 282, 322
-0.999566, 235, 261, 250, 276
-0.999566, 27, 209, 42, 333
-0.999567, 191, 227, 206, 242
-0.999568, 77, 239, 92, 254
-0.999568, 251, 255, 266, 270
-0.99957, 231, 229, 246, 244
-0.999571, 219, 255, 234, 270
-0.999572, 39, 279, 54, 294
-0.999572, 253, 109, 268, 124
-0.999573, 85, 283, 100, 298
-0.999574, 87, 79, 102, 94
-0.999574, 393, 113, 408, 240
-0.999574, 31, 223, 46, 238
-0.999575, 157, 297, 172, 312
-0.999576, 393, 289, 408, 304
-0.999576, 55, 265, 70, 280
-0.999576, 245, 237, 260, 252
-0.999576, 17, 113, 32, 240
-0.999576, 65, 241, 80, 256
-0.999576, 347, 311, 362, 326
-0.999577, 281, 247, 296, 262
-0.999578, 271, 115, 286, 130
-0.999579, 185, 287, 200, 302
-0.99958, 431, 161, 446, 288
-0.999581, 51, 283, 66, 298
-0.999581, 35, 233, 50, 248
-0.999581, 465, 129, 480, 144
-0.999582, 171, 289, 186, 304
-0.999582, 29, 291, 44, 306
-0.999584, 137, 209, 152, 333
-0.999585, 33, 241, 48, 256
-0.999585, 199, 245, 214, 260
-0.999586, 5, 227, 20, 242
-0.999588, 387, 113, 402, 240
-0.999589, 79, 275, 94, 290
-0.99959, 131, 281, 146, 296
-0.999593, 71, 287, 86, 302
-0.999594, 125, 279, 140, 294
-0.999594, 245, 249, 260, 264
-0.999595, 71, 269, 86, 284
-0.999595, 229, 249, 244, 264
-0.999599, 269, 261, 284, 276
-0.999599, 321, 113, 448, 144
-0.9996, 95, 279, 110, 294
-0.9996, 179, 299, 194, 314
-0.9996, 159, 277, 174, 292
-0.999601, 199, 267, 214, 282
-0.999602, 85, 241, 100, 256
-0.999605, 237, 249, 252, 264
-0.999607, 191, 289, 206, 304
-0.999607, 455, 229, 470, 244
-0.999608, 77, 269, 92, 284
-0.999609, 65, 271, 80, 286
-0.999609, 177, 291, 192, 306
-0.99961, 291, 261, 306, 276
-0.999617, 255, 249, 270, 264
-0.999617, 293, 81, 324, 208
-0.999618, 71, 275, 86, 290
-0.999619, 307, 255, 322, 270
-0.999619, 281, 253, 296, 268
-0.999624, 15, 225, 30, 240
-0.999625, 167, 295, 182, 310
-0.999626, 59, 283, 74, 298
-0.999626, 37, 221, 52, 236
-0.999628, 239, 243, 254, 258
-0.999632, 87, 273, 102, 288
-0.999633, 203, 255, 218, 270
-0.999635, 45, 277, 60, 292
-0.999637, 299, 259, 314, 274
-0.999638, 223, 243, 238, 258
-0.999639, 259, 255, 274, 270
-0.999641, 275, 251, 290, 266
-0.999646, 223, 249, 238, 264
-0.999646, 245, 243, 260, 258
-0.999647, 231, 243, 246, 258
-0.999648, 277, 261, 292, 276
-0.999648, 301, 253, 316, 268
-0.999648, 257, 263, 272, 278
-0.999649, 57, 271, 72, 286
-0.999653, 217, 245, 232, 260
-0.999654, 105, 41, 168, 104
-0.999654, 209, 243, 224, 258
-0.999655, 285, 259, 300, 274
-0.999655, 293, 255, 308, 270
-0.999656, 41, 33, 72, 160
-0.999657, 287, 247, 302, 262
-0.999663, 263, 261, 278, 276
-0.999663, 97, 193, 224, 224
-0.999666, 65, 277, 80, 292
-0.999667, 241, 265, 256, 280
-0.999667, 369, 141, 496, 172
-0.999672, 217, 267, 232, 282
-0.999679, 263, 247, 278, 262
-0.999682, 251, 265, 266, 280
-0.999683, 251, 243, 266, 258
-0.999687, 211, 269, 226, 284
-0.99969, 211, 249, 226, 264
-0.999693, 59, 277, 74, 292
-0.999693, 235, 267, 250, 282
-0.999695, 295, 249, 310, 264
-0.999695, 45, 271, 60, 286
-0.999697, 205, 269, 220, 284
-0.9997, 205, 249, 220, 264
-0.999709, 227, 263, 242, 278
-0.999712, 1, 181, 128, 212
-0.999713, 257, 243, 272, 258
-0.999717, 317, 65, 348, 320
-0.999735, 265, 255, 280, 270
-0.999739, 51, 271, 66, 286
-0.99974, 369, 153, 496, 184
-0.999758, 287, 253, 302, 268
-0.999786, 51, 277, 66, 292
-0.999826, 305, 65, 336, 320
-0.999874, 177, 101, 304, 132
-0.999916, 1, 73, 500, 136
-0.999935, 369, 61, 496, 92
-0.999997, 1, 65, 128, 96
-1.00003, 1, 65, 256, 128
-1.00009, 129, 89, 256, 120
-1.00015, 369, 105, 496, 136
-1.00028, 97, 1, 352, 128
-1.00034, 321, 101, 448, 132
-1.00041, 1, 105, 500, 168
-1.00047, 145, 61, 272, 92
-1.00049, 49, 53, 176, 84
-1.00049, 273, 33, 400, 160
-1.00055, 273, 97, 400, 128
-1.00062, 409, 41, 472, 104
-1.00062, 65, 33, 192, 96
-1.00063, 321, 89, 448, 120
-1.00065, 257, 25, 500, 88
-1.00069, 161, 73, 288, 104
-1.00069, 225, 89, 352, 120
-1.00069, 177, 89, 304, 120
-1.00073, 353, 73, 480, 104
-1.00078, 369, 29, 496, 60
-1.00079, 321, 33, 448, 64
-1.00082, 161, 17, 288, 144
-1.00088, 225, 49, 256, 176
-1.0009, 257, 73, 320, 136
-1.00096, 145, 49, 208, 176
-1.00112, 425, 65, 488, 128
-1.00117, 125, 33, 156, 160
-1.00117, 305, 65, 432, 128
-1.00119, 193, 65, 448, 128
-1.00132, 65, 41, 320, 104
-1.00139, 161, 41, 288, 104
-1.0014, 225, 65, 352, 128
-1.00145, 1, 49, 500, 112
-1.00147, 137, 33, 168, 160
-1.00159, 389, 65, 420, 192
-1.00159, 369, 73, 496, 136
-1.00162, 357, 65, 388, 192
-1.00181, 145, 81, 208, 144
-1.00181, 257, 1, 500, 64
-1.00181, 161, 33, 416, 96
-1.00187, 305, 97, 368, 160
-1.002, 369, 65, 400, 192
-1.00201, 1, 17, 256, 80
-1.00203, 345, 65, 376, 192
-1.00211, 97, 9, 352, 72
-1.00216, 337, 97, 400, 160
-1.00218, 213, 49, 244, 176
-1.00223, 161, 65, 288, 128
-1.00226, 321, 25, 448, 88
-1.00231, 337, 1, 464, 64
-1.00246, 21, 33, 52, 160
-1.00256, 153, 49, 184, 176
-1.00256, 433, 33, 464, 160
-1.00272, 113, 17, 240, 80
-1.00276, 17, 25, 144, 88
-1.00288, 65, 1, 192, 64
-1.00288, 289, 1, 416, 64
-1.00291, 17, 1, 144, 64
-1.00291, 193, 17, 320, 80
-1.00291, 241, 17, 368, 80
-1.00291, 225, 41, 352, 104
-1.00291, 273, 41, 400, 104
-1.00294, 1, 65, 64, 128
-1.00301, 329, 65, 392, 192
-1.00307, 189, 81, 220, 208
-1.00309, 329, 65, 360, 192
-1.00313, 421, 65, 452, 192
-1.0034, 225, 17, 352, 144
-1.00356, 433, 9, 496, 72
-1.00362, 165, 65, 196, 192
-1.00365, 49, 41, 112, 104
-1.00372, 361, 73, 424, 136
-1.00397, 401, 81, 464, 144
-1.00398, 1, 17, 500, 80
-1.00407, 145, 57, 208, 120
-1.00413, 145, 105, 208, 168
-1.00455, 457, 1, 488, 128
-1.00554, 201, 65, 232, 192
-1.00563, 317, 65, 348, 192
-1.00573, 305, 49, 336, 176
-1.00599, 1, 33, 64, 160
-1.00603, 9, 49, 40, 176
-1.00617, 385, 41, 448, 104
-1.00645, 145, 33, 208, 96
-1.00656, 273, 17, 304, 144
-1.00657, 293, 33, 324, 160
-1.00675, 181, 33, 212, 160
-1.00677, 385, 17, 448, 80
-1.00699, 469, 1, 500, 128
-1.00707, 169, 17, 200, 144
-1.00709, 149, 1, 180, 128
-1.00777, 393, 17, 424, 144
-1.00789, 425, 1, 488, 128
-1.00803, 421, 17, 452, 144
-1.00814, 201, 17, 232, 144
-1.00839, 177, 17, 240, 144
-1.00842, 201, 17, 264, 144
-1.00857, 445, 1, 476, 128
-1.00868, 5, 1, 36, 128
-1.00874, 337, 17, 368, 144
-1.0088, 357, 17, 388, 144
-1.00974, 273, 17, 336, 144
-1.0109, 321, 1, 448, 128
-1.01162, 145, 1, 208, 128
-1.01167, 337, 17, 400, 144
-1.01235, 377, 17, 440, 144
-1.01275, 401, 1, 464, 128
-1.01351, 249, 1, 312, 128
-1.01431, 313, 17, 376, 144
-1.01738, 225, 1, 288, 128
