1993
-0.262579, 1, 1, 405, 480
-0.300574, 1, 193, 405, 448
-0.36859, 1, 1, 405, 256
-0.381269, 129, 1, 384, 480
-0.409395, 1, 97, 405, 352
-0.414045, 33, 1, 288, 480
-0.438088, 97, 161, 352, 416
-0.523341, 1, 97, 256, 352
-0.528689, 1, 225, 256, 480
-0.550146, 161, 65, 405, 320
-0.614951, 33, 1, 288, 256
-0.814959, 113, 193, 240, 448
-0.824875, 177, 193, 304, 448
-0.831369, 49, 129, 176, 384
-0.832251, 1, 145, 405, 272
-0.84248, 161, 97, 288, 352
-0.844483, 273, 129, 400, 384
-0.84574, 113, 97, 240, 352
-0.84777, 97, 1, 224, 480
-0.855916, 225, 225, 352, 480
-0.856053, 113, 1, 240, 256
-0.856132, 17, 1, 144, 256
-0.856927, 241, 33, 368, 288
-0.858284, 145, 1, 272, 480
-0.858652, 1, 193, 405, 320
-0.85954, 49, 1, 176, 480
-0.869816, 49, 225, 176, 480
-0.874408, 225, 129, 352, 384
-0.878654, 1, 257, 405, 384
-0.880147, 65, 1, 192, 256
-0.880729, 193, 1, 320, 256
-0.882183, 129, 145, 384, 272
-0.883708, 1, 81, 405, 208
-0.885082, 97, 97, 352, 224
-0.885542, 241, 1, 368, 480
-0.891924, 273, 225, 400, 480
-0.892264, 1, 193, 128, 448
-0.894085, 1, 305, 405, 432
-0.896294, 193, 1, 320, 480
-0.896759, 1, 129, 256, 256
-0.902158, 1, 177, 256, 304
-0.908202, 65, 305, 320, 432
-0.908221, 1, 33, 405, 160
-0.91009, 97, 353, 352, 480
-0.910831, 1, 97, 128, 352
-0.913468, 1, 353, 405, 480
-0.914336, 1, 1, 128, 480
-0.915962, 1, 353, 256, 480
-0.917512, 65, 241, 320, 368
-0.920991, 193, 65, 256, 192
-0.921166, 97, 49, 352, 176
-0.92199, 49, 145, 176, 272
-0.92297, 113, 97, 240, 224
-0.923223, 49, 193, 176, 320
-0.923911, 97, 193, 352, 320
-0.925147, 1, 1, 256, 128
-0.925713, 161, 1, 405, 128
-0.927045, 113, 129, 176, 256
-0.92722, 129, 193, 192, 320
-0.928346, 257, 161, 384, 288
-0.92845, 113, 145, 240, 272
-0.929552, 177, 49, 304, 176
-0.929944, 97, 241, 224, 368
-0.931328, 153, 177, 216, 304
-0.931997, 161, 113, 224, 240
-0.932013, 177, 129, 304, 256
-0.933391, 1, 81, 256, 208
-0.93369, 161, 1, 288, 128
-0.934031, 25, 161, 88, 288
-0.935172, 65, 305, 128, 432
-0.936118, 113, 49, 240, 176
-0.936238, 177, 193, 304, 320
-0.937016, 49, 241, 176, 368
-0.937826, 129, 193, 256, 320
-0.938774, 65, 321, 128, 384
-0.939117, 97, 257, 160, 384
-0.939999, 169, 65, 232, 192
-0.940526, 305, 145, 368, 272
-0.941577, 105, 337, 168, 400
-0.941821, 161, 273, 405, 400
-0.941971, 33, 289, 160, 416
-0.941984, 161, 225, 224, 352
-0.942403, 153, 177, 216, 240
-0.942477, 121, 409, 184, 472
-0.942484, 97, 321, 224, 448
-0.942592, 225, 97, 352, 224
-0.942658, 185, 1, 248, 128
-0.943656, 25, 225, 88, 352
-0.943948, 241, 401, 304, 464
-0.944673, 49, 129, 112, 256
-0.945065, 129, 241, 192, 368
-0.945275, 89, 145, 152, 272
-0.945483, 1, 177, 64, 304
-0.946276, 241, 257, 304, 384
-0.946297, 137, 129, 200, 256
-0.946432, 289, 97, 352, 224
-0.94655, 153, 337, 216, 400
-0.946836, 129, 337, 192, 400
-0.947075, 265, 401, 328, 464
-0.947201, 65, 353, 128, 416
-0.947652, 273, 113, 400, 240
-0.947776, 217, 401, 280, 464
-0.948079, 81, 297, 144, 360
-0.948133, 1, 97, 64, 224
-0.948178, 305, 153, 368, 216
-0.948758, 97, 321, 160, 448
-0.948781, 81, 417, 144, 480
-0.948828, 145, 409, 208, 472
-0.948835, 241, 321, 304, 448
-0.948931, 217, 1, 280, 128
-0.949414, 73, 193, 136, 320
-0.949548, 177, 241, 304, 368
-0.949701, 233, 49, 296, 176
-0.94995, 329, 145, 392, 272
-0.950082, 105, 361, 168, 424
-0.95037, 25, 113, 88, 240
-0.950854, 81, 393, 144, 456
-0.951007, 185, 113, 248, 240
-0.951084, 113, 1, 240, 128
-0.951473, 177, 353, 304, 480
-0.951987, 257, 1, 384, 128
-0.952022, 281, 145, 344, 272
-0.952067, 49, 97, 176, 224
-0.952349, 257, 329, 320, 392
-0.952383, 273, 1, 336, 128
-0.953045, 345, 329, 405, 392
-0.953099, 145, 65, 208, 192
-0.953113, 57, 353, 120, 480
-0.953584, 177, 177, 240, 304
-0.953824, 49, 353, 176, 480
-0.954022, 313, 193, 376, 256
-0.95407, 161, 153, 224, 216
-0.954092, 121, 169, 184, 232
-0.954151, 329, 1, 392, 128
-0.954197, 177, 305, 304, 432
-0.954546, 313, 97, 376, 224
-0.954634, 33, 185, 96, 248
-0.954634, 169, 409, 232, 472
-0.954847, 153, 209, 216, 272
-0.954928, 257, 113, 320, 240
-0.955102, 257, 361, 320, 424
-0.955205, 193, 113, 256, 176
-0.955264, 1, 225, 64, 352
-0.95535, 161, 17, 224, 144
-0.955593, 241, 49, 368, 176
-0.955734, 345, 393, 405, 456
-0.955791, 129, 305, 192, 432
-0.955851, 113, 137, 176, 200
-0.956239, 65, 257, 128, 384
-0.956275, 201, 65, 264, 128
-0.956456, 105, 313, 168, 376
-0.956529, 289, 329, 352, 392
-0.956612, 105, 265, 168, 328
-0.956723, 1, 145, 128, 272
-0.956958, 41, 305, 104, 432
-0.956961, 129, 209, 192, 272
-0.957114, 209, 113, 272, 240
-0.957208, 153, 369, 216, 432
-0.957371, 225, 321, 352, 448
-0.957468, 129, 113, 192, 176
-0.957805, 225, 257, 352, 384
-0.957954, 57, 137, 120, 200
-0.958018, 65, 1, 192, 128
-0.95822, 257, 209, 384, 336
-0.958292, 193, 417, 256, 480
-0.958518, 17, 1, 144, 128
-0.958637, 129, 193, 192, 448
-0.958872, 273, 185, 336, 248
-0.958941, 121, 81, 184, 208
-0.958949, 97, 409, 224, 472
-0.959142, 177, 337, 240, 400
-0.959397, 209, 1, 336, 128
-0.959426, 241, 1, 304, 128
-0.959442, 321, 401, 384, 464
-0.959549, 169, 81, 232, 144
-0.959685, 41, 353, 104, 416
-0.959828, 177, 185, 240, 248
-0.959834, 321, 329, 384, 392
-0.959982, 177, 49, 240, 112
-0.960098, 129, 369, 192, 432
-0.960256, 105, 209, 168, 336
-0.960266, 201, 193, 264, 320
-0.960597, 257, 161, 320, 288
-0.96086, 57, 377, 120, 440
-0.961185, 25, 209, 88, 272
-0.961315, 17, 17, 80, 144
-0.961345, 41, 409, 104, 472
-0.961418, 193, 393, 256, 456
-0.961432, 49, 177, 112, 304
-0.961437, 201, 289, 264, 416
-0.9615, 233, 329, 296, 392
-0.962099, 257, 49, 320, 176
-0.962124, 137, 305, 200, 368
-0.962156, 201, 201, 264, 264
-0.962302, 233, 209, 296, 336
-0.962379, 153, 193, 216, 448
-0.962442, 273, 337, 400, 464
-0.962449, 233, 369, 296, 432
-0.962613, 193, 89, 256, 152
-0.962623, 345, 369, 405, 432
-0.962841, 73, 97, 136, 224
-0.963059, 1, 337, 128, 464
-0.963178, 185, 161, 248, 224
-0.963228, 137, 145, 200, 208
-0.963391, 337, 65, 400, 192
-0.963412, 233, 113, 296, 240
-0.963452, 297, 1, 360, 128
-0.963488, 1, 97, 128, 224
-0.963841, 161, 169, 192, 232
-0.963881, 289, 49, 352, 176
-0.964023, 33, 145, 96, 208
-0.96417, 265, 257, 328, 384
-0.964295, 249, 185, 312, 248
-0.964326, 97, 337, 224, 400
-0.964363, 257, 305, 320, 368
-0.964382, 97, 369, 224, 432
-0.964783, 89, 121, 152, 184
-0.964969, 217, 97, 280, 160
-0.965015, 73, 161, 136, 224
-0.965204, 345, 417, 405, 480
-0.965408, 17, 113, 80, 176
-0.965411, 225, 121, 288, 184
-0.965519, 289, 409, 352, 472
-0.965533, 33, 409, 160, 472
-0.9658, 193, 161, 256, 416
-0.965857, 105, 289, 168, 352
-0.965869, 169, 65, 232, 320
-0.965978, 113, 329, 144, 392
-0.966037, 193, 241, 256, 368
-0.966087, 41, 313, 104, 376
-0.966107, 153, 289, 216, 416
-0.966353, 273, 329, 400, 392
-0.966409, 289, 105, 352, 168
-0.96656, 161, 401, 288, 464
-0.966571, 97, 177, 160, 240
-0.966604, 265, 305, 328, 432
-0.966627, 121, 97, 184, 352
-0.966666, 209, 369, 272, 432
-0.966709, 177, 369, 240, 432
-0.966865, 97, 185, 224, 248
-0.966873, 249, 281, 312, 344
-0.966887, 133, 337, 164, 400
-0.966991, 281, 193, 344, 320
-0.967047, 41, 289, 104, 352
-0.967082, 345, 353, 405, 480
-0.967157, 1, 241, 128, 368
-0.967196, 329, 193, 392, 320
-0.9673, 153, 257, 216, 320
-0.967375, 273, 209, 336, 272
-0.967416, 25, 353, 88, 480
-0.967521, 273, 401, 400, 464
-0.967595, 209, 353, 272, 480
-0.967747, 209, 409, 336, 472
-0.967769, 125, 409, 156, 472
-0.967825, 73, 209, 136, 272
-0.967878, 241, 209, 304, 272
-0.967882, 25, 233, 88, 296
-0.967935, 245, 401, 276, 464
-0.967983, 29, 177, 60, 304
-0.967996, 289, 81, 352, 144
-0.968018, 149, 177, 180, 304
-0.968026, 81, 129, 144, 384
-0.968026, 273, 161, 336, 224
-0.968027, 201, 65, 232, 128
-0.968104, 321, 361, 384, 424
-0.96818, 73, 1, 136, 128
-0.968232, 145, 185, 272, 248
-0.968482, 353, 401, 384, 464
-0.968766, 265, 353, 328, 480
-0.968929, 217, 153, 280, 216
-0.968938, 145, 169, 176, 232
-0.96916, 157, 337, 188, 400
-0.969234, 169, 177, 200, 304
-0.969293, 225, 65, 288, 128
-0.969316, 161, 337, 288, 400
-0.969359, 93, 393, 124, 456
-0.969378, 9, 145, 40, 272
-0.969387, 265, 401, 296, 464
-0.969399, 337, 193, 400, 256
-0.969448, 105, 385, 168, 448
-0.969457, 33, 385, 96, 448
-0.969469, 1, 209, 64, 272
-0.969497, 361, 329, 392, 392
-0.969507, 49, 321, 176, 384
-0.969524, 29, 225, 60, 352
-0.969564, 137, 1, 200, 128
-0.969567, 329, 121, 392, 184
-0.969673, 161, 129, 224, 192
-0.969712, 173, 337, 204, 400
-0.96973, 161, 369, 288, 432
-0.969736, 93, 321, 124, 384
-0.969759, 193, 65, 320, 128
-0.969831, 277, 393, 308, 456
-0.969839, 209, 337, 272, 400
-0.970055, 145, 337, 176, 400
-0.970074, 101, 353, 132, 416
-0.970133, 17, 273, 80, 400
-0.970157, 65, 161, 192, 224
-0.970168, 305, 353, 368, 480
-0.970258, 281, 353, 344, 416
-0.970267, 33, 129, 96, 384
-0.970332, 273, 193, 336, 448
-0.9704, 113, 209, 240, 272
-0.970475, 193, 65, 256, 320
-0.970502, 233, 401, 264, 464
-0.970531, 329, 153, 392, 216
-0.970577, 81, 305, 112, 432
-0.970656, 249, 193, 312, 448
-0.970671, 113, 161, 240, 224
-0.970722, 1, 233, 64, 296
-0.970811, 113, 409, 144, 472
-0.970842, 77, 321, 108, 384
-0.970886, 153, 233, 216, 296
-0.970987, 49, 1, 112, 128
-0.971021, 193, 65, 224, 192
-0.971126, 213, 65, 244, 128
-0.971177, 209, 257, 272, 320
-0.97122, 193, 225, 256, 288
-0.971249, 257, 193, 384, 256
-0.971292, 153, 49, 216, 112
-0.971358, 273, 289, 400, 416
-0.971363, 49, 209, 112, 272
-0.971366, 117, 257, 148, 384
-0.971384, 257, 113, 320, 176
-0.971462, 49, 369, 176, 432
-0.971464, 129, 233, 192, 296
-0.971477, 97, 225, 160, 480
-0.971666, 49, 1, 112, 64
-0.971761, 9, 417, 40, 480
-0.97182, 257, 81, 320, 144
-0.971966, 173, 409, 204, 472
-0.972098, 41, 1, 104, 256
-0.972125, 97, 129, 224, 192
-0.972135, 161, 105, 224, 168
-0.972139, 21, 401, 52, 464
-0.972249, 261, 329, 292, 392
-0.972259, 369, 393, 400, 456
-0.972283, 289, 1, 352, 256
-0.97234, 281, 329, 312, 392
-0.972399, 341, 329, 372, 392
-0.972427, 145, 105, 272, 168
-0.972623, 213, 65, 244, 192
-0.972649, 373, 329, 404, 392
-0.972667, 17, 209, 48, 336
-0.9727, 201, 41, 264, 104
-0.972738, 241, 233, 304, 296
-0.972771, 93, 289, 124, 352
-0.972782, 225, 225, 288, 480
-0.972783, 25, 65, 88, 192
-0.972783, 49, 193, 176, 256
-0.972945, 49, 289, 176, 352
-0.972995, 125, 129, 156, 256
-0.973004, 185, 409, 216, 472
-0.973069, 313, 217, 376, 280
-0.973081, 181, 129, 212, 256
-0.973089, 201, 89, 232, 152
-0.97309, 209, 129, 336, 192
-0.9731, 225, 329, 352, 392
-0.973103, 89, 1, 152, 256
-0.973118, 101, 417, 132, 480
-0.973219, 1, 97, 64, 352
-0.973285, 257, 209, 320, 336
-0.973344, 145, 1, 208, 256
-0.973446, 265, 137, 328, 200
-0.973521, 161, 129, 192, 256
-0.973522, 209, 185, 336, 248
-0.973565, 1, 417, 64, 480
-0.973572, 177, 225, 304, 288
-0.973581, 177, 305, 240, 432
-0.973602, 233, 161, 296, 288
-0.973603, 225, 105, 352, 168
-0.973648, 289, 129, 352, 192
-0.973727, 305, 1, 368, 64
-0.973805, 33, 49, 160, 176
-0.973835, 273, 353, 400, 416
-0.973969, 17, 209, 48, 272
-0.973991, 145, 129, 176, 256
-0.974038, 305, 193, 368, 320
-0.974063, 133, 161, 164, 224
-0.974085, 313, 49, 376, 176
-0.974102, 257, 153, 384, 216
-0.974108, 81, 417, 112, 480
-0.974133, 25, 129, 56, 256
-0.974141, 69, 353, 100, 416
-0.974216, 49, 225, 176, 288
-0.974248, 49, 137, 176, 200
-0.974324, 225, 297, 288, 360
-0.974338, 217, 97, 248, 160
-0.974343, 1, 97, 32, 224
-0.974367, 133, 305, 164, 368
-0.974376, 9, 289, 40, 352
-0.974381, 265, 353, 296, 416
-0.974388, 177, 201, 208, 264
-0.97439, 289, 385, 352, 448
-0.9744, 65, 265, 128, 328
-0.974434, 5, 225, 36, 352
-0.974451, 153, 225, 184, 352
-0.974506, 1, 193, 128, 320
-0.974517, 333, 193, 364, 256
-0.974546, 281, 417, 312, 480
-0.974557, 249, 321, 280, 448
-0.974584, 265, 41, 328, 104
-0.974677, 9, 185, 72, 248
-0.974684, 209, 369, 336, 432
-0.974754, 337, 129, 400, 384
-0.974848, 149, 409, 180, 472
-0.974987, 121, 137, 152, 200
-0.975065, 129, 193, 160, 320
-0.975069, 129, 257, 192, 320
-0.975074, 185, 137, 248, 200
-0.975105, 221, 417, 252, 480
-0.975107, 137, 353, 200, 480
-0.975146, 105, 241, 168, 304
-0.975302, 225, 129, 288, 384
-0.975311, 145, 65, 272, 128
-0.975367, 65, 1, 128, 256
-0.975378, 225, 177, 288, 240
-0.975456, 133, 361, 164, 424
-0.975477, 49, 249, 176, 312
-0.975498, 9, 377, 40, 440
-0.975559, 1, 353, 64, 480
-0.975586, 33, 129, 64, 192
-0.975592, 113, 297, 240, 360
-0.975635, 265, 1, 328, 256
-0.975639, 49, 129, 80, 256
-0.975673, 197, 1, 228, 128
-0.975702, 205, 177, 236, 240
-0.975757, 177, 161, 304, 224
-0.975766, 73, 129, 104, 256
-0.975785, 49, 345, 176, 408
-0.975801, 97, 305, 128, 432
-0.975855, 1, 289, 64, 352
-0.976076, 361, 353, 392, 416
-0.976083, 249, 257, 312, 320
-0.976091, 145, 193, 176, 256
-0.976133, 29, 217, 60, 280
-0.976146, 5, 353, 36, 480
-0.976248, 113, 129, 144, 256
-0.976277, 113, 369, 144, 432
-0.97628, 105, 1, 168, 128
-0.976387, 249, 353, 280, 416
-0.976425, 69, 377, 100, 440
-0.976469, 145, 145, 176, 208
-0.976477, 317, 193, 348, 256
-0.976528, 137, 409, 168, 472
-0.976539, 181, 225, 212, 352
-0.976626, 209, 1, 240, 128
-0.97663, 25, 289, 56, 352
-0.976657, 113, 321, 144, 448
-0.976674, 57, 225, 120, 480
-0.976677, 97, 265, 224, 328
-0.976692, 301, 193, 332, 256
-0.976713, 281, 297, 344, 360
-0.976804, 69, 129, 100, 192
-0.976866, 9, 1, 72, 256
-0.976872, 297, 49, 360, 112
-0.976874, 297, 193, 360, 448
-0.976933, 185, 249, 248, 312
-0.976965, 273, 305, 304, 368
-0.976983, 193, 305, 256, 368
-0.977015, 17, 153, 48, 216
-0.977064, 209, 113, 240, 240
-0.977145, 173, 369, 204, 432
-0.977169, 13, 81, 44, 208
-0.97721, 1, 113, 32, 176
-0.97721, 265, 257, 296, 384
-0.977215, 185, 281, 248, 344
-0.97724, 73, 1, 136, 64
-0.977279, 373, 369, 404, 432
-0.977299, 145, 361, 176, 424
-0.977342, 145, 129, 272, 192
-0.977344, 249, 329, 280, 392
-0.977391, 205, 113, 236, 176
-0.977395, 281, 113, 312, 240
-0.977396, 89, 353, 120, 416
-0.977396, 65, 409, 96, 472
-0.977406, 277, 353, 308, 416
-0.977485, 245, 377, 276, 440
-0.97749, 161, 409, 192, 472
-0.977551, 133, 241, 164, 368
-0.977557, 57, 129, 120, 384
-0.977578, 161, 145, 192, 208
-0.97759, 329, 113, 360, 240
-0.977592, 9, 265, 40, 328
-0.977615, 5, 305, 36, 432
-0.977635, 189, 337, 220, 400
-0.97764, 273, 97, 336, 352
-0.977657, 341, 393, 372, 456
-0.977669, 201, 177, 232, 304
-0.977734, 157, 361, 188, 424
-0.977757, 49, 145, 80, 208
-0.977804, 349, 161, 380, 288
-0.97784, 181, 49, 212, 176
-0.977869, 293, 329, 324, 392
-0.977874, 205, 417, 236, 480
-0.977894, 293, 401, 324, 464
-0.977944, 273, 113, 400, 176
-0.977964, 109, 297, 140, 360
-0.977977, 305, 145, 336, 272
-0.978025, 181, 49, 212, 112
-0.978026, 237, 353, 268, 416
-0.97804, 81, 393, 112, 456
-0.978106, 345, 305, 405, 432
-0.978281, 33, 169, 64, 232
-0.9783, 21, 353, 52, 480
-0.978327, 49, 121, 80, 184
-0.978333, 349, 361, 380, 424
-0.978341, 313, 1, 376, 256
-0.978377, 297, 97, 360, 352
-0.978513, 257, 225, 384, 288
-0.97853, 305, 97, 336, 224
-0.978611, 229, 113, 260, 176
-0.978649, 25, 273, 56, 400
-0.978669, 9, 241, 40, 304
-0.978788, 157, 217, 188, 280
-0.978796, 333, 153, 364, 216
-0.978817, 373, 417, 404, 480
-0.978911, 181, 169, 212, 232
-0.97892, 133, 305, 164, 432
-0.978982, 217, 33, 280, 288
-0.979054, 349, 113, 380, 240
-0.979131, 349, 153, 380, 216
-0.979192, 121, 1, 184, 256
-0.979214, 193, 113, 224, 240
-0.979243, 33, 193, 64, 256
-0.979266, 177, 249, 304, 312
-0.979308, 145, 97, 208, 352
-0.979336, 105, 145, 136, 208
-0.979351, 121, 177, 152, 240
-0.979354, 345, 1, 376, 128
-0.979389, 317, 97, 348, 224
-0.979397, 249, 97, 312, 352
-0.979483, 17, 177, 48, 240
-0.979684, 1, 145, 32, 208
-0.979703, 37, 417, 68, 480
-0.979724, 285, 169, 316, 232
-0.979742, 177, 1, 208, 128
-0.979804, 305, 153, 336, 216
-0.979814, 221, 393, 252, 456
-0.979827, 17, 121, 48, 184
-0.979879, 29, 265, 60, 328
-0.979885, 145, 305, 176, 368
-0.979899, 69, 321, 100, 448
-0.979947, 161, 41, 288, 104
-0.979954, 189, 89, 220, 152
-0.979969, 333, 161, 364, 288
-0.980094, 21, 377, 52, 440
-0.980234, 177, 297, 304, 360
-0.980293, 17, 161, 144, 224
-0.980322, 97, 81, 160, 208
-0.980358, 141, 249, 172, 312
-0.980391, 245, 121, 276, 184
-0.98044, 181, 177, 212, 304
-0.980451, 105, 241, 136, 368
-0.980469, 241, 1, 272, 128
-0.980471, 97, 73, 224, 136
-0.980605, 317, 145, 348, 272
-0.980622, 133, 385, 164, 448
-0.980627, 5, 217, 36, 280
-0.980627, 125, 217, 156, 280
-0.980658, 185, 369, 216, 432
-0.980697, 265, 377, 296, 440
-0.980721, 33, 113, 160, 176
-0.980722, 65, 321, 96, 384
-0.980768, 165, 241, 196, 368
-0.980803, 29, 241, 60, 304
-0.98083, 41, 177, 72, 304
-0.98102, 293, 97, 324, 224
-0.981044, 369, 113, 400, 240
-0.981122, 197, 153, 228, 216
-0.981139, 221, 153, 252, 216
-0.981158, 225, 49, 256, 176
-0.9812, 333, 1, 364, 128
-0.9812, 293, 145, 324, 272
-0.981218, 249, 273, 280, 400
-0.981232, 209, 137, 240, 200
-0.98132, 121, 1, 184, 480
-0.981387, 273, 89, 400, 152
-0.981403, 145, 273, 272, 336
-0.981424, 113, 241, 240, 304
-0.981645, 185, 353, 248, 480
-0.981712, 337, 33, 400, 288
-0.981729, 281, 81, 312, 144
-0.981808, 349, 177, 380, 240
-0.981816, 193, 1, 256, 480
-0.981827, 201, 201, 232, 264
-0.981833, 37, 113, 68, 240
-0.981868, 277, 193, 308, 256
-0.981874, 225, 41, 352, 104
-0.981885, 233, 145, 264, 208
-0.981919, 97, 105, 224, 168
-0.981923, 261, 305, 292, 432
-0.981979, 161, 1, 192, 128
-0.981985, 169, 1, 232, 480
-0.982109, 261, 49, 292, 176
-0.98233, 273, 377, 400, 440
-0.982434, 269, 97, 300, 224
-0.982659, 193, 241, 224, 368
-0.982669, 289, 305, 352, 432
-0.982816, 361, 161, 392, 288
-0.982836, 41, 225, 72, 352
-0.982925, 1, 377, 128, 440
-0.983011, 229, 289, 260, 416
-0.983199, 109, 177, 140, 304
-0.983313, 49, 65, 112, 192
-0.983324, 241, 305, 368, 368
-0.983354, 97, 49, 224, 112
-0.98337, 133, 81, 164, 208
-0.983527, 281, 321, 312, 448
-0.983584, 277, 177, 308, 304
-0.983646, 53, 177, 84, 304
-0.983712, 1, 297, 128, 360
-0.983885, 101, 129, 132, 256
-0.983981, 69, 241, 100, 368
-0.983991, 81, 1, 144, 480
-0.984112, 225, 113, 256, 240
-0.984172, 93, 257, 124, 384
-0.984426, 1, 321, 128, 384
-0.984467, 193, 273, 320, 336
-0.984603, 257, 129, 288, 256
-0.984626, 33, 89, 160, 152
-0.984653, 1, 193, 64, 448
-0.98466, 49, 1, 176, 64
-0.984702, 261, 1, 292, 128
-0.984964, 25, 81, 56, 208
-0.985002, 1, 1, 64, 480
-0.985013, 121, 81, 152, 208
-0.985133, 33, 225, 96, 480
-0.985136, 1, 353, 128, 416
-0.985164, 1, 137, 128, 200
-0.985239, 225, 249, 352, 312
-0.985298, 85, 145, 116, 272
-0.985298, 189, 305, 220, 432
-0.985324, 337, 65, 368, 192
-0.985385, 321, 1, 352, 128
-0.985418, 129, 401, 384, 464
-0.985421, 241, 65, 368, 128
-0.98543, 45, 337, 76, 464
-0.985544, 1, 209, 128, 272
-0.985594, 157, 81, 188, 208
-0.985614, 241, 1, 304, 256
-0.98564, 349, 65, 380, 192
-0.985716, 265, 177, 296, 304
-0.985719, 305, 1, 368, 480
-0.985746, 321, 305, 384, 432
-0.985832, 101, 353, 132, 480
-0.985922, 65, 369, 320, 432
-0.985935, 129, 9, 256, 72
-0.985948, 237, 113, 268, 240
-0.985989, 85, 1, 116, 128
-0.986019, 1, 1, 128, 64
-0.986092, 33, 337, 288, 400
-0.986129, 37, 1, 68, 128
-0.986168, 169, 289, 200, 416
-0.986308, 281, 1, 312, 128
-0.986329, 33, 401, 288, 464
-0.986338, 169, 49, 200, 176
-0.986358, 241, 17, 368, 80
-0.986368, 229, 1, 260, 128
-0.986368, 61, 113, 92, 240
-0.98639, 365, 49, 396, 176
-0.986398, 281, 65, 312, 192
-0.986443, 229, 353, 260, 480
-0.986478, 61, 1, 92, 128
-0.986573, 81, 25, 208, 88
-0.986612, 273, 1, 336, 480
-0.986698, 25, 17, 56, 144
-0.986776, 321, 225, 384, 480
-0.986841, 245, 65, 276, 192
-0.986843, 65, 177, 96, 304
-0.986845, 153, 273, 184, 400
-0.986865, 97, 1, 128, 128
-0.986865, 1, 49, 32, 176
-0.986878, 37, 273, 68, 400
-0.986891, 33, 1, 96, 480
-0.987018, 357, 1, 388, 128
-0.987082, 177, 1, 304, 64
-0.987131, 313, 49, 344, 176
-0.987178, 217, 1, 280, 480
-0.987278, 277, 241, 308, 368
-0.987329, 249, 1, 312, 480
-0.987354, 97, 113, 352, 176
-0.987411, 1, 329, 405, 392
-0.987414, 1, 265, 128, 328
-0.987462, 269, 353, 300, 480
-0.987471, 357, 321, 388, 448
-0.98752, 1, 185, 128, 248
-0.987659, 249, 225, 280, 352
-0.987681, 97, 185, 352, 248
-0.9877, 49, 1, 80, 128
-0.987745, 217, 161, 248, 288
-0.987774, 373, 353, 404, 480
-0.987792, 329, 1, 392, 480
-0.987845, 145, 1, 208, 480
-0.987858, 161, 181, 224, 212
-0.987911, 161, 145, 405, 208
-0.987917, 301, 17, 332, 144
-0.987941, 337, 241, 400, 368
-0.98814, 273, 41, 400, 104
-0.988213, 249, 429, 312, 460
-0.988257, 129, 433, 192, 464
-0.988283, 65, 349, 128, 380
-0.988317, 1, 177, 256, 240
-0.988331, 81, 329, 144, 360
-0.988382, 129, 329, 384, 392
-0.988404, 153, 193, 216, 224
-0.98844, 65, 145, 320, 208
-0.988451, 81, 437, 144, 468
-0.988471, 121, 173, 184, 204
-0.988514, 373, 1, 404, 128
-0.988565, 89, 365, 152, 396
-0.988707, 137, 401, 200, 432
-0.988776, 57, 1, 120, 480
-0.98879, 81, 401, 144, 432
-0.988798, 257, 361, 320, 392
-0.988802, 57, 141, 120, 172
-0.98882, 105, 437, 168, 468
-0.988869, 205, 257, 236, 384
-0.988877, 249, 401, 312, 432
-0.988904, 129, 365, 192, 396
-0.988909, 57, 305, 88, 432
-0.988915, 161, 161, 224, 192
-0.988916, 145, 329, 208, 360
-0.988922, 65, 365, 128, 396
-0.988974, 185, 433, 248, 464
-0.988991, 193, 69, 256, 100
-0.989005, 229, 225, 260, 352
-0.989026, 153, 437, 216, 468
-0.989027, 257, 329, 320, 360
-0.989048, 73, 317, 136, 348
-0.989052, 1, 169, 405, 232
-0.989087, 1, 201, 256, 264
-0.989155, 241, 345, 304, 376
-0.989177, 65, 153, 128, 184
-0.989179, 161, 205, 224, 236
-0.989181, 105, 345, 168, 376
-0.989193, 121, 329, 184, 360
-0.98921, 225, 429, 288, 460
-0.989304, 305, 157, 368, 188
-0.989346, 185, 401, 248, 432
-0.989351, 41, 197, 104, 228
-0.989359, 33, 445, 96, 476
-0.989414, 137, 209, 200, 240
-0.989435, 153, 413, 216, 444
-0.989467, 185, 177, 248, 208
-0.989494, 33, 185, 96, 216
-0.989509, 1, 401, 405, 464
-0.989512, 89, 141, 152, 172
-0.98953, 1, 445, 64, 476
-0.989542, 257, 281, 384, 344
-0.989557, 313, 325, 376, 356
-0.989566, 25, 221, 88, 252
-0.989568, 193, 361, 256, 392
-0.989573, 233, 357, 296, 388
-0.989578, 345, 421, 405, 452
-0.989581, 25, 233, 88, 264
-0.989587, 273, 433, 336, 464
-0.989595, 297, 241, 360, 368
-0.989599, 153, 365, 216, 396
-0.989617, 121, 417, 184, 448
-0.989631, 345, 357, 405, 388
-0.989639, 337, 401, 400, 432
-0.989646, 81, 353, 112, 480
-0.989682, 25, 209, 88, 240
-0.989694, 121, 161, 184, 192
-0.989699, 185, 193, 248, 224
-0.989703, 241, 193, 304, 224
-0.989706, 373, 161, 404, 288
-0.989735, 129, 197, 192, 228
-0.989809, 65, 301, 128, 332
-0.989812, 345, 225, 405, 480
-0.989812, 321, 425, 384, 456
-0.989829, 113, 149, 176, 180
-0.989835, 97, 449, 160, 480
-0.989839, 225, 413, 288, 444
-0.989843, 41, 313, 104, 344
-0.989857, 49, 81, 80, 208
-0.989866, 241, 277, 304, 308
-0.989894, 153, 149, 216, 180
-0.989909, 169, 329, 232, 360
-0.98992, 233, 329, 296, 360
-0.989952, 97, 313, 160, 344
-0.989981, 201, 125, 264, 156
-0.989986, 345, 433, 405, 464
-0.98999, 161, 361, 405, 424
-0.989999, 225, 441, 288, 472
-0.990028, 57, 333, 120, 364
-0.990034, 161, 401, 224, 432
-0.990093, 65, 381, 128, 412
-0.990095, 161, 217, 224, 248
-0.990096, 105, 405, 168, 436
-0.990104, 337, 325, 400, 356
-0.990118, 121, 185, 184, 216
-0.990125, 177, 93, 240, 124
-0.990174, 209, 401, 272, 432
-0.990193, 289, 329, 352, 360
-0.990201, 129, 445, 192, 476
-0.990217, 89, 301, 152, 332
-0.990224, 249, 417, 312, 448
-0.990228, 273, 193, 336, 224
-0.990228, 105, 377, 168, 408
-0.990246, 305, 357, 368, 388
-0.990253, 33, 173, 96, 204
-0.990257, 41, 361, 104, 392
-0.99026, 193, 333, 256, 364
-0.990262, 1, 193, 405, 256
-0.990282, 25, 161, 88, 192
-0.990283, 313, 221, 376, 252
-0.990284, 193, 109, 256, 140
-0.9903, 129, 125, 192, 156
-0.990301, 25, 149, 88, 180
-0.990319, 113, 265, 176, 296
-0.990323, 129, 305, 384, 368
-0.99033, 177, 445, 240, 476
-0.990373, 241, 257, 304, 288
-0.990393, 177, 413, 240, 444
-0.99041, 153, 345, 216, 376
-0.990415, 169, 113, 232, 144
-0.990432, 17, 25, 144, 88
-0.990445, 97, 209, 352, 272
-0.99047, 33, 429, 96, 460
-0.990485, 193, 145, 256, 176
-0.990485, 273, 181, 336, 212
-0.990485, 297, 425, 360, 456
-0.990486, 161, 277, 224, 308
-0.990497, 129, 345, 192, 376
-0.990498, 281, 341, 344, 372
-0.990504, 57, 441, 120, 472
-0.990513, 49, 405, 112, 436
-0.990529, 289, 225, 352, 256
-0.990543, 121, 113, 184, 144
-0.990548, 201, 205, 264, 236
-0.990549, 273, 249, 400, 312
-0.990563, 153, 261, 216, 292
-0.990575, 1, 217, 64, 248
-0.990575, 97, 417, 160, 448
-0.990579, 1, 229, 64, 260
-0.990583, 169, 81, 232, 112
-0.990584, 273, 205, 336, 236
-0.990593, 289, 1, 352, 32
-0.990598, 89, 389, 152, 420
-0.990605, 113, 253, 176, 284
-0.99061, 313, 197, 376, 228
-0.990622, 49, 393, 112, 424
-0.990625, 345, 221, 405, 252
-0.990627, 89, 153, 152, 184
-0.99065, 297, 393, 360, 424
-0.99065, 249, 441, 312, 472
-0.990653, 105, 285, 168, 316
-0.990658, 49, 209, 112, 240
-0.990666, 241, 221, 304, 252
-0.99067, 1, 145, 405, 208
-0.99072, 49, 49, 176, 112
-0.99074, 65, 273, 320, 336
-0.990848, 1, 241, 128, 304
-0.990908, 161, 353, 224, 480
-0.991426, 161, 89, 405, 152
-0.991718, 1, 121, 256, 184
-0.991813, 1, 289, 405, 352
-0.991865, 165, 181, 196, 212
-0.991947, 25, 445, 56, 476
-0.992003, 17, 425, 48, 456
-0.992025, 1, 217, 405, 280
-0.992056, 113, 333, 144, 364
-0.992063, 9, 445, 40, 476
-0.992164, 185, 189, 216, 220
-0.992167, 249, 429, 280, 460
-0.992188, 133, 437, 164, 468
-0.992195, 1, 225, 256, 288
-0.992206, 29, 229, 60, 260
-0.992216, 109, 365, 140, 396
-0.992226, 261, 345, 292, 376
-0.992243, 133, 365, 164, 396
-0.992257, 245, 345, 276, 376
-0.992264, 133, 405, 164, 436
-0.99227, 361, 325, 392, 356
-0.992275, 9, 413, 40, 444
-0.992276, 113, 437, 144, 468
-0.992279, 361, 357, 392, 388
-0.992302, 189, 433, 220, 464
-0.992311, 357, 421, 388, 452
-0.992315, 5, 425, 36, 456
-0.992317, 1, 257, 405, 320
-0.992327, 269, 429, 300, 460
-0.992337, 165, 401, 196, 432
-0.992341, 169, 365, 200, 396
-0.992346, 97, 241, 352, 304
-0.992347, 245, 357, 276, 388
-0.992351, 29, 217, 60, 248
-0.992354, 293, 329, 324, 360
-0.992356, 149, 161, 180, 192
-0.992358, 141, 173, 172, 204
-0.99236, 9, 241, 40, 272
-0.992366, 169, 329, 200, 360
-0.992369, 29, 137, 60, 168
-0.99238, 97, 437, 224, 468
-0.992381, 113, 141, 144, 172
-0.992383, 13, 141, 44, 172
-0.992383, 129, 329, 160, 360
-0.992384, 17, 229, 48, 260
-0.992386, 69, 333, 100, 364
-0.992393, 249, 397, 280, 428
-0.992394, 93, 321, 124, 352
-0.9924, 125, 173, 156, 204
-0.992401, 29, 241, 60, 272
-0.992404, 97, 365, 128, 396
-0.992406, 169, 437, 200, 468
-0.992418, 33, 313, 288, 376
-0.992418, 29, 205, 60, 236
-0.992429, 177, 209, 208, 240
-0.992429, 217, 105, 248, 136
-0.992438, 225, 429, 256, 460
-0.992439, 281, 361, 312, 392
-0.992441, 149, 433, 180, 464
-0.992445, 129, 333, 256, 364
-0.992451, 73, 133, 104, 164
-0.992455, 141, 197, 172, 228
-0.992456, 33, 185, 64, 216
-0.992461, 185, 401, 216, 432
-0.992462, 257, 329, 288, 360
-0.992464, 21, 401, 52, 432
-0.992464, 103, 353, 118, 416
-0.99247, 9, 389, 40, 420
-0.992473, 357, 401, 388, 432
-0.992478, 81, 345, 112, 376
-0.99248, 21, 413, 52, 444
-0.992484, 101, 333, 132, 364
-0.992485, 201, 193, 232, 224
-0.992492, 17, 277, 48, 308
-0.992493, 1, 117, 32, 148
-0.992498, 237, 433, 268, 464
-0.992502, 161, 361, 288, 392
-0.992509, 205, 177, 236, 208
-0.992509, 273, 337, 304, 368
-0.992516, 345, 401, 376, 432
-0.99252, 25, 289, 56, 320
-0.992522, 17, 217, 48, 248
-0.992524, 161, 193, 192, 224
-0.992527, 205, 93, 236, 124
-0.992528, 373, 325, 404, 356
-0.992529, 281, 397, 312, 428
-0.992531, 285, 341, 316, 372
-0.992533, 129, 417, 160, 448
-0.992534, 113, 405, 144, 436
-0.992536, 9, 401, 40, 432
-0.992541, 17, 205, 48, 236
-0.992543, 161, 433, 288, 464
-0.992549, 249, 257, 280, 288
-0.992551, 177, 413, 208, 444
-0.992552, 97, 297, 128, 328
-0.992554, 1, 361, 405, 424
-0.992555, 29, 425, 60, 456
-0.992556, 165, 169, 196, 200
-0.992559, 69, 365, 100, 396
-0.99256, 117, 345, 148, 376
-0.992565, 225, 401, 256, 432
-0.992565, 345, 429, 376, 460
-0.992573, 25, 125, 56, 156
-0.992573, 153, 365, 184, 396
-0.992578, 281, 177, 312, 208
-0.992578, 1, 137, 32, 168
-0.992579, 93, 385, 124, 416
-0.992579, 5, 277, 36, 308
-0.992585, 281, 429, 312, 460
-0.992589, 193, 329, 224, 360
-0.992591, 9, 301, 40, 332
-0.992594, 5, 313, 36, 344
-0.992599, 141, 333, 172, 364
-0.9926, 265, 357, 296, 388
-0.992602, 135, 337, 150, 400
-0.992613, 1, 149, 32, 180
-0.992614, 185, 177, 216, 208
-0.992615, 9, 289, 40, 320
-0.992617, 69, 349, 100, 380
-0.992619, 5, 229, 36, 260
-0.99262, 101, 353, 132, 384
-0.992621, 85, 333, 116, 364
-0.992622, 149, 185, 180, 216
-0.992631, 125, 161, 156, 192
-0.992634, 85, 441, 116, 472
-0.992635, 29, 149, 60, 180
-0.992636, 69, 197, 100, 228
-0.99264, 245, 333, 276, 364
-0.992643, 145, 405, 176, 436
-0.992644, 341, 357, 372, 388
-0.992644, 73, 317, 104, 348
-0.992646, 13, 153, 44, 184
-0.992653, 49, 153, 80, 184
-0.992653, 109, 317, 140, 348
-0.992655, 37, 117, 68, 148
-0.99266, 237, 409, 268, 440
-0.992662, 49, 173, 80, 204
-0.992664, 277, 325, 308, 356
-0.992666, 293, 433, 324, 464
-0.992667, 89, 405, 120, 436
-0.992668, 301, 157, 332, 188
-0.992669, 9, 193, 40, 224
-0.992674, 89, 309, 120, 340
-0.992676, 29, 277, 60, 308
-0.99268, 107, 321, 122, 384
-0.992681, 21, 381, 52, 412
-0.992683, 373, 357, 404, 388
-0.992711, 113, 169, 240, 200
-0.992821, 1, 249, 256, 312
-0.992869, 131, 409, 146, 472
-0.99288, 145, 189, 272, 220
-0.992886, 209, 65, 224, 128
-0.992889, 161, 401, 288, 432
-0.992889, 17, 441, 144, 472
-0.992897, 73, 337, 88, 400
-0.992967, 97, 365, 224, 396
-0.99298, 65, 49, 320, 112
-0.993013, 241, 429, 368, 460
-0.993048, 143, 337, 158, 400
-0.993148, 151, 337, 166, 400
-0.993174, 359, 329, 374, 392
-0.99319, 1, 121, 405, 184
-0.993205, 97, 405, 224, 436
-0.993216, 167, 337, 182, 400
-0.993239, 359, 401, 374, 464
-0.993288, 73, 49, 136, 176
-0.993313, 159, 337, 174, 400
-0.993313, 65, 73, 320, 136
-0.993315, 259, 401, 274, 464
-0.993349, 65, 201, 192, 232
-0.993356, 125, 409, 140, 472
-0.993374, 243, 401, 258, 464
-0.993374, 285, 409, 300, 472
-0.993378, 113, 217, 240, 248
-0.993391, 273, 393, 288, 456
-0.993425, 161, 413, 288, 444
-0.993426, 217, 89, 232, 152
-0.993428, 273, 357, 400, 388
-0.99344, 257, 329, 384, 360
-0.993452, 389, 329, 404, 392
-0.993461, 161, 49, 405, 112
-0.993472, 97, 185, 224, 216
-0.993479, 145, 201, 272, 232
-0.993481, 203, 65, 218, 128
-0.993501, 295, 401, 310, 464
-0.993504, 167, 177, 182, 240
-0.99352, 65, 173, 192, 204
-0.993537, 373, 329, 388, 392
-0.993541, 99, 377, 114, 440
-0.993568, 383, 329, 398, 392
-0.993577, 33, 333, 160, 364
-0.993632, 157, 177, 172, 240
-0.993639, 161, 69, 288, 100
-0.993652, 183, 409, 198, 472
-0.993673, 33, 161, 160, 192
-0.99368, 185, 337, 200, 400
-0.993684, 137, 313, 152, 376
-0.993687, 81, 329, 208, 360
-0.993697, 81, 149, 208, 180
-0.993708, 249, 409, 264, 472
-0.993715, 17, 429, 144, 460
-0.993715, 49, 365, 176, 396
-0.993731, 279, 393, 294, 456
-0.993746, 365, 329, 380, 392
-0.993748, 225, 65, 240, 128
-0.993755, 49, 409, 176, 440
-0.993756, 267, 401, 282, 464
-0.993757, 31, 409, 46, 472
-0.993767, 217, 65, 232, 128
-0.99377, 207, 89, 222, 152
-0.993792, 129, 321, 144, 384
-0.993812, 173, 337, 188, 400
-0.993812, 109, 353, 124, 416
-0.993847, 367, 393, 382, 456
-0.993865, 379, 393, 394, 456
-0.993876, 353, 329, 368, 392
-0.993878, 49, 317, 176, 348
-0.99388, 209, 413, 336, 444
-0.993895, 193, 329, 320, 360
-0.993902, 387, 393, 402, 456
-0.993915, 177, 177, 304, 208
-0.993972, 113, 329, 128, 392
-0.993981, 5, 113, 20, 176
-0.993994, 49, 289, 176, 320
-0.994002, 81, 321, 96, 384
-0.994014, 273, 401, 400, 432
-0.994022, 33, 145, 160, 176
-0.99403, 179, 337, 194, 400
-0.994039, 159, 153, 174, 216
-0.994076, 139, 409, 154, 472
-0.994087, 353, 401, 368, 464
-0.994088, 71, 361, 86, 424
-0.994102, 189, 409, 204, 472
-0.994105, 97, 421, 224, 452
-0.994108, 1, 65, 128, 128
-0.994145, 237, 401, 252, 464
-0.99416, 177, 221, 304, 252
-0.994174, 275, 417, 290, 480
-0.994175, 97, 345, 224, 376
-0.994178, 373, 393, 388, 456
-0.994183, 21, 417, 36, 480
-0.994185, 99, 297, 114, 360
-0.994188, 147, 409, 162, 472
-0.994188, 105, 377, 120, 440
-0.994197, 105, 409, 120, 472
-0.994204, 1, 25, 256, 88
-0.994232, 95, 409, 110, 472
-0.994241, 135, 361, 150, 424
-0.99427, 277, 329, 292, 392
-0.994278, 13, 417, 28, 480
-0.994279, 119, 329, 134, 392
-0.994318, 145, 109, 272, 140
-0.994319, 231, 417, 246, 480
-0.994337, 119, 417, 134, 480
-0.994341, 113, 305, 128, 368
-0.994352, 97, 353, 112, 416
-0.994375, 141, 361, 156, 424
-0.994386, 193, 121, 320, 152
-0.994388, 1, 89, 405, 152
-0.994412, 287, 329, 302, 392
-0.994421, 151, 361, 166, 424
-0.994427, 49, 213, 176, 244
-0.994439, 359, 361, 374, 424
-0.994443, 225, 109, 352, 140
-0.994446, 33, 225, 160, 256
-0.994458, 163, 409, 178, 472
-0.994463, 225, 209, 352, 240
-0.994467, 295, 329, 310, 392
-0.994475, 1, 97, 256, 160
-0.994477, 161, 345, 288, 376
-0.994489, 149, 161, 164, 224
-0.99449, 73, 313, 88, 376
-0.9945, 191, 337, 206, 400
-0.994502, 71, 401, 86, 464
-0.994513, 85, 409, 100, 472
-0.994517, 153, 409, 168, 472
-0.994518, 45, 129, 60, 192
-0.994526, 173, 409, 188, 472
-0.994533, 329, 193, 344, 256
-0.994537, 49, 185, 176, 216
-0.994539, 11, 153, 26, 216
-0.994545, 225, 197, 352, 228
-0.99456, 257, 173, 384, 204
-0.994565, 1, 209, 16, 272
-0.994572, 365, 353, 380, 416
-0.994579, 281, 353, 296, 416
-0.994581, 209, 361, 336, 392
-0.994587, 257, 229, 384, 260
-0.994588, 167, 361, 182, 424
-0.994588, 81, 449, 208, 480
-0.994595, 39, 409, 54, 472
-0.994596, 337, 193, 352, 256
-0.994609, 157, 361, 172, 424
-0.994613, 143, 305, 158, 368
-0.994615, 199, 209, 214, 272
-0.994629, 79, 353, 94, 416
-0.994636, 225, 401, 352, 432
-0.994638, 95, 321, 110, 384
-0.994651, 139, 161, 154, 224
-0.994656, 113, 417, 128, 480
-0.994666, 129, 17, 384, 80
-0.994699, 173, 177, 188, 240
-0.99471, 375, 353, 390, 416
-0.994719, 49, 245, 176, 276
-0.994722, 267, 353, 282, 416
-0.994722, 185, 369, 200, 432
-0.994723, 93, 377, 108, 440
-0.994732, 163, 217, 178, 280
-0.994735, 37, 121, 52, 184
-0.994743, 97, 377, 224, 408
-0.994747, 49, 269, 176, 300
-0.994749, 209, 345, 336, 376
-0.994751, 145, 125, 272, 156
-0.994756, 7, 289, 22, 352
-0.994763, 173, 209, 188, 272
-0.994774, 323, 193, 338, 256
-0.994775, 125, 129, 140, 192
-0.994778, 235, 113, 250, 176
-0.994781, 33, 133, 160, 164
-0.994784, 275, 369, 290, 432
-0.994785, 165, 225, 196, 480
-0.994793, 387, 369, 402, 432
-0.994798, 97, 129, 224, 160
-0.994809, 261, 329, 276, 392
-0.994812, 193, 97, 320, 128
-0.994816, 39, 289, 54, 352
-0.994841, 11, 225, 26, 288
-0.99485, 177, 165, 304, 196
-0.994854, 255, 337, 270, 400
-0.994856, 177, 233, 304, 264
-0.994857, 289, 385, 304, 448
-0.994859, 97, 277, 224, 308
-0.994859, 161, 445, 288, 476
-0.994884, 225, 409, 240, 472
-0.994886, 267, 329, 282, 392
-0.994888, 113, 81, 240, 112
-0.994889, 129, 225, 144, 288
-0.994896, 129, 157, 256, 188
-0.994897, 133, 145, 148, 208
-0.994898, 209, 441, 336, 472
-0.994898, 255, 377, 270, 440
-0.994917, 257, 157, 384, 188
-0.994932, 51, 113, 66, 176
-0.994933, 89, 321, 104, 384
-0.994955, 129, 361, 144, 424
-0.994961, 183, 185, 198, 248
-0.994977, 49, 305, 176, 336
-0.994985, 125, 161, 156, 416
-0.994987, 25, 289, 40, 352
-0.994998, 343, 193, 358, 256
-0.994998, 49, 257, 176, 288
-0.995029, 381, 353, 396, 416
-0.99505, 225, 185, 352, 216
-0.995054, 273, 341, 400, 372
-0.995112, 185, 193, 216, 448
-0.995129, 161, 53, 288, 84
-0.995131, 273, 413, 400, 444
-0.995141, 161, 373, 288, 404
-0.995148, 161, 265, 405, 328
-0.995297, 97, 317, 224, 348
-0.995311, 113, 69, 240, 100
-0.995337, 49, 377, 176, 408
-0.995359, 49, 345, 176, 376
-0.995365, 177, 81, 304, 112
-0.995374, 97, 117, 224, 148
-0.995377, 17, 397, 144, 428
-0.995426, 161, 137, 288, 168
-0.995493, 273, 113, 400, 144
-0.995501, 149, 161, 180, 416
-0.99553, 97, 393, 224, 424
-0.995599, 181, 97, 212, 352
-0.995607, 209, 69, 336, 100
-0.995643, 197, 161, 228, 416
-0.995658, 113, 93, 240, 124
-0.995708, 1, 57, 405, 120
-0.995739, 5, 97, 36, 352
-0.99574, 225, 137, 352, 168
-0.995777, 193, 277, 320, 308
-0.995805, 17, 13, 144, 44
-0.995843, 97, 265, 224, 296
-0.995904, 193, 65, 224, 320
-0.995951, 145, 269, 272, 300
-0.995961, 17, 97, 48, 352
-0.995963, 241, 125, 368, 156
-0.995975, 1, 417, 128, 448
-0.995978, 53, 1, 84, 256
-0.995999, 177, 149, 304, 180
-0.996009, 273, 369, 400, 400
-0.996011, 177, 253, 304, 284
-0.996026, 25, 193, 56, 448
-0.996053, 113, 225, 144, 480
-0.996101, 1, 301, 128, 332
-0.996123, 169, 129, 200, 384
-0.996125, 225, 317, 352, 348
-0.996146, 209, 1, 240, 256
-0.996227, 225, 241, 352, 272
-0.996261, 273, 193, 304, 448
-0.996271, 73, 1, 104, 256
-0.996312, 97, 229, 224, 260
-0.996317, 97, 57, 224, 88
-0.996325, 225, 1, 352, 32
-0.99634, 53, 129, 84, 384
-0.996348, 209, 57, 336, 88
-0.996353, 97, 249, 224, 280
-0.996385, 341, 129, 372, 384
-0.996438, 33, 121, 160, 152
-0.996461, 137, 161, 168, 416
-0.996463, 17, 173, 144, 204
-0.996468, 77, 97, 108, 352
-0.996475, 1, 209, 128, 240
-0.996482, 261, 225, 292, 480
-0.996493, 225, 253, 352, 284
-0.996498, 17, 1, 144, 32
-0.996515, 145, 281, 272, 312
-0.996518, 241, 389, 368, 420
-0.996518, 273, 185, 400, 216
-0.996563, 1, 365, 128, 396
-0.996572, 129, 293, 256, 324
-0.996598, 81, 1, 208, 32
-0.99664, 29, 97, 60, 352
-0.996647, 177, 317, 304, 348
-0.996656, 209, 161, 240, 416
-0.996687, 281, 1, 312, 256
-0.996691, 65, 193, 96, 448
-0.996694, 107, 349, 122, 380
-0.996711, 273, 213, 400, 244
-0.996717, 177, 9, 304, 40
-0.996748, 33, 1, 288, 64
-0.996767, 23, 445, 38, 476
-0.996767, 293, 161, 324, 416
-0.996771, 193, 289, 320, 320
-0.9968, 159, 177, 174, 208
-0.996813, 109, 129, 140, 384
-0.996843, 1, 197, 128, 228
-0.996846, 3, 445, 18, 476
-0.996848, 15, 441, 30, 472
-0.996859, 209, 373, 336, 404
-0.996859, 17, 1, 48, 256
-0.996866, 273, 101, 400, 132
-0.996871, 31, 425, 46, 456
-0.996879, 133, 33, 164, 288
-0.996881, 309, 1, 340, 256
-0.996882, 127, 329, 142, 360
-0.996898, 73, 333, 88, 364
-0.996916, 21, 421, 36, 452
-0.996927, 29, 1, 60, 256
-0.99693, 145, 1, 176, 256
-0.996938, 11, 137, 26, 168
-0.996946, 133, 437, 148, 468
-0.996948, 229, 129, 260, 384
-0.996959, 77, 193, 108, 448
-0.99698, 177, 389, 304, 420
-0.996996, 89, 1, 120, 256
-0.997005, 121, 1, 152, 256
-0.997007, 257, 441, 384, 472
-0.997012, 81, 333, 96, 364
-0.997012, 273, 197, 400, 228
-0.997012, 123, 437, 138, 468
-0.997021, 181, 1, 212, 256
-0.997026, 213, 93, 228, 124
-0.997033, 225, 81, 352, 112
-0.997039, 273, 97, 304, 352
-0.997043, 191, 433, 206, 464
-0.997048, 97, 193, 128, 448
-0.997059, 135, 365, 150, 396
-0.997061, 369, 129, 400, 384
-0.997065, 105, 365, 120, 396
-0.997081, 107, 333, 122, 364
-0.997089, 73, 345, 88, 376
-0.99709, 31, 413, 46, 444
-0.997097, 249, 225, 280, 480
-0.997099, 41, 129, 72, 384
-0.997101, 165, 1, 196, 256
-0.99712, 33, 105, 160, 136
-0.997129, 9, 225, 40, 480
-0.997139, 43, 189, 58, 220
-0.99714, 273, 65, 400, 96
-0.997146, 41, 1, 72, 256
-0.997149, 207, 181, 222, 212
-0.997151, 257, 129, 288, 384
-0.997152, 5, 1, 36, 256
-0.997153, 13, 429, 28, 460
-0.997156, 183, 437, 198, 468
-0.997162, 5, 137, 20, 168
-0.997163, 97, 105, 224, 136
-0.997165, 133, 405, 148, 436
-0.997169, 137, 333, 152, 364
-0.997174, 37, 425, 52, 456
-0.997185, 361, 357, 376, 388
-0.997187, 353, 129, 384, 384
-0.997199, 37, 445, 52, 476
-0.997203, 37, 137, 52, 168
-0.997205, 41, 209, 56, 240
-0.997213, 181, 401, 196, 432
-0.997214, 1, 313, 128, 344
-0.997219, 71, 365, 86, 396
-0.997219, 295, 329, 310, 360
-0.997244, 225, 225, 256, 480
-0.997247, 183, 329, 198, 360
-0.997251, 239, 429, 254, 460
-0.997255, 141, 437, 156, 468
-0.997255, 115, 333, 130, 364
-0.997259, 183, 365, 198, 396
-0.997267, 249, 341, 264, 372
-0.997284, 329, 129, 360, 384
-0.997287, 9, 237, 24, 268
-0.997293, 363, 325, 378, 356
-0.997296, 245, 97, 276, 352
-0.997297, 1, 1, 405, 64
-0.997303, 251, 429, 266, 460
-0.997321, 213, 173, 228, 204
-0.997335, 169, 177, 184, 208
-0.997336, 5, 117, 20, 148
-0.997354, 41, 229, 56, 260
-0.997355, 27, 137, 42, 168
-0.997366, 151, 433, 166, 464
-0.997369, 351, 421, 366, 452
-0.997374, 265, 329, 280, 360
-0.997381, 35, 229, 50, 260
-0.997391, 259, 429, 274, 460
-0.997392, 247, 401, 262, 432
-0.997394, 133, 321, 148, 352
-0.997397, 21, 137, 36, 168
-0.997397, 35, 205, 50, 236
-0.997398, 355, 401, 370, 432
-0.997403, 99, 365, 114, 396
-0.997412, 205, 193, 220, 224
-0.997412, 201, 73, 216, 104
-0.997416, 69, 429, 84, 460
-0.997418, 189, 401, 204, 432
-0.997419, 257, 341, 272, 372
-0.997419, 157, 189, 172, 220
-0.997425, 125, 365, 140, 396
-0.997427, 29, 437, 44, 468
-0.997429, 153, 365, 168, 396
-0.997432, 245, 437, 260, 468
-0.997432, 349, 33, 380, 288
-0.997434, 123, 405, 138, 436
-0.997453, 361, 421, 376, 452
-0.997457, 275, 341, 290, 372
-0.99746, 381, 357, 396, 388
-0.997465, 5, 149, 20, 180
-0.997468, 117, 437, 132, 468
-0.997472, 29, 449, 44, 480
-0.997476, 111, 365, 126, 396
-0.997476, 243, 341, 258, 372
-0.997477, 381, 325, 396, 356
-0.997479, 305, 193, 336, 448
-0.997482, 159, 365, 174, 396
-0.997495, 147, 365, 162, 396
-0.997497, 161, 165, 176, 196
-0.997498, 141, 365, 156, 396
-0.997499, 175, 209, 190, 240
-0.9975, 389, 357, 404, 388
-0.997501, 297, 1, 328, 256
-0.997501, 207, 165, 222, 196
-0.997508, 169, 365, 184, 396
-0.997509, 129, 173, 144, 204
-0.997514, 185, 413, 200, 444
-0.997517, 217, 105, 232, 136
-0.997527, 255, 361, 270, 392
-0.997528, 373, 325, 388, 356
-0.997529, 321, 33, 352, 288
-0.997533, 373, 357, 388, 388
-0.997533, 273, 429, 288, 460
-0.997534, 389, 421, 404, 452
-0.997538, 3, 417, 18, 448
-0.997539, 153, 405, 168, 436
-0.997539, 361, 393, 376, 424
-0.99754, 1, 245, 16, 276
-0.99754, 113, 285, 128, 316
-0.997542, 45, 125, 60, 156
-0.997543, 265, 345, 280, 376
-0.997547, 19, 245, 34, 276
-0.997549, 159, 401, 174, 432
-0.99755, 387, 325, 402, 356
-0.99755, 141, 405, 156, 436
-0.997552, 167, 161, 182, 192
-0.99756, 271, 329, 286, 360
-0.997569, 99, 313, 114, 344
-0.997572, 43, 137, 58, 168
-0.997573, 17, 149, 32, 180
-0.997574, 69, 445, 84, 476
-0.997581, 175, 401, 190, 432
-0.997582, 157, 433, 172, 464
-0.997585, 167, 201, 182, 232
-0.997589, 265, 429, 280, 460
-0.997592, 381, 421, 396, 452
-0.997597, 353, 357, 368, 388
-0.997599, 367, 357, 382, 388
-0.997599, 295, 429, 310, 460
-0.997606, 173, 433, 188, 464
-0.997609, 269, 1, 300, 256
-0.997612, 165, 401, 180, 432
-0.997613, 295, 361, 310, 392
-0.997615, 109, 317, 124, 348
-0.997615, 11, 117, 26, 148
-0.997617, 123, 141, 138, 172
-0.997619, 145, 169, 160, 200
-0.99762, 181, 201, 196, 232
-0.997624, 287, 345, 302, 376
-0.997656, 101, 1, 132, 256
-0.997731, 333, 1, 364, 256
-0.997738, 65, 97, 96, 352
-0.997739, 221, 33, 252, 288
-0.997774, 237, 225, 268, 480
-0.997827, 337, 225, 368, 480
-0.997918, 361, 33, 392, 288
-0.997928, 317, 193, 348, 448
-0.998041, 45, 225, 76, 480
-0.998132, 237, 1, 268, 256
-0.998202, 357, 225, 388, 480
-0.998244, 257, 1, 288, 256
-0.99834, 161, 191, 224, 206
-0.998369, 249, 431, 312, 446
-0.998405, 121, 173, 184, 188
-0.998406, 65, 157, 128, 172
-0.998423, 249, 337, 312, 352
-0.998424, 65, 325, 128, 340
-0.998426, 265, 331, 328, 346
-0.998431, 153, 185, 216, 200
-0.998433, 97, 153, 160, 168
-0.998444, 185, 365, 248, 380
-0.998446, 129, 437, 192, 452
-0.998447, 81, 441, 144, 456
-0.998449, 241, 407, 304, 422
-0.998449, 89, 333, 152, 348
-0.99845, 153, 197, 216, 212
-0.998452, 25, 233, 88, 248
-0.998454, 137, 211, 200, 226
-0.998457, 153, 217, 216, 232
-0.998462, 81, 367, 144, 382
-0.998465, 177, 177, 240, 192
-0.998466, 129, 407, 192, 422
-0.998467, 121, 449, 184, 464
-0.998468, 305, 97, 336, 352
-0.998468, 57, 359, 120, 374
-0.99847, 257, 401, 320, 416
-0.998472, 89, 97, 120, 352
-0.998472, 193, 71, 256, 86
-0.998473, 33, 201, 96, 216
-0.998474, 305, 157, 368, 172
-0.998475, 161, 203, 224, 218
-0.998479, 313, 329, 376, 344
-0.998479, 25, 227, 88, 242
-0.998481, 145, 367, 208, 382
-0.998483, 25, 241, 88, 256
-0.998483, 177, 183, 240, 198
-0.998484, 153, 179, 216, 194
-0.998487, 89, 325, 152, 340
-0.998489, 321, 429, 384, 444
-0.998489, 25, 219, 88, 234
-0.99849, 153, 437, 216, 452
-0.99849, 161, 161, 224, 176
-0.99849, 201, 433, 264, 448
-0.99849, 9, 459, 72, 474
-0.998491, 241, 437, 304, 452
-0.998491, 33, 447, 96, 462
-0.998492, 145, 333, 208, 348
-0.998492, 65, 315, 128, 330
-0.998493, 89, 319, 152, 334
-0.998495, 245, 437, 276, 452
-0.998495, 109, 407, 140, 422
-0.998496, 17, 187, 48, 202
-0.998496, 201, 175, 232, 190
-0.998496, 9, 153, 40, 168
-0.998496, 161, 171, 224, 186
-0.998497, 29, 447, 60, 462
-0.998497, 285, 175, 316, 190
-0.998497, 89, 147, 152, 162
-0.998497, 265, 437, 328, 452
-0.998497, 57, 143, 120, 158
-0.998497, 201, 97, 232, 112
-0.998498, 357, 335, 388, 350
-0.998499, 145, 199, 176, 214
-0.998499, 57, 151, 120, 166
-0.9985, 177, 197, 240, 212
-0.9985, 25, 119, 56, 134
-0.998501, 357, 359, 388, 374
-0.998501, 5, 281, 36, 296
-0.998501, 357, 399, 388, 414
-0.998501, 161, 211, 192, 226
-0.998501, 301, 157, 332, 172
-0.998502, 233, 361, 296, 376
-0.998502, 117, 155, 148, 170
-0.998502, 33, 171, 64, 186
-0.998503, 133, 343, 164, 358
-0.998503, 17, 195, 48, 210
-0.998504, 97, 453, 160, 468
-0.998504, 281, 363, 312, 378
-0.998504, 121, 415, 184, 430
-0.998505, 13, 119, 44, 134
-0.998505, 129, 415, 160, 430
-0.998505, 137, 191, 200, 206
-0.998505, 137, 203, 200, 218
-0.998505, 81, 407, 144, 422
-0.998506, 17, 407, 48, 422
-0.998506, 225, 433, 256, 448
-0.998507, 65, 331, 128, 346
-0.998507, 29, 149, 60, 164
-0.998507, 145, 193, 176, 208
-0.998508, 245, 409, 276, 424
-0.998509, 105, 153, 136, 168
-0.998509, 1, 235, 64, 250
-0.998509, 273, 337, 336, 352
-0.998509, 17, 211, 48, 226
-0.998509, 25, 187, 88, 202
-0.998509, 9, 377, 40, 392
-0.99851, 269, 431, 300, 446
-0.99851, 129, 449, 160, 464
-0.998511, 357, 329, 388, 344
-0.998511, 21, 399, 52, 414
-0.998511, 133, 257, 164, 272
-0.998512, 9, 385, 40, 400
-0.998512, 145, 155, 208, 170
-0.998513, 17, 233, 48, 248
-0.998513, 69, 201, 100, 216
-0.998513, 121, 185, 184, 200
-0.998513, 137, 149, 200, 164
-0.998513, 17, 247, 48, 262
-0.998513, 145, 171, 176, 186
-0.998513, 181, 205, 212, 220
-0.998513, 313, 199, 376, 214
-0.998514, 193, 79, 256, 94
-0.998514, 17, 223, 48, 238
-0.998514, 273, 431, 336, 446
-0.998514, 25, 287, 56, 302
-0.998515, 33, 195, 96, 210
-0.998516, 9, 303, 40, 318
-0.998516, 169, 405, 200, 420
-0.998516, 153, 261, 216, 276
-0.998517, 313, 199, 344, 214
-0.998517, 9, 371, 40, 386
-0.998517, 129, 341, 192, 356
-0.998517, 125, 173, 156, 188
-0.998517, 241, 355, 304, 370
-0.998518, 29, 223, 60, 238
-0.998518, 121, 373, 184, 388
-0.998518, 121, 157, 184, 172
-0.998518, 49, 159, 80, 174
-0.998518, 193, 111, 256, 126
-0.998519, 201, 181, 232, 196
-0.998519, 257, 363, 320, 378
-0.998519, 49, 399, 112, 414
-0.99852, 345, 431, 405, 446
-0.99852, 169, 367, 200, 382
-0.99852, 201, 403, 264, 418
-0.99852, 321, 365, 384, 380
-0.99852, 149, 187, 180, 202
-0.99852, 5, 431, 36, 446
-0.998521, 341, 361, 372, 376
-0.998521, 25, 309, 56, 324
-0.998522, 129, 155, 160, 170
-0.998523, 121, 367, 184, 382
-0.998523, 109, 441, 140, 456
-0.998523, 357, 423, 388, 438
-0.998523, 245, 363, 276, 378
-0.998523, 185, 339, 248, 354
-0.998524, 25, 273, 56, 288
-0.998524, 1, 401, 32, 416
-0.998524, 161, 175, 192, 190
-0.998524, 17, 281, 48, 296
-0.998525, 5, 425, 36, 440
-0.998525, 169, 333, 200, 348
-0.998525, 185, 333, 248, 348
-0.998526, 133, 367, 164, 382
-0.998527, 121, 333, 184, 348
-0.998528, 357, 433, 388, 448
-0.998528, 29, 247, 60, 262
-0.998528, 81, 135, 144, 150
-0.998529, 281, 429, 312, 444
-0.998529, 73, 301, 136, 316
-0.998529, 341, 399, 372, 414
-0.99853, 185, 443, 248, 458
-0.998531, 113, 145, 176, 160
-0.998531, 65, 385, 128, 400
-0.998532, 1, 147, 32, 162
-0.998532, 105, 381, 168, 396
-0.998533, 345, 425, 405, 440
-0.998533, 317, 153, 348, 168
-0.998534, 161, 209, 224, 224
-0.998534, 185, 191, 248, 206
-0.998534, 289, 331, 352, 346
-0.998534, 109, 367, 140, 382
-0.998534, 129, 407, 160, 422
-0.998535, 41, 209, 104, 224
-0.998535, 9, 217, 40, 232
-0.998535, 201, 49, 216, 176
-0.998536, 233, 347, 296, 362
-0.998536, 121, 179, 184, 194
-0.998536, 313, 401, 376, 416
-0.998537, 165, 203, 196, 218
-0.998537, 189, 435, 220, 450
-0.998537, 33, 453, 96, 468
-0.998537, 1, 445, 64, 460
-0.998538, 245, 355, 276, 370
-0.99854, 121, 257, 184, 272
-0.99854, 241, 331, 304, 346
-0.998541, 1, 119, 32, 134
-0.998541, 33, 171, 96, 186
-0.998541, 1, 241, 64, 256
-0.998542, 177, 435, 240, 450
-0.998542, 41, 327, 104, 342
-0.998542, 57, 353, 120, 368
-0.998542, 25, 163, 88, 178
-0.998542, 121, 443, 184, 458
-0.998542, 169, 437, 200, 452
-0.998543, 25, 417, 56, 432
-0.998543, 169, 65, 232, 80
-0.998543, 177, 411, 240, 426
-0.998543, 177, 403, 240, 418
-0.998543, 321, 435, 384, 450
-0.998543, 97, 307, 160, 322
-0.998543, 33, 201, 64, 216
-0.998544, 57, 137, 120, 152
-0.998544, 113, 193, 176, 208
-0.998544, 313, 231, 376, 246
-0.998545, 253, 347, 284, 362
-0.998545, 69, 155, 100, 170
-0.998545, 81, 361, 144, 376
-0.998545, 33, 177, 96, 192
-0.998546, 213, 107, 244, 122
-0.998546, 113, 333, 144, 348
-0.998547, 161, 195, 192, 210
-0.998547, 193, 333, 224, 348
-0.998547, 193, 85, 256, 100
-0.998547, 21, 441, 52, 456
-0.998547, 121, 117, 184, 132
-0.998547, 1, 139, 32, 154
-0.998547, 161, 145, 224, 160
-0.998547, 149, 263, 180, 278
-0.998548, 241, 195, 304, 210
-0.998548, 161, 445, 224, 460
-0.998548, 217, 119, 280, 134
-0.998548, 273, 203, 336, 218
-0.998549, 89, 325, 120, 340
-0.998549, 265, 345, 296, 360
-0.998549, 273, 339, 304, 354
-0.998549, 9, 393, 40, 408
-0.99855, 313, 205, 376, 220
-0.99855, 265, 325, 328, 340
-0.998551, 169, 75, 232, 90
-0.998552, 97, 343, 160, 358
-0.998552, 13, 143, 44, 158
-0.998553, 185, 197, 216, 212
-0.998554, 85, 155, 116, 170
-0.998554, 33, 187, 64, 202
-0.998554, 261, 355, 292, 370
-0.998555, 33, 141, 64, 156
-0.998556, 165, 161, 180, 288
-0.998557, 29, 211, 60, 226
-0.998557, 281, 401, 312, 416
-0.998564, 177, 211, 208, 226
-0.998566, 129, 437, 160, 452
-0.998568, 149, 177, 180, 192
-0.998569, 29, 425, 60, 440
-0.99857, 25, 435, 56, 450
-0.99857, 25, 453, 56, 468
-0.99857, 13, 457, 44, 472
-0.99857, 33, 195, 64, 210
-0.998573, 9, 419, 40, 434
-0.998573, 249, 403, 280, 418
-0.998586, 29, 235, 60, 250
-0.998586, 165, 187, 196, 202
-0.998587, 209, 69, 240, 84
-0.998596, 11, 129, 26, 256
-0.998598, 29, 217, 60, 232
-0.998603, 41, 177, 56, 304
-0.998605, 373, 1, 404, 256
-0.998622, 215, 49, 230, 176
-0.998626, 249, 431, 280, 446
-0.998627, 9, 241, 40, 256
-0.99863, 289, 333, 320, 348
-0.998641, 1, 455, 32, 470
-0.998645, 209, 65, 224, 192
-0.998648, 29, 241, 60, 256
-0.99865, 159, 177, 174, 304
-0.998653, 9, 209, 24, 336
-0.998656, 9, 439, 40, 454
-0.998658, 185, 191, 216, 206
-0.99866, 165, 181, 196, 196
-0.998663, 41, 225, 56, 352
-0.998676, 1, 449, 32, 464
-0.998678, 17, 447, 48, 462
-0.998685, 17, 425, 48, 440
-0.998693, 173, 161, 188, 288
-0.998703, 171, 209, 186, 336
-0.998709, 33, 177, 48, 304
-0.998711, 3, 113, 18, 240
-0.998718, 35, 129, 50, 256
-0.998722, 155, 129, 170, 256
-0.998738, 19, 129, 34, 256
-0.998767, 203, 97, 218, 224
-0.998783, 165, 209, 180, 336
-0.998796, 121, 241, 136, 368
-0.9988, 197, 225, 212, 352
-0.998809, 179, 177, 194, 304
-0.998813, 19, 177, 34, 304
-0.998819, 127, 113, 142, 240
-0.998827, 209, 113, 224, 240
-0.998832, 43, 129, 58, 256
-0.998832, 227, 65, 242, 192
-0.998837, 205, 1, 220, 128
-0.998841, 1, 177, 16, 304
-0.998845, 47, 177, 62, 304
-0.99886, 199, 1, 214, 128
-0.998876, 93, 305, 108, 432
-0.99888, 219, 113, 234, 240
-0.998882, 33, 225, 48, 352
-0.998884, 25, 225, 40, 352
-0.998887, 11, 81, 26, 208
-0.998891, 195, 113, 210, 240
-0.998895, 149, 257, 164, 384
-0.998909, 127, 241, 142, 368
-0.998909, 249, 353, 264, 480
-0.99891, 117, 129, 132, 256
-0.998911, 149, 177, 164, 304
-0.998913, 51, 129, 66, 256
-0.998919, 131, 193, 146, 320
-0.99892, 223, 1, 238, 128
-0.99893, 25, 177, 40, 304
-0.99893, 285, 97, 300, 224
-0.998931, 203, 177, 218, 304
-0.998938, 275, 257, 290, 384
-0.998938, 101, 305, 116, 432
-0.998942, 221, 65, 236, 192
-0.998945, 269, 289, 284, 416
-0.998947, 75, 113, 90, 240
-0.998949, 193, 49, 208, 176
-0.998956, 317, 145, 332, 272
-0.998965, 15, 305, 30, 432
-0.998965, 215, 1, 230, 128
-0.998975, 137, 305, 152, 432
-0.998978, 21, 353, 36, 480
-0.998995, 29, 129, 44, 256
-0.998999, 191, 225, 206, 352
-0.998999, 33, 337, 48, 464
-0.999, 115, 241, 130, 368
-0.999002, 139, 193, 154, 320
-0.999004, 323, 145, 338, 272
-0.999005, 127, 321, 142, 448
-0.99901, 149, 129, 164, 256
-0.99901, 349, 161, 364, 288
-0.999013, 141, 145, 156, 272
-0.999015, 233, 49, 248, 176
-0.999015, 369, 225, 400, 480
-0.999018, 355, 113, 370, 240
-0.999018, 135, 145, 150, 272
-0.999019, 21, 81, 36, 208
-0.99902, 115, 305, 130, 432
-0.999025, 297, 97, 312, 224
-0.999026, 27, 81, 42, 208
-0.999027, 107, 273, 122, 400
-0.999029, 371, 113, 386, 240
-0.999031, 39, 353, 54, 480
-0.999036, 121, 177, 136, 304
-0.999044, 331, 97, 346, 224
-0.999046, 359, 1, 374, 128
-0.999047, 73, 305, 88, 432
-0.999048, 19, 225, 34, 352
-0.99905, 5, 353, 20, 480
-0.999052, 141, 257, 156, 384
-0.999055, 333, 145, 348, 272
-0.999056, 309, 97, 324, 224
-0.99906, 25, 273, 40, 400
-0.99906, 347, 1, 362, 128
-0.999061, 353, 1, 368, 128
-0.999065, 281, 177, 296, 304
-0.999066, 339, 145, 354, 272
-0.999067, 309, 145, 324, 272
-0.999071, 1, 241, 16, 368
-0.999074, 13, 353, 28, 480
-0.999076, 1, 25, 405, 88
-0.999076, 159, 225, 174, 352
-0.999078, 345, 113, 360, 240
-0.99908, 81, 305, 96, 432
-0.999089, 315, 97, 330, 224
-0.99909, 233, 129, 248, 256
-0.99909, 263, 241, 278, 368
-0.99909, 87, 305, 102, 432
-0.999094, 365, 161, 380, 288
-0.999097, 281, 289, 296, 416
-0.999102, 323, 97, 338, 224
-0.999105, 295, 145, 310, 272
-0.999106, 39, 273, 54, 400
-0.99911, 303, 145, 318, 272
-0.999111, 249, 289, 264, 416
-0.999115, 67, 145, 82, 272
-0.999124, 229, 1, 244, 128
-0.999125, 121, 321, 136, 448
-0.999129, 275, 337, 290, 464
-0.999129, 7, 257, 22, 384
-0.99913, 255, 305, 270, 432
-0.999133, 337, 1, 352, 128
-0.999134, 167, 257, 182, 384
-0.999136, 33, 273, 48, 400
-0.999139, 135, 97, 150, 224
-0.99914, 195, 177, 210, 304
-0.999142, 171, 1, 186, 128
-0.999145, 185, 161, 200, 288
-0.999147, 191, 1, 206, 128
-0.999149, 203, 257, 218, 384
-0.999151, 271, 177, 286, 304
-0.999153, 227, 113, 242, 240
-0.999154, 135, 257, 150, 384
-0.999159, 1, 289, 16, 416
-0.999159, 85, 129, 100, 256
-0.999161, 287, 145, 302, 272
-0.999662, 257, 349, 272, 364
-0.999662, 11, 431, 26, 446
-0.999663, 79, 439, 94, 454
-0.999663, 73, 335, 88, 350
-0.999663, 73, 447, 88, 462
-0.999664, 359, 397, 374, 412
-0.999664, 21, 157, 36, 172
-0.999664, 35, 225, 50, 240
-0.999666, 193, 231, 208, 246
-0.999666, 81, 201, 96, 216
-0.999666, 13, 117, 28, 132
-0.999667, 1, 277, 16, 292
-0.999667, 217, 109, 232, 124
-0.999667, 133, 415, 148, 430
-0.999667, 29, 119, 44, 134
-0.999667, 43, 203, 58, 218
-0.999667, 39, 331, 54, 346
-0.999667, 167, 259, 182, 274
-0.999668, 297, 171, 312, 186
-0.999669, 239, 433, 254, 448
-0.999669, 39, 309, 54, 324
-0.999669, 361, 367, 376, 382
-0.999669, 21, 377, 36, 392
-0.99967, 145, 171, 160, 186
-0.999671, 361, 425, 376, 440
-0.999672, 29, 417, 44, 432
-0.999672, 351, 361, 366, 376
-0.999672, 133, 373, 148, 388
-0.999673, 251, 343, 266, 358
-0.999673, 361, 329, 376, 344
-0.999673, 361, 359, 376, 374
-0.999673, 273, 431, 288, 446
-0.999674, 135, 367, 150, 382
-0.999674, 45, 425, 60, 440
-0.999674, 233, 157, 248, 172
-0.999674, 157, 199, 172, 214
-0.999675, 269, 331, 284, 346
-0.999675, 207, 181, 222, 196
-0.999676, 267, 353, 282, 368
-0.999676, 37, 417, 52, 432
-0.999676, 281, 327, 296, 342
-0.999677, 283, 341, 298, 356
-0.999677, 5, 135, 20, 150
-0.999678, 191, 237, 206, 252
-0.999678, 13, 415, 28, 430
-0.999678, 41, 235, 56, 250
-0.999679, 127, 171, 142, 186
-0.99968, 153, 261, 168, 276
-0.99968, 3, 243, 18, 258
-0.99968, 359, 405, 374, 420
-0.999681, 43, 169, 58, 184
-0.999682, 161, 185, 176, 200
-0.999682, 133, 407, 148, 422
-0.999682, 5, 151, 20, 166
-0.999683, 123, 441, 138, 456
-0.999684, 183, 335, 198, 350
-0.999684, 209, 189, 224, 204
-0.999684, 319, 153, 334, 168
-0.999684, 49, 141, 64, 156
-0.999684, 11, 193, 26, 208
-0.999685, 21, 419, 36, 434
-0.999687, 33, 277, 48, 292
-0.999687, 349, 399, 364, 414
-0.999688, 7, 311, 22, 326
-0.999688, 35, 231, 50, 246
-0.999688, 135, 341, 150, 356
-0.999691, 213, 183, 228, 198
-0.999692, 181, 437, 196, 452
-0.999692, 263, 347, 278, 362
-0.999692, 3, 423, 18, 438
-0.999693, 25, 239, 40, 254
-0.999693, 227, 115, 242, 130
-0.999695, 3, 441, 18, 456
-0.999695, 11, 141, 26, 156
-0.999696, 43, 143, 58, 158
-0.999696, 27, 143, 42, 158
-0.999696, 45, 149, 60, 164
-0.999697, 39, 439, 54, 454
-0.999698, 35, 187, 50, 202
-0.999698, 223, 105, 238, 120
-0.999699, 43, 211, 58, 226
-0.999699, 89, 155, 104, 170
-0.9997, 183, 205, 198, 220
-0.9997, 21, 141, 36, 156
-0.999701, 19, 451, 34, 466
-0.999701, 23, 309, 38, 324
-0.999702, 45, 187, 60, 202
-0.999702, 13, 447, 28, 462
-0.999705, 181, 405, 196, 420
-0.999706, 35, 207, 50, 222
-0.999708, 213, 177, 228, 192
-0.999709, 133, 439, 148, 454
-0.999709, 3, 453, 18, 468
-0.999709, 165, 173, 180, 188
-0.999711, 125, 333, 140, 348
-0.999712, 183, 367, 198, 382
-0.999712, 45, 125, 60, 140
-0.999713, 159, 193, 174, 208
-0.999714, 295, 331, 310, 346
-0.999715, 37, 139, 52, 154
-0.999716, 247, 407, 262, 422
-0.999722, 27, 447, 42, 462
-0.999725, 27, 149, 42, 164
-0.999727, 203, 191, 218, 206
-0.99973, 37, 445, 52, 460
-0.999732, 219, 179, 234, 194
-0.999735, 39, 423, 54, 438
-0.999735, 43, 217, 58, 232
-0.999738, 43, 193, 58, 208
-0.999739, 41, 241, 56, 256
-0.999739, 13, 459, 28, 474
-0.999742, 9, 241, 24, 256
-0.999742, 33, 423, 48, 438
-0.999744, 27, 453, 42, 468
-0.999745, 13, 437, 28, 452
-0.999747, 107, 351, 122, 366
-0.999749, 5, 141, 20, 156
-0.99975, 13, 123, 28, 138
-0.999751, 5, 117, 20, 132
-0.999754, 33, 429, 48, 444
-0.99976, 171, 179, 186, 194
-0.999764, 351, 427, 366, 442
-0.999773, 31, 435, 46, 450
-0.999776, 21, 425, 36, 440
-0.999781, 3, 447, 18, 462
-0.999782, 159, 177, 174, 192
-0.999783, 19, 457, 34, 472
-0.99979, 13, 453, 28, 468
-0.999803, 11, 147, 26, 162
-0.999829, 19, 443, 34, 458
