1942
-0.141648, 1, 1, 500, 375
-0.237925, 1, 129, 500, 375
-0.354216, 1, 33, 500, 288
-0.411125, 257, 1, 500, 375
-0.435056, 65, 1, 320, 375
-0.435381, 65, 129, 320, 375
-0.493203, 193, 129, 448, 375
-0.573938, 161, 1, 416, 375
-0.60323, 161, 33, 416, 288
-0.608723, 1, 33, 256, 288
-0.668371, 257, 33, 500, 288
-0.810186, 177, 129, 304, 375
-0.833887, 289, 129, 416, 375
-0.839255, 17, 65, 144, 320
-0.840663, 241, 129, 368, 375
-0.844769, 97, 129, 224, 375
-0.849373, 369, 1, 496, 375
-0.849791, 1, 113, 500, 240
-0.85022, 1, 161, 500, 288
-0.853775, 1, 225, 500, 352
-0.85739, 129, 33, 256, 288
-0.858598, 177, 33, 304, 288
-0.86257, 305, 1, 432, 375
-0.86836, 225, 33, 352, 288
-0.868599, 65, 1, 192, 375
-0.871166, 145, 1, 272, 375
-0.873135, 17, 1, 144, 375
-0.873601, 289, 33, 416, 288
-0.879344, 337, 129, 464, 375
-0.88777, 65, 225, 320, 352
-0.887981, 81, 33, 208, 288
-0.888668, 129, 81, 384, 208
-0.889344, 225, 1, 352, 375
-0.892988, 1, 65, 500, 192
-0.893289, 33, 161, 288, 288
-0.89544, 369, 1, 496, 256
-0.902444, 193, 145, 448, 272
-0.909026, 161, 209, 416, 336
-0.909731, 33, 97, 288, 224
-0.911699, 257, 209, 500, 336
-0.91763, 25, 177, 88, 304
-0.917753, 33, 209, 160, 336
-0.922613, 73, 209, 136, 336
-0.922707, 145, 225, 272, 352
-0.923285, 289, 81, 352, 208
-0.924445, 257, 97, 500, 224
-0.926001, 177, 161, 304, 288
-0.927579, 17, 161, 144, 288
-0.929034, 97, 161, 224, 288
-0.929369, 81, 225, 208, 352
-0.92997, 49, 97, 176, 224
-0.931649, 129, 81, 256, 208
-0.931738, 193, 225, 320, 352
-0.931769, 233, 161, 296, 288
-0.93182, 97, 209, 160, 336
-0.932193, 49, 209, 112, 336
-0.93243, 289, 161, 416, 288
-0.932651, 185, 81, 248, 208
-0.934216, 225, 81, 288, 208
-0.93471, 265, 113, 328, 240
-0.935125, 257, 241, 320, 368
-0.935186, 121, 97, 184, 224
-0.93541, 177, 81, 304, 208
-0.936257, 193, 161, 256, 288
-0.936901, 257, 97, 384, 224
-0.937227, 241, 225, 368, 352
-0.937232, 281, 209, 344, 336
-0.939891, 169, 161, 232, 288
-0.940421, 321, 81, 384, 208
-0.940773, 153, 209, 216, 336
-0.941688, 1, 177, 64, 304
-0.942698, 193, 33, 448, 160
-0.943008, 321, 161, 384, 288
-0.94308, 1, 97, 64, 224
-0.944633, 113, 233, 176, 296
-0.944708, 121, 225, 184, 352
-0.945413, 185, 225, 248, 352
-0.945477, 1, 17, 500, 144
-0.945504, 209, 209, 272, 336
-0.945902, 1, 97, 128, 224
-0.945989, 113, 161, 176, 288
-0.946145, 353, 113, 416, 240
-0.946372, 65, 225, 128, 288
-0.946388, 289, 145, 352, 272
-0.946785, 145, 161, 208, 288
-0.947424, 57, 161, 120, 288
-0.947624, 305, 225, 432, 352
-0.948371, 25, 241, 88, 368
-0.948667, 217, 89, 280, 152
-0.948681, 161, 81, 224, 208
-0.948783, 353, 17, 480, 144
-0.949679, 289, 153, 352, 216
-0.949703, 17, 209, 80, 272
-0.949945, 273, 233, 336, 296
-0.950776, 257, 89, 320, 152
-0.950791, 225, 161, 352, 288
-0.951255, 321, 113, 448, 240
-0.951651, 25, 185, 88, 248
-0.951795, 65, 257, 128, 320
-0.951898, 33, 33, 288, 160
-0.952321, 265, 145, 328, 208
-0.953454, 89, 161, 152, 288
-0.953517, 385, 193, 448, 320
-0.953712, 33, 233, 96, 296
-0.953731, 177, 97, 240, 160
-0.95404, 89, 233, 152, 296
-0.954093, 265, 161, 328, 288
-0.954443, 257, 257, 320, 320
-0.955616, 353, 193, 480, 320
-0.955931, 81, 97, 144, 224
-0.956504, 185, 225, 248, 288
-0.956956, 329, 81, 392, 144
-0.956962, 1, 225, 64, 352
-0.957704, 361, 193, 424, 320
-0.957714, 249, 65, 312, 192
-0.958381, 233, 113, 296, 176
-0.958756, 305, 209, 368, 336
-0.958771, 289, 49, 416, 176
-0.958808, 57, 97, 120, 224
-0.958845, 113, 137, 176, 200
-0.959114, 297, 233, 360, 296
-0.960595, 329, 217, 392, 280
-0.961012, 353, 217, 416, 280
-0.961047, 217, 305, 280, 368
-0.961079, 289, 97, 352, 160
-0.961292, 89, 257, 152, 320
-0.961746, 281, 257, 344, 320
-0.961823, 161, 233, 224, 296
-0.961838, 281, 97, 344, 352
-0.962205, 217, 233, 280, 296
-0.963226, 1, 241, 64, 304
-0.963286, 25, 97, 88, 224
-0.963371, 129, 33, 256, 160
-0.964136, 321, 249, 384, 312
-0.964164, 177, 33, 304, 160
-0.96424, 193, 305, 256, 368
-0.964312, 209, 129, 272, 375
-0.964401, 137, 137, 200, 200
-0.964579, 257, 129, 320, 375
-0.964601, 121, 265, 184, 328
-0.964758, 417, 1, 480, 128
-0.965168, 81, 209, 112, 336
-0.965322, 257, 169, 320, 232
-0.965515, 369, 81, 496, 208
-0.96559, 313, 153, 376, 216
-0.965766, 361, 121, 424, 184
-0.965826, 145, 89, 208, 152
-0.965872, 1, 137, 64, 200
-0.96594, 257, 113, 320, 176
-0.966044, 233, 129, 296, 375
-0.966111, 97, 281, 160, 344
-0.966283, 145, 129, 208, 375
-0.966286, 209, 89, 336, 152
-0.966477, 281, 121, 344, 184
-0.966664, 137, 241, 200, 304
-0.966679, 345, 153, 408, 216
-0.966804, 385, 129, 448, 256
-0.966809, 185, 33, 248, 160
-0.967061, 233, 241, 296, 368
-0.967115, 57, 193, 88, 320
-0.967174, 361, 241, 424, 304
-0.967401, 41, 209, 104, 272
-0.967552, 33, 225, 160, 288
-0.967573, 293, 97, 324, 224
-0.968015, 69, 225, 100, 352
-0.968031, 185, 129, 248, 375
-0.968093, 93, 209, 124, 336
-0.968243, 45, 161, 76, 288
-0.968437, 297, 73, 360, 136
-0.968488, 393, 201, 456, 264
-0.968591, 105, 97, 168, 352
-0.968626, 293, 161, 324, 288
-0.968768, 105, 209, 136, 336
-0.968963, 277, 81, 308, 208
-0.969318, 81, 233, 208, 296
-0.969326, 329, 241, 392, 368
-0.969379, 425, 177, 488, 240
-0.969394, 1, 129, 64, 375
-0.969474, 209, 177, 272, 240
-0.969524, 33, 281, 96, 344
-0.969529, 305, 129, 368, 375
-0.969563, 65, 281, 128, 344
-0.969582, 209, 233, 336, 296
-0.969876, 329, 33, 392, 160
-0.969934, 305, 161, 432, 224
-0.970054, 289, 33, 352, 160
-0.970119, 277, 225, 308, 288
-0.97027, 217, 161, 248, 288
-0.970286, 353, 97, 416, 352
-0.970358, 281, 89, 312, 152
-0.970393, 205, 161, 236, 288
-0.970404, 277, 209, 308, 336
-0.970551, 217, 113, 248, 240
-0.97066, 17, 105, 80, 168
-0.97069, 321, 153, 352, 216
-0.970721, 217, 33, 280, 160
-0.970784, 297, 145, 328, 208
-0.970792, 289, 97, 416, 160
-0.970841, 161, 305, 224, 368
-0.970929, 41, 257, 104, 320
-0.970992, 329, 129, 392, 192
-0.971041, 161, 225, 288, 288
-0.971162, 69, 225, 100, 288
-0.971282, 273, 225, 400, 288
-0.971369, 33, 161, 64, 288
-0.971378, 225, 281, 288, 344
-0.971386, 185, 33, 248, 288
-0.971411, 277, 153, 308, 216
-0.971431, 221, 89, 252, 152
-0.971444, 361, 33, 424, 160
-0.971543, 145, 33, 208, 288
-0.97156, 137, 113, 200, 176
-0.971607, 249, 33, 312, 288
-0.971622, 117, 233, 148, 296
-0.971628, 425, 161, 488, 288
-0.971678, 121, 137, 152, 200
-0.971752, 113, 97, 176, 160
-0.971889, 237, 89, 268, 152
-0.971912, 45, 177, 76, 240
-0.972022, 49, 209, 80, 272
-0.972219, 269, 89, 300, 152
-0.972243, 249, 233, 312, 296
-0.972388, 233, 209, 296, 272
-0.972426, 201, 81, 232, 208
-0.972466, 1, 121, 32, 184
-0.972494, 105, 161, 168, 224
-0.972508, 233, 153, 296, 216
-0.972612, 137, 305, 200, 368
-0.97268, 145, 33, 208, 160
-0.972743, 149, 233, 180, 296
-0.972763, 85, 257, 116, 320
-0.972893, 49, 257, 176, 320
-0.973049, 329, 129, 392, 375
-0.973135, 309, 193, 340, 320
-0.973243, 361, 1, 424, 64
-0.973248, 177, 161, 208, 288
-0.973249, 129, 233, 160, 296
-0.973276, 193, 161, 224, 288
-0.973285, 433, 81, 496, 208
-0.973331, 1, 257, 128, 320
-0.97339, 145, 89, 272, 152
-0.973413, 257, 89, 288, 152
-0.97346, 289, 121, 320, 184
-0.973623, 385, 153, 448, 216
-0.973629, 257, 145, 384, 208
-0.973709, 197, 209, 228, 336
-0.973711, 105, 257, 136, 320
-0.973812, 137, 129, 168, 192
-0.97391, 37, 209, 68, 336
-0.974011, 241, 33, 368, 160
-0.974073, 257, 249, 384, 312
-0.974107, 177, 113, 304, 176
-0.974231, 165, 161, 196, 288
-0.974253, 97, 225, 128, 288
-0.974267, 137, 169, 200, 232
-0.974312, 81, 65, 144, 320
-0.974353, 229, 161, 260, 288
-0.974469, 105, 305, 168, 368
-0.974484, 1, 201, 128, 264
-0.974488, 57, 241, 88, 368
-0.974506, 209, 137, 272, 200
-0.974587, 113, 137, 240, 200
-0.974636, 129, 81, 160, 208
-0.974739, 165, 241, 196, 368
-0.97485, 33, 281, 160, 344
-0.974853, 225, 33, 288, 288
-0.974972, 73, 257, 104, 320
-0.975075, 377, 113, 408, 176
-0.975088, 33, 49, 160, 176
-0.975182, 125, 265, 156, 328
-0.975187, 1, 113, 128, 176
-0.975336, 293, 225, 324, 352
-0.975368, 49, 161, 176, 224
-0.975493, 233, 177, 296, 240
-0.975534, 313, 97, 344, 224
-0.975701, 141, 97, 172, 224
-0.975717, 49, 305, 112, 368
-0.975729, 21, 177, 52, 304
-0.975747, 33, 97, 96, 352
-0.975797, 369, 145, 496, 272
-0.975809, 81, 225, 112, 288
-0.975838, 57, 185, 120, 248
-0.975916, 233, 81, 264, 208
-0.975931, 57, 65, 120, 320
-0.975945, 261, 161, 292, 288
-0.975968, 209, 257, 336, 320
-0.976018, 141, 209, 172, 336
-0.976208, 377, 97, 408, 224
-0.976296, 281, 129, 312, 256
-0.97639, 361, 177, 424, 240
-0.976501, 277, 113, 308, 176
-0.976553, 333, 81, 364, 208
-0.976599, 33, 185, 64, 248
-0.976608, 309, 153, 340, 216
-0.976628, 217, 225, 248, 352
-0.976668, 69, 281, 100, 344
-0.976697, 129, 129, 160, 256
-0.976726, 81, 33, 208, 160
-0.976769, 265, 81, 296, 208
-0.976837, 177, 121, 240, 184
-0.976881, 337, 89, 368, 152
-0.976949, 161, 257, 288, 320
-0.976962, 177, 233, 208, 296
-0.977012, 161, 305, 288, 368
-0.977115, 217, 225, 248, 288
-0.977147, 145, 265, 208, 328
-0.977196, 177, 225, 208, 352
-0.977228, 249, 289, 312, 352
-0.977235, 17, 217, 48, 280
-0.977254, 129, 209, 160, 336
-0.977255, 129, 113, 256, 176
-0.977284, 117, 209, 148, 336
-0.977293, 257, 241, 288, 368
-0.977301, 177, 73, 240, 136
-0.977302, 305, 249, 432, 312
-0.977304, 89, 105, 152, 168
-0.97736, 321, 217, 448, 280
-0.977536, 1, 185, 64, 248
-0.977541, 337, 105, 400, 168
-0.977652, 97, 89, 224, 152
-0.97781, 121, 49, 184, 176
-0.977828, 113, 97, 144, 224
-0.977878, 165, 241, 196, 304
-0.977891, 289, 209, 352, 272
-0.977932, 369, 9, 496, 72
-0.978114, 97, 265, 224, 328
-0.978149, 161, 169, 224, 232
-0.978162, 301, 257, 332, 320
-0.978219, 113, 305, 240, 368
-0.978292, 417, 1, 480, 64
-0.978477, 161, 145, 224, 208
-0.978481, 153, 225, 184, 352
-0.978499, 177, 137, 304, 200
-0.978512, 177, 89, 208, 152
-0.978519, 209, 257, 272, 320
-0.978563, 37, 225, 68, 288
-0.978629, 9, 81, 40, 208
-0.978637, 33, 97, 64, 224
-0.978657, 253, 81, 284, 208
-0.978662, 221, 65, 252, 192
-0.978662, 57, 185, 88, 248
-0.978704, 189, 81, 220, 208
-0.978989, 329, 145, 360, 272
-0.97905, 61, 249, 92, 312
-0.979078, 249, 161, 280, 288
-0.979102, 69, 177, 100, 304
-0.979124, 97, 161, 128, 288
-0.979149, 337, 249, 368, 312
-0.979149, 109, 281, 140, 344
-0.979175, 161, 81, 192, 208
-0.979176, 297, 89, 328, 152
-0.9792, 317, 225, 348, 288
-0.979282, 301, 113, 332, 176
-0.979516, 273, 249, 304, 312
-0.979517, 353, 81, 384, 208
-0.979616, 225, 305, 256, 368
-0.979624, 153, 161, 184, 288
-0.979639, 289, 185, 352, 248
-0.979679, 113, 145, 144, 272
-0.979681, 353, 241, 416, 368
-0.979707, 189, 225, 220, 288
-0.979733, 257, 65, 320, 128
-0.979744, 321, 33, 384, 288
-0.979772, 225, 113, 352, 176
-0.979782, 21, 193, 52, 256
-0.979834, 305, 1, 432, 128
-0.979848, 17, 129, 48, 256
-0.980043, 65, 305, 192, 368
-0.98026, 73, 305, 136, 368
-0.980317, 17, 105, 48, 168
-0.980344, 385, 145, 416, 208
-0.980366, 289, 121, 416, 184
-0.980445, 357, 217, 388, 280
-0.980461, 153, 257, 184, 320
-0.980502, 89, 137, 152, 200
-0.980513, 217, 137, 248, 200
-0.980523, 265, 113, 296, 176
-0.980578, 185, 265, 248, 328
-0.980619, 57, 145, 88, 272
-0.980628, 209, 297, 336, 360
-0.980754, 97, 281, 128, 344
-0.980773, 229, 233, 260, 296
-0.980781, 209, 305, 240, 368
-0.980787, 229, 241, 260, 368
-0.98079, 9, 209, 40, 336
-0.980827, 209, 113, 272, 176
-0.980837, 389, 145, 420, 272
-0.980867, 97, 161, 224, 224
-0.981025, 405, 201, 436, 264
-0.981076, 173, 113, 204, 240
-0.981111, 349, 249, 380, 312
-0.981196, 25, 161, 88, 224
-0.981232, 289, 241, 320, 304
-0.981241, 357, 81, 388, 144
-0.981241, 185, 145, 248, 208
-0.981283, 353, 241, 480, 368
-0.981284, 45, 97, 76, 224
-0.981312, 257, 73, 384, 136
-0.981346, 197, 97, 228, 160
-0.98143, 5, 225, 36, 288
-0.981442, 205, 225, 236, 288
-0.981508, 325, 249, 356, 312
-0.981541, 361, 145, 392, 272
-0.981544, 221, 113, 252, 176
-0.981571, 365, 153, 396, 216
-0.981628, 257, 161, 288, 224
-0.981631, 245, 297, 276, 360
-0.981722, 137, 265, 168, 328
-0.981771, 49, 241, 80, 304
-0.981776, 313, 145, 344, 272
-0.981876, 301, 217, 332, 280
-0.9819, 49, 105, 176, 168
-0.98191, 397, 193, 428, 320
-0.981946, 373, 1, 404, 64
-0.982031, 57, 161, 120, 224
-0.982077, 141, 161, 172, 288
-0.982166, 393, 225, 456, 288
-0.982232, 49, 137, 176, 200
-0.982323, 393, 1, 456, 375
-0.982361, 393, 1, 456, 128
-0.982367, 161, 145, 192, 208
-0.982415, 81, 161, 112, 288
-0.98249, 361, 25, 424, 88
-0.982571, 257, 289, 288, 352
-0.982611, 305, 129, 368, 192
-0.982618, 313, 257, 344, 320
-0.982663, 345, 161, 376, 288
-0.982681, 393, 177, 456, 240
-0.982885, 361, 97, 424, 160
-0.982921, 261, 265, 292, 328
-0.982978, 353, 153, 480, 216
-0.983011, 457, 81, 488, 208
-0.983026, 49, 193, 176, 256
-0.98308, 185, 177, 248, 240
-0.983188, 41, 105, 104, 168
-0.983199, 209, 89, 240, 152
-0.983332, 89, 49, 152, 176
-0.983354, 305, 177, 336, 240
-0.983394, 29, 105, 60, 168
-0.983422, 1, 97, 32, 160
-0.983494, 369, 1, 432, 375
-0.983528, 313, 177, 376, 240
-0.983545, 125, 289, 156, 352
-0.983698, 25, 49, 88, 176
-0.983826, 257, 169, 384, 232
-0.983849, 369, 81, 496, 144
-0.984008, 433, 89, 496, 152
-0.98401, 209, 161, 336, 224
-0.98404, 109, 145, 140, 208
-0.984053, 57, 281, 88, 344
-0.984065, 17, 305, 144, 368
-0.9841, 13, 129, 44, 192
-0.984169, 237, 177, 268, 240
-0.984171, 1, 177, 128, 240
-0.984197, 337, 1, 400, 64
-0.984242, 105, 209, 168, 272
-0.984287, 417, 1, 480, 375
-0.984308, 333, 161, 364, 224
-0.984328, 161, 105, 192, 168
-0.984427, 357, 225, 388, 352
-0.984463, 189, 305, 220, 368
-0.984559, 5, 145, 36, 272
-0.984568, 329, 225, 360, 352
-0.98458, 101, 97, 132, 224
-0.984609, 289, 1, 352, 256
-0.984626, 369, 201, 496, 264
-0.984671, 257, 273, 384, 336
-0.984729, 281, 281, 344, 344
-0.984814, 121, 1, 184, 256
-0.984835, 313, 105, 376, 168
-0.984848, 433, 65, 496, 320
-0.984951, 81, 161, 144, 224
-0.985019, 201, 201, 264, 264
-0.985025, 145, 169, 272, 232
-0.985122, 45, 265, 76, 328
-0.985175, 409, 193, 440, 320
-0.985182, 305, 185, 432, 248
-0.985223, 373, 145, 404, 272
-0.985232, 141, 153, 172, 216
-0.985244, 121, 73, 184, 136
-0.985265, 401, 129, 464, 375
-0.985351, 69, 185, 100, 248
-0.985459, 17, 1, 80, 375
-0.985542, 385, 193, 416, 320
-0.985605, 61, 97, 92, 224
-0.985646, 1, 49, 64, 176
-0.985677, 309, 89, 340, 152
-0.985711, 25, 225, 56, 352
-0.985779, 385, 241, 416, 304
-0.985805, 125, 97, 156, 160
-0.985823, 241, 209, 272, 336
-0.985889, 169, 169, 200, 232
-0.98593, 441, 169, 472, 232
-0.985973, 305, 1, 432, 64
-0.986102, 137, 217, 200, 280
-0.986126, 57, 1, 120, 375
-0.986187, 381, 217, 412, 280
-0.986196, 369, 225, 400, 352
-0.986208, 177, 305, 208, 368
-0.986218, 297, 1, 360, 375
-0.986253, 329, 1, 392, 375
-0.986274, 241, 313, 304, 375
-0.986297, 145, 305, 176, 368
-0.986341, 149, 129, 180, 192
-0.986417, 45, 153, 76, 216
-0.986421, 21, 249, 52, 312
-0.986469, 85, 281, 116, 344
-0.98647, 329, 57, 392, 120
-0.986506, 385, 1, 448, 64
-0.986555, 257, 193, 384, 256
-0.986567, 373, 17, 404, 144
-0.986728, 1, 137, 128, 200
-0.986765, 1, 81, 64, 144
-0.986797, 209, 113, 240, 176
-0.986805, 25, 137, 88, 200
-0.98683, 233, 257, 296, 320
-0.986871, 457, 1, 488, 128
-0.986946, 353, 57, 480, 120
-0.986976, 353, 33, 480, 96
-0.986982, 393, 81, 456, 208
-0.987022, 345, 225, 376, 288
-0.987026, 257, 1, 320, 375
-0.987134, 437, 1, 468, 128
-0.987135, 301, 49, 332, 176
-0.987143, 157, 169, 188, 232
-0.987199, 373, 241, 404, 304
-0.987266, 9, 33, 72, 288
-0.987321, 345, 137, 376, 200
-0.987323, 105, 1, 168, 375
-0.987396, 321, 129, 352, 192
-0.987403, 173, 137, 204, 200
-0.987457, 157, 305, 188, 368
-0.987527, 233, 65, 296, 128
-0.987537, 377, 97, 440, 352
-0.987596, 129, 65, 256, 128
-0.987619, 161, 1, 224, 375
-0.987635, 357, 129, 388, 192
-0.987651, 201, 65, 264, 128
-0.987653, 353, 129, 480, 192
-0.987718, 161, 225, 416, 288
-0.987756, 233, 113, 264, 176
-0.987793, 361, 241, 392, 304
-0.987807, 65, 113, 128, 176
-0.98784, 161, 281, 288, 344
-0.987908, 225, 161, 480, 224
-0.987909, 193, 33, 224, 160
-0.988017, 97, 257, 352, 320
-0.988031, 289, 157, 352, 188
-0.98811, 9, 265, 72, 328
-0.988117, 185, 305, 248, 336
-0.988124, 25, 305, 88, 368
-0.988288, 385, 177, 416, 240
-0.988292, 325, 89, 356, 152
-0.988311, 305, 241, 336, 368
-0.988344, 209, 257, 240, 320
-0.988345, 429, 185, 460, 248
-0.988366, 1, 233, 256, 296
-0.988422, 469, 97, 500, 224
-0.988428, 257, 97, 320, 128
-0.988436, 161, 97, 416, 160
-0.988527, 65, 233, 128, 264
-0.988536, 289, 217, 320, 280
-0.988539, 353, 161, 384, 224
-0.988553, 265, 17, 328, 144
-0.988566, 365, 97, 396, 224
-0.988576, 145, 65, 208, 128
-0.988609, 177, 65, 304, 128
-0.988622, 353, 65, 416, 128
-0.988627, 161, 313, 224, 344
-0.988656, 353, 221, 416, 252
-0.988657, 233, 33, 264, 160
-0.988662, 193, 97, 256, 128
-0.988666, 185, 109, 248, 140
-0.988669, 297, 101, 360, 132
-0.988686, 45, 289, 76, 352
-0.98869, 225, 177, 256, 240
-0.988691, 353, 161, 416, 192
-0.988723, 329, 273, 392, 336
-0.988797, 25, 181, 88, 212
-0.988801, 137, 305, 200, 336
-0.988849, 417, 25, 480, 88
-0.988887, 1, 89, 128, 152
-0.988901, 341, 225, 372, 352
-0.988917, 273, 173, 336, 204
-0.988947, 217, 109, 280, 140
-0.988947, 369, 177, 496, 240
-0.988961, 17, 221, 80, 252
-0.989022, 321, 169, 384, 200
-0.989047, 225, 1, 288, 375
-0.989083, 205, 137, 236, 200
-0.989121, 205, 177, 236, 240
-0.989123, 121, 161, 152, 224
-0.989142, 249, 161, 312, 192
-0.989181, 17, 201, 80, 232
-0.989197, 217, 97, 280, 128
-0.989209, 465, 105, 496, 168
-0.98921, 105, 305, 168, 336
-0.989213, 357, 33, 388, 160
-0.989235, 277, 273, 308, 336
-0.989248, 25, 241, 88, 272
-0.989262, 393, 129, 456, 192
-0.989264, 181, 169, 212, 232
-0.989277, 257, 249, 320, 280
-0.989287, 369, 225, 496, 288
-0.989309, 129, 137, 384, 200
-0.98938, 321, 273, 448, 336
-0.989423, 173, 65, 204, 192
-0.989433, 433, 153, 496, 216
-0.989442, 253, 33, 284, 160
-0.989468, 113, 237, 176, 268
-0.989471, 81, 1, 144, 375
-0.989523, 193, 225, 256, 256
-0.989539, 313, 157, 376, 188
-0.989577, 273, 237, 336, 268
-0.989585, 89, 97, 120, 224
-0.989606, 73, 81, 104, 208
-0.989639, 273, 145, 336, 176
-0.989641, 201, 317, 264, 348
-0.989661, 369, 105, 496, 168
-0.989679, 305, 73, 432, 136
-0.989703, 321, 229, 384, 260
-0.989708, 185, 121, 248, 152
-0.98973, 321, 253, 384, 284
-0.98974, 153, 253, 216, 284
-0.989741, 209, 33, 240, 160
-0.989794, 105, 293, 168, 324
-0.989802, 425, 289, 488, 352
-0.989805, 425, 177, 456, 304
-0.989837, 401, 145, 432, 272
-0.989866, 297, 233, 360, 264
-0.989883, 281, 261, 344, 292
-0.989886, 257, 269, 320, 300
-0.989903, 257, 109, 320, 140
-0.989968, 161, 109, 224, 140
-0.989973, 1, 233, 64, 264
-0.989974, 169, 97, 232, 128
-0.989984, 217, 305, 280, 336
-0.990011, 57, 137, 120, 200
-0.990029, 361, 245, 424, 276
-0.990077, 105, 265, 168, 296
-0.990144, 297, 169, 360, 200
-0.990157, 113, 157, 176, 188
-0.990161, 277, 33, 308, 160
-0.990175, 321, 93, 384, 124
-0.990188, 41, 229, 104, 260
-0.9902, 89, 81, 152, 144
-0.990217, 225, 245, 288, 276
-0.990225, 81, 201, 144, 264
-0.990229, 81, 301, 144, 332
-0.990272, 329, 145, 392, 176
-0.990272, 81, 285, 144, 316
-0.990324, 161, 241, 224, 272
-0.990389, 209, 209, 336, 272
-0.990415, 65, 261, 128, 292
-0.990417, 129, 317, 192, 348
-0.990422, 297, 89, 360, 120
-0.990425, 145, 97, 208, 128
-0.990429, 469, 145, 500, 272
-0.990437, 49, 81, 176, 144
-0.990456, 185, 1, 248, 375
-0.990474, 1, 297, 256, 360
-0.990476, 41, 285, 104, 316
-0.990483, 225, 229, 288, 260
-0.990496, 1, 249, 500, 312
-0.990505, 433, 181, 496, 212
-0.990576, 145, 121, 208, 152
-0.990587, 225, 165, 288, 196
-0.990627, 329, 105, 392, 136
-0.99063, 249, 281, 312, 312
-0.990634, 233, 121, 296, 152
-0.990652, 1, 105, 256, 168
-0.990654, 289, 49, 320, 176
-0.990667, 33, 253, 96, 284
-0.990689, 1, 105, 64, 136
-0.990718, 57, 297, 120, 328
-0.99074, 169, 229, 232, 260
-0.990781, 121, 97, 184, 128
-0.990786, 393, 205, 456, 236
-0.990803, 241, 305, 304, 336
-0.990832, 281, 113, 344, 144
-0.990843, 317, 241, 348, 368
-0.990883, 393, 173, 456, 204
-0.990889, 257, 121, 320, 152
-0.990916, 9, 145, 72, 176
-0.990936, 249, 233, 312, 264
-0.990955, 361, 133, 424, 164
-0.990957, 129, 201, 256, 264
-0.990994, 137, 241, 200, 272
-0.991021, 249, 177, 312, 208
-0.991021, 129, 257, 192, 288
-0.991035, 225, 293, 288, 324
-0.991081, 41, 217, 104, 248
-0.991083, 169, 177, 232, 208
-0.991092, 1, 257, 64, 288
-0.991094, 161, 301, 224, 332
-0.991149, 25, 301, 88, 332
-0.991153, 81, 245, 144, 276
-0.991154, 361, 121, 424, 152
-0.991161, 225, 257, 288, 288
-0.991181, 281, 249, 344, 280
-0.991262, 225, 137, 480, 200
-0.991269, 89, 233, 152, 264
-0.991269, 57, 245, 120, 276
-0.991271, 361, 149, 424, 180
-0.991277, 129, 173, 192, 204
-0.991327, 417, 13, 480, 44
-0.991328, 377, 241, 440, 368
-0.991329, 209, 121, 272, 152
-0.991334, 185, 249, 248, 280
-0.991342, 137, 1, 200, 375
-0.991345, 377, 217, 440, 248
-0.991375, 21, 81, 52, 208
-0.991382, 65, 273, 128, 304
-0.991385, 249, 293, 312, 324
-0.991395, 57, 189, 120, 220
-0.991409, 177, 325, 240, 356
-0.991416, 361, 257, 424, 288
-0.991418, 281, 133, 344, 164
-0.991429, 249, 149, 312, 180
-0.991456, 89, 169, 152, 200
-0.991478, 369, 1, 432, 32
-0.991488, 281, 185, 344, 216
-0.991549, 225, 317, 288, 348
-0.991555, 193, 177, 256, 208
-0.991565, 105, 281, 168, 312
-0.99159, 1, 121, 500, 184
-0.991612, 305, 25, 432, 88
-0.991619, 129, 133, 192, 164
-0.99165, 105, 249, 168, 280
-0.991733, 1, 245, 64, 276
-0.991733, 273, 225, 336, 256
-0.991749, 1, 257, 256, 320
-0.991772, 137, 225, 200, 256
-0.991817, 225, 181, 288, 212
-0.991822, 153, 165, 216, 196
-0.991854, 17, 289, 80, 320
-0.991859, 353, 109, 416, 140
-0.991867, 377, 161, 440, 192
-0.991874, 1, 189, 64, 220
-0.991878, 361, 13, 424, 44
-0.991879, 1, 133, 64, 164
-0.991892, 401, 193, 464, 224
-0.991921, 185, 261, 248, 292
-0.991964, 329, 217, 392, 248
-0.991965, 129, 293, 192, 324
-0.991977, 329, 1, 392, 32
-0.991979, 273, 49, 400, 112
-0.99198, 233, 217, 296, 248
-0.99201, 213, 305, 244, 336
-0.992049, 97, 297, 352, 360
-0.992076, 313, 33, 344, 160
-0.992117, 9, 125, 40, 156
-0.992125, 45, 181, 76, 212
-0.99213, 205, 97, 236, 128
-0.992134, 353, 249, 480, 312
-0.992141, 189, 313, 220, 344
-0.992146, 257, 257, 500, 320
-0.992157, 165, 245, 196, 276
-0.992196, 285, 161, 316, 192
-0.992218, 209, 185, 336, 248
-0.992227, 217, 109, 248, 140
-0.992252, 281, 233, 312, 264
-0.992254, 225, 97, 256, 128
-0.992276, 317, 157, 348, 188
-0.992282, 289, 113, 320, 144
-0.99229, 257, 73, 500, 136
-0.992307, 309, 173, 340, 204
-0.99231, 277, 113, 308, 144
-0.992328, 217, 121, 248, 152
-0.99233, 9, 145, 40, 176
-0.992348, 201, 305, 232, 336
-0.992364, 65, 49, 128, 176
-0.992377, 169, 309, 200, 340
-0.99238, 49, 213, 80, 244
-0.992383, 185, 101, 216, 132
-0.992386, 297, 161, 328, 192
-0.992388, 225, 305, 256, 336
-0.992389, 149, 241, 180, 272
-0.992391, 385, 161, 416, 192
-0.992439, 1, 161, 500, 224
-0.99244, 37, 237, 68, 268
-0.992449, 225, 229, 256, 260
-0.992458, 293, 97, 324, 128
-0.992463, 293, 149, 324, 180
-0.992482, 277, 149, 308, 180
-0.992485, 137, 305, 168, 336
-0.992486, 309, 101, 340, 132
-0.992495, 197, 109, 228, 140
-0.992504, 301, 117, 332, 148
-0.992512, 237, 97, 268, 128
-0.992514, 69, 229, 100, 260
-0.992519, 273, 165, 304, 196
-0.992519, 149, 301, 180, 332
-0.992521, 289, 137, 320, 168
-0.992522, 149, 313, 180, 344
-0.992535, 385, 217, 416, 248
-0.992542, 261, 161, 292, 192
-0.992547, 233, 109, 264, 140
-0.992557, 117, 153, 148, 184
-0.992568, 113, 265, 144, 296
-0.992571, 101, 265, 132, 296
-0.992573, 109, 285, 140, 316
-0.992585, 33, 193, 64, 224
-0.992588, 289, 125, 320, 156
-0.992591, 33, 161, 288, 224
-0.992592, 377, 117, 408, 148
-0.992597, 149, 257, 180, 288
-0.992605, 165, 113, 196, 144
-0.992616, 89, 261, 120, 292
-0.992618, 277, 125, 308, 156
-0.992624, 173, 97, 204, 128
-0.992627, 221, 317, 252, 348
-0.99263, 329, 161, 360, 192
-0.992639, 249, 97, 280, 128
-0.992643, 269, 261, 300, 292
-0.992649, 337, 89, 368, 120
-0.99265, 257, 293, 288, 324
-0.992657, 77, 261, 108, 292
-0.992665, 345, 1, 408, 256
-0.992669, 17, 225, 48, 256
-0.99268, 81, 281, 112, 312
-0.992684, 113, 301, 144, 332
-0.992692, 269, 97, 300, 128
-0.992706, 189, 229, 220, 260
-0.992713, 349, 253, 380, 284
-0.992721, 125, 265, 156, 296
-0.992733, 125, 305, 156, 336
-0.992734, 289, 101, 416, 132
-0.992738, 281, 101, 312, 132
-0.992744, 209, 317, 240, 348
-0.992762, 365, 165, 396, 196
-0.992774, 1, 105, 32, 136
-0.992778, 57, 285, 88, 316
-0.992787, 273, 249, 304, 280
-0.992787, 5, 233, 36, 264
-0.992788, 377, 149, 408, 180
-0.992788, 49, 225, 80, 256
-0.99281, 301, 241, 332, 272
-0.992811, 329, 173, 360, 204
-0.992812, 129, 157, 160, 188
-0.992815, 33, 1, 96, 256
-0.992819, 129, 293, 160, 324
-0.992821, 53, 237, 84, 268
-0.992824, 161, 257, 192, 288
-0.992824, 69, 293, 100, 324
-0.992829, 465, 1, 496, 32
-0.992831, 213, 225, 244, 256
-0.992848, 329, 101, 360, 132
-0.992848, 289, 249, 320, 280
-0.992855, 369, 221, 400, 252
-0.992856, 373, 105, 404, 136
-0.992861, 209, 97, 336, 128
-0.992868, 101, 233, 132, 264
-0.99288, 349, 225, 380, 256
-0.992883, 65, 237, 192, 268
-0.992883, 253, 113, 284, 144
-0.992886, 57, 249, 88, 280
-0.992888, 297, 173, 328, 204
-0.992894, 261, 281, 292, 312
-0.9929, 217, 241, 248, 272
-0.992906, 21, 253, 52, 284
-0.992912, 257, 257, 384, 288
-0.992923, 409, 205, 440, 236
-0.992928, 69, 281, 100, 312
-0.992936, 233, 241, 264, 272
-0.992937, 293, 261, 324, 292
-0.99294, 445, 177, 476, 208
-0.992941, 93, 297, 124, 328
-0.992943, 21, 137, 52, 168
-0.992952, 301, 229, 332, 260
-0.992952, 313, 89, 344, 120
-0.992956, 1, 273, 500, 336
-0.992958, 341, 169, 372, 200
-0.992961, 93, 277, 124, 308
-0.992967, 113, 165, 144, 196
-0.992969, 389, 177, 420, 208
-0.99297, 329, 229, 360, 260
-0.992973, 89, 233, 120, 264
-0.992976, 149, 173, 180, 204
-0.992976, 197, 177, 228, 208
-0.992977, 25, 213, 56, 244
-0.992983, 377, 245, 408, 276
-0.992989, 201, 225, 232, 256
-0.99299, 361, 249, 392, 280
-0.993003, 45, 285, 76, 316
-0.99301, 177, 237, 208, 268
-0.99301, 281, 261, 312, 292
-0.993016, 33, 181, 64, 212
-0.993017, 61, 193, 92, 224
-0.993017, 277, 281, 308, 312
-0.993024, 81, 297, 112, 328
-0.993034, 145, 109, 272, 140
-0.993035, 389, 205, 420, 236
-0.993035, 141, 157, 172, 188
-0.99304, 137, 265, 168, 296
-0.993048, 257, 233, 384, 264
-0.993114, 97, 305, 224, 336
-0.993115, 209, 113, 336, 144
-0.993153, 317, 153, 332, 216
-0.993155, 141, 49, 172, 176
-0.9932, 161, 233, 176, 296
-0.993224, 129, 161, 384, 224
-0.993258, 283, 89, 298, 152
-0.993322, 227, 97, 242, 160
-0.993335, 257, 233, 500, 296
-0.993362, 177, 313, 304, 344
-0.993363, 297, 89, 312, 152
-0.993372, 65, 81, 320, 144
-0.993382, 445, 161, 476, 288
-0.993396, 17, 233, 144, 264
-0.993406, 33, 137, 288, 200
-0.99352, 111, 225, 126, 288
-0.993522, 127, 265, 142, 328
-0.99355, 177, 229, 304, 260
-0.993553, 13, 105, 28, 168
-0.993599, 237, 89, 252, 152
-0.993616, 257, 157, 384, 188
-0.993616, 7, 121, 22, 184
-0.993645, 265, 33, 296, 160
-0.993667, 101, 233, 116, 296
-0.993675, 1, 97, 500, 160
-0.993748, 155, 233, 170, 296
-0.993771, 333, 33, 364, 160
-0.993774, 95, 233, 110, 296
-0.993787, 63, 185, 78, 248
-0.993787, 73, 225, 88, 288
-0.993797, 123, 233, 138, 296
-0.993874, 117, 257, 132, 320
-0.993878, 457, 161, 488, 288
-0.993891, 97, 257, 112, 320
-0.993893, 225, 49, 352, 112
-0.993899, 289, 169, 416, 200
-0.9939, 83, 257, 98, 320
-0.9939, 293, 225, 308, 288
-0.993901, 33, 209, 288, 272
-0.993951, 149, 233, 164, 296
-0.993954, 17, 253, 144, 284
-0.993967, 209, 245, 336, 276
-0.993976, 271, 89, 286, 152
-0.994005, 1, 217, 500, 280
-0.994018, 1, 185, 500, 248
-0.994023, 257, 281, 500, 344
-0.99404, 323, 145, 338, 208
-0.994042, 305, 229, 432, 260
-0.994076, 291, 113, 306, 176
-0.9941, 291, 89, 306, 152
-0.994104, 103, 257, 118, 320
-0.99411, 177, 257, 304, 288
-0.994121, 121, 1, 184, 128
-0.994129, 161, 73, 416, 136
-0.994164, 87, 225, 102, 288
-0.99417, 257, 297, 384, 360
-0.994173, 113, 97, 240, 128
-0.994188, 33, 285, 160, 316
-0.994226, 129, 233, 144, 296
-0.994228, 81, 225, 96, 288
-0.994243, 243, 89, 258, 152
-0.99425, 111, 257, 126, 320
-0.994254, 257, 245, 384, 276
-0.994274, 251, 89, 266, 152
-0.99428, 71, 249, 86, 312
-0.994318, 89, 257, 104, 320
-0.994321, 1, 221, 128, 252
-0.994327, 177, 301, 304, 332
-0.994333, 23, 105, 38, 168
-0.994339, 311, 153, 326, 216
-0.994346, 369, 273, 496, 336
-0.994368, 117, 233, 132, 296
-0.994372, 425, 1, 456, 128
-0.994375, 137, 233, 152, 296
-0.994379, 145, 245, 272, 276
-0.994424, 135, 265, 150, 328
-0.994445, 409, 209, 472, 336
-0.994452, 67, 225, 82, 288
-0.994492, 125, 145, 140, 208
-0.994497, 143, 233, 158, 296
-0.994504, 167, 241, 182, 304
-0.99451, 257, 89, 272, 152
-0.994528, 257, 209, 500, 272
-0.994542, 289, 65, 320, 320
-0.994545, 53, 177, 68, 240
-0.994565, 265, 89, 280, 152
-0.994579, 139, 137, 154, 200
-0.994587, 257, 105, 500, 168
-0.994592, 281, 113, 296, 176
-0.994626, 289, 117, 416, 148
-0.994633, 57, 201, 72, 264
-0.994639, 191, 225, 206, 288
-0.994644, 161, 97, 288, 128
-0.994645, 257, 1, 500, 64
-0.99469, 225, 185, 480, 248
-0.99469, 283, 225, 298, 288
-0.994691, 289, 137, 304, 200
-0.994697, 277, 89, 292, 152
-0.994714, 77, 257, 92, 320
-0.994737, 35, 185, 50, 248
-0.994786, 17, 297, 144, 328
-0.994798, 145, 129, 160, 192
-0.994845, 333, 153, 348, 216
-0.99489, 221, 97, 236, 160
-0.994908, 305, 89, 320, 152
-0.99491, 233, 225, 248, 288
-0.994942, 469, 33, 500, 160
-0.994949, 71, 281, 86, 344
-0.994955, 33, 49, 64, 176
-0.994965, 113, 49, 144, 176
-0.99498, 69, 185, 84, 248
-0.995007, 43, 217, 58, 280
-0.995018, 289, 133, 416, 164
-0.995035, 185, 233, 200, 296
-0.995049, 197, 225, 212, 288
-0.995049, 241, 173, 368, 204
-0.995066, 97, 265, 224, 296
-0.995071, 17, 189, 144, 220
-0.995072, 393, 97, 424, 224
-0.995077, 309, 97, 340, 352
-0.995077, 299, 145, 314, 208
-0.995112, 347, 81, 362, 144
-0.995121, 269, 161, 284, 224
-0.995155, 273, 89, 400, 120
-0.995176, 219, 225, 234, 288
-0.995183, 119, 153, 134, 216
-0.995196, 1, 305, 500, 368
-0.995222, 221, 137, 236, 200
-0.995223, 305, 257, 320, 320
-0.995231, 27, 209, 42, 272
-0.995233, 189, 89, 204, 152
-0.995248, 277, 65, 308, 320
-0.995259, 155, 257, 170, 320
-0.99527, 161, 9, 288, 72
-0.995279, 241, 285, 368, 316
-0.995286, 1, 129, 16, 192
-0.995287, 129, 121, 256, 152
-0.995297, 143, 265, 158, 328
-0.995312, 271, 249, 286, 312
-0.995313, 335, 249, 350, 312
-0.995327, 253, 129, 284, 375
-0.995331, 369, 97, 496, 128
-0.995331, 129, 317, 256, 348
-0.995335, 301, 121, 316, 184
-0.99535, 233, 297, 248, 360
-0.995354, 277, 241, 292, 304
-0.995373, 395, 113, 410, 176
-0.9954, 353, 1, 480, 32
-0.995418, 49, 169, 176, 200
-0.99542, 225, 125, 352, 156
-0.995432, 397, 137, 412, 200
-0.995436, 11, 233, 26, 296
-0.995476, 97, 253, 224, 284
-0.995508, 177, 129, 304, 160
-0.995509, 175, 241, 190, 304
-0.99551, 19, 225, 34, 288
-0.995511, 213, 89, 228, 152
-0.995536, 177, 129, 208, 375
-0.995543, 153, 129, 168, 192
-0.995569, 337, 169, 464, 200
-0.99558, 97, 293, 224, 324
-0.995587, 229, 137, 244, 200
-0.995588, 255, 297, 270, 360
-0.995592, 177, 165, 304, 196
-0.995596, 353, 249, 368, 312
-0.995597, 13, 33, 44, 160
-0.995611, 241, 313, 256, 375
-0.995612, 311, 257, 326, 320
-0.995631, 189, 129, 220, 375
-0.995631, 353, 13, 480, 44
-0.995634, 325, 217, 340, 280
-0.995639, 121, 65, 152, 320
-0.995641, 257, 25, 500, 88
-0.995642, 321, 181, 448, 212
-0.995655, 409, 201, 424, 264
-0.995656, 193, 305, 448, 368
-0.99566, 179, 89, 194, 152
-0.995662, 299, 257, 314, 320
-0.995669, 61, 289, 76, 352
-0.99567, 131, 145, 146, 208
-0.995681, 321, 129, 352, 375
-0.995683, 305, 249, 432, 280
-0.995685, 77, 281, 92, 344
-0.995694, 377, 97, 392, 160
-0.9957, 49, 265, 176, 296
-0.995707, 371, 233, 386, 296
-0.995727, 241, 225, 256, 288
-0.99573, 341, 249, 356, 312
-0.995731, 223, 305, 238, 368
-0.995747, 393, 17, 424, 144
-0.995749, 361, 233, 376, 296
-0.995772, 225, 217, 240, 280
-0.995776, 213, 97, 244, 352
-0.995779, 321, 177, 336, 240
-0.995793, 265, 129, 296, 375
-0.995804, 3, 97, 18, 160
-0.995847, 133, 97, 164, 352
-0.995856, 97, 157, 224, 188
-0.995861, 49, 105, 176, 136
-0.995866, 29, 105, 44, 168
-0.995877, 321, 157, 448, 188
-0.995879, 347, 249, 362, 312
-0.995879, 321, 257, 336, 320
-0.995898, 1, 105, 128, 136
-0.995902, 1, 233, 16, 296
-0.995904, 113, 9, 240, 72
-0.995915, 13, 129, 28, 192
-0.995936, 163, 145, 178, 208
-0.995938, 45, 177, 60, 240
-0.995955, 161, 33, 192, 160
-0.99596, 63, 161, 78, 224
-0.995962, 321, 217, 448, 248
-0.995965, 401, 225, 416, 288
-0.99598, 161, 33, 288, 96
-0.995991, 225, 129, 256, 375
-0.995992, 371, 145, 386, 208
-0.995993, 201, 129, 232, 375
-0.996028, 173, 145, 188, 208
-0.996032, 225, 301, 352, 332
-0.996034, 247, 313, 262, 375
-0.99604, 57, 49, 88, 176
-0.99606, 121, 281, 136, 344
-0.996062, 189, 33, 220, 288
-0.996068, 129, 229, 256, 260
-0.996085, 395, 217, 410, 280
-0.996087, 149, 257, 164, 320
-0.996091, 257, 145, 384, 176
-0.996093, 37, 97, 68, 352
-0.996103, 211, 305, 226, 368
-0.996107, 265, 265, 280, 328
-0.996107, 327, 257, 342, 320
-0.996108, 331, 225, 346, 288
-0.996117, 317, 233, 332, 296
-0.996136, 257, 9, 384, 72
-0.996143, 33, 309, 160, 340
-0.996164, 33, 185, 288, 248
-0.996181, 353, 25, 480, 56
-0.996223, 257, 33, 288, 288
-0.996272, 241, 269, 368, 300
-0.996277, 361, 129, 392, 375
-0.996292, 233, 33, 264, 288
-0.996298, 333, 129, 364, 375
-0.996339, 97, 173, 224, 204
-0.996341, 369, 217, 496, 248
-0.996347, 81, 317, 208, 348
-0.996364, 349, 129, 380, 375
-0.996373, 237, 129, 268, 375
-0.996399, 257, 49, 500, 112
-0.9964, 173, 33, 204, 288
-0.996408, 225, 221, 352, 252
-0.996409, 9, 97, 40, 352
-0.996414, 157, 129, 188, 375
-0.996419, 109, 97, 140, 352
-0.996503, 321, 265, 448, 296
-0.996532, 353, 245, 480, 276
-0.996543, 1, 201, 128, 232
-0.996543, 21, 129, 52, 375
-0.996589, 113, 133, 240, 164
-0.996628, 177, 177, 304, 208
-0.996661, 145, 129, 176, 375
-0.996679, 193, 309, 208, 340
-0.996686, 245, 33, 276, 288
-0.996689, 177, 141, 304, 172
-0.996699, 81, 57, 208, 120
-0.996731, 161, 41, 416, 104
-0.996744, 227, 305, 242, 336
-0.996757, 221, 305, 236, 336
-0.996834, 65, 225, 192, 256
-0.996836, 145, 33, 176, 288
-0.996872, 413, 129, 444, 256
-0.996879, 3, 133, 18, 164
-0.996884, 369, 205, 496, 236
-0.996887, 217, 97, 232, 128
-0.996905, 173, 17, 204, 144
-0.996928, 227, 97, 242, 128
-0.996935, 97, 33, 224, 96
-0.996966, 201, 33, 232, 288
-0.996981, 409, 33, 472, 288
-0.996998, 321, 277, 448, 308
-0.997028, 163, 241, 178, 272
-0.997037, 233, 97, 248, 128
-0.997041, 229, 109, 244, 140
-0.997042, 397, 161, 412, 192
-0.997046, 11, 125, 26, 156
-0.997063, 223, 117, 238, 148
-0.997063, 199, 309, 214, 340
-0.997069, 161, 17, 416, 80
-0.997079, 209, 97, 224, 128
-0.997084, 89, 65, 120, 320
-0.997085, 381, 97, 412, 352
-0.997118, 289, 1, 416, 32
-0.997119, 171, 249, 186, 280
-0.997121, 129, 329, 256, 360
-0.997125, 129, 85, 256, 116
-0.997149, 293, 109, 308, 140
-0.997153, 215, 305, 230, 336
-0.997165, 49, 157, 176, 188
-0.997176, 353, 85, 480, 116
-0.997203, 101, 49, 132, 176
-0.997208, 205, 309, 220, 340
-0.997209, 321, 173, 336, 204
-0.997217, 117, 157, 132, 188
-0.997221, 161, 33, 192, 288
-0.997226, 187, 309, 202, 340
-0.997232, 203, 97, 218, 128
-0.997241, 123, 157, 138, 188
-0.997246, 233, 305, 248, 336
-0.99725, 97, 145, 224, 176
-0.99727, 305, 145, 432, 176
-0.997275, 1, 141, 128, 172
-0.997285, 353, 65, 480, 96
-0.997289, 195, 101, 210, 132
-0.997309, 369, 157, 496, 188
-0.997312, 289, 149, 304, 180
-0.997317, 317, 157, 332, 188
-0.997327, 391, 165, 406, 196
-0.997328, 225, 85, 352, 116
-0.997329, 69, 33, 100, 160
-0.99733, 301, 97, 316, 128
-0.997332, 21, 133, 36, 164
-0.997345, 353, 49, 480, 80
-0.997346, 189, 97, 204, 128
-0.997354, 307, 105, 322, 136
-0.997358, 237, 229, 252, 260
-0.997373, 333, 157, 348, 188
-0.997376, 61, 65, 92, 320
-0.997379, 73, 229, 88, 260
-0.997388, 117, 265, 132, 296
-0.997391, 145, 285, 272, 316
-0.997391, 239, 97, 254, 128
-0.997402, 129, 185, 384, 248
-0.997408, 59, 181, 74, 212
-0.997425, 251, 97, 266, 128
-0.997428, 27, 137, 42, 168
-0.997433, 285, 113, 300, 144
-0.997434, 293, 129, 308, 160
-0.997435, 303, 117, 318, 148
-0.997435, 163, 313, 178, 344
-0.997435, 125, 33, 156, 160
-0.997448, 5, 145, 20, 176
-0.997449, 139, 305, 154, 336
-0.997455, 369, 113, 496, 144
-0.997456, 457, 1, 488, 256
-0.997466, 353, 37, 480, 68
-0.997471, 273, 77, 400, 108
-0.997479, 245, 97, 260, 128
-0.997482, 59, 201, 74, 232
-0.997494, 103, 261, 118, 292
-0.997516, 343, 89, 358, 120
-0.997521, 287, 97, 302, 128
-0.997522, 213, 109, 228, 140
-0.997528, 97, 261, 112, 292
-0.997529, 49, 65, 80, 320
-0.997531, 193, 289, 320, 320
-0.997537, 165, 253, 180, 284
-0.997538, 369, 185, 496, 216
-0.997554, 291, 229, 306, 260
-0.997555, 229, 121, 244, 152
-0.997574, 237, 109, 252, 140
-0.997578, 287, 161, 302, 192
-0.997582, 309, 169, 324, 200
-0.997608, 297, 161, 312, 192
-0.99761, 281, 297, 296, 328
-0.997612, 15, 145, 30, 176
-0.997614, 97, 109, 224, 140
-0.997614, 133, 305, 148, 336
-0.997628, 295, 97, 310, 128
-0.997638, 113, 233, 128, 264
-0.997641, 91, 261, 106, 292
-0.997656, 225, 313, 352, 344
-0.997668, 127, 265, 142, 296
-0.997669, 111, 265, 126, 296
-0.99767, 39, 237, 54, 268
-0.997674, 209, 153, 336, 184
-0.997682, 61, 221, 76, 252
-0.997683, 323, 153, 338, 184
-0.997688, 47, 181, 62, 212
-0.997689, 157, 241, 172, 272
-0.997691, 145, 305, 160, 336
-0.997691, 177, 217, 304, 248
-0.997695, 257, 97, 272, 128
-0.997697, 3, 113, 18, 144
-0.9977, 33, 89, 160, 120
-0.997701, 157, 313, 172, 344
-0.997702, 305, 13, 432, 44
-0.997703, 393, 129, 424, 375
-0.997704, 159, 257, 174, 288
-0.997706, 177, 241, 192, 272
-0.997709, 399, 213, 414, 244
-0.99771, 311, 93, 326, 124
-0.997715, 67, 189, 82, 220
-0.99772, 169, 313, 184, 344
-0.997722, 145, 1, 176, 128
-0.997734, 401, 173, 416, 204
-0.99774, 81, 281, 208, 312
-0.997751, 209, 9, 336, 72
-0.997754, 445, 81, 476, 208
-0.997756, 379, 157, 394, 188
-0.997757, 369, 233, 496, 264
-0.997759, 63, 233, 78, 264
-0.997763, 1, 65, 500, 128
-0.997763, 179, 109, 194, 140
-0.997764, 125, 285, 140, 316
-0.997768, 329, 97, 344, 128
-0.997769, 159, 301, 174, 332
-0.997774, 119, 233, 134, 264
-0.997785, 371, 249, 386, 280
-0.997786, 107, 233, 122, 264
-0.997788, 181, 309, 196, 340
-0.99779, 229, 225, 244, 256
-0.997791, 295, 249, 310, 280
-0.997795, 43, 221, 58, 252
-0.997795, 335, 97, 350, 128
-0.997799, 315, 169, 330, 200
-0.997821, 223, 317, 238, 348
-0.99783, 81, 121, 208, 152
-0.997836, 177, 269, 304, 300
-0.997851, 211, 317, 226, 348
-0.997856, 77, 289, 92, 320
-0.997858, 357, 33, 388, 288
-0.997858, 113, 281, 128, 312
-0.997862, 127, 305, 142, 336
-0.997867, 49, 141, 176, 172
-0.997876, 285, 229, 300, 260
-0.997884, 183, 237, 198, 268
-0.997887, 189, 233, 204, 264
-0.997888, 145, 133, 160, 164
-0.997891, 271, 97, 286, 128
-0.997896, 71, 285, 86, 316
-0.997908, 267, 161, 282, 192
-0.997917, 51, 209, 66, 240
-0.997921, 67, 245, 82, 276
-0.997924, 397, 145, 412, 176
-0.997925, 409, 213, 424, 244
-0.997927, 41, 181, 56, 212
-0.997934, 365, 245, 380, 276
-0.997934, 395, 113, 410, 144
-0.997939, 287, 265, 302, 296
-0.99794, 1, 117, 128, 148
-0.997947, 129, 145, 144, 176
-0.997948, 151, 313, 166, 344
-0.997949, 35, 189, 50, 220
-0.997951, 237, 241, 252, 272
-0.997958, 151, 297, 166, 328
-0.997961, 467, 1, 482, 32
-0.997962, 373, 157, 388, 188
-0.997964, 263, 97, 278, 128
-0.997967, 53, 181, 68, 212
-0.997967, 9, 105, 24, 136
-0.997968, 45, 49, 76, 176
-0.997978, 217, 317, 232, 348
-0.997982, 13, 1, 44, 256
-0.998008, 321, 193, 448, 224
-0.998033, 1, 265, 128, 296
-0.998039, 133, 1, 164, 256
-0.998041, 177, 85, 304, 116
-0.99808, 221, 17, 252, 144
-0.998087, 33, 341, 160, 372
-0.998092, 289, 25, 416, 56
-0.998146, 469, 97, 500, 352
-0.998167, 225, 1, 352, 32
-0.998167, 385, 241, 416, 368
-0.998202, 73, 65, 104, 320
-0.998202, 309, 1, 340, 256
-0.998207, 209, 333, 336, 364
-0.998242, 17, 129, 144, 160
-0.998257, 225, 81, 240, 208
-0.99828, 1, 177, 128, 208
-0.998283, 25, 33, 56, 288
-0.998286, 325, 33, 356, 288
-0.998301, 353, 137, 480, 168
-0.998303, 369, 33, 400, 288
-0.998318, 49, 209, 176, 240
-0.998322, 79, 209, 94, 336
-0.998328, 301, 81, 316, 208
-0.998372, 289, 159, 352, 174
-0.998372, 353, 223, 416, 238
-0.998391, 273, 173, 336, 188
-0.998399, 91, 209, 106, 336
-0.998403, 369, 297, 496, 360
-0.998407, 297, 103, 360, 118
-0.998409, 105, 299, 168, 314
-0.998411, 185, 311, 248, 326
-0.998413, 25, 249, 88, 264
-0.998419, 97, 209, 112, 336
-0.998422, 291, 81, 306, 208
-0.998425, 297, 165, 360, 180
-0.998428, 161, 319, 224, 334
-0.998438, 269, 269, 300, 284
-0.998439, 173, 241, 204, 256
-0.998439, 217, 113, 248, 128
-0.998441, 181, 117, 212, 132
-0.998441, 113, 297, 144, 312
-0.998442, 297, 229, 328, 244
-0.998442, 301, 125, 332, 140
-0.998443, 193, 229, 224, 244
-0.998445, 277, 131, 308, 146
-0.998446, 197, 101, 228, 116
-0.998447, 117, 237, 148, 252
-0.998447, 265, 275, 296, 290
-0.998448, 25, 189, 88, 204
-0.99845, 265, 255, 328, 270
-0.99845, 345, 255, 376, 270
-0.998451, 309, 181, 340, 196
-0.998452, 1, 109, 32, 124
-0.998453, 85, 209, 100, 336
-0.998454, 53, 253, 84, 268
-0.998454, 257, 299, 288, 314
-0.998455, 293, 97, 324, 112
-0.998458, 5, 235, 36, 250
-0.998458, 81, 85, 208, 116
-0.998459, 217, 135, 248, 150
-0.998459, 137, 309, 168, 324
-0.99846, 445, 179, 476, 194
-0.99846, 113, 107, 144, 122
-0.99846, 261, 285, 292, 300
-0.99846, 265, 179, 328, 194
-0.99846, 21, 253, 52, 268
-0.998461, 337, 33, 368, 288
-0.998463, 49, 213, 80, 228
-0.998464, 125, 153, 156, 168
-0.998464, 45, 219, 76, 234
-0.998465, 25, 223, 88, 238
-0.998466, 361, 163, 392, 178
-0.998466, 197, 111, 228, 126
-0.998467, 13, 147, 44, 162
-0.998467, 185, 237, 216, 252
-0.998467, 305, 115, 336, 130
-0.998468, 257, 309, 288, 324
-0.99847, 1, 233, 64, 248
-0.99847, 277, 245, 308, 260
-0.998472, 329, 173, 360, 188
-0.998472, 185, 111, 248, 126
-0.998473, 377, 159, 408, 174
-0.998473, 137, 311, 200, 326
-0.998473, 113, 217, 240, 248
-0.998473, 433, 129, 464, 375
-0.998474, 381, 111, 412, 126
-0.998474, 185, 103, 216, 118
-0.998476, 69, 297, 100, 312
-0.998476, 353, 125, 480, 156
-0.998477, 153, 261, 216, 276
-0.998477, 129, 301, 192, 316
-0.998477, 301, 255, 332, 270
-0.998477, 149, 307, 180, 322
-0.998478, 57, 293, 88, 308
-0.998478, 225, 239, 256, 254
-0.998478, 273, 257, 304, 272
-0.998479, 17, 233, 48, 248
-0.998479, 109, 285, 140, 300
-0.99848, 265, 165, 328, 180
-0.99848, 225, 245, 288, 260
-0.99848, 273, 233, 336, 248
-0.998483, 389, 215, 420, 230
-0.998484, 337, 91, 368, 106
-0.998484, 137, 317, 200, 332
-0.998484, 377, 119, 408, 134
-0.998484, 17, 137, 48, 152
-0.998485, 185, 317, 248, 332
-0.998486, 321, 173, 384, 188
-0.998487, 269, 263, 300, 278
-0.998487, 297, 175, 328, 190
-0.998488, 353, 167, 416, 182
-0.998488, 281, 121, 344, 136
-0.998488, 25, 183, 88, 198
-0.998489, 17, 203, 80, 218
-0.998489, 125, 319, 156, 334
-0.99849, 185, 121, 248, 136
-0.998491, 37, 249, 68, 264
-0.998491, 357, 253, 388, 268
-0.998491, 117, 165, 148, 180
-0.998491, 65, 301, 128, 316
-0.998492, 329, 227, 392, 242
-0.998492, 273, 153, 336, 168
-0.998493, 105, 235, 136, 250
-0.998493, 257, 115, 320, 130
-0.998493, 321, 99, 384, 114
-0.998494, 229, 231, 260, 246
-0.998495, 233, 305, 264, 320
-0.998495, 285, 259, 316, 274
-0.998495, 257, 261, 320, 276
-0.998496, 17, 209, 80, 224
-0.998496, 161, 117, 224, 132
-0.998496, 213, 239, 244, 254
-0.998497, 285, 139, 316, 154
-0.998497, 277, 123, 308, 138
-0.998498, 85, 281, 116, 296
-0.998498, 149, 319, 180, 334
-0.998499, 209, 319, 272, 334
-0.998499, 385, 165, 416, 180
-0.998499, 273, 239, 336, 254
-0.9985, 225, 113, 288, 128
-0.9985, 25, 225, 56, 240
-0.998501, 33, 255, 96, 270
-0.998501, 25, 197, 88, 212
-0.998501, 389, 177, 420, 192
-0.998502, 313, 233, 376, 248
-0.998502, 73, 209, 88, 336
-0.998502, 329, 163, 392, 178
-0.998503, 73, 235, 136, 250
-0.998503, 217, 309, 280, 324
-0.998504, 193, 229, 256, 244
-0.998504, 149, 263, 180, 278
-0.998505, 233, 113, 264, 128
-0.998507, 37, 237, 68, 252
-0.998507, 289, 131, 320, 146
-0.998507, 265, 165, 296, 180
-0.998508, 231, 161, 246, 288
-0.998508, 281, 171, 312, 186
-0.998509, 201, 311, 232, 326
-0.998509, 149, 243, 180, 258
-0.998511, 113, 241, 176, 256
-0.998512, 49, 241, 80, 256
-0.998514, 293, 181, 324, 196
-0.998515, 273, 65, 400, 96
-0.998517, 341, 167, 372, 182
-0.998518, 257, 281, 320, 296
-0.998519, 53, 287, 84, 302
-0.998519, 317, 159, 348, 174
-0.998521, 189, 311, 220, 326
-0.998521, 25, 241, 88, 256
-0.998521, 57, 281, 120, 296
-0.998521, 1, 147, 32, 162
-0.998522, 257, 269, 320, 284
-0.998523, 225, 303, 288, 318
-0.998523, 177, 243, 240, 258
-0.998524, 217, 315, 248, 330
-0.998525, 265, 245, 328, 260
-0.998526, 65, 57, 320, 120
-0.998526, 217, 309, 248, 324
-0.998527, 321, 257, 384, 272
-0.998528, 137, 319, 168, 334
-0.998529, 69, 289, 100, 304
-0.998529, 161, 259, 192, 274
-0.998529, 257, 159, 320, 174
-0.998529, 257, 123, 320, 138
-0.998529, 221, 1, 252, 256
-0.99853, 257, 97, 320, 112
-0.99853, 169, 317, 200, 332
-0.998531, 41, 233, 104, 248
-0.998533, 49, 227, 80, 242
-0.998534, 203, 161, 218, 288
-0.998534, 221, 249, 252, 264
-0.998534, 225, 259, 288, 274
-0.998535, 177, 129, 240, 144
-0.998535, 281, 263, 344, 278
-0.998535, 353, 251, 416, 266
-0.998536, 113, 309, 176, 324
-0.998536, 281, 239, 312, 254
-0.998537, 69, 233, 100, 248
-0.998537, 297, 93, 360, 108
-0.998537, 125, 299, 156, 314
-0.998538, 277, 157, 308, 172
-0.998539, 233, 235, 296, 250
-0.99854, 357, 225, 388, 240
-0.99854, 309, 103, 340, 118
-0.99854, 217, 129, 248, 144
-0.998541, 297, 251, 360, 266
-0.998542, 25, 217, 88, 232
-0.998543, 285, 149, 316, 164
-0.998546, 273, 143, 336, 158
-0.998547, 193, 249, 256, 264
-0.998548, 377, 217, 440, 232
-0.998548, 41, 287, 104, 302
-0.998549, 293, 163, 324, 178
-0.998549, 81, 107, 144, 122
-0.99855, 209, 161, 224, 288
-0.998551, 185, 323, 248, 338
-0.998553, 369, 223, 400, 238
-0.998553, 209, 123, 272, 138
-0.998554, 317, 233, 348, 248
-0.998554, 121, 263, 184, 278
-0.998555, 281, 115, 344, 130
-0.998555, 361, 161, 424, 176
-0.998556, 249, 287, 312, 302
-0.998556, 57, 245, 120, 260
-0.998557, 105, 319, 168, 334
-0.998557, 121, 145, 184, 160
-0.998557, 201, 239, 264, 254
-0.998558, 297, 237, 328, 252
-0.99856, 337, 229, 368, 244
-0.998561, 153, 303, 216, 318
-0.998561, 281, 185, 344, 200
-0.998561, 1, 109, 64, 124
-0.998563, 297, 171, 360, 186
-0.998564, 153, 239, 216, 254
-0.998564, 249, 173, 312, 188
-0.998564, 433, 181, 496, 196
-0.998564, 137, 135, 200, 150
-0.998565, 297, 109, 360, 124
-0.998565, 297, 177, 360, 192
-0.998566, 249, 307, 312, 322
-0.998569, 337, 157, 400, 172
-0.99857, 37, 243, 68, 258
-0.99857, 309, 175, 340, 190
-0.998571, 49, 183, 80, 198
-0.998574, 169, 247, 200, 262
-0.998575, 337, 97, 368, 112
-0.998575, 177, 237, 240, 252
-0.998575, 5, 127, 36, 142
-0.998576, 89, 307, 152, 322
-0.998577, 89, 293, 152, 308
-0.998577, 233, 253, 296, 268
-0.998578, 309, 97, 340, 112
-0.998579, 265, 109, 328, 124
-0.998579, 41, 293, 104, 308
-0.99858, 401, 203, 464, 218
-0.99858, 1, 227, 64, 242
-0.998581, 233, 315, 296, 330
-0.998581, 97, 173, 160, 188
-0.998582, 289, 125, 320, 140
-0.998582, 329, 103, 360, 118
-0.998583, 277, 177, 308, 192
-0.998585, 153, 255, 216, 270
-0.998585, 185, 321, 216, 336
-0.998587, 321, 93, 384, 108
-0.998588, 9, 143, 72, 158
-0.998589, 293, 155, 324, 170
-0.99859, 57, 107, 120, 122
-0.99859, 361, 143, 424, 158
-0.99859, 219, 161, 234, 288
-0.99859, 337, 105, 400, 120
-0.998591, 177, 103, 240, 118
-0.998592, 153, 245, 216, 260
-0.998594, 393, 175, 456, 190
-0.998594, 205, 319, 236, 334
-0.998594, 169, 115, 200, 130
-0.998595, 25, 303, 88, 318
-0.998595, 241, 179, 304, 194
-0.998596, 209, 129, 272, 144
-0.998596, 149, 301, 180, 316
-0.998596, 105, 167, 168, 182
-0.998597, 293, 109, 324, 124
-0.998597, 97, 235, 160, 250
-0.998598, 293, 117, 324, 132
-0.998599, 9, 259, 72, 274
-0.998599, 161, 311, 224, 326
-0.998599, 361, 257, 424, 272
-0.998599, 129, 177, 192, 192
-0.9986, 217, 97, 280, 112
-0.998601, 177, 257, 240, 272
-0.998601, 103, 225, 118, 352
-0.998601, 81, 281, 144, 296
-0.998601, 281, 227, 344, 242
-0.998601, 145, 127, 208, 142
-0.998603, 249, 293, 312, 308
-0.998603, 165, 253, 196, 268
-0.998616, 131, 97, 146, 224
-0.998616, 293, 169, 324, 184
-0.998617, 273, 115, 304, 130
-0.998622, 51, 161, 66, 288
-0.998623, 219, 81, 234, 208
-0.998623, 421, 129, 452, 375
-0.998627, 137, 301, 168, 316
-0.998628, 277, 163, 308, 178
-0.998628, 281, 233, 312, 248
-0.998632, 111, 209, 126, 336
-0.998633, 67, 209, 82, 336
-0.998639, 289, 209, 304, 336
-0.998644, 275, 97, 290, 224
-0.998647, 385, 221, 416, 236
-0.99865, 241, 161, 256, 288
-0.998667, 457, 97, 488, 352
-0.998668, 145, 153, 272, 184
-0.998673, 273, 213, 400, 244
-0.998676, 231, 113, 246, 240
-0.998688, 303, 161, 318, 288
-0.998689, 197, 161, 212, 288
-0.99869, 217, 121, 248, 136
-0.998695, 279, 161, 294, 288
-0.998698, 117, 209, 132, 336
-0.998707, 445, 1, 476, 256
-0.998709, 273, 53, 400, 84
-0.998712, 225, 161, 240, 288
-0.998717, 213, 81, 228, 208
-0.998723, 241, 185, 368, 216
-0.998725, 405, 129, 436, 375
-0.998725, 297, 161, 312, 288
-0.998725, 191, 161, 206, 288
-0.998726, 43, 161, 58, 288
-0.998741, 333, 81, 348, 208
-0.998746, 45, 209, 60, 336
-0.998757, 145, 345, 272, 375
-0.998762, 307, 97, 322, 224
-0.998765, 29, 177, 44, 304
-0.998783, 281, 81, 296, 208
-0.99879, 289, 129, 304, 256
-0.998795, 273, 37, 400, 68
-0.998796, 111, 161, 126, 288
-0.998798, 179, 161, 194, 288
-0.998804, 237, 81, 252, 208
-0.998805, 397, 145, 412, 272
-0.998809, 211, 209, 226, 336
-0.99881, 1, 1, 32, 256
-0.998815, 11, 81, 26, 208
-0.99882, 295, 209, 310, 336
-0.998825, 321, 193, 336, 320
-0.998826, 321, 129, 336, 256
-0.998827, 283, 209, 298, 336
-0.998834, 169, 161, 184, 288
-0.998835, 201, 209, 216, 336
-0.998836, 61, 193, 76, 320
-0.998845, 155, 209, 170, 336
-0.998851, 121, 97, 136, 224
-0.998857, 333, 145, 348, 272
-0.998862, 137, 81, 152, 208
-0.998865, 157, 97, 172, 224
-0.998868, 33, 321, 160, 352
-0.99887, 163, 225, 178, 352
-0.998879, 143, 209, 158, 336
-0.998882, 185, 97, 200, 224
-0.99889, 185, 161, 200, 288
-0.998892, 267, 241, 282, 368
-0.998894, 137, 129, 152, 256
-0.998904, 315, 193, 330, 320
-0.998906, 267, 81, 282, 208
-0.998906, 35, 177, 50, 304
-0.998909, 35, 97, 50, 224
-0.998911, 369, 289, 496, 320
-0.998915, 149, 209, 164, 336
-0.99892, 367, 145, 382, 272
-0.998921, 137, 209, 152, 336
-0.998923, 39, 225, 54, 352
-0.998924, 165, 97, 180, 224
-0.998925, 131, 209, 146, 336
-0.998927, 105, 161, 120, 288
-0.99894, 309, 161, 324, 288
-0.998941, 193, 209, 208, 336
-0.998942, 247, 161, 262, 288
-0.998943, 217, 209, 232, 336
-0.998949, 59, 145, 74, 272
-0.998949, 45, 97, 60, 224
-0.998952, 143, 129, 158, 256
-0.998952, 1, 153, 128, 184
-0.998957, 327, 97, 342, 224
-0.998959, 145, 81, 160, 208
-0.99896, 473, 81, 488, 208
-0.998962, 181, 225, 196, 352
-0.998965, 5, 97, 20, 224
-0.998969, 73, 161, 88, 288
-0.998972, 67, 161, 82, 288
-0.998974, 225, 225, 240, 352
-0.998976, 51, 209, 66, 336
-0.998983, 161, 161, 176, 288
-0.998985, 273, 161, 288, 288
-0.99899, 303, 241, 318, 368
-0.998992, 51, 97, 66, 224
-0.998998, 191, 81, 206, 208
-0.998999, 115, 97, 130, 224
-0.999006, 59, 241, 74, 368
-0.999007, 37, 1, 68, 256
-0.999009, 123, 209, 138, 336
-0.999009, 169, 225, 184, 352
-0.999011, 339, 81, 354, 208
-0.999011, 123, 161, 138, 288
-0.999029, 79, 161, 94, 288
-0.99904, 277, 225, 292, 352
-0.999046, 241, 241, 256, 368
-0.999046, 61, 97, 76, 224
-0.999049, 445, 129, 476, 375
-0.999054, 97, 161, 112, 288
-0.999059, 231, 65, 246, 192
-0.99906, 309, 209, 324, 336
-0.999062, 267, 145, 282, 272
-0.999079, 485, 97, 500, 224
-0.999082, 175, 225, 190, 352
-0.999084, 273, 301, 400, 332
-0.999085, 259, 97, 274, 224
-0.999089, 151, 81, 166, 208
-0.999091, 369, 225, 384, 352
-0.999093, 197, 81, 212, 208
-0.999094, 247, 113, 262, 240
-0.999095, 97, 341, 224, 372
-0.999096, 175, 81, 190, 208
-0.999096, 207, 81, 222, 208
-0.999097, 315, 145, 330, 272
-0.999099, 235, 225, 250, 352
-0.999102, 355, 161, 370, 288
-0.999102, 321, 205, 448, 236
-0.999104, 349, 161, 364, 288
-0.999108, 367, 81, 382, 208
-0.999108, 87, 161, 102, 288
-0.999109, 395, 97, 410, 224
-0.999111, 187, 225, 202, 352
-0.999115, 401, 193, 416, 320
-0.999116, 23, 129, 38, 256
-0.999134, 373, 145, 388, 272
-0.999135, 129, 145, 144, 272
-0.999142, 261, 161, 276, 288
-0.999144, 253, 81, 268, 208
-0.999154, 369, 1, 432, 256
-0.999186, 65, 189, 192, 220
-0.999201, 369, 257, 496, 288
-0.999248, 109, 1, 140, 256
-0.999332, 469, 1, 500, 256
-0.999415, 33, 9, 288, 72
-0.999444, 49, 33, 176, 96
-0.999501, 1, 41, 500, 104
-0.999608, 401, 33, 432, 288
-0.999636, 397, 157, 412, 172
-0.999637, 385, 111, 400, 126
-0.999638, 297, 261, 312, 276
-0.999638, 99, 235, 114, 250
-0.999638, 235, 113, 250, 128
-0.999639, 201, 101, 216, 116
-0.99964, 117, 235, 132, 250
-0.99964, 241, 231, 256, 246
-0.999641, 319, 97, 334, 112
-0.999641, 49, 219, 64, 234
-0.999644, 173, 245, 188, 260
-0.999644, 303, 105, 318, 120
-0.999645, 63, 245, 78, 260
-0.999646, 143, 137, 158, 152
-0.999646, 391, 111, 406, 126
-0.999647, 375, 257, 390, 272
-0.999648, 345, 101, 360, 116
-0.999648, 191, 311, 206, 326
-0.999649, 271, 269, 286, 284
-0.999649, 339, 103, 354, 118
-0.99965, 43, 235, 58, 250
-0.999652, 61, 231, 76, 246
-0.999652, 287, 169, 302, 184
-0.999652, 121, 149, 136, 164
-0.999653, 279, 115, 294, 130
-0.999656, 3, 129, 18, 144
-0.999656, 151, 305, 166, 320
-0.999656, 127, 107, 142, 122
-0.999656, 155, 263, 170, 278
-0.999657, 227, 307, 242, 322
-0.999658, 213, 311, 228, 326
-0.999659, 375, 161, 390, 176
-0.99966, 53, 181, 68, 196
-0.999661, 5, 109, 20, 124
-0.999661, 5, 121, 20, 136
-0.999662, 303, 99, 318, 114
-0.999662, 405, 217, 420, 232
-0.999662, 229, 113, 244, 128
-0.999662, 223, 133, 238, 148
-0.999662, 3, 143, 18, 158
-0.999664, 229, 315, 244, 330
-0.999665, 131, 299, 146, 314
-0.999667, 311, 235, 326, 250
-0.999667, 155, 127, 170, 142
-0.999667, 167, 117, 182, 132
-0.999668, 225, 241, 240, 256
-0.99967, 5, 149, 20, 164
-0.99967, 399, 165, 414, 180
-0.999671, 229, 121, 244, 136
-0.999673, 195, 103, 210, 118
-0.999674, 139, 317, 154, 332
-0.999675, 315, 117, 330, 132
-0.999676, 39, 243, 54, 258
-0.999677, 333, 159, 348, 174
-0.999678, 73, 293, 88, 308
-0.999678, 323, 183, 338, 198
-0.999678, 343, 89, 358, 104
-0.999678, 235, 249, 250, 264
-0.99968, 275, 167, 290, 182
-0.999681, 185, 319, 200, 334
-0.999682, 377, 221, 392, 236
-0.999683, 273, 115, 288, 130
-0.999683, 369, 163, 384, 178
-0.999684, 59, 213, 74, 228
-0.999684, 153, 319, 168, 334
-0.999685, 163, 319, 178, 334
-0.999685, 371, 251, 386, 266
-0.999687, 177, 111, 192, 126
-0.999687, 301, 125, 316, 140
-0.999688, 137, 143, 152, 158
-0.999692, 13, 147, 28, 162
-0.999692, 221, 309, 236, 324
-0.999694, 163, 301, 178, 316
-0.999695, 289, 231, 304, 246
-0.999696, 315, 175, 330, 190
-0.999699, 305, 181, 320, 196
-0.999699, 121, 157, 136, 172
-0.9997, 129, 147, 144, 162
-0.999703, 287, 163, 302, 178
-0.999703, 209, 319, 224, 334
-0.999703, 61, 285, 76, 300
-0.999707, 187, 111, 202, 126
-0.999709, 295, 119, 310, 134
-0.999711, 397, 175, 412, 190
-0.999711, 147, 319, 162, 334
-0.999711, 203, 321, 218, 336
-0.999711, 127, 153, 142, 168
-0.999712, 327, 101, 342, 116
-0.999712, 345, 95, 360, 110
-0.999714, 309, 111, 324, 126
-0.999714, 161, 261, 176, 276
-0.999715, 215, 319, 230, 334
-0.999716, 289, 149, 304, 164
-0.999716, 313, 97, 328, 112
-0.999716, 321, 233, 336, 248
-0.999717, 167, 257, 182, 272
-0.999718, 71, 231, 86, 246
-0.99972, 391, 177, 406, 192
-0.999721, 331, 231, 346, 246
-0.999723, 27, 137, 42, 152
-0.999723, 293, 125, 308, 140
-0.999724, 341, 229, 356, 244
-0.999725, 197, 321, 212, 336
-0.999727, 11, 125, 26, 140
-0.99973, 351, 227, 366, 242
-0.999731, 291, 137, 306, 152
-0.999736, 293, 131, 308, 146
-0.999737, 149, 299, 164, 314
-0.999737, 361, 225, 376, 240
-0.999739, 191, 321, 206, 336
-0.999739, 383, 221, 398, 236
-0.999739, 1, 1, 500, 64
-0.99974, 289, 155, 304, 170
-0.99974, 371, 223, 386, 238
-0.999741, 281, 305, 296, 320
-0.999741, 171, 251, 186, 266
-0.999742, 133, 317, 148, 332
-0.999745, 393, 219, 408, 234
-0.999745, 291, 143, 306, 158
-0.999748, 163, 243, 178, 258
-0.999748, 223, 317, 238, 332
-0.999752, 1, 33, 256, 96
-0.999755, 297, 109, 312, 124
-0.999761, 285, 115, 300, 130
-0.999761, 303, 119, 318, 134
-0.999767, 69, 287, 84, 302
-0.999773, 117, 163, 132, 178
-0.999775, 33, 57, 160, 120
-0.999778, 143, 299, 158, 314
-0.999785, 399, 219, 414, 234
-0.999786, 157, 301, 172, 316
-0.999791, 137, 299, 152, 314
-0.999806, 333, 101, 348, 116
-0.999817, 241, 17, 304, 144
-1.00003, 433, 241, 496, 368
-1.00011, 381, 1, 412, 256
-1.00029, 49, 9, 176, 72
-1.00044, 433, 33, 464, 288
-1.00061, 413, 33, 444, 288
-1.00222, 1, 1, 128, 64
-1.00246, 321, 313, 448, 375
-1.0025, 1, 33, 128, 96
-1.00324, 97, 1, 160, 128
-1.00449, 33, 1, 160, 128
-1.00529, 25, 1, 88, 128
-1.01058, 1, 1, 64, 128
-1.01075, 57, 1, 120, 128
