1992
-0.348399, 1, 1, 500, 399
-0.459458, 129, 1, 384, 399
-0.461417, 1, 1, 500, 256
-0.471153, 1, 97, 500, 352
-0.478897, 33, 1, 288, 399
-0.516934, 257, 1, 500, 399
-0.631702, 129, 65, 384, 320
-0.647858, 225, 1, 480, 256
-0.672534, 1, 1, 256, 256
-0.714809, 225, 97, 480, 352
-0.725506, 1, 97, 256, 352
-0.844751, 1, 1, 128, 256
-0.849798, 1, 1, 128, 399
-0.862527, 257, 1, 384, 399
-0.870318, 65, 1, 192, 399
-0.872757, 145, 1, 272, 399
-0.872918, 1, 273, 500, 399
-0.87431, 353, 1, 480, 399
-0.874476, 209, 1, 336, 399
-0.87623, 33, 97, 160, 352
-0.878806, 113, 97, 240, 352
-0.880773, 273, 97, 400, 352
-0.883195, 225, 1, 352, 256
-0.883305, 353, 1, 480, 256
-0.883683, 305, 1, 432, 399
-0.884668, 161, 1, 288, 256
-0.888007, 209, 97, 336, 352
-0.895621, 161, 97, 288, 352
-0.89679, 65, 1, 192, 256
-0.899286, 305, 1, 432, 256
-0.903565, 113, 1, 240, 256
-0.903975, 1, 65, 500, 192
-0.912531, 1, 129, 500, 256
-0.913786, 161, 65, 416, 192
-0.914527, 161, 257, 416, 384
-0.916, 337, 97, 464, 352
-0.918043, 1, 1, 500, 128
-0.922244, 33, 81, 288, 208
-0.926587, 65, 273, 320, 399
-0.927472, 289, 273, 352, 399
-0.928392, 129, 129, 384, 256
-0.930061, 273, 273, 400, 399
-0.935944, 193, 257, 320, 384
-0.936434, 257, 49, 500, 176
-0.937037, 65, 1, 320, 128
-0.938281, 1, 33, 128, 160
-0.938851, 225, 129, 480, 256
-0.939389, 65, 313, 128, 376
-0.939915, 33, 129, 288, 256
-0.941192, 113, 273, 240, 399
-0.941508, 225, 65, 352, 192
-0.942905, 313, 273, 376, 399
-0.943574, 225, 1, 480, 128
-0.943719, 337, 273, 400, 399
-0.944352, 89, 273, 152, 399
-0.94536, 273, 65, 400, 192
-0.9454, 65, 81, 192, 208
-0.94653, 89, 305, 152, 368
-0.94755, 137, 273, 200, 399
-0.94763, 1, 225, 500, 352
-0.948764, 65, 273, 192, 399
-0.949157, 41, 113, 104, 240
-0.950099, 289, 321, 352, 384
-0.9505, 353, 65, 480, 192
-0.950676, 273, 129, 400, 256
-0.951282, 233, 65, 296, 192
-0.951473, 145, 49, 272, 176
-0.951537, 161, 1, 288, 128
-0.95201, 209, 129, 336, 256
-0.952067, 17, 129, 144, 256
-0.952691, 161, 273, 224, 399
-0.953179, 241, 257, 304, 384
-0.953811, 313, 65, 376, 192
-0.95415, 1, 81, 128, 208
-0.95433, 337, 313, 400, 376
-0.954431, 113, 273, 176, 399
-0.954574, 225, 1, 352, 128
-0.954874, 337, 129, 400, 256
-0.955094, 257, 273, 500, 399
-0.955398, 129, 129, 256, 256
-0.955649, 305, 129, 368, 256
-0.956592, 89, 329, 152, 392
-0.956948, 65, 273, 128, 399
-0.956997, 257, 65, 320, 192
-0.9571, 265, 257, 328, 384
-0.957152, 289, 289, 352, 352
-0.957641, 9, 49, 72, 176
-0.957662, 161, 49, 224, 176
-0.9578, 233, 129, 296, 256
-0.958329, 281, 65, 344, 192
-0.958728, 41, 105, 104, 168
-0.958966, 265, 129, 328, 256
-0.959031, 209, 81, 272, 208
-0.959062, 281, 1, 344, 128
-0.959854, 33, 209, 288, 336
-0.960202, 9, 129, 72, 256
-0.960305, 65, 81, 128, 208
-0.960319, 225, 1, 288, 128
-0.960547, 313, 289, 376, 352
-0.960924, 65, 1, 192, 128
-0.960969, 185, 273, 248, 336
-0.960972, 257, 1, 320, 128
-0.961299, 145, 297, 208, 360
-0.961499, 209, 129, 272, 256
-0.961685, 113, 305, 176, 368
-0.96202, 201, 257, 264, 384
-0.962116, 273, 1, 400, 128
-0.962301, 25, 329, 88, 392
-0.962416, 265, 329, 328, 392
-0.962635, 161, 129, 224, 256
-0.962649, 73, 313, 104, 376
-0.962727, 265, 273, 328, 336
-0.963244, 65, 337, 128, 399
-0.963795, 353, 49, 416, 176
-0.9638, 41, 17, 104, 144
-0.963822, 225, 209, 480, 336
-0.96388, 313, 337, 376, 399
-0.96414, 185, 97, 248, 224
-0.964289, 129, 81, 192, 208
-0.964469, 49, 321, 176, 384
-0.964488, 41, 65, 104, 192
-0.964504, 185, 49, 248, 176
-0.964715, 321, 113, 448, 240
-0.964901, 129, 209, 384, 336
-0.965834, 193, 1, 256, 128
-0.966202, 313, 313, 376, 376
-0.966275, 33, 33, 96, 96
-0.96628, 9, 1, 72, 256
-0.966367, 65, 129, 192, 256
-0.966593, 353, 337, 416, 399
-0.966783, 161, 1, 224, 128
-0.966982, 117, 305, 148, 368
-0.967049, 113, 1, 240, 128
-0.967079, 377, 65, 440, 192
-0.967117, 361, 113, 424, 240
-0.967183, 1, 273, 128, 399
-0.96721, 137, 129, 200, 256
-0.967825, 33, 1, 96, 256
-0.968166, 25, 273, 88, 399
-0.96821, 161, 273, 224, 336
-0.968327, 9, 33, 72, 96
-0.968558, 321, 273, 448, 399
-0.968628, 337, 1, 400, 128
-0.968719, 97, 209, 224, 336
-0.968788, 1, 321, 64, 384
-0.969181, 73, 121, 136, 184
-0.969415, 289, 297, 416, 360
-0.969517, 265, 297, 328, 360
-0.969881, 321, 1, 448, 128
-0.970264, 369, 273, 432, 399
-0.970429, 305, 321, 432, 384
-0.970457, 369, 313, 400, 376
-0.971177, 121, 329, 184, 392
-0.971245, 317, 273, 348, 399
-0.971429, 25, 305, 88, 368
-0.971582, 105, 305, 136, 368
-0.971588, 9, 105, 72, 168
-0.971759, 9, 321, 40, 384
-0.971777, 1, 177, 500, 304
-0.972077, 233, 265, 296, 328
-0.972118, 81, 1, 144, 128
-0.972417, 1, 321, 128, 384
-0.972455, 257, 329, 384, 392
-0.972527, 1, 105, 128, 168
-0.972566, 337, 129, 400, 192
-0.972793, 345, 289, 408, 352
-0.973033, 125, 329, 156, 392
-0.973181, 369, 273, 400, 399
-0.973243, 41, 137, 104, 200
-0.97327, 273, 225, 400, 352
-0.973279, 85, 313, 116, 376
-0.97328, 377, 329, 440, 392
-0.973333, 313, 321, 344, 384
-0.973368, 305, 1, 368, 128
-0.973707, 97, 329, 128, 392
-0.973885, 81, 281, 144, 344
-0.973921, 73, 97, 136, 160
-0.97406, 265, 137, 328, 200
-0.974151, 293, 321, 324, 384
-0.97418, 121, 225, 184, 352
-0.9743, 49, 209, 176, 336
-0.974483, 193, 209, 320, 336
-0.974682, 1, 33, 128, 96
-0.974799, 297, 273, 328, 399
-0.97484, 305, 97, 368, 352
-0.974894, 361, 121, 424, 184
-0.97496, 241, 137, 304, 200
-0.97498, 113, 297, 240, 360
-0.975314, 225, 209, 288, 336
-0.975374, 297, 137, 360, 200
-0.975587, 121, 273, 152, 399
-0.975741, 401, 65, 464, 192
-0.975745, 113, 129, 176, 256
-0.976035, 321, 225, 384, 352
-0.976051, 177, 265, 304, 328
-0.976066, 357, 273, 388, 399
-0.976148, 233, 289, 296, 352
-0.976262, 65, 297, 192, 360
-0.976419, 241, 281, 368, 344
-0.976439, 337, 105, 400, 168
-0.97645, 65, 129, 128, 256
-0.976502, 181, 281, 212, 344
-0.976546, 385, 329, 416, 392
-0.97665, 369, 273, 496, 399
-0.976857, 377, 97, 440, 160
-0.976897, 329, 273, 360, 399
-0.976914, 165, 289, 196, 352
-0.97695, 73, 17, 136, 80
-0.976984, 137, 305, 168, 368
-0.977059, 217, 137, 280, 200
-0.977327, 297, 209, 360, 336
-0.977374, 9, 137, 72, 200
-0.977693, 53, 129, 84, 256
-0.977695, 193, 113, 256, 176
-0.977771, 93, 273, 124, 399
-0.977772, 105, 281, 168, 344
-0.977852, 105, 81, 168, 208
-0.977876, 289, 265, 352, 328
-0.97798, 305, 281, 336, 344
-0.97808, 289, 273, 320, 336
-0.978215, 345, 273, 376, 399
-0.978242, 281, 329, 312, 392
-0.978297, 145, 225, 272, 352
-0.978302, 249, 97, 312, 352
-0.978373, 185, 137, 248, 200
-0.978398, 333, 129, 364, 256
-0.978409, 65, 105, 192, 168
-0.978531, 137, 1, 200, 128
-0.978544, 65, 81, 96, 208
-0.9786, 41, 97, 104, 352
-0.978641, 277, 257, 308, 384
-0.978696, 249, 1, 312, 64
-0.978771, 393, 129, 456, 256
-0.978857, 161, 97, 224, 352
-0.978925, 209, 265, 272, 328
-0.97893, 325, 289, 356, 352
-0.979018, 349, 129, 380, 256
-0.979112, 161, 137, 224, 200
-0.979289, 73, 73, 136, 136
-0.979354, 273, 97, 336, 352
-0.979427, 201, 209, 264, 336
-0.979682, 241, 337, 304, 399
-0.979697, 329, 129, 392, 384
-0.979721, 273, 1, 336, 256
-0.97973, 141, 273, 172, 399
-0.979769, 61, 321, 92, 384
-0.979836, 361, 1, 424, 256
-0.979914, 177, 297, 240, 360
-0.980006, 173, 273, 204, 399
-0.980013, 209, 1, 272, 64
-0.980196, 169, 209, 232, 336
-0.980256, 193, 297, 320, 360
-0.980262, 273, 209, 336, 336
-0.980327, 193, 273, 224, 336
-0.980338, 57, 1, 120, 256
-0.980449, 201, 297, 264, 360
-0.980468, 161, 273, 192, 399
-0.980469, 65, 97, 96, 160
-0.980478, 129, 97, 192, 352
-0.980479, 245, 65, 276, 192
-0.9805, 357, 313, 388, 376
-0.980547, 65, 33, 96, 96
-0.980641, 33, 1, 96, 399
-0.980761, 217, 97, 280, 160
-0.980765, 217, 97, 280, 352
-0.980873, 129, 273, 256, 336
-0.981061, 33, 129, 64, 256
-0.981064, 89, 129, 152, 256
-0.981107, 305, 1, 368, 256
-0.981183, 273, 137, 400, 200
-0.981219, 353, 97, 480, 160
-0.981258, 353, 337, 480, 399
-0.981271, 297, 1, 328, 128
-0.98137, 169, 9, 232, 72
-0.981373, 261, 65, 292, 192
-0.981421, 9, 1, 72, 399
-0.981486, 281, 65, 312, 192
-0.981495, 97, 321, 224, 384
-0.981496, 265, 257, 296, 384
-0.981672, 161, 1, 224, 256
-0.981679, 293, 297, 324, 360
-0.981688, 17, 297, 144, 360
-0.981748, 325, 337, 356, 399
-0.981755, 301, 65, 332, 192
-0.981817, 329, 65, 360, 192
-0.981826, 321, 129, 352, 256
-0.981831, 245, 129, 276, 256
-0.981878, 289, 129, 320, 256
-0.981917, 353, 73, 416, 136
-0.98193, 377, 17, 440, 144
-0.981968, 277, 297, 308, 360
-0.981973, 377, 73, 440, 136
-0.982016, 249, 1, 280, 128
-0.982057, 249, 1, 312, 256
-0.982132, 301, 129, 332, 256
-0.982143, 209, 337, 336, 399
-0.982185, 313, 65, 344, 192
-0.982208, 361, 289, 392, 352
-0.982324, 229, 81, 260, 208
-0.982369, 341, 81, 372, 208
-0.982514, 265, 129, 296, 256
-0.982533, 393, 1, 456, 256
-0.982713, 305, 1, 368, 399
-0.982752, 369, 17, 496, 144
-0.982824, 205, 257, 236, 384
-0.982832, 129, 273, 192, 336
-0.982851, 9, 1, 72, 128
-0.982858, 169, 113, 232, 176
-0.982865, 145, 225, 208, 352
-0.982882, 233, 129, 264, 256
-0.982895, 285, 1, 316, 128
-0.982929, 277, 129, 308, 256
-0.98294, 249, 209, 312, 336
-0.98295, 149, 297, 180, 360
-0.983035, 425, 49, 488, 176
-0.983058, 225, 137, 352, 200
-0.983062, 137, 337, 168, 399
-0.983065, 193, 97, 256, 352
-0.983081, 1, 137, 128, 200
-0.983085, 1, 81, 128, 144
-0.98312, 233, 313, 296, 376
-0.98313, 89, 289, 120, 352
-0.983141, 85, 337, 116, 399
-0.983163, 361, 113, 392, 240
-0.983165, 321, 225, 448, 352
-0.983214, 137, 137, 200, 200
-0.983221, 305, 113, 432, 176
-0.983223, 305, 1, 368, 64
-0.983258, 233, 1, 264, 128
-0.98332, 417, 129, 480, 256
-0.983346, 109, 273, 140, 399
-0.983481, 277, 265, 308, 328
-0.983487, 225, 1, 288, 256
-0.983513, 41, 81, 104, 144
-0.983572, 121, 201, 184, 264
-0.983576, 65, 129, 192, 192
-0.983624, 369, 281, 432, 344
-0.983645, 13, 33, 44, 96
-0.983646, 57, 1, 120, 399
-0.983665, 353, 73, 480, 136
-0.983692, 261, 1, 292, 128
-0.983711, 65, 129, 96, 256
-0.983791, 273, 9, 336, 72
-0.983822, 217, 129, 248, 256
-0.983825, 73, 273, 104, 399
-0.983917, 89, 225, 152, 352
-0.983983, 121, 105, 184, 168
-0.983997, 189, 129, 220, 256
-0.984031, 357, 337, 388, 399
-0.984101, 417, 105, 480, 168
-0.984137, 353, 41, 416, 104
-0.984139, 161, 9, 288, 72
-0.984246, 113, 1, 176, 128
-0.984252, 181, 1, 212, 128
-0.984273, 177, 137, 304, 200
-0.984286, 369, 129, 496, 256
-0.984315, 65, 17, 96, 144
-0.984363, 309, 1, 340, 128
-0.984368, 21, 329, 52, 392
-0.984426, 65, 81, 192, 144
-0.984557, 145, 97, 272, 160
-0.984604, 173, 129, 204, 256
-0.984674, 369, 305, 432, 368
-0.984706, 369, 129, 400, 192
-0.98477, 313, 97, 376, 160
-0.98478, 329, 33, 392, 288
-0.984792, 165, 1, 196, 128
-0.984828, 381, 113, 412, 176
-0.984886, 217, 81, 248, 208
-0.984941, 145, 321, 208, 384
-0.984945, 373, 337, 404, 399
-0.984971, 381, 97, 412, 224
-0.984979, 173, 49, 204, 176
-0.984985, 205, 129, 236, 256
-0.984985, 81, 121, 112, 184
-0.985019, 337, 1, 400, 64
-0.985024, 193, 1, 256, 399
-0.985166, 249, 257, 280, 384
-0.9852, 81, 97, 112, 224
-0.985227, 353, 121, 480, 184
-0.985254, 193, 1, 224, 128
-0.985314, 337, 297, 368, 360
-0.985342, 185, 273, 216, 399
-0.98535, 273, 89, 400, 152
-0.985352, 145, 97, 208, 160
-0.985418, 361, 97, 424, 352
-0.98545, 353, 65, 384, 192
-0.985459, 289, 265, 416, 328
-0.98553, 345, 337, 376, 399
-0.985729, 257, 1, 320, 399
-0.985738, 281, 1, 344, 399
-0.985782, 1, 57, 128, 120
-0.985877, 345, 209, 408, 336
-0.985892, 193, 1, 256, 256
-0.98594, 113, 337, 144, 399
-0.985997, 369, 1, 432, 399
-0.986022, 85, 49, 116, 176
-0.98603, 285, 137, 316, 200
-0.98604, 329, 1, 392, 399
-0.986061, 97, 201, 160, 264
-0.986067, 53, 33, 84, 96
-0.986083, 129, 137, 256, 200
-0.986085, 161, 129, 192, 256
-0.986098, 273, 1, 304, 128
-0.986149, 169, 1, 232, 399
-0.986178, 233, 1, 296, 399
-0.986198, 137, 1, 200, 399
-0.986236, 329, 265, 392, 328
-0.986256, 1, 97, 64, 352
-0.986285, 45, 137, 76, 200
-0.986289, 185, 49, 216, 176
-0.986308, 273, 137, 304, 200
-0.986311, 33, 193, 160, 256
-0.986374, 65, 17, 192, 80
-0.986405, 13, 33, 44, 160
-0.986497, 185, 145, 248, 272
-0.98654, 53, 81, 84, 208
-0.98654, 297, 137, 328, 200
-0.986559, 241, 65, 368, 128
-0.986588, 349, 137, 380, 200
-0.986615, 225, 257, 352, 320
-0.986618, 97, 113, 160, 176
-0.986626, 193, 337, 256, 399
-0.986643, 45, 113, 76, 176
-0.986685, 205, 81, 236, 208
-0.986689, 417, 1, 480, 256
-0.98674, 1, 81, 64, 144
-0.986817, 381, 273, 412, 399
-0.986904, 241, 1, 368, 64
-0.986946, 97, 137, 160, 200
-0.986959, 373, 289, 404, 352
-0.986964, 57, 41, 120, 104
-0.98702, 341, 209, 372, 336
-0.987025, 113, 9, 240, 72
-0.987035, 249, 137, 280, 200
-0.987053, 385, 201, 448, 264
-0.987101, 365, 49, 396, 176
-0.987182, 417, 81, 480, 144
-0.987206, 221, 257, 252, 384
-0.987214, 249, 113, 312, 176
-0.987214, 85, 97, 116, 160
-0.987231, 57, 289, 120, 352
-0.987313, 261, 137, 292, 200
-0.987321, 357, 113, 388, 176
-0.987342, 393, 1, 456, 399
-0.987375, 217, 25, 280, 88
-0.987382, 113, 281, 144, 344
-0.987414, 105, 129, 168, 384
-0.987421, 49, 201, 112, 264
-0.987428, 237, 257, 268, 384
-0.987443, 249, 57, 312, 120
-0.987464, 97, 9, 160, 72
-0.987493, 69, 137, 100, 200
-0.987655, 353, 281, 480, 344
-0.987669, 237, 137, 268, 200
-0.987669, 337, 137, 368, 200
-0.987671, 17, 9, 80, 72
-0.987721, 161, 49, 192, 176
-0.987771, 145, 17, 208, 80
-0.987821, 65, 325, 128, 356
-0.98784, 249, 9, 280, 72
-0.987857, 289, 113, 352, 176
-0.987867, 161, 329, 288, 392
-0.987885, 49, 177, 112, 304
-0.987916, 313, 137, 344, 200
-0.987939, 101, 281, 132, 344
-0.987965, 81, 1, 144, 256
-0.987974, 145, 65, 272, 128
-0.988041, 385, 49, 416, 176
-0.988043, 193, 113, 320, 176
-0.988067, 149, 65, 180, 192
-0.988088, 273, 177, 400, 304
-0.988097, 349, 289, 380, 352
-0.98811, 41, 33, 72, 96
-0.98812, 353, 313, 480, 376
-0.988147, 265, 281, 328, 312
-0.988188, 89, 329, 152, 360
-0.988192, 289, 329, 352, 360
-0.988211, 137, 1, 200, 256
-0.988226, 201, 9, 232, 72
-0.988232, 137, 129, 168, 256
-0.988234, 133, 281, 164, 344
-0.988252, 149, 129, 180, 256
-0.988272, 221, 137, 252, 200
-0.988289, 305, 57, 432, 120
-0.988298, 289, 341, 352, 372
-0.988322, 41, 81, 72, 208
-0.988389, 169, 329, 232, 392
-0.988435, 297, 65, 360, 128
-0.988443, 293, 1, 324, 64
-0.988473, 325, 137, 356, 200
-0.988485, 345, 193, 408, 256
-0.988588, 65, 57, 192, 120
-0.988636, 65, 341, 128, 372
-0.988645, 1, 305, 500, 368
-0.988666, 33, 137, 64, 200
-0.988742, 305, 201, 368, 264
-0.988801, 81, 273, 208, 336
-0.988836, 97, 201, 224, 264
-0.988881, 257, 265, 288, 328
-0.988922, 89, 341, 152, 372
-0.988931, 225, 329, 480, 392
-0.988939, 289, 1, 416, 64
-0.988952, 209, 137, 240, 200
-0.98897, 57, 137, 88, 200
-0.98901, 225, 73, 288, 136
-0.98906, 393, 121, 456, 184
-0.989069, 209, 265, 240, 328
-0.989074, 65, 313, 128, 344
-0.989084, 85, 1, 116, 128
-0.989106, 377, 41, 440, 104
-0.989138, 209, 1, 240, 128
-0.989147, 25, 329, 88, 360
-0.989178, 25, 341, 88, 372
-0.989178, 97, 297, 352, 360
-0.989231, 169, 285, 232, 316
-0.989264, 221, 1, 252, 128
-0.989313, 273, 49, 336, 112
-0.989373, 325, 313, 356, 376
-0.989389, 217, 337, 280, 399
-0.989406, 65, 97, 128, 352
-0.989467, 89, 309, 152, 340
-0.989475, 377, 345, 440, 376
-0.989476, 197, 137, 228, 200
-0.98949, 49, 329, 80, 392
-0.989495, 73, 337, 104, 399
-0.989503, 213, 113, 244, 176
-0.989542, 137, 297, 200, 328
-0.989548, 401, 49, 432, 176
-0.98957, 121, 17, 184, 80
-0.989575, 133, 201, 164, 264
-0.989601, 181, 137, 212, 200
-0.989641, 301, 257, 332, 320
-0.989648, 241, 305, 368, 368
-0.989657, 225, 265, 256, 328
-0.989658, 17, 129, 48, 256
-0.989662, 193, 277, 256, 308
-0.989671, 9, 57, 72, 120
-0.989676, 257, 249, 320, 312
-0.98969, 81, 1, 144, 399
-0.989704, 289, 289, 352, 320
-0.989741, 265, 341, 328, 372
-0.989771, 385, 305, 416, 368
-0.989817, 41, 9, 104, 72
-0.989842, 1, 333, 64, 364
-0.989935, 345, 321, 408, 352
-0.989987, 225, 1, 256, 64
-0.989987, 345, 349, 408, 380
-0.990056, 85, 17, 116, 80
-0.990057, 229, 97, 260, 160
-0.990101, 113, 113, 144, 240
-0.990107, 313, 345, 376, 376
-0.990116, 237, 17, 268, 80
-0.990123, 441, 49, 472, 176
-0.990138, 257, 113, 384, 176
-0.990159, 65, 353, 128, 384
-0.990164, 121, 201, 152, 264
-0.990204, 401, 17, 464, 144
-0.990305, 33, 113, 64, 176
-0.990316, 41, 37, 104, 68
-0.990319, 313, 293, 376, 324
-0.990331, 113, 305, 176, 336
-0.990339, 369, 97, 400, 160
-0.990343, 337, 301, 400, 332
-0.99035, 17, 37, 80, 68
-0.990355, 65, 145, 128, 208
-0.990367, 417, 57, 480, 120
-0.99037, 233, 289, 296, 320
-0.990387, 209, 297, 240, 360
-0.99041, 241, 25, 304, 88
-0.99046, 161, 73, 224, 136
-0.990463, 329, 1, 360, 128
-0.990481, 41, 125, 104, 156
-0.990497, 289, 353, 352, 384
-0.990508, 241, 273, 304, 304
-0.990556, 1, 225, 128, 352
-0.99057, 73, 129, 136, 160
-0.990573, 269, 337, 300, 399
-0.990594, 153, 1, 184, 128
-0.990608, 345, 333, 408, 364
-0.990621, 169, 129, 200, 192
-0.990644, 277, 209, 308, 336
-0.990677, 41, 109, 104, 140
-0.990677, 377, 333, 440, 364
-0.99068, 89, 177, 152, 240
-0.990688, 201, 57, 264, 120
-0.990733, 113, 1, 176, 399
-0.990791, 113, 341, 176, 372
-0.990794, 65, 225, 128, 352
-0.99081, 177, 305, 208, 368
-0.990818, 265, 289, 296, 352
-0.990824, 393, 273, 424, 399
-0.990837, 213, 9, 244, 72
-0.990848, 337, 141, 400, 172
-0.990891, 417, 137, 480, 200
-0.990916, 193, 281, 448, 344
-0.990939, 113, 329, 176, 360
-0.990953, 313, 333, 376, 364
-0.990989, 257, 209, 288, 336
-0.990994, 269, 1, 300, 64
-0.991015, 249, 353, 312, 384
-0.991071, 149, 321, 180, 384
-0.991088, 237, 289, 268, 352
-0.991088, 145, 201, 208, 264
-0.99109, 397, 129, 428, 256
-0.991093, 25, 317, 88, 348
-0.991094, 9, 129, 72, 160
-0.991096, 161, 297, 224, 328
-0.991106, 377, 17, 440, 80
-0.991123, 1, 105, 256, 168
-0.991133, 9, 105, 40, 168
-0.991142, 417, 1, 480, 399
-0.991144, 353, 209, 384, 336
-0.991152, 129, 357, 192, 388
-0.99116, 365, 1, 396, 128
-0.991166, 41, 145, 104, 176
-0.99117, 353, 129, 416, 160
-0.991183, 145, 177, 272, 304
-0.991185, 41, 353, 104, 384
-0.99121, 313, 357, 376, 388
-0.991221, 161, 41, 288, 104
-0.991224, 225, 297, 256, 360
-0.991228, 217, 269, 280, 300
-0.991254, 265, 325, 328, 356
-0.991264, 201, 113, 232, 176
-0.991265, 369, 225, 432, 352
-0.991279, 181, 17, 212, 80
-0.991336, 41, 97, 104, 128
-0.99135, 49, 333, 176, 364
-0.991363, 9, 81, 40, 208
-0.99137, 105, 353, 168, 384
-0.991424, 193, 13, 256, 44
-0.991425, 193, 305, 224, 368
-0.99144, 157, 265, 188, 328
-0.99144, 321, 201, 448, 264
-0.991461, 301, 225, 332, 352
-0.991482, 341, 1, 372, 128
-0.991514, 73, 109, 136, 140
-0.991518, 73, 29, 136, 60
-0.991562, 9, 141, 72, 172
-0.99157, 193, 25, 256, 88
-0.991592, 225, 25, 352, 88
-0.991596, 361, 305, 424, 336
-0.991599, 245, 265, 276, 328
-0.99161, 73, 97, 136, 128
-0.991646, 193, 305, 448, 368
-0.991651, 377, 121, 440, 152
-0.991658, 193, 89, 256, 152
-0.991663, 321, 317, 384, 348
-0.991697, 257, 9, 320, 40
-0.991714, 29, 33, 60, 96
-0.991719, 257, 141, 320, 172
-0.991732, 73, 141, 136, 172
-0.991767, 9, 273, 40, 399
-0.991768, 265, 293, 328, 324
-0.991783, 193, 305, 256, 336
-0.99179, 169, 13, 232, 44
-0.99179, 165, 17, 196, 80
-0.991811, 265, 269, 328, 300
-0.991824, 297, 137, 360, 168
-0.991853, 233, 137, 296, 168
-0.991876, 25, 209, 88, 272
-0.991886, 41, 49, 104, 80
-0.991897, 125, 129, 156, 256
-0.991931, 1, 113, 64, 144
-0.99195, 289, 277, 352, 308
-0.991969, 225, 201, 288, 264
-0.991975, 49, 201, 80, 264
-0.991981, 329, 125, 392, 156
-0.991985, 41, 209, 104, 240
-0.991988, 129, 209, 160, 336
-0.99199, 193, 73, 320, 136
-0.992014, 217, 9, 280, 40
-0.992016, 113, 317, 176, 348
-0.992031, 417, 89, 480, 120
-0.992032, 377, 133, 440, 164
-0.992035, 21, 113, 52, 176
-0.992042, 377, 89, 440, 120
-0.992045, 9, 329, 40, 360
-0.99207, 105, 293, 168, 324
-0.992072, 289, 317, 352, 348
-0.992075, 129, 205, 192, 236
-0.992076, 393, 77, 456, 108
-0.992095, 209, 137, 272, 168
-0.992097, 333, 201, 364, 264
-0.992121, 305, 325, 336, 356
-0.992123, 1, 349, 64, 380
-0.992141, 305, 205, 368, 236
-0.992145, 189, 113, 220, 176
-0.992156, 201, 357, 264, 388
-0.992167, 185, 141, 248, 172
-0.992177, 293, 281, 324, 312
-0.992185, 81, 49, 144, 112
-0.992205, 33, 321, 288, 384
-0.99222, 345, 97, 376, 160
-0.992221, 353, 81, 416, 112
-0.992235, 317, 337, 348, 368
-0.992236, 121, 333, 152, 364
-0.992236, 53, 17, 84, 144
-0.992241, 109, 325, 140, 356
-0.992244, 97, 341, 128, 372
-0.992247, 321, 177, 448, 304
-0.992249, 161, 137, 224, 168
-0.992252, 145, 285, 208, 316
-0.992269, 169, 25, 232, 56
-0.992269, 169, 201, 232, 264
-0.992272, 105, 209, 168, 240
-0.992281, 89, 13, 152, 44
-0.992286, 89, 313, 120, 344
-0.992286, 37, 193, 68, 320
-0.992293, 345, 285, 408, 316
-0.992294, 129, 329, 384, 392
-0.992296, 369, 293, 432, 324
-0.992297, 401, 349, 464, 380
-0.992301, 377, 317, 440, 348
-0.992302, 313, 281, 376, 312
-0.992302, 169, 357, 232, 388
-0.992302, 345, 205, 408, 236
-0.992307, 361, 301, 392, 332
-0.992309, 181, 225, 212, 352
-0.992319, 193, 289, 256, 320
-0.992323, 281, 277, 312, 308
-0.992328, 137, 321, 200, 352
-0.992328, 273, 365, 336, 396
-0.992373, 161, 49, 224, 112
-0.992379, 389, 341, 420, 372
-0.992385, 9, 49, 72, 80
-0.99241, 293, 325, 324, 356
-0.992415, 145, 201, 272, 264
-0.992422, 69, 321, 100, 352
-0.992425, 453, 65, 484, 192
-0.992428, 73, 85, 136, 116
-0.992431, 185, 285, 216, 316
-0.992432, 285, 341, 316, 372
-0.992434, 353, 93, 416, 124
-0.99244, 225, 357, 288, 388
-0.992442, 13, 341, 44, 372
-0.992445, 145, 13, 208, 44
-0.99245, 73, 41, 136, 72
-0.99247, 81, 297, 144, 328
-0.992473, 1, 9, 128, 72
-0.992484, 281, 9, 344, 40
-0.992486, 317, 289, 348, 320
-0.992491, 9, 101, 72, 132
-0.992498, 169, 273, 232, 304
-0.9925, 113, 309, 144, 340
-0.992501, 393, 97, 456, 352
-0.992502, 377, 109, 440, 140
-0.992524, 117, 345, 148, 376
-0.992527, 33, 25, 96, 56
-0.992529, 137, 65, 168, 192
-0.992531, 233, 301, 296, 332
-0.992531, 321, 73, 384, 136
-0.992539, 201, 25, 264, 56
-0.992542, 129, 349, 160, 380
-0.992551, 297, 341, 328, 372
-0.992552, 165, 297, 196, 328
-0.992553, 417, 77, 480, 108
-0.992554, 257, 21, 320, 52
-0.992567, 137, 137, 200, 168
-0.992569, 353, 105, 416, 136
-0.992573, 305, 285, 336, 316
-0.992578, 145, 345, 208, 376
-0.992582, 65, 333, 96, 364
-0.992584, 89, 313, 104, 376
-0.992591, 241, 341, 304, 372
-0.992594, 373, 321, 404, 352
-0.992598, 97, 329, 128, 360
-0.992621, 17, 213, 80, 244
-0.992631, 101, 309, 132, 340
-0.992638, 225, 25, 288, 56
-0.992638, 281, 25, 344, 56
-0.992641, 73, 345, 104, 376
-0.992643, 305, 9, 368, 40
-0.992644, 169, 309, 232, 340
-0.992649, 71, 321, 86, 384
-0.992665, 137, 309, 200, 340
-0.992666, 1, 329, 128, 360
-0.992669, 377, 345, 408, 376
-0.992683, 345, 301, 376, 332
-0.992708, 85, 73, 116, 136
-0.992709, 93, 353, 124, 384
-0.99271, 69, 73, 100, 136
-0.992736, 269, 273, 300, 304
-0.992744, 173, 285, 204, 316
-0.992745, 49, 9, 80, 72
-0.992753, 353, 49, 480, 112
-0.992761, 405, 349, 436, 380
-0.992768, 361, 313, 392, 344
-0.992773, 65, 33, 96, 64
-0.992783, 365, 353, 396, 384
-0.992784, 133, 305, 164, 336
-0.992785, 153, 297, 184, 328
-0.992791, 57, 349, 88, 380
-0.992794, 321, 349, 352, 380
-0.992794, 133, 333, 164, 364
-0.992795, 9, 193, 72, 320
-0.992799, 373, 333, 404, 364
-0.992803, 305, 33, 432, 96
-0.992804, 77, 289, 108, 352
-0.992843, 201, 277, 232, 308
-0.992845, 157, 137, 188, 200
-0.99285, 353, 353, 384, 384
-0.992863, 1, 345, 32, 376
-0.992886, 73, 357, 104, 388
-0.992886, 17, 137, 48, 200
-0.99289, 281, 201, 344, 264
-0.992899, 301, 353, 332, 384
-0.992899, 121, 321, 152, 352
-0.992901, 53, 33, 84, 64
-0.992923, 381, 133, 412, 164
-0.992923, 337, 353, 368, 384
-0.992929, 85, 125, 116, 156
-0.992938, 21, 329, 52, 360
-0.992949, 333, 341, 364, 372
-0.992952, 373, 305, 404, 336
-0.992954, 201, 13, 232, 44
-0.992983, 333, 297, 364, 328
-0.992989, 365, 141, 396, 172
-0.992997, 65, 145, 96, 176
-0.992997, 317, 325, 348, 356
-0.993, 265, 313, 296, 376
-0.993004, 85, 341, 116, 372
-0.993005, 45, 145, 76, 176
-0.993008, 33, 129, 288, 192
-0.993008, 365, 125, 396, 156
-0.993009, 41, 213, 72, 244
-0.993012, 193, 201, 320, 264
-0.993012, 273, 201, 400, 264
-0.993013, 41, 37, 72, 68
-0.993023, 79, 313, 94, 376
-0.993028, 105, 353, 136, 384
-0.993032, 13, 37, 44, 68
-0.993039, 81, 137, 112, 168
-0.99304, 273, 349, 304, 380
-0.99304, 49, 337, 80, 368
-0.993047, 69, 97, 100, 128
-0.993054, 21, 353, 52, 384
-0.993057, 257, 281, 288, 312
-0.993066, 249, 9, 280, 40
-0.993083, 385, 121, 416, 152
-0.993083, 249, 269, 280, 300
-0.993085, 385, 313, 400, 376
-0.993086, 353, 25, 480, 88
-0.993097, 201, 201, 264, 264
-0.993098, 141, 345, 172, 376
-0.993101, 389, 353, 420, 384
-0.993113, 233, 13, 264, 44
-0.993116, 193, 97, 448, 160
-0.993118, 129, 209, 160, 240
-0.993118, 77, 309, 108, 340
-0.993127, 389, 329, 420, 360
-0.993128, 21, 81, 52, 208
-0.993131, 53, 205, 84, 236
-0.993134, 213, 273, 244, 304
-0.993135, 285, 141, 316, 172
-0.993135, 289, 9, 320, 40
-0.993137, 221, 9, 252, 40
-0.993142, 181, 17, 212, 48
-0.99315, 345, 341, 376, 372
-0.993151, 33, 145, 64, 176
-0.993152, 329, 205, 360, 236
-0.993153, 353, 141, 384, 172
-0.993153, 117, 357, 148, 388
-0.993155, 69, 133, 100, 164
-0.993182, 237, 269, 268, 300
-0.993186, 161, 13, 192, 44
-0.993191, 85, 109, 116, 140
-0.993192, 149, 357, 180, 388
-0.993193, 209, 305, 240, 336
-0.993199, 81, 325, 112, 356
-0.993201, 111, 313, 126, 376
-0.993211, 353, 145, 480, 208
-0.993211, 301, 297, 332, 328
-0.993212, 133, 321, 164, 352
-0.993214, 361, 341, 392, 372
-0.993218, 117, 209, 148, 240
-0.993219, 281, 329, 312, 360
-0.99322, 125, 81, 156, 208
-0.99322, 273, 141, 304, 172
-0.993221, 341, 141, 372, 172
-0.993224, 161, 285, 192, 316
-0.993226, 225, 305, 256, 336
-0.993226, 377, 293, 408, 324
-0.993226, 25, 341, 56, 372
-0.993227, 297, 141, 328, 172
-0.99323, 229, 209, 260, 336
-0.993234, 349, 313, 380, 344
-0.993242, 285, 353, 316, 384
-0.993246, 361, 289, 392, 320
-0.99325, 17, 345, 144, 376
-0.993255, 113, 297, 144, 328
-0.993258, 305, 273, 336, 304
-0.993259, 189, 273, 220, 304
-0.993259, 453, 369, 484, 399
-0.993264, 29, 37, 60, 68
-0.993267, 329, 41, 392, 104
-0.993269, 385, 89, 416, 152
-0.993269, 289, 301, 320, 332
-0.993269, 429, 129, 460, 256
-0.993271, 261, 141, 292, 172
-0.993273, 345, 209, 376, 240
-0.993275, 281, 289, 312, 320
-0.993279, 245, 137, 276, 168
-0.993279, 33, 201, 64, 232
-0.99328, 85, 97, 116, 128
-0.993282, 353, 1, 384, 128
-0.993286, 321, 137, 352, 168
-0.993287, 233, 137, 264, 168
-0.9933, 105, 1, 168, 256
-0.993322, 153, 225, 184, 352
-0.993332, 329, 209, 360, 336
-0.993378, 97, 273, 352, 336
-0.993382, 209, 281, 336, 312
-0.993404, 313, 1, 344, 64
-0.993457, 169, 265, 200, 328
-0.993459, 73, 201, 136, 264
-0.993484, 19, 321, 34, 384
-0.993489, 245, 209, 276, 336
-0.993518, 289, 325, 416, 356
-0.993523, 297, 41, 360, 104
-0.993585, 37, 209, 68, 272
-0.993596, 129, 305, 144, 368
-0.993694, 113, 177, 240, 240
-0.99372, 101, 305, 116, 368
-0.993733, 305, 177, 432, 240
-0.993752, 139, 305, 154, 368
-0.993756, 217, 209, 248, 336
-0.993759, 27, 321, 42, 384
-0.993763, 337, 273, 368, 336
-0.993782, 101, 129, 132, 256
-0.99381, 405, 337, 436, 399
-0.993819, 137, 137, 168, 200
-0.993821, 93, 225, 124, 352
-0.993861, 1, 37, 128, 68
-0.993868, 281, 9, 312, 72
-0.993873, 381, 137, 412, 200
-0.993897, 33, 169, 160, 232
-0.993946, 319, 321, 334, 384
-0.993965, 305, 341, 432, 372
-0.993974, 193, 129, 448, 192
-0.994002, 257, 337, 384, 368
-0.994009, 393, 273, 456, 399
-0.99401, 425, 49, 456, 176
-0.994017, 33, 217, 160, 280
-0.994024, 119, 297, 134, 360
-0.994038, 49, 321, 176, 352
-0.994048, 89, 177, 152, 304
-0.994075, 241, 97, 272, 160
-0.994097, 101, 329, 116, 392
-0.994159, 141, 225, 172, 352
-0.99417, 379, 321, 394, 384
-0.99417, 377, 1, 408, 128
-0.99419, 409, 129, 440, 256
-0.994198, 337, 257, 464, 320
-0.994223, 301, 321, 316, 384
-0.994257, 1, 125, 128, 156
-0.994289, 33, 17, 288, 80
-0.994343, 193, 209, 224, 336
-0.994402, 141, 329, 156, 392
-0.994407, 95, 305, 110, 368
-0.994466, 81, 249, 208, 312
-0.994497, 329, 329, 344, 392
-0.994516, 97, 97, 352, 160
-0.994536, 1, 97, 500, 160
-0.994563, 273, 301, 400, 332
-0.994567, 1, 177, 128, 304
-0.994633, 5, 129, 36, 256
-0.994659, 65, 309, 192, 340
-0.99468, 291, 329, 306, 392
-0.994682, 299, 289, 314, 352
-0.994709, 1, 109, 128, 140
-0.99471, 441, 129, 472, 256
-0.994712, 337, 1, 464, 64
-0.994734, 145, 305, 160, 368
-0.994805, 307, 329, 322, 392
-0.994806, 1, 337, 500, 399
-0.994822, 205, 209, 236, 336
-0.994831, 293, 297, 308, 360
-0.99485, 305, 313, 432, 344
-0.994856, 13, 321, 28, 384
-0.994859, 363, 321, 378, 384
-0.994901, 65, 345, 192, 376
-0.994909, 113, 33, 240, 96
-0.994953, 161, 281, 288, 312
-0.994963, 1, 317, 128, 348
-0.994976, 289, 353, 416, 384
-0.994985, 33, 265, 160, 328
-0.995148, 391, 329, 406, 392
-0.995155, 289, 209, 320, 336
-0.995161, 33, 205, 160, 236
-0.995169, 121, 1, 152, 128
-0.995171, 373, 313, 388, 376
-0.995175, 323, 289, 338, 352
-0.995182, 119, 321, 134, 384
-0.995212, 377, 225, 408, 352
-0.995248, 53, 177, 84, 304
-0.995251, 273, 289, 400, 320
-0.995253, 297, 265, 312, 328
-0.995258, 165, 225, 196, 352
-0.99527, 365, 225, 396, 352
-0.995299, 65, 329, 80, 392
-0.995328, 1, 281, 500, 344
-0.995337, 113, 337, 128, 399
-0.995352, 171, 289, 186, 352
-0.995367, 307, 273, 322, 336
-0.995372, 369, 225, 496, 352
-0.995378, 135, 329, 150, 392
-0.995401, 97, 297, 224, 328
-0.995428, 417, 97, 480, 352
-0.995439, 193, 269, 320, 300
-0.995451, 413, 65, 444, 192
-0.995456, 33, 17, 64, 144
-0.995464, 313, 337, 328, 399
-0.99549, 193, 73, 448, 136
-0.995511, 1, 97, 128, 128
-0.995535, 65, 125, 192, 156
-0.995585, 7, 321, 22, 384
-0.995618, 291, 265, 306, 328
-0.995625, 313, 313, 328, 376
-0.995655, 177, 289, 192, 352
-0.995723, 333, 289, 348, 352
-0.995742, 353, 125, 480, 156
-0.995748, 65, 1, 96, 256
-0.995754, 199, 273, 214, 336
-0.995826, 151, 297, 166, 360
-0.995848, 145, 301, 272, 332
-0.995862, 79, 33, 94, 96
-0.995892, 183, 281, 198, 344
-0.995939, 189, 281, 204, 344
-0.99595, 161, 13, 288, 44
-0.99596, 307, 297, 322, 360
-0.995963, 113, 289, 128, 352
-0.995969, 63, 33, 78, 96
-0.995984, 317, 281, 332, 344
-0.995988, 367, 297, 382, 360
-0.996004, 1, 297, 256, 360
-0.99601, 205, 273, 220, 336
-0.99602, 129, 329, 144, 392
-0.996026, 193, 1, 448, 64
-0.996029, 65, 73, 320, 136
-0.996041, 289, 137, 416, 168
-0.996046, 13, 1, 44, 256
-0.996051, 353, 97, 384, 352
-0.99607, 65, 113, 192, 144
-0.996073, 225, 293, 352, 324
-0.9961, 369, 337, 384, 399
-0.996103, 385, 337, 400, 399
-0.996109, 1, 141, 128, 172
-0.996112, 49, 1, 80, 256
-0.996158, 65, 93, 192, 124
-0.996166, 53, 201, 68, 264
-0.996167, 17, 357, 144, 388
-0.996182, 357, 337, 372, 399
-0.996187, 287, 297, 302, 360
-0.996201, 353, 345, 480, 376
-0.996211, 379, 297, 394, 360
-0.996223, 95, 329, 110, 392
-0.996231, 1, 129, 500, 192
-0.996235, 397, 321, 412, 384
-0.996243, 373, 289, 388, 352
-0.996247, 257, 49, 500, 112
-0.996256, 285, 329, 300, 392
-0.996269, 257, 161, 384, 224
-0.99627, 355, 297, 370, 360
-0.996276, 107, 289, 122, 352
-0.996303, 113, 353, 240, 384
-0.996312, 79, 137, 94, 200
-0.996319, 65, 137, 192, 168
-0.996321, 57, 137, 72, 200
-0.996325, 1, 41, 256, 104
-0.996342, 241, 349, 368, 380
-0.996353, 165, 289, 180, 352
-0.996369, 97, 201, 352, 264
-0.996388, 135, 201, 150, 264
-0.99639, 1, 17, 500, 80
-0.996396, 177, 357, 304, 388
-0.996415, 345, 201, 360, 264
-0.996418, 79, 97, 94, 160
-0.996423, 295, 137, 310, 200
-0.996429, 281, 265, 296, 328
-0.996438, 37, 1, 68, 256
-0.99644, 53, 33, 68, 96
-0.996444, 281, 297, 296, 360
-0.99647, 81, 337, 96, 399
-0.996484, 301, 137, 316, 200
-0.99649, 379, 129, 394, 192
-0.996496, 289, 137, 304, 200
-0.996499, 333, 97, 364, 352
-0.99651, 351, 337, 366, 399
-0.996516, 361, 297, 376, 360
-0.996532, 65, 357, 192, 388
-0.996537, 335, 337, 350, 399
-0.99654, 343, 337, 358, 399
-0.996555, 53, 113, 68, 176
-0.996578, 307, 137, 322, 200
-0.996584, 365, 137, 380, 200
-0.996606, 63, 137, 78, 200
-0.996613, 289, 241, 416, 304
-0.996616, 369, 201, 496, 264
-0.996623, 1, 49, 128, 80
-0.996623, 265, 137, 280, 200
-0.996627, 161, 177, 288, 240
-0.99663, 281, 137, 296, 200
-0.996636, 271, 137, 286, 200
-0.99665, 373, 137, 388, 200
-0.996654, 157, 297, 172, 360
-0.996657, 209, 141, 336, 172
-0.99666, 347, 137, 362, 200
-0.996668, 125, 281, 140, 344
-0.996672, 339, 289, 354, 352
-0.996681, 247, 137, 262, 200
-0.996703, 353, 105, 480, 136
-0.996707, 59, 105, 74, 168
-0.99671, 51, 137, 66, 200
-0.996711, 145, 241, 272, 304
-0.996741, 369, 333, 496, 364
-0.996746, 307, 281, 322, 312
-0.996751, 313, 137, 328, 200
-0.996764, 1, 85, 128, 116
-0.996765, 43, 137, 58, 200
-0.996773, 25, 329, 40, 360
-0.996777, 337, 225, 464, 288
-0.996781, 97, 329, 224, 360
-0.996786, 369, 301, 384, 332
-0.996794, 255, 137, 270, 200
-0.996809, 319, 137, 334, 200
-0.996812, 257, 277, 384, 308
-0.996815, 273, 125, 400, 156
-0.99683, 359, 137, 374, 200
-0.996833, 325, 137, 340, 200
-0.996834, 425, 1, 488, 128
-0.996839, 233, 137, 248, 200
-0.996846, 33, 329, 48, 392
-0.996857, 225, 9, 352, 40
-0.996858, 225, 257, 480, 320
-0.996861, 241, 325, 368, 356
-0.996879, 29, 345, 44, 376
-0.996895, 69, 33, 84, 96
-0.996897, 353, 137, 368, 200
-0.9969, 211, 9, 226, 72
-0.996902, 123, 325, 138, 356
-0.996906, 261, 1, 276, 64
-0.996914, 85, 121, 100, 184
-0.996915, 69, 137, 84, 200
-0.996918, 209, 137, 224, 200
-0.996921, 239, 137, 254, 200
-0.996927, 225, 137, 240, 200
-0.996939, 161, 137, 288, 168
-0.996943, 305, 1, 320, 64
-0.996948, 331, 137, 346, 200
-0.996948, 341, 137, 356, 200
-0.996949, 373, 113, 388, 176
-0.99695, 107, 337, 122, 399
-0.996957, 353, 93, 480, 124
-0.996965, 351, 201, 366, 264
-0.996979, 219, 137, 234, 200
-0.996988, 53, 97, 84, 352
-0.996993, 239, 265, 254, 328
-0.996994, 15, 329, 30, 360
-0.996995, 101, 281, 116, 344
-0.996997, 349, 297, 364, 360
-0.997005, 13, 33, 28, 96
-0.997008, 385, 177, 448, 304
-0.997019, 1, 321, 16, 384
-0.997027, 133, 281, 148, 344
-0.997038, 47, 113, 62, 176
-0.997056, 353, 177, 480, 240
-0.997066, 65, 105, 80, 168
-0.997088, 1, 273, 256, 336
-0.997097, 301, 341, 316, 372
-0.997105, 65, 29, 192, 60
-0.997107, 141, 337, 156, 368
-0.997125, 285, 1, 316, 256
-0.997139, 315, 285, 330, 316
-0.997154, 131, 329, 146, 360
-0.997159, 293, 97, 324, 352
-0.99716, 363, 301, 378, 332
-0.997168, 353, 309, 480, 340
-0.997175, 209, 305, 336, 336
-0.997183, 173, 293, 188, 324
-0.997184, 129, 49, 384, 112
-0.997186, 79, 317, 94, 348
-0.997187, 313, 325, 328, 356
-0.997189, 99, 337, 114, 368
-0.997192, 161, 25, 288, 56
-0.9972, 117, 337, 132, 368
-0.997202, 307, 325, 322, 356
-0.997204, 209, 337, 336, 368
-0.997207, 329, 337, 344, 368
-0.997207, 321, 329, 336, 360
-0.997217, 321, 97, 352, 352
-0.997235, 1, 73, 500, 136
-0.997241, 281, 97, 312, 352
-0.997243, 297, 277, 312, 308
-0.997257, 69, 325, 84, 356
-0.99726, 257, 1, 288, 256
-0.997278, 301, 325, 316, 356
-0.997279, 25, 1, 56, 256
-0.997285, 337, 81, 464, 112
-0.997287, 1, 73, 128, 104
-0.997317, 77, 1, 108, 256
-0.997333, 113, 317, 240, 348
-0.997349, 375, 301, 390, 332
-0.99735, 337, 137, 464, 168
-0.997362, 311, 337, 326, 368
-0.997367, 209, 177, 336, 240
-0.99737, 305, 97, 336, 352
-0.997373, 111, 341, 126, 372
-0.997377, 115, 325, 130, 356
-0.997383, 1, 61, 128, 92
-0.997389, 93, 313, 108, 344
-0.997397, 107, 329, 122, 360
-0.997402, 387, 329, 402, 360
-0.997412, 67, 349, 82, 380
-0.997419, 1, 201, 256, 264
-0.99742, 241, 361, 368, 392
-0.997428, 9, 329, 24, 360
-0.997437, 225, 25, 480, 88
-0.997438, 409, 345, 424, 376
-0.997439, 185, 97, 216, 352
-0.997441, 225, 201, 480, 264
-0.997441, 187, 285, 202, 316
-0.997447, 289, 333, 304, 364
-0.997452, 113, 205, 240, 236
-0.997473, 295, 329, 310, 360
-0.997479, 173, 97, 204, 352
-0.997482, 353, 297, 480, 328
-0.997493, 51, 209, 66, 240
-0.997497, 401, 1, 432, 256
-0.997501, 269, 33, 300, 288
-0.997505, 241, 97, 272, 352
-0.997507, 369, 321, 496, 352
-0.99752, 161, 97, 192, 352
-0.997523, 113, 13, 240, 44
-0.997524, 109, 309, 124, 340
-0.99753, 253, 97, 284, 352
-0.997536, 389, 1, 420, 256
-0.997536, 395, 341, 410, 372
-0.99754, 113, 137, 240, 168
-0.997542, 173, 1, 204, 256
-0.997551, 129, 341, 144, 372
-0.997566, 433, 1, 464, 256
-0.997596, 181, 289, 196, 320
-0.997597, 357, 301, 372, 332
-0.997601, 129, 25, 384, 88
-0.997605, 241, 1, 272, 256
-0.997611, 81, 285, 208, 316
-0.997616, 321, 281, 448, 312
-0.997617, 287, 273, 302, 304
-0.997619, 65, 81, 192, 112
-0.997624, 333, 1, 364, 256
-0.997646, 387, 349, 402, 380
-0.997651, 65, 17, 192, 48
-0.997655, 273, 9, 400, 40
-0.99766, 273, 265, 400, 296
-0.997668, 65, 33, 80, 64
-0.99767, 289, 345, 304, 376
-0.997675, 85, 313, 100, 344
-0.99768, 317, 341, 332, 372
-0.997694, 69, 337, 84, 368
-0.997706, 281, 273, 296, 304
-0.997712, 117, 309, 132, 340
-0.99773, 129, 309, 144, 340
-0.997735, 337, 357, 464, 388
-0.997738, 229, 97, 260, 352
-0.997741, 73, 349, 88, 380
-0.997744, 445, 1, 476, 256
-0.997757, 145, 81, 272, 112
-0.997762, 133, 97, 164, 352
-0.997762, 137, 325, 152, 356
-0.997771, 413, 1, 444, 256
-0.997771, 369, 369, 496, 399
-0.997776, 99, 313, 114, 344
-0.997783, 31, 333, 46, 364
-0.997786, 123, 309, 138, 340
-0.997795, 383, 309, 398, 340
-0.997796, 167, 297, 182, 328
-0.997802, 273, 81, 400, 112
-0.997811, 297, 1, 328, 256
-0.997813, 1, 337, 16, 368
-0.997816, 113, 25, 240, 56
-0.99782, 321, 285, 336, 316
-0.997824, 229, 1, 260, 256
-0.997847, 273, 109, 400, 140
-0.99785, 367, 353, 382, 384
-0.997856, 33, 193, 160, 224
-0.997866, 309, 293, 324, 324
-0.997874, 129, 97, 256, 128
-0.997883, 133, 209, 148, 240
-0.997889, 273, 93, 400, 124
-0.997889, 135, 305, 150, 336
-0.997891, 33, 241, 288, 304
-0.997898, 195, 281, 210, 312
-0.9979, 375, 349, 390, 380
-0.997901, 123, 337, 138, 368
-0.997902, 117, 349, 132, 380
-0.997903, 95, 349, 110, 380
-0.997907, 311, 349, 326, 380
-0.997907, 209, 129, 336, 160
-0.997911, 291, 285, 306, 316
-0.997916, 89, 349, 104, 380
-0.997927, 141, 349, 156, 380
-0.997927, 59, 37, 74, 68
-0.997936, 189, 1, 220, 256
-0.997937, 361, 353, 376, 384
-0.997944, 373, 313, 388, 344
-0.997954, 19, 341, 34, 372
-0.997955, 269, 129, 300, 384
-0.997958, 313, 1, 344, 256
-0.99796, 347, 209, 362, 240
-0.997961, 301, 289, 316, 320
-0.997978, 117, 129, 148, 384
-0.997978, 1, 25, 128, 56
-0.997983, 305, 69, 432, 100
-0.997983, 161, 125, 288, 156
-0.997999, 29, 97, 60, 352
-0.998011, 79, 349, 94, 380
-0.998017, 381, 349, 396, 380
-0.998018, 225, 81, 352, 112
-0.998021, 157, 301, 172, 332
-0.998023, 207, 273, 222, 304
-0.998031, 113, 125, 240, 156
-0.998044, 367, 313, 382, 344
-0.998048, 225, 25, 352, 56
-0.998049, 297, 353, 312, 384
-0.998073, 355, 353, 370, 384
-0.998082, 193, 317, 320, 348
-0.998084, 129, 177, 384, 240
-0.998099, 197, 97, 228, 352
-0.998108, 65, 41, 192, 72
-0.998116, 45, 209, 60, 240
-0.998117, 217, 97, 248, 352
-0.998122, 147, 305, 162, 336
-0.998132, 353, 69, 480, 100
-0.998137, 101, 325, 116, 356
-0.99814, 141, 305, 156, 336
-0.998143, 347, 353, 362, 384
-0.998148, 271, 273, 286, 304
-0.998148, 213, 273, 228, 304
-0.998149, 351, 297, 366, 328
-0.998152, 173, 13, 188, 44
-0.998159, 281, 285, 296, 316
-0.99816, 323, 345, 338, 376
-0.998165, 89, 329, 104, 360
-0.998165, 63, 337, 78, 368
-0.998169, 3, 325, 18, 356
-0.99818, 61, 145, 76, 176
-0.998181, 53, 145, 68, 176
-0.998182, 77, 145, 92, 176
-0.998182, 321, 205, 448, 236
-0.998184, 69, 145, 84, 176
-0.998189, 341, 353, 356, 384
-0.998194, 327, 289, 342, 320
-0.998199, 201, 13, 216, 44
-0.998201, 79, 33, 94, 64
-0.998206, 211, 13, 226, 44
-0.998207, 79, 361, 94, 392
-0.998208, 87, 361, 102, 392
-0.998209, 145, 341, 272, 372
-0.998211, 47, 145, 62, 176
-0.998215, 65, 69, 192, 100
-0.998218, 331, 349, 346, 380
-0.998221, 403, 353, 418, 384
-0.998228, 53, 33, 68, 64
-0.998236, 127, 205, 142, 236
-0.998244, 349, 1, 380, 256
-0.998246, 149, 97, 180, 352
-0.998248, 145, 269, 272, 300
-0.998251, 81, 225, 208, 288
-0.998253, 109, 357, 124, 388
-0.998254, 71, 33, 86, 64
-0.998255, 375, 141, 390, 172
-0.99826, 303, 353, 318, 384
-0.99826, 343, 297, 358, 328
-0.998265, 303, 269, 318, 300
-0.998271, 75, 337, 90, 368
-0.998275, 237, 9, 252, 40
-0.998282, 73, 361, 88, 392
-0.998282, 417, 349, 432, 380
-0.99829, 369, 141, 384, 172
-0.998291, 65, 97, 96, 352
-0.998293, 241, 225, 368, 288
-0.998295, 341, 337, 356, 368
-0.998296, 261, 269, 276, 300
-0.998298, 293, 265, 308, 296
-0.998357, 85, 113, 116, 128
-0.998357, 341, 217, 372, 232
-0.998361, 85, 123, 116, 138
-0.998361, 65, 139, 96, 154
-0.998362, 201, 21, 232, 36
-0.998362, 29, 333, 60, 348
-0.998363, 329, 299, 360, 314
-0.998363, 37, 217, 68, 232
-0.998364, 329, 357, 360, 372
-0.998364, 349, 313, 380, 328
-0.998366, 349, 211, 380, 226
-0.998367, 181, 303, 212, 318
-0.998367, 369, 133, 400, 148
-0.998367, 409, 347, 440, 362
-0.998367, 233, 275, 264, 290
-0.998368, 289, 343, 352, 358
-0.998372, 117, 361, 148, 376
-0.998373, 277, 357, 308, 372
-0.998374, 297, 363, 328, 378
-0.998375, 81, 143, 112, 158
-0.998376, 373, 345, 404, 360
-0.998376, 69, 103, 100, 118
-0.998379, 85, 129, 116, 144
-0.998379, 385, 131, 416, 146
-0.998379, 333, 341, 364, 356
-0.99838, 45, 145, 76, 160
-0.99838, 161, 1, 192, 256
-0.99838, 181, 19, 212, 34
-0.998382, 453, 379, 484, 394
-0.998383, 365, 141, 396, 156
-0.998388, 65, 339, 128, 354
-0.998388, 65, 331, 128, 346
-0.998388, 353, 355, 384, 370
-0.99839, 49, 345, 80, 360
-0.99839, 389, 355, 420, 370
-0.99839, 89, 337, 152, 352
-0.998394, 265, 281, 296, 296
-0.998395, 249, 275, 280, 290
-0.998396, 181, 297, 212, 312
-0.998401, 65, 145, 96, 160
-0.998403, 53, 39, 84, 54
-0.998403, 65, 351, 128, 366
-0.998404, 309, 359, 340, 374
-0.998405, 301, 335, 332, 350
-0.998406, 25, 333, 88, 348
-0.998407, 337, 349, 368, 364
-0.998407, 65, 39, 96, 54
-0.998409, 97, 329, 160, 344
-0.99841, 341, 301, 372, 316
-0.998412, 5, 349, 36, 364
-0.998413, 169, 305, 200, 320
-0.998413, 73, 357, 104, 372
-0.998413, 117, 209, 148, 224
-0.998414, 305, 351, 336, 366
-0.998414, 105, 349, 136, 364
-0.998415, 289, 285, 320, 300
-0.998416, 381, 137, 412, 152
-0.998417, 333, 211, 364, 226
-0.998417, 73, 345, 104, 360
-0.998418, 365, 353, 396, 368
-0.998419, 53, 351, 84, 366
-0.99842, 25, 343, 88, 358
-0.998421, 121, 327, 152, 342
-0.998423, 65, 345, 128, 360
-0.998424, 281, 331, 344, 346
-0.998424, 289, 349, 352, 364
-0.998428, 81, 319, 112, 334
-0.99843, 181, 283, 212, 298
-0.99843, 129, 209, 160, 224
-0.99843, 241, 205, 368, 236
-0.998432, 49, 211, 80, 226
-0.998433, 373, 331, 404, 346
-0.998433, 57, 325, 120, 340
-0.998435, 33, 297, 160, 328
-0.998436, 65, 333, 96, 348
-0.998436, 221, 275, 252, 290
-0.998439, 273, 287, 336, 302
-0.998439, 313, 331, 344, 346
-0.998439, 377, 313, 408, 328
-0.998439, 281, 351, 312, 366
-0.99844, 89, 343, 152, 358
-0.99844, 377, 349, 440, 364
-0.998441, 113, 355, 144, 370
-0.998443, 317, 353, 348, 368
-0.998444, 85, 325, 116, 340
-0.998447, 289, 331, 320, 346
-0.998448, 369, 307, 400, 322
-0.998448, 137, 303, 200, 318
-0.998448, 85, 137, 116, 152
-0.998449, 301, 295, 332, 310
-0.998449, 21, 341, 52, 356
-0.998452, 93, 359, 124, 374
-0.998453, 137, 307, 168, 322
-0.998455, 117, 349, 148, 364
-0.998457, 201, 1, 232, 256
-0.998457, 113, 109, 240, 140
-0.998463, 97, 273, 224, 304
-0.998464, 105, 311, 136, 326
-0.998465, 9, 343, 40, 358
-0.998467, 169, 293, 200, 308
-0.998467, 149, 303, 180, 318
-0.998467, 125, 309, 156, 324
-0.998468, 293, 351, 324, 366
-0.998472, 285, 339, 316, 354
-0.998472, 1, 331, 32, 346
-0.998473, 369, 321, 400, 336
-0.998477, 289, 337, 352, 352
-0.998479, 25, 327, 88, 342
-0.998479, 65, 339, 96, 354
-0.998481, 133, 355, 164, 370
-0.998482, 33, 211, 64, 226
-0.998483, 277, 283, 308, 298
-0.998483, 101, 333, 132, 348
-0.998484, 17, 353, 48, 368
-0.998485, 305, 297, 368, 312
-0.998486, 389, 343, 420, 358
-0.998491, 265, 281, 328, 296
-0.998493, 289, 355, 352, 370
-0.998497, 297, 341, 328, 356
-0.998497, 109, 343, 140, 358
-0.9985, 193, 281, 256, 296
-0.9985, 377, 1, 408, 256
-0.998502, 1, 337, 64, 352
-0.998503, 181, 289, 212, 304
-0.998504, 197, 277, 228, 292
-0.998505, 265, 275, 296, 290
-0.998505, 89, 351, 152, 366
-0.998505, 457, 385, 488, 399
-0.998509, 297, 357, 328, 372
-0.998511, 89, 313, 120, 328
-0.998512, 129, 349, 160, 364
-0.998512, 377, 351, 408, 366
-0.998513, 81, 313, 144, 328
-0.998514, 81, 357, 144, 372
-0.998518, 113, 337, 144, 352
-0.998521, 233, 275, 296, 290
-0.998522, 33, 39, 96, 54
-0.998523, 93, 345, 124, 360
-0.998523, 201, 275, 264, 290
-0.998523, 105, 309, 168, 324
-0.998529, 329, 303, 392, 318
-0.998529, 401, 353, 432, 368
-0.998529, 357, 303, 388, 318
-0.998531, 313, 351, 376, 366
-0.998532, 125, 333, 156, 348
-0.998533, 377, 343, 440, 358
-0.998534, 209, 275, 240, 290
-0.998534, 317, 337, 348, 352
-0.998535, 361, 313, 392, 328
-0.998537, 69, 327, 100, 342
-0.998537, 41, 349, 104, 364
-0.998542, 73, 319, 136, 334
-0.998543, 277, 277, 308, 292
-0.998543, 265, 293, 328, 308
-0.998543, 65, 57, 192, 88
-0.998543, 301, 327, 332, 342
-0.998545, 193, 283, 224, 298
-0.998545, 9, 337, 40, 352
-0.998546, 285, 345, 316, 360
-0.998551, 73, 351, 104, 366
-0.998553, 21, 347, 52, 362
-0.998553, 309, 289, 340, 304
-0.998553, 161, 297, 224, 312
-0.998554, 77, 97, 108, 352
-0.998556, 317, 347, 348, 362
-0.998557, 345, 351, 408, 366
-0.998558, 73, 139, 136, 154
-0.998559, 265, 343, 328, 358
-0.998559, 345, 319, 408, 334
-0.998561, 365, 97, 396, 352
-0.998562, 329, 345, 392, 360
-0.998565, 257, 275, 320, 290
-0.998566, 345, 313, 408, 328
-0.998566, 17, 349, 80, 364
-0.998567, 1, 343, 64, 358
-0.998568, 289, 279, 320, 294
-0.998569, 1, 331, 64, 346
-0.998569, 57, 357, 120, 372
-0.99857, 109, 327, 140, 342
-0.998571, 41, 137, 104, 152
-0.998571, 93, 353, 124, 368
-0.998572, 177, 287, 240, 302
-0.998572, 97, 339, 128, 354
-0.998573, 33, 217, 160, 248
-0.998575, 265, 357, 328, 372
-0.998576, 265, 351, 328, 366
-0.998576, 125, 339, 156, 354
-0.998576, 345, 333, 408, 348
-0.998582, 297, 291, 360, 306
-0.998583, 301, 283, 332, 298
-0.998585, 113, 335, 176, 350
-0.998587, 433, 385, 496, 399
-0.998589, 41, 115, 104, 130
-0.998591, 233, 297, 296, 312
-0.998591, 241, 281, 304, 296
-0.998592, 313, 337, 376, 352
-0.998592, 313, 357, 376, 372
-0.998592, 41, 145, 104, 160
-0.998593, 41, 109, 104, 124
-0.998597, 69, 321, 100, 336
-0.998597, 321, 293, 352, 308
-0.9986, 73, 133, 136, 148
-0.998604, 353, 307, 416, 322
-0.998605, 33, 355, 96, 370
-0.998606, 41, 121, 104, 136
-0.998607, 9, 141, 72, 156
-0.998607, 281, 325, 344, 340
-0.998608, 73, 123, 136, 138
-0.99861, 41, 131, 104, 146
-0.998612, 289, 281, 352, 296
-0.998612, 73, 117, 136, 132
-0.998614, 41, 103, 104, 118
-0.998615, 113, 343, 176, 358
-0.998615, 233, 291, 296, 306
-0.998616, 9, 43, 72, 58
-0.998616, 161, 299, 192, 314
-0.998617, 289, 361, 352, 376
-0.998618, 57, 39, 120, 54
-0.998619, 353, 345, 416, 360
-0.998619, 353, 139, 416, 154
-0.998622, 345, 325, 408, 340
-0.998622, 13, 331, 44, 346
-0.998622, 73, 109, 136, 124
-0.998623, 161, 303, 224, 318
-0.998624, 265, 337, 328, 352
-0.998626, 129, 359, 192, 374
-0.998628, 389, 349, 420, 364
-0.998629, 137, 297, 200, 312
-0.998629, 105, 357, 168, 372
-0.998631, 33, 213, 96, 228
-0.998631, 273, 299, 336, 314
-0.998634, 9, 37, 72, 52
-0.998637, 377, 355, 440, 370
-0.998637, 121, 329, 184, 344
-0.998637, 73, 103, 136, 118
-0.998638, 41, 45, 104, 60
-0.998638, 377, 131, 440, 146
-0.998639, 33, 369, 160, 399
-0.998641, 129, 353, 192, 368
-0.998641, 377, 325, 440, 340
-0.998642, 337, 357, 400, 372
-0.998643, 337, 131, 400, 146
-0.998644, 1, 135, 64, 150
-0.998644, 345, 339, 408, 354
-0.998644, 329, 141, 392, 156
-0.998646, 377, 125, 440, 140
-0.998647, 145, 1, 272, 32
-0.998648, 129, 207, 192, 222
-0.998649, 169, 279, 232, 294
-0.998649, 457, 1, 488, 256
-0.998654, 401, 349, 464, 364
-0.998654, 153, 291, 216, 306
-0.998655, 265, 363, 328, 378
-0.998656, 417, 95, 480, 110
-0.998657, 1, 129, 64, 144
-0.998657, 385, 337, 448, 352
-0.998658, 129, 309, 192, 324
-0.998658, 297, 139, 360, 154
-0.998662, 377, 93, 440, 108
-0.998662, 361, 161, 424, 288
-0.998663, 49, 207, 112, 222
-0.998664, 273, 141, 336, 156
-0.998666, 377, 317, 440, 332
-0.998666, 17, 147, 80, 162
-0.998667, 393, 81, 456, 96
-0.998668, 201, 305, 264, 320
-0.998668, 1, 123, 64, 138
-0.998668, 65, 363, 128, 378
-0.998669, 73, 97, 136, 112
-0.998669, 169, 15, 232, 30
-0.998669, 1, 115, 64, 130
-0.99867, 353, 297, 416, 312
-0.998671, 49, 319, 112, 334
-0.998672, 409, 383, 472, 398
-0.998672, 73, 145, 136, 160
-0.998677, 329, 273, 344, 399
-0.998687, 273, 25, 400, 56
-0.998705, 145, 69, 272, 100
-0.998717, 323, 273, 338, 399
-0.998717, 177, 93, 304, 124
-0.998721, 225, 177, 480, 240
-0.998732, 81, 369, 208, 399
-0.998736, 241, 69, 368, 100
-0.998744, 371, 273, 386, 399
-0.998751, 133, 1, 164, 256
-0.998772, 1, 273, 64, 399
-0.9988, 377, 273, 392, 399
-0.998801, 365, 273, 380, 399
-0.998815, 141, 273, 156, 399
-0.998815, 365, 1, 396, 256
-0.998816, 317, 273, 332, 399
-0.998844, 125, 273, 140, 399
-0.998852, 359, 273, 374, 399
-0.998855, 257, 313, 384, 344
-0.998856, 135, 273, 150, 399
-0.998861, 321, 369, 448, 399
-0.998875, 177, 205, 304, 236
-0.99888, 129, 365, 256, 396
-0.99888, 177, 273, 192, 399
-0.998886, 41, 225, 104, 352
-0.998893, 353, 273, 368, 399
-0.998896, 51, 129, 66, 256
-0.998902, 341, 129, 356, 256
-0.998906, 351, 129, 366, 256
-0.998913, 335, 273, 350, 399
-0.998926, 1, 1, 32, 256
-0.998931, 299, 273, 314, 399
-0.998933, 293, 257, 308, 384
-0.998936, 311, 273, 326, 399
-0.99894, 57, 129, 72, 256
-0.998942, 1, 177, 256, 240
-0.998954, 119, 273, 134, 399
-0.998957, 357, 129, 372, 256
-0.998977, 341, 273, 356, 399
-0.998977, 147, 273, 162, 399
-0.999001, 383, 273, 398, 399
-0.999002, 79, 65, 94, 192
-0.999009, 273, 149, 400, 180
-0.999013, 65, 5, 192, 36
-0.999018, 347, 273, 362, 399
-0.999031, 225, 93, 352, 124
-0.999033, 41, 129, 56, 256
-0.999041, 41, 97, 72, 352
-0.999042, 225, 233, 480, 296
-0.999046, 315, 1, 330, 128
-0.999047, 97, 217, 224, 248
-0.999062, 281, 257, 296, 384
-0.999062, 291, 1, 306, 128
-0.999066, 259, 65, 274, 192
-0.999068, 287, 65, 302, 192
-0.999069, 251, 65, 266, 192
-0.999069, 301, 1, 316, 128
-0.999073, 97, 129, 128, 384
-0.999075, 279, 65, 294, 192
-0.999078, 261, 129, 276, 256
-0.999079, 309, 65, 324, 192
-0.99908, 265, 1, 280, 128
-0.999081, 305, 129, 320, 256
-0.999083, 297, 65, 312, 192
-0.999087, 273, 129, 288, 256
-0.999088, 311, 129, 326, 256
-0.99909, 305, 57, 432, 88
-0.999091, 331, 65, 346, 192
-0.999091, 73, 81, 88, 208
-0.999091, 297, 129, 312, 256
-0.999092, 265, 65, 280, 192
-0.999093, 317, 65, 332, 192
-0.999093, 433, 97, 464, 352
-0.999094, 305, 273, 320, 399
-0.999095, 255, 129, 270, 256
-0.999097, 289, 129, 304, 256
-0.999098, 323, 65, 338, 192
-0.999099, 79, 17, 94, 144
-0.9991, 303, 65, 318, 192
-0.9991, 279, 129, 294, 256
-0.999102, 323, 129, 338, 256
-0.999103, 353, 57, 480, 88
-0.999105, 1, 41, 500, 104
-0.999107, 321, 9, 448, 40
-0.999109, 337, 65, 352, 192
-0.999109, 267, 129, 282, 256
-0.99911, 317, 129, 332, 256
-0.999111, 343, 65, 358, 192
-0.999112, 77, 129, 92, 256
-0.999114, 329, 129, 344, 256
-0.999115, 153, 273, 168, 399
-0.999118, 249, 129, 264, 256
-0.99912, 385, 97, 416, 352
-0.999121, 241, 129, 256, 256
-0.999122, 65, 97, 80, 224
-0.999123, 171, 273, 186, 399
-0.999126, 307, 1, 322, 128
-0.999126, 245, 65, 260, 192
-0.999129, 287, 257, 302, 384
-0.999132, 257, 1, 272, 128
-0.999133, 273, 65, 288, 192
-0.999139, 193, 69, 320, 100
-0.999141, 335, 129, 350, 256
-0.999141, 349, 81, 364, 208
-0.999145, 217, 1, 248, 256
-0.999145, 225, 153, 480, 216
-0.999145, 71, 129, 86, 256
-0.999151, 223, 97, 238, 224
-0.999152, 235, 129, 250, 256
-0.999153, 239, 81, 254, 208
-0.999161, 185, 1, 200, 128
-0.999163, 365, 97, 380, 224
-0.999167, 273, 257, 288, 384
-0.99917, 271, 1, 286, 128
-0.99917, 231, 81, 246, 208
-0.999172, 251, 1, 266, 128
-0.999173, 189, 129, 204, 256
-0.999173, 413, 97, 444, 352
-0.999174, 193, 369, 320, 399
-0.999176, 113, 273, 128, 399
-0.999181, 229, 129, 244, 256
-0.999182, 355, 65, 370, 192
-0.999182, 207, 257, 222, 384
-0.999183, 97, 261, 224, 292
-0.999183, 401, 97, 432, 352
-0.999185, 195, 129, 210, 256
-0.999185, 149, 1, 180, 256
-0.999188, 205, 129, 220, 256
-0.99919, 217, 129, 232, 256
-0.99919, 9, 97, 40, 352
-0.999191, 349, 209, 364, 336
-0.999193, 181, 129, 196, 256
-0.999194, 87, 273, 102, 399
-0.9992, 183, 273, 198, 399
-0.999201, 13, 33, 28, 160
-0.99921, 175, 129, 190, 256
-0.999211, 97, 273, 112, 399
-0.999211, 113, 177, 176, 304
-0.999212, 211, 129, 226, 256
-0.999213, 243, 1, 258, 128
-0.999215, 217, 257, 232, 384
-0.999216, 373, 129, 388, 256
-0.999218, 249, 257, 264, 384
-0.999219, 285, 1, 300, 128
-0.999236, 189, 273, 204, 399
-0.999239, 171, 49, 186, 176
-0.99924, 89, 1, 120, 256
-0.99924, 107, 257, 122, 384
-0.999245, 85, 97, 100, 224
-0.999246, 169, 1, 184, 128
-0.99925, 145, 57, 272, 88
-0.999254, 159, 273, 174, 399
-0.999254, 81, 273, 96, 399
-0.999255, 165, 273, 180, 399
-0.999257, 321, 25, 448, 56
-0.999257, 321, 193, 448, 224
-0.999263, 169, 129, 184, 256
-0.999265, 279, 1, 294, 128
-0.999266, 183, 49, 198, 176
-0.999267, 191, 1, 206, 128
-0.999274, 177, 49, 192, 176
-0.999275, 197, 273, 212, 399
-0.999277, 199, 1, 214, 128
-0.999278, 267, 257, 282, 384
-0.999282, 139, 129, 154, 256
-0.999283, 179, 1, 194, 128
-0.999287, 1, 201, 500, 264
-0.999288, 257, 257, 272, 384
-0.999289, 235, 1, 250, 128
-0.999289, 51, 193, 66, 320
-0.999295, 191, 49, 206, 176
-0.999303, 225, 257, 240, 384
-0.999307, 75, 273, 90, 399
-0.999308, 215, 81, 230, 208
-0.999325, 369, 33, 496, 64
-0.999338, 113, 1, 144, 256
-0.999369, 177, 105, 304, 136
-0.999372, 353, 149, 480, 180
-0.999375, 273, 37, 400, 68
-0.999585, 129, 249, 384, 312
-0.999592, 405, 357, 420, 372
-0.999593, 9, 341, 24, 356
-0.999594, 381, 351, 396, 366
-0.999594, 117, 355, 132, 370
-0.999595, 113, 335, 128, 350
-0.999595, 319, 339, 334, 354
-0.999597, 289, 283, 304, 298
-0.999597, 123, 355, 138, 370
-0.999598, 21, 343, 36, 358
-0.999599, 269, 275, 284, 290
-0.999599, 349, 217, 364, 232
-0.9996, 321, 357, 336, 372
-0.9996, 49, 217, 64, 232
-0.999601, 379, 319, 394, 334
-0.999601, 149, 307, 164, 322
-0.999603, 125, 309, 140, 324
-0.999603, 337, 297, 352, 312
-0.999604, 43, 213, 58, 228
-0.999606, 133, 215, 148, 230
-0.999611, 137, 309, 152, 324
-0.999611, 87, 355, 102, 370
-0.999612, 19, 329, 34, 344
-0.999614, 419, 349, 434, 364
-0.999615, 105, 313, 120, 328
-0.999616, 315, 297, 330, 312
-0.999617, 33, 343, 48, 358
-0.999617, 225, 275, 240, 290
-0.999618, 329, 293, 344, 308
-0.999618, 403, 351, 418, 366
-0.999619, 297, 359, 312, 374
-0.999619, 1, 343, 16, 358
-0.999619, 445, 97, 476, 352
-0.99962, 321, 345, 336, 360
-0.99962, 303, 353, 318, 368
-0.999621, 363, 303, 378, 318
-0.999622, 37, 349, 52, 364
-0.999622, 311, 327, 326, 342
-0.999622, 15, 343, 30, 358
-0.999624, 385, 323, 400, 338
-0.999624, 131, 339, 146, 354
-0.999624, 119, 327, 134, 342
-0.999624, 303, 327, 318, 342
-0.999625, 287, 353, 302, 368
-0.999628, 377, 307, 392, 322
-0.999629, 289, 337, 304, 352
-0.99963, 315, 345, 330, 360
-0.999631, 177, 301, 192, 316
-0.999632, 305, 335, 320, 350
-0.999632, 131, 309, 146, 324
-0.999633, 157, 303, 172, 318
-0.999633, 99, 313, 114, 328
-0.999633, 111, 359, 126, 374
-0.999636, 123, 343, 138, 358
-0.999637, 25, 337, 40, 352
-0.999637, 115, 311, 130, 326
-0.999638, 25, 349, 40, 364
-0.999639, 317, 329, 332, 344
-0.999639, 321, 351, 336, 366
-0.99964, 387, 333, 402, 348
-0.999641, 289, 345, 304, 360
-0.999642, 73, 353, 88, 368
-0.999642, 329, 339, 344, 354
-0.999644, 311, 355, 326, 370
-0.999645, 275, 275, 290, 290
-0.999646, 129, 153, 384, 216
-0.999647, 137, 339, 152, 354
-0.999648, 303, 347, 318, 362
-0.999648, 395, 345, 410, 360
-0.999649, 111, 327, 126, 342
-0.999649, 371, 303, 386, 318
-0.99965, 5, 335, 20, 350
-0.999651, 109, 345, 124, 360
-0.999652, 13, 331, 28, 346
-0.999652, 219, 275, 234, 290
-0.999653, 185, 291, 200, 306
-0.999654, 301, 341, 316, 356
-0.999654, 97, 351, 112, 366
-0.999655, 71, 325, 86, 340
-0.999656, 363, 313, 378, 328
-0.999656, 67, 351, 82, 366
-0.999657, 331, 351, 346, 366
-0.999658, 387, 351, 402, 366
-0.999659, 329, 345, 344, 360
-0.999659, 141, 349, 156, 364
-0.99966, 313, 361, 328, 376
-0.999661, 297, 347, 312, 362
-0.999661, 125, 329, 140, 344
-0.999661, 119, 335, 134, 350
-0.999661, 179, 291, 194, 306
-0.999661, 379, 313, 394, 328
-0.999665, 281, 275, 296, 290
-0.999665, 101, 337, 116, 352
-0.999666, 309, 293, 324, 308
-0.999669, 213, 275, 228, 290
-0.999669, 323, 331, 338, 346
-0.999671, 131, 345, 146, 360
-0.999671, 67, 341, 82, 356
-0.999673, 307, 341, 322, 356
-0.999673, 163, 299, 178, 314
-0.999677, 105, 331, 120, 346
-0.999678, 25, 329, 40, 344
-0.99968, 313, 339, 328, 354
-0.999681, 295, 331, 310, 346
-0.999682, 19, 349, 34, 364
-0.999682, 33, 241, 160, 304
-0.999686, 189, 285, 204, 300
-0.999687, 99, 343, 114, 358
-0.999688, 347, 211, 362, 226
-0.99969, 69, 331, 84, 346
-0.999691, 303, 359, 318, 374
-0.999693, 323, 291, 338, 306
-0.999694, 133, 209, 148, 224
-0.999699, 173, 295, 188, 310
-0.999699, 93, 315, 108, 330
-0.999701, 307, 283, 322, 298
-0.999704, 115, 341, 130, 356
-0.999705, 77, 321, 92, 336
-0.999709, 315, 287, 330, 302
-0.999711, 369, 313, 384, 328
-0.999712, 207, 277, 222, 292
-0.999712, 125, 337, 140, 352
-0.999716, 195, 281, 210, 296
-0.999719, 297, 353, 312, 368
-0.999726, 27, 343, 42, 358
-0.999729, 201, 279, 216, 294
-0.999731, 301, 281, 316, 296
-0.999731, 83, 317, 98, 332
-0.999733, 409, 349, 424, 364
-0.999742, 287, 277, 302, 292
-0.999743, 51, 211, 66, 226
-0.999744, 135, 333, 150, 348
-0.999754, 295, 279, 310, 294
-0.999784, 31, 349, 46, 364
-0.999798, 193, 233, 320, 296
-0.999898, 129, 225, 384, 288
-0.999901, 33, 153, 288, 216
-1.0001, 469, 1, 500, 256
-1.00019, 457, 97, 488, 352
-1.00021, 137, 177, 200, 304
-1.00051, 101, 1, 132, 256
-1.00085, 81, 153, 208, 216
-1.00091, 409, 193, 472, 320
-1.00117, 1, 225, 500, 288
-1.00122, 1, 169, 500, 232
-1.00153, 1, 257, 500, 320
-1.00168, 469, 97, 500, 352
-1.00393, 321, 177, 384, 304
-1.00573, 369, 177, 496, 304
-1.00711, 417, 273, 480, 399
-1.00825, 433, 177, 496, 304
-1.01523, 433, 225, 496, 352
