1915
-0.47803, 1, 225, 332, 480
-0.479323, 1, 1, 332, 500
-0.497475, 1, 129, 332, 384
-0.578437, 1, 33, 332, 288
-0.67407, 33, 225, 288, 480
-0.692191, 1, 1, 256, 500
-0.825907, 65, 97, 320, 352
-0.852312, 129, 225, 256, 480
-0.861912, 209, 1, 332, 500
-0.87694, 177, 225, 304, 480
-0.890841, 161, 1, 288, 500
-0.890985, 129, 129, 256, 384
-0.891805, 81, 225, 208, 480
-0.903412, 1, 209, 332, 336
-0.907253, 193, 97, 320, 352
-0.911202, 1, 257, 332, 384
-0.913351, 81, 1, 208, 500
-0.92016, 1, 305, 332, 432
-0.92341, 1, 145, 332, 272
-0.925732, 33, 289, 288, 416
-0.927156, 193, 1, 320, 256
-0.928006, 1, 97, 332, 224
-0.930427, 129, 225, 256, 352
-0.931788, 49, 129, 176, 384
-0.93264, 65, 225, 320, 352
-0.933391, 17, 1, 144, 500
-0.934876, 1, 1, 256, 256
-0.937596, 177, 273, 304, 400
-0.938162, 1, 33, 128, 288
-0.93881, 33, 225, 160, 480
-0.940749, 1, 33, 332, 160
-0.941524, 1, 353, 332, 480
-0.942545, 209, 225, 332, 352
-0.942869, 129, 273, 256, 400
-0.943409, 209, 289, 272, 416
-0.944156, 129, 209, 192, 336
-0.945347, 81, 1, 208, 256
-0.946667, 129, 33, 256, 288
-0.949029, 65, 337, 320, 464
-0.949705, 97, 273, 160, 400
-0.95263, 185, 257, 248, 384
-0.952808, 81, 225, 208, 352
-0.954431, 129, 177, 256, 304
-0.954546, 209, 241, 272, 368
-0.954585, 105, 209, 168, 336
-0.955077, 169, 209, 232, 336
-0.955353, 105, 321, 168, 448
-0.955529, 177, 321, 304, 448
-0.956315, 65, 289, 192, 416
-0.957947, 105, 329, 168, 392
-0.958592, 233, 81, 296, 144
-0.958847, 193, 193, 256, 320
-0.958936, 209, 297, 272, 360
-0.958952, 73, 305, 136, 432
-0.959059, 145, 257, 208, 384
-0.960331, 129, 225, 192, 288
-0.9608, 193, 177, 320, 304
-0.961388, 137, 161, 200, 288
-0.961581, 121, 257, 184, 384
-0.961591, 265, 233, 328, 296
-0.96198, 249, 241, 312, 368
-0.962002, 1, 129, 256, 256
-0.962598, 185, 297, 248, 360
-0.963423, 201, 257, 264, 320
-0.963612, 249, 257, 312, 320
-0.963753, 129, 321, 256, 448
-0.964119, 257, 65, 320, 192
-0.964397, 273, 81, 332, 144
-0.964497, 65, 177, 320, 304
-0.964619, 145, 201, 208, 264
-0.965079, 177, 81, 304, 208
-0.965281, 233, 289, 296, 416
-0.965758, 185, 209, 248, 272
-0.965965, 185, 97, 248, 160
-0.966493, 113, 97, 240, 224
-0.966716, 185, 145, 248, 272
-0.967028, 113, 353, 176, 416
-0.967108, 1, 129, 128, 384
-0.967408, 153, 233, 216, 296
-0.967693, 65, 49, 320, 176
-0.967887, 177, 273, 240, 336
-0.968157, 145, 305, 208, 432
-0.968542, 217, 337, 280, 464
-0.968612, 89, 377, 152, 440
-0.969631, 145, 81, 208, 144
-0.969635, 65, 353, 128, 416
-0.969756, 217, 321, 280, 384
-0.969765, 137, 225, 168, 288
-0.969797, 137, 209, 168, 336
-0.970075, 265, 57, 328, 120
-0.970209, 65, 1, 320, 128
-0.970306, 105, 217, 168, 280
-0.970726, 97, 161, 160, 288
-0.970957, 137, 297, 200, 360
-0.971187, 161, 81, 224, 208
-0.971214, 193, 73, 256, 136
-0.971443, 177, 33, 304, 160
-0.971709, 161, 113, 224, 176
-0.971863, 185, 161, 248, 224
-0.972003, 113, 225, 240, 288
-0.972042, 257, 281, 320, 344
-0.972263, 265, 193, 328, 320
-0.972337, 177, 321, 240, 448
-0.97237, 113, 305, 176, 368
-0.972898, 113, 225, 176, 480
-0.973122, 89, 353, 152, 416
-0.973505, 145, 321, 208, 384
-0.973791, 225, 81, 288, 208
-0.973979, 145, 257, 272, 320
-0.97429, 217, 193, 280, 320
-0.974511, 105, 241, 168, 304
-0.97462, 217, 57, 280, 120
-0.974662, 201, 257, 264, 500
-0.974708, 193, 321, 256, 384
-0.974791, 145, 273, 208, 336
-0.974816, 73, 329, 136, 392
-0.974834, 185, 129, 248, 384
-0.974887, 257, 305, 320, 432
-0.975311, 161, 297, 288, 360
-0.975753, 257, 17, 320, 144
-0.975759, 237, 273, 268, 400
-0.975764, 153, 193, 216, 448
-0.97578, 233, 233, 296, 296
-0.975821, 201, 185, 264, 248
-0.975823, 125, 209, 156, 336
-0.975848, 105, 273, 168, 336
-0.975926, 133, 329, 164, 392
-0.976028, 193, 249, 320, 312
-0.976154, 201, 65, 264, 192
-0.97618, 137, 249, 168, 312
-0.976256, 177, 249, 240, 312
-0.976535, 229, 281, 260, 344
-0.97673, 33, 241, 160, 368
-0.976798, 237, 305, 268, 368
-0.976804, 129, 105, 192, 168
-0.976811, 241, 329, 304, 392
-0.976958, 169, 73, 232, 136
-0.977109, 89, 305, 152, 368
-0.97715, 65, 177, 192, 304
-0.977335, 49, 353, 176, 480
-0.977374, 105, 369, 168, 496
-0.977432, 241, 193, 304, 320
-0.977674, 193, 89, 320, 152
-0.977731, 73, 369, 136, 496
-0.977762, 249, 73, 280, 136
-0.977778, 225, 81, 256, 144
-0.977956, 137, 201, 168, 264
-0.978134, 121, 329, 152, 392
-0.978342, 161, 217, 288, 280
-0.978434, 225, 257, 256, 384
-0.978779, 225, 265, 288, 328
-0.97881, 233, 297, 296, 360
-0.978891, 265, 81, 296, 144
-0.978999, 237, 65, 268, 128
-0.979075, 205, 289, 236, 352
-0.979159, 209, 289, 332, 352
-0.979349, 149, 241, 180, 368
-0.979376, 301, 73, 332, 136
-0.979465, 265, 209, 328, 272
-0.979484, 145, 97, 208, 352
-0.979502, 133, 305, 164, 368
-0.979519, 65, 1, 192, 128
-0.979756, 17, 305, 144, 432
-0.979761, 97, 321, 128, 384
-0.979836, 129, 257, 160, 384
-0.979973, 209, 97, 272, 160
-0.979982, 241, 57, 304, 120
-0.979982, 177, 185, 240, 248
-0.979983, 277, 233, 308, 296
-0.979991, 125, 353, 156, 416
-0.980005, 161, 161, 224, 288
-0.980097, 205, 257, 236, 384
-0.980176, 177, 225, 240, 480
-0.980241, 137, 65, 200, 192
-0.980406, 217, 305, 248, 368
-0.98044, 145, 297, 176, 360
-0.980468, 181, 105, 212, 168
-0.980512, 97, 249, 224, 312
-0.980561, 105, 361, 136, 424
-0.980925, 65, 297, 128, 360
-0.980973, 65, 225, 192, 288
-0.980986, 297, 257, 328, 320
-0.981032, 81, 225, 144, 352
-0.981115, 145, 329, 272, 392
-0.981225, 113, 97, 176, 224
-0.981296, 257, 305, 320, 368
-0.981335, 97, 49, 224, 176
-0.981359, 197, 209, 228, 272
-0.981446, 137, 305, 168, 432
-0.9815, 241, 353, 304, 480
-0.981599, 161, 153, 224, 216
-0.981614, 113, 289, 240, 352
-0.98172, 129, 249, 192, 312
-0.981792, 209, 161, 272, 416
-0.981819, 217, 345, 280, 408
-0.981837, 113, 305, 144, 368
-0.981908, 225, 1, 288, 500
-0.981943, 225, 257, 288, 500
-0.98199, 65, 305, 192, 368
-0.981995, 245, 329, 276, 392
-0.98204, 181, 225, 212, 288
-0.982061, 285, 257, 316, 320
-0.982088, 297, 193, 328, 320
-0.982183, 149, 233, 180, 296
-0.982335, 121, 217, 152, 280
-0.982382, 217, 1, 280, 128
-0.982462, 209, 313, 332, 376
-0.982581, 297, 217, 328, 280
-0.982597, 49, 329, 176, 392
-0.982648, 273, 241, 332, 368
-0.982659, 89, 73, 152, 136
-0.982826, 249, 305, 280, 432
-0.982836, 97, 129, 160, 384
-0.982854, 221, 257, 252, 320
-0.983054, 237, 89, 268, 152
-0.983119, 189, 313, 220, 376
-0.983133, 133, 161, 164, 288
-0.983204, 97, 329, 224, 392
-0.983244, 129, 185, 256, 248
-0.983302, 197, 73, 228, 136
-0.983302, 209, 65, 272, 320
-0.983451, 169, 321, 232, 384
-0.983456, 97, 193, 160, 256
-0.983467, 81, 49, 144, 176
-0.983468, 117, 257, 148, 384
-0.983472, 129, 273, 160, 336
-0.983523, 281, 89, 312, 152
-0.983583, 177, 65, 304, 128
-0.98375, 137, 353, 168, 416
-0.983783, 209, 169, 240, 232
-0.983789, 213, 193, 244, 320
-0.983865, 125, 305, 156, 432
-0.983937, 193, 257, 224, 384
-0.984015, 197, 265, 228, 328
-0.984054, 33, 65, 160, 192
-0.984057, 285, 225, 316, 352
-0.984187, 217, 305, 248, 432
-0.984194, 273, 257, 332, 320
-0.98424, 65, 377, 128, 440
-0.984286, 105, 113, 168, 176
-0.984295, 213, 89, 244, 152
-0.984328, 145, 177, 208, 240
-0.98452, 257, 193, 320, 448
-0.984556, 49, 353, 176, 416
-0.984674, 121, 193, 184, 256
-0.984682, 149, 273, 180, 336
-0.984725, 113, 377, 176, 440
-0.98495, 209, 249, 240, 312
-0.985076, 285, 281, 316, 344
-0.985078, 113, 97, 240, 160
-0.98514, 241, 353, 304, 416
-0.985297, 149, 193, 180, 320
-0.98532, 225, 209, 288, 272
-0.9854, 209, 129, 332, 256
-0.985403, 193, 337, 320, 400
-0.985529, 169, 209, 200, 336
-0.985579, 145, 321, 176, 384
-0.985598, 221, 177, 252, 240
-0.985749, 113, 153, 240, 216
-0.985749, 81, 297, 112, 360
-0.986073, 185, 177, 216, 240
-0.986102, 17, 161, 144, 288
-0.986344, 153, 209, 184, 272
-0.986414, 193, 193, 320, 256
-0.986574, 181, 97, 212, 224
-0.9866, 225, 145, 288, 272
-0.986604, 249, 1, 312, 500
-0.986605, 97, 361, 224, 424
-0.986613, 125, 241, 156, 304
-0.986642, 265, 57, 296, 120
-0.986658, 129, 353, 192, 480
-0.986694, 121, 81, 184, 144
-0.986759, 121, 185, 152, 248
-0.98689, 297, 281, 328, 344
-0.986993, 5, 161, 36, 224
-0.987009, 185, 209, 216, 336
-0.987038, 137, 113, 200, 240
-0.987065, 201, 137, 264, 200
-0.98707, 201, 97, 232, 160
-0.987085, 209, 225, 332, 288
-0.987094, 49, 377, 176, 440
-0.987167, 49, 305, 112, 432
-0.987199, 113, 73, 240, 136
-0.98725, 89, 225, 152, 480
-0.987317, 109, 337, 140, 400
-0.987347, 265, 241, 296, 304
-0.987365, 113, 169, 176, 232
-0.987376, 169, 113, 200, 176
-0.987393, 97, 121, 224, 184
-0.987394, 193, 161, 224, 288
-0.987406, 249, 65, 280, 192
-0.987433, 189, 305, 220, 432
-0.987473, 97, 305, 128, 432
-0.987477, 185, 153, 216, 216
-0.987572, 137, 145, 200, 208
-0.987683, 169, 209, 200, 272
-0.987689, 49, 1, 112, 128
-0.987741, 193, 1, 256, 500
-0.98777, 225, 209, 256, 336
-0.987819, 173, 81, 204, 144
-0.987975, 165, 233, 196, 296
-0.988013, 193, 49, 256, 112
-0.988051, 209, 233, 272, 296
-0.988051, 197, 153, 228, 216
-0.988138, 1, 41, 64, 104
-0.988142, 177, 169, 304, 232
-0.988266, 221, 329, 252, 392
-0.988278, 249, 353, 280, 416
-0.988301, 277, 209, 308, 272
-0.988308, 65, 281, 192, 344
-0.988331, 185, 201, 216, 264
-0.988365, 17, 17, 144, 144
-0.988368, 1, 145, 64, 272
-0.988412, 281, 65, 312, 128
-0.988452, 301, 65, 332, 192
-0.988534, 297, 241, 328, 368
-0.988546, 57, 49, 120, 112
-0.988589, 1, 161, 64, 224
-0.988603, 233, 345, 264, 408
-0.988656, 221, 57, 252, 120
-0.988843, 225, 177, 288, 240
-0.988865, 257, 241, 288, 368
-0.988902, 89, 113, 152, 240
-0.988949, 197, 177, 228, 240
-0.989019, 233, 89, 296, 120
-0.989029, 161, 113, 288, 176
-0.989048, 245, 1, 276, 128
-0.98906, 113, 229, 176, 260
-0.989078, 113, 1, 240, 128
-0.989149, 201, 97, 232, 224
-0.989159, 205, 313, 236, 376
-0.98916, 193, 289, 224, 352
-0.989193, 81, 289, 112, 416
-0.989195, 137, 169, 168, 232
-0.989217, 269, 49, 300, 176
-0.989249, 65, 257, 128, 500
-0.989256, 285, 273, 316, 400
-0.989271, 113, 337, 144, 464
-0.989281, 89, 353, 120, 416
-0.989293, 273, 85, 332, 116
-0.989321, 265, 65, 328, 320
-0.989331, 185, 33, 248, 288
-0.989341, 249, 105, 312, 168
-0.989384, 265, 245, 328, 276
-0.989404, 89, 1, 152, 128
-0.989439, 89, 169, 152, 232
-0.989487, 101, 297, 132, 360
-0.989597, 225, 65, 256, 192
-0.989636, 33, 201, 160, 264
-0.989642, 49, 97, 176, 160
-0.989656, 97, 145, 160, 208
-0.989681, 145, 345, 208, 408
-0.989693, 161, 81, 192, 144
-0.989707, 185, 81, 216, 144
-0.98972, 1, 65, 128, 128
-0.989809, 209, 285, 272, 316
-0.989833, 245, 353, 276, 480
-0.989897, 105, 377, 168, 408
-0.98994, 217, 333, 280, 364
-0.98996, 121, 245, 184, 276
-0.989965, 165, 257, 196, 384
-0.989967, 181, 161, 212, 288
-0.990029, 93, 377, 124, 440
-0.990056, 137, 229, 200, 260
-0.990117, 81, 241, 144, 304
-0.990124, 209, 301, 272, 332
-0.990133, 121, 129, 184, 384
-0.990153, 149, 289, 180, 416
-0.990153, 233, 249, 296, 280
-0.990155, 65, 113, 192, 240
-0.990171, 217, 313, 280, 344
-0.990178, 265, 145, 328, 272
-0.990225, 281, 177, 312, 304
-0.99027, 201, 261, 264, 292
-0.990274, 265, 233, 328, 264
-0.990277, 85, 329, 116, 392
-0.990309, 1, 33, 128, 96
-0.990331, 193, 97, 256, 128
-0.990334, 145, 241, 208, 272
-0.990335, 253, 49, 284, 112
-0.990346, 233, 161, 296, 416
-0.990348, 193, 333, 256, 364
-0.990354, 73, 377, 136, 408
-0.990359, 129, 1, 192, 500
-0.990364, 81, 217, 144, 280
-0.990367, 193, 41, 320, 104
-0.990369, 229, 321, 260, 448
-0.990383, 197, 209, 228, 336
-0.990387, 193, 213, 256, 244
-0.990392, 189, 49, 220, 176
-0.990395, 213, 97, 244, 224
-0.990426, 81, 193, 208, 256
-0.990476, 105, 317, 168, 348
-0.990479, 57, 49, 120, 176
-0.990492, 217, 201, 248, 264
-0.990505, 161, 33, 224, 160
-0.99057, 89, 329, 152, 360
-0.990585, 233, 101, 296, 132
-0.990632, 117, 161, 148, 288
-0.990643, 185, 109, 248, 140
-0.990661, 249, 97, 280, 160
-0.990688, 85, 337, 116, 464
-0.990693, 237, 81, 268, 208
-0.990722, 97, 365, 160, 396
-0.990724, 265, 257, 328, 288
-0.990733, 177, 289, 240, 320
-0.990786, 17, 297, 144, 360
-0.990801, 73, 161, 136, 288
-0.990808, 125, 97, 156, 160
-0.990814, 153, 101, 216, 132
-0.990838, 145, 213, 208, 244
-0.990843, 81, 273, 144, 336
-0.990848, 129, 109, 192, 140
-0.990852, 201, 273, 264, 304
-0.990865, 245, 249, 276, 312
-0.990898, 97, 33, 160, 288
-0.990904, 113, 345, 176, 376
-0.990924, 113, 305, 176, 336
-0.990929, 145, 329, 208, 360
-0.990942, 169, 1, 232, 500
-0.990957, 113, 217, 176, 248
-0.990959, 101, 353, 132, 480
-0.991004, 201, 305, 232, 432
-0.991036, 285, 49, 316, 176
-0.991072, 65, 365, 128, 396
-0.991097, 193, 313, 256, 344
-0.991101, 49, 249, 176, 312
-0.991102, 177, 321, 208, 448
-0.99111, 185, 173, 248, 204
-0.991168, 249, 281, 312, 312
-0.991173, 241, 341, 304, 372
-0.991177, 273, 97, 332, 128
-0.991207, 225, 77, 288, 108
-0.991208, 97, 241, 160, 272
-0.991228, 249, 293, 312, 324
-0.99125, 201, 345, 264, 376
-0.991265, 169, 337, 232, 368
-0.991284, 121, 1, 184, 128
-0.991332, 89, 349, 152, 380
-0.991336, 73, 337, 104, 400
-0.991345, 65, 81, 128, 144
-0.991381, 49, 329, 112, 392
-0.991402, 113, 333, 176, 364
-0.991406, 185, 301, 248, 332
-0.991407, 249, 77, 312, 108
-0.991423, 265, 269, 328, 300
-0.991434, 65, 41, 192, 104
-0.991435, 121, 257, 184, 288
-0.991447, 73, 313, 136, 344
-0.991452, 265, 337, 328, 400
-0.99147, 81, 389, 144, 420
-0.991478, 169, 265, 232, 296
-0.991481, 101, 273, 132, 336
-0.991516, 209, 65, 240, 128
-0.991557, 137, 313, 200, 344
-0.99156, 169, 277, 232, 308
-0.991562, 257, 329, 288, 392
-0.991571, 177, 313, 208, 376
-0.991572, 161, 113, 224, 144
-0.991576, 185, 257, 216, 320
-0.991584, 241, 269, 304, 300
-0.991586, 117, 265, 148, 328
-0.991613, 233, 33, 296, 288
-0.99162, 49, 73, 176, 136
-0.991652, 137, 341, 200, 372
-0.991656, 97, 41, 160, 104
-0.991672, 169, 325, 232, 356
-0.991678, 161, 229, 224, 260
-0.991705, 257, 317, 320, 348
-0.991707, 169, 253, 232, 284
-0.991717, 173, 273, 204, 336
-0.99172, 153, 353, 216, 480
-0.991731, 97, 193, 160, 224
-0.991789, 65, 341, 128, 372
-0.991811, 225, 357, 288, 388
-0.991817, 145, 261, 208, 292
-0.991837, 97, 369, 224, 496
-0.991837, 177, 201, 240, 232
-0.991843, 121, 269, 184, 300
-0.991847, 137, 201, 200, 232
-0.991865, 117, 377, 148, 440
-0.991868, 233, 237, 296, 268
-0.991873, 97, 293, 160, 324
-0.991884, 193, 161, 256, 192
-0.991896, 161, 161, 224, 192
-0.991903, 113, 209, 144, 336
-0.991948, 185, 337, 216, 400
-0.991956, 161, 297, 224, 360
-0.991972, 169, 241, 232, 272
-0.991974, 273, 241, 304, 368
-0.991989, 1, 353, 128, 480
-0.992012, 25, 129, 88, 256
-0.992015, 249, 305, 312, 336
-0.99202, 193, 85, 256, 116
-0.992043, 201, 249, 264, 280
-0.992051, 145, 297, 208, 328
-0.992058, 129, 361, 192, 392
-0.992061, 137, 225, 168, 256
-0.992093, 49, 241, 112, 368
-0.992104, 65, 329, 128, 360
-0.99212, 161, 125, 224, 156
-0.992135, 97, 253, 160, 284
-0.992143, 257, 329, 320, 360
-0.992159, 145, 285, 208, 316
-0.992162, 81, 1, 144, 500
-0.992179, 253, 281, 284, 344
-0.992181, 129, 121, 192, 152
-0.992187, 133, 249, 164, 280
-0.992191, 97, 205, 160, 236
-0.99221, 225, 201, 288, 232
-0.992222, 33, 177, 160, 240
-0.992223, 89, 217, 152, 248
-0.992224, 1, 33, 64, 160
-0.99223, 9, 145, 40, 272
-0.992249, 201, 189, 264, 220
-0.992304, 121, 185, 184, 216
-0.992319, 265, 221, 328, 252
-0.992326, 181, 257, 212, 384
-0.992327, 169, 213, 232, 244
-0.992341, 97, 109, 160, 140
-0.992343, 273, 73, 332, 104
-0.992366, 65, 353, 128, 384
-0.992371, 73, 301, 136, 332
-0.992373, 297, 89, 328, 120
-0.992391, 217, 213, 280, 244
-0.992397, 97, 265, 160, 296
-0.992399, 105, 389, 168, 420
-0.992409, 105, 369, 136, 400
-0.992438, 261, 321, 292, 448
-0.99244, 1, 113, 128, 240
-0.992441, 185, 225, 248, 256
-0.992448, 245, 89, 276, 120
-0.99245, 221, 93, 252, 124
-0.992452, 65, 329, 320, 392
-0.992461, 81, 173, 144, 204
-0.992466, 249, 65, 312, 96
-0.992473, 129, 373, 192, 404
-0.99248, 97, 281, 160, 312
-0.992482, 153, 357, 216, 388
-0.992487, 233, 93, 264, 124
-0.992493, 281, 85, 312, 116
-0.992497, 169, 81, 200, 208
-0.992515, 209, 109, 272, 140
-0.992541, 145, 245, 176, 276
-0.992542, 181, 109, 212, 140
-0.992546, 193, 101, 224, 132
-0.992552, 161, 265, 192, 328
-0.992554, 89, 93, 152, 124
-0.992555, 249, 369, 312, 400
-0.992556, 265, 89, 296, 120
-0.992561, 245, 209, 276, 336
-0.992565, 201, 201, 264, 232
-0.992584, 137, 89, 200, 120
-0.992594, 133, 309, 164, 340
-0.992597, 241, 337, 272, 368
-0.9926, 137, 209, 168, 240
-0.992604, 1, 145, 128, 208
-0.992608, 301, 193, 332, 256
-0.992636, 273, 237, 304, 268
-0.99265, 65, 305, 320, 368
-0.992654, 133, 345, 164, 376
-0.992676, 1, 337, 128, 400
-0.992677, 1, 185, 64, 248
-0.992678, 125, 213, 156, 244
-0.992685, 265, 185, 328, 248
-0.992703, 121, 169, 184, 200
-0.992703, 213, 313, 244, 344
-0.992704, 249, 357, 312, 388
-0.992707, 249, 33, 312, 96
-0.992727, 241, 381, 304, 412
-0.992745, 121, 281, 184, 312
-0.992746, 285, 245, 316, 276
-0.992756, 133, 333, 164, 364
-0.992786, 149, 289, 180, 320
-0.992794, 93, 369, 124, 400
-0.992795, 201, 69, 264, 100
-0.992799, 157, 237, 188, 268
-0.9928, 101, 381, 132, 412
-0.992802, 241, 325, 272, 356
-0.992812, 297, 281, 328, 312
-0.992815, 121, 321, 152, 352
-0.992815, 273, 289, 332, 320
-0.992818, 209, 173, 240, 204
-0.992828, 161, 249, 192, 280
-0.992834, 129, 265, 160, 296
-0.992837, 117, 361, 148, 392
-0.992839, 233, 305, 264, 336
-0.992843, 265, 101, 296, 132
-0.992849, 121, 373, 152, 404
-0.992865, 209, 97, 240, 128
-0.992867, 121, 193, 152, 224
-0.992872, 285, 281, 316, 312
-0.992873, 185, 17, 248, 144
-0.992875, 89, 229, 152, 260
-0.992876, 125, 237, 156, 268
-0.992877, 177, 233, 208, 264
-0.992883, 173, 121, 204, 152
-0.992883, 265, 249, 296, 280
-0.992887, 161, 149, 224, 180
-0.992889, 301, 77, 332, 108
-0.99289, 49, 69, 112, 100
-0.99289, 225, 377, 288, 440
-0.992892, 233, 53, 296, 84
-0.992897, 285, 257, 316, 288
-0.992897, 217, 329, 248, 360
-0.992899, 145, 273, 208, 304
-0.9929, 225, 289, 256, 320
-0.992903, 297, 257, 328, 288
-0.992908, 161, 89, 224, 120
-0.99291, 141, 261, 172, 292
-0.992915, 185, 321, 216, 352
-0.992917, 133, 361, 164, 392
-0.992918, 205, 325, 236, 356
-0.99292, 5, 165, 36, 196
-0.992921, 97, 161, 160, 192
-0.992928, 81, 57, 112, 120
-0.992929, 285, 269, 316, 300
-0.992932, 297, 269, 328, 300
-0.992934, 49, 49, 112, 80
-0.992937, 121, 345, 152, 376
-0.992945, 1, 9, 64, 72
-0.992956, 213, 209, 244, 240
-0.992969, 205, 301, 236, 332
-0.992969, 153, 277, 184, 308
-0.992972, 181, 97, 212, 128
-0.992973, 193, 217, 224, 248
-0.992982, 233, 81, 264, 112
-0.992997, 293, 233, 324, 264
-0.992998, 225, 369, 288, 400
-0.993003, 121, 293, 184, 324
-0.993005, 133, 289, 164, 320
-0.993007, 117, 333, 148, 364
-0.993016, 145, 329, 176, 360
-0.99302, 209, 257, 240, 288
-0.993024, 193, 273, 224, 304
-0.993024, 245, 101, 276, 132
-0.993026, 177, 189, 240, 220
-0.993027, 113, 385, 144, 416
-0.993029, 105, 125, 168, 156
-0.993036, 97, 337, 128, 368
-0.993043, 139, 329, 154, 392
-0.993044, 185, 121, 248, 152
-0.993052, 249, 353, 280, 384
-0.993056, 101, 353, 132, 384
-0.993063, 253, 249, 284, 280
-0.993065, 105, 317, 136, 348
-0.993067, 189, 337, 220, 368
-0.993067, 189, 161, 220, 192
-0.993071, 133, 373, 164, 404
-0.993078, 145, 305, 176, 336
-0.993079, 169, 101, 200, 132
-0.993079, 297, 245, 328, 276
-0.993086, 249, 77, 280, 108
-0.993086, 157, 225, 188, 256
-0.993088, 25, 49, 88, 112
-0.99309, 125, 109, 156, 140
-0.993097, 193, 261, 224, 292
-0.993111, 209, 369, 332, 496
-0.993112, 229, 105, 260, 136
-0.99312, 121, 249, 152, 280
-0.993121, 301, 217, 332, 248
-0.993125, 133, 277, 164, 308
-0.993137, 217, 185, 248, 216
-0.993141, 201, 205, 232, 236
-0.993147, 285, 293, 316, 324
-0.99315, 129, 377, 160, 440
-0.993158, 301, 101, 332, 132
-0.993161, 161, 161, 192, 288
-0.993167, 85, 357, 116, 388
-0.993172, 177, 333, 208, 364
-0.993172, 273, 73, 304, 104
-0.993182, 133, 321, 164, 352
-0.993191, 173, 221, 204, 252
-0.993191, 145, 353, 272, 416
-0.993195, 261, 69, 292, 100
-0.993197, 145, 317, 176, 348
-0.993198, 153, 265, 184, 296
-0.993227, 221, 173, 252, 204
-0.993227, 297, 293, 328, 324
-0.993228, 209, 85, 240, 116
-0.99323, 117, 305, 148, 336
-0.993233, 145, 357, 176, 388
-0.993233, 201, 337, 232, 368
-0.993233, 145, 217, 160, 280
-0.993235, 93, 325, 124, 356
-0.993237, 225, 345, 256, 376
-0.993245, 205, 289, 236, 320
-0.993246, 221, 257, 252, 288
-0.993246, 209, 109, 240, 140
-0.993249, 161, 117, 192, 148
-0.993251, 129, 181, 160, 212
-0.993255, 249, 365, 280, 396
-0.993257, 281, 97, 312, 128
-0.993261, 281, 217, 312, 248
-0.993262, 97, 385, 224, 448
-0.993264, 197, 89, 228, 120
-0.993267, 5, 177, 36, 208
-0.993275, 201, 313, 232, 344
-0.993283, 189, 205, 220, 236
-0.993285, 113, 237, 144, 268
-0.99329, 89, 381, 120, 412
-0.993291, 237, 353, 268, 384
-0.99332, 193, 173, 224, 204
-0.993326, 149, 205, 180, 236
-0.993327, 209, 369, 332, 432
-0.993329, 221, 277, 252, 308
-0.993332, 177, 273, 208, 304
-0.993335, 193, 113, 224, 144
-0.993354, 253, 237, 284, 268
-0.993359, 205, 161, 236, 192
-0.993361, 125, 81, 156, 208
-0.993373, 225, 161, 256, 288
-0.993392, 69, 313, 100, 376
-0.993424, 1, 241, 256, 304
-0.993427, 301, 97, 332, 160
-0.993481, 295, 233, 310, 296
-0.993512, 165, 297, 196, 360
-0.993533, 265, 217, 296, 280
-0.993561, 25, 73, 88, 136
-0.99363, 297, 17, 328, 144
-0.993635, 49, 369, 112, 496
-0.993654, 25, 129, 56, 256
-0.993658, 65, 209, 320, 272
-0.993691, 25, 49, 88, 176
-0.993725, 149, 89, 180, 152
-0.993759, 17, 137, 80, 200
-0.993779, 149, 145, 180, 272
-0.993787, 249, 377, 312, 440
-0.993818, 209, 137, 240, 200
-0.993876, 173, 185, 204, 248
-0.993913, 133, 353, 164, 480
-0.994023, 237, 41, 268, 104
-0.994037, 143, 305, 158, 368
-0.994051, 65, 353, 320, 416
-0.99406, 97, 257, 128, 384
-0.994064, 145, 265, 272, 296
-0.99408, 129, 1, 256, 64
-0.994087, 141, 241, 156, 304
-0.994136, 65, 273, 320, 336
-0.994176, 113, 1, 176, 64
-0.994199, 105, 1, 168, 500
-0.994201, 73, 25, 136, 88
-0.994226, 137, 369, 200, 432
-0.994228, 113, 245, 240, 276
-0.994236, 193, 89, 320, 120
-0.994242, 1, 9, 128, 72
-0.994249, 177, 101, 304, 132
-0.994273, 1, 241, 332, 304
-0.994334, 57, 257, 120, 320
-0.994365, 49, 153, 176, 216
-0.994366, 261, 353, 292, 416
-0.994382, 225, 105, 256, 168
-0.994407, 217, 33, 280, 96
-0.994407, 113, 241, 144, 304
-0.99441, 213, 49, 244, 176
-0.994426, 33, 25, 96, 88
-0.994432, 113, 229, 240, 260
-0.994443, 209, 145, 332, 208
-0.994445, 215, 289, 230, 352
-0.99445, 285, 185, 316, 248
-0.994461, 209, 1, 332, 64
-0.994477, 151, 225, 166, 288
-0.994485, 1, 273, 332, 336
-0.994508, 193, 253, 320, 284
-0.994509, 161, 49, 224, 112
-0.994519, 277, 81, 292, 144
-0.994531, 137, 97, 168, 160
-0.994572, 137, 305, 152, 368
-0.994577, 135, 225, 150, 288
-0.994582, 139, 201, 154, 264
-0.994619, 269, 193, 300, 320
-0.994636, 65, 1, 128, 256
-0.994659, 301, 217, 316, 280
-0.994661, 153, 185, 184, 248
-0.9947, 269, 81, 284, 144
-0.994701, 289, 97, 320, 224
-0.99472, 149, 289, 164, 352
-0.994723, 269, 1, 300, 128
-0.994741, 1, 89, 128, 152
-0.994782, 111, 361, 126, 424
-0.994793, 129, 49, 256, 112
-0.994822, 33, 281, 96, 344
-0.994835, 227, 305, 242, 368
-0.994841, 297, 257, 312, 320
-0.994841, 17, 225, 144, 288
-0.994873, 201, 49, 232, 176
-0.994886, 225, 17, 256, 144
-0.994909, 1, 361, 128, 424
-0.994932, 209, 289, 332, 320
-0.994937, 209, 113, 332, 176
-0.99494, 69, 305, 100, 432
-0.994945, 117, 161, 148, 224
-0.994952, 253, 217, 284, 280
-0.994964, 149, 345, 180, 408
-0.99498, 41, 305, 104, 368
-0.994993, 25, 1, 88, 128
-0.99501, 205, 145, 236, 272
-0.995019, 169, 33, 200, 160
-0.995023, 223, 89, 238, 152
-0.995043, 89, 33, 120, 96
-0.995063, 57, 97, 120, 224
-0.995099, 131, 345, 146, 408
-0.995123, 1, 297, 332, 360
-0.995169, 263, 81, 278, 144
-0.995193, 269, 241, 284, 304
-0.995195, 137, 113, 168, 240
-0.995258, 73, 105, 136, 168
-0.995261, 241, 225, 272, 288
-0.995266, 221, 297, 236, 360
-0.995292, 161, 129, 288, 256
-0.995315, 145, 321, 272, 352
-0.995332, 1, 201, 332, 264
-0.995341, 125, 313, 140, 376
-0.995376, 105, 49, 168, 176
-0.995392, 209, 265, 224, 328
-0.995397, 129, 145, 160, 208
-0.995401, 145, 329, 160, 392
-0.995408, 265, 105, 296, 168
-0.995428, 81, 1, 208, 64
-0.995436, 1, 81, 64, 208
-0.99545, 161, 277, 288, 308
-0.995493, 161, 237, 288, 268
-0.995518, 181, 97, 196, 160
-0.995521, 121, 361, 136, 424
-0.995522, 97, 261, 224, 292
-0.99553, 249, 305, 280, 368
-0.995531, 137, 193, 168, 448
-0.995534, 161, 297, 288, 328
-0.995543, 177, 341, 304, 372
-0.995551, 301, 281, 316, 344
-0.995617, 193, 313, 208, 376
-0.99562, 57, 1, 120, 500
-0.995633, 205, 297, 220, 360
-0.995642, 317, 73, 332, 136
-0.995646, 239, 81, 254, 144
-0.995652, 257, 337, 272, 400
-0.995664, 89, 273, 120, 336
-0.995668, 147, 353, 162, 416
-0.995676, 265, 353, 328, 480
-0.995694, 81, 329, 208, 360
-0.995716, 217, 89, 232, 152
-0.995718, 261, 305, 292, 368
-0.995727, 161, 145, 288, 208
-0.995737, 257, 65, 272, 128
-0.995737, 125, 121, 156, 184
-0.99574, 135, 273, 150, 336
-0.995746, 145, 217, 272, 248
-0.995766, 169, 57, 200, 120
-0.995786, 151, 201, 166, 264
-0.995803, 191, 105, 206, 168
-0.995804, 105, 353, 120, 416
-0.995805, 193, 233, 224, 296
-0.995808, 233, 73, 248, 136
-0.99581, 115, 337, 130, 400
-0.995825, 129, 105, 256, 136
-0.995831, 207, 177, 222, 240
-0.995836, 265, 1, 328, 64
-0.99586, 65, 313, 192, 344
-0.995888, 157, 257, 172, 320
-0.995928, 161, 309, 288, 340
-0.995932, 147, 249, 162, 312
-0.995947, 271, 57, 286, 120
-0.995964, 193, 265, 320, 296
-0.995966, 49, 121, 176, 184
-0.995985, 17, 273, 144, 336
-0.995993, 65, 229, 192, 260
-0.995994, 129, 41, 192, 104
-0.996028, 185, 345, 248, 408
-0.996029, 251, 73, 266, 136
-0.99603, 157, 217, 172, 280
-0.996034, 187, 225, 202, 288
-0.996036, 199, 153, 214, 216
-0.99605, 25, 177, 56, 240
-0.996065, 157, 121, 188, 184
-0.996073, 101, 33, 132, 160
-0.996087, 131, 305, 146, 368
-0.996093, 129, 209, 144, 272
-0.996098, 143, 281, 158, 344
-0.996105, 97, 345, 112, 408
-0.996134, 129, 233, 144, 296
-0.996154, 1, 329, 332, 392
-0.996164, 293, 49, 324, 112
-0.996174, 161, 369, 288, 496
-0.996189, 135, 249, 150, 312
-0.996209, 257, 1, 288, 128
-0.996214, 81, 401, 144, 464
-0.996223, 311, 81, 326, 144
-0.996235, 109, 185, 140, 248
-0.99625, 193, 325, 320, 356
-0.996263, 149, 81, 180, 208
-0.996293, 1, 1, 64, 256
-0.996304, 129, 117, 256, 148
-0.996315, 1, 81, 332, 144
-0.99632, 291, 81, 306, 144
-0.996343, 161, 1, 224, 256
-0.996347, 65, 161, 128, 224
-0.996351, 113, 309, 240, 340
-0.996352, 129, 205, 256, 236
-0.996359, 1, 161, 256, 224
-0.996368, 199, 305, 214, 368
-0.996372, 283, 81, 298, 144
-0.996374, 49, 381, 176, 412
-0.996374, 305, 73, 320, 136
-0.99638, 295, 281, 310, 344
-0.996393, 81, 49, 112, 176
-0.996399, 285, 1, 316, 128
-0.99641, 253, 313, 268, 376
-0.996425, 209, 209, 332, 240
-0.996459, 65, 249, 192, 280
-0.996459, 185, 201, 200, 264
-0.996461, 25, 169, 88, 232
-0.996463, 203, 265, 218, 328
-0.996478, 179, 201, 194, 264
-0.99648, 155, 281, 170, 344
-0.996485, 49, 401, 176, 464
-0.996499, 125, 193, 156, 448
-0.99651, 289, 233, 304, 296
-0.996512, 277, 217, 292, 280
-0.996527, 107, 313, 122, 376
-0.996541, 113, 285, 240, 316
-0.996542, 99, 369, 114, 432
-0.996545, 305, 257, 320, 320
-0.99656, 225, 257, 256, 500
-0.996564, 81, 1, 112, 128
-0.996572, 209, 277, 332, 308
-0.996579, 33, 361, 96, 424
-0.996587, 179, 233, 194, 296
-0.996596, 145, 25, 272, 88
-0.996611, 97, 321, 112, 384
-0.996661, 137, 177, 152, 240
-0.996661, 257, 89, 272, 152
-0.996667, 297, 289, 328, 416
-0.996676, 229, 97, 244, 160
-0.996688, 209, 301, 332, 332
-0.996696, 145, 1, 208, 64
-0.996701, 105, 377, 120, 440
-0.996719, 245, 89, 260, 152
-0.996743, 197, 193, 212, 256
-0.996758, 299, 193, 314, 256
-0.996759, 203, 201, 218, 264
-0.99676, 213, 177, 228, 240
-0.996769, 165, 249, 180, 312
-0.996773, 227, 65, 242, 128
-0.996773, 229, 177, 244, 240
-0.996776, 129, 337, 256, 368
-0.996777, 49, 361, 176, 392
-0.996778, 213, 209, 228, 272
-0.996786, 225, 9, 288, 72
-0.996788, 291, 257, 306, 320
-0.9968, 103, 373, 118, 404
-0.996804, 151, 313, 166, 376
-0.996818, 49, 345, 176, 376
-0.996821, 209, 313, 332, 344
-0.996824, 137, 353, 152, 416
-0.996843, 127, 185, 142, 248
-0.996847, 205, 321, 220, 384
-0.99686, 237, 337, 252, 400
-0.996863, 189, 81, 204, 144
-0.996864, 215, 313, 230, 376
-0.996874, 277, 57, 292, 120
-0.996878, 115, 305, 130, 368
-0.99688, 209, 77, 332, 108
-0.996889, 263, 57, 278, 120
-0.99689, 137, 1, 200, 256
-0.996893, 73, 129, 136, 384
-0.996897, 175, 89, 190, 152
-0.9969, 1, 105, 332, 168
-0.996911, 81, 117, 208, 148
-0.996914, 215, 249, 230, 312
-0.996927, 33, 185, 288, 248
-0.996929, 97, 273, 224, 304
-0.996934, 111, 377, 126, 408
-0.99695, 221, 169, 236, 232
-0.996951, 5, 161, 20, 224
-0.996957, 245, 353, 260, 416
-0.996986, 187, 109, 202, 140
-0.997, 193, 217, 208, 280
-0.997009, 165, 225, 180, 288
-0.99702, 33, 377, 288, 440
-0.997022, 135, 97, 150, 160
-0.997028, 247, 297, 262, 360
-0.997034, 65, 89, 320, 152
-0.997039, 209, 409, 332, 472
-0.997047, 129, 177, 256, 208
-0.997056, 205, 153, 220, 216
-0.997066, 139, 337, 154, 368
-0.997082, 273, 105, 332, 168
-0.997106, 245, 65, 260, 128
-0.997113, 175, 113, 190, 176
-0.997114, 239, 57, 254, 120
-0.997131, 143, 249, 158, 280
-0.99715, 273, 361, 332, 424
-0.997153, 1, 65, 64, 128
-0.997158, 211, 73, 226, 136
-0.997167, 121, 337, 136, 400
-0.997169, 279, 89, 294, 120
-0.997196, 187, 313, 202, 376
-0.997198, 257, 89, 272, 120
-0.997204, 273, 1, 332, 500
-0.99722, 299, 81, 314, 144
-0.997224, 197, 273, 212, 336
-0.997226, 199, 81, 214, 144
-0.997246, 143, 209, 158, 240
-0.997255, 145, 193, 160, 256
-0.99726, 97, 365, 224, 396
-0.997265, 1, 97, 32, 224
-0.997266, 177, 113, 304, 144
-0.997292, 193, 153, 208, 216
-0.997293, 233, 93, 248, 124
-0.997293, 91, 345, 106, 408
-0.997296, 185, 121, 200, 184
-0.997296, 149, 225, 180, 480
-0.997309, 123, 385, 138, 448
-0.997323, 267, 217, 282, 280
-0.997332, 219, 193, 234, 256
-0.997335, 267, 89, 282, 120
-0.997335, 189, 97, 220, 352
-0.997336, 125, 289, 140, 352
-0.997351, 261, 369, 292, 496
-0.997353, 209, 241, 332, 272
-0.99738, 311, 89, 326, 120
-0.99739, 1, 57, 332, 120
-0.997393, 33, 325, 160, 356
-0.997397, 201, 241, 216, 304
-0.997405, 141, 105, 156, 168
-0.997407, 239, 281, 254, 344
-0.997433, 251, 85, 266, 116
-0.997434, 197, 105, 212, 136
-0.997437, 273, 93, 288, 124
-0.997446, 151, 245, 166, 276
-0.997446, 131, 161, 146, 224
-0.997456, 209, 197, 332, 228
-0.997457, 285, 57, 300, 120
-0.99746, 193, 221, 320, 252
-0.997476, 137, 205, 152, 236
-0.99748, 301, 145, 332, 272
-0.997482, 129, 193, 256, 224
-0.997483, 239, 97, 254, 128
-0.997488, 209, 161, 240, 416
-0.99749, 65, 301, 192, 332
-0.997515, 293, 233, 308, 264
-0.997529, 113, 297, 240, 328
-0.997544, 143, 325, 158, 356
-0.997555, 269, 249, 284, 280
-0.997564, 149, 297, 164, 328
-0.997566, 145, 353, 272, 384
-0.997577, 299, 281, 314, 312
-0.997578, 237, 257, 268, 500
-0.997583, 165, 305, 196, 432
-0.99759, 1, 17, 32, 144
-0.997593, 81, 105, 208, 136
-0.997604, 209, 65, 240, 320
-0.997611, 97, 381, 224, 412
-0.997614, 143, 309, 158, 340
-0.997628, 295, 249, 310, 280
-0.99764, 145, 85, 272, 116
-0.997643, 33, 65, 288, 128
-0.997643, 1, 249, 128, 312
-0.99765, 305, 85, 320, 116
-0.997654, 65, 1, 128, 64
-0.997656, 293, 89, 308, 120
-0.997659, 151, 285, 166, 316
-0.997662, 105, 361, 120, 392
-0.997669, 179, 117, 194, 148
-0.997677, 85, 241, 116, 368
-0.997683, 225, 97, 240, 128
-0.997683, 147, 225, 162, 256
-0.997685, 297, 269, 312, 300
-0.997686, 317, 81, 332, 112
-0.997689, 225, 317, 240, 348
-0.997698, 187, 97, 202, 128
-0.997713, 25, 289, 88, 416
-0.997718, 203, 101, 218, 132
-0.997718, 211, 101, 226, 132
-0.997723, 303, 221, 318, 252
-0.997724, 245, 89, 260, 120
-0.997725, 185, 225, 200, 256
-0.997725, 123, 373, 138, 404
-0.997743, 25, 81, 56, 208
-0.997746, 137, 249, 152, 280
-0.997747, 253, 101, 268, 132
-0.997754, 65, 289, 192, 320
-0.997761, 9, 97, 72, 352
-0.997774, 135, 269, 150, 300
-0.997778, 119, 385, 134, 416
-0.997779, 1, 177, 332, 240
-0.997782, 157, 241, 172, 272
-0.99779, 1, 385, 128, 448
-0.997791, 221, 301, 236, 332
-0.997797, 149, 337, 180, 464
-0.997798, 219, 101, 234, 132
-0.997811, 41, 257, 104, 500
-0.997817, 137, 313, 152, 344
-0.997817, 185, 193, 216, 448
-0.997817, 299, 81, 314, 112
-0.997819, 137, 217, 152, 248
-0.997838, 111, 365, 126, 396
-0.99784, 137, 325, 152, 356
-0.997843, 133, 97, 164, 352
-0.997843, 49, 189, 176, 220
-0.997844, 215, 297, 230, 328
-0.99785, 153, 257, 168, 288
-0.997852, 143, 297, 158, 328
-0.997858, 111, 309, 126, 340
-0.997865, 217, 205, 232, 236
-0.997869, 299, 233, 314, 264
-0.997877, 113, 165, 240, 196
-0.997888, 145, 285, 160, 316
-0.997896, 137, 349, 152, 380
-0.997901, 311, 77, 326, 108
-0.997908, 81, 209, 208, 240
-0.997909, 97, 353, 224, 384
-0.997919, 317, 93, 332, 124
-0.997919, 41, 33, 104, 288
-0.997928, 149, 353, 164, 384
-0.997931, 131, 213, 146, 244
-0.997933, 281, 225, 312, 480
-0.997945, 285, 85, 300, 116
-0.997952, 209, 285, 224, 316
-0.997956, 137, 229, 152, 260
-0.997959, 267, 101, 282, 132
-0.997968, 225, 113, 256, 240
-0.997972, 105, 385, 120, 416
-0.997976, 129, 181, 144, 212
-0.997978, 103, 321, 118, 352
-0.997996, 33, 217, 160, 248
-0.998004, 239, 85, 254, 116
-0.99801, 97, 93, 224, 124
-0.99801, 1, 137, 256, 200
-0.998016, 125, 313, 140, 344
-0.998018, 73, 193, 136, 256
-0.99802, 253, 225, 284, 480
-0.998022, 257, 341, 272, 372
-0.998028, 161, 377, 288, 440
-0.998036, 269, 77, 284, 108
-0.99805, 113, 225, 144, 480
-0.998053, 231, 329, 246, 360
-0.998059, 191, 229, 206, 260
-0.99806, 113, 389, 128, 420
-0.998062, 205, 273, 220, 304
-0.998063, 117, 373, 132, 404
-0.998071, 129, 233, 144, 264
-0.998075, 97, 377, 112, 408
-0.99808, 133, 193, 148, 224
-0.998086, 225, 153, 288, 216
-0.998091, 163, 249, 178, 280
-0.998098, 181, 105, 196, 136
-0.998107, 263, 245, 278, 276
-0.998107, 125, 385, 140, 416
-0.998114, 257, 77, 272, 108
-0.998117, 247, 101, 262, 132
-0.998128, 153, 229, 168, 260
-0.998133, 221, 161, 252, 416
-0.998135, 141, 273, 156, 304
-0.998147, 99, 361, 114, 392
-0.998156, 225, 173, 240, 204
-0.998164, 131, 245, 146, 276
-0.998171, 1, 217, 64, 280
-0.998172, 193, 353, 320, 384
-0.998173, 231, 105, 246, 136
-0.998176, 301, 257, 316, 288
-0.99818, 149, 321, 164, 352
-0.998196, 223, 209, 238, 240
-0.998197, 145, 261, 160, 292
-0.998198, 131, 329, 146, 360
-0.998201, 143, 353, 158, 384
-0.998202, 145, 337, 160, 368
-0.998207, 145, 1, 176, 128
-0.998207, 45, 49, 76, 176
-0.998209, 101, 129, 132, 256
-0.998212, 57, 49, 88, 176
-0.998213, 97, 129, 224, 160
-0.998227, 97, 329, 112, 360
-0.998234, 157, 289, 172, 320
-0.998235, 155, 273, 170, 304
-0.998236, 131, 257, 146, 288
-0.998237, 135, 373, 150, 404
-0.998238, 247, 301, 262, 332
-0.998238, 203, 337, 218, 368
-0.99824, 185, 237, 200, 268
-0.998243, 1, 61, 128, 92
-0.99825, 101, 209, 132, 336
-0.998253, 145, 65, 272, 96
-0.998254, 81, 141, 208, 172
-0.998257, 117, 321, 132, 352
-0.99826, 207, 317, 222, 348
-0.998262, 197, 161, 212, 192
-0.998262, 145, 365, 160, 396
-0.998268, 1, 113, 256, 176
-0.998272, 49, 261, 176, 292
-0.998278, 259, 101, 274, 132
-0.99828, 131, 317, 146, 348
-0.998285, 25, 201, 88, 264
-0.998286, 287, 237, 302, 268
-0.998295, 65, 369, 96, 496
-0.998303, 133, 109, 148, 140
-0.998306, 299, 301, 314, 332
-0.998307, 41, 385, 104, 448
-0.998307, 209, 329, 224, 360
-0.998314, 207, 205, 222, 236
-0.998314, 1, 49, 128, 80
-0.998319, 127, 193, 142, 224
-0.998329, 149, 309, 164, 340
-0.998329, 129, 357, 144, 388
-0.998332, 197, 193, 228, 448
-0.998337, 1, 353, 332, 416
-0.998339, 301, 245, 316, 276
-0.998341, 159, 229, 174, 260
-0.998343, 263, 77, 278, 108
-0.998343, 201, 317, 216, 348
-0.998346, 111, 329, 126, 360
-0.998352, 1, 153, 128, 184
-0.998358, 85, 257, 116, 500
-0.998363, 145, 97, 176, 352
-0.998368, 209, 259, 240, 274
-0.998368, 209, 169, 240, 184
-0.998369, 169, 109, 200, 124
-0.998371, 289, 215, 320, 230
-0.998372, 225, 297, 256, 312
-0.998372, 145, 323, 176, 338
-0.998373, 121, 209, 152, 224
-0.998374, 253, 363, 284, 378
-0.998378, 145, 295, 176, 310
-0.998378, 205, 303, 236, 318
-0.998381, 201, 295, 232, 310
-0.998381, 193, 273, 224, 288
-0.998381, 241, 331, 272, 346
-0.998382, 97, 351, 128, 366
-0.998382, 129, 185, 160, 200
-0.998383, 233, 309, 264, 324
-0.998384, 297, 255, 328, 270
-0.998384, 137, 245, 168, 260
-0.998385, 129, 365, 160, 380
-0.998387, 137, 273, 168, 288
-0.998387, 113, 319, 144, 334
-0.998387, 193, 281, 224, 296
-0.998388, 273, 83, 304, 98
-0.998388, 121, 333, 152, 348
-0.998388, 125, 357, 156, 372
-0.99839, 133, 345, 164, 360
-0.99839, 137, 287, 168, 302
-0.998391, 133, 237, 164, 252
-0.998392, 189, 343, 220, 358
-0.998393, 133, 333, 164, 348
-0.998393, 285, 293, 316, 308
-0.998394, 185, 331, 216, 346
-0.998395, 129, 307, 160, 322
-0.998396, 133, 299, 164, 314
-0.998397, 233, 319, 264, 334
-0.998397, 121, 339, 152, 354
-0.998397, 121, 245, 152, 260
-0.998397, 193, 173, 224, 188
-0.998398, 121, 383, 152, 398
-0.998398, 161, 129, 288, 160
-0.998398, 213, 215, 244, 230
-0.9984, 301, 101, 332, 116
-0.998401, 165, 247, 196, 262
-0.998406, 157, 253, 188, 268
-0.998406, 261, 87, 292, 102
-0.998407, 245, 351, 276, 366
-0.998409, 225, 101, 288, 116
-0.998409, 293, 241, 324, 256
-0.998409, 85, 375, 116, 390
-0.99841, 273, 241, 304, 256
-0.99841, 137, 357, 168, 372
-0.99841, 145, 263, 176, 278
-0.998411, 285, 265, 316, 280
-0.998411, 149, 289, 180, 304
-0.998411, 297, 291, 328, 306
-0.998412, 229, 303, 260, 318
-0.998412, 117, 351, 148, 366
-0.998414, 145, 305, 176, 320
-0.998416, 125, 219, 156, 234
-0.998416, 245, 357, 276, 372
-0.998417, 5, 165, 36, 180
-0.99842, 173, 115, 204, 130
-0.998421, 297, 261, 328, 276
-0.998421, 205, 337, 236, 352
-0.998422, 181, 237, 212, 252
-0.998425, 257, 255, 288, 270
-0.998425, 177, 185, 304, 216
-0.998428, 173, 97, 204, 352
-0.998429, 177, 173, 304, 204
-0.998429, 213, 321, 244, 336
-0.998431, 237, 325, 268, 340
-0.998433, 105, 387, 136, 402
-0.998434, 293, 249, 324, 264
-0.998435, 213, 95, 244, 110
-0.998435, 173, 227, 204, 242
-0.998435, 293, 235, 324, 250
-0.998435, 297, 271, 328, 286
-0.998436, 249, 87, 280, 102
-0.998436, 201, 107, 264, 122
-0.998438, 193, 165, 224, 180
-0.998438, 213, 313, 244, 328
-0.99844, 145, 253, 176, 268
-0.998442, 221, 333, 252, 348
-0.998442, 189, 337, 220, 352
-0.998442, 273, 89, 332, 104
-0.998444, 285, 287, 316, 302
-0.998446, 277, 129, 308, 384
-0.998447, 257, 251, 320, 266
-0.998448, 285, 259, 316, 274
-0.998448, 129, 313, 160, 328
-0.998449, 193, 211, 224, 226
-0.998449, 285, 275, 316, 290
-0.99845, 129, 327, 160, 342
-0.998452, 1, 73, 128, 104
-0.998453, 297, 285, 328, 300
-0.998453, 281, 233, 312, 248
-0.998454, 225, 93, 288, 108
-0.998455, 249, 91, 312, 106
-0.998456, 241, 345, 272, 360
-0.998457, 213, 327, 244, 342
-0.998457, 1, 361, 128, 392
-0.998459, 101, 257, 132, 500
-0.998461, 97, 371, 128, 386
-0.998462, 273, 99, 332, 114
-0.998467, 185, 101, 248, 116
-0.998468, 285, 83, 316, 98
-0.998468, 69, 49, 100, 176
-0.998469, 113, 375, 144, 390
-0.998472, 133, 351, 164, 366
-0.998473, 285, 281, 316, 296
-0.998474, 189, 115, 220, 130
-0.998477, 133, 261, 164, 276
-0.998479, 253, 249, 284, 264
-0.998483, 241, 105, 272, 120
-0.998483, 173, 193, 204, 448
-0.998486, 173, 121, 204, 136
-0.998486, 129, 231, 192, 246
-0.998486, 157, 241, 188, 256
-0.998494, 209, 65, 332, 96
-0.998495, 209, 287, 272, 302
-0.998497, 161, 105, 224, 120
-0.9985, 225, 91, 256, 106
-0.9985, 209, 107, 240, 122
-0.998502, 129, 321, 160, 336
-0.998504, 253, 101, 284, 116
-0.998505, 137, 211, 168, 226
-0.998505, 49, 77, 176, 108
-0.998506, 101, 381, 132, 396
-0.998507, 265, 245, 328, 260
-0.998509, 241, 339, 272, 354
-0.998509, 249, 97, 312, 112
-0.99851, 213, 175, 244, 190
-0.998511, 273, 253, 304, 268
-0.998512, 301, 81, 332, 96
-0.998513, 177, 335, 240, 350
-0.998517, 197, 109, 228, 124
-0.998517, 133, 251, 164, 266
-0.99852, 297, 95, 328, 110
-0.99852, 121, 237, 184, 252
-0.998522, 269, 95, 300, 110
-0.998524, 257, 93, 288, 108
-0.998524, 1, 377, 128, 408
-0.998526, 217, 305, 280, 320
-0.998526, 105, 383, 168, 398
-0.998526, 201, 337, 264, 352
-0.998527, 153, 229, 216, 244
-0.99853, 233, 255, 296, 270
-0.998531, 201, 259, 264, 274
-0.998531, 277, 247, 308, 262
-0.998536, 205, 101, 236, 116
-0.998537, 229, 105, 260, 120
-0.998538, 205, 209, 236, 224
-0.998539, 185, 211, 248, 226
-0.99854, 225, 87, 288, 102
-0.998542, 105, 375, 168, 390
-0.998544, 245, 93, 276, 108
-0.998548, 237, 161, 268, 416
-0.998549, 97, 153, 224, 184
-0.99855, 301, 97, 332, 352
-0.99855, 65, 377, 128, 392
-0.99855, 217, 331, 280, 346
-0.99855, 121, 249, 184, 264
-0.998551, 193, 343, 256, 358
-0.998551, 285, 97, 316, 112
-0.998553, 217, 343, 280, 358
-0.998555, 73, 387, 136, 402
-0.998555, 105, 323, 168, 338
-0.998555, 217, 321, 280, 336
-0.998556, 265, 101, 296, 116
-0.998556, 149, 247, 180, 262
-0.998557, 249, 293, 312, 308
-0.998558, 189, 101, 220, 116
-0.998558, 121, 263, 184, 278
-0.998558, 201, 265, 264, 280
-0.998559, 209, 299, 272, 314
-0.99856, 193, 365, 320, 396
-0.99856, 233, 249, 296, 264
-0.998562, 113, 243, 176, 258
-0.998564, 217, 315, 280, 330
-0.998564, 293, 225, 324, 480
-0.998567, 181, 107, 212, 122
-0.998569, 153, 235, 216, 250
-0.998571, 265, 259, 328, 274
-0.998572, 225, 337, 288, 352
-0.998573, 241, 107, 304, 122
-0.998575, 193, 281, 256, 296
-0.998577, 13, 1, 44, 128
-0.998581, 137, 243, 200, 258
-0.998582, 161, 117, 224, 132
-0.998584, 185, 173, 248, 188
-0.998586, 33, 425, 160, 488
-0.998588, 209, 293, 272, 308
-0.998589, 265, 233, 328, 248
-0.99859, 241, 347, 304, 362
-0.99859, 137, 329, 200, 344
-0.998591, 137, 229, 168, 244
-0.998591, 185, 113, 248, 128
-0.998591, 49, 61, 176, 92
-0.998591, 129, 211, 192, 226
-0.998592, 249, 299, 312, 314
-0.998592, 169, 281, 232, 296
-0.998592, 137, 337, 200, 352
-0.998593, 177, 327, 240, 342
-0.998594, 113, 349, 176, 364
-0.998598, 105, 389, 168, 404
-0.9986, 145, 249, 208, 264
-0.998604, 249, 85, 312, 100
-0.998604, 273, 89, 304, 104
-0.998607, 241, 99, 272, 114
-0.998607, 145, 323, 208, 338
-0.998608, 201, 271, 264, 286
-0.998609, 105, 369, 168, 384
-0.99861, 193, 315, 256, 330
-0.99861, 233, 263, 296, 278
-0.99861, 161, 165, 224, 180
-0.998611, 113, 359, 176, 374
-0.998612, 265, 239, 328, 254
-0.998613, 249, 311, 312, 326
-0.998614, 113, 305, 176, 320
-0.998614, 105, 331, 168, 346
-0.998616, 105, 229, 168, 244
-0.998617, 161, 255, 224, 270
-0.998618, 249, 287, 312, 302
-0.998619, 169, 343, 232, 358
-0.99862, 201, 95, 264, 110
-0.99862, 145, 343, 208, 358
-0.998621, 273, 83, 332, 98
-0.998622, 217, 101, 248, 116
-0.998622, 249, 321, 312, 336
-0.998623, 137, 123, 200, 138
-0.998623, 209, 213, 272, 228
-0.998623, 169, 265, 232, 280
-0.998625, 121, 257, 184, 272
-0.998626, 89, 341, 152, 356
-0.998626, 145, 223, 208, 238
-0.998628, 73, 319, 136, 334
-0.998629, 145, 269, 208, 284
-0.99863, 105, 317, 168, 332
-0.998632, 65, 345, 128, 360
-0.998632, 121, 113, 184, 128
-0.998633, 241, 353, 304, 368
-0.998634, 185, 165, 248, 180
-0.998634, 145, 111, 208, 126
-0.998636, 17, 177, 144, 208
-0.998636, 217, 349, 280, 364
-0.998637, 65, 371, 128, 386
-0.998637, 185, 217, 248, 232
-0.99864, 177, 293, 240, 308
-0.998642, 113, 311, 176, 326
-0.998643, 89, 351, 152, 366
-0.998644, 73, 313, 136, 328
-0.998644, 65, 363, 128, 378
-0.998645, 193, 321, 256, 336
-0.998645, 49, 93, 176, 124
-0.998646, 265, 281, 328, 296
-0.998647, 257, 327, 320, 342
-0.998647, 89, 241, 152, 256
-0.998649, 65, 357, 128, 372
-0.998649, 113, 219, 176, 234
-0.998652, 161, 207, 224, 222
-0.998654, 185, 301, 248, 316
-0.998654, 169, 273, 232, 288
-0.998655, 193, 309, 256, 324
-0.998655, 265, 273, 328, 288
-0.998655, 185, 179, 248, 194
-0.998656, 169, 123, 232, 138
-0.998656, 121, 187, 184, 202
-0.998657, 121, 343, 184, 358
-0.998657, 161, 241, 224, 256
-0.998658, 81, 393, 144, 408
-0.99866, 1, 129, 332, 192
-0.99866, 161, 287, 224, 302
-0.998661, 137, 105, 200, 120
-0.998662, 161, 213, 224, 228
-0.998662, 233, 269, 296, 284
-0.998663, 139, 193, 154, 320
-0.998663, 257, 339, 320, 354
-0.998663, 137, 303, 200, 318
-0.998663, 241, 361, 304, 376
-0.998663, 217, 355, 280, 370
-0.998663, 113, 273, 176, 288
-0.998665, 293, 89, 324, 104
-0.998665, 241, 281, 304, 296
-0.998665, 229, 97, 260, 112
-0.998666, 49, 393, 176, 424
-0.998666, 89, 357, 152, 372
-0.998671, 61, 1, 92, 128
-0.998698, 49, 273, 176, 304
-0.998703, 147, 209, 162, 336
-0.998725, 157, 129, 188, 384
-0.998728, 33, 105, 160, 136
-0.998743, 209, 257, 240, 500
-0.998759, 17, 297, 144, 328
-0.998762, 1, 349, 128, 380
-0.998776, 139, 241, 154, 368
-0.998808, 265, 225, 296, 480
-0.998815, 299, 193, 314, 320
-0.998826, 121, 97, 152, 352
-0.998828, 209, 381, 332, 412
-0.99883, 33, 161, 96, 416
-0.998837, 273, 33, 332, 96
-0.998845, 145, 365, 272, 396
-0.998846, 145, 257, 160, 384
-0.998857, 131, 209, 146, 336
-0.998863, 257, 409, 320, 472
-0.998879, 253, 305, 268, 432
-0.998889, 131, 257, 146, 384
-0.998892, 1, 1, 256, 64
-0.998897, 243, 273, 258, 400
-0.998903, 161, 417, 288, 480
-0.998917, 265, 1, 296, 256
-0.998925, 97, 81, 128, 208
-0.998928, 49, 201, 112, 264
-0.998928, 209, 257, 224, 384
-0.998934, 33, 1, 96, 500
-0.998935, 139, 305, 154, 432
-0.998946, 33, 1, 96, 64
-0.998948, 177, 53, 304, 84
-0.998968, 97, 81, 224, 112
-0.99897, 1, 33, 128, 64
-0.998974, 261, 97, 292, 224
-0.998979, 17, 237, 144, 268
-0.998985, 153, 209, 168, 336
-0.999004, 235, 257, 250, 384
-0.999006, 221, 225, 236, 352
-0.999017, 73, 137, 136, 200
-0.999026, 293, 225, 308, 352
-0.999053, 1, 41, 256, 104
-0.999055, 305, 193, 320, 320
-0.999056, 273, 321, 304, 448
-0.999081, 113, 305, 128, 432
-0.999081, 73, 241, 104, 368
-0.999087, 209, 433, 332, 496
-0.999088, 221, 65, 252, 320
-0.999089, 1, 1, 64, 500
-0.999093, 215, 225, 230, 352
-0.999102, 163, 225, 178, 352
-0.999103, 1, 21, 128, 52
-0.999104, 259, 321, 274, 448
-0.99912, 37, 129, 68, 256
-0.999121, 223, 289, 238, 416
-0.999137, 17, 309, 144, 340
-0.999159, 215, 273, 230, 400
-0.999166, 197, 1, 228, 256
-0.999167, 227, 241, 242, 368
-0.999174, 243, 65, 258, 192
-0.999175, 209, 393, 332, 424
-0.999176, 103, 321, 118, 448
-0.99918, 1, 85, 128, 116
-0.999182, 41, 97, 104, 160
-0.999185, 189, 81, 204, 208
-0.999189, 1, 337, 128, 368
-0.999189, 249, 97, 280, 352
-0.99919, 151, 257, 166, 384
-0.999198, 145, 305, 160, 432
-0.999203, 119, 305, 134, 432
-0.999218, 199, 97, 214, 224
-0.99923, 145, 153, 272, 184
-0.999243, 49, 49, 176, 80
-0.99925, 1, 193, 64, 320
-0.999253, 157, 257, 172, 384
-0.999253, 209, 97, 224, 224
-0.999255, 125, 193, 140, 320
-0.999257, 249, 81, 264, 208
-0.999263, 209, 41, 332, 72
-0.999265, 191, 209, 206, 336
-0.999266, 65, 165, 192, 196
-0.99927, 145, 161, 160, 288
-0.999277, 299, 241, 314, 368
-0.999284, 203, 257, 218, 384
-0.999286, 229, 305, 244, 432
-0.999292, 217, 177, 232, 304
-0.999297, 5, 1, 36, 256
-0.999298, 131, 161, 146, 288
-0.999313, 209, 209, 224, 336
-0.999315, 1, 377, 332, 440
-0.999316, 137, 65, 168, 192
-0.999317, 249, 33, 264, 160
-0.999317, 111, 353, 126, 480
-0.999328, 33, 205, 160, 236
-0.999329, 191, 273, 206, 400
-0.999334, 49, 33, 176, 64
-0.999346, 97, 393, 224, 424
-0.99935, 223, 97, 238, 224
-0.999351, 153, 161, 168, 288
-0.999352, 201, 1, 232, 128
-0.999354, 209, 161, 332, 192
-0.999362, 227, 161, 242, 288
-0.999368, 1, 121, 128, 184
-0.999377, 1, 285, 128, 316
-0.999377, 301, 49, 316, 176
-0.999387, 237, 65, 268, 320
-0.999388, 95, 305, 110, 432
-0.99939, 197, 289, 212, 416
-0.999392, 263, 65, 278, 192
-0.999395, 235, 81, 250, 208
-0.999399, 73, 257, 104, 500
-0.999401, 295, 49, 310, 176
-0.999405, 195, 145, 210, 272
-0.999409, 33, 117, 160, 148
-0.999409, 125, 305, 140, 432
-0.99941, 125, 257, 140, 384
-0.999417, 235, 321, 250, 448
-0.999417, 185, 193, 200, 320
-0.999419, 183, 97, 198, 224
-0.999424, 289, 49, 304, 176
-0.999425, 243, 337, 258, 464
-0.999433, 133, 305, 148, 432
-0.999433, 19, 145, 34, 272
-0.999439, 171, 209, 186, 336
-0.999448, 1, 1, 128, 32
-0.999449, 201, 145, 216, 272
-0.999449, 103, 273, 118, 400
-0.99945, 177, 193, 192, 320
-0.999452, 255, 65, 270, 192
-0.999452, 187, 321, 202, 448
-0.999453, 183, 257, 198, 384
-0.999453, 311, 65, 326, 192
-0.999454, 119, 225, 134, 352
-0.999458, 1, 165, 128, 196
-0.999463, 113, 17, 144, 144
-0.999467, 267, 257, 282, 384
-0.999468, 105, 369, 120, 496
-0.999476, 153, 305, 168, 432
-0.99948, 213, 49, 228, 176
-0.999481, 209, 305, 224, 432
-0.999483, 137, 145, 152, 272
-0.999483, 299, 289, 314, 416
-0.999483, 209, 1, 332, 32
-0.999488, 217, 113, 232, 240
-0.999493, 233, 209, 248, 336
-0.999494, 101, 129, 132, 384
-0.999498, 293, 177, 308, 304
-0.999502, 161, 381, 288, 412
-0.999509, 197, 225, 212, 352
-0.999514, 207, 145, 222, 272
-0.999515, 135, 81, 150, 208
-0.999517, 305, 241, 320, 368
-0.999518, 293, 273, 308, 400
-0.999524, 253, 353, 268, 480
-0.999525, 239, 17, 254, 144
-0.999525, 159, 177, 174, 304
-0.999525, 85, 161, 116, 416
-0.999527, 233, 33, 248, 160
-0.999527, 209, 21, 332, 52
-0.999529, 199, 49, 214, 176
-0.99953, 185, 1, 216, 256
-0.999533, 265, 337, 280, 464
-0.999539, 249, 257, 264, 384
-0.999543, 49, 13, 176, 44
-0.999544, 203, 305, 218, 432
-0.999551, 229, 97, 244, 224
-0.999555, 145, 353, 160, 480
-0.999555, 225, 49, 240, 176
-0.999559, 187, 145, 202, 272
-0.999559, 49, 1, 176, 32
-0.99956, 113, 1, 240, 32
-0.999562, 161, 141, 288, 172
-0.999564, 299, 145, 314, 272
-0.999569, 13, 129, 28, 256
-0.99957, 287, 193, 302, 320
-0.99957, 89, 289, 104, 416
-0.999572, 89, 1, 120, 256
-0.999574, 27, 161, 42, 288
-0.999574, 273, 1, 288, 128
-0.999575, 203, 193, 218, 320
-0.999575, 297, 97, 312, 224
-0.999577, 317, 65, 332, 192
-0.999585, 259, 17, 274, 144
-0.999594, 261, 273, 276, 400
-0.999594, 127, 237, 142, 252
-0.999594, 203, 165, 218, 180
-0.999594, 229, 175, 244, 190
-0.999594, 191, 229, 206, 244
-0.999595, 303, 235, 318, 250
-0.999595, 79, 305, 94, 432
-0.999595, 131, 369, 146, 384
-0.999596, 33, 33, 64, 160
-0.999596, 161, 257, 176, 272
-0.999599, 223, 93, 238, 108
-0.999599, 289, 65, 320, 320
-0.9996, 97, 65, 224, 96
-0.9996, 163, 251, 178, 266
-0.999601, 259, 105, 274, 120
-0.999601, 225, 317, 240, 332
-0.999602, 219, 305, 234, 320
-0.999603, 139, 317, 154, 332
-0.999603, 135, 269, 150, 284
-0.999604, 133, 249, 148, 264
-0.999604, 97, 381, 112, 396
-0.999604, 117, 369, 132, 496
-0.999604, 221, 211, 236, 226
-0.999604, 301, 217, 316, 232
-0.999605, 233, 161, 248, 288
-0.999605, 229, 91, 244, 106
-0.999606, 143, 209, 158, 224
-0.999607, 177, 49, 192, 176
-0.999607, 119, 391, 134, 406
-0.999607, 215, 299, 230, 314
-0.999608, 201, 99, 216, 114
-0.999608, 127, 317, 142, 332
-0.999608, 315, 17, 330, 144
-0.999608, 147, 227, 162, 242
-0.999608, 301, 253, 316, 268
-0.999609, 275, 101, 290, 116
-0.999609, 125, 385, 140, 400
-0.99961, 111, 257, 126, 384
-0.999611, 293, 97, 308, 112
-0.999611, 133, 349, 148, 364
-0.999612, 3, 129, 18, 256
-0.999612, 209, 287, 224, 302
-0.999613, 199, 211, 214, 226
-0.999613, 101, 369, 116, 384
-0.999613, 217, 321, 232, 448
-0.999614, 147, 329, 162, 344
-0.999614, 193, 33, 208, 160
-0.999615, 157, 243, 172, 258
-0.999615, 261, 253, 276, 268
-0.999615, 149, 297, 164, 312
-0.999615, 101, 387, 116, 402
-0.999616, 269, 85, 284, 100
-0.999617, 141, 263, 156, 278
-0.999619, 255, 257, 270, 384
-0.999619, 309, 145, 324, 272
-0.999623, 269, 65, 284, 192
-0.999624, 149, 355, 164, 370
-0.999628, 191, 117, 206, 132
-0.999628, 223, 173, 238, 188
-0.999629, 229, 103, 244, 118
-0.999631, 249, 87, 264, 102
-0.999632, 287, 241, 302, 368
-0.999632, 243, 209, 258, 336
-0.999632, 143, 311, 158, 326
-0.999632, 5, 167, 20, 182
-0.999633, 125, 145, 140, 272
-0.999633, 229, 109, 244, 124
-0.999634, 299, 293, 314, 308
-0.999636, 239, 91, 254, 106
-0.999636, 139, 339, 154, 354
-0.999638, 227, 325, 242, 340
-0.999639, 151, 289, 166, 304
-0.999639, 181, 321, 196, 448
-0.99964, 147, 303, 162, 318
-0.99964, 139, 353, 154, 368
-0.999642, 101, 329, 116, 344
-0.999643, 295, 1, 310, 128
-0.999644, 267, 257, 282, 272
-0.999644, 193, 109, 208, 124
-0.999645, 1, 389, 128, 420
-0.999646, 295, 259, 310, 274
-0.999646, 185, 115, 200, 130
-0.999647, 185, 227, 200, 242
-0.999649, 135, 263, 150, 278
-0.999651, 295, 275, 310, 290
-0.999651, 131, 353, 146, 480
-0.999651, 127, 81, 142, 208
-0.999651, 257, 87, 272, 102
-0.999653, 217, 99, 232, 114
-0.999653, 143, 253, 158, 268
-0.999654, 295, 245, 310, 260
-0.999656, 135, 219, 150, 234
-0.999658, 107, 317, 122, 332
-0.999659, 303, 95, 318, 110
-0.99966, 175, 121, 190, 136
-0.999661, 141, 227, 156, 242
-0.999665, 201, 105, 216, 120
-0.999665, 197, 163, 212, 178
-0.999666, 151, 249, 166, 264
-0.999667, 289, 235, 304, 250
-0.999667, 33, 129, 160, 160
-0.999667, 299, 285, 314, 300
-0.999669, 141, 323, 156, 338
-0.99967, 139, 345, 154, 360
-0.99967, 81, 177, 208, 208
-0.999671, 287, 85, 302, 100
-0.999674, 187, 103, 202, 118
-0.999674, 107, 387, 122, 402
-0.999675, 131, 185, 146, 200
-0.999676, 205, 211, 220, 226
-0.99968, 139, 331, 154, 346
-0.99968, 209, 111, 224, 126
-0.999682, 17, 249, 144, 280
-0.999684, 65, 405, 192, 436
-0.999685, 263, 87, 278, 102
-0.999686, 295, 239, 310, 254
-0.999688, 215, 211, 230, 226
-0.999688, 293, 251, 308, 266
-0.999694, 281, 101, 296, 116
-0.999695, 253, 101, 268, 116
-0.999698, 119, 385, 134, 400
-0.999698, 317, 87, 332, 102
-0.999699, 223, 105, 238, 120
-0.999705, 261, 99, 276, 114
-0.999707, 317, 81, 332, 96
-0.999711, 297, 91, 312, 106
-0.999711, 307, 83, 322, 98
-0.999712, 287, 97, 302, 112
-0.999713, 297, 233, 312, 248
-0.999714, 235, 105, 250, 120
-0.999714, 113, 377, 128, 392
-0.999714, 107, 369, 122, 384
-0.999716, 187, 109, 202, 124
-0.999716, 195, 103, 210, 118
-0.999718, 287, 91, 302, 106
-0.999719, 199, 111, 214, 126
-0.99972, 217, 109, 232, 124
-0.99972, 245, 105, 260, 120
-0.999721, 161, 33, 288, 64
-0.999725, 209, 409, 332, 440
-0.999727, 313, 93, 328, 108
-0.999727, 137, 209, 152, 224
-0.999737, 253, 1, 284, 256
-0.999741, 267, 101, 282, 116
-0.999742, 113, 389, 128, 404
-0.999743, 1, 153, 332, 216
-0.999745, 161, 225, 192, 480
-0.999745, 103, 381, 118, 396
-0.999749, 207, 105, 222, 120
-0.99975, 277, 95, 292, 110
-0.999759, 241, 97, 256, 112
-0.99976, 41, 233, 104, 296
-0.99976, 1, 25, 332, 88
-0.999761, 307, 89, 322, 104
-0.999762, 237, 161, 268, 288
-0.999768, 103, 375, 118, 390
-0.999771, 223, 99, 238, 114
-0.999776, 233, 97, 248, 112
-0.99978, 1, 425, 256, 488
-0.999788, 101, 1, 132, 256
-0.999791, 257, 93, 272, 108
-0.999791, 297, 85, 312, 100
-0.999791, 249, 95, 264, 110
-0.999794, 269, 249, 284, 264
-0.999799, 113, 383, 128, 398
-0.999801, 49, 153, 176, 184
-0.999805, 263, 93, 278, 108
-0.999806, 281, 89, 296, 104
-0.999809, 25, 97, 56, 352
-0.999818, 271, 91, 286, 106
-0.999833, 97, 25, 224, 56
-0.999838, 97, 53, 224, 84
-0.999845, 33, 141, 160, 172
-0.999847, 5, 129, 36, 384
-0.999856, 193, 425, 320, 456
-0.999856, 113, 113, 144, 240
-0.999861, 97, 13, 224, 44
-0.999878, 161, 33, 192, 288
-0.999897, 17, 405, 144, 436
-0.999902, 81, 97, 112, 224
-0.999915, 21, 177, 52, 304
-0.999916, 193, 461, 320, 492
-0.999924, 173, 1, 204, 256
-0.999951, 189, 353, 220, 480
-0.999964, 57, 321, 88, 448
-0.999973, 265, 97, 296, 352
-0.999996, 65, 401, 320, 464
-1, 77, 1, 108, 256
-1.00001, 37, 97, 68, 352
-1.00001, 113, 425, 240, 488
-1.00004, 25, 1, 56, 256
-1.00009, 117, 1, 148, 256
-1.0001, 301, 1, 332, 256
-1.00017, 145, 1, 176, 256
-1.00017, 57, 225, 88, 480
-1.00019, 57, 1, 88, 256
-1.00021, 181, 1, 212, 128
-1.00029, 25, 337, 88, 464
-1.00032, 37, 1, 68, 256
-1.00033, 125, 33, 156, 160
-1.00035, 277, 33, 308, 288
-1.00037, 133, 1, 164, 256
-1.00047, 73, 161, 104, 416
-1.00049, 21, 193, 52, 448
-1.00057, 45, 257, 76, 500
-1.00065, 33, 193, 64, 448
-1.00073, 61, 129, 92, 384
-1.00075, 5, 193, 36, 320
-1.00091, 49, 97, 80, 352
-1.00102, 81, 161, 112, 288
-1.00109, 9, 225, 40, 480
-1.0011, 1, 409, 332, 472
-1.0012, 1, 257, 64, 384
-1.00136, 1, 1, 332, 64
-1.00151, 13, 81, 44, 208
-1.00152, 157, 33, 188, 160
-1.00159, 17, 257, 80, 500
-1.00162, 45, 177, 76, 304
-1.00167, 1, 433, 332, 496
-1.0017, 277, 97, 308, 224
-1.0017, 285, 321, 316, 448
-1.00191, 53, 369, 84, 496
-1.00192, 249, 113, 280, 240
-1.00193, 113, 65, 144, 192
-1.00208, 57, 129, 88, 256
-1.00216, 49, 193, 112, 320
-1.004, 177, 369, 240, 496
-1.0045, 25, 241, 88, 368
-1.00477, 25, 193, 88, 320
-1.00581, 49, 145, 112, 272
-1.00736, 1, 369, 64, 496
-1.0075, 1, 305, 64, 432
