1960
-0.387089, 129, 1, 384, 373
-0.436525, 1, 33, 500, 288
-0.45806, 1, 129, 500, 373
-0.524537, 1, 1, 500, 373
-0.543725, 129, 129, 384, 373
-0.619124, 225, 1, 480, 373
-0.641196, 129, 1, 384, 256
-0.707731, 225, 97, 480, 352
-0.714986, 33, 1, 288, 373
-0.761967, 1, 97, 256, 352
-0.820527, 225, 1, 480, 256
-0.824658, 33, 1, 288, 256
-0.835643, 209, 129, 336, 373
-0.863892, 145, 129, 272, 373
-0.87221, 225, 1, 352, 373
-0.874467, 161, 1, 288, 373
-0.879851, 129, 33, 256, 288
-0.882008, 305, 129, 432, 373
-0.88214, 257, 129, 384, 373
-0.887333, 289, 1, 416, 373
-0.889644, 209, 33, 336, 288
-0.895325, 97, 129, 224, 373
-0.897812, 1, 113, 500, 240
-0.899182, 1, 193, 500, 320
-0.901325, 289, 33, 416, 288
-0.904619, 81, 1, 208, 373
-0.905922, 129, 129, 384, 256
-0.909418, 1, 241, 500, 368
-0.911978, 129, 209, 384, 336
-0.922338, 1, 65, 500, 192
-0.924863, 337, 1, 464, 373
-0.927629, 225, 225, 480, 352
-0.929569, 337, 1, 464, 256
-0.929972, 161, 145, 224, 272
-0.93149, 145, 145, 272, 272
-0.931567, 49, 65, 176, 320
-0.9348, 129, 81, 384, 208
-0.935614, 1, 17, 500, 144
-0.935631, 33, 145, 288, 272
-0.937804, 1, 193, 256, 320
-0.937997, 225, 113, 480, 240
-0.941126, 97, 1, 352, 128
-0.941797, 273, 113, 336, 240
-0.942616, 209, 161, 336, 288
-0.9445, 33, 241, 288, 368
-0.946208, 369, 129, 496, 373
-0.948141, 33, 1, 160, 373
-0.94864, 225, 161, 480, 288
-0.949672, 225, 113, 352, 240
-0.950415, 273, 97, 400, 224
-0.950547, 305, 145, 432, 272
-0.950648, 145, 225, 272, 352
-0.951609, 305, 193, 432, 320
-0.953363, 217, 145, 280, 272
-0.954047, 209, 241, 336, 368
-0.954147, 185, 145, 248, 272
-0.954763, 33, 97, 288, 224
-0.957305, 65, 161, 192, 288
-0.957531, 225, 65, 480, 192
-0.957751, 129, 97, 256, 224
-0.957912, 249, 113, 312, 240
-0.958164, 121, 161, 184, 288
-0.95825, 161, 193, 224, 320
-0.958255, 305, 241, 432, 368
-0.958455, 201, 225, 264, 352
-0.95861, 161, 193, 224, 256
-0.959371, 161, 1, 288, 128
-0.959642, 161, 145, 224, 208
-0.959888, 305, 97, 368, 224
-0.960718, 177, 81, 304, 208
-0.961218, 257, 241, 384, 368
-0.961606, 241, 153, 304, 216
-0.962116, 217, 161, 280, 224
-0.96222, 161, 169, 224, 232
-0.962555, 257, 289, 320, 352
-0.96257, 217, 297, 280, 360
-0.962696, 1, 97, 128, 352
-0.963055, 321, 161, 384, 288
-0.963517, 281, 225, 344, 352
-0.963604, 137, 113, 200, 240
-0.963655, 273, 161, 336, 224
-0.963784, 273, 137, 336, 200
-0.964122, 281, 177, 344, 304
-0.964779, 313, 241, 376, 368
-0.96506, 225, 65, 352, 192
-0.965779, 193, 161, 256, 224
-0.966163, 169, 241, 232, 368
-0.966543, 241, 161, 304, 288
-0.967211, 305, 153, 368, 216
-0.968218, 193, 97, 256, 224
-0.968278, 137, 177, 200, 240
-0.968324, 161, 281, 224, 344
-0.969193, 273, 65, 336, 192
-0.969316, 129, 209, 192, 336
-0.969365, 281, 265, 344, 328
-0.969719, 81, 209, 208, 336
-0.969723, 209, 1, 336, 128
-0.969951, 361, 145, 424, 272
-0.970065, 185, 1, 248, 128
-0.970737, 241, 65, 304, 192
-0.970803, 161, 97, 224, 224
-0.970819, 161, 129, 224, 373
-0.971049, 81, 113, 208, 240
-0.971548, 313, 201, 376, 264
-0.97156, 273, 129, 336, 373
-0.971817, 193, 129, 256, 192
-0.971944, 321, 289, 384, 352
-0.972235, 1, 1, 256, 128
-0.972293, 369, 193, 432, 320
-0.972394, 193, 17, 448, 144
-0.972398, 145, 161, 272, 224
-0.972585, 321, 65, 448, 192
-0.972998, 273, 185, 336, 248
-0.973036, 1, 1, 128, 256
-0.973121, 249, 129, 312, 192
-0.973267, 313, 177, 376, 240
-0.973433, 33, 49, 288, 176
-0.973434, 169, 129, 200, 256
-0.973452, 129, 153, 192, 216
-0.974025, 113, 1, 240, 128
-0.974038, 129, 49, 192, 176
-0.974128, 201, 129, 264, 373
-0.974379, 209, 1, 272, 128
-0.974425, 217, 97, 280, 224
-0.974446, 225, 225, 288, 352
-0.974695, 353, 145, 416, 208
-0.974752, 113, 113, 176, 240
-0.97489, 289, 305, 352, 368
-0.974915, 177, 313, 240, 373
-0.975184, 185, 281, 248, 344
-0.97519, 321, 241, 384, 304
-0.975223, 161, 1, 224, 128
-0.975548, 193, 305, 320, 368
-0.975607, 305, 177, 432, 240
-0.975679, 257, 193, 384, 320
-0.975886, 121, 201, 184, 264
-0.976292, 273, 49, 400, 176
-0.976334, 293, 113, 324, 240
-0.9764, 249, 177, 312, 240
-0.976597, 297, 105, 360, 168
-0.976882, 129, 137, 256, 200
-0.977129, 129, 1, 192, 128
-0.97722, 137, 129, 200, 192
-0.977336, 361, 169, 424, 232
-0.977505, 273, 113, 336, 176
-0.977589, 129, 105, 192, 168
-0.977749, 281, 113, 312, 240
-0.977852, 241, 281, 368, 344
-0.977937, 209, 161, 336, 224
-0.977978, 33, 113, 160, 240
-0.978063, 305, 201, 432, 264
-0.97808, 305, 129, 368, 192
-0.978139, 321, 265, 384, 328
-0.978174, 285, 129, 316, 192
-0.978463, 225, 137, 352, 200
-0.978724, 145, 193, 272, 256
-0.978857, 113, 177, 176, 240
-0.978878, 161, 217, 224, 280
-0.978976, 241, 129, 304, 373
-0.979246, 257, 161, 384, 224
-0.979274, 137, 281, 200, 344
-0.979322, 177, 137, 208, 200
-0.979364, 149, 177, 180, 304
-0.979589, 305, 65, 368, 320
-0.979602, 193, 225, 256, 288
-0.979605, 305, 153, 432, 216
-0.979762, 161, 121, 224, 184
-0.979937, 193, 273, 320, 336
-0.979949, 145, 217, 272, 280
-0.980007, 105, 153, 168, 216
-0.980107, 129, 281, 256, 344
-0.980205, 293, 289, 324, 352
-0.980327, 257, 241, 320, 368
-0.980348, 97, 161, 224, 224
-0.980535, 353, 161, 480, 288
-0.980622, 309, 225, 340, 352
-0.980656, 257, 313, 320, 373
-0.980713, 369, 241, 496, 368
-0.980734, 213, 241, 244, 368
-0.980918, 281, 241, 344, 304
-0.980986, 137, 129, 200, 373
-0.981032, 181, 177, 212, 240
-0.981082, 261, 177, 292, 240
-0.981236, 197, 161, 228, 224
-0.981352, 145, 1, 208, 64
-0.981364, 289, 105, 416, 168
-0.98147, 305, 225, 432, 288
-0.981475, 165, 185, 196, 248
-0.981601, 225, 185, 352, 248
-0.981654, 225, 241, 256, 368
-0.981757, 233, 145, 264, 272
-0.981821, 161, 249, 224, 312
-0.981827, 273, 281, 304, 344
-0.981864, 337, 81, 400, 208
-0.981884, 185, 1, 248, 64
-0.982113, 177, 137, 304, 200
-0.982156, 225, 185, 288, 248
-0.982256, 305, 265, 432, 328
-0.98229, 225, 233, 352, 296
-0.982326, 129, 225, 192, 288
-0.982406, 233, 273, 296, 336
-0.982534, 81, 65, 208, 192
-0.982581, 145, 241, 272, 304
-0.982581, 253, 145, 284, 208
-0.982723, 89, 113, 152, 240
-0.982755, 313, 313, 376, 373
-0.982757, 225, 129, 288, 192
-0.982869, 273, 305, 400, 368
-0.982879, 401, 145, 464, 272
-0.98294, 205, 305, 236, 368
-0.982943, 289, 129, 416, 192
-0.98301, 165, 161, 196, 224
-0.983056, 273, 169, 304, 232
-0.983108, 225, 297, 256, 360
-0.983123, 185, 1, 248, 256
-0.983166, 361, 65, 424, 192
-0.983234, 329, 145, 392, 208
-0.983272, 369, 201, 432, 264
-0.983309, 129, 257, 192, 320
-0.983335, 129, 305, 256, 368
-0.983392, 289, 1, 416, 128
-0.983494, 129, 73, 192, 136
-0.983502, 233, 1, 296, 128
-0.983539, 297, 49, 360, 176
-0.983541, 221, 225, 252, 288
-0.98361, 129, 49, 256, 176
-0.983629, 313, 113, 344, 240
-0.983633, 193, 161, 224, 288
-0.983636, 225, 209, 352, 272
-0.983645, 241, 257, 368, 320
-0.983652, 185, 201, 248, 264
-0.983723, 329, 89, 392, 152
-0.983753, 177, 113, 304, 176
-0.983852, 309, 305, 340, 368
-0.983864, 313, 145, 344, 208
-0.983887, 173, 193, 204, 320
-0.984181, 149, 161, 180, 224
-0.984187, 217, 41, 280, 104
-0.984249, 361, 129, 424, 373
-0.984273, 177, 25, 240, 88
-0.984279, 181, 129, 212, 256
-0.984335, 189, 281, 220, 344
-0.984368, 369, 81, 496, 208
-0.984467, 233, 33, 296, 288
-0.984484, 257, 113, 288, 240
-0.984552, 205, 193, 236, 320
-0.984581, 129, 9, 256, 72
-0.984644, 121, 33, 184, 288
-0.984676, 281, 209, 344, 272
-0.984691, 149, 201, 180, 264
-0.984873, 81, 217, 208, 280
-0.985055, 241, 105, 304, 168
-0.985116, 257, 265, 320, 328
-0.985163, 273, 89, 336, 152
-0.985186, 337, 241, 400, 368
-0.985195, 221, 145, 252, 272
-0.985241, 321, 289, 448, 352
-0.985265, 169, 209, 200, 272
-0.985296, 329, 65, 392, 320
-0.985302, 209, 273, 272, 336
-0.985318, 269, 129, 300, 256
-0.985347, 165, 137, 196, 200
-0.985381, 293, 161, 324, 224
-0.985398, 321, 161, 352, 288
-0.985412, 369, 241, 432, 368
-0.985417, 329, 209, 360, 336
-0.985436, 401, 177, 464, 240
-0.98546, 237, 305, 268, 368
-0.985489, 81, 185, 208, 248
-0.985591, 229, 161, 260, 224
-0.985639, 97, 161, 160, 288
-0.985874, 321, 185, 352, 248
-0.985884, 233, 249, 296, 312
-0.985937, 337, 169, 400, 232
-0.985969, 313, 273, 344, 336
-0.985974, 81, 129, 208, 192
-0.986305, 321, 297, 352, 360
-0.986311, 193, 57, 256, 120
-0.986326, 345, 281, 408, 344
-0.986429, 241, 145, 272, 208
-0.98647, 249, 297, 280, 360
-0.986622, 49, 153, 176, 216
-0.986644, 149, 97, 180, 224
-0.986864, 209, 1, 272, 64
-0.9869, 281, 33, 344, 288
-0.986916, 269, 145, 300, 208
-0.986977, 305, 65, 336, 192
-0.987042, 197, 137, 228, 200
-0.987112, 377, 1, 440, 256
-0.987135, 161, 1, 224, 256
-0.987154, 329, 121, 392, 184
-0.987259, 385, 169, 416, 232
-0.987297, 129, 49, 192, 112
-0.987324, 49, 1, 176, 128
-0.987325, 209, 1, 336, 64
-0.987424, 177, 113, 208, 176
-0.987455, 173, 1, 204, 128
-0.987466, 161, 1, 224, 373
-0.987575, 265, 1, 328, 128
-0.987587, 337, 153, 368, 216
-0.987659, 65, 113, 128, 240
-0.987713, 197, 241, 228, 368
-0.987749, 241, 73, 368, 136
-0.987779, 369, 249, 432, 312
-0.987783, 157, 225, 188, 352
-0.987804, 1, 161, 128, 288
-0.98782, 409, 241, 472, 368
-0.987895, 209, 1, 272, 256
-0.987921, 161, 57, 224, 120
-0.987933, 81, 241, 208, 304
-0.98808, 309, 249, 340, 312
-0.98811, 369, 313, 432, 373
-0.988154, 321, 81, 448, 144
-0.988198, 301, 161, 332, 288
-0.988284, 205, 1, 236, 128
-0.988369, 137, 169, 168, 232
-0.988404, 369, 273, 432, 336
-0.98847, 281, 305, 312, 368
-0.988601, 353, 121, 416, 184
-0.988609, 325, 209, 356, 272
-0.988617, 81, 121, 144, 184
-0.988685, 65, 313, 128, 373
-0.988697, 393, 193, 424, 256
-0.988721, 329, 97, 360, 224
-0.988728, 389, 161, 420, 288
-0.988779, 329, 273, 360, 336
-0.988803, 401, 201, 464, 264
-0.988808, 209, 145, 240, 272
-0.988864, 361, 89, 424, 152
-0.988864, 169, 281, 200, 344
-0.988914, 369, 225, 432, 288
-0.988935, 297, 49, 360, 112
-0.988969, 193, 113, 224, 240
-0.98904, 289, 57, 416, 120
-0.989046, 241, 113, 368, 176
-0.989097, 129, 1, 192, 373
-0.989136, 161, 97, 224, 160
-0.989136, 257, 1, 320, 256
-0.989143, 137, 25, 200, 88
-0.989182, 201, 249, 264, 312
-0.989263, 369, 297, 496, 360
-0.989281, 273, 1, 336, 373
-0.989281, 129, 97, 160, 224
-0.989315, 293, 65, 324, 192
-0.98932, 305, 105, 336, 168
-0.989387, 161, 41, 288, 104
-0.989433, 305, 1, 368, 373
-0.989471, 137, 305, 200, 368
-0.98949, 297, 313, 328, 373
-0.989517, 97, 289, 160, 352
-0.989518, 321, 313, 448, 373
-0.989578, 353, 33, 416, 288
-0.989618, 233, 265, 264, 328
-0.989636, 329, 249, 360, 312
-0.989712, 97, 105, 224, 168
-0.989719, 261, 297, 292, 360
-0.989721, 185, 241, 216, 368
-0.989812, 337, 129, 464, 192
-0.989822, 113, 129, 176, 192
-0.989852, 137, 145, 168, 272
-0.989898, 157, 265, 188, 328
-0.989906, 305, 165, 368, 196
-0.989931, 153, 185, 216, 216
-0.990021, 129, 73, 256, 136
-0.990027, 233, 1, 296, 373
-0.990095, 333, 297, 364, 360
-0.990124, 201, 281, 232, 344
-0.990138, 169, 241, 200, 368
-0.990147, 297, 81, 360, 144
-0.990147, 185, 1, 216, 128
-0.990161, 349, 153, 380, 216
-0.990176, 377, 137, 408, 200
-0.990188, 129, 161, 384, 224
-0.990193, 209, 33, 336, 96
-0.990211, 209, 169, 240, 232
-0.990245, 273, 137, 336, 168
-0.990259, 129, 185, 384, 248
-0.990273, 257, 285, 320, 316
-0.990274, 153, 173, 216, 204
-0.99029, 161, 157, 224, 188
-0.990301, 245, 129, 276, 256
-0.990302, 393, 297, 456, 360
-0.990315, 161, 141, 224, 172
-0.990319, 273, 153, 336, 184
-0.990323, 17, 161, 80, 288
-0.990344, 233, 153, 296, 184
-0.99036, 185, 105, 248, 168
-0.990377, 257, 161, 288, 288
-0.99039, 273, 185, 336, 216
-0.990406, 161, 197, 224, 228
-0.990423, 305, 153, 368, 184
-0.99044, 261, 121, 292, 184
-0.990456, 289, 277, 352, 308
-0.99048, 193, 297, 448, 360
-0.990499, 201, 165, 264, 196
-0.990531, 233, 65, 296, 128
-0.990582, 161, 49, 224, 176
-0.990629, 145, 137, 176, 200
-0.990636, 281, 105, 312, 168
-0.990637, 269, 81, 300, 208
-0.990645, 385, 129, 448, 192
-0.99065, 129, 217, 384, 280
-0.990663, 209, 1, 272, 373
-0.990664, 281, 293, 344, 324
-0.990688, 265, 65, 328, 128
-0.990692, 161, 241, 416, 304
-0.990731, 369, 273, 496, 336
-0.990737, 265, 169, 328, 200
-0.990792, 241, 173, 304, 204
-0.990809, 81, 281, 208, 344
-0.990835, 177, 181, 240, 212
-0.990846, 393, 153, 456, 216
-0.990872, 173, 1, 204, 64
-0.990892, 105, 65, 168, 192
-0.990912, 217, 1, 248, 128
-0.990915, 153, 241, 184, 304
-0.990916, 321, 277, 384, 308
-0.990942, 313, 233, 376, 264
-0.990959, 225, 301, 288, 332
-0.990984, 181, 201, 212, 264
-0.990995, 129, 181, 192, 212
-0.991038, 305, 185, 368, 216
-0.99104, 173, 257, 204, 320
-0.991054, 177, 169, 240, 200
-0.991057, 161, 285, 224, 316
-0.991081, 285, 265, 316, 328
-0.991109, 321, 293, 384, 324
-0.991156, 321, 261, 384, 292
-0.99117, 201, 297, 264, 328
-0.991198, 97, 1, 160, 128
-0.991231, 297, 141, 360, 172
-0.991245, 313, 213, 376, 244
-0.991255, 357, 129, 388, 192
-0.991268, 281, 265, 344, 296
-0.991272, 137, 161, 200, 192
-0.991276, 169, 233, 232, 264
-0.991281, 161, 213, 224, 244
-0.991298, 41, 113, 104, 240
-0.991315, 353, 185, 480, 248
-0.991444, 225, 333, 288, 364
-0.991451, 345, 149, 408, 180
-0.991471, 257, 297, 320, 328
-0.991485, 353, 153, 480, 216
-0.991497, 161, 273, 416, 336
-0.991503, 129, 137, 384, 200
-0.991528, 281, 241, 312, 368
-0.991534, 241, 185, 304, 216
-0.991536, 313, 197, 376, 228
-0.991541, 177, 309, 240, 340
-0.991544, 313, 245, 376, 276
-0.991548, 193, 233, 256, 264
-0.99156, 289, 329, 352, 360
-0.991562, 401, 193, 432, 320
-0.991581, 81, 1, 208, 64
-0.991627, 129, 129, 192, 160
-0.991647, 209, 137, 240, 200
-0.991695, 185, 1, 248, 373
-0.991698, 129, 197, 192, 228
-0.991701, 193, 145, 256, 176
-0.991725, 281, 125, 344, 156
-0.991736, 269, 241, 300, 368
-0.991743, 161, 265, 224, 296
-0.991747, 185, 285, 248, 316
-0.991757, 217, 321, 280, 352
-0.991759, 353, 165, 416, 196
-0.991768, 113, 169, 176, 200
-0.99177, 161, 129, 224, 160
-0.991779, 309, 169, 340, 232
-0.991782, 121, 149, 184, 180
-0.99179, 249, 341, 312, 372
-0.991809, 249, 141, 312, 172
-0.991816, 201, 245, 264, 276
-0.991835, 273, 197, 336, 228
-0.991845, 105, 97, 168, 160
-0.991845, 289, 309, 352, 340
-0.991889, 233, 289, 296, 320
-0.991926, 257, 273, 320, 304
-0.991944, 137, 277, 200, 308
-0.991964, 337, 177, 368, 240
-0.991966, 185, 221, 248, 252
-0.991966, 153, 113, 184, 176
-0.991998, 393, 97, 456, 224
-0.992002, 345, 177, 408, 208
-0.992002, 161, 297, 224, 328
-0.992013, 193, 65, 320, 128
-0.992028, 313, 305, 376, 336
-0.992046, 193, 341, 256, 372
-0.992051, 341, 161, 372, 288
-0.992054, 241, 121, 304, 152
-0.992077, 217, 185, 280, 216
-0.992082, 337, 133, 400, 164
-0.992105, 9, 129, 72, 192
-0.992119, 329, 165, 392, 196
-0.99214, 245, 81, 276, 208
-0.992141, 217, 209, 280, 272
-0.992142, 41, 161, 104, 288
-0.992142, 185, 321, 248, 352
-0.992151, 1, 225, 128, 352
-0.992159, 129, 233, 192, 264
-0.992169, 185, 129, 248, 160
-0.99217, 265, 309, 328, 340
-0.992177, 177, 89, 304, 152
-0.992179, 273, 113, 336, 144
-0.992207, 297, 109, 360, 140
-0.992208, 329, 97, 392, 128
-0.992216, 129, 221, 192, 252
-0.992225, 1, 153, 500, 216
-0.992229, 253, 273, 284, 336
-0.992238, 65, 313, 192, 373
-0.992245, 281, 225, 344, 256
-0.992268, 209, 257, 240, 320
-0.992284, 217, 257, 280, 288
-0.992293, 361, 189, 424, 220
-0.992309, 121, 209, 184, 240
-0.992315, 129, 69, 192, 100
-0.992337, 213, 1, 244, 64
-0.992337, 369, 89, 400, 152
-0.992337, 129, 117, 192, 148
-0.992403, 289, 341, 352, 372
-0.99241, 385, 145, 448, 176
-0.992428, 281, 65, 312, 192
-0.992428, 345, 81, 376, 208
-0.992435, 193, 185, 224, 248
-0.99244, 129, 265, 192, 296
-0.992452, 265, 329, 328, 360
-0.992459, 169, 117, 232, 148
-0.99248, 177, 137, 208, 168
-0.992525, 369, 129, 432, 160
-0.992526, 121, 145, 152, 208
-0.992528, 273, 33, 400, 96
-0.992542, 129, 245, 192, 276
-0.992544, 117, 97, 148, 224
-0.992565, 281, 245, 344, 276
-0.992566, 201, 309, 264, 340
-0.992574, 345, 305, 408, 368
-0.992617, 209, 1, 272, 32
-0.992619, 401, 193, 464, 224
-0.99262, 305, 129, 368, 160
-0.992625, 137, 49, 168, 176
-0.992634, 241, 1, 304, 64
-0.992643, 273, 209, 336, 240
-0.992649, 181, 185, 212, 216
-0.992655, 225, 153, 480, 216
-0.992658, 49, 153, 112, 216
-0.992666, 361, 93, 424, 124
-0.992679, 217, 53, 280, 84
-0.992681, 361, 153, 392, 216
-0.992695, 217, 193, 248, 320
-0.992698, 209, 221, 272, 252
-0.99271, 145, 313, 208, 344
-0.992721, 285, 285, 316, 316
-0.992727, 393, 9, 456, 40
-0.992747, 353, 317, 416, 348
-0.992749, 289, 97, 352, 128
-0.992762, 97, 313, 160, 344
-0.992763, 169, 49, 232, 80
-0.992778, 345, 297, 408, 328
-0.992796, 137, 301, 200, 332
-0.992798, 273, 177, 304, 304
-0.992801, 245, 153, 276, 184
-0.992805, 249, 301, 280, 332
-0.992806, 201, 273, 264, 304
-0.992806, 97, 305, 352, 368
-0.992809, 285, 133, 316, 164
-0.992809, 161, 249, 224, 280
-0.992809, 129, 97, 192, 128
-0.992809, 201, 197, 264, 228
-0.992812, 273, 85, 336, 116
-0.992816, 361, 285, 424, 316
-0.992817, 165, 201, 196, 232
-0.992822, 225, 233, 288, 264
-0.992825, 321, 213, 352, 244
-0.992829, 165, 173, 196, 204
-0.992832, 309, 153, 340, 184
-0.992833, 345, 209, 376, 336
-0.992834, 1, 153, 256, 216
-0.992835, 181, 173, 212, 204
-0.992835, 273, 277, 304, 308
-0.992837, 205, 193, 236, 256
-0.992837, 265, 41, 328, 104
-0.992845, 137, 289, 200, 320
-0.992846, 97, 157, 160, 188
-0.992846, 121, 81, 184, 112
-0.992847, 293, 105, 324, 168
-0.992854, 257, 1, 288, 128
-0.992862, 261, 185, 292, 216
-0.992866, 217, 225, 248, 256
-0.992867, 137, 1, 168, 128
-0.992869, 237, 301, 268, 332
-0.992878, 253, 173, 284, 204
-0.992889, 265, 165, 296, 196
-0.992892, 325, 105, 356, 168
-0.992893, 269, 289, 300, 320
-0.992894, 369, 273, 432, 304
-0.992898, 181, 201, 212, 232
-0.9929, 189, 281, 220, 312
-0.992906, 121, 329, 184, 360
-0.992911, 313, 325, 376, 356
-0.992923, 105, 181, 168, 212
-0.992924, 337, 65, 400, 128
-0.992926, 317, 193, 348, 224
-0.992927, 145, 1, 208, 32
-0.992929, 361, 113, 424, 144
-0.992929, 161, 325, 224, 356
-0.992933, 241, 313, 304, 344
-0.992934, 169, 105, 232, 136
-0.992935, 145, 165, 176, 196
-0.992937, 361, 81, 424, 112
-0.992939, 313, 181, 344, 212
-0.992942, 165, 161, 196, 192
-0.992945, 185, 9, 248, 40
-0.992945, 313, 169, 344, 200
-0.992946, 225, 241, 256, 272
-0.992952, 257, 149, 288, 180
-0.99296, 233, 157, 264, 188
-0.992967, 221, 301, 252, 332
-0.992979, 257, 273, 500, 336
-0.993001, 197, 169, 228, 200
-0.993002, 217, 253, 248, 284
-0.993014, 345, 121, 376, 184
-0.993024, 149, 177, 180, 208
-0.993029, 161, 189, 192, 220
-0.993062, 329, 257, 360, 288
-0.993065, 285, 273, 316, 304
-0.993066, 337, 193, 400, 256
-0.993076, 281, 333, 312, 364
-0.99308, 317, 309, 348, 340
-0.993085, 229, 325, 260, 356
-0.993094, 297, 297, 328, 328
-0.993105, 229, 253, 260, 284
-0.993106, 341, 173, 372, 204
-0.993112, 197, 137, 228, 168
-0.993114, 305, 137, 336, 168
-0.993116, 245, 341, 276, 372
-0.993119, 325, 297, 356, 328
-0.993133, 173, 285, 204, 316
-0.993134, 329, 157, 360, 188
-0.993135, 273, 185, 304, 216
-0.993138, 353, 161, 384, 192
-0.993143, 297, 181, 328, 212
-0.993151, 377, 149, 408, 180
-0.993162, 277, 309, 308, 340
-0.993164, 285, 121, 316, 152
-0.993168, 325, 233, 356, 264
-0.993169, 185, 161, 216, 192
-0.993172, 201, 305, 232, 336
-0.993184, 257, 289, 288, 320
-0.993187, 337, 289, 368, 320
-0.993187, 149, 209, 180, 240
-0.993194, 329, 181, 360, 212
-0.993197, 293, 161, 324, 192
-0.993197, 265, 301, 296, 332
-0.993201, 349, 149, 380, 180
-0.99322, 393, 193, 424, 224
-0.993226, 173, 265, 204, 296
-0.993227, 289, 145, 320, 176
-0.99323, 149, 197, 180, 228
-0.993232, 329, 169, 360, 200
-0.993234, 145, 153, 176, 184
-0.993234, 305, 209, 336, 272
-0.993238, 197, 193, 228, 224
-0.993239, 165, 129, 196, 160
-0.993242, 313, 297, 344, 328
-0.993242, 293, 309, 324, 340
-0.993242, 193, 293, 224, 324
-0.993244, 113, 49, 240, 112
-0.993247, 273, 321, 304, 352
-0.993251, 293, 321, 324, 352
-0.993255, 213, 337, 244, 368
-0.993261, 397, 141, 428, 172
-0.993261, 389, 173, 420, 204
-0.993263, 313, 105, 344, 136
-0.993263, 149, 221, 180, 252
-0.993267, 241, 1, 272, 128
-0.993269, 313, 285, 344, 316
-0.993269, 277, 169, 308, 200
-0.993277, 297, 109, 328, 140
-0.993278, 361, 1, 424, 373
-0.993279, 205, 153, 236, 184
-0.993282, 397, 129, 428, 192
-0.993284, 325, 105, 356, 136
-0.993291, 381, 161, 412, 192
-0.993294, 293, 337, 324, 368
-0.993298, 333, 273, 364, 304
-0.993298, 361, 57, 424, 120
-0.993302, 249, 185, 280, 216
-0.993307, 165, 81, 196, 208
-0.993311, 213, 237, 244, 268
-0.993312, 217, 165, 248, 196
-0.993313, 349, 177, 380, 240
-0.993318, 153, 265, 184, 296
-0.99332, 409, 249, 472, 312
-0.993325, 341, 161, 372, 192
-0.993325, 209, 325, 240, 356
-0.993326, 229, 337, 260, 368
-0.993329, 197, 181, 228, 212
-0.993334, 1, 97, 64, 224
-0.993335, 177, 125, 208, 156
-0.993338, 161, 281, 192, 312
-0.993348, 265, 137, 296, 168
-0.993349, 349, 273, 380, 304
-0.993351, 333, 145, 364, 176
-0.993357, 277, 149, 308, 180
-0.993358, 189, 125, 220, 156
-0.993361, 325, 245, 356, 276
-0.993365, 169, 213, 200, 244
-0.99337, 133, 185, 164, 216
-0.993375, 17, 121, 144, 184
-0.993382, 305, 221, 336, 252
-0.993382, 241, 313, 272, 344
-0.993383, 329, 193, 360, 224
-0.993384, 157, 117, 188, 148
-0.993385, 253, 329, 284, 360
-0.993387, 285, 297, 316, 328
-0.993394, 269, 117, 300, 148
-0.993395, 305, 125, 336, 156
-0.993398, 205, 293, 236, 324
-0.993398, 365, 153, 396, 184
-0.9934, 65, 161, 128, 288
-0.9934, 353, 173, 384, 204
-0.993402, 309, 241, 340, 272
-0.993403, 129, 165, 160, 196
-0.993404, 337, 301, 368, 332
-0.993404, 349, 273, 380, 336
-0.993406, 301, 209, 332, 240
-0.993409, 225, 313, 256, 344
-0.993412, 161, 1, 192, 128
-0.993413, 325, 285, 356, 316
-0.993414, 285, 185, 316, 216
-0.993415, 361, 285, 392, 316
-0.993416, 341, 185, 372, 216
-0.993418, 269, 341, 300, 372
-0.993423, 257, 177, 500, 240
-0.993425, 153, 253, 184, 284
-0.993427, 249, 197, 280, 228
-0.993444, 17, 169, 80, 232
-0.99348, 209, 89, 272, 152
-0.993487, 245, 169, 276, 232
-0.993512, 137, 73, 168, 136
-0.993561, 353, 249, 480, 312
-0.993605, 433, 241, 496, 368
-0.993616, 33, 281, 288, 344
-0.99364, 161, 177, 192, 304
-0.993663, 105, 73, 168, 136
-0.993669, 105, 1, 168, 64
-0.993736, 237, 241, 268, 368
-0.993748, 301, 129, 332, 192
-0.993775, 301, 81, 332, 144
-0.993787, 177, 165, 304, 196
-0.9938, 225, 129, 480, 192
-0.993827, 1, 241, 64, 368
-0.993827, 289, 9, 416, 72
-0.993907, 97, 113, 352, 176
-0.993908, 305, 1, 368, 128
-0.993947, 361, 313, 392, 373
-0.993964, 217, 49, 280, 176
-0.993975, 277, 193, 308, 256
-0.993976, 341, 89, 372, 152
-0.993998, 113, 157, 240, 188
-0.994015, 1, 161, 128, 224
-0.994046, 193, 105, 224, 168
-0.994053, 225, 129, 256, 192
-0.994058, 1, 193, 256, 256
-0.994098, 353, 249, 384, 312
-0.994119, 205, 57, 236, 120
-0.994133, 393, 1, 456, 64
-0.994151, 81, 153, 144, 216
-0.994162, 225, 209, 480, 272
-0.994179, 209, 217, 240, 280
-0.994197, 353, 225, 480, 288
-0.994212, 185, 49, 248, 176
-0.994235, 133, 145, 164, 208
-0.994295, 325, 137, 356, 200
-0.994301, 189, 313, 220, 373
-0.994316, 401, 1, 464, 256
-0.994351, 97, 65, 352, 128
-0.994395, 221, 57, 252, 120
-0.994397, 81, 25, 208, 88
-0.994411, 105, 1, 168, 373
-0.994412, 225, 81, 256, 208
-0.994415, 317, 65, 348, 192
-0.994471, 213, 281, 244, 344
-0.994476, 97, 65, 160, 320
-0.994482, 285, 273, 300, 336
-0.994486, 193, 1, 224, 64
-0.99451, 369, 97, 496, 160
-0.994517, 345, 209, 376, 272
-0.994522, 409, 273, 472, 336
-0.994541, 325, 161, 356, 224
-0.994544, 329, 1, 392, 373
-0.994551, 189, 65, 220, 192
-0.994553, 369, 57, 496, 120
-0.994597, 97, 41, 352, 104
-0.994604, 1, 265, 500, 328
-0.994612, 345, 249, 408, 312
-0.994618, 81, 73, 208, 136
-0.994651, 149, 1, 180, 128
-0.994666, 241, 285, 368, 316
-0.994677, 225, 157, 352, 188
-0.994693, 137, 193, 168, 256
-0.994762, 209, 325, 336, 356
-0.994778, 361, 289, 392, 352
-0.994816, 305, 173, 432, 204
-0.994828, 1, 233, 500, 296
-0.994859, 389, 65, 420, 192
-0.994859, 389, 297, 420, 360
-0.9949, 249, 201, 312, 264
-0.994921, 161, 1, 192, 64
-0.994933, 297, 185, 328, 248
-0.994989, 405, 113, 436, 240
-0.995025, 33, 217, 288, 280
-0.995033, 469, 305, 500, 368
-0.995043, 149, 1, 180, 64
-0.995053, 337, 17, 464, 144
-0.995083, 365, 241, 396, 368
-0.995116, 225, 89, 480, 152
-0.995131, 145, 229, 272, 260
-0.995138, 283, 161, 298, 224
-0.995143, 177, 65, 208, 192
-0.99519, 209, 81, 240, 208
-0.995193, 33, 121, 96, 184
-0.995199, 49, 97, 176, 160
-0.995205, 195, 169, 210, 232
-0.995213, 193, 281, 320, 312
-0.995237, 1, 257, 256, 320
-0.99524, 225, 177, 352, 208
-0.995241, 129, 173, 256, 204
-0.995243, 257, 153, 272, 216
-0.995244, 1, 257, 128, 320
-0.99525, 1, 313, 128, 373
-0.995253, 145, 145, 272, 176
-0.995258, 381, 113, 412, 240
-0.995258, 361, 129, 392, 256
-0.995263, 315, 305, 330, 368
-0.995269, 293, 289, 308, 352
-0.995341, 305, 201, 432, 232
-0.995344, 145, 185, 272, 216
-0.995358, 257, 65, 288, 192
-0.995369, 245, 177, 276, 304
-0.995371, 201, 161, 216, 224
-0.995372, 97, 313, 160, 373
-0.995376, 269, 97, 300, 160
-0.995401, 1, 289, 500, 352
-0.99545, 305, 189, 432, 220
-0.995486, 401, 1, 464, 373
-0.995489, 401, 129, 464, 373
-0.995497, 325, 305, 340, 368
-0.995508, 193, 305, 320, 336
-0.99551, 209, 337, 336, 368
-0.995512, 345, 225, 408, 288
-0.995536, 297, 17, 360, 80
-0.995591, 289, 157, 416, 188
-0.995613, 1, 177, 500, 240
-0.995615, 393, 89, 424, 152
-0.995627, 403, 185, 418, 248
-0.995632, 113, 121, 144, 184
-0.995637, 305, 237, 432, 268
-0.995647, 257, 273, 384, 304
-0.995652, 289, 145, 416, 176
-0.995663, 157, 57, 188, 120
-0.995694, 97, 1, 352, 64
-0.99571, 345, 297, 376, 360
-0.995723, 161, 169, 176, 232
-0.995729, 193, 209, 224, 272
-0.99573, 257, 233, 500, 296
-0.99578, 145, 213, 272, 244
-0.995793, 337, 33, 400, 160
-0.995804, 1, 129, 256, 192
-0.995825, 225, 229, 352, 260
-0.995825, 321, 277, 448, 308
-0.995839, 329, 273, 344, 336
-0.99584, 287, 305, 302, 368
-0.995848, 321, 177, 336, 240
-0.995851, 277, 153, 292, 216
-0.995874, 165, 105, 196, 168
-0.99588, 163, 217, 178, 280
-0.99588, 1, 209, 500, 272
-0.995908, 1, 313, 256, 373
-0.995929, 9, 105, 72, 168
-0.995933, 145, 241, 272, 272
-0.995944, 241, 121, 272, 184
-0.995958, 305, 221, 432, 252
-0.995961, 97, 89, 352, 152
-0.996013, 191, 145, 206, 208
-0.996033, 293, 313, 308, 373
-0.996034, 149, 297, 180, 360
-0.99604, 245, 193, 276, 256
-0.99604, 125, 145, 156, 272
-0.996043, 433, 305, 496, 368
-0.996066, 305, 289, 320, 352
-0.996082, 317, 153, 332, 216
-0.99609, 321, 289, 448, 320
-0.99611, 249, 297, 264, 360
-0.996113, 237, 33, 268, 96
-0.996116, 169, 233, 200, 296
-0.996131, 293, 241, 324, 368
-0.996145, 265, 177, 280, 240
-0.996165, 289, 133, 416, 164
-0.996166, 337, 1, 464, 64
-0.996177, 321, 265, 448, 296
-0.996179, 299, 289, 314, 352
-0.996185, 409, 193, 472, 320
-0.996196, 145, 201, 272, 232
-0.99623, 33, 185, 160, 248
-0.996254, 169, 153, 184, 216
-0.996267, 93, 113, 124, 240
-0.99627, 321, 253, 448, 284
-0.996274, 279, 273, 294, 336
-0.996279, 401, 49, 464, 112
-0.996292, 357, 81, 388, 208
-0.996296, 399, 161, 414, 224
-0.996297, 193, 25, 224, 88
-0.996318, 225, 213, 352, 244
-0.996318, 1, 313, 64, 373
-0.996321, 225, 241, 352, 272
-0.996363, 225, 189, 352, 220
-0.996369, 353, 89, 384, 152
-0.99637, 145, 337, 272, 368
-0.996372, 193, 293, 320, 324
-0.996387, 97, 141, 224, 172
-0.996418, 187, 169, 202, 232
-0.996419, 331, 297, 346, 360
-0.996425, 41, 225, 104, 352
-0.99643, 129, 309, 256, 340
-0.996438, 229, 129, 260, 373
-0.996439, 369, 1, 432, 64
-0.99644, 215, 305, 230, 368
-0.99645, 373, 297, 404, 360
-0.99646, 271, 153, 286, 216
-0.996461, 257, 241, 288, 368
-0.996481, 393, 49, 456, 176
-0.996483, 325, 201, 340, 264
-0.996489, 223, 217, 238, 280
-0.996509, 129, 285, 256, 316
-0.99652, 231, 297, 246, 360
-0.996527, 321, 73, 352, 136
-0.996533, 33, 289, 160, 352
-0.996533, 177, 269, 304, 300
-0.996536, 321, 33, 448, 96
-0.996539, 257, 305, 272, 368
-0.996541, 1, 129, 500, 192
-0.996547, 241, 305, 256, 368
-0.996548, 101, 313, 132, 373
-0.996551, 361, 153, 376, 216
-0.996554, 377, 33, 440, 96
-0.996618, 105, 41, 168, 104
-0.996619, 221, 257, 252, 320
-0.996632, 257, 177, 272, 240
-0.996633, 129, 321, 256, 352
-0.996636, 65, 169, 192, 200
-0.996637, 129, 297, 256, 328
-0.996644, 405, 153, 436, 216
-0.996652, 269, 257, 300, 320
-0.996655, 153, 49, 184, 176
-0.996663, 169, 73, 200, 136
-0.996668, 253, 65, 284, 128
-0.99668, 201, 137, 216, 200
-0.996683, 267, 297, 282, 360
-0.996686, 409, 225, 472, 288
-0.99669, 309, 121, 324, 184
-0.996694, 133, 121, 164, 184
-0.99671, 275, 177, 290, 240
-0.996723, 247, 161, 262, 224
-0.996733, 433, 273, 496, 336
-0.996734, 177, 133, 304, 164
-0.996736, 167, 249, 182, 312
-0.996738, 225, 297, 240, 360
-0.996742, 299, 121, 314, 184
-0.996755, 177, 129, 192, 192
-0.996756, 369, 81, 400, 208
-0.996761, 105, 113, 136, 240
-0.996772, 207, 297, 222, 360
-0.996776, 305, 301, 432, 332
-0.996778, 185, 137, 200, 200
-0.996789, 273, 321, 400, 352
-0.996807, 315, 201, 330, 264
-0.996816, 285, 185, 300, 248
-0.996818, 81, 197, 208, 228
-0.996824, 163, 193, 178, 256
-0.996831, 257, 309, 384, 340
-0.996834, 241, 297, 368, 328
-0.996838, 297, 265, 312, 328
-0.996842, 241, 265, 256, 328
-0.996848, 409, 209, 424, 272
-0.996851, 225, 145, 352, 176
-0.996861, 351, 169, 366, 232
-0.996862, 241, 253, 368, 284
-0.996862, 225, 57, 480, 120
-0.996875, 1, 193, 64, 256
-0.996881, 1, 89, 256, 152
-0.996883, 169, 97, 200, 352
-0.996892, 147, 177, 162, 240
-0.996895, 195, 281, 210, 344
-0.996896, 323, 265, 338, 328
-0.996897, 201, 281, 216, 344
-0.996903, 217, 129, 248, 373
-0.996904, 393, 113, 424, 240
-0.99691, 171, 273, 186, 336
-0.996929, 283, 137, 298, 200
-0.99693, 291, 265, 306, 328
-0.996958, 369, 25, 496, 88
-0.996958, 211, 169, 226, 232
-0.996959, 305, 145, 320, 208
-0.996966, 273, 289, 288, 352
-0.996986, 1, 105, 500, 168
-0.996988, 289, 129, 304, 192
-0.996996, 49, 157, 176, 188
-0.996998, 319, 225, 334, 288
-0.99701, 125, 49, 156, 176
-0.997018, 193, 17, 448, 80
-0.99705, 293, 97, 324, 352
-0.997051, 355, 145, 370, 208
-0.997068, 145, 257, 272, 288
-0.997069, 177, 121, 304, 152
-0.997076, 325, 153, 340, 216
-0.997087, 201, 185, 216, 248
-0.997105, 33, 1, 160, 64
-0.997109, 329, 225, 344, 288
-0.99711, 257, 109, 384, 140
-0.997119, 177, 1, 192, 64
-0.997134, 137, 145, 152, 208
-0.997144, 339, 289, 354, 352
-0.997152, 225, 133, 352, 164
-0.997154, 289, 121, 416, 152
-0.997167, 263, 153, 278, 216
-0.997172, 81, 209, 208, 240
-0.997187, 305, 93, 432, 124
-0.997187, 273, 337, 400, 368
-0.997191, 251, 137, 266, 200
-0.99723, 81, 237, 208, 268
-0.997238, 311, 177, 326, 240
-0.997251, 239, 241, 254, 304
-0.997254, 81, 181, 208, 212
-0.997255, 331, 161, 346, 224
-0.997267, 229, 1, 260, 128
-0.997268, 257, 181, 272, 212
-0.997291, 335, 265, 350, 328
-0.997299, 295, 97, 310, 160
-0.997305, 97, 129, 224, 160
-0.997342, 189, 281, 204, 344
-0.997343, 219, 265, 234, 328
-0.997349, 345, 161, 360, 224
-0.997355, 281, 97, 312, 352
-0.997359, 231, 225, 246, 288
-0.997364, 225, 201, 352, 232
-0.997389, 309, 313, 324, 373
-0.997404, 145, 17, 272, 48
-0.997417, 81, 221, 208, 252
-0.997431, 299, 313, 314, 373
-0.997432, 375, 89, 390, 152
-0.997452, 231, 161, 246, 224
-0.997453, 279, 297, 294, 360
-0.997468, 171, 201, 186, 264
-0.997471, 283, 173, 298, 204
-0.99748, 369, 153, 496, 184
-0.997494, 141, 169, 156, 232
-0.997495, 191, 113, 206, 176
-0.997502, 329, 49, 360, 176
-0.997545, 201, 305, 216, 368
-0.997556, 357, 177, 388, 304
-0.997558, 361, 129, 376, 192
-0.997569, 177, 281, 192, 344
-0.997581, 345, 89, 360, 152
-0.997591, 17, 65, 144, 192
-0.997594, 153, 193, 168, 256
-0.997598, 255, 153, 270, 184
-0.997608, 337, 97, 352, 160
-0.997612, 257, 129, 288, 373
-0.997616, 225, 161, 240, 224
-0.997621, 241, 153, 256, 216
-0.997622, 273, 265, 288, 328
-0.997637, 37, 113, 68, 240
-0.997639, 305, 129, 336, 373
-0.997643, 105, 313, 120, 373
-0.997654, 145, 5, 272, 36
-0.997656, 323, 105, 338, 168
-0.997658, 401, 1, 416, 64
-0.99766, 343, 137, 358, 200
-0.99766, 337, 169, 352, 232
-0.997667, 113, 273, 240, 304
-0.99767, 191, 193, 206, 256
-0.997677, 315, 129, 330, 192
-0.997697, 393, 153, 408, 216
-0.997697, 239, 241, 254, 272
-0.997703, 129, 113, 256, 144
-0.997715, 195, 1, 210, 64
-0.997717, 147, 153, 162, 216
-0.997722, 155, 169, 170, 232
-0.997725, 269, 129, 300, 373
-0.997727, 207, 193, 222, 256
-0.997727, 225, 241, 240, 304
-0.99773, 387, 129, 402, 192
-0.997733, 335, 193, 350, 256
-0.997748, 225, 225, 240, 256
-0.997756, 207, 273, 222, 336
-0.997761, 273, 277, 288, 308
-0.997772, 315, 273, 330, 336
-0.997775, 287, 277, 302, 308
-0.997777, 209, 77, 336, 108
-0.997778, 179, 257, 194, 320
-0.997787, 325, 129, 340, 192
-0.997791, 185, 193, 200, 256
-0.997796, 139, 65, 154, 128
-0.997808, 283, 105, 298, 168
-0.997811, 209, 97, 336, 128
-0.997812, 257, 81, 384, 112
-0.997814, 305, 97, 320, 160
-0.997815, 81, 249, 208, 280
-0.997822, 355, 121, 370, 184
-0.997834, 317, 65, 348, 320
-0.997834, 239, 129, 254, 192
-0.997836, 327, 297, 342, 328
-0.99784, 179, 105, 194, 168
-0.997852, 337, 129, 464, 160
-0.997853, 213, 273, 228, 336
-0.997854, 191, 173, 206, 204
-0.997855, 251, 301, 266, 332
-0.997858, 365, 305, 380, 368
-0.997862, 257, 97, 384, 128
-0.997863, 369, 89, 384, 152
-0.997869, 241, 253, 256, 284
-0.997891, 325, 217, 340, 248
-0.997896, 321, 201, 336, 232
-0.997897, 209, 33, 336, 64
-0.997904, 209, 9, 336, 40
-0.997911, 1, 9, 256, 72
-0.997912, 185, 129, 216, 373
-0.997916, 291, 333, 306, 364
-0.997934, 185, 185, 200, 216
-0.997944, 287, 185, 302, 216
-0.997964, 389, 1, 420, 256
-0.997965, 179, 129, 194, 160
-0.997971, 209, 49, 336, 80
-0.997993, 297, 281, 312, 312
-0.998001, 285, 289, 300, 320
-0.998004, 57, 113, 88, 240
-0.998006, 233, 229, 248, 260
-0.998006, 129, 57, 256, 88
-0.998009, 205, 1, 236, 256
-0.998018, 319, 185, 334, 216
-0.998025, 303, 293, 318, 324
-0.998032, 241, 129, 272, 373
-0.998039, 305, 105, 432, 136
-0.998042, 259, 169, 274, 200
-0.998047, 209, 65, 336, 96
-0.99805, 277, 161, 292, 192
-0.998052, 1, 97, 128, 160
-0.998075, 145, 29, 272, 60
-0.998076, 65, 325, 192, 356
-0.998078, 281, 277, 296, 308
-0.998093, 405, 197, 420, 228
-0.998098, 153, 129, 184, 373
-0.998109, 243, 305, 258, 336
-0.998114, 333, 169, 348, 200
-0.998123, 197, 173, 212, 204
-0.998123, 17, 225, 144, 288
-0.998143, 317, 165, 332, 196
-0.998148, 193, 185, 208, 216
-0.998149, 1, 313, 500, 373
-0.998153, 295, 125, 310, 156
-0.998164, 369, 321, 496, 352
-0.998166, 319, 301, 334, 332
-0.998171, 357, 169, 372, 200
-0.998176, 1, 81, 500, 144
-0.998179, 225, 297, 240, 328
-0.998188, 129, 69, 256, 100
-0.998188, 369, 285, 496, 316
-0.99821, 215, 305, 230, 336
-0.998211, 309, 133, 324, 164
-0.998213, 403, 185, 418, 216
-0.998214, 377, 1, 440, 128
-0.99822, 159, 181, 174, 212
-0.998221, 163, 217, 178, 248
-0.998222, 1, 49, 500, 112
-0.998228, 229, 249, 244, 280
-0.99823, 275, 289, 290, 320
-0.998238, 185, 173, 200, 204
-0.998239, 397, 241, 428, 368
-0.99824, 205, 129, 236, 373
-0.998244, 337, 141, 464, 172
-0.998254, 321, 321, 448, 352
-0.998263, 293, 293, 308, 324
-0.998266, 81, 261, 208, 292
-0.998268, 249, 153, 264, 184
-0.998271, 417, 241, 448, 368
-0.998272, 401, 5, 416, 36
-0.998278, 369, 189, 496, 220
-0.998283, 297, 341, 312, 372
-0.998289, 347, 169, 362, 200
-0.99829, 293, 309, 308, 340
-0.998291, 101, 161, 132, 288
-0.998295, 313, 153, 328, 184
-0.998302, 201, 189, 216, 220
-0.998303, 159, 169, 174, 200
-0.998304, 329, 309, 344, 340
-0.998311, 263, 185, 278, 216
-0.998312, 325, 177, 340, 208
-0.998313, 273, 61, 400, 92
-0.998314, 169, 265, 184, 296
-0.998316, 329, 233, 344, 264
-0.998317, 219, 221, 234, 252
-0.998318, 49, 49, 176, 112
-0.99832, 253, 165, 268, 196
-0.998323, 271, 177, 286, 208
-0.998324, 287, 309, 302, 340
-0.998327, 225, 121, 352, 152
-0.998332, 187, 137, 202, 168
-0.998335, 193, 197, 208, 228
-0.998336, 257, 305, 272, 336
-0.998339, 161, 45, 288, 76
-0.998339, 201, 195, 232, 210
-0.99834, 245, 165, 276, 180
-0.99834, 197, 167, 228, 182
-0.998341, 273, 173, 304, 188
-0.998342, 165, 1, 196, 256
-0.998342, 341, 181, 372, 196
-0.998343, 189, 295, 220, 310
-0.998343, 281, 337, 312, 352
-0.998343, 221, 303, 252, 318
-0.998344, 293, 189, 324, 204
-0.998345, 329, 159, 360, 174
-0.998345, 249, 33, 280, 288
-0.998346, 329, 179, 360, 194
-0.998347, 337, 191, 368, 206
-0.998348, 325, 247, 356, 262
-0.998349, 305, 131, 336, 146
-0.998349, 321, 229, 352, 244
-0.99835, 393, 193, 424, 208
-0.99835, 189, 135, 220, 150
-0.99835, 193, 141, 224, 156
-0.998351, 237, 247, 268, 262
-0.998351, 333, 291, 364, 306
-0.998352, 203, 165, 218, 196
-0.998352, 233, 159, 264, 174
-0.998352, 353, 149, 368, 180
-0.998353, 377, 241, 408, 368
-0.998354, 329, 129, 360, 373
-0.998355, 337, 167, 368, 182
-0.998355, 249, 185, 280, 200
-0.998356, 293, 179, 324, 194
-0.998356, 349, 169, 380, 184
-0.998356, 265, 277, 296, 292
-0.998356, 201, 303, 232, 318
-0.998356, 229, 353, 260, 368
-0.998356, 169, 287, 200, 302
-0.998357, 285, 141, 316, 156
-0.998357, 289, 321, 304, 352
-0.998357, 321, 235, 352, 250
-0.998358, 253, 197, 284, 212
-0.998358, 333, 283, 364, 298
-0.998358, 149, 193, 180, 208
-0.998359, 265, 355, 296, 370
-0.998359, 213, 297, 244, 312
-0.998359, 253, 297, 284, 312
-0.99836, 297, 357, 328, 372
-0.998361, 329, 173, 360, 188
-0.998361, 329, 271, 360, 286
-0.998363, 225, 329, 256, 344
-0.998364, 245, 153, 276, 168
-0.998364, 161, 175, 192, 190
-0.998364, 237, 253, 268, 268
-0.998364, 193, 179, 224, 194
-0.998364, 281, 275, 312, 290
-0.998365, 277, 301, 308, 316
-0.998365, 241, 157, 256, 188
-0.998365, 169, 215, 200, 230
-0.998366, 361, 157, 376, 188
-0.998368, 285, 349, 316, 364
-0.998368, 317, 179, 348, 194
-0.998369, 325, 241, 356, 256
-0.99837, 293, 309, 324, 324
-0.99837, 329, 265, 360, 280
-0.998371, 349, 175, 380, 190
-0.998371, 317, 307, 348, 322
-0.998372, 309, 151, 340, 166
-0.998373, 285, 129, 316, 144
-0.998374, 271, 157, 286, 188
-0.998377, 149, 181, 180, 196
-0.998377, 173, 133, 204, 148
-0.998379, 221, 237, 236, 268
-0.998379, 277, 195, 308, 210
-0.99838, 173, 277, 204, 292
-0.99838, 149, 187, 180, 202
-0.99838, 353, 163, 384, 178
-0.998381, 313, 165, 344, 180
-0.998381, 293, 335, 324, 350
-0.998381, 163, 197, 178, 228
-0.998382, 305, 145, 336, 160
-0.998382, 317, 211, 348, 226
-0.998385, 269, 293, 300, 308
-0.998387, 173, 145, 204, 160
-0.998387, 377, 147, 408, 162
-0.99839, 245, 353, 276, 368
-0.998392, 235, 301, 250, 332
-0.998392, 201, 201, 232, 216
-0.998393, 245, 171, 276, 186
-0.998394, 265, 285, 296, 300
-0.998396, 225, 259, 256, 274
-0.998398, 269, 167, 300, 182
-0.998399, 393, 147, 424, 162
-0.998399, 309, 171, 340, 186
-0.9984, 189, 207, 220, 222
-0.998402, 273, 349, 304, 364
-0.998404, 197, 157, 212, 188
-0.998405, 165, 191, 196, 206
-0.998406, 369, 177, 496, 208
-0.998406, 261, 157, 292, 172
-0.998406, 237, 301, 268, 316
-0.998407, 221, 233, 252, 248
-0.99841, 301, 341, 332, 356
-0.998411, 301, 297, 332, 312
-0.998412, 81, 1, 144, 373
-0.998412, 339, 289, 354, 320
-0.998412, 209, 21, 336, 52
-0.998413, 273, 179, 304, 194
-0.998413, 317, 301, 348, 316
-0.998414, 297, 321, 312, 352
-0.998418, 321, 223, 352, 238
-0.998419, 145, 169, 176, 184
-0.998419, 273, 307, 304, 322
-0.998421, 149, 175, 180, 190
-0.998423, 129, 85, 256, 116
-0.998425, 169, 197, 200, 212
-0.998425, 169, 209, 200, 224
-0.998425, 333, 293, 348, 324
-0.998426, 257, 151, 288, 166
-0.998429, 305, 305, 336, 320
-0.998429, 249, 303, 280, 318
-0.998429, 285, 287, 316, 302
-0.99843, 289, 297, 320, 312
-0.99843, 285, 135, 316, 150
-0.998431, 161, 203, 192, 218
-0.998435, 317, 205, 348, 220
-0.998436, 185, 1, 216, 256
-0.998436, 309, 157, 340, 172
-0.998441, 293, 1, 324, 256
-0.998442, 277, 281, 308, 296
-0.998443, 293, 303, 324, 318
-0.998444, 261, 33, 292, 288
-0.998445, 395, 153, 410, 184
-0.998445, 195, 281, 210, 312
-0.998448, 153, 191, 216, 206
-0.998449, 167, 157, 182, 188
-0.998451, 229, 165, 260, 180
-0.998451, 273, 185, 304, 200
-0.998452, 185, 185, 216, 200
-0.998455, 317, 185, 348, 200
-0.998457, 225, 337, 240, 368
-0.998459, 145, 33, 176, 288
-0.998459, 253, 191, 284, 206
-0.998463, 261, 157, 276, 188
-0.998463, 185, 191, 216, 206
-0.998465, 185, 201, 200, 232
-0.998465, 329, 193, 344, 224
-0.998466, 169, 181, 200, 196
-0.998466, 321, 217, 352, 232
-0.998467, 273, 183, 336, 198
-0.998469, 241, 185, 304, 200
-0.998469, 317, 195, 348, 210
-0.998473, 189, 281, 204, 312
-0.998475, 185, 283, 216, 298
-0.998476, 81, 117, 208, 148
-0.998476, 281, 343, 312, 358
-0.998478, 265, 297, 280, 328
-0.998481, 45, 161, 76, 288
-0.998484, 245, 159, 276, 174
-0.998485, 221, 239, 252, 254
-0.998485, 257, 163, 288, 178
-0.998485, 173, 139, 204, 154
-0.998486, 217, 227, 248, 242
-0.998493, 261, 173, 292, 188
-0.998493, 161, 201, 224, 216
-0.998493, 265, 301, 296, 316
-0.998494, 265, 191, 296, 206
-0.998495, 1, 17, 500, 80
-0.998495, 153, 179, 216, 194
-0.998495, 337, 153, 352, 184
-0.998498, 329, 157, 344, 188
-0.998499, 313, 305, 328, 336
-0.998501, 233, 159, 296, 174
-0.998501, 273, 307, 336, 322
-0.998503, 49, 145, 176, 176
-0.998505, 225, 253, 256, 268
-0.998507, 181, 175, 212, 190
-0.998508, 181, 201, 212, 216
-0.998509, 225, 247, 256, 262
-0.99851, 171, 277, 186, 308
-0.998511, 337, 181, 352, 212
-0.998511, 309, 293, 324, 324
-0.998511, 261, 179, 292, 194
-0.998514, 305, 81, 432, 112
-0.998515, 323, 153, 338, 184
-0.998517, 343, 157, 358, 188
-0.998517, 265, 173, 280, 204
-0.998519, 331, 213, 346, 244
-0.998519, 227, 237, 242, 268
-0.99852, 221, 253, 236, 284
-0.998522, 217, 167, 280, 182
-0.998522, 261, 185, 292, 200
-0.998524, 401, 141, 416, 172
-0.998524, 235, 253, 250, 284
-0.998528, 241, 191, 304, 206
-0.998531, 153, 185, 216, 200
-0.998532, 335, 201, 350, 232
-0.998532, 273, 143, 336, 158
-0.998532, 369, 301, 496, 332
-0.998532, 289, 283, 352, 298
-0.998533, 207, 297, 222, 328
-0.998535, 353, 181, 368, 212
-0.998537, 315, 201, 330, 232
-0.998539, 297, 303, 360, 318
-0.998542, 367, 157, 382, 188
-0.998544, 257, 299, 320, 314
-0.998544, 81, 5, 208, 36
-0.998544, 147, 173, 162, 204
-0.998546, 161, 207, 224, 222
-0.998546, 265, 163, 328, 178
-0.998547, 177, 191, 240, 206
-0.998548, 209, 109, 336, 140
-0.998549, 257, 177, 320, 192
-0.99855, 281, 177, 344, 192
-0.998551, 161, 283, 224, 298
-0.998552, 307, 117, 322, 148
-0.998555, 281, 145, 296, 176
-0.998555, 257, 193, 272, 224
-0.998556, 165, 249, 180, 280
-0.998559, 273, 157, 336, 172
-0.998562, 241, 171, 304, 186
-0.998564, 339, 301, 354, 332
-0.998565, 297, 157, 360, 172
-0.998566, 289, 277, 352, 292
-0.998566, 169, 229, 232, 244
-0.998566, 265, 169, 328, 184
-0.998567, 161, 159, 224, 174
-0.998568, 233, 305, 296, 320
-0.998569, 289, 297, 352, 312
-0.99857, 233, 333, 248, 364
-0.99857, 305, 185, 368, 200
-0.99857, 257, 151, 320, 166
-0.998571, 273, 195, 336, 210
-0.998572, 153, 173, 216, 188
-0.998572, 161, 217, 224, 232
-0.998573, 257, 289, 320, 304
-0.998574, 285, 333, 300, 364
-0.998574, 249, 341, 264, 372
-0.998579, 177, 185, 240, 200
-0.998579, 97, 97, 224, 128
-0.99858, 193, 145, 208, 176
-0.99858, 319, 229, 334, 260
-0.99858, 281, 189, 344, 204
-0.998581, 321, 105, 336, 136
-0.998581, 201, 281, 216, 312
-0.998582, 161, 143, 224, 158
-0.998582, 1, 65, 256, 128
-0.998582, 277, 185, 292, 216
-0.998586, 305, 167, 368, 182
-0.998587, 275, 341, 290, 372
-0.998587, 401, 169, 416, 200
-0.998587, 193, 237, 256, 252
-0.998588, 305, 175, 368, 190
-0.998591, 321, 279, 384, 294
-0.998592, 289, 291, 352, 306
-0.998592, 273, 341, 336, 356
-0.998593, 177, 175, 240, 190
-0.998594, 201, 301, 264, 316
-0.998594, 81, 289, 208, 320
-0.998594, 233, 153, 296, 168
-0.998594, 179, 285, 194, 316
-0.998598, 321, 297, 384, 312
-0.998599, 281, 133, 344, 148
-0.9986, 161, 153, 224, 168
-0.998601, 209, 245, 272, 260
-0.998603, 297, 143, 360, 158
-0.998603, 201, 255, 264, 270
-0.998603, 305, 193, 368, 208
-0.998604, 257, 347, 320, 362
-0.998605, 129, 195, 192, 210
-0.998605, 313, 243, 376, 258
-0.998606, 345, 145, 408, 160
-0.998607, 297, 149, 360, 164
-0.998608, 267, 285, 282, 316
-0.998608, 217, 317, 280, 332
-0.998608, 313, 231, 376, 246
-0.99861, 161, 277, 224, 292
-0.998611, 313, 223, 376, 238
-0.998611, 321, 269, 384, 284
-0.998612, 201, 137, 216, 168
-0.998614, 313, 237, 376, 252
-0.998614, 217, 331, 280, 346
-0.998615, 305, 203, 368, 218
-0.998616, 145, 137, 208, 152
-0.998617, 137, 167, 200, 182
-0.998617, 231, 317, 246, 348
-0.998618, 265, 341, 280, 372
-0.998618, 319, 313, 334, 344
-0.998619, 225, 345, 288, 360
-0.998619, 321, 285, 384, 300
-0.998621, 257, 283, 320, 298
-0.998622, 217, 185, 280, 200
-0.998624, 169, 235, 232, 250
-0.998625, 163, 229, 178, 260
-0.998625, 121, 189, 184, 204
-0.998627, 241, 353, 304, 368
-0.998627, 305, 209, 368, 224
-0.998628, 169, 137, 232, 152
-0.998629, 161, 223, 224, 238
-0.998629, 1, 341, 128, 372
-0.998629, 177, 309, 240, 324
-0.998629, 203, 201, 218, 232
-0.998629, 281, 271, 344, 286
-0.99863, 305, 215, 368, 230
-0.998631, 161, 165, 224, 180
-0.998631, 233, 179, 296, 194
-0.998631, 231, 165, 246, 196
-0.998631, 129, 173, 192, 188
-0.998632, 225, 299, 288, 314
-0.998633, 129, 181, 192, 196
-0.998634, 313, 261, 376, 276
-0.998634, 217, 325, 280, 340
-0.998635, 369, 149, 432, 164
-0.998636, 121, 155, 184, 170
-0.998636, 257, 137, 320, 152
-0.998637, 209, 231, 272, 246
-0.998637, 217, 191, 280, 206
-0.998638, 201, 161, 264, 176
-0.998639, 193, 197, 256, 212
-0.998641, 129, 149, 192, 164
-0.998642, 273, 201, 336, 216
-0.998643, 225, 339, 288, 354
-0.998643, 401, 1, 432, 256
-0.998644, 209, 307, 272, 322
-0.998644, 345, 151, 408, 166
-0.998644, 193, 167, 256, 182
-0.998645, 321, 291, 384, 306
-0.998645, 241, 165, 304, 180
-0.998646, 305, 309, 368, 324
-0.998649, 217, 199, 280, 214
-0.99865, 249, 197, 312, 212
-0.99865, 161, 291, 224, 306
-0.998651, 241, 311, 304, 326
-0.998652, 361, 129, 424, 144
-0.998652, 57, 1, 120, 373
-0.998653, 121, 201, 184, 216
-0.998653, 257, 277, 320, 292
-0.998654, 185, 321, 248, 336
-0.998655, 185, 207, 248, 222
-0.998655, 313, 251, 376, 266
-0.998655, 177, 63, 240, 78
-0.998656, 193, 153, 256, 168
-0.998656, 169, 241, 232, 256
-0.998657, 121, 161, 184, 176
-0.998661, 345, 139, 408, 154
-0.998662, 201, 355, 264, 370
-0.998662, 137, 131, 200, 146
-0.998663, 281, 127, 344, 142
-0.998663, 113, 167, 176, 182
-0.998663, 233, 147, 296, 162
-0.998664, 137, 285, 200, 300
-0.998666, 209, 225, 272, 240
-0.998667, 161, 269, 224, 284
-0.998667, 321, 151, 384, 166
-0.998668, 249, 325, 312, 340
-0.998675, 237, 33, 268, 288
-0.998695, 361, 65, 392, 320
-0.998708, 145, 101, 272, 132
-0.998722, 289, 41, 416, 72
-0.998724, 49, 129, 176, 160
-0.99874, 341, 97, 372, 352
-0.998747, 65, 337, 192, 368
-0.998758, 321, 9, 448, 40
-0.998772, 133, 97, 164, 352
-0.998783, 221, 1, 252, 256
-0.998802, 1, 165, 128, 196
-0.998808, 353, 201, 480, 232
-0.998821, 353, 241, 480, 272
-0.998897, 81, 313, 208, 344
-0.998909, 273, 1, 304, 256
-0.998913, 321, 333, 448, 364
-0.998916, 305, 1, 336, 256
-0.998928, 81, 301, 208, 332
-0.998928, 323, 225, 338, 352
-0.998934, 369, 117, 496, 148
-0.998935, 1, 153, 128, 184
-0.998945, 369, 9, 496, 40
-0.998957, 413, 161, 444, 288
-0.99896, 353, 165, 480, 196
-0.998967, 289, 29, 416, 60
-0.998977, 353, 229, 480, 260
-0.998992, 69, 113, 100, 240
-0.999014, 113, 45, 240, 76
-0.999024, 17, 145, 48, 272
-0.999024, 171, 129, 186, 256
-0.999033, 369, 337, 496, 368
-0.999034, 193, 129, 208, 256
-0.999055, 161, 145, 176, 272
-0.999063, 281, 129, 296, 256
-0.999086, 113, 161, 144, 288
-0.99909, 187, 113, 202, 240
-0.999092, 229, 241, 244, 368
-0.999092, 1, 33, 256, 96
-0.999095, 291, 113, 306, 240
-0.999096, 221, 161, 236, 288
-0.999111, 97, 17, 224, 48
-0.999118, 389, 1, 420, 128
-0.999132, 165, 209, 180, 336
-0.999133, 221, 209, 236, 336
-0.999155, 337, 57, 464, 88
-0.999167, 317, 97, 332, 224
-0.99917, 1, 117, 128, 148
-0.999175, 325, 145, 340, 272
-0.99918, 65, 277, 192, 308
-0.999187, 353, 81, 480, 112
-0.999188, 289, 17, 320, 144
-0.999196, 1, 141, 128, 172
-0.999206, 227, 161, 242, 288
-0.999217, 121, 65, 152, 320
-0.999221, 1, 1, 64, 373
-0.999224, 259, 129, 274, 256
-0.999233, 393, 129, 424, 373
-0.999246, 65, 225, 128, 352
-0.999247, 199, 113, 214, 240
-0.999256, 215, 241, 230, 368
-0.999267, 309, 113, 324, 240
-0.999269, 171, 241, 186, 368
-0.999271, 105, 241, 168, 368
-0.999271, 133, 1, 164, 256
-0.99929, 333, 209, 348, 336
-0.999291, 141, 241, 172, 368
-0.999303, 173, 1, 188, 128
-0.999303, 403, 161, 418, 288
-0.999306, 317, 209, 332, 336
-0.999308, 233, 145, 248, 272
-0.999319, 193, 1, 208, 128
-0.999321, 197, 241, 212, 368
-0.999327, 151, 177, 166, 304
-0.999334, 271, 97, 286, 224
-0.999346, 243, 145, 258, 272
-0.999348, 209, 1, 224, 128
-0.999348, 323, 97, 338, 224
-0.999353, 181, 129, 196, 256
-0.999372, 343, 97, 358, 224
-0.999372, 193, 177, 208, 304
-0.999373, 337, 1, 368, 256
-0.999385, 187, 1, 202, 128
-0.999388, 345, 193, 408, 320
-0.999389, 187, 177, 202, 304
-0.999391, 137, 113, 152, 240
-0.999395, 299, 113, 314, 240
-0.999398, 309, 65, 324, 192
-0.999398, 235, 225, 250, 352
-0.999401, 333, 81, 348, 208
-0.999405, 143, 97, 158, 224
-0.999409, 217, 1, 232, 128
-0.999412, 283, 241, 298, 368
-0.999417, 409, 177, 424, 304
-0.999417, 319, 161, 334, 288
-0.99942, 253, 113, 268, 240
-0.999423, 251, 161, 266, 288
-0.999431, 211, 161, 226, 288
-0.999436, 311, 161, 326, 288
-0.999446, 281, 81, 296, 208
-0.99945, 271, 145, 286, 272
-0.99945, 139, 49, 154, 176
-0.999451, 301, 65, 316, 192
-0.999454, 381, 129, 412, 373
-0.999456, 161, 97, 176, 224
-0.999461, 203, 161, 218, 288
-0.999468, 199, 1, 214, 128
-0.999469, 281, 193, 296, 320
-0.999472, 155, 129, 170, 256
-0.999476, 177, 193, 192, 320
-0.999476, 353, 129, 368, 256
-0.999476, 289, 65, 304, 192
-0.999491, 373, 33, 404, 288
-0.999491, 193, 81, 208, 208
-0.999493, 265, 161, 280, 288
-0.999493, 347, 161, 362, 288
-0.999499, 295, 241, 310, 368
-0.999499, 289, 241, 304, 368
-0.999503, 331, 161, 346, 288
-0.999503, 265, 97, 280, 224
-0.999505, 271, 241, 286, 368
-0.999518, 181, 1, 196, 128
-0.999518, 207, 209, 222, 336
-0.999525, 149, 129, 164, 256
-0.999527, 149, 1, 164, 128
-0.999532, 157, 193, 172, 320
-0.999532, 227, 1, 242, 128
-0.999534, 213, 113, 228, 240
-0.999535, 351, 81, 366, 208
-0.999543, 257, 1, 272, 128
-0.999545, 339, 145, 354, 272
-0.999549, 171, 193, 186, 320
-0.999549, 81, 113, 112, 240
-0.999558, 271, 167, 286, 182
-0.999559, 223, 61, 238, 76
-0.99956, 277, 307, 292, 322
-0.99956, 151, 173, 166, 188
-0.99956, 333, 187, 348, 202
-0.99956, 233, 247, 248, 262
-0.999561, 143, 161, 158, 288
-0.999561, 201, 185, 216, 200
-0.999562, 289, 343, 304, 358
-0.999562, 199, 281, 214, 296
-0.999563, 289, 327, 304, 342
-0.999563, 259, 355, 274, 370
-0.999563, 291, 187, 306, 202
-0.999563, 273, 295, 288, 310
-0.999563, 163, 207, 178, 222
-0.999564, 245, 301, 260, 316
-0.999564, 163, 219, 178, 234
-0.999564, 327, 241, 342, 256
-0.999565, 179, 281, 194, 296
-0.999565, 235, 347, 250, 362
-0.999566, 287, 311, 302, 326
-0.999566, 221, 239, 236, 254
-0.999566, 131, 81, 146, 208
-0.999567, 191, 181, 206, 196
-0.999567, 405, 191, 420, 206
-0.999567, 235, 303, 250, 318
-0.999567, 287, 193, 302, 208
-0.999568, 297, 299, 312, 314
-0.999569, 271, 159, 286, 174
-0.999569, 347, 181, 362, 196
-0.999569, 325, 235, 340, 250
-0.99957, 389, 147, 404, 162
-0.99957, 399, 113, 414, 240
-0.99957, 187, 225, 202, 352
-0.99957, 299, 285, 314, 300
-0.99957, 207, 299, 222, 314
-0.999571, 159, 177, 174, 192
-0.999572, 247, 97, 262, 224
-0.999572, 197, 141, 212, 156
-0.999572, 277, 157, 292, 172
-0.999573, 281, 277, 296, 292
-0.999574, 283, 295, 298, 310
-0.999574, 265, 187, 280, 202
-0.999575, 365, 81, 380, 208
-0.999575, 201, 209, 216, 224
-0.999575, 183, 209, 198, 224
-0.999576, 233, 231, 248, 246
-0.999576, 215, 301, 230, 316
-0.999577, 313, 167, 328, 182
-0.999577, 353, 163, 368, 178
-0.999578, 329, 195, 344, 210
-0.999578, 187, 141, 202, 156
-0.999578, 313, 159, 328, 174
-0.999578, 233, 193, 264, 320
-0.999578, 359, 161, 374, 288
-0.999579, 335, 291, 350, 306
-0.999579, 407, 207, 422, 222
-0.99958, 405, 113, 420, 240
-0.99958, 307, 133, 322, 148
-0.999581, 269, 357, 284, 372
-0.999581, 239, 259, 254, 274
-0.999581, 229, 255, 244, 270
-0.999581, 249, 351, 264, 366
-0.999582, 225, 299, 240, 314
-0.999582, 321, 211, 336, 226
-0.999583, 299, 347, 314, 362
-0.999584, 287, 177, 302, 304
-0.999585, 167, 81, 182, 208
-0.999585, 297, 127, 312, 142
-0.999585, 183, 203, 198, 218
-0.999586, 177, 129, 192, 144
-0.999587, 295, 331, 310, 346
-0.999587, 281, 289, 296, 304
-0.999589, 351, 173, 366, 188
-0.99959, 277, 165, 292, 180
-0.999591, 319, 193, 334, 208
-0.999593, 401, 7, 416, 22
-0.999594, 405, 201, 420, 216
-0.999595, 413, 225, 428, 352
-0.999596, 319, 187, 334, 202
-0.999596, 305, 303, 320, 318
-0.999597, 243, 241, 258, 368
-0.999597, 291, 297, 306, 312
-0.999597, 265, 173, 280, 188
-0.999598, 277, 241, 292, 368
-0.999598, 279, 301, 294, 316
-0.999598, 239, 353, 254, 368
-0.999599, 295, 341, 310, 356
-0.9996, 179, 137, 194, 152
-0.999601, 255, 163, 270, 178
-0.999601, 301, 291, 316, 306
-0.999601, 227, 239, 242, 254
-0.999601, 201, 191, 216, 206
-0.999601, 241, 81, 256, 208
-0.999602, 287, 277, 302, 292
-0.999603, 297, 305, 312, 320
-0.999604, 321, 199, 336, 214
-0.999606, 275, 185, 290, 200
-0.999606, 277, 179, 292, 194
-0.999606, 359, 97, 374, 224
-0.999607, 157, 169, 172, 184
-0.999607, 259, 197, 274, 212
-0.999607, 195, 193, 210, 208
-0.999608, 357, 209, 372, 336
-0.999608, 367, 129, 382, 256
-0.999609, 357, 177, 372, 192
-0.99961, 185, 175, 200, 190
-0.99961, 323, 217, 338, 232
-0.999611, 179, 81, 194, 208
-0.999613, 295, 65, 310, 192
-0.999616, 291, 289, 306, 304
-0.999616, 289, 337, 304, 352
-0.999616, 281, 345, 296, 360
-0.999617, 267, 1, 282, 128
-0.999618, 321, 205, 336, 220
-0.999618, 227, 247, 242, 262
-0.999619, 397, 1, 412, 128
-0.99962, 275, 285, 290, 300
-0.999621, 367, 209, 382, 336
-0.999621, 235, 237, 250, 252
-0.999622, 195, 187, 210, 202
-0.999623, 259, 171, 274, 186
-0.999624, 185, 181, 200, 196
-0.999625, 221, 255, 236, 270
-0.999625, 279, 171, 294, 186
-0.999626, 325, 227, 340, 242
-0.999629, 251, 157, 266, 172
-0.999631, 269, 179, 284, 194
-0.999632, 251, 1, 266, 128
-0.999633, 397, 147, 412, 162
-0.999637, 203, 201, 218, 216
-0.999638, 241, 161, 256, 176
-0.999639, 185, 197, 200, 212
-0.999639, 257, 177, 272, 304
-0.99964, 225, 229, 240, 244
-0.99964, 271, 173, 286, 188
-0.999641, 271, 277, 286, 292
-0.999644, 179, 241, 194, 368
-0.999644, 261, 179, 276, 194
-0.999645, 187, 65, 202, 192
-0.999648, 397, 161, 412, 288
-0.99965, 411, 129, 426, 256
-0.999651, 315, 305, 330, 320
-0.999652, 275, 351, 290, 366
-0.999653, 303, 297, 318, 312
-0.999655, 187, 191, 202, 206
-0.999656, 223, 113, 238, 240
-0.999659, 339, 241, 354, 368
-0.999663, 285, 303, 300, 318
-0.999663, 193, 199, 208, 214
-0.999663, 195, 175, 210, 190
-0.999665, 139, 1, 154, 128
-0.999666, 301, 241, 316, 368
-0.99967, 199, 65, 214, 192
-0.99967, 321, 305, 336, 320
-0.999671, 311, 241, 326, 368
-0.999672, 25, 97, 88, 352
-0.999672, 257, 155, 272, 170
-0.999674, 251, 301, 266, 316
-0.999676, 107, 113, 122, 240
-0.999677, 349, 241, 364, 368
-0.999679, 343, 49, 358, 176
-0.999681, 339, 193, 354, 320
-0.999684, 329, 299, 344, 314
-0.999688, 371, 81, 386, 208
-0.999689, 403, 65, 418, 192
-0.99969, 261, 49, 276, 176
-0.999692, 155, 1, 170, 128
-0.999693, 265, 241, 280, 368
-0.999695, 259, 185, 274, 200
-0.999695, 229, 81, 244, 208
-0.999702, 145, 49, 160, 176
-0.999703, 283, 179, 298, 194
-0.999703, 167, 1, 182, 128
-0.999706, 235, 97, 250, 224
-0.99971, 273, 1, 288, 128
-0.999711, 239, 247, 254, 262
-0.999715, 33, 73, 160, 136
-0.999718, 155, 81, 170, 208
-0.999719, 243, 253, 258, 268
-0.999727, 257, 191, 272, 206
-0.999755, 1, 97, 64, 352
-0.999767, 25, 1, 88, 373
-0.999786, 285, 187, 300, 202
-0.999825, 349, 1, 380, 256
-0.999883, 1, 145, 32, 272
-0.999915, 409, 97, 440, 352
-0.99992, 81, 65, 144, 192
-0.999923, 401, 65, 432, 192
-0.999962, 77, 161, 108, 288
-1.00017, 61, 161, 92, 288
-1.00019, 137, 193, 168, 320
-1.00022, 413, 1, 444, 256
-1.00026, 109, 97, 140, 352
-1.0003, 37, 97, 68, 352
-1.0003, 309, 17, 340, 144
-1.00032, 469, 129, 500, 373
-1.00032, 349, 33, 380, 160
-1.00035, 285, 193, 316, 320
-1.00036, 125, 1, 156, 128
-1.0004, 25, 97, 56, 352
-1.00042, 1, 97, 32, 352
-1.00044, 93, 97, 124, 352
-1.00045, 425, 1, 488, 373
-1.00047, 109, 1, 140, 256
-1.00052, 421, 129, 452, 373
-1.00056, 13, 129, 44, 373
-1.0006, 449, 33, 480, 288
-1.00063, 97, 1, 128, 256
-1.00063, 9, 241, 40, 368
-1.00065, 401, 1, 464, 128
-1.00066, 269, 1, 300, 128
-1.00066, 9, 97, 40, 224
-1.00071, 25, 97, 56, 224
-1.00071, 425, 1, 456, 256
-1.00072, 53, 97, 84, 352
-1.00073, 85, 1, 116, 256
-1.00073, 89, 177, 120, 304
-1.00074, 73, 1, 136, 256
-1.00079, 17, 1, 48, 256
-1.00079, 73, 97, 104, 352
-1.0008, 461, 33, 492, 288
-1.00082, 441, 129, 472, 373
-1.00082, 437, 1, 468, 256
-1.00087, 73, 97, 136, 352
-1.00091, 73, 1, 104, 256
-1.00093, 53, 1, 84, 256
-1.00095, 33, 1, 64, 256
-1.00095, 457, 129, 488, 373
-1.00108, 5, 1, 36, 256
-1.00114, 413, 49, 444, 176
-1.00119, 377, 161, 408, 288
-1.00122, 61, 241, 92, 368
-1.00125, 113, 1, 144, 128
-1.00134, 29, 225, 60, 352
-1.00136, 9, 193, 40, 320
-1.00159, 377, 33, 408, 160
-1.00191, 33, 25, 160, 88
-1.00205, 29, 161, 60, 288
-1.00208, 41, 225, 72, 352
-1.0024, 49, 1, 112, 256
-1.00244, 469, 113, 500, 240
-1.0025, 121, 225, 152, 352
-1.00256, 1, 49, 128, 112
-1.00261, 101, 1, 132, 128
-1.00264, 409, 1, 440, 128
-1.00269, 433, 145, 496, 272
-1.00279, 425, 65, 456, 192
-1.00284, 77, 225, 108, 352
-1.00286, 113, 49, 144, 176
-1.00304, 1, 1, 64, 256
-1.00354, 49, 97, 112, 352
-1.00366, 417, 49, 480, 176
-1.00383, 73, 1, 136, 128
-1.00424, 57, 65, 120, 192
-1.00425, 425, 1, 488, 128
-1.00493, 433, 193, 496, 320
-1.00495, 25, 1, 88, 256
-1.00544, 433, 129, 496, 373
-1.00558, 433, 33, 496, 288
-1.00564, 433, 97, 496, 224
-1.00622, 33, 65, 96, 192
-1.00772, 1, 17, 128, 144
-1.00791, 1, 49, 64, 176
-1.01132, 41, 17, 104, 144
-1.01191, 17, 1, 80, 128
